1908
-0.342403, 1, 97, 330, 352
-0.361269, 1, 1, 330, 500
-0.481622, 65, 1, 320, 500
-0.515868, 1, 193, 330, 448
-0.543325, 65, 33, 320, 288
-0.555109, 1, 1, 330, 256
-0.621804, 65, 129, 320, 384
-0.707778, 65, 225, 320, 480
-0.846494, 145, 97, 272, 352
-0.858157, 193, 129, 320, 384
-0.86316, 1, 97, 330, 224
-0.872065, 177, 1, 304, 500
-0.873217, 193, 33, 320, 288
-0.874403, 81, 65, 208, 320
-0.874456, 81, 193, 208, 448
-0.879046, 129, 1, 256, 500
-0.879979, 209, 225, 330, 480
-0.882577, 17, 97, 144, 352
-0.890521, 129, 193, 256, 448
-0.892827, 65, 161, 320, 288
-0.894033, 145, 1, 272, 256
-0.900706, 33, 97, 288, 224
-0.90465, 1, 193, 330, 320
-0.905216, 1, 145, 330, 272
-0.909569, 65, 49, 320, 176
-0.91008, 81, 1, 208, 500
-0.917544, 33, 193, 160, 448
-0.92416, 33, 209, 288, 336
-0.924394, 209, 145, 330, 272
-0.933638, 1, 321, 330, 448
-0.934119, 49, 97, 176, 224
-0.936675, 1, 49, 330, 176
-0.936938, 81, 81, 144, 208
-0.937202, 81, 177, 208, 304
-0.937612, 97, 161, 160, 288
-0.940049, 1, 1, 128, 500
-0.94155, 33, 1, 160, 256
-0.943516, 241, 161, 304, 288
-0.9449, 145, 177, 272, 304
-0.945334, 105, 81, 168, 208
-0.945758, 233, 65, 296, 192
-0.946035, 1, 257, 330, 384
-0.946582, 145, 97, 272, 224
-0.947584, 193, 49, 320, 176
-0.948042, 209, 65, 272, 192
-0.948247, 217, 145, 280, 272
-0.948334, 113, 81, 176, 144
-0.948631, 33, 337, 288, 464
-0.948717, 113, 49, 240, 176
-0.949201, 177, 65, 240, 192
-0.950674, 193, 65, 256, 128
-0.953174, 129, 81, 192, 208
-0.953205, 225, 153, 288, 216
-0.954781, 265, 65, 328, 192
-0.955007, 121, 161, 184, 288
-0.955194, 241, 57, 304, 120
-0.956134, 57, 97, 120, 224
-0.957099, 137, 81, 200, 144
-0.957324, 73, 97, 136, 160
-0.957546, 1, 129, 128, 256
-0.958032, 161, 65, 224, 128
-0.95836, 81, 241, 208, 368
-0.9584, 161, 321, 288, 448
-0.959657, 121, 241, 184, 368
-0.959684, 89, 257, 152, 384
-0.960633, 1, 121, 64, 184
-0.960666, 1, 289, 256, 416
-0.960684, 89, 193, 152, 256
-0.960706, 145, 225, 272, 352
-0.961107, 97, 97, 224, 224
-0.962152, 97, 225, 160, 288
-0.96243, 89, 209, 152, 336
-0.962972, 201, 161, 264, 224
-0.963501, 169, 321, 232, 448
-0.96392, 113, 185, 176, 248
-0.964789, 249, 113, 312, 240
-0.964842, 193, 241, 320, 368
-0.965101, 153, 81, 216, 208
-0.965216, 209, 129, 272, 192
-0.965674, 233, 129, 296, 384
-0.966444, 33, 209, 160, 336
-0.96654, 97, 265, 160, 328
-0.966653, 205, 65, 236, 128
-0.966753, 33, 113, 96, 240
-0.966753, 265, 177, 328, 304
-0.966914, 265, 161, 328, 224
-0.967115, 81, 289, 208, 416
-0.967196, 113, 105, 176, 168
-0.967671, 193, 97, 320, 224
-0.967804, 177, 89, 240, 152
-0.967804, 105, 65, 168, 320
-0.967885, 49, 105, 112, 168
-0.968045, 249, 225, 312, 352
-0.968102, 49, 129, 112, 192
-0.968304, 209, 185, 272, 248
-0.968328, 193, 161, 320, 224
-0.968493, 65, 241, 128, 368
-0.96852, 25, 113, 88, 176
-0.96879, 269, 57, 300, 120
-0.968794, 137, 321, 200, 448
-0.968831, 217, 65, 280, 128
-0.969152, 181, 65, 212, 128
-0.969345, 137, 81, 168, 144
-0.969656, 233, 217, 296, 280
-0.969681, 109, 97, 140, 224
-0.969832, 221, 65, 252, 128
-0.970056, 225, 241, 288, 368
-0.9701, 193, 321, 256, 448
-0.970278, 65, 193, 128, 320
-0.970462, 193, 193, 320, 320
-0.970506, 217, 97, 280, 160
-0.970589, 105, 161, 168, 224
-0.970636, 9, 121, 40, 184
-0.970665, 217, 33, 280, 288
-0.970721, 161, 145, 224, 272
-0.971082, 193, 113, 256, 240
-0.971379, 161, 337, 224, 400
-0.9714, 105, 33, 168, 160
-0.971514, 201, 225, 264, 352
-0.971555, 161, 65, 288, 128
-0.971621, 97, 161, 160, 416
-0.971804, 221, 89, 252, 152
-0.971922, 233, 17, 296, 144
-0.971962, 145, 33, 208, 160
-0.972047, 209, 129, 272, 384
-0.972097, 193, 17, 256, 144
-0.972433, 209, 289, 330, 416
-0.972508, 265, 57, 328, 120
-0.972515, 193, 161, 256, 288
-0.97278, 205, 65, 236, 192
-0.973094, 81, 169, 144, 232
-0.973097, 209, 185, 330, 248
-0.973499, 145, 209, 208, 336
-0.973556, 193, 1, 320, 128
-0.973615, 33, 105, 160, 168
-0.973648, 249, 241, 312, 304
-0.973738, 161, 33, 224, 288
-0.973918, 193, 65, 224, 128
-0.973994, 185, 49, 216, 176
-0.97404, 117, 89, 148, 152
-0.974052, 265, 137, 328, 200
-0.974076, 241, 65, 272, 192
-0.974121, 193, 337, 256, 400
-0.974144, 81, 201, 208, 264
-0.974367, 237, 65, 268, 128
-0.974504, 121, 161, 184, 416
-0.974915, 81, 121, 144, 184
-0.975029, 233, 321, 296, 384
-0.975115, 97, 177, 128, 304
-0.975363, 45, 113, 76, 176
-0.975488, 145, 209, 272, 272
-0.975624, 1, 145, 64, 208
-0.975694, 1, 1, 330, 128
-0.975742, 81, 65, 144, 320
-0.975765, 121, 209, 184, 272
-0.975871, 241, 81, 304, 144
-0.976028, 89, 97, 120, 160
-0.976108, 77, 97, 108, 160
-0.976161, 121, 249, 184, 312
-0.976186, 133, 177, 164, 304
-0.976243, 97, 97, 128, 224
-0.976251, 73, 273, 136, 336
-0.976322, 253, 49, 284, 176
-0.976539, 261, 161, 292, 288
-0.976624, 241, 33, 304, 288
-0.976749, 253, 65, 284, 128
-0.97691, 213, 161, 244, 224
-0.977043, 129, 161, 256, 224
-0.977104, 121, 97, 152, 224
-0.977175, 209, 65, 330, 128
-0.977188, 137, 329, 200, 392
-0.977401, 209, 337, 330, 464
-0.977553, 269, 65, 300, 192
-0.977558, 233, 129, 296, 192
-0.977614, 185, 129, 248, 192
-0.977633, 105, 97, 136, 160
-0.977639, 265, 185, 328, 248
-0.977697, 65, 49, 192, 176
-0.977697, 17, 129, 144, 192
-0.977871, 265, 65, 328, 320
-0.977915, 161, 73, 192, 136
-0.977919, 137, 81, 168, 208
-0.977977, 225, 113, 256, 240
-0.978, 233, 153, 264, 216
-0.978065, 57, 105, 88, 168
-0.978121, 177, 169, 240, 232
-0.978179, 9, 97, 72, 224
-0.978334, 257, 161, 320, 416
-0.978398, 113, 73, 240, 136
-0.978411, 97, 241, 128, 368
-0.978456, 201, 225, 264, 288
-0.978678, 169, 273, 232, 400
-0.978935, 1, 81, 128, 208
-0.979058, 77, 81, 108, 208
-0.979152, 137, 65, 200, 320
-0.979173, 25, 121, 56, 184
-0.979225, 81, 225, 208, 288
-0.979259, 221, 65, 252, 192
-0.979467, 145, 185, 272, 248
-0.979655, 73, 33, 136, 160
-0.97967, 57, 233, 120, 296
-0.979728, 161, 193, 224, 256
-0.979736, 81, 177, 208, 240
-0.979837, 233, 289, 296, 416
-0.97993, 265, 337, 328, 400
-0.980033, 249, 153, 280, 216
-0.980078, 241, 89, 272, 152
-0.980263, 265, 217, 328, 280
-0.980321, 81, 97, 208, 160
-0.98035, 113, 289, 176, 416
-0.980373, 277, 161, 308, 288
-0.980646, 241, 177, 304, 240
-0.980677, 237, 145, 268, 272
-0.980908, 145, 233, 272, 296
-0.980908, 81, 73, 144, 136
-0.980932, 289, 161, 320, 224
-0.98095, 33, 273, 160, 400
-0.98096, 145, 177, 176, 304
-0.981023, 101, 273, 132, 336
-0.981042, 9, 113, 40, 240
-0.98113, 97, 289, 160, 352
-0.981138, 161, 313, 224, 376
-0.98125, 233, 225, 296, 480
-0.981464, 221, 129, 252, 192
-0.981526, 117, 177, 148, 304
-0.981622, 25, 137, 88, 200
-0.981627, 145, 337, 272, 400
-0.98164, 225, 249, 288, 312
-0.981649, 209, 225, 272, 480
-0.981655, 57, 169, 120, 232
-0.981683, 185, 201, 248, 264
-0.981712, 165, 329, 196, 392
-0.981811, 73, 145, 136, 272
-0.981901, 209, 145, 240, 272
-0.982083, 169, 321, 200, 448
-0.982218, 81, 249, 208, 312
-0.982272, 101, 185, 132, 248
-0.982384, 137, 177, 200, 240
-0.982571, 185, 33, 248, 288
-0.982691, 73, 161, 136, 416
-0.982729, 97, 121, 128, 184
-0.982758, 177, 89, 304, 152
-0.982802, 33, 233, 160, 296
-0.98285, 113, 337, 240, 464
-0.982899, 121, 1, 184, 500
-0.982992, 81, 145, 144, 208
-0.983014, 193, 41, 256, 104
-0.983016, 133, 177, 164, 240
-0.983072, 145, 105, 208, 168
-0.983166, 145, 217, 208, 280
-0.983172, 265, 161, 296, 224
-0.983231, 129, 153, 192, 216
-0.983255, 221, 161, 252, 288
-0.983299, 121, 265, 152, 328
-0.983305, 65, 1, 320, 128
-0.983313, 209, 337, 330, 400
-0.983322, 57, 97, 88, 224
-0.98345, 209, 209, 330, 272
-0.983487, 189, 89, 220, 152
-0.983579, 145, 137, 272, 200
-0.983657, 133, 257, 164, 320
-0.983662, 281, 345, 312, 408
-0.983708, 233, 345, 296, 408
-0.983828, 209, 89, 240, 152
-0.983866, 261, 129, 292, 192
-0.984078, 149, 81, 180, 144
-0.984086, 145, 1, 208, 500
-0.984218, 97, 1, 224, 128
-0.984285, 109, 161, 140, 224
-0.984323, 25, 89, 88, 152
-0.98441, 193, 137, 320, 200
-0.98448, 185, 313, 248, 376
-0.984483, 129, 97, 256, 160
-0.984498, 221, 185, 252, 248
-0.984507, 277, 225, 308, 288
-0.984508, 233, 113, 264, 176
-0.984603, 105, 137, 168, 200
-0.984607, 113, 257, 176, 500
-0.984619, 169, 17, 232, 144
-0.984623, 289, 161, 320, 288
-0.984652, 297, 337, 328, 400
-0.984691, 253, 113, 284, 240
-0.984691, 85, 209, 116, 336
-0.98472, 33, 321, 160, 448
-0.984861, 57, 209, 120, 272
-0.984981, 249, 161, 280, 288
-0.98501, 117, 257, 148, 384
-0.985218, 193, 241, 320, 304
-0.985258, 209, 321, 240, 448
-0.985483, 49, 97, 112, 352
-0.985555, 129, 273, 256, 400
-0.985578, 177, 89, 208, 152
-0.985579, 137, 57, 200, 120
-0.985617, 201, 161, 232, 224
-0.985812, 129, 105, 160, 168
-0.985823, 185, 193, 248, 448
-0.985828, 113, 185, 144, 248
-0.985967, 265, 241, 296, 368
-0.985988, 265, 241, 296, 304
-0.986018, 245, 121, 276, 184
-0.986054, 149, 97, 180, 224
-0.986134, 169, 1, 232, 500
-0.986152, 217, 337, 248, 400
-0.986155, 1, 369, 330, 496
-0.986206, 217, 337, 280, 464
-0.986253, 141, 241, 172, 368
-0.986266, 117, 113, 148, 176
-0.986293, 81, 153, 208, 216
-0.986304, 117, 49, 148, 176
-0.986309, 145, 177, 176, 240
-0.986316, 193, 41, 320, 104
-0.98632, 89, 49, 120, 176
-0.986386, 101, 249, 132, 312
-0.986508, 89, 169, 120, 232
-0.986584, 137, 129, 168, 256
-0.986596, 17, 33, 144, 160
-0.986608, 121, 305, 184, 368
-0.986841, 217, 1, 280, 500
-0.98689, 189, 337, 220, 400
-0.986999, 113, 57, 176, 120
-0.987015, 141, 153, 172, 216
-0.987016, 49, 273, 176, 336
-0.98705, 73, 297, 136, 360
-0.987058, 153, 329, 184, 392
-0.987062, 221, 233, 252, 296
-0.987073, 1, 97, 64, 160
-0.987173, 145, 161, 208, 416
-0.987185, 137, 201, 168, 264
-0.9872, 209, 137, 240, 200
-0.987259, 13, 145, 44, 208
-0.98726, 89, 257, 152, 500
-0.987273, 281, 57, 312, 120
-0.987302, 85, 129, 116, 256
-0.987405, 153, 153, 216, 216
-0.987419, 265, 17, 328, 144
-0.987507, 141, 105, 172, 168
-0.987529, 129, 241, 160, 368
-0.987539, 145, 241, 208, 304
-0.98771, 33, 201, 288, 264
-0.987714, 45, 97, 76, 224
-0.987835, 33, 105, 288, 168
-0.987878, 249, 65, 312, 96
-0.987937, 121, 153, 152, 216
-0.987964, 89, 101, 152, 132
-0.987974, 65, 109, 128, 140
-0.988066, 225, 33, 288, 96
-0.988114, 273, 17, 304, 144
-0.988169, 217, 157, 280, 188
-0.9882, 217, 225, 248, 352
-0.98827, 153, 89, 216, 120
-0.988275, 229, 241, 260, 368
-0.988303, 201, 273, 264, 400
-0.988322, 121, 93, 184, 124
-0.988327, 117, 233, 148, 296
-0.98834, 145, 241, 176, 304
-0.988343, 249, 241, 280, 368
-0.988369, 197, 17, 228, 144
-0.988386, 129, 33, 160, 160
-0.988395, 181, 321, 212, 448
-0.98841, 273, 185, 304, 248
-0.988421, 185, 81, 248, 112
-0.98846, 253, 1, 284, 128
-0.988489, 33, 65, 96, 192
-0.988496, 177, 337, 208, 400
-0.98851, 137, 353, 200, 416
-0.988531, 97, 313, 160, 376
-0.988576, 209, 185, 240, 248
-0.988608, 257, 321, 320, 448
-0.988623, 213, 17, 244, 144
-0.988647, 89, 201, 120, 264
-0.988649, 261, 89, 292, 152
-0.988671, 217, 77, 280, 108
-0.988692, 253, 249, 284, 312
-0.98876, 197, 321, 228, 448
-0.98877, 241, 77, 304, 108
-0.988824, 241, 1, 304, 500
-0.98887, 193, 69, 256, 100
-0.988877, 89, 249, 120, 312
-0.988914, 1, 133, 64, 164
-0.988941, 209, 209, 240, 272
-0.98902, 265, 361, 328, 424
-0.989059, 85, 121, 116, 184
-0.989086, 113, 185, 176, 216
-0.989089, 157, 177, 188, 304
-0.989139, 97, 337, 224, 400
-0.989181, 153, 73, 216, 104
-0.989193, 93, 145, 124, 208
-0.989209, 173, 81, 204, 208
-0.989314, 65, 129, 192, 192
-0.989318, 205, 337, 236, 400
-0.989332, 17, 201, 144, 264
-0.989374, 33, 81, 160, 144
-0.989376, 81, 313, 208, 376
-0.989397, 89, 113, 152, 144
-0.989472, 25, 121, 88, 152
-0.989481, 29, 97, 60, 224
-0.989565, 265, 165, 328, 196
-0.989577, 201, 361, 264, 424
-0.989621, 81, 225, 112, 288
-0.989681, 161, 33, 192, 160
-0.989713, 277, 225, 308, 352
-0.989729, 121, 105, 184, 136
-0.989767, 237, 193, 268, 320
-0.98979, 289, 217, 320, 280
-0.989885, 89, 185, 152, 216
-0.989897, 97, 245, 160, 276
-0.989916, 97, 73, 128, 136
-0.989951, 225, 89, 288, 120
-0.989964, 193, 313, 320, 376
-0.990002, 157, 321, 188, 448
-0.990044, 33, 169, 160, 232
-0.990068, 221, 337, 252, 464
-0.990083, 65, 177, 320, 240
-0.990101, 69, 129, 100, 192
-0.99013, 233, 137, 296, 168
-0.99013, 205, 193, 236, 320
-0.990135, 105, 197, 168, 228
-0.990224, 273, 81, 304, 144
-0.990282, 129, 81, 192, 112
-0.990371, 121, 173, 184, 204
-0.990388, 1, 97, 330, 160
-0.990393, 157, 209, 188, 272
-0.990407, 153, 101, 216, 132
-0.990417, 81, 173, 144, 204
-0.990431, 229, 337, 260, 400
-0.990463, 277, 161, 308, 224
-0.990479, 105, 265, 168, 296
-0.990508, 225, 65, 288, 96
-0.990543, 33, 225, 288, 288
-0.990566, 185, 97, 248, 128
-0.990667, 233, 169, 296, 200
-0.990693, 161, 341, 224, 372
-0.990697, 37, 137, 68, 200
-0.990701, 65, 121, 128, 152
-0.990735, 197, 185, 228, 248
-0.990742, 57, 129, 88, 192
-0.990759, 41, 133, 104, 164
-0.990852, 201, 185, 264, 216
-0.990877, 201, 173, 264, 204
-0.990888, 233, 249, 296, 280
-0.990911, 89, 225, 152, 256
-0.990918, 233, 229, 296, 260
-0.990932, 89, 273, 120, 336
-0.990953, 89, 277, 152, 308
-0.990991, 289, 209, 320, 336
-0.991019, 1, 149, 64, 180
-0.991019, 193, 345, 256, 376
-0.991056, 233, 241, 264, 304
-0.99106, 101, 225, 132, 288
-0.991079, 29, 97, 60, 160
-0.991131, 1, 129, 256, 192
-0.991135, 201, 145, 264, 176
-0.991159, 193, 161, 256, 192
-0.991177, 189, 97, 220, 224
-0.991182, 1, 121, 64, 152
-0.991241, 217, 121, 280, 152
-0.99125, 209, 209, 272, 240
-0.991252, 257, 265, 320, 328
-0.991272, 161, 361, 288, 424
-0.991287, 213, 41, 244, 104
-0.991294, 81, 197, 144, 228
-0.991341, 265, 81, 328, 144
-0.991378, 97, 1, 160, 500
-0.991398, 101, 297, 132, 360
-0.99142, 281, 65, 312, 192
-0.991424, 253, 41, 284, 104
-0.991466, 121, 209, 184, 240
-0.991477, 129, 197, 192, 228
-0.991494, 57, 289, 120, 416
-0.991515, 169, 193, 232, 320
-0.991535, 249, 89, 312, 120
-0.991566, 265, 185, 328, 216
-0.991585, 73, 265, 136, 296
-0.991638, 169, 273, 200, 400
-0.991651, 137, 185, 200, 216
-0.991655, 257, 145, 320, 176
-0.991655, 41, 109, 104, 140
-0.991676, 257, 245, 320, 276
-0.991681, 153, 329, 216, 360
-0.991699, 161, 193, 224, 224
-0.991717, 17, 97, 48, 160
-0.991731, 113, 229, 176, 260
-0.991798, 113, 117, 176, 148
-0.9918, 89, 209, 152, 240
-0.991821, 89, 125, 152, 156
-0.991825, 233, 181, 296, 212
-0.991826, 57, 237, 120, 268
-0.991826, 61, 49, 92, 176
-0.99183, 265, 349, 328, 380
-0.991835, 133, 233, 164, 296
-0.991855, 209, 197, 272, 228
-0.991857, 129, 257, 192, 288
-0.991887, 193, 1, 256, 500
-0.991891, 1, 161, 64, 192
-0.991893, 257, 205, 320, 236
-0.991915, 265, 77, 328, 108
-0.991923, 233, 341, 296, 372
-0.99193, 269, 65, 300, 96
-0.991943, 257, 113, 320, 176
-0.991975, 105, 81, 168, 112
-0.991979, 177, 69, 304, 100
-0.991993, 5, 133, 36, 164
-0.992018, 241, 157, 304, 188
-0.992027, 1, 265, 128, 328
-0.992044, 113, 161, 176, 192
-0.992056, 201, 41, 232, 104
-0.992056, 249, 73, 280, 104
-0.992058, 129, 257, 256, 320
-0.992058, 233, 73, 264, 104
-0.992063, 201, 245, 264, 276
-0.992063, 161, 181, 224, 212
-0.992095, 145, 313, 272, 376
-0.992102, 65, 133, 128, 164
-0.99211, 233, 357, 296, 388
-0.99211, 25, 145, 88, 176
-0.992115, 65, 153, 320, 216
-0.992121, 121, 241, 184, 272
-0.992124, 185, 89, 216, 120
-0.992132, 97, 149, 160, 180
-0.992142, 249, 217, 312, 248
-0.992149, 1, 129, 330, 192
-0.99215, 177, 73, 208, 104
-0.992154, 205, 77, 236, 108
-0.992161, 161, 89, 192, 120
-0.99217, 65, 97, 128, 128
-0.992171, 185, 225, 248, 256
-0.992172, 65, 185, 128, 216
-0.992182, 217, 81, 248, 112
-0.992191, 257, 313, 320, 376
-0.992208, 153, 237, 216, 268
-0.992209, 285, 113, 316, 240
-0.99221, 141, 85, 172, 116
-0.992221, 177, 149, 240, 180
-0.992223, 117, 97, 148, 128
-0.992228, 69, 129, 100, 256
-0.99226, 249, 225, 280, 288
-0.992264, 25, 129, 56, 160
-0.99227, 97, 301, 160, 332
-0.992284, 93, 105, 124, 136
-0.992291, 97, 289, 160, 320
-0.992316, 201, 133, 264, 164
-0.992338, 137, 341, 200, 372
-0.992346, 73, 293, 136, 324
-0.992365, 169, 205, 232, 236
-0.992386, 89, 161, 152, 192
-0.992386, 77, 105, 108, 136
-0.992386, 141, 97, 172, 128
-0.992393, 57, 225, 120, 256
-0.992399, 193, 69, 224, 100
-0.992419, 201, 57, 264, 88
-0.992442, 129, 93, 160, 124
-0.992447, 221, 209, 252, 272
-0.992458, 161, 369, 288, 496
-0.992469, 57, 113, 88, 144
-0.992474, 205, 89, 236, 120
-0.992482, 221, 69, 252, 100
-0.99249, 113, 49, 240, 112
-0.992512, 137, 57, 168, 120
-0.992517, 113, 177, 144, 208
-0.992525, 265, 233, 328, 264
-0.992528, 65, 65, 320, 128
-0.992539, 241, 265, 304, 296
-0.992566, 105, 105, 136, 136
-0.992567, 237, 17, 268, 144
-0.992575, 57, 249, 120, 280
-0.992579, 245, 157, 276, 188
-0.992579, 261, 165, 292, 196
-0.992587, 261, 77, 292, 108
-0.992592, 129, 181, 160, 212
-0.992596, 197, 145, 228, 272
-0.992612, 45, 125, 76, 156
-0.992614, 101, 49, 132, 176
-0.992619, 225, 157, 256, 188
-0.992626, 177, 325, 240, 356
-0.992629, 265, 217, 296, 280
-0.992638, 129, 329, 192, 360
-0.992639, 233, 201, 264, 264
-0.992652, 13, 121, 44, 152
-0.992664, 65, 277, 128, 308
-0.99267, 5, 145, 36, 176
-0.992681, 205, 65, 236, 96
-0.992682, 113, 193, 144, 224
-0.992688, 73, 313, 136, 344
-0.992692, 161, 77, 192, 108
-0.992695, 49, 289, 112, 352
-0.992697, 289, 165, 320, 196
-0.9927, 97, 197, 128, 228
-0.9927, 137, 225, 200, 256
-0.992706, 145, 361, 208, 392
-0.992715, 151, 73, 166, 136
-0.992719, 57, 201, 120, 232
-0.992727, 101, 281, 132, 312
-0.992729, 241, 85, 272, 116
-0.99273, 9, 369, 72, 432
-0.992733, 93, 117, 124, 148
-0.992739, 169, 61, 232, 92
-0.992747, 113, 277, 176, 308
-0.992763, 145, 185, 176, 216
-0.99277, 209, 221, 272, 252
-0.992775, 265, 369, 328, 400
-0.992777, 109, 117, 140, 148
-0.992786, 229, 89, 260, 120
-0.99279, 97, 281, 224, 344
-0.992793, 265, 33, 328, 96
-0.992797, 17, 153, 48, 184
-0.992812, 257, 137, 288, 168
-0.992837, 225, 53, 288, 84
-0.992839, 161, 169, 224, 200
-0.992839, 101, 181, 132, 212
-0.992847, 213, 161, 244, 192
-0.992852, 25, 141, 56, 172
-0.992855, 177, 137, 240, 168
-0.992855, 129, 105, 160, 136
-0.99286, 57, 213, 120, 244
-0.992863, 281, 349, 312, 380
-0.992864, 145, 201, 176, 232
-0.992866, 97, 269, 128, 300
-0.992871, 233, 201, 296, 232
-0.992872, 265, 125, 328, 156
-0.992873, 217, 137, 248, 168
-0.992874, 217, 97, 248, 128
-0.992876, 201, 365, 264, 396
-0.992878, 169, 341, 200, 372
-0.99289, 113, 317, 176, 348
-0.992891, 225, 113, 256, 144
-0.9929, 257, 61, 288, 92
-0.992914, 173, 85, 204, 116
-0.992919, 81, 117, 112, 148
-0.992933, 85, 257, 116, 384
-0.992934, 161, 101, 192, 132
-0.992935, 109, 265, 140, 296
-0.992938, 209, 233, 272, 264
-0.992945, 253, 89, 284, 120
-0.992945, 201, 165, 232, 196
-0.992954, 113, 281, 144, 312
-0.992959, 221, 345, 252, 376
-0.992961, 297, 185, 328, 248
-0.992963, 125, 193, 156, 224
-0.992964, 277, 77, 308, 108
-0.992974, 133, 261, 164, 292
-0.992981, 233, 41, 264, 104
-0.992984, 85, 185, 116, 216
-0.992989, 233, 145, 264, 176
-0.992997, 85, 205, 116, 236
-0.993003, 217, 173, 248, 204
-0.993017, 5, 161, 36, 192
-0.993018, 121, 269, 152, 300
-0.993024, 265, 249, 296, 280
-0.993032, 9, 109, 72, 140
-0.993038, 145, 213, 208, 244
-0.993041, 225, 125, 256, 156
-0.993042, 265, 53, 328, 84
-0.993049, 277, 169, 308, 200
-0.993052, 45, 137, 76, 168
-0.993059, 65, 161, 128, 192
-0.99306, 129, 169, 160, 200
-0.99306, 209, 189, 240, 220
-0.993065, 77, 129, 108, 160
-0.993067, 241, 61, 272, 92
-0.993067, 69, 117, 100, 148
-0.993074, 133, 237, 164, 268
-0.993092, 141, 109, 172, 140
-0.993092, 213, 121, 244, 152
-0.993103, 165, 329, 196, 360
-0.993104, 101, 253, 132, 284
-0.993113, 109, 137, 140, 200
-0.993117, 93, 165, 124, 196
-0.99312, 121, 353, 184, 384
-0.993123, 65, 133, 96, 164
-0.993123, 1, 121, 32, 152
-0.993126, 101, 305, 132, 336
-0.993128, 217, 265, 280, 296
-0.993129, 277, 241, 308, 272
-0.993133, 97, 229, 128, 260
-0.993147, 113, 289, 144, 352
-0.993148, 45, 113, 76, 144
-0.993165, 201, 101, 232, 132
-0.99317, 177, 121, 240, 152
-0.993171, 253, 253, 284, 284
-0.993173, 245, 173, 276, 204
-0.993175, 269, 89, 300, 120
-0.993175, 245, 137, 276, 168
-0.993176, 201, 177, 232, 208
-0.993185, 121, 117, 152, 148
-0.993186, 161, 225, 224, 256
-0.993186, 89, 93, 120, 124
-0.993197, 289, 69, 320, 100
-0.993201, 209, 65, 224, 128
-0.993202, 209, 225, 240, 256
-0.993204, 149, 329, 180, 360
-0.993207, 221, 241, 252, 272
-0.993208, 221, 209, 252, 240
-0.993209, 97, 209, 128, 240
-0.993223, 289, 185, 320, 216
-0.993226, 237, 125, 268, 156
-0.993227, 235, 65, 250, 128
-0.993228, 129, 81, 160, 112
-0.99323, 141, 225, 172, 256
-0.993232, 145, 173, 176, 204
-0.993234, 145, 61, 208, 92
-0.993235, 233, 329, 296, 360
-0.993235, 117, 65, 148, 128
-0.993237, 201, 249, 264, 312
-0.993238, 49, 81, 112, 144
-0.993241, 101, 241, 132, 272
-0.993241, 173, 97, 204, 128
-0.993241, 229, 221, 260, 252
-0.993241, 105, 289, 136, 416
-0.993242, 89, 325, 152, 356
-0.993248, 261, 153, 292, 184
-0.993254, 57, 101, 88, 132
-0.993261, 241, 97, 272, 128
-0.993261, 261, 181, 292, 212
-0.993266, 125, 249, 156, 280
-0.993275, 101, 293, 132, 324
-0.993276, 145, 245, 176, 276
-0.993279, 241, 249, 272, 280
-0.99328, 113, 297, 144, 328
-0.993286, 85, 265, 116, 296
-0.993287, 245, 265, 276, 296
-0.993295, 77, 229, 108, 260
-0.993297, 105, 93, 136, 124
-0.993307, 213, 149, 244, 180
-0.993318, 201, 213, 232, 244
-0.993324, 283, 57, 298, 120
-0.993337, 281, 321, 312, 384
-0.993427, 1, 153, 32, 216
-0.993437, 33, 105, 160, 136
-0.993465, 177, 225, 240, 288
-0.993474, 265, 113, 296, 240
-0.993493, 273, 137, 304, 200
-0.993512, 77, 177, 108, 240
-0.993514, 153, 225, 184, 352
-0.993569, 209, 361, 330, 424
-0.993583, 73, 321, 136, 384
-0.993711, 145, 289, 176, 416
-0.993838, 75, 105, 90, 168
-0.993849, 223, 73, 238, 136
-0.993872, 285, 137, 316, 200
-0.993874, 217, 73, 232, 136
-0.993893, 281, 321, 312, 448
-0.9939, 209, 161, 330, 192
-0.993902, 185, 1, 216, 128
-0.993903, 289, 17, 320, 144
-0.993918, 91, 97, 106, 160
-0.993919, 141, 89, 156, 152
-0.993942, 97, 93, 224, 124
-0.993976, 33, 249, 288, 312
-0.993988, 111, 97, 126, 160
-0.994033, 229, 81, 244, 144
-0.994066, 133, 89, 148, 152
-0.994088, 199, 73, 214, 136
-0.99411, 59, 105, 74, 168
-0.994131, 1, 97, 64, 352
-0.994144, 275, 57, 290, 120
-0.994144, 145, 273, 208, 400
-0.994185, 33, 297, 160, 360
-0.994186, 81, 197, 208, 228
-0.994209, 9, 121, 24, 184
-0.994226, 85, 97, 100, 160
-0.994287, 121, 89, 136, 152
-0.994343, 191, 65, 206, 128
-0.994371, 245, 73, 260, 136
-0.994392, 177, 313, 208, 376
-0.994418, 269, 345, 300, 408
-0.994426, 241, 177, 272, 240
-0.994459, 241, 329, 272, 392
-0.994461, 161, 97, 288, 128
-0.994548, 21, 121, 36, 184
-0.994562, 77, 201, 108, 264
-0.994582, 209, 113, 330, 176
-0.994606, 65, 81, 96, 144
-0.994651, 189, 273, 220, 400
-0.994654, 145, 81, 272, 112
-0.99466, 227, 121, 242, 184
-0.99466, 129, 197, 256, 228
-0.994673, 235, 89, 250, 152
-0.994711, 1, 117, 128, 148
-0.99473, 215, 161, 230, 224
-0.994752, 237, 153, 252, 216
-0.994768, 101, 97, 116, 160
-0.99477, 183, 65, 198, 128
-0.994773, 53, 105, 68, 168
-0.99479, 145, 229, 272, 260
-0.994802, 89, 305, 152, 432
-0.994804, 81, 209, 208, 240
-0.994821, 197, 137, 228, 200
-0.99485, 1, 185, 330, 248
-0.994875, 157, 81, 172, 144
-0.994902, 265, 273, 328, 400
-0.994902, 69, 113, 84, 176
-0.994908, 217, 297, 280, 360
-0.994941, 31, 121, 46, 184
-0.995014, 41, 161, 104, 288
-0.99506, 209, 205, 330, 236
-0.995073, 193, 173, 320, 204
-0.995121, 81, 225, 208, 256
-0.995126, 157, 233, 188, 296
-0.995133, 269, 65, 284, 128
-0.995136, 253, 65, 268, 128
-0.995137, 1, 225, 330, 288
-0.995145, 221, 137, 236, 200
-0.995145, 161, 345, 288, 376
-0.995162, 81, 245, 208, 276
-0.995176, 145, 165, 272, 196
-0.995181, 73, 1, 136, 500
-0.995187, 193, 185, 320, 216
-0.995193, 229, 57, 244, 120
-0.995194, 41, 121, 56, 184
-0.995198, 113, 185, 240, 216
-0.995209, 185, 41, 216, 104
-0.995221, 237, 113, 252, 176
-0.995231, 171, 329, 186, 392
-0.995243, 49, 345, 112, 408
-0.995245, 209, 225, 330, 256
-0.995248, 293, 321, 324, 448
-0.995257, 33, 337, 288, 400
-0.995261, 141, 33, 172, 160
-0.995283, 5, 65, 36, 192
-0.995327, 165, 97, 196, 160
-0.995332, 165, 353, 196, 416
-0.995355, 157, 49, 188, 112
-0.995361, 265, 145, 280, 208
-0.995367, 201, 273, 232, 400
-0.995416, 217, 97, 232, 160
-0.99543, 259, 153, 274, 216
-0.995445, 229, 153, 244, 216
-0.995446, 251, 153, 266, 216
-0.995453, 33, 129, 160, 160
-0.995468, 145, 1, 272, 128
-0.995472, 33, 369, 96, 432
-0.99555, 49, 193, 112, 448
-0.995589, 145, 241, 272, 272
-0.995617, 261, 321, 292, 384
-0.995636, 193, 81, 320, 112
-0.995646, 25, 129, 88, 384
-0.995681, 145, 213, 272, 244
-0.995686, 49, 117, 176, 148
-0.995714, 205, 169, 220, 232
-0.995761, 245, 153, 260, 216
-0.995778, 1, 161, 32, 288
-0.995782, 25, 145, 56, 208
-0.995784, 257, 257, 320, 500
-0.995794, 105, 321, 136, 384
-0.995796, 81, 105, 208, 136
-0.9958, 177, 361, 240, 424
-0.995803, 269, 33, 300, 96
-0.995809, 125, 209, 156, 272
-0.99581, 249, 65, 280, 320
-0.995812, 65, 181, 192, 212
-0.995855, 1, 369, 128, 496
-0.995859, 309, 169, 324, 232
-0.995859, 47, 121, 62, 184
-0.995889, 221, 161, 236, 224
-0.995922, 189, 313, 220, 376
-0.995933, 103, 265, 118, 328
-0.995956, 103, 121, 118, 184
-0.996021, 209, 353, 330, 384
-0.996041, 289, 57, 304, 120
-0.996052, 15, 121, 30, 184
-0.99606, 265, 289, 296, 416
-0.996062, 145, 169, 160, 232
-0.996069, 285, 345, 300, 408
-0.996101, 109, 273, 124, 336
-0.996111, 113, 337, 176, 400
-0.996115, 73, 177, 104, 304
-0.996123, 1, 73, 330, 136
-0.996138, 137, 257, 152, 320
-0.99614, 1, 141, 128, 172
-0.996147, 127, 81, 142, 144
-0.996168, 119, 113, 134, 176
-0.996171, 245, 49, 260, 112
-0.996213, 217, 273, 248, 400
-0.996217, 109, 129, 140, 384
-0.996222, 155, 193, 170, 256
-0.996224, 161, 81, 192, 208
-0.996232, 259, 65, 274, 128
-0.996234, 231, 337, 246, 400
-0.996248, 243, 129, 258, 192
-0.99625, 153, 105, 168, 168
-0.996259, 221, 97, 252, 352
-0.996264, 9, 241, 72, 368
-0.99628, 65, 89, 80, 152
-0.996285, 265, 129, 296, 384
-0.996294, 209, 93, 330, 124
-0.996301, 301, 337, 316, 400
-0.996303, 97, 257, 224, 288
-0.996327, 281, 273, 312, 400
-0.996343, 211, 89, 226, 152
-0.99636, 125, 161, 156, 416
-0.996376, 125, 113, 140, 176
-0.996389, 101, 193, 116, 256
-0.99639, 9, 265, 72, 328
-0.996394, 223, 97, 238, 160
-0.996395, 1, 161, 330, 224
-0.996396, 215, 185, 230, 248
-0.996412, 183, 89, 198, 152
-0.996423, 145, 145, 272, 176
-0.996435, 163, 201, 178, 264
-0.996444, 307, 337, 322, 400
-0.996445, 285, 169, 300, 232
-0.996471, 199, 49, 214, 112
-0.996481, 131, 161, 146, 224
-0.996481, 265, 1, 328, 500
-0.996484, 151, 169, 166, 232
-0.996484, 275, 161, 290, 224
-0.996493, 85, 121, 100, 184
-0.996513, 49, 269, 176, 300
-0.996523, 137, 129, 168, 384
-0.996539, 127, 273, 142, 336
-0.996539, 109, 121, 124, 184
-0.996541, 145, 65, 160, 128
-0.99655, 157, 161, 172, 224
-0.996559, 117, 273, 132, 336
-0.996599, 207, 193, 222, 256
-0.996599, 137, 257, 200, 500
-0.996601, 105, 105, 120, 136
-0.996605, 259, 129, 274, 192
-0.996605, 269, 33, 300, 288
-0.996607, 267, 121, 282, 184
-0.996617, 229, 185, 244, 248
-0.996629, 1, 313, 256, 376
-0.996635, 215, 137, 230, 200
-0.99664, 179, 337, 194, 400
-0.996646, 53, 129, 68, 192
-0.996655, 275, 241, 290, 304
-0.99666, 235, 69, 250, 100
-0.996664, 115, 101, 130, 132
-0.996674, 97, 161, 128, 416
-0.996676, 193, 69, 208, 100
-0.996677, 163, 81, 178, 144
-0.99668, 135, 93, 150, 124
-0.996687, 109, 161, 124, 224
-0.996705, 95, 161, 110, 224
-0.99671, 293, 345, 308, 408
-0.996714, 131, 185, 146, 248
-0.996716, 123, 169, 138, 232
-0.996721, 137, 169, 152, 232
-0.996724, 3, 137, 18, 200
-0.996725, 153, 241, 168, 304
-0.996747, 1, 145, 64, 272
-0.996785, 111, 297, 126, 360
-0.996789, 287, 233, 302, 296
-0.996817, 9, 161, 24, 224
-0.996822, 237, 97, 268, 352
-0.996826, 251, 73, 266, 104
-0.996831, 89, 65, 120, 320
-0.996831, 189, 337, 204, 400
-0.996833, 225, 337, 240, 400
-0.996839, 183, 73, 198, 104
-0.996849, 207, 145, 222, 208
-0.996856, 129, 97, 144, 128
-0.99686, 313, 337, 328, 400
-0.996868, 271, 89, 286, 152
-0.996872, 117, 185, 132, 248
-0.996883, 221, 81, 236, 112
-0.996886, 29, 129, 44, 160
-0.996887, 33, 273, 288, 336
-0.996892, 263, 249, 278, 312
-0.996892, 33, 321, 160, 384
-0.996897, 225, 17, 256, 144
-0.996913, 261, 65, 276, 96
-0.996914, 301, 153, 316, 216
-0.99693, 17, 257, 144, 288
-0.996947, 95, 121, 110, 184
-0.996949, 173, 33, 204, 160
-0.996951, 193, 249, 320, 280
-0.996957, 145, 145, 160, 208
-0.996961, 99, 105, 114, 136
-0.996969, 63, 129, 78, 192
-0.996976, 107, 185, 122, 248
-0.996976, 275, 137, 290, 200
-0.996981, 209, 129, 240, 384
-0.996983, 103, 289, 118, 352
-0.996988, 183, 85, 198, 116
-0.996996, 141, 97, 156, 128
-0.997018, 229, 85, 244, 116
-0.997029, 129, 273, 192, 336
-0.997033, 151, 81, 166, 112
-0.997034, 87, 101, 102, 132
-0.997036, 233, 273, 296, 336
-0.99704, 65, 157, 192, 188
-0.997041, 49, 125, 64, 156
-0.997046, 285, 61, 300, 92
-0.997046, 113, 73, 128, 136
-0.997052, 217, 49, 232, 112
-0.99706, 229, 233, 244, 296
-0.997062, 37, 49, 68, 176
-0.997069, 41, 129, 56, 160
-0.997075, 197, 337, 212, 400
-0.997077, 139, 113, 154, 176
-0.997078, 237, 337, 252, 400
-0.997099, 237, 289, 268, 416
-0.9971, 81, 109, 96, 140
-0.997106, 223, 185, 238, 248
-0.997106, 295, 161, 310, 224
-0.997118, 95, 185, 110, 248
-0.997119, 297, 217, 312, 280
-0.997127, 113, 249, 128, 312
-0.997155, 209, 69, 224, 100
-0.997157, 1, 345, 64, 408
-0.997158, 113, 361, 240, 424
-0.997173, 91, 117, 106, 148
-0.997182, 123, 97, 138, 128
-0.99721, 245, 77, 260, 108
-0.997224, 75, 117, 90, 148
-0.997225, 193, 141, 320, 172
-0.997225, 17, 237, 144, 268
-0.997229, 63, 109, 78, 140
-0.997237, 19, 125, 34, 156
-0.997241, 157, 93, 172, 124
-0.997242, 273, 69, 288, 100
-0.997263, 169, 41, 232, 104
-0.997294, 69, 117, 84, 148
-0.997295, 209, 237, 330, 268
-0.997305, 199, 73, 214, 104
-0.997339, 135, 105, 150, 136
-0.997346, 57, 117, 72, 148
-0.997356, 177, 265, 304, 328
-0.99736, 121, 65, 152, 320
-0.997369, 281, 65, 312, 320
-0.99738, 215, 81, 230, 112
-0.997388, 209, 333, 330, 364
-0.997389, 195, 85, 210, 116
-0.997397, 145, 337, 176, 464
-0.997412, 235, 81, 250, 112
-0.997427, 263, 77, 278, 108
-0.997439, 97, 269, 224, 300
-0.997446, 97, 117, 224, 148
-0.997451, 217, 225, 248, 480
-0.997455, 49, 93, 176, 124
-0.997462, 113, 113, 128, 144
-0.997463, 151, 93, 166, 124
-0.997477, 189, 81, 204, 112
-0.997477, 227, 73, 242, 104
-0.99748, 65, 169, 192, 200
-0.997495, 131, 185, 146, 216
-0.997506, 209, 81, 224, 112
-0.99751, 97, 81, 224, 112
-0.997513, 137, 33, 168, 288
-0.997514, 149, 193, 180, 448
-0.997521, 169, 329, 184, 360
-0.997525, 35, 133, 50, 164
-0.997529, 205, 33, 236, 288
-0.997532, 267, 161, 282, 192
-0.997541, 193, 57, 320, 88
-0.997543, 257, 77, 272, 108
-0.997561, 265, 225, 296, 480
-0.997562, 11, 129, 26, 160
-0.997575, 1, 249, 330, 312
-0.997578, 193, 33, 224, 288
-0.99758, 19, 137, 34, 168
-0.997581, 113, 69, 240, 100
-0.99759, 109, 33, 140, 288
-0.997606, 99, 121, 114, 152
-0.99761, 281, 161, 312, 416
-0.997615, 229, 1, 260, 256
-0.997626, 235, 97, 250, 128
-0.997626, 219, 165, 234, 196
-0.997626, 125, 173, 140, 204
-0.99763, 119, 113, 134, 144
-0.997631, 237, 117, 252, 148
-0.997632, 93, 105, 108, 136
-0.99764, 113, 341, 240, 372
-0.997646, 229, 137, 244, 168
-0.997682, 161, 257, 224, 500
-0.997689, 125, 185, 140, 216
-0.997689, 85, 161, 116, 416
-0.997694, 307, 165, 322, 196
-0.997697, 259, 161, 274, 192
-0.997703, 231, 157, 246, 188
-0.997711, 109, 277, 124, 308
-0.997712, 49, 345, 176, 408
-0.997713, 225, 161, 240, 192
-0.997721, 9, 169, 24, 200
-0.997721, 221, 69, 236, 100
-0.997729, 1, 361, 128, 424
-0.997731, 161, 289, 288, 352
-0.997736, 181, 1, 212, 256
-0.997748, 129, 109, 144, 140
-0.997749, 227, 125, 242, 156
-0.997753, 33, 193, 160, 224
-0.997762, 49, 257, 112, 320
-0.997775, 243, 89, 258, 120
-0.997782, 281, 73, 296, 104
-0.997783, 153, 185, 168, 216
-0.997784, 57, 1, 120, 256
-0.997787, 217, 1, 248, 256
-0.997789, 213, 93, 228, 124
-0.997791, 279, 61, 294, 92
-0.997812, 145, 361, 272, 392
-0.997814, 119, 181, 134, 212
-0.997816, 133, 173, 148, 204
-0.997817, 223, 145, 238, 176
-0.997819, 201, 85, 216, 116
-0.997828, 49, 285, 176, 316
-0.99783, 81, 329, 208, 360
-0.997834, 207, 173, 222, 204
-0.997836, 63, 121, 78, 152
-0.997854, 155, 105, 170, 136
-0.997856, 113, 177, 128, 208
-0.997858, 147, 181, 162, 212
-0.997868, 149, 65, 180, 320
-0.99788, 29, 141, 44, 172
-0.99789, 253, 157, 268, 188
-0.997894, 17, 225, 144, 256
-0.997894, 161, 333, 288, 364
-0.997895, 145, 81, 160, 112
-0.997896, 273, 165, 288, 196
-0.997902, 69, 105, 84, 136
-0.997906, 103, 269, 118, 300
-0.997906, 117, 281, 132, 312
-0.997915, 205, 193, 220, 224
-0.997917, 5, 129, 36, 384
-0.997923, 189, 93, 204, 124
-0.997929, 17, 181, 144, 212
-0.997936, 99, 185, 114, 216
-0.997938, 119, 193, 134, 224
-0.997941, 49, 137, 64, 168
-0.997946, 81, 121, 96, 152
-0.997951, 65, 41, 320, 104
-0.997968, 193, 365, 320, 396
-0.997975, 145, 109, 160, 140
-0.997989, 105, 185, 120, 216
-0.997994, 161, 65, 192, 320
-0.997996, 157, 197, 172, 228
-0.998002, 285, 353, 300, 384
-0.998003, 81, 297, 208, 328
-0.998009, 25, 145, 56, 272
-0.998013, 211, 185, 226, 216
-0.998013, 41, 141, 56, 172
-0.99802, 19, 153, 34, 184
-0.998036, 265, 133, 280, 164
-0.998038, 141, 177, 156, 208
-0.998057, 117, 257, 148, 500
-0.998059, 279, 169, 294, 200
-0.998059, 63, 133, 78, 164
-0.99806, 55, 129, 70, 160
-0.998063, 17, 213, 144, 244
-0.998065, 271, 133, 286, 164
-0.998081, 101, 201, 116, 232
-0.998096, 105, 117, 120, 148
-0.9981, 7, 157, 22, 188
-0.998107, 93, 197, 108, 228
-0.998111, 111, 261, 126, 292
-0.998126, 147, 193, 162, 224
-0.998141, 233, 345, 248, 376
-0.998148, 237, 145, 252, 176
-0.998151, 291, 69, 306, 100
-0.998159, 213, 165, 228, 196
-0.998172, 107, 197, 122, 228
-0.998173, 183, 97, 198, 128
-0.998176, 259, 89, 274, 120
-0.998179, 145, 109, 272, 140
-0.998206, 237, 129, 252, 160
-0.998214, 213, 125, 228, 156
-0.998218, 157, 81, 172, 112
-0.99822, 229, 97, 244, 128
-0.998223, 141, 189, 156, 220
-0.998225, 251, 85, 266, 116
-0.998236, 287, 173, 302, 204
-0.998243, 49, 57, 176, 120
-0.998245, 163, 89, 178, 120
-0.998246, 151, 253, 166, 284
-0.998269, 237, 225, 268, 480
-0.998299, 9, 1, 72, 256
-0.998303, 25, 289, 88, 352
-0.998315, 161, 369, 224, 496
-0.998322, 73, 33, 104, 160
-0.998369, 217, 161, 280, 176
-0.998371, 97, 281, 224, 312
-0.998372, 153, 89, 216, 104
-0.998379, 149, 183, 180, 198
-0.99838, 241, 177, 272, 192
-0.998382, 221, 179, 252, 194
-0.998382, 89, 175, 120, 190
-0.998383, 213, 123, 244, 138
-0.998384, 265, 91, 296, 106
-0.998384, 149, 203, 180, 218
-0.998385, 125, 175, 156, 190
-0.998385, 281, 351, 312, 366
-0.998385, 205, 189, 236, 204
-0.998386, 141, 115, 172, 130
-0.998388, 29, 135, 60, 150
-0.998389, 213, 69, 244, 84
-0.998389, 133, 247, 164, 262
-0.99839, 257, 175, 288, 190
-0.998391, 101, 243, 132, 258
-0.998393, 85, 205, 116, 220
-0.998395, 205, 139, 236, 154
-0.998395, 97, 205, 128, 220
-0.998397, 121, 95, 184, 110
-0.998398, 145, 177, 176, 192
-0.998399, 57, 129, 88, 144
-0.998399, 65, 105, 96, 120
-0.998401, 125, 181, 156, 196
-0.998402, 225, 123, 256, 138
-0.998403, 89, 99, 120, 114
-0.998403, 65, 341, 192, 372
-0.998404, 249, 69, 312, 84
-0.998406, 253, 161, 284, 416
-0.998406, 145, 95, 208, 110
-0.998406, 221, 99, 252, 114
-0.998407, 281, 77, 312, 92
-0.998409, 241, 81, 304, 96
-0.99841, 177, 71, 240, 86
-0.998411, 81, 353, 208, 384
-0.998411, 289, 171, 320, 186
-0.998414, 137, 199, 168, 214
-0.998415, 117, 95, 148, 110
-0.998415, 81, 111, 144, 126
-0.998415, 29, 149, 60, 164
-0.998415, 217, 139, 248, 154
-0.998417, 237, 83, 268, 98
-0.998418, 113, 283, 144, 298
-0.998418, 105, 269, 136, 284
-0.998418, 165, 339, 196, 354
-0.998421, 125, 197, 156, 212
-0.998421, 137, 185, 168, 200
-0.998422, 101, 279, 132, 294
-0.998422, 221, 347, 252, 362
-0.998424, 77, 121, 108, 136
-0.998424, 109, 121, 140, 136
-0.998425, 213, 129, 244, 144
-0.998425, 77, 105, 108, 120
-0.998427, 17, 153, 48, 168
-0.998427, 65, 135, 96, 150
-0.998427, 137, 241, 168, 256
-0.99843, 49, 141, 80, 156
-0.998431, 129, 107, 160, 122
-0.998432, 81, 199, 112, 214
-0.998432, 161, 83, 192, 98
-0.998433, 117, 109, 148, 124
-0.998433, 17, 147, 48, 162
-0.998435, 17, 135, 48, 150
-0.998436, 105, 107, 168, 122
-0.998437, 5, 171, 36, 186
-0.998438, 1, 273, 128, 304
-0.998439, 105, 177, 136, 192
-0.998441, 125, 189, 156, 204
-0.998442, 97, 115, 128, 130
-0.998443, 45, 125, 76, 140
-0.998443, 141, 109, 172, 124
-0.998444, 129, 117, 160, 132
-0.998444, 137, 191, 168, 206
-0.998446, 129, 103, 192, 118
-0.998448, 245, 135, 276, 150
-0.998448, 53, 119, 84, 134
-0.998448, 201, 173, 232, 188
-0.99845, 137, 225, 168, 480
-0.998451, 93, 199, 124, 214
-0.998451, 89, 101, 152, 116
-0.998452, 201, 75, 264, 90
-0.998454, 105, 197, 168, 212
-0.998458, 189, 71, 220, 86
-0.99846, 77, 131, 108, 146
-0.998461, 109, 115, 140, 130
-0.998461, 141, 95, 172, 110
-0.998463, 293, 129, 324, 384
-0.998463, 217, 163, 248, 178
-0.998463, 25, 129, 88, 144
-0.998464, 213, 169, 244, 184
-0.998464, 17, 65, 48, 192
-0.998464, 289, 177, 320, 192
-0.998467, 225, 133, 256, 148
-0.998468, 241, 95, 272, 110
-0.998469, 185, 93, 248, 108
-0.998469, 105, 183, 136, 198
-0.998471, 113, 195, 144, 210
-0.998472, 153, 101, 216, 116
-0.998475, 245, 159, 276, 174
-0.998477, 49, 117, 112, 132
-0.998477, 129, 89, 192, 104
-0.998478, 233, 87, 296, 102
-0.998479, 161, 107, 192, 122
-0.99848, 209, 261, 330, 292
-0.998482, 189, 89, 220, 104
-0.998482, 253, 165, 284, 180
-0.998485, 97, 125, 128, 140
-0.998485, 1, 141, 64, 156
-0.998486, 257, 137, 288, 152
-0.998488, 145, 83, 176, 98
-0.998495, 25, 129, 56, 144
-0.998498, 89, 123, 152, 138
-0.998498, 225, 117, 256, 132
-0.998499, 73, 111, 104, 126
-0.998499, 193, 77, 224, 92
-0.998501, 261, 67, 292, 82
-0.998504, 225, 71, 288, 86
-0.998505, 1, 165, 128, 196
-0.998507, 185, 101, 216, 116
-0.998509, 161, 89, 192, 104
-0.998511, 185, 83, 248, 98
-0.998512, 237, 71, 268, 86
-0.998514, 249, 75, 312, 90
-0.998514, 205, 97, 236, 112
-0.998516, 265, 169, 296, 184
-0.998516, 145, 79, 208, 94
-0.998518, 241, 77, 272, 92
-0.998521, 105, 187, 168, 202
-0.998521, 5, 149, 36, 164
-0.998523, 253, 89, 284, 104
-0.998525, 33, 297, 160, 328
-0.998526, 1, 133, 64, 148
-0.998527, 49, 123, 112, 138
-0.998527, 233, 157, 264, 172
-0.998532, 265, 165, 328, 180
-0.998533, 145, 25, 272, 88
-0.998534, 265, 173, 328, 188
-0.998534, 229, 91, 260, 106
-0.998537, 249, 83, 280, 98
-0.998539, 121, 113, 184, 128
-0.998539, 217, 135, 280, 150
-0.99854, 161, 101, 192, 116
-0.998541, 113, 175, 176, 190
-0.998542, 25, 141, 56, 156
-0.998542, 205, 83, 236, 98
-0.998542, 217, 81, 280, 96
-0.998543, 89, 117, 152, 132
-0.998543, 115, 97, 130, 224
-0.998543, 89, 243, 152, 258
-0.998545, 113, 425, 240, 488
-0.998545, 217, 167, 280, 182
-0.998547, 129, 95, 160, 110
-0.998549, 177, 81, 208, 96
-0.99855, 177, 95, 208, 110
-0.998551, 1, 127, 64, 142
-0.998551, 205, 91, 236, 106
-0.998554, 153, 107, 216, 122
-0.998556, 211, 49, 226, 176
-0.998556, 65, 105, 128, 120
-0.998557, 97, 269, 160, 284
-0.998558, 5, 141, 36, 156
-0.998558, 105, 181, 168, 196
-0.99856, 177, 73, 208, 88
-0.99856, 225, 73, 256, 88
-0.998561, 81, 179, 144, 194
-0.998562, 225, 83, 256, 98
-0.998564, 57, 113, 88, 128
-0.998564, 129, 289, 160, 416
-0.998568, 145, 253, 272, 284
-0.99857, 201, 69, 232, 84
-0.998572, 97, 249, 160, 264
-0.998572, 121, 97, 136, 224
-0.998572, 89, 105, 120, 120
-0.998576, 141, 103, 172, 118
-0.998577, 13, 127, 44, 142
-0.998578, 217, 177, 280, 192
-0.998578, 97, 259, 160, 274
-0.998579, 185, 101, 248, 116
-0.998581, 217, 95, 280, 110
-0.998582, 161, 343, 224, 358
-0.998584, 249, 69, 280, 84
-0.998584, 153, 73, 216, 88
-0.998585, 137, 409, 200, 472
-0.998586, 217, 227, 280, 242
-0.998586, 213, 75, 244, 90
-0.99859, 161, 95, 192, 110
-0.99859, 1, 149, 64, 164
-0.998591, 89, 237, 152, 252
-0.998591, 269, 73, 300, 88
-0.998592, 177, 77, 240, 92
-0.998592, 241, 89, 272, 104
-0.998592, 249, 63, 312, 78
-0.998594, 49, 135, 112, 150
-0.998594, 241, 93, 304, 108
-0.998595, 81, 187, 144, 202
-0.998596, 5, 133, 36, 148
-0.998597, 209, 87, 272, 102
-0.998598, 257, 77, 288, 92
-0.998601, 177, 87, 208, 102
-0.998603, 193, 173, 256, 188
-0.998605, 113, 243, 176, 258
-0.998606, 193, 179, 256, 194
-0.998606, 217, 155, 280, 170
-0.998607, 57, 111, 120, 126
-0.998607, 25, 123, 88, 138
-0.998608, 81, 197, 144, 212
-0.998609, 257, 87, 320, 102
-0.99861, 141, 89, 172, 104
-0.998613, 269, 83, 300, 98
-0.998616, 233, 249, 296, 264
-0.998617, 193, 185, 256, 200
-0.998617, 89, 229, 152, 244
-0.998618, 65, 129, 128, 144
-0.998619, 233, 141, 296, 156
-0.99862, 249, 223, 312, 238
-0.998621, 241, 167, 304, 182
-0.998622, 209, 221, 272, 236
-0.998624, 129, 181, 192, 196
-0.998624, 113, 237, 176, 252
-0.998625, 105, 277, 168, 292
-0.998628, 97, 283, 160, 298
-0.99863, 25, 141, 88, 156
-0.99863, 9, 1, 72, 500
-0.998631, 217, 129, 280, 144
-0.998631, 241, 255, 304, 270
-0.998633, 113, 119, 176, 134
-0.998635, 121, 207, 184, 222
-0.998636, 193, 191, 256, 206
-0.998636, 233, 243, 296, 258
-0.998637, 109, 101, 140, 116
-0.998639, 193, 345, 256, 360
-0.998639, 89, 207, 152, 222
-0.99864, 209, 207, 272, 222
-0.998641, 129, 187, 192, 202
-0.998641, 193, 139, 256, 154
-0.998641, 265, 187, 328, 202
-0.998644, 153, 197, 216, 212
-0.998644, 201, 149, 264, 164
-0.998645, 233, 185, 296, 200
-0.998645, 121, 225, 184, 240
-0.998645, 89, 223, 152, 238
-0.998646, 273, 65, 304, 80
-0.998647, 81, 275, 144, 290
-0.998649, 265, 159, 328, 174
-0.99865, 25, 135, 88, 150
-0.998652, 233, 359, 296, 374
-0.998653, 241, 173, 304, 188
-0.998655, 153, 337, 216, 352
-0.998656, 265, 179, 328, 194
-0.998656, 1, 93, 128, 124
-0.998657, 97, 293, 160, 308
-0.998659, 265, 245, 328, 260
-0.998659, 265, 81, 328, 96
-0.99866, 201, 67, 264, 82
-0.99866, 209, 213, 272, 228
-0.99866, 121, 219, 184, 234
-0.99866, 113, 231, 176, 246
-0.998661, 193, 157, 256, 172
-0.998663, 193, 167, 256, 182
-0.998664, 121, 249, 184, 264
-0.998664, 233, 365, 296, 380
-0.998665, 189, 95, 220, 110
-0.998665, 129, 201, 192, 216
-0.998665, 89, 215, 152, 230
-0.998666, 169, 209, 232, 224
-0.998666, 57, 97, 88, 352
-0.998667, 217, 91, 248, 106
-0.998668, 57, 239, 120, 254
-0.998668, 257, 135, 320, 150
-0.998669, 201, 197, 264, 212
-0.99867, 113, 83, 176, 98
-0.99867, 25, 147, 88, 162
-0.998672, 129, 213, 192, 228
-0.998672, 1, 345, 330, 408
-0.998674, 81, 317, 208, 348
-0.998674, 241, 161, 304, 176
-0.998674, 185, 133, 248, 148
-0.998675, 193, 245, 256, 260
-0.998675, 1, 155, 64, 170
-0.998676, 257, 193, 320, 208
-0.998677, 265, 201, 328, 216
-0.998677, 237, 65, 252, 192
-0.998693, 85, 305, 116, 432
-0.998714, 275, 49, 290, 176
-0.998725, 49, 1, 112, 500
-0.998735, 109, 97, 124, 224
-0.998744, 131, 97, 146, 224
-0.998764, 33, 313, 160, 344
-0.998772, 49, 141, 176, 172
-0.998773, 205, 225, 236, 480
-0.998788, 147, 65, 162, 192
-0.998836, 189, 49, 204, 176
-0.998844, 253, 65, 268, 192
-0.998856, 105, 257, 136, 500
-0.998891, 91, 81, 106, 208
-0.998896, 267, 65, 282, 192
-0.998899, 203, 49, 218, 176
-0.998913, 69, 97, 84, 224
-0.998926, 147, 177, 162, 304
-0.998928, 279, 161, 294, 288
-0.998935, 61, 97, 76, 224
-0.998944, 103, 97, 118, 224
-0.998946, 215, 145, 230, 272
-0.998957, 153, 193, 168, 320
-0.998959, 141, 97, 156, 224
-0.998959, 69, 65, 100, 320
-0.998963, 281, 49, 296, 176
-0.998969, 293, 225, 324, 480
-0.99898, 161, 433, 288, 496
-0.998999, 101, 193, 116, 320
-0.99903, 133, 161, 148, 288
-0.999041, 85, 81, 100, 208
-0.999041, 269, 337, 300, 464
-0.999043, 153, 81, 168, 208
-0.999049, 97, 57, 224, 88
-0.999051, 259, 49, 274, 176
-0.999064, 45, 97, 76, 352
-0.999066, 33, 365, 160, 396
-0.999073, 183, 65, 198, 192
-0.999074, 245, 65, 260, 192
-0.999077, 111, 241, 126, 368
-0.999079, 207, 97, 222, 224
-0.999082, 221, 145, 236, 272
-0.999089, 7, 113, 22, 240
-0.999095, 77, 97, 92, 224
-0.999096, 127, 161, 142, 288
-0.999097, 81, 129, 208, 160
-0.999107, 161, 161, 176, 288
-0.999108, 287, 49, 302, 176
-0.999113, 33, 81, 160, 112
-0.999133, 97, 129, 112, 256
-0.999135, 55, 97, 70, 224
-0.999138, 285, 161, 300, 288
-0.999142, 113, 49, 128, 176
-0.999144, 221, 65, 236, 192
-0.999145, 309, 161, 324, 288
-0.999155, 197, 129, 228, 384
-0.999156, 281, 257, 312, 500
-0.999157, 25, 337, 88, 400
-0.999164, 249, 145, 264, 272
-0.999166, 273, 161, 288, 288
-0.999166, 239, 113, 254, 240
-0.99917, 209, 129, 330, 160
-0.99917, 261, 113, 276, 240
-0.999174, 215, 97, 230, 224
-0.999179, 171, 321, 186, 448
-0.999179, 81, 385, 208, 448
-0.999186, 145, 57, 272, 88
-0.999189, 105, 241, 120, 368
-0.999196, 121, 49, 136, 176
-0.999201, 107, 177, 122, 304
-0.999201, 229, 129, 244, 256
-0.999205, 161, 393, 288, 456
-0.999217, 97, 145, 224, 176
-0.99922, 115, 177, 130, 304
-0.999223, 99, 241, 114, 368
-0.999223, 197, 49, 212, 176
-0.999224, 141, 161, 156, 288
-0.999227, 73, 161, 104, 416
-0.999229, 121, 177, 136, 304
-0.999235, 263, 161, 278, 288
-0.999237, 183, 321, 198, 448
-0.999244, 9, 33, 40, 288
-0.999255, 273, 97, 288, 224
-0.999266, 299, 145, 314, 272
-0.999271, 291, 161, 306, 288
-0.999271, 281, 1, 296, 128
-0.999275, 209, 145, 224, 272
-0.99928, 221, 321, 236, 448
-0.99928, 1, 153, 128, 184
-0.999282, 21, 113, 36, 240
-0.999292, 155, 145, 170, 272
-0.999294, 13, 113, 28, 240
-0.999297, 95, 193, 110, 320
-0.9993, 255, 129, 270, 256
-0.9993, 165, 321, 180, 448
-0.999304, 117, 273, 132, 400
-0.999314, 261, 241, 276, 368
-0.999315, 177, 321, 192, 448
-0.999318, 123, 257, 138, 384
-0.999323, 29, 113, 44, 240
-0.999326, 257, 177, 272, 304
-0.999327, 237, 161, 252, 288
-0.999327, 189, 321, 204, 448
-0.99933, 267, 113, 282, 240
-0.999331, 227, 81, 242, 208
-0.999337, 153, 33, 168, 160
-0.999339, 69, 49, 84, 176
-0.999341, 151, 241, 166, 368
-0.999344, 215, 321, 230, 448
-0.999349, 241, 369, 304, 432
-0.999351, 279, 97, 294, 224
-0.999362, 243, 17, 258, 144
-0.999368, 133, 49, 148, 176
-0.999369, 133, 257, 148, 384
-0.999372, 267, 17, 282, 144
-0.999386, 275, 241, 290, 368
-0.999386, 243, 161, 258, 288
-0.999387, 197, 321, 212, 448
-0.999398, 267, 241, 282, 368
-0.999399, 281, 225, 296, 352
-0.999399, 141, 49, 156, 176
-0.999406, 205, 321, 220, 448
-0.999407, 177, 321, 304, 352
-0.999412, 103, 49, 118, 176
-0.999424, 77, 49, 92, 176
-0.999424, 145, 241, 160, 368
-0.999435, 9, 161, 24, 288
-0.999435, 89, 161, 104, 288
-0.999436, 293, 1, 324, 256
-0.999439, 147, 113, 162, 240
-0.99944, 217, 17, 232, 144
-0.99944, 177, 65, 192, 192
-0.999444, 159, 209, 174, 336
-0.999446, 177, 97, 208, 352
-0.999453, 61, 49, 76, 176
-0.999456, 137, 209, 152, 336
-0.999457, 33, 329, 160, 360
-0.999458, 127, 209, 142, 336
-0.999464, 97, 81, 112, 208
-0.999466, 215, 193, 230, 320
-0.999469, 285, 97, 300, 224
-0.999473, 193, 193, 224, 320
-0.999477, 243, 241, 258, 368
-0.999478, 201, 1, 216, 128
-0.999478, 227, 177, 242, 304
-0.99948, 293, 49, 308, 176
-0.999481, 295, 209, 310, 336
-0.999481, 49, 97, 64, 224
-0.999482, 171, 273, 186, 400
-0.999491, 189, 225, 220, 480
-0.9995, 203, 161, 218, 288
-0.999501, 303, 193, 318, 320
-0.999512, 227, 321, 242, 448
-0.999516, 129, 133, 256, 164
-0.999517, 93, 241, 108, 368
-0.99952, 89, 257, 120, 500
-0.99952, 39, 113, 54, 240
-0.999525, 251, 193, 266, 320
-0.999526, 253, 241, 268, 368
-0.999529, 101, 289, 116, 416
-0.999531, 275, 1, 290, 128
-0.999534, 117, 305, 148, 432
-0.999536, 49, 369, 176, 496
-0.999538, 287, 209, 302, 336
-0.999584, 25, 97, 56, 352
-0.999608, 169, 225, 200, 480
-0.999609, 209, 289, 330, 352
-0.999616, 141, 95, 156, 110
-0.999616, 71, 137, 86, 152
-0.999617, 259, 159, 274, 174
-0.999617, 209, 87, 224, 102
-0.999617, 223, 167, 238, 182
-0.999617, 217, 69, 232, 84
-0.999618, 139, 189, 154, 204
-0.999618, 285, 173, 300, 188
-0.99962, 65, 119, 80, 134
-0.999621, 235, 139, 250, 154
-0.999621, 105, 123, 120, 138
-0.999622, 101, 191, 116, 206
-0.999622, 113, 281, 128, 296
-0.999622, 87, 115, 102, 130
-0.999622, 125, 187, 140, 202
-0.999622, 203, 69, 218, 84
-0.999623, 151, 201, 166, 216
-0.999623, 115, 177, 130, 192
-0.999625, 273, 77, 288, 92
-0.999626, 7, 175, 22, 190
-0.999626, 193, 113, 320, 144
-0.999626, 43, 147, 58, 162
-0.999628, 157, 197, 172, 212
-0.999629, 1, 417, 128, 480
-0.999629, 57, 121, 72, 136
-0.999634, 109, 199, 124, 214
-0.999636, 29, 151, 44, 166
-0.999636, 269, 165, 284, 180
-0.999637, 219, 139, 234, 154
-0.999638, 277, 85, 292, 100
-0.999638, 181, 93, 196, 108
-0.999639, 193, 277, 320, 308
-0.999639, 205, 175, 220, 190
-0.99964, 145, 115, 160, 130
-0.99964, 123, 121, 138, 136
-0.99964, 151, 95, 166, 110
-0.999642, 133, 189, 148, 204
-0.999643, 71, 121, 86, 136
-0.999643, 85, 109, 100, 124
-0.999643, 237, 115, 252, 130
-0.999644, 151, 111, 166, 126
-0.999646, 235, 83, 250, 98
-0.999647, 233, 157, 248, 172
-0.999648, 79, 121, 94, 136
-0.999648, 45, 1, 76, 256
-0.999648, 275, 137, 290, 152
-0.999649, 53, 137, 68, 152
-0.999652, 209, 79, 224, 94
-0.999652, 97, 197, 112, 212
-0.999653, 245, 77, 260, 92
-0.999656, 251, 81, 266, 96
-0.999657, 59, 133, 74, 148
-0.999658, 281, 73, 296, 88
-0.999659, 9, 49, 72, 176
-0.999659, 41, 225, 104, 352
-0.999661, 149, 89, 164, 104
-0.999663, 221, 85, 236, 100
-0.999664, 263, 69, 278, 84
-0.999666, 19, 141, 34, 156
-0.999666, 35, 131, 50, 146
-0.999666, 169, 333, 184, 348
-0.999667, 191, 95, 206, 110
-0.999668, 81, 127, 96, 142
-0.99967, 225, 161, 240, 176
-0.99967, 207, 93, 222, 108
-0.999671, 139, 101, 154, 116
-0.999673, 187, 73, 202, 88
-0.999675, 29, 127, 44, 142
-0.999676, 21, 151, 36, 166
-0.999677, 9, 169, 24, 184
-0.999677, 215, 171, 230, 186
-0.999678, 223, 131, 238, 146
-0.999679, 287, 71, 302, 86
-0.999679, 31, 141, 46, 156
-0.99968, 273, 71, 288, 86
-0.999682, 43, 135, 58, 150
-0.999682, 13, 125, 28, 140
-0.999682, 1, 285, 128, 316
-0.999686, 115, 117, 130, 132
-0.999687, 181, 99, 196, 114
-0.999687, 283, 83, 298, 98
-0.999687, 19, 133, 34, 148
-0.999688, 19, 125, 34, 140
-0.999688, 41, 129, 56, 144
-0.999688, 191, 83, 206, 98
-0.99969, 267, 87, 282, 102
-0.99969, 255, 87, 270, 102
-0.99969, 217, 165, 232, 180
-0.999692, 125, 111, 140, 126
-0.999694, 11, 135, 26, 150
-0.999694, 41, 141, 56, 156
-0.999695, 229, 137, 244, 152
-0.999695, 75, 127, 90, 142
-0.999696, 141, 109, 156, 124
-0.999697, 71, 115, 86, 130
-0.9997, 199, 89, 214, 104
-0.999701, 235, 89, 250, 104
-0.999704, 59, 115, 74, 130
-0.999706, 219, 77, 234, 92
-0.999706, 95, 115, 110, 130
-0.999706, 257, 69, 272, 84
-0.999707, 215, 97, 230, 112
-0.999708, 157, 105, 172, 120
-0.999711, 109, 109, 124, 124
-0.999712, 99, 109, 114, 124
-0.999712, 91, 121, 106, 136
-0.999712, 225, 93, 240, 108
-0.999716, 133, 113, 148, 128
-0.999718, 195, 73, 210, 88
-0.999719, 265, 135, 280, 150
-0.99972, 225, 75, 240, 90
-0.999722, 245, 91, 260, 106
-0.999722, 183, 85, 198, 100
-0.999726, 129, 105, 144, 120
-0.999726, 29, 133, 44, 148
-0.999727, 99, 121, 114, 136
-0.99973, 135, 107, 150, 122
-0.99973, 91, 103, 106, 118
-0.99973, 49, 125, 64, 140
-0.999732, 251, 71, 266, 86
-0.999736, 259, 77, 274, 92
-0.999739, 157, 89, 172, 104
-0.999741, 181, 75, 196, 90
-0.999743, 109, 103, 124, 118
-0.999744, 277, 65, 292, 80
-0.999745, 1, 361, 256, 424
-0.999748, 65, 111, 80, 126
-0.999751, 287, 65, 302, 80
-0.999757, 1, 377, 128, 408
-0.999759, 77, 113, 92, 128
-0.999759, 115, 101, 130, 116
-0.99976, 209, 69, 224, 84
-0.999761, 227, 83, 242, 98
-0.999761, 151, 83, 166, 98
-0.999761, 235, 73, 250, 88
-0.999765, 125, 99, 140, 114
-0.999768, 135, 95, 150, 110
-0.99977, 115, 111, 130, 126
-0.999778, 33, 353, 160, 384
-0.999779, 109, 117, 124, 132
-0.999791, 1, 57, 128, 120
-0.999808, 193, 369, 256, 496
-0.999837, 129, 381, 256, 412
-0.999839, 65, 409, 192, 472
-0.999858, 249, 257, 280, 500
-0.999888, 193, 293, 320, 324
-0.999952, 81, 389, 208, 420
-0.999986, 193, 45, 320, 76
-1.00001, 49, 377, 176, 408
-1.00001, 1, 385, 256, 448
-1.00003, 1, 49, 330, 112
-1.00006, 145, 281, 272, 312
-1.00006, 17, 341, 144, 372
-1.00006, 129, 449, 256, 480
-1.00008, 49, 433, 176, 496
-1.00008, 113, 437, 240, 468
-1.00009, 73, 225, 104, 352
-1.00011, 129, 293, 256, 324
-1.00011, 73, 289, 104, 416
-1.00014, 29, 1, 60, 256
-1.00015, 145, 377, 208, 440
-1.00018, 145, 265, 272, 296
-1.0002, 81, 449, 208, 480
-1.00022, 81, 461, 208, 492
-1.00023, 65, 69, 192, 100
-1.00023, 97, 365, 224, 396
-1.00025, 1, 273, 330, 336
-1.00027, 161, 469, 288, 500
-1.00027, 161, 401, 288, 432
-1.00029, 209, 397, 330, 428
-1.00031, 161, 433, 288, 464
-1.00031, 1, 437, 128, 468
-1.00039, 129, 321, 256, 352
-1.00039, 49, 433, 176, 464
-1.00039, 105, 385, 168, 448
-1.00039, 193, 309, 320, 340
-1.00041, 193, 17, 320, 80
-1.00041, 129, 129, 192, 192
-1.00042, 177, 449, 304, 480
-1.00042, 137, 369, 200, 496
-1.00043, 129, 417, 256, 448
-1.00044, 81, 421, 208, 452
-1.00044, 1, 425, 128, 456
-1.00046, 41, 257, 72, 500
-1.00046, 257, 289, 320, 352
-1.00048, 177, 385, 304, 416
-1.00048, 153, 129, 216, 192
-1.00048, 1, 453, 128, 484
-1.00048, 193, 421, 320, 452
-1.00051, 49, 49, 80, 176
-1.00052, 129, 309, 256, 340
-1.00052, 77, 257, 108, 500
-1.00054, 97, 25, 224, 88
-1.00055, 209, 433, 330, 464
-1.00055, 81, 401, 208, 432
-1.00055, 233, 337, 264, 464
-1.00056, 1, 465, 128, 496
-1.00057, 209, 417, 330, 480
-1.00057, 1, 225, 32, 480
-1.00059, 17, 389, 144, 420
-1.00061, 1, 393, 128, 456
-1.00062, 33, 409, 160, 440
-1.00062, 17, 257, 48, 500
-1.00066, 53, 257, 84, 500
-1.00068, 209, 409, 330, 440
-1.00069, 1, 425, 256, 488
-1.0007, 209, 469, 330, 500
-1.00077, 145, 121, 272, 152
-1.00078, 209, 393, 330, 456
-1.00079, 65, 257, 96, 500
-1.00087, 1, 305, 64, 368
-1.00088, 209, 33, 330, 64
-1.00091, 5, 257, 36, 384
-1.00091, 1, 321, 330, 384
-1.00092, 161, 425, 224, 488
-1.00093, 29, 225, 60, 480
-1.00094, 113, 45, 240, 76
-1.00095, 157, 273, 188, 400
-1.00103, 1, 297, 330, 360
-1.00103, 57, 1, 88, 256
-1.00107, 25, 313, 88, 376
-1.00107, 33, 53, 160, 84
-1.00107, 1, 65, 128, 96
-1.00116, 57, 273, 88, 400
-1.00117, 97, 361, 160, 424
-1.0012, 57, 145, 88, 272
-1.00132, 13, 161, 44, 288
-1.00132, 249, 305, 280, 432
-1.00144, 161, 129, 192, 256
-1.00145, 125, 353, 156, 480
-1.00151, 209, 273, 272, 336
-1.00156, 25, 257, 88, 500
-1.00165, 1, 241, 64, 304
-1.00167, 185, 369, 216, 496
-1.00167, 65, 17, 320, 80
-1.00178, 49, 313, 112, 376
-1.00185, 37, 145, 68, 272
-1.00205, 185, 145, 216, 272
-1.00207, 45, 273, 76, 400
-1.0021, 37, 353, 68, 480
-1.00212, 209, 369, 240, 496
-1.00215, 1, 425, 330, 488
-1.00218, 161, 289, 224, 352
-1.00218, 281, 369, 312, 496
-1.00227, 33, 185, 96, 248
-1.00232, 121, 433, 184, 496
-1.00233, 1, 25, 330, 88
-1.00238, 1, 257, 64, 500
-1.00251, 1, 401, 330, 464
-1.00253, 185, 409, 248, 472
-1.00259, 185, 433, 248, 496
-1.00273, 49, 321, 80, 448
-1.00283, 145, 1, 272, 64
-1.00283, 25, 321, 88, 448
-1.0029, 1, 369, 330, 432
-1.00291, 33, 1, 160, 64
-1.00291, 81, 1, 208, 64
-1.00291, 33, 25, 160, 88
-1.00293, 17, 257, 48, 384
-1.00297, 293, 273, 324, 400
-1.00302, 33, 273, 96, 400
-1.0031, 33, 257, 64, 384
-1.00314, 293, 369, 324, 496
-1.00317, 113, 409, 176, 472
-1.0032, 293, 65, 324, 192
-1.00331, 173, 369, 204, 496
-1.00333, 137, 33, 200, 96
-1.00352, 73, 345, 136, 408
-1.00358, 1, 209, 32, 336
-1.00365, 25, 337, 56, 464
-1.00371, 61, 225, 92, 352
-1.00377, 33, 209, 96, 272
-1.0038, 105, 369, 168, 496
-1.00382, 1, 1, 330, 64
-1.0039, 265, 369, 328, 496
-1.004, 57, 369, 120, 432
-1.00403, 217, 409, 280, 472
-1.00407, 25, 233, 88, 296
-1.00408, 9, 169, 72, 232
-1.00516, 9, 193, 72, 320
-1.00527, 33, 1, 96, 256
-1.00571, 1, 289, 64, 416
-1.00579, 41, 17, 104, 144
-1.00689, 65, 337, 128, 464
-1.00769, 1, 337, 64, 464
-1.00809, 25, 369, 88, 496
-1.01156, 241, 369, 304, 496
-1.01883, 1, 1, 64, 128
