1876
-0.307078, 1, 1, 500, 333
-0.380523, 1, 1, 500, 256
-0.397683, 65, 1, 320, 333
-0.472787, 33, 65, 288, 320
-0.528017, 193, 1, 448, 333
-0.620155, 161, 65, 416, 320
-0.763312, 257, 65, 500, 320
-0.823971, 177, 65, 304, 320
-0.840145, 177, 1, 304, 333
-0.870519, 1, 145, 500, 272
-0.87423, 225, 1, 352, 333
-0.875653, 1, 193, 500, 320
-0.885744, 81, 1, 208, 256
-0.887451, 65, 81, 320, 208
-0.889453, 1, 97, 500, 224
-0.892022, 225, 1, 352, 256
-0.892244, 1, 33, 500, 160
-0.893897, 81, 1, 208, 333
-0.900166, 129, 145, 384, 272
-0.901285, 33, 65, 160, 320
-0.902021, 33, 129, 288, 256
-0.903486, 33, 1, 160, 333
-0.905524, 129, 65, 256, 320
-0.90727, 1, 177, 256, 304
-0.90986, 273, 65, 400, 320
-0.912787, 289, 1, 416, 333
-0.917981, 161, 81, 416, 208
-0.919075, 369, 1, 496, 333
-0.919525, 129, 1, 256, 333
-0.922065, 161, 129, 288, 256
-0.922238, 177, 81, 304, 208
-0.922279, 177, 129, 240, 256
-0.92526, 65, 33, 320, 160
-0.925781, 257, 113, 500, 240
-0.927829, 225, 113, 288, 240
-0.928629, 337, 65, 464, 320
-0.930586, 225, 177, 480, 304
-0.931821, 209, 145, 336, 272
-0.93249, 201, 129, 264, 256
-0.935611, 201, 49, 264, 176
-0.937204, 249, 161, 312, 288
-0.938711, 193, 33, 448, 160
-0.939822, 177, 193, 304, 320
-0.94324, 97, 193, 352, 320
-0.945315, 225, 209, 288, 333
-0.945923, 257, 161, 384, 288
-0.946244, 177, 81, 240, 208
-0.94679, 169, 161, 232, 224
-0.946843, 225, 121, 288, 184
-0.947101, 225, 97, 352, 224
-0.948187, 65, 113, 192, 240
-0.948299, 193, 193, 256, 320
-0.949308, 225, 209, 352, 333
-0.949689, 281, 209, 344, 333
-0.950239, 193, 33, 320, 160
-0.950242, 49, 145, 112, 272
-0.951163, 249, 113, 312, 240
-0.951823, 265, 177, 328, 240
-0.951868, 257, 137, 320, 200
-0.951943, 129, 177, 256, 304
-0.951961, 161, 185, 224, 248
-0.953183, 161, 177, 224, 304
-0.953742, 97, 33, 224, 160
-0.953923, 17, 161, 80, 288
-0.95404, 113, 129, 240, 256
-0.954163, 201, 177, 264, 240
-0.954652, 185, 113, 248, 176
-0.954685, 177, 137, 240, 200
-0.954933, 73, 97, 136, 224
-0.954976, 273, 97, 400, 224
-0.955137, 1, 129, 128, 256
-0.955259, 273, 161, 336, 288
-0.955618, 129, 81, 256, 208
-0.955843, 57, 193, 120, 320
-0.955859, 225, 33, 288, 160
-0.95638, 225, 153, 288, 216
-0.956816, 201, 65, 264, 128
-0.957673, 305, 145, 432, 272
-0.957948, 33, 209, 160, 333
-0.957952, 225, 177, 288, 240
-0.95801, 153, 129, 216, 256
-0.958351, 273, 209, 400, 333
-0.958504, 241, 97, 304, 160
-0.95902, 305, 177, 368, 304
-0.959281, 225, 161, 288, 288
-0.959435, 185, 89, 248, 152
-0.959553, 297, 209, 360, 272
-0.959874, 361, 177, 424, 304
-0.960151, 41, 81, 104, 208
-0.960986, 201, 153, 264, 216
-0.96142, 329, 209, 392, 333
-0.962726, 185, 33, 248, 288
-0.962986, 17, 81, 144, 208
-0.963326, 401, 129, 464, 256
-0.963513, 33, 209, 96, 333
-0.963901, 161, 177, 288, 240
-0.964227, 265, 249, 328, 312
-0.96427, 209, 89, 272, 152
-0.964402, 305, 185, 368, 248
-0.964975, 385, 177, 448, 304
-0.965045, 297, 129, 360, 256
-0.965363, 257, 49, 384, 176
-0.965659, 209, 33, 272, 288
-0.965718, 241, 201, 304, 264
-0.966167, 9, 209, 72, 333
-0.966691, 305, 161, 368, 224
-0.966982, 49, 33, 112, 160
-0.96699, 281, 121, 344, 184
-0.967028, 177, 97, 304, 160
-0.967375, 241, 273, 304, 333
-0.967378, 361, 129, 424, 256
-0.967496, 81, 129, 144, 192
-0.967734, 41, 169, 104, 232
-0.967777, 257, 65, 320, 192
-0.967827, 361, 193, 424, 256
-0.967849, 73, 145, 136, 272
-0.967961, 81, 49, 144, 176
-0.968023, 245, 81, 276, 208
-0.968063, 161, 153, 288, 216
-0.968094, 225, 177, 352, 240
-0.968168, 281, 153, 344, 216
-0.968728, 81, 105, 144, 168
-0.968808, 369, 145, 496, 272
-0.969056, 265, 201, 328, 264
-0.97016, 1, 33, 128, 160
-0.970258, 225, 49, 288, 112
-0.97046, 265, 273, 328, 333
-0.970748, 41, 145, 104, 208
-0.970756, 41, 113, 104, 176
-0.971134, 273, 113, 336, 240
-0.971221, 205, 129, 236, 256
-0.971304, 249, 1, 312, 128
-0.971655, 229, 49, 260, 176
-0.971721, 289, 233, 352, 296
-0.971994, 337, 193, 400, 256
-0.972006, 105, 33, 168, 160
-0.972163, 41, 273, 104, 333
-0.97226, 181, 129, 212, 256
-0.972266, 241, 25, 304, 88
-0.972371, 177, 169, 208, 232
-0.972423, 17, 185, 80, 248
-0.972461, 201, 65, 232, 128
-0.972516, 177, 129, 304, 192
-0.972535, 233, 65, 296, 320
-0.97267, 241, 249, 304, 312
-0.972767, 433, 129, 496, 256
-0.973001, 201, 201, 264, 264
-0.973336, 137, 185, 200, 248
-0.973602, 249, 209, 312, 333
-0.973697, 245, 121, 276, 184
-0.973766, 249, 89, 280, 152
-0.973861, 289, 257, 352, 320
-0.973873, 189, 185, 220, 248
-0.974052, 205, 177, 236, 240
-0.974133, 185, 145, 216, 208
-0.974133, 249, 1, 312, 64
-0.974139, 265, 113, 296, 240
-0.974169, 49, 161, 176, 288
-0.974219, 17, 273, 80, 333
-0.974309, 217, 273, 280, 333
-0.974452, 265, 145, 296, 208
-0.974519, 177, 73, 304, 136
-0.974699, 321, 193, 448, 320
-0.97476, 237, 129, 268, 256
-0.974773, 329, 129, 392, 256
-0.97485, 209, 201, 336, 264
-0.974898, 193, 65, 224, 192
-0.974969, 433, 177, 496, 304
-0.975001, 9, 217, 72, 280
-0.975095, 17, 113, 80, 240
-0.975128, 241, 1, 368, 128
-0.975204, 289, 185, 416, 248
-0.975715, 245, 33, 276, 160
-0.975719, 369, 193, 496, 320
-0.975762, 209, 153, 336, 216
-0.975792, 153, 209, 216, 272
-0.975838, 277, 137, 308, 200
-0.975853, 213, 153, 244, 216
-0.976, 281, 65, 344, 192
-0.976052, 193, 145, 224, 272
-0.976216, 237, 97, 268, 160
-0.976287, 153, 81, 216, 208
-0.976529, 337, 217, 400, 280
-0.976533, 221, 145, 252, 272
-0.976582, 49, 33, 176, 160
-0.976634, 145, 33, 272, 160
-0.976746, 257, 65, 320, 320
-0.976833, 217, 185, 248, 248
-0.976856, 237, 49, 268, 112
-0.976942, 137, 193, 200, 320
-0.976956, 161, 185, 192, 248
-0.977029, 65, 65, 128, 128
-0.977043, 65, 145, 192, 208
-0.977092, 253, 145, 284, 272
-0.977172, 145, 121, 208, 184
-0.977184, 69, 145, 100, 272
-0.977236, 17, 145, 80, 208
-0.977298, 337, 97, 464, 224
-0.977332, 233, 169, 264, 232
-0.977367, 417, 193, 480, 256
-0.977437, 265, 89, 328, 152
-0.977583, 265, 113, 296, 176
-0.977597, 193, 97, 224, 160
-0.977641, 281, 161, 312, 288
-0.977659, 305, 209, 336, 333
-0.977661, 305, 209, 336, 272
-0.977712, 241, 73, 304, 136
-0.977728, 113, 177, 240, 240
-0.977854, 329, 169, 392, 232
-0.977908, 189, 121, 220, 184
-0.977929, 41, 89, 104, 152
-0.977938, 249, 209, 280, 333
-0.977997, 305, 137, 368, 200
-0.97805, 145, 161, 208, 224
-0.978109, 213, 49, 244, 176
-0.978164, 113, 121, 240, 184
-0.978199, 409, 81, 472, 144
-0.9782, 81, 1, 144, 128
-0.978278, 237, 209, 268, 333
-0.978481, 269, 161, 300, 288
-0.978626, 289, 209, 416, 272
-0.978647, 81, 209, 208, 333
-0.97867, 277, 113, 308, 240
-0.978681, 177, 209, 240, 272
-0.978839, 245, 145, 276, 208
-0.978882, 65, 41, 128, 104
-0.978887, 49, 249, 112, 312
-0.978989, 213, 193, 244, 320
-0.979104, 289, 145, 320, 208
-0.979111, 305, 33, 432, 160
-0.979349, 229, 129, 260, 192
-0.979442, 217, 57, 248, 120
-0.979628, 217, 1, 280, 333
-0.979786, 249, 273, 280, 333
-0.979793, 409, 193, 472, 320
-0.9798, 393, 177, 456, 240
-0.979917, 49, 225, 112, 288
-0.980041, 289, 177, 320, 240
-0.980105, 309, 161, 340, 224
-0.980111, 65, 169, 96, 232
-0.980204, 225, 121, 352, 184
-0.980262, 169, 145, 200, 272
-0.980266, 193, 1, 256, 333
-0.980316, 361, 217, 424, 280
-0.980345, 73, 33, 136, 288
-0.980348, 253, 177, 284, 240
-0.980358, 289, 153, 416, 216
-0.980383, 265, 225, 328, 288
-0.980437, 393, 201, 456, 264
-0.980467, 317, 209, 348, 333
-0.980507, 161, 73, 224, 136
-0.980543, 41, 161, 72, 288
-0.980545, 305, 161, 336, 288
-0.980574, 1, 177, 128, 240
-0.980653, 353, 137, 416, 200
-0.980691, 257, 249, 384, 312
-0.980789, 277, 161, 308, 224
-0.980903, 121, 129, 184, 256
-0.980928, 193, 209, 224, 333
-0.980974, 425, 169, 488, 232
-0.98101, 225, 41, 352, 104
-0.981151, 329, 49, 392, 176
-0.981181, 9, 65, 72, 192
-0.981194, 177, 265, 304, 328
-0.981196, 361, 169, 424, 232
-0.981204, 353, 17, 480, 144
-0.981274, 97, 33, 160, 96
-0.981306, 369, 89, 432, 152
-0.981334, 37, 209, 68, 333
-0.981466, 113, 201, 240, 264
-0.981506, 321, 249, 384, 312
-0.981531, 17, 249, 80, 312
-0.981567, 393, 193, 424, 320
-0.981631, 93, 65, 124, 192
-0.981674, 369, 177, 496, 240
-0.981704, 201, 153, 232, 216
-0.981731, 193, 273, 256, 333
-0.981778, 65, 161, 128, 224
-0.981847, 293, 161, 324, 288
-0.981866, 81, 97, 208, 160
-0.98192, 225, 97, 352, 160
-0.981979, 289, 113, 320, 240
-0.982065, 213, 121, 244, 184
-0.982087, 265, 65, 296, 192
-0.982127, 217, 25, 280, 88
-0.982158, 57, 209, 88, 333
-0.98221, 65, 17, 128, 80
-0.982392, 81, 113, 112, 240
-0.982502, 57, 201, 120, 264
-0.982505, 409, 105, 472, 168
-0.982661, 225, 209, 256, 333
-0.9827, 369, 81, 432, 208
-0.982767, 297, 65, 360, 320
-0.982842, 89, 81, 152, 144
-0.982925, 237, 201, 268, 264
-0.982935, 113, 153, 240, 216
-0.982963, 1, 49, 128, 112
-0.983012, 369, 57, 432, 120
-0.983031, 401, 81, 464, 208
-0.983091, 225, 17, 352, 80
-0.983186, 313, 185, 344, 248
-0.983217, 269, 273, 300, 333
-0.983309, 313, 81, 376, 144
-0.983351, 241, 1, 304, 333
-0.983354, 53, 177, 84, 240
-0.983435, 161, 217, 288, 280
-0.983517, 229, 73, 260, 136
-0.983562, 161, 65, 224, 320
-0.983574, 93, 105, 124, 168
-0.983649, 17, 121, 144, 184
-0.983679, 1, 97, 128, 160
-0.98368, 61, 97, 92, 224
-0.983718, 17, 265, 144, 328
-0.983792, 65, 169, 192, 232
-0.983859, 337, 113, 400, 176
-0.983867, 145, 273, 208, 333
-0.983912, 81, 273, 144, 333
-0.983994, 177, 193, 208, 320
-0.98402, 433, 89, 496, 152
-0.984053, 121, 273, 184, 333
-0.984077, 177, 49, 304, 112
-0.984165, 297, 233, 328, 296
-0.984218, 341, 193, 372, 320
-0.984232, 81, 73, 208, 136
-0.984237, 313, 57, 376, 120
-0.984305, 225, 225, 288, 288
-0.984349, 293, 209, 324, 333
-0.98444, 1, 153, 128, 216
-0.984559, 353, 209, 384, 333
-0.984757, 213, 89, 244, 152
-0.984759, 97, 57, 160, 120
-0.984774, 189, 209, 220, 272
-0.984777, 401, 153, 464, 216
-0.984901, 345, 65, 408, 128
-0.984945, 285, 233, 316, 296
-0.984971, 49, 113, 80, 240
-0.985005, 385, 177, 416, 240
-0.985051, 81, 209, 144, 333
-0.985094, 337, 209, 464, 272
-0.985186, 161, 97, 224, 160
-0.985215, 217, 209, 248, 272
-0.985258, 129, 89, 256, 152
-0.98529, 57, 273, 88, 333
-0.985306, 381, 193, 412, 320
-0.985325, 249, 209, 280, 272
-0.985348, 97, 49, 224, 112
-0.985356, 365, 193, 396, 256
-0.985368, 113, 9, 176, 72
-0.985434, 1, 73, 128, 136
-0.985465, 289, 121, 320, 184
-0.985479, 433, 129, 496, 192
-0.985551, 225, 273, 352, 333
-0.985595, 25, 65, 88, 320
-0.985671, 305, 81, 432, 144
-0.985696, 257, 73, 384, 136
-0.985735, 305, 113, 368, 176
-0.985788, 129, 273, 256, 333
-0.985884, 65, 193, 192, 256
-0.985961, 401, 129, 464, 192
-0.986047, 209, 241, 336, 304
-0.986073, 289, 129, 416, 192
-0.986076, 273, 273, 400, 333
-0.986078, 53, 161, 84, 288
-0.986087, 353, 33, 416, 160
-0.986125, 201, 201, 232, 264
-0.986169, 337, 273, 400, 333
-0.986193, 265, 249, 296, 312
-0.986215, 33, 217, 160, 280
-0.986278, 97, 81, 128, 144
-0.986296, 261, 209, 292, 333
-0.986313, 105, 33, 136, 160
-0.98635, 17, 17, 144, 80
-0.986359, 437, 177, 468, 240
-0.986384, 265, 65, 328, 128
-0.986414, 409, 129, 440, 256
-0.98644, 9, 121, 72, 184
-0.98649, 345, 41, 408, 104
-0.986496, 57, 145, 88, 208
-0.98652, 249, 65, 280, 128
-0.986573, 201, 129, 232, 192
-0.986611, 65, 121, 192, 184
-0.986682, 257, 1, 288, 64
-0.98676, 33, 241, 160, 304
-0.986845, 349, 185, 380, 248
-0.986864, 317, 209, 348, 272
-0.986883, 357, 257, 388, 320
-0.986899, 173, 145, 204, 208
-0.986953, 365, 225, 396, 288
-0.98698, 301, 137, 332, 200
-0.98699, 1, 81, 64, 144
-0.987051, 297, 257, 328, 320
-0.987061, 129, 177, 384, 240
-0.987125, 249, 25, 280, 88
-0.987138, 81, 1, 144, 333
-0.987194, 41, 65, 104, 128
-0.987282, 377, 129, 440, 192
-0.987283, 165, 193, 196, 320
-0.987288, 329, 209, 360, 333
-0.987362, 329, 209, 360, 272
-0.987364, 65, 217, 96, 280
-0.987405, 173, 193, 204, 256
-0.987474, 81, 273, 208, 333
-0.987486, 89, 1, 152, 64
-0.987548, 73, 145, 104, 208
-0.987565, 169, 265, 232, 328
-0.987593, 313, 273, 376, 333
-0.987608, 177, 33, 240, 160
-0.987627, 217, 97, 248, 224
-0.987652, 65, 113, 96, 176
-0.987676, 329, 145, 392, 208
-0.987805, 177, 149, 240, 180
-0.987817, 37, 273, 68, 333
-0.987833, 265, 1, 328, 333
-0.987878, 353, 113, 480, 176
-0.987882, 161, 181, 224, 212
-0.987936, 337, 89, 400, 152
-0.987963, 41, 225, 72, 288
-0.988002, 17, 17, 80, 144
-0.988012, 261, 81, 292, 144
-0.98806, 369, 273, 496, 333
-0.98806, 293, 201, 324, 264
-0.988079, 393, 65, 456, 320
-0.988181, 169, 1, 232, 333
-0.988187, 305, 97, 336, 224
-0.988201, 345, 257, 376, 320
-0.988226, 201, 1, 264, 128
-0.988232, 369, 89, 496, 152
-0.988263, 193, 41, 256, 104
-0.988293, 289, 41, 352, 104
-0.98832, 185, 197, 248, 228
-0.988357, 265, 193, 296, 256
-0.988358, 29, 129, 60, 256
-0.988364, 249, 141, 312, 172
-0.988375, 305, 249, 432, 312
-0.988473, 369, 193, 400, 320
-0.988543, 425, 193, 456, 256
-0.988547, 329, 161, 360, 224
-0.988548, 185, 169, 248, 200
-0.988613, 85, 129, 116, 192
-0.988628, 49, 41, 176, 104
-0.988663, 177, 137, 240, 168
-0.988667, 361, 153, 392, 216
-0.988668, 217, 153, 280, 184
-0.988679, 49, 65, 112, 320
-0.988762, 281, 273, 312, 333
-0.988793, 1, 57, 64, 120
-0.988796, 173, 121, 204, 184
-0.988796, 41, 33, 104, 96
-0.988797, 241, 121, 304, 152
-0.988816, 65, 153, 320, 216
-0.988873, 77, 65, 108, 192
-0.988879, 5, 161, 36, 288
-0.988885, 225, 181, 288, 212
-0.988896, 181, 81, 212, 208
-0.988932, 217, 1, 280, 64
-0.988948, 325, 145, 356, 272
-0.988957, 393, 57, 456, 120
-0.988973, 225, 109, 288, 140
-0.989007, 353, 153, 480, 216
-0.989015, 201, 209, 264, 240
-0.98907, 249, 161, 312, 192
-0.989106, 405, 177, 436, 240
-0.989143, 389, 145, 420, 272
-0.989156, 273, 105, 400, 168
-0.989161, 433, 65, 496, 128
-0.989169, 341, 129, 372, 192
-0.989234, 345, 201, 408, 232
-0.989291, 237, 273, 268, 333
-0.989341, 385, 209, 416, 272
-0.989342, 185, 185, 248, 216
-0.989376, 265, 173, 328, 204
-0.989382, 369, 197, 432, 228
-0.989415, 77, 73, 108, 136
-0.989436, 161, 197, 224, 228
-0.989461, 185, 113, 248, 144
-0.989464, 17, 33, 80, 96
-0.989467, 65, 81, 320, 144
-0.989513, 117, 17, 148, 80
-0.989537, 225, 137, 288, 168
-0.989566, 185, 93, 248, 124
-0.989569, 313, 205, 376, 236
-0.989575, 137, 97, 200, 160
-0.989616, 129, 81, 192, 208
-0.989617, 97, 25, 224, 88
-0.989635, 37, 153, 68, 216
-0.989653, 277, 113, 308, 176
-0.98966, 209, 197, 272, 228
-0.989676, 349, 161, 380, 224
-0.989691, 425, 81, 488, 208
-0.989703, 341, 209, 372, 272
-0.98973, 225, 169, 288, 200
-0.989786, 305, 65, 368, 192
-0.989822, 381, 129, 412, 192
-0.989833, 265, 193, 328, 224
-0.989843, 17, 185, 80, 216
-0.989849, 161, 161, 224, 192
-0.989858, 265, 169, 296, 232
-0.989872, 185, 81, 248, 112
-0.989925, 21, 177, 52, 240
-0.989956, 425, 65, 488, 320
-0.989963, 241, 93, 304, 124
-0.98997, 201, 137, 264, 168
-0.98997, 73, 293, 136, 324
-0.989983, 393, 197, 456, 228
-0.989993, 113, 177, 176, 240
-0.989993, 305, 193, 368, 224
-0.990017, 265, 33, 328, 96
-0.990023, 209, 125, 272, 156
-0.990078, 329, 1, 392, 128
-0.990102, 349, 145, 380, 272
-0.990124, 41, 141, 104, 172
-0.990146, 41, 293, 104, 324
-0.990153, 65, 129, 320, 192
-0.990184, 317, 121, 348, 184
-0.990215, 225, 209, 288, 240
-0.990217, 97, 1, 224, 64
-0.990223, 273, 157, 336, 188
-0.990244, 145, 33, 208, 160
-0.990264, 41, 169, 104, 200
-0.990264, 425, 201, 488, 232
-0.990274, 161, 89, 416, 152
-0.990283, 377, 145, 408, 272
-0.990311, 161, 209, 224, 240
-0.99032, 289, 97, 320, 160
-0.990336, 177, 25, 304, 88
-0.990344, 89, 33, 120, 96
-0.990346, 17, 217, 80, 248
-0.990358, 297, 165, 360, 196
-0.990393, 1, 65, 64, 320
-0.990411, 81, 129, 144, 160
-0.990437, 81, 113, 144, 144
-0.99045, 97, 1, 160, 256
-0.990453, 325, 185, 356, 248
-0.990458, 33, 105, 288, 168
-0.990458, 305, 217, 368, 248
-0.990459, 209, 97, 272, 128
-0.990488, 185, 125, 248, 156
-0.990489, 49, 117, 112, 148
-0.990509, 33, 1, 96, 333
-0.990521, 405, 177, 436, 304
-0.99053, 225, 277, 288, 308
-0.990553, 93, 113, 124, 240
-0.990565, 1, 185, 256, 248
-0.990569, 237, 25, 268, 88
-0.99058, 241, 289, 304, 320
-0.990581, 49, 277, 112, 308
-0.990584, 81, 201, 144, 264
-0.990599, 265, 125, 328, 156
-0.990604, 337, 145, 368, 272
-0.990614, 257, 257, 320, 288
-0.990644, 209, 61, 272, 92
-0.990647, 273, 141, 336, 172
-0.9907, 249, 105, 312, 136
-0.990764, 445, 129, 476, 256
-0.990771, 385, 209, 448, 240
-0.990775, 49, 101, 112, 132
-0.990781, 41, 153, 104, 184
-0.990796, 1, 129, 500, 192
-0.990807, 21, 177, 52, 304
-0.990831, 257, 277, 320, 308
-0.990836, 289, 229, 352, 260
-0.990838, 185, 65, 248, 96
-0.990859, 137, 193, 200, 224
-0.990859, 345, 213, 408, 244
-0.990865, 225, 105, 256, 168
-0.990873, 225, 177, 480, 240
-0.990879, 57, 217, 120, 248
-0.99088, 161, 1, 288, 64
-0.990903, 377, 185, 440, 216
-0.990913, 421, 113, 452, 240
-0.990923, 305, 153, 368, 184
-0.990929, 217, 49, 280, 80
-0.990941, 281, 209, 312, 333
-0.99095, 209, 81, 272, 112
-0.990968, 369, 57, 496, 120
-0.99106, 129, 289, 192, 320
-0.991082, 57, 205, 120, 236
-0.99109, 449, 177, 480, 240
-0.991109, 73, 141, 136, 172
-0.991111, 321, 273, 448, 333
-0.991113, 289, 205, 352, 236
-0.991124, 345, 189, 408, 220
-0.991144, 265, 289, 328, 320
-0.991144, 149, 201, 180, 264
-0.991154, 161, 121, 416, 184
-0.991155, 9, 145, 72, 176
-0.991182, 41, 181, 104, 212
-0.991193, 257, 17, 288, 144
-0.991195, 401, 185, 464, 216
-0.991203, 17, 169, 80, 200
-0.991217, 41, 129, 104, 160
-0.991239, 357, 97, 388, 224
-0.991249, 273, 241, 336, 272
-0.991256, 57, 229, 120, 260
-0.991266, 17, 245, 80, 276
-0.991305, 305, 181, 368, 212
-0.991305, 65, 65, 128, 96
-0.991328, 9, 289, 72, 320
-0.991351, 109, 41, 140, 104
-0.991373, 41, 177, 72, 240
-0.991384, 305, 245, 368, 276
-0.991394, 313, 233, 344, 296
-0.991423, 65, 193, 96, 256
-0.991427, 381, 97, 412, 160
-0.991435, 337, 161, 400, 192
-0.991437, 105, 105, 168, 168
-0.991466, 233, 197, 296, 228
-0.991468, 249, 217, 312, 248
-0.991471, 153, 293, 216, 324
-0.991482, 137, 205, 200, 236
-0.991543, 217, 273, 248, 333
-0.991548, 209, 221, 272, 252
-0.991552, 369, 273, 400, 333
-0.991559, 17, 129, 48, 256
-0.991562, 73, 101, 136, 132
-0.991563, 321, 33, 384, 288
-0.99157, 153, 49, 216, 112
-0.991576, 89, 273, 120, 333
-0.991577, 321, 57, 448, 120
-0.991581, 145, 189, 272, 220
-0.991589, 337, 149, 400, 180
-0.991593, 313, 265, 344, 328
-0.99162, 73, 33, 136, 64
-0.991632, 193, 285, 256, 316
-0.991645, 1, 193, 500, 256
-0.991646, 145, 129, 208, 160
-0.99165, 161, 145, 416, 208
-0.991653, 421, 169, 452, 232
-0.991655, 57, 77, 120, 108
-0.991656, 241, 41, 304, 72
-0.991656, 369, 265, 432, 328
-0.991674, 385, 89, 448, 120
-0.991677, 57, 249, 88, 312
-0.991684, 277, 81, 308, 144
-0.99169, 265, 205, 328, 236
-0.991697, 209, 177, 336, 208
-0.991702, 9, 269, 72, 300
-0.991703, 453, 153, 484, 216
-0.99171, 153, 145, 216, 176
-0.991722, 1, 169, 500, 232
-0.991757, 281, 277, 344, 308
-0.991762, 377, 33, 440, 160
-0.991764, 365, 145, 396, 272
-0.991765, 129, 301, 192, 332
-0.991772, 433, 33, 496, 160
-0.991802, 161, 117, 224, 148
-0.991803, 81, 1, 144, 32
-0.991812, 249, 1, 312, 32
-0.991814, 1, 205, 64, 236
-0.991817, 105, 289, 168, 320
-0.991825, 353, 249, 480, 312
-0.991829, 17, 157, 80, 188
-0.991833, 137, 177, 200, 208
-0.991849, 241, 81, 304, 112
-0.991853, 289, 129, 352, 160
-0.991859, 209, 297, 272, 328
-0.991861, 369, 129, 432, 160
-0.991876, 89, 89, 152, 120
-0.99188, 297, 93, 360, 124
-0.991883, 337, 89, 400, 120
-0.991888, 433, 189, 496, 220
-0.991893, 65, 45, 128, 76
-0.991903, 17, 301, 80, 332
-0.991905, 265, 89, 328, 120
-0.991914, 393, 117, 456, 148
-0.991917, 353, 65, 416, 320
-0.991933, 433, 81, 496, 112
-0.991934, 241, 17, 304, 48
-0.991939, 361, 153, 424, 184
-0.991939, 425, 65, 456, 192
-0.991946, 369, 33, 432, 96
-0.991947, 177, 297, 240, 328
-0.991952, 321, 265, 384, 296
-0.992041, 297, 1, 360, 333
-0.992054, 217, 249, 280, 312
-0.992089, 117, 1, 148, 128
-0.992096, 129, 209, 384, 272
-0.992116, 65, 57, 320, 120
-0.992157, 397, 209, 428, 272
-0.99216, 301, 113, 332, 176
-0.992185, 161, 157, 288, 188
-0.992193, 65, 9, 320, 72
-0.9922, 165, 193, 196, 224
-0.992206, 225, 1, 256, 128
-0.992215, 185, 137, 216, 168
-0.992258, 177, 273, 208, 333
-0.992273, 261, 165, 292, 196
-0.992286, 177, 169, 208, 200
-0.992339, 249, 93, 280, 124
-0.992343, 65, 33, 320, 96
-0.992349, 193, 57, 448, 120
-0.992351, 205, 273, 236, 333
-0.992366, 241, 153, 272, 184
-0.992377, 233, 109, 264, 140
-0.992384, 249, 209, 280, 240
-0.992388, 213, 161, 244, 192
-0.992388, 445, 177, 476, 304
-0.992398, 205, 197, 236, 228
-0.992403, 233, 213, 264, 244
-0.992411, 257, 109, 288, 140
-0.992431, 185, 181, 216, 212
-0.992443, 217, 205, 248, 236
-0.99247, 201, 173, 232, 204
-0.992472, 457, 161, 488, 288
-0.992477, 161, 209, 192, 272
-0.992478, 305, 209, 336, 240
-0.992482, 421, 193, 452, 224
-0.992485, 245, 121, 276, 152
-0.992499, 185, 193, 216, 224
-0.992511, 309, 197, 340, 228
-0.992524, 165, 181, 196, 212
-0.992529, 181, 157, 212, 188
-0.992531, 213, 173, 244, 204
-0.992531, 233, 201, 264, 232
-0.992532, 469, 129, 500, 256
-0.992538, 265, 125, 296, 156
-0.992546, 433, 193, 464, 224
-0.992557, 213, 149, 244, 180
-0.992562, 233, 169, 264, 200
-0.992562, 397, 197, 428, 228
-0.992567, 401, 89, 432, 152
-0.992582, 365, 209, 396, 240
-0.992584, 201, 69, 232, 100
-0.992588, 345, 205, 376, 236
-0.99259, 197, 93, 228, 124
-0.992595, 293, 233, 324, 264
-0.992598, 229, 157, 260, 188
-0.992608, 217, 185, 248, 216
-0.992613, 257, 149, 288, 180
-0.992628, 53, 293, 84, 324
-0.992632, 193, 149, 224, 180
-0.992633, 277, 153, 308, 184
-0.992642, 205, 137, 236, 168
-0.992646, 77, 177, 108, 240
-0.992647, 189, 209, 220, 240
-0.992663, 289, 177, 320, 208
-0.992664, 61, 173, 92, 204
-0.992675, 277, 173, 308, 204
-0.992684, 385, 201, 416, 232
-0.992685, 41, 177, 72, 208
-0.992687, 353, 217, 384, 280
-0.992694, 257, 181, 288, 212
-0.992701, 257, 137, 288, 168
-0.992702, 329, 205, 360, 236
-0.99272, 189, 125, 220, 156
-0.992724, 197, 81, 228, 112
-0.992735, 409, 201, 440, 232
-0.992737, 213, 61, 244, 92
-0.992739, 369, 113, 400, 176
-0.992739, 209, 205, 336, 236
-0.992765, 293, 157, 324, 188
-0.992766, 201, 225, 264, 288
-0.992768, 273, 17, 336, 144
-0.992768, 233, 49, 264, 80
-0.992776, 129, 209, 192, 272
-0.992777, 81, 97, 112, 160
-0.992777, 89, 121, 120, 152
-0.992784, 233, 97, 264, 128
-0.992789, 245, 105, 276, 136
-0.992798, 197, 185, 228, 216
-0.992799, 97, 1, 128, 64
-0.9928, 177, 205, 208, 236
-0.992801, 441, 89, 472, 152
-0.992804, 73, 293, 104, 324
-0.992806, 289, 89, 352, 152
-0.992815, 21, 185, 52, 216
-0.992821, 373, 197, 404, 228
-0.992824, 233, 141, 264, 172
-0.99283, 225, 209, 480, 272
-0.992833, 249, 289, 280, 320
-0.992833, 97, 97, 160, 224
-0.992835, 349, 49, 380, 176
-0.992842, 289, 145, 320, 176
-0.992845, 61, 225, 92, 256
-0.992847, 157, 205, 188, 236
-0.992852, 317, 209, 348, 240
-0.992855, 249, 165, 280, 196
-0.992856, 361, 197, 392, 228
-0.992857, 193, 109, 224, 140
-0.992865, 345, 157, 376, 188
-0.992873, 65, 213, 96, 244
-0.992877, 277, 133, 308, 164
-0.992881, 377, 213, 408, 244
-0.992888, 61, 145, 92, 176
-0.992896, 1, 169, 32, 232
-0.9929, 205, 177, 220, 240
-0.99291, 253, 17, 284, 48
-0.992915, 245, 133, 276, 164
-0.992916, 53, 281, 84, 312
-0.992921, 409, 189, 440, 220
-0.992924, 153, 193, 184, 224
-0.992932, 217, 217, 248, 248
-0.992934, 205, 209, 236, 240
-0.992937, 253, 277, 284, 308
-0.992943, 65, 133, 96, 164
-0.99295, 49, 165, 80, 196
-0.992958, 265, 97, 296, 128
-0.99296, 37, 289, 68, 320
-0.99296, 269, 281, 300, 312
-0.992962, 161, 173, 288, 204
-0.992969, 93, 109, 124, 140
-0.992971, 233, 189, 264, 220
-0.992972, 321, 193, 352, 224
-0.992975, 221, 93, 252, 124
-0.992975, 245, 41, 276, 72
-0.992978, 213, 117, 244, 148
-0.992984, 289, 281, 320, 312
-0.992987, 289, 133, 320, 164
-0.99299, 309, 185, 340, 216
-0.992991, 445, 193, 476, 224
-0.992991, 309, 169, 340, 200
-0.992991, 1, 105, 500, 168
-0.993002, 25, 265, 56, 328
-0.993003, 333, 97, 364, 224
-0.993006, 277, 121, 308, 152
-0.993007, 197, 161, 228, 192
-0.993013, 161, 289, 192, 320
-0.993028, 101, 293, 132, 324
-0.99303, 281, 245, 312, 276
-0.993031, 21, 173, 52, 204
-0.993031, 377, 185, 408, 216
-0.993033, 69, 193, 100, 320
-0.993037, 349, 145, 380, 176
-0.993038, 345, 169, 376, 200
-0.993044, 353, 221, 384, 252
-0.993048, 69, 117, 100, 148
-0.993053, 233, 85, 264, 116
-0.993054, 233, 277, 264, 308
-0.993058, 45, 221, 76, 252
-0.993058, 233, 129, 264, 160
-0.993062, 249, 81, 280, 112
-0.993063, 73, 101, 104, 132
-0.993064, 125, 285, 156, 316
-0.993065, 89, 289, 120, 320
-0.993066, 253, 29, 284, 60
-0.993067, 61, 157, 92, 188
-0.993071, 97, 97, 128, 128
-0.993072, 289, 121, 320, 152
-0.993076, 305, 225, 336, 256
-0.993082, 1, 177, 32, 208
-0.993083, 245, 197, 276, 228
-0.993089, 209, 81, 240, 112
-0.99309, 305, 157, 336, 188
-0.993093, 329, 137, 360, 200
-0.993122, 97, 145, 160, 272
-0.99317, 341, 233, 372, 296
-0.993271, 1, 57, 500, 120
-0.99329, 273, 49, 400, 112
-0.993295, 161, 273, 416, 333
-0.993315, 285, 65, 316, 192
-0.993349, 1, 249, 256, 312
-0.993358, 469, 177, 500, 304
-0.99336, 177, 97, 304, 128
-0.993374, 199, 185, 214, 248
-0.99338, 433, 177, 464, 304
-0.993443, 397, 97, 428, 224
-0.993555, 257, 89, 272, 152
-0.993568, 365, 33, 396, 160
-0.99358, 1, 209, 256, 272
-0.993649, 433, 113, 464, 240
-0.993679, 9, 1, 72, 333
-0.993684, 177, 109, 304, 140
-0.993694, 105, 209, 136, 333
-0.993704, 257, 81, 500, 144
-0.993708, 177, 133, 304, 164
-0.993835, 289, 201, 416, 232
-0.993916, 93, 1, 124, 128
-0.993922, 201, 17, 232, 144
-0.993922, 171, 185, 186, 248
-0.993923, 17, 1, 48, 128
-0.993924, 1, 217, 500, 280
-0.993943, 1, 273, 256, 333
-0.993944, 321, 33, 448, 96
-0.993978, 33, 81, 64, 208
-0.99398, 213, 185, 228, 248
-0.993995, 381, 81, 412, 208
-0.994101, 161, 145, 288, 176
-0.994189, 377, 1, 440, 333
-0.994207, 81, 161, 112, 288
-0.99423, 251, 201, 266, 264
-0.994233, 269, 121, 284, 184
-0.99425, 249, 97, 264, 160
-0.994252, 1, 33, 32, 160
-0.994254, 33, 293, 160, 324
-0.994263, 177, 85, 304, 116
-0.994316, 409, 81, 440, 208
-0.994319, 257, 129, 500, 192
-0.994332, 285, 137, 300, 200
-0.994357, 229, 185, 244, 248
-0.994361, 1, 33, 500, 96
-0.994377, 289, 217, 416, 248
-0.994408, 241, 193, 368, 224
-0.99441, 177, 169, 192, 232
-0.994457, 267, 161, 282, 224
-0.99452, 209, 149, 336, 180
-0.994554, 185, 137, 200, 200
-0.99459, 1, 257, 500, 320
-0.994597, 401, 1, 464, 333
-0.994609, 305, 189, 432, 220
-0.994647, 369, 97, 400, 224
-0.994692, 257, 105, 500, 168
-0.994703, 129, 249, 256, 312
-0.994704, 57, 1, 120, 333
-0.994708, 145, 201, 272, 232
-0.994715, 317, 65, 348, 192
-0.994737, 289, 177, 416, 208
-0.994741, 93, 193, 124, 320
-0.994749, 257, 233, 500, 296
-0.99475, 105, 129, 136, 256
-0.994758, 353, 1, 416, 333
-0.994769, 259, 137, 274, 200
-0.994802, 161, 121, 288, 152
-0.99481, 193, 193, 320, 224
-0.994883, 303, 169, 318, 232
-0.994886, 271, 265, 286, 328
-0.994886, 257, 177, 272, 240
-0.994896, 289, 9, 416, 72
-0.994912, 425, 1, 488, 333
-0.994924, 177, 281, 304, 312
-0.99493, 113, 137, 240, 168
-0.994965, 273, 161, 288, 224
-0.994971, 257, 153, 500, 216
-0.994985, 241, 185, 256, 248
-0.994993, 291, 137, 306, 200
-0.995019, 261, 113, 276, 176
-0.995061, 75, 169, 90, 232
-0.995081, 249, 129, 264, 192
-0.995083, 1, 113, 32, 240
-0.995096, 225, 97, 352, 128
-0.995096, 1, 1, 500, 64
-0.995101, 209, 165, 336, 196
-0.995118, 189, 169, 204, 232
-0.995134, 1, 189, 128, 220
-0.995188, 99, 89, 114, 152
-0.995188, 209, 33, 240, 288
-0.995193, 267, 97, 282, 160
-0.995201, 165, 185, 180, 248
-0.995206, 369, 33, 496, 96
-0.995208, 225, 57, 240, 120
-0.995217, 235, 177, 250, 240
-0.995218, 199, 137, 214, 200
-0.995224, 211, 65, 226, 128
-0.99524, 297, 17, 360, 144
-0.995241, 309, 201, 324, 264
-0.99525, 191, 113, 206, 176
-0.995252, 253, 65, 268, 128
-0.995273, 225, 145, 240, 208
-0.9953, 249, 153, 264, 216
-0.995312, 193, 25, 448, 88
-0.995315, 369, 197, 496, 228
-0.995318, 213, 1, 244, 128
-0.995318, 313, 161, 328, 224
-0.995322, 97, 205, 224, 236
-0.995323, 321, 1, 384, 333
-0.99535, 251, 177, 266, 240
-0.995355, 193, 33, 224, 288
-0.995365, 221, 185, 236, 248
-0.995383, 277, 137, 292, 200
-0.995395, 205, 201, 220, 264
-0.995401, 315, 185, 330, 248
-0.995401, 377, 1, 408, 128
-0.995409, 205, 153, 220, 216
-0.995416, 345, 97, 376, 224
-0.995419, 17, 49, 48, 176
-0.995427, 81, 17, 112, 144
-0.995462, 113, 177, 240, 208
-0.995464, 299, 145, 314, 208
-0.995498, 97, 117, 224, 148
-0.995498, 193, 69, 320, 100
-0.99553, 195, 161, 210, 224
-0.995534, 65, 169, 80, 232
-0.995534, 261, 265, 276, 328
-0.995535, 235, 129, 250, 192
-0.995545, 225, 133, 352, 164
-0.995547, 237, 49, 252, 112
-0.995565, 81, 89, 208, 120
-0.99558, 129, 241, 384, 304
-0.995581, 211, 161, 226, 224
-0.995661, 65, 153, 192, 184
-0.995673, 421, 161, 452, 288
-0.995683, 237, 153, 252, 216
-0.995719, 203, 65, 218, 128
-0.995729, 225, 217, 352, 248
-0.99574, 245, 49, 260, 112
-0.995742, 197, 97, 212, 160
-0.995744, 1, 101, 128, 132
-0.995756, 145, 213, 272, 244
-0.995775, 457, 113, 488, 240
-0.995808, 305, 145, 320, 208
-0.995813, 289, 165, 416, 196
-0.995821, 253, 273, 268, 333
-0.995834, 279, 161, 294, 224
-0.995834, 81, 153, 96, 216
-0.995837, 181, 193, 196, 256
-0.995839, 65, 181, 192, 212
-0.995862, 81, 101, 208, 132
-0.99587, 263, 185, 278, 248
-0.995872, 207, 129, 222, 192
-0.995891, 113, 149, 240, 180
-0.995899, 93, 105, 108, 168
-0.995913, 229, 33, 260, 288
-0.995938, 369, 185, 496, 216
-0.995938, 97, 193, 224, 224
-0.995955, 227, 121, 242, 184
-0.995957, 397, 49, 428, 176
-0.995969, 1, 81, 500, 144
-0.995995, 297, 233, 312, 296
-0.996033, 243, 89, 258, 152
-0.996054, 231, 49, 246, 112
-0.996057, 193, 1, 448, 64
-0.996086, 293, 161, 308, 224
-0.996098, 219, 57, 234, 120
-0.996122, 315, 217, 330, 280
-0.996128, 65, 169, 192, 200
-0.996131, 251, 33, 266, 96
-0.996131, 223, 81, 238, 144
-0.996136, 97, 285, 224, 316
-0.996156, 257, 121, 384, 152
-0.996164, 277, 265, 292, 328
-0.996191, 225, 41, 352, 72
-0.996191, 1, 145, 128, 176
-0.996196, 149, 193, 180, 320
-0.9962, 1, 121, 128, 152
-0.996208, 305, 257, 320, 320
-0.996215, 279, 105, 294, 168
-0.996217, 255, 113, 270, 176
-0.996222, 231, 273, 246, 333
-0.996222, 59, 273, 74, 333
-0.996232, 113, 165, 240, 196
-0.996235, 193, 193, 208, 256
-0.99624, 273, 145, 400, 176
-0.996242, 239, 217, 254, 280
-0.996251, 209, 57, 336, 88
-0.996258, 273, 229, 400, 260
-0.996258, 183, 169, 198, 232
-0.996265, 157, 113, 188, 240
-0.996278, 33, 273, 160, 304
-0.996281, 213, 209, 228, 272
-0.996282, 219, 209, 234, 272
-0.996302, 17, 49, 144, 80
-0.99631, 105, 65, 120, 128
-0.996332, 105, 1, 168, 333
-0.996345, 237, 89, 252, 152
-0.996349, 219, 145, 234, 208
-0.996349, 181, 65, 212, 320
-0.996358, 257, 249, 384, 280
-0.996377, 33, 225, 160, 256
-0.996392, 259, 65, 274, 128
-0.996397, 209, 293, 336, 324
-0.996406, 1, 69, 128, 100
-0.996416, 445, 81, 476, 208
-0.996418, 241, 85, 368, 116
-0.996441, 225, 265, 352, 296
-0.996471, 287, 161, 302, 224
-0.996478, 383, 185, 398, 248
-0.996509, 307, 225, 322, 288
-0.996512, 53, 225, 68, 288
-0.996513, 261, 209, 276, 272
-0.996517, 1, 133, 128, 164
-0.99652, 269, 1, 300, 128
-0.996522, 145, 293, 272, 324
-0.996529, 241, 33, 272, 288
-0.996536, 145, 1, 208, 333
-0.996545, 87, 129, 102, 192
-0.996546, 1, 165, 128, 196
-0.996552, 257, 277, 384, 308
-0.996564, 115, 25, 130, 88
-0.996596, 245, 209, 260, 272
-0.996603, 65, 225, 80, 288
-0.996613, 1, 177, 128, 208
-0.996613, 231, 153, 246, 216
-0.996617, 53, 273, 68, 333
-0.99662, 129, 93, 256, 124
-0.996635, 213, 121, 228, 184
-0.996635, 171, 189, 186, 220
-0.996638, 259, 41, 274, 104
-0.99666, 389, 185, 404, 248
-0.996666, 401, 177, 416, 240
-0.996675, 375, 185, 390, 248
-0.996684, 283, 249, 298, 312
-0.99669, 73, 145, 88, 208
-0.996692, 111, 49, 126, 112
-0.996693, 129, 33, 192, 288
-0.996709, 321, 209, 336, 272
-0.996712, 259, 1, 274, 64
-0.996721, 363, 161, 378, 224
-0.996722, 57, 153, 72, 216
-0.996726, 209, 229, 336, 260
-0.99673, 337, 249, 352, 312
-0.996734, 297, 33, 328, 160
-0.996744, 363, 217, 378, 280
-0.996755, 59, 193, 74, 256
-0.996758, 377, 273, 392, 333
-0.996764, 207, 197, 222, 228
-0.99678, 121, 9, 136, 72
-0.996785, 457, 169, 472, 232
-0.996785, 395, 185, 410, 248
-0.996797, 291, 241, 306, 304
-0.996801, 261, 65, 292, 320
-0.996814, 313, 249, 328, 312
-0.996817, 289, 133, 416, 164
-0.996819, 1, 89, 128, 120
-0.996822, 353, 209, 480, 240
-0.99684, 187, 193, 202, 256
-0.996855, 269, 185, 284, 248
-0.996859, 225, 109, 352, 140
-0.996868, 311, 137, 326, 200
-0.996881, 243, 129, 258, 192
-0.996887, 243, 153, 258, 216
-0.996888, 99, 49, 114, 112
-0.996888, 337, 125, 464, 156
-0.996891, 17, 29, 144, 60
-0.996903, 331, 177, 346, 240
-0.996909, 363, 257, 378, 320
-0.996915, 337, 173, 464, 204
-0.996927, 355, 249, 370, 312
-0.996928, 337, 85, 464, 116
-0.996938, 323, 185, 338, 248
-0.996943, 273, 297, 400, 328
-0.996952, 325, 265, 340, 328
-0.996954, 67, 145, 82, 208
-0.996962, 65, 141, 192, 172
-0.996985, 33, 17, 160, 48
-0.996992, 261, 157, 276, 188
-0.997032, 97, 77, 224, 108
-0.997048, 203, 177, 218, 208
-0.997073, 1, 213, 128, 244
-0.997108, 253, 93, 268, 124
-0.997109, 311, 205, 326, 236
-0.997119, 9, 209, 40, 333
-0.99712, 285, 137, 300, 168
-0.997135, 269, 105, 284, 136
-0.997138, 259, 113, 274, 144
-0.99714, 225, 1, 352, 32
-0.997154, 273, 65, 304, 320
-0.997166, 65, 129, 192, 160
-0.997205, 185, 193, 200, 224
-0.997207, 195, 181, 210, 212
-0.997216, 409, 33, 472, 160
-0.997219, 259, 93, 274, 124
-0.997221, 273, 109, 400, 140
-0.997225, 337, 161, 464, 192
-0.99724, 201, 193, 216, 224
-0.997256, 177, 269, 304, 300
-0.997279, 337, 101, 464, 132
-0.997285, 251, 209, 266, 240
-0.9973, 105, 1, 136, 256
-0.99731, 251, 153, 266, 184
-0.997313, 213, 201, 228, 232
-0.997313, 189, 137, 204, 168
-0.997314, 337, 113, 464, 144
-0.997323, 33, 261, 160, 292
-0.997336, 129, 105, 256, 136
-0.997339, 179, 189, 194, 220
-0.997344, 97, 61, 224, 92
-0.997352, 49, 65, 80, 192
-0.997352, 17, 201, 144, 232
-0.997359, 49, 113, 176, 144
-0.997362, 269, 117, 284, 148
-0.997376, 33, 1, 160, 32
-0.99739, 411, 193, 426, 224
-0.997405, 209, 121, 336, 152
-0.997412, 259, 137, 274, 168
-0.997423, 161, 57, 288, 88
-0.997427, 321, 209, 336, 240
-0.997429, 353, 137, 480, 168
-0.997448, 257, 257, 500, 320
-0.997455, 225, 13, 352, 44
-0.997471, 337, 9, 464, 72
-0.997477, 81, 41, 208, 72
-0.99748, 145, 73, 272, 104
-0.997481, 209, 241, 336, 272
-0.997483, 185, 153, 200, 184
-0.997496, 179, 201, 194, 232
-0.997521, 271, 169, 286, 200
-0.997522, 203, 73, 218, 104
-0.997531, 195, 197, 210, 228
-0.997533, 165, 193, 180, 224
-0.997549, 225, 29, 352, 60
-0.997551, 177, 173, 192, 204
-0.997574, 251, 125, 266, 156
-0.997586, 387, 201, 402, 232
-0.99759, 305, 225, 320, 256
-0.997596, 45, 65, 76, 320
-0.997605, 461, 49, 492, 176
-0.997606, 273, 97, 400, 128
-0.997618, 57, 221, 72, 252
-0.997622, 199, 133, 214, 164
-0.997624, 279, 125, 294, 156
-0.997629, 235, 177, 250, 208
-0.99763, 219, 197, 234, 228
-0.997641, 257, 125, 272, 156
-0.997642, 239, 217, 254, 248
-0.997643, 37, 33, 68, 160
-0.997645, 257, 209, 272, 240
-0.99765, 245, 93, 260, 124
-0.997651, 277, 157, 292, 188
-0.997653, 287, 149, 302, 180
-0.997656, 97, 297, 224, 328
-0.997679, 245, 209, 260, 240
-0.997696, 61, 33, 92, 160
-0.997718, 289, 85, 416, 116
-0.997725, 305, 285, 432, 316
-0.99773, 303, 177, 318, 208
-0.997731, 247, 49, 262, 80
-0.997736, 81, 293, 96, 324
-0.997741, 263, 209, 278, 240
-0.997741, 201, 209, 216, 240
-0.997745, 215, 213, 230, 244
-0.997752, 225, 153, 240, 184
-0.997755, 89, 65, 120, 320
-0.997756, 295, 237, 310, 268
-0.997757, 267, 157, 282, 188
-0.997763, 209, 177, 224, 208
-0.997772, 159, 193, 174, 224
-0.997775, 253, 189, 268, 220
-0.997775, 289, 65, 320, 320
-0.997779, 247, 105, 262, 136
-0.997781, 321, 149, 448, 180
-0.997781, 229, 185, 244, 216
-0.997788, 75, 173, 90, 204
-0.997788, 193, 121, 208, 152
-0.997791, 219, 65, 234, 96
-0.997794, 245, 157, 260, 188
-0.997807, 261, 169, 276, 200
-0.997811, 33, 237, 160, 268
-0.997815, 421, 201, 436, 232
-0.997836, 359, 213, 374, 244
-0.997837, 329, 49, 360, 176
-0.997838, 435, 193, 450, 224
-0.99785, 395, 201, 410, 232
-0.997852, 211, 137, 226, 168
-0.997858, 447, 193, 462, 224
-0.997859, 197, 101, 212, 132
-0.997865, 97, 29, 224, 60
-0.997865, 327, 201, 342, 232
-0.997869, 365, 213, 380, 244
-0.99787, 241, 73, 368, 104
-0.99788, 67, 221, 82, 252
-0.99788, 253, 105, 268, 136
-0.997881, 277, 169, 292, 200
-0.997886, 167, 205, 182, 236
-0.997887, 299, 161, 314, 192
-0.997897, 201, 85, 216, 116
-0.9979, 97, 13, 224, 44
-0.997905, 235, 141, 250, 172
-0.997906, 267, 289, 282, 320
-0.997909, 211, 69, 226, 100
-0.997909, 235, 161, 250, 192
-0.997916, 349, 209, 364, 240
-0.997929, 207, 209, 222, 240
-0.997937, 313, 193, 328, 224
-0.997945, 227, 165, 242, 196
-0.997954, 33, 249, 160, 280
-0.99796, 401, 201, 416, 232
-0.997963, 241, 53, 256, 84
-0.997968, 63, 177, 78, 208
-0.997969, 305, 165, 320, 196
-0.99797, 49, 213, 176, 244
-0.997971, 269, 277, 284, 308
-0.997971, 173, 201, 188, 232
-0.99798, 287, 173, 302, 204
-0.99798, 113, 273, 240, 304
-0.997983, 187, 205, 202, 236
-0.997983, 97, 1, 224, 32
-0.997984, 75, 293, 90, 324
-0.997987, 161, 29, 288, 60
-0.997999, 333, 201, 348, 232
-0.998, 253, 141, 268, 172
-0.998002, 297, 281, 312, 312
-0.998006, 161, 225, 288, 256
-0.998008, 229, 205, 244, 236
-0.99801, 307, 281, 322, 312
-0.998013, 99, 97, 114, 128
-0.998014, 81, 249, 208, 312
-0.99802, 313, 217, 328, 248
-0.998022, 275, 281, 290, 312
-0.998023, 205, 129, 220, 160
-0.998027, 355, 201, 370, 232
-0.998041, 161, 13, 288, 44
-0.998052, 305, 213, 320, 244
-0.998062, 223, 209, 238, 240
-0.998063, 223, 177, 238, 208
-0.998067, 227, 61, 242, 92
-0.998069, 247, 141, 262, 172
-0.998071, 255, 41, 270, 72
-0.998071, 225, 85, 240, 116
-0.998072, 283, 161, 298, 192
-0.998072, 369, 201, 384, 232
-0.998073, 65, 65, 96, 320
-0.998078, 171, 177, 186, 208
-0.998085, 215, 173, 230, 204
-0.998091, 291, 133, 306, 164
-0.998093, 205, 153, 220, 184
-0.998097, 305, 273, 432, 304
-0.9981, 293, 153, 308, 184
-0.998101, 247, 197, 262, 228
-0.998102, 241, 133, 256, 164
-0.998107, 57, 161, 72, 192
-0.998112, 357, 265, 372, 296
-0.998115, 397, 213, 412, 244
-0.998119, 233, 217, 248, 248
-0.998124, 241, 197, 256, 228
-0.998126, 267, 129, 282, 160
-0.998126, 275, 145, 290, 176
-0.998127, 219, 145, 234, 176
-0.998135, 417, 189, 432, 220
-0.998141, 337, 73, 464, 104
-0.998171, 353, 1, 384, 128
-0.998223, 177, 45, 304, 76
-0.99828, 49, 65, 176, 96
-0.998281, 289, 261, 416, 292
-0.998351, 177, 149, 240, 164
-0.998376, 289, 73, 416, 104
-0.998379, 145, 129, 176, 256
-0.998381, 169, 167, 232, 182
-0.998402, 185, 129, 200, 256
-0.998405, 169, 161, 232, 176
-0.998406, 177, 143, 240, 158
-0.998407, 49, 77, 176, 108
-0.99841, 21, 65, 52, 320
-0.998413, 97, 217, 224, 248
-0.998414, 177, 155, 240, 170
-0.99842, 209, 207, 272, 222
-0.998426, 201, 219, 264, 234
-0.998426, 241, 121, 304, 136
-0.998429, 189, 123, 220, 138
-0.998429, 161, 181, 224, 196
-0.998429, 337, 277, 368, 292
-0.998429, 193, 111, 224, 126
-0.99843, 249, 201, 280, 216
-0.99843, 65, 181, 96, 196
-0.998431, 209, 169, 272, 184
-0.998432, 53, 293, 84, 308
-0.998432, 257, 183, 288, 198
-0.998433, 281, 139, 312, 154
-0.998433, 237, 109, 268, 124
-0.998434, 337, 165, 368, 180
-0.998434, 161, 187, 224, 202
-0.998435, 89, 123, 120, 138
-0.998436, 201, 191, 232, 206
-0.998437, 201, 175, 232, 190
-0.998437, 21, 185, 52, 200
-0.998438, 153, 197, 216, 212
-0.998438, 249, 173, 312, 188
-0.998438, 237, 103, 268, 118
-0.998439, 233, 211, 264, 226
-0.99844, 229, 149, 260, 164
-0.99844, 213, 197, 244, 212
-0.99844, 157, 199, 188, 214
-0.998442, 321, 215, 352, 230
-0.998442, 201, 149, 264, 164
-0.998442, 217, 155, 280, 170
-0.998442, 341, 219, 372, 234
-0.998442, 217, 65, 248, 80
-0.998443, 185, 181, 248, 196
-0.998443, 265, 99, 296, 114
-0.998443, 69, 139, 100, 154
-0.998443, 417, 207, 448, 222
-0.998444, 293, 179, 324, 194
-0.998444, 125, 295, 156, 310
-0.998444, 233, 55, 264, 70
-0.998444, 377, 207, 408, 222
-0.998445, 193, 159, 224, 174
-0.998446, 205, 69, 236, 84
-0.998446, 209, 141, 240, 156
-0.998447, 233, 205, 264, 220
-0.998449, 213, 179, 244, 194
-0.99845, 201, 213, 264, 228
-0.99845, 197, 81, 228, 96
-0.99845, 185, 117, 248, 132
-0.998451, 313, 277, 344, 292
-0.998453, 409, 195, 440, 210
-0.998453, 89, 133, 120, 148
-0.998453, 25, 185, 88, 200
-0.998453, 341, 205, 372, 220
-0.998453, 249, 151, 312, 166
-0.998453, 197, 87, 228, 102
-0.998455, 377, 199, 408, 214
-0.998455, 169, 175, 232, 190
-0.998457, 201, 197, 232, 212
-0.998457, 357, 205, 388, 220
-0.998458, 213, 203, 244, 218
-0.998459, 69, 295, 100, 310
-0.998459, 193, 93, 256, 108
-0.998459, 289, 243, 320, 258
-0.99846, 161, 207, 192, 222
-0.998462, 165, 187, 196, 202
-0.998462, 61, 173, 92, 188
-0.998462, 241, 177, 272, 192
-0.998463, 313, 207, 376, 222
-0.998463, 265, 123, 296, 138
-0.998464, 201, 127, 264, 142
-0.998464, 229, 187, 260, 202
-0.998464, 217, 93, 248, 108
-0.998465, 181, 157, 212, 172
-0.998466, 293, 237, 324, 252
-0.998467, 265, 141, 296, 156
-0.998468, 309, 201, 340, 216
-0.998469, 45, 223, 76, 238
-0.998469, 285, 147, 316, 162
-0.99847, 185, 181, 216, 196
-0.99847, 57, 189, 88, 204
-0.99847, 445, 199, 476, 214
-0.99847, 237, 97, 268, 112
-0.998471, 249, 207, 280, 222
-0.998472, 305, 215, 336, 230
-0.998473, 289, 155, 320, 170
-0.998474, 209, 219, 240, 234
-0.998474, 93, 117, 124, 132
-0.998474, 177, 169, 208, 184
-0.998475, 229, 165, 260, 180
-0.998476, 229, 89, 260, 104
-0.998478, 177, 203, 240, 218
-0.998479, 233, 121, 264, 136
-0.99848, 273, 161, 304, 176
-0.99848, 225, 181, 288, 196
-0.998481, 177, 213, 240, 228
-0.998482, 193, 175, 256, 190
-0.998484, 361, 213, 392, 228
-0.998484, 173, 205, 204, 220
-0.998486, 201, 181, 232, 196
-0.998487, 241, 129, 304, 144
-0.998489, 309, 65, 340, 320
-0.998489, 201, 195, 264, 210
-0.998489, 261, 157, 292, 172
-0.99849, 281, 175, 312, 190
-0.99849, 189, 197, 220, 212
-0.998491, 209, 161, 272, 176
-0.998494, 221, 213, 252, 228
-0.998495, 417, 199, 480, 214
-0.998496, 57, 219, 88, 234
-0.998496, 77, 1, 108, 256
-0.998498, 253, 123, 284, 138
-0.998498, 225, 97, 288, 112
-0.998499, 237, 155, 268, 170
-0.998502, 49, 181, 80, 196
-0.998505, 177, 197, 240, 212
-0.998506, 201, 189, 264, 204
-0.998507, 225, 187, 288, 202
-0.998507, 257, 117, 288, 132
-0.998508, 353, 209, 416, 224
-0.998508, 389, 205, 420, 220
-0.998508, 241, 163, 272, 178
-0.998509, 213, 173, 244, 188
-0.99851, 313, 213, 376, 228
-0.99851, 377, 199, 440, 214
-0.998512, 341, 211, 372, 226
-0.998514, 41, 179, 104, 194
-0.998514, 1, 183, 64, 198
-0.998514, 177, 163, 208, 178
-0.998516, 221, 159, 252, 174
-0.998516, 225, 213, 288, 228
-0.998516, 49, 295, 112, 310
-0.998517, 173, 181, 204, 196
-0.998519, 185, 189, 216, 204
-0.998519, 265, 129, 296, 144
-0.998519, 181, 213, 212, 228
-0.99852, 197, 95, 228, 110
-0.99852, 201, 207, 232, 222
-0.998522, 81, 137, 144, 152
-0.998523, 225, 111, 288, 126
-0.998525, 277, 155, 308, 170
-0.998525, 193, 103, 256, 118
-0.998526, 53, 299, 84, 314
-0.998526, 401, 193, 464, 208
-0.998527, 249, 157, 312, 172
-0.998527, 329, 209, 360, 224
-0.998528, 297, 277, 360, 292
-0.998529, 241, 225, 272, 240
-0.998529, 261, 165, 292, 180
-0.99853, 389, 199, 420, 214
-0.998532, 189, 131, 220, 146
-0.998533, 353, 301, 480, 332
-0.998534, 241, 135, 304, 150
-0.998535, 245, 129, 276, 144
-0.998536, 185, 83, 248, 98
-0.998537, 257, 179, 320, 194
-0.998538, 369, 149, 496, 180
-0.998538, 177, 175, 208, 190
-0.998538, 281, 245, 344, 260
-0.998538, 217, 121, 280, 136
-0.998538, 297, 173, 360, 188
-0.998539, 253, 109, 284, 124
-0.998539, 265, 151, 296, 166
-0.99854, 41, 289, 104, 304
-0.998541, 185, 149, 216, 164
-0.998542, 185, 203, 216, 218
-0.998542, 249, 105, 312, 120
-0.998543, 433, 191, 496, 206
-0.998543, 41, 155, 104, 170
-0.998545, 249, 145, 312, 160
-0.998546, 265, 127, 328, 142
-0.998546, 177, 137, 240, 152
-0.998546, 265, 201, 328, 216
-0.998547, 41, 145, 104, 160
-0.998547, 41, 167, 104, 182
-0.998547, 161, 1, 288, 32
-0.998547, 265, 135, 296, 150
-0.998548, 81, 113, 144, 128
-0.998548, 265, 195, 328, 210
-0.998548, 233, 171, 264, 186
-0.998548, 241, 291, 304, 306
-0.998549, 257, 279, 320, 294
-0.998549, 81, 131, 144, 146
-0.998549, 37, 183, 68, 198
-0.99855, 217, 133, 280, 148
-0.99855, 185, 111, 248, 126
-0.99855, 217, 175, 280, 190
-0.99855, 73, 295, 136, 310
-0.998551, 49, 125, 112, 140
-0.998554, 177, 123, 240, 138
-0.998555, 393, 209, 456, 224
-0.998555, 249, 103, 280, 118
-0.998555, 273, 165, 336, 180
-0.998557, 353, 217, 416, 232
-0.998557, 49, 105, 112, 120
-0.998558, 73, 143, 136, 158
-0.998559, 153, 213, 216, 228
-0.99856, 377, 193, 440, 208
-0.998561, 201, 69, 264, 84
-0.998561, 201, 139, 264, 154
-0.998562, 197, 139, 228, 154
-0.998562, 245, 213, 276, 228
-0.998563, 297, 201, 360, 216
-0.998563, 273, 153, 336, 168
-0.998564, 337, 127, 400, 142
-0.998565, 265, 189, 328, 204
-0.998566, 405, 207, 436, 222
-0.998567, 105, 209, 168, 333
-0.998567, 257, 61, 384, 92
-0.998568, 41, 173, 104, 188
-0.998568, 249, 115, 312, 130
-0.99857, 265, 133, 328, 148
-0.99857, 297, 121, 360, 136
-0.99857, 165, 193, 196, 208
-0.998572, 229, 219, 260, 234
-0.998572, 225, 201, 288, 216
-0.998572, 41, 301, 104, 316
-0.998574, 153, 203, 216, 218
-0.998574, 225, 195, 288, 210
-0.998574, 249, 165, 312, 180
-0.998575, 313, 219, 376, 234
-0.998575, 329, 201, 392, 216
-0.998575, 25, 191, 88, 206
-0.998576, 41, 161, 104, 176
-0.998576, 209, 87, 272, 102
-0.998576, 193, 213, 224, 228
-0.998578, 49, 115, 112, 130
-0.998578, 261, 171, 292, 186
-0.998579, 57, 233, 120, 248
-0.998582, 233, 53, 296, 68
-0.998582, 65, 69, 128, 84
-0.998582, 289, 213, 352, 228
-0.998583, 41, 139, 104, 154
-0.998584, 273, 139, 336, 154
-0.998585, 193, 77, 256, 92
-0.998585, 57, 99, 120, 114
-0.998585, 57, 219, 120, 234
-0.998585, 177, 131, 240, 146
-0.998585, 213, 165, 244, 180
-0.998585, 57, 85, 120, 100
-0.998587, 249, 223, 312, 238
-0.998588, 209, 149, 240, 164
-0.99859, 57, 227, 120, 242
-0.99859, 385, 127, 448, 142
-0.998591, 297, 195, 360, 210
-0.998591, 257, 297, 320, 312
-0.998591, 65, 75, 128, 90
-0.998591, 417, 205, 480, 220
-0.998592, 233, 91, 296, 106
-0.998592, 353, 195, 416, 210
-0.998592, 201, 201, 264, 216
-0.998593, 201, 297, 264, 312
-0.998593, 81, 125, 144, 140
-0.998593, 337, 153, 400, 168
-0.998593, 49, 189, 112, 204
-0.998593, 265, 257, 328, 272
-0.998595, 425, 201, 456, 216
-0.9986, 249, 97, 280, 112
-0.998602, 259, 81, 274, 208
-0.998606, 249, 155, 280, 170
-0.998619, 209, 213, 240, 228
-0.998634, 185, 143, 216, 158
-0.998635, 185, 137, 216, 152
-0.998645, 309, 207, 340, 222
-0.99866, 209, 253, 336, 284
-0.998668, 203, 129, 218, 256
-0.998695, 269, 113, 284, 240
-0.998755, 241, 209, 256, 333
-0.998783, 197, 145, 212, 272
-0.998785, 195, 97, 210, 224
-0.998789, 245, 33, 260, 160
-0.998795, 105, 81, 136, 208
-0.998806, 179, 145, 194, 272
-0.998814, 251, 209, 266, 333
-0.998821, 207, 65, 222, 192
-0.998824, 235, 129, 250, 256
-0.998841, 261, 129, 276, 256
-0.998853, 209, 129, 224, 256
-0.998859, 201, 65, 216, 192
-0.998872, 225, 145, 240, 272
-0.998886, 299, 161, 314, 288
-0.998887, 249, 129, 264, 256
-0.998904, 241, 129, 256, 256
-0.998916, 253, 1, 268, 128
-0.998918, 249, 81, 264, 208
-0.998919, 191, 145, 206, 272
-0.998922, 213, 49, 228, 176
-0.99893, 215, 145, 230, 272
-0.998939, 277, 113, 292, 240
-0.998939, 409, 65, 440, 320
-0.998942, 239, 49, 254, 176
-0.998943, 303, 209, 318, 333
-0.998945, 259, 193, 274, 320
-0.998963, 203, 193, 218, 320
-0.998978, 233, 49, 248, 176
-0.998979, 33, 65, 64, 320
-0.998994, 83, 129, 98, 256
-0.998998, 109, 49, 124, 176
-0.999, 219, 49, 234, 176
-0.999003, 309, 209, 324, 333
-0.999015, 235, 209, 250, 333
-0.999017, 255, 145, 270, 272
-0.999023, 305, 161, 320, 288
-0.999026, 57, 161, 72, 288
-0.999034, 173, 161, 188, 288
-0.999044, 289, 97, 304, 224
-0.999056, 359, 209, 374, 333
-0.999059, 195, 209, 210, 333
-0.999065, 77, 161, 92, 288
-0.999072, 179, 193, 194, 320
-0.999077, 89, 113, 104, 240
-0.999077, 185, 193, 200, 320
-0.999084, 217, 193, 232, 320
-0.99909, 281, 161, 296, 288
-0.999101, 287, 145, 302, 272
-0.999121, 293, 161, 308, 288
-0.999125, 227, 193, 242, 320
-0.999126, 267, 65, 282, 192
-0.999128, 209, 209, 224, 333
-0.999132, 225, 81, 240, 208
-0.999142, 397, 193, 412, 320
-0.999155, 99, 81, 114, 208
-0.999165, 115, 17, 130, 144
-0.999166, 71, 129, 86, 256
-0.999174, 265, 209, 280, 333
-0.999175, 267, 161, 282, 288
-0.999176, 63, 177, 78, 304
-0.99919, 81, 209, 112, 333
-0.999197, 403, 209, 418, 333
-0.999208, 357, 65, 388, 320
-0.999222, 327, 177, 342, 304
-0.999232, 317, 209, 332, 333
-0.999238, 437, 65, 468, 320
-0.999244, 53, 209, 68, 333
-0.999254, 285, 17, 316, 144
-0.999261, 215, 97, 230, 224
-0.999264, 403, 161, 418, 288
-0.999268, 51, 161, 66, 288
-0.999269, 381, 65, 412, 320
-0.99927, 343, 193, 358, 320
-0.999274, 295, 209, 310, 333
-0.999274, 283, 97, 298, 224
-0.999287, 389, 209, 404, 333
-0.999296, 121, 1, 136, 128
-0.999305, 349, 177, 364, 304
-0.999305, 271, 209, 286, 333
-0.999307, 413, 129, 428, 256
-0.999307, 333, 209, 348, 333
-0.999308, 295, 97, 310, 224
-0.999314, 321, 65, 352, 320
-0.999319, 275, 161, 290, 288
-0.999325, 311, 161, 326, 288
-0.999331, 91, 49, 106, 176
-0.99934, 41, 129, 56, 256
-0.999345, 259, 33, 274, 160
-0.999353, 225, 33, 240, 160
-0.99936, 355, 145, 370, 272
-0.999361, 77, 97, 92, 224
-0.999377, 117, 1, 148, 256
-0.999385, 405, 113, 420, 240
-0.999391, 35, 177, 50, 304
-0.999394, 167, 161, 182, 288
-0.999394, 419, 113, 434, 240
-0.9994, 65, 113, 80, 240
-0.999401, 363, 97, 378, 224
-0.999406, 397, 65, 428, 320
-0.999409, 421, 1, 452, 256
-0.999411, 395, 129, 410, 256
-0.999414, 445, 177, 460, 304
-0.999414, 411, 177, 426, 304
-0.999416, 1, 65, 32, 320
-0.999417, 51, 113, 66, 240
-0.99942, 485, 177, 500, 304
-0.999426, 479, 129, 494, 256
-0.999434, 97, 33, 112, 160
-0.999435, 445, 129, 460, 256
-0.999437, 59, 113, 74, 240
-0.999441, 301, 113, 316, 240
-0.999441, 365, 145, 380, 272
-0.999444, 43, 177, 58, 304
-0.999456, 189, 81, 204, 208
-0.999459, 373, 209, 388, 333
-0.999463, 449, 33, 480, 160
-0.999464, 383, 209, 398, 333
-0.999469, 325, 129, 340, 256
-0.99947, 319, 145, 334, 272
-0.999475, 83, 81, 98, 208
-0.999484, 277, 65, 292, 192
-0.999485, 371, 49, 386, 176
-0.999497, 23, 161, 38, 288
-0.999498, 69, 177, 84, 304
-0.999505, 35, 113, 50, 240
-0.999511, 195, 49, 210, 176
-0.999512, 289, 209, 304, 333
-0.999514, 337, 145, 352, 272
-0.999515, 173, 113, 188, 240
-0.999515, 471, 145, 486, 272
-0.99952, 15, 161, 30, 288
-0.999524, 437, 129, 452, 256
-0.999525, 479, 193, 494, 320
-0.99953, 233, 1, 248, 128
-0.999534, 331, 129, 346, 256
-0.999537, 411, 81, 426, 208
-0.999541, 113, 97, 128, 224
-0.999544, 239, 1, 254, 128
-0.999545, 41, 81, 56, 208
-0.999557, 103, 17, 118, 144
-0.999625, 217, 157, 232, 172
-0.999625, 241, 91, 256, 106
-0.999626, 439, 201, 454, 216
-0.999627, 201, 131, 216, 146
-0.999628, 391, 195, 406, 210
-0.999628, 275, 117, 290, 132
-0.999628, 233, 87, 248, 102
-0.999629, 207, 129, 222, 144
-0.999629, 253, 151, 268, 166
-0.999629, 199, 99, 214, 114
-0.99963, 57, 219, 72, 234
-0.99963, 239, 55, 254, 70
-0.99963, 201, 85, 216, 100
-0.999632, 351, 205, 366, 220
-0.999632, 269, 171, 284, 186
-0.999633, 249, 131, 264, 146
-0.999634, 295, 239, 310, 254
-0.999635, 395, 205, 410, 220
-0.999635, 353, 219, 368, 234
-0.999636, 339, 207, 354, 222
-0.999636, 379, 201, 394, 216
-0.999637, 279, 167, 294, 182
-0.999637, 251, 169, 266, 184
-0.999637, 67, 225, 82, 240
-0.999637, 425, 207, 440, 222
-0.999637, 269, 103, 284, 118
-0.999637, 385, 201, 400, 216
-0.999638, 205, 219, 220, 234
-0.999639, 201, 149, 216, 164
-0.999642, 267, 129, 282, 144
-0.999642, 223, 91, 238, 106
-0.999643, 253, 205, 268, 220
-0.999643, 245, 223, 260, 238
-0.999644, 365, 217, 380, 232
-0.999645, 173, 207, 188, 222
-0.999646, 181, 189, 196, 204
-0.999647, 327, 277, 342, 292
-0.999648, 311, 215, 326, 230
-0.999648, 401, 193, 416, 208
-0.999649, 227, 179, 242, 194
-0.99965, 249, 111, 264, 126
-0.99965, 387, 209, 402, 224
-0.999651, 305, 229, 320, 244
-0.999651, 267, 291, 282, 306
-0.999651, 207, 143, 222, 158
-0.999652, 251, 47, 266, 62
-0.999653, 285, 153, 300, 168
-0.999655, 259, 149, 274, 164
-0.999656, 201, 203, 216, 218
-0.999656, 305, 181, 320, 196
-0.999658, 333, 209, 348, 224
-0.999659, 235, 165, 250, 180
-0.99966, 319, 223, 334, 238
-0.999661, 283, 141, 298, 156
-0.999664, 323, 213, 338, 228
-0.999664, 357, 211, 372, 226
-0.999665, 351, 211, 366, 226
-0.999666, 211, 219, 226, 234
-0.999666, 279, 159, 294, 174
-0.999666, 279, 125, 294, 140
-0.999666, 59, 225, 74, 240
-0.999667, 321, 207, 336, 222
-0.999669, 51, 179, 66, 194
-0.999669, 203, 77, 218, 92
-0.99967, 201, 143, 216, 158
-0.999671, 345, 209, 360, 224
-0.999674, 261, 211, 276, 226
-0.999676, 411, 199, 426, 214
-0.999676, 185, 195, 200, 210
-0.999677, 213, 139, 228, 154
-0.999677, 211, 149, 226, 164
-0.999677, 285, 147, 300, 162
-0.999677, 359, 217, 374, 232
-0.999679, 207, 71, 222, 86
-0.999679, 259, 117, 274, 132
-0.999679, 213, 199, 228, 214
-0.999681, 255, 107, 270, 122
-0.999682, 199, 195, 214, 210
-0.999683, 169, 189, 184, 204
-0.999684, 187, 205, 202, 220
-0.999684, 235, 159, 250, 174
-0.999685, 223, 149, 238, 164
-0.999685, 63, 219, 78, 234
-0.999685, 259, 129, 274, 144
-0.999686, 245, 157, 260, 172
-0.999686, 223, 213, 238, 228
-0.999688, 69, 219, 84, 234
-0.999689, 71, 175, 86, 190
-0.999693, 261, 165, 276, 180
-0.999693, 199, 179, 214, 194
-0.999694, 191, 131, 206, 146
-0.999694, 41, 183, 56, 198
-0.999695, 261, 171, 276, 186
-0.999696, 205, 181, 220, 196
-0.999697, 235, 185, 250, 200
-0.999697, 195, 187, 210, 202
-0.999698, 199, 213, 214, 228
-0.999698, 191, 197, 206, 212
-0.999699, 177, 183, 192, 198
-0.999701, 279, 153, 294, 168
-0.999702, 245, 51, 260, 66
-0.999702, 261, 107, 276, 122
-0.999703, 237, 219, 252, 234
-0.999707, 251, 157, 266, 172
-0.999709, 181, 205, 196, 220
-0.99971, 261, 155, 276, 170
-0.99971, 199, 137, 214, 152
-0.999711, 67, 185, 82, 200
-0.999713, 205, 195, 220, 210
-0.999714, 215, 207, 230, 222
-0.999716, 269, 123, 284, 138
-0.999717, 419, 205, 434, 220
-0.999718, 61, 183, 76, 198
-0.999719, 251, 215, 266, 230
-0.999721, 269, 111, 284, 126
-0.999722, 207, 207, 222, 222
-0.999723, 269, 163, 284, 178
-0.999727, 185, 157, 200, 172
-0.999735, 189, 137, 204, 152
-0.999737, 169, 65, 200, 320
-0.999742, 243, 217, 258, 232
-0.999745, 251, 97, 266, 112
-0.999745, 269, 117, 284, 132
-0.999746, 313, 203, 328, 218
-0.999747, 189, 143, 204, 158
-0.999748, 261, 97, 276, 112
-0.999759, 333, 33, 364, 288
-0.999763, 217, 215, 232, 230
-0.999767, 173, 33, 204, 160
-0.999768, 259, 123, 274, 138
-0.999769, 159, 197, 174, 212
-0.999776, 251, 225, 266, 240
-0.99978, 209, 213, 224, 228
-0.99983, 465, 65, 496, 320
-0.99985, 453, 65, 484, 320
-0.999864, 345, 65, 376, 320
-0.999907, 369, 65, 400, 320
-0.999925, 309, 17, 340, 144
-1.00001, 121, 97, 152, 224
-1.00002, 117, 209, 148, 333
-1.00005, 113, 225, 240, 288
-1.00028, 457, 209, 488, 333
-1.00033, 389, 1, 420, 128
-1.0005, 157, 33, 188, 288
-1.00058, 185, 17, 216, 144
-1.001, 129, 65, 160, 320
-1.00164, 145, 65, 176, 320
