1876
-0.504714, 161, 1, 416, 333
-0.544831, 65, 1, 320, 333
-0.565276, 1, 33, 500, 288
-0.593397, 1, 1, 500, 333
-0.698187, 257, 1, 500, 333
-0.702654, 97, 65, 352, 320
-0.735369, 1, 33, 256, 288
-0.745826, 257, 1, 500, 256
-0.842983, 177, 1, 304, 333
-0.858294, 177, 1, 304, 256
-0.900182, 273, 33, 400, 288
-0.901457, 97, 65, 224, 320
-0.902099, 97, 1, 224, 333
-0.903927, 241, 1, 368, 333
-0.907975, 17, 1, 144, 333
-0.909948, 1, 129, 500, 256
-0.914986, 1, 209, 500, 333
-0.915237, 225, 65, 352, 320
-0.924515, 289, 1, 416, 333
-0.926829, 1, 1, 500, 128
-0.927485, 97, 65, 352, 192
-0.928775, 17, 65, 144, 320
-0.929997, 353, 1, 480, 256
-0.930632, 1, 113, 256, 240
-0.931966, 337, 1, 464, 333
-0.932184, 177, 81, 304, 208
-0.935625, 161, 177, 416, 304
-0.936299, 97, 113, 352, 240
-0.93738, 193, 177, 320, 304
-0.937816, 1, 49, 500, 176
-0.937957, 97, 17, 352, 144
-0.938347, 145, 177, 272, 304
-0.938529, 193, 193, 256, 320
-0.941852, 65, 193, 320, 320
-0.94297, 145, 17, 272, 144
-0.944653, 225, 129, 480, 256
-0.946392, 113, 129, 240, 256
-0.94665, 177, 129, 304, 256
-0.946841, 161, 177, 224, 304
-0.947443, 241, 145, 368, 272
-0.947981, 193, 145, 256, 272
-0.949658, 1, 17, 256, 144
-0.950393, 185, 97, 248, 224
-0.950739, 97, 1, 224, 128
-0.951533, 257, 65, 500, 192
-0.951987, 225, 97, 288, 224
-0.952183, 217, 177, 280, 304
-0.952923, 257, 97, 384, 224
-0.952955, 193, 177, 256, 240
-0.953934, 241, 209, 368, 333
-0.954001, 185, 153, 248, 216
-0.954172, 145, 49, 208, 176
-0.954632, 161, 129, 224, 256
-0.956004, 153, 25, 216, 88
-0.957989, 201, 1, 264, 128
-0.958171, 1, 65, 256, 192
-0.95944, 113, 81, 240, 208
-0.959496, 177, 1, 240, 128
-0.959554, 97, 177, 224, 304
-0.959742, 225, 49, 352, 176
-0.959953, 137, 209, 200, 333
-0.960186, 185, 113, 248, 176
-0.960531, 297, 209, 360, 333
-0.961238, 169, 185, 232, 248
-0.962234, 169, 49, 232, 176
-0.962312, 257, 177, 500, 304
-0.962808, 233, 113, 296, 176
-0.962923, 193, 201, 256, 264
-0.962978, 153, 1, 216, 128
-0.963341, 289, 145, 416, 272
-0.964584, 49, 81, 176, 208
-0.964685, 49, 1, 176, 128
-0.965343, 145, 121, 208, 184
-0.966268, 257, 113, 320, 240
-0.96643, 49, 177, 176, 304
-0.9665, 121, 257, 184, 320
-0.966604, 97, 241, 160, 304
-0.966676, 113, 209, 176, 333
-0.966891, 209, 153, 272, 216
-0.967429, 217, 185, 280, 248
-0.968046, 17, 129, 144, 256
-0.968062, 241, 161, 304, 288
-0.968083, 89, 193, 152, 320
-0.968388, 121, 33, 184, 160
-0.968443, 321, 209, 448, 333
-0.968586, 161, 153, 224, 216
-0.968981, 217, 49, 280, 176
-0.969229, 169, 89, 232, 152
-0.969573, 225, 1, 352, 128
-0.969625, 153, 209, 216, 272
-0.969653, 193, 25, 256, 88
-0.969653, 209, 225, 272, 288
-0.969671, 129, 25, 192, 88
-0.969885, 73, 265, 136, 328
-0.970138, 337, 177, 400, 304
-0.970317, 73, 1, 136, 128
-0.970592, 153, 233, 216, 296
-0.970672, 193, 17, 448, 144
-0.970677, 217, 161, 248, 288
-0.970681, 305, 161, 368, 288
-0.970774, 353, 113, 480, 240
-0.971299, 121, 145, 184, 272
-0.971537, 273, 49, 400, 176
-0.971752, 161, 49, 224, 112
-0.971778, 193, 49, 256, 176
-0.971799, 145, 185, 208, 248
-0.971804, 177, 113, 304, 176
-0.971963, 265, 153, 328, 216
-0.972515, 321, 49, 448, 176
-0.97258, 265, 161, 328, 288
-0.972666, 1, 81, 64, 208
-0.972749, 217, 177, 248, 240
-0.972837, 241, 49, 304, 176
-0.972998, 273, 209, 336, 333
-0.973005, 257, 65, 320, 128
-0.973008, 201, 257, 264, 320
-0.973149, 137, 97, 200, 224
-0.973224, 265, 121, 328, 184
-0.973406, 177, 233, 240, 296
-0.973421, 233, 153, 296, 216
-0.973485, 273, 65, 336, 192
-0.974115, 181, 25, 212, 88
-0.974358, 145, 257, 208, 320
-0.974377, 41, 257, 104, 320
-0.974664, 1, 209, 128, 333
-0.974673, 209, 113, 272, 176
-0.974761, 97, 1, 160, 128
-0.974913, 89, 49, 152, 176
-0.975008, 305, 137, 368, 200
-0.975218, 73, 113, 136, 240
-0.975357, 217, 153, 248, 216
-0.975394, 89, 217, 152, 280
-0.975423, 201, 177, 232, 304
-0.975437, 97, 193, 160, 256
-0.975465, 329, 105, 392, 168
-0.975555, 169, 1, 232, 64
-0.975768, 217, 33, 280, 96
-0.975904, 289, 257, 352, 320
-0.976019, 217, 89, 280, 152
-0.976079, 313, 113, 376, 240
-0.976141, 97, 161, 224, 224
-0.976406, 305, 1, 432, 128
-0.976418, 65, 129, 192, 256
-0.97643, 113, 217, 176, 280
-0.976436, 165, 25, 196, 88
-0.976436, 313, 81, 376, 144
-0.97653, 201, 177, 232, 240
-0.976627, 17, 1, 80, 128
-0.976749, 409, 209, 472, 333
-0.976756, 305, 97, 432, 224
-0.977001, 145, 81, 208, 144
-0.977044, 97, 273, 160, 333
-0.977054, 241, 177, 304, 240
-0.977094, 121, 177, 184, 240
-0.977217, 217, 1, 280, 256
-0.977253, 265, 265, 328, 328
-0.977276, 409, 265, 472, 328
-0.977293, 137, 249, 168, 312
-0.977344, 193, 89, 256, 152
-0.977353, 177, 193, 304, 256
-0.977434, 177, 137, 304, 200
-0.977454, 113, 241, 240, 304
-0.977502, 57, 209, 120, 333
-0.977546, 177, 257, 240, 320
-0.977679, 129, 153, 192, 216
-0.9777, 1, 265, 64, 328
-0.977803, 257, 129, 384, 192
-0.977834, 181, 177, 212, 304
-0.977929, 273, 89, 336, 152
-0.977939, 329, 137, 392, 200
-0.977982, 289, 161, 352, 224
-0.978008, 433, 161, 496, 288
-0.978115, 81, 153, 144, 216
-0.978169, 145, 33, 272, 96
-0.978232, 241, 89, 304, 152
-0.978333, 129, 1, 192, 64
-0.97842, 185, 33, 248, 288
-0.978773, 361, 129, 424, 256
-0.978878, 257, 1, 320, 128
-0.97895, 65, 217, 128, 280
-0.97901, 97, 185, 224, 248
-0.979116, 217, 201, 248, 264
-0.97912, 229, 177, 260, 304
-0.979135, 297, 65, 360, 192
-0.97917, 41, 65, 104, 192
-0.979281, 193, 97, 224, 224
-0.979291, 189, 97, 220, 160
-0.979311, 1, 121, 64, 184
-0.97932, 217, 113, 248, 240
-0.979321, 49, 129, 112, 192
-0.979427, 97, 113, 160, 240
-0.979457, 321, 49, 384, 176
-0.97949, 185, 65, 248, 128
-0.979501, 25, 113, 88, 240
-0.979536, 177, 81, 304, 144
-0.979549, 321, 273, 384, 333
-0.979563, 161, 33, 224, 288
-0.979601, 369, 193, 496, 320
-0.979667, 409, 97, 472, 224
-0.979699, 49, 257, 176, 320
-0.979722, 73, 241, 136, 304
-0.979849, 369, 193, 432, 320
-0.979921, 257, 105, 384, 168
-0.980075, 361, 121, 424, 184
-0.980103, 1, 145, 64, 208
-0.980145, 361, 65, 424, 192
-0.980177, 401, 185, 464, 248
-0.98018, 241, 209, 304, 333
-0.980322, 249, 41, 312, 104
-0.980421, 297, 233, 360, 296
-0.980435, 233, 185, 264, 248
-0.980461, 193, 153, 224, 216
-0.980677, 113, 137, 240, 200
-0.980721, 25, 113, 88, 176
-0.980779, 1, 1, 128, 128
-0.980859, 393, 145, 456, 272
-0.981081, 281, 113, 344, 240
-0.981113, 209, 161, 336, 224
-0.981157, 305, 113, 368, 176
-0.981359, 197, 217, 228, 280
-0.981389, 137, 49, 200, 112
-0.981394, 217, 225, 248, 288
-0.981415, 321, 273, 448, 333
-0.981481, 361, 169, 424, 232
-0.981533, 213, 209, 244, 333
-0.981616, 257, 233, 384, 296
-0.981674, 257, 161, 384, 224
-0.981688, 369, 273, 432, 333
-0.981729, 49, 161, 112, 288
-0.981755, 113, 209, 240, 272
-0.981803, 329, 233, 392, 296
-0.981839, 177, 1, 208, 128
-0.981865, 97, 25, 224, 88
-0.981875, 193, 1, 256, 333
-0.981896, 193, 1, 256, 64
-0.982008, 369, 33, 496, 160
-0.982035, 89, 129, 152, 192
-0.982167, 197, 17, 228, 144
-0.98226, 177, 57, 304, 120
-0.98227, 265, 177, 328, 240
-0.982291, 65, 177, 128, 240
-0.982374, 129, 225, 160, 288
-0.98243, 145, 161, 272, 224
-0.982617, 173, 129, 204, 192
-0.982619, 217, 1, 280, 333
-0.982749, 385, 145, 448, 208
-0.982764, 245, 49, 276, 176
-0.982842, 113, 249, 144, 312
-0.982891, 225, 249, 288, 312
-0.982947, 129, 209, 160, 333
-0.982988, 257, 97, 288, 224
-0.983055, 113, 273, 240, 333
-0.983074, 121, 273, 152, 333
-0.983085, 1, 65, 128, 192
-0.983119, 113, 113, 240, 176
-0.983137, 305, 145, 432, 208
-0.983238, 369, 241, 432, 304
-0.983275, 173, 161, 204, 224
-0.98333, 321, 177, 352, 304
-0.983372, 225, 57, 352, 120
-0.983378, 65, 1, 192, 64
-0.983445, 149, 257, 180, 320
-0.983498, 105, 17, 168, 80
-0.983542, 209, 233, 336, 296
-0.983609, 49, 17, 112, 144
-0.983726, 265, 241, 328, 304
-0.983759, 49, 113, 112, 240
-0.983831, 1, 265, 128, 328
-0.983852, 237, 217, 268, 280
-0.983871, 217, 65, 280, 128
-0.983935, 189, 249, 220, 312
-0.983968, 257, 265, 384, 328
-0.984125, 177, 129, 208, 256
-0.984136, 249, 89, 280, 152
-0.984146, 193, 25, 224, 88
-0.984162, 81, 17, 144, 80
-0.984162, 337, 129, 400, 256
-0.984178, 269, 113, 300, 240
-0.984279, 161, 249, 288, 312
-0.984342, 185, 49, 216, 112
-0.984372, 425, 49, 488, 176
-0.984596, 261, 113, 292, 176
-0.98468, 297, 17, 360, 144
-0.984682, 149, 225, 180, 288
-0.9847, 257, 81, 384, 144
-0.984709, 217, 113, 248, 176
-0.984743, 49, 233, 176, 296
-0.984785, 177, 49, 208, 176
-0.98479, 89, 57, 152, 120
-0.984855, 1, 129, 64, 256
-0.984867, 1, 137, 128, 200
-0.984885, 229, 129, 260, 256
-0.984909, 309, 209, 340, 333
-0.984924, 193, 129, 224, 192
-0.984941, 249, 201, 312, 264
-0.984944, 361, 81, 424, 144
-0.985036, 241, 65, 304, 320
-0.98506, 177, 9, 304, 72
-0.985108, 201, 249, 232, 312
-0.985154, 129, 89, 256, 152
-0.985155, 93, 217, 124, 280
-0.985194, 305, 193, 368, 256
-0.985219, 433, 153, 496, 216
-0.985244, 241, 225, 304, 288
-0.985291, 1, 113, 128, 176
-0.985444, 361, 145, 424, 208
-0.985451, 305, 57, 368, 120
-0.985451, 25, 137, 88, 200
-0.985454, 409, 113, 472, 176
-0.985455, 169, 265, 200, 328
-0.985534, 465, 265, 496, 328
-0.985567, 361, 129, 392, 192
-0.985594, 329, 161, 392, 224
-0.985662, 57, 153, 120, 216
-0.985694, 209, 257, 336, 320
-0.985708, 249, 17, 312, 80
-0.985718, 133, 273, 164, 333
-0.985751, 361, 193, 424, 256
-0.985793, 181, 209, 212, 272
-0.985825, 205, 129, 236, 256
-0.985841, 49, 209, 176, 272
-0.985865, 337, 185, 400, 248
-0.98589, 409, 153, 472, 216
-0.985956, 65, 65, 128, 192
-0.986026, 425, 241, 488, 304
-0.986026, 161, 1, 224, 333
-0.986034, 245, 41, 276, 104
-0.98606, 273, 145, 304, 208
-0.986076, 121, 113, 184, 176
-0.986087, 17, 177, 80, 304
-0.986293, 57, 1, 120, 64
-0.986301, 369, 273, 496, 333
-0.986302, 113, 225, 144, 288
-0.986308, 393, 241, 456, 304
-0.986323, 41, 233, 104, 296
-0.986348, 125, 249, 156, 312
-0.986361, 265, 1, 328, 256
-0.986383, 233, 1, 296, 128
-0.986388, 217, 249, 248, 312
-0.986397, 345, 257, 408, 320
-0.986409, 433, 113, 496, 240
-0.98642, 321, 241, 448, 304
-0.986431, 197, 65, 228, 128
-0.986458, 169, 1, 200, 64
-0.986497, 165, 1, 196, 128
-0.986535, 209, 17, 240, 144
-0.986555, 281, 209, 344, 272
-0.986619, 105, 153, 168, 216
-0.986649, 229, 113, 260, 176
-0.986649, 181, 185, 212, 248
-0.986655, 105, 201, 136, 264
-0.986754, 205, 105, 236, 168
-0.986783, 241, 1, 304, 333
-0.986835, 385, 17, 448, 144
-0.986861, 49, 169, 176, 232
-0.986863, 433, 273, 496, 333
-0.987013, 121, 169, 152, 232
-0.987139, 113, 57, 176, 120
-0.987202, 149, 193, 180, 320
-0.987257, 393, 33, 456, 96
-0.987326, 1, 137, 32, 200
-0.987347, 1, 97, 32, 224
-0.987383, 1, 49, 64, 112
-0.987403, 153, 25, 184, 88
-0.987452, 205, 137, 236, 200
-0.987465, 13, 113, 44, 176
-0.987479, 353, 217, 416, 280
-0.98751, 353, 153, 480, 216
-0.987532, 97, 257, 128, 320
-0.9876, 433, 209, 496, 272
-0.987604, 281, 97, 312, 224
-0.987667, 305, 65, 432, 128
-0.987714, 205, 25, 236, 88
-0.987736, 329, 41, 392, 104
-0.987743, 349, 121, 380, 184
-0.987829, 409, 209, 472, 272
-0.987946, 433, 121, 496, 184
-0.98795, 425, 185, 488, 248
-0.987988, 433, 209, 496, 333
-0.987996, 33, 89, 160, 152
-0.988006, 417, 1, 480, 128
-0.988029, 313, 65, 376, 320
-0.988057, 385, 209, 448, 272
-0.988083, 265, 65, 296, 128
-0.988107, 401, 57, 464, 120
-0.988192, 333, 249, 364, 312
-0.988193, 81, 73, 208, 136
-0.988248, 337, 209, 368, 333
-0.988272, 241, 193, 272, 320
-0.98829, 105, 193, 136, 320
-0.98831, 369, 233, 496, 296
-0.988362, 33, 273, 64, 333
-0.988389, 337, 121, 464, 184
-0.988422, 177, 241, 208, 304
-0.988426, 161, 225, 288, 288
-0.988443, 257, 185, 384, 248
-0.988448, 297, 209, 328, 333
-0.988534, 105, 1, 136, 128
-0.988583, 17, 241, 80, 304
-0.988616, 1, 209, 128, 272
-0.988618, 257, 33, 384, 96
-0.988657, 273, 89, 304, 152
-0.988673, 125, 41, 156, 104
-0.988735, 25, 161, 88, 224
-0.988779, 241, 129, 272, 256
-0.988802, 193, 33, 320, 96
-0.98884, 25, 1, 88, 256
-0.988882, 281, 33, 344, 96
-0.988916, 369, 129, 400, 256
-0.988944, 309, 145, 340, 272
-0.988947, 205, 81, 236, 208
-0.989001, 185, 181, 248, 212
-0.989053, 377, 57, 440, 120
-0.989054, 305, 89, 432, 152
-0.989056, 173, 105, 204, 168
-0.989096, 41, 193, 104, 256
-0.989121, 337, 177, 464, 240
-0.989191, 161, 29, 224, 60
-0.989193, 193, 1, 224, 64
-0.9892, 257, 49, 288, 176
-0.989204, 281, 57, 344, 120
-0.989208, 1, 1, 64, 256
-0.989291, 373, 121, 404, 184
-0.989291, 97, 49, 224, 112
-0.98938, 229, 153, 260, 216
-0.989388, 109, 17, 140, 80
-0.989389, 129, 1, 256, 64
-0.989401, 297, 257, 328, 320
-0.98942, 237, 257, 268, 320
-0.989432, 309, 137, 340, 200
-0.989444, 281, 121, 312, 184
-0.989468, 65, 121, 192, 184
-0.989531, 329, 273, 360, 333
-0.989532, 329, 209, 392, 272
-0.989557, 121, 89, 184, 152
-0.989588, 41, 33, 104, 96
-0.989594, 161, 273, 288, 333
-0.989661, 369, 49, 496, 112
-0.989743, 309, 97, 340, 224
-0.989762, 153, 1, 184, 128
-0.989787, 185, 193, 248, 224
-0.989788, 77, 209, 108, 333
-0.989788, 297, 153, 328, 216
-0.989815, 265, 41, 296, 104
-0.989829, 1, 169, 128, 232
-0.989848, 253, 201, 284, 264
-0.989906, 245, 161, 276, 224
-0.989908, 45, 273, 76, 333
-0.989923, 225, 9, 352, 72
-0.989933, 97, 177, 128, 240
-0.989955, 177, 145, 240, 176
-0.989993, 405, 177, 436, 304
-0.990005, 289, 209, 416, 272
-0.990022, 193, 217, 256, 248
-0.990042, 137, 1, 200, 256
-0.990059, 29, 97, 60, 224
-0.990076, 153, 213, 216, 244
-0.990093, 169, 81, 200, 144
-0.990107, 185, 73, 216, 136
-0.990108, 1, 1, 64, 333
-0.990118, 329, 1, 392, 128
-0.990145, 241, 113, 272, 176
-0.990147, 209, 189, 272, 220
-0.990148, 1, 33, 128, 96
-0.990183, 185, 157, 248, 188
-0.99019, 313, 233, 344, 296
-0.990217, 349, 273, 380, 333
-0.990227, 209, 201, 272, 232
-0.990294, 1, 105, 32, 168
-0.990311, 161, 177, 224, 208
-0.990339, 385, 81, 448, 208
-0.990372, 265, 153, 328, 184
-0.990379, 145, 141, 208, 172
-0.990387, 197, 273, 228, 333
-0.990392, 49, 1, 112, 256
-0.990432, 321, 41, 448, 104
-0.990437, 209, 177, 272, 208
-0.990446, 401, 297, 464, 328
-0.990474, 93, 129, 124, 256
-0.990478, 317, 265, 348, 328
-0.990508, 185, 169, 248, 200
-0.990521, 161, 209, 192, 333
-0.990541, 97, 205, 160, 236
-0.990542, 261, 161, 292, 288
-0.99058, 269, 33, 300, 160
-0.990641, 145, 201, 176, 264
-0.990649, 237, 1, 268, 128
-0.990691, 353, 97, 384, 160
-0.990706, 185, 133, 248, 164
-0.990711, 117, 209, 148, 333
-0.990735, 153, 45, 216, 76
-0.990751, 245, 65, 276, 128
-0.990762, 289, 145, 320, 272
-0.990808, 297, 233, 328, 296
-0.99081, 289, 33, 352, 288
-0.99081, 361, 153, 392, 216
-0.990812, 193, 33, 256, 64
-0.990818, 337, 1, 400, 256
-0.990828, 193, 229, 256, 260
-0.990834, 1, 41, 32, 104
-0.990847, 185, 109, 248, 140
-0.990858, 89, 209, 120, 333
-0.990875, 81, 217, 144, 248
-0.990888, 305, 241, 368, 272
-0.990903, 161, 161, 224, 192
-0.990903, 209, 241, 272, 272
-0.990913, 165, 241, 196, 304
-0.990916, 233, 113, 296, 144
-0.990935, 273, 1, 336, 333
-0.99094, 225, 209, 352, 272
-0.990963, 305, 257, 368, 288
-0.99097, 185, 205, 248, 236
-0.990978, 341, 145, 372, 208
-0.990984, 329, 257, 392, 288
-0.991004, 101, 145, 132, 208
-0.991013, 257, 81, 320, 112
-0.991017, 145, 125, 208, 156
-0.99103, 109, 49, 140, 112
-0.991037, 217, 213, 280, 244
-0.991038, 65, 273, 96, 333
-0.991048, 77, 1, 108, 128
-0.991053, 153, 197, 216, 228
-0.991066, 173, 49, 204, 112
-0.99109, 297, 225, 360, 256
-0.991093, 233, 125, 296, 156
-0.991095, 161, 97, 224, 128
-0.9911, 1, 1, 32, 64
-0.991104, 33, 121, 96, 152
-0.991104, 233, 177, 296, 208
-0.991106, 129, 265, 192, 296
-0.991111, 265, 101, 328, 132
-0.991111, 177, 249, 240, 280
-0.991127, 129, 113, 384, 176
-0.991132, 129, 37, 192, 68
-0.99114, 49, 145, 176, 208
-0.991166, 121, 221, 184, 252
-0.991171, 269, 177, 300, 240
-0.991197, 161, 109, 224, 140
-0.991202, 169, 229, 232, 260
-0.991211, 273, 133, 336, 164
-0.991249, 185, 97, 248, 128
-0.991251, 369, 97, 400, 160
-0.991253, 77, 257, 108, 320
-0.991255, 297, 145, 360, 176
-0.991266, 177, 121, 240, 152
-0.991275, 225, 97, 288, 128
-0.991288, 233, 189, 296, 220
-0.99129, 209, 157, 272, 188
-0.991291, 121, 1, 184, 333
-0.991299, 313, 89, 344, 152
-0.991314, 281, 249, 344, 280
-0.991317, 329, 129, 360, 192
-0.991348, 225, 145, 288, 176
-0.991352, 121, 21, 184, 52
-0.991369, 321, 281, 384, 312
-0.991371, 321, 137, 384, 168
-0.991375, 105, 237, 168, 268
-0.99138, 421, 145, 452, 208
-0.99138, 425, 301, 488, 332
-0.991387, 229, 81, 260, 208
-0.991394, 441, 153, 472, 216
-0.991402, 121, 301, 184, 332
-0.991403, 13, 49, 44, 176
-0.991418, 185, 85, 248, 116
-0.991421, 169, 209, 200, 272
-0.991433, 1, 141, 64, 172
-0.991441, 1, 277, 64, 308
-0.991476, 161, 85, 224, 116
-0.991481, 321, 193, 384, 224
-0.991509, 97, 153, 352, 216
-0.991524, 97, 1, 160, 333
-0.991527, 337, 1, 400, 333
-0.991528, 357, 241, 388, 304
-0.991537, 369, 265, 400, 328
-0.991554, 249, 217, 312, 248
-0.991562, 265, 165, 328, 196
-0.991564, 97, 289, 160, 320
-0.991566, 361, 289, 424, 320
-0.991569, 137, 173, 200, 204
-0.991577, 337, 201, 464, 264
-0.991588, 185, 65, 248, 96
-0.99159, 105, 257, 168, 288
-0.991591, 149, 1, 180, 64
-0.991607, 161, 113, 192, 176
-0.991608, 297, 81, 328, 208
-0.991619, 33, 137, 96, 168
-0.991621, 153, 261, 216, 292
-0.991632, 353, 149, 416, 180
-0.991636, 329, 129, 360, 256
-0.991637, 289, 205, 352, 236
-0.991638, 325, 65, 356, 192
-0.991638, 373, 145, 404, 208
-0.991655, 113, 189, 176, 220
-0.99166, 9, 125, 72, 156
-0.991666, 161, 69, 224, 100
-0.991673, 117, 1, 148, 128
-0.991682, 129, 193, 160, 256
-0.991693, 149, 145, 180, 272
-0.991697, 257, 185, 320, 216
-0.991703, 321, 297, 384, 328
-0.991707, 121, 209, 184, 240
-0.991708, 49, 25, 176, 88
-0.991713, 81, 261, 144, 292
-0.99172, 257, 69, 320, 100
-0.991726, 81, 229, 144, 260
-0.991739, 113, 277, 176, 308
-0.991741, 329, 109, 392, 140
-0.991752, 345, 269, 408, 300
-0.991768, 25, 285, 88, 316
-0.99177, 265, 113, 328, 144
-0.991783, 153, 245, 216, 276
-0.991784, 1, 233, 128, 296
-0.991785, 329, 125, 392, 156
-0.991798, 133, 161, 164, 224
-0.991803, 201, 253, 264, 284
-0.991809, 329, 245, 392, 276
-0.991809, 373, 81, 404, 208
-0.991814, 17, 105, 80, 136
-0.991815, 353, 97, 480, 160
-0.99183, 401, 193, 464, 224
-0.991843, 121, 133, 184, 164
-0.991858, 129, 161, 160, 288
-0.99186, 145, 145, 176, 208
-0.991869, 137, 277, 200, 308
-0.99187, 81, 169, 112, 232
-0.991872, 353, 73, 480, 136
-0.991878, 81, 301, 144, 332
-0.991884, 361, 213, 424, 244
-0.991884, 217, 225, 280, 256
-0.991887, 121, 149, 184, 180
-0.991887, 253, 249, 284, 312
-0.991889, 89, 121, 120, 184
-0.991897, 401, 285, 464, 316
-0.991908, 233, 257, 296, 288
-0.991921, 361, 201, 424, 232
-0.991923, 289, 93, 352, 124
-0.991927, 297, 177, 360, 208
-0.99195, 349, 177, 380, 304
-0.991955, 217, 65, 280, 96
-0.991956, 233, 165, 296, 196
-0.99196, 313, 213, 376, 244
-0.991968, 97, 1, 128, 64
-0.991979, 169, 277, 232, 308
-0.99198, 361, 137, 424, 168
-0.991991, 377, 301, 440, 332
-0.991994, 289, 269, 352, 300
-0.991996, 65, 157, 128, 188
-0.992015, 257, 53, 320, 84
-0.99202, 249, 141, 312, 172
-0.992023, 233, 201, 296, 232
-0.992023, 393, 205, 456, 236
-0.992025, 81, 177, 144, 208
-0.992049, 145, 225, 208, 256
-0.992051, 281, 289, 344, 320
-0.992066, 89, 1, 152, 256
-0.992067, 49, 109, 112, 140
-0.992072, 289, 81, 352, 112
-0.992076, 257, 237, 320, 268
-0.992078, 329, 93, 392, 124
-0.992087, 409, 181, 472, 212
-0.99209, 337, 221, 400, 252
-0.992093, 209, 121, 272, 152
-0.992101, 161, 17, 224, 48
-0.992102, 373, 193, 404, 320
-0.992107, 17, 129, 48, 256
-0.992131, 53, 249, 84, 312
-0.992131, 445, 273, 476, 333
-0.992165, 113, 121, 144, 184
-0.9922, 217, 201, 248, 232
-0.992248, 1, 57, 128, 120
-0.992258, 165, 49, 196, 176
-0.992265, 41, 105, 72, 168
-0.992304, 113, 145, 144, 208
-0.99231, 297, 1, 360, 333
-0.99233, 401, 273, 432, 333
-0.992362, 97, 33, 352, 96
-0.992382, 205, 1, 236, 64
-0.992406, 9, 1, 40, 128
-0.992414, 305, 1, 432, 64
-0.992432, 165, 29, 196, 60
-0.992507, 221, 89, 252, 152
-0.992514, 417, 161, 448, 288
-0.992517, 357, 217, 388, 280
-0.99254, 85, 1, 116, 64
-0.992548, 313, 209, 344, 272
-0.992567, 193, 173, 224, 204
-0.992569, 297, 121, 328, 184
-0.992586, 217, 181, 248, 212
-0.992609, 185, 29, 216, 60
-0.992624, 201, 189, 232, 220
-0.992627, 209, 81, 240, 144
-0.992628, 113, 49, 144, 176
-0.992636, 165, 129, 196, 256
-0.992674, 173, 137, 204, 168
-0.992677, 357, 129, 388, 256
-0.992711, 93, 81, 124, 208
-0.992722, 53, 97, 84, 224
-0.992724, 29, 105, 60, 168
-0.992741, 181, 45, 212, 76
-0.992759, 237, 193, 268, 224
-0.992792, 17, 1, 144, 64
-0.992821, 197, 101, 228, 132
-0.992834, 193, 157, 224, 188
-0.99284, 201, 213, 232, 244
-0.992851, 113, 241, 144, 272
-0.992874, 213, 157, 244, 188
-0.992876, 217, 213, 248, 244
-0.992877, 197, 89, 228, 120
-0.99289, 409, 301, 440, 332
-0.992896, 193, 145, 224, 176
-0.992898, 101, 205, 132, 236
-0.992901, 133, 265, 164, 296
-0.992911, 125, 229, 156, 260
-0.99292, 21, 133, 52, 164
-0.992922, 301, 229, 332, 260
-0.992932, 117, 269, 148, 300
-0.992941, 93, 217, 124, 248
-0.992942, 161, 41, 192, 72
-0.992952, 17, 121, 48, 152
-0.992952, 113, 33, 176, 288
-0.992953, 329, 285, 360, 316
-0.992957, 133, 253, 164, 284
-0.992961, 337, 241, 368, 272
-0.992961, 325, 237, 356, 268
-0.99297, 5, 129, 36, 160
-0.992979, 197, 249, 228, 280
-0.992986, 213, 169, 244, 200
-0.992988, 197, 29, 228, 60
-0.992989, 133, 241, 164, 272
-0.992994, 277, 145, 308, 176
-0.992996, 189, 117, 220, 148
-0.993, 173, 157, 204, 188
-0.993002, 1, 113, 32, 144
-0.993004, 197, 69, 228, 100
-0.993004, 141, 301, 172, 332
-0.993007, 201, 225, 232, 256
-0.993016, 253, 105, 284, 136
-0.993018, 109, 145, 140, 272
-0.993021, 33, 133, 64, 164
-0.993022, 113, 229, 144, 260
-0.993023, 105, 257, 136, 288
-0.993026, 365, 129, 396, 160
-0.993032, 193, 45, 224, 76
-0.993034, 185, 209, 216, 240
-0.993034, 217, 241, 248, 272
-0.993049, 421, 297, 452, 328
-0.993053, 237, 217, 268, 248
-0.993054, 341, 273, 372, 304
-0.993055, 177, 189, 208, 220
-0.993059, 305, 153, 336, 184
-0.993065, 129, 113, 160, 240
-0.993071, 129, 177, 384, 240
-0.993074, 145, 265, 176, 296
-0.993074, 201, 201, 232, 232
-0.993077, 229, 181, 260, 212
-0.993084, 125, 281, 156, 312
-0.993085, 105, 217, 136, 248
-0.993091, 265, 77, 296, 108
-0.993093, 261, 117, 292, 148
-0.993096, 129, 297, 160, 328
-0.9931, 237, 233, 268, 264
-0.993103, 309, 205, 340, 236
-0.993106, 177, 177, 208, 208
-0.993108, 329, 273, 360, 304
-0.993108, 281, 129, 312, 160
-0.993109, 109, 297, 140, 328
-0.993109, 153, 29, 184, 60
-0.99311, 245, 61, 276, 92
-0.993111, 329, 145, 360, 176
-0.993117, 53, 277, 84, 308
-0.993123, 133, 217, 164, 248
-0.993124, 321, 257, 352, 288
-0.993126, 353, 297, 384, 328
-0.993128, 193, 129, 224, 160
-0.993129, 313, 241, 344, 272
-0.99313, 217, 113, 248, 144
-0.99313, 141, 229, 172, 260
-0.993137, 97, 89, 352, 152
-0.993138, 213, 29, 244, 60
-0.993138, 245, 181, 276, 212
-0.993139, 185, 77, 216, 108
-0.99314, 281, 49, 312, 176
-0.993143, 29, 269, 60, 300
-0.993145, 341, 141, 372, 172
-0.993149, 73, 121, 104, 152
-0.99315, 437, 301, 468, 332
-0.993151, 341, 81, 372, 208
-0.993152, 165, 121, 196, 152
-0.993154, 249, 93, 280, 124
-0.993156, 249, 221, 280, 252
-0.993156, 373, 181, 404, 212
-0.993165, 313, 293, 344, 324
-0.993165, 233, 205, 264, 236
-0.993171, 121, 169, 152, 200
-0.993171, 301, 249, 332, 280
-0.993171, 317, 277, 348, 308
-0.993172, 37, 121, 68, 152
-0.993173, 417, 173, 448, 204
-0.993175, 269, 177, 300, 208
-0.993177, 185, 93, 216, 124
-0.993178, 217, 229, 248, 260
-0.993181, 237, 117, 268, 148
-0.993183, 389, 193, 420, 320
-0.993185, 309, 217, 340, 248
-0.993187, 269, 97, 300, 128
-0.993187, 393, 181, 424, 212
-0.993188, 217, 129, 248, 160
-0.993194, 221, 17, 252, 144
-0.993195, 245, 45, 276, 76
-0.993197, 277, 109, 308, 140
-0.993199, 197, 57, 228, 88
-0.993204, 353, 133, 384, 164
-0.993205, 37, 289, 68, 320
-0.993208, 353, 281, 384, 312
-0.993209, 321, 133, 352, 164
-0.993211, 129, 57, 160, 88
-0.993211, 205, 41, 236, 72
-0.993212, 393, 293, 424, 324
-0.993213, 165, 261, 196, 292
-0.993213, 185, 105, 216, 136
-0.993217, 149, 205, 180, 236
-0.993225, 81, 209, 112, 240
-0.993231, 289, 153, 320, 184
-0.993238, 273, 157, 304, 188
-0.993238, 73, 301, 104, 332
-0.993238, 309, 141, 340, 172
-0.99324, 225, 157, 256, 188
-0.993241, 85, 297, 116, 328
-0.993241, 293, 213, 324, 244
-0.993241, 361, 153, 392, 184
-0.993243, 1, 33, 256, 96
-0.993243, 153, 249, 184, 280
-0.993261, 385, 1, 448, 256
-0.993403, 37, 209, 68, 333
-0.993423, 49, 49, 80, 176
-0.993497, 33, 177, 288, 240
-0.993507, 97, 201, 352, 264
-0.993516, 17, 177, 48, 304
-0.993672, 1, 49, 32, 176
-0.99369, 97, 57, 352, 120
-0.993716, 257, 137, 500, 200
-0.993748, 25, 1, 88, 333
-0.993753, 297, 33, 328, 160
-0.99376, 93, 17, 124, 144
-0.993768, 97, 265, 352, 328
-0.99379, 77, 65, 108, 192
-0.993796, 49, 49, 176, 112
-0.993846, 1, 89, 256, 152
-0.993875, 217, 65, 248, 192
-0.993904, 361, 1, 424, 256
-0.994024, 1, 249, 500, 312
-0.994047, 361, 193, 392, 320
-0.99407, 425, 209, 456, 333
-0.994111, 381, 129, 412, 256
-0.994158, 397, 113, 428, 240
-0.994189, 219, 177, 234, 240
-0.994286, 225, 89, 480, 152
-0.994344, 1, 241, 256, 304
-0.994429, 149, 49, 180, 176
-0.994472, 193, 25, 208, 88
-0.994491, 193, 133, 320, 164
-0.994491, 257, 145, 384, 176
-0.994525, 441, 113, 472, 240
-0.994534, 177, 153, 304, 184
-0.994535, 369, 17, 496, 80
-0.994565, 177, 189, 304, 220
-0.994568, 417, 113, 448, 240
-0.994649, 357, 65, 388, 192
-0.994658, 127, 257, 142, 320
-0.994661, 233, 177, 248, 240
-0.994663, 177, 121, 304, 152
-0.994679, 253, 209, 284, 333
-0.994681, 273, 161, 304, 288
-0.994686, 341, 17, 372, 144
-0.994726, 145, 241, 160, 304
-0.994727, 179, 25, 194, 88
-0.99473, 129, 17, 160, 144
-0.994745, 1, 137, 256, 200
-0.994745, 223, 153, 238, 216
-0.994749, 137, 265, 152, 328
-0.994758, 97, 241, 224, 272
-0.994807, 73, 1, 136, 333
-0.994808, 177, 109, 304, 140
-0.99489, 425, 1, 488, 256
-0.994935, 185, 25, 200, 88
-0.994958, 425, 1, 488, 333
-0.995062, 113, 29, 240, 60
-0.995062, 173, 25, 188, 88
-0.995069, 137, 241, 152, 304
-0.995091, 177, 177, 304, 208
-0.995105, 225, 169, 480, 232
-0.995125, 141, 1, 172, 128
-0.995145, 353, 1, 416, 128
-0.99516, 129, 9, 384, 72
-0.99516, 257, 49, 272, 112
-0.995176, 113, 137, 240, 168
-0.995191, 193, 209, 448, 272
-0.995197, 113, 173, 240, 204
-0.99525, 229, 153, 244, 216
-0.995254, 429, 161, 460, 288
-0.995263, 199, 25, 214, 88
-0.995266, 29, 49, 60, 176
-0.995271, 167, 25, 182, 88
-0.995313, 1, 265, 256, 328
-0.995327, 257, 133, 384, 164
-0.995352, 469, 81, 500, 208
-0.995358, 201, 49, 216, 112
-0.995375, 385, 1, 448, 333
-0.995382, 225, 113, 480, 176
-0.995425, 1, 201, 256, 264
-0.99545, 151, 265, 166, 328
-0.995468, 97, 241, 352, 304
-0.995483, 217, 153, 232, 216
-0.995517, 33, 269, 160, 300
-0.995541, 257, 113, 384, 144
-0.995557, 205, 25, 220, 88
-0.995568, 193, 241, 448, 304
-0.995574, 37, 161, 68, 288
-0.995589, 1, 9, 256, 72
-0.995604, 1, 113, 256, 176
-0.995622, 361, 273, 376, 333
-0.995633, 125, 233, 140, 296
-0.995642, 97, 217, 224, 248
-0.995659, 161, 33, 288, 64
-0.995685, 49, 1, 112, 333
-0.995699, 97, 197, 224, 228
-0.995703, 185, 129, 200, 192
-0.995732, 305, 297, 432, 328
-0.995739, 211, 249, 226, 312
-0.995764, 239, 177, 254, 240
-0.995767, 397, 65, 428, 192
-0.995779, 117, 97, 148, 224
-0.99578, 177, 93, 304, 124
-0.99578, 273, 245, 400, 276
-0.995803, 1, 137, 500, 200
-0.995818, 241, 225, 368, 256
-0.99583, 197, 209, 212, 272
-0.995836, 189, 105, 204, 168
-0.995839, 113, 41, 240, 72
-0.995841, 225, 49, 480, 112
-0.99586, 225, 181, 352, 212
-0.995861, 129, 185, 256, 216
-0.995863, 21, 1, 52, 128
-0.995863, 65, 1, 96, 128
-0.995878, 437, 65, 468, 192
-0.995879, 257, 161, 384, 192
-0.99588, 77, 113, 108, 240
-0.99589, 1, 225, 500, 288
-0.995906, 113, 153, 240, 184
-0.995919, 273, 113, 288, 176
-0.995919, 113, 125, 240, 156
-0.995957, 1, 273, 500, 333
-0.995968, 81, 261, 208, 292
-0.995974, 211, 185, 226, 248
-0.996001, 201, 249, 216, 312
-0.996002, 133, 65, 164, 192
-0.996011, 453, 113, 484, 240
-0.996048, 227, 177, 242, 240
-0.996053, 49, 221, 176, 252
-0.996055, 171, 1, 186, 64
-0.996055, 361, 1, 424, 333
-0.996057, 161, 201, 288, 232
-0.996075, 177, 73, 304, 104
-0.996093, 177, 57, 304, 88
-0.9961, 377, 33, 408, 160
-0.996108, 305, 153, 432, 184
-0.996122, 225, 17, 480, 80
-0.996145, 69, 161, 100, 288
-0.996146, 199, 81, 214, 144
-0.99619, 161, 165, 288, 196
-0.996197, 257, 265, 500, 328
-0.9962, 339, 273, 354, 333
-0.996205, 217, 225, 232, 288
-0.996212, 141, 217, 156, 280
-0.99622, 113, 257, 128, 320
-0.996231, 325, 17, 356, 144
-0.996234, 221, 201, 236, 264
-0.996254, 17, 133, 144, 164
-0.996274, 1, 65, 256, 128
-0.996292, 309, 1, 340, 128
-0.996295, 193, 33, 224, 288
-0.996304, 193, 185, 208, 248
-0.996321, 239, 201, 254, 264
-0.996321, 263, 73, 278, 136
-0.996348, 1, 185, 500, 248
-0.996358, 145, 261, 272, 292
-0.996368, 257, 101, 384, 132
-0.996378, 373, 129, 388, 192
-0.996387, 17, 249, 144, 280
-0.996388, 1, 145, 128, 176
-0.996388, 153, 225, 168, 288
-0.996391, 97, 97, 224, 128
-0.996393, 129, 229, 256, 260
-0.996403, 257, 1, 288, 128
-0.996403, 145, 97, 176, 224
-0.996414, 55, 273, 70, 333
-0.99642, 229, 201, 244, 264
-0.996432, 225, 89, 352, 120
-0.996435, 191, 49, 206, 112
-0.996445, 97, 281, 224, 312
-0.996452, 177, 45, 304, 76
-0.99648, 225, 245, 352, 276
-0.996485, 65, 113, 96, 240
-0.996488, 131, 233, 146, 296
-0.996493, 341, 129, 372, 256
-0.996497, 49, 209, 80, 333
-0.996519, 225, 69, 352, 100
-0.996522, 147, 217, 162, 280
-0.996526, 187, 153, 202, 216
-0.996534, 177, 1, 192, 64
-0.996534, 363, 113, 378, 176
-0.996537, 1, 117, 128, 148
-0.996556, 47, 273, 62, 333
-0.996562, 219, 129, 234, 192
-0.996564, 227, 113, 242, 176
-0.996575, 81, 297, 208, 328
-0.996576, 225, 193, 352, 224
-0.996579, 389, 1, 420, 128
-0.996579, 5, 209, 36, 333
-0.9966, 1, 281, 128, 312
-0.996612, 219, 249, 234, 312
-0.996639, 369, 301, 496, 332
-0.996643, 1, 97, 16, 160
-0.99665, 203, 225, 218, 288
-0.996665, 49, 233, 176, 264
-0.996668, 161, 25, 176, 88
-0.996671, 145, 273, 272, 304
-0.996688, 289, 233, 416, 264
-0.996696, 131, 209, 146, 272
-0.996707, 235, 153, 250, 216
-0.996711, 157, 257, 172, 320
-0.996714, 97, 209, 112, 272
-0.99672, 65, 33, 192, 64
-0.996722, 1, 145, 32, 272
-0.996723, 351, 273, 366, 333
-0.996724, 113, 109, 240, 140
-0.996753, 119, 265, 134, 328
-0.996753, 33, 101, 160, 132
-0.996792, 263, 97, 278, 160
-0.996806, 241, 265, 368, 296
-0.996817, 183, 1, 198, 64
-0.996817, 461, 273, 476, 333
-0.996818, 275, 153, 290, 216
-0.99682, 195, 145, 210, 208
-0.996837, 269, 177, 284, 240
-0.996855, 465, 145, 496, 272
-0.996858, 177, 233, 304, 264
-0.996872, 145, 265, 160, 328
-0.996891, 209, 165, 336, 196
-0.996892, 309, 161, 324, 224
-0.996897, 167, 257, 182, 320
-0.996906, 241, 113, 256, 176
-0.996906, 177, 221, 304, 252
-0.996911, 119, 241, 134, 304
-0.996935, 97, 273, 112, 333
-0.996945, 179, 113, 194, 176
-0.996959, 267, 49, 282, 112
-0.99696, 361, 233, 376, 296
-0.996963, 103, 209, 118, 272
-0.996975, 107, 257, 122, 320
-0.996976, 475, 273, 490, 333
-0.996978, 225, 301, 352, 332
-0.996981, 417, 1, 448, 128
-0.996989, 279, 129, 294, 192
-0.997003, 173, 265, 188, 328
-0.997012, 321, 137, 448, 168
-0.997026, 211, 209, 226, 272
-0.997027, 305, 261, 432, 292
-0.997031, 81, 137, 96, 200
-0.997036, 327, 273, 342, 333
-0.997042, 337, 173, 464, 204
-0.99705, 49, 73, 176, 104
-0.997052, 321, 285, 448, 316
-0.997053, 423, 161, 438, 224
-0.997054, 203, 1, 218, 64
-0.997059, 467, 265, 482, 328
-0.997062, 211, 25, 226, 88
-0.997062, 353, 129, 368, 192
-0.997063, 121, 209, 136, 272
-0.997069, 49, 209, 176, 240
-0.997072, 93, 153, 108, 216
-0.997084, 39, 265, 54, 328
-0.997091, 289, 217, 416, 248
-0.997091, 257, 281, 384, 312
-0.997097, 315, 265, 330, 328
-0.997097, 303, 217, 318, 280
-0.997098, 115, 193, 130, 256
-0.997106, 349, 249, 364, 312
-0.997106, 193, 73, 208, 136
-0.997122, 273, 209, 304, 333
-0.997125, 219, 105, 234, 168
-0.997126, 209, 205, 336, 236
-0.997147, 81, 161, 112, 288
-0.997152, 195, 105, 210, 168
-0.997162, 161, 249, 288, 280
-0.997171, 441, 161, 472, 288
-0.997174, 241, 257, 256, 320
-0.997198, 105, 97, 136, 224
-0.9972, 165, 201, 180, 264
-0.997207, 9, 121, 24, 184
-0.997209, 309, 49, 340, 176
-0.997211, 81, 185, 208, 216
-0.997212, 113, 85, 240, 116
-0.997225, 95, 185, 110, 248
-0.997226, 245, 1, 276, 256
-0.997236, 189, 1, 204, 64
-0.997239, 225, 57, 352, 88
-0.997243, 195, 249, 210, 312
-0.997244, 65, 21, 192, 52
-0.997249, 121, 9, 136, 72
-0.997252, 231, 225, 246, 288
-0.997252, 1, 73, 500, 136
-0.997264, 249, 225, 264, 288
-0.997264, 211, 153, 226, 216
-0.997269, 161, 21, 288, 52
-0.997273, 373, 105, 388, 168
-0.997276, 371, 265, 386, 328
-0.99728, 353, 17, 384, 144
-0.997299, 353, 149, 480, 180
-0.997301, 71, 273, 86, 333
-0.997301, 311, 233, 326, 296
-0.997325, 127, 17, 142, 80
-0.997332, 313, 137, 328, 200
-0.997332, 65, 165, 192, 196
-0.997339, 345, 273, 360, 333
-0.99734, 305, 113, 432, 144
-0.997343, 105, 233, 120, 296
-0.997345, 411, 273, 426, 333
-0.997346, 1, 217, 128, 248
-0.997349, 329, 241, 344, 304
-0.997355, 121, 177, 136, 240
-0.997357, 167, 29, 182, 60
-0.997358, 49, 121, 176, 152
-0.997358, 317, 217, 332, 280
-0.997358, 193, 273, 208, 333
-0.99736, 343, 145, 358, 208
-0.99736, 83, 177, 98, 240
-0.997365, 231, 249, 246, 312
-0.997373, 33, 293, 160, 324
-0.997375, 97, 61, 224, 92
-0.997378, 1, 205, 128, 236
-0.997381, 263, 185, 278, 248
-0.997394, 289, 185, 416, 216
-0.997394, 175, 241, 190, 304
-0.997396, 33, 181, 160, 212
-0.997397, 369, 121, 496, 152
-0.9974, 233, 113, 248, 176
-0.997402, 337, 273, 464, 304
-0.997406, 221, 201, 236, 232
-0.997412, 1, 1, 32, 256
-0.997429, 65, 133, 192, 164
-0.997438, 337, 101, 464, 132
-0.997455, 129, 293, 256, 324
-0.997508, 217, 177, 232, 208
-0.997508, 1, 161, 500, 224
-0.997514, 113, 17, 240, 48
-0.997531, 49, 149, 176, 180
-0.99758, 49, 85, 176, 116
-0.997587, 305, 125, 432, 156
-0.997604, 231, 201, 246, 232
-0.997618, 213, 65, 244, 320
-0.997628, 173, 29, 188, 60
-0.997631, 1, 89, 128, 120
-0.997634, 273, 173, 400, 204
-0.997645, 237, 189, 252, 220
-0.997647, 289, 205, 416, 236
-0.997671, 185, 29, 200, 60
-0.997694, 197, 45, 212, 76
-0.997696, 17, 169, 144, 200
-0.997715, 151, 261, 166, 292
-0.997725, 337, 229, 464, 260
-0.997741, 1, 113, 500, 176
-0.997762, 49, 197, 176, 228
-0.997765, 179, 29, 194, 60
-0.997782, 49, 49, 176, 80
-0.997784, 305, 89, 432, 120
-0.997803, 199, 97, 214, 128
-0.997807, 369, 249, 496, 280
-0.997809, 145, 245, 160, 276
-0.997811, 321, 245, 448, 276
-0.997812, 49, 281, 176, 312
-0.997814, 97, 209, 112, 240
-0.997835, 191, 29, 206, 60
-0.997842, 133, 265, 148, 296
-0.997845, 207, 253, 222, 284
-0.997852, 185, 141, 200, 172
-0.997855, 213, 245, 228, 276
-0.997865, 285, 209, 316, 333
-0.997866, 219, 189, 234, 220
-0.997868, 369, 193, 496, 224
-0.997872, 457, 33, 488, 160
-0.997874, 199, 29, 214, 60
-0.997876, 331, 237, 346, 268
-0.997915, 97, 73, 224, 104
-0.997916, 193, 261, 320, 292
-0.997919, 125, 229, 140, 260
-0.997934, 33, 61, 160, 92
-0.997945, 207, 173, 222, 204
-0.997951, 237, 177, 252, 208
-0.997974, 359, 293, 374, 324
-0.997981, 257, 65, 288, 320
-0.997996, 131, 225, 146, 256
-0.997997, 119, 237, 134, 268
-0.997999, 305, 153, 320, 184
-0.998012, 335, 257, 350, 288
-0.99803, 241, 45, 368, 76
-0.998032, 415, 301, 430, 332
-0.998032, 33, 1, 64, 128
-0.998043, 227, 189, 242, 220
-0.998057, 127, 269, 142, 300
-0.998058, 189, 113, 204, 144
-0.99806, 373, 129, 388, 160
-0.998064, 327, 281, 342, 312
-0.998069, 197, 205, 212, 236
-0.998087, 213, 189, 228, 220
-0.998089, 91, 209, 106, 240
-0.998101, 189, 185, 204, 216
-0.998104, 103, 213, 118, 244
-0.998118, 369, 285, 496, 316
-0.998119, 335, 285, 350, 316
-0.998122, 339, 241, 354, 272
-0.998125, 215, 165, 230, 196
-0.998126, 205, 29, 220, 60
-0.99813, 347, 141, 362, 172
-0.998131, 207, 45, 222, 76
-0.998135, 223, 157, 238, 188
-0.998143, 131, 289, 146, 320
-0.998151, 193, 285, 320, 316
-0.998152, 353, 161, 480, 192
-0.998161, 345, 293, 360, 324
-0.998162, 139, 225, 154, 256
-0.998163, 199, 85, 214, 116
-0.998171, 165, 41, 180, 72
-0.998178, 125, 241, 140, 272
-0.998179, 257, 49, 272, 80
-0.998179, 305, 69, 432, 100
-0.998186, 193, 273, 320, 304
-0.998199, 311, 141, 326, 172
-0.998202, 379, 133, 394, 164
-0.998204, 275, 121, 290, 152
-0.998205, 181, 65, 212, 320
-0.998206, 191, 45, 206, 76
-0.998206, 119, 297, 134, 328
-0.998208, 375, 145, 390, 176
-0.99821, 49, 285, 64, 316
-0.998218, 369, 133, 496, 164
-0.998221, 139, 273, 154, 304
-0.998233, 1, 73, 128, 104
-0.998235, 1, 233, 128, 264
-0.998239, 11, 105, 26, 136
-0.998241, 305, 229, 320, 260
-0.998243, 353, 217, 480, 248
-0.998248, 37, 129, 52, 160
-0.99825, 145, 273, 160, 304
-0.998252, 177, 301, 304, 332
-0.998255, 339, 273, 354, 304
-0.998258, 1, 109, 16, 140
-0.998261, 139, 237, 154, 268
-0.998264, 409, 301, 424, 332
-0.998266, 161, 29, 176, 60
-0.99827, 373, 257, 388, 288
-0.998275, 131, 241, 146, 272
-0.998277, 119, 285, 134, 316
-0.998278, 201, 249, 216, 280
-0.998278, 11, 117, 26, 148
-0.998281, 143, 285, 158, 316
-0.998286, 157, 253, 172, 284
-0.99829, 1, 1, 128, 32
-0.998294, 369, 289, 384, 320
-0.998294, 259, 89, 274, 120
-0.998297, 155, 229, 170, 260
-0.998297, 313, 253, 328, 284
-0.998303, 193, 89, 208, 120
-0.998305, 311, 225, 326, 256
-0.998306, 203, 233, 218, 264
-0.998311, 201, 57, 216, 88
-0.998313, 119, 221, 134, 252
-0.998313, 113, 289, 128, 320
-0.998319, 277, 145, 292, 176
-0.998326, 173, 41, 188, 72
-0.998333, 185, 169, 200, 200
-0.998333, 181, 129, 196, 160
-0.998335, 285, 133, 300, 164
-0.998341, 23, 121, 38, 152
-0.998343, 139, 301, 154, 332
-0.998344, 307, 245, 322, 276
-0.998345, 205, 97, 220, 128
-0.998346, 39, 113, 54, 144
-0.998347, 147, 213, 162, 244
-0.998348, 311, 157, 326, 188
-0.998348, 209, 29, 336, 60
-0.998348, 351, 289, 366, 320
-0.998348, 369, 205, 496, 236
-0.998351, 83, 133, 98, 164
-0.998351, 131, 253, 146, 284
-0.998352, 113, 257, 128, 288
-0.998352, 201, 73, 216, 104
-0.998364, 267, 77, 282, 108
-0.998366, 329, 293, 344, 324
-0.998367, 365, 141, 380, 172
-0.998368, 1, 285, 16, 316
-0.998369, 137, 289, 152, 320
-0.998372, 133, 309, 164, 324
-0.998373, 69, 311, 100, 326
-0.998373, 37, 151, 68, 166
-0.998373, 189, 169, 220, 184
-0.998373, 217, 133, 248, 148
-0.998375, 353, 129, 384, 144
-0.998375, 157, 41, 188, 56
-0.998375, 93, 221, 124, 236
-0.998375, 321, 281, 352, 296
-0.998375, 93, 207, 124, 222
-0.998376, 149, 225, 164, 256
-0.998376, 113, 223, 144, 238
-0.998376, 25, 115, 56, 130
-0.998378, 197, 71, 228, 86
-0.998378, 281, 143, 312, 158
-0.998379, 181, 199, 212, 214
-0.998379, 9, 113, 40, 128
-0.99838, 173, 107, 204, 122
-0.99838, 325, 301, 356, 316
-0.998381, 133, 275, 164, 290
-0.998381, 161, 255, 192, 270
-0.998382, 349, 281, 380, 296
-0.998382, 249, 111, 280, 126
-0.998383, 189, 119, 220, 134
-0.998383, 337, 275, 368, 290
-0.998383, 129, 301, 144, 332
-0.998385, 65, 117, 96, 132
-0.998385, 23, 109, 38, 140
-0.998385, 97, 259, 128, 274
-0.998386, 193, 145, 224, 160
-0.998386, 149, 245, 180, 260
-0.998387, 265, 61, 296, 76
-0.998388, 5, 131, 36, 146
-0.998388, 309, 149, 340, 164
-0.998388, 325, 259, 356, 274
-0.998389, 113, 217, 144, 232
-0.998389, 187, 153, 202, 184
-0.998391, 1, 29, 32, 44
-0.998391, 173, 149, 204, 164
-0.998391, 37, 135, 68, 150
-0.998392, 165, 263, 196, 278
-0.998392, 209, 125, 240, 140
-0.998392, 125, 219, 156, 234
-0.998392, 151, 241, 166, 272
-0.998393, 357, 273, 388, 288
-0.998393, 225, 183, 256, 198
-0.998393, 237, 217, 268, 232
-0.998394, 341, 303, 372, 318
-0.998394, 361, 149, 392, 164
-0.998394, 173, 163, 204, 178
-0.998395, 341, 293, 372, 308
-0.998395, 149, 237, 180, 252
-0.998395, 179, 117, 194, 148
-0.998396, 105, 209, 136, 224
-0.998396, 327, 269, 342, 300
-0.998396, 109, 271, 140, 286
-0.998396, 25, 121, 56, 136
-0.998397, 17, 133, 48, 148
-0.998398, 53, 133, 84, 148
-0.998398, 115, 201, 130, 232
-0.998398, 185, 215, 216, 230
-0.998398, 409, 303, 440, 318
-0.998398, 201, 245, 232, 260
-0.998399, 369, 135, 400, 150
-0.998399, 237, 223, 268, 238
-0.998399, 169, 45, 200, 60
-0.998399, 33, 141, 48, 172
-0.998399, 85, 119, 116, 134
-0.9984, 313, 223, 344, 238
-0.998401, 313, 251, 344, 266
-0.998401, 269, 1, 300, 256
-0.998402, 297, 233, 328, 248
-0.998402, 193, 101, 224, 116
-0.998403, 17, 145, 48, 160
-0.998403, 341, 145, 372, 160
-0.998403, 85, 213, 116, 228
-0.998405, 253, 217, 268, 248
-0.998405, 233, 1, 264, 256
-0.998405, 229, 201, 260, 216
-0.998406, 197, 91, 228, 106
-0.998406, 217, 249, 248, 264
-0.998407, 237, 201, 252, 232
-0.998407, 121, 301, 152, 316
-0.998407, 149, 257, 180, 272
-0.998408, 129, 263, 160, 278
-0.998409, 185, 45, 200, 76
-0.998409, 201, 223, 232, 238
-0.998409, 113, 245, 144, 260
-0.998409, 305, 213, 320, 244
-0.99841, 333, 229, 364, 244
-0.998411, 129, 229, 160, 244
-0.998413, 173, 157, 204, 172
-0.998414, 297, 149, 328, 164
-0.998414, 109, 265, 140, 280
-0.998414, 181, 249, 212, 264
-0.998415, 283, 113, 298, 144
-0.998415, 341, 145, 356, 176
-0.998415, 421, 301, 452, 316
-0.998416, 145, 261, 160, 292
-0.998418, 1, 119, 32, 134
-0.998418, 325, 243, 356, 258
-0.998418, 193, 151, 224, 166
-0.998418, 17, 121, 32, 152
-0.998419, 25, 133, 40, 164
-0.998419, 109, 257, 140, 272
-0.99842, 345, 239, 376, 254
-0.99842, 141, 281, 172, 296
-0.99842, 29, 141, 60, 156
-0.998421, 217, 219, 248, 234
-0.998424, 329, 309, 360, 324
-0.998425, 293, 227, 324, 242
-0.998426, 219, 113, 234, 144
-0.998426, 191, 197, 206, 228
-0.998426, 337, 245, 368, 260
-0.998426, 193, 111, 224, 126
-0.998426, 185, 47, 216, 62
-0.998427, 273, 155, 304, 170
-0.998427, 349, 139, 380, 154
-0.998427, 117, 285, 148, 300
-0.998428, 129, 249, 160, 264
-0.998429, 9, 125, 40, 140
-0.99843, 133, 243, 164, 258
-0.998431, 197, 199, 228, 214
-0.998434, 285, 155, 316, 170
-0.998435, 17, 37, 144, 68
-0.998435, 237, 195, 268, 210
-0.998435, 201, 215, 232, 230
-0.998435, 197, 253, 228, 268
-0.998441, 193, 187, 224, 202
-0.998441, 305, 155, 336, 170
-0.998443, 205, 209, 236, 224
-0.998443, 173, 139, 204, 154
-0.998445, 181, 209, 212, 224
-0.998445, 145, 35, 176, 50
-0.998446, 365, 129, 396, 144
-0.998447, 101, 215, 132, 230
-0.998452, 213, 179, 244, 194
-0.998452, 117, 235, 148, 250
-0.998454, 277, 149, 308, 164
-0.998456, 193, 175, 224, 190
-0.998457, 217, 189, 248, 204
-0.998462, 185, 191, 248, 206
-0.998466, 129, 269, 160, 284
-0.998467, 217, 195, 248, 210
-0.998468, 121, 275, 152, 290
-0.998474, 193, 199, 256, 214
-0.998478, 129, 237, 160, 252
-0.998482, 165, 31, 196, 46
-0.998492, 193, 181, 224, 196
-0.998493, 161, 31, 224, 46
-0.998494, 133, 255, 164, 270
-0.998496, 201, 183, 264, 198
-0.9985, 197, 193, 228, 208
-0.998507, 65, 9, 192, 40
-0.99851, 169, 209, 232, 224
-0.998514, 309, 229, 340, 244
-0.998518, 161, 191, 224, 206
-0.998518, 129, 255, 192, 270
-0.998519, 209, 191, 272, 206
-0.998519, 321, 237, 352, 252
-0.998521, 201, 221, 264, 236
-0.998525, 273, 145, 336, 160
-0.998526, 265, 155, 328, 170
-0.998526, 1, 33, 500, 96
-0.99853, 177, 177, 240, 192
-0.998531, 193, 211, 256, 226
-0.998533, 185, 151, 248, 166
-0.998538, 409, 301, 472, 316
-0.998545, 233, 191, 296, 206
-0.998547, 297, 257, 360, 272
-0.998548, 161, 185, 224, 200
-0.998553, 289, 53, 416, 84
-0.998556, 161, 171, 224, 186
-0.998556, 57, 119, 120, 134
-0.998557, 217, 211, 248, 226
-0.998559, 153, 215, 216, 230
-0.998559, 129, 39, 192, 54
-0.99856, 17, 115, 80, 130
-0.998562, 153, 251, 216, 266
-0.998564, 217, 199, 280, 214
-0.998565, 353, 261, 480, 292
-0.998566, 305, 227, 368, 242
-0.998567, 225, 155, 288, 170
-0.998568, 57, 125, 120, 140
-0.998568, 177, 157, 240, 172
-0.998568, 17, 123, 80, 138
-0.998569, 105, 255, 168, 270
-0.998569, 41, 113, 104, 128
-0.99857, 305, 145, 368, 160
-0.998571, 217, 201, 248, 216
-0.998571, 185, 145, 248, 160
-0.998573, 145, 143, 208, 158
-0.998574, 145, 123, 208, 138
-0.998578, 177, 131, 240, 146
-0.998578, 153, 201, 216, 216
-0.99858, 297, 251, 360, 266
-0.998581, 185, 137, 248, 152
-0.998582, 121, 301, 184, 316
-0.998582, 273, 253, 336, 268
-0.998582, 289, 159, 352, 174
-0.998584, 361, 297, 424, 312
-0.998584, 113, 245, 176, 260
-0.998584, 417, 183, 480, 198
-0.998585, 145, 165, 208, 180
-0.998586, 193, 231, 256, 246
-0.998587, 305, 245, 368, 260
-0.998587, 161, 101, 224, 116
-0.998588, 193, 251, 256, 266
-0.998589, 201, 177, 264, 192
-0.998591, 393, 187, 456, 202
-0.998591, 153, 45, 216, 60
-0.998592, 329, 145, 392, 160
-0.998595, 145, 149, 208, 164
-0.998595, 297, 153, 360, 168
-0.998596, 97, 119, 160, 134
-0.998597, 121, 275, 184, 290
-0.998597, 137, 261, 200, 276
-0.998598, 177, 119, 240, 134
-0.998598, 281, 135, 344, 150
-0.998599, 185, 109, 248, 124
-0.9986, 225, 149, 288, 164
-0.998604, 41, 133, 104, 148
-0.998605, 233, 117, 296, 132
-0.998605, 97, 301, 160, 316
-0.998607, 145, 159, 208, 174
-0.998607, 153, 95, 216, 110
-0.998607, 265, 225, 328, 240
-0.998608, 233, 139, 296, 154
-0.998608, 129, 211, 192, 226
-0.998608, 121, 281, 184, 296
-0.998608, 153, 107, 216, 122
-0.998609, 1, 133, 64, 148
-0.998609, 113, 235, 176, 250
-0.99861, 225, 217, 288, 232
-0.998611, 177, 221, 240, 236
-0.998611, 233, 185, 296, 200
-0.998612, 73, 307, 136, 322
-0.998613, 193, 257, 256, 272
-0.998613, 153, 221, 216, 236
-0.998613, 121, 269, 184, 284
-0.998615, 297, 263, 360, 278
-0.998616, 265, 111, 328, 126
-0.998616, 1, 283, 64, 298
-0.998617, 145, 129, 208, 144
-0.998617, 257, 189, 320, 204
-0.998618, 353, 129, 416, 144
-0.998618, 153, 231, 216, 246
-0.998618, 81, 127, 144, 142
-0.998618, 201, 41, 264, 56
-0.998618, 169, 245, 232, 260
-0.998619, 177, 163, 240, 178
-0.998619, 265, 121, 328, 136
-0.99862, 385, 213, 448, 228
-0.99862, 321, 293, 384, 308
-0.998622, 281, 231, 344, 246
-0.998622, 401, 193, 464, 208
-0.998622, 113, 307, 176, 322
-0.998622, 321, 153, 384, 168
-0.998622, 97, 215, 160, 230
-0.998622, 169, 257, 232, 272
-0.998623, 305, 137, 368, 152
-0.998623, 393, 205, 456, 220
-0.998623, 89, 249, 152, 264
-0.998624, 329, 131, 392, 146
-0.998624, 81, 239, 144, 254
-0.998625, 161, 37, 224, 52
-0.998625, 145, 135, 208, 150
-0.998626, 185, 97, 248, 112
-0.998626, 225, 179, 288, 194
-0.998627, 305, 283, 368, 298
-0.998628, 225, 225, 288, 240
-0.998628, 89, 133, 152, 148
-0.998628, 385, 299, 448, 314
-0.998628, 265, 163, 328, 178
-0.998628, 121, 33, 184, 48
-0.998629, 337, 137, 400, 152
-0.998629, 225, 255, 288, 270
-0.99863, 113, 287, 176, 302
-0.99863, 409, 233, 472, 248
-0.99863, 265, 261, 328, 276
-0.99863, 25, 139, 88, 154
-0.998631, 185, 89, 248, 104
-0.998631, 97, 207, 160, 222
-0.998632, 113, 27, 176, 42
-0.998632, 25, 289, 88, 304
-0.998632, 353, 89, 480, 120
-0.998632, 193, 241, 256, 256
-0.998632, 193, 205, 256, 220
-0.998689, 221, 161, 236, 288
-0.998742, 1, 1, 500, 64
-0.998771, 297, 65, 328, 320
-0.998819, 109, 33, 140, 288
-0.99886, 227, 161, 242, 288
-0.998884, 215, 193, 230, 320
-0.998959, 21, 1, 52, 256
-0.99896, 373, 1, 404, 256
-0.998961, 141, 209, 156, 333
-0.998966, 217, 113, 232, 240
-0.998972, 77, 65, 108, 320
-0.999003, 33, 1, 64, 256
-0.999004, 129, 33, 160, 288
-0.999015, 321, 1, 352, 256
-0.999023, 199, 65, 214, 192
-0.999031, 189, 113, 204, 240
-0.999036, 193, 177, 208, 304
-0.999043, 93, 33, 124, 288
-0.99905, 269, 97, 284, 224
-0.999055, 233, 129, 248, 256
-0.999065, 171, 1, 186, 128
-0.999073, 241, 193, 256, 320
-0.999076, 57, 1, 88, 256
-0.999088, 189, 49, 204, 176
-0.999099, 191, 1, 206, 128
-0.999103, 345, 209, 360, 333
-0.999107, 199, 193, 214, 320
-0.999113, 259, 49, 274, 176
-0.999113, 209, 177, 224, 304
-0.999118, 339, 209, 354, 333
-0.999119, 149, 193, 164, 320
-0.999132, 207, 1, 222, 128
-0.999136, 233, 177, 248, 304
-0.99915, 275, 113, 290, 240
-0.999162, 281, 65, 312, 320
-0.999169, 239, 129, 254, 256
-0.999183, 165, 1, 180, 128
-0.999191, 201, 17, 216, 144
-0.999196, 143, 161, 158, 288
-0.999199, 183, 113, 198, 240
-0.999201, 117, 1, 132, 128
-0.999204, 373, 129, 388, 256
-0.999226, 223, 113, 238, 240
-0.999242, 133, 193, 148, 320
-0.999255, 281, 97, 296, 224
-0.999255, 253, 33, 268, 160
-0.999257, 361, 1, 392, 256
-0.999263, 309, 65, 340, 320
-0.999268, 195, 129, 210, 256
-0.999269, 341, 1, 372, 256
-0.999279, 169, 1, 200, 256
-0.999285, 17, 1, 32, 128
-0.999298, 221, 209, 236, 333
-0.999301, 313, 209, 328, 333
-0.999311, 177, 1, 192, 128
-0.999323, 333, 193, 348, 320
-0.999325, 275, 161, 290, 288
-0.999349, 45, 97, 60, 224
-0.99935, 367, 161, 382, 288
-0.999352, 379, 113, 394, 240
-0.999354, 227, 209, 242, 333
-0.999355, 185, 1, 200, 128
-0.999362, 111, 1, 126, 128
-0.999367, 3, 129, 18, 256
-0.999373, 135, 1, 150, 128
-0.999377, 123, 49, 138, 176
-0.999379, 179, 49, 194, 176
-0.999387, 307, 193, 322, 320
-0.999388, 187, 161, 202, 288
-0.999392, 271, 49, 286, 176
-0.999397, 133, 81, 148, 208
-0.999402, 219, 1, 234, 128
-0.999402, 123, 1, 138, 128
-0.999408, 213, 1, 228, 128
-0.999409, 367, 113, 382, 240
-0.99941, 125, 145, 140, 272
-0.99941, 361, 193, 376, 320
-0.99941, 5, 81, 20, 208
-0.99941, 247, 209, 262, 333
-0.999417, 165, 49, 180, 176
-0.999425, 351, 193, 366, 320
-0.999426, 327, 193, 342, 320
-0.999426, 153, 65, 184, 320
-0.999427, 465, 33, 496, 288
-0.999427, 155, 193, 170, 320
-0.999433, 67, 97, 82, 224
-0.999437, 95, 209, 110, 333
-0.999439, 259, 193, 274, 320
-0.999441, 127, 97, 142, 224
-0.999453, 339, 145, 354, 272
-0.999459, 179, 161, 194, 288
-0.999464, 253, 209, 268, 333
-0.999467, 313, 145, 328, 272
-0.999467, 269, 161, 284, 288
-0.999468, 85, 209, 100, 333
-0.999469, 1, 1, 16, 128
-0.999472, 13, 97, 28, 224
-0.999475, 137, 145, 152, 272
-0.999477, 267, 1, 282, 128
-0.999479, 151, 145, 166, 272
-0.999479, 119, 193, 134, 320
-0.99948, 23, 1, 38, 128
-0.99948, 341, 49, 356, 176
-0.999484, 367, 209, 382, 333
-0.999487, 157, 1, 172, 128
-0.999488, 207, 49, 222, 176
-0.999491, 229, 81, 244, 208
-0.999495, 17, 49, 32, 176
-0.999497, 373, 209, 388, 333
-0.999502, 385, 193, 400, 320
-0.999503, 87, 161, 102, 288
-0.999504, 375, 65, 390, 192
-0.999505, 297, 81, 312, 208
-0.999505, 291, 145, 306, 272
-0.999506, 263, 97, 278, 224
-0.999506, 27, 113, 42, 240
-0.999509, 203, 145, 218, 272
-0.99951, 211, 129, 226, 256
-0.999511, 247, 33, 262, 160
-0.999512, 97, 129, 112, 256
-0.999512, 317, 97, 332, 224
-0.999519, 129, 17, 144, 144
-0.99952, 171, 49, 186, 176
-0.999522, 161, 193, 176, 320
-0.999523, 105, 1, 120, 128
-0.999526, 413, 177, 428, 304
-0.999527, 145, 81, 160, 208
-0.999529, 131, 145, 146, 272
-0.999532, 325, 145, 340, 272
-0.999532, 319, 177, 334, 304
-0.999534, 307, 145, 322, 272
-0.999535, 89, 113, 104, 240
-0.999536, 309, 17, 324, 144
-0.99954, 287, 97, 302, 224
-0.999541, 55, 81, 70, 208
-0.999544, 301, 193, 316, 320
-0.999547, 347, 65, 362, 192
-0.999549, 361, 113, 376, 240
-0.99955, 77, 113, 92, 240
-0.999552, 69, 145, 84, 272
-0.999556, 237, 17, 252, 144
-0.999556, 67, 33, 82, 160
-0.999556, 303, 65, 318, 192
-0.999557, 167, 193, 182, 320
-0.999562, 325, 81, 340, 208
-0.999564, 61, 49, 76, 176
-0.999566, 73, 65, 88, 192
-0.999569, 21, 97, 36, 224
-0.999577, 119, 243, 134, 258
-0.999577, 31, 135, 46, 150
-0.999577, 327, 287, 342, 302
-0.999577, 213, 249, 228, 264
-0.999578, 235, 179, 250, 194
-0.999578, 359, 297, 374, 312
-0.999578, 131, 289, 146, 304
-0.999579, 1, 103, 16, 118
-0.999579, 99, 221, 114, 236
-0.99958, 119, 285, 134, 300
-0.999581, 329, 211, 344, 226
-0.999581, 19, 143, 34, 158
-0.999582, 311, 145, 326, 160
-0.999582, 125, 243, 140, 258
-0.999583, 193, 207, 208, 222
-0.999583, 205, 99, 220, 114
-0.999583, 61, 127, 76, 142
-0.999583, 277, 151, 292, 166
-0.999583, 145, 261, 160, 276
-0.999583, 307, 227, 322, 242
-0.999583, 121, 299, 136, 314
-0.999583, 339, 143, 354, 158
-0.999584, 39, 117, 54, 132
-0.999584, 129, 249, 144, 264
-0.999584, 149, 303, 164, 318
-0.999584, 131, 299, 146, 314
-0.999585, 39, 91, 54, 106
-0.999585, 333, 227, 348, 242
-0.999586, 345, 145, 360, 160
-0.999586, 159, 35, 174, 50
-0.999587, 363, 271, 378, 286
-0.999587, 317, 251, 332, 266
-0.999588, 349, 291, 364, 306
-0.999588, 125, 275, 140, 290
-0.999588, 91, 117, 106, 132
-0.999588, 151, 277, 166, 292
-0.999588, 293, 149, 308, 164
-0.999589, 51, 137, 66, 152
-0.999589, 367, 297, 382, 312
-0.99959, 337, 273, 352, 288
-0.999591, 151, 243, 166, 258
-0.999591, 137, 245, 152, 260
-0.999591, 103, 209, 118, 224
-0.999592, 211, 171, 226, 186
-0.999592, 345, 309, 360, 324
-0.999592, 161, 41, 176, 56
-0.999593, 317, 157, 332, 172
-0.999593, 53, 281, 68, 296
-0.999594, 337, 301, 352, 316
-0.999594, 137, 265, 152, 280
-0.999594, 147, 237, 162, 252
-0.999594, 331, 303, 346, 318
-0.999595, 193, 103, 208, 118
-0.999595, 59, 133, 74, 148
-0.999595, 357, 275, 372, 290
-0.999595, 197, 245, 212, 260
-0.999596, 33, 115, 48, 130
-0.999596, 261, 97, 276, 112
-0.999596, 199, 253, 214, 268
-0.999597, 11, 119, 26, 134
-0.999597, 81, 135, 96, 150
-0.999598, 285, 143, 300, 158
-0.999598, 233, 205, 248, 220
-0.999599, 17, 117, 32, 132
-0.999599, 267, 87, 282, 102
-0.999602, 315, 293, 330, 308
-0.999602, 339, 243, 354, 258
-0.999602, 1, 123, 16, 138
-0.999602, 369, 149, 384, 164
-0.999602, 199, 91, 214, 106
-0.999602, 193, 97, 208, 112
-0.999602, 95, 209, 110, 224
-0.999606, 367, 129, 382, 144
-0.999607, 339, 237, 354, 252
-0.999608, 241, 201, 256, 216
-0.999609, 311, 157, 326, 172
-0.999609, 25, 149, 40, 164
-0.999609, 417, 1, 448, 256
-0.999609, 345, 243, 360, 258
-0.999609, 337, 309, 352, 324
-0.999609, 337, 287, 352, 302
-0.99961, 33, 143, 48, 158
-0.999613, 217, 183, 232, 198
-0.999614, 125, 265, 140, 280
-0.999614, 417, 303, 432, 318
-0.999615, 313, 227, 328, 242
-0.999617, 341, 255, 356, 270
-0.999617, 153, 255, 168, 270
-0.999618, 155, 191, 170, 206
-0.999619, 205, 253, 220, 268
-0.999619, 317, 147, 332, 162
-0.99962, 131, 273, 146, 288
-0.999622, 137, 257, 152, 272
-0.999624, 39, 135, 54, 150
-0.999624, 131, 259, 146, 274
-0.999625, 219, 191, 234, 206
-0.999626, 141, 285, 156, 300
-0.999626, 185, 139, 200, 154
-0.999628, 331, 257, 346, 272
-0.999628, 23, 123, 38, 138
-0.999628, 327, 235, 342, 250
-0.99963, 151, 265, 166, 280
-0.99963, 187, 145, 202, 160
-0.999632, 27, 115, 42, 130
-0.999633, 17, 123, 32, 138
-0.999636, 411, 307, 426, 322
-0.999636, 1, 289, 16, 304
-0.999637, 135, 239, 150, 254
-0.999639, 199, 103, 214, 118
-0.999647, 123, 257, 138, 272
-0.999649, 103, 215, 118, 230
-0.99965, 219, 201, 234, 216
-0.999653, 45, 1, 76, 256
-0.999654, 119, 237, 134, 252
-0.999655, 233, 197, 248, 212
-0.999656, 165, 33, 180, 48
-0.999659, 131, 265, 146, 280
-0.999662, 333, 237, 348, 252
-0.999664, 129, 235, 144, 250
-0.999664, 215, 177, 230, 192
-0.999664, 199, 97, 214, 112
-0.999667, 199, 47, 214, 62
-0.999669, 303, 157, 318, 172
-0.999671, 89, 209, 104, 224
-0.999672, 239, 193, 254, 208
-0.999679, 145, 255, 160, 270
-0.999682, 219, 209, 234, 224
-0.999682, 227, 201, 242, 216
-0.999688, 309, 151, 324, 166
-0.999691, 95, 215, 110, 230
-0.999707, 145, 249, 160, 264
-0.999709, 453, 1, 484, 256
-0.999709, 141, 239, 156, 254
-0.999777, 389, 1, 420, 256
-0.999866, 429, 65, 460, 320
-0.999883, 141, 65, 172, 320
-0.999889, 401, 1, 432, 256
-1.00009, 441, 65, 472, 320
