1913
-0.375413, 1, 97, 500, 337
-0.483716, 1, 1, 500, 337
-0.493484, 1, 1, 500, 256
-0.530402, 1, 65, 256, 320
-0.540322, 257, 1, 500, 337
-0.60291, 225, 97, 480, 337
-0.62033, 97, 1, 352, 337
-0.624473, 1, 1, 256, 337
-0.771255, 97, 97, 352, 337
-0.784578, 257, 1, 500, 256
-0.815019, 161, 1, 416, 256
-0.829683, 305, 97, 432, 337
-0.832903, 33, 65, 160, 320
-0.83451, 353, 1, 480, 337
-0.852827, 1, 113, 500, 240
-0.862661, 369, 33, 496, 288
-0.864729, 305, 1, 432, 337
-0.869591, 97, 97, 224, 337
-0.874215, 1, 161, 500, 288
-0.882082, 225, 145, 480, 272
-0.884897, 257, 97, 384, 337
-0.887748, 65, 129, 320, 256
-0.888477, 1, 65, 500, 192
-0.890895, 1, 209, 500, 336
-0.892098, 17, 1, 144, 337
-0.894487, 161, 97, 288, 337
-0.895184, 321, 1, 448, 256
-0.904914, 193, 97, 448, 224
-0.907462, 225, 1, 352, 337
-0.909825, 81, 1, 208, 337
-0.912176, 209, 65, 336, 320
-0.912374, 289, 113, 416, 240
-0.912526, 33, 177, 288, 304
-0.914183, 129, 1, 256, 337
-0.914589, 177, 129, 304, 256
-0.919273, 97, 129, 224, 256
-0.919835, 1, 17, 500, 144
-0.919981, 217, 129, 280, 256
-0.92146, 305, 97, 368, 224
-0.925563, 1, 81, 256, 208
-0.925841, 225, 113, 352, 240
-0.925883, 193, 129, 256, 256
-0.926127, 33, 145, 160, 272
-0.926823, 345, 113, 408, 240
-0.927331, 369, 33, 496, 160
-0.927402, 193, 193, 448, 320
-0.929557, 33, 81, 160, 208
-0.930227, 249, 129, 312, 256
-0.930775, 97, 81, 160, 208
-0.931722, 129, 1, 256, 256
-0.93207, 129, 113, 192, 240
-0.93269, 401, 177, 464, 304
-0.933447, 177, 1, 304, 337
-0.934768, 321, 145, 384, 272
-0.935278, 337, 161, 464, 288
-0.935433, 273, 161, 400, 288
-0.935438, 161, 129, 224, 256
-0.936454, 265, 153, 328, 216
-0.936465, 73, 81, 136, 208
-0.937237, 97, 129, 160, 256
-0.937649, 65, 129, 128, 256
-0.937805, 337, 113, 464, 240
-0.938788, 81, 81, 208, 208
-0.939077, 273, 129, 336, 256
-0.939094, 9, 161, 72, 288
-0.939514, 97, 81, 352, 208
-0.940134, 361, 161, 424, 288
-0.940231, 273, 1, 400, 256
-0.940932, 81, 1, 208, 256
-0.941375, 41, 129, 104, 256
-0.941438, 233, 177, 296, 304
-0.943788, 217, 137, 280, 200
-0.944616, 313, 105, 376, 168
-0.945811, 353, 137, 416, 200
-0.945945, 9, 81, 72, 208
-0.946697, 297, 129, 360, 192
-0.947034, 297, 145, 360, 272
-0.947298, 33, 177, 96, 304
-0.947885, 153, 169, 216, 232
-0.948121, 433, 193, 496, 320
-0.948298, 185, 145, 248, 208
-0.948299, 337, 65, 400, 192
-0.948471, 393, 1, 456, 128
-0.948642, 393, 233, 456, 296
-0.949055, 177, 177, 304, 304
-0.949204, 257, 49, 500, 176
-0.949519, 225, 161, 352, 288
-0.949696, 153, 129, 216, 192
-0.949803, 201, 177, 264, 304
-0.950006, 433, 17, 496, 144
-0.95128, 41, 81, 104, 208
-0.951737, 97, 81, 160, 144
-0.95217, 1, 193, 128, 320
-0.952995, 305, 153, 368, 216
-0.953139, 113, 177, 240, 304
-0.953762, 193, 177, 256, 240
-0.954176, 337, 105, 400, 168
-0.954494, 73, 177, 136, 304
-0.955409, 369, 33, 432, 160
-0.955495, 377, 113, 440, 240
-0.955722, 329, 161, 392, 224
-0.955904, 393, 1, 456, 64
-0.956507, 369, 209, 496, 336
-0.956986, 177, 177, 240, 304
-0.957682, 73, 145, 136, 208
-0.957704, 241, 161, 304, 224
-0.957722, 113, 161, 176, 224
-0.957795, 273, 177, 336, 304
-0.957918, 225, 129, 256, 256
-0.958106, 225, 185, 288, 248
-0.958154, 241, 137, 304, 200
-0.958232, 369, 161, 432, 224
-0.958835, 425, 257, 488, 320
-0.959932, 65, 193, 192, 320
-0.960043, 329, 129, 392, 192
-0.960158, 273, 129, 336, 192
-0.960298, 9, 209, 72, 336
-0.960345, 289, 177, 352, 240
-0.961051, 321, 65, 448, 192
-0.961167, 41, 273, 104, 336
-0.961568, 1, 177, 64, 240
-0.961637, 393, 177, 456, 240
-0.961914, 41, 145, 104, 208
-0.961992, 425, 193, 488, 256
-0.96254, 153, 177, 216, 304
-0.962552, 425, 1, 488, 64
-0.962608, 89, 177, 152, 240
-0.962916, 289, 137, 416, 200
-0.963426, 217, 161, 280, 224
-0.963456, 177, 145, 304, 208
-0.96346, 241, 113, 272, 240
-0.963687, 1, 81, 64, 144
-0.963769, 233, 81, 296, 208
-0.9638, 321, 209, 448, 336
-0.963874, 289, 113, 416, 176
-0.964144, 433, 33, 496, 96
-0.96438, 161, 81, 288, 208
-0.964404, 277, 153, 308, 216
-0.964533, 25, 201, 88, 264
-0.965073, 121, 113, 184, 176
-0.965272, 393, 257, 456, 320
-0.965349, 257, 1, 500, 128
-0.965541, 233, 113, 296, 176
-0.965544, 129, 137, 192, 200
-0.965683, 129, 33, 384, 160
-0.965777, 1, 65, 64, 320
-0.965869, 17, 233, 80, 296
-0.96592, 377, 209, 440, 336
-0.966049, 185, 81, 248, 208
-0.966251, 257, 129, 288, 256
-0.966311, 377, 33, 440, 96
-0.966498, 377, 1, 440, 256
-0.966551, 177, 185, 304, 248
-0.966734, 97, 105, 160, 168
-0.96689, 373, 113, 404, 240
-0.967418, 65, 113, 128, 176
-0.967441, 193, 121, 256, 184
-0.967485, 97, 177, 224, 240
-0.967582, 225, 161, 352, 224
-0.967907, 57, 185, 120, 248
-0.967931, 17, 33, 144, 160
-0.968054, 65, 265, 96, 328
-0.968244, 293, 145, 324, 208
-0.968267, 309, 113, 340, 240
-0.968317, 325, 105, 356, 168
-0.968384, 361, 97, 392, 224
-0.968469, 329, 97, 392, 337
-0.968805, 289, 105, 352, 168
-0.968826, 33, 145, 160, 208
-0.968843, 265, 177, 328, 240
-0.968879, 361, 97, 424, 160
-0.968889, 353, 97, 416, 337
-0.969126, 333, 97, 364, 224
-0.969163, 425, 145, 488, 272
-0.969204, 273, 161, 400, 224
-0.96931, 297, 169, 328, 232
-0.969386, 377, 137, 440, 200
-0.969489, 225, 137, 352, 200
-0.969514, 365, 113, 396, 176
-0.969533, 369, 241, 496, 304
-0.969906, 41, 73, 104, 136
-0.969944, 293, 129, 324, 256
-0.969969, 153, 193, 216, 256
-0.969986, 309, 113, 340, 176
-0.970071, 97, 121, 224, 184
-0.970168, 401, 113, 464, 240
-0.970223, 369, 33, 496, 96
-0.970396, 353, 169, 480, 232
-0.97044, 225, 137, 256, 200
-0.970561, 417, 225, 448, 288
-0.970854, 381, 137, 412, 200
-0.970993, 49, 65, 112, 320
-0.971018, 105, 129, 136, 256
-0.971121, 1, 209, 64, 272
-0.971174, 257, 137, 288, 200
-0.971194, 109, 65, 140, 192
-0.971233, 273, 145, 304, 272
-0.971362, 337, 193, 400, 320
-0.971415, 349, 145, 380, 272
-0.971469, 129, 185, 192, 248
-0.97159, 425, 177, 456, 304
-0.971847, 245, 137, 276, 200
-0.971993, 213, 177, 244, 240
-0.972028, 261, 161, 292, 224
-0.972077, 305, 97, 368, 337
-0.972133, 145, 97, 208, 337
-0.972137, 225, 65, 352, 192
-0.972148, 173, 129, 204, 256
-0.972204, 97, 65, 160, 320
-0.972282, 405, 177, 436, 304
-0.972368, 193, 129, 224, 256
-0.972371, 49, 97, 176, 160
-0.972372, 273, 65, 400, 192
-0.972588, 117, 73, 148, 136
-0.972951, 257, 81, 320, 208
-0.9731, 129, 65, 192, 192
-0.973126, 121, 81, 152, 208
-0.973132, 97, 153, 224, 216
-0.973132, 237, 113, 268, 176
-0.973269, 441, 177, 472, 304
-0.973365, 145, 169, 176, 232
-0.973384, 369, 9, 496, 72
-0.973443, 297, 193, 360, 320
-0.9735, 241, 161, 272, 288
-0.973537, 1, 81, 128, 144
-0.973548, 189, 145, 220, 208
-0.973586, 433, 73, 496, 136
-0.973708, 137, 113, 168, 240
-0.973756, 349, 97, 380, 224
-0.973805, 377, 65, 440, 128
-0.97393, 1, 217, 32, 280
-0.973935, 177, 121, 304, 184
-0.97404, 225, 185, 352, 248
-0.974098, 369, 185, 432, 248
-0.974115, 41, 33, 104, 160
-0.974166, 241, 113, 368, 176
-0.974177, 49, 161, 80, 224
-0.974219, 309, 137, 340, 200
-0.974376, 405, 233, 436, 296
-0.97453, 49, 169, 176, 232
-0.97453, 121, 161, 184, 288
-0.974554, 213, 145, 244, 272
-0.974563, 209, 81, 272, 208
-0.974564, 197, 177, 228, 240
-0.97459, 65, 81, 128, 144
-0.974665, 385, 129, 416, 256
-0.974685, 337, 81, 400, 144
-0.97478, 177, 161, 208, 224
-0.974878, 89, 97, 120, 224
-0.974884, 25, 65, 88, 320
-0.974914, 309, 161, 340, 224
-0.974999, 173, 121, 204, 184
-0.975018, 357, 153, 388, 216
-0.975135, 65, 265, 128, 328
-0.975136, 121, 97, 184, 337
-0.975161, 125, 129, 156, 256
-0.975202, 109, 145, 140, 208
-0.975206, 397, 137, 428, 200
-0.975455, 73, 65, 136, 320
-0.975496, 9, 177, 40, 304
-0.975577, 321, 97, 352, 224
-0.975654, 273, 177, 304, 240
-0.975668, 373, 65, 404, 192
-0.975819, 325, 129, 356, 192
-0.97583, 417, 233, 480, 296
-0.97587, 53, 129, 84, 256
-0.975886, 345, 105, 376, 168
-0.97589, 369, 65, 496, 128
-0.976013, 65, 209, 96, 336
-0.976039, 105, 137, 168, 200
-0.976137, 33, 161, 64, 288
-0.976138, 393, 209, 456, 272
-0.976198, 33, 169, 96, 232
-0.976214, 441, 241, 472, 304
-0.976235, 385, 33, 416, 160
-0.976267, 109, 169, 140, 232
-0.976287, 409, 1, 472, 256
-0.976291, 149, 113, 180, 240
-0.976311, 253, 177, 284, 304
-0.976335, 185, 201, 248, 264
-0.976507, 69, 129, 100, 256
-0.976601, 429, 233, 460, 296
-0.976641, 13, 225, 44, 288
-0.976746, 97, 177, 160, 304
-0.976753, 433, 65, 496, 320
-0.976757, 385, 161, 416, 224
-0.976872, 273, 193, 400, 256
-0.977088, 161, 113, 192, 240
-0.977261, 401, 153, 464, 216
-0.977339, 361, 249, 424, 312
-0.977413, 137, 145, 168, 208
-0.977509, 89, 33, 152, 160
-0.977511, 129, 89, 192, 152
-0.977574, 337, 193, 400, 256
-0.977652, 453, 177, 484, 304
-0.977711, 17, 209, 144, 272
-0.977733, 457, 1, 488, 128
-0.977783, 1, 273, 128, 336
-0.977788, 257, 201, 320, 264
-0.977826, 209, 153, 240, 216
-0.97785, 377, 97, 440, 337
-0.9779, 401, 1, 432, 64
-0.977921, 229, 185, 260, 248
-0.977987, 145, 121, 176, 184
-0.978056, 89, 145, 120, 208
-0.978245, 413, 1, 444, 128
-0.978252, 17, 273, 80, 336
-0.978416, 369, 137, 400, 200
-0.97848, 441, 185, 472, 248
-0.978485, 321, 17, 448, 144
-0.978488, 365, 161, 396, 288
-0.978527, 201, 177, 232, 304
-0.97859, 45, 209, 76, 336
-0.978773, 401, 97, 464, 337
-0.978847, 41, 105, 104, 168
-0.978876, 281, 81, 344, 208
-0.97889, 353, 97, 480, 160
-0.978909, 321, 153, 352, 216
-0.978942, 353, 129, 384, 192
-0.979078, 105, 73, 136, 136
-0.979083, 337, 129, 464, 192
-0.979176, 305, 89, 432, 152
-0.979232, 369, 265, 496, 328
-0.979326, 153, 105, 216, 168
-0.979424, 1, 177, 128, 240
-0.979608, 329, 145, 360, 272
-0.979618, 389, 177, 420, 304
-0.979673, 1, 33, 256, 160
-0.979679, 41, 233, 104, 296
-0.979681, 25, 233, 56, 296
-0.979684, 61, 145, 92, 208
-0.979693, 129, 169, 160, 232
-0.97971, 49, 73, 176, 136
-0.979728, 401, 25, 464, 88
-0.979734, 125, 145, 156, 208
-0.979755, 97, 177, 128, 240
-0.979816, 313, 193, 376, 256
-0.979823, 373, 89, 404, 152
-0.979831, 225, 97, 288, 337
-0.979893, 337, 169, 368, 232
-0.979906, 361, 209, 424, 272
-0.979952, 385, 41, 416, 104
-0.979956, 165, 169, 196, 232
-0.979995, 361, 1, 424, 337
-0.980062, 89, 161, 120, 288
-0.98008, 281, 97, 344, 337
-0.980155, 157, 129, 188, 192
-0.980199, 49, 209, 112, 272
-0.980201, 25, 65, 56, 192
-0.98022, 53, 65, 84, 192
-0.980263, 353, 1, 416, 256
-0.980282, 1, 233, 128, 296
-0.98036, 397, 1, 428, 128
-0.980445, 13, 81, 44, 208
-0.980447, 465, 193, 496, 320
-0.980634, 469, 49, 500, 176
-0.980654, 429, 257, 460, 320
-0.980771, 461, 273, 492, 336
-0.980847, 125, 105, 156, 168
-0.981207, 261, 185, 292, 248
-0.981221, 81, 57, 144, 120
-0.98129, 249, 177, 280, 240
-0.981381, 337, 129, 368, 192
-0.981506, 273, 209, 400, 336
-0.981575, 297, 121, 328, 184
-0.981579, 49, 273, 176, 336
-0.98163, 21, 161, 52, 288
-0.981646, 429, 177, 460, 240
-0.981686, 397, 129, 428, 256
-0.981988, 377, 113, 408, 176
-0.981996, 49, 121, 176, 184
-0.982008, 129, 201, 256, 264
-0.98203, 21, 73, 52, 136
-0.982033, 413, 153, 444, 216
-0.982057, 37, 169, 68, 232
-0.982064, 389, 249, 420, 312
-0.982123, 97, 97, 224, 160
-0.98213, 469, 89, 500, 152
-0.982155, 229, 161, 260, 224
-0.982163, 65, 33, 128, 160
-0.982256, 429, 1, 460, 64
-0.982348, 45, 209, 76, 272
-0.98241, 37, 81, 68, 208
-0.982412, 385, 1, 448, 337
-0.982434, 9, 33, 72, 160
-0.982458, 429, 1, 460, 128
-0.98258, 257, 105, 320, 168
-0.982613, 433, 65, 496, 192
-0.982626, 285, 193, 316, 256
-0.982795, 65, 201, 192, 264
-0.982797, 73, 81, 104, 208
-0.982813, 73, 145, 104, 208
-0.982821, 225, 113, 256, 176
-0.98285, 225, 209, 352, 336
-0.982861, 89, 209, 152, 272
-0.982886, 5, 81, 36, 144
-0.983056, 1, 97, 32, 224
-0.983124, 373, 161, 404, 224
-0.983126, 409, 1, 472, 337
-0.983131, 369, 193, 496, 256
-0.983132, 225, 177, 256, 304
-0.983225, 461, 25, 492, 88
-0.983332, 269, 129, 300, 192
-0.983373, 285, 177, 316, 304
-0.983463, 17, 105, 80, 168
-0.983484, 313, 161, 344, 288
-0.983597, 81, 121, 112, 184
-0.983698, 337, 217, 464, 280
-0.983943, 153, 81, 216, 208
-0.984106, 445, 33, 476, 160
-0.984123, 97, 105, 128, 168
-0.98422, 69, 177, 100, 240
-0.984336, 53, 273, 84, 336
-0.984445, 413, 9, 444, 72
-0.98445, 417, 249, 448, 312
-0.984507, 445, 265, 476, 328
-0.984508, 337, 17, 400, 144
-0.984522, 185, 65, 248, 320
-0.984575, 185, 97, 248, 160
-0.984585, 393, 113, 456, 176
-0.984654, 353, 41, 416, 104
-0.984716, 397, 161, 428, 224
-0.984737, 441, 9, 472, 72
-0.984771, 313, 49, 376, 176
-0.984774, 349, 177, 380, 240
-0.98486, 1, 145, 64, 208
-0.984861, 281, 129, 312, 192
-0.984951, 369, 273, 432, 336
-0.984991, 453, 1, 484, 64
-0.985024, 49, 185, 80, 248
-0.985141, 469, 65, 500, 128
-0.985145, 425, 161, 488, 224
-0.985175, 69, 241, 100, 304
-0.985267, 77, 177, 108, 304
-0.985335, 69, 121, 100, 184
-0.985457, 457, 193, 488, 256
-0.985472, 105, 1, 168, 337
-0.985477, 321, 257, 448, 320
-0.985484, 209, 97, 272, 160
-0.985501, 65, 33, 192, 160
-0.985565, 25, 209, 56, 272
-0.985642, 381, 65, 412, 128
-0.985653, 185, 177, 216, 304
-0.985745, 321, 193, 448, 256
-0.985795, 97, 73, 224, 136
-0.985918, 369, 9, 432, 72
-0.985958, 1, 177, 32, 240
-0.986124, 37, 273, 68, 336
-0.98622, 21, 209, 52, 336
-0.986267, 161, 145, 416, 208
-0.986292, 1, 57, 128, 120
-0.986305, 161, 161, 192, 288
-0.986325, 209, 209, 336, 272
-0.986326, 33, 73, 64, 136
-0.986381, 397, 209, 428, 272
-0.986382, 185, 185, 216, 248
-0.986389, 277, 97, 308, 224
-0.986401, 1, 121, 128, 184
-0.986557, 433, 1, 496, 337
-0.98656, 77, 265, 108, 328
-0.986614, 445, 129, 476, 256
-0.98667, 161, 97, 288, 160
-0.986687, 361, 177, 392, 240
-0.986782, 257, 177, 500, 240
-0.986795, 385, 81, 416, 208
-0.986882, 229, 81, 260, 208
-0.986923, 209, 201, 240, 264
-0.986947, 361, 89, 392, 152
-0.987051, 129, 81, 160, 144
-0.987068, 401, 257, 432, 320
-0.987123, 409, 177, 440, 240
-0.987134, 1, 153, 256, 216
-0.987165, 321, 177, 352, 240
-0.987212, 465, 1, 496, 64
-0.987276, 429, 209, 460, 272
-0.987339, 273, 193, 304, 320
-0.987343, 97, 177, 352, 240
-0.987371, 105, 177, 136, 304
-0.987399, 81, 81, 112, 144
-0.987421, 13, 201, 44, 264
-0.98752, 233, 217, 296, 280
-0.987581, 185, 121, 216, 184
-0.987591, 213, 193, 244, 320
-0.987593, 289, 49, 416, 112
-0.987622, 225, 89, 352, 152
-0.987677, 253, 81, 284, 208
-0.987723, 249, 97, 312, 337
-0.987736, 65, 241, 128, 304
-0.987749, 449, 41, 480, 104
-0.987803, 1, 301, 64, 332
-0.98782, 297, 177, 328, 304
-0.987869, 45, 65, 76, 128
-0.987938, 121, 193, 152, 256
-0.988003, 85, 185, 116, 248
-0.988056, 113, 209, 176, 272
-0.988066, 93, 81, 124, 144
-0.988115, 289, 225, 416, 288
-0.988173, 149, 177, 180, 304
-0.988267, 81, 1, 144, 337
-0.98829, 377, 177, 408, 304
-0.98831, 389, 17, 420, 80
-0.988311, 149, 193, 180, 256
-0.988348, 425, 153, 456, 216
-0.988383, 321, 1, 384, 256
-0.988475, 469, 1, 500, 128
-0.98849, 145, 97, 176, 160
-0.988501, 465, 249, 496, 312
-0.988509, 401, 237, 464, 268
-0.988547, 417, 129, 448, 256
-0.988558, 273, 157, 336, 188
-0.988565, 177, 81, 208, 208
-0.988719, 53, 121, 84, 184
-0.988724, 185, 153, 248, 184
-0.98875, 313, 113, 376, 144
-0.988787, 233, 161, 296, 192
-0.988821, 409, 49, 472, 176
-0.988878, 337, 109, 400, 140
-0.988889, 209, 209, 272, 272
-0.988911, 265, 177, 328, 208
-0.988929, 297, 141, 360, 172
-0.988981, 313, 129, 376, 160
-0.989003, 409, 49, 472, 112
-0.98901, 41, 289, 104, 320
-0.989015, 73, 145, 136, 176
-0.989021, 33, 1, 96, 337
-0.989041, 161, 173, 224, 204
-0.989053, 345, 125, 408, 156
-0.989079, 33, 209, 64, 336
-0.989121, 369, 165, 432, 196
-0.989122, 313, 1, 376, 337
-0.989173, 393, 257, 456, 288
-0.989209, 353, 193, 384, 320
-0.989213, 193, 121, 448, 184
-0.989268, 305, 165, 368, 196
-0.989337, 217, 137, 280, 168
-0.98935, 321, 9, 448, 72
-0.98935, 249, 141, 312, 172
-0.989379, 121, 169, 184, 200
-0.989388, 145, 149, 208, 180
-0.989435, 153, 185, 216, 216
-0.989438, 313, 81, 376, 144
-0.989477, 1, 137, 500, 200
-0.989486, 89, 209, 120, 336
-0.989507, 257, 153, 500, 216
-0.98953, 97, 89, 160, 120
-0.989604, 1, 89, 64, 120
-0.989676, 273, 145, 336, 176
-0.989681, 393, 21, 456, 52
-0.989714, 289, 129, 352, 160
-0.989727, 233, 181, 296, 212
-0.989733, 337, 173, 400, 204
-0.989734, 353, 137, 416, 168
-0.989739, 185, 181, 248, 212
-0.989778, 97, 101, 160, 132
-0.989825, 41, 181, 104, 212
-0.98983, 129, 1, 192, 256
-0.989848, 337, 161, 400, 192
-0.989868, 377, 153, 440, 184
-0.989887, 133, 65, 164, 192
-0.989901, 377, 177, 440, 208
-0.989926, 65, 129, 320, 192
-0.989942, 417, 261, 480, 292
-0.989962, 1, 229, 64, 260
-0.989966, 1, 177, 256, 240
-0.989972, 57, 1, 120, 337
-0.989972, 153, 161, 216, 192
-0.989983, 393, 9, 456, 40
-0.989989, 25, 301, 88, 332
-0.989989, 129, 65, 192, 128
-0.989999, 457, 49, 488, 176
-0.990039, 97, 49, 128, 176
-0.990048, 121, 33, 152, 160
-0.990062, 41, 277, 104, 308
-0.990098, 1, 245, 64, 276
-0.990109, 297, 153, 360, 184
-0.990117, 433, 21, 496, 52
-0.990131, 9, 173, 72, 204
-0.990172, 17, 57, 80, 120
-0.990172, 1, 169, 500, 232
-0.990191, 41, 193, 104, 224
-0.990201, 145, 129, 208, 160
-0.990208, 417, 33, 480, 64
-0.990222, 337, 149, 400, 180
-0.99023, 313, 177, 376, 208
-0.990234, 41, 161, 104, 192
-0.990275, 417, 1, 480, 32
-0.990308, 177, 141, 240, 172
-0.990312, 433, 45, 496, 76
-0.990381, 185, 193, 248, 224
-0.990384, 117, 177, 148, 304
-0.990385, 377, 141, 440, 172
-0.990397, 1, 33, 32, 160
-0.99042, 97, 149, 160, 180
-0.990466, 281, 201, 344, 264
-0.990473, 65, 173, 128, 204
-0.990475, 81, 189, 144, 220
-0.990477, 121, 113, 184, 144
-0.990483, 417, 249, 480, 280
-0.990533, 217, 149, 280, 180
-0.990567, 281, 189, 344, 220
-0.990574, 377, 245, 440, 276
-0.990583, 33, 237, 96, 268
-0.990596, 145, 197, 208, 228
-0.990656, 1, 101, 64, 132
-0.99066, 209, 185, 272, 216
-0.990664, 1, 201, 256, 264
-0.990669, 65, 249, 192, 312
-0.990698, 89, 77, 152, 108
-0.990702, 337, 97, 400, 128
-0.990718, 401, 185, 464, 216
-0.990768, 185, 169, 248, 200
-0.990784, 337, 1, 400, 337
-0.99083, 105, 181, 168, 212
-0.990836, 205, 97, 236, 224
-0.990844, 249, 193, 312, 224
-0.990846, 137, 177, 168, 304
-0.990847, 233, 121, 296, 152
-0.99091, 393, 165, 456, 196
-0.990916, 369, 81, 432, 112
-0.990923, 97, 161, 160, 192
-0.990924, 161, 1, 224, 337
-0.990945, 433, 129, 464, 256
-0.99097, 377, 233, 440, 264
-0.990981, 377, 45, 440, 76
-0.990982, 65, 273, 128, 304
-0.991006, 145, 117, 208, 148
-0.991045, 49, 149, 112, 180
-0.991053, 193, 121, 256, 152
-0.991069, 433, 201, 496, 232
-0.99108, 393, 273, 456, 304
-0.991104, 129, 181, 192, 212
-0.991119, 17, 289, 80, 320
-0.991122, 209, 165, 272, 196
-0.991134, 369, 101, 432, 132
-0.991137, 385, 33, 448, 64
-0.991185, 41, 109, 104, 140
-0.99119, 97, 113, 160, 144
-0.991218, 377, 61, 440, 92
-0.991225, 289, 177, 352, 208
-0.991238, 121, 153, 184, 184
-0.991253, 121, 201, 184, 232
-0.991257, 17, 77, 80, 108
-0.991269, 185, 205, 248, 236
-0.991288, 57, 89, 120, 120
-0.991317, 73, 133, 136, 164
-0.991321, 121, 125, 184, 156
-0.991371, 417, 273, 480, 304
-0.991387, 433, 81, 496, 112
-0.9914, 265, 125, 328, 156
-0.991431, 9, 205, 72, 236
-0.991478, 49, 125, 112, 156
-0.991491, 425, 57, 488, 88
-0.991492, 309, 65, 340, 192
-0.991496, 1, 185, 64, 216
-0.991518, 337, 185, 400, 216
-0.99152, 273, 201, 336, 232
-0.991531, 361, 113, 424, 144
-0.991557, 337, 197, 400, 228
-0.991562, 433, 189, 496, 220
-0.991611, 353, 249, 416, 280
-0.99162, 417, 97, 480, 160
-0.991623, 401, 153, 464, 184
-0.991674, 65, 101, 128, 132
-0.991676, 9, 1, 72, 337
-0.991726, 341, 193, 372, 320
-0.991745, 49, 205, 112, 236
-0.991755, 313, 197, 376, 228
-0.991756, 65, 73, 128, 104
-0.991776, 121, 137, 184, 168
-0.991785, 97, 133, 160, 164
-0.991806, 85, 49, 116, 176
-0.991816, 73, 113, 136, 144
-0.991822, 425, 237, 488, 268
-0.991826, 289, 129, 416, 160
-0.991838, 33, 137, 96, 168
-0.991907, 73, 161, 136, 192
-0.991932, 369, 189, 432, 220
-0.991936, 169, 129, 232, 160
-0.991964, 37, 293, 68, 324
-0.991984, 25, 93, 88, 124
-0.991993, 209, 141, 336, 172
-0.991999, 281, 157, 312, 188
-0.992122, 365, 117, 396, 148
-0.992122, 129, 1, 192, 337
-0.992172, 1, 81, 500, 144
-0.992177, 69, 269, 100, 300
-0.992178, 161, 161, 288, 192
-0.992184, 113, 33, 240, 160
-0.992214, 385, 137, 416, 168
-0.992228, 129, 153, 160, 184
-0.992237, 241, 117, 272, 148
-0.992255, 309, 121, 340, 152
-0.992259, 293, 181, 324, 212
-0.992292, 265, 141, 296, 172
-0.992301, 293, 141, 324, 172
-0.992313, 269, 177, 300, 208
-0.992322, 25, 113, 56, 240
-0.992335, 281, 81, 344, 144
-0.992339, 17, 229, 48, 260
-0.992394, 329, 109, 360, 140
-0.992398, 289, 113, 416, 144
-0.992408, 441, 21, 472, 52
-0.992419, 9, 305, 40, 336
-0.992422, 113, 85, 144, 116
-0.992424, 261, 165, 292, 196
-0.992447, 49, 289, 80, 320
-0.992471, 1, 113, 500, 176
-0.992477, 241, 65, 272, 192
-0.992488, 345, 273, 408, 336
-0.992492, 353, 113, 384, 144
-0.992493, 369, 33, 496, 64
-0.992495, 305, 157, 336, 188
-0.992503, 225, 141, 256, 172
-0.99251, 345, 129, 376, 160
-0.992511, 421, 9, 452, 40
-0.992516, 21, 301, 52, 332
-0.992519, 293, 169, 324, 200
-0.992525, 65, 281, 96, 312
-0.992527, 341, 109, 372, 140
-0.992528, 305, 137, 320, 200
-0.992532, 45, 169, 76, 200
-0.992534, 321, 141, 352, 172
-0.992543, 313, 173, 344, 204
-0.992544, 369, 129, 400, 160
-0.992551, 113, 73, 144, 104
-0.992556, 1, 201, 500, 264
-0.992557, 241, 129, 272, 160
-0.992565, 445, 33, 476, 64
-0.992566, 413, 233, 444, 264
-0.992568, 445, 189, 476, 220
-0.992573, 385, 165, 416, 196
-0.992575, 361, 49, 392, 176
-0.992577, 289, 173, 416, 204
-0.992579, 277, 145, 308, 176
-0.992579, 193, 149, 224, 180
-0.992581, 281, 177, 312, 208
-0.992582, 433, 237, 464, 268
-0.992589, 1, 217, 32, 248
-0.992591, 361, 97, 392, 128
-0.992601, 421, 257, 452, 288
-0.992604, 105, 145, 136, 176
-0.992609, 349, 141, 380, 172
-0.99261, 313, 109, 344, 140
-0.992616, 329, 129, 360, 160
-0.992617, 177, 165, 208, 196
-0.992623, 461, 49, 492, 80
-0.992624, 193, 185, 224, 216
-0.992629, 109, 177, 140, 208
-0.992638, 257, 177, 288, 208
-0.99264, 277, 189, 308, 220
-0.992645, 173, 177, 204, 208
-0.992655, 361, 177, 392, 208
-0.992663, 189, 161, 220, 192
-0.992664, 329, 193, 360, 320
-0.992665, 309, 133, 340, 164
-0.992666, 149, 173, 180, 204
-0.99267, 193, 201, 448, 264
-0.99268, 145, 113, 176, 144
-0.99268, 365, 153, 396, 184
-0.992682, 53, 189, 84, 220
-0.992683, 413, 165, 444, 196
-0.992683, 227, 137, 242, 200
-0.992683, 101, 93, 132, 124
-0.992693, 405, 5, 436, 36
-0.992697, 133, 113, 164, 144
-0.992706, 9, 85, 40, 116
-0.992709, 461, 33, 492, 64
-0.99271, 441, 257, 472, 288
-0.992719, 5, 233, 36, 264
-0.99273, 237, 161, 268, 192
-0.992742, 397, 161, 428, 192
-0.992747, 249, 161, 280, 192
-0.992749, 37, 33, 68, 160
-0.992749, 37, 305, 68, 336
-0.992758, 365, 141, 396, 172
-0.992759, 49, 157, 80, 188
-0.992762, 205, 149, 236, 180
-0.992762, 213, 189, 244, 220
-0.992762, 429, 21, 460, 52
-0.992764, 465, 201, 496, 232
-0.992765, 193, 173, 224, 204
-0.992767, 337, 145, 368, 176
-0.992767, 289, 157, 416, 188
-0.99277, 141, 161, 172, 192
-0.992777, 329, 161, 360, 192
-0.99278, 193, 197, 224, 228
-0.992789, 57, 301, 88, 332
-0.992792, 177, 121, 208, 152
-0.992793, 65, 149, 96, 180
-0.992799, 41, 49, 104, 112
-0.9928, 293, 157, 324, 188
-0.992802, 401, 241, 432, 272
-0.992802, 229, 129, 260, 160
-0.992806, 397, 149, 428, 180
-0.992814, 245, 185, 276, 216
-0.992818, 93, 173, 124, 204
-0.99282, 433, 5, 464, 36
-0.992821, 397, 21, 428, 52
-0.992826, 221, 165, 252, 196
-0.992832, 433, 185, 464, 216
-0.992839, 385, 149, 416, 180
-0.99284, 225, 181, 256, 212
-0.992853, 385, 41, 416, 72
-0.992863, 405, 253, 436, 284
-0.992863, 9, 245, 40, 276
-0.992864, 25, 81, 56, 112
-0.992866, 445, 1, 476, 32
-0.992868, 425, 173, 456, 204
-0.992872, 29, 181, 60, 212
-0.992872, 373, 165, 404, 196
-0.992872, 373, 93, 404, 124
-0.992874, 125, 193, 156, 224
-0.992878, 253, 137, 284, 168
-0.992879, 121, 165, 152, 196
-0.992886, 117, 149, 148, 180
-0.992891, 69, 177, 100, 208
-0.992893, 85, 145, 116, 176
-0.992897, 373, 105, 404, 136
-0.992897, 157, 117, 188, 148
-0.992904, 381, 177, 412, 208
-0.992909, 385, 125, 416, 156
-0.992912, 9, 97, 40, 128
-0.992913, 317, 153, 348, 184
-0.992914, 385, 249, 416, 280
-0.992916, 349, 157, 380, 188
-0.992917, 397, 173, 428, 204
-0.992919, 275, 161, 290, 224
-0.992927, 377, 73, 408, 104
-0.992941, 73, 193, 104, 224
-0.992943, 29, 233, 60, 264
-0.992946, 185, 137, 216, 168
-0.99295, 433, 33, 464, 64
-0.99297, 337, 249, 400, 312
-0.992978, 33, 153, 160, 184
-0.993026, 457, 113, 488, 240
-0.993045, 237, 209, 268, 336
-0.993049, 241, 1, 304, 337
-0.993063, 345, 9, 408, 72
-0.993073, 257, 145, 384, 176
-0.993138, 273, 1, 336, 337
-0.993144, 129, 89, 384, 152
-0.99318, 97, 177, 224, 208
-0.993189, 97, 141, 224, 172
-0.993193, 333, 105, 348, 168
-0.993203, 275, 137, 290, 200
-0.993239, 79, 265, 94, 328
-0.993249, 201, 1, 264, 337
-0.993264, 323, 105, 338, 168
-0.993322, 241, 121, 368, 152
-0.99336, 263, 137, 278, 200
-0.993418, 209, 161, 336, 192
-0.993447, 225, 181, 352, 212
-0.993455, 1, 301, 128, 332
-0.993456, 353, 185, 480, 216
-0.99348, 349, 49, 380, 176
-0.993522, 391, 137, 406, 200
-0.993529, 145, 65, 176, 192
-0.993555, 249, 273, 312, 336
-0.993559, 257, 233, 500, 296
-0.993561, 293, 145, 308, 208
-0.993563, 429, 225, 444, 288
-0.99359, 173, 177, 204, 304
-0.99362, 369, 253, 496, 284
-0.993642, 325, 49, 356, 176
-0.993663, 371, 113, 386, 176
-0.993675, 177, 185, 304, 216
-0.993706, 49, 109, 176, 140
-0.993711, 273, 17, 400, 144
-0.993764, 299, 145, 314, 208
-0.993773, 13, 33, 44, 160
-0.993789, 281, 145, 296, 208
-0.993802, 245, 105, 260, 168
-0.993835, 189, 161, 204, 224
-0.993896, 33, 193, 160, 224
-0.993947, 33, 105, 288, 168
-0.993979, 323, 153, 338, 216
-0.993993, 33, 97, 160, 128
-0.993993, 97, 165, 224, 196
-0.994003, 329, 129, 344, 192
-0.994004, 217, 177, 232, 240
-0.994013, 369, 237, 496, 268
-0.994053, 7, 217, 22, 280
-0.994065, 237, 137, 252, 200
-0.994071, 97, 153, 224, 184
-0.994083, 283, 177, 298, 240
-0.994095, 177, 129, 304, 160
-0.994111, 317, 113, 332, 176
-0.994128, 399, 137, 414, 200
-0.99414, 191, 129, 206, 192
-0.994151, 441, 233, 456, 296
-0.994156, 117, 145, 132, 208
-0.994171, 161, 149, 288, 180
-0.994187, 307, 161, 322, 224
-0.994212, 369, 65, 496, 96
-0.994213, 313, 153, 328, 216
-0.994224, 49, 161, 64, 224
-0.99427, 383, 137, 398, 200
-0.994282, 373, 169, 388, 232
-0.994293, 1, 85, 128, 116
-0.994308, 339, 105, 354, 168
-0.994313, 255, 129, 270, 192
-0.994321, 97, 129, 224, 160
-0.994346, 363, 129, 378, 192
-0.994377, 157, 161, 172, 224
-0.994379, 65, 33, 96, 160
-0.994381, 275, 193, 290, 256
-0.99441, 459, 1, 474, 64
-0.994429, 25, 17, 56, 144
-0.994464, 33, 165, 160, 196
-0.99447, 223, 177, 238, 240
-0.994473, 243, 153, 258, 216
-0.994477, 197, 145, 212, 208
-0.99449, 193, 197, 320, 228
-0.994513, 1, 273, 256, 336
-0.99455, 201, 177, 216, 240
-0.994567, 269, 153, 284, 216
-0.994569, 401, 81, 432, 208
-0.99457, 377, 113, 392, 176
-0.994579, 13, 217, 28, 280
-0.994585, 469, 129, 500, 256
-0.994604, 257, 1, 320, 256
-0.994604, 423, 225, 438, 288
-0.994611, 109, 145, 124, 208
-0.994617, 147, 121, 162, 184
-0.994624, 33, 181, 160, 212
-0.994649, 305, 145, 432, 176
-0.99466, 369, 265, 496, 296
-0.994669, 1, 57, 500, 120
-0.994701, 1, 81, 256, 144
-0.994707, 115, 177, 130, 240
-0.994714, 129, 189, 256, 220
-0.994719, 287, 145, 302, 208
-0.994758, 253, 153, 268, 216
-0.994762, 273, 185, 400, 216
-0.994795, 239, 113, 254, 176
-0.994798, 125, 153, 140, 216
-0.994798, 33, 225, 48, 288
-0.994811, 369, 77, 496, 108
-0.994823, 119, 73, 134, 136
-0.994859, 359, 105, 374, 168
-0.994863, 353, 105, 368, 168
-0.994874, 27, 225, 42, 288
-0.994886, 301, 169, 316, 232
-0.994887, 221, 153, 236, 216
-0.994902, 365, 153, 380, 216
-0.994925, 435, 225, 450, 288
-0.994937, 229, 177, 244, 240
-0.994939, 387, 41, 402, 104
-0.994962, 409, 233, 424, 296
-0.994964, 269, 177, 284, 240
-0.994965, 113, 201, 240, 232
-0.994976, 17, 73, 144, 104
-0.994981, 21, 225, 36, 288
-0.994996, 381, 169, 396, 232
-0.995008, 1, 289, 128, 320
-0.99501, 447, 233, 462, 296
-0.995022, 369, 21, 496, 52
-0.995032, 35, 73, 50, 136
-0.995055, 101, 145, 116, 208
-0.995062, 109, 177, 124, 240
-0.995067, 355, 153, 370, 216
-0.99507, 481, 57, 496, 120
-0.995077, 257, 97, 500, 160
-0.995083, 337, 129, 464, 160
-0.995084, 203, 145, 218, 208
-0.9951, 323, 129, 338, 192
-0.995101, 71, 145, 86, 208
-0.99513, 1, 209, 16, 272
-0.995137, 311, 129, 326, 192
-0.995145, 67, 273, 82, 336
-0.995149, 161, 117, 288, 148
-0.995167, 245, 129, 260, 192
-0.995173, 289, 197, 416, 228
-0.995191, 425, 185, 440, 248
-0.995197, 181, 121, 196, 184
-0.995208, 55, 161, 70, 224
-0.995212, 377, 65, 408, 320
-0.995213, 381, 89, 396, 152
-0.995214, 145, 173, 272, 204
-0.995219, 151, 161, 166, 224
-0.995225, 345, 105, 360, 168
-0.995235, 385, 89, 448, 152
-0.995237, 337, 217, 400, 280
-0.995296, 49, 49, 176, 112
-0.995319, 97, 209, 352, 272
-0.995323, 211, 177, 226, 240
-0.995333, 73, 265, 88, 328
-0.995334, 87, 121, 102, 184
-0.995348, 393, 41, 408, 104
-0.995352, 333, 169, 348, 232
-0.995356, 343, 169, 358, 232
-0.99536, 387, 169, 402, 232
-0.995364, 137, 137, 152, 200
-0.99542, 131, 169, 146, 232
-0.995422, 189, 81, 220, 208
-0.995437, 263, 177, 278, 240
-0.995453, 369, 45, 496, 76
-0.995468, 369, 9, 496, 40
-0.995473, 23, 73, 38, 136
-0.995473, 81, 121, 96, 184
-0.995476, 337, 173, 464, 204
-0.995477, 289, 81, 320, 208
-0.995478, 453, 249, 468, 312
-0.995485, 417, 225, 432, 288
-0.99549, 109, 81, 124, 144
-0.995494, 141, 113, 156, 176
-0.995498, 349, 129, 364, 192
-0.995507, 337, 109, 464, 140
-0.995516, 235, 177, 250, 240
-0.995526, 61, 153, 76, 216
-0.995534, 441, 265, 456, 328
-0.995548, 93, 113, 108, 176
-0.995553, 273, 249, 400, 312
-0.995565, 153, 1, 216, 256
-0.995573, 125, 73, 140, 136
-0.995591, 365, 105, 380, 168
-0.995593, 161, 217, 224, 280
-0.995597, 401, 161, 416, 224
-0.995602, 467, 1, 482, 64
-0.995602, 395, 241, 410, 304
-0.995613, 29, 65, 60, 320
-0.995632, 473, 273, 488, 336
-0.995633, 407, 145, 422, 208
-0.995633, 85, 145, 100, 208
-0.995658, 245, 185, 260, 248
-0.995696, 153, 81, 216, 144
-0.995696, 465, 273, 480, 336
-0.9957, 253, 185, 268, 248
-0.995701, 295, 185, 310, 248
-0.995705, 99, 185, 114, 248
-0.995708, 1, 241, 128, 272
-0.995717, 399, 25, 414, 88
-0.995737, 257, 257, 500, 320
-0.995738, 483, 273, 498, 336
-0.995754, 269, 129, 284, 192
-0.995764, 417, 145, 432, 208
-0.995776, 375, 145, 390, 208
-0.995785, 17, 65, 48, 320
-0.995788, 407, 1, 422, 64
-0.995808, 169, 177, 184, 240
-0.995808, 433, 249, 448, 312
-0.995816, 105, 57, 168, 120
-0.995817, 105, 65, 136, 320
-0.995819, 121, 177, 136, 240
-0.995848, 193, 49, 448, 112
-0.995871, 161, 65, 192, 192
-0.995872, 113, 49, 240, 112
-0.995874, 373, 17, 404, 144
-0.995935, 353, 97, 480, 128
-0.995938, 337, 161, 464, 192
-0.995957, 49, 85, 176, 116
-0.996003, 65, 225, 192, 288
-0.996007, 241, 109, 368, 140
-0.996014, 289, 101, 416, 132
-0.996021, 321, 241, 448, 272
-0.996118, 265, 81, 296, 208
-0.996125, 125, 65, 156, 320
-0.996141, 81, 189, 208, 220
-0.996141, 1, 65, 32, 320
-0.996163, 49, 121, 176, 152
-0.996184, 33, 141, 160, 172
-0.996186, 1, 273, 500, 336
-0.996237, 401, 1, 432, 256
-0.996256, 53, 17, 84, 144
-0.996274, 365, 65, 396, 320
-0.996274, 389, 1, 420, 256
-0.996286, 369, 277, 496, 308
-0.996312, 141, 97, 172, 337
-0.99643, 325, 97, 356, 337
-0.996437, 49, 273, 176, 304
-0.996455, 441, 1, 472, 256
-0.996461, 45, 65, 76, 320
-0.99648, 313, 97, 344, 337
-0.996492, 433, 49, 464, 176
-0.996526, 353, 197, 480, 228
-0.996541, 321, 253, 448, 284
-0.99658, 1, 209, 128, 240
-0.99661, 329, 57, 392, 120
-0.996635, 257, 73, 500, 136
-0.996655, 157, 97, 188, 337
-0.996705, 409, 73, 472, 136
-0.996714, 365, 209, 396, 336
-0.996718, 129, 105, 256, 136
-0.99672, 51, 289, 66, 320
-0.996757, 97, 93, 224, 124
-0.996765, 353, 97, 384, 337
-0.996776, 237, 97, 268, 337
-0.996861, 65, 205, 192, 236
-0.996869, 389, 97, 420, 337
-0.996875, 275, 173, 290, 204
-0.996877, 337, 97, 368, 337
-0.99689, 429, 1, 460, 256
-0.99693, 377, 109, 392, 140
-0.996935, 173, 97, 204, 337
-0.996944, 257, 273, 384, 336
-0.996988, 353, 141, 480, 172
-0.997029, 289, 53, 416, 84
-0.997033, 277, 141, 292, 172
-0.997075, 97, 81, 224, 112
-0.997082, 373, 97, 388, 128
-0.997092, 241, 197, 368, 228
-0.997099, 193, 209, 320, 240
-0.997101, 1, 233, 256, 296
-0.997106, 1, 117, 128, 148
-0.997111, 69, 65, 100, 320
-0.99712, 287, 145, 302, 176
-0.997138, 285, 185, 300, 216
-0.997146, 273, 161, 288, 192
-0.997163, 191, 169, 206, 200
-0.997169, 57, 65, 88, 320
-0.997198, 61, 289, 76, 320
-0.9972, 5, 217, 20, 248
-0.997205, 413, 1, 444, 256
-0.997215, 161, 225, 288, 288
-0.997248, 47, 173, 62, 204
-0.997261, 273, 209, 400, 240
-0.997267, 445, 21, 460, 52
-0.997272, 367, 113, 382, 144
-0.997276, 37, 233, 52, 264
-0.997277, 301, 145, 316, 176
-0.997281, 45, 297, 60, 328
-0.9973, 137, 153, 152, 184
-0.997302, 1, 229, 128, 260
-0.997308, 423, 157, 438, 188
-0.997308, 303, 177, 318, 208
-0.997323, 307, 165, 322, 196
-0.997328, 11, 305, 26, 336
-0.997341, 33, 297, 48, 328
-0.997343, 293, 193, 308, 224
-0.997347, 257, 17, 500, 80
-0.997352, 81, 269, 96, 300
-0.997365, 393, 133, 408, 164
-0.997368, 49, 285, 176, 316
-0.997371, 321, 113, 336, 144
-0.997377, 107, 173, 122, 204
-0.997382, 461, 65, 492, 320
-0.997387, 381, 121, 396, 152
-0.997388, 353, 289, 480, 320
-0.997395, 1, 273, 128, 304
-0.997396, 131, 149, 146, 180
-0.997397, 345, 109, 360, 140
-0.997404, 23, 301, 38, 332
-0.997406, 289, 85, 416, 116
-0.997409, 315, 117, 330, 148
-0.997411, 297, 1, 360, 256
-0.997412, 293, 181, 308, 212
-0.997446, 321, 273, 448, 304
-0.997446, 19, 229, 34, 260
-0.997448, 415, 169, 430, 200
-0.997453, 365, 157, 380, 188
-0.997468, 353, 109, 368, 140
-0.997473, 437, 9, 452, 40
-0.997475, 143, 153, 158, 184
-0.997481, 289, 73, 416, 104
-0.99749, 421, 97, 452, 337
-0.997499, 39, 293, 54, 324
-0.997503, 9, 93, 24, 124
-0.99751, 5, 305, 20, 336
-0.997512, 457, 29, 472, 60
-0.997519, 145, 113, 160, 144
-0.997523, 93, 97, 124, 337
-0.997523, 269, 177, 284, 208
-0.997525, 361, 113, 376, 144
-0.997529, 161, 169, 176, 200
-0.997532, 117, 77, 132, 108
-0.997532, 97, 117, 224, 148
-0.997534, 321, 21, 448, 52
-0.997545, 293, 145, 308, 176
-0.997547, 53, 165, 68, 196
-0.997548, 191, 149, 206, 180
-0.997549, 1, 129, 128, 160
-0.997553, 337, 225, 464, 256
-0.997559, 109, 17, 140, 144
-0.99756, 441, 237, 456, 268
-0.997561, 313, 161, 328, 192
-0.997563, 279, 161, 294, 192
-0.997571, 17, 301, 32, 332
-0.997574, 57, 301, 72, 332
-0.997581, 449, 97, 480, 337
-0.997591, 381, 161, 396, 192
-0.997598, 417, 129, 480, 192
-0.997602, 389, 165, 404, 196
-0.997604, 333, 129, 348, 160
-0.997609, 245, 109, 260, 140
-0.99761, 119, 145, 134, 176
-0.997613, 265, 161, 280, 192
-0.997628, 387, 129, 402, 160
-0.997632, 427, 169, 442, 200
-0.997643, 419, 233, 434, 264
-0.99766, 331, 109, 346, 140
-0.99766, 151, 117, 166, 148
-0.997661, 301, 97, 332, 337
-0.997662, 183, 121, 198, 152
-0.99767, 329, 141, 344, 172
-0.997678, 31, 229, 46, 260
-0.997688, 319, 173, 334, 204
-0.99769, 107, 89, 122, 120
-0.997693, 379, 85, 394, 116
-0.997693, 339, 141, 354, 172
-0.997699, 295, 161, 310, 192
-0.997702, 433, 233, 448, 264
-0.997711, 227, 137, 242, 168
-0.99772, 361, 145, 376, 176
-0.997721, 239, 129, 254, 160
-0.997722, 89, 257, 152, 320
-0.997727, 249, 129, 264, 160
-0.99773, 337, 109, 352, 140
-0.99774, 313, 149, 328, 180
-0.997741, 139, 113, 154, 144
-0.997742, 159, 113, 174, 144
-0.997746, 357, 129, 372, 160
-0.99775, 375, 177, 390, 208
-0.997753, 193, 221, 320, 252
-0.99776, 199, 153, 214, 184
-0.99776, 407, 5, 422, 36
-0.997761, 7, 233, 22, 264
-0.997763, 451, 25, 466, 56
-0.997763, 387, 69, 402, 100
-0.997765, 307, 141, 322, 172
-0.997767, 41, 177, 56, 208
-0.997767, 323, 153, 338, 184
-0.997769, 409, 97, 440, 337
-0.997775, 125, 77, 140, 108
-0.997784, 371, 157, 386, 188
-0.997786, 219, 185, 234, 216
-0.99779, 281, 173, 296, 204
-0.997792, 451, 245, 466, 276
-0.997798, 251, 117, 266, 148
-0.997799, 285, 157, 300, 188
-0.997799, 439, 21, 454, 52
-0.997799, 39, 305, 54, 336
-0.997803, 433, 253, 448, 284
-0.997804, 461, 193, 476, 224
-0.99781, 479, 201, 494, 232
-0.997812, 127, 165, 142, 196
-0.997812, 67, 277, 82, 308
-0.997815, 73, 269, 88, 300
-0.997819, 485, 49, 500, 80
-0.997822, 391, 45, 406, 76
-0.997824, 197, 137, 212, 168
-0.997825, 411, 153, 426, 184
-0.997825, 427, 233, 442, 264
-0.997834, 187, 137, 202, 168
-0.997838, 25, 229, 40, 260
-0.99784, 467, 1, 482, 32
-0.997841, 403, 161, 418, 192
-0.997847, 167, 173, 182, 204
-0.997847, 59, 161, 74, 192
-0.997854, 347, 129, 362, 160
-0.997856, 173, 177, 188, 208
-0.997863, 55, 189, 70, 220
-0.997867, 453, 189, 468, 220
-0.99787, 457, 5, 472, 36
-0.997877, 25, 81, 40, 112
-0.997878, 133, 189, 148, 220
-0.997883, 271, 141, 286, 172
-0.997884, 131, 81, 146, 112
-0.997897, 49, 301, 176, 332
-0.997964, 257, 225, 320, 288
-0.997999, 433, 97, 464, 337
-0.998, 81, 65, 112, 320
-0.998012, 121, 17, 184, 144
-0.998043, 209, 273, 272, 336
-0.998058, 185, 97, 216, 337
-0.998079, 225, 97, 256, 337
-0.998104, 337, 49, 368, 176
-0.998118, 353, 213, 480, 244
-0.998121, 1, 225, 500, 288
-0.998191, 413, 81, 444, 208
-0.998201, 233, 89, 296, 152
-0.99823, 249, 65, 280, 320
-0.998236, 225, 97, 352, 128
-0.998258, 113, 213, 240, 244
-0.998284, 289, 229, 416, 260
-0.998301, 249, 97, 264, 224
-0.998323, 289, 41, 416, 72
-0.998339, 185, 157, 248, 172
-0.998345, 1, 57, 256, 120
-0.99837, 239, 113, 254, 240
-0.998376, 297, 175, 360, 190
-0.998379, 253, 145, 268, 272
-0.998384, 233, 159, 296, 174
-0.998392, 273, 173, 336, 188
-0.9984, 289, 167, 352, 182
-0.998406, 231, 145, 246, 272
-0.998407, 185, 163, 248, 178
-0.99841, 257, 161, 320, 176
-0.998417, 313, 113, 376, 128
-0.998419, 337, 177, 400, 192
-0.998419, 273, 17, 400, 80
-0.998419, 401, 239, 464, 254
-0.998424, 1, 309, 64, 324
-0.998426, 273, 129, 288, 256
-0.998426, 9, 303, 72, 318
-0.998427, 217, 139, 280, 154
-0.99843, 297, 143, 360, 158
-0.998435, 265, 181, 328, 196
-0.998436, 185, 185, 248, 200
-0.998438, 153, 167, 216, 182
-0.998438, 321, 133, 384, 148
-0.998438, 273, 155, 336, 170
-0.998441, 297, 123, 360, 138
-0.998442, 161, 179, 224, 194
-0.998445, 233, 187, 296, 202
-0.998448, 245, 145, 260, 272
-0.998451, 409, 257, 472, 272
-0.998455, 405, 155, 436, 170
-0.998456, 225, 133, 256, 148
-0.998457, 345, 125, 376, 140
-0.998457, 437, 247, 468, 262
-0.998457, 161, 179, 192, 194
-0.998457, 309, 129, 340, 144
-0.998458, 461, 197, 492, 212
-0.998458, 1, 235, 64, 250
-0.998459, 373, 95, 404, 110
-0.998459, 249, 157, 280, 172
-0.99846, 57, 183, 88, 198
-0.998462, 421, 185, 452, 200
-0.998462, 233, 165, 296, 180
-0.998463, 269, 167, 300, 182
-0.998463, 441, 261, 472, 276
-0.998463, 197, 203, 228, 218
-0.998463, 209, 157, 272, 172
-0.998465, 101, 97, 132, 112
-0.998466, 241, 181, 304, 196
-0.998466, 145, 199, 176, 214
-0.998466, 113, 75, 144, 90
-0.998468, 401, 15, 432, 30
-0.998468, 445, 41, 476, 56
-0.998469, 433, 17, 464, 32
-0.998469, 397, 245, 428, 260
-0.998469, 353, 129, 416, 144
-0.99847, 205, 161, 236, 176
-0.99847, 177, 151, 240, 166
-0.998471, 469, 203, 500, 218
-0.998472, 353, 139, 416, 154
-0.998473, 245, 137, 276, 152
-0.998473, 385, 135, 416, 150
-0.998474, 57, 291, 88, 306
-0.998474, 241, 117, 272, 132
-0.998474, 413, 7, 444, 22
-0.998476, 341, 169, 372, 184
-0.998476, 381, 47, 412, 62
-0.998477, 145, 165, 176, 180
-0.998478, 41, 193, 104, 208
-0.998478, 129, 197, 160, 212
-0.99848, 401, 259, 432, 274
-0.99848, 57, 307, 88, 322
-0.998482, 117, 95, 148, 110
-0.998482, 73, 149, 104, 164
-0.998482, 49, 167, 80, 182
-0.998482, 225, 185, 256, 200
-0.998483, 321, 167, 352, 182
-0.998485, 161, 197, 224, 212
-0.998486, 113, 183, 144, 198
-0.998487, 353, 147, 384, 162
-0.998488, 169, 169, 200, 184
-0.998489, 297, 165, 328, 180
-0.998489, 73, 149, 136, 164
-0.998489, 289, 177, 320, 192
-0.998489, 281, 137, 344, 152
-0.99849, 193, 175, 224, 190
-0.99849, 341, 111, 372, 126
-0.99849, 385, 155, 416, 170
-0.99849, 301, 173, 332, 188
-0.998491, 37, 177, 68, 192
-0.998491, 257, 167, 320, 182
-0.998491, 49, 193, 80, 208
-0.998492, 365, 155, 396, 170
-0.998492, 377, 183, 440, 198
-0.998492, 217, 81, 248, 208
-0.998492, 113, 169, 176, 184
-0.998493, 273, 147, 336, 162
-0.998493, 97, 99, 160, 114
-0.998494, 157, 173, 188, 188
-0.998494, 209, 185, 272, 200
-0.998494, 329, 129, 360, 144
-0.998496, 241, 185, 272, 200
-0.998496, 393, 19, 456, 34
-0.998498, 337, 123, 400, 138
-0.998498, 105, 149, 136, 164
-0.998499, 193, 195, 224, 210
-0.998499, 305, 145, 336, 160
-0.998499, 445, 35, 476, 50
-0.9985, 385, 249, 416, 264
-0.9985, 57, 297, 88, 312
-0.998501, 145, 119, 176, 134
-0.998501, 273, 187, 336, 202
-0.998502, 65, 283, 96, 298
-0.998503, 1, 249, 64, 264
-0.998503, 33, 241, 96, 256
-0.998503, 193, 151, 224, 166
-0.998504, 41, 289, 104, 304
-0.998504, 421, 253, 452, 268
-0.998504, 273, 193, 336, 208
-0.998505, 385, 147, 416, 162
-0.998505, 365, 177, 396, 192
-0.998506, 297, 189, 328, 204
-0.998506, 9, 91, 40, 106
-0.998506, 153, 173, 216, 188
-0.998507, 337, 113, 400, 128
-0.998508, 321, 145, 384, 160
-0.998509, 113, 173, 144, 188
-0.998509, 305, 181, 368, 196
-0.998509, 89, 87, 152, 102
-0.99851, 113, 87, 144, 102
-0.998511, 369, 137, 400, 152
-0.998511, 405, 251, 436, 266
-0.998513, 1, 315, 64, 330
-0.998514, 325, 145, 356, 160
-0.998515, 113, 81, 144, 96
-0.998516, 261, 141, 292, 156
-0.998516, 321, 113, 352, 128
-0.998516, 225, 145, 240, 272
-0.998516, 229, 139, 260, 154
-0.998516, 185, 193, 248, 208
-0.998517, 393, 13, 456, 28
-0.998518, 337, 169, 400, 184
-0.998518, 161, 185, 224, 200
-0.998519, 193, 183, 224, 198
-0.998519, 185, 201, 248, 216
-0.998519, 297, 129, 360, 144
-0.99852, 257, 141, 320, 156
-0.998521, 217, 133, 280, 148
-0.998523, 241, 123, 272, 138
-0.998523, 313, 169, 376, 184
-0.998523, 93, 183, 124, 198
-0.998523, 65, 183, 128, 198
-0.998524, 393, 267, 456, 282
-0.998524, 417, 275, 480, 290
-0.998525, 281, 193, 312, 208
-0.998525, 297, 153, 360, 168
-0.998525, 261, 181, 292, 196
-0.998525, 289, 161, 352, 176
-0.998526, 393, 35, 456, 50
-0.998526, 129, 161, 160, 176
-0.998527, 41, 295, 104, 310
-0.998527, 413, 15, 444, 30
-0.998528, 13, 231, 44, 246
-0.998528, 377, 167, 440, 182
-0.99853, 377, 155, 440, 170
-0.998531, 113, 157, 176, 172
-0.998531, 153, 161, 216, 176
-0.998532, 281, 167, 312, 182
-0.998532, 309, 153, 340, 168
-0.998532, 325, 175, 356, 190
-0.998533, 33, 177, 96, 192
-0.998535, 421, 259, 452, 274
-0.998535, 301, 159, 332, 174
-0.998536, 385, 29, 448, 44
-0.998536, 401, 187, 464, 202
-0.998536, 97, 109, 160, 124
-0.998537, 249, 153, 312, 168
-0.998537, 177, 137, 240, 152
-0.998537, 89, 93, 152, 108
-0.998537, 379, 113, 394, 240
-0.998538, 257, 163, 288, 178
-0.998538, 125, 167, 156, 182
-0.998539, 121, 115, 184, 130
-0.99854, 37, 303, 68, 318
-0.99854, 317, 97, 332, 224
-0.99854, 363, 113, 378, 240
-0.99854, 1, 91, 64, 106
-0.99854, 365, 123, 396, 138
-0.998541, 81, 79, 144, 94
-0.998542, 129, 175, 192, 190
-0.998542, 41, 303, 104, 318
-0.998543, 145, 133, 208, 148
-0.998543, 417, 25, 480, 40
-0.998543, 69, 277, 100, 292
-0.998543, 417, 233, 448, 248
-0.998543, 277, 179, 308, 194
-0.998544, 401, 233, 464, 248
-0.998544, 417, 265, 480, 280
-0.998545, 277, 155, 308, 170
-0.998545, 181, 173, 212, 188
-0.998546, 369, 173, 432, 188
-0.998546, 393, 7, 456, 22
-0.998546, 41, 205, 104, 220
-0.998546, 213, 155, 244, 170
-0.998548, 41, 169, 104, 184
-0.998548, 425, 9, 456, 24
-0.998549, 437, 253, 468, 268
-0.998549, 417, 37, 480, 52
-0.998551, 197, 65, 228, 320
-0.998553, 377, 249, 440, 264
-0.998553, 1, 107, 64, 122
-0.998553, 33, 183, 96, 198
-0.998554, 309, 165, 340, 180
-0.998554, 385, 255, 448, 270
-0.998555, 97, 149, 160, 164
-0.998555, 237, 163, 268, 178
-0.998556, 41, 319, 104, 334
-0.998557, 417, 31, 480, 46
-0.998557, 417, 7, 480, 22
-0.998558, 209, 193, 272, 208
-0.998558, 177, 143, 240, 158
-0.998559, 153, 155, 216, 170
-0.998559, 305, 9, 432, 40
-0.998559, 25, 299, 56, 314
-0.998561, 129, 181, 192, 196
-0.998561, 377, 161, 440, 176
-0.998561, 417, 251, 480, 266
-0.998562, 313, 123, 344, 138
-0.998562, 117, 149, 148, 164
-0.998563, 17, 297, 80, 312
-0.998563, 369, 87, 432, 102
-0.998564, 57, 175, 120, 190
-0.998565, 313, 175, 344, 190
-0.998565, 13, 303, 44, 318
-0.998565, 385, 141, 416, 156
-0.998567, 289, 199, 352, 214
-0.998567, 1, 223, 32, 238
-0.998567, 161, 191, 224, 206
-0.998567, 293, 183, 324, 198
-0.998568, 65, 261, 192, 292
-0.998568, 401, 245, 464, 260
-0.998568, 121, 123, 184, 138
-0.998568, 371, 97, 386, 224
-0.998569, 57, 277, 120, 292
-0.998573, 349, 175, 380, 190
-0.998574, 309, 139, 340, 154
-0.998575, 289, 153, 320, 168
-0.998575, 65, 271, 128, 286
-0.998577, 425, 177, 440, 304
-0.998577, 261, 129, 276, 256
-0.998579, 249, 175, 312, 190
-0.998579, 9, 179, 72, 194
-0.99858, 369, 129, 400, 144
-0.998581, 361, 93, 424, 108
-0.998581, 1, 101, 64, 116
-0.998581, 145, 203, 208, 218
-0.998581, 329, 103, 392, 118
-0.998582, 377, 45, 440, 60
-0.998582, 353, 145, 416, 160
-0.998582, 89, 177, 152, 192
-0.998583, 199, 129, 214, 256
-0.998583, 193, 131, 256, 146
-0.998583, 433, 91, 496, 106
-0.998584, 89, 115, 152, 130
-0.998584, 57, 283, 120, 298
-0.998585, 261, 175, 292, 190
-0.998585, 37, 295, 68, 310
-0.998586, 1, 309, 32, 324
-0.998587, 273, 185, 304, 200
-0.998588, 145, 171, 176, 186
-0.99859, 225, 157, 256, 172
-0.998591, 111, 129, 126, 256
-0.998593, 73, 271, 104, 286
-0.9986, 441, 177, 456, 304
-0.998602, 173, 179, 204, 194
-0.998605, 237, 131, 268, 146
-0.998611, 193, 157, 224, 172
-0.998614, 97, 65, 352, 128
-0.998625, 125, 155, 156, 170
-0.998626, 1, 253, 128, 284
-0.998633, 361, 115, 392, 130
-0.998634, 305, 129, 320, 256
-0.998635, 293, 147, 324, 162
-0.998635, 105, 129, 120, 256
-0.998637, 267, 161, 282, 288
-0.998637, 349, 97, 364, 224
-0.998641, 283, 129, 298, 256
-0.998663, 65, 69, 192, 100
-0.998663, 273, 65, 304, 320
-0.998665, 305, 285, 432, 316
-0.998666, 357, 145, 372, 272
-0.998666, 273, 161, 304, 176
-0.998668, 1, 249, 500, 312
-0.998688, 161, 113, 176, 240
-0.998691, 431, 161, 446, 288
-0.998703, 79, 209, 94, 336
-0.998711, 451, 177, 466, 304
-0.998712, 333, 97, 348, 224
-0.99872, 121, 129, 136, 256
-0.998721, 131, 81, 146, 208
-0.998724, 355, 97, 370, 224
-0.998732, 119, 65, 134, 192
-0.998742, 191, 129, 206, 256
-0.998749, 105, 81, 120, 208
-0.99875, 19, 161, 34, 288
-0.998753, 415, 177, 430, 304
-0.998755, 49, 161, 64, 288
-0.99876, 97, 97, 112, 224
-0.998764, 381, 65, 396, 192
-0.99877, 213, 97, 244, 337
-0.99877, 261, 97, 292, 337
-0.998776, 239, 161, 254, 288
-0.998778, 219, 177, 234, 304
-0.998784, 363, 161, 378, 288
-0.998786, 343, 97, 358, 224
-0.998796, 147, 113, 162, 240
-0.998804, 391, 113, 406, 240
-0.998814, 323, 113, 338, 240
-0.998818, 387, 33, 402, 160
-0.998826, 7, 161, 22, 288
-0.998827, 479, 33, 494, 160
-0.998828, 75, 129, 90, 256
-0.998831, 457, 177, 472, 304
-0.998831, 293, 129, 308, 256
-0.998831, 485, 49, 500, 176
-0.998833, 299, 129, 314, 256
-0.998839, 311, 113, 326, 240
-0.998842, 385, 113, 400, 240
-0.998859, 369, 145, 384, 272
-0.998861, 73, 209, 88, 336
-0.998862, 161, 273, 288, 336
-0.99887, 261, 177, 276, 304
-0.99887, 113, 65, 128, 192
-0.998872, 351, 145, 366, 272
-0.998875, 81, 129, 96, 256
-0.998882, 65, 209, 80, 336
-0.998891, 409, 177, 424, 304
-0.998891, 11, 209, 26, 336
-0.998891, 141, 97, 156, 224
-0.998892, 213, 177, 228, 304
-0.998895, 127, 129, 142, 256
-0.998905, 21, 209, 36, 336
-0.998907, 125, 81, 140, 208
-0.998919, 219, 129, 234, 256
-0.998932, 185, 129, 200, 256
-0.998935, 57, 129, 72, 256
-0.998935, 317, 145, 332, 272
-0.998937, 205, 129, 220, 256
-0.998937, 173, 113, 188, 240
-0.998942, 273, 177, 288, 304
-0.998954, 91, 97, 106, 224
-0.998961, 433, 209, 448, 336
-0.998963, 423, 1, 438, 128
-0.998964, 331, 145, 346, 272
-0.998969, 415, 1, 430, 128
-0.998977, 67, 129, 82, 256
-0.998978, 13, 161, 28, 288
-0.998981, 137, 1, 168, 256
-0.998983, 241, 301, 368, 332
-0.998987, 399, 177, 414, 304
-0.998992, 353, 1, 384, 256
-0.998992, 29, 177, 44, 304
-0.998995, 1, 97, 16, 224
-0.998996, 13, 81, 28, 208
-0.998999, 463, 177, 478, 304
-0.999007, 1, 161, 16, 288
-0.999009, 87, 177, 102, 304
-0.999011, 285, 177, 300, 304
-0.999012, 59, 209, 74, 336
-0.999012, 167, 113, 182, 240
-0.999016, 255, 97, 270, 224
-0.999022, 83, 81, 98, 208
-0.999023, 47, 97, 62, 224
-0.999023, 399, 129, 414, 256
-0.999031, 185, 225, 248, 288
-0.999033, 153, 113, 168, 240
-0.999034, 463, 1, 478, 128
-0.999043, 113, 69, 240, 100
-0.999044, 485, 193, 500, 320
-0.999045, 267, 113, 282, 240
-0.999048, 207, 177, 222, 304
-0.999048, 39, 65, 54, 192
-0.999062, 381, 161, 396, 288
-0.999072, 345, 145, 360, 272
-0.999073, 375, 161, 390, 288
-0.999079, 179, 129, 194, 256
-0.999082, 49, 209, 64, 336
-0.999084, 279, 177, 294, 304
-0.999087, 409, 1, 424, 128
-0.99909, 429, 1, 444, 128
-0.99909, 395, 33, 410, 160
-0.999093, 49, 229, 176, 260
-0.999099, 39, 177, 54, 304
-0.999099, 477, 193, 492, 320
-0.9991, 95, 161, 110, 288
-0.999107, 369, 301, 496, 332
-0.999113, 337, 145, 352, 272
-0.999114, 295, 177, 310, 304
-0.999118, 457, 1, 472, 128
-0.999123, 241, 221, 368, 252
-0.999127, 33, 65, 48, 192
-0.99914, 201, 177, 216, 304
-0.999147, 55, 65, 70, 192
-0.99916, 7, 97, 22, 224
-0.999161, 5, 209, 20, 336
-0.999166, 447, 33, 462, 160
-0.999167, 289, 33, 320, 288
-0.999169, 313, 1, 344, 256
-0.999171, 77, 65, 92, 192
-0.999174, 469, 193, 484, 320
-0.999178, 65, 65, 80, 192
-0.999189, 393, 177, 408, 304
-0.99919, 213, 129, 228, 256
-0.999192, 135, 145, 150, 272
-0.999203, 321, 301, 448, 332
-0.999226, 329, 1, 360, 256
-0.999226, 225, 1, 288, 256
-0.999245, 173, 1, 204, 256
-0.999267, 17, 61, 144, 92
-0.999304, 329, 33, 392, 96
-0.999327, 257, 281, 384, 312
-0.999327, 149, 1, 180, 256
-0.999331, 1, 33, 500, 96
-0.999427, 273, 245, 400, 276
-0.999486, 49, 217, 176, 248
-0.999495, 65, 249, 192, 280
-0.999522, 229, 1, 260, 256
-0.999565, 341, 1, 372, 256
-0.999607, 193, 301, 320, 332
-0.999611, 161, 1, 192, 256
-0.999616, 225, 233, 352, 296
-0.999642, 313, 155, 328, 170
-0.999643, 345, 111, 360, 126
-0.999645, 369, 125, 384, 140
-0.999645, 381, 169, 396, 184
-0.999645, 159, 165, 174, 180
-0.999645, 271, 189, 286, 204
-0.999648, 59, 307, 74, 322
-0.999649, 361, 115, 376, 130
-0.999649, 149, 163, 164, 178
-0.999649, 443, 9, 458, 24
-0.99965, 463, 41, 478, 56
-0.999651, 445, 189, 460, 204
-0.999651, 433, 249, 448, 264
-0.999651, 191, 139, 206, 154
-0.999652, 145, 115, 160, 130
-0.999652, 109, 87, 124, 102
-0.999652, 311, 149, 326, 164
-0.999653, 379, 177, 394, 192
-0.999653, 485, 53, 500, 68
-0.999653, 181, 125, 196, 140
-0.999653, 279, 143, 294, 158
-0.999654, 127, 81, 142, 96
-0.999654, 93, 1, 124, 256
-0.999656, 1, 213, 16, 228
-0.999657, 349, 175, 364, 190
-0.999657, 303, 157, 318, 172
-0.999658, 407, 13, 422, 28
-0.99966, 369, 115, 384, 130
-0.999662, 135, 167, 150, 182
-0.999663, 193, 183, 208, 198
-0.999663, 39, 235, 54, 250
-0.999663, 433, 183, 448, 198
-0.999663, 267, 159, 282, 174
-0.999664, 199, 151, 214, 166
-0.999666, 389, 45, 404, 60
-0.999667, 229, 139, 244, 154
-0.999667, 185, 133, 200, 148
-0.999669, 281, 173, 296, 188
-0.99967, 367, 167, 382, 182
-0.99967, 129, 155, 144, 170
-0.99967, 245, 125, 260, 140
-0.999672, 107, 175, 122, 190
-0.999672, 323, 121, 338, 136
-0.999672, 151, 169, 166, 184
-0.999672, 59, 299, 74, 314
-0.999673, 393, 141, 408, 156
-0.999673, 359, 147, 374, 162
-0.999673, 177, 131, 192, 146
-0.999673, 437, 13, 452, 28
-0.999673, 457, 9, 472, 24
-0.999674, 371, 173, 386, 188
-0.999674, 157, 117, 172, 132
-0.999675, 221, 157, 236, 172
-0.999677, 213, 203, 228, 218
-0.999677, 231, 163, 246, 178
-0.999677, 199, 159, 214, 174
-0.999678, 205, 153, 220, 168
-0.999678, 255, 135, 270, 150
-0.999679, 333, 173, 348, 188
-0.999679, 417, 15, 432, 30
-0.999679, 425, 253, 440, 268
-0.99968, 129, 167, 144, 182
-0.99968, 397, 247, 412, 262
-0.999682, 305, 167, 320, 182
-0.999683, 313, 165, 328, 180
-0.999683, 377, 121, 392, 136
-0.999684, 307, 183, 322, 198
-0.999685, 387, 67, 402, 82
-0.999685, 243, 185, 258, 200
-0.999686, 117, 77, 132, 92
-0.999687, 51, 167, 66, 182
-0.999689, 305, 273, 368, 336
-0.99969, 1, 313, 16, 328
-0.999692, 13, 227, 28, 242
-0.999692, 245, 117, 260, 132
-0.999692, 381, 91, 396, 106
-0.999693, 467, 1, 482, 16
-0.999694, 375, 107, 390, 122
-0.999694, 187, 177, 202, 192
-0.999695, 433, 255, 448, 270
-0.999695, 281, 159, 296, 174
-0.999697, 375, 99, 390, 114
-0.999697, 465, 197, 480, 212
-0.999698, 119, 149, 134, 164
-0.999699, 9, 309, 24, 324
-0.999699, 19, 305, 34, 320
-0.9997, 173, 179, 188, 194
-0.999702, 163, 175, 178, 190
-0.999702, 57, 293, 72, 308
-0.999703, 241, 163, 256, 178
-0.999704, 49, 175, 64, 190
-0.999704, 245, 109, 260, 124
-0.999706, 273, 141, 288, 156
-0.999706, 35, 299, 50, 314
-0.999707, 193, 177, 208, 192
-0.999708, 285, 191, 300, 206
-0.999709, 215, 155, 230, 170
-0.99971, 239, 133, 254, 148
-0.99971, 25, 303, 40, 318
-0.999711, 141, 157, 156, 172
-0.999713, 321, 115, 336, 130
-0.999713, 289, 185, 304, 200
-0.999717, 295, 149, 310, 164
-0.999718, 249, 131, 264, 146
-0.999719, 315, 119, 330, 134
-0.999721, 391, 133, 406, 148
-0.999721, 45, 295, 60, 310
-0.999723, 265, 179, 280, 194
-0.999726, 273, 165, 288, 180
-0.999728, 303, 177, 318, 192
-0.99973, 5, 219, 20, 234
-0.999737, 321, 165, 336, 180
-0.999737, 273, 159, 288, 174
-0.99974, 49, 301, 64, 316
-0.999743, 313, 173, 328, 188
-0.999743, 293, 195, 308, 210
-0.999747, 257, 269, 384, 300
-0.999747, 289, 153, 304, 168
-0.999748, 375, 115, 390, 130
-0.99975, 305, 145, 320, 160
-0.99975, 281, 179, 296, 194
-0.999751, 193, 159, 208, 174
-0.999751, 341, 175, 356, 190
-0.999753, 231, 157, 246, 172
-0.999755, 137, 151, 152, 166
-0.999757, 79, 269, 94, 284
-0.999759, 177, 105, 304, 136
-0.999765, 191, 169, 206, 184
-0.999767, 273, 173, 288, 188
-0.999769, 275, 181, 290, 196
-0.999771, 51, 293, 66, 308
-0.999773, 287, 145, 302, 160
-0.999783, 157, 171, 172, 186
-0.999801, 129, 149, 144, 164
-0.999803, 65, 57, 192, 88
-0.999874, 305, 241, 368, 304
-0.999899, 161, 289, 288, 320
-0.999909, 257, 257, 384, 288
-0.99999, 145, 225, 272, 256
-0.999992, 177, 269, 304, 300
-1.00003, 301, 1, 332, 256
-1.00007, 145, 301, 272, 332
-1.00008, 161, 257, 416, 320
-1.0002, 209, 281, 336, 312
-1.00023, 185, 1, 216, 256
-1.00023, 145, 73, 272, 136
-1.00032, 113, 225, 240, 288
-1.00032, 241, 233, 368, 264
-1.00032, 273, 29, 400, 60
-1.00039, 217, 1, 248, 256
-1.0004, 177, 257, 304, 288
-1.00041, 161, 233, 416, 296
-1.00047, 145, 85, 272, 116
-1.00049, 225, 65, 352, 128
-1.00052, 97, 293, 224, 324
-1.00056, 313, 209, 344, 336
-1.00061, 261, 1, 292, 256
-1.00063, 209, 265, 336, 328
-1.00066, 361, 1, 392, 128
-1.00068, 193, 233, 320, 264
-1.00068, 65, 33, 128, 96
-1.00068, 161, 17, 416, 80
-1.00069, 1, 1, 500, 64
-1.00074, 113, 261, 240, 292
-1.00075, 129, 277, 256, 308
-1.00076, 113, 57, 240, 88
-1.00077, 225, 245, 352, 276
-1.00081, 17, 49, 144, 80
-1.00087, 97, 1, 128, 128
-1.00088, 113, 249, 240, 280
-1.00099, 137, 17, 168, 144
-1.00103, 273, 265, 336, 328
-1.00113, 97, 41, 352, 104
-1.00116, 161, 249, 288, 312
-1.00127, 129, 41, 192, 104
-1.00177, 113, 257, 240, 320
-1.00179, 1, 33, 256, 96
-1.00184, 65, 25, 192, 88
-1.00199, 305, 217, 368, 280
-1.00211, 33, 1, 288, 64
-1.00221, 281, 241, 344, 304
-1.00236, 193, 73, 256, 136
-1.00247, 85, 1, 116, 128
-1.0025, 1, 33, 128, 96
-1.00262, 241, 33, 304, 160
-1.0028, 17, 9, 144, 72
-1.00282, 281, 33, 344, 160
-1.00283, 209, 33, 272, 160
-1.00285, 225, 41, 352, 104
-1.00285, 177, 49, 304, 112
-1.00286, 89, 233, 152, 296
-1.00291, 81, 1, 208, 64
-1.00291, 177, 1, 304, 64
-1.00291, 129, 9, 256, 72
-1.00291, 225, 17, 352, 80
-1.00291, 177, 25, 304, 88
-1.00336, 177, 33, 208, 160
-1.00354, 129, 209, 192, 336
-1.00367, 257, 81, 320, 144
-1.00404, 253, 33, 284, 160
-1.0041, 153, 33, 216, 160
-1.00426, 229, 33, 260, 160
-1.00474, 177, 33, 304, 160
-1.01253, 225, 17, 352, 144
-1.01275, 185, 33, 248, 160
-1.01445, 305, 1, 368, 128
