1972
-0.369881, 1, 1, 500, 375
-0.446154, 1, 129, 500, 375
-0.485313, 225, 1, 480, 375
-0.501796, 97, 1, 352, 375
-0.520035, 1, 33, 500, 288
-0.627043, 1, 1, 256, 375
-0.627282, 257, 129, 500, 375
-0.65167, 33, 129, 288, 375
-0.794907, 161, 129, 416, 375
-0.797036, 193, 33, 448, 288
-0.825747, 65, 33, 320, 288
-0.849405, 337, 129, 464, 375
-0.866138, 241, 1, 368, 375
-0.879393, 1, 209, 500, 336
-0.880054, 49, 129, 176, 375
-0.881664, 193, 1, 320, 375
-0.884142, 113, 1, 240, 375
-0.888863, 1, 97, 128, 352
-0.892088, 273, 129, 400, 375
-0.893341, 1, 145, 500, 272
-0.895125, 161, 241, 416, 368
-0.90169, 257, 225, 500, 352
-0.902952, 193, 129, 320, 375
-0.906839, 145, 129, 272, 375
-0.906944, 65, 1, 192, 375
-0.910317, 369, 1, 496, 375
-0.911726, 1, 1, 128, 375
-0.911776, 33, 209, 288, 336
-0.912091, 161, 193, 416, 320
-0.91423, 33, 161, 288, 288
-0.914234, 321, 1, 448, 375
-0.922255, 1, 1, 128, 256
-0.922277, 1, 97, 500, 224
-0.922882, 225, 145, 480, 272
-0.925508, 193, 225, 320, 352
-0.931334, 257, 33, 384, 288
-0.931391, 97, 129, 224, 375
-0.934155, 353, 145, 480, 272
-0.934694, 65, 145, 128, 272
-0.934867, 369, 33, 496, 288
-0.935175, 17, 177, 144, 304
-0.935222, 353, 209, 480, 336
-0.938785, 129, 241, 256, 368
-0.93956, 137, 225, 200, 352
-0.93956, 209, 1, 336, 256
-0.941126, 273, 241, 400, 368
-0.94173, 81, 1, 208, 256
-0.941884, 1, 129, 128, 256
-0.942702, 161, 241, 224, 368
-0.942964, 225, 177, 288, 304
-0.943141, 257, 225, 320, 352
-0.943967, 161, 33, 288, 288
-0.944291, 193, 225, 256, 352
-0.94451, 433, 241, 496, 368
-0.944561, 393, 145, 456, 272
-0.944605, 1, 1, 500, 128
-0.945074, 289, 193, 416, 320
-0.94628, 129, 1, 384, 128
-0.946331, 321, 33, 448, 288
-0.947209, 193, 177, 320, 304
-0.947232, 265, 281, 328, 344
-0.948236, 361, 145, 424, 272
-0.949381, 81, 209, 208, 336
-0.950341, 65, 113, 320, 240
-0.951609, 113, 225, 176, 352
-0.951821, 305, 225, 368, 352
-0.952623, 417, 161, 480, 288
-0.953323, 329, 177, 392, 304
-0.954245, 25, 209, 88, 336
-0.955466, 353, 97, 480, 224
-0.955787, 153, 289, 216, 352
-0.956665, 225, 201, 288, 264
-0.956888, 25, 145, 88, 272
-0.956888, 369, 193, 432, 320
-0.957219, 393, 209, 456, 336
-0.957379, 257, 257, 320, 320
-0.958811, 177, 1, 304, 128
-0.959014, 241, 289, 304, 352
-0.959891, 329, 265, 392, 328
-0.960286, 193, 97, 448, 224
-0.960431, 169, 249, 232, 312
-0.960913, 65, 169, 128, 232
-0.961062, 361, 153, 424, 216
-0.961295, 145, 177, 272, 304
-0.961441, 89, 177, 152, 304
-0.961526, 345, 193, 408, 256
-0.961532, 201, 177, 264, 304
-0.961664, 25, 193, 88, 256
-0.961921, 241, 145, 368, 272
-0.962175, 49, 129, 176, 256
-0.962916, 1, 49, 500, 176
-0.963042, 233, 241, 296, 368
-0.963695, 201, 281, 264, 344
-0.963788, 209, 1, 272, 128
-0.963897, 329, 225, 392, 352
-0.963937, 369, 209, 432, 272
-0.964178, 281, 241, 344, 368
-0.964199, 289, 241, 352, 304
-0.964391, 305, 97, 432, 224
-0.964659, 241, 233, 304, 296
-0.964855, 393, 209, 456, 272
-0.965125, 177, 1, 240, 128
-0.965374, 241, 193, 368, 320
-0.965494, 393, 137, 456, 200
-0.965761, 73, 193, 136, 256
-0.966023, 281, 193, 344, 320
-0.966038, 241, 1, 368, 128
-0.966044, 225, 265, 288, 328
-0.966067, 433, 305, 496, 368
-0.966273, 401, 169, 464, 232
-0.966338, 305, 265, 368, 328
-0.966493, 289, 297, 352, 360
-0.967077, 57, 145, 120, 208
-0.967314, 1, 225, 128, 352
-0.96765, 177, 289, 240, 352
-0.968001, 329, 241, 392, 304
-0.968011, 433, 281, 496, 344
-0.968153, 353, 161, 480, 224
-0.96849, 97, 281, 160, 344
-0.968505, 193, 241, 256, 304
-0.968642, 241, 1, 304, 128
-0.968738, 129, 1, 256, 128
-0.969235, 193, 233, 320, 296
-0.969249, 353, 281, 416, 344
-0.969254, 137, 241, 200, 304
-0.969336, 305, 145, 432, 272
-0.969525, 417, 201, 480, 264
-0.96962, 1, 81, 128, 208
-0.969671, 177, 177, 240, 304
-0.969756, 313, 297, 376, 360
-0.969872, 329, 217, 392, 280
-0.970288, 193, 305, 320, 368
-0.970339, 121, 305, 184, 368
-0.970451, 185, 241, 216, 368
-0.970553, 265, 313, 328, 375
-0.97081, 33, 49, 288, 176
-0.970821, 1, 305, 64, 368
-0.970917, 201, 313, 264, 375
-0.970924, 17, 193, 144, 256
-0.970938, 377, 97, 440, 224
-0.971022, 49, 193, 112, 320
-0.97125, 273, 249, 400, 312
-0.971262, 1, 161, 64, 288
-0.971316, 353, 257, 416, 320
-0.971456, 57, 97, 120, 224
-0.971461, 285, 241, 316, 368
-0.971619, 193, 65, 320, 192
-0.971817, 417, 257, 480, 320
-0.972153, 25, 169, 88, 232
-0.972241, 225, 1, 480, 128
-0.972337, 97, 217, 160, 280
-0.972395, 17, 145, 80, 208
-0.972526, 169, 225, 200, 352
-0.972718, 25, 97, 88, 224
-0.972753, 217, 225, 280, 288
-0.97278, 277, 257, 308, 320
-0.972995, 433, 233, 496, 296
-0.973134, 241, 313, 304, 375
-0.973182, 209, 273, 336, 336
-0.973276, 129, 289, 256, 352
-0.973431, 161, 313, 224, 375
-0.973467, 177, 217, 240, 280
-0.973585, 1, 225, 64, 352
-0.974067, 377, 177, 440, 240
-0.974174, 337, 273, 464, 336
-0.9742, 1, 153, 128, 216
-0.974323, 209, 225, 240, 352
-0.974335, 25, 313, 88, 375
-0.974703, 257, 273, 384, 336
-0.974803, 113, 145, 176, 272
-0.974834, 353, 217, 480, 280
-0.974927, 401, 233, 464, 296
-0.974962, 193, 209, 320, 272
-0.975013, 65, 129, 128, 375
-0.975106, 281, 217, 344, 280
-0.975128, 289, 281, 320, 344
-0.975231, 129, 129, 256, 256
-0.975376, 129, 313, 256, 375
-0.975525, 249, 289, 280, 352
-0.97587, 157, 225, 188, 352
-0.976048, 381, 209, 412, 272
-0.976049, 353, 241, 416, 368
-0.9761, 321, 185, 384, 248
-0.976117, 249, 177, 312, 304
-0.976152, 33, 1, 288, 128
-0.976462, 89, 225, 152, 352
-0.976626, 261, 289, 292, 352
-0.976646, 241, 297, 368, 360
-0.976675, 41, 217, 104, 280
-0.976776, 457, 241, 488, 368
-0.976788, 197, 225, 228, 352
-0.97684, 389, 97, 420, 224
-0.976847, 373, 145, 404, 272
-0.976904, 417, 145, 448, 208
-0.976991, 193, 49, 448, 176
-0.977028, 409, 129, 440, 256
-0.977118, 5, 169, 36, 232
-0.977121, 49, 313, 112, 375
-0.977195, 141, 225, 172, 352
-0.977298, 417, 137, 480, 200
-0.977535, 17, 233, 80, 296
-0.977657, 369, 121, 432, 184
-0.977736, 49, 217, 176, 280
-0.977786, 249, 209, 312, 272
-0.977787, 233, 177, 264, 304
-0.977846, 189, 249, 220, 312
-0.977913, 421, 145, 452, 272
-0.977958, 353, 241, 480, 304
-0.977994, 241, 209, 368, 272
-0.978012, 129, 209, 256, 272
-0.978065, 425, 169, 488, 232
-0.978109, 269, 233, 300, 296
-0.978247, 409, 281, 472, 344
-0.978285, 393, 145, 424, 272
-0.978339, 33, 313, 64, 375
-0.978437, 181, 289, 212, 352
-0.978443, 357, 249, 388, 312
-0.978619, 209, 241, 240, 304
-0.978677, 241, 97, 368, 224
-0.978702, 161, 265, 288, 328
-0.978761, 137, 217, 200, 280
-0.978789, 65, 281, 128, 344
-0.97882, 261, 265, 292, 328
-0.978881, 405, 209, 436, 272
-0.978929, 393, 129, 456, 375
-0.979003, 209, 33, 272, 96
-0.97903, 445, 257, 476, 320
-0.979132, 49, 121, 112, 184
-0.979152, 345, 129, 408, 375
-0.979203, 233, 129, 296, 375
-0.979219, 97, 169, 128, 232
-0.979265, 353, 161, 384, 288
-0.979308, 89, 129, 152, 256
-0.979324, 129, 241, 256, 304
-0.979384, 289, 193, 416, 256
-0.979395, 273, 241, 304, 368
-0.979407, 49, 193, 112, 256
-0.979423, 269, 313, 300, 375
-0.979452, 289, 297, 416, 360
-0.979529, 97, 161, 128, 288
-0.979567, 33, 305, 160, 368
-0.979567, 153, 1, 216, 128
-0.979727, 257, 193, 288, 320
-0.979788, 41, 129, 104, 375
-0.979877, 201, 289, 232, 352
-0.979969, 441, 161, 472, 288
-0.979979, 113, 241, 176, 304
-0.980064, 449, 281, 480, 344
-0.980074, 369, 185, 496, 248
-0.980107, 161, 281, 192, 344
-0.980121, 81, 305, 144, 368
-0.980122, 29, 225, 60, 352
-0.980147, 405, 145, 436, 208
-0.980197, 393, 209, 424, 272
-0.980287, 69, 129, 100, 256
-0.980362, 137, 177, 200, 304
-0.980397, 369, 129, 432, 375
-0.980402, 445, 241, 476, 368
-0.980435, 409, 209, 440, 336
-0.98047, 369, 201, 400, 264
-0.980499, 465, 265, 496, 328
-0.980586, 173, 249, 204, 312
-0.980714, 337, 129, 400, 256
-0.980845, 369, 233, 432, 296
-0.980915, 77, 145, 108, 208
-0.980971, 201, 201, 264, 264
-0.981038, 437, 137, 468, 200
-0.981104, 265, 1, 328, 128
-0.981107, 25, 281, 88, 344
-0.981216, 249, 41, 312, 104
-0.9813, 397, 209, 428, 336
-0.981425, 429, 209, 460, 272
-0.981431, 229, 193, 260, 256
-0.981451, 209, 49, 272, 176
-0.981466, 249, 17, 312, 80
-0.981477, 469, 209, 500, 336
-0.981833, 389, 113, 420, 176
-0.981999, 193, 129, 320, 256
-0.982007, 81, 289, 208, 352
-0.982022, 417, 129, 480, 375
-0.982043, 149, 289, 180, 352
-0.982073, 425, 209, 456, 336
-0.982165, 305, 49, 432, 176
-0.982371, 129, 281, 192, 344
-0.982452, 209, 265, 240, 328
-0.98248, 169, 9, 232, 72
-0.982486, 81, 129, 112, 256
-0.982487, 145, 49, 272, 176
-0.98249, 225, 225, 256, 288
-0.982498, 337, 209, 368, 336
-0.982533, 305, 217, 432, 280
-0.982581, 353, 177, 384, 240
-0.982585, 417, 113, 480, 240
-0.98272, 341, 257, 372, 320
-0.98274, 289, 9, 352, 72
-0.982762, 417, 217, 448, 280
-0.982835, 257, 185, 320, 248
-0.9829, 257, 201, 288, 264
-0.982954, 33, 281, 160, 344
-0.983014, 129, 225, 160, 352
-0.983023, 353, 137, 480, 200
-0.983045, 1, 217, 128, 280
-0.983126, 273, 145, 336, 272
-0.983149, 113, 193, 144, 320
-0.983151, 189, 313, 220, 375
-0.983172, 65, 81, 192, 208
-0.983238, 1, 169, 64, 232
-0.983294, 205, 1, 236, 128
-0.983342, 221, 193, 252, 320
-0.983379, 245, 193, 276, 320
-0.983393, 273, 289, 304, 352
-0.98341, 257, 241, 288, 368
-0.983441, 373, 97, 404, 224
-0.983455, 453, 305, 484, 368
-0.983481, 445, 233, 476, 296
-0.983546, 9, 161, 40, 288
-0.983651, 149, 241, 180, 304
-0.983698, 81, 249, 208, 312
-0.983704, 161, 241, 192, 304
-0.983826, 217, 129, 280, 256
-0.983833, 177, 49, 240, 176
-0.983875, 97, 129, 160, 375
-0.984078, 49, 241, 112, 368
-0.984112, 241, 185, 368, 248
-0.984117, 121, 217, 152, 280
-0.984158, 233, 289, 264, 352
-0.984169, 89, 161, 152, 224
-0.984176, 49, 169, 176, 232
-0.984206, 189, 225, 220, 288
-0.984248, 305, 209, 368, 272
-0.984281, 249, 49, 312, 176
-0.984282, 141, 313, 172, 375
-0.984306, 225, 177, 288, 240
-0.984322, 353, 273, 384, 336
-0.984376, 425, 169, 456, 232
-0.984393, 17, 65, 80, 320
-0.98446, 257, 225, 288, 288
-0.984473, 1, 129, 128, 192
-0.9845, 441, 209, 472, 272
-0.984525, 29, 289, 60, 352
-0.984536, 337, 297, 464, 360
-0.984556, 381, 153, 412, 216
-0.984579, 437, 305, 468, 368
-0.984658, 177, 129, 240, 375
-0.984685, 161, 25, 288, 88
-0.984807, 65, 193, 192, 256
-0.984845, 89, 129, 152, 192
-0.984851, 65, 225, 128, 288
-0.984855, 185, 193, 216, 320
-0.98496, 369, 161, 400, 224
-0.984969, 1, 201, 64, 264
-0.985012, 305, 297, 336, 360
-0.98502, 21, 313, 52, 375
-0.985223, 385, 193, 416, 320
-0.985251, 249, 1, 312, 375
-0.985259, 361, 209, 392, 336
-0.985319, 377, 281, 440, 344
-0.985321, 373, 193, 404, 320
-0.985391, 397, 177, 428, 240
-0.985391, 457, 241, 488, 304
-0.985402, 369, 257, 400, 320
-0.98542, 209, 9, 272, 72
-0.985527, 245, 249, 276, 312
-0.985536, 245, 201, 276, 264
-0.985571, 269, 193, 300, 320
-0.98559, 209, 313, 240, 375
-0.985625, 241, 65, 304, 128
-0.985636, 193, 1, 224, 128
-0.985695, 1, 113, 64, 240
-0.985776, 1, 105, 128, 168
-0.985796, 249, 313, 280, 375
-0.985826, 209, 217, 240, 280
-0.985843, 437, 169, 468, 232
-0.985872, 457, 193, 488, 320
-0.985893, 273, 33, 336, 96
-0.985922, 337, 233, 368, 296
-0.985992, 293, 313, 324, 375
-0.986005, 81, 313, 208, 375
-0.986119, 113, 169, 176, 232
-0.986175, 105, 193, 136, 256
-0.986265, 57, 257, 120, 320
-0.986287, 209, 177, 240, 304
-0.986303, 241, 49, 368, 176
-0.986328, 137, 241, 168, 304
-0.986338, 65, 161, 96, 224
-0.986339, 81, 81, 144, 208
-0.98636, 289, 257, 320, 320
-0.986438, 69, 201, 100, 264
-0.986555, 69, 177, 100, 304
-0.986576, 201, 177, 264, 240
-0.9867, 313, 113, 376, 240
-0.98685, 101, 281, 132, 344
-0.986857, 241, 57, 368, 120
-0.987009, 45, 225, 76, 352
-0.98707, 253, 1, 284, 128
-0.987089, 113, 185, 240, 248
-0.987108, 297, 185, 360, 248
-0.987286, 161, 185, 288, 248
-0.987349, 241, 129, 304, 256
-0.987352, 305, 153, 432, 216
-0.987438, 433, 273, 464, 336
-0.987454, 309, 225, 340, 352
-0.9876, 81, 257, 144, 320
-0.98766, 453, 209, 484, 272
-0.98766, 21, 177, 52, 304
-0.987955, 257, 129, 320, 375
-0.988002, 381, 185, 412, 248
-0.988023, 469, 225, 500, 288
-0.988053, 241, 25, 368, 88
-0.988092, 297, 33, 360, 96
-0.988109, 209, 1, 272, 375
-0.98813, 233, 249, 264, 312
-0.988145, 265, 285, 328, 316
-0.98815, 377, 257, 440, 320
-0.988218, 49, 217, 80, 280
-0.988242, 289, 1, 352, 128
-0.988261, 209, 97, 272, 352
-0.988315, 125, 305, 156, 368
-0.988379, 73, 105, 136, 168
-0.988379, 17, 289, 48, 352
-0.988387, 285, 209, 316, 272
-0.988389, 209, 57, 272, 120
-0.988428, 329, 129, 392, 192
-0.988472, 53, 177, 84, 304
-0.988563, 81, 177, 112, 304
-0.988607, 433, 249, 464, 312
-0.988667, 185, 33, 248, 96
-0.988708, 129, 297, 384, 360
-0.988712, 49, 145, 176, 208
-0.988747, 25, 233, 56, 296
-0.988827, 253, 17, 284, 80
-0.988854, 153, 293, 216, 324
-0.988891, 85, 169, 116, 232
-0.988907, 93, 113, 124, 240
-0.988933, 137, 129, 200, 375
-0.988943, 245, 241, 276, 368
-0.988958, 409, 81, 440, 208
-0.989007, 89, 145, 120, 208
-0.989011, 177, 217, 208, 280
-0.989068, 409, 305, 472, 368
-0.989092, 69, 113, 100, 176
-0.989106, 141, 217, 172, 280
-0.989232, 393, 221, 456, 252
-0.989241, 317, 273, 348, 336
-0.989254, 185, 1, 248, 375
-0.989275, 253, 145, 284, 272
-0.989305, 49, 113, 176, 176
-0.989323, 33, 209, 288, 272
-0.989336, 193, 65, 320, 128
-0.989341, 289, 129, 352, 375
-0.989346, 329, 161, 392, 224
-0.989353, 153, 313, 216, 344
-0.989367, 193, 201, 448, 264
-0.989382, 25, 205, 88, 236
-0.989384, 469, 305, 500, 368
-0.989394, 257, 273, 320, 304
-0.989397, 97, 161, 224, 224
-0.989402, 257, 281, 500, 344
-0.989406, 305, 129, 432, 192
-0.989457, 393, 157, 456, 188
-0.989463, 193, 1, 320, 64
-0.989475, 453, 185, 484, 248
-0.989529, 1, 281, 64, 344
-0.989544, 25, 201, 56, 264
-0.989552, 265, 297, 328, 328
-0.989601, 369, 213, 432, 244
-0.989602, 217, 1, 248, 128
-0.989659, 81, 33, 144, 288
-0.989709, 321, 241, 352, 368
-0.989724, 409, 173, 472, 204
-0.989745, 425, 297, 456, 360
-0.989751, 241, 245, 304, 276
-0.989775, 345, 205, 408, 236
-0.989779, 113, 1, 176, 375
-0.989784, 109, 313, 140, 375
-0.989786, 209, 237, 272, 268
-0.989801, 17, 345, 80, 375
-0.989822, 341, 297, 372, 360
-0.989865, 241, 293, 304, 324
-0.989865, 365, 281, 396, 344
-0.989875, 141, 265, 172, 328
-0.989882, 201, 345, 264, 375
-0.989903, 25, 217, 88, 248
-0.989911, 329, 277, 392, 308
-0.989917, 273, 1, 336, 375
-0.989961, 233, 225, 264, 352
-0.989973, 393, 153, 424, 216
-0.989996, 385, 1, 448, 375
-0.990002, 17, 193, 80, 224
-0.99001, 241, 129, 272, 256
-0.990025, 65, 169, 128, 200
-0.990028, 245, 225, 276, 288
-0.990035, 329, 257, 392, 288
-0.990047, 45, 289, 76, 352
-0.990054, 161, 273, 416, 336
-0.990088, 409, 177, 440, 240
-0.9901, 229, 313, 260, 375
-0.990129, 193, 305, 256, 336
-0.990132, 1, 313, 64, 344
-0.990142, 145, 17, 208, 80
-0.990148, 17, 241, 144, 304
-0.990153, 265, 333, 328, 364
-0.990188, 361, 165, 424, 196
-0.990194, 249, 257, 312, 288
-0.9902, 97, 193, 160, 256
-0.990214, 57, 345, 120, 375
-0.990246, 225, 201, 288, 232
-0.990277, 81, 121, 112, 184
-0.990296, 297, 233, 328, 296
-0.990303, 73, 193, 136, 224
-0.990311, 201, 317, 264, 348
-0.990334, 425, 345, 488, 375
-0.990358, 9, 333, 72, 364
-0.990405, 289, 261, 352, 292
-0.990425, 177, 289, 240, 320
-0.990444, 241, 305, 304, 336
-0.990493, 49, 97, 112, 160
-0.990504, 305, 289, 368, 320
-0.990511, 221, 241, 252, 368
-0.99052, 129, 325, 192, 356
-0.99053, 65, 225, 96, 288
-0.990532, 225, 225, 288, 256
-0.990533, 225, 333, 288, 364
-0.99055, 289, 325, 352, 356
-0.990571, 225, 281, 288, 312
-0.990576, 153, 313, 184, 375
-0.990579, 113, 25, 240, 88
-0.990579, 161, 1, 224, 375
-0.99059, 285, 193, 316, 320
-0.990592, 409, 113, 472, 176
-0.990597, 409, 145, 472, 176
-0.990597, 177, 253, 240, 284
-0.990607, 153, 217, 184, 280
-0.990609, 89, 289, 120, 352
-0.990636, 233, 1, 264, 128
-0.990637, 113, 301, 176, 332
-0.990647, 137, 1, 200, 375
-0.99066, 97, 345, 160, 375
-0.99067, 17, 1, 80, 375
-0.99069, 181, 1, 212, 128
-0.990707, 201, 329, 264, 360
-0.990726, 305, 305, 368, 336
-0.990728, 177, 241, 240, 272
-0.990744, 161, 325, 224, 356
-0.990751, 265, 317, 328, 348
-0.990754, 213, 49, 244, 176
-0.990767, 65, 181, 128, 212
-0.990786, 257, 257, 500, 320
-0.990803, 233, 269, 296, 300
-0.990819, 17, 173, 80, 204
-0.990828, 329, 217, 392, 248
-0.990833, 321, 129, 384, 375
-0.990842, 241, 161, 368, 224
-0.990845, 329, 297, 360, 360
-0.99085, 201, 293, 264, 324
-0.99086, 433, 257, 496, 288
-0.99087, 205, 9, 236, 72
-0.990879, 89, 221, 152, 252
-0.990882, 241, 1, 368, 64
-0.990884, 433, 293, 496, 324
-0.990902, 417, 217, 480, 248
-0.990904, 257, 233, 500, 296
-0.990915, 13, 193, 44, 256
-0.990928, 289, 249, 352, 280
-0.990935, 349, 241, 380, 368
-0.990936, 209, 253, 272, 284
-0.990948, 369, 201, 432, 232
-0.990985, 385, 145, 448, 176
-0.991003, 249, 29, 312, 60
-0.991012, 433, 245, 496, 276
-0.991017, 417, 205, 480, 236
-0.991039, 77, 81, 108, 208
-0.991049, 433, 305, 496, 336
-0.99108, 161, 337, 224, 368
-0.991089, 121, 193, 184, 256
-0.991101, 417, 281, 480, 312
-0.991104, 253, 57, 284, 120
-0.991114, 297, 241, 328, 368
-0.991116, 225, 321, 288, 352
-0.991142, 257, 345, 320, 375
-0.991146, 289, 273, 352, 304
-0.991185, 65, 241, 320, 304
-0.991185, 201, 273, 264, 304
-0.991189, 349, 209, 380, 272
-0.991192, 121, 341, 184, 372
-0.991223, 361, 177, 424, 208
-0.991239, 137, 245, 200, 276
-0.991316, 209, 81, 272, 144
-0.991339, 225, 213, 288, 244
-0.99134, 273, 225, 336, 256
-0.991343, 393, 209, 456, 240
-0.991362, 33, 145, 64, 272
-0.991388, 217, 121, 280, 184
-0.991404, 129, 313, 192, 344
-0.991406, 97, 233, 160, 264
-0.991408, 217, 25, 280, 56
-0.991418, 89, 289, 152, 320
-0.991421, 49, 197, 112, 228
-0.991422, 177, 13, 240, 44
-0.991423, 337, 209, 368, 272
-0.991429, 33, 333, 96, 364
-0.99144, 193, 113, 256, 240
-0.991455, 401, 337, 464, 368
-0.99147, 33, 313, 288, 375
-0.991485, 221, 289, 252, 352
-0.991487, 161, 225, 416, 288
-0.991499, 329, 245, 392, 276
-0.991507, 153, 281, 216, 312
-0.99151, 401, 121, 432, 184
-0.991522, 137, 233, 200, 264
-0.991534, 177, 25, 240, 56
-0.991536, 369, 225, 432, 256
-0.991539, 57, 157, 120, 188
-0.991548, 425, 229, 488, 260
-0.991561, 265, 237, 328, 268
-0.991572, 369, 49, 496, 176
-0.991572, 393, 233, 456, 264
-0.991577, 161, 249, 416, 312
-0.991583, 265, 1, 296, 128
-0.991599, 33, 289, 288, 352
-0.991601, 41, 181, 104, 212
-0.991617, 25, 229, 88, 260
-0.991621, 81, 1, 208, 128
-0.991626, 81, 329, 144, 360
-0.991631, 353, 289, 416, 320
-0.991673, 321, 189, 384, 220
-0.991685, 281, 233, 312, 296
-0.991705, 321, 205, 384, 236
-0.991705, 289, 29, 352, 60
-0.991726, 369, 33, 432, 288
-0.99173, 33, 169, 288, 232
-0.991733, 41, 321, 104, 352
-0.991739, 329, 1, 392, 375
-0.991743, 289, 237, 352, 268
-0.991746, 129, 289, 192, 320
-0.991754, 97, 313, 160, 344
-0.991758, 369, 121, 432, 152
-0.991765, 1, 145, 32, 208
-0.991774, 17, 161, 80, 192
-0.991776, 409, 33, 472, 288
-0.991783, 169, 229, 232, 260
-0.991789, 257, 313, 500, 375
-0.991799, 433, 321, 496, 352
-0.991804, 297, 193, 328, 320
-0.99182, 161, 113, 288, 176
-0.991831, 65, 293, 128, 324
-0.991848, 81, 265, 112, 328
-0.991851, 329, 297, 392, 328
-0.991852, 57, 193, 88, 256
-0.991852, 209, 13, 272, 44
-0.991863, 25, 309, 88, 340
-0.991872, 185, 217, 248, 248
-0.991878, 361, 153, 424, 184
-0.991881, 353, 273, 416, 304
-0.991884, 433, 333, 496, 364
-0.991885, 233, 345, 296, 375
-0.991933, 89, 181, 152, 212
-0.991933, 257, 213, 320, 244
-0.991936, 49, 225, 112, 256
-0.991944, 425, 161, 488, 192
-0.991954, 57, 113, 120, 144
-0.991963, 329, 65, 392, 192
-0.991963, 249, 65, 312, 96
-0.991976, 249, 17, 312, 48
-0.991981, 409, 245, 472, 276
-0.992007, 329, 257, 360, 320
-0.992009, 105, 325, 168, 356
-0.992012, 161, 41, 224, 104
-0.992033, 397, 233, 428, 296
-0.99204, 57, 213, 120, 244
-0.992044, 353, 1, 416, 375
-0.992088, 197, 177, 228, 304
-0.992095, 9, 105, 72, 168
-0.992097, 177, 193, 240, 256
-0.992115, 57, 225, 88, 352
-0.992156, 385, 313, 448, 375
-0.992178, 65, 1, 128, 375
-0.992271, 1, 65, 64, 192
-0.992275, 81, 193, 112, 256
-0.992287, 397, 217, 428, 248
-0.992297, 373, 205, 404, 236
-0.992309, 93, 181, 124, 212
-0.992322, 149, 177, 180, 304
-0.992346, 385, 281, 416, 344
-0.992352, 453, 345, 484, 375
-0.992359, 129, 1, 192, 128
-0.992366, 305, 1, 368, 375
-0.992376, 1, 113, 32, 240
-0.992384, 265, 329, 296, 360
-0.99239, 281, 273, 312, 304
-0.992399, 185, 289, 216, 320
-0.992428, 453, 145, 484, 272
-0.992445, 273, 57, 336, 120
-0.992447, 317, 217, 348, 280
-0.99246, 281, 313, 312, 375
-0.992499, 1, 169, 32, 200
-0.992509, 233, 145, 296, 208
-0.992512, 253, 289, 284, 320
-0.992515, 385, 213, 416, 244
-0.992535, 33, 333, 64, 364
-0.992538, 357, 253, 388, 284
-0.992545, 193, 89, 320, 152
-0.992599, 273, 257, 304, 288
-0.9926, 409, 217, 440, 248
-0.992602, 209, 345, 240, 375
-0.992611, 161, 293, 192, 324
-0.992612, 265, 289, 296, 320
-0.992616, 469, 161, 500, 288
-0.992628, 81, 1, 208, 64
-0.992628, 209, 245, 240, 276
-0.992682, 417, 145, 448, 176
-0.992711, 437, 169, 468, 200
-0.992711, 409, 1, 472, 375
-0.992716, 337, 313, 400, 375
-0.992732, 265, 237, 296, 268
-0.992732, 129, 1, 256, 64
-0.992743, 421, 217, 452, 248
-0.992752, 193, 253, 224, 284
-0.992755, 153, 313, 184, 344
-0.992767, 257, 341, 288, 372
-0.992767, 293, 293, 324, 324
-0.992769, 449, 293, 480, 324
-0.992776, 321, 105, 448, 168
-0.992776, 25, 301, 56, 332
-0.992789, 1, 33, 128, 160
-0.992796, 201, 301, 232, 332
-0.992804, 437, 141, 468, 172
-0.992811, 277, 337, 308, 368
-0.992812, 109, 345, 140, 375
-0.992812, 201, 285, 232, 316
-0.992814, 389, 117, 420, 148
-0.992818, 453, 261, 484, 292
-0.99282, 337, 261, 368, 292
-0.992821, 137, 325, 168, 356
-0.992823, 249, 329, 280, 360
-0.992833, 409, 65, 472, 192
-0.992837, 433, 337, 464, 368
-0.992844, 441, 281, 472, 312
-0.992852, 265, 269, 296, 300
-0.992855, 197, 329, 228, 360
-0.992866, 321, 33, 384, 96
-0.992874, 125, 337, 156, 368
-0.992875, 257, 177, 500, 240
-0.992876, 209, 329, 240, 360
-0.992885, 417, 161, 448, 192
-0.992886, 305, 317, 336, 348
-0.992891, 397, 153, 428, 184
-0.992892, 441, 113, 472, 240
-0.992894, 221, 237, 252, 268
-0.992896, 89, 169, 120, 200
-0.992901, 253, 29, 284, 60
-0.992912, 253, 301, 284, 332
-0.992921, 69, 173, 100, 204
-0.992924, 385, 201, 416, 232
-0.992929, 129, 177, 160, 304
-0.992933, 433, 209, 464, 240
-0.992934, 253, 277, 284, 308
-0.992934, 185, 301, 216, 332
-0.992937, 65, 89, 192, 152
-0.992939, 373, 161, 404, 192
-0.99294, 141, 301, 172, 332
-0.992944, 357, 189, 388, 220
-0.992947, 313, 305, 344, 336
-0.992948, 457, 305, 488, 336
-0.992948, 421, 173, 452, 204
-0.992952, 181, 313, 212, 344
-0.992957, 289, 329, 320, 360
-0.992969, 13, 321, 44, 352
-0.992971, 29, 321, 60, 352
-0.992971, 9, 241, 40, 368
-0.992972, 141, 229, 172, 260
-0.992981, 101, 289, 132, 320
-0.992981, 373, 221, 404, 252
-0.992989, 265, 301, 296, 332
-0.99299, 45, 345, 76, 375
-0.992991, 365, 273, 396, 304
-0.993001, 417, 229, 448, 260
-0.993002, 209, 265, 240, 296
-0.993006, 353, 277, 384, 308
-0.993007, 233, 269, 264, 300
-0.993008, 149, 245, 180, 276
-0.993014, 201, 317, 232, 348
-0.99302, 229, 317, 260, 348
-0.993023, 77, 161, 108, 192
-0.993024, 173, 249, 204, 280
-0.993033, 385, 161, 416, 192
-0.993036, 433, 221, 464, 252
-0.993039, 241, 89, 368, 152
-0.99304, 261, 225, 292, 256
-0.993049, 165, 281, 196, 312
-0.99305, 277, 321, 308, 352
-0.993053, 193, 341, 224, 372
-0.993055, 281, 285, 312, 316
-0.993057, 121, 225, 152, 256
-0.993058, 245, 317, 276, 348
-0.993058, 229, 345, 260, 375
-0.99306, 149, 325, 180, 356
-0.993075, 405, 165, 436, 196
-0.993075, 465, 249, 496, 280
-0.99308, 245, 345, 276, 375
-0.99308, 357, 201, 388, 232
-0.993082, 229, 201, 260, 232
-0.993084, 445, 241, 476, 272
-0.993084, 185, 329, 216, 360
-0.993085, 237, 329, 268, 360
-0.993085, 101, 197, 132, 228
-0.993088, 229, 257, 260, 288
-0.993092, 61, 197, 92, 228
-0.993096, 89, 293, 120, 324
-0.993096, 165, 309, 196, 340
-0.9931, 141, 313, 172, 344
-0.9931, 77, 149, 108, 180
-0.993101, 205, 13, 236, 44
-0.993108, 17, 341, 48, 372
-0.993112, 253, 261, 284, 292
-0.993117, 193, 237, 224, 268
-0.993119, 257, 205, 288, 236
-0.99312, 269, 29, 300, 60
-0.993122, 193, 245, 320, 276
-0.993129, 453, 197, 484, 228
-0.993139, 337, 245, 368, 276
-0.993141, 221, 333, 252, 364
-0.993142, 77, 193, 108, 224
-0.993146, 285, 261, 316, 292
-0.993148, 241, 281, 272, 312
-0.993153, 277, 245, 308, 276
-0.993155, 277, 225, 308, 256
-0.993156, 173, 293, 204, 324
-0.993159, 253, 245, 284, 276
-0.993163, 209, 217, 240, 248
-0.993165, 441, 253, 472, 284
-0.993166, 225, 225, 256, 256
-0.993168, 293, 29, 324, 60
-0.993169, 185, 277, 216, 308
-0.993171, 241, 201, 272, 232
-0.993176, 469, 293, 500, 324
-0.993179, 229, 129, 260, 256
-0.993189, 257, 153, 500, 216
-0.993246, 209, 113, 336, 176
-0.993277, 117, 145, 148, 272
-0.99336, 1, 201, 500, 264
-0.993366, 321, 9, 384, 72
-0.993465, 57, 97, 88, 224
-0.99355, 1, 257, 500, 320
-0.993609, 273, 257, 400, 288
-0.993632, 129, 89, 256, 152
-0.993638, 345, 105, 408, 168
-0.993654, 305, 161, 368, 288
-0.993687, 17, 185, 144, 216
-0.993689, 277, 145, 308, 272
-0.993725, 389, 49, 420, 176
-0.993748, 169, 1, 200, 128
-0.993748, 193, 233, 320, 264
-0.993756, 321, 221, 448, 252
-0.993799, 177, 329, 304, 360
-0.993809, 113, 325, 240, 356
-0.993854, 21, 97, 52, 224
-0.993862, 177, 317, 304, 348
-0.99387, 113, 337, 240, 368
-0.993878, 369, 213, 496, 244
-0.993921, 193, 145, 320, 208
-0.99394, 1, 201, 128, 232
-0.993966, 97, 137, 224, 200
-0.993971, 265, 145, 296, 272
-0.994062, 249, 113, 312, 176
-0.994079, 273, 281, 400, 312
-0.994085, 257, 137, 384, 200
-0.994173, 49, 225, 176, 256
-0.994179, 433, 1, 496, 375
-0.994184, 33, 257, 96, 320
-0.994223, 173, 177, 204, 304
-0.994241, 283, 241, 298, 304
-0.994254, 1, 341, 128, 372
-0.994259, 433, 113, 496, 176
-0.994348, 1, 313, 500, 375
-0.99436, 353, 177, 480, 208
-0.994384, 369, 113, 496, 176
-0.994404, 297, 1, 360, 256
-0.994426, 265, 97, 328, 224
-0.994458, 113, 9, 176, 72
-0.994464, 225, 309, 352, 340
-0.99448, 1, 81, 128, 144
-0.994488, 257, 161, 320, 224
-0.994515, 177, 341, 304, 372
-0.994526, 297, 65, 360, 128
-0.994541, 337, 157, 464, 188
-0.994554, 193, 221, 320, 252
-0.994555, 321, 205, 448, 236
-0.99458, 213, 129, 244, 256
-0.994587, 209, 145, 272, 208
-0.994614, 89, 1, 152, 375
-0.994614, 257, 329, 384, 360
-0.994617, 193, 257, 320, 288
-0.994618, 57, 33, 120, 288
-0.994642, 113, 313, 240, 344
-0.994666, 459, 257, 474, 320
-0.994668, 265, 289, 280, 352
-0.99468, 257, 245, 384, 276
-0.994689, 273, 269, 400, 300
-0.994713, 209, 273, 336, 304
-0.994713, 1, 177, 500, 240
-0.994753, 217, 241, 232, 304
-0.994758, 65, 265, 320, 328
-0.994774, 271, 289, 286, 352
-0.994781, 273, 313, 288, 375
-0.994788, 357, 113, 388, 240
-0.994793, 41, 1, 104, 375
-0.994813, 289, 293, 416, 324
-0.994841, 249, 1, 312, 256
-0.99486, 49, 213, 176, 244
-0.994865, 1, 169, 128, 200
-0.994876, 31, 289, 46, 352
-0.994879, 225, 297, 352, 328
-0.994879, 341, 161, 372, 288
-0.994879, 289, 249, 304, 312
-0.994883, 205, 289, 220, 352
-0.994883, 129, 225, 256, 256
-0.994897, 277, 225, 292, 288
-0.994924, 203, 249, 218, 312
-0.994977, 277, 1, 308, 128
-0.994977, 245, 65, 276, 192
-0.99499, 401, 113, 416, 176
-0.99499, 305, 49, 432, 112
-0.994995, 129, 301, 256, 332
-0.995028, 1, 225, 500, 288
-0.995044, 305, 289, 320, 352
-0.995048, 353, 289, 480, 320
-0.995095, 209, 205, 336, 236
-0.995101, 1, 281, 500, 344
-0.995119, 129, 249, 256, 280
-0.995132, 209, 285, 336, 316
-0.995136, 241, 221, 368, 252
-0.995142, 409, 209, 424, 272
-0.995171, 441, 137, 456, 200
-0.995171, 211, 249, 226, 312
-0.995176, 49, 201, 176, 232
-0.995202, 65, 297, 192, 328
-0.995202, 373, 193, 388, 256
-0.99521, 193, 281, 208, 344
-0.995211, 373, 241, 404, 368
-0.995233, 321, 233, 448, 264
-0.995263, 145, 49, 272, 112
-0.995314, 145, 161, 272, 224
-0.995315, 1, 213, 128, 244
-0.995337, 277, 265, 292, 328
-0.995341, 167, 281, 182, 344
-0.995344, 305, 161, 368, 224
-0.995364, 397, 209, 412, 272
-0.995384, 1, 145, 500, 208
-0.995385, 431, 145, 446, 208
-0.995407, 37, 305, 52, 368
-0.995416, 103, 169, 118, 232
-0.995419, 33, 329, 160, 360
-0.995435, 407, 121, 422, 184
-0.995468, 187, 249, 202, 312
-0.995475, 369, 345, 496, 375
-0.995477, 289, 25, 416, 88
-0.995489, 225, 225, 240, 288
-0.995504, 329, 1, 392, 256
-0.995509, 451, 281, 466, 344
-0.995517, 317, 1, 348, 128
-0.995522, 369, 201, 496, 232
-0.995536, 371, 249, 386, 312
-0.99555, 197, 249, 212, 312
-0.99555, 269, 265, 284, 328
-0.995553, 145, 313, 160, 375
-0.995573, 305, 1, 432, 64
-0.99558, 129, 237, 256, 268
-0.995586, 299, 273, 314, 336
-0.99559, 467, 257, 482, 320
-0.995623, 401, 89, 464, 152
-0.995627, 49, 345, 176, 375
-0.995654, 451, 233, 466, 296
-0.995658, 279, 313, 294, 375
-0.995665, 411, 145, 426, 208
-0.995674, 357, 273, 372, 336
-0.995692, 1, 157, 128, 188
-0.995698, 379, 201, 394, 264
-0.99575, 363, 177, 378, 240
-0.995766, 353, 253, 480, 284
-0.995768, 169, 241, 184, 304
-0.995773, 113, 289, 240, 320
-0.995789, 113, 97, 176, 224
-0.995805, 271, 225, 286, 288
-0.995807, 161, 169, 416, 232
-0.995808, 211, 281, 226, 344
-0.995815, 273, 205, 400, 236
-0.995818, 159, 241, 174, 304
-0.995822, 255, 281, 270, 344
-0.995822, 385, 201, 400, 264
-0.995837, 329, 17, 392, 144
-0.995853, 225, 113, 480, 176
-0.995854, 177, 297, 304, 328
-0.995884, 105, 113, 136, 240
-0.995887, 257, 341, 384, 372
-0.995888, 145, 137, 272, 200
-0.995899, 279, 289, 294, 352
-0.995917, 161, 25, 288, 56
-0.995922, 361, 249, 376, 312
-0.995934, 97, 161, 112, 224
-0.995982, 265, 201, 280, 264
-0.995991, 447, 257, 462, 320
-0.995993, 369, 145, 496, 176
-0.996, 17, 161, 32, 224
-0.996009, 181, 249, 196, 312
-0.996013, 161, 281, 176, 344
-0.996017, 289, 305, 416, 336
-0.996026, 199, 313, 214, 375
-0.996032, 415, 209, 430, 272
-0.996034, 421, 137, 436, 200
-0.996041, 353, 81, 416, 208
-0.996046, 161, 277, 288, 308
-0.996049, 225, 29, 352, 60
-0.996058, 129, 25, 384, 88
-0.996059, 453, 257, 468, 320
-0.996063, 257, 233, 384, 264
-0.996074, 353, 189, 480, 220
-0.996098, 421, 217, 436, 280
-0.996101, 27, 313, 42, 375
-0.996107, 87, 145, 102, 208
-0.996129, 175, 241, 190, 304
-0.996143, 469, 305, 484, 368
-0.99618, 161, 209, 288, 240
-0.996196, 391, 201, 406, 264
-0.996198, 179, 289, 194, 352
-0.996209, 117, 193, 132, 256
-0.996227, 199, 289, 214, 352
-0.996229, 369, 161, 384, 224
-0.996234, 113, 209, 240, 240
-0.996235, 405, 145, 420, 208
-0.996243, 425, 97, 456, 224
-0.996243, 325, 161, 356, 288
-0.996255, 473, 225, 488, 288
-0.996272, 273, 317, 400, 348
-0.996273, 109, 177, 124, 240
-0.996279, 305, 81, 432, 144
-0.996285, 49, 237, 176, 268
-0.996291, 283, 265, 298, 328
-0.996296, 377, 257, 392, 320
-0.99631, 445, 233, 460, 296
-0.996313, 443, 209, 458, 272
-0.996315, 403, 217, 418, 280
-0.996332, 263, 313, 278, 375
-0.996332, 353, 269, 480, 300
-0.996343, 403, 185, 418, 248
-0.996357, 99, 289, 114, 352
-0.996375, 1, 109, 128, 140
-0.996377, 447, 305, 462, 368
-0.99638, 63, 217, 78, 280
-0.996385, 461, 233, 476, 296
-0.996395, 201, 49, 232, 176
-0.996399, 263, 265, 278, 328
-0.996413, 131, 225, 146, 288
-0.996418, 369, 229, 496, 260
-0.996435, 311, 297, 326, 360
-0.996437, 109, 241, 140, 368
-0.996451, 149, 241, 164, 304
-0.996457, 449, 169, 464, 232
-0.996466, 251, 201, 266, 264
-0.996466, 365, 273, 380, 336
-0.996471, 1, 225, 128, 256
-0.99648, 151, 289, 166, 352
-0.996487, 285, 313, 300, 375
-0.996513, 233, 193, 248, 256
-0.99652, 113, 113, 240, 176
-0.996529, 249, 89, 312, 152
-0.99653, 433, 217, 448, 280
-0.996554, 187, 289, 202, 352
-0.99656, 107, 281, 122, 344
-0.996579, 139, 313, 154, 375
-0.996582, 375, 161, 390, 224
-0.996592, 369, 97, 432, 160
-0.99661, 123, 209, 138, 272
-0.996614, 473, 265, 488, 328
-0.996615, 241, 65, 368, 96
-0.996617, 45, 129, 76, 256
-0.996617, 337, 257, 352, 320
-0.996617, 293, 273, 308, 336
-0.996626, 219, 217, 234, 280
-0.996631, 371, 273, 386, 336
-0.996632, 257, 201, 272, 264
-0.996642, 257, 225, 272, 288
-0.99666, 299, 249, 314, 312
-0.996665, 247, 297, 262, 360
-0.996668, 271, 201, 286, 264
-0.996675, 71, 201, 86, 264
-0.996676, 27, 201, 42, 264
-0.996682, 151, 313, 166, 375
-0.996694, 81, 145, 96, 208
-0.996702, 305, 313, 320, 375
-0.996704, 257, 257, 272, 320
-0.996729, 437, 161, 452, 224
-0.996734, 263, 241, 278, 304
-0.996739, 23, 177, 38, 240
-0.996743, 439, 297, 454, 360
-0.996749, 227, 201, 242, 264
-0.996758, 143, 217, 158, 280
-0.996761, 427, 209, 442, 272
-0.996763, 161, 13, 288, 44
-0.996767, 161, 305, 176, 368
-0.996771, 369, 241, 496, 272
-0.996778, 467, 233, 482, 296
-0.996778, 33, 317, 160, 348
-0.996804, 43, 313, 58, 375
-0.996808, 193, 65, 448, 128
-0.996811, 223, 257, 238, 320
-0.996813, 349, 297, 364, 360
-0.996822, 33, 145, 288, 208
-0.996822, 141, 289, 156, 352
-0.996825, 289, 1, 320, 128
-0.996829, 241, 193, 368, 224
-0.996831, 249, 249, 264, 312
-0.996848, 161, 145, 416, 208
-0.996851, 7, 169, 22, 232
-0.996853, 145, 265, 272, 296
-0.996857, 461, 281, 476, 344
-0.996884, 17, 297, 144, 328
-0.996925, 321, 345, 448, 375
-0.996942, 305, 113, 432, 144
-0.996942, 49, 173, 176, 204
-0.996968, 369, 129, 400, 375
-0.996977, 33, 105, 288, 168
-0.997001, 161, 177, 192, 304
-0.997011, 65, 285, 192, 316
-0.997076, 129, 1, 384, 64
-0.99709, 337, 333, 464, 364
-0.997098, 337, 301, 464, 332
-0.997106, 77, 129, 108, 375
-0.997115, 321, 145, 448, 176
-0.997119, 81, 225, 112, 352
-0.997124, 233, 65, 264, 192
-0.997156, 97, 129, 128, 375
-0.997166, 161, 197, 288, 228
-0.997219, 49, 161, 176, 192
-0.997222, 273, 329, 288, 360
-0.997222, 81, 249, 208, 280
-0.997237, 261, 65, 292, 192
-0.997271, 267, 285, 282, 316
-0.997294, 185, 33, 248, 288
-0.997339, 267, 329, 282, 360
-0.99734, 289, 193, 416, 224
-0.997365, 369, 89, 496, 152
-0.997374, 399, 213, 414, 244
-0.997384, 423, 217, 438, 248
-0.99739, 65, 189, 192, 220
-0.997418, 31, 301, 46, 332
-0.99742, 193, 69, 320, 100
-0.997452, 305, 169, 432, 200
-0.997469, 337, 321, 464, 352
-0.997476, 275, 233, 290, 264
-0.997477, 113, 197, 240, 228
-0.997482, 257, 113, 384, 176
-0.997488, 401, 113, 416, 144
-0.997494, 157, 1, 188, 128
-0.997494, 381, 129, 412, 375
-0.997517, 275, 277, 290, 308
-0.997524, 225, 17, 352, 48
-0.997526, 103, 169, 118, 200
-0.997527, 1, 137, 128, 168
-0.997558, 373, 201, 388, 232
-0.997563, 411, 217, 426, 248
-0.997574, 439, 137, 454, 168
-0.997588, 225, 237, 240, 268
-0.997589, 1, 237, 128, 268
-0.997593, 289, 265, 304, 296
-0.997607, 337, 125, 464, 156
-0.997639, 225, 25, 480, 88
-0.997651, 1, 125, 128, 156
-0.997671, 295, 273, 310, 304
-0.997678, 455, 345, 470, 375
-0.997684, 5, 129, 36, 375
-0.99769, 113, 9, 240, 40
-0.997694, 275, 265, 290, 296
-0.997694, 387, 209, 402, 240
-0.997698, 263, 341, 278, 372
-0.997698, 1, 285, 128, 316
-0.997702, 219, 241, 234, 272
-0.997707, 15, 169, 30, 200
-0.997711, 201, 329, 216, 360
-0.997726, 273, 293, 288, 324
-0.997736, 357, 129, 388, 375
-0.997743, 205, 289, 220, 320
-0.997745, 405, 129, 436, 375
-0.997746, 197, 289, 212, 320
-0.99776, 103, 289, 118, 320
-0.997764, 49, 149, 176, 180
-0.997774, 271, 341, 286, 372
-0.997778, 203, 305, 218, 336
-0.997817, 157, 313, 172, 344
-0.997817, 209, 249, 224, 280
-0.997823, 283, 281, 298, 312
-0.997829, 209, 341, 224, 372
-0.997837, 193, 89, 448, 152
-0.997844, 49, 109, 176, 140
-0.99785, 273, 149, 400, 180
-0.99785, 303, 325, 318, 356
-0.997854, 139, 329, 154, 360
-0.997854, 433, 129, 464, 375
-0.997858, 267, 297, 282, 328
-0.997862, 439, 149, 454, 180
-0.997863, 417, 129, 448, 375
-0.997871, 431, 225, 446, 256
-0.997875, 97, 241, 128, 368
-0.997881, 133, 337, 148, 368
-0.997881, 97, 177, 112, 208
-0.997887, 237, 97, 268, 352
-0.997894, 433, 165, 448, 196
-0.997895, 149, 321, 164, 352
-0.997897, 127, 341, 142, 372
-0.997903, 211, 285, 226, 316
-0.99792, 193, 49, 320, 80
-0.997925, 259, 289, 274, 320
-0.997926, 113, 25, 240, 56
-0.997927, 305, 281, 320, 312
-0.997937, 405, 213, 420, 244
-0.997943, 417, 217, 432, 248
-0.997945, 381, 209, 396, 240
-0.997946, 393, 205, 408, 236
-0.997949, 55, 345, 70, 375
-0.997954, 305, 245, 432, 276
-0.99796, 97, 65, 224, 128
-0.997968, 93, 189, 108, 220
-0.997973, 311, 317, 326, 348
-0.997978, 407, 113, 422, 144
-0.997987, 283, 337, 298, 368
-0.997992, 199, 317, 214, 348
-0.997999, 107, 181, 122, 212
-0.998009, 211, 325, 226, 356
-0.998011, 285, 249, 300, 280
-0.998012, 199, 253, 214, 284
-0.998015, 121, 345, 136, 375
-0.99802, 167, 289, 182, 320
-0.998023, 1, 97, 128, 128
-0.998033, 277, 345, 292, 375
-0.998042, 143, 301, 158, 332
-0.998045, 249, 321, 264, 352
-0.998052, 305, 101, 432, 132
-0.998059, 361, 281, 376, 312
-0.998071, 223, 225, 238, 256
-0.998072, 185, 293, 200, 324
-0.998074, 113, 277, 240, 308
-0.998078, 281, 237, 296, 268
-0.998089, 241, 53, 368, 84
-0.998094, 257, 345, 272, 375
-0.998097, 33, 1, 160, 64
-0.998099, 375, 273, 390, 304
-0.998099, 395, 117, 410, 148
-0.998115, 183, 249, 198, 280
-0.998116, 37, 313, 52, 344
-0.998116, 257, 129, 288, 375
-0.99812, 389, 117, 404, 148
-0.99812, 403, 173, 418, 204
-0.998122, 307, 293, 322, 324
-0.998123, 455, 285, 470, 316
-0.998124, 245, 309, 260, 340
-0.998124, 431, 145, 446, 176
-0.998126, 131, 225, 146, 256
-0.998134, 231, 233, 246, 264
-0.998136, 273, 29, 400, 60
-0.998143, 155, 301, 170, 332
-0.998152, 149, 305, 164, 336
-0.998155, 369, 113, 496, 144
-0.998155, 97, 177, 224, 208
-0.998161, 289, 337, 304, 368
-0.998169, 413, 173, 428, 204
-0.99817, 447, 277, 462, 308
-0.998188, 275, 221, 290, 252
-0.998194, 435, 213, 450, 244
-0.998195, 161, 297, 176, 328
-0.998197, 263, 25, 278, 56
-0.9982, 405, 157, 420, 188
-0.998206, 153, 129, 184, 375
-0.998207, 65, 129, 96, 375
-0.998207, 455, 261, 470, 292
-0.998207, 67, 197, 82, 228
-0.998211, 243, 345, 258, 375
-0.998212, 175, 289, 190, 320
-0.998215, 249, 345, 264, 375
-0.998222, 281, 269, 296, 300
-0.998234, 5, 173, 20, 204
-0.998239, 193, 253, 208, 284
-0.99824, 49, 137, 176, 168
-0.998241, 417, 145, 432, 176
-0.998245, 255, 29, 270, 60
-0.998248, 97, 293, 112, 324
-0.99825, 369, 277, 384, 308
-0.998251, 221, 261, 236, 292
-0.998253, 267, 273, 282, 304
-0.998254, 377, 221, 392, 252
-0.998257, 445, 141, 460, 172
-0.998261, 467, 345, 482, 375
-0.998262, 143, 229, 158, 260
-0.998266, 317, 301, 332, 332
-0.998266, 205, 317, 220, 348
-0.998266, 467, 261, 482, 292
-0.99827, 177, 37, 304, 68
-0.998274, 113, 193, 128, 224
-0.99828, 297, 65, 360, 192
-0.998284, 123, 213, 138, 244
-0.998287, 379, 197, 394, 228
-0.998289, 297, 333, 312, 364
-0.998298, 425, 169, 440, 200
-0.9983, 393, 161, 408, 192
-0.998302, 279, 297, 294, 328
-0.998302, 257, 65, 272, 96
-0.998313, 197, 305, 212, 336
-0.998315, 305, 181, 432, 212
-0.998318, 271, 29, 286, 60
-0.998323, 151, 245, 166, 276
-0.998324, 49, 337, 64, 368
-0.998324, 445, 205, 460, 236
-0.998325, 269, 261, 284, 292
-0.998331, 97, 49, 352, 112
-0.998337, 1, 121, 500, 184
-0.99834, 257, 277, 272, 308
-0.998343, 17, 129, 48, 375
-0.998348, 441, 169, 456, 200
-0.998349, 261, 325, 276, 356
-0.99835, 257, 133, 384, 164
-0.998353, 321, 1, 448, 128
-0.998368, 81, 97, 208, 128
-0.998373, 393, 129, 424, 375
-0.998391, 65, 273, 192, 304
-0.998395, 417, 171, 448, 186
-0.998396, 161, 297, 192, 312
-0.998396, 409, 153, 440, 168
-0.998396, 189, 349, 220, 364
-0.998397, 253, 251, 284, 266
-0.998399, 277, 239, 308, 254
-0.998399, 205, 289, 236, 304
-0.9984, 277, 227, 308, 242
-0.998401, 293, 291, 324, 306
-0.998403, 137, 245, 168, 260
-0.998403, 213, 317, 244, 332
-0.998403, 233, 203, 264, 218
-0.998403, 137, 311, 168, 326
-0.998403, 257, 245, 288, 260
-0.998404, 261, 265, 292, 280
-0.998404, 117, 347, 148, 362
-0.998405, 257, 219, 288, 234
-0.998405, 209, 275, 240, 290
-0.998405, 225, 221, 256, 236
-0.998406, 417, 235, 448, 250
-0.998406, 221, 339, 252, 354
-0.998407, 397, 155, 428, 170
-0.998407, 169, 249, 200, 264
-0.998408, 209, 357, 240, 372
-0.998409, 25, 307, 56, 322
-0.998409, 93, 179, 124, 194
-0.998412, 469, 309, 500, 324
-0.998412, 337, 265, 368, 280
-0.998412, 97, 261, 224, 292
-0.998413, 217, 257, 248, 272
-0.998413, 253, 259, 284, 274
-0.998414, 257, 275, 288, 290
-0.998414, 357, 255, 388, 270
-0.998415, 185, 327, 216, 342
-0.998415, 29, 319, 60, 334
-0.998416, 205, 31, 236, 46
-0.998417, 53, 361, 84, 375
-0.998417, 249, 361, 280, 375
-0.998417, 449, 307, 480, 322
-0.998418, 313, 317, 344, 332
-0.998419, 197, 341, 228, 356
-0.998419, 421, 177, 452, 192
-0.998419, 229, 233, 260, 248
-0.998419, 385, 113, 416, 128
-0.99842, 265, 291, 328, 306
-0.998421, 141, 305, 172, 320
-0.998421, 249, 351, 280, 366
-0.998421, 265, 291, 296, 306
-0.998422, 249, 345, 280, 360
-0.998423, 97, 359, 128, 374
-0.998424, 245, 325, 276, 340
-0.998426, 281, 341, 312, 356
-0.998426, 373, 225, 404, 240
-0.998428, 185, 293, 216, 308
-0.998431, 345, 207, 408, 222
-0.998432, 193, 243, 224, 258
-0.998432, 205, 299, 236, 314
-0.998432, 409, 225, 440, 240
-0.998433, 277, 283, 308, 298
-0.998433, 89, 173, 120, 188
-0.998433, 33, 343, 64, 358
-0.998434, 149, 247, 180, 262
-0.998434, 421, 217, 452, 232
-0.998435, 241, 41, 368, 72
-0.998435, 33, 331, 64, 346
-0.998435, 85, 291, 116, 306
-0.998435, 209, 345, 240, 360
-0.998435, 97, 191, 128, 206
-0.998436, 305, 325, 336, 340
-0.998437, 181, 311, 212, 326
-0.998437, 25, 313, 56, 328
-0.998439, 381, 159, 412, 174
-0.998439, 361, 213, 424, 228
-0.998441, 145, 327, 176, 342
-0.998443, 273, 251, 304, 266
-0.998445, 153, 321, 184, 336
-0.998445, 81, 109, 112, 124
-0.998445, 233, 299, 264, 314
-0.998445, 137, 335, 168, 350
-0.998447, 109, 353, 140, 368
-0.998447, 385, 223, 448, 238
-0.998448, 337, 271, 368, 286
-0.998448, 393, 209, 424, 224
-0.998448, 261, 345, 292, 360
-0.998449, 197, 333, 228, 348
-0.99845, 253, 303, 284, 318
-0.998452, 249, 337, 280, 352
-0.998453, 181, 301, 212, 316
-0.998456, 265, 235, 296, 250
-0.998459, 221, 243, 252, 258
-0.998459, 153, 317, 216, 332
-0.998461, 209, 265, 240, 280
-0.998461, 201, 321, 232, 336
-0.998462, 189, 317, 220, 332
-0.998464, 45, 355, 76, 370
-0.998466, 169, 311, 200, 326
-0.998468, 201, 313, 232, 328
-0.998469, 449, 301, 480, 316
-0.998471, 193, 255, 224, 270
-0.998472, 61, 203, 92, 218
-0.998472, 153, 311, 216, 326
-0.998472, 409, 177, 440, 192
-0.998473, 253, 31, 284, 46
-0.998473, 357, 201, 388, 216
-0.998474, 265, 297, 328, 312
-0.998477, 101, 291, 132, 306
-0.998477, 193, 121, 320, 152
-0.998479, 209, 337, 240, 352
-0.998479, 201, 305, 232, 320
-0.998482, 241, 251, 304, 266
-0.998483, 33, 337, 64, 352
-0.998483, 281, 277, 312, 292
-0.998484, 269, 245, 300, 260
-0.998485, 129, 343, 160, 358
-0.998485, 429, 141, 460, 156
-0.998486, 257, 283, 320, 298
-0.998487, 25, 221, 88, 236
-0.998488, 273, 265, 304, 280
-0.998488, 193, 311, 256, 326
-0.998492, 201, 251, 264, 266
-0.998493, 209, 251, 240, 266
-0.998493, 381, 121, 412, 136
-0.998495, 225, 1, 480, 64
-0.998497, 273, 49, 336, 176
-0.998498, 381, 205, 412, 220
-0.998498, 265, 297, 296, 312
-0.998499, 453, 357, 484, 372
-0.998501, 265, 337, 296, 352
-0.998502, 81, 33, 112, 288
-0.998504, 193, 1, 320, 32
-0.998509, 249, 267, 312, 282
-0.99851, 277, 271, 308, 286
-0.998513, 273, 257, 304, 272
-0.998514, 161, 291, 192, 306
-0.998515, 253, 291, 284, 306
-0.998516, 385, 157, 448, 172
-0.998517, 17, 199, 80, 214
-0.998517, 397, 221, 428, 236
-0.998518, 377, 211, 408, 226
-0.998518, 153, 315, 184, 330
-0.998518, 209, 245, 272, 260
-0.998521, 17, 207, 80, 222
-0.998521, 193, 317, 256, 332
-0.998523, 73, 199, 136, 214
-0.998524, 201, 327, 264, 342
-0.998524, 417, 175, 480, 190
-0.998524, 153, 299, 216, 314
-0.998524, 205, 327, 236, 342
-0.998525, 257, 331, 288, 346
-0.998526, 385, 217, 448, 232
-0.998526, 17, 349, 80, 364
-0.998527, 249, 273, 312, 288
-0.998527, 153, 293, 216, 308
-0.998531, 241, 181, 368, 212
-0.998532, 241, 261, 304, 276
-0.998535, 9, 341, 72, 356
-0.998535, 241, 301, 304, 316
-0.998535, 425, 349, 488, 364
-0.998535, 25, 215, 88, 230
-0.998536, 137, 327, 200, 342
-0.998537, 201, 333, 264, 348
-0.998538, 289, 281, 352, 296
-0.998538, 225, 129, 256, 375
-0.998538, 329, 263, 392, 278
-0.998539, 193, 305, 256, 320
-0.99854, 201, 357, 264, 372
-0.998542, 225, 205, 288, 220
-0.998542, 265, 305, 328, 320
-0.998543, 177, 243, 240, 258
-0.998544, 65, 177, 128, 192
-0.998546, 393, 211, 456, 226
-0.998546, 17, 183, 80, 198
-0.998548, 17, 193, 80, 208
-0.998549, 49, 359, 112, 374
-0.998549, 161, 305, 224, 320
-0.998549, 253, 297, 284, 312
-0.99855, 321, 271, 384, 286
-0.998551, 201, 343, 264, 358
-0.998551, 17, 175, 80, 190
-0.998551, 417, 147, 448, 162
-0.998552, 417, 357, 480, 372
-0.998552, 257, 335, 320, 350
-0.998553, 393, 173, 456, 188
-0.998554, 193, 291, 256, 306
-0.998555, 161, 335, 224, 350
-0.998555, 281, 129, 312, 375
-0.998555, 129, 335, 192, 350
-0.998556, 233, 337, 296, 352
-0.998556, 93, 185, 124, 200
-0.998557, 177, 255, 240, 270
-0.998557, 225, 293, 288, 308
-0.998557, 329, 255, 392, 270
-0.998558, 305, 299, 368, 314
-0.998558, 1, 325, 64, 340
-0.998559, 25, 231, 88, 246
-0.99856, 209, 271, 272, 286
-0.99856, 329, 219, 392, 234
-0.99856, 353, 175, 416, 190
-0.998561, 389, 215, 420, 230
-0.998563, 297, 287, 360, 302
-0.998564, 409, 219, 472, 234
-0.998564, 409, 217, 440, 232
-0.998565, 217, 239, 280, 254
-0.998565, 177, 31, 240, 46
-0.998568, 1, 315, 64, 330
-0.998568, 169, 329, 232, 344
-0.998569, 89, 291, 152, 306
-0.998569, 401, 149, 464, 164
-0.998569, 289, 275, 352, 290
-0.998571, 9, 335, 72, 350
-0.998572, 73, 193, 136, 208
-0.998572, 65, 183, 128, 198
-0.998572, 225, 229, 288, 244
-0.998574, 1, 175, 32, 190
-0.998574, 345, 129, 376, 375
-0.998574, 297, 321, 360, 336
-0.998575, 305, 293, 368, 308
-0.998575, 337, 201, 400, 216
-0.998576, 137, 247, 200, 262
-0.998576, 241, 307, 304, 322
-0.998577, 57, 353, 120, 368
-0.998577, 249, 245, 312, 260
-0.998577, 201, 299, 264, 314
-0.998577, 289, 255, 352, 270
-0.998577, 369, 119, 432, 134
-0.998577, 201, 265, 264, 280
-0.998579, 217, 33, 280, 48
-0.99858, 225, 223, 288, 238
-0.99858, 161, 323, 224, 338
-0.998581, 393, 119, 424, 134
-0.998581, 433, 303, 496, 318
-0.998582, 137, 305, 200, 320
-0.998582, 161, 287, 224, 302
-0.998583, 249, 31, 312, 46
-0.998583, 209, 257, 272, 272
-0.998584, 433, 173, 464, 188
-0.998584, 453, 351, 484, 366
-0.998586, 121, 341, 184, 356
-0.998587, 409, 181, 472, 196
-0.998588, 289, 263, 352, 278
-0.998589, 65, 171, 128, 186
-0.99859, 113, 347, 176, 362
-0.998591, 241, 361, 304, 375
-0.998591, 217, 287, 280, 302
-0.998592, 213, 65, 244, 320
-0.998592, 289, 331, 352, 346
-0.998594, 281, 245, 344, 260
-0.998595, 49, 341, 112, 356
-0.998596, 17, 359, 80, 374
-0.998596, 233, 345, 296, 360
-0.998597, 329, 277, 392, 292
-0.998599, 97, 357, 160, 372
-0.9986, 265, 347, 328, 362
-0.9986, 177, 249, 240, 264
-0.998601, 361, 169, 424, 184
-0.998601, 257, 329, 320, 344
-0.998601, 289, 31, 352, 46
-0.998603, 177, 297, 240, 312
-0.998605, 289, 269, 352, 284
-0.998605, 337, 225, 400, 240
-0.998605, 393, 167, 456, 182
-0.998605, 305, 309, 368, 324
-0.998605, 265, 311, 328, 326
-0.998606, 25, 317, 88, 332
-0.998606, 417, 289, 480, 304
-0.998607, 305, 315, 368, 330
-0.99861, 225, 211, 288, 226
-0.99861, 201, 27, 264, 42
-0.998614, 33, 335, 96, 350
-0.998614, 273, 341, 336, 356
-0.998615, 225, 325, 288, 340
-0.998615, 65, 81, 320, 144
-0.998621, 369, 205, 400, 220
-0.998634, 69, 225, 100, 352
-0.998637, 241, 89, 368, 120
-0.99864, 49, 129, 80, 375
-0.998656, 1, 57, 128, 120
-0.998659, 161, 89, 288, 120
-0.998675, 125, 129, 156, 375
-0.998677, 33, 97, 64, 352
-0.998679, 469, 129, 500, 375
-0.998682, 257, 161, 384, 192
-0.998705, 305, 1, 336, 128
-0.998708, 445, 129, 476, 375
-0.998709, 181, 225, 196, 352
-0.998724, 109, 129, 140, 375
-0.998742, 241, 77, 368, 108
-0.998744, 241, 121, 368, 152
-0.998752, 207, 241, 222, 368
-0.998762, 189, 241, 204, 368
-0.99877, 137, 129, 168, 375
-0.998781, 209, 1, 272, 256
-0.998794, 201, 241, 216, 368
-0.998805, 209, 109, 336, 140
-0.998809, 165, 129, 196, 375
-0.99882, 1, 33, 32, 288
-0.998822, 345, 113, 376, 240
-0.998833, 289, 241, 304, 368
-0.998834, 197, 129, 228, 375
-0.998834, 1, 49, 256, 112
-0.998838, 171, 225, 186, 352
-0.998841, 161, 225, 176, 352
-0.998843, 217, 225, 232, 352
-0.998843, 195, 225, 210, 352
-0.998844, 49, 65, 176, 128
-0.998854, 151, 225, 166, 352
-0.998861, 433, 65, 496, 192
-0.998875, 161, 101, 288, 132
-0.998882, 469, 113, 500, 240
-0.99889, 433, 145, 448, 272
-0.998893, 369, 101, 496, 132
-0.998906, 273, 17, 400, 48
-0.998913, 33, 17, 288, 80
-0.998943, 97, 33, 128, 288
-0.998946, 1, 25, 500, 88
-0.998964, 35, 225, 50, 352
-0.998967, 405, 145, 420, 272
-0.998973, 283, 241, 298, 368
-0.998981, 467, 241, 482, 368
-0.998986, 375, 145, 390, 272
-0.998994, 223, 225, 238, 352
-0.998996, 297, 241, 312, 368
-0.999005, 273, 193, 288, 320
-0.999034, 261, 193, 276, 320
-0.999037, 233, 177, 248, 304
-0.999041, 329, 1, 360, 128
-0.999044, 459, 241, 474, 368
-0.999049, 419, 145, 434, 272
-0.999058, 107, 161, 122, 288
-0.999059, 405, 33, 436, 288
-0.99906, 367, 161, 382, 288
-0.999071, 293, 97, 324, 224
-0.999073, 145, 225, 160, 352
-0.999081, 95, 145, 110, 272
-0.999085, 385, 145, 400, 272
-0.999096, 75, 145, 90, 272
-0.999105, 391, 145, 406, 272
-0.999107, 211, 1, 226, 128
-0.999114, 483, 241, 498, 368
-0.999123, 425, 33, 456, 288
-0.999129, 17, 145, 32, 272
-0.999131, 457, 129, 488, 375
-0.999135, 85, 129, 100, 256
-0.999135, 105, 33, 168, 288
-0.999138, 473, 209, 488, 336
-0.999146, 303, 241, 318, 368
-0.999149, 411, 129, 426, 256
-0.999153, 259, 241, 274, 368
-0.999154, 411, 209, 426, 336
-0.999158, 273, 241, 288, 368
-0.999163, 239, 177, 254, 304
-0.999165, 269, 129, 300, 375
-0.999166, 225, 177, 240, 304
-0.999166, 449, 241, 464, 368
-0.999166, 221, 1, 236, 128
-0.999174, 113, 177, 128, 304
-0.999176, 433, 33, 496, 288
-0.999176, 339, 225, 354, 352
-0.99919, 251, 193, 266, 320
-0.999191, 419, 193, 434, 320
-0.999193, 65, 25, 192, 88
-0.999194, 391, 97, 406, 224
-0.999194, 397, 145, 412, 272
-0.999202, 41, 225, 56, 352
-0.999204, 121, 193, 136, 320
-0.999205, 185, 129, 216, 375
-0.999208, 139, 225, 154, 352
-0.999221, 101, 161, 116, 288
-0.999223, 443, 161, 458, 288
-0.999226, 249, 33, 280, 288
-0.999232, 403, 97, 418, 224
-0.999232, 439, 241, 454, 368
-0.999233, 129, 121, 384, 184
-0.999239, 25, 177, 40, 304
-0.999242, 267, 177, 282, 304
-0.999242, 219, 177, 234, 304
-0.999243, 345, 209, 360, 336
-0.99925, 425, 209, 440, 336
-0.999256, 231, 225, 246, 352
-0.999259, 373, 193, 388, 320
-0.999259, 205, 1, 220, 128
-0.999267, 33, 49, 96, 176
-0.99927, 69, 161, 84, 288
-0.999273, 131, 209, 146, 336
-0.999273, 357, 241, 372, 368
-0.999278, 403, 209, 418, 336
-0.999278, 211, 193, 226, 320
-0.999282, 427, 129, 442, 256
-0.999286, 457, 193, 472, 320
-0.999291, 201, 193, 216, 320
-0.999298, 449, 161, 464, 288
-0.999308, 385, 97, 400, 224
-0.999316, 379, 193, 394, 320
-0.999316, 245, 177, 260, 304
-0.99932, 465, 193, 480, 320
-0.999325, 189, 193, 204, 320
-0.999331, 255, 1, 270, 128
-0.999333, 283, 177, 298, 304
-0.999334, 11, 145, 26, 272
-0.999336, 93, 97, 108, 224
-0.99934, 361, 161, 376, 288
-0.999341, 329, 1, 360, 256
-0.999344, 397, 97, 412, 224
-0.999345, 431, 193, 446, 320
-0.999346, 191, 1, 206, 128
-0.999354, 47, 209, 62, 336
-0.999354, 197, 1, 212, 128
-0.999379, 353, 9, 480, 72
-0.999382, 295, 193, 310, 320
-0.999382, 63, 177, 78, 304
-0.999391, 103, 97, 118, 224
-0.999394, 351, 193, 366, 320
-0.999394, 89, 177, 104, 304
-0.999398, 261, 145, 276, 272
-0.999401, 289, 193, 304, 320
-0.999403, 227, 1, 242, 128
-0.999406, 273, 65, 304, 192
-0.999407, 333, 97, 364, 352
-0.999407, 297, 129, 328, 375
-0.999408, 253, 241, 268, 368
-0.999411, 267, 241, 282, 368
-0.999413, 381, 33, 412, 288
-0.999415, 1, 161, 16, 288
-0.999416, 13, 33, 44, 288
-0.999417, 247, 1, 262, 128
-0.999426, 57, 225, 72, 352
-0.999428, 395, 193, 410, 320
-0.999431, 247, 129, 262, 256
-0.999439, 363, 241, 378, 368
-0.999446, 255, 145, 270, 272
-0.999449, 385, 193, 400, 320
-0.999449, 69, 113, 84, 240
-0.999455, 81, 177, 96, 304
-0.999455, 437, 193, 452, 320
-0.999458, 413, 81, 428, 208
-0.999459, 311, 241, 326, 368
-0.999462, 79, 97, 94, 224
-0.999469, 237, 129, 252, 256
-0.999477, 275, 1, 290, 128
-0.999494, 221, 49, 236, 176
-0.999496, 333, 241, 348, 368
-0.9995, 29, 225, 44, 352
-0.999501, 245, 225, 260, 352
-0.999506, 393, 33, 424, 288
-0.999507, 215, 49, 230, 176
-0.999513, 141, 177, 156, 304
-0.999515, 269, 1, 284, 128
-0.99952, 119, 129, 134, 256
-0.99952, 7, 97, 22, 224
-0.999522, 465, 129, 480, 256
-0.999526, 185, 1, 200, 128
-0.999528, 351, 241, 366, 368
-0.999536, 455, 145, 470, 272
-0.999537, 369, 241, 384, 368
-0.999538, 289, 145, 320, 272
-0.999539, 23, 113, 38, 240
-0.999545, 69, 33, 100, 288
-0.999553, 321, 129, 352, 375
-0.999591, 39, 239, 54, 254
-0.999591, 213, 31, 228, 46
-0.999591, 381, 225, 396, 240
-0.999591, 195, 321, 210, 336
-0.999592, 417, 235, 432, 250
-0.999593, 403, 221, 418, 236
-0.999593, 237, 359, 252, 374
-0.999593, 421, 147, 436, 162
-0.999593, 215, 321, 230, 336
-0.999594, 387, 227, 402, 242
-0.999595, 139, 227, 154, 242
-0.999595, 243, 353, 258, 368
-0.999596, 247, 331, 262, 346
-0.999596, 197, 311, 212, 326
-0.999597, 205, 327, 220, 342
-0.999597, 373, 209, 388, 224
-0.999597, 223, 227, 238, 242
-0.999597, 447, 279, 462, 294
-0.999598, 267, 339, 282, 354
-0.999598, 225, 257, 240, 272
-0.999598, 379, 157, 394, 172
-0.999598, 69, 203, 84, 218
-0.999598, 225, 265, 240, 280
-0.999599, 219, 337, 234, 352
-0.9996, 269, 327, 284, 342
-0.9996, 271, 265, 286, 280
-0.9996, 263, 249, 278, 264
-0.9996, 163, 245, 178, 260
-0.999601, 249, 361, 264, 375
-0.999601, 275, 333, 290, 348
-0.999603, 287, 251, 302, 266
-0.999603, 415, 149, 430, 164
-0.999605, 103, 361, 118, 375
-0.999606, 435, 167, 450, 182
-0.999606, 57, 357, 72, 372
-0.999607, 257, 299, 272, 314
-0.999607, 221, 31, 236, 46
-0.999608, 7, 173, 22, 188
-0.999608, 211, 287, 226, 302
-0.999608, 401, 209, 416, 224
-0.999609, 423, 177, 438, 192
-0.99961, 133, 341, 148, 356
-0.99961, 279, 347, 294, 362
-0.99961, 115, 353, 130, 368
-0.99961, 261, 291, 276, 306
-0.99961, 301, 281, 316, 296
-0.999611, 263, 329, 278, 344
-0.999611, 271, 243, 286, 258
-0.999612, 1, 177, 16, 192
-0.999613, 445, 173, 460, 188
-0.999613, 273, 299, 288, 314
-0.999613, 143, 329, 158, 344
-0.999613, 93, 191, 108, 206
-0.999613, 285, 341, 300, 356
-0.999614, 437, 153, 452, 168
-0.999614, 309, 323, 324, 338
-0.999617, 393, 229, 408, 244
-0.999617, 245, 323, 260, 338
-0.999618, 217, 259, 232, 274
-0.999619, 409, 153, 424, 168
-0.999619, 205, 255, 220, 270
-0.99962, 397, 217, 412, 232
-0.99962, 375, 223, 390, 238
-0.999622, 213, 337, 228, 352
-0.999623, 85, 109, 100, 124
-0.999623, 211, 345, 226, 360
-0.999624, 369, 201, 384, 216
-0.999625, 289, 269, 304, 284
-0.999625, 295, 275, 310, 290
-0.999626, 125, 345, 140, 360
-0.999626, 203, 335, 218, 350
-0.999627, 107, 187, 122, 202
-0.999627, 277, 281, 292, 296
-0.999627, 265, 345, 280, 360
-0.999627, 31, 305, 46, 320
-0.999629, 105, 289, 120, 304
-0.999629, 211, 355, 226, 370
-0.999629, 305, 287, 320, 302
-0.999632, 203, 313, 218, 328
-0.999633, 169, 97, 232, 224
-0.999634, 149, 323, 164, 338
-0.999634, 273, 345, 288, 360
-0.999635, 199, 329, 214, 344
-0.999637, 63, 205, 78, 220
-0.999638, 13, 169, 28, 184
-0.99964, 215, 247, 230, 262
-0.99964, 137, 333, 152, 348
-0.99964, 227, 237, 242, 252
-0.999641, 287, 259, 302, 274
-0.999643, 455, 347, 470, 362
-0.999643, 109, 357, 124, 372
-0.999645, 221, 243, 236, 258
-0.999646, 97, 185, 112, 200
-0.999648, 205, 319, 220, 334
-0.999651, 435, 145, 450, 160
-0.999651, 277, 275, 292, 290
-0.999653, 213, 253, 228, 268
-0.999653, 273, 233, 288, 248
-0.999654, 103, 173, 118, 188
-0.999657, 281, 249, 296, 264
-0.99966, 425, 225, 440, 240
-0.999663, 273, 339, 288, 354
-0.999663, 431, 173, 446, 188
-0.999664, 273, 293, 288, 308
-0.999665, 205, 305, 220, 320
-0.999666, 159, 315, 174, 330
-0.999671, 45, 81, 76, 208
-0.999672, 467, 351, 482, 366
-0.999673, 433, 221, 448, 236
-0.999674, 269, 333, 284, 348
-0.999674, 99, 291, 114, 306
-0.999675, 165, 291, 180, 306
-0.999675, 211, 329, 226, 344
-0.999678, 277, 239, 292, 254
-0.999679, 267, 297, 282, 312
-0.999681, 29, 299, 44, 314
-0.999683, 103, 179, 118, 194
-0.999688, 441, 33, 472, 288
-0.99969, 423, 217, 438, 232
-0.999692, 417, 219, 432, 234
-0.999695, 389, 117, 404, 132
-0.999695, 189, 49, 220, 176
-0.999698, 395, 209, 410, 224
-0.9997, 255, 293, 270, 308
-0.9997, 441, 141, 456, 156
-0.999713, 369, 33, 400, 288
-0.999714, 405, 123, 420, 138
-0.999727, 395, 119, 410, 134
-0.999731, 1, 89, 500, 152
-0.999735, 389, 207, 404, 222
-0.99974, 375, 203, 390, 218
-0.999748, 411, 217, 426, 232
-0.999752, 383, 205, 398, 220
-0.999761, 405, 215, 420, 230
-0.999765, 403, 117, 418, 132
-0.999768, 267, 291, 282, 306
-0.999798, 109, 33, 140, 288
-0.99983, 349, 33, 380, 288
-0.999848, 261, 33, 292, 288
-0.999856, 225, 33, 256, 288
-0.999864, 369, 65, 496, 128
-0.999889, 1, 1, 500, 64
-0.999911, 1, 65, 500, 128
-1.00003, 345, 1, 376, 128
-1.00005, 369, 33, 496, 96
-1.00006, 385, 241, 416, 368
-1.00007, 237, 1, 268, 256
-1.00008, 317, 1, 348, 256
-1.00009, 309, 97, 340, 224
-1.0001, 273, 33, 336, 288
-1.00012, 145, 1, 176, 128
-1.00013, 277, 33, 308, 288
-1.00018, 25, 1, 56, 256
-1.00018, 53, 33, 84, 288
-1.00021, 97, 65, 128, 192
-1.00023, 453, 33, 484, 288
-1.00028, 309, 129, 340, 375
-1.00043, 317, 49, 348, 176
-1.00043, 309, 177, 340, 304
-1.00064, 469, 33, 500, 288
-1.00068, 1, 33, 128, 96
-1.00072, 129, 33, 160, 288
-1.00074, 365, 49, 396, 176
-1.00074, 469, 49, 500, 176
-1.00076, 297, 33, 328, 288
-1.00079, 329, 113, 360, 240
-1.00079, 201, 33, 232, 288
-1.00081, 181, 33, 212, 288
-1.00081, 141, 33, 172, 288
-1.00091, 329, 49, 360, 176
-1.00102, 453, 97, 484, 224
-1.00117, 37, 1, 68, 256
-1.00122, 165, 33, 196, 288
-1.00139, 153, 33, 184, 288
-1.00146, 105, 1, 168, 128
-1.00155, 385, 49, 448, 176
-1.00259, 433, 1, 496, 128
-1.00269, 153, 49, 216, 176
-1.00336, 129, 33, 192, 288
-1.00407, 369, 1, 496, 128
-1.00417, 57, 33, 120, 160
-1.00428, 1, 17, 64, 144
-1.00429, 409, 1, 472, 128
-1.00466, 161, 1, 224, 256
-1.00509, 385, 1, 448, 128
-1.00564, 129, 49, 192, 176
-1.006, 353, 17, 416, 144
-1.00727, 81, 1, 144, 128
-1.00791, 137, 129, 200, 256
-1.00813, 105, 49, 168, 176
-1.01025, 25, 1, 88, 128
