1955
-0.22338, 1, 1, 500, 375
-0.31774, 1, 97, 500, 352
-0.379108, 1, 1, 500, 256
-0.382475, 225, 1, 480, 375
-0.483773, 97, 1, 352, 256
-0.508019, 97, 1, 352, 375
-0.546464, 257, 129, 500, 375
-0.551301, 1, 1, 256, 375
-0.559145, 65, 129, 320, 375
-0.582477, 193, 33, 448, 288
-0.640284, 1, 33, 256, 288
-0.648739, 161, 129, 416, 375
-0.823256, 273, 129, 400, 375
-0.824835, 161, 1, 288, 256
-0.837381, 193, 129, 320, 375
-0.839012, 273, 1, 400, 375
-0.844161, 97, 65, 224, 320
-0.848758, 369, 1, 496, 375
-0.850777, 225, 33, 352, 288
-0.851082, 369, 65, 496, 320
-0.853587, 1, 97, 128, 352
-0.855322, 225, 1, 352, 375
-0.855881, 273, 33, 400, 288
-0.857668, 321, 97, 448, 352
-0.868052, 321, 1, 448, 375
-0.869282, 1, 225, 500, 352
-0.872921, 145, 129, 272, 375
-0.873424, 49, 97, 176, 352
-0.874633, 1, 129, 500, 256
-0.875907, 1, 177, 500, 304
-0.876573, 1, 33, 500, 160
-0.879479, 1, 1, 128, 375
-0.881528, 81, 1, 208, 375
-0.885078, 49, 1, 176, 256
-0.888007, 177, 1, 304, 375
-0.888404, 1, 1, 128, 256
-0.890786, 129, 1, 256, 375
-0.891448, 321, 1, 448, 256
-0.900488, 1, 81, 500, 208
-0.904092, 97, 145, 352, 272
-0.90636, 257, 129, 500, 256
-0.910611, 193, 177, 448, 304
-0.915696, 273, 145, 400, 272
-0.919301, 193, 161, 320, 288
-0.9207, 97, 209, 352, 336
-0.921613, 129, 49, 384, 176
-0.924628, 273, 193, 400, 320
-0.9253, 1, 113, 256, 240
-0.925609, 257, 81, 500, 208
-0.926707, 1, 177, 256, 304
-0.926784, 281, 129, 344, 256
-0.927772, 97, 145, 224, 272
-0.928533, 257, 33, 500, 160
-0.930915, 145, 145, 272, 272
-0.931492, 337, 209, 464, 336
-0.93226, 193, 225, 448, 352
-0.933053, 97, 97, 352, 224
-0.933329, 377, 241, 440, 368
-0.933399, 193, 145, 256, 272
-0.933814, 161, 145, 224, 272
-0.934472, 1, 49, 256, 176
-0.934797, 313, 193, 376, 320
-0.937029, 241, 161, 304, 288
-0.937279, 273, 33, 400, 160
-0.937699, 305, 129, 368, 256
-0.937718, 129, 1, 384, 128
-0.938102, 385, 33, 448, 160
-0.938128, 353, 81, 480, 208
-0.938447, 113, 193, 240, 320
-0.93935, 313, 81, 376, 208
-0.939499, 177, 193, 240, 320
-0.94046, 97, 97, 224, 224
-0.940617, 321, 241, 384, 368
-0.940724, 185, 97, 248, 224
-0.940767, 33, 193, 160, 320
-0.941657, 217, 161, 280, 288
-0.941701, 321, 33, 448, 160
-0.941713, 337, 33, 400, 160
-0.941856, 193, 113, 320, 240
-0.94187, 273, 97, 400, 224
-0.94293, 225, 209, 352, 336
-0.942994, 273, 193, 336, 320
-0.943524, 345, 113, 408, 240
-0.944932, 1, 225, 256, 352
-0.945586, 225, 65, 352, 192
-0.94604, 73, 81, 136, 208
-0.946878, 161, 209, 288, 336
-0.947223, 145, 97, 272, 224
-0.947477, 201, 209, 264, 336
-0.947722, 369, 33, 496, 160
-0.947839, 65, 193, 128, 320
-0.948051, 361, 33, 424, 160
-0.948208, 321, 129, 448, 256
-0.948405, 1, 113, 128, 240
-0.948656, 49, 113, 176, 240
-0.948996, 161, 65, 224, 192
-0.949184, 193, 17, 320, 144
-0.949416, 289, 241, 416, 368
-0.949707, 1, 1, 256, 128
-0.949829, 425, 33, 488, 160
-0.949955, 17, 225, 80, 352
-0.950193, 313, 217, 376, 280
-0.950197, 353, 209, 416, 336
-0.950676, 369, 129, 496, 256
-0.951102, 281, 81, 344, 208
-0.951388, 201, 241, 264, 304
-0.951548, 137, 49, 200, 112
-0.95165, 153, 161, 216, 224
-0.95168, 81, 49, 208, 176
-0.951917, 121, 113, 184, 240
-0.952341, 113, 241, 240, 368
-0.952427, 313, 185, 376, 248
-0.952773, 425, 241, 488, 368
-0.952922, 81, 145, 144, 272
-0.953045, 161, 81, 224, 144
-0.95306, 353, 161, 416, 288
-0.953434, 145, 33, 272, 160
-0.953734, 281, 153, 344, 216
-0.954277, 281, 217, 344, 280
-0.95498, 17, 241, 144, 368
-0.955141, 177, 161, 240, 224
-0.955197, 233, 41, 296, 104
-0.955663, 433, 193, 496, 320
-0.955773, 297, 33, 360, 160
-0.955866, 41, 225, 104, 352
-0.956494, 241, 129, 304, 192
-0.956524, 297, 241, 360, 368
-0.95664, 145, 193, 208, 320
-0.956783, 137, 33, 200, 160
-0.956946, 345, 33, 408, 96
-0.957132, 177, 49, 240, 112
-0.95715, 337, 105, 400, 168
-0.957289, 217, 113, 280, 240
-0.957351, 193, 25, 256, 88
-0.957555, 49, 129, 112, 256
-0.957722, 313, 257, 376, 320
-0.958, 353, 225, 416, 288
-0.958003, 433, 129, 496, 256
-0.958047, 305, 145, 368, 208
-0.958171, 137, 89, 200, 152
-0.958294, 369, 313, 432, 375
-0.95864, 17, 241, 80, 304
-0.958699, 377, 57, 440, 120
-0.958764, 321, 33, 384, 96
-0.958882, 217, 161, 280, 224
-0.959197, 337, 57, 400, 120
-0.959282, 1, 65, 128, 192
-0.959435, 73, 145, 136, 208
-0.959536, 193, 129, 256, 192
-0.959678, 121, 193, 184, 320
-0.959967, 385, 81, 448, 208
-0.95999, 193, 201, 256, 264
-0.960186, 297, 113, 360, 176
-0.960187, 273, 57, 336, 120
-0.960422, 225, 225, 288, 352
-0.960436, 409, 97, 472, 224
-0.960592, 249, 185, 312, 248
-0.960825, 281, 97, 344, 352
-0.960949, 433, 257, 496, 320
-0.961105, 249, 225, 312, 352
-0.961114, 297, 33, 360, 96
-0.961206, 89, 193, 152, 320
-0.961223, 417, 57, 480, 120
-0.961571, 337, 249, 400, 312
-0.961617, 65, 121, 128, 184
-0.961849, 417, 289, 480, 352
-0.961889, 425, 313, 488, 375
-0.962053, 433, 201, 496, 264
-0.96206, 369, 249, 432, 312
-0.962069, 201, 49, 264, 112
-0.962088, 145, 185, 208, 248
-0.962326, 17, 49, 80, 112
-0.96262, 401, 33, 464, 96
-0.96268, 249, 113, 312, 240
-0.962752, 249, 241, 312, 304
-0.962958, 217, 137, 280, 200
-0.963046, 385, 193, 448, 320
-0.963281, 377, 33, 440, 96
-0.963312, 305, 73, 368, 136
-0.963362, 313, 65, 376, 320
-0.963549, 289, 193, 352, 256
-0.96363, 161, 209, 224, 272
-0.96363, 281, 241, 344, 304
-0.963704, 249, 17, 312, 144
-0.963783, 17, 281, 80, 344
-0.963788, 393, 313, 456, 375
-0.96418, 65, 241, 192, 368
-0.964586, 73, 169, 136, 232
-0.964679, 393, 249, 456, 312
-0.964719, 105, 33, 168, 160
-0.964792, 161, 129, 224, 192
-0.964909, 337, 241, 464, 304
-0.965209, 201, 97, 264, 352
-0.965418, 337, 129, 400, 192
-0.965509, 345, 185, 408, 248
-0.965563, 345, 97, 408, 352
-0.965594, 73, 209, 136, 272
-0.96589, 345, 81, 408, 144
-0.965907, 417, 121, 480, 184
-0.965955, 73, 241, 136, 368
-0.965961, 345, 281, 408, 344
-0.966132, 273, 33, 336, 160
-0.966272, 193, 33, 256, 160
-0.966366, 185, 105, 248, 168
-0.966429, 41, 281, 104, 344
-0.966678, 177, 241, 240, 368
-0.966703, 177, 33, 304, 96
-0.966704, 217, 1, 280, 128
-0.96673, 121, 241, 184, 368
-0.966747, 73, 97, 136, 352
-0.96708, 289, 217, 416, 280
-0.967198, 161, 233, 224, 296
-0.967251, 121, 129, 184, 192
-0.967278, 161, 1, 224, 256
-0.967371, 385, 81, 448, 144
-0.967444, 193, 201, 320, 264
-0.967448, 273, 33, 336, 96
-0.967479, 249, 17, 312, 80
-0.967554, 97, 73, 160, 136
-0.967858, 273, 241, 336, 368
-0.967905, 9, 33, 72, 160
-0.967937, 193, 1, 256, 256
-0.968036, 273, 153, 400, 216
-0.968327, 249, 65, 312, 192
-0.968453, 17, 73, 80, 136
-0.968625, 161, 145, 288, 208
-0.968642, 249, 73, 312, 136
-0.968675, 273, 113, 336, 176
-0.968981, 225, 129, 352, 192
-0.969032, 225, 241, 288, 304
-0.969114, 377, 225, 440, 288
-0.96916, 249, 97, 312, 352
-0.969375, 433, 33, 496, 96
-0.969418, 113, 49, 176, 112
-0.969464, 137, 249, 200, 312
-0.969736, 41, 81, 104, 144
-0.969777, 273, 185, 400, 248
-0.969779, 161, 25, 224, 88
-0.969875, 57, 233, 120, 296
-0.969888, 41, 129, 104, 192
-0.970042, 361, 9, 424, 72
-0.970085, 105, 177, 168, 240
-0.97024, 417, 233, 480, 296
-0.970523, 225, 241, 352, 304
-0.970805, 237, 145, 268, 272
-0.970805, 337, 265, 464, 328
-0.971078, 33, 65, 96, 192
-0.971116, 181, 49, 212, 112
-0.971225, 169, 17, 232, 144
-0.971245, 177, 129, 240, 375
-0.971363, 177, 257, 240, 320
-0.971373, 49, 169, 112, 232
-0.971418, 217, 73, 280, 136
-0.971564, 341, 161, 372, 288
-0.971625, 161, 105, 224, 168
-0.971686, 241, 161, 304, 224
-0.971717, 281, 1, 344, 256
-0.97174, 145, 241, 208, 368
-0.971845, 105, 249, 168, 312
-0.971938, 1, 1, 128, 128
-0.971988, 217, 49, 280, 176
-0.971993, 233, 137, 264, 200
-0.972014, 433, 161, 496, 224
-0.972038, 357, 33, 388, 96
-0.972064, 257, 209, 320, 272
-0.972083, 257, 57, 384, 120
-0.9721, 385, 273, 448, 336
-0.972125, 401, 241, 464, 368
-0.972212, 113, 49, 240, 112
-0.972383, 121, 281, 184, 344
-0.972464, 97, 129, 224, 192
-0.972466, 409, 177, 472, 304
-0.97252, 129, 81, 256, 144
-0.972525, 181, 129, 212, 192
-0.972591, 289, 33, 416, 96
-0.972591, 349, 105, 380, 168
-0.972979, 161, 241, 288, 304
-0.973116, 401, 9, 464, 72
-0.973119, 73, 1, 136, 256
-0.973159, 177, 169, 304, 232
-0.973161, 273, 129, 400, 192
-0.973263, 49, 129, 112, 375
-0.973339, 289, 249, 416, 312
-0.973502, 225, 241, 256, 304
-0.973555, 33, 305, 96, 368
-0.973597, 317, 209, 348, 336
-0.973677, 225, 161, 352, 224
-0.973754, 241, 161, 272, 224
-0.973772, 337, 57, 464, 120
-0.97382, 113, 217, 240, 280
-0.973895, 73, 129, 104, 192
-0.973906, 337, 201, 464, 264
-0.97391, 337, 33, 464, 96
-0.97394, 197, 145, 228, 272
-0.97404, 17, 105, 80, 168
-0.974064, 113, 97, 176, 352
-0.974081, 221, 161, 252, 288
-0.974176, 361, 113, 424, 176
-0.974198, 97, 177, 224, 240
-0.974254, 193, 49, 224, 112
-0.974301, 369, 313, 496, 375
-0.974354, 145, 121, 272, 184
-0.97451, 353, 241, 384, 368
-0.97455, 149, 89, 180, 152
-0.974566, 233, 217, 296, 280
-0.974605, 49, 57, 112, 120
-0.974676, 217, 1, 280, 256
-0.974713, 321, 129, 352, 256
-0.97486, 169, 81, 200, 144
-0.974877, 337, 9, 400, 72
-0.974923, 385, 201, 448, 264
-0.974925, 33, 57, 160, 120
-0.974943, 345, 33, 376, 96
-0.974955, 49, 209, 112, 272
-0.97498, 105, 153, 168, 216
-0.975006, 73, 113, 104, 240
-0.975009, 297, 65, 328, 192
-0.975013, 193, 81, 320, 144
-0.975013, 433, 81, 496, 208
-0.975043, 197, 193, 228, 320
-0.975074, 237, 193, 268, 320
-0.975084, 225, 17, 288, 80
-0.975085, 305, 129, 336, 256
-0.975147, 81, 49, 144, 112
-0.975284, 353, 121, 480, 184
-0.975302, 313, 201, 344, 264
-0.975328, 137, 33, 200, 288
-0.975363, 185, 81, 248, 144
-0.975419, 353, 161, 416, 224
-0.975423, 177, 129, 208, 256
-0.975433, 273, 105, 400, 168
-0.975453, 181, 177, 212, 304
-0.975524, 209, 193, 240, 320
-0.975622, 429, 33, 460, 160
-0.975793, 229, 25, 260, 88
-0.975873, 65, 257, 128, 320
-0.975897, 349, 81, 380, 208
-0.975996, 373, 33, 404, 160
-0.976049, 33, 209, 160, 272
-0.97607, 361, 57, 392, 120
-0.976099, 289, 193, 320, 320
-0.976118, 297, 113, 328, 176
-0.976145, 197, 233, 228, 296
-0.976165, 241, 25, 368, 88
-0.976201, 113, 217, 176, 280
-0.976207, 1, 265, 128, 328
-0.97627, 1, 241, 128, 304
-0.976302, 77, 193, 108, 320
-0.976307, 357, 257, 388, 320
-0.976315, 225, 129, 288, 375
-0.976355, 425, 1, 488, 256
-0.97642, 153, 129, 216, 375
-0.976447, 317, 65, 348, 192
-0.97657, 305, 225, 336, 288
-0.976582, 229, 161, 260, 224
-0.97662, 349, 33, 380, 160
-0.976696, 425, 81, 488, 144
-0.976705, 385, 105, 448, 168
-0.97675, 333, 33, 364, 96
-0.976778, 241, 217, 368, 280
-0.976782, 425, 9, 488, 72
-0.976842, 405, 33, 436, 160
-0.976861, 345, 1, 408, 256
-0.976865, 209, 265, 272, 328
-0.976883, 285, 57, 316, 120
-0.976892, 1, 121, 128, 184
-0.976908, 65, 97, 128, 160
-0.976928, 273, 81, 336, 144
-0.976933, 341, 129, 372, 192
-0.976937, 469, 289, 500, 352
-0.976941, 61, 273, 92, 336
-0.976953, 353, 289, 480, 352
-0.976953, 65, 1, 192, 128
-0.976987, 77, 201, 108, 264
-0.977001, 245, 41, 276, 104
-0.977005, 441, 33, 472, 160
-0.977088, 149, 49, 180, 112
-0.977101, 361, 113, 392, 240
-0.977141, 209, 145, 240, 272
-0.977145, 25, 97, 88, 352
-0.977159, 325, 145, 356, 208
-0.977165, 249, 1, 312, 256
-0.977171, 337, 57, 368, 120
-0.977216, 293, 209, 324, 272
-0.977254, 1, 265, 32, 328
-0.977291, 329, 81, 360, 208
-0.977341, 393, 225, 424, 288
-0.977384, 409, 201, 472, 264
-0.977415, 321, 281, 384, 344
-0.977419, 165, 113, 196, 240
-0.977432, 177, 153, 208, 216
-0.977574, 289, 273, 416, 336
-0.977682, 289, 145, 320, 272
-0.977702, 209, 249, 240, 312
-0.977758, 369, 241, 400, 368
-0.977767, 389, 49, 420, 176
-0.977827, 93, 113, 124, 240
-0.977833, 325, 265, 356, 328
-0.977872, 381, 241, 412, 368
-0.978051, 193, 265, 320, 328
-0.978072, 1, 89, 128, 152
-0.978076, 337, 193, 368, 256
-0.978136, 49, 145, 176, 208
-0.978354, 81, 105, 208, 168
-0.978379, 421, 33, 452, 96
-0.978391, 241, 105, 304, 168
-0.978427, 321, 225, 352, 288
-0.978461, 377, 129, 440, 256
-0.978542, 169, 49, 200, 112
-0.978673, 273, 81, 400, 144
-0.978724, 113, 249, 240, 312
-0.978808, 225, 225, 256, 352
-0.978837, 437, 289, 468, 352
-0.978932, 369, 33, 400, 96
-0.978961, 165, 153, 196, 216
-0.978992, 385, 1, 448, 256
-0.978996, 97, 281, 160, 344
-0.979019, 185, 201, 216, 264
-0.979078, 417, 33, 448, 160
-0.979092, 177, 281, 240, 344
-0.979129, 349, 57, 380, 120
-0.979164, 437, 33, 468, 96
-0.979183, 225, 105, 352, 168
-0.979192, 225, 113, 256, 240
-0.979212, 381, 33, 412, 96
-0.97924, 129, 153, 192, 216
-0.979268, 333, 209, 364, 336
-0.979272, 49, 241, 176, 304
-0.979273, 137, 25, 200, 88
-0.979305, 261, 41, 292, 104
-0.979305, 341, 161, 372, 224
-0.979352, 97, 241, 160, 368
-0.979391, 389, 57, 420, 120
-0.979393, 385, 97, 448, 352
-0.979436, 425, 57, 456, 120
-0.979448, 409, 33, 440, 96
-0.979483, 313, 9, 376, 72
-0.979489, 81, 81, 208, 144
-0.97949, 425, 129, 488, 375
-0.979522, 41, 1, 104, 256
-0.979524, 329, 305, 392, 368
-0.979575, 373, 265, 404, 328
-0.979583, 25, 113, 88, 240
-0.979632, 329, 153, 392, 216
-0.979705, 469, 177, 500, 304
-0.979712, 157, 161, 188, 288
-0.979727, 9, 313, 72, 375
-0.97995, 97, 153, 224, 216
-0.979956, 293, 233, 324, 296
-0.979989, 157, 177, 188, 240
-0.979991, 425, 313, 456, 375
-0.980022, 137, 209, 200, 272
-0.980026, 321, 33, 352, 96
-0.980035, 289, 289, 352, 352
-0.980059, 189, 89, 220, 152
-0.98009, 285, 161, 316, 224
-0.980195, 461, 33, 492, 160
-0.980213, 273, 297, 400, 360
-0.980368, 17, 41, 48, 104
-0.980379, 277, 145, 308, 272
-0.980391, 93, 177, 124, 304
-0.980432, 385, 1, 416, 128
-0.980514, 33, 177, 96, 304
-0.980552, 305, 1, 368, 375
-0.980556, 5, 241, 36, 368
-0.980557, 209, 89, 240, 152
-0.980561, 285, 137, 316, 200
-0.980596, 169, 121, 200, 184
-0.980621, 329, 121, 360, 184
-0.980654, 225, 65, 256, 128
-0.980659, 241, 217, 272, 280
-0.980669, 341, 241, 372, 304
-0.980699, 149, 81, 180, 208
-0.980701, 17, 241, 48, 368
-0.980724, 77, 153, 108, 216
-0.980791, 385, 257, 416, 320
-0.980815, 461, 129, 492, 256
-0.980923, 457, 313, 488, 375
-0.980948, 97, 97, 160, 224
-0.980951, 377, 57, 408, 120
-0.980953, 337, 81, 464, 144
-0.980974, 321, 177, 448, 240
-0.980992, 17, 73, 48, 136
-0.981009, 205, 65, 236, 128
-0.981011, 305, 193, 336, 320
-0.98109, 249, 161, 280, 288
-0.981114, 361, 33, 392, 160
-0.98112, 93, 169, 124, 232
-0.98116, 161, 57, 288, 120
-0.981249, 209, 209, 240, 272
-0.981327, 309, 249, 340, 312
-0.981375, 337, 9, 464, 72
-0.9814, 197, 25, 228, 88
-0.98145, 301, 33, 332, 96
-0.981456, 245, 137, 276, 200
-0.981466, 369, 81, 400, 144
-0.981523, 213, 241, 244, 368
-0.981546, 209, 97, 240, 224
-0.981555, 13, 249, 44, 312
-0.981619, 29, 249, 60, 312
-0.981677, 377, 313, 408, 375
-0.981683, 181, 25, 212, 88
-0.981834, 41, 81, 72, 144
-0.981909, 465, 201, 496, 264
-0.981973, 29, 225, 60, 352
-0.981991, 209, 57, 336, 120
-0.981997, 145, 177, 176, 304
-0.982025, 469, 241, 500, 368
-0.982028, 189, 177, 220, 240
-0.982065, 217, 41, 248, 104
-0.98211, 469, 225, 500, 288
-0.982131, 165, 33, 196, 160
-0.98215, 305, 145, 336, 208
-0.982225, 41, 273, 72, 336
-0.982241, 49, 297, 176, 360
-0.982258, 17, 185, 144, 248
-0.982261, 73, 65, 104, 192
-0.982268, 281, 1, 344, 375
-0.982285, 281, 209, 312, 272
-0.982301, 137, 49, 168, 112
-0.98244, 373, 241, 404, 304
-0.982507, 17, 1, 80, 256
-0.982559, 373, 81, 404, 208
-0.982571, 317, 57, 348, 120
-0.982713, 429, 241, 460, 304
-0.982715, 421, 81, 452, 208
-0.982722, 413, 313, 444, 375
-0.98273, 57, 33, 120, 160
-0.982753, 181, 81, 212, 208
-0.982756, 129, 25, 256, 88
-0.982757, 469, 249, 500, 312
-0.982768, 449, 33, 480, 96
-0.98279, 49, 241, 80, 304
-0.982808, 113, 273, 240, 336
-0.982826, 185, 241, 216, 368
-0.98284, 449, 265, 480, 328
-0.982883, 281, 33, 312, 96
-0.98291, 97, 1, 160, 256
-0.982925, 189, 257, 220, 320
-0.982943, 393, 209, 424, 336
-0.982999, 337, 217, 368, 280
-0.983, 193, 137, 224, 200
-0.98305, 321, 153, 448, 216
-0.983055, 349, 81, 380, 144
-0.983055, 201, 161, 232, 224
-0.983069, 437, 57, 468, 120
-0.983071, 421, 225, 452, 352
-0.983098, 125, 257, 156, 320
-0.983126, 301, 57, 332, 120
-0.983126, 121, 225, 152, 288
-0.983141, 1, 305, 128, 368
-0.983148, 321, 313, 448, 375
-0.983172, 109, 193, 140, 320
-0.983209, 213, 161, 244, 224
-0.983227, 361, 129, 392, 192
-0.983257, 1, 33, 128, 96
-0.983294, 89, 209, 120, 272
-0.98333, 249, 209, 280, 336
-0.983371, 401, 57, 432, 120
-0.983379, 169, 177, 200, 304
-0.983379, 1, 145, 128, 208
-0.98339, 261, 241, 292, 304
-0.983456, 245, 65, 276, 128
-0.983478, 169, 177, 200, 240
-0.983505, 77, 177, 108, 240
-0.983535, 449, 57, 480, 120
-0.983553, 225, 1, 352, 64
-0.983553, 345, 1, 408, 375
-0.983559, 13, 273, 44, 336
-0.983603, 277, 193, 308, 320
-0.983624, 221, 185, 252, 248
-0.983632, 437, 241, 468, 368
-0.98364, 221, 129, 252, 192
-0.983641, 397, 249, 428, 312
-0.983643, 145, 193, 272, 256
-0.983647, 269, 241, 300, 368
-0.983665, 45, 241, 76, 368
-0.983823, 369, 145, 496, 208
-0.983862, 457, 241, 488, 304
-0.983893, 425, 289, 456, 352
-0.983976, 281, 241, 312, 304
-0.98399, 125, 225, 156, 352
-0.984015, 29, 41, 60, 104
-0.984016, 237, 249, 268, 312
-0.984169, 289, 9, 416, 72
-0.984203, 241, 265, 368, 328
-0.984282, 357, 281, 388, 344
-0.984313, 301, 241, 332, 368
-0.984418, 57, 225, 88, 352
-0.984428, 453, 241, 484, 368
-0.98448, 333, 33, 364, 160
-0.984541, 285, 33, 316, 160
-0.984586, 153, 33, 184, 160
-0.984636, 9, 177, 72, 304
-0.984831, 457, 193, 488, 320
-0.984958, 133, 113, 164, 240
-0.98499, 265, 177, 296, 304
-0.985052, 285, 81, 316, 208
-0.985052, 145, 225, 176, 352
-0.985123, 237, 241, 268, 368
-0.985166, 197, 241, 228, 368
-0.985174, 405, 241, 436, 368
-0.985248, 197, 97, 228, 224
-0.985316, 177, 9, 304, 72
-0.985385, 93, 65, 124, 192
-0.985481, 237, 97, 268, 224
-0.985739, 361, 177, 392, 304
-0.985748, 73, 1, 136, 375
-0.98576, 57, 113, 88, 240
-0.985777, 49, 265, 176, 328
-0.985954, 433, 1, 496, 375
-0.986323, 113, 113, 144, 240
-0.986368, 125, 177, 156, 304
-0.986431, 265, 1, 296, 128
-0.987065, 161, 33, 416, 96
-0.98712, 141, 33, 172, 160
-0.987159, 449, 113, 480, 240
-0.987181, 137, 1, 200, 375
-0.987302, 177, 1, 240, 375
-0.987379, 17, 33, 48, 160
-0.987401, 229, 1, 260, 128
-0.987411, 369, 169, 496, 232
-0.98747, 81, 33, 144, 160
-0.98748, 73, 241, 104, 368
-0.987501, 381, 193, 412, 320
-0.987618, 161, 297, 288, 360
-0.987653, 265, 113, 296, 240
-0.987783, 373, 129, 404, 256
-0.987838, 385, 1, 448, 375
-0.987888, 65, 177, 96, 304
-0.987907, 41, 1, 104, 375
-0.987959, 89, 69, 152, 100
-0.988021, 249, 1, 312, 375
-0.988126, 65, 49, 320, 112
-0.988261, 121, 61, 184, 92
-0.988386, 193, 249, 256, 280
-0.988414, 65, 61, 128, 92
-0.988442, 241, 1, 272, 128
-0.988448, 437, 81, 468, 208
-0.988482, 389, 113, 420, 240
-0.988578, 157, 209, 188, 336
-0.988668, 17, 61, 80, 92
-0.988676, 129, 1, 256, 64
-0.988745, 5, 17, 36, 144
-0.988762, 97, 57, 160, 88
-0.98877, 305, 209, 368, 240
-0.988832, 81, 25, 208, 88
-0.988855, 129, 33, 160, 160
-0.988927, 113, 297, 240, 360
-0.98893, 161, 73, 416, 136
-0.988935, 137, 73, 200, 104
-0.988939, 409, 1, 472, 375
-0.98894, 257, 121, 500, 184
-0.988952, 25, 73, 88, 104
-0.988958, 5, 193, 36, 320
-0.988988, 193, 33, 224, 160
-0.989015, 253, 1, 284, 128
-0.989017, 337, 261, 400, 292
-0.989073, 273, 65, 336, 96
-0.98908, 97, 81, 160, 112
-0.989148, 65, 201, 320, 264
-0.989177, 313, 197, 376, 228
-0.989183, 101, 241, 132, 368
-0.989207, 169, 69, 232, 100
-0.989244, 305, 221, 368, 252
-0.989249, 285, 241, 316, 368
-0.989256, 369, 321, 432, 352
-0.989286, 113, 1, 176, 375
-0.989292, 225, 233, 480, 296
-0.989301, 409, 81, 440, 208
-0.989336, 417, 309, 480, 340
-0.989411, 193, 157, 256, 188
-0.989419, 41, 61, 104, 92
-0.989462, 49, 73, 112, 104
-0.989465, 281, 233, 344, 264
-0.989469, 233, 73, 296, 104
-0.989477, 153, 41, 216, 72
-0.989484, 313, 249, 376, 280
-0.989487, 193, 205, 256, 236
-0.989501, 297, 65, 360, 96
-0.989505, 129, 169, 384, 232
-0.989519, 337, 65, 400, 96
-0.989549, 217, 165, 280, 196
-0.989581, 377, 65, 440, 96
-0.989587, 353, 245, 416, 276
-0.989628, 249, 201, 312, 232
-0.989663, 153, 209, 216, 240
-0.989682, 193, 33, 256, 64
-0.989709, 417, 65, 480, 96
-0.989714, 65, 165, 128, 196
-0.989719, 273, 49, 304, 176
-0.989721, 161, 121, 224, 152
-0.989723, 281, 149, 344, 180
-0.989726, 201, 77, 264, 108
-0.989764, 153, 169, 216, 200
-0.989771, 313, 177, 376, 208
-0.989771, 233, 189, 296, 220
-0.989785, 433, 345, 496, 375
-0.98979, 225, 29, 288, 60
-0.989796, 313, 145, 376, 176
-0.989835, 113, 241, 144, 368
-0.989875, 185, 141, 248, 172
-0.989876, 225, 289, 352, 352
-0.989887, 65, 145, 128, 176
-0.989888, 209, 33, 240, 160
-0.989897, 65, 133, 128, 164
-0.989905, 425, 293, 488, 324
-0.989911, 41, 297, 104, 328
-0.989916, 281, 161, 344, 192
-0.989949, 57, 89, 120, 120
-0.989963, 173, 241, 204, 368
-0.989983, 393, 313, 456, 344
-0.989993, 273, 113, 336, 144
-0.990018, 137, 113, 200, 144
-0.990022, 377, 237, 440, 268
-0.990056, 305, 125, 368, 156
-0.990059, 1, 97, 64, 352
-0.990066, 201, 1, 264, 375
-0.990073, 249, 129, 312, 160
-0.990077, 337, 113, 400, 144
-0.990084, 145, 53, 208, 84
-0.990103, 185, 121, 248, 152
-0.990105, 145, 181, 208, 212
-0.990116, 417, 77, 480, 108
-0.990118, 233, 149, 296, 180
-0.990119, 1, 293, 64, 324
-0.990148, 313, 277, 376, 308
-0.990161, 73, 185, 136, 216
-0.990162, 369, 345, 432, 375
-0.990165, 313, 237, 376, 268
-0.990168, 161, 81, 224, 112
-0.99017, 369, 265, 432, 296
-0.990176, 249, 245, 312, 276
-0.990178, 297, 1, 328, 128
-0.990183, 257, 41, 500, 104
-0.990197, 17, 281, 80, 312
-0.990198, 17, 193, 48, 320
-0.990202, 153, 157, 216, 188
-0.990206, 217, 249, 280, 280
-0.990212, 201, 261, 264, 292
-0.990212, 121, 49, 184, 80
-0.99022, 345, 233, 408, 264
-0.990249, 161, 197, 224, 228
-0.990269, 89, 225, 120, 352
-0.990287, 73, 205, 136, 236
-0.990296, 281, 253, 344, 284
-0.990356, 41, 309, 104, 340
-0.990363, 241, 41, 304, 72
-0.990389, 169, 277, 232, 308
-0.990402, 345, 133, 408, 164
-0.990405, 17, 49, 80, 80
-0.990414, 409, 121, 472, 152
-0.990415, 345, 213, 408, 244
-0.990436, 377, 249, 440, 280
-0.990439, 273, 181, 336, 212
-0.99046, 137, 85, 200, 116
-0.990482, 185, 193, 248, 224
-0.990482, 281, 137, 344, 168
-0.99052, 249, 165, 312, 196
-0.990522, 9, 257, 72, 288
-0.990537, 305, 25, 368, 56
-0.990553, 313, 1, 344, 128
-0.990566, 161, 209, 416, 272
-0.990572, 297, 265, 360, 296
-0.990602, 257, 29, 320, 60
-0.990609, 121, 285, 184, 316
-0.99061, 161, 261, 224, 292
-0.990613, 129, 145, 384, 208
-0.990642, 121, 205, 184, 236
-0.990642, 393, 209, 456, 240
-0.990648, 17, 269, 80, 300
-0.990654, 297, 77, 360, 108
-0.99066, 193, 181, 256, 212
-0.990667, 257, 77, 320, 108
-0.990672, 1, 81, 64, 112
-0.990681, 425, 281, 488, 312
-0.990691, 153, 241, 216, 272
-0.990703, 313, 165, 376, 196
-0.990707, 345, 25, 408, 56
-0.990714, 41, 241, 104, 272
-0.990717, 353, 201, 416, 232
-0.990726, 337, 77, 400, 108
-0.990728, 361, 333, 424, 364
-0.990734, 177, 169, 240, 200
-0.990736, 137, 125, 200, 156
-0.990744, 337, 101, 400, 132
-0.990745, 185, 109, 248, 140
-0.990747, 193, 45, 256, 76
-0.99075, 233, 177, 296, 208
-0.990751, 89, 173, 152, 204
-0.990826, 229, 49, 260, 176
-0.990835, 153, 221, 216, 252
-0.990857, 401, 253, 464, 284
-0.990861, 17, 97, 80, 128
-0.990867, 41, 129, 104, 160
-0.990867, 201, 273, 264, 304
-0.990868, 65, 121, 128, 152
-0.990868, 281, 213, 344, 244
-0.990871, 105, 193, 168, 224
-0.990888, 281, 193, 344, 224
-0.990915, 257, 145, 500, 208
-0.99113, 113, 65, 144, 192
-0.991135, 225, 1, 288, 375
-0.991196, 129, 265, 384, 328
-0.991332, 257, 17, 500, 80
-0.991351, 9, 1, 72, 375
-0.991356, 1, 217, 500, 280
-0.99141, 257, 201, 500, 264
-0.991413, 257, 65, 500, 128
-0.991416, 461, 81, 492, 208
-0.991445, 97, 121, 352, 184
-0.991516, 129, 233, 384, 296
-0.991532, 209, 313, 336, 375
-0.991606, 401, 129, 432, 256
-0.991618, 257, 265, 500, 328
-0.991764, 117, 65, 148, 96
-0.991866, 1, 81, 256, 144
-0.991895, 257, 97, 500, 160
-0.991927, 33, 225, 288, 288
-0.991957, 105, 65, 136, 96
-0.992008, 21, 61, 52, 92
-0.992012, 225, 177, 480, 240
-0.992051, 61, 65, 92, 192
-0.992098, 1, 9, 128, 72
-0.992105, 93, 69, 124, 100
-0.992113, 17, 65, 144, 96
-0.992121, 129, 65, 160, 96
-0.992135, 145, 61, 176, 92
-0.992245, 33, 17, 96, 144
-0.992257, 77, 65, 108, 96
-0.992265, 97, 97, 352, 160
-0.992268, 49, 61, 80, 92
-0.992271, 225, 249, 256, 280
-0.992321, 273, 197, 400, 228
-0.992332, 25, 73, 56, 104
-0.99234, 197, 249, 228, 280
-0.992345, 377, 321, 408, 352
-0.992358, 73, 133, 104, 164
-0.992358, 269, 73, 300, 104
-0.992359, 33, 61, 64, 92
-0.99236, 169, 85, 200, 116
-0.992361, 361, 265, 392, 296
-0.992383, 93, 57, 124, 88
-0.992388, 177, 69, 208, 100
-0.9924, 129, 53, 160, 84
-0.992428, 409, 193, 440, 320
-0.992429, 45, 81, 76, 112
-0.992432, 273, 225, 400, 256
-0.992443, 57, 73, 88, 104
-0.992449, 289, 65, 320, 96
-0.992449, 385, 261, 416, 292
-0.992451, 213, 77, 244, 108
-0.992453, 129, 77, 160, 108
-0.992454, 33, 249, 288, 312
-0.992462, 325, 153, 356, 184
-0.992465, 117, 53, 148, 84
-0.992476, 333, 65, 364, 96
-0.99248, 81, 197, 112, 228
-0.992482, 189, 201, 220, 232
-0.992483, 165, 73, 196, 104
-0.992494, 209, 249, 240, 280
-0.992498, 1, 273, 32, 304
-0.992513, 317, 65, 348, 96
-0.992527, 229, 165, 260, 196
-0.992528, 313, 253, 344, 284
-0.992532, 165, 41, 196, 72
-0.992535, 469, 69, 500, 100
-0.992536, 257, 73, 288, 104
-0.992539, 177, 173, 208, 204
-0.99254, 193, 261, 224, 292
-0.992545, 305, 205, 336, 236
-0.99255, 301, 69, 332, 100
-0.992551, 341, 141, 372, 172
-0.992555, 309, 217, 340, 248
-0.992564, 421, 65, 452, 96
-0.992564, 181, 141, 212, 172
-0.992569, 233, 149, 264, 180
-0.992571, 17, 49, 48, 80
-0.992572, 61, 61, 92, 92
-0.992578, 77, 157, 108, 188
-0.992587, 241, 165, 272, 196
-0.99259, 297, 113, 328, 144
-0.992592, 245, 129, 260, 192
-0.992596, 389, 65, 420, 96
-0.992602, 241, 253, 272, 284
-0.992606, 349, 101, 380, 132
-0.992608, 365, 65, 396, 96
-0.992613, 245, 73, 276, 104
-0.992616, 233, 73, 264, 104
-0.992617, 377, 65, 408, 96
-0.99262, 77, 173, 108, 204
-0.99262, 189, 125, 220, 156
-0.992624, 93, 81, 124, 112
-0.992628, 105, 53, 136, 84
-0.992631, 177, 125, 208, 156
-0.992632, 181, 37, 212, 68
-0.992633, 341, 209, 372, 240
-0.992633, 437, 301, 468, 332
-0.992638, 349, 65, 380, 96
-0.992643, 413, 313, 444, 344
-0.992647, 237, 137, 268, 168
-0.992647, 141, 49, 172, 80
-0.992649, 109, 77, 140, 108
-0.992653, 293, 233, 324, 264
-0.992653, 285, 153, 316, 184
-0.992655, 341, 161, 372, 192
-0.992656, 173, 53, 204, 84
-0.992656, 321, 213, 352, 244
-0.992662, 73, 77, 104, 108
-0.992669, 309, 145, 340, 176
-0.99267, 161, 157, 192, 188
-0.992673, 41, 313, 72, 344
-0.992676, 161, 57, 192, 88
-0.992677, 237, 29, 268, 60
-0.992683, 189, 69, 220, 100
-0.992684, 153, 45, 184, 76
-0.992684, 73, 145, 104, 176
-0.992685, 317, 265, 348, 296
-0.992696, 449, 65, 480, 96
-0.9927, 433, 65, 464, 96
-0.992706, 389, 245, 420, 276
-0.992712, 181, 269, 212, 300
-0.992718, 217, 33, 248, 64
-0.99272, 177, 161, 208, 192
-0.992727, 281, 133, 312, 164
-0.992728, 405, 61, 436, 92
-0.992728, 337, 221, 368, 252
-0.992729, 13, 81, 44, 112
-0.99273, 253, 29, 284, 60
-0.992731, 425, 305, 456, 336
-0.992742, 289, 213, 320, 244
-0.992744, 1, 257, 500, 320
-0.992749, 145, 73, 176, 104
-0.992752, 277, 245, 308, 276
-0.992752, 469, 293, 500, 324
-0.992757, 197, 85, 228, 116
-0.992758, 81, 57, 208, 88
-0.992759, 49, 273, 80, 304
-0.992759, 77, 209, 108, 240
-0.992761, 149, 93, 180, 124
-0.992765, 49, 301, 80, 332
-0.992765, 17, 261, 48, 292
-0.992766, 341, 197, 372, 228
-0.992769, 389, 233, 420, 264
-0.992771, 401, 317, 432, 348
-0.992773, 341, 253, 372, 284
-0.992774, 197, 37, 228, 68
-0.992776, 201, 277, 232, 308
-0.992778, 33, 145, 288, 208
-0.992779, 369, 137, 400, 168
-0.99278, 89, 209, 120, 240
-0.99278, 9, 61, 40, 92
-0.992798, 221, 201, 252, 232
-0.992812, 293, 245, 324, 276
-0.992813, 25, 301, 56, 332
-0.992819, 37, 93, 68, 124
-0.99282, 469, 229, 500, 260
-0.992826, 341, 173, 372, 204
-0.992829, 285, 169, 316, 200
-0.992837, 213, 261, 244, 292
-0.992841, 225, 85, 256, 116
-0.992845, 93, 181, 124, 212
-0.993063, 421, 177, 452, 304
-0.993093, 1, 193, 500, 256
-0.993127, 1, 65, 500, 128
-0.993127, 225, 129, 352, 160
-0.99314, 437, 193, 468, 320
-0.993172, 225, 149, 352, 180
-0.993192, 273, 165, 400, 196
-0.993216, 273, 153, 400, 184
-0.993216, 81, 69, 208, 100
-0.993224, 1, 9, 256, 72
-0.993239, 257, 65, 384, 96
-0.993291, 195, 49, 210, 112
-0.99333, 1, 177, 256, 240
-0.993333, 273, 121, 400, 152
-0.99334, 1, 41, 500, 104
-0.993436, 273, 209, 400, 240
-0.993445, 191, 121, 206, 184
-0.993485, 1, 297, 500, 360
-0.993502, 337, 257, 464, 288
-0.993506, 189, 49, 204, 112
-0.993511, 337, 241, 464, 272
-0.993542, 333, 225, 348, 288
-0.993593, 145, 165, 272, 196
-0.993623, 209, 241, 336, 272
-0.993623, 1, 161, 500, 224
-0.993636, 1, 121, 256, 184
-0.99367, 161, 153, 288, 184
-0.993695, 161, 9, 416, 72
-0.993726, 209, 69, 336, 100
-0.993751, 273, 237, 400, 268
-0.993773, 181, 49, 196, 112
-0.993776, 369, 65, 496, 96
-0.993799, 225, 313, 480, 375
-0.993855, 353, 325, 480, 356
-0.99393, 33, 81, 160, 112
-0.99394, 355, 33, 370, 96
-0.993947, 161, 249, 288, 280
-0.993947, 337, 277, 464, 308
-0.993965, 1, 89, 500, 152
-0.993979, 321, 65, 448, 96
-0.993991, 235, 241, 250, 304
-0.994012, 361, 33, 376, 96
-0.994017, 201, 49, 216, 112
-0.994029, 273, 185, 400, 216
-0.99403, 81, 1, 208, 64
-0.994032, 289, 273, 416, 304
-0.994035, 193, 165, 320, 196
-0.994037, 1, 113, 500, 176
-0.994076, 347, 33, 362, 96
-0.994084, 301, 217, 316, 280
-0.994085, 193, 201, 320, 232
-0.994145, 225, 177, 352, 208
-0.994157, 1, 289, 256, 352
-0.994159, 177, 33, 304, 64
-0.994256, 367, 33, 382, 96
-0.994265, 81, 81, 208, 112
-0.994274, 355, 57, 370, 120
-0.994296, 291, 129, 306, 192
-0.994309, 337, 217, 464, 248
-0.994359, 257, 253, 384, 284
-0.994361, 247, 25, 262, 88
-0.99438, 203, 225, 218, 288
-0.994386, 213, 249, 228, 312
-0.994388, 17, 53, 144, 84
-0.994401, 289, 77, 416, 108
-0.994407, 1, 273, 128, 304
-0.994409, 253, 25, 268, 88
-0.994474, 225, 189, 352, 220
-0.994484, 145, 45, 272, 76
-0.994489, 373, 33, 388, 96
-0.994499, 113, 233, 240, 264
-0.994514, 189, 161, 204, 224
-0.994525, 241, 25, 256, 88
-0.994528, 321, 233, 336, 296
-0.994533, 81, 153, 208, 184
-0.99457, 251, 137, 266, 200
-0.994585, 305, 25, 432, 56
-0.994586, 349, 57, 364, 120
-0.994597, 81, 209, 96, 272
-0.994599, 341, 33, 356, 96
-0.994607, 185, 121, 200, 184
-0.99461, 373, 257, 388, 320
-0.994626, 229, 241, 244, 304
-0.994634, 129, 73, 256, 104
-0.994658, 295, 209, 310, 272
-0.994705, 241, 25, 368, 56
-0.994757, 67, 265, 82, 328
-0.994767, 175, 49, 190, 112
-0.994797, 239, 137, 254, 200
-0.994818, 97, 221, 224, 252
-0.994823, 273, 109, 400, 140
-0.994831, 209, 113, 336, 144
-0.99484, 209, 253, 336, 284
-0.994841, 129, 117, 256, 148
-0.994859, 273, 141, 400, 172
-0.994876, 17, 241, 144, 272
-0.994893, 1, 93, 128, 124
-0.994905, 129, 261, 256, 292
-0.99491, 393, 225, 408, 288
-0.994918, 441, 33, 456, 96
-0.994924, 435, 33, 450, 96
-0.994932, 379, 57, 394, 120
-0.994935, 129, 105, 256, 136
-0.994942, 315, 209, 330, 272
-0.994964, 203, 249, 218, 312
-0.994989, 343, 57, 358, 120
-0.994992, 437, 289, 452, 352
-0.994992, 195, 25, 210, 88
-0.995, 25, 41, 40, 104
-0.995003, 259, 41, 274, 104
-0.995006, 231, 161, 246, 224
-0.995013, 353, 137, 368, 200
-0.995014, 357, 257, 372, 320
-0.995021, 379, 33, 394, 96
-0.995029, 389, 57, 404, 120
-0.99503, 309, 249, 324, 312
-0.995034, 15, 121, 30, 184
-0.995041, 193, 213, 320, 244
-0.99505, 197, 249, 212, 312
-0.995056, 431, 57, 446, 120
-0.995081, 207, 65, 222, 128
-0.995084, 309, 209, 324, 272
-0.995086, 145, 85, 272, 116
-0.995087, 335, 33, 350, 96
-0.995088, 23, 233, 38, 296
-0.995097, 161, 273, 288, 304
-0.995101, 87, 209, 102, 272
-0.995107, 369, 289, 496, 320
-0.995115, 379, 313, 394, 375
-0.995121, 233, 25, 248, 88
-0.995124, 353, 121, 480, 152
-0.995127, 19, 41, 34, 104
-0.99513, 49, 101, 176, 132
-0.995131, 337, 97, 368, 352
-0.99514, 365, 57, 380, 120
-0.995163, 7, 265, 22, 328
-0.995167, 353, 345, 480, 375
-0.995172, 293, 233, 308, 296
-0.995188, 181, 153, 196, 216
-0.995188, 291, 153, 306, 216
-0.99519, 1, 125, 128, 156
-0.995193, 81, 133, 208, 164
-0.995194, 189, 25, 204, 88
-0.995195, 423, 33, 438, 96
-0.995212, 1, 137, 500, 200
-0.995213, 447, 33, 462, 96
-0.995218, 145, 137, 272, 168
-0.995225, 467, 217, 482, 280
-0.995231, 369, 77, 496, 108
-0.995232, 347, 129, 362, 192
-0.995235, 293, 41, 308, 104
-0.995245, 81, 205, 208, 236
-0.995265, 225, 161, 240, 224
-0.995271, 323, 209, 338, 272
-0.995279, 17, 257, 144, 288
-0.995283, 385, 33, 400, 96
-0.995283, 211, 209, 226, 272
-0.995292, 17, 265, 32, 328
-0.995294, 321, 197, 448, 228
-0.995301, 113, 249, 240, 280
-0.995307, 1, 301, 128, 332
-0.99531, 219, 249, 234, 312
-0.995311, 371, 57, 386, 120
-0.995318, 241, 241, 256, 304
-0.995323, 327, 257, 342, 320
-0.995323, 215, 65, 230, 128
-0.99534, 247, 49, 262, 112
-0.995347, 367, 257, 382, 320
-0.995349, 369, 313, 496, 344
-0.995351, 79, 129, 94, 192
-0.995357, 97, 45, 224, 76
-0.995364, 429, 33, 444, 96
-0.995373, 431, 305, 446, 368
-0.99538, 383, 257, 398, 320
-0.995415, 483, 225, 498, 288
-0.995417, 65, 285, 192, 316
-0.995433, 439, 57, 454, 120
-0.995452, 329, 33, 344, 96
-0.995459, 323, 33, 338, 96
-0.99548, 61, 233, 76, 296
-0.995484, 61, 273, 76, 336
-0.995485, 321, 109, 448, 140
-0.995499, 137, 257, 152, 320
-0.99552, 319, 257, 334, 320
-0.995529, 157, 161, 172, 224
-0.995547, 333, 57, 348, 120
-0.995551, 129, 61, 256, 92
-0.995552, 327, 233, 342, 296
-0.995555, 241, 49, 256, 112
-0.995559, 169, 49, 184, 112
-0.995571, 337, 229, 464, 260
-0.995575, 221, 65, 236, 128
-0.995578, 161, 189, 288, 220
-0.99558, 265, 41, 280, 104
-0.995581, 197, 137, 212, 200
-0.995592, 253, 49, 268, 112
-0.995608, 225, 265, 352, 296
-0.99562, 241, 161, 256, 224
-0.995636, 45, 241, 60, 304
-0.99564, 325, 57, 340, 120
-0.995652, 201, 25, 216, 88
-0.995655, 295, 105, 310, 168
-0.995669, 453, 33, 468, 96
-0.995669, 257, 289, 500, 352
-0.995673, 317, 97, 348, 352
-0.995674, 69, 233, 84, 296
-0.995676, 257, 37, 384, 68
-0.99569, 171, 81, 186, 144
-0.995702, 353, 17, 480, 48
-0.99571, 297, 137, 312, 200
-0.995721, 465, 313, 480, 375
-0.995725, 55, 241, 70, 304
-0.995733, 151, 201, 166, 264
-0.995736, 319, 137, 334, 200
-0.995741, 225, 1, 256, 256
-0.995743, 13, 241, 28, 304
-0.995753, 329, 193, 344, 256
-0.995756, 57, 297, 72, 360
-0.99576, 377, 281, 392, 344
-0.995776, 393, 33, 408, 96
-0.995777, 193, 85, 320, 116
-0.995784, 477, 241, 492, 304
-0.995787, 301, 33, 316, 96
-0.995788, 341, 121, 356, 184
-0.995788, 425, 313, 440, 375
-0.99579, 147, 49, 162, 112
-0.9958, 365, 105, 380, 168
-0.995802, 33, 213, 160, 244
-0.99581, 129, 33, 256, 64
-0.99582, 113, 193, 240, 224
-0.995843, 1, 173, 128, 204
-0.995867, 209, 129, 240, 375
-0.995875, 241, 129, 272, 375
-0.995885, 369, 205, 496, 236
-0.995895, 73, 33, 104, 288
-0.995922, 49, 181, 176, 212
-0.995924, 81, 129, 112, 375
-0.995957, 93, 97, 124, 352
-0.995965, 289, 129, 320, 375
-0.995977, 113, 281, 240, 312
-0.996004, 209, 57, 336, 88
-0.996056, 49, 225, 176, 256
-0.99612, 97, 165, 224, 196
-0.996159, 289, 325, 416, 356
-0.996169, 49, 113, 176, 144
-0.996182, 1, 289, 128, 320
-0.996194, 193, 45, 320, 76
-0.996199, 197, 97, 228, 352
-0.996217, 321, 1, 352, 256
-0.996264, 161, 237, 288, 268
-0.996278, 49, 169, 176, 200
-0.996288, 125, 65, 140, 96
-0.996289, 135, 65, 150, 96
-0.996298, 321, 293, 448, 324
-0.996318, 193, 1, 224, 256
-0.996329, 369, 133, 496, 164
-0.996334, 321, 185, 448, 216
-0.996346, 289, 309, 416, 340
-0.99636, 17, 145, 144, 176
-0.996369, 177, 1, 208, 256
-0.996385, 193, 225, 320, 256
-0.996387, 49, 269, 176, 300
-0.996387, 305, 97, 336, 352
-0.996406, 65, 245, 192, 276
-0.996408, 177, 177, 304, 208
-0.99642, 301, 1, 332, 256
-0.996448, 1, 193, 128, 224
-0.996455, 1, 105, 128, 136
-0.996455, 321, 157, 448, 188
-0.996477, 117, 65, 132, 96
-0.996501, 229, 97, 260, 352
-0.996505, 61, 97, 92, 352
-0.99651, 177, 125, 304, 156
-0.996534, 97, 177, 224, 208
-0.996546, 49, 193, 176, 224
-0.996547, 111, 65, 126, 96
-0.996571, 65, 257, 192, 288
-0.996582, 353, 33, 480, 64
-0.996602, 305, 345, 432, 375
-0.996615, 365, 97, 396, 352
-0.996641, 209, 1, 240, 256
-0.996693, 33, 41, 160, 72
-0.996695, 161, 289, 416, 352
-0.996708, 321, 133, 448, 164
-0.996712, 129, 205, 256, 236
-0.996721, 25, 61, 40, 92
-0.99673, 93, 1, 124, 256
-0.996744, 105, 65, 120, 96
-0.996746, 257, 53, 384, 84
-0.99683, 49, 305, 176, 336
-0.996834, 353, 89, 480, 120
-0.996847, 193, 21, 320, 52
-0.996848, 277, 97, 308, 352
-0.996849, 241, 81, 368, 112
-0.99688, 165, 1, 196, 256
-0.996887, 369, 101, 496, 132
-0.99689, 369, 301, 496, 332
-0.996917, 369, 145, 496, 176
-0.996919, 97, 69, 112, 100
-0.99692, 469, 97, 500, 352
-0.996933, 225, 101, 352, 132
-0.996943, 305, 37, 432, 68
-0.996956, 141, 61, 156, 92
-0.996976, 31, 61, 46, 92
-0.997029, 321, 169, 448, 200
-0.997035, 113, 293, 240, 324
-0.997068, 265, 65, 296, 320
-0.997074, 53, 61, 68, 92
-0.997094, 349, 1, 380, 256
-0.997101, 85, 65, 100, 96
-0.997104, 181, 129, 212, 375
-0.997134, 233, 245, 248, 276
-0.997146, 113, 97, 144, 352
-0.997157, 469, 1, 500, 256
-0.997165, 185, 69, 200, 100
-0.997171, 59, 61, 74, 92
-0.997179, 37, 61, 52, 92
-0.997182, 25, 73, 40, 104
-0.997187, 245, 133, 260, 164
-0.997233, 211, 249, 226, 280
-0.997239, 193, 141, 208, 172
-0.997247, 289, 1, 320, 256
-0.997267, 91, 65, 106, 96
-0.997268, 47, 61, 62, 92
-0.997269, 147, 61, 162, 92
-0.997277, 43, 81, 58, 112
-0.997306, 49, 73, 64, 104
-0.997306, 179, 73, 194, 104
-0.997317, 133, 53, 148, 84
-0.997319, 457, 97, 488, 352
-0.997323, 217, 77, 232, 108
-0.997327, 19, 61, 34, 92
-0.997328, 65, 61, 80, 92
-0.997335, 281, 73, 296, 104
-0.997337, 449, 1, 480, 256
-0.997349, 1, 313, 256, 375
-0.997354, 343, 65, 358, 96
-0.997362, 143, 73, 158, 104
-0.997367, 77, 65, 92, 96
-0.997372, 99, 57, 114, 88
-0.997376, 47, 313, 62, 344
-0.997377, 71, 65, 86, 96
-0.997378, 331, 213, 346, 244
-0.997382, 187, 121, 202, 152
-0.997385, 127, 53, 142, 84
-0.997405, 389, 65, 404, 96
-0.997406, 329, 65, 344, 96
-0.997408, 335, 65, 350, 96
-0.997417, 191, 69, 206, 100
-0.997433, 197, 257, 212, 288
-0.997434, 169, 97, 200, 352
-0.997437, 293, 153, 308, 184
-0.997438, 31, 73, 46, 104
-0.997438, 485, 69, 500, 100
-0.997443, 275, 73, 290, 104
-0.997445, 311, 65, 326, 96
-0.997446, 389, 65, 420, 320
-0.997471, 317, 65, 332, 96
-0.997471, 291, 121, 306, 152
-0.997475, 37, 81, 52, 112
-0.997476, 121, 53, 136, 84
-0.997477, 373, 269, 388, 300
-0.997477, 181, 53, 196, 84
-0.997489, 277, 1, 308, 256
-0.997492, 235, 73, 250, 104
-0.997494, 13, 269, 28, 300
-0.997495, 431, 305, 446, 336
-0.997501, 137, 65, 168, 320
-0.997503, 383, 65, 398, 96
-0.997505, 191, 165, 206, 196
-0.997506, 65, 73, 80, 104
-0.997513, 247, 73, 262, 104
-0.997514, 223, 249, 238, 280
-0.997531, 19, 49, 34, 80
-0.997547, 59, 73, 74, 104
-0.997547, 121, 1, 152, 256
-0.997549, 349, 65, 364, 96
-0.997555, 153, 61, 168, 92
-0.997555, 269, 73, 284, 104
-0.997568, 61, 1, 92, 256
-0.99757, 193, 125, 208, 156
-0.997572, 241, 77, 256, 108
-0.997573, 355, 261, 370, 292
-0.997575, 227, 77, 242, 108
-0.997578, 479, 69, 494, 100
-0.997584, 425, 65, 440, 96
-0.997585, 309, 213, 324, 244
-0.997588, 259, 73, 274, 104
-0.997595, 185, 161, 200, 192
-0.997595, 171, 73, 186, 104
-0.997599, 303, 69, 318, 100
-0.997606, 205, 241, 220, 272
-0.997615, 211, 277, 226, 308
-0.997618, 1, 273, 16, 304
-0.997622, 149, 33, 180, 288
-0.99763, 349, 129, 380, 375
-0.997635, 347, 149, 362, 180
-0.997636, 319, 145, 334, 176
-0.997642, 353, 149, 368, 180
-0.997643, 323, 65, 338, 96
-0.997646, 321, 257, 336, 288
-0.997649, 253, 73, 268, 104
-0.997651, 363, 65, 378, 96
-0.997662, 291, 133, 306, 164
-0.997664, 357, 65, 372, 96
-0.997667, 75, 129, 90, 160
-0.99767, 1, 17, 500, 80
-0.99767, 395, 65, 410, 96
-0.99767, 211, 77, 226, 108
-0.99767, 115, 53, 130, 84
-0.997673, 237, 1, 268, 256
-0.997676, 245, 253, 260, 284
-0.997689, 369, 65, 384, 96
-0.997694, 203, 261, 218, 292
-0.997695, 149, 49, 164, 80
-0.997696, 425, 313, 440, 344
-0.997698, 231, 33, 246, 64
-0.9977, 103, 77, 118, 108
-0.997701, 231, 165, 246, 196
-0.997704, 113, 77, 128, 108
-0.997704, 185, 41, 200, 72
-0.997705, 403, 65, 418, 96
-0.997708, 431, 65, 446, 96
-0.997708, 315, 289, 330, 320
-0.997711, 25, 49, 40, 80
-0.997718, 7, 273, 22, 304
-0.99772, 243, 149, 258, 180
-0.997729, 439, 65, 454, 96
-0.99773, 243, 29, 258, 60
-0.997734, 13, 121, 28, 152
-0.997737, 389, 257, 404, 288
-0.997738, 239, 249, 254, 280
-0.997739, 333, 229, 348, 260
-0.997742, 377, 345, 392, 375
-0.997742, 419, 317, 434, 348
-0.997754, 375, 65, 390, 96
-0.997757, 447, 65, 462, 96
-0.997767, 393, 233, 408, 264
-0.997769, 367, 265, 382, 296
-0.99777, 267, 29, 282, 60
-0.997771, 109, 53, 124, 84
-0.997775, 171, 41, 186, 72
-0.997789, 155, 49, 170, 80
-0.997789, 125, 77, 140, 108
-0.997791, 137, 77, 152, 108
-0.997797, 163, 45, 178, 76
-0.997819, 333, 1, 364, 256
-0.997843, 253, 129, 284, 375
-0.997898, 377, 97, 408, 352
-0.99793, 25, 97, 56, 352
-0.997983, 413, 97, 444, 352
-0.997995, 13, 1, 44, 256
-0.998004, 49, 97, 80, 352
-0.998017, 49, 1, 80, 256
-0.998104, 405, 1, 436, 256
-0.998108, 369, 1, 400, 256
-0.998124, 129, 313, 384, 375
-0.998163, 105, 1, 136, 256
-0.998233, 253, 1, 284, 256
-0.99825, 125, 97, 156, 352
-0.998325, 421, 1, 452, 256
-0.998355, 157, 129, 188, 375
-0.998401, 137, 79, 200, 94
-0.998405, 97, 75, 160, 90
-0.998419, 369, 323, 432, 338
-0.998421, 337, 267, 400, 282
-0.998425, 305, 223, 368, 238
-0.998427, 13, 97, 44, 352
-0.998435, 201, 251, 264, 266
-0.998436, 437, 1, 468, 256
-0.998442, 341, 175, 372, 190
-0.998442, 149, 91, 180, 106
-0.998443, 341, 193, 372, 208
-0.998443, 93, 81, 124, 96
-0.998443, 225, 177, 256, 192
-0.998444, 241, 145, 272, 160
-0.998445, 393, 235, 424, 250
-0.998445, 361, 275, 392, 290
-0.998445, 1, 273, 32, 288
-0.998446, 289, 125, 320, 140
-0.998446, 1, 129, 32, 375
-0.998446, 173, 55, 204, 70
-0.998447, 301, 233, 332, 248
-0.998448, 113, 179, 144, 194
-0.998448, 17, 75, 80, 90
-0.998449, 77, 199, 108, 214
-0.99845, 469, 235, 500, 250
-0.998451, 17, 271, 48, 286
-0.998451, 301, 137, 332, 152
-0.998452, 313, 205, 376, 220
-0.998452, 129, 285, 160, 300
-0.998452, 341, 185, 372, 200
-0.998452, 37, 257, 68, 272
-0.998453, 17, 291, 48, 306
-0.998453, 181, 153, 212, 168
-0.998454, 17, 265, 48, 280
-0.998454, 285, 165, 316, 180
-0.998455, 137, 75, 168, 90
-0.998455, 341, 169, 372, 184
-0.998457, 181, 195, 212, 210
-0.998458, 65, 75, 128, 90
-0.998459, 93, 183, 124, 198
-0.998459, 309, 261, 340, 276
-0.99846, 289, 153, 320, 168
-0.99846, 49, 273, 80, 288
-0.99846, 329, 269, 360, 284
-0.99846, 233, 265, 264, 280
-0.998461, 225, 169, 256, 184
-0.998461, 389, 263, 420, 278
-0.998461, 37, 65, 68, 80
-0.998461, 289, 81, 320, 96
-0.998462, 341, 261, 372, 276
-0.998463, 93, 173, 124, 188
-0.998463, 289, 233, 352, 248
-0.998463, 189, 131, 220, 146
-0.998464, 77, 69, 108, 84
-0.998464, 281, 249, 312, 264
-0.998465, 301, 287, 332, 302
-0.998465, 313, 249, 376, 264
-0.998466, 257, 75, 320, 90
-0.998466, 129, 83, 160, 98
-0.998466, 53, 279, 84, 294
-0.998467, 277, 81, 308, 96
-0.998467, 309, 301, 340, 316
-0.998468, 245, 263, 276, 278
-0.998468, 169, 79, 232, 94
-0.998468, 281, 153, 344, 168
-0.998469, 333, 69, 364, 84
-0.998471, 193, 81, 224, 96
-0.998471, 177, 127, 208, 142
-0.998471, 313, 217, 376, 232
-0.998472, 373, 261, 404, 276
-0.998472, 225, 77, 288, 92
-0.998472, 349, 103, 380, 118
-0.998473, 249, 209, 312, 224
-0.998475, 281, 161, 344, 176
-0.998475, 337, 227, 368, 242
-0.998476, 313, 149, 344, 164
-0.998476, 77, 211, 108, 226
-0.998477, 397, 211, 428, 226
-0.998478, 405, 319, 436, 334
-0.998478, 45, 73, 76, 88
-0.998479, 329, 153, 360, 168
-0.99848, 17, 51, 48, 66
-0.99848, 301, 211, 332, 226
-0.99848, 301, 71, 332, 86
-0.99848, 301, 143, 332, 158
-0.99848, 337, 207, 368, 222
-0.998482, 89, 67, 120, 82
-0.998483, 289, 241, 320, 256
-0.998484, 313, 199, 376, 214
-0.998484, 417, 313, 480, 328
-0.998485, 77, 185, 108, 200
-0.998485, 417, 313, 448, 328
-0.998485, 41, 97, 72, 112
-0.998486, 393, 211, 456, 226
-0.998487, 197, 253, 228, 268
-0.998488, 133, 65, 164, 80
-0.998489, 41, 75, 104, 90
-0.99849, 193, 79, 256, 94
-0.998491, 101, 67, 132, 82
-0.998492, 69, 129, 100, 144
-0.998492, 205, 277, 236, 292
-0.998492, 121, 249, 152, 264
-0.998493, 73, 147, 104, 162
-0.998493, 73, 209, 136, 224
-0.998493, 341, 159, 372, 174
-0.998493, 221, 203, 252, 218
-0.998494, 241, 151, 272, 166
-0.998494, 245, 77, 276, 92
-0.998495, 193, 161, 256, 176
-0.998495, 169, 161, 200, 176
-0.998495, 33, 73, 64, 88
-0.998495, 89, 211, 120, 226
-0.998496, 281, 249, 344, 264
-0.998496, 225, 259, 256, 274
-0.998496, 153, 199, 216, 214
-0.998497, 153, 85, 216, 100
-0.998498, 433, 207, 496, 222
-0.998498, 65, 145, 128, 160
-0.998498, 293, 247, 324, 262
-0.998498, 289, 159, 320, 174
-0.998498, 313, 191, 376, 206
-0.998499, 225, 77, 256, 92
-0.9985, 233, 247, 296, 262
-0.998501, 289, 211, 352, 226
-0.998501, 77, 173, 108, 188
-0.998502, 57, 303, 88, 318
-0.998502, 321, 215, 352, 230
-0.998502, 241, 167, 272, 182
-0.998502, 177, 127, 240, 142
-0.998502, 65, 175, 128, 190
-0.998502, 137, 205, 200, 220
-0.998502, 169, 75, 200, 90
-0.998503, 77, 179, 108, 194
-0.998504, 217, 167, 280, 182
-0.998504, 281, 75, 312, 90
-0.998505, 417, 211, 448, 226
-0.998505, 361, 357, 424, 372
-0.998505, 77, 167, 108, 182
-0.998506, 241, 139, 272, 154
-0.998506, 425, 295, 488, 310
-0.998506, 65, 169, 128, 184
-0.998506, 317, 267, 348, 282
-0.998506, 97, 67, 160, 82
-0.998507, 341, 149, 372, 164
-0.998507, 177, 81, 208, 96
-0.998508, 117, 67, 148, 82
-0.998509, 153, 45, 216, 60
-0.998509, 341, 213, 372, 228
-0.998509, 313, 185, 376, 200
-0.998509, 161, 73, 224, 88
-0.998511, 233, 185, 296, 200
-0.998511, 321, 259, 384, 274
-0.998513, 17, 65, 80, 80
-0.998513, 121, 289, 184, 304
-0.998513, 17, 279, 80, 294
-0.998514, 177, 173, 208, 188
-0.998514, 193, 205, 256, 220
-0.998515, 377, 237, 440, 252
-0.998515, 341, 221, 372, 236
-0.998515, 409, 359, 472, 374
-0.998515, 57, 97, 120, 112
-0.998516, 289, 239, 352, 254
-0.998516, 425, 307, 488, 322
-0.998517, 233, 173, 296, 188
-0.998517, 193, 271, 224, 286
-0.998517, 353, 257, 416, 272
-0.998518, 73, 141, 104, 156
-0.998519, 165, 85, 196, 100
-0.99852, 137, 121, 200, 136
-0.99852, 313, 231, 376, 246
-0.99852, 345, 239, 408, 254
-0.998521, 41, 67, 104, 82
-0.998521, 313, 179, 376, 194
-0.998521, 289, 217, 352, 232
-0.998523, 145, 127, 208, 142
-0.998523, 369, 331, 432, 346
-0.998523, 257, 249, 320, 264
-0.998524, 65, 181, 128, 196
-0.998524, 73, 153, 104, 168
-0.998524, 153, 171, 216, 186
-0.998524, 177, 199, 240, 214
-0.998524, 321, 149, 384, 164
-0.998524, 377, 323, 408, 338
-0.998524, 153, 165, 216, 180
-0.998525, 65, 151, 128, 166
-0.998526, 313, 243, 376, 258
-0.998527, 193, 145, 256, 160
-0.998527, 161, 133, 224, 148
-0.998527, 57, 75, 88, 90
-0.998528, 297, 71, 360, 86
-0.998529, 9, 287, 72, 302
-0.998529, 65, 139, 128, 154
-0.99853, 365, 267, 396, 282
-0.998532, 345, 231, 408, 246
-0.998532, 241, 203, 304, 218
-0.998532, 305, 137, 368, 152
-0.998533, 97, 59, 160, 74
-0.998533, 273, 125, 336, 140
-0.998534, 129, 49, 192, 64
-0.998534, 209, 139, 272, 154
-0.998534, 217, 267, 280, 282
-0.998535, 345, 245, 408, 260
-0.998535, 137, 73, 200, 88
-0.998537, 417, 319, 480, 334
-0.998537, 217, 179, 280, 194
-0.998537, 73, 67, 136, 82
-0.998537, 49, 309, 112, 324
-0.998537, 345, 77, 408, 92
-0.998538, 21, 63, 52, 78
-0.998538, 161, 211, 224, 226
-0.998539, 77, 161, 108, 176
-0.998539, 425, 301, 488, 316
-0.99854, 201, 273, 264, 288
-0.998542, 297, 145, 360, 160
-0.998542, 65, 163, 128, 178
-0.998542, 233, 253, 296, 268
-0.998542, 369, 269, 432, 284
-0.998542, 281, 167, 344, 182
-0.998543, 217, 205, 280, 220
-0.998544, 257, 77, 288, 92
-0.998544, 353, 209, 416, 224
-0.998545, 73, 187, 136, 202
-0.998547, 297, 267, 360, 282
-0.998547, 105, 83, 168, 98
-0.998548, 65, 157, 128, 172
-0.998548, 161, 205, 224, 220
-0.998548, 153, 193, 216, 208
-0.998548, 337, 113, 400, 128
-0.998549, 17, 57, 80, 72
-0.998549, 241, 255, 272, 270
-0.998549, 433, 289, 496, 304
-0.998549, 213, 79, 244, 94
-0.998549, 73, 203, 136, 218
-0.99855, 185, 133, 248, 148
-0.99855, 377, 251, 440, 266
-0.998551, 273, 183, 336, 198
-0.998551, 409, 77, 472, 92
-0.998551, 189, 125, 220, 140
-0.998551, 185, 49, 248, 64
-0.998552, 257, 243, 320, 258
-0.998552, 193, 169, 256, 184
-0.998552, 249, 145, 312, 160
-0.998552, 297, 273, 360, 288
-0.998553, 289, 205, 352, 220
-0.998553, 249, 41, 312, 56
-0.998554, 345, 131, 408, 146
-0.998556, 9, 273, 72, 288
-0.998558, 353, 275, 416, 290
-0.998558, 177, 253, 240, 268
-0.998558, 65, 133, 128, 148
-0.998559, 9, 303, 72, 318
-0.99856, 21, 75, 52, 90
-0.998562, 209, 253, 240, 268
-0.998564, 269, 75, 300, 90
-0.998564, 401, 97, 432, 352
-0.998568, 81, 205, 112, 220
-0.998568, 25, 1, 56, 256
-0.99857, 149, 75, 180, 90
-0.998577, 101, 75, 132, 90
-0.998578, 113, 75, 144, 90
-0.998579, 69, 75, 100, 90
-0.998589, 69, 135, 100, 150
-0.998593, 89, 75, 120, 90
-0.998595, 333, 209, 348, 336
-0.998641, 125, 75, 156, 90
-0.998669, 231, 177, 246, 304
-0.998699, 225, 249, 256, 264
-0.998707, 211, 193, 226, 320
-0.998732, 291, 145, 306, 272
-0.998752, 85, 129, 100, 256
-0.998754, 433, 33, 448, 160
-0.998758, 385, 241, 400, 368
-0.99876, 371, 241, 386, 368
-0.998772, 427, 33, 442, 160
-0.998774, 37, 65, 68, 320
-0.998798, 81, 193, 96, 320
-0.998818, 191, 129, 206, 256
-0.998821, 237, 193, 252, 320
-0.998824, 217, 193, 232, 320
-0.998835, 381, 33, 396, 160
-0.998841, 371, 33, 386, 160
-0.998848, 225, 161, 240, 288
-0.998856, 199, 145, 214, 272
-0.998857, 425, 97, 456, 352
-0.998866, 439, 33, 454, 160
-0.998875, 317, 129, 332, 256
-0.99888, 205, 209, 220, 336
-0.998884, 185, 113, 200, 240
-0.998885, 251, 193, 266, 320
-0.998892, 445, 97, 476, 352
-0.998893, 243, 193, 258, 320
-0.998902, 365, 81, 380, 208
-0.998909, 329, 129, 344, 256
-0.99891, 295, 193, 310, 320
-0.99891, 485, 209, 500, 336
-0.998919, 445, 33, 460, 160
-0.998922, 471, 145, 486, 272
-0.998929, 17, 241, 32, 368
-0.998931, 391, 33, 406, 160
-0.998936, 327, 225, 342, 352
-0.998936, 285, 177, 300, 304
-0.998937, 253, 145, 268, 272
-0.998944, 153, 177, 168, 304
-0.998946, 191, 81, 206, 208
-0.998948, 309, 65, 324, 192
-0.998954, 319, 209, 334, 336
-0.998955, 395, 209, 410, 336
-0.998957, 421, 33, 436, 160
-0.998958, 311, 225, 326, 352
-0.998958, 89, 193, 104, 320
-0.998961, 211, 241, 226, 368
-0.998967, 361, 33, 376, 160
-0.998967, 237, 145, 252, 272
-0.998968, 343, 81, 358, 208
-0.998974, 451, 33, 466, 160
-0.99898, 359, 225, 374, 352
-0.998983, 355, 81, 370, 208
-0.998997, 297, 65, 312, 192
-0.998998, 75, 145, 90, 272
-0.998999, 479, 161, 494, 288
-0.999, 191, 193, 206, 320
-0.99901, 247, 145, 262, 272
-0.999011, 327, 65, 342, 192
-0.999017, 479, 209, 494, 336
-0.999018, 229, 225, 244, 352
-0.999024, 397, 33, 412, 160
-0.999028, 219, 145, 234, 272
-0.999031, 339, 145, 354, 272
-0.999033, 303, 65, 318, 192
-0.999041, 297, 145, 312, 272
-0.999043, 461, 33, 476, 160
-0.999045, 319, 65, 334, 192
-0.99905, 471, 33, 486, 160
-0.99905, 45, 241, 60, 368
-0.999052, 351, 129, 366, 256
-0.999053, 301, 209, 316, 336
-0.999059, 159, 161, 174, 288
-0.99906, 257, 193, 272, 320
-0.999064, 303, 145, 318, 272
-0.999066, 375, 81, 390, 208
-0.999066, 219, 241, 234, 368
-0.999069, 91, 145, 106, 272
-0.999091, 385, 81, 400, 208
-0.999092, 199, 193, 214, 320
-0.999103, 75, 209, 90, 336
-0.999109, 471, 193, 486, 320
-0.999116, 309, 145, 324, 272
-0.999116, 477, 1, 492, 128
-0.999122, 155, 17, 170, 144
-0.999128, 467, 241, 482, 368
-0.999129, 31, 241, 46, 368
-0.999138, 231, 113, 246, 240
-0.999138, 339, 33, 354, 160
-0.999142, 403, 33, 418, 160
-0.999144, 379, 241, 394, 368
-0.999146, 95, 193, 110, 320
-0.99915, 465, 129, 480, 256
-0.999152, 59, 225, 74, 352
-0.999158, 79, 65, 94, 192
-0.999158, 431, 241, 446, 368
-0.999159, 21, 193, 36, 320
-0.999166, 363, 145, 378, 272
-0.999167, 165, 65, 180, 192
-0.999167, 179, 113, 194, 240
-0.999168, 117, 193, 132, 320
-0.999168, 427, 81, 442, 208
-0.999169, 211, 145, 226, 272
-0.99917, 323, 129, 338, 256
-0.999172, 139, 225, 154, 352
-0.999172, 205, 145, 220, 272
-0.999172, 339, 209, 354, 336
-0.999174, 347, 33, 362, 160
-0.999175, 353, 177, 368, 304
-0.999178, 121, 129, 136, 256
-0.99918, 183, 161, 198, 288
-0.99918, 327, 177, 342, 304
-0.999187, 353, 225, 368, 352
-0.99919, 23, 241, 38, 368
-0.999193, 145, 209, 160, 336
-0.999195, 349, 81, 364, 208
-0.999196, 355, 33, 370, 160
-0.999198, 219, 81, 234, 208
-0.999202, 69, 241, 84, 368
-0.999204, 169, 129, 184, 256
-0.999205, 51, 241, 66, 368
-0.999206, 255, 241, 270, 368
-0.99921, 415, 33, 430, 160
-0.999214, 105, 193, 120, 320
-0.999217, 241, 241, 256, 368
-0.999219, 111, 193, 126, 320
-0.999219, 125, 209, 140, 336
-0.99922, 483, 1, 498, 128
-0.999223, 425, 209, 440, 336
-0.999224, 337, 81, 352, 208
-0.999225, 9, 241, 24, 368
-0.999233, 191, 241, 206, 368
-0.999234, 147, 65, 162, 192
-0.999237, 365, 241, 380, 368
-0.999381, 1, 1, 32, 256
-0.999622, 193, 143, 208, 158
-0.999623, 13, 131, 28, 146
-0.999623, 207, 277, 222, 292
-0.999623, 265, 323, 280, 338
-0.999624, 237, 265, 252, 280
-0.999625, 293, 81, 308, 96
-0.999625, 19, 49, 34, 64
-0.999626, 323, 147, 338, 162
-0.999626, 343, 157, 358, 172
-0.999626, 439, 303, 454, 318
-0.999626, 21, 269, 36, 284
-0.999626, 291, 161, 306, 176
-0.999627, 309, 261, 324, 276
-0.999627, 333, 155, 348, 170
-0.999628, 363, 265, 378, 280
-0.999628, 47, 65, 62, 80
-0.999628, 185, 269, 200, 284
-0.999629, 223, 249, 238, 264
-0.999629, 51, 255, 66, 270
-0.99963, 221, 81, 236, 96
-0.99963, 291, 135, 306, 150
-0.99963, 419, 359, 434, 374
-0.999631, 89, 69, 104, 84
-0.999631, 317, 265, 332, 280
-0.999631, 319, 69, 334, 84
-0.999631, 337, 269, 352, 284
-0.999631, 343, 149, 358, 164
-0.999632, 55, 97, 70, 112
-0.999632, 213, 279, 228, 294
-0.999633, 227, 261, 242, 276
-0.999633, 239, 79, 254, 94
-0.999635, 205, 253, 220, 268
-0.999636, 285, 81, 300, 96
-0.999636, 95, 67, 110, 82
-0.999637, 201, 273, 216, 288
-0.999637, 395, 235, 410, 250
-0.999637, 41, 65, 56, 80
-0.999638, 29, 75, 44, 90
-0.999638, 81, 69, 96, 84
-0.999638, 411, 213, 426, 228
-0.999638, 21, 61, 36, 76
-0.999638, 375, 361, 390, 375
-0.999638, 125, 251, 140, 266
-0.99964, 351, 165, 366, 180
-0.99964, 59, 73, 74, 88
-0.99964, 87, 213, 102, 228
-0.999641, 195, 195, 210, 210
-0.999642, 245, 79, 260, 94
-0.999643, 49, 73, 64, 88
-0.999644, 293, 251, 308, 266
-0.999644, 191, 273, 206, 288
-0.999645, 227, 79, 242, 94
-0.999645, 197, 255, 212, 270
-0.999645, 411, 361, 426, 375
-0.999646, 433, 309, 448, 324
-0.999646, 235, 257, 250, 272
-0.999647, 101, 67, 116, 82
-0.999647, 325, 73, 340, 88
-0.999647, 145, 75, 160, 90
-0.999647, 135, 249, 150, 264
-0.999648, 207, 81, 222, 96
-0.999648, 377, 355, 392, 370
-0.999649, 139, 65, 154, 80
-0.999649, 187, 205, 202, 220
-0.999649, 193, 81, 208, 96
-0.999649, 317, 245, 332, 260
-0.99965, 333, 231, 348, 246
-0.99965, 437, 211, 452, 226
-0.99965, 191, 133, 206, 148
-0.999651, 327, 235, 342, 250
-0.999651, 37, 73, 52, 88
-0.999651, 45, 97, 60, 112
-0.999652, 251, 77, 266, 92
-0.999652, 249, 143, 264, 158
-0.999653, 111, 67, 126, 82
-0.999654, 321, 257, 336, 272
-0.999654, 293, 241, 308, 256
-0.999655, 305, 213, 320, 228
-0.999656, 125, 67, 140, 82
-0.999656, 133, 67, 148, 82
-0.999656, 481, 293, 496, 308
-0.999658, 43, 73, 58, 88
-0.999658, 101, 213, 116, 228
-0.999658, 65, 75, 80, 90
-0.999659, 39, 97, 54, 112
-0.999659, 287, 251, 302, 266
-0.99966, 427, 313, 442, 328
-0.999661, 117, 67, 132, 82
-0.999663, 257, 77, 272, 92
-0.999664, 431, 211, 446, 226
-0.999664, 195, 265, 210, 280
-0.999665, 167, 81, 182, 96
-0.999665, 301, 249, 316, 264
-0.999666, 295, 153, 310, 168
-0.999672, 189, 165, 204, 180
-0.999673, 285, 75, 300, 90
-0.999675, 279, 75, 294, 90
-0.999676, 333, 69, 348, 84
-0.999677, 331, 213, 346, 228
-0.999679, 269, 77, 284, 92
-0.999679, 103, 101, 118, 116
-0.99968, 175, 77, 190, 92
-0.999684, 311, 247, 326, 262
-0.999687, 13, 273, 28, 288
-0.999688, 379, 269, 394, 284
-0.999689, 215, 79, 230, 94
-0.999689, 211, 251, 226, 266
-0.99969, 263, 77, 278, 92
-0.999692, 73, 131, 88, 146
-0.999698, 217, 253, 232, 268
-0.999703, 71, 75, 86, 90
-0.999706, 291, 123, 306, 138
-0.999707, 23, 75, 38, 90
-0.99971, 323, 263, 338, 278
-0.999712, 117, 75, 132, 90
-0.999714, 77, 75, 92, 90
-0.999719, 229, 249, 244, 264
-0.999721, 331, 267, 346, 282
-0.999722, 85, 75, 100, 90
-0.999723, 111, 75, 126, 90
-0.999723, 245, 255, 260, 270
-0.999724, 125, 75, 140, 90
-0.999724, 245, 137, 260, 152
-0.999733, 13, 125, 28, 140
-0.999734, 103, 75, 118, 90
-0.999735, 189, 125, 204, 140
-0.999738, 131, 75, 146, 90
-0.999751, 93, 75, 108, 90
-0.999768, 1, 81, 64, 208
-0.999774, 139, 75, 154, 90
-0.999781, 235, 249, 250, 264
-1.00508, 1, 129, 64, 256
