1969
-0.208019, 1, 1, 500, 378
-0.332149, 129, 1, 384, 378
-0.366001, 1, 97, 500, 352
-0.430794, 1, 1, 500, 256
-0.453026, 225, 1, 480, 378
-0.48262, 33, 1, 288, 378
-0.50097, 129, 33, 384, 288
-0.551972, 225, 129, 480, 378
-0.601244, 129, 129, 384, 378
-0.629698, 33, 1, 288, 256
-0.733304, 257, 1, 500, 256
-0.766675, 33, 129, 288, 378
-0.834667, 145, 1, 272, 378
-0.836194, 225, 1, 352, 378
-0.841832, 353, 129, 480, 378
-0.848978, 273, 129, 400, 378
-0.863358, 145, 1, 272, 256
-0.87177, 225, 129, 352, 378
-0.872596, 273, 1, 400, 378
-0.873146, 65, 1, 192, 256
-0.8786, 49, 1, 176, 378
-0.878838, 97, 1, 224, 378
-0.890565, 1, 209, 500, 336
-0.891752, 97, 129, 224, 378
-0.893764, 209, 33, 336, 288
-0.894763, 1, 33, 500, 160
-0.896199, 257, 1, 384, 256
-0.897189, 337, 1, 464, 378
-0.900078, 257, 225, 500, 352
-0.901175, 65, 17, 320, 144
-0.904864, 225, 145, 480, 272
-0.905533, 1, 97, 500, 224
-0.906666, 145, 129, 272, 378
-0.912661, 49, 97, 176, 352
-0.914632, 129, 145, 384, 272
-0.914849, 161, 257, 416, 378
-0.918025, 321, 33, 448, 288
-0.919069, 65, 225, 320, 352
-0.926829, 97, 65, 352, 192
-0.926835, 225, 17, 480, 144
-0.928303, 1, 145, 500, 272
-0.928963, 273, 225, 400, 352
-0.929793, 1, 1, 128, 378
-0.929984, 369, 33, 496, 288
-0.93545, 1, 257, 500, 378
-0.937099, 17, 1, 144, 256
-0.939088, 113, 17, 240, 144
-0.941018, 289, 145, 352, 272
-0.941281, 321, 145, 448, 272
-0.94209, 321, 241, 448, 368
-0.943155, 1, 129, 128, 378
-0.943784, 225, 257, 352, 378
-0.944034, 409, 225, 472, 352
-0.944532, 353, 193, 480, 320
-0.944634, 417, 161, 480, 288
-0.94517, 369, 241, 432, 368
-0.945866, 257, 129, 320, 256
-0.94617, 241, 1, 368, 128
-0.946724, 273, 209, 336, 336
-0.947363, 113, 1, 176, 128
-0.948497, 225, 241, 288, 368
-0.948613, 377, 145, 440, 272
-0.949486, 225, 97, 480, 224
-0.949645, 241, 81, 304, 208
-0.95068, 257, 257, 320, 378
-0.951599, 273, 1, 336, 128
-0.952179, 225, 145, 352, 272
-0.952254, 65, 1, 192, 128
-0.952915, 257, 145, 320, 208
-0.953158, 305, 225, 368, 352
-0.953829, 273, 145, 400, 272
-0.95392, 257, 49, 384, 176
-0.954105, 249, 209, 312, 336
-0.954464, 329, 225, 392, 352
-0.955651, 49, 81, 176, 208
-0.955845, 113, 97, 176, 224
-0.95669, 1, 257, 128, 378
-0.956776, 81, 17, 144, 144
-0.957056, 369, 257, 496, 378
-0.957298, 145, 129, 208, 256
-0.958067, 65, 225, 192, 352
-0.958665, 225, 209, 352, 336
-0.959454, 177, 49, 304, 176
-0.960141, 177, 241, 304, 368
-0.960298, 273, 17, 336, 80
-0.960654, 33, 177, 288, 304
-0.960885, 329, 313, 392, 376
-0.960949, 257, 201, 320, 264
-0.960981, 377, 297, 440, 360
-0.961219, 417, 225, 480, 288
-0.961789, 281, 257, 344, 378
-0.962384, 313, 129, 376, 256
-0.962643, 273, 49, 336, 176
-0.963045, 225, 97, 352, 224
-0.963304, 249, 281, 312, 344
-0.96335, 281, 145, 344, 208
-0.963383, 369, 145, 496, 272
-0.963651, 297, 129, 360, 378
-0.963958, 249, 17, 312, 144
-0.964649, 353, 145, 416, 272
-0.964978, 1, 97, 256, 224
-0.965211, 313, 225, 376, 288
-0.965464, 409, 185, 472, 248
-0.965579, 401, 297, 464, 360
-0.965748, 321, 129, 384, 378
-0.965968, 145, 161, 208, 224
-0.965983, 241, 233, 304, 296
-0.966024, 129, 193, 256, 320
-0.966116, 217, 265, 280, 328
-0.966172, 145, 129, 272, 256
-0.966412, 433, 225, 496, 352
-0.966461, 73, 225, 136, 352
-0.966858, 297, 1, 360, 128
-0.967775, 385, 193, 448, 320
-0.967871, 273, 129, 336, 378
-0.967908, 161, 209, 416, 336
-0.968192, 233, 145, 296, 272
-0.968457, 281, 225, 344, 288
-0.968659, 89, 65, 152, 192
-0.968699, 273, 121, 336, 184
-0.968974, 337, 225, 400, 288
-0.96906, 281, 1, 344, 256
-0.969187, 153, 313, 216, 376
-0.969259, 81, 129, 208, 256
-0.96926, 145, 137, 208, 200
-0.969459, 137, 17, 200, 144
-0.96976, 217, 49, 280, 176
-0.969967, 281, 97, 344, 224
-0.969999, 305, 313, 368, 376
-0.970066, 361, 129, 424, 378
-0.970131, 97, 225, 160, 352
-0.970148, 313, 137, 376, 200
-0.970261, 297, 145, 328, 272
-0.970374, 377, 249, 440, 312
-0.970434, 201, 257, 264, 378
-0.970442, 73, 49, 136, 112
-0.970655, 377, 153, 440, 216
-0.970766, 249, 313, 312, 376
-0.97092, 273, 265, 336, 328
-0.971119, 97, 89, 160, 152
-0.971573, 113, 1, 176, 256
-0.971654, 17, 33, 144, 160
-0.971827, 409, 161, 472, 224
-0.971901, 417, 273, 480, 336
-0.971926, 121, 17, 184, 80
-0.97195, 193, 1, 320, 128
-0.972179, 249, 97, 312, 352
-0.972221, 1, 257, 64, 378
-0.97241, 281, 313, 344, 376
-0.972669, 193, 33, 256, 160
-0.972684, 257, 225, 288, 352
-0.97303, 305, 17, 368, 80
-0.97327, 297, 201, 360, 264
-0.973347, 169, 1, 232, 256
-0.973619, 393, 273, 456, 336
-0.973644, 233, 153, 296, 216
-0.973706, 273, 97, 400, 224
-0.973716, 249, 33, 312, 96
-0.973778, 89, 225, 152, 288
-0.973808, 377, 217, 440, 280
-0.973838, 353, 313, 416, 376
-0.973866, 273, 225, 400, 288
-0.973871, 177, 177, 304, 304
-0.974278, 161, 17, 224, 144
-0.974415, 281, 137, 312, 200
-0.974515, 297, 209, 328, 336
-0.974609, 137, 1, 200, 256
-0.974628, 185, 33, 248, 96
-0.974834, 433, 169, 496, 232
-0.974836, 145, 185, 208, 248
-0.974843, 245, 241, 276, 368
-0.974888, 289, 17, 320, 80
-0.974896, 49, 257, 112, 378
-0.975115, 301, 153, 332, 216
-0.975117, 113, 121, 176, 184
-0.975162, 281, 129, 312, 256
-0.975175, 217, 217, 280, 280
-0.975223, 121, 193, 184, 320
-0.975231, 285, 177, 316, 304
-0.975639, 193, 281, 320, 344
-0.975719, 113, 25, 240, 88
-0.975825, 321, 97, 448, 224
-0.975853, 453, 161, 484, 288
-0.976018, 409, 113, 472, 240
-0.976038, 385, 129, 448, 378
-0.976071, 337, 313, 464, 376
-0.976089, 261, 81, 292, 208
-0.976188, 301, 9, 332, 72
-0.976209, 1, 193, 128, 320
-0.976275, 89, 1, 152, 64
-0.976332, 65, 241, 128, 304
-0.976375, 217, 289, 280, 352
-0.976381, 161, 25, 224, 88
-0.976389, 121, 145, 184, 272
-0.976508, 305, 217, 336, 280
-0.976519, 417, 129, 480, 378
-0.976678, 225, 225, 352, 288
-0.976752, 301, 1, 332, 128
-0.976803, 309, 145, 340, 272
-0.976898, 369, 217, 496, 280
-0.976921, 145, 177, 208, 304
-0.976935, 193, 289, 256, 352
-0.976983, 297, 289, 360, 352
-0.977023, 249, 121, 312, 184
-0.977065, 457, 169, 488, 232
-0.977198, 273, 17, 400, 80
-0.977205, 257, 177, 320, 240
-0.977208, 89, 65, 152, 320
-0.977647, 241, 257, 304, 320
-0.977922, 33, 209, 96, 336
-0.978239, 233, 81, 296, 144
-0.97826, 73, 73, 136, 136
-0.978272, 209, 25, 336, 88
-0.978284, 241, 305, 368, 368
-0.978292, 409, 297, 440, 360
-0.978325, 425, 249, 488, 312
-0.978405, 65, 65, 128, 192
-0.978452, 33, 265, 96, 328
-0.978482, 209, 161, 272, 288
-0.978503, 405, 241, 436, 368
-0.978539, 81, 177, 208, 304
-0.978558, 145, 313, 272, 376
-0.978663, 113, 209, 176, 272
-0.978727, 353, 81, 416, 208
-0.97906, 117, 17, 148, 144
-0.979061, 257, 313, 288, 376
-0.979082, 401, 249, 464, 312
-0.979088, 345, 313, 376, 376
-0.979263, 309, 209, 340, 336
-0.979307, 257, 289, 288, 352
-0.979311, 345, 289, 408, 352
-0.979423, 285, 257, 316, 378
-0.979443, 321, 241, 448, 304
-0.979531, 217, 57, 280, 120
-0.979566, 281, 169, 344, 232
-0.979616, 421, 313, 452, 376
-0.979758, 273, 137, 400, 200
-0.979824, 273, 49, 336, 112
-0.979825, 241, 217, 272, 280
-0.97983, 93, 1, 124, 128
-0.979832, 253, 241, 284, 304
-0.979857, 277, 17, 308, 144
-0.979942, 353, 153, 480, 216
-0.980017, 305, 33, 368, 288
-0.980085, 277, 17, 308, 80
-0.980131, 209, 313, 272, 376
-0.980163, 257, 1, 320, 256
-0.980231, 241, 265, 272, 328
-0.980269, 289, 193, 320, 256
-0.980306, 273, 273, 304, 336
-0.980307, 1, 273, 64, 336
-0.980309, 429, 241, 460, 368
-0.980319, 137, 113, 168, 240
-0.98032, 321, 177, 384, 304
-0.98039, 89, 177, 152, 304
-0.980497, 365, 313, 396, 376
-0.980505, 281, 1, 344, 378
-0.980648, 345, 145, 408, 208
-0.980833, 169, 257, 232, 378
-0.980953, 1, 313, 64, 376
-0.980971, 25, 257, 88, 378
-0.980975, 137, 129, 200, 378
-0.981014, 397, 313, 428, 376
-0.981082, 157, 113, 188, 240
-0.981242, 409, 145, 440, 272
-0.981562, 353, 193, 480, 256
-0.981644, 193, 249, 320, 312
-0.98165, 129, 1, 160, 128
-0.981812, 145, 289, 272, 352
-0.981871, 433, 193, 496, 256
-0.981909, 425, 161, 456, 288
-0.982027, 369, 97, 496, 224
-0.982059, 241, 49, 368, 112
-0.982059, 285, 169, 316, 232
-0.982094, 65, 17, 128, 80
-0.982101, 321, 289, 448, 352
-0.982106, 297, 249, 360, 312
-0.982106, 129, 185, 256, 248
-0.98213, 289, 1, 320, 128
-0.982133, 273, 257, 304, 378
-0.982229, 437, 169, 468, 232
-0.98234, 305, 257, 336, 378
-0.982366, 57, 17, 120, 144
-0.982386, 321, 1, 448, 128
-0.98243, 225, 201, 352, 264
-0.982689, 425, 185, 456, 248
-0.982698, 257, 1, 320, 378
-0.982706, 289, 313, 416, 376
-0.98271, 157, 137, 188, 200
-0.982737, 169, 289, 232, 352
-0.982744, 49, 89, 176, 152
-0.982814, 141, 121, 172, 184
-0.982856, 193, 1, 256, 378
-0.982949, 329, 81, 392, 208
-0.982969, 417, 257, 448, 378
-0.983019, 325, 313, 356, 376
-0.983082, 225, 1, 288, 128
-0.983133, 321, 217, 448, 280
-0.983157, 65, 17, 192, 80
-0.983332, 317, 257, 348, 378
-0.983562, 17, 241, 80, 304
-0.983589, 97, 81, 224, 208
-0.983628, 241, 249, 368, 312
-0.98371, 257, 105, 384, 168
-0.983713, 297, 113, 360, 176
-0.983729, 285, 305, 316, 368
-0.983782, 425, 161, 456, 224
-0.983844, 129, 313, 192, 376
-0.983852, 217, 241, 280, 304
-0.983862, 105, 169, 168, 232
-0.983868, 129, 257, 256, 378
-0.983884, 377, 97, 440, 224
-0.983922, 81, 225, 208, 288
-0.983932, 369, 249, 496, 312
-0.983947, 313, 305, 344, 368
-0.983971, 145, 129, 272, 192
-0.984098, 241, 273, 368, 336
-0.984102, 225, 17, 288, 80
-0.984131, 233, 257, 264, 378
-0.984215, 89, 25, 152, 88
-0.984227, 425, 297, 488, 360
-0.984289, 393, 241, 424, 368
-0.984341, 441, 225, 472, 352
-0.984345, 293, 273, 324, 336
-0.984397, 305, 41, 368, 104
-0.984469, 369, 281, 496, 344
-0.984521, 193, 1, 320, 64
-0.984537, 333, 225, 364, 352
-0.984593, 305, 249, 336, 312
-0.984688, 105, 33, 136, 160
-0.984708, 321, 233, 352, 296
-0.984717, 437, 145, 468, 272
-0.984723, 201, 33, 264, 288
-0.984734, 305, 81, 368, 208
-0.984804, 113, 97, 176, 352
-0.984808, 357, 225, 388, 352
-0.984813, 353, 145, 384, 272
-0.984844, 193, 305, 320, 368
-0.984916, 113, 49, 176, 176
-0.984929, 361, 121, 424, 184
-0.984935, 261, 145, 292, 208
-0.984967, 65, 113, 192, 176
-0.984981, 105, 1, 168, 378
-0.985007, 241, 65, 272, 192
-0.985082, 209, 129, 336, 192
-0.985146, 145, 1, 208, 378
-0.985195, 305, 1, 368, 378
-0.985208, 225, 153, 352, 216
-0.98524, 373, 145, 404, 272
-0.985264, 281, 113, 312, 176
-0.985273, 113, 81, 144, 208
-0.985344, 321, 9, 448, 72
-0.985358, 321, 201, 384, 264
-0.985476, 409, 153, 440, 216
-0.985493, 261, 89, 292, 152
-0.985526, 141, 1, 172, 128
-0.985562, 173, 161, 204, 224
-0.985582, 345, 17, 408, 80
-0.985633, 273, 81, 336, 144
-0.985633, 417, 137, 480, 200
-0.985636, 457, 241, 488, 368
-0.985646, 317, 17, 348, 80
-0.98568, 321, 289, 384, 352
-0.985721, 177, 313, 240, 376
-0.98576, 345, 225, 376, 288
-0.985777, 225, 65, 288, 320
-0.985816, 185, 153, 248, 216
-0.985817, 321, 145, 352, 272
-0.985925, 161, 1, 224, 64
-0.985937, 209, 161, 272, 224
-0.985998, 17, 257, 144, 320
-0.986015, 129, 161, 256, 224
-0.986071, 117, 89, 148, 152
-0.986142, 273, 201, 400, 264
-0.986163, 297, 97, 328, 224
-0.986194, 157, 313, 188, 376
-0.986195, 345, 225, 376, 352
-0.986271, 293, 129, 324, 192
-0.986325, 345, 1, 408, 378
-0.986338, 409, 249, 440, 312
-0.986338, 337, 129, 368, 256
-0.986366, 337, 137, 368, 200
-0.986379, 121, 97, 184, 160
-0.986392, 225, 273, 256, 336
-0.986406, 353, 33, 416, 288
-0.986423, 93, 17, 124, 80
-0.986457, 285, 81, 316, 208
-0.986467, 161, 129, 224, 378
-0.986492, 417, 209, 448, 336
-0.986493, 417, 9, 480, 72
-0.986513, 245, 145, 276, 272
-0.986624, 177, 209, 304, 272
-0.986739, 77, 249, 108, 312
-0.986756, 153, 81, 216, 208
-0.98676, 469, 193, 500, 320
-0.986822, 161, 33, 288, 96
-0.98683, 377, 193, 440, 256
-0.986849, 337, 121, 400, 184
-0.986888, 129, 97, 160, 160
-0.986933, 217, 1, 280, 378
-0.98696, 77, 49, 108, 112
-0.987047, 121, 145, 184, 208
-0.987061, 425, 273, 456, 336
-0.987103, 421, 225, 452, 288
-0.987134, 33, 145, 160, 272
-0.987141, 369, 273, 432, 336
-0.987147, 417, 1, 480, 378
-0.987152, 397, 145, 428, 272
-0.987157, 129, 209, 256, 272
-0.987176, 377, 241, 408, 368
-0.987182, 65, 41, 192, 104
-0.987209, 161, 57, 288, 120
-0.987225, 113, 33, 144, 96
-0.987288, 17, 65, 144, 128
-0.987354, 177, 153, 304, 216
-0.987428, 385, 17, 448, 80
-0.987438, 137, 193, 168, 320
-0.987533, 81, 1, 144, 378
-0.987547, 273, 289, 336, 352
-0.987551, 245, 313, 276, 376
-0.987565, 1, 209, 128, 272
-0.987584, 133, 209, 164, 272
-0.987599, 293, 217, 324, 280
-0.987632, 77, 33, 108, 160
-0.987745, 9, 209, 72, 336
-0.987771, 65, 177, 128, 304
-0.987804, 93, 233, 124, 296
-0.987822, 85, 241, 116, 368
-0.987839, 273, 21, 336, 52
-0.987855, 237, 241, 268, 304
-0.987869, 105, 225, 136, 352
-0.987871, 385, 313, 416, 376
-0.987897, 233, 57, 264, 120
-0.987899, 229, 49, 260, 176
-0.987907, 133, 9, 164, 72
-0.98791, 305, 129, 336, 192
-0.987926, 249, 73, 280, 136
-0.987998, 69, 257, 100, 378
-0.988007, 197, 33, 228, 96
-0.988031, 365, 233, 396, 296
-0.988036, 257, 149, 320, 180
-0.988079, 377, 241, 408, 304
-0.98819, 177, 161, 208, 288
-0.988193, 201, 193, 264, 256
-0.988218, 441, 281, 472, 344
-0.988237, 33, 1, 96, 128
-0.988278, 277, 41, 308, 104
-0.988293, 145, 257, 208, 378
-0.988297, 105, 225, 136, 288
-0.988304, 1, 313, 128, 376
-0.988313, 65, 257, 96, 320
-0.988321, 385, 129, 448, 192
-0.988326, 137, 161, 168, 224
-0.98835, 185, 17, 216, 144
-0.988407, 49, 177, 176, 240
-0.988427, 249, 153, 280, 216
-0.988443, 409, 217, 440, 280
-0.988446, 97, 313, 224, 376
-0.988463, 321, 209, 352, 272
-0.988469, 125, 81, 156, 208
-0.988472, 457, 201, 488, 264
-0.988509, 169, 1, 232, 378
-0.988551, 293, 41, 324, 104
-0.988558, 237, 193, 268, 320
-0.988641, 117, 225, 148, 288
-0.98867, 337, 49, 464, 176
-0.988689, 105, 49, 168, 112
-0.98869, 333, 225, 364, 288
-0.988773, 457, 257, 488, 320
-0.988777, 1, 273, 32, 336
-0.988777, 337, 289, 368, 352
-0.988778, 213, 41, 244, 104
-0.988818, 17, 9, 144, 72
-0.988888, 193, 89, 320, 152
-0.988889, 49, 209, 112, 272
-0.988928, 321, 209, 352, 336
-0.988939, 385, 145, 416, 272
-0.988951, 329, 313, 392, 344
-0.988977, 353, 193, 416, 320
-0.988995, 169, 161, 232, 288
-0.989046, 153, 177, 184, 240
-0.98913, 213, 33, 244, 160
-0.989167, 361, 341, 424, 372
-0.989205, 301, 185, 332, 248
-0.989227, 49, 273, 80, 336
-0.98924, 145, 165, 208, 196
-0.989249, 177, 177, 240, 240
-0.989272, 297, 297, 328, 360
-0.989296, 273, 313, 336, 344
-0.989303, 5, 257, 36, 378
-0.989322, 293, 249, 324, 312
-0.989333, 149, 161, 180, 288
-0.989334, 321, 121, 448, 184
-0.989357, 65, 33, 320, 96
-0.989368, 269, 129, 300, 256
-0.989383, 317, 145, 348, 208
-0.9894, 357, 145, 388, 208
-0.989433, 177, 265, 240, 328
-0.989436, 269, 121, 300, 184
-0.989486, 337, 329, 400, 360
-0.989507, 201, 129, 264, 378
-0.98952, 305, 325, 368, 356
-0.989524, 57, 265, 120, 328
-0.989573, 137, 209, 200, 272
-0.989591, 65, 249, 192, 312
-0.989599, 469, 225, 500, 288
-0.989637, 273, 137, 336, 168
-0.989665, 81, 137, 208, 200
-0.989673, 305, 49, 336, 112
-0.989769, 249, 341, 312, 372
-0.989771, 49, 73, 112, 136
-0.98983, 265, 17, 296, 144
-0.989836, 233, 157, 296, 188
-0.989884, 113, 1, 240, 64
-0.989901, 433, 1, 496, 128
-0.989924, 217, 281, 280, 312
-0.989928, 253, 217, 284, 280
-0.989967, 273, 341, 336, 372
-0.989973, 433, 113, 496, 240
-0.989993, 281, 329, 344, 360
-0.990028, 361, 289, 392, 352
-0.990055, 385, 341, 448, 372
-0.990072, 181, 25, 212, 88
-0.990073, 329, 233, 392, 264
-0.990075, 361, 317, 424, 348
-0.990102, 257, 229, 320, 260
-0.990114, 169, 305, 200, 368
-0.990119, 145, 177, 208, 208
-0.99014, 377, 305, 440, 336
-0.990147, 437, 193, 468, 256
-0.990159, 297, 221, 360, 252
-0.99016, 361, 329, 424, 360
-0.990166, 409, 1, 472, 128
-0.990172, 377, 1, 440, 378
-0.990196, 273, 305, 304, 368
-0.990245, 273, 37, 336, 68
-0.990257, 269, 209, 300, 336
-0.990277, 321, 141, 384, 172
-0.990281, 401, 301, 464, 332
-0.990389, 249, 1, 312, 64
-0.990413, 249, 325, 312, 356
-0.990432, 105, 305, 168, 368
-0.990453, 129, 73, 192, 136
-0.99046, 257, 265, 288, 328
-0.990471, 297, 145, 360, 176
-0.990499, 289, 41, 416, 104
-0.990509, 225, 145, 480, 208
-0.99052, 65, 73, 96, 136
-0.990521, 193, 209, 256, 336
-0.990524, 81, 201, 208, 264
-0.990547, 441, 225, 472, 288
-0.990561, 337, 341, 400, 372
-0.990562, 241, 313, 304, 344
-0.990588, 409, 189, 472, 220
-0.990608, 305, 313, 368, 344
-0.990617, 9, 313, 40, 376
-0.99062, 129, 21, 192, 52
-0.990625, 257, 217, 320, 248
-0.990656, 305, 41, 368, 72
-0.990671, 469, 241, 500, 368
-0.9907, 409, 205, 472, 236
-0.990703, 153, 113, 216, 176
-0.990706, 257, 73, 384, 136
-0.990737, 249, 265, 312, 296
-0.990766, 329, 1, 392, 128
-0.990781, 445, 17, 476, 80
-0.990784, 289, 261, 352, 292
-0.990798, 297, 233, 360, 264
-0.990803, 89, 201, 152, 264
-0.990834, 273, 49, 336, 80
-0.990834, 405, 193, 436, 320
-0.990883, 305, 25, 368, 56
-0.990883, 313, 337, 376, 368
-0.990887, 225, 313, 480, 376
-0.990922, 321, 265, 448, 328
-0.99093, 273, 9, 336, 40
-0.990949, 49, 49, 112, 112
-0.990966, 209, 177, 336, 240
-0.990987, 225, 225, 480, 288
-0.990989, 197, 17, 228, 144
-0.990994, 425, 221, 488, 252
-0.990997, 425, 169, 488, 200
-0.991041, 409, 273, 440, 336
-0.991042, 153, 317, 216, 348
-0.991047, 65, 1, 128, 256
-0.991065, 297, 249, 360, 280
-0.991076, 17, 41, 144, 104
-0.991082, 169, 25, 200, 88
-0.991092, 313, 1, 344, 128
-0.991092, 185, 161, 216, 224
-0.9911, 249, 33, 312, 64
-0.991101, 145, 153, 208, 184
-0.991108, 169, 33, 232, 64
-0.99111, 369, 129, 496, 192
-0.991111, 329, 33, 392, 288
-0.991121, 37, 273, 68, 336
-0.99113, 125, 209, 156, 336
-0.991146, 249, 281, 312, 312
-0.991163, 417, 257, 480, 288
-0.991202, 41, 65, 104, 192
-0.99122, 1, 281, 128, 344
-0.991221, 81, 17, 144, 48
-0.991233, 145, 201, 176, 264
-0.991234, 433, 305, 464, 368
-0.991239, 257, 241, 320, 272
-0.991242, 257, 205, 320, 236
-0.991244, 1, 333, 64, 364
-0.991251, 385, 253, 448, 284
-0.991272, 225, 269, 288, 300
-0.991275, 305, 13, 368, 44
-0.991307, 417, 281, 480, 312
-0.991313, 273, 273, 336, 304
-0.991326, 121, 125, 184, 156
-0.991343, 73, 77, 136, 108
-0.991345, 377, 157, 440, 188
-0.991349, 145, 189, 208, 220
-0.991358, 65, 65, 192, 128
-0.991361, 161, 281, 416, 344
-0.991375, 249, 137, 312, 168
-0.991383, 217, 225, 280, 256
-0.99139, 257, 161, 320, 192
-0.991393, 1, 241, 500, 304
-0.991405, 97, 121, 352, 184
-0.991418, 417, 245, 480, 276
-0.99144, 89, 93, 152, 124
-0.991443, 385, 289, 416, 352
-0.991448, 369, 25, 496, 88
-0.991462, 105, 225, 168, 256
-0.991468, 141, 65, 172, 192
-0.991469, 385, 321, 448, 352
-0.991473, 181, 305, 212, 368
-0.991486, 97, 73, 352, 136
-0.991515, 21, 281, 52, 344
-0.991545, 257, 253, 320, 284
-0.991553, 321, 221, 384, 252
-0.99156, 209, 309, 272, 340
-0.991562, 161, 17, 192, 144
-0.991585, 1, 277, 64, 308
-0.991589, 65, 233, 320, 296
-0.991621, 57, 257, 88, 378
-0.991628, 113, 345, 176, 376
-0.991632, 289, 301, 352, 332
-0.991648, 265, 241, 296, 304
-0.991654, 389, 153, 420, 216
-0.991696, 89, 237, 152, 268
-0.991699, 185, 165, 248, 196
-0.991728, 97, 65, 128, 128
-0.991742, 297, 209, 360, 240
-0.99175, 409, 341, 472, 372
-0.991759, 417, 269, 480, 300
-0.991784, 257, 189, 320, 220
-0.991817, 109, 9, 140, 72
-0.99182, 393, 289, 456, 320
-0.991821, 161, 17, 416, 80
-0.991824, 89, 33, 152, 64
-0.991828, 97, 105, 160, 136
-0.99184, 185, 153, 248, 184
-0.991841, 129, 81, 256, 144
-0.991848, 17, 261, 80, 292
-0.991857, 365, 97, 396, 224
-0.991866, 217, 129, 280, 192
-0.99187, 145, 201, 208, 232
-0.991871, 217, 297, 280, 328
-0.991883, 249, 293, 312, 324
-0.991906, 193, 241, 256, 304
-0.991924, 29, 257, 60, 378
-0.991932, 401, 161, 464, 192
-0.991934, 177, 297, 240, 328
-0.99194, 217, 237, 280, 268
-0.991942, 185, 113, 248, 240
-0.991948, 185, 45, 248, 76
-0.99195, 377, 33, 440, 288
-0.991959, 193, 1, 256, 64
-0.99196, 425, 233, 488, 264
-0.991982, 257, 177, 320, 208
-0.991985, 345, 149, 408, 180
-0.991986, 297, 133, 360, 164
-0.991997, 233, 45, 296, 76
-0.992, 425, 305, 488, 336
-0.992004, 153, 17, 184, 80
-0.992023, 153, 141, 216, 172
-0.992026, 129, 305, 384, 368
-0.992033, 65, 61, 128, 92
-0.992034, 217, 341, 280, 372
-0.992045, 121, 1, 152, 64
-0.992057, 73, 253, 136, 284
-0.992074, 41, 273, 104, 304
-0.992102, 281, 161, 344, 192
-0.99213, 73, 45, 136, 76
-0.99213, 225, 77, 288, 108
-0.992132, 193, 41, 448, 104
-0.992137, 401, 229, 464, 260
-0.992141, 417, 33, 480, 288
-0.992156, 353, 241, 416, 272
-0.992157, 293, 17, 324, 48
-0.992157, 65, 97, 128, 352
-0.992172, 201, 61, 264, 92
-0.992185, 57, 1, 120, 378
-0.99219, 257, 249, 500, 312
-0.992196, 249, 13, 312, 44
-0.992203, 233, 89, 296, 120
-0.992215, 201, 257, 232, 378
-0.992224, 49, 305, 176, 368
-0.992234, 369, 145, 400, 208
-0.992238, 329, 301, 392, 332
-0.992243, 345, 25, 408, 56
-0.992245, 129, 217, 192, 248
-0.992251, 309, 49, 340, 176
-0.992261, 353, 297, 416, 328
-0.992275, 281, 173, 344, 204
-0.992296, 273, 113, 336, 144
-0.992301, 173, 17, 204, 144
-0.992302, 185, 177, 248, 208
-0.992325, 297, 53, 360, 84
-0.992334, 409, 321, 472, 352
-0.992337, 377, 225, 440, 256
-0.992338, 217, 325, 280, 356
-0.992339, 309, 97, 340, 224
-0.992339, 289, 141, 320, 172
-0.99235, 105, 9, 168, 40
-0.992351, 65, 209, 96, 336
-0.992363, 209, 165, 272, 196
-0.992373, 241, 125, 304, 156
-0.992381, 281, 185, 344, 216
-0.99239, 137, 329, 200, 360
-0.992392, 365, 341, 396, 372
-0.992415, 305, 13, 336, 44
-0.99244, 281, 25, 312, 56
-0.992452, 257, 313, 288, 344
-0.992457, 277, 145, 308, 176
-0.992478, 313, 329, 344, 360
-0.992483, 401, 341, 432, 372
-0.992494, 389, 341, 420, 372
-0.992499, 457, 25, 488, 88
-0.992503, 361, 329, 392, 360
-0.992518, 297, 329, 328, 360
-0.992547, 409, 301, 440, 332
-0.992548, 129, 145, 384, 208
-0.992552, 357, 313, 388, 344
-0.99256, 297, 41, 328, 72
-0.99256, 349, 333, 380, 364
-0.992567, 305, 221, 336, 252
-0.992573, 325, 325, 356, 356
-0.992575, 261, 341, 292, 372
-0.992589, 277, 329, 308, 360
-0.992598, 305, 149, 336, 180
-0.992604, 337, 313, 368, 344
-0.992611, 245, 229, 276, 260
-0.99264, 305, 257, 336, 288
-0.992641, 297, 341, 328, 372
-0.992655, 293, 29, 324, 60
-0.992659, 257, 157, 288, 188
-0.992664, 337, 325, 368, 356
-0.99267, 325, 337, 356, 368
-0.992671, 325, 313, 356, 344
-0.992687, 313, 317, 344, 348
-0.992692, 277, 341, 308, 372
-0.992695, 305, 233, 336, 264
-0.992709, 237, 273, 268, 304
-0.992712, 1, 41, 500, 104
-0.992715, 305, 25, 336, 56
-0.992717, 257, 329, 288, 360
-0.992722, 273, 37, 304, 68
-0.992729, 93, 209, 124, 272
-0.992734, 277, 313, 308, 344
-0.992739, 285, 193, 316, 224
-0.992739, 245, 157, 276, 188
-0.992743, 293, 209, 324, 240
-0.992743, 469, 249, 500, 312
-0.992746, 173, 165, 204, 196
-0.992749, 317, 249, 348, 280
-0.992763, 265, 145, 296, 176
-0.992784, 373, 325, 404, 356
-0.992787, 453, 173, 484, 204
-0.992791, 309, 341, 340, 372
-0.992801, 325, 289, 356, 352
-0.99282, 345, 17, 376, 80
-0.992822, 193, 57, 256, 120
-0.992831, 297, 161, 328, 192
-0.992834, 337, 341, 368, 372
-0.992841, 1, 277, 32, 308
-0.992841, 313, 41, 344, 72
-0.992843, 377, 341, 408, 372
-0.992864, 413, 341, 444, 372
-0.99287, 113, 265, 240, 328
-0.992871, 253, 193, 284, 256
-0.992888, 397, 321, 428, 352
-0.992893, 369, 313, 400, 344
-0.992923, 265, 33, 296, 96
-0.992927, 149, 129, 180, 160
-0.992933, 285, 45, 316, 76
-0.99294, 345, 225, 376, 256
-0.992942, 253, 253, 284, 284
-0.992947, 293, 309, 324, 340
-0.992953, 121, 97, 152, 128
-0.992955, 257, 269, 288, 300
-0.992955, 337, 141, 368, 172
-0.992959, 169, 113, 200, 240
-0.992969, 241, 261, 272, 292
-0.99298, 101, 233, 132, 264
-0.992984, 233, 161, 264, 192
-0.992991, 233, 217, 264, 248
-0.992993, 145, 241, 272, 304
-0.992994, 385, 25, 416, 88
-0.992995, 325, 237, 356, 268
-0.992995, 285, 177, 316, 208
-0.992998, 317, 21, 348, 52
-0.992999, 301, 53, 332, 84
-0.993001, 421, 293, 452, 324
-0.993022, 257, 289, 288, 320
-0.993025, 353, 345, 384, 376
-0.993029, 129, 185, 160, 248
-0.993031, 285, 157, 316, 188
-0.993031, 281, 13, 312, 44
-0.993031, 173, 177, 204, 208
-0.993039, 293, 261, 324, 292
-0.993045, 437, 169, 468, 200
-0.993058, 245, 313, 276, 344
-0.993059, 209, 41, 240, 72
-0.99306, 273, 281, 304, 312
-0.993066, 429, 281, 460, 312
-0.99307, 429, 345, 460, 376
-0.993072, 133, 221, 164, 252
-0.993074, 361, 233, 392, 264
-0.993075, 457, 205, 488, 236
-0.993076, 305, 245, 336, 276
-0.993102, 221, 49, 252, 80
-0.993105, 157, 153, 188, 184
-0.993108, 253, 241, 284, 272
-0.99311, 89, 241, 120, 272
-0.993114, 113, 229, 144, 260
-0.993115, 249, 341, 280, 372
-0.993116, 253, 81, 284, 112
-0.993116, 389, 249, 420, 312
-0.993119, 213, 289, 244, 352
-0.993122, 429, 309, 460, 340
-0.993122, 289, 273, 320, 304
-0.993129, 313, 305, 344, 336
-0.993133, 257, 301, 288, 332
-0.993134, 265, 133, 296, 164
-0.993137, 385, 309, 416, 340
-0.993142, 381, 25, 412, 56
-0.993143, 161, 317, 192, 348
-0.993145, 253, 145, 284, 176
-0.993148, 417, 321, 448, 352
-0.993148, 149, 325, 180, 356
-0.993152, 293, 249, 324, 280
-0.993155, 433, 185, 464, 216
-0.993157, 353, 145, 384, 176
-0.993157, 297, 177, 328, 208
-0.993159, 189, 33, 220, 64
-0.99316, 81, 193, 112, 320
-0.993161, 317, 145, 348, 176
-0.993162, 445, 145, 476, 208
-0.993163, 429, 249, 460, 312
-0.99317, 269, 25, 300, 56
-0.993173, 425, 165, 456, 196
-0.993174, 257, 161, 288, 288
-0.993178, 73, 257, 104, 288
-0.993178, 49, 277, 80, 308
-0.993186, 313, 53, 344, 84
-0.993189, 445, 21, 476, 52
-0.993191, 257, 21, 384, 52
-0.993194, 321, 221, 352, 252
-0.993197, 305, 137, 336, 168
-0.9932, 317, 9, 348, 40
-0.9932, 61, 269, 92, 300
-0.993202, 137, 177, 168, 208
-0.993203, 373, 153, 404, 184
-0.993206, 245, 325, 276, 356
-0.993211, 361, 21, 392, 52
-0.993213, 137, 117, 168, 148
-0.993214, 453, 217, 484, 248
-0.993216, 233, 61, 264, 92
-0.993221, 401, 157, 432, 188
-0.993259, 377, 97, 408, 224
-0.993316, 49, 209, 80, 336
-0.993333, 349, 97, 380, 224
-0.993334, 369, 1, 496, 64
-0.993418, 221, 257, 252, 378
-0.993581, 233, 193, 296, 256
-0.993643, 299, 169, 314, 232
-0.993691, 41, 1, 104, 64
-0.993706, 129, 201, 384, 264
-0.993734, 1, 233, 128, 296
-0.993743, 1, 313, 500, 376
-0.993752, 101, 81, 132, 208
-0.993756, 273, 229, 400, 260
-0.993777, 97, 97, 352, 160
-0.993788, 345, 201, 408, 264
-0.993795, 117, 161, 148, 288
-0.993797, 333, 81, 364, 208
-0.993815, 33, 209, 288, 272
-0.993816, 209, 33, 336, 64
-0.993821, 257, 225, 272, 288
-0.993856, 145, 105, 272, 168
-0.993863, 305, 177, 432, 240
-0.993875, 41, 233, 104, 296
-0.994018, 45, 257, 76, 378
-0.994044, 425, 41, 488, 104
-0.994052, 81, 313, 144, 376
-0.994068, 361, 41, 424, 104
-0.994112, 287, 17, 302, 80
-0.994134, 1, 265, 256, 328
-0.994136, 401, 41, 464, 104
-0.994249, 421, 113, 452, 240
-0.994281, 257, 273, 500, 336
-0.99429, 257, 145, 384, 176
-0.994299, 257, 17, 500, 80
-0.994319, 1, 129, 500, 192
-0.994344, 353, 1, 416, 128
-0.994352, 113, 29, 240, 60
-0.994419, 299, 137, 314, 200
-0.994434, 65, 9, 320, 72
-0.994456, 1, 217, 500, 280
-0.994461, 405, 97, 436, 224
-0.994463, 237, 1, 268, 128
-0.994473, 337, 341, 464, 372
-0.99448, 1, 81, 500, 144
-0.994483, 101, 177, 132, 304
-0.994564, 393, 97, 424, 224
-0.994607, 333, 177, 364, 304
-0.994657, 305, 153, 320, 216
-0.994659, 273, 81, 304, 208
-0.994666, 311, 217, 326, 280
-0.994698, 241, 341, 368, 372
-0.994728, 411, 297, 426, 360
-0.994749, 273, 33, 400, 64
-0.994763, 145, 289, 208, 352
-0.994764, 353, 313, 368, 376
-0.994792, 161, 257, 416, 320
-0.994794, 249, 57, 312, 120
-0.99481, 345, 313, 360, 376
-0.994815, 273, 329, 400, 360
-0.994818, 225, 1, 256, 128
-0.994866, 297, 17, 312, 80
-0.994872, 225, 309, 352, 340
-0.994891, 321, 313, 448, 344
-0.9949, 17, 257, 48, 378
-0.994923, 253, 17, 284, 144
-0.994948, 305, 149, 432, 180
-0.995004, 41, 97, 104, 352
-0.995038, 305, 129, 336, 378
-0.995091, 261, 289, 276, 352
-0.995098, 385, 1, 448, 128
-0.9951, 225, 97, 480, 160
-0.995106, 257, 249, 272, 312
-0.995107, 299, 193, 314, 256
-0.995129, 259, 313, 274, 376
-0.995132, 421, 297, 436, 360
-0.995138, 367, 313, 382, 376
-0.995169, 273, 317, 400, 348
-0.99517, 317, 225, 332, 288
-0.995196, 321, 81, 352, 208
-0.995216, 145, 321, 272, 352
-0.995243, 337, 41, 400, 104
-0.995249, 225, 201, 480, 264
-0.99527, 1, 17, 500, 80
-0.995281, 369, 229, 496, 260
-0.995292, 317, 1, 332, 64
-0.995307, 305, 313, 320, 376
-0.995314, 225, 237, 352, 268
-0.995337, 341, 129, 372, 378
-0.995338, 209, 45, 336, 76
-0.995365, 1, 313, 256, 376
-0.995365, 267, 281, 282, 344
-0.995394, 161, 309, 288, 340
-0.995398, 331, 313, 346, 376
-0.995416, 185, 161, 200, 224
-0.995416, 369, 193, 400, 320
-0.995416, 369, 1, 496, 128
-0.995438, 193, 121, 448, 184
-0.995443, 97, 169, 352, 232
-0.99545, 225, 65, 480, 128
-0.995451, 209, 281, 336, 312
-0.995478, 457, 113, 488, 240
-0.995488, 321, 129, 352, 378
-0.995502, 437, 1, 468, 128
-0.995524, 295, 305, 310, 368
-0.995526, 251, 257, 266, 320
-0.995589, 469, 129, 500, 256
-0.995626, 25, 49, 88, 112
-0.995631, 353, 217, 480, 248
-0.995638, 153, 121, 168, 184
-0.995647, 289, 273, 304, 336
-0.995679, 289, 1, 320, 256
-0.995708, 233, 145, 264, 272
-0.995714, 121, 257, 184, 378
-0.995723, 225, 221, 352, 252
-0.995724, 321, 301, 448, 332
-0.995741, 225, 157, 352, 188
-0.99577, 275, 281, 290, 344
-0.99578, 17, 129, 80, 378
-0.995785, 33, 1, 96, 378
-0.995818, 285, 129, 316, 378
-0.995821, 289, 341, 416, 372
-0.99584, 289, 145, 304, 208
-0.995865, 157, 257, 188, 378
-0.995872, 289, 241, 416, 272
-0.995895, 97, 289, 224, 352
-0.995939, 339, 313, 354, 376
-0.995948, 337, 97, 464, 160
-0.995956, 177, 129, 240, 192
-0.995961, 145, 145, 272, 176
-0.995977, 1, 81, 128, 208
-0.995978, 403, 313, 418, 376
-0.995983, 281, 25, 296, 88
-0.996005, 427, 313, 442, 376
-0.996006, 361, 129, 392, 378
-0.99602, 359, 313, 374, 376
-0.996021, 437, 161, 452, 224
-0.996022, 159, 137, 174, 200
-0.996053, 307, 17, 322, 80
-0.996063, 323, 225, 338, 288
-0.996074, 337, 49, 464, 112
-0.996103, 225, 329, 352, 360
-0.996105, 181, 257, 212, 378
-0.996109, 193, 21, 320, 52
-0.996115, 369, 309, 496, 340
-0.996118, 65, 17, 192, 48
-0.996134, 295, 273, 310, 336
-0.996142, 193, 341, 320, 372
-0.996156, 287, 313, 302, 376
-0.996159, 255, 281, 270, 344
-0.996191, 321, 25, 448, 56
-0.996207, 317, 305, 332, 368
-0.996208, 289, 177, 304, 240
-0.99622, 449, 185, 464, 248
-0.996226, 145, 1, 176, 256
-0.996231, 381, 313, 396, 376
-0.996241, 321, 329, 448, 360
-0.996245, 247, 209, 262, 272
-0.996266, 33, 289, 288, 352
-0.996285, 17, 345, 144, 376
-0.996289, 427, 281, 442, 344
-0.996294, 65, 125, 192, 156
-0.996314, 381, 193, 412, 320
-0.996332, 369, 253, 496, 284
-0.996336, 177, 165, 304, 196
-0.99634, 429, 161, 444, 224
-0.996354, 49, 93, 176, 124
-0.996373, 257, 133, 384, 164
-0.996379, 151, 193, 166, 256
-0.996385, 129, 157, 256, 188
-0.996396, 373, 129, 404, 378
-0.996403, 281, 281, 296, 344
-0.996405, 317, 33, 332, 96
-0.996416, 193, 293, 320, 324
-0.996426, 169, 1, 200, 256
-0.996429, 209, 145, 336, 176
-0.996441, 427, 185, 442, 248
-0.996442, 65, 65, 96, 192
-0.996449, 421, 249, 436, 312
-0.996452, 321, 253, 448, 284
-0.996462, 1, 313, 16, 376
-0.996472, 169, 257, 200, 378
-0.996483, 369, 241, 496, 272
-0.996502, 209, 257, 336, 288
-0.996522, 305, 177, 320, 240
-0.996525, 375, 313, 390, 376
-0.996529, 421, 153, 436, 216
-0.996534, 135, 97, 150, 160
-0.996547, 277, 97, 292, 160
-0.996569, 257, 169, 500, 232
-0.996588, 151, 153, 166, 216
-0.99659, 319, 249, 334, 312
-0.996592, 125, 65, 156, 320
-0.996598, 189, 113, 220, 240
-0.996603, 251, 233, 266, 296
-0.996606, 1, 97, 256, 160
-0.996616, 269, 313, 284, 376
-0.996635, 305, 129, 320, 192
-0.996658, 127, 89, 142, 152
-0.996663, 1, 137, 256, 200
-0.996664, 263, 241, 278, 304
-0.996666, 257, 273, 384, 304
-0.996667, 245, 265, 260, 328
-0.996674, 113, 57, 240, 120
-0.996675, 353, 265, 480, 296
-0.996686, 305, 201, 320, 264
-0.996699, 273, 217, 400, 248
-0.99671, 461, 169, 476, 232
-0.99672, 435, 305, 450, 368
-0.996761, 431, 225, 446, 288
-0.996775, 1, 193, 500, 256
-0.996778, 85, 81, 116, 208
-0.99678, 397, 313, 412, 376
-0.996805, 119, 225, 134, 288
-0.996806, 325, 313, 340, 376
-0.996807, 305, 13, 432, 44
-0.99681, 329, 241, 344, 304
-0.996819, 77, 57, 92, 120
-0.996831, 5, 209, 36, 336
-0.996832, 353, 157, 480, 188
-0.996838, 225, 57, 352, 88
-0.996841, 1, 105, 500, 168
-0.996843, 303, 233, 318, 296
-0.996845, 79, 257, 94, 320
-0.996849, 311, 145, 326, 208
-0.996871, 363, 225, 378, 288
-0.99688, 145, 133, 272, 164
-0.996882, 279, 29, 294, 60
-0.996887, 337, 137, 352, 200
-0.996896, 371, 233, 386, 296
-0.996903, 157, 1, 188, 256
-0.996906, 143, 217, 158, 280
-0.996919, 169, 313, 184, 376
-0.99692, 469, 249, 484, 312
-0.996933, 309, 265, 324, 328
-0.996934, 401, 129, 432, 378
-0.996934, 471, 169, 486, 232
-0.996934, 339, 225, 354, 288
-0.996936, 421, 217, 436, 280
-0.996938, 389, 129, 420, 378
-0.996943, 157, 177, 172, 240
-0.996948, 211, 33, 226, 96
-0.996948, 317, 145, 332, 208
-0.996956, 443, 161, 458, 224
-0.996958, 279, 129, 294, 192
-0.99696, 339, 289, 354, 352
-0.996971, 73, 257, 88, 320
-0.996977, 305, 33, 336, 288
-0.996981, 17, 209, 48, 336
-0.996992, 129, 201, 256, 232
-0.996996, 325, 1, 356, 128
-0.997013, 323, 17, 338, 80
-0.99702, 281, 313, 296, 376
-0.997024, 95, 241, 110, 304
-0.997026, 305, 289, 320, 352
-0.997043, 29, 209, 60, 336
-0.997061, 115, 41, 130, 104
-0.997072, 11, 313, 26, 376
-0.997076, 1, 281, 16, 344
-0.997078, 353, 137, 368, 200
-0.99708, 163, 313, 178, 376
-0.997089, 49, 261, 176, 292
-0.997093, 311, 41, 326, 104
-0.997096, 89, 241, 104, 304
-0.997104, 287, 17, 302, 48
-0.997105, 273, 305, 400, 336
-0.997107, 257, 225, 272, 256
-0.997108, 141, 105, 156, 168
-0.997112, 225, 209, 352, 240
-0.997118, 145, 297, 272, 328
-0.997118, 55, 273, 70, 336
-0.997124, 253, 73, 268, 136
-0.997126, 463, 257, 478, 320
-0.997127, 103, 233, 118, 296
-0.997146, 347, 217, 362, 280
-0.997155, 413, 341, 428, 372
-0.997159, 287, 33, 302, 64
-0.997161, 221, 41, 236, 104
-0.997161, 231, 49, 246, 112
-0.997161, 369, 169, 496, 200
-0.997161, 359, 289, 374, 352
-0.99717, 239, 57, 254, 120
-0.997174, 285, 121, 300, 184
-0.997174, 353, 285, 480, 316
-0.99719, 137, 217, 152, 280
-0.997196, 71, 65, 86, 128
-0.997197, 371, 145, 386, 208
-0.997197, 323, 145, 338, 208
-0.997206, 81, 225, 208, 256
-0.997216, 129, 181, 256, 212
-0.997219, 329, 217, 344, 280
-0.997221, 239, 273, 254, 336
-0.997221, 255, 201, 270, 264
-0.997222, 245, 65, 260, 128
-0.997231, 451, 161, 466, 224
-0.997251, 325, 329, 340, 360
-0.997252, 433, 185, 448, 248
-0.997254, 289, 41, 304, 104
-0.99726, 297, 197, 312, 228
-0.997274, 269, 145, 284, 208
-0.997275, 369, 321, 496, 352
-0.997275, 67, 265, 82, 328
-0.99729, 65, 29, 192, 60
-0.997296, 421, 129, 452, 378
-0.997314, 367, 329, 382, 360
-0.997316, 1, 89, 128, 152
-0.997318, 65, 113, 192, 144
-0.997319, 361, 1, 392, 128
-0.997321, 257, 93, 384, 124
-0.997326, 405, 341, 420, 372
-0.997328, 277, 1, 308, 256
-0.99734, 129, 213, 256, 244
-0.997344, 319, 333, 334, 364
-0.997344, 81, 237, 208, 268
-0.997346, 393, 193, 424, 320
-0.997348, 449, 1, 480, 128
-0.997351, 329, 309, 344, 340
-0.997352, 363, 341, 378, 372
-0.997364, 313, 333, 328, 364
-0.997369, 291, 329, 306, 360
-0.997379, 145, 45, 272, 76
-0.997385, 369, 297, 496, 328
-0.997392, 397, 341, 412, 372
-0.997395, 273, 97, 304, 352
-0.997396, 113, 1, 144, 256
-0.997397, 335, 325, 350, 356
-0.997416, 273, 261, 400, 292
-0.997419, 1, 153, 500, 216
-0.99743, 297, 21, 312, 52
-0.997432, 113, 341, 240, 372
-0.997436, 65, 249, 192, 280
-0.997438, 113, 17, 240, 48
-0.997442, 1, 229, 128, 260
-0.997444, 209, 133, 336, 164
-0.997446, 387, 341, 402, 372
-0.997454, 1, 269, 128, 300
-0.997458, 303, 13, 318, 44
-0.997458, 291, 309, 306, 340
-0.997458, 379, 341, 394, 372
-0.997459, 177, 81, 304, 112
-0.997459, 1, 265, 500, 328
-0.997463, 369, 341, 384, 372
-0.997468, 129, 169, 256, 200
-0.997471, 353, 205, 480, 236
-0.997471, 65, 197, 192, 228
-0.997477, 305, 329, 320, 360
-0.997477, 297, 341, 312, 372
-0.997488, 209, 269, 336, 300
-0.997501, 309, 317, 324, 348
-0.997506, 377, 329, 392, 360
-0.997514, 225, 209, 256, 336
-0.99752, 281, 313, 296, 344
-0.997522, 263, 341, 278, 372
-0.997522, 291, 341, 306, 372
-0.997523, 359, 317, 374, 348
-0.997525, 277, 341, 292, 372
-0.997532, 185, 165, 200, 196
-0.997542, 161, 65, 288, 96
-0.997548, 317, 313, 332, 344
-0.997548, 17, 49, 144, 80
-0.997554, 453, 129, 484, 378
-0.997557, 315, 37, 330, 68
-0.997558, 189, 1, 220, 256
-0.997561, 353, 333, 368, 364
-0.997562, 9, 1, 72, 378
-0.997573, 343, 313, 358, 344
-0.997578, 269, 341, 284, 372
-0.997579, 33, 81, 160, 112
-0.997582, 303, 145, 318, 176
-0.997584, 317, 9, 332, 40
-0.997591, 299, 325, 314, 356
-0.997605, 285, 329, 300, 360
-0.997605, 257, 45, 384, 76
-0.997615, 319, 21, 334, 52
-0.997616, 251, 269, 266, 300
-0.997633, 341, 325, 356, 356
-0.997633, 257, 105, 384, 136
-0.997636, 297, 49, 328, 176
-0.99764, 297, 177, 312, 208
-0.997643, 299, 157, 314, 188
-0.997646, 259, 309, 274, 340
-0.997651, 321, 229, 448, 260
-0.997653, 177, 93, 304, 124
-0.997659, 271, 329, 286, 360
-0.997659, 97, 321, 224, 352
-0.99767, 323, 245, 338, 276
-0.997671, 359, 329, 374, 360
-0.997678, 161, 277, 288, 308
-0.99768, 241, 77, 368, 108
-0.99768, 333, 341, 348, 372
-0.99768, 205, 1, 236, 256
-0.997683, 283, 341, 298, 372
-0.997685, 273, 149, 288, 180
-0.997689, 351, 309, 366, 340
-0.997691, 353, 193, 480, 224
-0.997701, 307, 341, 322, 372
-0.997707, 275, 313, 290, 344
-0.997715, 257, 117, 384, 148
-0.997723, 1, 333, 128, 364
-0.99774, 317, 253, 332, 284
-0.997741, 113, 101, 240, 132
-0.997742, 65, 41, 192, 72
-0.997746, 311, 13, 326, 44
-0.997754, 317, 33, 348, 288
-0.997756, 255, 257, 270, 288
-0.997756, 277, 325, 292, 356
-0.997758, 409, 325, 424, 356
-0.99776, 257, 65, 288, 320
-0.997764, 309, 221, 324, 252
-0.997764, 283, 137, 298, 168
-0.997769, 309, 257, 324, 288
-0.997769, 177, 233, 304, 264
-0.99777, 335, 309, 350, 340
-0.997771, 369, 313, 384, 344
-0.99778, 265, 293, 280, 324
-0.99779, 317, 49, 332, 80
-0.997801, 1, 169, 256, 232
-0.997801, 299, 209, 314, 240
-0.997803, 249, 217, 264, 248
-0.997804, 161, 33, 288, 64
-0.997808, 161, 161, 192, 288
-0.997808, 321, 37, 448, 68
-0.99781, 375, 313, 390, 344
-0.997815, 267, 153, 282, 184
-0.997816, 261, 329, 276, 360
-0.997818, 49, 209, 176, 240
-0.99783, 267, 317, 282, 348
-0.99784, 347, 329, 362, 360
-0.997841, 357, 345, 372, 376
-0.997849, 419, 341, 434, 372
-0.997856, 323, 317, 338, 348
-0.997869, 17, 61, 144, 92
-0.997888, 259, 153, 274, 184
-0.997928, 349, 345, 364, 376
-0.997932, 311, 49, 326, 80
-0.997943, 101, 65, 132, 320
-0.997943, 293, 141, 308, 172
-0.997946, 251, 157, 266, 188
-0.997949, 193, 121, 320, 152
-0.99795, 17, 25, 144, 56
-0.99795, 237, 33, 268, 288
-0.997969, 297, 45, 312, 76
-0.997977, 329, 245, 344, 276
-0.997978, 309, 153, 324, 184
-0.997979, 339, 341, 354, 372
-0.997988, 299, 313, 314, 344
-0.998017, 327, 341, 342, 372
-0.998021, 297, 9, 312, 40
-0.998021, 369, 29, 496, 60
-0.998026, 259, 237, 274, 268
-0.998029, 307, 209, 322, 240
-0.998032, 299, 261, 314, 292
-0.998038, 305, 137, 432, 168
-0.998038, 153, 97, 184, 352
-0.998045, 433, 129, 464, 378
-0.998045, 169, 129, 200, 378
-0.998049, 1, 257, 128, 288
-0.998051, 245, 157, 260, 188
-0.998053, 81, 137, 208, 168
-0.998063, 249, 257, 264, 288
-0.998075, 281, 41, 296, 72
-0.998084, 245, 269, 260, 300
-0.998085, 157, 129, 172, 160
-0.998093, 321, 33, 336, 64
-0.998098, 65, 185, 192, 216
-0.998104, 17, 37, 144, 68
-0.998129, 311, 25, 326, 56
-0.998136, 1, 57, 256, 120
-0.998137, 257, 9, 384, 40
-0.99814, 321, 233, 336, 264
-0.99814, 409, 305, 424, 336
-0.998141, 457, 169, 472, 200
-0.998143, 9, 333, 24, 364
-0.998143, 65, 173, 192, 204
-0.998148, 157, 153, 172, 184
-0.998153, 193, 105, 320, 136
-0.998154, 153, 201, 168, 232
-0.998155, 137, 105, 152, 136
-0.998158, 127, 93, 142, 124
-0.998159, 1, 289, 500, 352
-0.99819, 317, 345, 332, 376
-0.998199, 309, 245, 324, 276
-0.998205, 81, 257, 96, 288
-0.99821, 65, 149, 192, 180
-0.99821, 73, 265, 88, 296
-0.998214, 341, 33, 372, 288
-0.998224, 305, 45, 320, 76
-0.998228, 403, 329, 418, 360
-0.99824, 439, 169, 454, 200
-0.998244, 189, 161, 220, 288
-0.99825, 421, 325, 436, 356
-0.998252, 163, 129, 178, 160
-0.998261, 243, 217, 258, 248
-0.998264, 137, 257, 168, 378
-0.998268, 95, 245, 110, 276
-0.998273, 291, 45, 306, 76
-0.998279, 137, 97, 168, 352
-0.99828, 1, 281, 128, 312
-0.998281, 389, 329, 404, 360
-0.998282, 441, 97, 472, 224
-0.998283, 237, 161, 252, 192
-0.998289, 75, 73, 90, 104
-0.998294, 89, 249, 104, 280
-0.998312, 257, 341, 272, 372
-0.998315, 369, 137, 496, 168
-0.998323, 419, 301, 434, 332
-0.998323, 151, 177, 166, 208
-0.998327, 467, 257, 482, 288
-0.998329, 431, 313, 446, 344
-0.99833, 187, 177, 202, 208
-0.998344, 1, 321, 128, 352
-0.998349, 49, 329, 176, 360
-0.998356, 65, 53, 192, 84
-0.998371, 17, 241, 144, 272
-0.998385, 261, 287, 292, 302
-0.998387, 281, 183, 312, 198
-0.998387, 385, 321, 416, 336
-0.998387, 293, 355, 324, 370
-0.998388, 361, 239, 392, 254
-0.99839, 385, 315, 416, 330
-0.99839, 149, 131, 180, 146
-0.998391, 113, 97, 144, 112
-0.998393, 357, 149, 388, 164
-0.998393, 253, 259, 284, 274
-0.998395, 265, 149, 328, 164
-0.998396, 129, 227, 160, 242
-0.998397, 285, 191, 316, 206
-0.998397, 209, 9, 336, 40
-0.998398, 421, 301, 452, 316
-0.9984, 65, 69, 192, 100
-0.9984, 253, 245, 284, 260
-0.998401, 241, 275, 272, 290
-0.998401, 257, 333, 288, 348
-0.998401, 341, 323, 372, 338
-0.998401, 285, 171, 316, 186
-0.998402, 241, 293, 368, 324
-0.998403, 281, 347, 312, 362
-0.998403, 453, 175, 484, 190
-0.998404, 253, 323, 284, 338
-0.998404, 313, 47, 344, 62
-0.998406, 417, 355, 448, 370
-0.998406, 333, 355, 364, 370
-0.998407, 333, 311, 364, 326
-0.998407, 245, 165, 276, 180
-0.998408, 281, 49, 312, 64
-0.998409, 245, 229, 276, 244
-0.99841, 353, 327, 384, 342
-0.998411, 305, 231, 336, 246
-0.998411, 301, 9, 332, 24
-0.998411, 309, 31, 340, 46
-0.998412, 293, 177, 324, 192
-0.998412, 357, 349, 388, 364
-0.998412, 217, 33, 248, 288
-0.998412, 109, 235, 140, 250
-0.998413, 325, 247, 356, 262
-0.998414, 297, 29, 328, 44
-0.998414, 325, 29, 356, 44
-0.998415, 257, 347, 288, 362
-0.998415, 13, 359, 44, 374
-0.998416, 297, 165, 328, 180
-0.998416, 289, 41, 320, 56
-0.998417, 1, 185, 128, 248
-0.998417, 289, 155, 320, 170
-0.998417, 345, 349, 376, 364
-0.998419, 237, 223, 268, 238
-0.99842, 193, 37, 224, 52
-0.998422, 309, 247, 340, 262
-0.998422, 249, 269, 280, 284
-0.998422, 129, 113, 256, 144
-0.998423, 333, 339, 364, 354
-0.998423, 333, 349, 364, 364
-0.998423, 313, 263, 344, 278
-0.998424, 265, 355, 296, 370
-0.998425, 257, 311, 288, 326
-0.998426, 309, 239, 340, 254
-0.998428, 381, 355, 412, 370
-0.998428, 245, 315, 276, 330
-0.998429, 293, 183, 324, 198
-0.998429, 321, 253, 352, 268
-0.998429, 281, 177, 312, 192
-0.99843, 281, 355, 312, 370
-0.998431, 285, 197, 316, 212
-0.998432, 173, 167, 204, 182
-0.998433, 313, 53, 344, 68
-0.998433, 269, 347, 300, 362
-0.998433, 293, 333, 324, 348
-0.998433, 257, 155, 320, 170
-0.998435, 273, 25, 304, 40
-0.998435, 1, 281, 32, 296
-0.998435, 273, 37, 304, 52
-0.998436, 309, 355, 340, 370
-0.998438, 317, 339, 348, 354
-0.998439, 65, 345, 192, 376
-0.998441, 113, 89, 240, 120
-0.998444, 309, 349, 340, 364
-0.998446, 301, 271, 332, 286
-0.998446, 253, 153, 284, 168
-0.998447, 273, 315, 304, 330
-0.998448, 293, 213, 324, 228
-0.998449, 245, 235, 276, 250
-0.99845, 301, 225, 332, 240
-0.99845, 369, 355, 400, 370
-0.998451, 297, 347, 328, 362
-0.998451, 321, 355, 352, 370
-0.998452, 305, 253, 336, 268
-0.998452, 381, 349, 412, 364
-0.998452, 265, 325, 296, 340
-0.998453, 317, 23, 348, 38
-0.998454, 321, 147, 384, 162
-0.998456, 369, 341, 400, 356
-0.998456, 257, 339, 288, 354
-0.998457, 237, 281, 268, 296
-0.998458, 337, 333, 368, 348
-0.998459, 277, 333, 308, 348
-0.998459, 33, 137, 160, 200
-0.99846, 305, 205, 432, 236
-0.998462, 401, 347, 432, 362
-0.998462, 369, 347, 400, 362
-0.998463, 305, 17, 336, 32
-0.998463, 345, 231, 376, 246
-0.998463, 297, 261, 328, 276
-0.998467, 365, 331, 396, 346
-0.998468, 277, 339, 308, 354
-0.998468, 49, 273, 176, 304
-0.998469, 273, 23, 336, 38
-0.998469, 393, 355, 424, 370
-0.998471, 289, 149, 320, 164
-0.998471, 273, 151, 304, 166
-0.998474, 285, 203, 316, 218
-0.998476, 257, 159, 288, 174
-0.998477, 321, 313, 352, 328
-0.998478, 281, 143, 344, 158
-0.998479, 337, 145, 368, 160
-0.99848, 385, 339, 416, 354
-0.99848, 293, 311, 324, 326
-0.998483, 305, 155, 336, 170
-0.998486, 357, 355, 388, 370
-0.998487, 145, 167, 208, 182
-0.998488, 429, 355, 460, 370
-0.99849, 405, 355, 436, 370
-0.998491, 329, 319, 392, 334
-0.998491, 353, 333, 384, 348
-0.998493, 345, 355, 376, 370
-0.998495, 273, 145, 304, 160
-0.998495, 393, 355, 456, 370
-0.998499, 325, 331, 356, 346
-0.998502, 277, 43, 308, 58
-0.998502, 305, 339, 336, 354
-0.998505, 273, 29, 336, 44
-0.998507, 397, 339, 428, 354
-0.998508, 245, 159, 276, 174
-0.998508, 345, 313, 376, 328
-0.998511, 241, 161, 304, 176
-0.998513, 353, 339, 384, 354
-0.998513, 225, 283, 288, 298
-0.998515, 305, 333, 336, 348
-0.998516, 273, 313, 336, 328
-0.998517, 81, 161, 208, 192
-0.99852, 285, 143, 316, 158
-0.99852, 285, 21, 316, 36
-0.998525, 301, 53, 332, 68
-0.998525, 289, 15, 352, 30
-0.998527, 257, 235, 320, 250
-0.998529, 305, 1, 432, 32
-0.998532, 145, 183, 208, 198
-0.998533, 321, 233, 384, 248
-0.998534, 361, 319, 424, 334
-0.998536, 361, 339, 424, 354
-0.998537, 369, 355, 432, 370
-0.998539, 337, 333, 400, 348
-0.998542, 273, 41, 336, 56
-0.998542, 177, 213, 304, 244
-0.998543, 297, 237, 360, 252
-0.998544, 313, 331, 376, 346
-0.998548, 361, 317, 392, 332
-0.998549, 145, 173, 208, 188
-0.998551, 273, 51, 336, 66
-0.998555, 273, 333, 336, 348
-0.998556, 249, 339, 312, 354
-0.998557, 257, 241, 320, 256
-0.998557, 129, 27, 192, 42
-0.998557, 241, 317, 304, 332
-0.998558, 273, 35, 336, 50
-0.998559, 249, 347, 312, 362
-0.998559, 393, 307, 456, 322
-0.99856, 233, 163, 264, 178
-0.99856, 297, 225, 360, 240
-0.998562, 249, 355, 312, 370
-0.998564, 249, 275, 312, 290
-0.998566, 1, 279, 64, 294
-0.998566, 293, 47, 324, 62
-0.998567, 297, 23, 328, 38
-0.998567, 329, 325, 392, 340
-0.998568, 417, 259, 480, 274
-0.99857, 289, 149, 352, 164
-0.998573, 377, 313, 440, 328
-0.998574, 217, 289, 280, 304
-0.998574, 369, 349, 432, 364
-0.998574, 393, 301, 456, 316
-0.998574, 417, 265, 480, 280
-0.998575, 217, 165, 280, 180
-0.998576, 297, 231, 360, 246
-0.998578, 293, 15, 324, 30
-0.998579, 153, 321, 216, 336
-0.998579, 329, 239, 392, 254
-0.998579, 249, 333, 312, 348
-0.998579, 425, 227, 488, 242
-0.99858, 257, 317, 288, 332
-0.99858, 329, 313, 392, 328
-0.998584, 153, 189, 216, 204
-0.998584, 337, 73, 464, 136
-0.998587, 305, 355, 368, 370
-0.998589, 265, 17, 328, 32
-0.998589, 305, 41, 368, 56
-0.99859, 249, 39, 312, 54
-0.99859, 361, 33, 392, 288
-0.998591, 409, 211, 472, 226
-0.998592, 185, 167, 248, 182
-0.998592, 345, 349, 408, 364
-0.998592, 273, 323, 336, 338
-0.998592, 273, 347, 336, 362
-0.998595, 249, 325, 312, 340
-0.998595, 369, 325, 432, 340
-0.998598, 273, 355, 336, 370
-0.998598, 257, 229, 320, 244
-0.998598, 345, 355, 408, 370
-0.998598, 377, 161, 440, 176
-0.9986, 329, 33, 360, 288
-0.9986, 409, 199, 472, 214
-0.998601, 89, 97, 152, 112
-0.998602, 217, 313, 280, 328
-0.998603, 313, 339, 376, 354
-0.998603, 249, 33, 312, 48
-0.998603, 257, 247, 320, 262
-0.998604, 249, 283, 312, 298
-0.998605, 277, 31, 308, 46
-0.998605, 409, 219, 472, 234
-0.998606, 409, 205, 472, 220
-0.998606, 297, 309, 360, 324
-0.998606, 307, 145, 322, 272
-0.998607, 417, 299, 480, 314
-0.998607, 289, 339, 352, 354
-0.998607, 305, 27, 368, 42
-0.998609, 249, 269, 312, 284
-0.998609, 289, 261, 352, 276
-0.99861, 297, 317, 360, 332
-0.998613, 409, 193, 472, 208
-0.998614, 417, 271, 480, 286
-0.998614, 257, 255, 320, 270
-0.998616, 257, 221, 320, 236
-0.998616, 145, 161, 208, 176
-0.998616, 425, 175, 488, 190
-0.998617, 281, 57, 344, 72
-0.998617, 313, 349, 376, 364
-0.998618, 217, 237, 280, 252
-0.998618, 305, 325, 368, 340
-0.998618, 305, 47, 368, 62
-0.998618, 297, 243, 360, 258
-0.998619, 337, 339, 400, 354
-0.998619, 385, 255, 448, 270
-0.99862, 255, 209, 270, 336
-0.998621, 305, 21, 368, 36
-0.998621, 217, 157, 280, 172
-0.998622, 265, 161, 328, 176
-0.998622, 393, 347, 456, 362
-0.998622, 361, 331, 424, 346
-0.998623, 153, 33, 216, 48
-0.998624, 257, 143, 320, 158
-0.998625, 425, 253, 488, 268
-0.998626, 297, 253, 360, 268
-0.998628, 73, 89, 136, 104
-0.99863, 241, 167, 304, 182
-0.998632, 257, 205, 320, 220
-0.998633, 305, 53, 368, 68
-0.998634, 121, 131, 184, 146
-0.998635, 185, 161, 248, 176
-0.998639, 385, 339, 448, 354
-0.998639, 65, 81, 128, 96
-0.998641, 417, 283, 480, 298
-0.998642, 305, 33, 368, 48
-0.998643, 289, 267, 352, 282
-0.998643, 273, 281, 336, 296
-0.998643, 209, 319, 272, 334
-0.998644, 417, 293, 480, 308
-0.998644, 257, 261, 320, 276
-0.998645, 417, 357, 480, 372
-0.998645, 337, 245, 400, 260
-0.998645, 89, 27, 152, 42
-0.998645, 393, 319, 456, 334
-0.998647, 89, 33, 152, 48
-0.998648, 369, 363, 432, 378
-0.998649, 89, 19, 152, 34
-0.998651, 257, 195, 320, 210
-0.998694, 299, 129, 314, 256
-0.998757, 113, 97, 144, 352
-0.998767, 299, 177, 314, 304
-0.998786, 397, 33, 428, 288
-0.998811, 307, 209, 322, 336
-0.998811, 469, 129, 500, 378
-0.998848, 81, 1, 112, 256
-0.99885, 419, 241, 434, 368
-0.998904, 291, 257, 306, 378
-0.998922, 181, 129, 212, 378
-0.998926, 261, 241, 276, 368
-0.998946, 293, 145, 308, 272
-0.998957, 225, 129, 256, 378
-0.99899, 411, 241, 426, 368
-0.998995, 249, 257, 264, 378
-0.998999, 159, 113, 174, 240
-0.999011, 425, 257, 440, 378
-0.999019, 381, 33, 412, 288
-0.999019, 1, 113, 128, 176
-0.999021, 237, 129, 268, 378
-0.999024, 127, 17, 142, 144
-0.999029, 313, 145, 328, 272
-0.999049, 313, 209, 328, 336
-0.999053, 425, 145, 440, 272
-0.999059, 297, 225, 312, 352
-0.999074, 133, 17, 148, 144
-0.999077, 287, 1, 302, 128
-0.999085, 117, 33, 132, 160
-0.999092, 303, 257, 318, 378
-0.999101, 293, 1, 308, 128
-0.999116, 249, 209, 264, 336
-0.999116, 273, 81, 288, 208
-0.999119, 319, 145, 334, 272
-0.999119, 153, 113, 168, 240
-0.99913, 277, 257, 292, 378
-0.99913, 315, 1, 330, 128
-0.999133, 287, 129, 302, 256
-0.999155, 339, 225, 354, 352
-0.999156, 183, 145, 198, 272
-0.999158, 365, 145, 380, 272
-0.999159, 431, 241, 446, 368
-0.999161, 417, 33, 448, 288
-0.999174, 147, 113, 162, 240
-0.99918, 449, 225, 464, 352
-0.99919, 255, 257, 270, 378
-0.999191, 327, 145, 342, 272
-0.999197, 469, 161, 484, 288
-0.999197, 441, 33, 472, 288
-0.999198, 329, 225, 344, 352
-0.999199, 431, 145, 446, 272
-0.999199, 449, 145, 464, 272
-0.999199, 371, 225, 386, 352
-0.999202, 419, 145, 434, 272
-0.999207, 141, 1, 156, 128
-0.999213, 279, 97, 294, 224
-0.999214, 405, 241, 420, 368
-0.999222, 281, 17, 296, 144
-0.999223, 259, 161, 274, 288
-0.999229, 309, 257, 324, 378
-0.999231, 303, 1, 318, 128
-0.999237, 421, 193, 436, 320
-0.99924, 349, 225, 364, 352
-0.99924, 379, 145, 394, 272
-0.999244, 455, 193, 470, 320
-0.999246, 109, 1, 124, 128
-0.999246, 125, 81, 140, 208
-0.999251, 319, 257, 334, 378
-0.999252, 323, 209, 338, 336
-0.999255, 371, 145, 386, 272
-0.999258, 365, 225, 380, 352
-0.999264, 267, 241, 282, 368
-0.999266, 437, 225, 452, 352
-0.999272, 461, 161, 476, 288
-0.999281, 151, 193, 166, 320
-0.999282, 131, 81, 146, 208
-0.999284, 285, 257, 300, 378
-0.999287, 275, 33, 290, 160
-0.999294, 337, 129, 352, 256
-0.999294, 257, 65, 272, 192
-0.999297, 377, 241, 392, 368
-0.999305, 355, 225, 370, 352
-0.999306, 351, 129, 366, 256
-0.999309, 359, 145, 374, 272
-0.999309, 105, 225, 120, 352
-0.999311, 61, 97, 92, 352
-0.999313, 437, 145, 452, 272
-0.999324, 87, 241, 102, 368
-0.999324, 475, 177, 490, 304
-0.999329, 137, 97, 152, 224
-0.99933, 385, 241, 400, 368
-0.999332, 99, 1, 114, 128
-0.999335, 1, 257, 16, 378
-0.999336, 443, 225, 458, 352
-0.999336, 291, 193, 306, 320
-0.999341, 413, 145, 428, 272
-0.999343, 427, 193, 442, 320
-0.999346, 89, 97, 120, 352
-0.999346, 265, 81, 280, 208
-0.999346, 73, 257, 88, 378
-0.999348, 141, 209, 156, 336
-0.99935, 253, 129, 268, 256
-0.99935, 443, 145, 458, 272
-0.999357, 203, 17, 218, 144
-0.999358, 241, 49, 256, 176
-0.999361, 387, 145, 402, 272
-0.999364, 249, 65, 264, 192
-0.999366, 73, 97, 104, 352
-0.999373, 465, 257, 480, 378
-0.999375, 399, 241, 414, 368
-0.999384, 147, 1, 162, 128
-0.999386, 471, 225, 486, 352
-0.999387, 401, 145, 416, 272
-0.999388, 345, 129, 360, 256
-0.9994, 395, 145, 410, 272
-0.999401, 227, 33, 242, 160
-0.999405, 111, 49, 126, 176
-0.999413, 321, 1, 336, 128
-0.999419, 407, 145, 422, 272
-0.99942, 309, 1, 324, 128
-0.999422, 197, 17, 212, 144
-0.999423, 247, 161, 262, 288
-0.999425, 9, 257, 24, 378
-0.999427, 157, 161, 172, 288
-0.999429, 117, 225, 132, 352
-0.999431, 99, 225, 114, 352
-0.999432, 111, 225, 126, 352
-0.999432, 81, 257, 96, 378
-0.999438, 87, 33, 102, 160
-0.99944, 189, 145, 204, 272
-0.999442, 79, 33, 94, 160
-0.999443, 189, 17, 204, 144
-0.999445, 93, 241, 108, 368
-0.999446, 119, 81, 134, 208
-0.99945, 289, 81, 304, 208
-0.999453, 123, 225, 138, 352
-0.999455, 391, 241, 406, 368
-0.999457, 459, 257, 474, 378
-0.999462, 209, 33, 224, 160
-0.999463, 67, 257, 82, 378
-0.999471, 221, 33, 236, 160
-0.999471, 481, 161, 496, 288
-0.999474, 135, 209, 150, 336
-0.999484, 457, 33, 488, 288
-0.999539, 49, 281, 176, 344
-0.999607, 329, 355, 344, 370
-0.999608, 271, 331, 286, 346
-0.999608, 429, 355, 444, 370
-0.99961, 127, 97, 142, 112
-0.999611, 351, 317, 366, 332
-0.999611, 163, 133, 178, 148
-0.999612, 277, 149, 292, 164
-0.999612, 309, 261, 324, 276
-0.999613, 307, 267, 322, 282
-0.999613, 345, 331, 360, 346
-0.999614, 323, 331, 338, 346
-0.999617, 357, 349, 372, 364
-0.999617, 185, 165, 200, 180
-0.999618, 365, 341, 380, 356
-0.999618, 347, 347, 362, 362
-0.999619, 387, 347, 402, 362
-0.999619, 261, 349, 276, 364
-0.99962, 309, 349, 324, 364
-0.99962, 297, 49, 312, 64
-0.999622, 309, 17, 324, 32
-0.999622, 329, 323, 344, 338
-0.999623, 297, 355, 312, 370
-0.999623, 313, 355, 328, 370
-0.999624, 355, 327, 370, 342
-0.999626, 241, 219, 256, 234
-0.999626, 281, 333, 296, 348
-0.999626, 305, 311, 320, 326
-0.999626, 257, 255, 272, 270
-0.999627, 285, 139, 300, 154
-0.999627, 301, 271, 316, 286
-0.999628, 325, 339, 340, 354
-0.999628, 287, 29, 302, 44
-0.999628, 323, 355, 338, 370
-0.999629, 303, 49, 318, 64
-0.999629, 423, 355, 438, 370
-0.999629, 403, 339, 418, 354
-0.99963, 349, 357, 364, 372
-0.99963, 367, 317, 382, 332
-0.99963, 281, 347, 296, 362
-0.99963, 301, 165, 316, 180
-0.999632, 417, 355, 432, 370
-0.999632, 371, 347, 386, 362
-0.999632, 315, 347, 330, 362
-0.999633, 303, 215, 318, 230
-0.999634, 377, 333, 392, 348
-0.999634, 297, 23, 312, 38
-0.999634, 259, 355, 274, 370
-0.999635, 321, 33, 336, 48
-0.999635, 261, 339, 276, 354
-0.999635, 253, 223, 268, 238
-0.999635, 303, 355, 318, 370
-0.999637, 335, 325, 350, 340
-0.999637, 375, 317, 390, 332
-0.999638, 237, 165, 252, 180
-0.999639, 319, 339, 334, 354
-0.999639, 403, 349, 418, 364
-0.999639, 409, 355, 424, 370
-0.99964, 393, 339, 408, 354
-0.999641, 255, 261, 270, 276
-0.999641, 267, 347, 282, 362
-0.999642, 271, 151, 286, 166
-0.999642, 377, 345, 392, 360
-0.999644, 339, 355, 354, 370
-0.999646, 251, 271, 266, 286
-0.999646, 341, 317, 356, 332
-0.999647, 291, 349, 306, 364
-0.999647, 243, 163, 258, 178
-0.999648, 277, 325, 292, 340
-0.999648, 295, 311, 310, 326
-0.999649, 257, 229, 272, 244
-0.999649, 297, 201, 312, 216
-0.999649, 441, 355, 456, 370
-0.99965, 213, 129, 244, 378
-0.99965, 315, 11, 330, 26
-0.999652, 259, 319, 274, 334
-0.999652, 303, 339, 318, 354
-0.999653, 363, 355, 378, 370
-0.999653, 291, 333, 306, 348
-0.999653, 259, 313, 274, 328
-0.999654, 315, 17, 330, 32
-0.999655, 309, 223, 324, 238
-0.999656, 381, 339, 396, 354
-0.999657, 299, 331, 314, 346
-0.999657, 329, 331, 344, 346
-0.999657, 387, 355, 402, 370
-0.999657, 277, 339, 292, 354
-0.999658, 397, 349, 412, 364
-0.999659, 363, 349, 378, 364
-0.99966, 45, 129, 76, 378
-0.999661, 247, 219, 262, 234
-0.999662, 397, 357, 412, 372
-0.999665, 333, 313, 348, 328
-0.999667, 413, 349, 428, 364
-0.999668, 293, 17, 308, 32
-0.999668, 297, 193, 312, 208
-0.999669, 309, 333, 324, 348
-0.999669, 387, 339, 402, 354
-0.99967, 299, 171, 314, 186
-0.99967, 297, 177, 312, 192
-0.999671, 249, 161, 264, 176
-0.999672, 381, 355, 396, 370
-0.999673, 281, 317, 296, 332
-0.999674, 297, 183, 312, 198
-0.999674, 299, 345, 314, 360
-0.999674, 409, 339, 424, 354
-0.999674, 335, 331, 350, 346
-0.999674, 279, 41, 294, 56
-0.999675, 357, 355, 372, 370
-0.999676, 357, 339, 372, 354
-0.999678, 291, 339, 306, 354
-0.99968, 371, 339, 386, 354
-0.99968, 403, 355, 418, 370
-0.99968, 259, 235, 274, 250
-0.999681, 265, 155, 280, 170
-0.999682, 303, 155, 318, 170
-0.999682, 317, 333, 332, 348
-0.999683, 271, 317, 286, 332
-0.999683, 355, 333, 370, 348
-0.999684, 255, 159, 270, 174
-0.999686, 365, 331, 380, 346
-0.99969, 309, 339, 324, 354
-0.999692, 371, 357, 386, 372
-0.999695, 349, 311, 364, 326
-0.999695, 299, 207, 314, 222
-0.999715, 283, 145, 298, 160
-0.999732, 319, 23, 334, 38
-0.999737, 287, 35, 302, 50
-0.99974, 303, 15, 318, 30
-0.999743, 289, 23, 304, 38
-0.999756, 289, 41, 304, 56
-0.99976, 1, 161, 128, 224
-0.999762, 257, 177, 384, 240
-0.999775, 401, 65, 464, 192
-0.999786, 315, 53, 330, 68
-0.999799, 469, 33, 500, 288
-0.999802, 279, 31, 294, 46
-0.999855, 201, 129, 232, 378
-0.999936, 41, 161, 104, 288
-1.00001, 29, 129, 60, 378
-1.00006, 429, 1, 460, 256
-1.00009, 9, 129, 40, 378
-1.00044, 53, 1, 84, 256
-1.00053, 69, 1, 100, 256
-1.00079, 33, 1, 64, 256
-1.00093, 9, 1, 40, 256
-1.00095, 425, 65, 488, 192
-1.00106, 209, 97, 272, 224
-1.00106, 21, 1, 52, 256
-1.00139, 1, 129, 64, 256
-1.00197, 17, 49, 80, 176
-1.00247, 9, 1, 72, 128
-1.00416, 17, 1, 80, 256
-1.00431, 33, 113, 96, 240
-1.00519, 169, 209, 232, 336
-1.00522, 377, 49, 440, 176
-1.00568, 89, 129, 152, 256
-1.00594, 41, 1, 104, 256
-1.00715, 65, 129, 128, 256
