1957
-0.373282, 1, 97, 500, 352
-0.504366, 1, 1, 500, 256
-0.515776, 1, 1, 500, 375
-0.563117, 225, 1, 480, 375
-0.64323, 257, 97, 500, 352
-0.678426, 257, 1, 500, 256
-0.681512, 129, 1, 384, 375
-0.70251, 161, 97, 416, 352
-0.719915, 1, 1, 256, 375
-0.761758, 1, 65, 256, 320
-0.808997, 161, 1, 416, 256
-0.881885, 193, 97, 320, 352
-0.883212, 289, 97, 416, 352
-0.888916, 289, 1, 416, 256
-0.89012, 321, 1, 448, 375
-0.890389, 241, 97, 368, 352
-0.890799, 337, 65, 464, 320
-0.897452, 273, 1, 400, 375
-0.898756, 1, 145, 500, 272
-0.903794, 1, 81, 500, 208
-0.906604, 145, 97, 272, 352
-0.908022, 225, 1, 352, 375
-0.91096, 257, 81, 500, 208
-0.91518, 241, 1, 368, 256
-0.916313, 369, 1, 496, 375
-0.918934, 97, 65, 224, 320
-0.921042, 17, 97, 144, 352
-0.924993, 1, 193, 500, 320
-0.927222, 145, 1, 272, 375
-0.929717, 97, 1, 224, 375
-0.930352, 1, 33, 500, 160
-0.933517, 193, 1, 320, 256
-0.935012, 161, 81, 416, 208
-0.939756, 33, 1, 160, 375
-0.940559, 257, 129, 500, 256
-0.941349, 161, 193, 416, 320
-0.944322, 161, 129, 416, 256
-0.945722, 1, 241, 500, 368
-0.946342, 257, 177, 500, 304
-0.94746, 257, 33, 500, 160
-0.947638, 1, 81, 256, 208
-0.950298, 289, 65, 416, 192
-0.950606, 1, 1, 128, 256
-0.951952, 249, 113, 312, 240
-0.953341, 257, 241, 500, 368
-0.954161, 145, 1, 272, 256
-0.954959, 353, 81, 480, 208
-0.955414, 209, 113, 336, 240
-0.95553, 1, 129, 256, 256
-0.956309, 217, 113, 280, 240
-0.957614, 313, 81, 376, 144
-0.957938, 129, 33, 384, 160
-0.958455, 305, 65, 368, 192
-0.958843, 401, 113, 464, 240
-0.959239, 225, 241, 288, 368
-0.960531, 377, 65, 440, 192
-0.960929, 353, 145, 480, 272
-0.961844, 145, 97, 272, 224
-0.961959, 225, 161, 288, 288
-0.962115, 273, 209, 336, 336
-0.962265, 313, 225, 376, 352
-0.962386, 273, 97, 336, 224
-0.963744, 97, 65, 224, 192
-0.963901, 225, 225, 352, 352
-0.965121, 401, 177, 464, 240
-0.96535, 377, 81, 440, 144
-0.965554, 249, 161, 312, 288
-0.965989, 145, 145, 272, 272
-0.96599, 385, 161, 448, 288
-0.9662, 369, 193, 496, 320
-0.966226, 305, 225, 432, 352
-0.96624, 233, 145, 296, 208
-0.966489, 209, 177, 336, 304
-0.966969, 353, 73, 416, 136
-0.967231, 337, 193, 400, 320
-0.967557, 217, 121, 280, 184
-0.967748, 33, 97, 160, 224
-0.968027, 193, 209, 256, 336
-0.968049, 1, 177, 256, 304
-0.968101, 305, 177, 368, 304
-0.968168, 289, 17, 416, 144
-0.968515, 257, 225, 320, 288
-0.968806, 249, 209, 312, 336
-0.968906, 345, 65, 408, 192
-0.968996, 209, 49, 336, 176
-0.969214, 297, 241, 360, 304
-0.96928, 273, 177, 400, 304
-0.969296, 161, 241, 416, 368
-0.969393, 265, 33, 328, 160
-0.969721, 289, 97, 352, 160
-0.970327, 321, 105, 384, 168
-0.970503, 225, 169, 288, 232
-0.970613, 417, 177, 480, 304
-0.970664, 401, 121, 464, 184
-0.970928, 49, 1, 176, 256
-0.97098, 257, 121, 320, 184
-0.971099, 345, 97, 408, 160
-0.971351, 17, 145, 144, 272
-0.971767, 249, 177, 312, 240
-0.972193, 313, 17, 376, 144
-0.972515, 401, 65, 464, 192
-0.972686, 161, 193, 288, 320
-0.972738, 377, 113, 440, 176
-0.972821, 321, 57, 384, 120
-0.972844, 369, 169, 432, 232
-0.97332, 193, 97, 256, 224
-0.973368, 25, 129, 88, 256
-0.97343, 1, 225, 256, 352
-0.973805, 337, 233, 400, 296
-0.973868, 273, 161, 336, 288
-0.974323, 321, 81, 448, 144
-0.974343, 273, 265, 336, 328
-0.974445, 337, 17, 464, 144
-0.9748, 273, 113, 400, 240
-0.974847, 289, 17, 352, 144
-0.975061, 361, 233, 424, 296
-0.975241, 33, 33, 288, 160
-0.97541, 425, 129, 488, 256
-0.975608, 265, 289, 328, 352
-0.975715, 329, 169, 392, 232
-0.975876, 337, 129, 400, 192
-0.975953, 345, 17, 408, 144
-0.976405, 393, 153, 456, 216
-0.976463, 297, 217, 360, 280
-0.976705, 249, 249, 312, 312
-0.977244, 281, 65, 344, 320
-0.977308, 225, 193, 288, 256
-0.977495, 345, 241, 408, 368
-0.977511, 361, 177, 424, 304
-0.977556, 385, 233, 448, 296
-0.977616, 1, 145, 64, 272
-0.977651, 329, 33, 392, 96
-0.977817, 161, 81, 224, 208
-0.977924, 345, 129, 408, 256
-0.977985, 193, 281, 256, 344
-0.978013, 169, 225, 232, 352
-0.978043, 65, 97, 128, 224
-0.978207, 209, 217, 272, 280
-0.978217, 345, 81, 376, 144
-0.978229, 201, 145, 264, 208
-0.978279, 393, 209, 456, 336
-0.978282, 289, 33, 352, 96
-0.978321, 377, 113, 440, 240
-0.978356, 377, 17, 440, 144
-0.978361, 369, 145, 432, 208
-0.978618, 329, 209, 392, 272
-0.978824, 229, 161, 260, 224
-0.978928, 225, 257, 288, 320
-0.97911, 1, 153, 64, 216
-0.979117, 105, 81, 168, 144
-0.979289, 377, 209, 440, 272
-0.979311, 297, 185, 360, 248
-0.979326, 337, 1, 400, 256
-0.979339, 317, 81, 348, 144
-0.979383, 177, 241, 304, 368
-0.979466, 97, 81, 160, 208
-0.979492, 193, 201, 320, 264
-0.979538, 345, 257, 408, 320
-0.979622, 241, 145, 272, 208
-0.979688, 137, 145, 200, 272
-0.979753, 377, 57, 440, 120
-0.979773, 241, 97, 304, 352
-0.979914, 353, 193, 416, 256
-0.979968, 369, 241, 432, 368
-0.980026, 369, 257, 432, 320
-0.980096, 185, 113, 248, 176
-0.980096, 9, 129, 72, 192
-0.980149, 417, 145, 480, 208
-0.980196, 145, 73, 208, 136
-0.980234, 273, 57, 336, 120
-0.980285, 273, 201, 336, 264
-0.980297, 201, 161, 264, 288
-0.98044, 241, 113, 272, 240
-0.980485, 233, 225, 296, 288
-0.980517, 201, 169, 264, 232
-0.980528, 177, 145, 240, 272
-0.980601, 97, 177, 224, 304
-0.980691, 209, 113, 336, 176
-0.980727, 241, 297, 304, 360
-0.980771, 225, 177, 352, 240
-0.98081, 389, 233, 420, 296
-0.980936, 393, 65, 456, 320
-0.981206, 209, 129, 272, 375
-0.981256, 25, 153, 88, 216
-0.981321, 137, 65, 200, 192
-0.981339, 273, 161, 336, 224
-0.981343, 353, 185, 480, 248
-0.981354, 353, 49, 416, 112
-0.981387, 257, 113, 288, 240
-0.981389, 217, 97, 280, 160
-0.981531, 369, 73, 400, 136
-0.981779, 249, 121, 280, 184
-0.981804, 237, 121, 268, 184
-0.981813, 353, 241, 480, 368
-0.981839, 417, 17, 480, 144
-0.98191, 353, 129, 480, 192
-0.981921, 313, 1, 376, 256
-0.981978, 261, 129, 292, 192
-0.98199, 241, 65, 304, 192
-0.982212, 425, 201, 488, 264
-0.982242, 313, 129, 376, 192
-0.982283, 253, 241, 284, 368
-0.982297, 321, 57, 448, 120
-0.982327, 177, 153, 304, 216
-0.98234, 317, 65, 348, 192
-0.982343, 245, 177, 276, 304
-0.982394, 369, 97, 432, 352
-0.982397, 241, 177, 272, 240
-0.982571, 329, 73, 360, 136
-0.982595, 389, 161, 420, 288
-0.982599, 405, 81, 436, 208
-0.982684, 393, 33, 456, 96
-0.982722, 225, 145, 352, 208
-0.982725, 393, 65, 424, 192
-0.982783, 145, 209, 208, 336
-0.982784, 217, 297, 280, 360
-0.982785, 1, 193, 128, 320
-0.98282, 113, 225, 240, 352
-0.982856, 365, 65, 396, 192
-0.982865, 217, 65, 280, 192
-0.98294, 361, 1, 424, 256
-0.982945, 289, 209, 416, 272
-0.982951, 145, 129, 272, 192
-0.982975, 377, 233, 408, 296
-0.983006, 201, 257, 264, 320
-0.983029, 405, 81, 436, 144
-0.983035, 97, 81, 224, 144
-0.983048, 265, 225, 296, 288
-0.98305, 425, 113, 456, 240
-0.983161, 297, 113, 360, 240
-0.983266, 241, 97, 304, 160
-0.983284, 337, 105, 368, 168
-0.983534, 257, 113, 384, 176
-0.983576, 433, 129, 464, 192
-0.983585, 97, 129, 224, 256
-0.983655, 177, 225, 240, 288
-0.98375, 249, 201, 312, 264
-0.983769, 329, 97, 392, 352
-0.983834, 177, 145, 240, 208
-0.983883, 341, 225, 372, 288
-0.983902, 241, 225, 368, 288
-0.983924, 397, 145, 428, 208
-0.983943, 289, 33, 416, 96
-0.983947, 229, 193, 260, 256
-0.984036, 293, 241, 324, 304
-0.984048, 321, 257, 384, 320
-0.98408, 273, 89, 400, 152
-0.984099, 237, 241, 268, 368
-0.984112, 145, 201, 208, 264
-0.984142, 225, 113, 256, 240
-0.984177, 177, 89, 240, 152
-0.984251, 105, 177, 168, 304
-0.984251, 393, 81, 424, 144
-0.984276, 409, 97, 472, 160
-0.984377, 353, 161, 480, 224
-0.984387, 289, 177, 416, 240
-0.98439, 389, 177, 420, 240
-0.984512, 57, 113, 120, 176
-0.984537, 349, 57, 380, 120
-0.984556, 377, 113, 408, 240
-0.984605, 233, 177, 264, 304
-0.984695, 353, 105, 480, 168
-0.984757, 145, 105, 272, 168
-0.984775, 193, 257, 320, 320
-0.984777, 185, 193, 248, 256
-0.984787, 401, 201, 464, 264
-0.984848, 185, 97, 248, 352
-0.984898, 33, 177, 96, 240
-0.984948, 9, 153, 40, 216
-0.985068, 409, 57, 472, 120
-0.985103, 161, 177, 288, 240
-0.98516, 289, 249, 416, 312
-0.985188, 193, 289, 320, 352
-0.985242, 225, 129, 256, 192
-0.985273, 245, 201, 276, 264
-0.985341, 337, 65, 368, 192
-0.98537, 305, 97, 368, 352
-0.985437, 321, 177, 352, 304
-0.98547, 285, 201, 316, 264
-0.985499, 297, 97, 328, 224
-0.985526, 241, 201, 368, 264
-0.985531, 381, 65, 412, 192
-0.985533, 317, 225, 348, 352
-0.985567, 333, 177, 364, 240
-0.985671, 9, 177, 72, 240
-0.98568, 289, 137, 352, 200
-0.985689, 281, 257, 312, 320
-0.985702, 393, 209, 424, 272
-0.985785, 353, 225, 480, 288
-0.985787, 217, 241, 248, 368
-0.98583, 325, 137, 356, 200
-0.98584, 161, 113, 224, 176
-0.985912, 1, 97, 64, 224
-0.985943, 373, 177, 404, 304
-0.986, 317, 201, 348, 264
-0.986, 277, 225, 308, 288
-0.986019, 297, 161, 360, 224
-0.986027, 365, 233, 396, 296
-0.986054, 269, 113, 300, 240
-0.986101, 417, 97, 480, 352
-0.986121, 257, 193, 288, 320
-0.986147, 377, 137, 408, 200
-0.986153, 301, 225, 332, 352
-0.986193, 81, 193, 144, 256
-0.986271, 73, 177, 136, 304
-0.986289, 1, 121, 128, 184
-0.986297, 417, 121, 448, 184
-0.986383, 289, 153, 416, 216
-0.986457, 177, 305, 240, 368
-0.986597, 381, 57, 412, 120
-0.986599, 377, 169, 408, 232
-0.986614, 49, 161, 112, 288
-0.986709, 393, 57, 424, 120
-0.986737, 49, 209, 176, 336
-0.986772, 97, 105, 160, 168
-0.986821, 289, 289, 352, 352
-0.986876, 369, 33, 496, 96
-0.986898, 257, 273, 288, 336
-0.986924, 253, 177, 284, 240
-0.986965, 333, 177, 364, 304
-0.987013, 281, 313, 344, 375
-0.987043, 145, 145, 208, 208
-0.987097, 193, 225, 320, 288
-0.987229, 153, 233, 216, 296
-0.987245, 341, 129, 372, 192
-0.98726, 381, 225, 412, 352
-0.987286, 257, 1, 320, 256
-0.987298, 353, 177, 384, 304
-0.987335, 285, 97, 316, 224
-0.987363, 361, 1, 424, 375
-0.987411, 369, 201, 400, 264
-0.987417, 305, 241, 336, 304
-0.987418, 1, 161, 128, 224
-0.987456, 433, 33, 496, 96
-0.987518, 417, 1, 480, 256
-0.987525, 365, 97, 396, 160
-0.987532, 121, 209, 184, 272
-0.98754, 265, 97, 328, 160
-0.987554, 329, 49, 360, 112
-0.98766, 337, 249, 464, 312
-0.987664, 321, 225, 352, 288
-0.987731, 321, 129, 384, 256
-0.987742, 221, 193, 252, 320
-0.987822, 257, 201, 288, 264
-0.987833, 129, 153, 256, 216
-0.987838, 273, 225, 304, 352
-0.987848, 1, 129, 32, 256
-0.987865, 297, 57, 360, 120
-0.987939, 397, 121, 428, 184
-0.987948, 145, 49, 272, 176
-0.987955, 25, 177, 88, 304
-0.987977, 193, 89, 320, 152
-0.987989, 425, 169, 488, 232
-0.988063, 349, 65, 380, 192
-0.988063, 401, 129, 432, 256
-0.988107, 129, 177, 192, 240
-0.988114, 357, 201, 388, 264
-0.988159, 361, 33, 392, 96
-0.988167, 281, 1, 344, 375
-0.988236, 145, 201, 272, 264
-0.988264, 293, 113, 324, 176
-0.988283, 301, 33, 332, 160
-0.988341, 317, 57, 348, 120
-0.988387, 341, 33, 372, 96
-0.988457, 297, 265, 360, 328
-0.988471, 257, 57, 384, 120
-0.98851, 245, 297, 276, 360
-0.988547, 381, 105, 412, 168
-0.988563, 349, 105, 380, 168
-0.988597, 305, 97, 336, 160
-0.98861, 241, 265, 368, 328
-0.988636, 265, 177, 296, 240
-0.988704, 273, 113, 304, 176
-0.988767, 369, 57, 496, 120
-0.988806, 337, 1, 400, 375
-0.988847, 201, 225, 232, 352
-0.988858, 201, 265, 232, 328
-0.988872, 1, 49, 128, 176
-0.988939, 317, 17, 348, 144
-0.988949, 377, 33, 408, 96
-0.989004, 241, 289, 368, 352
-0.989051, 405, 57, 436, 120
-0.989061, 245, 225, 276, 288
-0.989154, 369, 25, 432, 88
-0.989161, 389, 113, 420, 240
-0.989181, 349, 153, 380, 216
-0.989229, 33, 201, 160, 264
-0.989243, 217, 281, 248, 344
-0.989328, 81, 169, 144, 232
-0.989412, 97, 129, 224, 192
-0.989507, 369, 81, 496, 144
-0.989551, 385, 1, 448, 375
-0.98956, 33, 121, 96, 184
-0.989614, 293, 265, 324, 328
-0.989623, 353, 241, 384, 304
-0.989656, 33, 201, 96, 264
-0.989681, 73, 89, 136, 152
-0.989742, 209, 1, 336, 128
-0.989771, 105, 65, 168, 320
-0.989782, 177, 169, 240, 232
-0.989808, 305, 1, 368, 375
-0.989815, 253, 249, 284, 312
-0.989817, 161, 281, 224, 344
-0.989877, 401, 17, 432, 144
-0.989887, 269, 249, 300, 312
-0.989896, 269, 161, 300, 288
-0.989906, 105, 161, 168, 224
-0.98995, 101, 81, 132, 208
-0.989956, 213, 137, 244, 200
-0.989964, 297, 217, 328, 280
-0.990008, 113, 81, 144, 144
-0.990033, 113, 177, 240, 240
-0.990047, 257, 153, 288, 216
-0.990047, 97, 201, 224, 264
-0.990049, 409, 169, 440, 232
-0.990095, 57, 201, 120, 264
-0.990105, 305, 129, 432, 192
-0.990116, 329, 201, 360, 264
-0.990125, 13, 129, 44, 256
-0.99014, 353, 113, 384, 240
-0.990166, 305, 225, 368, 256
-0.990168, 353, 17, 384, 144
-0.99026, 113, 233, 240, 296
-0.9903, 325, 105, 356, 168
-0.990315, 309, 33, 340, 96
-0.990377, 185, 81, 216, 144
-0.990383, 409, 129, 472, 160
-0.990392, 129, 233, 192, 296
-0.990401, 449, 129, 480, 256
-0.990417, 177, 257, 240, 320
-0.990419, 81, 97, 144, 352
-0.990428, 313, 77, 376, 108
-0.99043, 377, 89, 440, 120
-0.99046, 409, 225, 472, 288
-0.990492, 401, 173, 464, 204
-0.99052, 49, 121, 176, 184
-0.990526, 297, 249, 360, 280
-0.990534, 429, 177, 460, 240
-0.990556, 185, 49, 248, 176
-0.990556, 377, 169, 440, 200
-0.990557, 217, 161, 248, 224
-0.990571, 57, 153, 120, 216
-0.99058, 273, 229, 336, 260
-0.990596, 281, 9, 344, 72
-0.990596, 97, 129, 160, 256
-0.990619, 161, 65, 224, 320
-0.990629, 241, 249, 272, 312
-0.990632, 329, 17, 360, 144
-0.990705, 393, 209, 424, 336
-0.99071, 13, 129, 44, 192
-0.990715, 1, 129, 64, 375
-0.990736, 361, 181, 424, 212
-0.990739, 313, 89, 376, 120
-0.990754, 321, 129, 384, 160
-0.990792, 373, 17, 404, 144
-0.990801, 405, 201, 436, 264
-0.990807, 213, 113, 244, 240
-0.990812, 305, 149, 368, 180
-0.990815, 321, 237, 384, 268
-0.990822, 321, 161, 384, 192
-0.990828, 345, 129, 408, 160
-0.990844, 377, 113, 440, 144
-0.99085, 305, 105, 368, 136
-0.990911, 241, 273, 304, 304
-0.990934, 401, 157, 464, 188
-0.990939, 205, 297, 236, 360
-0.990991, 265, 161, 328, 192
-0.990991, 265, 217, 328, 248
-0.990997, 377, 149, 440, 180
-0.990997, 425, 33, 456, 160
-0.991007, 293, 145, 324, 272
-0.991008, 225, 153, 288, 184
-0.991008, 345, 81, 408, 112
-0.991038, 353, 149, 416, 180
-0.991063, 345, 109, 408, 140
-0.991075, 401, 201, 464, 232
-0.991085, 329, 225, 360, 352
-0.99109, 353, 245, 416, 276
-0.9911, 289, 49, 320, 176
-0.991127, 241, 221, 304, 252
-0.99113, 305, 213, 368, 244
-0.991133, 385, 125, 448, 156
-0.991152, 257, 257, 320, 288
-0.991152, 137, 97, 200, 160
-0.991161, 345, 221, 408, 252
-0.991173, 353, 169, 416, 200
-0.991177, 281, 117, 344, 148
-0.991179, 201, 257, 264, 288
-0.991186, 217, 269, 280, 300
-0.991203, 233, 125, 296, 156
-0.991257, 361, 209, 424, 240
-0.991268, 313, 113, 344, 240
-0.991281, 225, 257, 288, 288
-0.991291, 217, 181, 280, 212
-0.991298, 33, 225, 96, 288
-0.991299, 393, 33, 424, 96
-0.991301, 201, 301, 264, 332
-0.991305, 305, 265, 336, 328
-0.991313, 337, 185, 400, 216
-0.991317, 277, 297, 308, 360
-0.991324, 209, 137, 272, 168
-0.991333, 185, 145, 248, 176
-0.991333, 217, 205, 280, 236
-0.991339, 25, 97, 88, 352
-0.991342, 189, 81, 220, 208
-0.991343, 265, 273, 328, 304
-0.991368, 225, 165, 288, 196
-0.991369, 249, 185, 312, 216
-0.991395, 249, 321, 312, 352
-0.991399, 177, 313, 304, 375
-0.991408, 321, 249, 384, 280
-0.991426, 401, 185, 464, 216
-0.991442, 361, 177, 392, 240
-0.991446, 437, 113, 468, 240
-0.991458, 297, 237, 360, 268
-0.991459, 201, 289, 264, 320
-0.991462, 225, 193, 288, 224
-0.991493, 285, 225, 316, 352
-0.991499, 409, 141, 472, 172
-0.991506, 257, 1, 320, 375
-0.991527, 241, 237, 304, 268
-0.991572, 353, 197, 416, 228
-0.991583, 385, 213, 448, 244
-0.991591, 225, 81, 480, 144
-0.991606, 153, 177, 216, 240
-0.991619, 185, 161, 248, 192
-0.991629, 281, 261, 344, 292
-0.99165, 257, 121, 320, 152
-0.991681, 281, 145, 344, 176
-0.9917, 121, 65, 152, 192
-0.991719, 321, 117, 384, 148
-0.991726, 297, 57, 328, 120
-0.991729, 369, 257, 432, 288
-0.991729, 365, 137, 396, 200
-0.991749, 297, 161, 360, 192
-0.991751, 345, 233, 408, 264
-0.991757, 329, 141, 392, 172
-0.991802, 145, 149, 208, 180
-0.991819, 241, 209, 304, 240
-0.99184, 377, 193, 440, 224
-0.991842, 281, 133, 344, 164
-0.991848, 385, 17, 416, 144
-0.991855, 341, 225, 372, 352
-0.991855, 233, 305, 296, 336
-0.991869, 185, 173, 248, 204
-0.991877, 17, 177, 48, 240
-0.991877, 273, 293, 336, 324
-0.991893, 433, 205, 496, 236
-0.991909, 369, 101, 432, 132
-0.991925, 377, 257, 408, 320
-0.991943, 409, 1, 472, 375
-0.991964, 185, 1, 248, 375
-0.991988, 369, 225, 432, 256
-0.991989, 217, 321, 280, 352
-0.991998, 17, 161, 80, 192
-0.992008, 281, 41, 344, 72
-0.99201, 201, 225, 264, 256
-0.992017, 145, 273, 272, 336
-0.992024, 281, 177, 312, 240
-0.992028, 281, 173, 344, 204
-0.992028, 185, 237, 248, 268
-0.992069, 385, 137, 448, 168
-0.992085, 185, 277, 248, 308
-0.99209, 385, 241, 448, 272
-0.992102, 325, 129, 356, 256
-0.992103, 233, 293, 296, 324
-0.992112, 329, 209, 392, 240
-0.992123, 49, 81, 176, 144
-0.992136, 33, 169, 64, 232
-0.992137, 321, 261, 384, 292
-0.992154, 113, 81, 176, 112
-0.992163, 129, 121, 192, 184
-0.992164, 249, 197, 312, 228
-0.992175, 209, 117, 272, 148
-0.992194, 1, 137, 64, 168
-0.992196, 405, 33, 436, 96
-0.9922, 137, 229, 200, 260
-0.992207, 257, 309, 320, 340
-0.992208, 345, 177, 376, 240
-0.992209, 281, 193, 344, 224
-0.992209, 49, 177, 176, 240
-0.992223, 337, 97, 400, 128
-0.992238, 177, 133, 240, 164
-0.992239, 273, 205, 336, 236
-0.992241, 341, 17, 372, 144
-0.992258, 209, 105, 240, 168
-0.992266, 281, 105, 344, 136
-0.992272, 305, 197, 368, 228
-0.992273, 25, 181, 88, 212
-0.992277, 145, 81, 272, 144
-0.992282, 369, 77, 432, 108
-0.992288, 217, 241, 280, 272
-0.992296, 345, 257, 408, 288
-0.992297, 257, 105, 500, 168
-0.992306, 257, 173, 320, 204
-0.992312, 137, 77, 200, 108
-0.992317, 193, 213, 256, 244
-0.992323, 209, 33, 272, 288
-0.992332, 153, 137, 216, 168
-0.992337, 1, 201, 64, 264
-0.992338, 49, 209, 112, 336
-0.99234, 329, 197, 392, 228
-0.992356, 185, 113, 248, 144
-0.992364, 425, 121, 488, 184
-0.992378, 33, 233, 160, 296
-0.992387, 193, 313, 256, 344
-0.992413, 201, 193, 264, 224
-0.992414, 177, 301, 240, 332
-0.992414, 249, 149, 312, 180
-0.992417, 9, 149, 72, 180
-0.992442, 261, 297, 292, 360
-0.992455, 201, 81, 232, 208
-0.992456, 1, 173, 64, 204
-0.992461, 281, 313, 344, 344
-0.99247, 121, 161, 152, 288
-0.992471, 225, 313, 352, 375
-0.992479, 281, 325, 344, 356
-0.992487, 409, 109, 472, 140
-0.992504, 145, 161, 208, 192
-0.992515, 289, 281, 352, 312
-0.992523, 105, 93, 168, 124
-0.992533, 321, 177, 352, 240
-0.992551, 137, 217, 200, 248
-0.992556, 177, 189, 240, 220
-0.992557, 65, 153, 192, 216
-0.992559, 1, 185, 64, 216
-0.992562, 161, 225, 224, 256
-0.992573, 345, 269, 408, 300
-0.99258, 17, 125, 80, 156
-0.992598, 269, 273, 300, 336
-0.992612, 293, 177, 324, 240
-0.992635, 373, 169, 404, 200
-0.992652, 57, 177, 120, 240
-0.992656, 129, 65, 192, 320
-0.992667, 333, 257, 364, 320
-0.992679, 241, 33, 368, 96
-0.992682, 433, 161, 464, 288
-0.992749, 381, 209, 412, 272
-0.992783, 265, 217, 296, 248
-0.992787, 385, 209, 416, 240
-0.992792, 405, 85, 436, 116
-0.992798, 97, 217, 160, 280
-0.992804, 333, 233, 364, 264
-0.992816, 337, 129, 368, 256
-0.992833, 249, 217, 280, 248
-0.992835, 149, 129, 180, 256
-0.992838, 237, 185, 268, 216
-0.992845, 317, 217, 348, 248
-0.992845, 289, 273, 416, 336
-0.992846, 333, 217, 364, 248
-0.992847, 233, 217, 264, 280
-0.992849, 289, 297, 320, 360
-0.992851, 325, 77, 356, 108
-0.99286, 397, 197, 428, 228
-0.992863, 217, 209, 248, 272
-0.992867, 349, 233, 380, 264
-0.992876, 397, 133, 428, 164
-0.99288, 309, 229, 340, 260
-0.992882, 165, 65, 196, 192
-0.992883, 321, 229, 352, 260
-0.992894, 373, 121, 404, 152
-0.992895, 97, 17, 224, 144
-0.9929, 273, 273, 304, 304
-0.992912, 393, 113, 424, 144
-0.992928, 277, 145, 308, 208
-0.992934, 345, 77, 376, 108
-0.992936, 253, 265, 284, 296
-0.992944, 33, 113, 64, 240
-0.992948, 321, 249, 352, 280
-0.99295, 257, 125, 288, 156
-0.992951, 205, 309, 236, 340
-0.992954, 417, 89, 448, 152
-0.992955, 393, 81, 424, 112
-0.992967, 365, 81, 396, 112
-0.99297, 97, 137, 160, 200
-0.992971, 309, 177, 340, 304
-0.992972, 413, 117, 444, 148
-0.992975, 365, 153, 396, 184
-0.992977, 397, 213, 428, 244
-0.992984, 221, 137, 252, 168
-0.992986, 345, 117, 376, 148
-0.992988, 121, 57, 184, 120
-0.99299, 253, 97, 284, 160
-0.992992, 385, 185, 416, 216
-0.992993, 333, 129, 364, 160
-0.992998, 417, 161, 448, 288
-0.993003, 217, 305, 248, 336
-0.993005, 5, 169, 36, 200
-0.993013, 217, 289, 248, 320
-0.99302, 293, 217, 324, 248
-0.993021, 249, 205, 280, 236
-0.993022, 341, 149, 372, 180
-0.993026, 389, 153, 420, 184
-0.993029, 237, 173, 268, 204
-0.993031, 381, 81, 412, 112
-0.993035, 361, 109, 392, 140
-0.993043, 373, 185, 404, 216
-0.993043, 1, 129, 32, 192
-0.993048, 341, 245, 372, 276
-0.993052, 357, 181, 388, 212
-0.993056, 349, 161, 380, 192
-0.993057, 289, 261, 320, 292
-0.993057, 437, 133, 468, 164
-0.99306, 361, 245, 392, 276
-0.99306, 25, 129, 56, 192
-0.993063, 5, 181, 36, 212
-0.993065, 161, 113, 416, 176
-0.993065, 381, 197, 412, 228
-0.99307, 261, 313, 292, 344
-0.993072, 237, 297, 268, 328
-0.993075, 237, 129, 268, 160
-0.99308, 369, 229, 400, 260
-0.993082, 261, 205, 292, 236
-0.993087, 345, 97, 376, 128
-0.993088, 317, 205, 348, 236
-0.99309, 409, 105, 440, 136
-0.993098, 313, 105, 344, 136
-0.993099, 113, 33, 176, 160
-0.9931, 297, 229, 328, 260
-0.993101, 229, 197, 260, 228
-0.993102, 237, 153, 268, 184
-0.993106, 249, 229, 280, 260
-0.993109, 409, 149, 440, 180
-0.993111, 269, 229, 300, 260
-0.993113, 393, 225, 424, 256
-0.993113, 17, 181, 48, 212
-0.993118, 317, 117, 348, 148
-0.993122, 277, 325, 308, 356
-0.993129, 393, 241, 424, 272
-0.993129, 281, 189, 312, 220
-0.993132, 225, 165, 256, 196
-0.993134, 225, 149, 256, 180
-0.993139, 301, 253, 332, 284
-0.993142, 357, 209, 388, 240
-0.993144, 57, 233, 120, 296
-0.993146, 297, 117, 328, 148
-0.993149, 241, 317, 272, 348
-0.99315, 317, 93, 348, 124
-0.993155, 317, 149, 348, 180
-0.993156, 229, 285, 260, 316
-0.993158, 365, 97, 396, 128
-0.993163, 229, 309, 260, 340
-0.993164, 337, 161, 368, 192
-0.993168, 385, 165, 416, 196
-0.993178, 273, 121, 304, 152
-0.993178, 233, 217, 264, 248
-0.993179, 297, 33, 328, 96
-0.993179, 225, 177, 256, 208
-0.993182, 333, 205, 364, 236
-0.993183, 293, 181, 324, 212
-0.993184, 265, 189, 296, 220
-0.993185, 13, 137, 44, 168
-0.993185, 197, 289, 228, 320
-0.993187, 393, 257, 456, 320
-0.993187, 329, 141, 360, 172
-0.993189, 85, 201, 116, 264
-0.993191, 237, 253, 268, 284
-0.993191, 377, 133, 408, 164
-0.993197, 285, 233, 316, 264
-0.993199, 301, 281, 332, 312
-0.993202, 345, 221, 376, 252
-0.993203, 261, 325, 292, 356
-0.993205, 417, 129, 448, 160
-0.993206, 349, 129, 380, 160
-0.993207, 297, 193, 328, 224
-0.993209, 257, 153, 288, 184
-0.993211, 381, 233, 412, 264
-0.993212, 273, 205, 304, 236
-0.993215, 173, 73, 204, 136
-0.993217, 217, 277, 248, 308
-0.993219, 265, 253, 296, 284
-0.993219, 253, 253, 284, 284
-0.993224, 353, 149, 384, 180
-0.993224, 109, 177, 140, 304
-0.993226, 109, 201, 140, 232
-0.993229, 261, 169, 292, 200
-0.993229, 249, 293, 280, 324
-0.993232, 385, 253, 416, 284
-0.993232, 105, 129, 136, 256
-0.993244, 229, 321, 260, 352
-0.993256, 289, 273, 320, 304
-0.993258, 365, 141, 396, 172
-0.993258, 405, 233, 436, 264
-0.993262, 285, 121, 316, 152
-0.993263, 217, 257, 248, 288
-0.993264, 321, 129, 352, 160
-0.993267, 401, 185, 432, 216
-0.993267, 433, 145, 464, 176
-0.993272, 377, 145, 408, 176
-0.99328, 357, 257, 388, 288
-0.993284, 385, 265, 416, 296
-0.993285, 217, 317, 248, 348
-0.993286, 401, 169, 432, 200
-0.993291, 301, 205, 332, 236
-0.993292, 313, 81, 344, 112
-0.993297, 149, 65, 180, 192
-0.993315, 129, 73, 160, 136
-0.993371, 413, 17, 444, 144
-0.993383, 429, 153, 460, 216
-0.993416, 257, 17, 320, 80
-0.993423, 365, 113, 396, 240
-0.9935, 213, 257, 244, 320
-0.993511, 85, 177, 116, 304
-0.993516, 89, 97, 120, 224
-0.993534, 69, 97, 100, 224
-0.993544, 105, 225, 168, 352
-0.993548, 153, 257, 216, 320
-0.993558, 369, 241, 400, 368
-0.993564, 233, 297, 264, 360
-0.993669, 105, 177, 136, 240
-0.99373, 305, 81, 432, 112
-0.993735, 137, 177, 168, 304
-0.993743, 405, 177, 436, 304
-0.99376, 321, 249, 352, 312
-0.993779, 449, 169, 480, 232
-0.993779, 201, 225, 232, 288
-0.993792, 449, 137, 480, 200
-0.993831, 273, 313, 400, 375
-0.993831, 417, 225, 480, 352
-0.993852, 241, 97, 272, 160
-0.993854, 97, 97, 128, 160
-0.993855, 217, 1, 280, 375
-0.993878, 41, 81, 104, 208
-0.993901, 121, 177, 152, 240
-0.993901, 417, 193, 448, 256
-0.993935, 177, 209, 208, 272
-0.993947, 257, 177, 500, 240
-0.993972, 65, 89, 320, 152
-0.993981, 57, 97, 120, 352
-0.994, 209, 65, 336, 128
-0.994003, 381, 81, 412, 144
-0.994047, 1, 113, 500, 176
-0.994068, 357, 225, 388, 352
-0.994123, 133, 65, 164, 192
-0.994128, 1, 193, 64, 320
-0.994159, 49, 49, 176, 176
-0.994167, 289, 9, 416, 72
-0.994247, 245, 65, 276, 192
-0.994251, 313, 289, 376, 352
-0.994271, 1, 169, 500, 232
-0.994313, 269, 65, 300, 192
-0.994336, 433, 1, 496, 375
-0.99441, 281, 177, 312, 304
-0.994457, 161, 57, 416, 120
-0.994505, 225, 265, 480, 328
-0.994512, 105, 185, 168, 248
-0.994571, 1, 81, 500, 144
-0.9946, 97, 57, 224, 120
-0.994621, 365, 105, 380, 168
-0.994682, 161, 193, 416, 256
-0.994717, 97, 105, 224, 168
-0.994741, 17, 57, 144, 120
-0.994761, 225, 225, 480, 288
-0.994794, 113, 297, 240, 360
-0.994826, 1, 145, 256, 208
-0.994854, 289, 109, 416, 140
-0.994863, 237, 153, 252, 216
-0.994868, 1, 193, 500, 256
-0.994903, 105, 1, 168, 375
-0.994905, 33, 113, 288, 176
-0.994923, 169, 65, 232, 128
-0.994931, 209, 161, 240, 288
-0.994979, 17, 177, 48, 304
-0.994983, 257, 137, 500, 200
-0.99501, 353, 129, 480, 160
-0.995041, 347, 73, 362, 136
-0.995066, 355, 73, 370, 136
-0.995082, 305, 313, 368, 375
-0.995116, 393, 233, 408, 296
-0.995121, 161, 1, 224, 375
-0.995134, 161, 137, 416, 200
-0.995154, 425, 65, 488, 192
-0.99516, 257, 201, 500, 264
-0.99518, 137, 1, 200, 375
-0.995215, 397, 201, 412, 264
-0.995299, 333, 201, 348, 264
-0.995323, 361, 73, 376, 136
-0.995376, 153, 17, 216, 144
-0.995404, 49, 129, 80, 256
-0.995407, 247, 153, 262, 216
-0.995414, 1, 169, 256, 232
-0.995455, 241, 129, 256, 192
-0.995467, 249, 121, 264, 184
-0.995476, 121, 113, 152, 240
-0.995479, 337, 113, 464, 144
-0.995486, 1, 97, 128, 160
-0.995495, 289, 229, 416, 260
-0.995505, 9, 105, 72, 168
-0.995513, 225, 229, 352, 260
-0.995543, 321, 93, 448, 124
-0.995564, 153, 177, 184, 304
-0.99557, 209, 121, 336, 152
-0.995581, 263, 121, 278, 184
-0.995581, 445, 177, 476, 304
-0.995623, 417, 81, 432, 144
-0.995678, 1, 193, 256, 256
-0.99568, 409, 225, 440, 352
-0.995694, 161, 169, 416, 232
-0.9957, 395, 161, 410, 224
-0.995705, 353, 197, 480, 228
-0.995729, 257, 33, 500, 96
-0.995732, 315, 89, 330, 152
-0.995733, 321, 81, 336, 144
-0.995735, 339, 169, 354, 232
-0.995753, 105, 241, 168, 304
-0.995762, 233, 65, 264, 192
-0.995774, 73, 177, 104, 304
-0.995784, 209, 9, 336, 72
-0.995849, 339, 105, 354, 168
-0.99585, 359, 121, 374, 184
-0.995884, 267, 209, 282, 272
-0.995911, 369, 9, 496, 72
-0.995936, 9, 225, 72, 288
-0.995941, 401, 177, 416, 240
-0.995952, 209, 293, 336, 324
-0.995959, 389, 105, 404, 168
-0.995965, 257, 121, 384, 152
-0.995982, 253, 177, 268, 240
-0.996009, 355, 97, 370, 160
-0.996037, 337, 81, 352, 144
-0.996041, 129, 217, 384, 280
-0.996071, 389, 169, 404, 232
-0.996096, 193, 153, 320, 184
-0.996113, 363, 225, 378, 288
-0.996116, 257, 201, 384, 232
-0.996122, 97, 297, 352, 360
-0.996126, 201, 73, 264, 136
-0.996173, 281, 217, 296, 280
-0.996185, 261, 249, 276, 312
-0.996189, 241, 193, 256, 256
-0.996191, 387, 73, 402, 136
-0.996198, 161, 129, 192, 256
-0.996204, 241, 245, 368, 276
-0.996221, 257, 57, 500, 120
-0.99625, 369, 209, 384, 272
-0.996272, 235, 121, 250, 184
-0.996284, 309, 105, 324, 168
-0.996284, 421, 209, 452, 336
-0.996285, 313, 241, 328, 304
-0.996311, 227, 129, 242, 192
-0.996331, 165, 177, 196, 304
-0.996331, 181, 225, 212, 352
-0.996347, 1, 137, 500, 200
-0.996354, 379, 233, 394, 296
-0.996355, 3, 161, 18, 224
-0.996357, 177, 65, 208, 192
-0.996371, 331, 73, 346, 136
-0.996372, 257, 121, 272, 184
-0.996382, 353, 185, 480, 216
-0.996416, 289, 249, 416, 280
-0.996429, 345, 105, 360, 168
-0.996431, 129, 265, 384, 328
-0.996432, 397, 73, 412, 136
-0.996444, 371, 73, 386, 136
-0.996444, 269, 121, 284, 184
-0.996452, 261, 185, 276, 248
-0.996453, 309, 217, 324, 280
-0.996458, 341, 225, 356, 288
-0.996458, 1, 217, 500, 280
-0.996465, 319, 225, 334, 288
-0.996512, 209, 305, 336, 336
-0.996514, 129, 241, 384, 304
-0.996514, 13, 145, 28, 208
-0.996519, 145, 141, 272, 172
-0.996521, 305, 241, 320, 304
-0.996542, 387, 241, 402, 304
-0.996547, 335, 145, 350, 208
-0.996551, 97, 81, 224, 112
-0.996557, 253, 265, 268, 328
-0.996562, 325, 57, 340, 120
-0.996566, 37, 161, 68, 288
-0.996584, 273, 209, 288, 272
-0.996591, 177, 225, 304, 256
-0.9966, 449, 129, 464, 192
-0.996624, 231, 153, 246, 216
-0.996627, 161, 113, 288, 144
-0.996639, 225, 141, 352, 172
-0.996653, 305, 261, 432, 292
-0.996661, 73, 225, 136, 352
-0.996671, 247, 177, 262, 240
-0.996673, 305, 185, 432, 216
-0.996682, 27, 169, 42, 232
-0.996692, 279, 121, 294, 184
-0.996696, 341, 57, 356, 120
-0.996696, 289, 225, 304, 288
-0.996699, 373, 185, 388, 248
-0.996699, 295, 257, 310, 320
-0.99671, 345, 169, 360, 232
-0.996712, 405, 73, 420, 136
-0.996713, 293, 97, 324, 352
-0.996729, 337, 229, 464, 260
-0.996729, 381, 73, 396, 136
-0.996739, 353, 157, 480, 188
-0.996744, 181, 177, 212, 304
-0.99676, 421, 113, 436, 176
-0.99678, 209, 193, 336, 224
-0.996785, 305, 125, 432, 156
-0.996785, 287, 265, 302, 328
-0.996791, 97, 177, 128, 304
-0.996802, 241, 109, 368, 140
-0.996807, 255, 297, 270, 360
-0.996812, 193, 321, 320, 352
-0.996824, 369, 161, 384, 224
-0.996842, 385, 33, 400, 96
-0.996847, 393, 137, 408, 200
-0.996848, 267, 273, 282, 336
-0.996857, 375, 33, 390, 96
-0.996863, 353, 145, 480, 176
-0.996867, 411, 57, 426, 120
-0.996871, 385, 201, 400, 264
-0.996872, 369, 33, 384, 96
-0.996873, 1, 241, 500, 304
-0.996876, 349, 225, 364, 288
-0.996881, 367, 185, 382, 248
-0.996882, 369, 233, 384, 296
-0.996888, 113, 89, 128, 152
-0.996897, 361, 33, 376, 96
-0.996913, 241, 217, 368, 248
-0.996922, 247, 201, 262, 264
-0.996922, 403, 241, 418, 304
-0.996942, 329, 33, 344, 96
-0.996943, 261, 217, 276, 280
-0.996944, 295, 113, 310, 176
-0.996965, 319, 201, 334, 264
-0.996967, 273, 169, 288, 232
-0.996972, 287, 113, 302, 176
-0.996973, 259, 153, 274, 216
-0.996973, 313, 273, 328, 336
-0.996975, 381, 129, 396, 192
-0.996982, 449, 161, 464, 224
-0.996984, 235, 177, 250, 240
-0.996987, 341, 33, 356, 96
-0.996988, 403, 201, 418, 264
-0.996998, 437, 65, 468, 192
-0.997009, 287, 297, 302, 360
-0.997015, 355, 33, 370, 96
-0.997021, 327, 201, 342, 264
-0.997038, 241, 257, 368, 288
-0.99705, 353, 169, 480, 200
-0.997058, 391, 33, 406, 96
-0.997059, 329, 137, 344, 200
-0.997066, 255, 201, 270, 264
-0.997096, 193, 181, 320, 212
-0.9971, 221, 65, 252, 192
-0.997103, 335, 33, 350, 96
-0.997108, 401, 97, 432, 352
-0.997108, 391, 193, 406, 256
-0.99712, 359, 249, 374, 312
-0.997122, 1, 153, 128, 184
-0.997123, 21, 161, 36, 224
-0.997128, 253, 145, 268, 208
-0.997135, 193, 289, 448, 352
-0.997137, 81, 1, 144, 375
-0.997141, 337, 209, 464, 240
-0.997143, 443, 121, 458, 184
-0.997143, 335, 225, 350, 288
-0.997146, 271, 241, 286, 304
-0.997153, 409, 225, 424, 288
-0.997167, 347, 33, 362, 96
-0.997189, 177, 213, 304, 244
-0.997189, 1, 181, 128, 212
-0.997197, 357, 225, 372, 288
-0.997206, 345, 129, 360, 192
-0.997213, 383, 105, 398, 168
-0.997239, 241, 321, 368, 352
-0.997243, 161, 201, 288, 232
-0.997244, 49, 1, 112, 375
-0.997244, 241, 129, 272, 375
-0.997247, 289, 217, 416, 248
-0.997253, 365, 137, 380, 200
-0.997257, 53, 177, 84, 304
-0.997258, 415, 105, 430, 168
-0.997259, 319, 57, 334, 120
-0.997263, 407, 145, 422, 208
-0.997263, 261, 273, 276, 336
-0.997264, 397, 33, 412, 96
-0.997264, 261, 297, 276, 360
-0.997264, 411, 81, 426, 144
-0.997269, 305, 137, 432, 168
-0.99727, 319, 249, 334, 312
-0.997272, 249, 297, 264, 360
-0.997277, 423, 89, 438, 152
-0.99728, 319, 33, 334, 96
-0.997282, 409, 113, 424, 176
-0.997288, 313, 65, 344, 320
-0.997306, 337, 97, 368, 352
-0.99731, 273, 41, 400, 72
-0.997317, 129, 153, 256, 184
-0.997331, 369, 97, 496, 128
-0.997344, 381, 1, 412, 256
-0.997379, 1, 57, 500, 120
-0.997384, 305, 153, 432, 184
-0.997397, 399, 209, 414, 240
-0.997423, 1, 217, 256, 280
-0.997457, 97, 265, 224, 328
-0.99746, 193, 261, 320, 292
-0.99748, 337, 249, 464, 280
-0.997504, 405, 1, 436, 256
-0.997512, 177, 237, 304, 268
-0.997534, 1, 241, 256, 304
-0.997561, 1, 81, 32, 208
-0.997582, 391, 113, 406, 144
-0.997586, 145, 309, 272, 340
-0.997597, 97, 93, 224, 124
-0.997604, 239, 181, 254, 212
-0.997615, 189, 129, 220, 256
-0.997624, 421, 97, 452, 352
-0.997628, 305, 273, 432, 304
-0.997642, 161, 129, 288, 160
-0.997652, 129, 165, 256, 196
-0.997662, 241, 153, 256, 184
-0.997663, 161, 33, 416, 96
-0.997667, 429, 1, 460, 256
-0.997681, 369, 85, 496, 116
-0.997689, 269, 97, 300, 352
-0.997696, 417, 105, 432, 136
-0.997698, 419, 89, 434, 120
-0.997714, 215, 301, 230, 332
-0.997715, 253, 97, 284, 352
-0.997718, 399, 229, 414, 260
-0.997728, 329, 1, 360, 256
-0.997742, 353, 261, 480, 292
-0.997745, 241, 169, 368, 200
-0.997747, 257, 77, 384, 108
-0.997747, 97, 225, 224, 256
-0.997755, 237, 165, 252, 196
-0.997755, 337, 273, 464, 336
-0.99776, 161, 57, 288, 120
-0.997779, 257, 189, 384, 220
-0.997786, 381, 97, 412, 352
-0.997794, 241, 193, 256, 224
-0.997833, 33, 205, 160, 236
-0.99784, 349, 1, 380, 256
-0.997844, 407, 197, 422, 228
-0.997848, 225, 281, 352, 312
-0.997848, 267, 217, 282, 248
-0.997861, 305, 197, 432, 228
-0.997877, 385, 117, 400, 148
-0.997877, 129, 177, 256, 208
-0.99789, 225, 97, 352, 128
-0.997895, 391, 125, 406, 156
-0.997905, 319, 93, 334, 124
-0.997909, 315, 105, 330, 136
-0.997912, 177, 165, 304, 196
-0.997914, 357, 229, 372, 260
-0.997915, 1, 165, 128, 196
-0.997918, 313, 229, 328, 260
-0.997918, 333, 249, 348, 280
-0.997919, 245, 181, 260, 212
-0.997925, 49, 141, 176, 172
-0.997925, 121, 209, 152, 336
-0.997929, 397, 181, 412, 212
-0.997929, 1, 193, 128, 224
-0.997934, 361, 1, 392, 256
-0.997935, 395, 245, 410, 276
-0.997936, 339, 125, 354, 156
-0.997939, 393, 81, 408, 112
-0.99794, 235, 153, 250, 184
-0.99795, 393, 233, 408, 264
-0.997953, 193, 333, 320, 364
-0.997955, 411, 81, 426, 112
-0.997957, 247, 169, 262, 200
-0.99797, 113, 197, 240, 228
-0.997975, 301, 1, 332, 256
-0.997977, 129, 237, 256, 268
-0.997978, 313, 117, 328, 148
-0.997978, 1, 141, 128, 172
-0.997979, 177, 277, 304, 308
-0.997982, 241, 153, 368, 184
-0.997985, 449, 17, 480, 144
-0.997988, 361, 241, 376, 272
-0.997988, 25, 225, 88, 352
-0.997992, 349, 97, 380, 352
-0.997992, 17, 1, 80, 375
-0.997995, 263, 321, 278, 352
-0.997998, 1, 125, 128, 156
-0.998002, 209, 289, 224, 320
-0.998005, 207, 309, 222, 340
-0.998013, 329, 193, 344, 224
-0.998024, 97, 213, 224, 244
-0.998029, 323, 81, 338, 112
-0.998031, 393, 1, 424, 256
-0.998034, 217, 129, 248, 375
-0.998041, 341, 229, 356, 260
-0.998048, 3, 169, 18, 200
-0.998052, 253, 185, 268, 216
-0.998053, 351, 77, 366, 108
-0.998053, 451, 133, 466, 164
-0.998055, 257, 125, 272, 156
-0.998061, 389, 137, 404, 168
-0.998071, 329, 237, 344, 268
-0.998077, 361, 165, 376, 196
-0.998081, 397, 169, 412, 200
-0.998084, 363, 109, 378, 140
-0.998097, 193, 313, 448, 375
-0.998101, 355, 97, 370, 128
-0.998108, 411, 121, 426, 152
-0.99812, 417, 1, 448, 256
-0.998123, 383, 81, 398, 112
-0.99813, 263, 125, 278, 156
-0.998131, 277, 157, 292, 188
-0.998131, 367, 185, 382, 216
-0.998134, 407, 165, 422, 196
-0.998135, 259, 225, 274, 256
-0.998139, 369, 97, 400, 352
-0.998145, 289, 165, 416, 196
-0.998149, 273, 97, 400, 128
-0.998154, 289, 1, 320, 256
-0.998154, 407, 221, 422, 252
-0.99816, 315, 289, 330, 320
-0.998169, 323, 133, 338, 164
-0.998173, 357, 117, 372, 148
-0.998174, 385, 169, 400, 200
-0.998182, 365, 81, 380, 112
-0.998182, 267, 237, 282, 268
-0.998188, 227, 309, 242, 340
-0.998194, 345, 105, 360, 136
-0.998194, 395, 153, 410, 184
-0.998195, 367, 157, 382, 188
-0.998197, 391, 97, 406, 128
-0.998199, 373, 173, 388, 204
-0.998211, 259, 141, 274, 172
-0.998212, 273, 285, 400, 316
-0.998214, 267, 281, 282, 312
-0.998226, 221, 141, 236, 172
-0.998226, 337, 217, 352, 248
-0.998232, 33, 225, 160, 256
-0.998233, 329, 77, 344, 108
-0.998238, 261, 265, 276, 296
-0.99824, 319, 117, 334, 148
-0.99824, 245, 217, 260, 248
-0.998241, 257, 309, 384, 340
-0.998244, 291, 233, 306, 264
-0.998246, 249, 133, 264, 164
-0.998248, 281, 221, 296, 252
-0.998248, 235, 193, 250, 224
-0.99825, 419, 117, 434, 148
-0.998256, 229, 133, 244, 164
-0.998258, 361, 93, 376, 124
-0.99826, 341, 77, 356, 108
-0.99826, 363, 253, 378, 284
-0.998261, 49, 113, 176, 144
-0.998262, 345, 153, 360, 184
-0.998269, 257, 65, 288, 192
-0.998272, 277, 273, 292, 304
-0.998279, 309, 281, 324, 312
-0.998288, 335, 237, 350, 268
-0.998289, 261, 193, 276, 224
-0.998295, 333, 121, 348, 152
-0.998297, 285, 121, 300, 152
-0.998298, 339, 249, 354, 280
-0.998299, 307, 201, 322, 232
-0.9983, 221, 293, 236, 324
-0.998302, 13, 169, 28, 200
-0.998303, 261, 253, 276, 284
-0.998308, 351, 229, 366, 260
-0.99831, 323, 105, 338, 136
-0.998312, 215, 285, 230, 316
-0.998313, 249, 145, 264, 176
-0.998318, 401, 193, 416, 224
-0.998319, 365, 129, 380, 160
-0.998319, 413, 137, 428, 168
-0.998324, 385, 97, 400, 128
-0.998325, 405, 209, 420, 240
-0.998325, 185, 1, 248, 256
-0.99833, 319, 205, 334, 236
-0.998336, 413, 209, 428, 240
-0.998337, 231, 165, 246, 196
-0.998338, 309, 245, 324, 276
-0.998342, 241, 205, 256, 236
-0.998342, 405, 81, 420, 112
-0.998348, 177, 101, 304, 132
-0.998349, 229, 97, 260, 352
-0.998352, 249, 201, 264, 232
-0.998352, 257, 325, 272, 356
-0.998354, 27, 177, 42, 208
-0.998357, 371, 253, 386, 284
-0.998358, 285, 185, 300, 216
-0.99836, 339, 161, 354, 192
-0.99836, 325, 129, 356, 375
-0.998362, 229, 145, 244, 176
-0.998364, 345, 225, 376, 240
-0.998365, 317, 225, 348, 240
-0.998365, 241, 297, 272, 312
-0.998365, 281, 327, 312, 342
-0.998365, 305, 177, 336, 192
-0.998366, 293, 193, 324, 208
-0.998367, 331, 153, 346, 184
-0.998367, 401, 207, 432, 222
-0.998367, 269, 329, 300, 344
-0.998367, 381, 225, 412, 240
-0.998367, 357, 81, 388, 96
-0.998367, 317, 175, 348, 190
-0.998368, 377, 167, 408, 182
-0.998368, 377, 235, 408, 250
-0.998368, 333, 91, 364, 106
-0.998369, 213, 291, 244, 306
-0.998369, 341, 261, 372, 276
-0.998369, 275, 205, 290, 236
-0.99837, 213, 301, 244, 316
-0.99837, 341, 157, 372, 172
-0.99837, 289, 329, 304, 360
-0.99837, 289, 219, 320, 234
-0.99837, 309, 117, 340, 132
-0.998371, 273, 239, 304, 254
-0.998371, 241, 227, 272, 242
-0.998371, 245, 261, 276, 276
-0.998371, 385, 141, 416, 156
-0.998371, 253, 193, 284, 208
-0.998373, 335, 197, 350, 228
-0.998374, 333, 151, 364, 166
-0.998374, 205, 317, 236, 332
-0.998375, 397, 177, 428, 192
-0.998375, 349, 151, 380, 166
-0.998375, 313, 193, 344, 208
-0.998376, 365, 177, 396, 192
-0.998376, 381, 85, 412, 100
-0.998377, 213, 285, 244, 300
-0.998377, 389, 161, 420, 176
-0.998377, 301, 171, 332, 186
-0.998377, 371, 81, 386, 112
-0.998377, 317, 161, 348, 176
-0.998379, 373, 243, 404, 258
-0.998379, 409, 115, 440, 130
-0.99838, 307, 229, 322, 260
-0.998381, 309, 243, 340, 258
-0.998381, 373, 267, 404, 282
-0.998381, 389, 123, 420, 138
-0.998382, 217, 141, 248, 156
-0.998382, 313, 255, 344, 270
-0.998382, 341, 131, 372, 146
-0.998382, 321, 231, 352, 246
-0.998382, 317, 207, 348, 222
-0.998383, 389, 235, 420, 250
-0.998383, 221, 161, 252, 176
-0.998384, 369, 197, 400, 212
-0.998384, 429, 129, 460, 144
-0.998384, 321, 249, 352, 264
-0.998385, 389, 171, 420, 186
-0.998385, 229, 195, 260, 210
-0.998385, 249, 273, 280, 288
-0.998385, 365, 159, 396, 174
-0.998386, 9, 171, 40, 186
-0.998386, 349, 243, 380, 258
-0.998386, 237, 165, 268, 180
-0.998386, 341, 111, 372, 126
-0.998388, 389, 191, 420, 206
-0.998388, 385, 241, 416, 256
-0.998389, 407, 245, 422, 276
-0.998389, 325, 127, 356, 142
-0.99839, 335, 181, 350, 212
-0.998391, 393, 109, 424, 124
-0.998391, 361, 243, 392, 258
-0.998391, 289, 121, 320, 136
-0.998391, 339, 113, 354, 144
-0.998392, 321, 261, 352, 276
-0.998392, 225, 171, 256, 186
-0.998393, 405, 93, 436, 108
-0.998394, 385, 153, 400, 184
-0.998394, 263, 205, 278, 236
-0.998394, 369, 127, 400, 142
-0.998395, 17, 187, 48, 202
-0.998395, 313, 103, 344, 118
-0.998395, 347, 117, 362, 148
-0.998396, 389, 115, 420, 130
-0.998396, 293, 261, 324, 276
-0.998397, 301, 249, 332, 264
-0.998398, 229, 183, 260, 198
-0.998399, 401, 199, 432, 214
-0.9984, 161, 297, 288, 328
-0.9984, 409, 123, 440, 138
-0.9984, 273, 123, 304, 138
-0.998401, 229, 203, 260, 218
-0.998401, 217, 321, 248, 336
-0.998402, 361, 165, 392, 180
-0.998402, 361, 251, 392, 266
-0.998403, 249, 267, 280, 282
-0.998404, 341, 255, 372, 270
-0.998406, 253, 127, 284, 142
-0.998409, 313, 109, 344, 124
-0.998409, 245, 199, 276, 214
-0.998409, 277, 335, 308, 350
-0.99841, 213, 311, 244, 326
-0.998411, 361, 121, 392, 136
-0.998412, 385, 267, 416, 282
-0.998413, 293, 229, 324, 244
-0.998413, 313, 237, 344, 252
-0.998414, 333, 231, 364, 246
-0.998415, 249, 211, 280, 226
-0.99842, 221, 153, 252, 168
-0.99842, 277, 277, 308, 292
-0.99842, 345, 97, 376, 112
-0.998421, 293, 235, 324, 250
-0.998421, 241, 151, 272, 166
-0.998422, 393, 91, 424, 106
-0.998425, 305, 205, 336, 220
-0.998426, 265, 269, 296, 284
-0.998427, 253, 227, 284, 242
-0.998427, 249, 221, 280, 236
-0.998427, 241, 177, 272, 192
-0.99843, 309, 231, 340, 246
-0.99843, 393, 183, 424, 198
-0.99843, 245, 327, 276, 342
-0.99843, 393, 83, 424, 98
-0.998431, 269, 229, 300, 244
-0.998432, 345, 125, 376, 140
-0.998432, 393, 135, 424, 150
-0.998435, 97, 105, 224, 136
-0.998435, 393, 213, 424, 228
-0.998435, 329, 133, 360, 148
-0.998439, 381, 205, 412, 220
-0.998444, 313, 137, 344, 152
-0.998444, 173, 113, 204, 240
-0.998445, 341, 163, 372, 178
-0.998447, 437, 17, 468, 144
-0.998449, 321, 87, 352, 102
-0.99845, 325, 201, 356, 216
-0.99845, 341, 237, 372, 252
-0.998451, 345, 81, 376, 96
-0.998452, 241, 185, 272, 200
-0.998455, 377, 173, 408, 188
-0.998459, 381, 181, 412, 196
-0.998462, 221, 147, 252, 162
-0.998471, 261, 219, 292, 234
-0.998471, 241, 191, 272, 206
-0.998475, 405, 87, 436, 102
-0.998478, 325, 81, 356, 96
-0.998483, 337, 61, 464, 92
-0.998485, 437, 97, 468, 352
-0.99849, 281, 97, 312, 352
-0.998504, 33, 273, 288, 336
-0.998523, 241, 269, 368, 300
-0.998528, 449, 1, 480, 256
-0.99853, 305, 231, 368, 246
-0.998532, 361, 191, 424, 206
-0.998536, 313, 81, 376, 96
-0.998537, 49, 153, 176, 184
-0.998545, 401, 129, 464, 144
-0.998547, 257, 61, 384, 92
-0.998547, 273, 229, 336, 244
-0.998553, 321, 165, 384, 180
-0.998556, 273, 235, 336, 250
-0.998558, 329, 247, 392, 262
-0.998562, 385, 149, 448, 164
-0.998565, 257, 297, 384, 328
-0.998565, 321, 133, 384, 148
-0.998569, 401, 163, 464, 178
-0.99857, 281, 169, 344, 184
-0.998572, 393, 173, 456, 188
-0.998578, 313, 103, 376, 118
-0.998578, 377, 123, 440, 138
-0.99858, 297, 251, 360, 266
-0.998581, 217, 139, 280, 154
-0.998581, 265, 121, 328, 136
-0.998581, 305, 89, 368, 104
-0.998583, 249, 229, 312, 244
-0.998586, 401, 187, 464, 202
-0.998587, 377, 107, 440, 122
-0.998587, 369, 115, 432, 130
-0.998588, 225, 185, 288, 200
-0.998592, 361, 185, 424, 200
-0.998592, 313, 127, 376, 142
-0.998592, 369, 219, 432, 234
-0.998594, 217, 173, 280, 188
-0.998594, 297, 161, 360, 176
-0.998594, 297, 111, 360, 126
-0.998595, 177, 141, 240, 156
-0.998596, 305, 239, 368, 254
-0.998596, 345, 105, 408, 120
-0.998597, 337, 81, 400, 96
-0.998597, 217, 191, 280, 206
-0.998599, 225, 167, 288, 182
-0.998599, 393, 181, 456, 196
-0.9986, 249, 329, 312, 344
-0.9986, 249, 237, 312, 252
-0.998601, 313, 97, 376, 112
-0.998601, 129, 249, 256, 280
-0.998601, 409, 137, 472, 152
-0.998603, 401, 197, 464, 212
-0.998604, 233, 199, 296, 214
-0.998605, 377, 93, 440, 108
-0.998607, 353, 265, 416, 280
-0.998608, 353, 125, 416, 140
-0.998608, 345, 233, 408, 248
-0.998609, 361, 143, 424, 158
-0.99861, 289, 203, 352, 218
-0.998611, 241, 333, 368, 364
-0.998612, 345, 163, 408, 178
-0.998612, 241, 221, 304, 236
-0.998613, 209, 147, 272, 162
-0.998613, 241, 271, 304, 286
-0.998614, 361, 83, 424, 98
-0.998614, 241, 125, 304, 140
-0.998615, 401, 205, 464, 220
-0.998615, 185, 163, 248, 178
-0.998618, 257, 161, 320, 176
-0.998618, 329, 119, 392, 134
-0.998619, 361, 173, 424, 188
-0.998619, 361, 157, 424, 172
-0.998619, 225, 157, 288, 172
-0.998619, 217, 205, 280, 220
-0.998619, 329, 239, 392, 254
-0.998619, 193, 313, 256, 328
-0.998619, 321, 197, 384, 212
-0.99862, 225, 179, 288, 194
-0.99862, 185, 305, 248, 320
-0.99862, 345, 111, 408, 126
-0.99862, 265, 279, 328, 294
-0.99862, 217, 303, 280, 318
-0.99862, 353, 251, 416, 266
-0.998621, 273, 295, 336, 310
-0.998622, 297, 177, 360, 192
-0.998624, 257, 259, 320, 274
-0.998624, 289, 119, 352, 134
-0.998624, 257, 185, 320, 200
-0.998625, 1, 241, 128, 368
-0.998626, 257, 171, 320, 186
-0.998626, 385, 225, 448, 240
-0.998627, 377, 101, 440, 116
-0.998628, 377, 265, 440, 280
-0.998628, 337, 189, 400, 204
-0.998628, 369, 257, 432, 272
-0.998629, 217, 131, 280, 146
-0.998629, 241, 205, 304, 220
-0.99863, 409, 143, 472, 158
-0.998631, 297, 155, 360, 170
-0.998631, 337, 259, 400, 274
-0.998632, 249, 335, 312, 350
-0.998632, 337, 151, 400, 166
-0.998632, 369, 197, 432, 212
-0.998632, 361, 211, 424, 226
-0.998633, 281, 213, 344, 228
-0.998633, 201, 319, 264, 334
-0.998634, 305, 225, 368, 240
-0.998635, 217, 273, 280, 288
-0.998635, 193, 169, 256, 184
-0.998636, 273, 271, 336, 286
-0.998637, 257, 177, 320, 192
-0.998638, 225, 229, 288, 244
-0.998639, 249, 251, 312, 266
-0.998639, 217, 211, 280, 226
-0.99864, 313, 171, 376, 186
-0.99864, 265, 195, 328, 210
-0.99864, 369, 243, 432, 258
-0.998641, 409, 153, 472, 168
-0.998642, 249, 301, 312, 316
-0.998642, 257, 243, 320, 258
-0.998643, 281, 135, 344, 150
-0.998643, 265, 287, 328, 302
-0.998643, 217, 311, 280, 326
-0.998643, 177, 147, 240, 162
-0.998643, 201, 297, 264, 312
-0.998643, 377, 133, 440, 148
-0.998644, 337, 227, 400, 242
-0.998645, 401, 211, 464, 226
-0.998645, 225, 239, 288, 254
-0.998645, 369, 179, 432, 194
-0.998647, 281, 241, 344, 256
-0.998647, 225, 327, 288, 342
-0.998647, 321, 157, 384, 172
-0.998648, 145, 159, 208, 174
-0.998648, 257, 155, 320, 170
-0.998649, 193, 157, 256, 172
-0.998649, 1, 65, 256, 128
-0.99865, 201, 279, 264, 294
-0.998652, 313, 189, 376, 204
-0.998652, 337, 221, 400, 236
-0.998652, 337, 181, 400, 196
-0.998652, 289, 193, 352, 208
-0.998652, 401, 219, 464, 234
-0.998663, 49, 189, 176, 220
-0.998683, 321, 37, 448, 68
-0.998687, 145, 325, 272, 356
-0.998727, 113, 125, 240, 156
-0.998744, 49, 177, 176, 208
-0.998744, 65, 237, 192, 268
-0.998749, 65, 49, 128, 176
-0.998749, 193, 249, 320, 280
-0.998782, 189, 65, 220, 320
-0.998783, 101, 97, 132, 352
-0.998786, 145, 89, 272, 120
-0.998791, 81, 165, 208, 196
-0.9988, 1, 33, 500, 96
-0.998813, 257, 9, 500, 72
-0.998842, 133, 129, 164, 256
-0.998856, 201, 97, 232, 352
-0.998884, 13, 81, 44, 208
-0.99891, 33, 89, 160, 120
-0.998928, 237, 145, 252, 272
-0.998938, 369, 37, 496, 68
-0.998944, 97, 137, 224, 168
-0.998956, 369, 73, 496, 104
-0.998967, 129, 285, 256, 316
-0.998973, 153, 65, 184, 320
-0.998986, 261, 113, 276, 240
-0.998989, 193, 33, 320, 96
-0.998994, 395, 177, 410, 304
-0.999012, 333, 193, 348, 320
-0.999018, 17, 97, 48, 352
-0.99902, 273, 1, 304, 256
-0.999024, 393, 129, 408, 256
-0.999041, 129, 9, 384, 72
-0.999067, 129, 65, 160, 320
-0.999081, 249, 113, 264, 240
-0.999082, 17, 237, 144, 268
-0.999085, 289, 25, 416, 56
-0.999101, 289, 325, 416, 356
-0.999114, 325, 65, 340, 192
-0.999128, 335, 65, 350, 192
-0.99914, 1, 297, 256, 360
-0.999148, 417, 65, 432, 192
-0.999156, 49, 129, 176, 160
-0.999169, 315, 65, 330, 192
-0.999171, 129, 265, 256, 296
-0.999174, 309, 225, 324, 352
-0.999185, 451, 129, 466, 256
-0.999186, 389, 177, 404, 304
-0.999189, 407, 81, 422, 208
-0.999191, 141, 65, 172, 320
-0.999198, 351, 65, 366, 192
-0.999199, 387, 65, 402, 192
-0.9992, 225, 41, 352, 72
-0.999219, 395, 65, 410, 192
-0.999221, 49, 101, 176, 132
-0.999222, 461, 1, 492, 256
-0.999224, 285, 113, 300, 240
-0.999224, 231, 97, 246, 224
-0.999226, 243, 145, 258, 272
-0.999229, 113, 65, 144, 320
-0.999229, 267, 193, 282, 320
-0.999236, 469, 17, 500, 144
-0.999236, 327, 129, 342, 256
-0.999236, 441, 113, 456, 240
-0.999239, 267, 241, 282, 368
-0.99924, 41, 97, 72, 352
-0.99924, 401, 65, 416, 192
-0.999245, 5, 129, 36, 375
-0.999248, 359, 81, 374, 208
-0.999251, 275, 113, 290, 240
-0.999255, 319, 209, 334, 336
-0.999256, 389, 225, 404, 352
-0.999258, 235, 241, 250, 368
-0.999263, 209, 225, 224, 352
-0.999266, 237, 97, 252, 224
-0.999267, 309, 97, 324, 224
-0.999268, 255, 161, 270, 288
-0.99927, 371, 65, 386, 192
-0.999272, 345, 177, 360, 304
-0.999272, 341, 81, 356, 208
-0.999273, 273, 241, 288, 368
-0.999275, 267, 113, 282, 240
-0.999296, 367, 177, 382, 304
-0.999297, 381, 65, 396, 192
-0.999303, 255, 113, 270, 240
-0.999316, 327, 193, 342, 320
-0.999318, 293, 97, 308, 224
-0.999319, 241, 241, 256, 368
-0.99932, 113, 81, 128, 208
-0.999327, 339, 193, 354, 320
-0.999329, 177, 129, 208, 375
-0.999329, 449, 97, 480, 352
-0.999332, 249, 161, 264, 288
-0.999335, 145, 77, 272, 108
-0.999335, 307, 33, 322, 160
-0.999339, 337, 129, 352, 256
-0.99934, 399, 129, 414, 256
-0.999341, 299, 97, 314, 224
-0.999346, 241, 33, 272, 288
-0.999347, 401, 177, 416, 304
-0.999351, 387, 113, 402, 240
-0.999352, 365, 97, 380, 224
-0.999354, 165, 65, 196, 320
-0.999354, 383, 177, 398, 304
-0.999355, 17, 73, 144, 104
-0.999358, 113, 297, 240, 328
-0.99936, 219, 225, 234, 352
-0.999361, 239, 193, 254, 320
-0.999361, 229, 241, 244, 368
-0.999362, 169, 225, 200, 352
-0.999369, 383, 225, 398, 352
-0.999374, 261, 177, 276, 304
-0.999378, 261, 225, 276, 352
-0.999389, 97, 69, 224, 100
-0.999394, 225, 113, 240, 240
-0.9994, 279, 225, 294, 352
-0.9994, 355, 193, 370, 320
-0.999402, 349, 17, 364, 144
-0.999403, 231, 161, 246, 288
-0.999403, 303, 241, 318, 368
-0.999404, 407, 17, 422, 144
-0.999404, 341, 33, 356, 160
-0.999404, 415, 17, 430, 144
-0.999411, 323, 17, 338, 144
-0.999414, 291, 225, 306, 352
-0.999415, 413, 113, 428, 240
-0.999415, 377, 193, 392, 320
-0.99942, 209, 29, 336, 60
-0.999423, 445, 161, 460, 288
-0.999425, 29, 97, 60, 352
-0.99943, 361, 33, 376, 160
-0.999432, 315, 17, 330, 144
-0.999434, 389, 17, 404, 144
-0.999435, 423, 161, 438, 288
-0.999442, 359, 145, 374, 272
-0.999442, 197, 65, 212, 192
-0.999443, 273, 193, 288, 320
-0.999448, 353, 273, 480, 304
-0.999451, 29, 129, 44, 256
-0.999451, 19, 113, 34, 240
-0.999452, 423, 81, 438, 208
-0.999452, 7, 129, 22, 256
-0.999454, 375, 17, 390, 144
-0.999455, 333, 17, 348, 144
-0.999455, 243, 97, 258, 224
-0.999457, 305, 297, 432, 328
-0.99947, 363, 225, 378, 352
-0.999473, 255, 241, 270, 368
-0.999476, 203, 225, 218, 352
-0.99948, 367, 17, 382, 144
-0.99948, 225, 161, 240, 288
-0.999486, 89, 97, 120, 352
-0.999491, 17, 1, 144, 128
-0.999491, 291, 49, 306, 176
-0.999494, 119, 129, 134, 256
-0.999496, 123, 177, 138, 304
-0.999496, 355, 17, 370, 144
-0.999498, 297, 241, 312, 368
-0.999501, 431, 113, 446, 240
-0.999505, 315, 113, 330, 240
-0.999506, 119, 65, 134, 192
-0.999508, 381, 113, 396, 240
-0.999508, 291, 177, 306, 304
-0.999509, 53, 97, 84, 352
-0.999509, 309, 177, 324, 304
-0.999513, 401, 17, 416, 144
-0.999516, 349, 129, 364, 256
-0.999517, 13, 129, 28, 256
-0.999518, 319, 161, 334, 288
-0.999521, 285, 241, 300, 368
-0.999523, 301, 17, 316, 144
-0.999523, 417, 161, 432, 288
-0.999524, 17, 257, 144, 320
-0.99953, 127, 65, 142, 192
-0.999531, 105, 97, 120, 224
-0.999535, 159, 65, 174, 192
-0.999537, 203, 81, 218, 208
-0.999541, 343, 129, 358, 256
-0.999554, 337, 241, 352, 368
-0.999558, 383, 17, 398, 144
-0.999563, 407, 129, 422, 256
-0.999564, 329, 241, 344, 368
-0.999564, 1, 105, 128, 136
-0.999565, 429, 65, 444, 192
-0.999566, 209, 85, 336, 116
-0.999567, 371, 113, 386, 240
-0.999567, 249, 241, 264, 368
-0.999568, 369, 225, 384, 352
-0.999569, 37, 209, 68, 336
-0.99957, 197, 177, 228, 304
-0.999575, 257, 65, 272, 192
-0.999575, 281, 177, 296, 304
-0.999575, 35, 113, 50, 240
-0.999577, 303, 193, 318, 320
-0.999584, 335, 251, 350, 266
-0.999584, 333, 211, 348, 226
-0.999584, 355, 241, 370, 256
-0.999584, 341, 179, 356, 194
-0.999584, 19, 187, 34, 202
-0.999585, 391, 169, 406, 184
-0.999585, 345, 93, 360, 108
-0.999585, 403, 267, 418, 282
-0.999585, 261, 201, 276, 216
-0.999586, 247, 197, 262, 212
-0.999586, 391, 181, 406, 196
-0.999586, 307, 229, 322, 244
-0.999586, 293, 231, 308, 246
-0.999586, 89, 225, 120, 352
-0.999586, 393, 205, 408, 220
-0.999586, 403, 179, 418, 194
-0.999586, 355, 153, 370, 168
-0.999587, 385, 129, 400, 144
-0.999588, 413, 125, 428, 140
-0.999588, 221, 147, 236, 162
-0.999588, 327, 205, 342, 220
-0.999589, 269, 249, 284, 264
-0.99959, 237, 173, 252, 188
-0.999591, 347, 81, 362, 96
-0.999592, 395, 89, 410, 104
-0.999592, 419, 103, 434, 118
-0.999592, 419, 97, 434, 112
-0.999592, 289, 337, 304, 352
-0.999592, 249, 181, 264, 196
-0.999592, 333, 163, 348, 178
-0.999593, 307, 201, 322, 216
-0.999594, 321, 211, 336, 226
-0.999594, 363, 239, 378, 254
-0.999594, 263, 325, 278, 340
-0.999594, 385, 165, 400, 180
-0.999595, 361, 249, 376, 264
-0.999595, 273, 279, 288, 294
-0.999595, 287, 123, 302, 138
-0.999595, 239, 205, 254, 220
-0.999596, 413, 215, 428, 230
-0.999597, 233, 147, 248, 162
-0.999598, 255, 181, 270, 196
-0.9996, 359, 121, 374, 136
-0.9996, 209, 319, 224, 334
-0.999601, 259, 263, 274, 278
-0.999601, 321, 111, 336, 126
-0.999603, 213, 287, 228, 302
-0.999603, 407, 241, 422, 256
-0.999603, 287, 225, 302, 240
-0.999603, 285, 273, 300, 288
-0.999604, 265, 223, 280, 238
-0.999604, 355, 99, 370, 114
-0.999606, 259, 193, 274, 208
-0.999606, 205, 309, 220, 324
-0.999607, 363, 103, 378, 118
-0.999608, 209, 73, 336, 104
-0.999609, 307, 235, 322, 250
-0.999609, 327, 143, 342, 158
-0.999611, 367, 251, 382, 266
-0.999611, 399, 203, 414, 218
-0.999612, 375, 225, 390, 240
-0.999613, 313, 119, 328, 134
-0.999614, 255, 187, 270, 202
-0.999614, 373, 197, 388, 212
-0.999614, 227, 141, 242, 156
-0.999615, 339, 127, 354, 142
-0.999615, 279, 277, 294, 292
-0.999615, 383, 267, 398, 282
-0.999616, 311, 169, 326, 184
-0.999617, 397, 233, 412, 248
-0.999617, 239, 149, 254, 164
-0.999618, 369, 203, 384, 218
-0.999619, 231, 321, 246, 336
-0.999619, 389, 115, 404, 130
-0.999619, 317, 101, 332, 116
-0.99962, 399, 213, 414, 228
-0.99962, 263, 127, 278, 142
-0.999621, 321, 93, 336, 108
-0.999621, 405, 209, 420, 224
-0.999621, 329, 233, 344, 248
-0.999622, 403, 197, 418, 212
-0.999623, 397, 239, 412, 254
-0.999623, 337, 135, 352, 150
-0.999623, 323, 135, 338, 150
-0.999624, 257, 221, 272, 236
-0.999624, 369, 183, 384, 198
-0.999624, 313, 113, 328, 128
-0.999624, 391, 133, 406, 148
-0.999625, 355, 159, 370, 174
-0.999625, 343, 153, 358, 168
-0.999627, 361, 113, 376, 128
-0.999628, 419, 109, 434, 124
-0.999628, 403, 83, 418, 98
-0.999628, 329, 127, 344, 142
-0.999629, 367, 175, 382, 190
-0.999631, 237, 183, 252, 198
-0.999633, 385, 123, 400, 138
-0.999634, 337, 237, 352, 252
-0.999637, 215, 305, 230, 320
-0.999638, 361, 97, 376, 112
-0.999638, 345, 99, 360, 114
-0.999639, 229, 313, 244, 328
-0.999639, 385, 173, 400, 188
-0.999639, 409, 133, 424, 148
-0.99964, 311, 243, 326, 258
-0.999641, 221, 141, 236, 156
-0.999641, 65, 97, 96, 352
-0.999642, 389, 107, 404, 122
-0.999643, 361, 259, 376, 274
-0.999645, 291, 327, 306, 342
-0.999646, 337, 229, 352, 244
-0.999647, 389, 267, 404, 282
-0.999647, 311, 285, 326, 300
-0.999648, 157, 225, 188, 352
-0.999649, 419, 91, 434, 106
-0.999649, 315, 107, 330, 122
-0.999651, 245, 151, 260, 166
-0.999654, 345, 231, 360, 246
-0.999655, 265, 215, 280, 230
-0.999657, 313, 231, 328, 246
-0.999658, 241, 193, 256, 208
-0.99966, 281, 227, 296, 242
-0.999661, 271, 221, 286, 236
-0.999662, 343, 159, 358, 174
-0.999662, 403, 191, 418, 206
-0.999664, 397, 183, 412, 198
-0.999665, 417, 115, 432, 130
-0.999665, 235, 165, 250, 180
-0.999666, 319, 205, 334, 220
-0.999673, 413, 85, 428, 100
-0.99968, 325, 83, 340, 98
-0.999688, 349, 153, 364, 168
-0.999703, 353, 25, 480, 56
-0.999711, 239, 155, 254, 170
-0.999713, 209, 9, 336, 40
-0.999723, 397, 171, 412, 186
-0.999729, 5, 177, 36, 304
-0.999741, 81, 249, 208, 280
-0.999754, 257, 13, 384, 44
-0.999759, 253, 1, 284, 256
-0.999764, 369, 49, 496, 80
-0.999808, 145, 225, 176, 352
-0.99982, 1, 297, 500, 360
-0.999862, 77, 97, 108, 352
-0.999868, 1, 273, 500, 336
-0.999879, 1, 41, 256, 104
-0.999929, 177, 33, 208, 288
-0.999942, 33, 33, 160, 96
-0.999942, 225, 1, 256, 256
-0.999964, 85, 49, 116, 176
-1.00001, 213, 33, 244, 288
-1.00002, 289, 1, 320, 128
-1.00004, 233, 1, 296, 256
-1.00006, 133, 225, 164, 352
-1.00009, 461, 193, 492, 320
-1.00013, 49, 305, 176, 368
-1.00014, 1, 9, 128, 72
-1.00023, 17, 1, 80, 256
-1.00025, 101, 225, 132, 352
-1.00027, 5, 33, 36, 288
-1.00039, 1, 9, 500, 72
-1.00041, 1, 9, 256, 72
-1.00043, 77, 225, 108, 352
-1.00044, 205, 33, 236, 160
-1.00046, 1, 313, 128, 375
-1.00047, 29, 1, 60, 256
-1.00048, 85, 1, 116, 256
-1.0005, 201, 1, 232, 256
-1.00052, 57, 1, 120, 256
-1.00065, 321, 297, 448, 360
-1.00073, 17, 281, 144, 344
-1.00076, 53, 1, 84, 256
-1.00079, 97, 1, 128, 256
-1.00094, 73, 1, 104, 256
-1.001, 469, 129, 500, 375
-1.00102, 17, 1, 48, 256
-1.00103, 41, 1, 72, 256
-1.00108, 49, 1, 176, 64
-1.00129, 241, 17, 304, 144
-1.00159, 145, 33, 272, 96
-1.00164, 81, 33, 208, 96
-1.00179, 369, 313, 496, 375
-1.00196, 161, 1, 288, 128
-1.00234, 97, 1, 224, 64
-1.00238, 81, 1, 144, 256
-1.0024, 161, 9, 288, 72
-1.00273, 9, 49, 72, 176
-1.00518, 89, 33, 152, 160
-1.00771, 41, 33, 104, 160
-1.00872, 65, 1, 128, 128
-1.00899, 1, 241, 64, 368
-1.00942, 209, 17, 272, 144
-1.0116, 185, 1, 248, 128
-1.01383, 17, 1, 80, 128
