1918
-0.368994, 1, 1, 335, 500
-0.411161, 1, 1, 335, 256
-0.471572, 1, 97, 335, 352
-0.542527, 1, 193, 335, 448
-0.555355, 33, 1, 288, 500
-0.646625, 65, 225, 320, 480
-0.684128, 1, 1, 256, 256
-0.732696, 1, 129, 256, 384
-0.863292, 209, 1, 335, 256
-0.863702, 145, 1, 272, 500
-0.873653, 209, 97, 335, 352
-0.879507, 161, 65, 288, 320
-0.879869, 161, 161, 288, 416
-0.890905, 1, 257, 128, 500
-0.89347, 1, 1, 335, 128
-0.893506, 209, 1, 335, 500
-0.894668, 113, 225, 240, 480
-0.900215, 1, 97, 335, 224
-0.901831, 1, 1, 128, 500
-0.902643, 49, 225, 176, 480
-0.906044, 113, 1, 240, 256
-0.909446, 1, 337, 335, 464
-0.913164, 33, 1, 160, 256
-0.915082, 65, 305, 320, 432
-0.915918, 1, 49, 335, 176
-0.915987, 1, 241, 335, 368
-0.916847, 209, 193, 335, 448
-0.922454, 97, 129, 224, 384
-0.923636, 1, 17, 256, 144
-0.924316, 49, 1, 176, 500
-0.927705, 1, 193, 335, 320
-0.928881, 49, 129, 176, 384
-0.931117, 97, 1, 224, 500
-0.931444, 33, 257, 288, 384
-0.931593, 1, 289, 335, 416
-0.933629, 193, 1, 320, 128
-0.934126, 65, 97, 320, 224
-0.937862, 161, 257, 288, 500
-0.937962, 265, 129, 328, 256
-0.938692, 1, 145, 335, 272
-0.940978, 185, 1, 248, 128
-0.941118, 225, 113, 288, 240
-0.942257, 113, 321, 240, 448
-0.94263, 129, 321, 192, 448
-0.943735, 209, 129, 335, 256
-0.945946, 65, 353, 320, 480
-0.946106, 33, 209, 288, 336
-0.946367, 49, 273, 176, 400
-0.947164, 49, 337, 176, 464
-0.947205, 1, 161, 128, 416
-0.947575, 177, 81, 304, 208
-0.947645, 209, 337, 335, 464
-0.949819, 145, 49, 208, 176
-0.94985, 169, 113, 232, 240
-0.949897, 169, 65, 232, 192
-0.950547, 25, 81, 88, 208
-0.951562, 113, 65, 240, 192
-0.952096, 153, 305, 216, 432
-0.952318, 241, 1, 304, 128
-0.953514, 145, 273, 272, 400
-0.954319, 201, 81, 264, 208
-0.955329, 121, 353, 184, 416
-0.955646, 185, 1, 248, 64
-0.956531, 1, 1, 128, 128
-0.956853, 17, 33, 80, 160
-0.956881, 89, 337, 152, 464
-0.957865, 1, 257, 128, 384
-0.957919, 257, 113, 320, 176
-0.958294, 121, 369, 184, 496
-0.958684, 1, 321, 128, 448
-0.958912, 265, 225, 328, 352
-0.959696, 265, 177, 328, 304
-0.959822, 161, 161, 288, 288
-0.959843, 217, 1, 280, 128
-0.960051, 257, 81, 320, 208
-0.960114, 65, 321, 128, 448
-0.960144, 257, 337, 320, 464
-0.960418, 33, 161, 288, 288
-0.960636, 225, 177, 288, 304
-0.960727, 169, 81, 232, 144
-0.961182, 145, 1, 272, 128
-0.961324, 89, 353, 152, 416
-0.962002, 233, 113, 296, 176
-0.962166, 265, 145, 328, 208
-0.962269, 209, 177, 335, 304
-0.962651, 273, 241, 335, 304
-0.962673, 25, 241, 88, 368
-0.962969, 161, 1, 224, 128
-0.963254, 161, 209, 288, 336
-0.96331, 25, 129, 88, 256
-0.964523, 105, 329, 168, 392
-0.964591, 49, 225, 176, 352
-0.964623, 201, 129, 264, 256
-0.964642, 257, 1, 320, 256
-0.965132, 265, 17, 328, 144
-0.965153, 105, 289, 168, 416
-0.967178, 25, 97, 88, 160
-0.967481, 129, 97, 192, 160
-0.9677, 33, 305, 96, 432
-0.967761, 145, 353, 208, 416
-0.96785, 201, 105, 264, 168
-0.967931, 249, 289, 312, 416
-0.968145, 233, 353, 296, 480
-0.968533, 161, 57, 224, 120
-0.968578, 121, 385, 184, 448
-0.968602, 129, 321, 192, 384
-0.968694, 49, 1, 176, 128
-0.968915, 121, 33, 184, 160
-0.969013, 185, 177, 248, 240
-0.969193, 17, 49, 144, 176
-0.969402, 209, 289, 335, 416
-0.969563, 177, 105, 240, 168
-0.969742, 257, 329, 320, 392
-0.969932, 129, 113, 256, 240
-0.970039, 17, 73, 80, 136
-0.97005, 97, 241, 224, 368
-0.97077, 57, 1, 120, 128
-0.970861, 97, 369, 224, 496
-0.971333, 161, 321, 288, 448
-0.971656, 273, 185, 335, 248
-0.971665, 129, 321, 160, 448
-0.97174, 129, 273, 192, 400
-0.971749, 265, 353, 328, 416
-0.971764, 81, 329, 144, 392
-0.971976, 233, 9, 296, 72
-0.971978, 153, 313, 216, 376
-0.972008, 233, 1, 296, 256
-0.972153, 161, 257, 224, 384
-0.972201, 161, 281, 224, 344
-0.972381, 273, 129, 335, 384
-0.972507, 153, 361, 184, 424
-0.972524, 25, 177, 88, 304
-0.972649, 57, 329, 120, 392
-0.972788, 177, 9, 304, 72
-0.972848, 133, 337, 164, 400
-0.972983, 25, 305, 88, 368
-0.9731, 225, 65, 288, 192
-0.973144, 25, 121, 88, 184
-0.973197, 273, 17, 335, 80
-0.973323, 17, 33, 80, 96
-0.973323, 97, 377, 160, 440
-0.973535, 81, 329, 208, 392
-0.97362, 145, 97, 208, 224
-0.973666, 273, 377, 335, 440
-0.973716, 65, 257, 128, 384
-0.97381, 209, 113, 335, 176
-0.974309, 209, 129, 272, 192
-0.97433, 65, 369, 128, 496
-0.974374, 225, 225, 288, 352
-0.974406, 209, 225, 335, 352
-0.974664, 209, 153, 335, 216
-0.97478, 281, 337, 312, 400
-0.974839, 145, 313, 176, 376
-0.974907, 145, 33, 208, 96
-0.975018, 121, 33, 184, 96
-0.975051, 273, 273, 335, 400
-0.975141, 129, 33, 160, 96
-0.975168, 1, 369, 128, 496
-0.975206, 193, 1, 224, 128
-0.975224, 97, 17, 224, 144
-0.975331, 209, 9, 272, 72
-0.975361, 65, 369, 128, 432
-0.975374, 285, 121, 316, 184
-0.975505, 129, 281, 192, 344
-0.975591, 273, 209, 335, 272
-0.975676, 1, 81, 64, 208
-0.975699, 173, 225, 204, 352
-0.975797, 225, 201, 288, 264
-0.975887, 153, 305, 184, 432
-0.975949, 193, 177, 256, 304
-0.976007, 25, 145, 88, 208
-0.97613, 265, 89, 328, 152
-0.97614, 25, 249, 88, 312
-0.976225, 209, 337, 335, 400
-0.976284, 109, 345, 140, 408
-0.976337, 145, 73, 272, 136
-0.976665, 249, 377, 312, 440
-0.976733, 285, 113, 316, 240
-0.976881, 261, 313, 292, 376
-0.97704, 97, 193, 224, 320
-0.977059, 1, 305, 64, 432
-0.977175, 225, 177, 288, 240
-0.977215, 193, 81, 256, 144
-0.977302, 125, 361, 156, 424
-0.977382, 217, 409, 280, 472
-0.977424, 161, 73, 192, 136
-0.977453, 305, 105, 335, 168
-0.977531, 25, 169, 88, 232
-0.977542, 145, 313, 272, 376
-0.977592, 261, 113, 292, 240
-0.977595, 153, 353, 216, 480
-0.977598, 49, 113, 176, 240
-0.977637, 165, 305, 196, 368
-0.977665, 9, 369, 72, 496
-0.977672, 225, 377, 288, 440
-0.977704, 241, 225, 304, 288
-0.977805, 221, 113, 252, 176
-0.977817, 145, 161, 208, 288
-0.977843, 193, 201, 256, 264
-0.977921, 161, 257, 224, 320
-0.977934, 145, 369, 272, 496
-0.978067, 65, 361, 192, 424
-0.978087, 197, 113, 228, 176
-0.978103, 25, 209, 88, 272
-0.978141, 25, 65, 88, 320
-0.978246, 273, 113, 304, 240
-0.978278, 161, 145, 288, 208
-0.978418, 25, 225, 88, 480
-0.978441, 93, 337, 124, 400
-0.9786, 169, 137, 232, 200
-0.978693, 181, 65, 212, 192
-0.978717, 57, 65, 120, 192
-0.978739, 129, 57, 192, 120
-0.978806, 149, 337, 180, 400
-0.979011, 141, 321, 172, 448
-0.979028, 249, 97, 280, 224
-0.97909, 1, 97, 128, 224
-0.97923, 305, 177, 335, 304
-0.97931, 253, 345, 284, 408
-0.979332, 261, 113, 292, 176
-0.979362, 265, 257, 296, 384
-0.97942, 237, 377, 268, 440
-0.979567, 33, 369, 96, 496
-0.979616, 241, 97, 304, 352
-0.979712, 161, 105, 288, 168
-0.979809, 189, 1, 220, 64
-0.979821, 57, 89, 120, 152
-0.979894, 33, 17, 160, 80
-0.979907, 25, 281, 88, 344
-0.98006, 241, 153, 304, 216
-0.98014, 201, 137, 232, 200
-0.980156, 145, 385, 208, 448
-0.980232, 277, 321, 308, 448
-0.980474, 145, 201, 208, 264
-0.98056, 125, 313, 156, 376
-0.980699, 221, 97, 252, 224
-0.980709, 201, 1, 232, 64
-0.980768, 213, 1, 244, 128
-0.980803, 173, 265, 204, 328
-0.980913, 193, 73, 224, 136
-0.980963, 57, 393, 120, 456
-0.980969, 161, 329, 192, 392
-0.981061, 117, 337, 148, 464
-0.981069, 197, 65, 228, 192
-0.98112, 81, 41, 208, 104
-0.981158, 165, 273, 196, 400
-0.981176, 301, 361, 332, 424
-0.981224, 149, 385, 180, 448
-0.981238, 153, 105, 216, 168
-0.981252, 161, 65, 192, 192
-0.981381, 169, 161, 232, 288
-0.98139, 181, 73, 212, 136
-0.981402, 65, 113, 128, 176
-0.981481, 237, 1, 268, 128
-0.981525, 97, 337, 128, 464
-0.981637, 57, 17, 120, 80
-0.981704, 209, 209, 335, 272
-0.981735, 9, 9, 72, 72
-0.981738, 121, 81, 184, 208
-0.981848, 1, 257, 64, 384
-0.981904, 49, 281, 176, 344
-0.981939, 293, 177, 324, 304
-0.981994, 297, 129, 328, 256
-0.982018, 213, 1, 244, 64
-0.982104, 49, 177, 176, 304
-0.982115, 129, 337, 256, 400
-0.982242, 209, 369, 272, 496
-0.982331, 17, 65, 48, 128
-0.982368, 89, 361, 120, 424
-0.982374, 225, 81, 288, 144
-0.982399, 129, 9, 256, 72
-0.982416, 273, 1, 304, 128
-0.98242, 33, 89, 64, 152
-0.982527, 65, 113, 128, 240
-0.982563, 301, 233, 332, 296
-0.982569, 17, 1, 80, 500
-0.982631, 245, 113, 276, 176
-0.982638, 137, 257, 200, 320
-0.982676, 297, 17, 328, 144
-0.982703, 169, 1, 232, 256
-0.982744, 225, 289, 288, 416
-0.982751, 269, 249, 300, 312
-0.982812, 33, 401, 96, 464
-0.98282, 57, 281, 120, 344
-0.982827, 249, 409, 312, 472
-0.98286, 45, 97, 76, 224
-0.982869, 209, 89, 240, 152
-0.982992, 33, 329, 160, 392
-0.983124, 181, 193, 212, 256
-0.983185, 209, 81, 335, 144
-0.983187, 237, 97, 268, 224
-0.983219, 65, 305, 128, 368
-0.98327, 45, 105, 76, 168
-0.983271, 65, 305, 192, 368
-0.983305, 229, 145, 260, 272
-0.983473, 193, 65, 256, 320
-0.983473, 257, 1, 288, 128
-0.983502, 97, 49, 160, 176
-0.983516, 209, 153, 272, 216
-0.983651, 301, 177, 332, 240
-0.983727, 261, 161, 292, 288
-0.98384, 57, 257, 120, 500
-0.983856, 145, 9, 208, 72
-0.983872, 49, 1, 112, 256
-0.983876, 137, 257, 200, 500
-0.984008, 65, 321, 96, 448
-0.984035, 197, 129, 228, 256
-0.984054, 1, 97, 64, 160
-0.984069, 169, 201, 232, 264
-0.984101, 137, 177, 200, 240
-0.984157, 113, 97, 240, 160
-0.984231, 305, 81, 335, 208
-0.984267, 57, 209, 120, 336
-0.984283, 161, 201, 288, 264
-0.984289, 225, 1, 256, 128
-0.984291, 257, 305, 320, 368
-0.984381, 289, 305, 320, 432
-0.984406, 237, 9, 268, 72
-0.98441, 9, 49, 40, 176
-0.984474, 81, 385, 208, 448
-0.984567, 177, 1, 208, 128
-0.984604, 57, 249, 120, 312
-0.984643, 113, 321, 144, 384
-0.984694, 17, 361, 144, 424
-0.984694, 149, 33, 180, 160
-0.984715, 169, 385, 232, 448
-0.984763, 225, 137, 256, 200
-0.984861, 273, 225, 304, 288
-0.984879, 273, 297, 304, 360
-0.984894, 269, 345, 300, 408
-0.984895, 217, 129, 280, 384
-0.984898, 257, 1, 320, 500
-0.984983, 229, 201, 260, 264
-0.984991, 161, 281, 192, 344
-0.985009, 209, 361, 335, 424
-0.985052, 157, 97, 188, 160
-0.9851, 105, 105, 168, 168
-0.985142, 1, 209, 128, 336
-0.985155, 1, 393, 64, 456
-0.985331, 1, 65, 128, 128
-0.985358, 281, 193, 312, 320
-0.98539, 253, 9, 284, 72
-0.985409, 161, 257, 224, 500
-0.985436, 145, 257, 272, 320
-0.985484, 1, 393, 128, 456
-0.985594, 273, 401, 335, 464
-0.985612, 185, 1, 248, 500
-0.985668, 33, 329, 96, 392
-0.985668, 29, 81, 60, 208
-0.985735, 193, 161, 224, 224
-0.985756, 265, 153, 296, 216
-0.985775, 85, 321, 116, 448
-0.985781, 209, 81, 240, 208
-0.9858, 177, 353, 240, 480
-0.985822, 149, 369, 180, 496
-0.985833, 213, 137, 244, 200
-0.985854, 285, 1, 316, 128
-0.985876, 273, 121, 304, 184
-0.985909, 137, 361, 168, 424
-0.985919, 157, 257, 188, 320
-0.985958, 185, 265, 248, 328
-0.985963, 97, 257, 224, 320
-0.985983, 41, 1, 72, 128
-0.986105, 1, 33, 64, 288
-0.98614, 241, 353, 304, 416
-0.986157, 1, 321, 64, 384
-0.986174, 133, 33, 164, 160
-0.986211, 129, 41, 256, 104
-0.986242, 45, 81, 76, 144
-0.986266, 49, 65, 176, 128
-0.986283, 45, 49, 76, 176
-0.98629, 141, 41, 172, 104
-0.986305, 49, 249, 176, 312
-0.986315, 185, 225, 216, 352
-0.986382, 97, 33, 160, 96
-0.986461, 149, 81, 180, 208
-0.98657, 217, 145, 248, 272
-0.986611, 41, 65, 104, 128
-0.986638, 161, 177, 288, 240
-0.986656, 1, 41, 32, 104
-0.986775, 185, 257, 248, 384
-0.986775, 241, 265, 304, 328
-0.986792, 265, 65, 296, 192
-0.986828, 305, 241, 335, 368
-0.986853, 113, 193, 240, 256
-0.986862, 285, 145, 316, 208
-0.986889, 1, 297, 64, 360
-0.986903, 185, 145, 216, 272
-0.986914, 177, 233, 304, 296
-0.986917, 209, 177, 335, 240
-0.987032, 241, 137, 272, 200
-0.98704, 17, 41, 144, 104
-0.987043, 1, 273, 64, 336
-0.98705, 225, 9, 256, 72
-0.987066, 209, 313, 335, 376
-0.987093, 265, 281, 328, 344
-0.987093, 209, 353, 272, 416
-0.987118, 161, 209, 224, 336
-0.987191, 177, 241, 208, 304
-0.987214, 113, 289, 144, 416
-0.987244, 113, 361, 240, 424
-0.987245, 169, 129, 232, 384
-0.987252, 233, 177, 264, 240
-0.987319, 101, 369, 132, 432
-0.987325, 289, 393, 320, 456
-0.987393, 105, 65, 168, 128
-0.987396, 241, 433, 304, 496
-0.987415, 285, 313, 316, 376
-0.987425, 209, 1, 272, 500
-0.987469, 145, 433, 272, 496
-0.987495, 305, 353, 335, 480
-0.987511, 1, 281, 128, 344
-0.987519, 161, 1, 224, 500
-0.98753, 145, 1, 208, 256
-0.987557, 249, 185, 312, 248
-0.987592, 289, 249, 320, 312
-0.987774, 177, 97, 208, 160
-0.98779, 97, 73, 224, 136
-0.987797, 301, 17, 332, 80
-0.987868, 161, 169, 224, 232
-0.987883, 269, 209, 300, 336
-0.987968, 169, 25, 232, 88
-0.987986, 301, 393, 332, 456
-0.988033, 305, 153, 335, 216
-0.988054, 293, 89, 324, 152
-0.988122, 209, 433, 272, 496
-0.98817, 1, 257, 64, 500
-0.988239, 17, 89, 144, 152
-0.988255, 165, 113, 196, 240
-0.988255, 293, 241, 324, 368
-0.988271, 269, 273, 300, 336
-0.988276, 69, 329, 100, 392
-0.98833, 137, 273, 168, 400
-0.988361, 277, 17, 308, 80
-0.988388, 265, 305, 296, 432
-0.988418, 237, 337, 268, 464
-0.988436, 145, 401, 272, 464
-0.988522, 285, 65, 316, 192
-0.988545, 105, 305, 168, 368
-0.988546, 161, 409, 224, 472
-0.988554, 161, 193, 192, 320
-0.988565, 257, 225, 320, 480
-0.988599, 129, 409, 192, 472
-0.988642, 225, 409, 256, 472
-0.988645, 65, 137, 128, 200
-0.988646, 145, 289, 272, 352
-0.988681, 65, 273, 96, 400
-0.988682, 233, 313, 296, 376
-0.988682, 193, 409, 256, 472
-0.988684, 65, 409, 192, 472
-0.988692, 213, 161, 244, 224
-0.988706, 301, 305, 332, 432
-0.988737, 177, 305, 240, 432
-0.988771, 253, 337, 284, 464
-0.988877, 81, 329, 112, 392
-0.988931, 121, 1, 184, 256
-0.988954, 281, 257, 312, 384
-0.98904, 209, 393, 335, 456
-0.989068, 25, 377, 88, 440
-0.989108, 169, 345, 232, 408
-0.98917, 41, 241, 72, 368
-0.989189, 89, 225, 152, 480
-0.989201, 145, 281, 176, 344
-0.989212, 173, 41, 204, 104
-0.98924, 193, 161, 256, 416
-0.989247, 161, 233, 224, 296
-0.989285, 137, 393, 168, 456
-0.989328, 33, 9, 96, 72
-0.989334, 285, 217, 316, 280
-0.989381, 177, 33, 304, 96
-0.989492, 161, 93, 224, 124
-0.989493, 65, 433, 192, 496
-0.989495, 137, 97, 200, 128
-0.989578, 49, 225, 176, 288
-0.989673, 89, 361, 152, 392
-0.989695, 265, 9, 296, 72
-0.989707, 65, 321, 320, 384
-0.989712, 193, 185, 224, 248
-0.989748, 193, 9, 256, 40
-0.989762, 241, 345, 272, 408
-0.989766, 1, 257, 128, 320
-0.989789, 121, 393, 184, 424
-0.98979, 249, 145, 280, 272
-0.989802, 129, 357, 192, 388
-0.989813, 209, 113, 240, 176
-0.989819, 77, 361, 108, 424
-0.989823, 45, 57, 76, 120
-0.989871, 169, 321, 200, 448
-0.989884, 169, 369, 200, 432
-0.989896, 145, 89, 176, 152
-0.989902, 293, 337, 324, 400
-0.989915, 249, 177, 280, 240
-0.989933, 97, 169, 224, 232
-0.98995, 293, 353, 324, 480
-0.99004, 113, 257, 176, 500
-0.990047, 257, 125, 320, 156
-0.990051, 165, 393, 196, 456
-0.990064, 65, 17, 96, 144
-0.99008, 289, 369, 320, 432
-0.990161, 45, 129, 76, 192
-0.990177, 17, 305, 144, 368
-0.990224, 265, 173, 328, 204
-0.990238, 161, 81, 224, 112
-0.990274, 121, 177, 184, 304
-0.990274, 121, 369, 184, 400
-0.990287, 149, 257, 180, 384
-0.990307, 289, 17, 320, 80
-0.99032, 105, 345, 168, 376
-0.990339, 57, 225, 120, 288
-0.990352, 1, 145, 128, 272
-0.99036, 137, 225, 200, 352
-0.990375, 181, 153, 212, 216
-0.990385, 233, 117, 296, 148
-0.990391, 257, 273, 288, 336
-0.990428, 257, 141, 320, 172
-0.990456, 241, 49, 272, 176
-0.990459, 305, 129, 335, 192
-0.990476, 133, 369, 164, 496
-0.990488, 53, 305, 84, 432
-0.990503, 177, 305, 240, 368
-0.990503, 201, 385, 264, 448
-0.990506, 113, 377, 144, 440
-0.990526, 169, 209, 200, 272
-0.990588, 249, 369, 280, 432
-0.990599, 225, 209, 288, 240
-0.990604, 65, 281, 96, 344
-0.9907, 233, 1, 296, 500
-0.990701, 201, 117, 264, 148
-0.990726, 193, 209, 256, 240
-0.990743, 273, 249, 335, 280
-0.990748, 141, 65, 172, 128
-0.990759, 145, 45, 208, 76
-0.99076, 177, 109, 240, 140
-0.990774, 25, 97, 88, 128
-0.990781, 209, 137, 272, 168
-0.990854, 21, 33, 52, 160
-0.990855, 73, 377, 136, 408
-0.990859, 273, 161, 335, 192
-0.990913, 201, 305, 264, 432
-0.990916, 97, 381, 160, 412
-0.990917, 129, 321, 192, 352
-0.990925, 297, 209, 328, 272
-0.990944, 177, 121, 240, 152
-0.990945, 209, 417, 335, 480
-0.990957, 185, 197, 248, 228
-0.990976, 37, 369, 68, 496
-0.990981, 265, 361, 328, 392
-0.990983, 201, 105, 264, 136
-0.991016, 81, 1, 144, 128
-0.991024, 25, 109, 88, 140
-0.99103, 273, 217, 335, 248
-0.991047, 177, 145, 240, 176
-0.991098, 121, 49, 184, 80
-0.991108, 153, 49, 184, 112
-0.991114, 17, 85, 80, 116
-0.991141, 189, 49, 220, 112
-0.991142, 273, 109, 335, 140
-0.991154, 25, 121, 88, 152
-0.991182, 257, 337, 320, 368
-0.9912, 249, 381, 312, 412
-0.991212, 117, 33, 148, 96
-0.991249, 1, 1, 256, 64
-0.991251, 21, 305, 52, 432
-0.99126, 209, 289, 335, 352
-0.991288, 217, 13, 280, 44
-0.991288, 265, 349, 328, 380
-0.99129, 97, 313, 128, 376
-0.991327, 49, 193, 80, 320
-0.99133, 81, 349, 144, 380
-0.991332, 113, 109, 176, 140
-0.99135, 265, 21, 328, 52
-0.991356, 25, 321, 88, 352
-0.99138, 25, 261, 88, 292
-0.991395, 129, 333, 192, 364
-0.991397, 161, 289, 224, 320
-0.991409, 65, 425, 128, 488
-0.991412, 25, 141, 88, 172
-0.991419, 97, 397, 160, 428
-0.991423, 241, 17, 304, 48
-0.991425, 137, 285, 200, 316
-0.991425, 153, 321, 216, 352
-0.991439, 17, 49, 80, 80
-0.991446, 25, 229, 88, 260
-0.991499, 161, 189, 224, 220
-0.991502, 273, 237, 335, 268
-0.991503, 273, 401, 335, 432
-0.991504, 65, 345, 320, 408
-0.99153, 17, 417, 144, 480
-0.991532, 153, 309, 216, 340
-0.991546, 185, 85, 248, 116
-0.991551, 17, 61, 80, 92
-0.991561, 145, 405, 208, 436
-0.991574, 57, 105, 120, 136
-0.991596, 25, 249, 88, 280
-0.991602, 25, 165, 88, 196
-0.991628, 221, 433, 252, 496
-0.991638, 249, 413, 312, 444
-0.99164, 177, 133, 240, 164
-0.991641, 273, 185, 335, 216
-0.991645, 65, 97, 96, 160
-0.991669, 97, 45, 160, 76
-0.991678, 9, 421, 72, 452
-0.991682, 25, 153, 88, 184
-0.991703, 73, 333, 136, 364
-0.991709, 65, 361, 128, 392
-0.991723, 121, 381, 184, 412
-0.991727, 145, 209, 208, 240
-0.991752, 81, 1, 144, 64
-0.991784, 193, 57, 320, 120
-0.991786, 25, 73, 88, 104
-0.991793, 57, 161, 120, 288
-0.99181, 161, 357, 224, 388
-0.991814, 145, 389, 208, 420
-0.991816, 41, 1, 104, 500
-0.991829, 25, 177, 88, 208
-0.991837, 233, 197, 296, 228
-0.991844, 9, 405, 72, 436
-0.991848, 65, 169, 128, 232
-0.991875, 161, 65, 224, 96
-0.991876, 1, 25, 256, 88
-0.99188, 121, 37, 184, 68
-0.991889, 9, 37, 72, 68
-0.991894, 249, 157, 312, 188
-0.991909, 209, 469, 272, 500
-0.99191, 145, 33, 208, 64
-0.991916, 305, 313, 335, 376
-0.991916, 65, 193, 128, 256
-0.991927, 25, 217, 88, 248
-0.991934, 265, 261, 328, 292
-0.991947, 25, 309, 88, 340
-0.991955, 1, 73, 256, 136
-0.991965, 185, 181, 248, 212
-0.991966, 217, 409, 280, 440
-0.991967, 33, 333, 96, 364
-0.991968, 25, 273, 88, 304
-0.991983, 1, 49, 256, 112
-0.991983, 177, 157, 240, 188
-0.991984, 273, 373, 335, 404
-0.991991, 129, 309, 192, 340
-0.991995, 177, 273, 240, 304
-0.991996, 89, 117, 152, 148
-0.992002, 49, 121, 112, 152
-0.992003, 129, 61, 192, 92
-0.992022, 225, 157, 288, 188
-0.992024, 113, 433, 176, 496
-0.992033, 41, 393, 72, 456
-0.992039, 217, 421, 280, 452
-0.992039, 57, 161, 120, 416
-0.992041, 25, 285, 88, 316
-0.992047, 33, 421, 96, 452
-0.992052, 171, 289, 186, 352
-0.99206, 49, 21, 112, 52
-0.992074, 225, 377, 288, 408
-0.992089, 57, 97, 88, 224
-0.992095, 201, 149, 264, 180
-0.992095, 161, 261, 224, 292
-0.992098, 185, 241, 248, 304
-0.9921, 49, 405, 112, 436
-0.992107, 25, 197, 88, 228
-0.99211, 65, 225, 96, 352
-0.992121, 49, 1, 112, 32
-0.992149, 209, 193, 240, 320
-0.992166, 145, 109, 208, 140
-0.992167, 121, 405, 184, 436
-0.992167, 253, 401, 284, 464
-0.992176, 217, 193, 248, 256
-0.992185, 113, 121, 240, 184
-0.992186, 1, 73, 64, 104
-0.992195, 209, 177, 272, 208
-0.992219, 173, 177, 204, 304
-0.992221, 41, 85, 104, 116
-0.992231, 57, 269, 120, 300
-0.992241, 81, 1, 208, 64
-0.992258, 233, 277, 296, 308
-0.992259, 145, 129, 208, 192
-0.99226, 17, 121, 144, 184
-0.992287, 1, 325, 64, 356
-0.992289, 253, 153, 284, 216
-0.992301, 169, 85, 200, 116
-0.992324, 217, 273, 280, 336
-0.992331, 169, 209, 232, 240
-0.992333, 57, 321, 120, 352
-0.992341, 57, 285, 120, 316
-0.992366, 233, 225, 296, 256
-0.992386, 273, 417, 335, 448
-0.992388, 49, 133, 112, 164
-0.99239, 273, 385, 335, 416
-0.992393, 33, 297, 96, 328
-0.9924, 89, 361, 120, 392
-0.992411, 249, 401, 312, 432
-0.992416, 137, 73, 200, 104
-0.99242, 277, 409, 308, 472
-0.992422, 193, 413, 256, 444
-0.992437, 165, 169, 196, 232
-0.992437, 173, 73, 204, 104
-0.992447, 137, 97, 168, 224
-0.992485, 21, 241, 52, 368
-0.992488, 121, 45, 152, 76
-0.992492, 305, 113, 335, 144
-0.9925, 149, 381, 180, 412
-0.992514, 125, 345, 156, 376
-0.992527, 137, 349, 168, 380
-0.992528, 305, 101, 335, 132
-0.992544, 249, 193, 280, 320
-0.992546, 165, 309, 196, 340
-0.992548, 145, 337, 176, 368
-0.992552, 149, 325, 180, 356
-0.992576, 161, 97, 192, 128
-0.992583, 289, 169, 320, 232
-0.992585, 285, 341, 316, 372
-0.992604, 97, 233, 224, 296
-0.992624, 273, 433, 335, 496
-0.992628, 229, 209, 260, 240
-0.992645, 149, 161, 180, 288
-0.992648, 81, 385, 112, 448
-0.99265, 109, 365, 140, 396
-0.992653, 73, 369, 104, 496
-0.992656, 177, 297, 208, 360
-0.992657, 181, 89, 212, 120
-0.99266, 137, 361, 168, 392
-0.992667, 9, 393, 40, 456
-0.992669, 173, 205, 204, 236
-0.992679, 49, 145, 80, 272
-0.992681, 65, 121, 96, 184
-0.992682, 141, 49, 172, 80
-0.992688, 149, 393, 180, 424
-0.992693, 233, 113, 264, 176
-0.99271, 129, 333, 160, 364
-0.992716, 145, 101, 176, 132
-0.99272, 153, 361, 184, 392
-0.992722, 45, 289, 76, 352
-0.99273, 169, 293, 200, 324
-0.992735, 201, 145, 232, 176
-0.992739, 61, 393, 92, 456
-0.992744, 129, 385, 160, 416
-0.992747, 173, 261, 204, 292
-0.992753, 281, 97, 312, 160
-0.99276, 257, 337, 288, 368
-0.992768, 293, 249, 324, 280
-0.992776, 9, 417, 72, 480
-0.99278, 113, 145, 240, 208
-0.992796, 193, 81, 224, 112
-0.992803, 253, 273, 284, 400
-0.992805, 161, 325, 192, 356
-0.992809, 297, 181, 328, 212
-0.992821, 253, 117, 284, 148
-0.99283, 201, 5, 232, 36
-0.992834, 185, 193, 216, 224
-0.992837, 129, 57, 160, 88
-0.992842, 45, 85, 76, 116
-0.992854, 285, 121, 316, 152
-0.992857, 125, 369, 156, 400
-0.992861, 145, 313, 176, 344
-0.992863, 201, 93, 232, 124
-0.992863, 173, 345, 204, 408
-0.992868, 1, 9, 335, 72
-0.992888, 125, 109, 156, 140
-0.99289, 197, 133, 228, 164
-0.992892, 133, 37, 164, 68
-0.992901, 161, 265, 192, 296
-0.99291, 269, 337, 300, 368
-0.992914, 161, 73, 192, 104
-0.992917, 205, 113, 236, 144
-0.992919, 285, 137, 316, 168
-0.992927, 305, 241, 335, 272
-0.992928, 109, 353, 140, 384
-0.992929, 185, 205, 216, 236
-0.992931, 257, 153, 288, 184
-0.992933, 305, 129, 335, 160
-0.992936, 261, 317, 292, 348
-0.992941, 217, 113, 248, 144
-0.992962, 261, 209, 292, 272
-0.992963, 37, 417, 68, 448
-0.992964, 157, 337, 188, 368
-0.992966, 249, 361, 280, 392
-0.992967, 217, 133, 248, 164
-0.992977, 237, 13, 268, 44
-0.992985, 177, 101, 208, 132
-0.99299, 305, 373, 335, 404
-0.992994, 273, 125, 304, 156
-0.992996, 261, 141, 292, 172
-0.993001, 45, 109, 76, 140
-0.993005, 201, 157, 232, 188
-0.993006, 153, 349, 184, 380
-0.993008, 97, 345, 128, 376
-0.993021, 293, 401, 324, 432
-0.993023, 173, 273, 204, 304
-0.99303, 265, 277, 296, 308
-0.993031, 273, 325, 304, 356
-0.993034, 157, 85, 188, 116
-0.993038, 1, 233, 128, 296
-0.993039, 237, 381, 268, 412
-0.99304, 157, 293, 188, 324
-0.993041, 265, 17, 296, 48
-0.993042, 265, 349, 296, 380
-0.993045, 241, 113, 272, 144
-0.99305, 101, 377, 132, 408
-0.993052, 217, 9, 248, 40
-0.993053, 45, 97, 76, 128
-0.993055, 121, 161, 184, 416
-0.993061, 153, 61, 184, 92
-0.993066, 137, 397, 168, 428
-0.993067, 229, 117, 260, 148
-0.993069, 137, 373, 168, 404
-0.993072, 173, 249, 204, 280
-0.993082, 33, 257, 288, 320
-0.993084, 169, 433, 232, 496
-0.993086, 209, 257, 335, 320
-0.993092, 249, 13, 280, 44
-0.993094, 189, 273, 220, 400
-0.993098, 305, 25, 335, 56
-0.993103, 245, 149, 276, 180
-0.993114, 33, 97, 64, 128
-0.993115, 285, 21, 316, 52
-0.993123, 21, 405, 52, 436
-0.993123, 65, 105, 320, 168
-0.993125, 245, 137, 276, 168
-0.993127, 281, 157, 312, 188
-0.993127, 281, 257, 312, 288
-0.99313, 173, 217, 204, 248
-0.993133, 193, 113, 224, 144
-0.993136, 189, 9, 220, 40
-0.993138, 305, 161, 335, 192
-0.993138, 173, 61, 204, 92
-0.993138, 153, 45, 184, 76
-0.993142, 117, 333, 148, 364
-0.993151, 221, 145, 252, 176
-0.993154, 41, 405, 72, 436
-0.993156, 185, 133, 216, 164
-0.993158, 85, 373, 116, 404
-0.993161, 285, 413, 316, 444
-0.993164, 265, 165, 296, 196
-0.993171, 1, 321, 32, 448
-0.993173, 189, 157, 220, 188
-0.99318, 149, 409, 180, 440
-0.99318, 113, 381, 144, 412
-0.993184, 285, 237, 316, 268
-0.993189, 21, 85, 52, 116
-0.993189, 125, 321, 156, 352
-0.993193, 217, 193, 248, 224
-0.993195, 289, 169, 320, 200
-0.9932, 209, 173, 240, 204
-0.993201, 45, 121, 76, 152
-0.993203, 293, 109, 324, 140
-0.993209, 289, 353, 320, 384
-0.993211, 225, 409, 256, 440
-0.993216, 185, 229, 216, 260
-0.993226, 125, 397, 156, 428
-0.993227, 293, 365, 324, 396
-0.993229, 177, 305, 208, 336
-0.993229, 225, 177, 256, 208
-0.993231, 305, 149, 335, 180
-0.993233, 249, 381, 280, 412
-0.993252, 57, 41, 120, 104
-0.993281, 167, 313, 182, 376
-0.993391, 161, 377, 288, 440
-0.993455, 177, 13, 304, 44
-0.993569, 141, 321, 156, 384
-0.993595, 57, 369, 88, 496
-0.99368, 105, 241, 168, 368
-0.993745, 193, 33, 256, 96
-0.993753, 221, 369, 252, 496
-0.99381, 265, 65, 328, 128
-0.993829, 53, 257, 84, 384
-0.993831, 225, 209, 256, 336
-0.993862, 97, 281, 224, 344
-0.993883, 181, 249, 196, 312
-0.993886, 65, 297, 320, 360
-0.993914, 281, 369, 312, 496
-0.99392, 125, 273, 156, 400
-0.993921, 169, 369, 200, 496
-0.993926, 145, 433, 208, 496
-0.993933, 17, 201, 144, 264
-0.993944, 177, 273, 208, 400
-0.993954, 149, 209, 180, 336
-0.994044, 33, 425, 96, 488
-0.994082, 49, 145, 176, 208
-0.994118, 65, 1, 128, 500
-0.994132, 119, 353, 134, 416
-0.994141, 129, 97, 256, 128
-0.994158, 9, 257, 40, 384
-0.994192, 193, 117, 320, 148
-0.994198, 1, 249, 64, 312
-0.994209, 121, 33, 152, 160
-0.99422, 65, 65, 192, 192
-0.994338, 65, 209, 320, 272
-0.994404, 175, 265, 190, 328
-0.994444, 229, 49, 260, 176
-0.994445, 149, 329, 164, 392
-0.994469, 173, 65, 188, 128
-0.994478, 9, 369, 40, 496
-0.99449, 209, 137, 335, 168
-0.994533, 89, 1, 152, 256
-0.994549, 81, 329, 208, 360
-0.99457, 189, 193, 204, 256
-0.9946, 319, 217, 334, 280
-0.994607, 205, 353, 236, 480
-0.994619, 257, 353, 272, 416
-0.994642, 1, 97, 335, 160
-0.994648, 145, 97, 208, 352
-0.994681, 85, 273, 116, 400
-0.9947, 49, 177, 176, 240
-0.994735, 321, 193, 335, 256
-0.994758, 137, 1, 200, 500
-0.994806, 77, 1, 108, 128
-0.99482, 33, 145, 288, 208
-0.994824, 179, 65, 194, 128
-0.99486, 217, 121, 232, 184
-0.994878, 1, 337, 335, 400
-0.994909, 279, 121, 294, 184
-0.99492, 113, 345, 128, 408
-0.994946, 131, 329, 146, 392
-0.994954, 269, 113, 284, 176
-0.995039, 161, 329, 176, 392
-0.995042, 143, 33, 158, 96
-0.995104, 209, 173, 335, 204
-0.995125, 155, 361, 170, 424
-0.995129, 105, 353, 120, 416
-0.995176, 103, 329, 118, 392
-0.995184, 209, 157, 335, 188
-0.995185, 209, 345, 335, 376
-0.995188, 145, 81, 272, 112
-0.995191, 313, 233, 328, 296
-0.99521, 207, 129, 222, 192
-0.995211, 265, 353, 296, 480
-0.995214, 21, 369, 52, 496
-0.995227, 81, 341, 208, 372
-0.995259, 97, 329, 112, 392
-0.995261, 93, 353, 108, 416
-0.995325, 183, 193, 198, 256
-0.995353, 261, 1, 292, 256
-0.995356, 261, 329, 276, 392
-0.99536, 131, 33, 146, 96
-0.99539, 1, 361, 335, 424
-0.995436, 33, 37, 160, 68
-0.995452, 211, 81, 226, 144
-0.995453, 281, 217, 296, 280
-0.995468, 129, 361, 144, 424
-0.995475, 161, 353, 176, 416
-0.995481, 1, 377, 256, 440
-0.995505, 189, 217, 204, 280
-0.99551, 289, 1, 320, 256
-0.995565, 145, 329, 272, 360
-0.995612, 155, 337, 170, 400
-0.995622, 1, 33, 335, 96
-0.995628, 185, 257, 248, 500
-0.995639, 99, 353, 114, 416
-0.995648, 125, 337, 140, 400
-0.99566, 203, 1, 218, 64
-0.99567, 279, 145, 294, 208
-0.995674, 221, 1, 236, 64
-0.995681, 101, 289, 132, 416
-0.995681, 97, 365, 224, 396
-0.995699, 307, 105, 322, 168
-0.995715, 165, 289, 180, 352
-0.995718, 223, 105, 238, 168
-0.995725, 149, 385, 164, 448
-0.995745, 315, 97, 330, 160
-0.995764, 65, 97, 192, 160
-0.995772, 299, 121, 314, 184
-0.995788, 185, 73, 200, 136
-0.995793, 161, 133, 288, 164
-0.995794, 285, 121, 300, 184
-0.995794, 149, 353, 164, 416
-0.995809, 145, 349, 272, 380
-0.995815, 273, 161, 288, 224
-0.995815, 97, 113, 224, 144
-0.995828, 207, 105, 222, 168
-0.995841, 141, 353, 156, 416
-0.995855, 237, 113, 252, 176
-0.995877, 229, 401, 244, 464
-0.995894, 91, 329, 106, 392
-0.995894, 273, 305, 288, 368
-0.995912, 1, 137, 335, 200
-0.995942, 231, 193, 246, 256
-0.995951, 315, 185, 330, 248
-0.995951, 305, 1, 335, 256
-0.995955, 263, 113, 278, 176
-0.995955, 273, 1, 304, 256
-0.995958, 227, 1, 242, 64
-0.995959, 165, 17, 196, 144
-0.99597, 155, 313, 170, 376
-0.995991, 1, 305, 335, 368
-0.995993, 305, 353, 320, 416
-0.995998, 97, 97, 160, 224
-0.996002, 163, 81, 178, 144
-0.996006, 215, 1, 230, 64
-0.996006, 195, 193, 210, 256
-0.996019, 1, 169, 128, 232
-0.996037, 33, 25, 160, 56
-0.996072, 161, 209, 288, 240
-0.996117, 213, 145, 228, 208
-0.99613, 197, 193, 228, 320
-0.996131, 275, 241, 290, 304
-0.996137, 209, 1, 224, 64
-0.996169, 65, 145, 96, 272
-0.996179, 217, 89, 232, 152
-0.996185, 137, 33, 152, 96
-0.99619, 321, 89, 335, 152
-0.996199, 191, 73, 206, 136
-0.99621, 33, 401, 288, 464
-0.996217, 251, 377, 266, 440
-0.996226, 1, 1, 32, 128
-0.996244, 161, 149, 288, 180
-0.996254, 33, 369, 160, 400
-0.996262, 247, 9, 262, 72
-0.996269, 299, 369, 314, 432
-0.99627, 177, 253, 304, 284
-0.996275, 85, 369, 116, 496
-0.996276, 97, 41, 224, 72
-0.996276, 309, 177, 324, 240
-0.996302, 255, 329, 270, 392
-0.996307, 239, 9, 254, 72
-0.996316, 57, 97, 72, 160
-0.99634, 265, 137, 280, 200
-0.996342, 199, 169, 214, 232
-0.996344, 181, 225, 196, 288
-0.996371, 173, 313, 188, 376
-0.996372, 115, 321, 130, 384
-0.996394, 275, 329, 290, 392
-0.996395, 81, 353, 208, 384
-0.996403, 1, 233, 256, 296
-0.99641, 33, 433, 288, 496
-0.996413, 149, 305, 164, 368
-0.99642, 177, 169, 192, 232
-0.996433, 1, 241, 335, 304
-0.996445, 225, 257, 288, 500
-0.996451, 165, 57, 180, 120
-0.996453, 205, 73, 220, 136
-0.996455, 135, 353, 150, 416
-0.996456, 253, 9, 268, 72
-0.996457, 307, 145, 322, 208
-0.99646, 197, 1, 212, 64
-0.996468, 177, 289, 192, 352
-0.99648, 233, 9, 248, 72
-0.996484, 197, 137, 212, 200
-0.996484, 249, 1, 280, 256
-0.996484, 321, 369, 335, 432
-0.996498, 201, 113, 216, 176
-0.996505, 247, 113, 262, 176
-0.996507, 237, 137, 252, 200
-0.996529, 167, 337, 182, 400
-0.99653, 209, 357, 335, 388
-0.996539, 307, 241, 322, 304
-0.996561, 269, 9, 284, 72
-0.996567, 149, 33, 164, 96
-0.996587, 243, 353, 258, 416
-0.99659, 185, 49, 200, 112
-0.996594, 59, 121, 74, 184
-0.996594, 283, 329, 298, 392
-0.996595, 17, 57, 32, 120
-0.996597, 301, 153, 316, 216
-0.996636, 87, 361, 102, 424
-0.996654, 235, 393, 250, 456
-0.99666, 311, 361, 326, 424
-0.996662, 283, 297, 298, 360
-0.996663, 129, 317, 256, 348
-0.996672, 113, 29, 240, 60
-0.996674, 321, 25, 335, 88
-0.996689, 259, 9, 274, 72
-0.996729, 191, 153, 206, 216
-0.99673, 209, 237, 335, 268
-0.996732, 1, 405, 128, 436
-0.996754, 177, 197, 304, 228
-0.996754, 291, 121, 306, 184
-0.996759, 169, 257, 184, 320
-0.99676, 49, 257, 176, 288
-0.996772, 169, 313, 184, 344
-0.996773, 289, 329, 304, 392
-0.996782, 33, 333, 160, 364
-0.996792, 177, 105, 304, 136
-0.996799, 1, 209, 64, 336
-0.996803, 97, 261, 224, 292
-0.996812, 49, 273, 176, 304
-0.996832, 145, 265, 272, 296
-0.996843, 257, 113, 272, 176
-0.996844, 311, 209, 326, 272
-0.996848, 281, 241, 296, 304
-0.996849, 313, 17, 328, 80
-0.996858, 193, 93, 320, 124
-0.996866, 281, 97, 312, 352
-0.996876, 287, 249, 302, 312
-0.996876, 97, 53, 224, 84
-0.996889, 161, 161, 288, 192
-0.996891, 265, 305, 280, 368
-0.996891, 297, 337, 312, 400
-0.996904, 185, 1, 216, 256
-0.996905, 303, 393, 318, 456
-0.996909, 321, 169, 335, 232
-0.996942, 17, 97, 144, 128
-0.996958, 209, 333, 335, 364
-0.996966, 209, 221, 335, 252
-0.99697, 1, 77, 128, 108
-0.996985, 319, 101, 334, 132
-0.997, 33, 317, 160, 348
-0.997006, 173, 301, 188, 332
-0.997015, 37, 145, 68, 272
-0.99702, 161, 65, 288, 96
-0.997053, 65, 389, 192, 420
-0.997102, 49, 285, 176, 316
-0.997131, 17, 97, 48, 224
-0.997147, 173, 89, 188, 120
-0.997178, 145, 461, 272, 492
-0.997186, 33, 185, 288, 248
-0.997197, 65, 409, 192, 440
-0.997198, 133, 37, 148, 68
-0.997217, 97, 77, 224, 108
-0.997225, 179, 73, 194, 104
-0.997231, 1, 49, 128, 80
-0.997242, 301, 129, 332, 384
-0.997242, 165, 333, 180, 364
-0.997248, 217, 289, 248, 416
-0.997257, 81, 101, 208, 132
-0.997262, 33, 289, 64, 416
-0.997274, 113, 205, 240, 236
-0.997293, 151, 357, 166, 388
-0.997308, 91, 357, 106, 388
-0.997318, 161, 437, 288, 468
-0.997336, 191, 197, 206, 228
-0.997353, 171, 289, 186, 320
-0.997354, 291, 337, 306, 368
-0.997386, 149, 389, 164, 420
-0.997391, 1, 269, 128, 300
-0.997395, 157, 257, 188, 500
-0.997398, 261, 341, 276, 372
-0.997401, 113, 377, 240, 408
-0.997401, 319, 113, 334, 144
-0.997405, 209, 185, 335, 216
-0.99741, 21, 193, 52, 320
-0.997411, 181, 257, 196, 288
-0.997416, 163, 93, 178, 124
-0.99742, 1, 65, 335, 128
-0.997438, 161, 353, 176, 384
-0.997447, 141, 333, 156, 364
-0.99746, 97, 273, 224, 304
-0.997461, 1, 65, 128, 96
-0.997468, 1, 385, 335, 448
-0.997478, 311, 241, 326, 272
-0.9975, 153, 341, 168, 372
-0.997505, 155, 373, 170, 404
-0.997506, 65, 121, 192, 184
-0.997513, 181, 89, 196, 120
-0.997521, 183, 205, 198, 236
-0.997533, 185, 73, 200, 104
-0.997547, 125, 369, 140, 400
-0.997551, 177, 225, 208, 480
-0.99757, 181, 321, 212, 448
-0.997581, 309, 105, 324, 136
-0.997601, 157, 97, 172, 128
-0.997601, 163, 321, 178, 352
-0.997605, 49, 85, 176, 116
-0.997606, 33, 109, 160, 140
-0.997617, 171, 77, 186, 108
-0.997617, 255, 357, 270, 388
-0.997619, 143, 393, 158, 424
-0.997623, 65, 201, 192, 264
-0.997626, 113, 349, 128, 380
-0.997626, 97, 65, 224, 96
-0.997628, 143, 45, 158, 76
-0.997629, 145, 117, 272, 148
-0.997639, 127, 41, 142, 72
-0.99764, 1, 421, 128, 452
-0.997643, 189, 233, 204, 264
-0.997646, 151, 401, 166, 432
-0.997649, 33, 345, 160, 376
-0.997668, 147, 321, 162, 352
-0.99767, 231, 205, 246, 236
-0.997673, 269, 97, 300, 352
-0.99768, 127, 381, 142, 412
-0.997686, 177, 1, 304, 32
-0.997689, 49, 49, 176, 80
-0.997699, 305, 249, 320, 280
-0.997699, 119, 361, 134, 392
-0.997704, 209, 209, 335, 240
-0.997709, 153, 329, 168, 360
-0.997715, 49, 305, 176, 336
-0.997716, 187, 89, 202, 120
-0.99772, 213, 149, 228, 180
-0.997724, 145, 449, 272, 480
-0.997727, 173, 101, 188, 132
-0.997736, 209, 121, 224, 152
-0.997737, 263, 117, 278, 148
-0.997739, 173, 261, 188, 292
-0.997742, 141, 321, 156, 352
-0.997743, 9, 33, 40, 288
-0.997757, 45, 97, 76, 352
-0.997763, 145, 417, 272, 448
-0.997767, 81, 421, 208, 452
-0.997772, 65, 1, 96, 256
-0.997787, 179, 269, 194, 300
-0.997789, 197, 201, 212, 232
-0.99779, 299, 121, 314, 152
-0.997791, 49, 65, 176, 96
-0.997797, 159, 341, 174, 372
-0.997801, 279, 153, 294, 184
-0.997806, 155, 385, 170, 416
-0.997811, 171, 325, 186, 356
-0.997811, 105, 361, 120, 392
-0.997821, 145, 301, 272, 332
-0.997824, 275, 125, 290, 156
-0.997845, 81, 317, 208, 348
-0.997846, 161, 41, 288, 72
-0.997851, 173, 33, 204, 288
-0.997855, 143, 345, 158, 376
-0.997862, 161, 29, 288, 60
-0.997867, 207, 141, 222, 172
-0.997868, 269, 121, 284, 152
-0.997873, 309, 117, 324, 148
-0.997876, 319, 373, 334, 404
-0.997877, 123, 349, 138, 380
-0.997883, 173, 277, 188, 308
-0.997898, 201, 113, 216, 144
-0.997907, 33, 9, 160, 40
-0.997914, 279, 249, 294, 280
-0.997922, 209, 401, 335, 432
-0.997926, 1, 357, 128, 388
-0.997928, 311, 185, 326, 216
-0.997938, 281, 325, 296, 356
-0.99794, 129, 193, 256, 224
-0.997944, 183, 245, 198, 276
-0.997947, 167, 301, 182, 332
-0.997949, 273, 157, 288, 188
-0.997951, 193, 413, 320, 444
-0.997967, 161, 177, 288, 208
-0.997973, 113, 365, 128, 396
-0.997981, 145, 53, 272, 84
-0.997997, 279, 233, 294, 264
-0.997999, 319, 193, 334, 224
-0.998003, 1, 209, 335, 272
-0.998006, 131, 369, 146, 400
-0.998013, 189, 213, 204, 244
-0.998014, 215, 129, 230, 160
-0.998014, 209, 433, 335, 464
-0.998016, 193, 469, 320, 500
-0.998016, 273, 265, 288, 296
-0.998017, 199, 149, 214, 180
-0.998024, 167, 345, 182, 376
-0.998024, 145, 277, 272, 308
-0.998027, 183, 217, 198, 248
-0.99804, 161, 365, 176, 396
-0.998043, 301, 137, 316, 168
-0.998047, 89, 1, 152, 500
-0.998049, 99, 361, 114, 392
-0.998051, 149, 369, 164, 400
-0.998072, 151, 101, 166, 132
-0.998076, 209, 81, 224, 112
-0.998079, 1, 145, 128, 208
-0.998079, 175, 313, 190, 344
-0.99808, 97, 17, 224, 48
-0.998086, 41, 417, 56, 448
-0.998087, 145, 257, 176, 500
-0.998087, 195, 213, 210, 244
-0.998095, 271, 277, 286, 308
-0.998095, 65, 257, 96, 500
-0.998096, 1, 161, 64, 416
-0.998102, 241, 117, 256, 148
-0.998104, 97, 125, 224, 156
-0.998104, 1, 161, 335, 224
-0.998106, 317, 237, 332, 268
-0.998107, 303, 173, 318, 204
-0.998109, 121, 113, 136, 144
-0.998112, 169, 405, 184, 436
-0.998114, 119, 333, 134, 364
-0.998123, 209, 385, 335, 416
-0.998124, 201, 65, 232, 320
-0.998132, 113, 389, 240, 420
-0.998132, 263, 329, 278, 360
-0.998138, 195, 81, 210, 112
-0.998138, 321, 225, 335, 256
-0.998138, 299, 349, 314, 380
-0.998138, 49, 225, 80, 480
-0.998143, 203, 5, 218, 36
-0.998144, 255, 345, 270, 376
-0.998147, 227, 117, 242, 148
-0.99816, 209, 453, 335, 484
-0.998163, 207, 153, 222, 184
-0.998164, 267, 149, 282, 180
-0.998165, 165, 65, 180, 96
-0.998165, 235, 117, 250, 148
-0.998168, 113, 149, 240, 180
-0.99817, 135, 105, 150, 136
-0.998172, 229, 413, 244, 444
-0.998176, 129, 109, 144, 140
-0.998178, 237, 209, 252, 240
-0.998181, 273, 317, 288, 348
-0.998183, 237, 1, 268, 256
-0.998185, 183, 233, 198, 264
-0.998185, 161, 409, 176, 440
-0.998186, 253, 13, 268, 44
-0.998187, 293, 397, 308, 428
-0.998192, 309, 129, 324, 160
-0.998195, 287, 125, 302, 156
-0.998196, 161, 33, 192, 288
-0.998201, 179, 301, 194, 332
-0.998202, 271, 329, 286, 360
-0.998209, 237, 133, 252, 164
-0.998215, 131, 341, 146, 372
-0.998219, 273, 217, 288, 248
-0.998221, 161, 45, 176, 76
-0.998227, 299, 253, 314, 284
-0.99823, 203, 85, 218, 116
-0.998231, 281, 349, 296, 380
-0.998242, 1, 281, 335, 344
-0.998248, 277, 257, 308, 500
-0.998251, 81, 469, 208, 500
-0.998257, 65, 457, 192, 488
-0.998259, 145, 401, 272, 432
-0.998265, 253, 129, 284, 384
-0.998267, 129, 5, 256, 36
-0.99827, 257, 257, 288, 500
-0.998274, 65, 245, 192, 276
-0.998284, 21, 65, 52, 320
-0.998325, 37, 1, 68, 256
-0.998343, 97, 301, 224, 332
-0.998355, 1, 301, 128, 332
-0.998355, 189, 129, 220, 384
-0.998366, 209, 265, 335, 296
-0.99837, 193, 81, 320, 112
-0.998371, 65, 437, 192, 468
-0.998379, 261, 163, 292, 178
-0.998379, 157, 295, 188, 310
-0.998381, 173, 277, 204, 292
-0.998382, 201, 93, 232, 108
-0.998383, 305, 155, 335, 170
-0.998383, 153, 359, 184, 374
-0.998384, 117, 47, 148, 62
-0.998385, 297, 183, 328, 198
-0.998386, 169, 129, 200, 384
-0.998386, 189, 153, 220, 168
-0.998387, 185, 243, 216, 258
-0.998387, 89, 377, 120, 392
-0.998388, 285, 23, 316, 38
-0.998388, 201, 159, 232, 174
-0.998388, 45, 103, 76, 118
-0.998389, 137, 109, 168, 124
-0.99839, 249, 381, 280, 396
-0.99839, 161, 331, 192, 346
-0.99839, 129, 363, 160, 378
-0.998391, 265, 349, 296, 364
-0.998391, 133, 395, 164, 410
-0.998393, 305, 27, 335, 42
-0.998393, 181, 215, 212, 230
-0.998394, 269, 273, 300, 288
-0.998394, 229, 117, 260, 132
-0.998395, 169, 291, 200, 306
-0.998395, 17, 241, 144, 272
-0.998395, 45, 91, 76, 106
-0.998396, 253, 353, 284, 368
-0.998396, 25, 419, 56, 434
-0.998396, 169, 215, 200, 230
-0.998396, 109, 367, 140, 382
-0.998397, 129, 401, 160, 416
-0.998397, 181, 203, 212, 218
-0.998398, 289, 125, 320, 140
-0.998398, 305, 129, 335, 144
-0.9984, 161, 267, 192, 282
-0.9984, 217, 11, 248, 26
-0.9984, 289, 255, 320, 270
-0.998401, 273, 21, 304, 36
-0.998402, 173, 269, 204, 284
-0.998402, 157, 339, 188, 354
-0.998403, 237, 389, 268, 404
-0.998404, 205, 139, 236, 154
-0.998404, 245, 361, 276, 376
-0.998406, 229, 13, 260, 28
-0.998407, 285, 159, 316, 174
-0.998407, 117, 341, 148, 356
-0.998407, 193, 125, 224, 140
-0.998407, 161, 69, 192, 84
-0.99841, 273, 165, 304, 180
-0.99841, 285, 137, 316, 152
-0.998412, 225, 217, 256, 232
-0.998412, 137, 381, 168, 396
-0.998413, 217, 141, 248, 156
-0.998413, 245, 153, 276, 168
-0.998413, 185, 77, 216, 92
-0.998414, 297, 189, 328, 204
-0.998414, 201, 131, 232, 146
-0.998414, 237, 381, 268, 396
-0.998416, 117, 361, 148, 376
-0.998416, 257, 339, 288, 354
-0.998416, 145, 399, 176, 414
-0.998417, 161, 321, 192, 336
-0.99842, 217, 211, 248, 226
-0.998421, 261, 19, 292, 34
-0.998422, 153, 371, 184, 386
-0.998423, 305, 115, 335, 130
-0.998425, 257, 121, 288, 136
-0.998425, 241, 15, 272, 30
-0.998426, 109, 381, 140, 396
-0.998427, 301, 251, 332, 266
-0.998427, 185, 105, 216, 120
-0.998429, 117, 355, 148, 370
-0.998431, 1, 145, 64, 272
-0.998432, 137, 103, 200, 118
-0.998432, 169, 297, 200, 312
-0.998433, 285, 415, 316, 430
-0.998435, 141, 363, 172, 378
-0.998437, 185, 209, 216, 224
-0.998438, 173, 71, 204, 86
-0.998439, 37, 421, 68, 436
-0.998439, 277, 129, 308, 144
-0.998443, 137, 355, 168, 370
-0.998445, 153, 347, 184, 362
-0.998445, 209, 321, 335, 352
-0.998446, 113, 115, 144, 130
-0.998448, 81, 365, 144, 380
-0.998448, 261, 157, 292, 172
-0.998448, 201, 153, 232, 168
-0.998451, 181, 83, 212, 98
-0.998451, 201, 145, 232, 160
-0.998451, 45, 97, 76, 112
-0.998454, 153, 365, 184, 380
-0.998458, 149, 47, 180, 62
-0.998464, 205, 109, 236, 124
-0.998465, 149, 377, 180, 392
-0.998466, 217, 117, 280, 132
-0.998468, 173, 99, 204, 114
-0.998468, 121, 1, 152, 256
-0.998468, 161, 95, 224, 110
-0.998469, 133, 341, 164, 356
-0.998469, 17, 133, 144, 164
-0.998469, 305, 103, 335, 118
-0.998469, 301, 121, 332, 136
-0.99847, 145, 53, 176, 68
-0.998472, 305, 109, 335, 124
-0.998472, 81, 5, 208, 36
-0.998474, 165, 315, 196, 330
-0.998474, 145, 393, 176, 408
-0.998482, 305, 377, 335, 392
-0.998489, 265, 279, 296, 294
-0.998491, 245, 117, 276, 132
-0.998491, 201, 9, 232, 24
-0.998492, 173, 263, 204, 278
-0.998493, 277, 339, 308, 354
-0.998495, 193, 11, 256, 26
-0.998495, 165, 303, 196, 318
-0.998497, 141, 323, 172, 338
-0.998503, 1, 257, 128, 288
-0.998505, 121, 365, 184, 380
-0.998505, 149, 383, 180, 398
-0.998507, 145, 339, 176, 354
-0.998508, 129, 387, 160, 402
-0.99851, 149, 329, 180, 344
-0.998511, 25, 257, 56, 500
-0.998513, 185, 211, 248, 226
-0.998513, 205, 241, 236, 368
-0.998513, 177, 111, 240, 126
-0.998515, 121, 391, 184, 406
-0.998519, 181, 89, 212, 104
-0.998521, 125, 347, 156, 362
-0.998522, 209, 309, 335, 340
-0.998523, 165, 309, 196, 324
-0.998523, 217, 211, 280, 226
-0.998524, 121, 43, 184, 58
-0.998525, 129, 51, 160, 66
-0.998526, 169, 85, 200, 100
-0.998526, 137, 349, 168, 364
-0.998527, 1, 289, 128, 320
-0.99853, 129, 323, 192, 338
-0.998532, 273, 251, 335, 266
-0.998534, 121, 109, 184, 124
-0.998535, 285, 349, 316, 364
-0.998538, 125, 111, 156, 126
-0.998547, 193, 83, 224, 98
-0.998549, 137, 397, 200, 412
-0.99855, 129, 359, 192, 374
-0.998551, 89, 363, 120, 378
-0.998551, 169, 87, 232, 102
-0.998552, 173, 209, 204, 224
-0.998555, 161, 103, 192, 118
-0.998557, 257, 127, 320, 142
-0.998561, 113, 217, 240, 248
-0.998561, 145, 49, 208, 64
-0.998561, 273, 119, 335, 134
-0.998562, 137, 97, 200, 112
-0.998562, 257, 159, 320, 174
-0.998565, 125, 41, 156, 56
-0.998565, 105, 357, 168, 372
-0.998566, 153, 97, 184, 112
-0.998568, 257, 175, 320, 190
-0.998568, 217, 129, 248, 384
-0.998573, 193, 217, 256, 232
-0.998574, 209, 369, 335, 400
-0.998574, 257, 153, 320, 168
-0.998576, 257, 139, 320, 154
-0.998578, 249, 19, 312, 34
-0.998578, 9, 421, 72, 436
-0.998578, 161, 211, 224, 226
-0.998581, 217, 13, 280, 28
-0.998581, 257, 169, 320, 184
-0.998584, 105, 115, 168, 130
-0.998584, 129, 403, 192, 418
-0.998584, 25, 109, 88, 124
-0.998586, 201, 111, 264, 126
-0.998586, 129, 67, 192, 82
-0.998588, 265, 351, 328, 366
-0.998591, 153, 321, 216, 336
-0.998592, 17, 99, 80, 114
-0.998593, 169, 127, 232, 142
-0.998594, 229, 211, 260, 226
-0.998594, 153, 327, 216, 342
-0.998595, 177, 205, 240, 220
-0.998596, 273, 23, 335, 38
-0.998597, 165, 91, 196, 106
-0.998597, 265, 181, 328, 196
-0.998597, 161, 287, 224, 302
-0.998598, 177, 185, 240, 200
-0.998598, 121, 371, 184, 386
-0.9986, 265, 239, 328, 254
-0.9986, 17, 61, 80, 76
-0.998601, 233, 123, 296, 138
-0.998602, 121, 49, 184, 64
-0.998604, 169, 101, 232, 116
-0.998604, 81, 379, 144, 394
-0.998604, 169, 81, 232, 96
-0.998605, 113, 383, 176, 398
-0.998606, 185, 117, 248, 132
-0.998607, 25, 117, 88, 132
-0.998607, 145, 43, 208, 58
-0.998608, 273, 189, 335, 204
-0.998609, 173, 77, 204, 92
-0.998609, 25, 125, 88, 140
-0.998609, 105, 347, 168, 362
-0.99861, 25, 273, 88, 288
-0.99861, 141, 103, 172, 118
-0.99861, 17, 67, 80, 82
-0.99861, 177, 151, 240, 166
-0.998612, 145, 55, 208, 70
-0.998613, 141, 1, 172, 256
-0.998613, 257, 345, 320, 360
-0.998614, 97, 41, 160, 56
-0.998614, 17, 327, 80, 342
-0.998614, 257, 147, 320, 162
-0.998616, 25, 131, 88, 146
-0.998616, 161, 117, 224, 132
-0.998621, 25, 267, 88, 282
-0.998622, 177, 135, 240, 150
-0.998622, 57, 111, 120, 126
-0.998622, 137, 285, 200, 300
-0.998623, 265, 133, 328, 148
-0.998624, 273, 231, 335, 246
-0.998624, 25, 237, 88, 252
-0.998624, 167, 305, 182, 432
-0.998624, 129, 73, 192, 88
-0.998627, 25, 163, 88, 178
-0.998628, 25, 79, 88, 94
-0.998628, 137, 43, 168, 58
-0.998629, 97, 393, 160, 408
-0.998629, 161, 365, 224, 380
-0.998629, 129, 353, 192, 368
-0.99863, 9, 51, 72, 66
-0.998631, 273, 225, 335, 240
-0.998631, 257, 415, 320, 430
-0.998632, 121, 377, 184, 392
-0.998632, 97, 371, 160, 386
-0.998632, 25, 257, 88, 272
-0.998633, 257, 279, 320, 294
-0.998633, 33, 333, 96, 348
-0.998634, 17, 93, 80, 108
-0.998634, 201, 123, 264, 138
-0.998634, 25, 157, 88, 172
-0.998634, 257, 373, 320, 388
-0.998635, 257, 113, 320, 128
-0.998635, 209, 147, 272, 162
-0.998636, 25, 137, 88, 152
-0.998636, 209, 477, 272, 492
-0.998637, 161, 293, 224, 308
-0.998638, 225, 217, 288, 232
-0.998639, 161, 361, 288, 392
-0.998639, 25, 169, 88, 184
-0.998639, 65, 117, 128, 132
-0.998639, 317, 177, 332, 304
-0.99864, 249, 379, 312, 394
-0.99864, 217, 423, 280, 438
-0.998641, 97, 49, 160, 64
-0.998642, 25, 145, 88, 160
-0.998643, 161, 299, 224, 314
-0.998643, 105, 399, 168, 414
-0.998644, 5, 257, 36, 500
-0.998644, 25, 151, 88, 166
-0.998644, 153, 217, 216, 232
-0.998644, 25, 251, 88, 266
-0.998644, 25, 231, 88, 246
-0.998645, 129, 329, 192, 344
-0.998646, 161, 359, 224, 374
-0.998646, 185, 93, 248, 108
-0.998647, 33, 421, 96, 436
-0.998647, 137, 61, 200, 76
-0.998648, 25, 85, 88, 100
-0.998649, 17, 321, 80, 336
-0.998649, 233, 413, 296, 428
-0.998649, 25, 179, 88, 194
-0.998649, 137, 291, 200, 306
-0.99865, 17, 73, 80, 88
-0.99865, 257, 337, 320, 352
-0.99865, 153, 183, 216, 198
-0.998651, 233, 279, 296, 294
-0.998651, 125, 257, 156, 500
-0.998652, 265, 357, 328, 372
-0.998663, 149, 161, 180, 416
-0.99871, 143, 321, 158, 448
-0.998715, 49, 229, 176, 260
-0.99872, 173, 273, 188, 400
-0.998722, 289, 113, 304, 240
-0.998722, 17, 121, 144, 152
-0.998762, 65, 197, 192, 228
-0.998763, 237, 193, 268, 320
-0.998785, 161, 305, 176, 432
-0.99879, 275, 113, 290, 240
-0.998795, 229, 97, 260, 352
-0.998807, 305, 225, 335, 480
-0.998824, 1, 417, 335, 480
-0.998828, 131, 321, 146, 448
-0.998829, 263, 97, 278, 224
-0.998829, 85, 257, 116, 500
-0.998835, 113, 437, 240, 468
-0.998836, 301, 113, 316, 240
-0.998846, 113, 165, 240, 196
-0.998849, 121, 129, 184, 256
-0.998903, 161, 221, 288, 252
-0.998908, 311, 177, 326, 304
-0.998915, 175, 65, 190, 192
-0.998918, 253, 49, 284, 176
-0.998922, 151, 321, 166, 448
-0.998936, 281, 113, 296, 240
-0.998939, 161, 241, 288, 272
-0.998942, 199, 129, 214, 256
-0.998942, 175, 225, 190, 352
-0.998947, 17, 393, 144, 424
-0.998949, 37, 225, 68, 480
-0.998949, 33, 97, 64, 352
-0.998962, 101, 257, 132, 500
-0.998964, 241, 97, 272, 352
-0.998966, 209, 1, 224, 128
-0.998967, 49, 209, 176, 240
-0.998973, 189, 1, 204, 128
-0.998974, 193, 193, 208, 320
-0.998977, 183, 209, 198, 336
-0.998979, 65, 161, 96, 416
-0.998984, 195, 1, 210, 128
-0.998988, 177, 289, 304, 320
-0.99899, 157, 353, 172, 480
-0.998995, 97, 285, 224, 316
-0.998996, 113, 233, 240, 264
-0.999001, 113, 177, 240, 208
-0.999002, 209, 25, 335, 56
-0.999006, 243, 97, 258, 224
-0.999007, 215, 81, 230, 208
-0.999026, 235, 97, 250, 224
-0.999032, 275, 241, 290, 368
-0.999035, 207, 81, 222, 208
-0.999039, 17, 161, 48, 416
-0.999042, 217, 1, 232, 128
-0.999048, 223, 1, 238, 128
-0.999052, 185, 49, 200, 176
-0.999064, 305, 161, 320, 288
-0.999069, 49, 161, 176, 192
-0.999074, 217, 33, 248, 288
-0.999082, 275, 161, 290, 288
-0.999083, 257, 97, 272, 224
-0.999086, 113, 137, 240, 168
-0.999087, 137, 321, 152, 448
-0.999087, 269, 113, 284, 240
-0.999105, 313, 97, 328, 224
-0.999108, 207, 129, 222, 256
-0.999111, 125, 321, 140, 448
-0.999124, 269, 257, 284, 384
-0.999125, 317, 17, 332, 144
-0.999126, 199, 65, 214, 192
-0.999127, 283, 193, 298, 320
-0.999131, 321, 225, 335, 352
-0.999132, 285, 1, 300, 128
-0.999143, 253, 1, 268, 128
-0.999147, 209, 69, 335, 100
-0.999149, 233, 1, 248, 128
-0.999152, 243, 1, 258, 128
-0.999153, 203, 1, 218, 128
-0.999156, 267, 1, 282, 128
-0.999157, 59, 81, 74, 208
-0.999159, 259, 337, 274, 464
-0.999171, 67, 321, 82, 448
-0.999171, 209, 277, 335, 308
-0.999174, 249, 97, 264, 224
-0.999184, 105, 321, 120, 448
-0.999187, 53, 1, 84, 256
-0.999192, 53, 1, 84, 128
-0.999202, 7, 33, 22, 160
-0.999203, 301, 321, 316, 448
-0.999207, 191, 65, 206, 192
-0.99921, 291, 1, 306, 128
-0.999219, 315, 225, 330, 352
-0.99922, 215, 129, 230, 256
-0.999221, 145, 33, 160, 160
-0.999222, 225, 113, 240, 240
-0.999223, 113, 225, 144, 480
-0.999224, 261, 1, 276, 128
-0.999225, 239, 145, 254, 272
-0.999228, 115, 337, 130, 464
-0.999234, 153, 81, 168, 208
-0.99924, 277, 1, 292, 128
-0.999244, 23, 49, 38, 176
-0.999252, 267, 177, 282, 304
-0.999253, 295, 113, 310, 240
-0.999255, 167, 257, 182, 384
-0.999257, 75, 321, 90, 448
-0.999262, 233, 145, 248, 272
-0.999265, 99, 321, 114, 448
-0.999269, 289, 289, 304, 416
-0.99927, 311, 17, 326, 144
-0.999277, 15, 49, 30, 176
-0.999279, 81, 321, 96, 448
-0.999283, 185, 145, 200, 272
-0.99929, 89, 353, 104, 480
-0.999297, 153, 33, 168, 160
-0.999299, 163, 353, 178, 480
-0.9993, 263, 289, 278, 416
-0.999301, 281, 321, 296, 448
-0.999304, 29, 65, 44, 192
-0.999309, 165, 49, 180, 176
-0.99931, 69, 241, 84, 368
-0.999316, 227, 161, 242, 288
-0.999322, 93, 305, 108, 432
-0.999324, 151, 369, 166, 496
-0.999328, 321, 129, 335, 256
-0.999336, 305, 17, 320, 144
-0.999337, 175, 321, 190, 448
-0.999339, 1, 17, 16, 144
-0.999342, 279, 65, 294, 192
-0.999347, 271, 65, 286, 192
-0.999355, 153, 273, 168, 400
-0.999361, 285, 65, 300, 192
-0.999363, 181, 257, 196, 384
-0.999367, 283, 257, 298, 384
-0.999373, 307, 97, 322, 224
-0.999374, 193, 145, 208, 272
-0.999377, 295, 321, 310, 448
-0.999379, 253, 353, 268, 480
-0.99938, 253, 145, 268, 272
-0.999394, 309, 241, 324, 368
-0.999398, 297, 65, 312, 192
-0.999399, 289, 337, 304, 464
-0.999402, 183, 1, 198, 128
-0.999405, 313, 305, 328, 432
-0.999408, 307, 305, 322, 432
-0.99941, 235, 369, 250, 496
-0.999414, 57, 33, 72, 160
-0.999417, 141, 273, 156, 400
-0.999422, 299, 17, 314, 144
-0.999426, 291, 65, 306, 192
-0.999437, 33, 241, 48, 368
-0.999438, 67, 17, 82, 144
-0.999442, 65, 369, 80, 496
-0.999447, 35, 17, 50, 144
-0.999447, 139, 33, 154, 160
-0.999447, 199, 177, 214, 304
-0.99945, 169, 353, 184, 480
-0.999452, 169, 209, 184, 336
-0.999453, 39, 81, 54, 208
-0.999455, 125, 369, 140, 496
-0.999455, 237, 49, 252, 176
-0.999457, 245, 145, 260, 272
-0.999458, 321, 305, 335, 432
-0.999462, 61, 177, 76, 304
-0.999505, 289, 225, 320, 480
-0.999606, 41, 419, 56, 434
-0.999606, 255, 361, 270, 376
-0.999606, 175, 279, 190, 294
-0.999606, 279, 153, 294, 168
-0.999607, 255, 117, 270, 132
-0.999607, 217, 153, 232, 168
-0.999608, 115, 381, 130, 396
-0.999608, 287, 415, 302, 430
-0.999609, 315, 375, 330, 390
-0.999609, 259, 347, 274, 362
-0.999609, 141, 349, 156, 364
-0.999609, 313, 123, 328, 138
-0.99961, 149, 393, 164, 408
-0.99961, 189, 235, 204, 250
-0.999611, 151, 369, 166, 384
-0.999611, 195, 219, 210, 234
-0.999612, 271, 163, 286, 178
-0.999614, 163, 103, 178, 118
-0.999614, 197, 127, 212, 142
-0.999614, 205, 165, 220, 180
-0.999614, 175, 315, 190, 330
-0.999615, 185, 257, 200, 272
-0.999616, 215, 147, 230, 162
-0.999616, 169, 87, 184, 102
-0.999616, 133, 47, 148, 62
-0.999616, 215, 117, 230, 132
-0.999616, 241, 211, 256, 226
-0.999618, 189, 225, 220, 480
-0.999619, 173, 261, 188, 276
-0.99962, 227, 115, 242, 130
-0.99962, 173, 77, 188, 92
-0.99962, 159, 415, 174, 430
-0.999621, 251, 379, 266, 394
-0.999621, 173, 289, 188, 304
-0.999621, 189, 195, 204, 210
-0.999622, 167, 405, 182, 420
-0.999624, 307, 251, 322, 266
-0.999624, 291, 345, 306, 360
-0.999624, 113, 115, 128, 130
-0.999625, 303, 179, 318, 194
-0.999625, 299, 127, 314, 142
-0.999626, 173, 213, 188, 228
-0.999626, 197, 201, 212, 216
-0.999627, 261, 339, 276, 354
-0.999627, 213, 131, 228, 146
-0.999629, 155, 353, 170, 368
-0.99963, 261, 119, 276, 134
-0.99963, 155, 379, 170, 394
-0.99963, 203, 147, 218, 162
-0.999631, 185, 79, 200, 94
-0.999632, 141, 341, 156, 356
-0.999633, 151, 387, 166, 402
-0.999634, 203, 153, 218, 168
-0.999635, 151, 361, 166, 376
-0.999635, 157, 371, 172, 386
-0.999636, 169, 321, 184, 336
-0.999637, 191, 85, 206, 100
-0.999638, 169, 103, 184, 118
-0.999638, 123, 349, 138, 364
-0.999638, 129, 39, 144, 54
-0.999638, 259, 353, 274, 368
-0.999639, 153, 407, 168, 422
-0.999639, 233, 289, 264, 416
-0.999639, 207, 83, 222, 98
-0.999639, 161, 323, 176, 338
-0.99964, 191, 203, 206, 218
-0.999641, 179, 269, 194, 284
-0.999641, 145, 399, 160, 414
-0.999642, 205, 121, 220, 136
-0.999644, 277, 127, 292, 142
-0.999645, 271, 277, 286, 292
-0.999646, 183, 211, 198, 226
-0.999646, 147, 57, 162, 72
-0.999646, 267, 121, 282, 136
-0.999647, 185, 71, 200, 86
-0.999647, 233, 225, 264, 480
-0.999648, 147, 103, 162, 118
-0.999648, 159, 363, 174, 378
-0.999649, 119, 361, 134, 376
-0.999649, 117, 349, 132, 364
-0.99965, 197, 211, 212, 226
-0.999651, 301, 253, 316, 268
-0.999652, 235, 211, 250, 226
-0.999655, 163, 345, 178, 360
-0.999656, 171, 295, 186, 310
-0.999659, 161, 353, 176, 368
-0.99966, 77, 1, 108, 256
-0.999661, 311, 105, 326, 120
-0.999661, 139, 109, 154, 124
-0.999661, 319, 125, 334, 140
-0.999661, 307, 119, 322, 134
-0.999663, 273, 169, 288, 184
-0.999664, 321, 377, 335, 392
-0.999665, 189, 209, 204, 224
-0.999666, 147, 323, 162, 338
-0.999673, 157, 335, 172, 350
-0.999673, 157, 45, 172, 60
-0.999675, 141, 325, 156, 340
-0.999675, 147, 329, 162, 344
-0.999676, 207, 127, 222, 142
-0.999676, 179, 261, 194, 276
-0.999677, 91, 361, 106, 376
-0.999679, 209, 147, 224, 162
-0.99968, 165, 335, 180, 350
-0.99968, 319, 111, 334, 126
-0.999681, 181, 97, 196, 112
-0.999681, 147, 43, 162, 58
-0.999683, 117, 343, 132, 358
-0.999686, 167, 327, 182, 342
-0.999686, 181, 87, 196, 102
-0.999687, 317, 103, 332, 118
-0.99969, 179, 77, 194, 92
-0.999691, 289, 339, 304, 354
-0.999691, 171, 93, 186, 108
-0.999692, 127, 385, 142, 400
-0.999696, 169, 315, 184, 330
-0.999697, 127, 45, 142, 60
-0.999699, 171, 301, 186, 316
-0.9997, 153, 343, 168, 358
-0.999704, 173, 307, 188, 322
-0.999707, 201, 161, 232, 416
-0.999708, 123, 113, 138, 128
-0.999712, 175, 103, 190, 118
-0.999713, 129, 111, 144, 126
-0.999714, 147, 335, 162, 350
-0.999714, 147, 51, 162, 66
-0.999715, 277, 161, 292, 176
-0.999717, 179, 71, 194, 86
-0.99972, 187, 91, 202, 106
-0.99972, 175, 87, 190, 102
-0.999724, 213, 257, 244, 500
-0.999726, 135, 39, 150, 54
-0.999731, 229, 209, 244, 224
-0.999735, 165, 97, 180, 112
-0.999743, 139, 45, 154, 60
-0.999755, 157, 99, 172, 114
-0.999828, 137, 161, 168, 416
-0.999886, 113, 1, 176, 500
-1.00006, 125, 225, 156, 352
-1.00007, 25, 145, 56, 272
-1.00039, 201, 257, 232, 500
-1.00053, 125, 129, 156, 384
-1.00054, 5, 161, 36, 416
-1.00059, 77, 161, 108, 416
-1.00065, 245, 257, 276, 500
-1.00069, 93, 161, 124, 416
-1.00071, 89, 1, 120, 256
-1.00107, 109, 1, 140, 256
-1.00123, 109, 129, 140, 384
-1.00171, 1, 185, 335, 248
-1.00282, 81, 193, 144, 320
-1.0061, 89, 97, 152, 352
-1.00938, 89, 145, 152, 272
