1958
-0.28657, 1, 1, 375, 500
-0.416019, 65, 1, 320, 500
-0.429486, 1, 65, 375, 320
-0.444225, 1, 161, 375, 416
-0.470532, 1, 257, 375, 500
-0.642301, 65, 65, 320, 320
-0.670709, 65, 193, 320, 448
-0.828985, 65, 1, 192, 500
-0.842457, 113, 1, 240, 500
-0.853102, 97, 65, 224, 320
-0.864328, 129, 257, 256, 500
-0.881589, 177, 225, 304, 480
-0.882308, 17, 1, 144, 500
-0.884222, 49, 33, 176, 288
-0.88513, 161, 1, 288, 500
-0.888832, 145, 129, 272, 384
-0.889171, 1, 81, 375, 208
-0.894395, 81, 161, 208, 416
-0.895506, 241, 129, 368, 384
-0.90072, 209, 1, 336, 500
-0.902894, 1, 145, 375, 272
-0.909212, 81, 257, 208, 500
-0.910667, 161, 33, 288, 288
-0.912961, 1, 289, 375, 416
-0.914487, 225, 225, 352, 480
-0.919114, 33, 129, 160, 384
-0.921398, 1, 65, 256, 192
-0.922903, 33, 225, 160, 480
-0.923683, 1, 337, 375, 464
-0.923808, 1, 241, 375, 368
-0.92477, 1, 33, 128, 288
-0.926741, 193, 129, 320, 384
-0.927328, 65, 321, 320, 448
-0.929569, 65, 113, 320, 240
-0.9315, 65, 273, 320, 400
-0.935778, 81, 49, 208, 176
-0.937743, 105, 49, 168, 176
-0.93791, 17, 65, 144, 192
-0.938359, 153, 81, 216, 208
-0.939507, 33, 161, 288, 288
-0.940474, 113, 305, 240, 432
-0.94076, 241, 33, 368, 288
-0.941201, 81, 113, 208, 240
-0.942376, 169, 161, 232, 288
-0.943568, 177, 225, 240, 352
-0.945145, 185, 321, 248, 448
-0.946785, 57, 65, 120, 192
-0.947439, 97, 369, 352, 496
-0.948044, 217, 321, 280, 448
-0.948212, 129, 113, 192, 240
-0.948524, 129, 177, 375, 304
-0.949177, 97, 177, 224, 304
-0.949388, 209, 321, 336, 448
-0.950087, 177, 369, 304, 496
-0.950132, 105, 105, 168, 168
-0.951263, 129, 49, 192, 176
-0.95274, 161, 321, 288, 448
-0.952792, 129, 81, 256, 208
-0.953137, 105, 137, 168, 200
-0.953366, 17, 113, 144, 240
-0.954295, 1, 33, 375, 160
-0.954655, 193, 161, 256, 288
-0.954812, 145, 289, 208, 416
-0.954922, 57, 89, 120, 152
-0.95535, 105, 97, 168, 224
-0.955385, 193, 113, 256, 240
-0.955462, 113, 321, 176, 448
-0.955591, 97, 65, 352, 192
-0.956052, 161, 241, 288, 368
-0.957162, 49, 321, 176, 448
-0.957659, 161, 129, 288, 256
-0.958597, 129, 129, 192, 192
-0.958965, 129, 225, 375, 352
-0.959632, 113, 257, 240, 384
-0.959813, 113, 337, 176, 400
-0.959939, 1, 193, 375, 320
-0.960482, 209, 369, 272, 496
-0.960691, 121, 65, 184, 128
-0.960814, 201, 241, 264, 368
-0.961125, 97, 73, 160, 136
-0.961142, 153, 161, 216, 224
-0.961264, 81, 65, 144, 192
-0.961572, 137, 369, 200, 496
-0.96167, 193, 169, 256, 232
-0.962039, 177, 369, 240, 496
-0.96236, 97, 369, 224, 496
-0.962608, 105, 161, 168, 288
-0.962629, 145, 177, 208, 304
-0.962649, 241, 161, 368, 288
-0.962765, 193, 369, 256, 432
-0.962891, 73, 65, 136, 128
-0.96448, 161, 89, 224, 152
-0.964551, 241, 321, 304, 448
-0.965113, 33, 105, 96, 168
-0.965388, 161, 193, 288, 320
-0.965537, 89, 321, 152, 448
-0.965897, 1, 209, 256, 336
-0.966008, 169, 233, 232, 296
-0.966536, 169, 185, 232, 248
-0.966642, 1, 369, 256, 496
-0.967013, 65, 17, 320, 144
-0.967149, 193, 209, 256, 272
-0.967149, 145, 305, 208, 368
-0.967219, 177, 145, 240, 208
-0.967229, 97, 161, 160, 224
-0.96763, 153, 137, 216, 200
-0.968244, 217, 145, 280, 272
-0.968318, 185, 289, 248, 352
-0.968523, 185, 401, 248, 464
-0.96859, 1, 321, 128, 448
-0.968971, 225, 273, 288, 400
-0.969161, 193, 345, 256, 408
-0.969281, 73, 129, 136, 256
-0.969552, 177, 65, 240, 192
-0.969592, 25, 113, 88, 240
-0.969662, 113, 33, 176, 288
-0.969785, 65, 305, 128, 432
-0.969855, 33, 273, 160, 400
-0.969902, 209, 273, 336, 400
-0.969981, 81, 329, 144, 392
-0.970008, 137, 65, 200, 320
-0.970285, 177, 273, 240, 400
-0.970406, 49, 161, 176, 288
-0.970445, 105, 361, 168, 424
-0.970607, 169, 361, 232, 424
-0.970735, 65, 113, 128, 176
-0.970912, 145, 241, 208, 368
-0.971347, 37, 105, 68, 168
-0.971429, 17, 89, 144, 152
-0.971548, 129, 169, 192, 232
-0.972098, 193, 225, 256, 480
-0.972185, 209, 321, 272, 384
-0.972621, 65, 73, 192, 136
-0.972785, 81, 17, 144, 144
-0.972922, 129, 369, 192, 432
-0.973063, 217, 161, 280, 224
-0.973104, 81, 65, 112, 128
-0.973119, 113, 257, 176, 384
-0.973184, 225, 377, 288, 440
-0.973393, 169, 193, 232, 448
-0.973531, 81, 113, 208, 176
-0.973819, 65, 225, 192, 352
-0.973848, 201, 249, 264, 312
-0.973999, 129, 305, 256, 368
-0.974296, 137, 105, 200, 168
-0.97453, 197, 97, 228, 224
-0.974703, 217, 193, 280, 320
-0.974834, 97, 329, 224, 392
-0.974942, 197, 209, 228, 336
-0.974996, 137, 113, 168, 240
-0.975038, 33, 113, 160, 176
-0.97512, 145, 353, 272, 416
-0.97513, 169, 65, 232, 320
-0.975208, 97, 137, 224, 200
-0.975266, 49, 65, 112, 128
-0.975314, 149, 65, 180, 192
-0.975357, 161, 385, 224, 448
-0.975397, 225, 289, 288, 352
-0.975459, 305, 321, 368, 448
-0.975494, 89, 49, 120, 176
-0.975583, 105, 305, 168, 368
-0.975763, 9, 105, 72, 168
-0.975768, 73, 137, 136, 200
-0.975848, 221, 321, 252, 448
-0.975985, 73, 169, 136, 232
-0.975987, 177, 121, 240, 184
-0.976023, 209, 313, 240, 376
-0.976058, 217, 185, 280, 248
-0.976152, 205, 321, 236, 448
-0.976186, 109, 65, 140, 192
-0.976198, 305, 273, 368, 400
-0.97636, 233, 321, 264, 448
-0.976451, 161, 265, 224, 328
-0.976473, 169, 209, 232, 272
-0.976541, 109, 145, 140, 272
-0.97668, 109, 73, 140, 136
-0.976681, 241, 113, 368, 240
-0.976742, 113, 73, 240, 136
-0.976751, 265, 321, 328, 448
-0.976849, 201, 65, 264, 192
-0.976919, 93, 65, 124, 128
-0.976961, 41, 321, 104, 448
-0.977129, 33, 65, 96, 192
-0.977217, 129, 193, 192, 448
-0.977244, 177, 81, 208, 208
-0.977581, 89, 65, 152, 320
-0.977642, 121, 209, 184, 336
-0.977681, 209, 321, 336, 384
-0.977691, 257, 273, 320, 400
-0.977751, 137, 329, 168, 392
-0.977812, 177, 129, 208, 256
-0.977901, 1, 321, 64, 448
-0.978023, 105, 161, 168, 416
-0.978121, 169, 313, 232, 376
-0.978138, 177, 137, 208, 200
-0.978267, 193, 129, 256, 384
-0.978356, 225, 97, 288, 224
-0.978411, 125, 345, 156, 408
-0.978452, 297, 321, 360, 384
-0.978485, 197, 233, 228, 296
-0.978488, 121, 1, 184, 500
-0.978539, 81, 89, 112, 152
-0.978789, 129, 49, 160, 176
-0.978837, 169, 433, 232, 496
-0.978901, 197, 177, 228, 240
-0.978907, 161, 81, 192, 208
-0.979038, 109, 137, 140, 200
-0.97905, 153, 121, 184, 184
-0.97914, 81, 369, 208, 432
-0.979167, 205, 257, 236, 384
-0.979228, 193, 81, 320, 208
-0.97923, 105, 321, 136, 448
-0.979245, 113, 369, 176, 496
-0.979276, 189, 145, 220, 272
-0.979303, 133, 137, 164, 200
-0.979336, 297, 161, 360, 288
-0.979413, 129, 65, 160, 128
-0.979491, 217, 129, 280, 384
-0.979577, 113, 193, 176, 256
-0.979716, 217, 377, 248, 440
-0.979775, 233, 321, 296, 384
-0.979911, 217, 209, 280, 272
-0.979913, 97, 137, 128, 200
-0.980005, 125, 305, 156, 432
-0.980031, 153, 33, 216, 160
-0.980031, 185, 81, 248, 144
-0.980068, 281, 273, 344, 400
-0.98009, 205, 201, 236, 264
-0.980148, 17, 329, 144, 392
-0.980191, 205, 353, 236, 416
-0.980212, 145, 1, 208, 500
-0.98036, 57, 329, 120, 392
-0.980372, 213, 161, 244, 288
-0.980422, 89, 97, 120, 224
-0.98046, 149, 289, 180, 416
-0.980768, 189, 137, 220, 200
-0.980777, 305, 193, 368, 256
-0.980787, 109, 329, 140, 392
-0.980914, 73, 1, 136, 500
-0.980924, 233, 369, 296, 496
-0.980935, 121, 265, 184, 328
-0.980973, 157, 369, 188, 496
-0.981038, 153, 297, 184, 360
-0.981107, 161, 33, 288, 160
-0.981197, 89, 273, 152, 400
-0.981224, 169, 49, 232, 112
-0.981261, 185, 193, 216, 256
-0.981349, 241, 185, 304, 248
-0.981379, 169, 337, 232, 400
-0.981384, 113, 353, 144, 416
-0.981411, 229, 369, 260, 432
-0.981422, 241, 209, 368, 336
-0.981476, 177, 377, 304, 440
-0.981547, 97, 1, 160, 500
-0.981602, 145, 209, 208, 272
-0.981612, 1, 321, 64, 384
-0.981709, 185, 393, 216, 456
-0.981756, 65, 33, 128, 288
-0.981785, 65, 1, 192, 128
-0.981818, 209, 289, 240, 352
-0.981829, 185, 1, 248, 500
-0.981873, 141, 113, 172, 176
-0.981889, 197, 89, 228, 152
-0.98192, 193, 185, 320, 248
-0.981928, 17, 129, 80, 192
-0.981937, 241, 185, 272, 248
-0.98209, 145, 169, 176, 232
-0.982098, 185, 169, 216, 232
-0.982177, 117, 105, 148, 168
-0.982209, 81, 161, 208, 224
-0.982225, 113, 185, 240, 248
-0.982248, 173, 369, 204, 496
-0.982304, 201, 145, 232, 272
-0.982371, 137, 329, 200, 392
-0.982439, 149, 113, 180, 240
-0.982509, 105, 169, 136, 232
-0.982536, 133, 169, 164, 232
-0.982542, 145, 65, 208, 128
-0.982556, 177, 209, 304, 272
-0.982567, 37, 97, 68, 224
-0.982727, 273, 161, 336, 224
-0.982745, 125, 113, 156, 240
-0.982767, 209, 209, 240, 336
-0.982809, 241, 145, 304, 272
-0.98281, 233, 225, 296, 480
-0.982866, 161, 289, 192, 416
-0.9829, 101, 97, 132, 160
-0.982926, 305, 169, 368, 232
-0.982949, 201, 113, 264, 176
-0.982994, 49, 105, 80, 168
-0.983024, 185, 193, 216, 320
-0.983105, 129, 97, 256, 160
-0.983122, 209, 97, 240, 224
-0.983153, 65, 81, 96, 144
-0.98317, 197, 329, 228, 392
-0.983304, 209, 177, 240, 240
-0.98334, 217, 273, 248, 400
-0.983402, 221, 305, 252, 368
-0.983411, 81, 361, 144, 424
-0.983635, 189, 257, 220, 384
-0.983726, 257, 321, 320, 384
-0.983821, 193, 321, 224, 448
-0.983878, 133, 305, 164, 368
-0.983922, 77, 65, 108, 192
-0.983932, 129, 217, 256, 280
-0.983993, 117, 169, 148, 232
-0.984012, 17, 17, 144, 144
-0.984051, 25, 321, 88, 384
-0.98406, 145, 121, 272, 184
-0.984073, 233, 353, 296, 416
-0.984074, 113, 241, 240, 304
-0.984089, 173, 241, 204, 368
-0.984144, 209, 241, 240, 304
-0.984154, 221, 369, 252, 496
-0.984183, 121, 161, 152, 288
-0.984268, 165, 145, 196, 272
-0.984302, 49, 113, 112, 240
-0.984306, 185, 369, 216, 496
-0.984317, 173, 305, 204, 432
-0.984341, 297, 289, 360, 352
-0.984441, 233, 273, 264, 400
-0.984451, 137, 321, 168, 448
-0.984506, 245, 321, 276, 448
-0.984539, 241, 177, 368, 240
-0.984543, 173, 161, 204, 224
-0.984565, 1, 65, 128, 128
-0.984667, 213, 401, 244, 464
-0.98469, 165, 129, 196, 192
-0.984709, 217, 353, 248, 416
-0.984765, 49, 305, 176, 368
-0.98483, 17, 137, 144, 200
-0.984833, 145, 329, 272, 392
-0.984912, 157, 73, 188, 136
-0.984938, 161, 161, 288, 224
-0.985029, 97, 329, 128, 392
-0.985042, 81, 41, 144, 104
-0.98505, 145, 161, 176, 288
-0.985129, 205, 377, 236, 440
-0.985163, 225, 433, 288, 496
-0.985179, 209, 401, 272, 464
-0.985221, 185, 217, 216, 280
-0.985232, 249, 297, 312, 360
-0.985242, 297, 113, 360, 240
-0.985345, 173, 89, 204, 152
-0.985355, 121, 321, 152, 384
-0.985421, 197, 401, 228, 464
-0.985441, 205, 265, 236, 328
-0.985536, 65, 49, 192, 112
-0.985544, 221, 329, 252, 392
-0.985578, 81, 177, 144, 304
-0.98559, 209, 89, 272, 152
-0.985621, 161, 241, 192, 368
-0.985636, 129, 377, 256, 440
-0.985656, 89, 113, 120, 176
-0.985726, 241, 161, 304, 224
-0.985732, 177, 401, 304, 464
-0.985795, 177, 233, 304, 296
-0.985814, 153, 145, 184, 208
-0.985852, 201, 137, 264, 200
-0.985905, 225, 137, 288, 200
-0.986173, 241, 225, 304, 352
-0.986192, 1, 97, 64, 224
-0.986286, 89, 193, 152, 256
-0.986392, 149, 241, 180, 368
-0.986456, 229, 113, 260, 240
-0.986475, 225, 177, 256, 240
-0.986497, 97, 161, 128, 288
-0.986536, 341, 321, 372, 384
-0.986539, 217, 209, 248, 272
-0.986555, 297, 145, 360, 208
-0.986623, 197, 369, 228, 496
-0.986697, 233, 321, 264, 384
-0.986723, 121, 145, 152, 208
-0.986775, 245, 273, 276, 400
-0.986807, 173, 385, 204, 448
-0.986812, 33, 161, 160, 224
-0.986898, 25, 81, 88, 144
-0.986918, 297, 257, 360, 500
-0.986942, 145, 281, 272, 344
-0.987015, 185, 81, 216, 144
-0.987104, 297, 161, 360, 416
-0.987118, 33, 17, 96, 144
-0.987118, 265, 185, 328, 248
-0.987136, 129, 233, 192, 296
-0.987215, 145, 433, 272, 496
-0.987227, 229, 393, 260, 456
-0.98723, 265, 321, 296, 448
-0.987237, 93, 161, 124, 224
-0.987358, 33, 353, 160, 416
-0.98741, 193, 369, 224, 432
-0.987482, 189, 281, 220, 344
-0.987491, 193, 33, 256, 288
-0.987542, 245, 145, 276, 272
-0.987545, 121, 1, 184, 128
-0.987606, 201, 121, 232, 184
-0.98765, 105, 225, 168, 288
-0.987714, 257, 161, 320, 416
-0.987778, 241, 145, 368, 208
-0.987786, 145, 65, 176, 128
-0.987853, 177, 257, 304, 320
-0.987898, 177, 433, 208, 496
-0.987908, 161, 193, 192, 320
-0.98796, 241, 161, 272, 224
-0.987971, 101, 353, 132, 416
-0.988082, 105, 41, 168, 104
-0.988089, 145, 369, 176, 496
-0.98819, 221, 153, 252, 216
-0.988191, 133, 161, 164, 288
-0.9882, 201, 153, 232, 216
-0.988207, 81, 217, 208, 280
-0.988226, 241, 369, 272, 432
-0.988236, 129, 105, 160, 168
-0.988256, 1, 273, 64, 400
-0.988295, 329, 321, 360, 384
-0.988313, 193, 105, 320, 168
-0.988329, 81, 305, 144, 368
-0.988347, 41, 273, 104, 400
-0.988374, 137, 225, 168, 352
-0.988377, 97, 265, 224, 328
-0.988408, 221, 265, 252, 328
-0.988444, 193, 297, 320, 360
-0.988516, 265, 177, 296, 304
-0.988528, 241, 257, 304, 320
-0.98861, 33, 129, 64, 192
-0.988612, 225, 225, 256, 352
-0.988642, 305, 217, 368, 280
-0.988706, 325, 161, 356, 288
-0.98871, 145, 49, 272, 112
-0.988743, 193, 425, 256, 488
-0.988762, 253, 145, 284, 208
-0.988772, 157, 97, 188, 160
-0.988779, 97, 109, 160, 140
-0.988796, 161, 177, 192, 240
-0.98881, 85, 321, 116, 448
-0.988826, 25, 109, 88, 140
-0.988893, 81, 193, 144, 448
-0.988919, 73, 73, 136, 104
-0.98901, 25, 105, 56, 168
-0.989025, 149, 193, 180, 256
-0.989028, 97, 121, 160, 152
-0.989038, 249, 97, 312, 224
-0.98904, 225, 353, 352, 416
-0.989041, 189, 49, 220, 176
-0.989047, 57, 97, 120, 128
-0.989049, 49, 113, 80, 240
-0.98907, 233, 161, 264, 288
-0.98914, 153, 369, 184, 432
-0.989232, 105, 141, 168, 172
-0.989262, 185, 321, 216, 384
-0.989301, 129, 125, 192, 156
-0.989307, 161, 225, 192, 288
-0.989375, 233, 233, 296, 296
-0.989394, 185, 249, 216, 312
-0.989403, 121, 73, 184, 104
-0.98943, 209, 97, 240, 160
-0.989469, 241, 217, 368, 280
-0.989482, 105, 273, 136, 400
-0.989539, 129, 141, 192, 172
-0.989542, 261, 169, 292, 232
-0.989589, 329, 185, 360, 248
-0.989666, 161, 469, 224, 500
-0.989696, 201, 57, 264, 120
-0.989742, 241, 65, 368, 192
-0.989824, 49, 305, 112, 368
-0.989841, 193, 385, 256, 416
-0.989871, 105, 161, 168, 192
-0.989879, 165, 289, 196, 352
-0.98988, 105, 173, 168, 204
-0.989983, 181, 361, 212, 424
-0.99, 141, 369, 172, 432
-0.990004, 197, 305, 228, 368
-0.990021, 241, 297, 368, 360
-0.990028, 209, 369, 240, 496
-0.990053, 329, 273, 360, 400
-0.990057, 265, 145, 328, 272
-0.990135, 153, 217, 216, 248
-0.990141, 41, 81, 72, 144
-0.990144, 57, 125, 120, 156
-0.990167, 49, 1, 112, 500
-0.990182, 117, 353, 148, 480
-0.990185, 241, 121, 368, 184
-0.990226, 229, 209, 260, 272
-0.990283, 65, 49, 96, 176
-0.990328, 233, 369, 264, 496
-0.990376, 97, 333, 160, 364
-0.990387, 193, 333, 256, 364
-0.990398, 193, 213, 256, 244
-0.990416, 297, 225, 360, 352
-0.990429, 317, 321, 348, 384
-0.990447, 193, 181, 256, 212
-0.990459, 105, 17, 136, 144
-0.990465, 177, 197, 240, 228
-0.990503, 125, 201, 156, 264
-0.990507, 153, 121, 216, 152
-0.990524, 105, 361, 168, 392
-0.990528, 65, 337, 320, 400
-0.990581, 177, 237, 240, 268
-0.99061, 177, 113, 208, 176
-0.990621, 57, 113, 120, 144
-0.990633, 173, 265, 204, 328
-0.990644, 225, 393, 288, 424
-0.990656, 161, 133, 224, 164
-0.990685, 241, 209, 304, 272
-0.990698, 105, 305, 136, 368
-0.990711, 305, 1, 368, 500
-0.990712, 153, 177, 216, 208
-0.990719, 85, 329, 116, 392
-0.990719, 169, 89, 232, 120
-0.990747, 193, 225, 256, 256
-0.990754, 129, 401, 256, 464
-0.990763, 1, 89, 256, 152
-0.990823, 105, 257, 168, 500
-0.990826, 177, 249, 240, 280
-0.990829, 209, 373, 272, 404
-0.990837, 137, 257, 168, 320
-0.990853, 149, 217, 180, 280
-0.990859, 273, 297, 336, 360
-0.990873, 37, 49, 68, 176
-0.990876, 1, 321, 32, 384
-0.99089, 89, 369, 152, 496
-0.990892, 169, 373, 232, 404
-0.990903, 241, 369, 368, 496
-0.990904, 297, 329, 360, 360
-0.99091, 217, 33, 280, 288
-0.990916, 153, 321, 216, 352
-0.990922, 65, 257, 128, 384
-0.990945, 225, 377, 352, 440
-0.990964, 329, 321, 360, 448
-0.990971, 233, 381, 296, 412
-0.990971, 153, 165, 216, 196
-0.990981, 81, 173, 144, 204
-0.991008, 121, 377, 184, 408
-0.991013, 65, 185, 192, 248
-0.991019, 177, 73, 304, 136
-0.99104, 345, 321, 375, 448
-0.991044, 97, 373, 160, 404
-0.991065, 193, 361, 256, 392
-0.991082, 209, 193, 272, 224
-0.99109, 193, 321, 256, 352
-0.991114, 225, 329, 288, 360
-0.991132, 65, 361, 320, 424
-0.991134, 153, 205, 216, 236
-0.991175, 45, 129, 76, 192
-0.991181, 89, 85, 152, 116
-0.991212, 25, 121, 88, 152
-0.991215, 173, 185, 204, 248
-0.991221, 129, 113, 192, 144
-0.991284, 233, 289, 264, 352
-0.991291, 329, 297, 360, 360
-0.991293, 97, 97, 160, 128
-0.991297, 297, 321, 328, 384
-0.99131, 65, 161, 128, 192
-0.991316, 5, 321, 36, 448
-0.991337, 129, 173, 192, 204
-0.99135, 261, 129, 292, 256
-0.991376, 185, 409, 248, 440
-0.991415, 21, 321, 52, 384
-0.991421, 153, 193, 216, 224
-0.991427, 65, 193, 128, 256
-0.991434, 249, 377, 312, 440
-0.991446, 201, 249, 264, 280
-0.991453, 161, 393, 224, 424
-0.991482, 129, 337, 192, 368
-0.991483, 201, 237, 264, 268
-0.991484, 153, 149, 216, 180
-0.991485, 265, 273, 296, 400
-0.991488, 201, 397, 264, 428
-0.991507, 185, 309, 248, 340
-0.991537, 65, 137, 320, 200
-0.991541, 257, 433, 288, 496
-0.991545, 97, 249, 160, 312
-0.991568, 177, 289, 208, 352
-0.991616, 81, 133, 144, 164
-0.99162, 157, 249, 188, 312
-0.991624, 41, 1, 104, 256
-0.991631, 185, 125, 248, 156
-0.991642, 145, 309, 208, 340
-0.991651, 165, 433, 196, 496
-0.99167, 129, 161, 192, 192
-0.991687, 253, 369, 284, 496
-0.991692, 113, 209, 176, 240
-0.991692, 105, 321, 168, 352
-0.99175, 261, 193, 292, 256
-0.991762, 209, 49, 240, 176
-0.991778, 129, 185, 192, 216
-0.991779, 65, 113, 320, 176
-0.991783, 137, 273, 168, 400
-0.991787, 185, 169, 248, 200
-0.991794, 105, 61, 168, 92
-0.991841, 9, 49, 72, 176
-0.99185, 145, 381, 208, 412
-0.991891, 153, 229, 216, 260
-0.991893, 201, 261, 264, 292
-0.9919, 145, 433, 208, 496
-0.991902, 65, 85, 128, 116
-0.991903, 129, 369, 160, 432
-0.991904, 137, 217, 168, 280
-0.99192, 153, 241, 216, 272
-0.99192, 81, 61, 144, 92
-0.991967, 233, 189, 296, 220
-0.991972, 149, 329, 180, 392
-0.99198, 149, 273, 180, 336
-0.991985, 17, 321, 48, 448
-0.991986, 17, 133, 80, 164
-0.992004, 257, 333, 320, 364
-0.992014, 217, 217, 280, 248
-0.992014, 89, 225, 152, 352
-0.992015, 169, 333, 232, 364
-0.992031, 81, 225, 144, 288
-0.992032, 169, 361, 232, 392
-0.99204, 145, 77, 208, 108
-0.99204, 177, 105, 240, 136
-0.992041, 185, 137, 248, 168
-0.992049, 153, 457, 216, 488
-0.992057, 129, 101, 192, 132
-0.992059, 193, 349, 256, 380
-0.992061, 173, 225, 204, 288
-0.992066, 241, 257, 368, 320
-0.992077, 209, 1, 272, 500
-0.992087, 137, 89, 200, 120
-0.992108, 233, 369, 296, 400
-0.992127, 25, 333, 88, 364
-0.992134, 113, 349, 176, 380
-0.992148, 1, 305, 128, 368
-0.992169, 257, 369, 288, 432
-0.992175, 217, 317, 280, 348
-0.992182, 1, 161, 128, 288
-0.992187, 189, 113, 220, 176
-0.992188, 153, 109, 216, 140
-0.992189, 113, 221, 176, 252
-0.992189, 233, 205, 296, 236
-0.992214, 117, 257, 148, 384
-0.992216, 113, 233, 176, 264
-0.992222, 241, 137, 272, 200
-0.992226, 297, 65, 360, 320
-0.992227, 233, 453, 296, 484
-0.992249, 249, 129, 312, 192
-0.992255, 81, 145, 144, 176
-0.992257, 49, 321, 80, 448
-0.992261, 205, 333, 236, 364
-0.992262, 265, 225, 328, 288
-0.992264, 1, 121, 64, 152
-0.992265, 1, 329, 64, 360
-0.99227, 233, 177, 296, 208
-0.992275, 161, 265, 224, 296
-0.992279, 33, 93, 96, 124
-0.992285, 169, 297, 232, 328
-0.992285, 49, 333, 112, 364
-0.992286, 137, 121, 168, 152
-0.99229, 81, 361, 144, 392
-0.992319, 241, 1, 304, 500
-0.992341, 305, 173, 368, 204
-0.992351, 161, 405, 224, 436
-0.992377, 169, 345, 232, 376
-0.992401, 33, 209, 160, 272
-0.992409, 169, 73, 232, 104
-0.992413, 97, 73, 160, 104
-0.992448, 305, 201, 368, 232
-0.992449, 65, 161, 320, 224
-0.99245, 129, 41, 192, 104
-0.99245, 297, 317, 360, 348
-0.992459, 105, 49, 136, 112
-0.992464, 33, 321, 64, 448
-0.992464, 209, 113, 272, 144
-0.992478, 33, 81, 96, 112
-0.992484, 193, 433, 320, 496
-0.992487, 193, 461, 256, 492
-0.992505, 201, 293, 264, 324
-0.992511, 33, 321, 64, 384
-0.992513, 305, 161, 368, 192
-0.992522, 245, 225, 276, 352
-0.99253, 105, 189, 168, 220
-0.992533, 37, 109, 68, 140
-0.992534, 209, 169, 272, 200
-0.992536, 153, 445, 216, 476
-0.992555, 121, 105, 152, 136
-0.992558, 241, 465, 304, 496
-0.992559, 273, 433, 336, 496
-0.99256, 305, 189, 368, 220
-0.992562, 105, 365, 136, 396
-0.992564, 153, 129, 184, 160
-0.992572, 201, 277, 264, 308
-0.992573, 65, 241, 192, 304
-0.992574, 201, 157, 264, 188
-0.992578, 217, 137, 280, 168
-0.992592, 221, 377, 252, 408
-0.992597, 73, 333, 136, 364
-0.992612, 181, 137, 212, 168
-0.992617, 137, 173, 168, 204
-0.992622, 285, 321, 316, 448
-0.992631, 129, 61, 192, 92
-0.992634, 205, 241, 236, 272
-0.992642, 165, 141, 196, 172
-0.992654, 193, 137, 320, 200
-0.992671, 73, 321, 104, 448
-0.992677, 81, 69, 112, 100
-0.992689, 89, 97, 120, 128
-0.99269, 105, 101, 136, 132
-0.992699, 205, 361, 236, 392
-0.992701, 93, 133, 124, 164
-0.992719, 305, 217, 368, 248
-0.99273, 89, 1, 120, 128
-0.992736, 129, 65, 160, 96
-0.992738, 209, 125, 272, 156
-0.99274, 237, 393, 268, 424
-0.992745, 177, 157, 240, 188
-0.992747, 201, 213, 232, 244
-0.992752, 109, 153, 140, 184
-0.992762, 37, 121, 68, 152
-0.992766, 117, 133, 148, 164
-0.992767, 197, 225, 228, 256
-0.992769, 25, 297, 88, 360
-0.992771, 105, 113, 136, 144
-0.992782, 61, 321, 92, 448
-0.992793, 197, 253, 228, 284
-0.992794, 305, 249, 368, 312
-0.992798, 137, 333, 168, 364
-0.992807, 149, 73, 180, 104
-0.992807, 213, 345, 244, 376
-0.992813, 193, 189, 224, 220
-0.992821, 113, 165, 144, 196
-0.992827, 237, 381, 268, 412
-0.992834, 217, 333, 248, 364
-0.992842, 289, 273, 320, 400
-0.99285, 165, 469, 196, 500
-0.992857, 141, 133, 172, 164
-0.992863, 169, 129, 200, 160
-0.992868, 193, 333, 224, 364
-0.992871, 181, 193, 212, 224
-0.992871, 193, 201, 224, 232
-0.992872, 117, 357, 148, 388
-0.992875, 109, 81, 140, 112
-0.992875, 57, 17, 120, 144
-0.992876, 101, 165, 132, 196
-0.992882, 185, 401, 216, 432
-0.992885, 217, 229, 248, 260
-0.992895, 121, 333, 152, 364
-0.992899, 49, 109, 80, 140
-0.992912, 165, 33, 196, 160
-0.992914, 65, 97, 96, 128
-0.992923, 205, 269, 236, 300
-0.99293, 173, 193, 204, 320
-0.992936, 133, 101, 164, 132
-0.99294, 193, 241, 224, 272
-0.992956, 173, 397, 204, 428
-0.992957, 133, 321, 164, 352
-0.992958, 217, 405, 248, 436
-0.99296, 221, 365, 252, 396
-0.992963, 201, 345, 232, 376
-0.992972, 173, 153, 204, 184
-0.992975, 201, 409, 232, 440
-0.992976, 153, 141, 184, 172
-0.992979, 261, 457, 292, 488
-0.992984, 113, 177, 144, 208
-0.992992, 209, 321, 240, 352
-0.992992, 233, 333, 264, 364
-0.992992, 133, 161, 164, 192
-0.992993, 193, 177, 224, 208
-0.992995, 185, 229, 216, 260
-0.992998, 93, 69, 124, 100
-0.992998, 77, 93, 108, 124
-0.993016, 53, 125, 84, 156
-0.993028, 193, 93, 224, 124
-0.993033, 205, 281, 236, 312
-0.993038, 193, 129, 224, 160
-0.99304, 189, 165, 220, 196
-0.993041, 321, 329, 352, 360
-0.99305, 77, 81, 108, 112
-0.993059, 93, 273, 124, 400
-0.993065, 101, 377, 132, 408
-0.993066, 169, 381, 200, 412
-0.993079, 153, 165, 184, 196
-0.993082, 133, 345, 164, 376
-0.993084, 197, 321, 228, 352
-0.993087, 205, 181, 236, 212
-0.993087, 41, 133, 72, 164
-0.993089, 277, 145, 308, 272
-0.993091, 89, 161, 120, 192
-0.993094, 205, 201, 236, 232
-0.993097, 185, 213, 216, 244
-0.993102, 117, 69, 148, 100
-0.993103, 125, 173, 156, 204
-0.993104, 177, 181, 208, 212
-0.993118, 177, 169, 208, 200
-0.993119, 125, 209, 156, 336
-0.99312, 217, 245, 248, 276
-0.993129, 249, 377, 280, 408
-0.993141, 125, 117, 156, 148
-0.993142, 185, 257, 216, 288
-0.993148, 29, 133, 60, 164
-0.993151, 197, 105, 228, 136
-0.993152, 213, 217, 244, 248
-0.993155, 209, 373, 240, 404
-0.993172, 189, 273, 220, 304
-0.99318, 133, 205, 164, 236
-0.993181, 89, 121, 120, 152
-0.993181, 205, 297, 236, 328
-0.993182, 149, 377, 180, 408
-0.993191, 109, 333, 140, 364
-0.993192, 217, 277, 248, 308
-0.993193, 49, 369, 176, 496
-0.993199, 157, 217, 188, 248
-0.993203, 189, 153, 220, 184
-0.993208, 105, 137, 136, 168
-0.993208, 133, 145, 164, 176
-0.993209, 185, 469, 216, 500
-0.993209, 309, 273, 340, 400
-0.99321, 333, 329, 364, 360
-0.993215, 301, 329, 332, 360
-0.993216, 221, 321, 252, 352
-0.993222, 261, 377, 292, 408
-0.993223, 149, 177, 180, 208
-0.993229, 217, 265, 248, 296
-0.993234, 249, 389, 280, 420
-0.993236, 109, 57, 140, 88
-0.993244, 209, 161, 240, 192
-0.993244, 113, 217, 144, 248
-0.993246, 97, 81, 128, 112
-0.993248, 153, 309, 184, 340
-0.99325, 209, 393, 240, 424
-0.993251, 17, 121, 48, 152
-0.993254, 113, 377, 144, 408
-0.993255, 157, 117, 188, 148
-0.993256, 225, 393, 256, 424
-0.993258, 185, 377, 216, 408
-0.993258, 149, 333, 180, 364
-0.99326, 149, 197, 180, 228
-0.993275, 105, 125, 136, 156
-0.993276, 25, 113, 56, 240
-0.993277, 81, 117, 208, 148
-0.993279, 205, 125, 236, 156
-0.993286, 153, 249, 184, 280
-0.993328, 89, 281, 152, 344
-0.993343, 33, 101, 160, 132
-0.993366, 17, 225, 144, 352
-0.993372, 1, 81, 375, 144
-0.993402, 277, 273, 308, 400
-0.993411, 17, 117, 144, 148
-0.993496, 65, 185, 320, 248
-0.993539, 1, 129, 375, 192
-0.993542, 83, 65, 98, 128
-0.993601, 1, 297, 64, 360
-0.993602, 113, 145, 128, 208
-0.993631, 65, 73, 192, 104
-0.993641, 305, 121, 368, 184
-0.993651, 97, 433, 224, 496
-0.993707, 145, 17, 176, 144
-0.993748, 49, 281, 176, 344
-0.993756, 65, 65, 320, 128
-0.993761, 273, 257, 336, 500
-0.993852, 177, 33, 208, 160
-0.993884, 205, 177, 220, 240
-0.993932, 65, 313, 320, 376
-0.994055, 81, 137, 208, 168
-0.994056, 145, 373, 272, 404
-0.994058, 301, 321, 332, 448
-0.994083, 215, 329, 230, 392
-0.994173, 281, 1, 344, 500
-0.99419, 37, 105, 52, 168
-0.994274, 53, 97, 68, 160
-0.994281, 105, 105, 120, 168
-0.994291, 105, 129, 120, 192
-0.994309, 65, 209, 320, 272
-0.994313, 129, 341, 256, 372
-0.994359, 191, 169, 206, 232
-0.994408, 225, 377, 240, 440
-0.994455, 313, 321, 344, 448
-0.994477, 211, 217, 226, 280
-0.994486, 183, 137, 198, 200
-0.994541, 225, 337, 240, 400
-0.99462, 45, 105, 60, 168
-0.994629, 209, 321, 224, 384
-0.994665, 65, 385, 320, 448
-0.994691, 77, 17, 108, 144
-0.994724, 17, 129, 144, 160
-0.994784, 103, 65, 118, 128
-0.994828, 231, 369, 246, 432
-0.994836, 241, 97, 368, 160
-0.994861, 95, 65, 110, 128
-0.994861, 93, 89, 108, 152
-0.994871, 113, 105, 240, 136
-0.994878, 345, 273, 375, 400
-0.994885, 1, 105, 375, 168
-0.994886, 17, 233, 144, 296
-0.994978, 223, 313, 238, 376
-0.994986, 131, 329, 146, 392
-0.995017, 109, 193, 140, 320
-0.995017, 199, 153, 214, 216
-0.995018, 209, 333, 336, 364
-0.995026, 241, 65, 304, 320
-0.995043, 81, 377, 208, 408
-0.995048, 129, 325, 256, 356
-0.995048, 123, 329, 138, 392
-0.995068, 99, 89, 114, 152
-0.995073, 137, 137, 152, 200
-0.995127, 1, 337, 375, 400
-0.995139, 59, 105, 74, 168
-0.99519, 325, 113, 356, 240
-0.995197, 97, 149, 224, 180
-0.995211, 147, 161, 162, 224
-0.995231, 211, 241, 226, 304
-0.995252, 189, 145, 204, 208
-0.995258, 97, 361, 224, 392
-0.995278, 113, 181, 240, 212
-0.995285, 173, 129, 188, 192
-0.995324, 49, 333, 176, 364
-0.995353, 203, 313, 218, 376
-0.995357, 199, 177, 214, 240
-0.995361, 213, 281, 228, 344
-0.995361, 221, 289, 236, 352
-0.995388, 209, 97, 224, 160
-0.995405, 105, 153, 120, 216
-0.995416, 111, 73, 126, 136
-0.995443, 121, 353, 136, 416
-0.995466, 289, 145, 320, 272
-0.99548, 273, 137, 336, 200
-0.995486, 17, 1, 80, 500
-0.995499, 173, 153, 188, 216
-0.995519, 215, 305, 230, 368
-0.99552, 145, 385, 272, 416
-0.99553, 17, 185, 144, 248
-0.995533, 183, 161, 198, 224
-0.995538, 241, 81, 272, 208
-0.995539, 179, 377, 194, 440
-0.995561, 129, 65, 144, 128
-0.995579, 81, 165, 208, 196
-0.995585, 53, 65, 84, 192
-0.995592, 281, 97, 312, 224
-0.995595, 89, 65, 104, 128
-0.995601, 41, 129, 104, 192
-0.995606, 177, 177, 192, 240
-0.995607, 203, 81, 218, 144
-0.995615, 1, 297, 375, 360
-0.995617, 193, 193, 208, 256
-0.995633, 143, 329, 158, 392
-0.995633, 219, 361, 234, 424
-0.995654, 1, 153, 375, 216
-0.995683, 215, 177, 230, 240
-0.995696, 81, 85, 208, 116
-0.995702, 155, 129, 170, 192
-0.995712, 149, 329, 164, 392
-0.995715, 137, 345, 152, 408
-0.995746, 61, 273, 92, 400
-0.995753, 115, 329, 130, 392
-0.99576, 329, 225, 360, 352
-0.995765, 57, 353, 120, 416
-0.995766, 199, 217, 214, 280
-0.995771, 97, 289, 352, 352
-0.995786, 85, 161, 116, 288
-0.995799, 145, 105, 160, 168
-0.995819, 123, 73, 138, 136
-0.995823, 199, 129, 214, 192
-0.995842, 17, 225, 80, 480
-0.995848, 145, 137, 160, 200
-0.99589, 113, 121, 128, 184
-0.995894, 135, 169, 150, 232
-0.995898, 97, 89, 352, 152
-0.995905, 145, 125, 272, 156
-0.995954, 221, 233, 236, 296
-0.995959, 25, 57, 88, 120
-0.99596, 193, 49, 320, 112
-0.995969, 161, 409, 224, 472
-0.995979, 345, 177, 375, 304
-0.996002, 115, 353, 130, 416
-0.996007, 145, 361, 272, 392
-0.996009, 119, 161, 134, 224
-0.996035, 129, 369, 160, 496
-0.996043, 99, 121, 114, 184
-0.996046, 97, 233, 352, 296
-0.996055, 131, 97, 146, 160
-0.996057, 233, 393, 248, 456
-0.99607, 207, 345, 222, 408
-0.996075, 111, 169, 126, 232
-0.996078, 209, 121, 224, 184
-0.996091, 219, 401, 234, 464
-0.996091, 1, 289, 256, 352
-0.996112, 221, 185, 236, 248
-0.996126, 129, 469, 256, 500
-0.996137, 239, 377, 254, 440
-0.996147, 109, 65, 140, 320
-0.996186, 139, 65, 154, 128
-0.996189, 129, 169, 144, 232
-0.996203, 217, 257, 232, 320
-0.99621, 217, 209, 232, 272
-0.996212, 213, 401, 228, 464
-0.996222, 209, 225, 240, 480
-0.996225, 207, 289, 222, 352
-0.99624, 153, 161, 168, 224
-0.996261, 205, 201, 220, 264
-0.996308, 201, 337, 216, 400
-0.996319, 73, 273, 104, 400
-0.99634, 203, 401, 218, 464
-0.99634, 177, 461, 304, 492
-0.996352, 109, 329, 124, 392
-0.996362, 65, 257, 320, 320
-0.996366, 127, 353, 142, 416
-0.996378, 87, 89, 102, 152
-0.996383, 157, 65, 172, 128
-0.996398, 225, 401, 240, 464
-0.996407, 197, 225, 228, 480
-0.996415, 161, 181, 288, 212
-0.99642, 97, 217, 224, 248
-0.996426, 97, 249, 224, 280
-0.996428, 271, 433, 286, 496
-0.996445, 117, 81, 132, 144
-0.99645, 227, 161, 242, 224
-0.996455, 193, 393, 208, 456
-0.996461, 257, 353, 320, 416
-0.996478, 191, 289, 206, 352
-0.996483, 65, 177, 192, 208
-0.996484, 241, 1, 368, 128
-0.996492, 151, 105, 166, 168
-0.996503, 183, 201, 198, 264
-0.996505, 193, 65, 224, 320
-0.996505, 175, 89, 190, 152
-0.996508, 147, 305, 162, 368
-0.996511, 213, 361, 228, 424
-0.996521, 119, 129, 134, 192
-0.996529, 1, 369, 375, 432
-0.996537, 155, 185, 170, 248
-0.996543, 49, 273, 80, 400
-0.996548, 205, 153, 220, 216
-0.996553, 1, 185, 375, 248
-0.996569, 129, 93, 256, 124
-0.996578, 229, 297, 244, 360
-0.996581, 145, 401, 272, 432
-0.996584, 101, 329, 116, 392
-0.996587, 209, 393, 336, 424
-0.99659, 57, 225, 120, 480
-0.996593, 245, 185, 260, 248
-0.996593, 49, 161, 112, 224
-0.996601, 97, 237, 224, 268
-0.996607, 31, 105, 46, 168
-0.996616, 129, 313, 256, 344
-0.996619, 117, 17, 148, 144
-0.99662, 163, 161, 178, 224
-0.996626, 201, 257, 216, 320
-0.996636, 191, 121, 206, 184
-0.996656, 217, 105, 232, 168
-0.996657, 215, 153, 230, 216
-0.996665, 205, 377, 220, 440
-0.996666, 111, 97, 126, 160
-0.996671, 235, 321, 250, 384
-0.996673, 187, 393, 202, 456
-0.996675, 145, 137, 272, 168
-0.996683, 77, 65, 92, 128
-0.996685, 137, 321, 152, 384
-0.996689, 179, 113, 194, 176
-0.996693, 147, 185, 162, 248
-0.996699, 129, 145, 144, 208
-0.996703, 241, 417, 368, 480
-0.996714, 139, 105, 154, 168
-0.996715, 185, 281, 200, 344
-0.996738, 113, 193, 240, 224
-0.996746, 341, 185, 356, 248
-0.996749, 199, 361, 214, 424
-0.996753, 183, 89, 198, 152
-0.996766, 177, 209, 192, 272
-0.996782, 37, 273, 68, 400
-0.996784, 221, 161, 236, 224
-0.996805, 301, 161, 332, 288
-0.996809, 153, 297, 168, 360
-0.996809, 241, 73, 368, 136
-0.996832, 305, 345, 368, 408
-0.996848, 263, 169, 278, 232
-0.996852, 33, 165, 160, 196
-0.996854, 53, 129, 68, 192
-0.996857, 177, 241, 304, 272
-0.996865, 197, 81, 212, 144
-0.996894, 25, 273, 56, 400
-0.996904, 125, 65, 156, 320
-0.99691, 129, 169, 256, 200
-0.996918, 177, 253, 304, 284
-0.996921, 113, 73, 240, 104
-0.996923, 137, 33, 168, 288
-0.996958, 9, 273, 40, 400
-0.996962, 233, 97, 264, 352
-0.996982, 149, 33, 180, 288
-0.996983, 129, 433, 375, 496
-0.996985, 201, 17, 264, 144
-0.996986, 265, 249, 328, 312
-0.997003, 273, 65, 336, 320
-0.997038, 173, 65, 204, 320
-0.997058, 205, 97, 236, 352
-0.997062, 215, 333, 230, 364
-0.99708, 265, 225, 296, 352
-0.997081, 221, 333, 236, 364
-0.997101, 217, 129, 248, 384
-0.997115, 261, 81, 292, 208
-0.997128, 161, 257, 192, 500
-0.997139, 345, 129, 375, 256
-0.997143, 49, 321, 176, 352
-0.997148, 89, 33, 120, 288
-0.997154, 241, 169, 368, 200
-0.997168, 65, 61, 192, 92
-0.99719, 113, 205, 240, 236
-0.997194, 221, 65, 252, 192
-0.997207, 97, 261, 224, 292
-0.997234, 105, 161, 136, 416
-0.997249, 1, 281, 128, 344
-0.997256, 161, 65, 192, 320
-0.997269, 305, 113, 336, 240
-0.997279, 37, 109, 52, 140
-0.997293, 241, 201, 368, 232
-0.997296, 209, 329, 224, 360
-0.997302, 193, 345, 320, 376
-0.997306, 221, 361, 236, 392
-0.997312, 145, 193, 176, 448
-0.997329, 177, 213, 304, 244
-0.997354, 215, 345, 230, 376
-0.997362, 17, 153, 144, 184
-0.997367, 229, 377, 244, 408
-0.997404, 125, 193, 156, 448
-0.997406, 209, 229, 224, 260
-0.997417, 99, 121, 114, 152
-0.997419, 185, 257, 216, 500
-0.997429, 161, 193, 288, 224
-0.997432, 241, 321, 368, 352
-0.997436, 17, 141, 144, 172
-0.997443, 105, 133, 120, 164
-0.99745, 179, 145, 194, 176
-0.997457, 105, 117, 120, 148
-0.997466, 209, 381, 336, 412
-0.997481, 33, 361, 160, 392
-0.997492, 153, 121, 168, 152
-0.997493, 57, 105, 72, 136
-0.997496, 193, 121, 320, 152
-0.997508, 1, 41, 128, 104
-0.997515, 33, 89, 160, 120
-0.997517, 113, 153, 128, 184
-0.997519, 145, 149, 272, 180
-0.997519, 133, 1, 164, 128
-0.997525, 1, 73, 128, 104
-0.997526, 245, 129, 276, 384
-0.997535, 133, 105, 148, 136
-0.997542, 147, 173, 162, 204
-0.997547, 265, 369, 328, 496
-0.997549, 233, 225, 264, 480
-0.997554, 1, 233, 256, 296
-0.997562, 193, 361, 320, 392
-0.997576, 109, 365, 124, 396
-0.997576, 185, 161, 216, 416
-0.997584, 241, 157, 368, 188
-0.997592, 209, 245, 224, 276
-0.997615, 97, 393, 224, 424
-0.997622, 81, 349, 208, 380
-0.997628, 147, 333, 162, 364
-0.997631, 205, 345, 220, 376
-0.997645, 209, 217, 224, 248
-0.997649, 215, 361, 230, 392
-0.997665, 113, 173, 128, 204
-0.997666, 145, 25, 272, 88
-0.99767, 203, 329, 218, 360
-0.997674, 173, 257, 204, 500
-0.997675, 115, 365, 130, 396
-0.997688, 145, 265, 272, 296
-0.997697, 241, 381, 256, 412
-0.997708, 191, 137, 206, 168
-0.99771, 105, 165, 120, 196
-0.997721, 1, 333, 128, 364
-0.997743, 141, 333, 156, 364
-0.997744, 113, 1, 240, 128
-0.99775, 189, 173, 204, 204
-0.99775, 305, 97, 368, 160
-0.997764, 167, 137, 182, 168
-0.997765, 143, 117, 158, 148
-0.997771, 207, 205, 222, 236
-0.997777, 101, 93, 116, 124
-0.997783, 265, 193, 328, 320
-0.997787, 201, 177, 216, 208
-0.997791, 157, 133, 172, 164
-0.997808, 233, 401, 296, 464
-0.997814, 81, 73, 96, 104
-0.99782, 177, 225, 304, 256
-0.997829, 209, 357, 224, 388
-0.99783, 205, 189, 220, 220
-0.997838, 225, 349, 240, 380
-0.997838, 121, 361, 136, 392
-0.997839, 105, 105, 120, 136
-0.997839, 245, 225, 276, 480
-0.99786, 185, 145, 200, 176
-0.997861, 223, 373, 238, 404
-0.997864, 221, 321, 236, 352
-0.997867, 201, 89, 216, 120
-0.99787, 193, 185, 208, 216
-0.997874, 113, 141, 128, 172
-0.997878, 241, 189, 368, 220
-0.997883, 217, 221, 232, 252
-0.997887, 173, 137, 188, 168
-0.997892, 235, 381, 250, 412
-0.997912, 131, 69, 146, 100
-0.997918, 205, 409, 220, 440
-0.997923, 127, 101, 142, 132
-0.997929, 199, 233, 214, 264
-0.997931, 193, 321, 320, 352
-0.997939, 185, 157, 200, 188
-0.99794, 237, 393, 252, 424
-0.997943, 33, 377, 160, 440
-0.997947, 65, 25, 192, 88
-0.997951, 193, 169, 320, 200
-0.997965, 175, 381, 190, 412
-0.997971, 135, 333, 150, 364
-0.997984, 273, 453, 288, 484
-0.997997, 199, 217, 214, 248
-0.997999, 197, 205, 212, 236
-0.998003, 157, 161, 188, 416
-0.998008, 197, 165, 212, 196
-0.99801, 127, 357, 142, 388
-0.998013, 179, 129, 194, 160
-0.998013, 211, 277, 226, 308
-0.99803, 227, 321, 242, 352
-0.998032, 215, 321, 230, 352
-0.998034, 139, 137, 154, 168
-0.998044, 305, 65, 368, 192
-0.998045, 229, 365, 244, 396
-0.998058, 103, 369, 118, 400
-0.998065, 233, 333, 248, 364
-0.998075, 203, 317, 218, 348
-0.998076, 109, 77, 124, 108
-0.998079, 109, 257, 140, 500
-0.998082, 145, 445, 272, 476
-0.998084, 153, 333, 168, 364
-0.998088, 213, 289, 228, 320
-0.998091, 201, 249, 216, 280
-0.998097, 81, 469, 208, 500
-0.9981, 1, 217, 375, 280
-0.998101, 211, 257, 226, 288
-0.998105, 131, 177, 146, 208
-0.998107, 219, 233, 234, 264
-0.998113, 121, 165, 136, 196
-0.998114, 227, 333, 242, 364
-0.998119, 199, 405, 214, 436
-0.998119, 113, 93, 128, 124
-0.99812, 193, 109, 320, 140
-0.998128, 141, 169, 156, 200
-0.998128, 153, 173, 168, 204
-0.99813, 89, 93, 104, 124
-0.99813, 229, 405, 244, 436
-0.998131, 151, 161, 166, 192
-0.998142, 197, 333, 212, 364
-0.998145, 167, 469, 182, 500
-0.998152, 127, 165, 142, 196
-0.998152, 217, 373, 232, 404
-0.998155, 247, 381, 262, 412
-0.998158, 199, 133, 214, 164
-0.998167, 221, 409, 236, 440
-0.998171, 79, 93, 94, 124
-0.998179, 43, 105, 58, 136
-0.998179, 99, 105, 114, 136
-0.998179, 45, 125, 60, 156
-0.99818, 229, 389, 244, 420
-0.998183, 119, 85, 134, 116
-0.998185, 105, 153, 120, 184
-0.998188, 195, 153, 210, 184
-0.998191, 213, 409, 228, 440
-0.998192, 57, 129, 72, 160
-0.998203, 177, 93, 304, 124
-0.998205, 103, 69, 118, 100
-0.998208, 117, 129, 132, 160
-0.998215, 219, 289, 234, 320
-0.998217, 185, 133, 200, 164
-0.998219, 33, 233, 160, 264
-0.998226, 169, 161, 200, 416
-0.998234, 165, 77, 180, 108
-0.998237, 33, 121, 48, 152
-0.998249, 213, 177, 228, 208
-0.99825, 179, 393, 194, 424
-0.998251, 111, 125, 126, 156
-0.998255, 193, 401, 208, 432
-0.998259, 217, 301, 232, 332
-0.998261, 241, 213, 368, 244
-0.998261, 225, 49, 288, 176
-0.99827, 97, 273, 224, 304
-0.998273, 145, 321, 160, 352
-0.998273, 33, 373, 160, 404
-0.998275, 129, 457, 256, 488
-0.998276, 215, 193, 230, 224
-0.998277, 1, 321, 128, 352
-0.998279, 17, 257, 144, 320
-0.998286, 143, 105, 158, 136
-0.998287, 65, 205, 192, 236
-0.998289, 241, 229, 368, 260
-0.9983, 221, 257, 252, 500
-0.998303, 329, 225, 360, 480
-0.998306, 153, 185, 168, 216
-0.998315, 241, 249, 368, 280
-0.998317, 335, 329, 350, 360
-0.998318, 39, 129, 54, 160
-0.998333, 241, 141, 368, 172
-0.998333, 173, 125, 188, 156
-0.998345, 147, 141, 162, 172
-0.998356, 163, 121, 178, 152
-0.998357, 93, 161, 124, 416
-0.998358, 243, 393, 258, 424
-0.998359, 145, 61, 272, 92
-0.998359, 51, 121, 66, 152
-0.998361, 265, 225, 296, 480
-0.998365, 161, 301, 288, 332
-0.998367, 211, 101, 226, 132
-0.998374, 133, 211, 164, 226
-0.998374, 185, 275, 216, 290
-0.998375, 329, 331, 360, 346
-0.998375, 197, 409, 228, 424
-0.998375, 125, 353, 156, 368
-0.998375, 97, 381, 128, 396
-0.998376, 173, 167, 204, 182
-0.998376, 149, 183, 180, 198
-0.998378, 125, 77, 156, 92
-0.998379, 209, 189, 240, 204
-0.99838, 209, 179, 240, 194
-0.99838, 177, 173, 208, 188
-0.998381, 33, 121, 64, 136
-0.998381, 145, 205, 176, 220
-0.998381, 205, 289, 236, 304
-0.998384, 133, 111, 164, 126
-0.998384, 141, 343, 172, 358
-0.998385, 105, 369, 136, 384
-0.998385, 173, 305, 204, 320
-0.998386, 217, 229, 248, 244
-0.998386, 101, 117, 132, 132
-0.998386, 109, 67, 140, 82
-0.998387, 229, 333, 260, 348
-0.998387, 169, 383, 200, 398
-0.998388, 173, 153, 204, 168
-0.998388, 217, 343, 248, 358
-0.998389, 185, 197, 216, 212
-0.99839, 169, 135, 200, 150
-0.99839, 125, 179, 156, 194
-0.998392, 85, 127, 116, 142
-0.998392, 185, 147, 216, 162
-0.998392, 137, 227, 168, 242
-0.998395, 209, 201, 240, 216
-0.998395, 189, 269, 220, 284
-0.998396, 201, 327, 232, 342
-0.998398, 113, 147, 144, 162
-0.998398, 185, 255, 216, 270
-0.9984, 93, 93, 124, 108
-0.998404, 33, 115, 64, 130
-0.998404, 157, 177, 188, 192
-0.998404, 165, 471, 196, 486
-0.998405, 181, 217, 212, 232
-0.998405, 109, 73, 140, 88
-0.998407, 49, 129, 80, 144
-0.998408, 97, 129, 128, 144
-0.99841, 185, 261, 216, 276
-0.99841, 49, 217, 176, 248
-0.99841, 217, 239, 248, 254
-0.998411, 221, 371, 252, 386
-0.998412, 105, 103, 136, 118
-0.998413, 49, 109, 80, 124
-0.998414, 157, 171, 188, 186
-0.998414, 197, 191, 228, 206
-0.998416, 181, 191, 212, 206
-0.998416, 209, 411, 240, 426
-0.998417, 221, 407, 252, 422
-0.998418, 89, 163, 120, 178
-0.998418, 205, 275, 236, 290
-0.998418, 213, 335, 244, 350
-0.998419, 205, 281, 236, 296
-0.99842, 97, 137, 128, 152
-0.99842, 189, 183, 220, 198
-0.99842, 213, 361, 244, 376
-0.99842, 217, 245, 248, 260
-0.99842, 229, 383, 260, 398
-0.998421, 101, 159, 132, 174
-0.998424, 121, 169, 152, 184
-0.998426, 137, 141, 168, 156
-0.998426, 193, 177, 224, 192
-0.998428, 185, 233, 216, 248
-0.998428, 109, 153, 140, 168
-0.998428, 209, 377, 240, 392
-0.998431, 145, 75, 176, 90
-0.998431, 185, 223, 216, 238
-0.998434, 113, 133, 144, 148
-0.998434, 261, 461, 292, 476
-0.998435, 189, 249, 220, 264
-0.998437, 93, 71, 124, 86
-0.998437, 221, 377, 252, 392
-0.998437, 205, 343, 236, 358
-0.998438, 77, 91, 108, 106
-0.998438, 129, 105, 160, 120
-0.998438, 97, 111, 160, 126
-0.99844, 205, 267, 236, 282
-0.998441, 201, 481, 232, 496
-0.998441, 97, 123, 160, 138
-0.998442, 97, 171, 128, 186
-0.998442, 173, 397, 204, 412
-0.998442, 145, 173, 176, 188
-0.998443, 197, 255, 228, 270
-0.998444, 189, 91, 220, 106
-0.998445, 193, 203, 224, 218
-0.998446, 25, 111, 88, 126
-0.998447, 137, 333, 168, 348
-0.998447, 197, 213, 228, 228
-0.998449, 205, 261, 236, 276
-0.99845, 33, 133, 64, 148
-0.998451, 185, 239, 216, 254
-0.998453, 189, 139, 220, 154
-0.998454, 185, 403, 216, 418
-0.998455, 193, 405, 320, 436
-0.998455, 201, 371, 232, 386
-0.998456, 105, 173, 168, 188
-0.998457, 273, 97, 336, 224
-0.998457, 113, 129, 176, 144
-0.998457, 105, 135, 168, 150
-0.99846, 73, 99, 104, 114
-0.998461, 89, 103, 120, 118
-0.998461, 157, 131, 188, 146
-0.998463, 161, 147, 192, 162
-0.998464, 117, 141, 148, 156
-0.998464, 197, 197, 228, 212
-0.998464, 141, 135, 172, 150
-0.998465, 25, 117, 88, 132
-0.998466, 101, 375, 132, 390
-0.99847, 129, 289, 256, 320
-0.998472, 205, 249, 236, 264
-0.998474, 129, 141, 192, 156
-0.998476, 121, 73, 184, 88
-0.99848, 197, 229, 228, 244
-0.99848, 121, 113, 152, 128
-0.998481, 153, 141, 184, 156
-0.998481, 201, 221, 232, 236
-0.998483, 177, 141, 208, 156
-0.998486, 213, 353, 244, 368
-0.998487, 65, 33, 96, 288
-0.998488, 205, 237, 236, 252
-0.998488, 101, 123, 132, 138
-0.998488, 113, 175, 144, 190
-0.998491, 153, 471, 216, 486
-0.998491, 137, 179, 168, 194
-0.998494, 81, 71, 112, 86
-0.998496, 237, 397, 268, 412
-0.998497, 57, 125, 120, 140
-0.998499, 57, 105, 120, 120
-0.9985, 209, 265, 336, 296
-0.998503, 109, 167, 140, 182
-0.998503, 173, 147, 204, 162
-0.998504, 257, 129, 288, 384
-0.998505, 65, 73, 128, 88
-0.998506, 25, 123, 88, 138
-0.998508, 77, 65, 108, 320
-0.998508, 277, 193, 308, 320
-0.998511, 57, 115, 120, 130
-0.998512, 129, 41, 375, 104
-0.998512, 169, 231, 232, 246
-0.998513, 241, 41, 368, 104
-0.998513, 137, 135, 200, 150
-0.998516, 109, 109, 140, 124
-0.998517, 145, 181, 208, 196
-0.998518, 33, 189, 160, 220
-0.99852, 193, 231, 256, 246
-0.99852, 169, 193, 232, 208
-0.99852, 37, 109, 68, 124
-0.998522, 97, 117, 160, 132
-0.998525, 113, 179, 176, 194
-0.998527, 219, 321, 234, 448
-0.998532, 137, 127, 168, 142
-0.998533, 193, 241, 256, 256
-0.998533, 105, 143, 168, 158
-0.998537, 129, 69, 160, 84
-0.998538, 205, 243, 236, 258
-0.998538, 193, 335, 256, 350
-0.998541, 129, 121, 192, 136
-0.998541, 137, 121, 168, 136
-0.998542, 37, 127, 68, 142
-0.998542, 161, 249, 224, 264
-0.998544, 185, 185, 248, 200
-0.998546, 161, 139, 224, 154
-0.998547, 97, 377, 160, 392
-0.998548, 121, 79, 184, 94
-0.998549, 193, 213, 256, 228
-0.998553, 233, 395, 296, 410
-0.998556, 169, 91, 232, 106
-0.998557, 73, 79, 136, 94
-0.998558, 89, 129, 152, 144
-0.998559, 193, 399, 256, 414
-0.998559, 169, 237, 232, 252
-0.99856, 105, 335, 168, 350
-0.998561, 73, 89, 136, 104
-0.998561, 193, 221, 256, 236
-0.998562, 153, 127, 216, 142
-0.998563, 161, 477, 224, 492
-0.998565, 121, 377, 184, 392
-0.998566, 57, 131, 120, 146
-0.998567, 105, 165, 168, 180
-0.998569, 81, 301, 208, 332
-0.998569, 209, 199, 272, 214
-0.998569, 105, 149, 168, 164
-0.998571, 153, 333, 216, 348
-0.998573, 165, 141, 196, 156
-0.998573, 177, 255, 240, 270
-0.998574, 81, 103, 144, 118
-0.998575, 241, 277, 368, 308
-0.998575, 193, 193, 256, 208
-0.998577, 193, 369, 256, 384
-0.998579, 193, 249, 256, 264
-0.998579, 215, 273, 230, 400
-0.998581, 161, 133, 224, 148
-0.998581, 201, 333, 232, 348
-0.998581, 217, 335, 280, 350
-0.998583, 153, 169, 216, 184
-0.998585, 105, 67, 168, 82
-0.998585, 97, 371, 160, 386
-0.998586, 233, 379, 296, 394
-0.998586, 297, 331, 360, 346
-0.998587, 49, 99, 112, 114
-0.998587, 193, 207, 256, 222
-0.998589, 133, 173, 164, 188
-0.99859, 193, 329, 256, 344
-0.99859, 97, 209, 128, 336
-0.998591, 169, 211, 232, 226
-0.998591, 81, 175, 144, 190
-0.998592, 193, 379, 256, 394
-0.998592, 1, 393, 375, 456
-0.998593, 161, 403, 224, 418
-0.998594, 161, 145, 224, 160
-0.998596, 169, 221, 232, 236
-0.998598, 153, 175, 216, 190
-0.998598, 153, 199, 216, 214
-0.9986, 201, 405, 264, 420
-0.998601, 169, 163, 232, 178
-0.998601, 153, 339, 216, 354
-0.998602, 225, 403, 288, 418
-0.998604, 137, 147, 200, 162
-0.998604, 153, 187, 216, 202
-0.998607, 97, 157, 160, 172
-0.998613, 153, 327, 216, 342
-0.998615, 73, 139, 136, 154
-0.998615, 193, 341, 256, 356
-0.998616, 33, 129, 96, 144
-0.998616, 89, 181, 152, 196
-0.998617, 137, 163, 200, 178
-0.998618, 89, 73, 152, 88
-0.998619, 177, 483, 240, 498
-0.99862, 169, 243, 232, 258
-0.998622, 193, 133, 256, 148
-0.998622, 129, 173, 192, 188
-0.998623, 185, 411, 248, 426
-0.998624, 209, 385, 272, 400
-0.998625, 185, 201, 248, 216
-0.998626, 201, 255, 264, 270
-0.998626, 33, 245, 160, 276
-0.998626, 281, 161, 312, 416
-0.998627, 201, 263, 264, 278
-0.998628, 193, 179, 256, 194
-0.998628, 137, 209, 200, 224
-0.998629, 185, 315, 248, 330
-0.99863, 161, 377, 224, 392
-0.998634, 193, 393, 256, 408
-0.998634, 169, 385, 232, 400
-0.998637, 201, 127, 264, 142
-0.998638, 121, 107, 184, 122
-0.99864, 65, 165, 128, 180
-0.99864, 1, 81, 64, 144
-0.998641, 193, 363, 256, 378
-0.998641, 153, 121, 216, 136
-0.998641, 153, 157, 216, 172
-0.998642, 193, 163, 256, 178
-0.998642, 145, 311, 208, 326
-0.998643, 161, 85, 224, 100
-0.998643, 209, 353, 272, 368
-0.998644, 121, 191, 184, 206
-0.998644, 177, 267, 240, 282
-0.998644, 185, 139, 248, 154
-0.998645, 161, 151, 224, 166
-0.998645, 137, 115, 200, 130
-0.998646, 225, 215, 288, 230
-0.998647, 113, 185, 176, 200
-0.998647, 137, 231, 200, 246
-0.998647, 89, 97, 152, 112
-0.998647, 137, 383, 200, 398
-0.998648, 177, 261, 240, 276
-0.998649, 177, 309, 240, 324
-0.99865, 65, 155, 128, 170
-0.998652, 105, 233, 168, 248
-0.998653, 185, 323, 248, 338
-0.998653, 145, 317, 208, 332
-0.998656, 129, 203, 192, 218
-0.998656, 17, 135, 80, 150
-0.998658, 177, 173, 240, 188
-0.998658, 145, 277, 272, 308
-0.998675, 211, 225, 226, 352
-0.998679, 161, 73, 288, 104
-0.998692, 193, 157, 320, 188
-0.998702, 17, 345, 144, 376
-0.998751, 145, 413, 272, 444
-0.998754, 49, 257, 176, 288
-0.998761, 227, 321, 242, 448
-0.998783, 45, 65, 76, 320
-0.998785, 213, 321, 228, 448
-0.998792, 305, 73, 368, 136
-0.9988, 193, 137, 320, 168
-0.99881, 207, 321, 222, 448
-0.998812, 183, 81, 198, 208
-0.998817, 97, 445, 224, 476
-0.998819, 191, 81, 206, 208
-0.998826, 101, 49, 116, 176
-0.998829, 1, 257, 375, 320
-0.998837, 293, 225, 324, 480
-0.998842, 209, 177, 224, 304
-0.998842, 325, 65, 356, 320
-0.998846, 235, 321, 250, 448
-0.998854, 89, 49, 104, 176
-0.998856, 177, 433, 304, 464
-0.998858, 145, 49, 160, 176
-0.998862, 209, 297, 336, 328
-0.998868, 241, 369, 368, 400
-0.998873, 145, 97, 160, 224
-0.998879, 241, 129, 368, 160
-0.998894, 111, 65, 126, 192
-0.998895, 193, 145, 208, 272
-0.998898, 177, 81, 192, 208
-0.9989, 233, 105, 296, 168
-0.998902, 199, 193, 214, 320
-0.99891, 207, 81, 222, 208
-0.998917, 103, 113, 118, 240
-0.998922, 65, 457, 192, 488
-0.998948, 221, 273, 236, 400
-0.99895, 245, 33, 276, 288
-0.998954, 185, 129, 200, 256
-0.998957, 153, 65, 168, 192
-0.998963, 219, 193, 234, 320
-0.998967, 227, 273, 242, 400
-0.99897, 345, 193, 375, 448
-0.998976, 197, 81, 212, 208
-0.998987, 241, 321, 256, 448
-0.998995, 95, 49, 110, 176
-0.999007, 179, 369, 194, 496
-0.999012, 115, 305, 130, 432
-0.999035, 139, 113, 154, 240
-0.999042, 241, 17, 368, 80
-0.999055, 203, 257, 218, 384
-0.999074, 317, 193, 348, 448
-0.999081, 171, 369, 186, 496
-0.999096, 135, 49, 150, 176
-0.999096, 217, 33, 248, 288
-0.999107, 49, 81, 64, 208
-0.999112, 179, 129, 194, 256
-0.999114, 107, 321, 122, 448
-0.999115, 83, 49, 98, 176
-0.999115, 199, 129, 214, 256
-0.999116, 241, 461, 368, 492
-0.999125, 217, 369, 232, 496
-0.999126, 269, 129, 300, 384
-0.999132, 37, 81, 52, 208
-0.999135, 247, 321, 262, 448
-0.999151, 77, 161, 108, 416
-0.99916, 167, 65, 182, 192
-0.999164, 209, 273, 224, 400
-0.999167, 17, 177, 144, 208
-0.999169, 127, 145, 142, 272
-0.99917, 113, 161, 128, 288
-0.999181, 213, 97, 228, 224
-0.999186, 193, 277, 320, 308
-0.99919, 159, 289, 174, 416
-0.99919, 231, 177, 246, 304
-0.999194, 225, 225, 240, 352
-0.999195, 161, 65, 176, 192
-0.999199, 151, 113, 166, 240
-0.999204, 119, 65, 134, 192
-0.999211, 123, 305, 138, 432
-0.999213, 133, 161, 148, 288
-0.999214, 199, 321, 214, 448
-0.999218, 237, 161, 252, 288
-0.999222, 97, 257, 128, 500
-0.999222, 143, 321, 158, 448
-0.999223, 221, 145, 236, 272
-0.999225, 43, 81, 58, 208
-0.999225, 163, 369, 178, 496
-0.999229, 253, 321, 268, 448
-0.99924, 207, 129, 222, 256
-0.99924, 237, 273, 252, 400
-0.999242, 57, 81, 72, 208
-0.999243, 149, 305, 164, 432
-0.999246, 185, 369, 200, 496
-0.999249, 121, 145, 136, 272
-0.999253, 225, 369, 240, 496
-0.999253, 125, 65, 140, 192
-0.999258, 227, 129, 242, 256
-0.99926, 1, 213, 128, 244
-0.999261, 195, 369, 210, 496
-0.999264, 189, 305, 204, 432
-0.999267, 209, 309, 336, 340
-0.999272, 167, 241, 182, 368
-0.999277, 281, 257, 312, 500
-0.999278, 193, 241, 208, 368
-0.999279, 81, 289, 208, 320
-0.99928, 95, 97, 110, 224
-0.999286, 145, 161, 160, 288
-0.999289, 233, 1, 264, 256
-0.999293, 129, 305, 144, 432
-0.999297, 215, 145, 230, 272
-0.999298, 253, 177, 268, 304
-0.999299, 173, 289, 188, 416
-0.999303, 193, 193, 208, 320
-0.999311, 231, 369, 246, 496
-0.999312, 237, 113, 252, 240
-0.999313, 175, 225, 190, 352
-0.999325, 157, 241, 172, 368
-0.999331, 259, 321, 274, 448
-0.999331, 245, 241, 260, 368
-0.999338, 97, 305, 112, 432
-0.999343, 115, 113, 130, 240
-0.999348, 137, 321, 152, 448
-0.999351, 57, 33, 120, 96
-0.999358, 169, 161, 184, 288
-0.999359, 139, 177, 154, 304
-0.999361, 251, 129, 266, 256
-0.999365, 165, 289, 180, 416
-0.999368, 175, 177, 190, 304
-0.99937, 109, 273, 124, 400
-0.999371, 267, 321, 282, 448
-0.99938, 183, 305, 198, 432
-0.999384, 49, 433, 176, 496
-0.999385, 153, 161, 168, 288
-0.999395, 241, 109, 368, 140
-0.999395, 123, 353, 138, 480
-0.999401, 241, 357, 368, 388
-0.999401, 129, 409, 375, 472
-0.999406, 237, 369, 252, 496
-0.99941, 219, 81, 234, 208
-0.999416, 109, 113, 124, 240
-0.999419, 201, 369, 216, 496
-0.999423, 187, 241, 202, 368
-0.999424, 65, 225, 96, 480
-0.999433, 277, 177, 292, 304
-0.999435, 341, 161, 356, 288
-0.999437, 245, 145, 260, 272
-0.999437, 269, 177, 284, 304
-0.999438, 181, 241, 196, 368
-0.999447, 171, 113, 186, 240
-0.99945, 53, 129, 68, 256
-0.999452, 263, 161, 278, 288
-0.999452, 231, 225, 246, 352
-0.999453, 105, 161, 120, 288
-0.999453, 253, 241, 268, 368
-0.999456, 159, 161, 174, 288
-0.999457, 187, 177, 202, 304
-0.999461, 157, 369, 172, 496
-0.999463, 341, 273, 356, 400
-0.999464, 135, 273, 150, 400
-0.999465, 17, 201, 144, 232
-0.999469, 265, 241, 280, 368
-0.999471, 257, 105, 320, 168
-0.999473, 5, 321, 20, 448
-0.999476, 245, 193, 260, 320
-0.999482, 245, 97, 260, 224
-0.999484, 351, 321, 366, 448
-0.999488, 211, 369, 226, 496
-0.999488, 19, 321, 34, 448
-0.999489, 97, 433, 224, 464
-0.999489, 97, 405, 224, 436
-0.999495, 11, 321, 26, 448
-0.999496, 249, 433, 312, 496
-0.999496, 305, 225, 336, 480
-0.999511, 241, 449, 368, 480
-0.999521, 49, 269, 176, 300
-0.999534, 305, 65, 336, 320
-0.999545, 33, 41, 288, 104
-0.999549, 205, 1, 236, 256
-0.999555, 1, 61, 128, 92
-0.999561, 121, 433, 184, 496
-0.999568, 257, 409, 320, 472
-0.999582, 273, 33, 304, 288
-0.999584, 143, 347, 158, 362
-0.999585, 109, 113, 124, 128
-0.999585, 145, 179, 160, 194
-0.999586, 217, 299, 232, 314
-0.999587, 211, 299, 226, 314
-0.999588, 29, 123, 44, 138
-0.999588, 103, 97, 118, 112
-0.999588, 79, 99, 94, 114
-0.999589, 149, 343, 164, 358
-0.99959, 119, 77, 134, 92
-0.999591, 111, 157, 126, 172
-0.999591, 149, 119, 164, 134
-0.999591, 223, 347, 238, 362
-0.999592, 205, 131, 220, 146
-0.999592, 193, 193, 208, 208
-0.999592, 127, 357, 142, 372
-0.999594, 175, 389, 190, 404
-0.999594, 203, 189, 218, 204
-0.999594, 207, 351, 222, 366
-0.999594, 109, 373, 124, 388
-0.999595, 43, 107, 58, 122
-0.999595, 111, 127, 126, 142
-0.999595, 187, 387, 202, 402
-0.999596, 233, 403, 248, 418
-0.999597, 121, 175, 136, 190
-0.999597, 211, 271, 226, 286
-0.999597, 117, 133, 132, 148
-0.999597, 137, 109, 152, 124
-0.999599, 211, 413, 226, 428
-0.999599, 135, 181, 150, 196
-0.999599, 217, 347, 232, 362
-0.9996, 191, 187, 206, 202
-0.9996, 133, 353, 148, 368
-0.999601, 85, 99, 100, 114
-0.999603, 197, 209, 212, 224
-0.999603, 45, 133, 60, 148
-0.999604, 39, 135, 54, 150
-0.999604, 179, 395, 194, 410
-0.999606, 199, 247, 214, 262
-0.999606, 193, 163, 208, 178
-0.999607, 205, 205, 220, 220
-0.999608, 237, 385, 252, 400
-0.999609, 187, 171, 202, 186
-0.999609, 115, 169, 130, 184
-0.999609, 185, 163, 200, 178
-0.999609, 199, 239, 214, 254
-0.99961, 211, 261, 226, 276
-0.99961, 81, 73, 96, 88
-0.99961, 195, 403, 210, 418
-0.99961, 217, 483, 232, 498
-0.999611, 199, 233, 214, 248
-0.999611, 57, 131, 72, 146
-0.999612, 217, 225, 232, 240
-0.999613, 199, 137, 214, 152
-0.999613, 81, 93, 96, 108
-0.999615, 193, 199, 208, 214
-0.999617, 227, 407, 242, 422
-0.999617, 185, 149, 200, 164
-0.999618, 209, 339, 224, 354
-0.999618, 111, 151, 126, 166
-0.999619, 129, 179, 144, 194
-0.999619, 201, 253, 216, 268
-0.99962, 131, 71, 146, 86
-0.999621, 183, 155, 198, 170
-0.999621, 159, 75, 174, 90
-0.999622, 213, 327, 228, 342
-0.999622, 229, 383, 244, 398
-0.999622, 179, 137, 194, 152
-0.999623, 203, 409, 218, 424
-0.999624, 97, 97, 112, 112
-0.999624, 39, 127, 54, 142
-0.999624, 103, 165, 118, 180
-0.999624, 231, 377, 246, 392
-0.999624, 197, 217, 212, 232
-0.999625, 137, 139, 152, 154
-0.999625, 221, 411, 236, 426
-0.999626, 205, 211, 220, 226
-0.999626, 203, 197, 218, 212
-0.999629, 105, 133, 120, 148
-0.999629, 209, 243, 224, 258
-0.999629, 219, 367, 234, 382
-0.99963, 209, 255, 224, 270
-0.999631, 147, 333, 162, 348
-0.999631, 225, 367, 240, 382
-0.999631, 221, 329, 236, 344
-0.999632, 225, 361, 240, 376
-0.999633, 225, 353, 240, 368
-0.999633, 113, 175, 128, 190
-0.999633, 103, 71, 118, 86
-0.999633, 107, 171, 122, 186
-0.999638, 99, 129, 114, 144
-0.999639, 139, 175, 154, 190
-0.999641, 195, 171, 210, 186
-0.999642, 53, 225, 84, 480
-0.999643, 191, 181, 206, 196
-0.999643, 241, 395, 256, 410
-0.999645, 153, 125, 168, 140
-0.999646, 201, 91, 216, 106
-0.999647, 207, 223, 222, 238
-0.999648, 55, 107, 70, 122
-0.999648, 209, 237, 224, 252
-0.999651, 157, 179, 172, 194
-0.999652, 201, 183, 216, 198
-0.999653, 183, 143, 198, 158
-0.999654, 91, 99, 106, 114
-0.999655, 103, 375, 118, 390
-0.999655, 191, 139, 206, 154
-0.999656, 157, 137, 172, 152
-0.999658, 103, 121, 118, 136
-0.999659, 207, 229, 222, 244
-0.99966, 151, 173, 166, 188
-0.99966, 109, 139, 124, 154
-0.999662, 293, 129, 324, 384
-0.999663, 209, 249, 224, 264
-0.999666, 37, 111, 52, 126
-0.999669, 241, 93, 368, 124
-0.999671, 81, 257, 112, 500
-0.999675, 199, 177, 214, 192
-0.999677, 173, 143, 188, 158
-0.999679, 223, 375, 238, 390
-0.99968, 215, 359, 230, 374
-0.999681, 345, 65, 375, 320
-0.999682, 207, 217, 222, 232
-0.999684, 103, 103, 118, 118
-0.999685, 221, 335, 236, 350
-0.999696, 211, 345, 226, 360
-0.999701, 215, 335, 230, 350
-0.999702, 167, 141, 182, 156
-0.999704, 143, 119, 158, 134
-0.999705, 197, 223, 212, 238
-0.999705, 177, 17, 240, 144
-0.999707, 137, 393, 200, 456
-0.999709, 179, 149, 194, 164
-0.999712, 145, 173, 160, 188
-0.999717, 127, 105, 142, 120
-0.999718, 215, 353, 230, 368
-0.999725, 205, 333, 220, 348
-0.999756, 37, 225, 68, 480
-0.99976, 33, 409, 288, 472
-0.999765, 241, 345, 368, 376
-0.999772, 1, 433, 256, 496
-0.999791, 241, 417, 368, 448
-0.999801, 21, 257, 52, 500
-0.999815, 1, 225, 32, 480
-0.999835, 193, 449, 320, 480
-0.999856, 257, 33, 288, 288
-0.999864, 33, 293, 160, 324
-0.999896, 97, 421, 224, 452
-0.999908, 241, 81, 368, 112
-0.999916, 193, 417, 320, 448
-0.999917, 73, 249, 136, 312
-0.999928, 81, 393, 208, 456
-0.999952, 113, 49, 240, 80
-1.00004, 33, 281, 160, 312
-1.00005, 33, 65, 64, 320
-1.00011, 241, 429, 368, 460
-1.00016, 33, 309, 160, 340
-1.00034, 285, 1, 316, 256
-1.00035, 1, 57, 375, 120
-1.00044, 57, 129, 88, 384
-1.00049, 9, 65, 72, 320
-1.00055, 57, 177, 120, 304
-1.00061, 25, 161, 56, 416
-1.0007, 13, 161, 44, 416
-1.00082, 129, 1, 375, 64
-1.00105, 21, 33, 52, 288
-1.00108, 65, 369, 128, 496
-1.00111, 129, 1, 256, 64
-1.00124, 193, 17, 320, 80
-1.00125, 257, 49, 320, 176
-1.0014, 33, 17, 288, 80
-1.00142, 9, 1, 40, 256
-1.00146, 305, 17, 368, 144
-1.00147, 65, 1, 192, 64
-1.00181, 1, 433, 375, 496
-1.00187, 1, 129, 32, 384
-1.00227, 1, 1, 128, 64
-1.00261, 41, 97, 104, 352
-1.00263, 1, 409, 128, 472
-1.00277, 1, 17, 375, 80
-1.0028, 1, 433, 128, 496
-1.00337, 281, 49, 344, 176
-1.00385, 1, 369, 128, 496
-1.00539, 305, 369, 368, 496
-1.00672, 33, 177, 96, 304
-1.00763, 9, 161, 72, 288
-1.00873, 281, 1, 344, 128
-1.00947, 233, 1, 296, 128
-1.01048, 257, 1, 320, 128
-1.01162, 25, 225, 88, 352
-1.01313, 9, 1, 72, 128
-1.01358, 17, 369, 80, 496
-1.01481, 1, 225, 64, 352
-1.01828, 41, 369, 104, 496
