1935
-0.238328, 1, 1, 500, 357
-0.333989, 1, 33, 500, 288
-0.444548, 1, 1, 256, 357
-0.494, 97, 1, 352, 357
-0.516147, 193, 1, 448, 357
-0.585167, 1, 33, 256, 288
-0.642509, 257, 65, 500, 320
-0.675704, 97, 1, 352, 256
-0.76216, 129, 97, 384, 352
-0.838386, 369, 65, 496, 320
-0.839292, 353, 1, 480, 357
-0.842449, 1, 65, 128, 320
-0.842805, 17, 1, 144, 357
-0.850614, 1, 33, 500, 160
-0.853574, 161, 1, 288, 357
-0.864127, 113, 1, 240, 357
-0.868677, 321, 1, 448, 256
-0.871047, 209, 1, 336, 357
-0.873406, 49, 33, 176, 288
-0.874368, 113, 65, 240, 320
-0.877231, 193, 97, 320, 352
-0.879661, 177, 1, 304, 256
-0.885932, 305, 1, 432, 357
-0.887054, 1, 145, 500, 272
-0.887826, 305, 97, 432, 352
-0.898138, 225, 145, 480, 272
-0.898319, 1, 81, 500, 208
-0.902958, 33, 17, 288, 144
-0.90372, 257, 97, 384, 352
-0.904653, 33, 65, 288, 192
-0.90733, 65, 1, 192, 357
-0.911061, 1, 209, 500, 336
-0.91282, 369, 97, 496, 224
-0.914172, 193, 17, 448, 144
-0.915649, 17, 49, 80, 176
-0.915769, 1, 113, 256, 240
-0.91663, 97, 225, 352, 352
-0.918973, 273, 1, 400, 256
-0.919419, 257, 1, 384, 357
-0.919671, 225, 1, 352, 256
-0.920841, 161, 65, 416, 192
-0.922554, 257, 97, 500, 224
-0.924628, 225, 161, 288, 288
-0.925659, 393, 81, 456, 208
-0.926962, 209, 161, 336, 288
-0.926977, 337, 145, 464, 272
-0.927315, 41, 49, 104, 176
-0.927528, 225, 209, 288, 336
-0.928766, 225, 193, 480, 320
-0.928898, 1, 65, 128, 192
-0.93039, 65, 177, 320, 304
-0.930934, 145, 1, 272, 128
-0.932312, 369, 113, 432, 240
-0.934464, 209, 225, 336, 352
-0.934475, 201, 145, 264, 272
-0.935053, 433, 97, 496, 224
-0.93529, 81, 65, 208, 192
-0.937117, 1, 225, 256, 352
-0.937528, 97, 113, 352, 240
-0.938363, 209, 1, 272, 128
-0.938508, 369, 49, 496, 176
-0.938663, 289, 129, 416, 256
-0.94074, 65, 65, 128, 192
-0.940899, 249, 177, 312, 304
-0.941727, 393, 145, 456, 272
-0.941988, 17, 97, 80, 224
-0.942341, 369, 33, 432, 160
-0.942504, 201, 209, 264, 336
-0.942634, 89, 65, 152, 192
-0.943008, 161, 225, 288, 352
-0.943558, 257, 225, 320, 352
-0.943945, 17, 81, 80, 144
-0.944144, 25, 57, 88, 120
-0.944361, 433, 161, 496, 288
-0.944785, 217, 161, 280, 224
-0.944914, 129, 65, 256, 192
-0.945296, 425, 49, 488, 176
-0.945604, 1, 113, 128, 240
-0.945908, 49, 65, 112, 128
-0.946754, 89, 17, 152, 144
-0.947246, 177, 49, 304, 176
-0.947613, 65, 89, 128, 152
-0.948026, 217, 49, 280, 176
-0.948357, 345, 129, 408, 256
-0.948593, 225, 193, 288, 256
-0.948681, 113, 65, 176, 192
-0.9489, 145, 113, 272, 240
-0.949248, 393, 33, 456, 160
-0.949325, 201, 209, 264, 272
-0.950302, 185, 1, 248, 128
-0.950374, 225, 297, 288, 357
-0.950549, 377, 161, 440, 224
-0.951976, 201, 289, 264, 352
-0.952383, 193, 65, 256, 192
-0.952535, 1, 177, 64, 304
-0.952612, 41, 89, 104, 152
-0.952616, 321, 17, 448, 144
-0.952949, 361, 121, 424, 184
-0.953016, 417, 73, 480, 136
-0.953171, 225, 257, 288, 320
-0.953734, 233, 233, 296, 296
-0.954077, 17, 17, 144, 144
-0.95413, 409, 97, 472, 160
-0.954408, 433, 105, 496, 168
-0.954756, 169, 97, 232, 224
-0.95489, 265, 281, 328, 344
-0.95494, 145, 65, 208, 192
-0.955455, 1, 217, 64, 280
-0.955558, 369, 161, 432, 288
-0.955844, 1, 225, 128, 352
-0.955916, 161, 177, 288, 304
-0.956046, 1, 225, 64, 352
-0.956526, 353, 161, 416, 224
-0.957413, 65, 17, 128, 144
-0.957837, 321, 81, 448, 208
-0.957972, 41, 97, 104, 224
-0.958494, 81, 17, 208, 144
-0.958769, 81, 65, 144, 128
-0.958792, 193, 241, 256, 304
-0.958925, 217, 41, 280, 104
-0.959167, 177, 225, 240, 352
-0.959627, 329, 137, 392, 200
-0.959857, 321, 129, 384, 256
-0.960562, 153, 17, 216, 144
-0.960753, 113, 1, 176, 128
-0.960845, 9, 121, 72, 184
-0.961017, 257, 257, 320, 320
-0.96113, 353, 185, 416, 248
-0.961543, 409, 65, 472, 320
-0.961659, 113, 225, 240, 352
-0.961685, 433, 161, 496, 224
-0.962051, 57, 113, 120, 176
-0.962206, 273, 145, 336, 272
-0.96251, 177, 289, 240, 352
-0.962517, 209, 97, 336, 224
-0.962837, 17, 241, 80, 304
-0.962913, 385, 97, 448, 160
-0.962916, 401, 169, 464, 232
-0.962938, 425, 41, 488, 104
-0.963361, 409, 193, 472, 320
-0.963803, 201, 185, 264, 248
-0.963869, 213, 249, 244, 312
-0.964003, 57, 41, 120, 104
-0.964037, 369, 193, 496, 320
-0.964079, 49, 49, 80, 176
-0.964651, 53, 57, 84, 120
-0.964667, 177, 281, 304, 344
-0.964732, 81, 113, 144, 176
-0.96478, 93, 81, 124, 144
-0.965004, 389, 97, 420, 224
-0.965073, 193, 33, 256, 96
-0.965438, 289, 177, 416, 304
-0.965693, 401, 41, 464, 104
-0.965712, 229, 1, 260, 128
-0.965923, 433, 65, 496, 320
-0.965973, 201, 265, 264, 328
-0.966054, 105, 65, 168, 128
-0.966462, 241, 169, 304, 232
-0.96667, 37, 33, 68, 160
-0.966689, 401, 201, 464, 264
-0.96682, 373, 113, 404, 240
-0.966898, 209, 1, 272, 64
-0.967038, 73, 81, 104, 144
-0.967046, 221, 145, 252, 272
-0.967075, 257, 225, 384, 352
-0.967166, 361, 1, 424, 256
-0.967337, 249, 209, 312, 272
-0.967375, 209, 193, 240, 320
-0.96744, 225, 241, 256, 304
-0.967637, 1, 97, 128, 160
-0.967658, 25, 33, 88, 288
-0.967863, 361, 137, 392, 200
-0.967961, 345, 33, 408, 160
-0.968029, 233, 225, 264, 352
-0.968039, 177, 113, 240, 176
-0.9681, 217, 289, 248, 352
-0.968287, 417, 81, 448, 208
-0.968576, 1, 193, 64, 256
-0.968813, 221, 217, 252, 280
-0.968834, 241, 1, 304, 128
-0.968834, 345, 177, 408, 304
-0.968867, 65, 225, 192, 352
-0.968871, 193, 81, 256, 144
-0.968879, 217, 97, 280, 352
-0.969021, 253, 297, 284, 357
-0.969024, 237, 193, 268, 256
-0.969133, 385, 1, 448, 256
-0.96924, 233, 9, 296, 72
-0.969411, 97, 113, 224, 240
-0.969421, 209, 1, 336, 128
-0.969481, 377, 201, 440, 264
-0.969576, 221, 209, 252, 336
-0.969592, 177, 257, 304, 320
-0.969651, 21, 65, 52, 192
-0.969899, 353, 169, 480, 232
-0.969909, 41, 1, 104, 128
-0.969997, 233, 145, 264, 272
-0.970009, 425, 201, 488, 264
-0.970055, 249, 169, 280, 232
-0.970218, 153, 281, 216, 344
-0.970228, 177, 9, 240, 72
-0.970296, 41, 225, 104, 352
-0.970405, 369, 113, 496, 176
-0.970432, 417, 81, 448, 144
-0.970484, 33, 49, 64, 112
-0.970487, 217, 1, 248, 128
-0.970488, 49, 249, 112, 312
-0.970518, 393, 73, 456, 136
-0.970529, 5, 217, 36, 280
-0.970784, 73, 113, 136, 240
-0.970877, 329, 161, 392, 224
-0.971143, 369, 1, 496, 128
-0.971196, 257, 177, 288, 304
-0.971246, 241, 217, 272, 280
-0.97126, 33, 113, 96, 176
-0.971348, 145, 81, 208, 144
-0.971357, 69, 49, 100, 176
-0.97138, 225, 297, 352, 357
-0.971523, 245, 161, 276, 288
-0.971524, 257, 201, 288, 264
-0.97157, 53, 81, 84, 144
-0.971719, 365, 161, 396, 224
-0.971863, 257, 233, 320, 296
-0.971878, 373, 121, 404, 184
-0.97188, 417, 33, 448, 160
-0.972042, 393, 137, 456, 200
-0.972089, 441, 97, 472, 224
-0.97211, 425, 137, 488, 200
-0.97237, 361, 129, 392, 256
-0.972373, 129, 281, 192, 344
-0.972496, 177, 201, 304, 264
-0.972499, 1, 57, 128, 120
-0.972524, 385, 209, 448, 336
-0.972625, 49, 113, 176, 240
-0.972708, 225, 73, 288, 136
-0.972724, 209, 233, 336, 296
-0.972774, 353, 41, 480, 104
-0.972874, 265, 169, 328, 232
-0.972952, 73, 257, 136, 320
-0.972969, 405, 81, 436, 208
-0.972986, 273, 81, 400, 208
-0.973075, 105, 225, 168, 352
-0.973117, 249, 129, 312, 256
-0.973156, 89, 89, 152, 152
-0.973313, 1, 97, 64, 352
-0.973341, 1, 49, 64, 112
-0.973347, 277, 225, 308, 288
-0.973373, 73, 105, 104, 168
-0.973541, 433, 209, 496, 336
-0.973544, 225, 113, 288, 240
-0.973624, 233, 49, 264, 112
-0.973643, 385, 97, 448, 352
-0.973774, 193, 153, 256, 216
-0.973809, 377, 153, 408, 216
-0.973912, 337, 137, 464, 200
-0.973929, 429, 81, 460, 208
-0.973976, 377, 41, 440, 104
-0.973986, 221, 41, 252, 104
-0.973997, 457, 97, 488, 224
-0.974133, 169, 81, 232, 144
-0.974265, 1, 193, 32, 256
-0.974274, 77, 57, 108, 120
-0.974338, 1, 177, 128, 304
-0.974375, 233, 281, 264, 344
-0.974388, 161, 41, 288, 104
-0.974448, 389, 161, 420, 224
-0.97446, 429, 73, 460, 136
-0.9745, 21, 97, 52, 160
-0.974609, 401, 145, 432, 272
-0.974663, 221, 169, 252, 232
-0.974777, 237, 161, 268, 224
-0.974803, 129, 225, 192, 352
-0.974809, 177, 33, 240, 288
-0.974812, 221, 1, 252, 64
-0.974839, 1, 177, 32, 304
-0.974904, 225, 265, 352, 328
-0.975058, 145, 49, 208, 112
-0.975139, 93, 33, 124, 160
-0.975246, 177, 145, 240, 272
-0.975285, 81, 41, 144, 104
-0.975316, 121, 41, 184, 104
-0.975321, 241, 49, 304, 112
-0.975389, 469, 113, 500, 240
-0.975399, 385, 113, 416, 176
-0.975415, 209, 177, 336, 240
-0.975442, 1, 297, 64, 357
-0.975445, 437, 161, 468, 288
-0.975484, 425, 1, 488, 128
-0.975567, 33, 89, 64, 152
-0.975575, 469, 129, 500, 192
-0.975592, 441, 65, 472, 128
-0.975782, 49, 81, 176, 144
-0.975798, 1, 257, 128, 320
-0.975825, 453, 161, 484, 288
-0.975867, 297, 129, 360, 256
-0.97587, 197, 65, 228, 192
-0.975874, 469, 105, 500, 168
-0.975878, 221, 49, 252, 176
-0.975884, 177, 265, 240, 328
-0.975893, 225, 49, 352, 176
-0.975937, 129, 281, 256, 344
-0.976026, 153, 225, 216, 352
-0.976028, 397, 33, 428, 160
-0.976063, 441, 105, 472, 168
-0.976179, 129, 1, 192, 64
-0.97618, 401, 161, 432, 224
-0.976188, 277, 225, 308, 352
-0.976251, 49, 65, 112, 320
-0.976315, 177, 217, 240, 280
-0.976317, 97, 81, 224, 144
-0.976317, 197, 81, 228, 144
-0.976428, 337, 17, 400, 80
-0.976459, 253, 225, 284, 352
-0.976493, 369, 89, 496, 152
-0.976761, 129, 257, 256, 320
-0.97681, 237, 249, 268, 312
-0.97686, 353, 209, 416, 272
-0.976899, 89, 41, 120, 104
-0.976904, 417, 145, 448, 272
-0.976922, 1, 129, 32, 256
-0.97698, 97, 265, 160, 328
-0.976998, 89, 33, 152, 288
-0.977033, 193, 57, 256, 120
-0.977116, 37, 81, 68, 208
-0.977145, 297, 209, 360, 336
-0.977154, 205, 1, 236, 128
-0.977208, 361, 1, 424, 64
-0.977253, 1, 241, 32, 304
-0.977343, 469, 161, 500, 288
-0.977441, 245, 49, 276, 112
-0.977441, 81, 65, 112, 192
-0.97766, 369, 201, 496, 264
-0.977695, 289, 137, 416, 200
-0.97772, 25, 217, 88, 280
-0.977767, 265, 289, 296, 352
-0.977809, 457, 41, 488, 104
-0.977848, 257, 257, 288, 320
-0.977881, 209, 65, 240, 192
-0.977904, 1, 121, 128, 184
-0.977944, 201, 249, 232, 312
-0.977983, 429, 33, 460, 160
-0.978129, 25, 1, 88, 357
-0.97813, 453, 105, 484, 168
-0.978226, 209, 145, 240, 272
-0.978317, 469, 41, 500, 104
-0.978347, 197, 289, 228, 352
-0.978417, 17, 113, 48, 240
-0.978435, 205, 225, 236, 288
-0.978478, 321, 201, 448, 264
-0.978491, 169, 241, 232, 304
-0.978525, 177, 193, 240, 256
-0.97854, 1, 265, 64, 328
-0.978562, 113, 1, 240, 64
-0.978603, 49, 273, 176, 336
-0.978676, 101, 105, 132, 168
-0.978686, 209, 121, 272, 184
-0.97878, 65, 49, 96, 112
-0.978802, 465, 49, 496, 176
-0.978804, 153, 1, 216, 64
-0.978839, 281, 249, 312, 312
-0.978848, 337, 1, 400, 256
-0.978866, 49, 105, 176, 168
-0.978962, 389, 145, 420, 272
-0.97899, 5, 161, 36, 224
-0.979056, 25, 177, 88, 304
-0.97912, 441, 49, 472, 176
-0.979163, 393, 225, 456, 288
-0.979173, 89, 113, 120, 176
-0.979311, 117, 65, 148, 192
-0.979344, 257, 161, 384, 224
-0.979375, 353, 1, 416, 357
-0.979388, 5, 273, 36, 336
-0.979411, 409, 105, 440, 168
-0.979435, 217, 1, 280, 256
-0.979464, 261, 177, 292, 240
-0.979506, 49, 49, 176, 112
-0.97951, 225, 209, 352, 272
-0.979522, 17, 161, 48, 288
-0.979566, 429, 97, 460, 160
-0.979573, 97, 81, 128, 208
-0.97963, 337, 81, 400, 208
-0.979707, 273, 161, 304, 288
-0.979758, 173, 65, 204, 192
-0.979762, 141, 65, 172, 192
-0.979837, 97, 113, 160, 240
-0.979882, 121, 257, 184, 320
-0.979964, 421, 41, 452, 104
-0.979973, 73, 225, 136, 352
-0.980018, 441, 41, 472, 104
-0.980074, 209, 185, 240, 248
-0.980084, 245, 1, 276, 128
-0.980105, 305, 161, 432, 224
-0.980114, 213, 81, 244, 144
-0.980138, 5, 225, 36, 352
-0.980174, 169, 57, 232, 120
-0.98026, 217, 1, 280, 357
-0.980318, 249, 145, 312, 208
-0.980325, 201, 105, 232, 168
-0.980325, 197, 225, 228, 352
-0.980326, 113, 177, 240, 304
-0.980424, 153, 33, 216, 288
-0.98046, 177, 73, 304, 136
-0.980466, 25, 33, 88, 96
-0.98053, 17, 1, 80, 128
-0.980563, 305, 137, 368, 200
-0.980578, 161, 161, 288, 224
-0.980595, 161, 225, 288, 288
-0.980617, 305, 225, 432, 352
-0.980629, 5, 137, 36, 200
-0.980669, 445, 169, 476, 232
-0.980721, 417, 17, 480, 80
-0.9808, 49, 177, 176, 304
-0.98083, 233, 17, 264, 80
-0.980903, 469, 169, 500, 232
-0.981011, 257, 97, 320, 352
-0.981114, 453, 49, 484, 176
-0.981114, 405, 81, 436, 144
-0.981121, 241, 1, 304, 357
-0.981146, 65, 297, 192, 357
-0.981267, 261, 233, 292, 296
-0.981268, 273, 201, 336, 264
-0.981314, 385, 33, 416, 160
-0.981322, 105, 297, 168, 357
-0.981366, 105, 73, 136, 136
-0.981396, 353, 161, 384, 224
-0.981401, 153, 65, 184, 192
-0.981429, 269, 201, 300, 264
-0.981492, 373, 33, 404, 160
-0.981527, 273, 17, 400, 144
-0.98155, 97, 57, 224, 120
-0.981614, 105, 17, 168, 80
-0.981615, 457, 161, 488, 224
-0.981712, 417, 233, 480, 296
-0.98178, 349, 113, 380, 240
-0.981804, 157, 1, 188, 128
-0.981885, 377, 177, 408, 240
-0.981895, 25, 209, 56, 272
-0.98191, 61, 105, 92, 168
-0.981916, 21, 241, 52, 304
-0.982033, 165, 9, 196, 72
-0.982036, 5, 113, 36, 176
-0.982042, 321, 113, 448, 176
-0.982058, 33, 297, 96, 357
-0.982071, 17, 121, 48, 184
-0.982148, 337, 97, 400, 352
-0.982171, 181, 297, 212, 357
-0.982193, 161, 17, 288, 80
-0.982234, 65, 25, 192, 88
-0.982421, 21, 73, 52, 136
-0.982424, 105, 33, 136, 160
-0.982497, 25, 225, 56, 352
-0.982521, 461, 81, 492, 144
-0.982582, 29, 177, 60, 304
-0.982605, 321, 201, 384, 264
-0.982659, 17, 145, 80, 208
-0.982689, 349, 137, 380, 200
-0.982734, 53, 97, 84, 224
-0.982743, 117, 1, 148, 64
-0.982835, 241, 49, 304, 176
-0.982867, 25, 17, 56, 144
-0.983011, 257, 185, 384, 248
-0.983085, 281, 225, 344, 288
-0.983104, 129, 65, 160, 192
-0.983116, 265, 225, 296, 352
-0.983175, 377, 1, 440, 357
-0.983199, 185, 49, 216, 176
-0.9832, 361, 97, 424, 352
-0.983278, 1, 233, 128, 296
-0.983316, 397, 105, 428, 168
-0.983448, 129, 1, 160, 128
-0.983458, 289, 225, 320, 352
-0.983472, 373, 161, 404, 288
-0.983489, 353, 41, 416, 104
-0.983523, 257, 1, 320, 256
-0.983537, 209, 9, 336, 72
-0.983562, 409, 201, 440, 264
-0.983577, 13, 185, 44, 248
-0.983634, 265, 33, 328, 96
-0.983641, 209, 153, 336, 216
-0.983713, 177, 1, 208, 64
-0.983744, 97, 113, 224, 176
-0.983749, 209, 25, 240, 88
-0.983829, 261, 57, 292, 120
-0.983905, 413, 161, 444, 224
-0.983948, 129, 185, 256, 248
-0.983952, 73, 233, 136, 296
-0.983988, 425, 193, 456, 320
-0.984, 81, 297, 144, 357
-0.984073, 1, 297, 32, 357
-0.98408, 113, 33, 176, 288
-0.984152, 153, 25, 216, 88
-0.984185, 337, 113, 400, 176
-0.984319, 389, 137, 420, 200
-0.98449, 209, 49, 336, 112
-0.98453, 233, 65, 264, 192
-0.98454, 141, 281, 172, 344
-0.984598, 177, 81, 208, 144
-0.984615, 417, 1, 480, 357
-0.984633, 377, 41, 408, 104
-0.984647, 353, 1, 480, 64
-0.98473, 169, 289, 200, 352
-0.984754, 101, 25, 132, 88
-0.98477, 149, 49, 180, 112
-0.984836, 225, 73, 256, 136
-0.984848, 433, 161, 464, 224
-0.984883, 153, 121, 216, 184
-0.98503, 185, 1, 248, 357
-0.985083, 273, 33, 304, 96
-0.985105, 105, 1, 168, 357
-0.985112, 353, 17, 384, 80
-0.985118, 313, 1, 376, 64
-0.985119, 273, 1, 400, 64
-0.985157, 445, 201, 476, 264
-0.985211, 389, 185, 420, 248
-0.985266, 457, 137, 488, 200
-0.985271, 401, 137, 432, 200
-0.985271, 277, 281, 308, 344
-0.985478, 1, 169, 64, 232
-0.985492, 129, 1, 192, 357
-0.985564, 225, 193, 256, 256
-0.985594, 393, 17, 456, 80
-0.985642, 217, 113, 248, 176
-0.985697, 297, 97, 360, 352
-0.985705, 353, 225, 480, 288
-0.985737, 1, 145, 128, 208
-0.985742, 429, 201, 460, 264
-0.985766, 293, 273, 324, 336
-0.985814, 209, 57, 240, 120
-0.985833, 145, 121, 272, 184
-0.985845, 377, 9, 408, 72
-0.985893, 1, 1, 64, 357
-0.985906, 157, 225, 188, 352
-0.985979, 269, 257, 300, 320
-0.986031, 65, 97, 96, 224
-0.986087, 153, 281, 184, 344
-0.986105, 321, 1, 384, 128
-0.986108, 105, 265, 136, 328
-0.986144, 273, 297, 400, 357
-0.986204, 97, 233, 224, 296
-0.986238, 21, 49, 52, 112
-0.986251, 361, 185, 392, 248
-0.986259, 177, 1, 208, 128
-0.986264, 29, 121, 60, 184
-0.986315, 197, 177, 228, 304
-0.986369, 81, 249, 112, 312
-0.986398, 209, 137, 240, 200
-0.986405, 61, 249, 92, 312
-0.986414, 57, 137, 120, 200
-0.986422, 281, 257, 344, 320
-0.986426, 189, 113, 220, 240
-0.98649, 141, 1, 172, 128
-0.986493, 289, 297, 352, 357
-0.986555, 97, 241, 160, 304
-0.986629, 169, 153, 232, 216
-0.986643, 41, 121, 72, 184
-0.986651, 49, 177, 112, 304
-0.986661, 129, 273, 160, 336
-0.986741, 257, 241, 384, 304
-0.986744, 145, 113, 208, 240
-0.986914, 105, 121, 168, 184
-0.986977, 25, 193, 88, 256
-0.98704, 209, 129, 336, 192
-0.987199, 49, 1, 112, 357
-0.987211, 225, 301, 288, 332
-0.987274, 273, 25, 400, 88
-0.987289, 113, 25, 240, 88
-0.987306, 57, 1, 88, 128
-0.987315, 305, 161, 368, 224
-0.987367, 1, 201, 128, 264
-0.987381, 49, 241, 176, 304
-0.987506, 361, 97, 424, 160
-0.987581, 353, 1, 384, 128
-0.987671, 41, 81, 104, 112
-0.987708, 273, 209, 400, 272
-0.987729, 257, 129, 288, 256
-0.98774, 49, 129, 176, 192
-0.987802, 81, 17, 112, 144
-0.987807, 161, 1, 224, 357
-0.987834, 17, 297, 144, 357
-0.987837, 1, 1, 64, 256
-0.987858, 201, 325, 264, 356
-0.987911, 225, 317, 288, 348
-0.98794, 353, 65, 480, 128
-0.987949, 361, 161, 424, 192
-0.987993, 313, 297, 376, 357
-0.988027, 337, 129, 368, 256
-0.988043, 5, 81, 36, 208
-0.98805, 265, 1, 328, 357
-0.988092, 209, 289, 272, 320
-0.988099, 221, 97, 252, 224
-0.988188, 85, 225, 116, 352
-0.988227, 225, 197, 288, 228
-0.988241, 177, 97, 304, 160
-0.988264, 193, 309, 256, 340
-0.988317, 409, 97, 472, 128
-0.988322, 225, 161, 480, 224
-0.98835, 45, 225, 76, 352
-0.988397, 65, 77, 128, 108
-0.988417, 225, 257, 288, 288
-0.988491, 65, 101, 128, 132
-0.988495, 329, 1, 392, 357
-0.988548, 413, 193, 444, 320
-0.988591, 369, 73, 432, 136
-0.988621, 117, 17, 148, 144
-0.988726, 25, 57, 88, 88
-0.988737, 361, 81, 392, 208
-0.988793, 201, 205, 264, 236
-0.98888, 393, 109, 456, 140
-0.988883, 201, 217, 264, 248
-0.988952, 393, 165, 456, 196
-0.989008, 81, 1, 144, 357
-0.989034, 209, 177, 272, 208
-0.989034, 225, 241, 288, 272
-0.989046, 25, 69, 88, 100
-0.989055, 225, 269, 288, 300
-0.989064, 85, 113, 116, 240
-0.989066, 233, 213, 296, 244
-0.98908, 65, 297, 320, 357
-0.989085, 193, 277, 256, 308
-0.989116, 25, 93, 88, 124
-0.989192, 353, 149, 416, 180
-0.989204, 233, 289, 296, 320
-0.989224, 17, 241, 80, 272
-0.989283, 193, 249, 256, 280
-0.9893, 245, 113, 276, 240
-0.989302, 89, 73, 152, 104
-0.989305, 65, 1, 192, 64
-0.989366, 289, 145, 320, 272
-0.989374, 69, 1, 100, 128
-0.989471, 57, 65, 120, 96
-0.989484, 369, 117, 432, 148
-0.98958, 265, 281, 328, 312
-0.989581, 1, 33, 128, 96
-0.989593, 145, 249, 208, 312
-0.989604, 121, 113, 184, 240
-0.989616, 65, 121, 128, 152
-0.989621, 329, 149, 392, 180
-0.989642, 257, 257, 320, 288
-0.98965, 137, 225, 168, 352
-0.989675, 433, 65, 496, 96
-0.989683, 425, 109, 488, 140
-0.989689, 225, 229, 288, 260
-0.989741, 433, 169, 496, 200
-0.989787, 177, 289, 240, 320
-0.989828, 193, 9, 448, 72
-0.989911, 177, 117, 240, 148
-0.989917, 193, 237, 256, 268
-0.989957, 433, 97, 496, 128
-0.989959, 357, 177, 388, 304
-0.989987, 201, 193, 264, 224
-0.989989, 361, 129, 424, 160
-0.990008, 65, 89, 128, 120
-0.990017, 113, 73, 176, 104
-0.990058, 1, 225, 64, 256
-0.990078, 65, 41, 320, 104
-0.990101, 465, 209, 496, 336
-0.99011, 369, 177, 432, 208
-0.990127, 225, 137, 480, 200
-0.990157, 193, 1, 256, 32
-0.990172, 273, 145, 336, 208
-0.990188, 329, 137, 392, 168
-0.990201, 1, 201, 64, 232
-0.990203, 1, 213, 64, 244
-0.990205, 225, 53, 288, 84
-0.990206, 41, 121, 104, 152
-0.990208, 265, 297, 328, 328
-0.990244, 217, 161, 280, 192
-0.990265, 353, 201, 416, 232
-0.990267, 249, 317, 312, 348
-0.990286, 233, 185, 296, 216
-0.990293, 193, 261, 256, 292
-0.990309, 17, 81, 80, 112
-0.990323, 1, 117, 64, 148
-0.990332, 273, 321, 336, 352
-0.990347, 257, 189, 320, 220
-0.990379, 393, 201, 456, 232
-0.990399, 337, 165, 400, 196
-0.990403, 33, 253, 96, 284
-0.990422, 49, 217, 112, 280
-0.990437, 321, 89, 448, 152
-0.990451, 385, 189, 448, 220
-0.990472, 57, 53, 120, 84
-0.990472, 273, 309, 336, 340
-0.990478, 273, 9, 336, 72
-0.990554, 89, 85, 152, 116
-0.990561, 225, 193, 480, 256
-0.990584, 41, 109, 104, 140
-0.990588, 377, 85, 440, 116
-0.990599, 1, 81, 256, 144
-0.990614, 89, 117, 152, 148
-0.990627, 257, 233, 320, 264
-0.990629, 345, 181, 408, 212
-0.990638, 65, 265, 128, 296
-0.990662, 265, 269, 328, 300
-0.990663, 89, 273, 152, 304
-0.990677, 433, 189, 496, 220
-0.990721, 65, 257, 320, 320
-0.990733, 161, 325, 224, 356
-0.990737, 409, 77, 472, 108
-0.99075, 425, 121, 488, 152
-0.990757, 401, 153, 464, 184
-0.990778, 289, 145, 352, 176
-0.990794, 193, 33, 256, 64
-0.990831, 325, 129, 356, 256
-0.990864, 433, 297, 496, 357
-0.990866, 113, 281, 176, 312
-0.990868, 169, 17, 232, 48
-0.990868, 257, 245, 320, 276
-0.990882, 169, 305, 232, 336
-0.99089, 425, 157, 488, 188
-0.990898, 9, 129, 72, 160
-0.990912, 17, 105, 80, 136
-0.990924, 1, 169, 128, 232
-0.990939, 369, 213, 432, 244
-0.990942, 57, 253, 120, 284
-0.99095, 233, 13, 296, 44
-0.990951, 257, 41, 500, 104
-0.991019, 121, 1, 184, 32
-0.99103, 217, 25, 280, 56
-0.991037, 409, 189, 472, 220
-0.991039, 137, 69, 200, 100
-0.991077, 129, 21, 192, 52
-0.991096, 193, 17, 256, 48
-0.991104, 393, 177, 456, 208
-0.991106, 153, 281, 216, 312
-0.991108, 437, 209, 468, 336
-0.991118, 369, 41, 432, 72
-0.991142, 105, 21, 168, 52
-0.991146, 385, 97, 448, 128
-0.991152, 225, 69, 288, 100
-0.991173, 433, 41, 496, 72
-0.991196, 273, 273, 400, 336
-0.991218, 201, 45, 264, 76
-0.991228, 153, 293, 216, 324
-0.991232, 29, 129, 60, 256
-0.991232, 113, 145, 240, 208
-0.991253, 377, 149, 440, 180
-0.991277, 73, 133, 136, 164
-0.991282, 313, 217, 376, 248
-0.991293, 49, 133, 112, 164
-0.991311, 433, 133, 496, 164
-0.991317, 257, 217, 320, 248
-0.99133, 453, 209, 484, 336
-0.991343, 249, 49, 280, 176
-0.991346, 65, 325, 128, 356
-0.991354, 393, 225, 456, 256
-0.991358, 1, 65, 500, 128
-0.991363, 169, 237, 232, 268
-0.991384, 177, 221, 240, 252
-0.991397, 305, 193, 336, 320
-0.991407, 189, 1, 220, 128
-0.99142, 1, 253, 64, 284
-0.991437, 169, 105, 232, 136
-0.991439, 1, 41, 500, 104
-0.991449, 81, 61, 144, 92
-0.991481, 249, 165, 312, 196
-0.991489, 321, 177, 384, 304
-0.991508, 425, 201, 488, 232
-0.991514, 257, 49, 384, 112
-0.991515, 1, 189, 64, 220
-0.991536, 169, 5, 232, 36
-0.991541, 113, 269, 176, 300
-0.991568, 401, 225, 432, 352
-0.991582, 161, 289, 416, 352
-0.991709, 213, 265, 244, 296
-0.991767, 221, 281, 252, 312
-0.991772, 1, 297, 500, 357
-0.991781, 57, 69, 88, 100
-0.991807, 233, 205, 264, 236
-0.991832, 225, 325, 256, 356
-0.99184, 213, 317, 244, 348
-0.991882, 1, 113, 256, 176
-0.991885, 253, 305, 284, 336
-0.991895, 17, 9, 144, 72
-0.991916, 221, 253, 252, 284
-0.991948, 225, 305, 256, 336
-0.99196, 373, 165, 404, 196
-0.991974, 241, 317, 272, 348
-0.991993, 231, 241, 246, 304
-0.992028, 313, 81, 376, 208
-0.992039, 421, 93, 452, 124
-0.992056, 69, 77, 100, 108
-0.992057, 225, 265, 256, 296
-0.992118, 1, 217, 32, 248
-0.99212, 241, 193, 272, 224
-0.992127, 225, 249, 240, 312
-0.992143, 221, 17, 252, 48
-0.992163, 253, 317, 284, 348
-0.992187, 73, 97, 104, 128
-0.99219, 221, 225, 252, 256
-0.992195, 361, 165, 392, 196
-0.992201, 365, 149, 396, 180
-0.992206, 197, 105, 228, 136
-0.992207, 253, 197, 284, 228
-0.992221, 223, 225, 238, 288
-0.992225, 205, 253, 236, 284
-0.992227, 441, 105, 472, 136
-0.992229, 257, 289, 288, 320
-0.99223, 233, 285, 264, 316
-0.99224, 225, 241, 256, 272
-0.992243, 45, 77, 76, 108
-0.992248, 81, 69, 112, 100
-0.992257, 93, 85, 124, 116
-0.992271, 221, 293, 252, 324
-0.992274, 213, 305, 244, 336
-0.992288, 237, 301, 268, 332
-0.992293, 125, 1, 156, 32
-0.9923, 49, 217, 176, 280
-0.992307, 1, 137, 500, 200
-0.992316, 401, 165, 432, 196
-0.992322, 209, 277, 240, 308
-0.992322, 373, 129, 388, 192
-0.992327, 409, 105, 440, 136
-0.992329, 5, 229, 36, 260
-0.992348, 73, 109, 104, 140
-0.992365, 53, 89, 84, 120
-0.992367, 93, 105, 124, 136
-0.992369, 389, 113, 420, 144
-0.992372, 273, 241, 304, 272
-0.992376, 69, 225, 100, 352
-0.992378, 373, 125, 404, 156
-0.992381, 385, 165, 416, 196
-0.992385, 229, 1, 260, 32
-0.99239, 9, 33, 40, 160
-0.992418, 93, 117, 124, 148
-0.992419, 1, 197, 32, 228
-0.992426, 233, 217, 264, 248
-0.992433, 217, 241, 232, 304
-0.992434, 365, 137, 396, 168
-0.992439, 265, 301, 296, 332
-0.992453, 9, 241, 40, 272
-0.992461, 453, 105, 484, 136
-0.992462, 209, 113, 240, 144
-0.992483, 185, 225, 216, 352
-0.992487, 209, 229, 240, 260
-0.992496, 469, 137, 500, 168
-0.992511, 69, 61, 100, 92
-0.992516, 105, 73, 136, 104
-0.992524, 265, 321, 296, 352
-0.99253, 265, 1, 328, 128
-0.992539, 441, 1, 472, 128
-0.99254, 465, 109, 496, 140
-0.992542, 33, 233, 288, 296
-0.992549, 53, 57, 84, 88
-0.992554, 29, 53, 60, 84
-0.992559, 1, 261, 32, 292
-0.992564, 249, 57, 280, 88
-0.992584, 373, 177, 404, 208
-0.992601, 461, 125, 492, 156
-0.992607, 221, 37, 252, 68
-0.992607, 441, 169, 472, 200
-0.992613, 301, 145, 332, 272
-0.992618, 269, 229, 300, 260
-0.992618, 21, 97, 52, 128
-0.992619, 237, 269, 268, 300
-0.992631, 117, 13, 148, 44
-0.992634, 253, 185, 284, 216
-0.992634, 221, 213, 252, 244
-0.992635, 59, 49, 74, 112
-0.992649, 269, 1, 300, 128
-0.99265, 205, 241, 236, 272
-0.992653, 261, 209, 292, 240
-0.992654, 245, 289, 276, 320
-0.992667, 433, 93, 464, 124
-0.992671, 37, 89, 68, 120
-0.992673, 209, 293, 240, 324
-0.992677, 377, 153, 408, 184
-0.992683, 201, 317, 232, 348
-0.992683, 425, 105, 456, 136
-0.992687, 413, 165, 444, 196
-0.992693, 81, 81, 112, 112
-0.992697, 229, 49, 260, 80
-0.992697, 1, 281, 32, 312
-0.992698, 1, 201, 500, 264
-0.992709, 281, 257, 312, 288
-0.992709, 97, 81, 112, 144
-0.992716, 197, 117, 228, 148
-0.992716, 129, 73, 160, 104
-0.992718, 197, 277, 228, 308
-0.992719, 453, 169, 484, 200
-0.99272, 1, 105, 128, 136
-0.992723, 257, 265, 288, 296
-0.992724, 241, 233, 272, 264
-0.992727, 421, 81, 452, 112
-0.992729, 77, 121, 108, 152
-0.992732, 5, 161, 36, 192
-0.992733, 245, 245, 276, 276
-0.992737, 241, 1, 272, 32
-0.992739, 69, 257, 100, 288
-0.992741, 353, 145, 384, 176
-0.992749, 385, 185, 416, 216
-0.99275, 41, 53, 72, 84
-0.992758, 313, 129, 344, 256
-0.992761, 201, 265, 232, 296
-0.992764, 273, 97, 400, 160
-0.992769, 209, 209, 240, 240
-0.992769, 233, 253, 264, 284
-0.99277, 1, 93, 128, 124
-0.992792, 225, 325, 352, 356
-0.992797, 469, 157, 500, 188
-0.992799, 13, 217, 44, 248
-0.9928, 253, 229, 284, 260
-0.992803, 197, 293, 228, 324
-0.992803, 229, 173, 260, 204
-0.992803, 305, 65, 432, 128
-0.992804, 269, 289, 300, 320
-0.992807, 25, 85, 56, 116
-0.992807, 437, 181, 468, 212
-0.992807, 409, 89, 440, 120
-0.992811, 389, 153, 420, 184
-0.992821, 469, 169, 500, 200
-0.992824, 217, 185, 248, 216
-0.992827, 109, 113, 140, 144
-0.992827, 177, 313, 304, 344
-0.992827, 461, 189, 492, 220
-0.99283, 237, 161, 268, 192
-0.992833, 361, 177, 392, 208
-0.992835, 281, 229, 312, 260
-0.992843, 101, 25, 132, 56
-0.992845, 257, 277, 288, 308
-0.992847, 145, 65, 176, 96
-0.992849, 185, 121, 216, 152
-0.99285, 425, 169, 456, 200
-0.992877, 177, 289, 304, 320
-0.992878, 257, 217, 500, 280
-0.992956, 369, 113, 496, 144
-0.993026, 177, 273, 304, 304
-0.993048, 1, 113, 500, 176
-0.993071, 367, 145, 382, 208
-0.993075, 73, 65, 88, 128
-0.993076, 211, 297, 226, 357
-0.993113, 231, 209, 246, 272
-0.993165, 1, 17, 500, 80
-0.993198, 237, 225, 252, 288
-0.993207, 271, 257, 286, 320
-0.993212, 353, 165, 480, 196
-0.993237, 297, 1, 360, 357
-0.99329, 65, 57, 80, 120
-0.993306, 245, 193, 260, 256
-0.993322, 209, 261, 336, 292
-0.993367, 233, 1, 248, 64
-0.993367, 113, 209, 240, 272
-0.993427, 233, 273, 248, 336
-0.993511, 237, 201, 252, 264
-0.993515, 65, 17, 320, 80
-0.993528, 255, 161, 270, 224
-0.993579, 1, 89, 500, 152
-0.993605, 97, 73, 352, 136
-0.993616, 49, 49, 64, 112
-0.993619, 421, 81, 436, 144
-0.993621, 265, 169, 280, 232
-0.993642, 17, 261, 144, 292
-0.993702, 209, 245, 336, 276
-0.993751, 129, 325, 256, 356
-0.993759, 93, 41, 108, 104
-0.993782, 225, 73, 352, 136
-0.993791, 209, 301, 336, 332
-0.993813, 21, 233, 36, 296
-0.993824, 223, 281, 238, 344
-0.993851, 13, 209, 28, 272
-0.993859, 177, 113, 208, 240
-0.993868, 271, 289, 286, 352
-0.993889, 57, 225, 88, 352
-0.993892, 381, 161, 396, 224
-0.993904, 235, 297, 250, 357
-0.993931, 193, 113, 448, 176
-0.993933, 241, 249, 256, 312
-0.993935, 243, 217, 258, 280
-0.99394, 1, 137, 256, 200
-0.993943, 153, 161, 216, 288
-0.993946, 33, 57, 48, 120
-0.993968, 145, 301, 272, 332
-0.993982, 41, 129, 72, 256
-0.993983, 129, 185, 384, 248
-0.994001, 209, 265, 224, 328
-0.994045, 3, 169, 18, 232
-0.99405, 353, 153, 480, 184
-0.994052, 225, 313, 352, 344
-0.994053, 87, 57, 102, 120
-0.994055, 49, 81, 176, 112
-0.994066, 385, 121, 400, 184
-0.994072, 225, 289, 352, 320
-0.994091, 129, 285, 256, 316
-0.994112, 247, 49, 262, 112
-0.994142, 1, 273, 500, 336
-0.994171, 107, 81, 122, 144
-0.994204, 129, 225, 384, 288
-0.994206, 239, 9, 254, 72
-0.994208, 1, 225, 500, 288
-0.99422, 41, 81, 56, 144
-0.994256, 73, 177, 136, 304
-0.994256, 271, 201, 286, 264
-0.994265, 209, 209, 336, 240
-0.994271, 305, 149, 432, 180
-0.994274, 21, 97, 36, 160
-0.994278, 353, 189, 480, 220
-0.994283, 245, 9, 260, 72
-0.994288, 1, 69, 128, 100
-0.994292, 265, 233, 280, 296
-0.994297, 193, 265, 448, 328
-0.994302, 5, 233, 20, 296
-0.994311, 379, 121, 394, 184
-0.994317, 375, 161, 390, 224
-0.994324, 261, 65, 292, 192
-0.994327, 235, 33, 250, 96
-0.994331, 177, 325, 304, 356
-0.994332, 203, 289, 218, 352
-0.994336, 27, 97, 42, 160
-0.994364, 215, 265, 230, 328
-0.994366, 3, 257, 18, 320
-0.994382, 7, 209, 22, 272
-0.994384, 391, 161, 406, 224
-0.994391, 105, 225, 136, 352
-0.994404, 35, 89, 50, 152
-0.994405, 65, 89, 80, 152
-0.994419, 265, 201, 280, 264
-0.994471, 337, 137, 464, 168
-0.994495, 81, 57, 96, 120
-0.994526, 229, 41, 244, 104
-0.994528, 209, 233, 336, 264
-0.994531, 43, 49, 58, 112
-0.994544, 353, 125, 480, 156
-0.994559, 225, 73, 480, 136
-0.994564, 245, 153, 260, 216
-0.994578, 255, 201, 270, 264
-0.994581, 369, 205, 496, 236
-0.994597, 415, 97, 430, 160
-0.994606, 9, 185, 24, 248
-0.994612, 257, 57, 272, 120
-0.994613, 257, 145, 384, 176
-0.99463, 277, 113, 308, 240
-0.994652, 209, 221, 336, 252
-0.994658, 109, 113, 140, 240
-0.994661, 1, 117, 128, 148
-0.994672, 65, 161, 320, 224
-0.994696, 49, 177, 80, 304
-0.994708, 321, 221, 448, 252
-0.994753, 193, 189, 320, 220
-0.994762, 145, 1, 272, 32
-0.99481, 19, 209, 34, 272
-0.994815, 441, 73, 456, 136
-0.994825, 9, 161, 24, 224
-0.994835, 271, 177, 286, 240
-0.994841, 433, 89, 448, 152
-0.994854, 481, 105, 496, 168
-0.994871, 471, 105, 486, 168
-0.994872, 1, 57, 128, 88
-0.994872, 259, 297, 274, 357
-0.994877, 321, 201, 448, 232
-0.994883, 277, 297, 292, 357
-0.994896, 207, 81, 222, 144
-0.994899, 1, 193, 16, 256
-0.994901, 13, 233, 28, 296
-0.994908, 97, 121, 352, 184
-0.994919, 453, 105, 468, 168
-0.994923, 241, 297, 256, 357
-0.994928, 475, 41, 490, 104
-0.994931, 227, 1, 242, 64
-0.994943, 443, 97, 458, 160
-0.994945, 401, 161, 416, 224
-0.994949, 485, 41, 500, 104
-0.994959, 409, 105, 424, 168
-0.994971, 21, 265, 36, 328
-0.994982, 129, 269, 256, 300
-0.994988, 1, 81, 128, 112
-0.994996, 85, 81, 100, 144
-0.995005, 213, 97, 244, 352
-0.995016, 425, 65, 456, 320
-0.995041, 277, 217, 292, 280
-0.99505, 305, 161, 432, 192
-0.995057, 107, 105, 122, 168
-0.995059, 129, 257, 256, 288
-0.995062, 437, 65, 468, 320
-0.99508, 177, 61, 304, 92
-0.995082, 193, 177, 320, 208
-0.995084, 169, 225, 200, 352
-0.995087, 481, 129, 496, 192
-0.995092, 201, 89, 216, 152
-0.995113, 89, 105, 104, 168
-0.995131, 469, 41, 484, 104
-0.995144, 265, 289, 280, 352
-0.995155, 255, 233, 270, 296
-0.995155, 253, 297, 268, 357
-0.99516, 1, 201, 256, 264
-0.995161, 239, 169, 254, 232
-0.995161, 241, 189, 368, 220
-0.995182, 369, 101, 496, 132
-0.995186, 225, 277, 352, 308
-0.99519, 59, 73, 74, 136
-0.995192, 61, 177, 92, 304
-0.995193, 1, 161, 500, 224
-0.995225, 265, 265, 280, 328
-0.995259, 197, 297, 212, 357
-0.995281, 47, 89, 62, 152
-0.995288, 241, 49, 256, 112
-0.995297, 427, 73, 442, 136
-0.995298, 15, 185, 30, 248
-0.995305, 73, 89, 88, 152
-0.995313, 313, 1, 376, 256
-0.995318, 443, 41, 458, 104
-0.995318, 1, 129, 16, 192
-0.995345, 461, 41, 476, 104
-0.995348, 81, 309, 208, 340
-0.995352, 263, 49, 278, 112
-0.995352, 149, 49, 164, 112
-0.995374, 449, 65, 480, 320
-0.995389, 157, 113, 188, 240
-0.995389, 287, 225, 302, 288
-0.995391, 113, 73, 128, 136
-0.995394, 209, 241, 224, 304
-0.995405, 177, 49, 304, 80
-0.995416, 239, 273, 254, 336
-0.995422, 27, 65, 42, 128
-0.995424, 49, 117, 176, 148
-0.99543, 353, 177, 480, 208
-0.995441, 13, 121, 28, 184
-0.99545, 413, 65, 444, 320
-0.995458, 453, 65, 468, 128
-0.995467, 227, 177, 242, 240
-0.995477, 31, 225, 46, 288
-0.995486, 369, 297, 496, 357
-0.99549, 81, 69, 208, 100
-0.995498, 409, 161, 424, 224
-0.995505, 459, 105, 474, 168
-0.995516, 17, 325, 144, 356
-0.995521, 127, 1, 142, 64
-0.995533, 217, 289, 232, 352
-0.995534, 361, 145, 376, 208
-0.995546, 215, 81, 230, 144
-0.995549, 99, 49, 114, 112
-0.995563, 437, 41, 452, 104
-0.995566, 417, 161, 432, 224
-0.995592, 467, 161, 482, 224
-0.995604, 9, 257, 24, 320
-0.995623, 161, 201, 288, 232
-0.995638, 461, 65, 492, 320
-0.995646, 1, 129, 128, 160
-0.995648, 289, 133, 416, 164
-0.995702, 257, 301, 384, 332
-0.995755, 145, 21, 272, 52
-0.995883, 145, 77, 272, 108
-0.995885, 241, 165, 368, 196
-0.995897, 125, 113, 156, 240
-0.995898, 129, 33, 256, 64
-0.995902, 225, 97, 256, 352
-0.995922, 1, 249, 500, 312
-0.995927, 21, 65, 52, 320
-0.995929, 137, 113, 168, 240
-0.995937, 161, 225, 288, 256
-0.995948, 357, 1, 388, 256
-0.995986, 377, 1, 408, 256
-0.996019, 129, 117, 256, 148
-0.996031, 129, 65, 256, 96
-0.996034, 81, 281, 208, 312
-0.996036, 321, 297, 448, 357
-0.996063, 401, 1, 432, 256
-0.996104, 37, 33, 68, 288
-0.996124, 225, 241, 480, 304
-0.996138, 227, 221, 242, 252
-0.996145, 161, 245, 288, 276
-0.996172, 369, 69, 496, 100
-0.99619, 1, 97, 32, 352
-0.996191, 225, 325, 240, 356
-0.996203, 229, 257, 244, 288
-0.996215, 49, 297, 176, 328
-0.996248, 177, 157, 304, 188
-0.996251, 59, 69, 74, 100
-0.996262, 97, 17, 224, 48
-0.996281, 209, 141, 336, 172
-0.996292, 81, 105, 208, 136
-0.996296, 353, 25, 480, 56
-0.996313, 229, 309, 244, 340
-0.996319, 113, 137, 240, 168
-0.99634, 271, 313, 286, 344
-0.996353, 369, 217, 496, 248
-0.996355, 369, 41, 496, 72
-0.996373, 219, 237, 234, 268
-0.996397, 337, 85, 464, 116
-0.996406, 97, 81, 224, 112
-0.996426, 1, 241, 128, 272
-0.996437, 273, 97, 336, 224
-0.996447, 257, 217, 384, 248
-0.996452, 49, 129, 176, 160
-0.996465, 229, 209, 244, 240
-0.99647, 389, 193, 420, 320
-0.996474, 231, 269, 246, 300
-0.996474, 233, 325, 248, 356
-0.996474, 193, 17, 320, 48
-0.996485, 129, 313, 256, 344
-0.996495, 369, 233, 496, 264
-0.99651, 273, 201, 400, 232
-0.996512, 65, 269, 192, 300
-0.996517, 235, 249, 250, 280
-0.996528, 225, 277, 240, 308
-0.996542, 239, 321, 254, 352
-0.996555, 225, 1, 256, 256
-0.996574, 337, 5, 464, 36
-0.99659, 223, 313, 238, 344
-0.996591, 389, 1, 420, 256
-0.996619, 367, 165, 382, 196
-0.996622, 237, 97, 268, 352
-0.996629, 271, 301, 286, 332
-0.996669, 235, 309, 250, 340
-0.996671, 223, 253, 238, 284
-0.996677, 49, 49, 176, 80
-0.99668, 49, 33, 80, 288
-0.996681, 81, 29, 208, 60
-0.996683, 1, 213, 128, 244
-0.996693, 177, 117, 304, 148
-0.996694, 337, 81, 368, 208
-0.996696, 271, 325, 286, 356
-0.996699, 469, 1, 500, 128
-0.996705, 237, 205, 252, 236
-0.996707, 215, 257, 230, 288
-0.996743, 231, 285, 246, 316
-0.996753, 265, 325, 280, 356
-0.996767, 69, 69, 84, 100
-0.996777, 217, 293, 232, 324
-0.996794, 373, 165, 388, 196
-0.996795, 129, 213, 256, 244
-0.996798, 201, 105, 216, 136
-0.996816, 77, 77, 92, 108
-0.996817, 5, 221, 20, 252
-0.996818, 375, 129, 390, 160
-0.996821, 305, 233, 432, 296
-0.996822, 231, 297, 246, 328
-0.996833, 305, 181, 432, 212
-0.996839, 239, 1, 254, 32
-0.996847, 257, 245, 384, 276
-0.996848, 5, 197, 20, 228
-0.996849, 271, 289, 286, 320
-0.996869, 1, 141, 128, 172
-0.99687, 271, 261, 286, 292
-0.996873, 259, 297, 274, 328
-0.99688, 257, 289, 500, 352
-0.996899, 5, 237, 20, 268
-0.996908, 377, 149, 392, 180
-0.996912, 193, 73, 320, 104
-0.996917, 393, 97, 424, 352
-0.996923, 69, 33, 100, 288
-0.996925, 145, 189, 272, 220
-0.996943, 211, 293, 226, 324
-0.996961, 225, 289, 240, 320
-0.996961, 381, 165, 396, 196
-0.996965, 435, 93, 450, 124
-0.996969, 217, 309, 232, 340
-0.99697, 265, 313, 280, 344
-0.996972, 243, 197, 258, 228
-0.996975, 161, 41, 416, 104
-0.996976, 13, 229, 28, 260
-0.996981, 233, 237, 248, 268
-0.996982, 241, 281, 256, 312
-0.996989, 367, 145, 382, 176
-0.997017, 219, 325, 234, 356
-0.997022, 383, 121, 398, 152
-0.997027, 353, 57, 480, 88
-0.997031, 249, 321, 264, 352
-0.997037, 221, 225, 236, 256
-0.997062, 277, 305, 292, 336
-0.99707, 17, 229, 144, 260
-0.997072, 225, 237, 240, 268
-0.997074, 443, 97, 458, 128
-0.997086, 213, 321, 228, 352
-0.997087, 277, 321, 292, 352
-0.997088, 87, 73, 102, 104
-0.997103, 265, 189, 280, 220
-0.997113, 265, 297, 280, 328
-0.997133, 21, 241, 36, 272
-0.997136, 17, 273, 144, 304
-0.997142, 223, 265, 238, 296
-0.99715, 235, 217, 250, 248
-0.997151, 265, 201, 280, 232
-0.997156, 271, 205, 286, 236
-0.997157, 97, 1, 224, 32
-0.997159, 49, 93, 176, 124
-0.997168, 449, 105, 464, 136
-0.997173, 253, 97, 284, 352
-0.99718, 395, 165, 410, 196
-0.997183, 473, 109, 488, 140
-0.997191, 231, 41, 246, 72
-0.997192, 465, 109, 480, 140
-0.997198, 81, 257, 208, 288
-0.997201, 63, 81, 78, 112
-0.997203, 387, 165, 402, 196
-0.99721, 53, 77, 68, 108
-0.997211, 1, 185, 16, 216
-0.997212, 257, 265, 384, 296
-0.997213, 81, 321, 208, 352
-0.997217, 247, 5, 262, 36
-0.99722, 213, 113, 228, 144
-0.997232, 217, 269, 232, 300
-0.997247, 239, 261, 254, 292
-0.997248, 241, 61, 368, 92
-0.99725, 255, 193, 270, 224
-0.997262, 145, 177, 272, 208
-0.99727, 259, 309, 274, 340
-0.997272, 259, 61, 274, 92
-0.997289, 267, 249, 282, 280
-0.997292, 389, 117, 404, 148
-0.997299, 61, 57, 76, 88
-0.997299, 263, 233, 278, 264
-0.9973, 223, 301, 238, 332
-0.997305, 107, 105, 122, 136
-0.997307, 81, 61, 96, 92
-0.997309, 237, 29, 252, 60
-0.997314, 305, 121, 432, 152
-0.997316, 273, 325, 400, 356
-0.997321, 425, 89, 440, 120
-0.997322, 21, 229, 36, 260
-0.997323, 255, 213, 270, 244
-0.997323, 97, 33, 128, 288
-0.997326, 401, 165, 416, 196
-0.997342, 3, 161, 18, 192
-0.997344, 95, 81, 110, 112
-0.99735, 243, 309, 258, 340
-0.997363, 17, 213, 32, 244
-0.997365, 91, 61, 106, 92
-0.99737, 321, 97, 448, 128
-0.997372, 273, 29, 400, 60
-0.997374, 29, 249, 44, 280
-0.997379, 241, 177, 368, 208
-0.99738, 483, 133, 498, 164
-0.997391, 207, 113, 222, 144
-0.997393, 455, 109, 470, 140
-0.997406, 177, 37, 304, 68
-0.997411, 369, 133, 384, 164
-0.997414, 1, 209, 16, 240
-0.997415, 107, 117, 122, 148
-0.997417, 71, 81, 86, 112
-0.997431, 7, 261, 22, 292
-0.997435, 239, 233, 254, 264
-0.99744, 193, 129, 320, 160
-0.997442, 447, 169, 462, 200
-0.997444, 247, 209, 262, 240
-0.997446, 259, 181, 274, 212
-0.997449, 99, 113, 114, 144
-0.997452, 207, 325, 222, 356
-0.997458, 225, 49, 352, 80
-0.997461, 119, 13, 134, 44
-0.997469, 475, 125, 490, 156
-0.997471, 1, 201, 128, 232
-0.997472, 409, 161, 424, 192
-0.99748, 419, 93, 434, 124
-0.997485, 129, 45, 256, 76
-0.997488, 129, 1, 144, 32
-0.997495, 211, 305, 226, 336
-0.997496, 265, 285, 280, 316
-0.997496, 193, 33, 224, 288
-0.997497, 17, 37, 144, 68
-0.997498, 241, 217, 256, 248
-0.9975, 33, 85, 48, 116
-0.997503, 95, 93, 110, 124
-0.997504, 67, 57, 82, 88
-0.997507, 11, 189, 26, 220
-0.997522, 281, 1, 344, 256
-0.997524, 273, 57, 288, 88
-0.997527, 219, 113, 234, 144
-0.997527, 361, 97, 392, 352
-0.997532, 417, 165, 432, 196
-0.997532, 227, 21, 242, 52
-0.997547, 257, 233, 384, 264
-0.997595, 321, 37, 448, 68
-0.997607, 81, 65, 112, 320
-0.997643, 113, 241, 240, 272
-0.997649, 97, 297, 224, 328
-0.997657, 237, 1, 268, 256
-0.997684, 113, 1, 144, 256
-0.997689, 373, 97, 404, 352
-0.997737, 129, 157, 256, 188
-0.997756, 125, 33, 156, 288
-0.997777, 1, 313, 128, 344
-0.997789, 257, 5, 384, 36
-0.997811, 209, 1, 336, 32
-0.997814, 273, 17, 400, 48
-0.997816, 181, 1, 212, 256
-0.997843, 285, 97, 316, 352
-0.997901, 49, 245, 176, 276
-0.99793, 213, 1, 244, 256
-0.997947, 149, 33, 180, 288
-0.998074, 165, 33, 196, 288
-0.998088, 273, 97, 304, 352
-0.99809, 289, 289, 416, 320
-0.998147, 137, 33, 168, 288
-0.998155, 49, 193, 176, 256
-0.998205, 321, 109, 448, 140
-0.998219, 113, 229, 240, 260
-0.998246, 225, 37, 352, 68
-0.998271, 225, 97, 352, 160
-0.99831, 375, 113, 390, 240
-0.998317, 49, 83, 112, 98
-0.998347, 223, 161, 238, 288
-0.998348, 113, 177, 176, 304
-0.998365, 65, 113, 128, 128
-0.998376, 233, 209, 248, 336
-0.998376, 217, 325, 280, 340
-0.998378, 233, 303, 296, 318
-0.998383, 209, 289, 272, 304
-0.998388, 265, 1, 296, 256
-0.998393, 209, 299, 272, 314
-0.998393, 225, 205, 288, 220
-0.9984, 233, 315, 296, 330
-0.998401, 243, 1, 258, 128
-0.998401, 109, 97, 140, 352
-0.998404, 223, 209, 238, 336
-0.998406, 393, 111, 456, 126
-0.998407, 201, 331, 264, 346
-0.998409, 231, 145, 246, 272
-0.998409, 201, 209, 264, 224
-0.99841, 361, 167, 424, 182
-0.998411, 209, 309, 272, 324
-0.998413, 25, 75, 88, 90
-0.998415, 225, 257, 288, 272
-0.998417, 41, 89, 104, 104
-0.998419, 193, 325, 256, 340
-0.99842, 17, 55, 80, 70
-0.99842, 25, 95, 88, 110
-0.99842, 81, 79, 144, 94
-0.998423, 57, 105, 120, 120
-0.998432, 33, 33, 48, 160
-0.998436, 201, 217, 264, 232
-0.998439, 49, 73, 112, 88
-0.998448, 201, 225, 264, 240
-0.99845, 409, 105, 472, 120
-0.99845, 201, 5, 264, 20
-0.99845, 225, 211, 288, 226
-0.998452, 63, 49, 78, 176
-0.998453, 193, 255, 256, 270
-0.998453, 257, 195, 320, 210
-0.998459, 401, 169, 464, 184
-0.99846, 177, 293, 240, 308
-0.998468, 233, 195, 296, 210
-0.99847, 225, 331, 288, 346
-0.998472, 73, 73, 136, 88
-0.998473, 433, 175, 496, 190
-0.998473, 233, 309, 296, 324
-0.998477, 377, 117, 440, 132
-0.998479, 233, 295, 296, 310
-0.998481, 17, 253, 80, 268
-0.998484, 201, 203, 264, 218
-0.998484, 361, 159, 424, 174
-0.998484, 65, 119, 128, 134
-0.998484, 233, 281, 296, 296
-0.998486, 57, 99, 120, 114
-0.998487, 225, 231, 288, 246
-0.998488, 225, 219, 288, 234
-0.998489, 265, 295, 328, 310
-0.998489, 233, 1, 248, 128
-0.99849, 17, 87, 80, 102
-0.99849, 113, 79, 176, 94
-0.998491, 217, 271, 280, 286
-0.998491, 225, 17, 256, 32
-0.998493, 89, 85, 152, 100
-0.998493, 361, 179, 424, 194
-0.998494, 45, 77, 76, 92
-0.998494, 65, 91, 128, 106
-0.998495, 429, 101, 460, 116
-0.998495, 69, 259, 100, 274
-0.998496, 85, 85, 116, 100
-0.998496, 89, 91, 120, 106
-0.998496, 385, 177, 448, 192
-0.998497, 325, 219, 356, 234
-0.998497, 201, 339, 264, 354
-0.998498, 217, 177, 280, 192
-0.998499, 49, 57, 80, 72
-0.9985, 373, 129, 404, 144
-0.9985, 273, 247, 304, 262
-0.9985, 433, 105, 496, 120
-0.998501, 261, 265, 292, 280
-0.998501, 377, 87, 440, 102
-0.998501, 1, 231, 64, 246
-0.998502, 433, 169, 496, 184
-0.998502, 329, 149, 392, 164
-0.998503, 261, 219, 292, 234
-0.998503, 97, 267, 128, 282
-0.998503, 369, 137, 400, 152
-0.998503, 25, 81, 88, 96
-0.998503, 417, 111, 480, 126
-0.998504, 233, 231, 264, 246
-0.998504, 429, 111, 460, 126
-0.998505, 269, 193, 300, 208
-0.998505, 393, 85, 424, 100
-0.998506, 353, 153, 416, 168
-0.998507, 391, 97, 406, 224
-0.998508, 241, 145, 256, 272
-0.998508, 241, 195, 272, 210
-0.998508, 9, 1, 40, 256
-0.99851, 385, 205, 448, 220
-0.99851, 225, 225, 288, 240
-0.99851, 255, 145, 270, 272
-0.99851, 77, 125, 108, 140
-0.99851, 85, 263, 116, 278
-0.998511, 409, 99, 472, 114
-0.998513, 241, 213, 272, 228
-0.998513, 217, 237, 248, 252
-0.998513, 265, 289, 328, 304
-0.998513, 1, 203, 64, 218
-0.998513, 77, 131, 108, 146
-0.998514, 1, 239, 64, 254
-0.998514, 129, 79, 160, 94
-0.998515, 257, 263, 320, 278
-0.998515, 409, 203, 472, 218
-0.998515, 201, 315, 264, 330
-0.998516, 17, 247, 80, 262
-0.998516, 205, 249, 236, 264
-0.998516, 225, 339, 256, 354
-0.998517, 237, 281, 268, 296
-0.998518, 17, 103, 80, 118
-0.99852, 225, 249, 288, 264
-0.99852, 209, 321, 240, 336
-0.99852, 261, 213, 292, 228
-0.998521, 41, 83, 72, 98
-0.998521, 417, 169, 448, 184
-0.998522, 225, 59, 288, 74
-0.998522, 209, 197, 272, 212
-0.998523, 1, 201, 32, 216
-0.998524, 1, 209, 32, 224
-0.998524, 1, 215, 64, 230
-0.998525, 241, 321, 304, 336
-0.998525, 401, 227, 464, 242
-0.998526, 365, 177, 396, 192
-0.998526, 389, 163, 420, 178
-0.998526, 225, 339, 288, 354
-0.998526, 233, 225, 264, 240
-0.998527, 273, 241, 304, 256
-0.998528, 193, 261, 256, 276
-0.99853, 253, 207, 284, 222
-0.99853, 185, 117, 248, 132
-0.998532, 193, 249, 256, 264
-0.998532, 465, 111, 496, 126
-0.998532, 209, 115, 240, 130
-0.998533, 265, 325, 296, 340
-0.998533, 369, 123, 432, 138
-0.998533, 221, 247, 252, 262
-0.998534, 409, 179, 472, 194
-0.998534, 221, 219, 252, 234
-0.998534, 5, 215, 36, 230
-0.998534, 49, 33, 64, 160
-0.998535, 441, 169, 472, 184
-0.998536, 257, 255, 320, 270
-0.998537, 89, 103, 120, 118
-0.998537, 253, 309, 284, 324
-0.998537, 313, 221, 376, 236
-0.998537, 65, 131, 128, 146
-0.998537, 313, 197, 376, 212
-0.998537, 393, 169, 424, 184
-0.998537, 177, 319, 240, 334
-0.998538, 405, 111, 436, 126
-0.998539, 1, 339, 64, 354
-0.998539, 361, 129, 424, 144
-0.99854, 381, 121, 412, 136
-0.99854, 197, 109, 228, 124
-0.99854, 229, 51, 260, 66
-0.99854, 25, 61, 88, 76
-0.99854, 273, 317, 336, 332
-0.998541, 193, 283, 256, 298
-0.998541, 369, 113, 384, 240
-0.998541, 57, 55, 120, 70
-0.998541, 17, 259, 80, 274
-0.998541, 353, 147, 416, 162
-0.998541, 39, 33, 54, 160
-0.998542, 353, 201, 416, 216
-0.998543, 1, 273, 32, 288
-0.998544, 209, 307, 240, 322
-0.998544, 257, 269, 320, 284
-0.998545, 29, 87, 60, 102
-0.998545, 55, 49, 70, 176
-0.998546, 233, 43, 296, 58
-0.998547, 361, 173, 424, 188
-0.998547, 81, 137, 144, 152
-0.998547, 361, 225, 424, 240
-0.998549, 265, 301, 328, 316
-0.998549, 321, 143, 384, 158
-0.998549, 177, 123, 240, 138
-0.998549, 233, 219, 264, 234
-0.998549, 361, 135, 424, 150
-0.99855, 389, 203, 420, 218
-0.99855, 221, 29, 252, 44
-0.99855, 385, 97, 400, 224
-0.998551, 5, 235, 36, 250
-0.998551, 97, 267, 160, 282
-0.998552, 313, 155, 376, 170
-0.998552, 233, 313, 264, 328
-0.998552, 281, 147, 344, 162
-0.998552, 233, 289, 296, 304
-0.998552, 89, 119, 152, 134
-0.998552, 265, 309, 328, 324
-0.998553, 253, 331, 284, 346
-0.998553, 105, 115, 136, 130
-0.998553, 433, 181, 496, 196
-0.998553, 205, 255, 236, 270
-0.998553, 225, 263, 288, 278
-0.998553, 409, 83, 472, 98
-0.998553, 201, 291, 232, 306
-0.998554, 281, 195, 344, 210
-0.998554, 365, 143, 396, 158
-0.998554, 177, 1, 240, 16
-0.998554, 77, 73, 108, 88
-0.998554, 193, 277, 256, 292
-0.998555, 217, 77, 280, 92
-0.998555, 253, 195, 284, 210
-0.998556, 201, 231, 264, 246
-0.998556, 1, 209, 64, 224
-0.998557, 265, 279, 328, 294
-0.998557, 241, 51, 304, 66
-0.998558, 221, 23, 252, 38
-0.99856, 97, 83, 128, 98
-0.99856, 361, 141, 424, 156
-0.99856, 433, 67, 496, 82
-0.99856, 41, 117, 104, 132
-0.99856, 229, 3, 260, 18
-0.998561, 233, 207, 264, 222
-0.998563, 409, 87, 440, 102
-0.998563, 65, 67, 96, 82
-0.998563, 81, 79, 112, 94
-0.998563, 257, 303, 288, 318
-0.998564, 445, 109, 476, 124
-0.998569, 249, 201, 280, 216
-0.99857, 29, 55, 60, 70
-0.99857, 365, 165, 396, 180
-0.998571, 73, 113, 104, 128
-0.998571, 53, 83, 84, 98
-0.998577, 245, 323, 276, 338
-0.998577, 393, 115, 424, 130
-0.998579, 117, 79, 148, 94
-0.99858, 405, 169, 436, 184
-0.998582, 217, 229, 248, 244
-0.998584, 381, 179, 412, 194
-0.998589, 233, 333, 264, 348
-0.99859, 93, 121, 124, 136
-0.99859, 241, 301, 272, 316
-0.99859, 5, 229, 36, 244
-0.998591, 217, 315, 248, 330
-0.998591, 73, 85, 104, 100
-0.998592, 401, 97, 416, 224
-0.998597, 1, 223, 32, 238
-0.998599, 73, 107, 104, 122
-0.9986, 209, 281, 240, 296
-0.998601, 377, 167, 408, 182
-0.998603, 221, 275, 252, 290
-0.998607, 241, 295, 272, 310
-0.99861, 225, 263, 256, 278
-0.998614, 225, 269, 256, 284
-0.998617, 237, 201, 268, 216
-0.998619, 11, 177, 26, 304
-0.99862, 215, 225, 230, 352
-0.998629, 421, 95, 452, 110
-0.99863, 221, 309, 252, 324
-0.998631, 209, 275, 240, 290
-0.998631, 221, 255, 252, 270
-0.998633, 69, 91, 100, 106
-0.998636, 213, 339, 244, 354
-0.998639, 261, 161, 276, 288
-0.998644, 229, 319, 260, 334
-0.998648, 225, 281, 256, 296
-0.998648, 213, 263, 244, 278
-0.998649, 217, 291, 248, 306
-0.998651, 1, 161, 16, 288
-0.998651, 257, 297, 288, 312
-0.998651, 247, 145, 262, 272
-0.998653, 257, 315, 288, 330
-0.998659, 71, 49, 86, 176
-0.998659, 69, 97, 100, 112
-0.998663, 233, 325, 264, 340
-0.998665, 197, 115, 228, 130
-0.998669, 93, 115, 124, 130
-0.998671, 209, 331, 240, 346
-0.998674, 369, 273, 496, 336
-0.998676, 221, 297, 252, 312
-0.998677, 49, 89, 80, 104
-0.998686, 93, 109, 124, 124
-0.998689, 229, 213, 260, 228
-0.99869, 65, 79, 96, 94
-0.998692, 213, 269, 244, 284
-0.998693, 419, 81, 434, 208
-0.998697, 229, 287, 260, 302
-0.998699, 57, 73, 88, 88
-0.9987, 217, 1, 232, 128
-0.998702, 413, 65, 428, 192
-0.998706, 485, 97, 500, 224
-0.998708, 423, 33, 438, 160
-0.998712, 447, 97, 462, 224
-0.998723, 221, 331, 252, 346
-0.99873, 267, 161, 282, 288
-0.998732, 221, 325, 252, 340
-0.998733, 407, 97, 422, 224
-0.998749, 27, 49, 42, 176
-0.998752, 215, 177, 230, 304
-0.998756, 243, 225, 258, 352
-0.998762, 459, 97, 474, 224
-0.998773, 97, 65, 112, 192
-0.998776, 477, 113, 492, 240
-0.99879, 223, 33, 238, 160
-0.998793, 431, 33, 446, 160
-0.998794, 251, 193, 266, 320
-0.998797, 425, 81, 440, 208
-0.9988, 435, 81, 450, 208
-0.998807, 23, 225, 38, 352
-0.998808, 439, 33, 454, 160
-0.998812, 7, 225, 22, 352
-0.998816, 453, 97, 468, 224
-0.998817, 441, 97, 456, 224
-0.998824, 17, 129, 32, 256
-0.998824, 267, 209, 282, 336
-0.998829, 471, 97, 486, 224
-0.998835, 85, 49, 100, 176
-0.998838, 345, 1, 376, 256
-0.998839, 447, 161, 462, 288
-0.998839, 273, 161, 288, 288
-0.998849, 455, 161, 470, 288
-0.998849, 21, 81, 36, 208
-0.998864, 473, 161, 488, 288
-0.998868, 201, 49, 216, 176
-0.998869, 439, 161, 454, 288
-0.99887, 211, 65, 226, 192
-0.998876, 467, 161, 482, 288
-0.998894, 249, 1, 264, 128
-0.998895, 483, 145, 498, 272
-0.998897, 363, 113, 378, 240
-0.998897, 209, 177, 224, 304
-0.998901, 261, 209, 276, 336
-0.998907, 313, 97, 344, 352
-0.998909, 91, 49, 106, 176
-0.998916, 411, 145, 426, 272
-0.998919, 41, 81, 56, 208
-0.998927, 27, 161, 42, 288
-0.998933, 407, 49, 422, 176
-0.998941, 381, 33, 396, 160
-0.998943, 47, 81, 62, 208
-0.998963, 33, 81, 48, 208
-0.99897, 17, 193, 32, 320
-0.998975, 417, 145, 432, 272
-0.998977, 157, 65, 172, 192
-0.998986, 465, 97, 480, 224
-0.998989, 479, 49, 494, 176
-0.998989, 215, 113, 230, 240
-0.998997, 401, 33, 416, 160
-0.999003, 461, 161, 476, 288
-0.999007, 369, 161, 384, 288
-0.999012, 117, 65, 132, 192
-0.999014, 281, 209, 296, 336
-0.999014, 469, 49, 484, 176
-0.999014, 221, 113, 236, 240
-0.999015, 297, 97, 328, 352
-0.999017, 423, 145, 438, 272
-0.999022, 209, 225, 224, 352
-0.999028, 393, 33, 408, 160
-0.999032, 401, 145, 416, 272
-0.999039, 433, 145, 448, 272
-0.999042, 195, 81, 210, 208
-0.999044, 7, 129, 22, 256
-0.999044, 415, 17, 430, 144
-0.999054, 151, 49, 166, 176
-0.999055, 65, 97, 80, 224
-0.999057, 449, 49, 464, 176
-0.999058, 349, 97, 380, 352
-0.999059, 77, 49, 92, 176
-0.999071, 1, 209, 16, 336
-0.999072, 273, 225, 288, 352
-0.999079, 187, 65, 202, 192
-0.999086, 163, 65, 178, 192
-0.999088, 115, 1, 130, 128
-0.999089, 233, 65, 248, 192
-0.999096, 357, 113, 372, 240
-0.999101, 459, 49, 474, 176
-0.999107, 143, 65, 158, 192
-0.999111, 181, 65, 196, 192
-0.99912, 395, 145, 410, 272
-0.999124, 135, 65, 150, 192
-0.999124, 171, 65, 186, 192
-0.999129, 125, 65, 140, 192
-0.999132, 375, 33, 390, 160
-0.999135, 107, 65, 122, 192
-0.999135, 163, 1, 178, 128
-0.999142, 27, 97, 42, 224
-0.99915, 287, 225, 302, 352
-0.999173, 245, 65, 260, 192
-0.999174, 381, 145, 396, 272
-0.99918, 173, 1, 188, 128
-0.999187, 277, 1, 308, 256
-0.999187, 57, 97, 72, 224
-0.999191, 139, 1, 154, 128
-0.999198, 121, 1, 136, 128
-0.999202, 293, 225, 308, 352
-0.999202, 157, 1, 172, 128
-0.999203, 97, 17, 112, 144
-0.999204, 1, 113, 16, 240
-0.999219, 387, 33, 402, 160
-0.999229, 363, 161, 378, 288
-0.999381, 337, 97, 368, 352
-0.999387, 97, 97, 352, 160
-0.999581, 253, 1, 284, 256
-0.999699, 237, 211, 252, 226
-0.9997, 201, 109, 216, 124
-0.9997, 21, 243, 36, 258
-0.999701, 53, 83, 68, 98
-0.999703, 269, 201, 284, 216
-0.999703, 465, 111, 480, 126
-0.999703, 21, 249, 36, 264
-0.999704, 117, 17, 132, 32
-0.999704, 241, 283, 256, 298
-0.999705, 247, 341, 262, 356
-0.999705, 439, 101, 454, 116
-0.999705, 33, 55, 48, 70
-0.999706, 271, 333, 286, 348
-0.999706, 9, 215, 24, 230
-0.999706, 95, 111, 110, 126
-0.999707, 231, 261, 246, 276
-0.999708, 233, 299, 248, 314
-0.999708, 269, 259, 284, 274
-0.999708, 69, 67, 84, 82
-0.999708, 125, 7, 140, 22
-0.999709, 229, 255, 244, 270
-0.999711, 235, 237, 250, 252
-0.999711, 209, 115, 224, 130
-0.999712, 55, 89, 70, 104
-0.999713, 5, 221, 20, 236
-0.999713, 111, 113, 126, 128
-0.999714, 75, 71, 90, 86
-0.999714, 403, 113, 418, 128
-0.999715, 409, 169, 424, 184
-0.999716, 275, 311, 290, 326
-0.999716, 233, 331, 248, 346
-0.999716, 87, 55, 102, 70
-0.999716, 227, 233, 242, 248
-0.999717, 263, 293, 278, 308
-0.999717, 259, 305, 274, 320
-0.999717, 419, 89, 434, 104
-0.999717, 433, 95, 448, 110
-0.999718, 241, 291, 256, 306
-0.999718, 13, 233, 28, 248
-0.999719, 231, 247, 246, 262
-0.99972, 265, 307, 280, 322
-0.99972, 219, 241, 234, 256
-0.99972, 389, 181, 404, 196
-0.99972, 247, 217, 262, 232
-0.999722, 253, 297, 268, 312
-0.999723, 271, 295, 286, 310
-0.999724, 213, 263, 228, 278
-0.999725, 451, 109, 466, 124
-0.999725, 219, 263, 234, 278
-0.999728, 367, 165, 382, 180
-0.999728, 245, 319, 260, 334
-0.999729, 261, 201, 276, 216
-0.999729, 271, 319, 286, 334
-0.999729, 223, 297, 238, 312
-0.999729, 217, 325, 232, 340
-0.999732, 19, 219, 34, 234
-0.999733, 223, 275, 238, 290
-0.999733, 63, 89, 78, 104
-0.999734, 141, 77, 156, 92
-0.999734, 75, 83, 90, 98
-0.999735, 217, 247, 232, 262
-0.999736, 221, 235, 236, 250
-0.999736, 5, 207, 20, 222
-0.999737, 3, 233, 18, 248
-0.999737, 217, 269, 232, 284
-0.999737, 91, 47, 106, 62
-0.999738, 97, 83, 112, 98
-0.999738, 237, 227, 252, 242
-0.999739, 233, 311, 248, 326
-0.99974, 321, 273, 448, 336
-0.99974, 87, 85, 102, 100
-0.99974, 269, 265, 284, 280
-0.999742, 21, 231, 36, 246
-0.999743, 239, 325, 254, 340
-0.999744, 91, 79, 106, 94
-0.999745, 263, 339, 278, 354
-0.999745, 235, 255, 250, 270
-0.999745, 233, 317, 248, 332
-0.999746, 69, 81, 84, 96
-0.999747, 201, 117, 216, 132
-0.999749, 479, 137, 494, 152
-0.99975, 131, 1, 146, 16
-0.999755, 427, 91, 442, 106
-0.999755, 233, 323, 248, 338
-0.999756, 217, 297, 232, 312
-0.999759, 211, 305, 226, 320
-0.999759, 245, 325, 260, 340
-0.99976, 235, 205, 250, 220
-0.999763, 217, 305, 232, 320
-0.999764, 223, 227, 238, 242
-0.999765, 231, 337, 246, 352
-0.999767, 225, 341, 240, 356
-0.999768, 229, 287, 244, 302
-0.999769, 235, 287, 250, 302
-0.999769, 245, 211, 260, 226
-0.99977, 5, 239, 20, 254
-0.999772, 217, 337, 232, 352
-0.999773, 81, 79, 96, 94
-0.999773, 213, 331, 228, 346
-0.999773, 221, 313, 236, 328
-0.999774, 107, 107, 122, 122
-0.999774, 269, 325, 284, 340
-0.999776, 373, 137, 388, 152
-0.999777, 97, 117, 112, 132
-0.999779, 231, 275, 246, 290
-0.999779, 215, 255, 230, 270
-0.999781, 229, 227, 244, 242
-0.999781, 229, 269, 244, 284
-0.999783, 271, 207, 286, 222
-0.999784, 1, 201, 16, 216
-0.999785, 445, 105, 460, 120
-0.999786, 3, 165, 18, 180
-0.999786, 233, 281, 248, 296
-0.999787, 211, 295, 226, 310
-0.999787, 259, 299, 274, 314
-0.99979, 59, 83, 74, 98
-0.999791, 231, 211, 246, 226
-0.999792, 271, 301, 286, 316
-0.999798, 223, 281, 238, 296
-0.999802, 223, 255, 238, 270
-0.999805, 221, 291, 236, 306
-0.999806, 239, 331, 254, 346
-0.999807, 105, 115, 120, 130
-0.999808, 69, 75, 84, 90
-0.999809, 223, 307, 238, 322
-0.999809, 325, 97, 356, 352
-0.999825, 237, 217, 252, 232
-0.999831, 59, 71, 74, 86
-0.999839, 227, 221, 242, 236
-0.999849, 223, 331, 238, 346
-0.999852, 225, 263, 240, 278
-0.999864, 227, 325, 242, 340
-0.999889, 181, 97, 212, 352
-1.00021, 289, 1, 320, 256
-1.00048, 333, 1, 364, 256
-1.00054, 313, 1, 344, 256
-1.00061, 65, 153, 192, 216
-1.00085, 301, 1, 332, 256
-1.00111, 369, 249, 496, 312
-1.00201, 361, 225, 424, 352
-1.00612, 321, 225, 384, 352
-1.00985, 289, 49, 352, 176
-1.0127, 265, 49, 328, 176
-1.01763, 289, 1, 352, 128
