1884
-0.392832, 1, 1, 500, 333
-0.510083, 1, 33, 500, 288
-0.593462, 193, 1, 448, 333
-0.663908, 97, 1, 352, 333
-0.699788, 161, 1, 416, 256
-0.731295, 1, 1, 256, 333
-0.76376, 33, 33, 288, 288
-0.811927, 257, 33, 500, 288
-0.888457, 209, 1, 336, 256
-0.888633, 1, 113, 500, 240
-0.893061, 273, 1, 400, 333
-0.895127, 225, 1, 352, 333
-0.901214, 289, 1, 416, 256
-0.903749, 33, 1, 160, 333
-0.905332, 81, 1, 208, 333
-0.908488, 65, 65, 192, 320
-0.912965, 129, 65, 256, 320
-0.915376, 1, 49, 500, 176
-0.918086, 337, 1, 464, 333
-0.920522, 369, 1, 496, 256
-0.923253, 1, 1, 500, 128
-0.923477, 1, 33, 128, 288
-0.925338, 177, 1, 304, 333
-0.932949, 193, 49, 448, 176
-0.938364, 193, 97, 448, 224
-0.942765, 129, 1, 256, 333
-0.942928, 33, 97, 288, 224
-0.946083, 209, 49, 336, 176
-0.947931, 1, 177, 500, 304
-0.948159, 33, 49, 288, 176
-0.95366, 97, 1, 352, 128
-0.95509, 273, 65, 400, 192
-0.955532, 1, 65, 128, 192
-0.957292, 257, 1, 500, 128
-0.959043, 49, 65, 176, 192
-0.960059, 129, 97, 256, 224
-0.963198, 81, 65, 144, 128
-0.963592, 65, 65, 128, 192
-0.965468, 89, 49, 152, 176
-0.965693, 281, 97, 344, 160
-0.965754, 17, 65, 80, 192
-0.96613, 337, 81, 400, 208
-0.96623, 177, 97, 304, 224
-0.966536, 113, 33, 240, 160
-0.967218, 225, 1, 352, 128
-0.967537, 281, 81, 344, 208
-0.967789, 185, 97, 248, 224
-0.968024, 177, 97, 240, 160
-0.96845, 305, 113, 432, 240
-0.968668, 369, 145, 496, 272
-0.968689, 257, 97, 320, 160
-0.969011, 265, 1, 328, 128
-0.969559, 177, 49, 240, 176
-0.969921, 145, 81, 208, 208
-0.970012, 161, 49, 288, 176
-0.970627, 281, 73, 344, 136
-0.970791, 225, 33, 288, 160
-0.970868, 273, 17, 400, 144
-0.971124, 105, 65, 168, 128
-0.9716, 41, 81, 104, 208
-0.971846, 161, 145, 416, 272
-0.972473, 137, 105, 200, 168
-0.973369, 337, 193, 464, 320
-0.97345, 297, 1, 360, 128
-0.973555, 305, 97, 368, 160
-0.973592, 369, 97, 496, 224
-0.973742, 385, 81, 448, 208
-0.973948, 41, 73, 104, 136
-0.974078, 425, 145, 488, 272
-0.974144, 1, 145, 256, 272
-0.97443, 17, 65, 80, 128
-0.974694, 17, 17, 144, 144
-0.974736, 41, 145, 104, 208
-0.974753, 1, 113, 128, 240
-0.974894, 137, 81, 200, 144
-0.975039, 113, 49, 176, 176
-0.975346, 33, 209, 288, 333
-0.975483, 257, 161, 500, 288
-0.9757, 337, 89, 400, 152
-0.976148, 49, 129, 176, 256
-0.976185, 1, 1, 256, 128
-0.976219, 49, 97, 112, 160
-0.976569, 9, 89, 72, 152
-0.976582, 225, 97, 352, 224
-0.97669, 257, 81, 320, 208
-0.977101, 25, 121, 88, 184
-0.977125, 241, 73, 304, 136
-0.977629, 289, 89, 416, 152
-0.977938, 81, 209, 208, 333
-0.977973, 369, 161, 432, 288
-0.978125, 129, 209, 192, 333
-0.978239, 65, 81, 192, 144
-0.978545, 25, 129, 88, 256
-0.978661, 361, 97, 424, 224
-0.978814, 1, 81, 128, 144
-0.979018, 129, 105, 256, 168
-0.979406, 73, 65, 104, 192
-0.979497, 305, 49, 368, 176
-0.979503, 73, 121, 136, 184
-0.979522, 145, 33, 208, 160
-0.979571, 105, 89, 168, 152
-0.979627, 321, 65, 448, 192
-0.979989, 393, 161, 456, 288
-0.980249, 369, 49, 496, 176
-0.98025, 113, 97, 176, 224
-0.980252, 1, 89, 32, 152
-0.98029, 225, 105, 352, 168
-0.980534, 193, 81, 320, 144
-0.980756, 345, 113, 408, 176
-0.980793, 109, 57, 140, 120
-0.980959, 345, 193, 408, 320
-0.980992, 65, 17, 192, 144
-0.981095, 201, 97, 264, 160
-0.981236, 89, 65, 120, 128
-0.981245, 129, 209, 384, 333
-0.981272, 73, 81, 104, 144
-0.981355, 225, 41, 288, 104
-0.981385, 81, 89, 144, 152
-0.981481, 385, 145, 448, 208
-0.981526, 201, 49, 264, 176
-0.981568, 369, 17, 432, 144
-0.981619, 17, 17, 80, 144
-0.981741, 257, 33, 320, 96
-0.981786, 197, 97, 228, 160
-0.981868, 1, 65, 32, 192
-0.982256, 121, 65, 152, 128
-0.98227, 337, 241, 400, 304
-0.982318, 233, 1, 296, 256
-0.982427, 49, 121, 112, 184
-0.982447, 285, 97, 316, 160
-0.982462, 265, 1, 328, 64
-0.982496, 161, 129, 224, 256
-0.982638, 137, 241, 200, 304
-0.982669, 321, 1, 384, 128
-0.982694, 369, 177, 432, 240
-0.982818, 57, 129, 120, 256
-0.983034, 65, 145, 128, 208
-0.983041, 33, 57, 160, 120
-0.983126, 49, 73, 80, 136
-0.983203, 57, 49, 120, 112
-0.983411, 209, 97, 272, 224
-0.983482, 177, 105, 304, 168
-0.983509, 353, 273, 416, 333
-0.983625, 197, 81, 228, 208
-0.983673, 161, 73, 224, 136
-0.983796, 297, 105, 328, 168
-0.983899, 185, 73, 248, 136
-0.983997, 257, 209, 500, 333
-0.984109, 81, 57, 208, 120
-0.984132, 41, 33, 104, 160
-0.984178, 109, 49, 140, 176
-0.984316, 433, 209, 496, 272
-0.984397, 281, 33, 344, 96
-0.984476, 285, 81, 316, 208
-0.984487, 417, 249, 480, 312
-0.984505, 97, 113, 160, 176
-0.984522, 257, 65, 384, 128
-0.984595, 217, 73, 280, 136
-0.984608, 41, 169, 104, 232
-0.984635, 65, 57, 96, 120
-0.984685, 57, 49, 88, 176
-0.984715, 321, 65, 384, 128
-0.984781, 1, 177, 128, 304
-0.984879, 377, 81, 440, 144
-0.984881, 121, 1, 184, 128
-0.984976, 73, 1, 136, 128
-0.984997, 329, 1, 392, 64
-0.985062, 9, 145, 72, 208
-0.985064, 209, 97, 240, 160
-0.985111, 381, 113, 412, 240
-0.985133, 369, 121, 432, 184
-0.985156, 1, 113, 64, 240
-0.985237, 113, 41, 176, 104
-0.985261, 177, 105, 208, 168
-0.985264, 185, 121, 248, 184
-0.985294, 233, 105, 296, 168
-0.985328, 209, 33, 336, 96
-0.985473, 33, 105, 160, 168
-0.985828, 281, 1, 344, 256
-0.985895, 161, 1, 288, 128
-0.985914, 145, 33, 208, 288
-0.985957, 61, 145, 92, 208
-0.986003, 369, 89, 400, 152
-0.986029, 393, 225, 456, 288
-0.986215, 113, 257, 176, 320
-0.986289, 417, 161, 480, 224
-0.986297, 305, 113, 432, 176
-0.986333, 361, 201, 424, 264
-0.98636, 25, 65, 56, 192
-0.98649, 97, 33, 128, 160
-0.986512, 313, 97, 344, 160
-0.986525, 185, 81, 216, 208
-0.986586, 121, 217, 184, 280
-0.986649, 305, 97, 368, 224
-0.986653, 289, 209, 416, 333
-0.9867, 121, 49, 152, 176
-0.986728, 129, 81, 256, 144
-0.98673, 369, 81, 496, 144
-0.986757, 161, 121, 224, 184
-0.986775, 89, 97, 152, 224
-0.986783, 1, 113, 64, 176
-0.986784, 321, 17, 448, 144
-0.98684, 233, 81, 296, 208
-0.986864, 305, 33, 368, 96
-0.986919, 193, 57, 320, 120
-0.98697, 53, 97, 84, 160
-0.986987, 177, 1, 240, 128
-0.987003, 137, 97, 168, 160
-0.98704, 345, 65, 408, 128
-0.98704, 209, 81, 240, 208
-0.987087, 297, 81, 328, 208
-0.987113, 33, 89, 64, 152
-0.987173, 133, 73, 164, 136
-0.987203, 369, 153, 496, 216
-0.987239, 17, 169, 80, 232
-0.987252, 297, 81, 328, 144
-0.987272, 33, 33, 96, 288
-0.987279, 377, 265, 440, 328
-0.987297, 81, 273, 144, 333
-0.987398, 81, 41, 144, 104
-0.987418, 57, 33, 120, 288
-0.987428, 45, 65, 76, 192
-0.987432, 81, 113, 208, 176
-0.987479, 321, 209, 384, 333
-0.987486, 137, 265, 200, 328
-0.987501, 21, 73, 52, 136
-0.987501, 65, 105, 96, 168
-0.987503, 265, 81, 296, 144
-0.987505, 385, 209, 448, 333
-0.987551, 145, 145, 272, 272
-0.987592, 177, 33, 240, 288
-0.987618, 425, 273, 488, 333
-0.987624, 425, 97, 488, 224
-0.987653, 289, 33, 416, 96
-0.987701, 433, 193, 496, 320
-0.987794, 329, 265, 392, 328
-0.987882, 85, 89, 116, 152
-0.987897, 41, 273, 104, 333
-0.988011, 329, 129, 392, 256
-0.988046, 41, 177, 104, 304
-0.988096, 33, 145, 160, 208
-0.988135, 49, 145, 80, 208
-0.988166, 61, 97, 92, 224
-0.988237, 97, 209, 160, 333
-0.988468, 73, 1, 136, 333
-0.98848, 1, 65, 32, 128
-0.988593, 177, 1, 240, 64
-0.988625, 81, 145, 144, 272
-0.98868, 121, 33, 184, 288
-0.988685, 241, 1, 304, 64
-0.988726, 225, 9, 352, 72
-0.98876, 105, 137, 168, 200
-0.988839, 17, 1, 80, 333
-0.988841, 165, 97, 196, 160
-0.988882, 173, 81, 204, 208
-0.988907, 129, 209, 256, 333
-0.988926, 273, 17, 304, 144
-0.988937, 345, 33, 408, 160
-0.988949, 153, 97, 184, 160
-0.98896, 393, 169, 456, 232
-0.989125, 81, 249, 208, 312
-0.989267, 185, 105, 248, 136
-0.989277, 369, 97, 400, 224
-0.989381, 305, 57, 432, 120
-0.989383, 321, 273, 448, 333
-0.989386, 241, 1, 304, 333
-0.989394, 129, 49, 256, 112
-0.989399, 313, 81, 344, 208
-0.989434, 281, 121, 344, 184
-0.989444, 13, 97, 44, 160
-0.989464, 297, 9, 360, 72
-0.989492, 409, 137, 472, 200
-0.989664, 381, 161, 412, 288
-0.989687, 49, 81, 112, 112
-0.989692, 337, 249, 464, 312
-0.989709, 257, 145, 384, 272
-0.989732, 369, 33, 432, 288
-0.989738, 153, 241, 184, 304
-0.989776, 273, 105, 304, 168
-0.989794, 369, 177, 496, 240
-0.989806, 369, 121, 496, 184
-0.989837, 273, 9, 400, 72
-0.989911, 281, 1, 344, 333
-0.990014, 145, 105, 208, 136
-0.990022, 293, 33, 324, 160
-0.990035, 309, 73, 340, 136
-0.990042, 193, 41, 256, 104
-0.990138, 281, 101, 344, 132
-0.990186, 285, 73, 316, 136
-0.990192, 425, 1, 488, 128
-0.990228, 345, 169, 408, 232
-0.99029, 209, 1, 272, 256
-0.99033, 361, 193, 392, 320
-0.990338, 65, 273, 192, 333
-0.990347, 369, 1, 496, 128
-0.990363, 321, 225, 448, 288
-0.990379, 65, 169, 192, 232
-0.990382, 89, 73, 152, 104
-0.990382, 305, 137, 432, 200
-0.990413, 97, 161, 224, 288
-0.990455, 337, 93, 400, 124
-0.990485, 433, 81, 496, 144
-0.990488, 353, 1, 416, 64
-0.990497, 177, 81, 208, 144
-0.990506, 1, 97, 64, 128
-0.990538, 73, 61, 136, 92
-0.99054, 137, 129, 200, 256
-0.990555, 133, 65, 164, 192
-0.990579, 113, 273, 240, 333
-0.990619, 89, 81, 120, 208
-0.990651, 9, 81, 72, 112
-0.990655, 337, 65, 400, 320
-0.990678, 305, 101, 368, 132
-0.990693, 121, 105, 184, 136
-0.990728, 309, 33, 340, 160
-0.99073, 257, 105, 320, 136
-0.990801, 77, 57, 108, 120
-0.990809, 73, 89, 136, 120
-0.990828, 337, 209, 400, 272
-0.990858, 441, 161, 472, 224
-0.990886, 13, 65, 44, 192
-0.990913, 49, 121, 80, 184
-0.990917, 401, 273, 464, 333
-0.990925, 189, 73, 220, 136
-0.990976, 1, 169, 128, 232
-0.990993, 9, 113, 40, 240
-0.991037, 17, 177, 80, 304
-0.991069, 401, 1, 464, 256
-0.991071, 337, 265, 368, 328
-0.991072, 289, 89, 352, 120
-0.991076, 233, 93, 296, 124
-0.991076, 81, 17, 112, 144
-0.991076, 33, 57, 64, 120
-0.991103, 337, 201, 464, 264
-0.991121, 129, 105, 384, 168
-0.991138, 369, 57, 496, 120
-0.991141, 25, 93, 88, 124
-0.991156, 81, 225, 208, 288
-0.991158, 97, 61, 160, 92
-0.99118, 65, 169, 128, 232
-0.99121, 81, 65, 144, 320
-0.991212, 305, 33, 368, 288
-0.991243, 81, 113, 112, 176
-0.991303, 157, 81, 188, 208
-0.991328, 129, 25, 256, 88
-0.991338, 337, 137, 400, 200
-0.991349, 461, 241, 492, 304
-0.991359, 273, 81, 304, 208
-0.991367, 361, 1, 424, 333
-0.99138, 325, 97, 356, 160
-0.991403, 273, 129, 336, 256
-0.991411, 25, 125, 88, 156
-0.991448, 393, 161, 456, 192
-0.991465, 97, 1, 160, 333
-0.991472, 321, 1, 384, 333
-0.991492, 41, 169, 104, 200
-0.991499, 145, 93, 208, 124
-0.991567, 369, 1, 496, 64
-0.991589, 25, 65, 88, 96
-0.991591, 37, 121, 68, 184
-0.991591, 161, 265, 224, 328
-0.991611, 97, 93, 160, 124
-0.991624, 25, 141, 88, 172
-0.991634, 73, 241, 136, 304
-0.99166, 41, 113, 72, 240
-0.991701, 137, 57, 200, 120
-0.991707, 293, 9, 324, 72
-0.991721, 305, 273, 368, 333
-0.991728, 57, 141, 120, 172
-0.991744, 41, 157, 104, 188
-0.991749, 201, 93, 264, 124
-0.991778, 81, 137, 208, 200
-0.991798, 65, 177, 96, 240
-0.991801, 337, 105, 400, 136
-0.991813, 49, 69, 112, 100
-0.991827, 257, 93, 320, 124
-0.991845, 49, 125, 112, 156
-0.991851, 97, 109, 160, 140
-0.991856, 469, 153, 500, 216
-0.991869, 1, 109, 64, 140
-0.991875, 165, 233, 196, 296
-0.991894, 369, 25, 496, 88
-0.991896, 1, 41, 64, 104
-0.991923, 209, 121, 272, 184
-0.991985, 49, 101, 112, 132
-0.992005, 113, 73, 176, 104
-0.992006, 333, 49, 364, 176
-0.992016, 177, 93, 240, 124
-0.992018, 233, 105, 296, 136
-0.992022, 401, 289, 464, 320
-0.992028, 229, 49, 260, 176
-0.992033, 257, 41, 288, 104
-0.992036, 209, 105, 272, 136
-0.992038, 417, 149, 480, 180
-0.99204, 257, 17, 288, 144
-0.992048, 121, 89, 184, 120
-0.992054, 433, 297, 496, 328
-0.992063, 401, 1, 464, 128
-0.99207, 377, 149, 440, 180
-0.992074, 129, 129, 192, 192
-0.992077, 17, 177, 80, 208
-0.992083, 265, 33, 328, 64
-0.992113, 385, 201, 448, 264
-0.99217, 313, 89, 376, 120
-0.99218, 361, 201, 424, 232
-0.992183, 349, 49, 380, 176
-0.992186, 265, 81, 328, 112
-0.992204, 5, 17, 36, 144
-0.992206, 225, 41, 288, 72
-0.992223, 313, 297, 376, 328
-0.992226, 337, 257, 400, 288
-0.992255, 281, 69, 344, 100
-0.992256, 361, 145, 424, 208
-0.992262, 25, 105, 88, 136
-0.992265, 457, 145, 488, 272
-0.99227, 369, 169, 432, 200
-0.992288, 1, 69, 64, 100
-0.992294, 377, 113, 408, 176
-0.992333, 433, 1, 496, 333
-0.992338, 377, 97, 440, 128
-0.992345, 137, 193, 200, 256
-0.992374, 297, 45, 360, 76
-0.992393, 77, 113, 108, 240
-0.992432, 401, 245, 464, 276
-0.992433, 433, 277, 496, 308
-0.992455, 121, 245, 184, 276
-0.992467, 329, 1, 360, 128
-0.992479, 285, 101, 316, 132
-0.992482, 345, 269, 408, 300
-0.992483, 121, 53, 184, 84
-0.992491, 121, 169, 184, 232
-0.992493, 49, 181, 112, 212
-0.9925, 73, 85, 104, 116
-0.992501, 73, 101, 136, 132
-0.992505, 345, 117, 408, 148
-0.992509, 361, 241, 424, 304
-0.992521, 389, 81, 420, 144
-0.992538, 73, 129, 136, 160
-0.992546, 89, 273, 152, 304
-0.992547, 1, 57, 64, 88
-0.992548, 49, 57, 112, 88
-0.992552, 9, 97, 40, 128
-0.992558, 209, 101, 240, 132
-0.992559, 377, 85, 440, 116
-0.992567, 257, 57, 320, 88
-0.992588, 369, 273, 432, 304
-0.99259, 97, 133, 160, 164
-0.992595, 241, 81, 304, 112
-0.992604, 121, 217, 184, 248
-0.992607, 109, 61, 140, 92
-0.992611, 197, 101, 228, 132
-0.992616, 89, 285, 152, 316
-0.992617, 17, 165, 80, 196
-0.99262, 369, 273, 496, 333
-0.992636, 61, 81, 92, 112
-0.992673, 1, 121, 64, 152
-0.992682, 281, 1, 344, 32
-0.992684, 297, 57, 360, 88
-0.992684, 425, 161, 488, 192
-0.992699, 257, 69, 320, 100
-0.992701, 161, 117, 224, 148
-0.992703, 289, 21, 352, 52
-0.992708, 129, 121, 160, 184
-0.992718, 81, 161, 144, 192
-0.992727, 21, 101, 52, 132
-0.992728, 297, 105, 328, 136
-0.992731, 417, 233, 480, 264
-0.992749, 125, 41, 156, 104
-0.992757, 361, 257, 424, 288
-0.992758, 89, 89, 120, 120
-0.992763, 337, 33, 400, 96
-0.992767, 121, 117, 184, 148
-0.992776, 121, 257, 184, 288
-0.992798, 57, 113, 120, 144
-0.992805, 33, 89, 64, 120
-0.992806, 189, 33, 220, 160
-0.992812, 77, 97, 108, 128
-0.992813, 145, 73, 176, 136
-0.992822, 121, 65, 152, 96
-0.992822, 177, 105, 208, 136
-0.99283, 89, 261, 152, 292
-0.992832, 381, 249, 412, 312
-0.992833, 1, 1, 64, 256
-0.992838, 353, 129, 416, 160
-0.992842, 17, 153, 80, 184
-0.992843, 113, 269, 176, 300
-0.992846, 73, 297, 136, 328
-0.992856, 369, 181, 432, 212
-0.99286, 129, 233, 256, 296
-0.992861, 313, 101, 344, 132
-0.992866, 321, 285, 384, 316
-0.992876, 297, 33, 360, 64
-0.992879, 45, 85, 76, 116
-0.99288, 97, 121, 160, 152
-0.992892, 105, 81, 136, 144
-0.992895, 33, 41, 96, 104
-0.992899, 377, 57, 440, 120
-0.992902, 217, 81, 280, 112
-0.992903, 65, 277, 128, 308
-0.992906, 361, 49, 424, 80
-0.992906, 281, 113, 344, 144
-0.992909, 337, 81, 400, 112
-0.992913, 321, 269, 384, 300
-0.992918, 425, 1, 488, 32
-0.992918, 141, 105, 172, 136
-0.992921, 329, 57, 392, 88
-0.992921, 433, 245, 496, 276
-0.992923, 1, 85, 32, 116
-0.992937, 257, 1, 320, 32
-0.992942, 273, 45, 336, 76
-0.992943, 81, 49, 144, 80
-0.992948, 85, 77, 116, 108
-0.992955, 353, 149, 416, 180
-0.992958, 33, 81, 288, 144
-0.992961, 393, 1, 456, 333
-0.992963, 393, 265, 456, 296
-0.992966, 165, 105, 196, 136
-0.992973, 345, 301, 408, 332
-0.992978, 469, 145, 500, 272
-0.99298, 437, 145, 468, 272
-0.992981, 369, 301, 432, 332
-0.992983, 189, 113, 220, 144
-0.992984, 193, 117, 256, 148
-0.992986, 409, 221, 472, 252
-0.992992, 297, 93, 328, 124
-0.992994, 353, 213, 416, 244
-0.992998, 65, 101, 96, 132
-0.993009, 153, 105, 184, 136
-0.99301, 265, 21, 328, 52
-0.993011, 329, 9, 392, 40
-0.993017, 409, 277, 472, 308
-0.993021, 173, 257, 204, 320
-0.993031, 113, 297, 176, 328
-0.99304, 385, 169, 416, 232
-0.993041, 361, 73, 424, 104
-0.993041, 377, 285, 440, 316
-0.993041, 433, 185, 496, 248
-0.99305, 177, 1, 240, 32
-0.993057, 145, 257, 208, 288
-0.993062, 137, 229, 200, 260
-0.993062, 337, 225, 400, 256
-0.993075, 105, 153, 168, 184
-0.993077, 53, 97, 84, 128
-0.993077, 377, 109, 440, 140
-0.993088, 61, 149, 92, 180
-0.993092, 241, 209, 368, 333
-0.993098, 101, 77, 132, 108
-0.993112, 353, 93, 384, 124
-0.993112, 173, 33, 204, 160
-0.993117, 61, 173, 92, 204
-0.993125, 129, 105, 160, 136
-0.993134, 433, 129, 496, 192
-0.993139, 21, 81, 52, 112
-0.993141, 373, 109, 404, 140
-0.993143, 49, 73, 80, 104
-0.993148, 265, 89, 296, 120
-0.993153, 357, 49, 388, 112
-0.993154, 97, 61, 128, 92
-0.993154, 45, 137, 76, 168
-0.99316, 273, 101, 304, 132
-0.993165, 185, 93, 216, 124
-0.993172, 149, 93, 180, 124
-0.993174, 145, 265, 176, 328
-0.99319, 325, 97, 356, 128
-0.993191, 129, 129, 256, 192
-0.993195, 201, 1, 264, 128
-0.993201, 369, 97, 400, 128
-0.993219, 9, 109, 40, 140
-0.993222, 61, 137, 92, 168
-0.993227, 113, 77, 144, 108
-0.993227, 133, 85, 164, 116
-0.993242, 133, 73, 164, 104
-0.993244, 73, 73, 104, 104
-0.993246, 73, 137, 104, 200
-0.993249, 393, 129, 424, 192
-0.993249, 173, 93, 204, 124
-0.993253, 385, 89, 416, 120
-0.993259, 285, 89, 316, 120
-0.99326, 313, 89, 344, 120
-0.99327, 101, 89, 132, 120
-0.993277, 385, 173, 416, 204
-0.993287, 209, 89, 240, 120
-0.993288, 85, 57, 116, 88
-0.99329, 61, 69, 92, 100
-0.993291, 105, 49, 136, 80
-0.993294, 33, 101, 64, 132
-0.993303, 33, 125, 64, 156
-0.993305, 425, 1, 488, 64
-0.993306, 49, 149, 80, 180
-0.993309, 33, 145, 64, 176
-0.993321, 1, 73, 32, 104
-0.993328, 201, 113, 232, 144
-0.99333, 121, 93, 152, 124
-0.993331, 61, 161, 92, 192
-0.993332, 405, 301, 436, 332
-0.993338, 377, 197, 408, 228
-0.993342, 237, 97, 268, 128
-0.993343, 397, 273, 428, 304
-0.993351, 45, 177, 76, 208
-0.993357, 41, 161, 72, 192
-0.993361, 69, 185, 100, 216
-0.993365, 161, 93, 192, 124
-0.993372, 197, 89, 228, 120
-0.993374, 425, 301, 456, 332
-0.993379, 349, 261, 380, 292
-0.99338, 129, 141, 160, 172
-0.99338, 93, 101, 124, 132
-0.993387, 217, 17, 280, 80
-0.993388, 453, 245, 484, 276
-0.993389, 413, 261, 444, 292
-0.99339, 157, 273, 188, 333
-0.993392, 73, 141, 104, 172
-0.993393, 381, 49, 412, 176
-0.993393, 445, 165, 476, 196
-0.993393, 377, 121, 408, 152
-0.993399, 29, 65, 60, 96
-0.993403, 153, 33, 184, 160
-0.993405, 465, 161, 496, 192
-0.993405, 221, 105, 252, 136
-0.993409, 393, 261, 424, 292
-0.99341, 113, 257, 144, 288
-0.993415, 333, 273, 364, 304
-0.993423, 313, 33, 344, 96
-0.993426, 129, 121, 160, 152
-0.993427, 441, 297, 472, 328
-0.993427, 401, 149, 432, 180
-0.993429, 321, 297, 352, 328
-0.993434, 29, 165, 60, 196
-0.993436, 385, 161, 416, 192
-0.993438, 33, 105, 288, 168
-0.993439, 445, 225, 476, 256
-0.99344, 341, 93, 372, 124
-0.99344, 125, 249, 156, 280
-0.993441, 13, 69, 44, 100
-0.993442, 9, 53, 40, 84
-0.993443, 293, 69, 324, 100
-0.993443, 33, 33, 160, 96
-0.993444, 53, 125, 84, 156
-0.993446, 89, 277, 120, 308
-0.993447, 261, 65, 292, 192
-0.993447, 21, 145, 52, 176
-0.993447, 225, 97, 480, 160
-0.993449, 1, 97, 500, 160
-0.99345, 129, 153, 160, 184
-0.99345, 445, 265, 476, 296
-0.993455, 361, 49, 392, 176
-0.993457, 453, 297, 484, 328
-0.993458, 141, 213, 172, 244
-0.993461, 361, 257, 392, 288
-0.993462, 41, 113, 72, 144
-0.993463, 253, 93, 284, 124
-0.993468, 413, 157, 444, 188
-0.993475, 465, 257, 496, 288
-0.993478, 401, 169, 432, 200
-0.993479, 373, 81, 404, 112
-0.99348, 449, 277, 480, 308
-0.993495, 221, 93, 252, 124
-0.993496, 453, 97, 484, 224
-0.993496, 329, 85, 360, 116
-0.9935, 373, 257, 404, 288
-0.993501, 397, 185, 428, 216
-0.993501, 453, 181, 484, 212
-0.993502, 297, 81, 328, 112
-0.993504, 29, 113, 60, 144
-0.993504, 401, 81, 432, 208
-0.993505, 409, 281, 440, 312
-0.993505, 469, 205, 500, 236
-0.993512, 273, 33, 304, 64
-0.993513, 361, 81, 392, 112
-0.993513, 357, 57, 388, 88
-0.993516, 425, 245, 456, 276
-0.993518, 337, 41, 368, 72
-0.993576, 329, 73, 360, 136
-0.993613, 397, 161, 428, 288
-0.993632, 41, 1, 104, 333
-0.993636, 353, 81, 384, 144
-0.993651, 25, 145, 56, 208
-0.993694, 353, 1, 384, 128
-0.993717, 221, 105, 252, 168
-0.993728, 89, 41, 120, 104
-0.993752, 393, 105, 456, 168
-0.993783, 201, 33, 232, 160
-0.99382, 145, 209, 176, 272
-0.99383, 129, 105, 256, 136
-0.993835, 129, 73, 384, 136
-0.993856, 117, 1, 148, 128
-0.993885, 109, 113, 140, 176
-0.993894, 457, 1, 488, 64
-0.993899, 117, 89, 148, 152
-0.993914, 469, 273, 500, 333
-0.993926, 305, 121, 368, 184
-0.99394, 221, 97, 252, 224
-0.993945, 417, 153, 448, 216
-0.993954, 41, 193, 104, 256
-0.993983, 113, 161, 176, 288
-0.994004, 409, 209, 472, 333
-0.994026, 337, 97, 368, 160
-0.994037, 17, 273, 144, 333
-0.994048, 177, 9, 304, 72
-0.994095, 209, 121, 240, 184
-0.994098, 253, 73, 284, 136
-0.994111, 193, 97, 320, 128
-0.994131, 393, 233, 424, 296
-0.99414, 33, 241, 160, 304
-0.994241, 257, 73, 500, 136
-0.994244, 257, 1, 320, 256
-0.994268, 209, 73, 240, 136
-0.994269, 81, 33, 208, 96
-0.994297, 257, 121, 320, 184
-0.99433, 457, 273, 488, 333
-0.99434, 129, 209, 256, 272
-0.994345, 137, 233, 168, 296
-0.994348, 349, 209, 380, 333
-0.994358, 425, 57, 488, 120
-0.994363, 1, 113, 32, 176
-0.994367, 289, 97, 416, 128
-0.99438, 145, 145, 176, 272
-0.994393, 145, 81, 176, 208
-0.994399, 417, 161, 448, 288
-0.99442, 1, 97, 128, 128
-0.994442, 97, 273, 128, 333
-0.994476, 129, 1, 160, 128
-0.994504, 153, 145, 216, 208
-0.994536, 421, 265, 452, 328
-0.994565, 81, 201, 208, 264
-0.994579, 273, 25, 304, 88
-0.994596, 65, 193, 128, 320
-0.994604, 321, 9, 448, 72
-0.994642, 377, 209, 408, 333
-0.994648, 433, 33, 496, 288
-0.99467, 101, 33, 132, 96
-0.994674, 345, 241, 376, 304
-0.994681, 457, 209, 488, 333
-0.994686, 289, 249, 416, 312
-0.994703, 65, 145, 96, 272
-0.994705, 21, 121, 52, 184
-0.994722, 405, 153, 436, 216
-0.994725, 321, 177, 448, 240
-0.994737, 261, 105, 292, 168
-0.994741, 1, 73, 500, 136
-0.99475, 133, 113, 164, 240
-0.994797, 37, 153, 68, 216
-0.994801, 237, 41, 268, 104
-0.994837, 437, 1, 468, 64
-0.994844, 457, 161, 488, 224
-0.994867, 21, 17, 52, 144
-0.994869, 89, 161, 152, 224
-0.994887, 193, 41, 448, 104
-0.994948, 441, 265, 472, 328
-0.994958, 153, 209, 216, 333
-0.995014, 97, 1, 160, 128
-0.995026, 49, 77, 176, 108
-0.995048, 409, 193, 472, 256
-0.995056, 1, 81, 128, 112
-0.995079, 365, 1, 396, 128
-0.995084, 241, 129, 368, 192
-0.995094, 145, 217, 208, 280
-0.995119, 369, 25, 432, 88
-0.995121, 213, 33, 244, 160
-0.99513, 369, 65, 400, 128
-0.995145, 193, 121, 224, 184
-0.995194, 245, 17, 276, 144
-0.995227, 361, 257, 392, 320
-0.99528, 177, 209, 304, 333
-0.995287, 289, 109, 416, 140
-0.99529, 149, 193, 180, 320
-0.995304, 297, 33, 328, 96
-0.995356, 285, 33, 316, 96
-0.995366, 437, 241, 468, 304
-0.99539, 1, 121, 500, 184
-0.995412, 97, 225, 160, 288
-0.995424, 381, 57, 412, 120
-0.995429, 217, 1, 280, 333
-0.995444, 49, 61, 176, 92
-0.995472, 13, 89, 28, 152
-0.995483, 129, 145, 160, 208
-0.995494, 297, 57, 328, 120
-0.995504, 21, 129, 52, 256
-0.995515, 401, 65, 464, 128
-0.995529, 369, 225, 496, 288
-0.995529, 299, 97, 314, 160
-0.995561, 269, 57, 300, 120
-0.995569, 33, 193, 160, 256
-0.995598, 241, 101, 368, 132
-0.995604, 273, 273, 400, 333
-0.995606, 87, 81, 102, 144
-0.99561, 49, 89, 176, 120
-0.995617, 293, 97, 308, 160
-0.995622, 53, 169, 84, 232
-0.995671, 81, 105, 208, 136
-0.995674, 33, 57, 288, 120
-0.995675, 85, 273, 116, 333
-0.995706, 33, 137, 288, 200
-0.995707, 203, 97, 218, 160
-0.995725, 121, 257, 152, 320
-0.99574, 153, 33, 216, 96
-0.995742, 109, 265, 140, 328
-0.995743, 57, 1, 88, 128
-0.99577, 369, 33, 400, 96
-0.995779, 123, 57, 138, 120
-0.995784, 177, 129, 304, 192
-0.995785, 237, 81, 268, 144
-0.995814, 129, 193, 160, 320
-0.995866, 249, 105, 280, 168
-0.995877, 177, 109, 304, 140
-0.995897, 185, 97, 200, 160
-0.995912, 225, 121, 480, 184
-0.995927, 115, 57, 130, 120
-0.995951, 161, 241, 224, 304
-0.995969, 409, 241, 440, 304
-0.995972, 357, 1, 388, 64
-0.995979, 165, 73, 196, 136
-0.995982, 287, 97, 302, 160
-0.995988, 305, 97, 320, 160
-0.996008, 209, 97, 224, 160
-0.996023, 465, 81, 496, 208
-0.996031, 393, 273, 424, 333
-0.996034, 341, 33, 372, 96
-0.996037, 79, 73, 94, 136
-0.996085, 273, 225, 400, 288
-0.996091, 373, 201, 404, 264
-0.996095, 33, 17, 64, 144
-0.996098, 145, 137, 176, 200
-0.996109, 209, 273, 336, 333
-0.996191, 437, 73, 468, 136
-0.996216, 457, 1, 488, 128
-0.996218, 137, 1, 200, 333
-0.996226, 193, 97, 208, 160
-0.996232, 69, 273, 100, 333
-0.996283, 97, 33, 352, 96
-0.996288, 381, 1, 412, 128
-0.996289, 109, 57, 124, 120
-0.996303, 55, 73, 70, 136
-0.99631, 165, 209, 196, 333
-0.996316, 113, 89, 240, 120
-0.996325, 193, 17, 448, 80
-0.996341, 69, 65, 84, 128
-0.996359, 277, 1, 308, 64
-0.996393, 49, 89, 64, 152
-0.996397, 69, 17, 100, 144
-0.9964, 33, 217, 160, 280
-0.996405, 353, 217, 384, 280
-0.996419, 221, 81, 252, 144
-0.996423, 137, 65, 152, 128
-0.996436, 429, 161, 460, 224
-0.996438, 197, 1, 228, 64
-0.996481, 325, 9, 356, 72
-0.996481, 421, 233, 452, 296
-0.996485, 437, 193, 468, 320
-0.996488, 215, 97, 230, 160
-0.996506, 161, 1, 224, 333
-0.996514, 157, 121, 188, 184
-0.996516, 193, 85, 320, 116
-0.99652, 305, 73, 320, 136
-0.996524, 145, 153, 272, 216
-0.996539, 61, 193, 92, 320
-0.996554, 21, 97, 36, 160
-0.996581, 77, 145, 92, 208
-0.9966, 3, 105, 18, 168
-0.996608, 129, 65, 144, 128
-0.996639, 241, 249, 368, 312
-0.99664, 7, 81, 22, 144
-0.996645, 71, 105, 86, 168
-0.996647, 1, 69, 128, 100
-0.996682, 257, 85, 384, 116
-0.996687, 65, 145, 80, 208
-0.996693, 383, 89, 398, 152
-0.996718, 289, 73, 304, 136
-0.996737, 193, 1, 256, 333
-0.996751, 311, 73, 326, 136
-0.996764, 209, 49, 336, 80
-0.996772, 103, 65, 118, 128
-0.996802, 1, 109, 128, 140
-0.996811, 179, 97, 194, 160
-0.99682, 113, 65, 240, 96
-0.996833, 93, 57, 108, 120
-0.996833, 79, 97, 94, 160
-0.99686, 141, 17, 172, 144
-0.996869, 1, 81, 16, 144
-0.99687, 71, 129, 86, 192
-0.996871, 225, 113, 352, 144
-0.996878, 393, 33, 424, 160
-0.996881, 61, 65, 76, 128
-0.996891, 315, 97, 330, 160
-0.996904, 369, 161, 496, 192
-0.996922, 469, 193, 500, 320
-0.996931, 129, 117, 256, 148
-0.996931, 369, 145, 400, 272
-0.996943, 157, 105, 172, 168
-0.996943, 221, 97, 236, 160
-0.996945, 1, 145, 500, 208
-0.996952, 151, 97, 166, 160
-0.996976, 377, 89, 392, 152
-0.996982, 33, 121, 160, 152
-0.996986, 65, 89, 80, 152
-0.997, 145, 97, 160, 160
-0.997009, 41, 57, 56, 120
-0.997014, 401, 1, 464, 64
-0.997018, 23, 73, 38, 136
-0.997072, 397, 209, 428, 333
-0.997077, 1, 161, 256, 224
-0.99709, 87, 57, 102, 120
-0.997092, 169, 105, 184, 168
-0.997096, 1, 49, 500, 112
-0.997104, 93, 89, 108, 152
-0.997117, 353, 85, 480, 116
-0.997122, 57, 97, 72, 160
-0.997125, 97, 77, 224, 108
-0.997143, 49, 65, 64, 128
-0.997156, 321, 253, 448, 284
-0.997167, 295, 73, 310, 136
-0.997171, 441, 81, 472, 208
-0.997186, 55, 121, 70, 184
-0.997193, 33, 133, 160, 164
-0.997221, 143, 65, 158, 128
-0.997226, 315, 33, 330, 96
-0.997237, 325, 97, 356, 224
-0.997243, 313, 217, 376, 280
-0.997246, 129, 185, 256, 248
-0.997252, 225, 1, 352, 32
-0.997253, 29, 97, 44, 160
-0.997255, 33, 161, 160, 192
-0.997259, 129, 1, 256, 64
-0.997268, 281, 97, 296, 160
-0.99727, 85, 85, 100, 116
-0.997277, 289, 41, 416, 72
-0.997287, 161, 257, 288, 320
-0.997296, 323, 97, 338, 160
-0.99731, 273, 1, 400, 32
-0.997314, 387, 113, 402, 176
-0.997316, 289, 201, 416, 264
-0.997383, 211, 101, 226, 132
-0.997392, 163, 97, 178, 160
-0.997398, 65, 173, 192, 204
-0.997407, 305, 105, 320, 136
-0.997414, 329, 97, 344, 160
-0.99743, 121, 97, 152, 224
-0.997432, 293, 101, 308, 132
-0.997444, 71, 153, 86, 216
-0.997444, 391, 257, 406, 320
-0.997454, 227, 105, 242, 168
-0.99746, 113, 53, 240, 84
-0.99746, 133, 89, 148, 152
-0.997472, 17, 273, 80, 333
-0.99748, 1, 257, 500, 320
-0.997483, 193, 73, 320, 104
-0.997508, 21, 97, 36, 128
-0.99751, 469, 273, 484, 333
-0.99751, 305, 33, 320, 96
-0.997511, 433, 105, 496, 168
-0.997513, 1, 173, 128, 204
-0.997516, 13, 65, 28, 128
-0.997523, 195, 105, 210, 136
-0.997526, 169, 129, 200, 256
-0.997528, 369, 97, 496, 128
-0.997537, 33, 149, 160, 180
-0.99754, 337, 209, 464, 240
-0.997541, 441, 17, 472, 144
-0.997549, 47, 153, 62, 216
-0.997556, 305, 1, 320, 64
-0.997557, 79, 85, 94, 116
-0.997563, 97, 1, 352, 64
-0.997566, 461, 249, 476, 312
-0.997573, 139, 113, 154, 176
-0.99759, 339, 265, 354, 328
-0.997604, 193, 73, 208, 136
-0.997611, 45, 17, 76, 144
-0.997616, 299, 105, 314, 136
-0.997631, 279, 73, 294, 136
-0.997636, 267, 41, 282, 104
-0.997638, 451, 1, 466, 64
-0.997651, 485, 153, 500, 216
-0.997654, 73, 81, 88, 112
-0.997657, 65, 113, 80, 176
-0.99766, 369, 1, 384, 64
-0.997668, 193, 121, 208, 184
-0.997668, 7, 85, 22, 116
-0.997668, 209, 73, 224, 136
-0.997669, 43, 89, 58, 152
-0.997687, 35, 73, 50, 136
-0.99769, 483, 265, 498, 328
-0.997697, 173, 81, 188, 144
-0.997704, 205, 101, 220, 132
-0.997711, 209, 37, 336, 68
-0.997731, 311, 105, 326, 136
-0.997732, 319, 73, 334, 136
-0.997739, 347, 265, 362, 328
-0.997744, 369, 177, 496, 208
-0.99775, 185, 73, 200, 136
-0.99775, 53, 145, 84, 272
-0.99775, 117, 33, 132, 96
-0.997754, 165, 241, 180, 304
-0.997755, 81, 117, 208, 148
-0.997757, 117, 81, 132, 144
-0.997758, 269, 81, 284, 144
-0.997767, 351, 65, 366, 128
-0.99777, 273, 41, 288, 104
-0.99777, 389, 153, 404, 216
-0.997779, 1, 273, 256, 333
-0.997779, 321, 273, 448, 304
-0.99778, 419, 153, 434, 216
-0.997787, 471, 153, 486, 216
-0.997788, 15, 93, 30, 124
-0.997792, 463, 161, 478, 224
-0.997793, 423, 257, 438, 320
-0.997796, 225, 17, 352, 48
-0.997799, 411, 145, 426, 208
-0.997802, 395, 129, 410, 192
-0.997804, 369, 89, 384, 152
-0.997805, 211, 121, 226, 184
-0.997813, 119, 61, 134, 92
-0.997814, 389, 57, 404, 120
-0.997817, 181, 129, 212, 256
-0.997828, 29, 65, 44, 128
-0.997837, 347, 97, 362, 160
-0.997839, 147, 265, 162, 328
-0.997842, 379, 65, 394, 128
-0.997848, 383, 233, 398, 296
-0.997849, 337, 241, 464, 272
-0.99785, 109, 57, 124, 88
-0.997851, 393, 89, 408, 152
-0.997853, 79, 97, 94, 128
-0.99786, 455, 257, 470, 320
-0.997861, 41, 153, 56, 216
-0.997866, 305, 93, 320, 124
-0.99787, 273, 169, 400, 232
-0.997873, 377, 201, 392, 264
-0.997876, 189, 105, 204, 136
-0.997877, 369, 197, 496, 228
-0.997887, 273, 61, 400, 92
-0.997889, 363, 1, 378, 64
-0.997889, 273, 73, 400, 104
-0.997892, 203, 73, 218, 136
-0.997897, 157, 81, 172, 144
-0.997901, 455, 161, 470, 224
-0.997903, 183, 105, 198, 136
-0.997909, 315, 9, 330, 72
-0.997912, 107, 105, 122, 168
-0.997914, 305, 145, 368, 272
-0.997915, 85, 105, 100, 168
-0.997916, 365, 241, 380, 304
-0.997917, 225, 145, 480, 208
-0.997921, 335, 89, 350, 152
-0.997925, 305, 301, 432, 332
-0.997926, 131, 41, 146, 104
-0.997927, 153, 233, 168, 296
-0.997932, 285, 1, 316, 256
-0.997936, 257, 233, 500, 296
-0.997938, 77, 177, 108, 304
-0.997946, 373, 225, 388, 288
-0.997948, 341, 89, 356, 152
-0.997954, 111, 33, 126, 96
-0.997958, 417, 249, 432, 312
-0.99796, 139, 89, 154, 152
-0.997962, 305, 85, 432, 116
-0.99797, 301, 1, 332, 256
-0.997977, 97, 253, 224, 284
-0.998008, 193, 61, 320, 92
-0.998012, 1, 57, 128, 88
-0.998012, 27, 105, 42, 136
-0.998028, 369, 113, 496, 144
-0.998028, 287, 101, 302, 132
-0.99804, 91, 89, 106, 120
-0.998045, 201, 113, 216, 144
-0.998047, 1, 101, 16, 132
-0.998053, 51, 85, 66, 116
-0.998061, 143, 101, 158, 132
-0.998066, 61, 81, 76, 112
-0.998075, 377, 1, 440, 64
-0.998081, 341, 97, 372, 224
-0.998086, 125, 65, 140, 96
-0.998093, 193, 273, 256, 333
-0.998101, 241, 65, 272, 192
-0.998105, 293, 129, 324, 256
-0.998111, 45, 89, 60, 120
-0.998113, 273, 29, 400, 60
-0.998132, 305, 289, 432, 320
-0.998136, 305, 13, 432, 44
-0.998141, 193, 273, 448, 333
-0.998146, 337, 221, 464, 252
-0.998167, 151, 101, 166, 132
-0.998173, 353, 73, 480, 104
-0.99819, 193, 33, 224, 288
-0.998193, 369, 285, 496, 316
-0.998197, 35, 101, 50, 132
-0.998198, 317, 105, 332, 136
-0.998199, 377, 93, 392, 124
-0.998203, 97, 269, 224, 300
-0.998215, 137, 69, 152, 100
-0.998216, 281, 129, 312, 256
-0.998226, 177, 233, 304, 296
-0.998227, 257, 1, 288, 256
-0.998231, 65, 93, 80, 124
-0.998233, 369, 149, 496, 180
-0.998234, 7, 97, 22, 128
-0.998239, 81, 217, 208, 248
-0.99824, 67, 145, 82, 176
-0.998248, 57, 129, 72, 160
-0.998259, 217, 101, 232, 132
-0.998261, 181, 33, 212, 288
-0.998264, 49, 281, 176, 312
-0.998274, 83, 73, 98, 104
-0.998276, 67, 81, 82, 112
-0.998297, 311, 93, 326, 124
-0.998303, 175, 105, 190, 136
-0.998306, 393, 163, 424, 178
-0.998306, 425, 169, 456, 184
-0.998306, 101, 55, 132, 70
-0.998306, 129, 121, 160, 136
-0.998306, 133, 249, 164, 264
-0.998307, 261, 111, 292, 126
-0.998307, 77, 105, 108, 120
-0.998308, 1, 77, 32, 92
-0.998308, 349, 265, 380, 280
-0.998309, 93, 101, 124, 116
-0.998309, 265, 105, 296, 120
-0.998309, 305, 145, 432, 176
-0.998309, 173, 101, 204, 116
-0.99831, 97, 73, 128, 88
-0.99831, 9, 115, 40, 130
-0.998311, 77, 147, 108, 162
-0.998311, 401, 277, 432, 292
-0.998311, 313, 37, 344, 52
-0.998312, 65, 171, 96, 186
-0.998313, 333, 315, 364, 330
-0.998313, 109, 267, 140, 282
-0.998313, 277, 97, 308, 112
-0.998313, 353, 317, 384, 332
-0.998313, 369, 45, 496, 76
-0.998315, 141, 243, 172, 258
-0.998315, 91, 77, 106, 108
-0.998315, 469, 1, 500, 16
-0.998315, 61, 149, 92, 164
-0.998316, 61, 165, 92, 180
-0.998316, 361, 291, 392, 306
-0.998318, 5, 63, 36, 78
-0.998319, 37, 143, 68, 158
-0.998319, 445, 163, 476, 178
-0.998319, 377, 253, 408, 268
-0.998319, 133, 81, 164, 96
-0.99832, 429, 317, 460, 332
-0.99832, 297, 95, 328, 110
-0.998321, 201, 117, 232, 132
-0.998321, 381, 99, 412, 114
-0.998322, 461, 309, 492, 324
-0.998322, 89, 67, 120, 82
-0.998323, 405, 261, 436, 276
-0.998324, 389, 169, 420, 184
-0.998328, 49, 269, 176, 300
-0.998328, 417, 161, 448, 176
-0.998328, 365, 261, 396, 276
-0.998328, 469, 275, 500, 290
-0.998329, 105, 81, 136, 96
-0.998329, 17, 61, 48, 76
-0.998329, 373, 201, 404, 216
-0.998329, 373, 275, 404, 290
-0.998331, 209, 99, 240, 114
-0.998332, 105, 67, 136, 82
-0.998333, 369, 253, 496, 284
-0.998333, 161, 105, 176, 136
-0.998333, 133, 155, 164, 170
-0.998334, 409, 267, 440, 282
-0.998335, 313, 99, 344, 114
-0.998335, 133, 113, 164, 128
-0.998335, 49, 157, 80, 172
-0.998338, 29, 89, 60, 104
-0.998338, 189, 117, 220, 132
-0.998338, 369, 87, 400, 102
-0.998338, 137, 101, 168, 116
-0.998338, 457, 1, 488, 16
-0.99834, 137, 75, 168, 90
-0.99834, 117, 105, 148, 120
-0.99834, 265, 95, 296, 110
-0.99834, 29, 123, 60, 138
-0.99834, 305, 133, 432, 164
-0.998341, 337, 267, 368, 282
-0.998342, 93, 83, 124, 98
-0.998343, 325, 105, 356, 120
-0.998343, 29, 61, 60, 76
-0.998343, 49, 145, 80, 160
-0.998345, 97, 61, 128, 76
-0.998346, 109, 73, 140, 88
-0.998346, 45, 97, 76, 112
-0.998347, 1, 185, 128, 216
-0.998347, 373, 267, 404, 282
-0.998349, 405, 165, 436, 180
-0.99835, 365, 99, 396, 114
-0.99835, 17, 95, 48, 110
-0.998352, 33, 149, 64, 164
-0.998352, 149, 101, 180, 116
-0.998354, 357, 273, 388, 288
-0.998354, 77, 77, 108, 92
-0.998356, 437, 311, 468, 326
-0.998356, 377, 93, 408, 108
-0.998358, 169, 105, 184, 136
-0.99836, 193, 99, 224, 114
-0.998361, 41, 83, 72, 98
-0.998363, 145, 77, 272, 108
-0.998365, 109, 87, 140, 102
-0.998365, 429, 163, 460, 178
-0.998366, 177, 113, 208, 128
-0.998369, 49, 139, 80, 154
-0.998369, 55, 69, 70, 100
-0.998369, 285, 109, 316, 124
-0.998375, 65, 103, 96, 118
-0.998376, 97, 89, 112, 120
-0.998377, 65, 143, 96, 158
-0.998378, 1, 117, 16, 148
-0.998379, 349, 93, 380, 108
-0.99838, 353, 301, 480, 332
-0.998381, 21, 109, 52, 124
-0.998383, 93, 89, 124, 104
-0.998383, 129, 107, 160, 122
-0.998385, 33, 101, 64, 116
-0.998387, 429, 97, 460, 224
-0.998389, 61, 177, 92, 192
-0.998392, 121, 81, 152, 96
-0.998394, 313, 107, 344, 122
-0.998394, 241, 1, 272, 256
-0.998395, 201, 89, 216, 120
-0.998396, 117, 67, 148, 82
-0.998397, 1, 81, 16, 112
-0.998398, 53, 85, 84, 100
-0.998399, 201, 111, 232, 126
-0.998401, 69, 69, 84, 100
-0.998408, 369, 105, 400, 120
-0.998408, 29, 95, 60, 110
-0.99841, 299, 93, 314, 124
-0.998411, 89, 201, 152, 264
-0.998412, 131, 65, 146, 96
-0.998415, 87, 101, 102, 132
-0.998416, 125, 73, 156, 88
-0.998416, 65, 79, 96, 94
-0.998417, 115, 49, 130, 80
-0.998418, 297, 249, 360, 312
-0.998419, 369, 111, 400, 126
-0.99842, 289, 89, 304, 120
-0.998421, 81, 83, 112, 98
-0.998423, 153, 109, 184, 124
-0.998424, 137, 105, 152, 136
-0.998427, 1, 91, 32, 106
-0.998436, 21, 101, 52, 116
-0.998436, 65, 85, 96, 100
-0.998443, 5, 109, 36, 124
-0.998445, 161, 45, 288, 76
-0.998446, 407, 265, 422, 296
-0.998448, 65, 91, 96, 106
-0.99845, 399, 161, 414, 192
-0.998451, 81, 1, 208, 64
-0.998452, 193, 93, 208, 124
-0.998453, 361, 93, 392, 108
-0.998456, 169, 107, 200, 122
-0.998458, 73, 93, 88, 124
-0.99846, 57, 97, 88, 112
-0.998467, 337, 61, 464, 92
-0.998467, 75, 177, 90, 208
-0.998471, 103, 61, 118, 92
-0.998476, 13, 105, 28, 136
-0.998478, 143, 89, 158, 120
-0.998479, 83, 173, 98, 204
-0.998481, 301, 101, 332, 116
-0.998483, 301, 109, 332, 124
-0.998483, 49, 91, 80, 106
-0.998483, 273, 103, 336, 118
-0.998484, 113, 145, 240, 176
-0.998484, 17, 99, 80, 114
-0.998485, 93, 95, 124, 110
-0.998488, 49, 87, 112, 102
-0.998492, 187, 93, 202, 124
-0.998494, 189, 105, 220, 120
-0.9985, 137, 107, 200, 122
-0.998502, 73, 141, 88, 172
-0.998504, 77, 165, 92, 196
-0.998504, 129, 129, 384, 192
-0.998509, 185, 105, 248, 120
-0.99851, 389, 117, 404, 148
-0.998511, 9, 103, 40, 118
-0.998512, 141, 107, 172, 122
-0.998513, 5, 97, 36, 112
-0.998514, 233, 129, 296, 192
-0.998515, 305, 121, 432, 152
-0.998517, 71, 105, 86, 136
-0.998519, 273, 109, 336, 124
-0.99852, 169, 33, 200, 288
-0.99852, 313, 1, 344, 256
-0.998526, 161, 105, 224, 120
-0.998527, 209, 105, 240, 120
-0.998529, 369, 1, 496, 32
-0.99853, 1, 105, 64, 120
-0.99853, 185, 111, 248, 126
-0.998531, 77, 99, 108, 114
-0.998532, 33, 61, 48, 92
-0.998533, 33, 79, 96, 94
-0.998534, 65, 129, 80, 160
-0.998539, 281, 103, 312, 118
-0.998539, 109, 61, 140, 76
-0.998542, 81, 63, 144, 78
-0.998542, 383, 105, 398, 136
-0.998546, 65, 93, 128, 108
-0.998546, 105, 89, 120, 120
-0.998547, 323, 101, 338, 132
-0.998552, 209, 129, 240, 256
-0.998553, 99, 77, 114, 108
-0.998553, 249, 101, 312, 116
-0.998557, 223, 101, 238, 132
-0.99856, 337, 95, 400, 110
-0.998561, 161, 111, 224, 126
-0.998567, 189, 111, 220, 126
-0.998569, 73, 81, 136, 96
-0.998571, 297, 101, 360, 116
-0.998571, 471, 157, 486, 188
-0.998574, 337, 269, 352, 300
-0.998575, 25, 85, 40, 116
-0.998577, 41, 177, 104, 192
-0.998581, 73, 75, 136, 90
-0.998582, 113, 107, 176, 122
-0.998582, 9, 93, 72, 108
-0.998587, 77, 89, 108, 104
-0.998587, 33, 93, 96, 108
-0.998588, 55, 141, 70, 172
-0.998593, 105, 77, 120, 108
-0.998593, 49, 169, 64, 200
-0.998594, 233, 111, 296, 126
-0.998594, 33, 89, 48, 120
-0.998595, 317, 93, 332, 124
-0.998596, 41, 161, 56, 192
-0.998597, 89, 69, 152, 84
-0.998598, 113, 41, 240, 72
-0.998599, 25, 145, 88, 160
-0.9986, 135, 85, 150, 116
-0.998601, 97, 75, 160, 90
-0.998603, 337, 103, 400, 118
-0.998603, 153, 1, 216, 64
-0.998604, 17, 85, 80, 100
-0.998605, 75, 65, 90, 96
-0.998606, 113, 85, 176, 100
-0.998608, 369, 93, 384, 124
-0.998616, 345, 113, 408, 128
-0.998617, 305, 107, 368, 122
-0.998617, 445, 297, 460, 328
-0.99862, 89, 65, 104, 96
-0.998621, 33, 249, 288, 312
-0.998622, 115, 77, 130, 108
-0.998623, 379, 281, 394, 312
-0.998627, 209, 103, 272, 118
-0.998628, 57, 99, 120, 114
-0.998629, 89, 91, 152, 106
-0.998629, 1, 111, 64, 126
-0.998632, 281, 101, 296, 132
-0.998632, 361, 201, 424, 216
-0.998634, 49, 73, 64, 104
-0.998634, 169, 99, 232, 114
-0.998635, 137, 101, 200, 116
-0.998635, 65, 69, 128, 84
-0.998636, 65, 185, 192, 216
-0.998637, 361, 89, 376, 120
-0.998637, 97, 99, 160, 114
-0.998638, 273, 97, 336, 112
-0.998638, 137, 115, 200, 130
-0.998638, 461, 161, 476, 192
-0.998638, 49, 147, 112, 162
-0.998641, 401, 205, 464, 220
-0.998641, 357, 129, 388, 256
-0.998642, 377, 101, 440, 116
-0.998643, 321, 317, 384, 332
-0.998644, 49, 183, 112, 198
-0.998645, 57, 63, 120, 78
-0.998646, 329, 97, 344, 128
-0.998647, 385, 163, 448, 178
-0.998647, 105, 63, 168, 78
-0.998648, 1, 79, 64, 94
-0.998651, 33, 167, 96, 182
-0.998651, 385, 269, 400, 300
-0.998651, 97, 113, 160, 128
-0.998651, 153, 89, 168, 120
-0.998652, 57, 123, 120, 138
-0.998654, 37, 125, 52, 156
-0.998654, 265, 37, 328, 52
-0.998655, 97, 57, 112, 88
-0.998655, 25, 69, 88, 84
-0.998658, 131, 101, 146, 132
-0.998658, 407, 149, 422, 180
-0.99866, 17, 181, 80, 196
-0.998662, 393, 299, 456, 314
-0.998663, 425, 161, 488, 176
-0.998663, 25, 105, 88, 120
-0.998664, 121, 75, 184, 90
-0.998664, 97, 275, 160, 290
-0.998664, 391, 129, 406, 160
-0.998667, 351, 97, 366, 128
-0.998667, 17, 127, 80, 142
-0.99867, 33, 139, 96, 154
-0.998671, 73, 57, 136, 72
-0.998671, 39, 81, 54, 112
-0.998671, 289, 39, 352, 54
-0.998672, 1, 63, 64, 78
-0.998672, 143, 73, 158, 104
-0.998672, 113, 57, 176, 72
-0.998672, 313, 95, 376, 110
-0.998673, 297, 21, 360, 36
-0.998673, 369, 95, 432, 110
-0.998676, 377, 185, 440, 200
-0.998676, 361, 309, 424, 324
-0.998676, 305, 5, 320, 36
-0.998676, 21, 109, 36, 140
-0.998676, 329, 269, 392, 284
-0.998676, 241, 95, 304, 110
-0.998676, 425, 1, 488, 16
-0.998677, 265, 89, 328, 104
-0.998677, 129, 233, 384, 296
-0.998677, 33, 161, 96, 176
-0.998678, 1, 159, 64, 174
-0.99868, 305, 311, 368, 326
-0.99868, 321, 295, 384, 310
-0.998681, 273, 115, 336, 130
-0.998681, 9, 73, 24, 104
-0.998682, 393, 273, 456, 288
-0.998682, 353, 221, 416, 236
-0.998682, 265, 83, 328, 98
-0.998682, 425, 253, 488, 268
-0.998683, 41, 117, 104, 132
-0.998684, 369, 179, 432, 194
-0.998684, 433, 259, 496, 274
-0.998686, 361, 315, 424, 330
-0.998686, 225, 45, 288, 60
-0.998687, 425, 311, 488, 326
-0.998687, 201, 95, 264, 110
-0.998688, 377, 211, 440, 226
-0.99869, 377, 107, 440, 122
-0.99869, 385, 317, 448, 332
-0.99869, 409, 281, 472, 296
-0.99869, 321, 17, 384, 32
-0.998692, 137, 81, 200, 96
-0.998692, 113, 69, 176, 84
-0.998692, 161, 93, 176, 124
-0.998693, 57, 153, 120, 168
-0.998693, 281, 77, 344, 92
-0.998693, 17, 121, 80, 136
-0.998693, 377, 291, 440, 306
-0.998693, 345, 235, 408, 250
-0.998694, 97, 119, 160, 134
-0.998694, 25, 155, 88, 170
-0.998694, 265, 1, 328, 16
-0.998694, 1, 33, 256, 96
-0.998695, 241, 87, 304, 102
-0.998695, 409, 259, 472, 274
-0.998696, 55, 117, 70, 148
-0.998697, 89, 105, 152, 120
-0.998697, 433, 301, 496, 316
-0.998697, 433, 189, 496, 204
-0.998697, 73, 131, 136, 146
-0.998698, 385, 307, 448, 322
-0.998698, 41, 33, 72, 288
-0.998698, 345, 293, 408, 308
-0.998698, 25, 63, 88, 78
-0.998699, 121, 273, 184, 288
-0.998699, 385, 253, 448, 268
-0.998699, 297, 71, 360, 86
-0.998699, 409, 317, 472, 332
-0.998699, 129, 247, 192, 262
-0.9987, 345, 301, 408, 316
-0.9987, 389, 169, 404, 200
-0.998701, 281, 15, 344, 30
-0.998701, 417, 265, 480, 280
-0.998702, 337, 259, 400, 274
-0.998702, 433, 207, 496, 222
-0.998703, 209, 109, 272, 124
-0.998703, 145, 29, 272, 60
-0.998704, 129, 217, 192, 232
-0.998704, 345, 121, 408, 136
-0.998704, 459, 301, 474, 332
-0.998708, 1, 217, 500, 280
-0.998709, 65, 241, 192, 272
-0.998712, 281, 89, 296, 120
-0.998714, 207, 113, 222, 144
-0.998716, 305, 57, 320, 88
-0.998718, 453, 297, 468, 328
-0.998721, 409, 165, 424, 196
-0.998721, 39, 61, 54, 92
-0.998721, 127, 77, 142, 108
-0.998723, 485, 157, 500, 188
-0.998724, 417, 157, 432, 188
-0.998724, 51, 97, 66, 128
-0.998726, 43, 117, 58, 148
-0.998728, 61, 69, 76, 100
-0.998731, 395, 269, 410, 300
-0.998731, 373, 65, 404, 320
-0.998747, 369, 125, 496, 156
-0.998761, 1, 45, 128, 76
-0.998766, 289, 237, 416, 268
-0.998767, 1, 289, 128, 320
-0.99877, 205, 33, 236, 288
-0.998771, 141, 33, 172, 288
-0.998779, 65, 297, 192, 328
-0.998783, 113, 297, 240, 328
-0.998794, 105, 17, 168, 80
-0.998797, 57, 33, 88, 288
-0.998807, 49, 249, 112, 312
-0.998818, 113, 1, 240, 32
-0.998819, 269, 1, 300, 256
-0.998826, 369, 273, 496, 304
-0.998836, 49, 257, 176, 288
-0.998838, 69, 33, 100, 288
-0.99884, 97, 281, 224, 312
-0.998844, 341, 1, 372, 128
-0.998846, 89, 129, 120, 256
-0.998846, 157, 129, 188, 256
-0.998853, 193, 129, 224, 256
-0.998882, 257, 209, 500, 272
-0.99889, 81, 229, 208, 260
-0.998891, 81, 129, 208, 160
-0.998915, 193, 177, 448, 240
-0.998919, 209, 145, 336, 272
-0.998925, 177, 217, 240, 280
-0.998935, 1, 185, 500, 248
-0.998939, 129, 33, 160, 288
-0.998964, 321, 173, 448, 204
-0.998973, 257, 253, 384, 284
-0.998982, 353, 33, 480, 64
-0.998983, 289, 209, 416, 240
-0.998995, 413, 209, 444, 333
-0.998995, 129, 217, 256, 248
-0.999001, 65, 205, 192, 236
-0.999028, 153, 33, 184, 288
-0.99903, 321, 157, 448, 188
-0.999038, 429, 1, 460, 256
-0.999041, 393, 1, 424, 256
-0.999068, 369, 137, 496, 168
-0.999071, 469, 1, 500, 256
-0.99908, 449, 65, 480, 320
-0.999087, 71, 49, 86, 176
-0.999099, 89, 33, 120, 288
-0.999114, 65, 49, 192, 80
-0.999114, 113, 241, 240, 272
-0.999116, 161, 13, 288, 44
-0.999119, 1, 65, 16, 192
-0.999123, 1, 277, 128, 308
-0.999129, 161, 193, 224, 256
-0.999139, 161, 201, 416, 264
-0.999142, 273, 273, 400, 304
-0.999147, 207, 81, 222, 208
-0.999151, 1, 185, 256, 248
-0.999175, 303, 81, 318, 208
-0.999178, 289, 221, 416, 252
-0.999184, 77, 65, 92, 192
-0.999194, 249, 129, 312, 256
-0.999211, 177, 1, 304, 32
-0.999213, 177, 121, 304, 152
-0.999215, 115, 33, 130, 160
-0.999228, 97, 273, 352, 333
-0.999228, 121, 49, 136, 176
-0.999234, 393, 113, 408, 240
-0.999235, 201, 81, 216, 208
-0.99924, 85, 49, 100, 176
-0.999256, 129, 205, 256, 236
-0.999263, 127, 49, 142, 176
-0.999281, 193, 81, 208, 208
-0.999285, 321, 197, 448, 228
-0.999287, 65, 49, 80, 176
-0.999292, 307, 33, 322, 160
-0.999292, 325, 1, 356, 256
-0.999294, 81, 157, 208, 188
-0.9993, 187, 81, 202, 208
-0.999302, 65, 113, 80, 240
-0.999303, 233, 1, 264, 128
-0.999307, 71, 97, 86, 224
-0.99931, 287, 81, 302, 208
-0.999314, 145, 253, 272, 284
-0.999315, 305, 129, 336, 256
-0.999316, 1, 1, 32, 256
-0.999316, 297, 49, 312, 176
-0.999321, 313, 185, 376, 248
-0.999338, 387, 97, 402, 224
-0.999338, 213, 81, 228, 208
-0.999341, 9, 33, 24, 160
-0.999346, 315, 81, 330, 208
-0.999349, 55, 65, 70, 192
-0.999361, 309, 81, 324, 208
-0.999361, 417, 1, 448, 256
-0.99937, 105, 65, 120, 192
-0.999374, 225, 297, 352, 328
-0.999378, 337, 209, 368, 333
-0.99938, 7, 97, 22, 224
-0.99938, 143, 49, 158, 176
-0.999388, 45, 49, 60, 176
-0.999391, 145, 273, 272, 304
-0.999401, 19, 65, 34, 192
-0.999406, 129, 133, 256, 164
-0.999409, 91, 81, 106, 208
-0.999411, 221, 81, 236, 208
-0.999419, 473, 145, 488, 272
-0.999422, 483, 145, 498, 272
-0.999431, 97, 49, 112, 176
-0.999433, 241, 145, 368, 176
-0.999433, 297, 97, 312, 224
-0.999435, 25, 65, 40, 192
-0.999437, 323, 1, 338, 128
-0.999441, 331, 1, 346, 128
-0.999444, 33, 229, 160, 260
-0.999445, 229, 1, 260, 256
-0.999446, 371, 193, 386, 320
-0.99945, 181, 81, 196, 208
-0.999455, 133, 49, 148, 176
-0.999464, 337, 65, 368, 320
-0.999465, 463, 145, 478, 272
-0.999468, 25, 1, 56, 256
-0.999469, 381, 97, 396, 224
-0.99947, 39, 97, 54, 224
-0.999473, 321, 185, 448, 216
-0.999473, 49, 97, 64, 224
-0.999481, 1, 225, 256, 288
-0.999485, 375, 81, 390, 208
-0.999489, 273, 193, 400, 224
-0.999495, 277, 1, 292, 128
-0.999495, 271, 17, 286, 144
-0.999495, 315, 33, 330, 160
-0.999499, 323, 81, 338, 208
-0.999506, 1, 113, 16, 240
-0.99951, 453, 145, 468, 272
-0.999511, 343, 81, 358, 208
-0.999513, 83, 97, 98, 224
-0.999513, 149, 97, 164, 224
-0.999513, 381, 161, 396, 288
-0.999514, 115, 81, 130, 208
-0.999519, 13, 97, 28, 224
-0.999521, 161, 237, 288, 268
-0.999521, 19, 113, 34, 240
-0.999522, 121, 1, 136, 128
-0.999522, 361, 209, 376, 333
-0.999527, 227, 81, 242, 208
-0.999528, 33, 1, 96, 64
-0.999528, 171, 81, 186, 208
-0.999528, 353, 1, 384, 256
-0.999531, 117, 89, 132, 104
-0.999532, 39, 117, 54, 132
-0.999532, 53, 141, 68, 156
-0.999532, 379, 201, 394, 216
-0.999533, 49, 97, 64, 112
-0.999534, 1, 95, 16, 110
-0.999534, 41, 91, 56, 106
-0.999534, 419, 315, 434, 330
-0.999535, 409, 163, 424, 178
-0.999536, 33, 121, 48, 136
-0.999536, 461, 161, 476, 176
-0.999537, 73, 173, 88, 188
-0.999537, 113, 33, 144, 288
-0.999537, 333, 301, 348, 316
-0.999537, 149, 99, 164, 114
-0.999537, 137, 87, 152, 102
-0.999538, 333, 81, 348, 208
-0.999538, 65, 153, 80, 168
-0.999538, 27, 111, 42, 126
-0.999539, 73, 103, 88, 118
-0.99954, 55, 151, 70, 166
-0.99954, 51, 69, 66, 84
-0.99954, 473, 277, 488, 292
-0.99954, 143, 99, 158, 114
-0.999541, 289, 93, 304, 108
-0.999541, 207, 99, 222, 114
-0.999542, 397, 167, 412, 182
-0.999543, 35, 63, 50, 78
-0.999543, 83, 177, 98, 192
-0.999543, 383, 49, 398, 176
-0.999544, 71, 145, 86, 160
-0.999544, 323, 105, 338, 120
-0.999545, 359, 93, 374, 108
-0.999545, 223, 103, 238, 118
-0.999545, 383, 111, 398, 126
-0.999547, 135, 113, 150, 128
-0.999547, 201, 119, 216, 134
-0.999547, 385, 273, 400, 288
-0.999547, 61, 135, 76, 150
-0.999547, 377, 261, 392, 276
-0.999549, 57, 99, 72, 114
-0.999549, 87, 81, 102, 96
-0.999549, 329, 23, 344, 38
-0.999551, 105, 91, 120, 106
-0.999551, 201, 33, 216, 160
-0.999551, 377, 89, 392, 104
-0.999553, 381, 293, 396, 308
-0.999554, 375, 277, 390, 292
-0.999554, 343, 267, 358, 282
-0.999554, 133, 105, 148, 120
-0.999555, 155, 97, 170, 224
-0.999555, 143, 81, 158, 96
-0.999555, 99, 85, 114, 100
-0.999555, 445, 305, 460, 320
-0.999555, 281, 49, 296, 176
-0.999556, 473, 1, 488, 16
-0.999557, 41, 85, 56, 100
-0.999558, 51, 79, 66, 94
-0.99956, 405, 161, 420, 288
-0.999561, 303, 115, 318, 130
-0.999561, 241, 193, 368, 256
-0.999561, 371, 95, 386, 110
-0.999562, 133, 79, 148, 94
-0.999562, 33, 99, 48, 114
-0.999562, 383, 95, 398, 110
-0.999565, 1, 87, 16, 102
-0.999566, 315, 39, 330, 54
-0.999567, 99, 59, 114, 74
-0.999567, 89, 99, 104, 114
-0.999568, 93, 85, 108, 100
-0.999568, 175, 107, 190, 122
-0.999569, 31, 81, 46, 208
-0.999572, 67, 101, 82, 116
-0.999572, 79, 171, 94, 186
-0.999572, 63, 85, 78, 100
-0.999572, 77, 113, 92, 240
-0.999572, 399, 113, 414, 240
-0.999576, 1, 117, 16, 132
-0.999578, 97, 97, 112, 112
-0.999579, 127, 1, 142, 128
-0.99958, 131, 67, 146, 82
-0.999581, 187, 111, 202, 126
-0.999582, 51, 85, 66, 100
-0.999582, 3, 109, 18, 124
-0.999582, 167, 107, 182, 122
-0.999583, 71, 89, 86, 104
-0.999584, 217, 103, 232, 118
-0.999585, 189, 105, 204, 120
-0.999585, 13, 91, 28, 106
-0.999585, 195, 33, 210, 160
-0.999586, 315, 101, 330, 116
-0.999586, 33, 107, 48, 122
-0.999586, 123, 73, 138, 88
-0.999587, 165, 209, 180, 333
-0.999587, 61, 79, 76, 94
-0.999587, 431, 145, 446, 272
-0.999587, 299, 109, 314, 124
-0.999588, 241, 241, 368, 272
-0.999588, 183, 105, 198, 120
-0.99959, 125, 65, 140, 80
-0.999591, 25, 99, 40, 114
-0.999592, 1, 103, 16, 118
-0.999593, 291, 33, 306, 160
-0.999594, 379, 105, 394, 120
-0.999595, 83, 93, 98, 108
-0.999595, 337, 1, 352, 128
-0.999595, 161, 109, 176, 124
-0.9996, 443, 145, 458, 272
-0.999603, 19, 107, 34, 122
-0.999603, 79, 79, 94, 94
-0.999604, 119, 61, 134, 76
-0.999604, 317, 109, 332, 124
-0.999604, 207, 111, 222, 126
-0.999606, 69, 83, 84, 98
-0.999607, 265, 17, 280, 144
-0.999608, 109, 1, 124, 128
-0.999608, 465, 209, 480, 333
-0.99961, 7, 87, 22, 102
-0.999611, 351, 49, 366, 176
-0.999612, 7, 95, 22, 110
-0.999613, 195, 105, 210, 120
-0.999613, 389, 49, 404, 176
-0.999613, 257, 285, 384, 316
-0.999614, 365, 93, 380, 108
-0.999614, 483, 97, 498, 224
-0.999614, 65, 145, 80, 160
-0.999615, 99, 91, 114, 106
-0.999616, 113, 61, 128, 76
-0.999617, 165, 81, 180, 208
-0.999617, 141, 97, 156, 224
-0.999617, 305, 101, 320, 116
-0.999617, 459, 97, 474, 224
-0.99962, 137, 73, 152, 88
-0.999622, 399, 161, 414, 288
-0.999622, 211, 33, 226, 160
-0.999622, 11, 105, 26, 120
-0.999623, 393, 161, 408, 288
-0.999626, 271, 65, 286, 192
-0.999626, 451, 209, 466, 333
-0.999626, 183, 33, 198, 160
-0.999627, 127, 81, 142, 96
-0.999628, 77, 17, 92, 144
-0.999628, 413, 161, 428, 288
-0.999629, 39, 49, 54, 176
-0.99963, 21, 17, 36, 144
-0.999631, 61, 91, 76, 106
-0.999631, 149, 49, 164, 176
-0.999631, 233, 49, 248, 176
-0.999633, 59, 17, 74, 144
-0.999633, 129, 153, 384, 216
-0.999636, 75, 177, 90, 304
-0.999636, 469, 97, 484, 224
-0.999636, 285, 1, 300, 128
-0.999637, 67, 95, 82, 110
-0.999638, 295, 103, 310, 118
-0.99964, 13, 97, 28, 112
-0.999641, 31, 33, 46, 160
-0.999642, 287, 101, 302, 116
-0.999644, 423, 145, 438, 272
-0.999644, 147, 105, 162, 120
-0.999644, 91, 33, 106, 160
-0.999645, 147, 177, 162, 304
-0.999645, 77, 89, 92, 104
-0.999646, 377, 95, 392, 110
-0.999646, 467, 1, 482, 128
-0.999647, 71, 1, 86, 128
-0.999647, 241, 33, 256, 160
-0.999647, 375, 33, 390, 160
-0.999648, 113, 13, 240, 44
-0.999649, 453, 81, 468, 208
-0.999649, 387, 145, 402, 272
-0.999649, 201, 113, 216, 128
-0.999653, 349, 209, 364, 333
-0.999655, 57, 85, 72, 100
-0.999655, 153, 105, 168, 120
-0.999656, 217, 33, 232, 160
-0.999657, 211, 105, 226, 120
-0.999658, 155, 33, 170, 160
-0.999658, 479, 209, 494, 333
-0.999659, 423, 193, 438, 320
-0.99966, 17, 241, 144, 272
-0.999661, 439, 97, 454, 224
-0.999662, 141, 109, 156, 124
-0.999662, 89, 93, 104, 108
-0.999663, 51, 91, 66, 106
-0.999665, 25, 105, 40, 120
-0.999665, 311, 109, 326, 124
-0.999665, 79, 99, 94, 114
-0.999666, 281, 97, 296, 224
-0.999666, 297, 1, 312, 128
-0.999667, 51, 17, 66, 144
-0.999667, 375, 129, 390, 256
-0.999668, 133, 1, 148, 128
-0.999671, 485, 209, 500, 333
-0.999676, 365, 1, 380, 128
-0.999679, 259, 17, 274, 144
-0.999679, 369, 49, 384, 176
-0.999681, 201, 103, 216, 118
-0.999688, 73, 95, 88, 110
-0.999695, 353, 21, 480, 52
-0.999697, 217, 33, 248, 288
-0.999699, 1, 265, 128, 296
-0.999705, 83, 87, 98, 102
-0.999718, 19, 99, 34, 114
-0.999719, 241, 129, 368, 160
-0.999725, 405, 1, 436, 128
-0.999725, 145, 285, 272, 316
-0.999725, 177, 137, 304, 168
-0.999727, 109, 97, 140, 224
-0.99973, 33, 217, 160, 248
-0.99974, 101, 33, 132, 288
-0.999744, 193, 111, 208, 126
-0.999752, 305, 109, 320, 124
-0.999768, 13, 1, 44, 256
-0.999823, 405, 1, 436, 256
-0.999824, 1, 9, 256, 72
-0.999983, 177, 209, 304, 272
-1, 1, 9, 500, 72
-1.00007, 17, 1, 144, 64
-1.0001, 429, 1, 460, 128
-1.00015, 105, 209, 136, 333
-1.00016, 225, 153, 352, 216
-1.00017, 417, 49, 448, 176
-1.00035, 29, 177, 60, 304
-1.00041, 121, 145, 152, 272
-1.00046, 469, 17, 500, 144
-1.00049, 89, 177, 120, 304
-1.00077, 41, 161, 72, 288
-1.00078, 425, 209, 456, 333
-1.00086, 409, 49, 472, 176
-1.00096, 225, 217, 352, 280
-1.0011, 97, 177, 352, 240
-1.0015, 433, 49, 496, 176
-1.00159, 413, 97, 444, 224
-1.00163, 269, 129, 300, 256
-1.00164, 177, 177, 240, 304
-1.00165, 429, 49, 460, 176
-1.00172, 233, 113, 264, 240
-1.00189, 417, 1, 448, 128
-1.00192, 185, 209, 216, 333
-1.00216, 177, 185, 304, 248
-1.00223, 117, 209, 148, 333
-1.0024, 17, 177, 48, 304
-1.00278, 337, 145, 368, 272
-1.00327, 297, 193, 360, 320
-1.00329, 197, 209, 228, 333
-1.00336, 109, 145, 140, 272
-1.00734, 217, 145, 280, 272
-1.0094, 201, 209, 264, 333
-1.0105, 273, 209, 336, 333
-1.01126, 233, 193, 296, 320
