1965
-0.472044, 1, 129, 500, 375
-0.559563, 1, 1, 500, 375
-0.595441, 1, 33, 500, 288
-0.685889, 225, 129, 480, 375
-0.700145, 1, 1, 256, 375
-0.706403, 161, 1, 416, 375
-0.745349, 257, 1, 500, 375
-0.753928, 129, 129, 384, 375
-0.798477, 1, 129, 256, 375
-0.858958, 225, 33, 480, 288
-0.887315, 289, 129, 416, 375
-0.891016, 129, 33, 384, 288
-0.892743, 1, 241, 500, 368
-0.893861, 337, 129, 464, 375
-0.902767, 225, 129, 352, 375
-0.91162, 1, 129, 500, 256
-0.91233, 1, 97, 128, 352
-0.91863, 289, 1, 416, 375
-0.919406, 369, 1, 496, 375
-0.920769, 1, 33, 256, 288
-0.923611, 241, 1, 368, 375
-0.926547, 1, 1, 128, 375
-0.929847, 49, 129, 176, 375
-0.930485, 1, 193, 500, 320
-0.931016, 177, 129, 304, 375
-0.934957, 177, 1, 304, 375
-0.937864, 97, 1, 224, 375
-0.939005, 161, 225, 416, 352
-0.941568, 49, 1, 176, 375
-0.943312, 1, 81, 500, 208
-0.94402, 353, 33, 480, 288
-0.944549, 257, 241, 500, 368
-0.946869, 97, 97, 224, 352
-0.948638, 241, 33, 368, 288
-0.950266, 305, 33, 432, 288
-0.950933, 193, 145, 448, 272
-0.953596, 257, 193, 500, 320
-0.954558, 33, 209, 288, 336
-0.955348, 257, 209, 384, 336
-0.955758, 145, 33, 272, 288
-0.956728, 49, 33, 176, 288
-0.957298, 33, 97, 288, 224
-0.958551, 337, 241, 400, 368
-0.961245, 305, 209, 368, 336
-0.962136, 193, 33, 320, 288
-0.962714, 369, 161, 496, 288
-0.963808, 1, 1, 128, 256
-0.965126, 305, 241, 432, 368
-0.965778, 1, 145, 256, 272
-0.966969, 321, 145, 448, 272
-0.967368, 65, 225, 192, 352
-0.967675, 193, 97, 448, 224
-0.967721, 97, 145, 352, 272
-0.968423, 361, 241, 424, 368
-0.968606, 345, 273, 408, 336
-0.968694, 1, 209, 128, 336
-0.968952, 209, 225, 336, 352
-0.969298, 281, 225, 344, 352
-0.969872, 345, 193, 408, 320
-0.970474, 385, 241, 448, 368
-0.970589, 1, 145, 128, 272
-0.970926, 433, 161, 496, 288
-0.971206, 321, 193, 448, 320
-0.971246, 369, 209, 496, 336
-0.971404, 385, 161, 448, 288
-0.973301, 297, 305, 360, 368
-0.97363, 33, 225, 96, 352
-0.974012, 337, 145, 400, 272
-0.974051, 273, 129, 400, 256
-0.974108, 9, 145, 72, 272
-0.975046, 225, 161, 352, 288
-0.975618, 321, 289, 384, 352
-0.976214, 273, 313, 336, 375
-0.976511, 49, 129, 112, 256
-0.976574, 97, 1, 224, 256
-0.976604, 369, 113, 496, 240
-0.976714, 385, 257, 448, 320
-0.976801, 17, 81, 144, 208
-0.977012, 65, 97, 192, 224
-0.977355, 1, 241, 64, 368
-0.977357, 433, 169, 496, 232
-0.977577, 409, 161, 472, 288
-0.977703, 425, 241, 488, 368
-0.977825, 33, 289, 96, 352
-0.978297, 225, 113, 352, 240
-0.978328, 249, 129, 312, 192
-0.978471, 17, 153, 80, 216
-0.978963, 129, 209, 256, 336
-0.978975, 345, 129, 408, 375
-0.979014, 321, 281, 448, 344
-0.979231, 41, 145, 104, 208
-0.979808, 49, 145, 176, 272
-0.980165, 337, 257, 464, 320
-0.980171, 65, 209, 128, 336
-0.980201, 313, 129, 376, 256
-0.980402, 361, 145, 424, 272
-0.980441, 89, 145, 152, 272
-0.980511, 89, 97, 152, 224
-0.980754, 321, 129, 384, 375
-0.980868, 249, 113, 312, 240
-0.980929, 17, 97, 80, 224
-0.981006, 321, 137, 384, 200
-0.981076, 249, 225, 312, 352
-0.981077, 257, 305, 384, 368
-0.981533, 369, 129, 432, 375
-0.981769, 273, 161, 336, 288
-0.981891, 273, 81, 400, 208
-0.98217, 89, 225, 152, 352
-0.982613, 177, 129, 304, 256
-0.98274, 225, 137, 288, 200
-0.982984, 409, 169, 472, 232
-0.983007, 113, 81, 240, 208
-0.983059, 25, 265, 88, 328
-0.983198, 49, 265, 112, 328
-0.983396, 465, 169, 496, 232
-0.983441, 357, 241, 388, 368
-0.983634, 57, 185, 120, 248
-0.983634, 81, 217, 144, 280
-0.983873, 321, 81, 448, 208
-0.98388, 401, 129, 464, 375
-0.984047, 289, 137, 416, 200
-0.984079, 1, 289, 64, 352
-0.984331, 345, 249, 408, 312
-0.984348, 289, 129, 352, 192
-0.984388, 9, 193, 72, 320
-0.98444, 353, 153, 416, 216
-0.984515, 121, 217, 184, 280
-0.98477, 341, 209, 372, 336
-0.984855, 113, 81, 176, 208
-0.984977, 305, 305, 336, 368
-0.984984, 1, 145, 128, 208
-0.98508, 289, 273, 352, 336
-0.985142, 305, 305, 432, 368
-0.985201, 409, 281, 472, 344
-0.985307, 1, 17, 500, 144
-0.985485, 161, 81, 288, 208
-0.985555, 97, 161, 224, 288
-0.985563, 285, 305, 316, 368
-0.985564, 49, 81, 112, 208
-0.985573, 361, 97, 424, 224
-0.985723, 357, 265, 388, 328
-0.985739, 281, 81, 344, 208
-0.985773, 345, 281, 376, 344
-0.98587, 129, 193, 192, 320
-0.985872, 1, 257, 64, 320
-0.9859, 225, 129, 288, 256
-0.985935, 225, 129, 352, 192
-0.986098, 317, 305, 348, 368
-0.98616, 465, 161, 496, 288
-0.986193, 73, 129, 136, 192
-0.986238, 241, 257, 368, 320
-0.986278, 225, 225, 288, 352
-0.986301, 9, 129, 72, 375
-0.986306, 325, 209, 356, 336
-0.986315, 297, 129, 360, 375
-0.986385, 369, 169, 496, 232
-0.986422, 425, 249, 488, 312
-0.98681, 417, 113, 480, 240
-0.986823, 249, 313, 312, 375
-0.986849, 273, 281, 400, 344
-0.986858, 57, 289, 120, 352
-0.986933, 333, 289, 364, 352
-0.987006, 393, 241, 424, 368
-0.987053, 369, 209, 400, 336
-0.987089, 369, 273, 400, 336
-0.987182, 81, 249, 144, 312
-0.9874, 241, 241, 304, 304
-0.987418, 9, 177, 72, 240
-0.987458, 393, 113, 456, 240
-0.987507, 177, 177, 304, 304
-0.987507, 369, 281, 432, 344
-0.9876, 49, 233, 112, 296
-0.987655, 305, 161, 432, 224
-0.987733, 393, 257, 424, 320
-0.987897, 45, 225, 76, 352
-0.987912, 453, 161, 484, 288
-0.98825, 273, 161, 336, 224
-0.988268, 193, 233, 320, 296
-0.98841, 49, 129, 112, 375
-0.988428, 265, 225, 328, 288
-0.988437, 437, 161, 468, 288
-0.988478, 385, 169, 448, 232
-0.988491, 381, 265, 412, 328
-0.988503, 105, 249, 168, 312
-0.988571, 249, 153, 312, 216
-0.988586, 209, 113, 272, 176
-0.98864, 417, 161, 448, 288
-0.988659, 1, 289, 128, 352
-0.988718, 97, 225, 224, 288
-0.988732, 49, 209, 112, 272
-0.988737, 273, 129, 336, 375
-0.988843, 417, 313, 480, 375
-0.988852, 209, 313, 336, 375
-0.988871, 297, 177, 360, 240
-0.98896, 249, 97, 312, 160
-0.989032, 81, 289, 144, 352
-0.989033, 41, 177, 104, 304
-0.989071, 433, 145, 496, 208
-0.9891, 105, 193, 168, 256
-0.989102, 297, 225, 328, 352
-0.989117, 321, 81, 384, 208
-0.989121, 433, 201, 496, 264
-0.989138, 309, 225, 340, 352
-0.989185, 409, 241, 440, 368
-0.989191, 241, 129, 304, 375
-0.989201, 425, 129, 488, 375
-0.989209, 289, 233, 416, 296
-0.989232, 321, 265, 384, 328
-0.989235, 321, 209, 384, 272
-0.989325, 73, 313, 136, 375
-0.989465, 49, 297, 176, 360
-0.989519, 73, 129, 136, 375
-0.989535, 65, 161, 128, 224
-0.989612, 193, 49, 448, 176
-0.989625, 249, 161, 312, 288
-0.989631, 297, 153, 360, 216
-0.989647, 57, 289, 88, 352
-0.989677, 225, 169, 352, 232
-0.989698, 65, 49, 320, 176
-0.989755, 1, 185, 128, 248
-0.989756, 249, 65, 312, 192
-0.989791, 113, 145, 176, 272
-0.98986, 49, 193, 176, 256
-0.989888, 225, 65, 352, 192
-0.989914, 381, 241, 412, 368
-0.989922, 209, 81, 272, 208
-0.989959, 177, 137, 304, 200
-0.99002, 353, 193, 384, 320
-0.990057, 225, 177, 288, 304
-0.990087, 45, 145, 76, 208
-0.99019, 421, 241, 452, 368
-0.990274, 25, 209, 88, 272
-0.990283, 225, 281, 352, 344
-0.990336, 65, 273, 192, 336
-0.990342, 49, 225, 176, 288
-0.990364, 33, 185, 96, 248
-0.990422, 257, 121, 288, 184
-0.990432, 273, 89, 336, 152
-0.990563, 321, 201, 448, 264
-0.990643, 1, 241, 128, 304
-0.990667, 241, 105, 368, 168
-0.990759, 369, 281, 496, 344
-0.990792, 69, 241, 100, 368
-0.990805, 381, 193, 412, 320
-0.990822, 245, 129, 276, 192
-0.990837, 145, 209, 272, 272
-0.990846, 321, 233, 384, 296
-0.990849, 345, 277, 408, 308
-0.990965, 405, 161, 436, 288
-0.990971, 393, 1, 456, 375
-0.990974, 257, 209, 384, 272
-0.99104, 5, 225, 36, 352
-0.99105, 65, 169, 192, 232
-0.991067, 265, 329, 328, 360
-0.991075, 1, 281, 32, 344
-0.991078, 337, 177, 400, 240
-0.991091, 1, 177, 32, 304
-0.991106, 433, 173, 496, 204
-0.991206, 33, 293, 96, 324
-0.991211, 89, 81, 120, 208
-0.991239, 321, 293, 384, 324
-0.991248, 369, 65, 496, 192
-0.991267, 289, 309, 352, 340
-0.991288, 81, 185, 144, 248
-0.991295, 281, 201, 344, 264
-0.991322, 353, 137, 480, 200
-0.991359, 425, 225, 488, 288
-0.991365, 405, 257, 436, 320
-0.991399, 353, 265, 416, 296
-0.991427, 453, 169, 484, 232
-0.991427, 433, 281, 496, 344
-0.99143, 249, 133, 312, 164
-0.991461, 1, 209, 128, 272
-0.991477, 145, 217, 208, 280
-0.991505, 209, 249, 272, 312
-0.991512, 357, 145, 388, 272
-0.99152, 153, 161, 216, 288
-0.99155, 57, 241, 88, 368
-0.991581, 37, 281, 68, 344
-0.991588, 49, 105, 112, 168
-0.991606, 265, 289, 328, 352
-0.991638, 225, 217, 288, 280
-0.991663, 129, 193, 192, 256
-0.991678, 257, 341, 320, 372
-0.99171, 49, 249, 176, 312
-0.991719, 345, 289, 408, 320
-0.99174, 225, 133, 288, 164
-0.991786, 385, 273, 448, 304
-0.991809, 393, 161, 424, 288
-0.991844, 69, 145, 100, 208
-0.991867, 33, 149, 96, 180
-0.99187, 353, 1, 416, 375
-0.99187, 369, 313, 496, 375
-0.991875, 225, 145, 288, 176
-0.991883, 249, 145, 312, 176
-0.991891, 97, 145, 160, 208
-0.991894, 241, 233, 368, 296
-0.991898, 257, 313, 500, 375
-0.991899, 265, 317, 328, 348
-0.991933, 49, 137, 176, 200
-0.991937, 177, 289, 304, 352
-0.991938, 9, 105, 72, 168
-0.991974, 1, 97, 128, 160
-0.992017, 161, 97, 288, 160
-0.992027, 81, 97, 144, 160
-0.992028, 305, 341, 368, 372
-0.992051, 313, 305, 376, 336
-0.992074, 273, 313, 304, 375
-0.992112, 409, 269, 472, 300
-0.992172, 289, 329, 352, 360
-0.992194, 113, 105, 176, 168
-0.992237, 89, 217, 152, 248
-0.99224, 369, 193, 496, 256
-0.992245, 89, 233, 152, 264
-0.992271, 9, 293, 72, 324
-0.99233, 393, 305, 456, 368
-0.992337, 421, 249, 452, 312
-0.992354, 9, 281, 72, 312
-0.992377, 17, 161, 80, 192
-0.992378, 241, 1, 304, 375
-0.992382, 297, 249, 360, 312
-0.992382, 313, 137, 376, 168
-0.99242, 369, 233, 496, 296
-0.992424, 393, 285, 456, 316
-0.992443, 337, 157, 400, 188
-0.99246, 249, 121, 312, 152
-0.992466, 65, 145, 128, 176
-0.992468, 393, 257, 456, 288
-0.99247, 169, 121, 232, 184
-0.992472, 369, 289, 432, 320
-0.992506, 41, 281, 104, 312
-0.992506, 401, 233, 464, 296
-0.992515, 9, 173, 72, 204
-0.992516, 209, 313, 272, 375
-0.992527, 1, 265, 128, 328
-0.992546, 101, 209, 132, 336
-0.992549, 21, 145, 52, 272
-0.992599, 113, 229, 176, 260
-0.992624, 209, 121, 272, 152
-0.992626, 433, 333, 496, 364
-0.992669, 337, 145, 400, 176
-0.992679, 65, 293, 128, 324
-0.9927, 417, 185, 480, 216
-0.992702, 209, 209, 336, 272
-0.992752, 65, 233, 128, 264
-0.992754, 17, 241, 48, 368
-0.992765, 73, 245, 136, 276
-0.992772, 289, 289, 352, 320
-0.992781, 81, 209, 112, 336
-0.99279, 241, 325, 304, 356
-0.992795, 201, 137, 264, 168
-0.992801, 65, 281, 128, 312
-0.992805, 289, 161, 320, 288
-0.992809, 113, 169, 176, 232
-0.992822, 129, 213, 192, 244
-0.992822, 257, 281, 500, 344
-0.992845, 433, 265, 496, 296
-0.992849, 145, 185, 272, 248
-0.99285, 5, 97, 36, 224
-0.992872, 281, 229, 344, 260
-0.9929, 425, 345, 488, 375
-0.992904, 41, 305, 104, 336
-0.992911, 73, 133, 136, 164
-0.992915, 273, 129, 336, 160
-0.992917, 313, 161, 376, 192
-0.992917, 137, 225, 200, 256
-0.992927, 257, 201, 320, 264
-0.992931, 77, 129, 108, 256
-0.992933, 281, 317, 312, 348
-0.992946, 233, 345, 296, 375
-0.992948, 281, 345, 344, 375
-0.992952, 161, 177, 224, 240
-0.992953, 401, 313, 464, 344
-0.992955, 313, 309, 344, 340
-0.992957, 425, 253, 488, 284
-0.992974, 385, 301, 448, 332
-0.992976, 297, 185, 360, 216
-0.992977, 289, 225, 352, 288
-0.992985, 57, 265, 88, 328
-0.992986, 425, 197, 488, 228
-0.992986, 313, 269, 376, 300
-0.992992, 273, 165, 336, 196
-0.993001, 1, 305, 500, 368
-0.993005, 321, 217, 384, 248
-0.993012, 409, 173, 472, 204
-0.99302, 333, 297, 364, 328
-0.993025, 425, 321, 488, 352
-0.993025, 1, 185, 64, 216
-0.993035, 469, 173, 500, 204
-0.993036, 353, 281, 384, 312
-0.993036, 273, 181, 336, 212
-0.993044, 385, 173, 448, 204
-0.993051, 425, 161, 488, 192
-0.993055, 361, 161, 424, 192
-0.993065, 385, 193, 448, 224
-0.993077, 433, 305, 496, 336
-0.993088, 113, 101, 176, 132
-0.993093, 153, 205, 216, 236
-0.993097, 257, 129, 288, 160
-0.993098, 185, 97, 248, 128
-0.993106, 361, 269, 392, 300
-0.993106, 61, 293, 92, 324
-0.993119, 41, 209, 104, 240
-0.993124, 353, 253, 416, 284
-0.993124, 293, 313, 324, 344
-0.993124, 49, 173, 112, 204
-0.993133, 389, 269, 420, 300
-0.993133, 49, 197, 112, 228
-0.993138, 41, 129, 72, 256
-0.99314, 425, 281, 488, 312
-0.993143, 265, 217, 328, 248
-0.993143, 201, 165, 264, 196
-0.99316, 313, 281, 376, 312
-0.993166, 113, 241, 176, 272
-0.993169, 65, 305, 128, 336
-0.993177, 401, 277, 432, 308
-0.993182, 297, 173, 360, 204
-0.993183, 265, 301, 328, 332
-0.99319, 265, 337, 296, 368
-0.993193, 101, 225, 132, 288
-0.993195, 137, 97, 200, 128
-0.993197, 293, 329, 324, 360
-0.993197, 81, 193, 144, 224
-0.993202, 113, 201, 176, 232
-0.993205, 97, 153, 160, 184
-0.993207, 373, 269, 404, 300
-0.993211, 89, 101, 152, 132
-0.993212, 277, 329, 308, 360
-0.993217, 5, 285, 36, 316
-0.993224, 225, 157, 288, 188
-0.99323, 201, 137, 264, 200
-0.99323, 225, 161, 288, 224
-0.993231, 289, 141, 352, 172
-0.993231, 53, 281, 84, 312
-0.993231, 65, 157, 128, 188
-0.993231, 89, 177, 152, 208
-0.993237, 309, 161, 340, 288
-0.993244, 349, 293, 380, 324
-0.993246, 389, 285, 420, 316
-0.993249, 37, 285, 68, 316
-0.993257, 233, 249, 296, 280
-0.993262, 49, 269, 112, 300
-0.993262, 433, 209, 496, 240
-0.993265, 373, 281, 404, 312
-0.993268, 1, 105, 64, 136
-0.99327, 337, 205, 400, 236
-0.993276, 17, 213, 80, 244
-0.993281, 237, 121, 268, 152
-0.993304, 161, 313, 288, 375
-0.993305, 273, 241, 336, 272
-0.993307, 201, 149, 264, 180
-0.993308, 85, 237, 116, 268
-0.993309, 305, 205, 368, 236
-0.993315, 77, 217, 108, 280
-0.993317, 413, 273, 444, 304
-0.993333, 337, 185, 400, 216
-0.99334, 65, 257, 128, 288
-0.993341, 137, 165, 200, 196
-0.993347, 401, 261, 432, 292
-0.993351, 133, 225, 164, 256
-0.993353, 297, 217, 360, 248
-0.993355, 49, 149, 80, 180
-0.993358, 85, 185, 116, 248
-0.99336, 1, 1, 64, 375
-0.993364, 41, 253, 104, 284
-0.993366, 97, 129, 160, 375
-0.993368, 265, 325, 296, 356
-0.993369, 377, 193, 440, 256
-0.993372, 105, 261, 168, 292
-0.993376, 273, 209, 304, 336
-0.993376, 409, 297, 472, 328
-0.993379, 65, 105, 192, 168
-0.993383, 109, 233, 140, 264
-0.993386, 253, 141, 284, 172
-0.993388, 41, 345, 104, 375
-0.993388, 237, 133, 268, 164
-0.993389, 89, 205, 152, 236
-0.993389, 425, 1, 488, 375
-0.993393, 409, 333, 472, 364
-0.9934, 49, 221, 112, 252
-0.993408, 425, 241, 488, 272
-0.993408, 361, 301, 424, 332
-0.993411, 317, 297, 348, 328
-0.993413, 37, 149, 68, 180
-0.993415, 9, 269, 72, 300
-0.993416, 201, 225, 264, 288
-0.993416, 169, 157, 232, 188
-0.993418, 17, 281, 48, 312
-0.993418, 313, 257, 376, 288
-0.993418, 81, 345, 144, 375
-0.993419, 97, 249, 128, 280
-0.99342, 293, 345, 324, 375
-0.993424, 1, 313, 64, 344
-0.993426, 357, 145, 388, 176
-0.993429, 169, 181, 232, 212
-0.993432, 413, 301, 444, 332
-0.993433, 425, 269, 456, 300
-0.993437, 33, 145, 64, 208
-0.99344, 33, 241, 96, 272
-0.993442, 241, 305, 304, 336
-0.993443, 73, 289, 104, 320
-0.993444, 269, 133, 300, 164
-0.993445, 9, 241, 72, 272
-0.993449, 209, 341, 272, 372
-0.99345, 333, 285, 364, 316
-0.993451, 377, 157, 408, 188
-0.993455, 457, 169, 488, 200
-0.993456, 449, 265, 480, 296
-0.993457, 73, 305, 104, 336
-0.993458, 265, 145, 296, 176
-0.99346, 253, 345, 284, 375
-0.993461, 241, 145, 272, 176
-0.993462, 97, 237, 128, 268
-0.993462, 241, 289, 304, 352
-0.993475, 25, 161, 56, 192
-0.993476, 469, 201, 500, 232
-0.993479, 81, 249, 112, 280
-0.993482, 409, 289, 440, 320
-0.993483, 429, 169, 460, 232
-0.993485, 389, 257, 420, 288
-0.993491, 5, 185, 36, 216
-0.993492, 49, 297, 80, 328
-0.993501, 73, 145, 104, 176
-0.993505, 73, 237, 104, 268
-0.993505, 469, 333, 500, 364
-0.993508, 413, 261, 444, 292
-0.993517, 349, 265, 380, 296
-0.993517, 293, 301, 324, 332
-0.993519, 377, 293, 408, 324
-0.993522, 17, 177, 48, 208
-0.993522, 457, 329, 488, 360
-0.993524, 29, 273, 60, 304
-0.993524, 61, 145, 92, 176
-0.993524, 401, 301, 432, 332
-0.993526, 89, 221, 120, 252
-0.993528, 117, 217, 148, 248
-0.993538, 257, 113, 288, 240
-0.99354, 61, 249, 92, 280
-0.993546, 285, 225, 316, 352
-0.993548, 97, 129, 128, 256
-0.993549, 425, 173, 456, 204
-0.99355, 249, 113, 280, 144
-0.993558, 457, 309, 488, 340
-0.993562, 437, 273, 468, 304
-0.993562, 433, 253, 464, 284
-0.993568, 305, 321, 336, 352
-0.993572, 421, 285, 452, 316
-0.993573, 365, 157, 396, 188
-0.993579, 137, 213, 168, 244
-0.99358, 345, 141, 376, 172
-0.993583, 277, 345, 308, 375
-0.993589, 445, 325, 476, 356
-0.993591, 445, 169, 476, 200
-0.993593, 321, 161, 352, 192
-0.993594, 157, 205, 188, 236
-0.993597, 85, 297, 116, 328
-0.9936, 113, 313, 240, 375
-0.993601, 453, 185, 484, 216
-0.993602, 125, 237, 156, 268
-0.993603, 25, 293, 56, 324
-0.993604, 361, 257, 392, 288
-0.993607, 265, 117, 296, 148
-0.993607, 269, 121, 300, 184
-0.993612, 469, 297, 500, 328
-0.993612, 49, 345, 80, 375
-0.993613, 249, 333, 280, 364
-0.993613, 325, 173, 356, 204
-0.993622, 461, 217, 492, 248
-0.993622, 457, 341, 488, 372
-0.993623, 293, 125, 324, 156
-0.993625, 305, 297, 336, 328
-0.993627, 469, 313, 500, 344
-0.993631, 465, 257, 496, 288
-0.993635, 405, 173, 436, 204
-0.993637, 73, 321, 104, 352
-0.993639, 429, 321, 460, 352
-0.993639, 97, 133, 128, 164
-0.993639, 325, 309, 356, 340
-0.99364, 341, 341, 372, 372
-0.993649, 33, 209, 64, 336
-0.993651, 73, 217, 104, 248
-0.993651, 89, 181, 120, 212
-0.993653, 289, 217, 320, 248
-0.993654, 281, 181, 312, 212
-0.993655, 1, 273, 32, 304
-0.993656, 313, 133, 344, 164
-0.993666, 433, 309, 464, 340
-0.993668, 373, 257, 404, 288
-0.993669, 1, 105, 32, 136
-0.993671, 469, 345, 500, 375
-0.993675, 277, 145, 308, 176
-0.993675, 145, 225, 176, 256
-0.993677, 73, 277, 104, 308
-0.993682, 93, 285, 124, 316
-0.993684, 69, 297, 100, 360
-0.993685, 313, 225, 344, 256
-0.993686, 77, 189, 108, 220
-0.993687, 445, 233, 476, 264
-0.993689, 393, 169, 424, 200
-0.99369, 117, 101, 148, 132
-0.99369, 65, 341, 96, 372
-0.99369, 305, 333, 336, 364
-0.993694, 53, 129, 84, 256
-0.99382, 345, 225, 408, 288
-0.993822, 73, 81, 104, 208
-0.993843, 161, 257, 288, 320
-0.99385, 273, 185, 400, 248
-0.993865, 261, 225, 292, 352
-0.993866, 345, 257, 376, 320
-0.99387, 65, 233, 96, 296
-0.993889, 365, 153, 396, 216
-0.993995, 5, 177, 36, 240
-0.993997, 329, 1, 392, 375
-0.994019, 17, 97, 48, 224
-0.994045, 385, 289, 416, 352
-0.994049, 245, 113, 276, 240
-0.994054, 113, 249, 240, 312
-0.994062, 105, 273, 168, 336
-0.994075, 97, 201, 224, 264
-0.994128, 337, 113, 464, 176
-0.994156, 361, 241, 392, 304
-0.994167, 153, 209, 184, 272
-0.994172, 209, 129, 272, 375
-0.994174, 17, 289, 48, 352
-0.994179, 325, 137, 356, 200
-0.994194, 313, 105, 376, 168
-0.994229, 1, 281, 500, 344
-0.994273, 29, 97, 60, 224
-0.994287, 281, 121, 312, 184
-0.994287, 57, 145, 88, 208
-0.994305, 377, 97, 408, 224
-0.994316, 85, 137, 116, 200
-0.994328, 121, 217, 152, 280
-0.994335, 117, 81, 148, 208
-0.994345, 289, 257, 416, 320
-0.994386, 201, 1, 264, 375
-0.99441, 193, 209, 256, 336
-0.994455, 321, 273, 352, 336
-0.994457, 137, 217, 168, 280
-0.994471, 113, 113, 240, 176
-0.994565, 97, 145, 224, 208
-0.994575, 153, 97, 216, 160
-0.994586, 353, 145, 384, 208
-0.994593, 57, 193, 88, 320
-0.994629, 305, 89, 432, 152
-0.994749, 237, 105, 268, 168
-0.994775, 97, 313, 352, 375
-0.994792, 329, 129, 360, 256
-0.994828, 17, 161, 48, 224
-0.994833, 33, 1, 96, 375
-0.994847, 377, 153, 408, 216
-0.994859, 361, 129, 424, 192
-0.994869, 41, 313, 104, 375
-0.994882, 1, 313, 128, 375
-0.994892, 409, 169, 440, 232
-0.994931, 97, 289, 352, 352
-0.994938, 369, 145, 400, 272
-0.99496, 297, 281, 328, 344
-0.995005, 129, 145, 192, 208
-0.995013, 17, 233, 80, 296
-0.995026, 385, 137, 448, 200
-0.995041, 69, 257, 100, 320
-0.995061, 433, 241, 464, 368
-0.995068, 237, 241, 268, 368
-0.995079, 113, 249, 144, 312
-0.995081, 345, 129, 376, 256
-0.995082, 161, 249, 416, 312
-0.995113, 465, 241, 496, 368
-0.99514, 409, 193, 472, 256
-0.995147, 1, 1, 64, 256
-0.995162, 377, 233, 440, 296
-0.995178, 313, 129, 344, 192
-0.995186, 341, 137, 372, 200
-0.995232, 249, 233, 280, 296
-0.995242, 397, 281, 428, 344
-0.995263, 65, 1, 128, 375
-0.995265, 297, 169, 328, 232
-0.995269, 261, 97, 292, 160
-0.995279, 145, 161, 272, 224
-0.995286, 369, 305, 432, 368
-0.995322, 65, 129, 96, 256
-0.995326, 321, 293, 448, 324
-0.995341, 81, 49, 144, 176
-0.995344, 257, 265, 320, 328
-0.995369, 217, 89, 280, 152
-0.995386, 113, 33, 240, 160
-0.99539, 393, 169, 424, 232
-0.995415, 161, 153, 224, 216
-0.995416, 397, 97, 428, 224
-0.995417, 337, 277, 464, 308
-0.995446, 385, 33, 448, 288
-0.995481, 161, 113, 224, 240
-0.995485, 133, 161, 164, 288
-0.99549, 129, 289, 256, 352
-0.99553, 113, 1, 176, 375
-0.995547, 265, 1, 328, 375
-0.995554, 193, 129, 448, 192
-0.995566, 137, 209, 168, 336
-0.995571, 161, 1, 224, 375
-0.995572, 285, 153, 316, 216
-0.995587, 345, 33, 408, 288
-0.995589, 417, 33, 480, 288
-0.995648, 413, 281, 444, 344
-0.995674, 129, 65, 192, 320
-0.995711, 297, 1, 360, 375
-0.995725, 345, 201, 408, 264
-0.995727, 257, 153, 500, 216
-0.995741, 257, 225, 500, 288
-0.995747, 177, 209, 240, 272
-0.995747, 381, 145, 412, 272
-0.995775, 309, 177, 340, 240
-0.995781, 101, 201, 132, 264
-0.995833, 137, 169, 200, 232
-0.995837, 153, 241, 216, 368
-0.995861, 209, 185, 272, 248
-0.995862, 257, 257, 500, 320
-0.995868, 257, 145, 288, 208
-0.995897, 113, 89, 240, 152
-0.995907, 309, 281, 340, 344
-0.995911, 441, 177, 472, 240
-0.995926, 457, 257, 488, 320
-0.995957, 309, 97, 340, 224
-0.995972, 233, 193, 296, 256
-0.995975, 113, 297, 176, 360
-0.995986, 457, 313, 488, 375
-0.996005, 17, 129, 80, 192
-0.996019, 53, 81, 84, 208
-0.996026, 97, 209, 352, 272
-0.996046, 1, 145, 256, 208
-0.996058, 101, 81, 132, 208
-0.99612, 333, 265, 364, 328
-0.996125, 81, 281, 112, 344
-0.996127, 21, 257, 52, 320
-0.996146, 137, 193, 168, 256
-0.996166, 297, 97, 328, 224
-0.996178, 477, 169, 492, 232
-0.996198, 1, 121, 128, 184
-0.996237, 437, 313, 468, 375
-0.996247, 45, 257, 76, 320
-0.996258, 41, 81, 72, 208
-0.996261, 305, 305, 432, 336
-0.99629, 257, 33, 320, 288
-0.996309, 249, 97, 280, 160
-0.99633, 161, 185, 416, 248
-0.996341, 485, 177, 500, 240
-0.996357, 433, 249, 464, 312
-0.996371, 89, 217, 120, 280
-0.996371, 381, 241, 412, 304
-0.996371, 185, 249, 248, 312
-0.996373, 1, 209, 256, 272
-0.996389, 409, 97, 440, 224
-0.99639, 317, 305, 332, 368
-0.996395, 185, 81, 248, 208
-0.996407, 321, 185, 352, 248
-0.996408, 409, 145, 472, 208
-0.996421, 265, 65, 296, 192
-0.996422, 97, 137, 352, 200
-0.996458, 201, 161, 264, 224
-0.996459, 327, 305, 342, 368
-0.996463, 65, 49, 192, 176
-0.996463, 17, 193, 48, 320
-0.996479, 353, 281, 368, 344
-0.996511, 301, 305, 316, 368
-0.996534, 453, 113, 484, 240
-0.996547, 137, 113, 200, 240
-0.996575, 1, 137, 500, 200
-0.996602, 345, 289, 360, 352
-0.996608, 333, 297, 348, 360
-0.996611, 277, 145, 308, 272
-0.996616, 471, 169, 486, 232
-0.996618, 125, 209, 156, 336
-0.996622, 177, 97, 240, 160
-0.996632, 311, 305, 326, 368
-0.996656, 69, 169, 100, 232
-0.996656, 33, 265, 288, 328
-0.996707, 153, 97, 216, 352
-0.996726, 1, 165, 128, 196
-0.996737, 225, 313, 352, 344
-0.996776, 233, 137, 264, 200
-0.996784, 449, 241, 480, 368
-0.996789, 257, 329, 384, 360
-0.996792, 437, 273, 468, 336
-0.996802, 241, 345, 368, 375
-0.996807, 1, 257, 32, 320
-0.99684, 261, 121, 276, 184
-0.996843, 89, 33, 152, 288
-0.99687, 277, 97, 308, 224
-0.996886, 363, 265, 378, 328
-0.996898, 381, 265, 396, 328
-0.9969, 17, 313, 80, 375
-0.996914, 249, 225, 280, 352
-0.996933, 273, 145, 400, 176
-0.996943, 17, 81, 80, 144
-0.996955, 1, 233, 500, 296
-0.996978, 17, 149, 144, 180
-0.996986, 241, 129, 368, 160
-0.997022, 81, 161, 112, 224
-0.997024, 257, 177, 500, 240
-0.997055, 309, 153, 340, 216
-0.997067, 63, 289, 78, 352
-0.997103, 337, 265, 464, 296
-0.997117, 257, 201, 500, 264
-0.997134, 425, 97, 456, 224
-0.997154, 241, 65, 272, 192
-0.997162, 403, 257, 418, 320
-0.997166, 375, 273, 390, 336
-0.997168, 291, 305, 306, 368
-0.997175, 161, 257, 224, 320
-0.997177, 261, 225, 292, 288
-0.997181, 1, 257, 500, 320
-0.997202, 1, 297, 128, 328
-0.997221, 137, 241, 200, 304
-0.997227, 391, 265, 406, 328
-0.997232, 289, 161, 416, 192
-0.99724, 101, 97, 132, 160
-0.997247, 257, 301, 384, 332
-0.99725, 301, 121, 332, 184
-0.997251, 137, 1, 200, 375
-0.997255, 65, 105, 320, 168
-0.997256, 425, 281, 456, 344
-0.997269, 33, 257, 64, 320
-0.997273, 53, 121, 84, 184
-0.997299, 59, 145, 74, 208
-0.997311, 465, 169, 480, 232
-0.997329, 117, 193, 148, 256
-0.997329, 109, 129, 140, 256
-0.997329, 261, 177, 292, 304
-0.997347, 369, 265, 384, 328
-0.997347, 25, 1, 88, 256
-0.997353, 339, 297, 354, 360
-0.997353, 33, 177, 288, 240
-0.997359, 1, 297, 256, 360
-0.997394, 261, 313, 292, 375
-0.997397, 33, 345, 160, 375
-0.997403, 285, 281, 316, 344
-0.99743, 79, 233, 94, 296
-0.997438, 427, 249, 442, 312
-0.997457, 269, 145, 300, 208
-0.997463, 73, 145, 88, 208
-0.997464, 289, 113, 416, 176
-0.997474, 97, 129, 128, 192
-0.997478, 353, 129, 384, 375
-0.997478, 251, 105, 266, 168
-0.997482, 97, 177, 128, 240
-0.997503, 1, 181, 128, 212
-0.997517, 283, 313, 298, 375
-0.997518, 13, 281, 28, 344
-0.997523, 113, 217, 128, 280
-0.997526, 397, 257, 412, 320
-0.997527, 369, 289, 496, 320
-0.997534, 369, 193, 496, 224
-0.997547, 69, 289, 84, 352
-0.997559, 357, 257, 372, 320
-0.997572, 51, 281, 66, 344
-0.997575, 257, 285, 384, 316
-0.997584, 59, 265, 74, 328
-0.997586, 209, 333, 336, 364
-0.997596, 333, 201, 364, 264
-0.997609, 45, 145, 60, 208
-0.997618, 19, 281, 34, 344
-0.99762, 49, 289, 176, 320
-0.997635, 149, 177, 180, 304
-0.997636, 17, 33, 144, 160
-0.997638, 277, 313, 292, 375
-0.997639, 161, 289, 224, 352
-0.997642, 381, 129, 412, 375
-0.997649, 209, 145, 336, 176
-0.99766, 77, 289, 92, 352
-0.997668, 65, 305, 192, 336
-0.997669, 57, 297, 72, 360
-0.997673, 421, 257, 436, 320
-0.997682, 375, 249, 390, 312
-0.997694, 325, 281, 340, 344
-0.997708, 75, 257, 90, 320
-0.99772, 281, 97, 312, 160
-0.99773, 337, 273, 352, 336
-0.997735, 213, 233, 244, 296
-0.997743, 259, 145, 274, 208
-0.997748, 49, 33, 112, 288
-0.997762, 453, 145, 484, 208
-0.997768, 85, 105, 116, 168
-0.997778, 49, 81, 176, 144
-0.997786, 305, 321, 432, 352
-0.997805, 81, 233, 208, 264
-0.99782, 1, 245, 128, 276
-0.997824, 289, 213, 416, 244
-0.99783, 177, 129, 240, 375
-0.997846, 217, 209, 248, 336
-0.997862, 345, 201, 376, 264
-0.997867, 121, 225, 136, 288
-0.997867, 435, 249, 450, 312
-0.997876, 229, 257, 260, 320
-0.997877, 1, 281, 128, 312
-0.997884, 65, 105, 96, 168
-0.997885, 115, 241, 130, 304
-0.997893, 229, 161, 260, 224
-0.997895, 393, 289, 408, 352
-0.997897, 51, 145, 66, 208
-0.997903, 65, 233, 320, 296
-0.997905, 65, 209, 96, 272
-0.997907, 277, 233, 308, 296
-0.997909, 89, 1, 152, 375
-0.997916, 257, 269, 384, 300
-0.997932, 261, 97, 276, 160
-0.997937, 409, 257, 424, 320
-0.997939, 343, 265, 358, 328
-0.99794, 5, 281, 20, 344
-0.997955, 25, 161, 40, 224
-0.997962, 309, 129, 340, 375
-0.997969, 465, 193, 496, 256
-0.997975, 469, 145, 500, 208
-0.997976, 415, 257, 430, 320
-0.997981, 425, 313, 456, 375
-0.997985, 413, 129, 444, 375
-0.997987, 393, 129, 424, 375
-0.997988, 1, 185, 500, 248
-0.997991, 269, 113, 284, 176
-0.997999, 49, 201, 176, 232
-0.998025, 65, 321, 192, 352
-0.998025, 281, 121, 296, 184
-0.998027, 79, 209, 94, 272
-0.998028, 251, 137, 266, 200
-0.998032, 113, 209, 144, 336
-0.998037, 341, 81, 372, 208
-0.998037, 225, 209, 352, 240
-0.99804, 451, 177, 466, 240
-0.998041, 453, 129, 484, 375
-0.998055, 85, 281, 100, 344
-0.998059, 369, 169, 496, 200
-0.998061, 193, 345, 320, 375
-0.998065, 33, 333, 160, 364
-0.998065, 261, 129, 276, 160
-0.998075, 97, 245, 224, 276
-0.998077, 9, 129, 40, 375
-0.998082, 65, 265, 80, 328
-0.998089, 177, 129, 304, 160
-0.998089, 93, 249, 124, 312
-0.998089, 19, 177, 34, 240
-0.998091, 107, 217, 122, 280
-0.998091, 1, 97, 32, 160
-0.998099, 51, 257, 66, 320
-0.998101, 437, 225, 468, 288
-0.998103, 369, 305, 496, 336
-0.998106, 49, 277, 176, 308
-0.998113, 441, 113, 472, 240
-0.998114, 241, 81, 368, 144
-0.998121, 81, 137, 96, 200
-0.998123, 357, 289, 388, 352
-0.998123, 257, 181, 384, 212
-0.998132, 33, 213, 160, 244
-0.998137, 141, 217, 156, 280
-0.998142, 209, 157, 336, 188
-0.998143, 71, 233, 86, 296
-0.99815, 11, 177, 26, 240
-0.998151, 341, 129, 372, 375
-0.998165, 69, 209, 84, 272
-0.998165, 33, 233, 160, 264
-0.998166, 113, 241, 176, 368
-0.998166, 33, 121, 64, 184
-0.998177, 65, 189, 192, 220
-0.998178, 161, 145, 288, 176
-0.99818, 357, 81, 388, 208
-0.99818, 449, 281, 480, 344
-0.998181, 93, 185, 108, 248
-0.998189, 37, 153, 52, 216
-0.99819, 379, 153, 394, 216
-0.998196, 305, 33, 368, 288
-0.998199, 193, 97, 448, 160
-0.9982, 49, 245, 176, 276
-0.9982, 475, 145, 490, 208
-0.998204, 261, 233, 276, 296
-0.998208, 319, 309, 334, 340
-0.998212, 365, 241, 380, 304
-0.998214, 65, 145, 80, 208
-0.998217, 431, 169, 446, 232
-0.99822, 469, 113, 500, 240
-0.998231, 459, 169, 474, 232
-0.998231, 445, 169, 460, 232
-0.998246, 293, 317, 308, 348
-0.99825, 43, 273, 58, 336
-0.998253, 319, 129, 334, 192
-0.998253, 155, 209, 170, 272
-0.998258, 117, 103, 148, 118
-0.998259, 305, 321, 336, 336
-0.998259, 81, 299, 112, 314
-0.99826, 357, 149, 388, 164
-0.99826, 21, 177, 52, 192
-0.998261, 449, 311, 480, 326
-0.998261, 233, 121, 264, 136
-0.998261, 405, 261, 436, 276
-0.998262, 277, 139, 308, 154
-0.998262, 41, 159, 72, 174
-0.998262, 9, 173, 40, 188
-0.998262, 53, 153, 84, 168
-0.998263, 77, 145, 108, 160
-0.998264, 305, 335, 336, 350
-0.998264, 261, 329, 292, 344
-0.998264, 405, 301, 436, 316
-0.998264, 73, 237, 104, 252
-0.998265, 361, 265, 392, 280
-0.998265, 285, 345, 316, 360
-0.998265, 453, 327, 484, 342
-0.998265, 345, 141, 376, 156
-0.998265, 333, 289, 364, 304
-0.998265, 425, 169, 440, 232
-0.998266, 77, 191, 108, 206
-0.998266, 461, 313, 492, 328
-0.998266, 461, 261, 492, 276
-0.998266, 297, 345, 328, 360
-0.998267, 157, 105, 188, 120
-0.998269, 73, 293, 104, 308
-0.998269, 273, 257, 400, 288
-0.998269, 31, 289, 46, 352
-0.998269, 397, 175, 428, 190
-0.99827, 105, 225, 136, 240
-0.99827, 441, 249, 472, 264
-0.99827, 297, 351, 328, 366
-0.998271, 353, 137, 368, 200
-0.998272, 469, 329, 500, 344
-0.998272, 125, 239, 156, 254
-0.998273, 281, 223, 312, 238
-0.998274, 49, 285, 80, 300
-0.998274, 29, 155, 60, 170
-0.998275, 253, 347, 284, 362
-0.998275, 189, 101, 220, 116
-0.998277, 93, 253, 124, 268
-0.998277, 385, 269, 416, 284
-0.998278, 49, 185, 80, 248
-0.998279, 13, 105, 44, 120
-0.998279, 241, 115, 272, 130
-0.99828, 469, 319, 500, 334
-0.99828, 173, 101, 204, 116
-0.99828, 249, 121, 280, 136
-0.99828, 367, 145, 382, 208
-0.998281, 273, 145, 304, 160
-0.998281, 265, 139, 296, 154
-0.998284, 25, 287, 56, 302
-0.998284, 393, 297, 424, 312
-0.998286, 377, 165, 408, 180
-0.998287, 293, 361, 324, 375
-0.998287, 417, 289, 448, 304
-0.998287, 265, 341, 296, 356
-0.998287, 85, 223, 116, 238
-0.998288, 333, 295, 364, 310
-0.998288, 469, 203, 500, 218
-0.998289, 233, 133, 264, 148
-0.998289, 249, 145, 280, 160
-0.998289, 105, 257, 136, 272
-0.998289, 417, 275, 448, 290
-0.99829, 285, 355, 316, 370
-0.998292, 29, 163, 60, 178
-0.998293, 405, 295, 436, 310
-0.998293, 241, 221, 368, 252
-0.998293, 397, 267, 428, 282
-0.998293, 313, 303, 344, 318
-0.998294, 333, 301, 348, 332
-0.998294, 81, 249, 112, 264
-0.998295, 49, 299, 80, 314
-0.998296, 297, 329, 328, 344
-0.998296, 405, 275, 436, 290
-0.998297, 109, 239, 140, 254
-0.998299, 425, 283, 456, 298
-0.998301, 237, 145, 268, 160
-0.998301, 81, 259, 112, 274
-0.998303, 41, 153, 72, 168
-0.998303, 321, 81, 352, 208
-0.998303, 257, 133, 288, 148
-0.998304, 241, 361, 272, 375
-0.998306, 349, 267, 380, 282
-0.998307, 127, 217, 142, 280
-0.998308, 345, 297, 376, 312
-0.998308, 21, 171, 52, 186
-0.998309, 237, 139, 268, 154
-0.998309, 301, 315, 332, 330
-0.998309, 469, 183, 500, 198
-0.99831, 301, 329, 316, 360
-0.998311, 137, 101, 168, 116
-0.998311, 85, 239, 116, 254
-0.998311, 157, 99, 188, 114
-0.998311, 469, 257, 484, 320
-0.998313, 301, 309, 332, 324
-0.998315, 397, 169, 412, 232
-0.998315, 89, 233, 120, 248
-0.998317, 9, 289, 40, 304
-0.99832, 393, 277, 424, 292
-0.99832, 31, 153, 46, 216
-0.998321, 101, 247, 132, 262
-0.998322, 357, 283, 388, 298
-0.998322, 337, 89, 400, 152
-0.998322, 377, 279, 408, 294
-0.998324, 245, 129, 276, 144
-0.998325, 265, 359, 296, 374
-0.998325, 53, 291, 84, 306
-0.998327, 453, 171, 484, 186
-0.998327, 257, 193, 384, 224
-0.998327, 381, 293, 412, 308
-0.998328, 289, 339, 320, 354
-0.998328, 137, 313, 200, 375
-0.998328, 329, 307, 360, 322
-0.998331, 193, 249, 320, 280
-0.998332, 397, 269, 412, 300
-0.998333, 209, 117, 336, 148
-0.998333, 465, 171, 496, 186
-0.998333, 373, 271, 404, 286
-0.998334, 293, 321, 324, 336
-0.998334, 1, 105, 32, 120
-0.998334, 273, 329, 304, 344
-0.998334, 437, 169, 452, 232
-0.998335, 277, 335, 308, 350
-0.998335, 345, 297, 360, 328
-0.998341, 97, 219, 128, 234
-0.998341, 289, 315, 320, 330
-0.998343, 65, 299, 96, 314
-0.998343, 65, 101, 192, 132
-0.998344, 413, 283, 444, 298
-0.998346, 321, 201, 448, 232
-0.998346, 369, 129, 400, 375
-0.998346, 399, 281, 414, 344
-0.998347, 253, 353, 284, 368
-0.998348, 163, 209, 178, 272
-0.998348, 369, 285, 400, 300
-0.998349, 261, 145, 292, 160
-0.99835, 265, 351, 296, 366
-0.99835, 329, 137, 344, 200
-0.99835, 3, 257, 18, 320
-0.998355, 353, 289, 384, 304
-0.998358, 405, 289, 436, 304
-0.998358, 353, 289, 368, 320
-0.998359, 113, 345, 240, 375
-0.99836, 485, 201, 500, 264
-0.998361, 333, 301, 364, 316
-0.998362, 381, 285, 412, 300
-0.998365, 37, 293, 68, 308
-0.998365, 99, 217, 114, 280
-0.998366, 21, 97, 52, 352
-0.998368, 305, 173, 432, 204
-0.99837, 281, 323, 312, 338
-0.998372, 265, 335, 296, 350
-0.998372, 437, 313, 452, 375
-0.998373, 361, 271, 392, 286
-0.998373, 45, 177, 76, 304
-0.998374, 313, 309, 344, 324
-0.998375, 129, 101, 256, 132
-0.998378, 253, 359, 284, 374
-0.99838, 393, 291, 424, 306
-0.99838, 85, 249, 100, 312
-0.99838, 241, 161, 272, 288
-0.99838, 289, 345, 416, 375
-0.998384, 285, 329, 316, 344
-0.998386, 325, 129, 356, 375
-0.99839, 407, 169, 422, 232
-0.99839, 167, 185, 182, 248
-0.998392, 349, 257, 364, 320
-0.998393, 339, 137, 354, 200
-0.998394, 391, 269, 406, 300
-0.998397, 369, 333, 496, 364
-0.998398, 157, 177, 188, 240
-0.998404, 193, 301, 320, 332
-0.998404, 465, 177, 496, 192
-0.998409, 361, 277, 392, 292
-0.998413, 319, 281, 334, 344
-0.998415, 401, 283, 432, 298
-0.998429, 253, 139, 284, 154
-0.998435, 271, 337, 286, 368
-0.998437, 311, 281, 326, 344
-0.998439, 3, 185, 18, 248
-0.998442, 417, 169, 432, 232
-0.998443, 185, 185, 248, 248
-0.998448, 161, 117, 288, 148
-0.998449, 305, 313, 320, 344
-0.99845, 147, 217, 162, 280
-0.998457, 9, 257, 24, 320
-0.998458, 53, 285, 68, 316
-0.99846, 387, 161, 402, 224
-0.998464, 289, 225, 416, 256
-0.998468, 415, 273, 430, 304
-0.998472, 469, 313, 500, 375
-0.998475, 413, 281, 428, 344
-0.998477, 429, 129, 460, 375
-0.998477, 33, 177, 64, 240
-0.998484, 343, 201, 358, 264
-0.99849, 405, 261, 420, 292
-0.998493, 121, 161, 152, 288
-0.998499, 239, 97, 254, 160
-0.998508, 483, 153, 498, 216
-0.998512, 281, 329, 296, 360
-0.998513, 161, 161, 416, 224
-0.998517, 441, 249, 456, 312
-0.998522, 201, 161, 264, 288
-0.998524, 1, 153, 32, 216
-0.998526, 385, 269, 400, 300
-0.99853, 485, 177, 500, 208
-0.998534, 369, 289, 384, 352
-0.998534, 225, 169, 352, 200
-0.998536, 373, 145, 388, 208
-0.998536, 143, 193, 158, 256
-0.998536, 353, 345, 480, 375
-0.998538, 479, 193, 494, 256
-0.998539, 385, 65, 448, 192
-0.998542, 369, 253, 496, 284
-0.998542, 325, 309, 340, 340
-0.99855, 435, 273, 450, 336
-0.998551, 271, 137, 286, 200
-0.998551, 91, 217, 106, 280
-0.998556, 129, 221, 256, 252
-0.998556, 89, 137, 104, 200
-0.998556, 85, 217, 100, 280
-0.998558, 475, 173, 490, 204
-0.998559, 1, 161, 500, 224
-0.99856, 81, 173, 208, 204
-0.99856, 1, 309, 128, 340
-0.99856, 345, 313, 360, 375
-0.998564, 365, 273, 380, 304
-0.998565, 17, 137, 144, 168
-0.998565, 285, 317, 300, 348
-0.998566, 445, 249, 476, 312
-0.998569, 255, 241, 270, 304
-0.99857, 229, 161, 260, 288
-0.998573, 397, 281, 412, 312
-0.998574, 311, 317, 326, 348
-0.998578, 355, 277, 370, 308
-0.998578, 145, 121, 208, 184
-0.998579, 265, 329, 328, 344
-0.998581, 275, 97, 290, 160
-0.998581, 345, 285, 408, 300
-0.998585, 11, 97, 26, 160
-0.998585, 241, 233, 368, 264
-0.998586, 369, 205, 496, 236
-0.998592, 429, 273, 444, 304
-0.998601, 241, 361, 304, 375
-0.998602, 225, 145, 288, 160
-0.998602, 225, 139, 288, 154
-0.998604, 65, 141, 192, 172
-0.998605, 311, 333, 326, 364
-0.998608, 433, 177, 496, 192
-0.998614, 265, 353, 328, 368
-0.998614, 345, 279, 408, 294
-0.998618, 369, 157, 496, 188
-0.998622, 377, 287, 440, 302
-0.998622, 305, 343, 368, 358
-0.998623, 265, 339, 328, 354
-0.998625, 407, 277, 422, 308
-0.998629, 249, 145, 312, 160
-0.998636, 345, 291, 408, 306
-0.998637, 265, 323, 328, 338
-0.998637, 365, 261, 380, 292
-0.998638, 289, 309, 352, 324
-0.998641, 401, 289, 464, 304
-0.998644, 33, 299, 96, 314
-0.998644, 129, 101, 192, 116
-0.998645, 353, 269, 416, 284
-0.998645, 369, 279, 432, 294
-0.998645, 81, 153, 208, 184
-0.998646, 241, 353, 304, 368
-0.998646, 329, 301, 392, 316
-0.998647, 281, 317, 344, 332
-0.99865, 379, 157, 394, 188
-0.998654, 251, 117, 266, 148
-0.998654, 49, 289, 112, 304
-0.998654, 385, 281, 400, 312
-0.998655, 81, 221, 208, 252
-0.998657, 249, 137, 312, 152
-0.998657, 257, 345, 320, 360
-0.998657, 305, 335, 368, 350
-0.998658, 17, 293, 80, 308
-0.998662, 305, 303, 368, 318
-0.998663, 393, 281, 456, 296
-0.998669, 9, 287, 72, 302
-0.99867, 433, 171, 496, 186
-0.998672, 153, 101, 216, 116
-0.998673, 265, 359, 328, 374
-0.998673, 425, 313, 488, 328
-0.998674, 177, 321, 304, 352
-0.998675, 59, 285, 74, 316
-0.998676, 305, 349, 368, 364
-0.99868, 265, 225, 328, 240
-0.998682, 293, 233, 324, 296
-0.998685, 1, 107, 64, 122
-0.998687, 417, 283, 480, 298
-0.998687, 433, 183, 496, 198
-0.998687, 313, 309, 376, 324
-0.998688, 33, 151, 96, 166
-0.998689, 73, 235, 136, 250
-0.99869, 101, 153, 132, 216
-0.99869, 89, 249, 152, 264
-0.998691, 17, 165, 80, 180
-0.998691, 81, 257, 144, 272
-0.998692, 47, 281, 62, 312
-0.998693, 329, 271, 392, 286
-0.998694, 89, 241, 152, 256
-0.998694, 17, 179, 80, 194
-0.998694, 409, 275, 472, 290
-0.998694, 377, 273, 440, 288
-0.998694, 113, 219, 176, 234
-0.998695, 17, 171, 80, 186
-0.998695, 43, 149, 58, 180
-0.998696, 89, 223, 152, 238
-0.998697, 313, 305, 328, 336
-0.998698, 103, 241, 118, 272
-0.998698, 73, 295, 136, 310
-0.998698, 25, 105, 88, 120
-0.9987, 249, 131, 312, 146
-0.998701, 377, 293, 440, 308
-0.998701, 209, 129, 272, 144
-0.998701, 313, 139, 376, 154
-0.998702, 321, 147, 384, 162
-0.998703, 201, 135, 264, 150
-0.998704, 385, 301, 448, 316
-0.998704, 25, 157, 88, 172
-0.998705, 261, 341, 276, 372
-0.998705, 305, 327, 368, 342
-0.998706, 401, 319, 464, 334
-0.998707, 69, 297, 84, 328
-0.998708, 255, 129, 270, 160
-0.998709, 377, 267, 440, 282
-0.998709, 49, 189, 112, 204
-0.998709, 201, 141, 264, 156
-0.99871, 337, 157, 400, 172
-0.99871, 233, 119, 296, 134
-0.99871, 313, 287, 376, 302
-0.998711, 65, 199, 128, 214
-0.998712, 1, 159, 64, 174
-0.998712, 81, 139, 144, 154
-0.998713, 41, 361, 104, 375
-0.998713, 225, 155, 288, 170
-0.998713, 295, 329, 310, 360
-0.998714, 57, 181, 120, 196
-0.998714, 305, 293, 368, 308
-0.998715, 57, 251, 120, 266
-0.998716, 425, 333, 488, 348
-0.998716, 89, 229, 152, 244
-0.998717, 49, 283, 112, 298
-0.998717, 105, 105, 168, 120
-0.998718, 305, 361, 368, 375
-0.998718, 41, 305, 104, 320
-0.998719, 433, 351, 496, 366
-0.998719, 353, 263, 416, 278
-0.998719, 81, 193, 144, 208
-0.998719, 273, 181, 336, 196
-0.998719, 65, 147, 128, 162
-0.99872, 433, 273, 496, 288
-0.998721, 75, 293, 90, 324
-0.998721, 433, 195, 496, 210
-0.998722, 9, 281, 72, 296
-0.998722, 409, 175, 472, 190
-0.998722, 1, 187, 64, 202
-0.998722, 289, 153, 352, 168
-0.998722, 57, 259, 120, 274
-0.998723, 273, 139, 336, 154
-0.998723, 249, 155, 312, 170
-0.998723, 241, 325, 304, 340
-0.998723, 201, 359, 264, 374
-0.998723, 49, 243, 112, 258
-0.998724, 185, 149, 248, 164
-0.998724, 417, 207, 480, 222
-0.998724, 81, 301, 144, 316
-0.998724, 265, 125, 328, 140
-0.998725, 57, 171, 120, 186
-0.998725, 193, 189, 320, 220
-0.998726, 17, 217, 80, 232
-0.998726, 65, 227, 128, 242
-0.998727, 425, 339, 488, 354
-0.998727, 375, 269, 390, 300
-0.998727, 137, 219, 200, 234
-0.998728, 425, 255, 488, 270
-0.998728, 401, 295, 464, 310
-0.998729, 401, 259, 464, 274
-0.99873, 289, 355, 352, 370
-0.99873, 417, 307, 480, 322
-0.99873, 313, 181, 376, 196
-0.998731, 377, 315, 440, 330
-0.998731, 113, 209, 176, 224
-0.998732, 55, 297, 70, 328
-0.998732, 313, 279, 376, 294
-0.998732, 425, 235, 488, 250
-0.998733, 337, 113, 400, 176
-0.998733, 241, 335, 304, 350
-0.998734, 41, 195, 104, 210
-0.998734, 193, 225, 320, 256
-0.998734, 433, 217, 496, 232
-0.998735, 81, 103, 144, 118
-0.998736, 339, 301, 354, 332
-0.998736, 177, 103, 240, 118
-0.998736, 193, 163, 256, 178
-0.998737, 105, 235, 168, 250
-0.998737, 289, 215, 352, 230
-0.998737, 373, 157, 388, 188
-0.998749, 391, 289, 406, 320
-0.998753, 307, 345, 322, 375
-0.998754, 325, 161, 356, 224
-0.99876, 145, 241, 272, 272
-0.998767, 353, 321, 480, 352
-0.99877, 113, 257, 240, 288
-0.998773, 137, 241, 168, 304
-0.998775, 85, 237, 100, 268
-0.998776, 465, 169, 480, 200
-0.998779, 145, 173, 272, 204
-0.998782, 379, 281, 394, 312
-0.998783, 297, 129, 328, 375
-0.998785, 299, 317, 314, 348
-0.998786, 417, 261, 432, 292
-0.998786, 361, 285, 376, 316
-0.998791, 37, 129, 68, 375
-0.998792, 113, 237, 128, 268
-0.998793, 289, 133, 416, 164
-0.998803, 421, 273, 436, 304
-0.998804, 341, 285, 356, 316
-0.998805, 347, 285, 362, 316
-0.998806, 53, 149, 68, 180
-0.998807, 305, 185, 432, 216
-0.998814, 325, 293, 340, 324
-0.998817, 141, 225, 156, 256
-0.998827, 21, 281, 36, 312
-0.99883, 353, 133, 480, 164
-0.998838, 291, 345, 306, 375
-0.998847, 257, 141, 272, 172
-0.998847, 411, 261, 426, 292
-0.998859, 249, 129, 264, 160
-0.998865, 161, 157, 288, 188
-0.99887, 353, 145, 480, 176
-0.998874, 17, 101, 144, 132
-0.998874, 13, 285, 28, 316
-0.998875, 485, 201, 500, 232
-0.998883, 301, 341, 316, 372
-0.998884, 335, 289, 350, 320
-0.998887, 135, 233, 150, 264
-0.998896, 71, 145, 86, 176
-0.998896, 145, 209, 272, 240
-0.998898, 95, 233, 110, 264
-0.9989, 85, 305, 100, 336
-0.9989, 193, 261, 320, 292
-0.998901, 103, 229, 118, 260
-0.998901, 95, 249, 110, 280
-0.998901, 61, 297, 76, 328
-0.998906, 145, 189, 272, 220
-0.998913, 165, 161, 196, 288
-0.998913, 369, 81, 496, 144
-0.998914, 369, 145, 384, 176
-0.998925, 337, 229, 464, 260
-0.998926, 359, 265, 374, 296
-0.998927, 117, 113, 148, 176
-0.998931, 1, 193, 128, 224
-0.998932, 205, 209, 236, 336
-0.998939, 439, 273, 454, 304
-0.998941, 245, 153, 276, 216
-0.998943, 479, 209, 494, 240
-0.998943, 93, 289, 124, 352
-0.998945, 261, 117, 276, 148
-0.998948, 127, 233, 142, 264
-0.998951, 475, 197, 490, 228
-0.998951, 97, 125, 224, 156
-0.998953, 201, 273, 264, 336
-0.998957, 33, 261, 160, 292
-0.998957, 113, 333, 240, 364
-0.998957, 363, 145, 378, 176
-0.998957, 267, 133, 282, 164
-0.998963, 85, 289, 100, 320
-0.998964, 471, 333, 486, 364
-0.998965, 89, 129, 120, 375
-0.998971, 13, 185, 28, 216
-0.998974, 369, 217, 496, 248
-0.998975, 305, 33, 432, 160
-0.998977, 1, 193, 16, 224
-0.998978, 241, 117, 256, 148
-0.998978, 93, 185, 108, 216
-0.998978, 77, 145, 92, 176
-0.99898, 337, 241, 464, 272
-0.998985, 145, 129, 176, 256
-0.998985, 349, 341, 364, 372
-0.998986, 441, 129, 472, 375
-0.998987, 373, 281, 388, 312
-0.998993, 471, 345, 486, 375
-0.998994, 265, 145, 280, 176
-0.998994, 147, 221, 162, 252
-0.998998, 481, 317, 496, 348
-0.999002, 477, 329, 492, 360
-0.999004, 31, 161, 46, 192
-0.999005, 61, 149, 76, 180
-0.999005, 29, 293, 44, 324
-0.999008, 419, 285, 434, 316
-0.999017, 295, 305, 310, 336
-0.999018, 1, 209, 500, 272
-0.999021, 7, 285, 22, 316
-0.999021, 129, 273, 192, 336
-0.999021, 481, 165, 496, 196
-0.999021, 437, 253, 452, 284
-0.999023, 485, 345, 500, 375
-0.999024, 153, 213, 168, 244
-0.999024, 339, 337, 354, 368
-0.999028, 21, 169, 36, 200
-0.999042, 267, 325, 282, 356
-0.999045, 147, 101, 162, 132
-0.999046, 193, 237, 320, 268
-0.999053, 37, 157, 52, 188
-0.999053, 87, 197, 102, 228
-0.999055, 317, 321, 332, 352
-0.999056, 69, 285, 84, 316
-0.999058, 279, 345, 294, 375
-0.99906, 423, 257, 438, 288
-0.999062, 97, 201, 224, 232
-0.999063, 37, 289, 52, 320
-0.999066, 445, 269, 460, 300
-0.999068, 135, 217, 150, 248
-0.999069, 285, 341, 300, 372
-0.999071, 271, 145, 286, 176
-0.999072, 83, 249, 98, 280
-0.999073, 307, 301, 322, 332
-0.999073, 319, 297, 334, 328
-0.999075, 47, 293, 62, 324
-0.999079, 119, 237, 134, 268
-0.999081, 439, 173, 454, 204
-0.999122, 321, 333, 448, 364
-0.999126, 129, 293, 256, 324
-0.999128, 465, 129, 496, 375
-0.999129, 241, 245, 368, 276
-0.999146, 1, 33, 32, 288
-0.99915, 249, 129, 280, 375
-0.99915, 1, 73, 128, 136
-0.999177, 375, 209, 390, 336
-0.999189, 365, 241, 380, 368
-0.999199, 17, 321, 144, 352
-0.999209, 145, 281, 272, 312
-0.999236, 383, 241, 398, 368
-0.999238, 369, 181, 496, 212
-0.999241, 353, 209, 368, 336
-0.999312, 347, 209, 362, 336
-0.999317, 177, 101, 304, 132
-0.999327, 145, 305, 272, 336
-0.99934, 335, 209, 350, 336
-0.999342, 325, 225, 340, 352
-0.999345, 305, 117, 432, 148
-0.999358, 49, 129, 80, 375
-0.999359, 429, 241, 444, 368
-0.999367, 467, 161, 482, 288
-0.99937, 319, 241, 334, 368
-0.999378, 237, 97, 268, 352
-0.999384, 447, 161, 462, 288
-0.999386, 341, 209, 356, 336
-0.99939, 359, 241, 374, 368
-0.99939, 69, 193, 100, 320
-0.99939, 113, 317, 240, 348
-0.999391, 313, 209, 328, 336
-0.999401, 459, 161, 474, 288
-0.999401, 369, 193, 384, 320
-0.999404, 407, 161, 422, 288
-0.999409, 289, 237, 416, 268
-0.999412, 381, 193, 396, 320
-0.999416, 49, 89, 176, 120
-0.999417, 363, 193, 378, 320
-0.999425, 397, 241, 412, 368
-0.99943, 407, 241, 422, 368
-0.999438, 439, 161, 454, 288
-0.999443, 303, 225, 318, 352
-0.99945, 51, 225, 66, 352
-0.999453, 423, 241, 438, 368
-0.999455, 421, 161, 436, 288
-0.999461, 269, 129, 300, 375
-0.999461, 413, 161, 428, 288
-0.999462, 261, 97, 276, 224
-0.999468, 77, 129, 108, 375
-0.999468, 209, 289, 336, 320
-0.999475, 453, 161, 468, 288
-0.99948, 311, 343, 326, 358
-0.99948, 57, 299, 72, 314
-0.999481, 71, 225, 86, 352
-0.999482, 323, 303, 338, 318
-0.999482, 61, 97, 92, 352
-0.999482, 255, 129, 270, 144
-0.999482, 249, 143, 264, 158
-0.999482, 391, 241, 406, 368
-0.999483, 399, 295, 414, 310
-0.999483, 353, 295, 368, 310
-0.999483, 475, 261, 490, 276
-0.999483, 31, 169, 46, 184
-0.999483, 337, 299, 352, 314
-0.999484, 87, 237, 102, 252
-0.999484, 177, 99, 192, 114
-0.999484, 51, 151, 66, 166
-0.999485, 329, 303, 344, 318
-0.999485, 271, 353, 286, 368
-0.999486, 321, 309, 336, 324
-0.999486, 275, 359, 290, 374
-0.999487, 385, 273, 400, 288
-0.999487, 471, 327, 486, 342
-0.999488, 99, 237, 114, 252
-0.999488, 363, 261, 378, 276
-0.99949, 93, 229, 108, 244
-0.999491, 397, 281, 412, 296
-0.999491, 295, 315, 310, 330
-0.999492, 91, 191, 106, 206
-0.999492, 275, 335, 290, 350
-0.999492, 41, 107, 56, 122
-0.999492, 1, 177, 16, 304
-0.999493, 95, 209, 110, 336
-0.999493, 139, 101, 154, 116
-0.999493, 99, 231, 114, 246
-0.999493, 257, 117, 384, 148
-0.999493, 347, 293, 362, 308
-0.999493, 429, 161, 444, 288
-0.999493, 359, 283, 374, 298
-0.999494, 409, 299, 424, 314
-0.999494, 171, 99, 186, 114
-0.999494, 473, 161, 488, 288
-0.999495, 415, 295, 430, 310
-0.999495, 383, 279, 398, 294
-0.999495, 113, 269, 240, 300
-0.999495, 365, 273, 380, 288
-0.999495, 73, 297, 88, 312
-0.999496, 309, 349, 324, 364
-0.999496, 463, 171, 478, 186
-0.999497, 35, 105, 50, 120
-0.999497, 61, 293, 76, 308
-0.999497, 11, 177, 26, 304
-0.999498, 305, 335, 320, 350
-0.999499, 13, 105, 28, 120
-0.999499, 109, 241, 124, 256
-0.999499, 267, 145, 282, 160
-0.9995, 259, 347, 274, 362
-0.9995, 431, 283, 446, 298
-0.9995, 305, 357, 320, 372
-0.999501, 241, 119, 256, 134
-0.999501, 291, 327, 306, 342
-0.999502, 111, 219, 126, 234
-0.999502, 267, 347, 282, 362
-0.999502, 17, 113, 144, 144
-0.999503, 95, 223, 110, 238
-0.999504, 51, 299, 66, 314
-0.999504, 57, 225, 72, 352
-0.999504, 281, 335, 296, 350
-0.999504, 401, 273, 416, 288
-0.999504, 43, 291, 58, 306
-0.999504, 309, 327, 324, 342
-0.999505, 481, 319, 496, 334
-0.999505, 387, 291, 402, 306
-0.999506, 287, 225, 302, 352
-0.999506, 93, 237, 108, 252
-0.999508, 327, 311, 342, 326
-0.999509, 295, 347, 310, 362
-0.999509, 391, 281, 406, 296
-0.999509, 33, 161, 48, 176
-0.99951, 247, 361, 262, 375
-0.99951, 355, 265, 370, 280
-0.99951, 421, 277, 436, 292
-0.999511, 103, 247, 118, 262
-0.999511, 261, 361, 276, 375
-0.999512, 303, 351, 318, 366
-0.999512, 55, 287, 70, 302
-0.999513, 249, 129, 264, 144
-0.999513, 267, 361, 282, 375
-0.999513, 255, 121, 270, 136
-0.999514, 15, 285, 30, 300
-0.999514, 113, 137, 240, 168
-0.999514, 311, 319, 326, 334
-0.999515, 303, 323, 318, 338
-0.999515, 391, 275, 406, 290
-0.999515, 377, 271, 392, 286
-0.999516, 425, 283, 440, 298
-0.999516, 281, 129, 312, 375
-0.999517, 25, 171, 40, 186
-0.999517, 377, 285, 392, 300
-0.999517, 259, 145, 274, 160
-0.999517, 315, 325, 330, 340
-0.999518, 387, 193, 402, 320
-0.999518, 303, 313, 318, 328
-0.999518, 309, 313, 324, 328
-0.999518, 45, 209, 60, 336
-0.999518, 267, 339, 282, 354
-0.999519, 63, 299, 78, 314
-0.999521, 225, 97, 352, 128
-0.999521, 3, 241, 18, 368
-0.999521, 295, 321, 310, 336
-0.999523, 19, 225, 34, 352
-0.999524, 145, 103, 160, 118
-0.999525, 43, 155, 58, 170
-0.999525, 411, 277, 426, 292
-0.999526, 5, 109, 20, 124
-0.999526, 435, 241, 450, 368
-0.999526, 273, 145, 288, 160
-0.999527, 413, 289, 428, 304
-0.999527, 101, 219, 116, 234
-0.999528, 77, 225, 92, 352
-0.999528, 345, 299, 360, 314
-0.999529, 483, 179, 498, 194
-0.999531, 161, 101, 176, 116
-0.999532, 285, 321, 300, 336
-0.999534, 371, 269, 386, 284
-0.999534, 21, 161, 36, 288
-0.999534, 355, 289, 370, 304
-0.999536, 301, 341, 316, 356
-0.999536, 55, 293, 70, 308
-0.999537, 383, 285, 398, 300
-0.999537, 271, 139, 286, 154
-0.999537, 377, 279, 392, 294
-0.999539, 395, 289, 410, 304
-0.999539, 263, 355, 278, 370
-0.99954, 371, 277, 386, 292
-0.999541, 405, 293, 420, 308
-0.999542, 403, 281, 418, 296
-0.999544, 13, 225, 28, 352
-0.999544, 255, 357, 270, 372
-0.999545, 365, 267, 380, 282
-0.999546, 315, 161, 330, 288
-0.999546, 151, 101, 166, 116
-0.999547, 101, 209, 116, 336
-0.999551, 449, 33, 480, 288
-0.999551, 301, 329, 316, 344
-0.999551, 49, 293, 64, 308
-0.999552, 63, 225, 78, 352
-0.999552, 261, 139, 276, 154
-0.999552, 311, 333, 326, 348
-0.999552, 419, 283, 434, 298
-0.999558, 469, 171, 484, 186
-0.999558, 401, 161, 416, 288
-0.999559, 161, 73, 288, 136
-0.99956, 83, 97, 98, 224
-0.999562, 283, 329, 298, 344
-0.999564, 229, 81, 260, 208
-0.999565, 31, 97, 46, 224
-0.999565, 413, 283, 428, 298
-0.999566, 17, 97, 32, 224
-0.999572, 485, 185, 500, 200
-0.999572, 261, 131, 276, 146
-0.999575, 307, 161, 322, 288
-0.999576, 83, 225, 98, 352
-0.999577, 315, 309, 330, 324
-0.999577, 355, 129, 370, 256
-0.999577, 417, 241, 432, 368
-0.999579, 37, 129, 52, 256
-0.99958, 483, 161, 498, 288
-0.999582, 113, 89, 240, 120
-0.999584, 55, 129, 70, 256
-0.999587, 261, 145, 276, 272
-0.999589, 477, 175, 492, 190
-0.99959, 335, 305, 350, 320
-0.999592, 365, 129, 380, 256
-0.999594, 111, 81, 126, 208
-0.999597, 101, 129, 132, 375
-0.999599, 3, 113, 18, 240
-0.9996, 89, 129, 104, 256
-0.999603, 395, 145, 410, 272
-0.999605, 403, 287, 418, 302
-0.999606, 27, 145, 42, 272
-0.999609, 61, 97, 76, 224
-0.999612, 255, 129, 270, 256
-0.999612, 45, 97, 60, 224
-0.999612, 101, 81, 116, 208
-0.99962, 297, 225, 312, 352
-0.999632, 275, 225, 290, 352
-0.999638, 71, 129, 86, 256
-0.999638, 301, 161, 316, 288
-0.999638, 103, 145, 118, 272
-0.999639, 371, 145, 386, 272
-0.999639, 89, 81, 104, 208
-0.999642, 77, 81, 92, 208
-0.999645, 321, 161, 336, 288
-0.999646, 95, 81, 110, 208
-0.999648, 387, 145, 402, 272
-0.999652, 193, 273, 320, 304
-0.999652, 95, 161, 110, 288
-0.999652, 141, 193, 156, 320
-0.999654, 393, 193, 408, 320
-0.999655, 89, 209, 104, 336
-0.99966, 269, 97, 284, 224
-0.999661, 345, 129, 360, 256
-0.999662, 39, 209, 54, 336
-0.999662, 11, 97, 26, 224
-0.999662, 25, 97, 40, 224
-0.999666, 117, 81, 132, 208
-0.999669, 339, 129, 354, 256
-0.999669, 49, 145, 64, 272
-0.999673, 121, 65, 152, 320
-0.999675, 399, 97, 414, 224
-0.999676, 261, 209, 276, 336
-0.999685, 293, 177, 308, 304
-0.999688, 161, 33, 288, 160
-0.99969, 465, 241, 480, 368
-0.999692, 251, 65, 266, 192
-0.999698, 311, 81, 326, 208
-0.999699, 107, 209, 122, 336
-0.9997, 333, 129, 348, 256
-0.999702, 281, 209, 296, 336
-0.999702, 429, 33, 460, 288
-0.999703, 53, 81, 68, 208
-0.999704, 251, 241, 266, 368
-0.999706, 29, 225, 44, 352
-0.999707, 407, 97, 422, 224
-0.999707, 413, 97, 428, 224
-0.999709, 421, 97, 436, 224
-0.999711, 381, 129, 396, 256
-0.999711, 37, 81, 52, 208
-0.999712, 269, 177, 284, 304
-0.999715, 301, 81, 316, 208
-0.999719, 161, 333, 288, 364
-0.999721, 233, 241, 248, 368
-0.999725, 457, 209, 472, 336
-0.999729, 61, 145, 76, 272
-0.99973, 145, 65, 176, 320
-0.999732, 71, 81, 86, 208
-0.999732, 109, 129, 124, 256
-0.999734, 77, 129, 92, 256
-0.999736, 321, 81, 336, 208
-0.999737, 177, 89, 304, 120
-0.999739, 385, 81, 400, 208
-0.99974, 477, 113, 492, 240
-0.99974, 127, 177, 142, 304
-0.999741, 165, 177, 180, 304
-0.999742, 379, 81, 394, 208
-0.999742, 391, 97, 406, 224
-0.999744, 463, 113, 478, 240
-0.999748, 117, 225, 132, 352
-0.99975, 135, 193, 150, 320
-0.999751, 275, 177, 290, 304
-0.999764, 321, 253, 448, 284
-0.99977, 289, 93, 416, 124
-0.999778, 345, 297, 408, 360
-0.999786, 217, 129, 248, 375
-0.999796, 393, 33, 424, 288
-0.999815, 321, 65, 448, 128
-0.999831, 129, 81, 160, 208
-0.99985, 337, 93, 464, 124
-0.999858, 281, 33, 344, 288
-0.999877, 97, 281, 224, 312
-0.999887, 113, 113, 240, 144
-0.999889, 17, 125, 144, 156
-0.999892, 469, 33, 500, 288
-0.999916, 13, 1, 44, 256
-0.999919, 25, 1, 56, 256
-0.999926, 157, 65, 188, 320
-0.999934, 373, 33, 404, 288
-0.999951, 413, 33, 444, 288
-0.999953, 133, 65, 164, 320
-0.999995, 329, 33, 360, 288
-1, 361, 33, 392, 288
-1.00003, 97, 81, 352, 144
-1.00005, 353, 121, 480, 152
-1.00005, 37, 1, 68, 256
-1.00009, 73, 33, 104, 288
-1.0001, 205, 129, 236, 375
-1.0001, 369, 81, 496, 112
-1.0001, 1, 81, 256, 144
-1.0001, 129, 81, 192, 144
-1.0001, 309, 33, 340, 288
-1.00012, 169, 97, 200, 352
-1.00012, 1, 89, 128, 120
-1.00013, 93, 33, 124, 288
-1.00015, 349, 33, 380, 288
-1.00021, 181, 97, 212, 352
-1.00023, 261, 33, 292, 288
-1.00026, 293, 33, 324, 288
-1.0003, 201, 33, 264, 288
-1.00031, 105, 33, 136, 288
-1.00036, 253, 65, 284, 192
-1.00037, 241, 57, 368, 120
-1.00038, 53, 1, 84, 256
-1.0004, 233, 265, 296, 328
-1.00041, 237, 1, 268, 256
-1.00044, 193, 97, 224, 352
-1.0005, 193, 73, 448, 136
-1.00051, 305, 81, 368, 144
-1.00056, 273, 33, 304, 288
-1.00061, 217, 33, 248, 288
-1.00063, 1, 209, 64, 272
-1.00063, 1, 97, 500, 160
-1.00064, 409, 89, 472, 152
-1.00074, 97, 65, 224, 128
-1.00081, 205, 33, 236, 288
-1.00082, 249, 33, 280, 288
-1.00083, 209, 25, 336, 88
-1.00093, 149, 81, 180, 208
-1.00094, 181, 1, 212, 256
-1.00098, 169, 1, 200, 256
-1.00102, 165, 113, 196, 240
-1.00104, 369, 57, 496, 120
-1.00116, 213, 81, 244, 208
-1.00119, 177, 161, 240, 288
-1.00122, 137, 65, 200, 192
-1.00124, 193, 1, 224, 256
-1.00127, 185, 193, 216, 320
-1.00135, 257, 25, 384, 88
-1.00143, 65, 57, 320, 120
-1.00144, 257, 1, 384, 64
-1.00153, 193, 1, 320, 64
-1.00164, 233, 33, 296, 288
-1.0017, 185, 81, 216, 208
-1.00171, 225, 49, 480, 112
-1.00177, 129, 1, 384, 64
-1.00186, 193, 25, 448, 88
-1.00187, 97, 25, 352, 88
-1.0019, 145, 9, 272, 72
-1.00192, 33, 1, 288, 64
-1.00196, 149, 225, 180, 352
-1.00198, 257, 1, 500, 64
-1.002, 129, 1, 384, 128
-1.00201, 1, 73, 500, 136
-1.00212, 1, 33, 256, 96
-1.00213, 49, 57, 176, 120
-1.00217, 281, 33, 344, 160
-1.00226, 201, 81, 232, 208
-1.00228, 169, 225, 200, 352
-1.00229, 161, 65, 224, 192
-1.00232, 25, 49, 88, 176
-1.00237, 301, 49, 332, 176
-1.00242, 305, 17, 432, 80
-1.00243, 225, 1, 480, 128
-1.00243, 209, 17, 336, 144
-1.00244, 177, 33, 240, 288
-1.00246, 277, 49, 308, 176
-1.00246, 193, 241, 224, 368
-1.00252, 193, 49, 320, 112
-1.00274, 81, 1, 208, 64
-1.00274, 145, 33, 272, 96
-1.00276, 33, 1, 160, 64
-1.00286, 289, 49, 320, 176
-1.00291, 353, 1, 480, 64
-1.00291, 369, 25, 496, 88
-1.00291, 1, 33, 128, 96
-1.00291, 49, 33, 176, 96
-1.00291, 97, 33, 224, 96
-1.00296, 181, 241, 212, 368
-1.00298, 241, 1, 304, 128
-1.00311, 321, 41, 448, 104
-1.00314, 217, 33, 280, 160
-1.0032, 161, 65, 192, 192
-1.00321, 109, 33, 140, 160
-1.00325, 133, 33, 164, 160
-1.00329, 89, 33, 120, 160
-1.00332, 1, 25, 500, 88
-1.00343, 217, 161, 248, 288
-1.00353, 25, 49, 56, 176
-1.00353, 181, 129, 212, 256
-1.00356, 105, 33, 168, 160
-1.00362, 205, 161, 236, 288
-1.00391, 1, 1, 500, 64
-1.00401, 313, 33, 344, 160
-1.0041, 1, 49, 500, 112
-1.00413, 265, 17, 296, 144
-1.00416, 257, 17, 384, 144
-1.00426, 13, 49, 44, 176
-1.00428, 221, 33, 252, 160
-1.00438, 193, 129, 224, 256
-1.0044, 205, 33, 236, 160
-1.00449, 425, 65, 488, 192
-1.00476, 73, 33, 104, 160
-1.00479, 121, 33, 152, 160
-1.00487, 185, 33, 216, 160
-1.00492, 1, 49, 64, 176
-1.00501, 377, 49, 408, 176
-1.00504, 449, 65, 480, 192
-1.00512, 173, 65, 204, 192
-1.00527, 409, 33, 440, 160
-1.00575, 345, 49, 408, 176
-1.00576, 1, 1, 256, 128
-1.00577, 57, 33, 120, 160
-1.00585, 153, 1, 216, 256
-1.0059, 369, 17, 496, 144
-1.00628, 321, 33, 384, 160
-1.00632, 145, 17, 208, 144
-1.00682, 185, 33, 248, 160
-1.00704, 65, 1, 192, 128
-1.00856, 385, 17, 448, 144
-1.00918, 425, 17, 488, 144
-1.01109, 81, 1, 144, 128
-1.01113, 345, 1, 408, 128
-1.01233, 33, 1, 96, 128
-1.01353, 1, 1, 64, 128
