1876
-0.472259, 1, 65, 500, 320
-0.520622, 1, 1, 500, 333
-0.611362, 193, 1, 448, 333
-0.639576, 65, 1, 320, 333
-0.762271, 97, 1, 352, 256
-0.803857, 1, 1, 256, 256
-0.805234, 257, 65, 500, 320
-0.89469, 161, 1, 288, 333
-0.900851, 33, 1, 160, 333
-0.900906, 369, 1, 496, 333
-0.901666, 321, 1, 448, 333
-0.904967, 273, 1, 400, 333
-0.905132, 113, 1, 240, 333
-0.906155, 209, 1, 336, 333
-0.909514, 1, 129, 500, 256
-0.909679, 97, 65, 224, 320
-0.916728, 225, 1, 352, 256
-0.9187, 177, 65, 304, 320
-0.921461, 369, 33, 496, 288
-0.922405, 33, 65, 160, 320
-0.924628, 289, 65, 416, 320
-0.932047, 1, 65, 500, 192
-0.934291, 257, 113, 500, 240
-0.934417, 1, 129, 256, 256
-0.942235, 1, 177, 500, 304
-0.945061, 129, 129, 384, 256
-0.94697, 1, 177, 256, 304
-0.951426, 17, 145, 144, 272
-0.952017, 1, 1, 500, 128
-0.952897, 113, 113, 240, 240
-0.954046, 49, 113, 112, 240
-0.955713, 193, 65, 448, 192
-0.957365, 97, 81, 352, 208
-0.957401, 161, 129, 288, 256
-0.957856, 369, 113, 496, 240
-0.958776, 33, 97, 160, 224
-0.96008, 289, 113, 416, 240
-0.960461, 193, 129, 256, 256
-0.961791, 97, 145, 160, 208
-0.962346, 233, 113, 296, 240
-0.962762, 265, 121, 328, 184
-0.963703, 193, 177, 448, 304
-0.96377, 225, 145, 352, 272
-0.964576, 25, 129, 88, 256
-0.964828, 121, 113, 184, 240
-0.96496, 1, 81, 256, 208
-0.966059, 81, 161, 208, 288
-0.96613, 177, 177, 304, 304
-0.966874, 73, 129, 136, 256
-0.967051, 169, 113, 232, 240
-0.96726, 297, 121, 360, 184
-0.967658, 337, 113, 400, 240
-0.967941, 241, 97, 368, 224
-0.967966, 273, 129, 336, 256
-0.968166, 305, 113, 368, 240
-0.968407, 377, 113, 440, 240
-0.968728, 417, 121, 480, 184
-0.969103, 137, 129, 200, 192
-0.969181, 241, 161, 304, 288
-0.969824, 129, 209, 256, 333
-0.969991, 145, 177, 208, 304
-0.970152, 265, 145, 328, 208
-0.970439, 425, 113, 488, 240
-0.970486, 321, 161, 448, 288
-0.971063, 41, 145, 104, 208
-0.971388, 97, 145, 160, 272
-0.971495, 233, 137, 296, 200
-0.971574, 145, 65, 272, 192
-0.971796, 89, 81, 152, 208
-0.971817, 153, 201, 216, 264
-0.972306, 89, 121, 152, 184
-0.972711, 177, 209, 240, 333
-0.972902, 145, 129, 208, 256
-0.973089, 305, 65, 432, 192
-0.97319, 113, 121, 176, 184
-0.973431, 233, 113, 296, 176
-0.973583, 33, 177, 96, 240
-0.973606, 273, 161, 400, 288
-0.974015, 209, 129, 272, 192
-0.974044, 185, 209, 248, 272
-0.974187, 193, 65, 320, 192
-0.974369, 33, 177, 96, 304
-0.974665, 97, 193, 352, 320
-0.975116, 97, 33, 352, 160
-0.975522, 193, 81, 256, 208
-0.97561, 401, 113, 464, 240
-0.975651, 353, 121, 416, 184
-0.975867, 217, 161, 280, 288
-0.9759, 369, 161, 496, 288
-0.975979, 225, 209, 288, 333
-0.97614, 265, 209, 328, 272
-0.976219, 33, 209, 160, 333
-0.976307, 433, 145, 496, 208
-0.976554, 289, 145, 352, 208
-0.976597, 169, 121, 232, 184
-0.976618, 281, 121, 312, 184
-0.976629, 97, 65, 224, 192
-0.976707, 353, 65, 416, 192
-0.976792, 73, 161, 136, 224
-0.976999, 117, 121, 148, 184
-0.977221, 1, 1, 256, 128
-0.977634, 33, 129, 160, 192
-0.977679, 65, 129, 128, 192
-0.977727, 241, 49, 368, 176
-0.978007, 329, 129, 392, 192
-0.978515, 369, 65, 496, 192
-0.978617, 97, 121, 224, 184
-0.978721, 193, 177, 256, 240
-0.978734, 257, 81, 320, 208
-0.978798, 65, 153, 192, 216
-0.978958, 361, 161, 424, 288
-0.979095, 57, 193, 120, 256
-0.979229, 97, 129, 128, 192
-0.979342, 393, 121, 456, 184
-0.979463, 129, 153, 192, 216
-0.979606, 137, 65, 200, 192
-0.979611, 369, 121, 496, 184
-0.97967, 289, 201, 352, 264
-0.979793, 377, 65, 440, 192
-0.979823, 313, 65, 376, 192
-0.980194, 409, 65, 472, 192
-0.980237, 369, 209, 496, 333
-0.980245, 1, 145, 64, 272
-0.980255, 117, 145, 148, 208
-0.980331, 301, 137, 332, 200
-0.98075, 465, 121, 496, 184
-0.980836, 209, 201, 336, 264
-0.980845, 217, 65, 280, 192
-0.980944, 25, 201, 88, 264
-0.98095, 241, 209, 368, 333
-0.981089, 217, 201, 280, 264
-0.981157, 33, 185, 160, 248
-0.981188, 241, 201, 304, 264
-0.981255, 433, 65, 496, 192
-0.98129, 9, 193, 72, 320
-0.981442, 241, 121, 368, 184
-0.981818, 145, 129, 272, 192
-0.981856, 265, 177, 328, 240
-0.981938, 49, 49, 176, 176
-0.98203, 129, 201, 256, 264
-0.982316, 209, 241, 272, 304
-0.982448, 161, 65, 224, 192
-0.982462, 193, 105, 256, 168
-0.98247, 1, 169, 64, 232
-0.982531, 361, 209, 424, 333
-0.98266, 257, 137, 288, 200
-0.982842, 225, 169, 288, 232
-0.982928, 161, 169, 224, 232
-0.982944, 177, 233, 240, 296
-0.983026, 81, 113, 112, 240
-0.983201, 273, 177, 336, 304
-0.983206, 73, 177, 136, 304
-0.983277, 41, 121, 104, 184
-0.983292, 113, 65, 176, 192
-0.983437, 81, 209, 208, 333
-0.983506, 201, 273, 264, 333
-0.983553, 289, 65, 352, 192
-0.983682, 257, 17, 500, 144
-0.983704, 57, 129, 88, 256
-0.983727, 101, 153, 132, 216
-0.983796, 321, 209, 448, 333
-0.98389, 17, 153, 144, 216
-0.98401, 385, 161, 448, 288
-0.984013, 409, 97, 472, 160
-0.984016, 297, 97, 360, 160
-0.984029, 129, 209, 192, 272
-0.984058, 321, 129, 448, 192
-0.984063, 97, 129, 128, 256
-0.984087, 241, 113, 272, 240
-0.984119, 49, 1, 176, 128
-0.984262, 97, 17, 224, 144
-0.984285, 137, 121, 168, 184
-0.984309, 301, 113, 332, 176
-0.98455, 445, 113, 476, 176
-0.984564, 45, 145, 76, 208
-0.984697, 193, 129, 320, 192
-0.984768, 385, 145, 448, 208
-0.984818, 165, 201, 196, 264
-0.984834, 249, 209, 312, 333
-0.984952, 257, 97, 320, 160
-0.984994, 417, 217, 480, 280
-0.985065, 177, 1, 304, 128
-0.985091, 45, 177, 76, 240
-0.985139, 269, 121, 300, 184
-0.985169, 297, 177, 360, 240
-0.985226, 97, 217, 160, 280
-0.985317, 329, 161, 392, 288
-0.985522, 149, 129, 180, 192
-0.98555, 389, 113, 420, 240
-0.985653, 297, 201, 328, 264
-0.985685, 257, 145, 384, 208
-0.985754, 417, 121, 448, 184
-0.985779, 361, 145, 424, 208
-0.985812, 433, 97, 496, 160
-0.985949, 161, 177, 288, 240
-0.985999, 317, 113, 348, 240
-0.986024, 281, 129, 312, 256
-0.986066, 353, 97, 416, 160
-0.986067, 269, 145, 300, 208
-0.98614, 181, 193, 212, 320
-0.986162, 145, 105, 208, 168
-0.986237, 313, 121, 344, 184
-0.986252, 393, 209, 456, 333
-0.986329, 97, 169, 160, 232
-0.986347, 229, 113, 260, 240
-0.986352, 177, 241, 304, 304
-0.986369, 257, 1, 384, 128
-0.986384, 29, 145, 60, 272
-0.986402, 397, 121, 428, 184
-0.986465, 177, 153, 304, 216
-0.986481, 81, 201, 208, 264
-0.986508, 141, 113, 172, 240
-0.98664, 369, 145, 496, 208
-0.986732, 61, 177, 92, 240
-0.986802, 181, 113, 212, 240
-0.986819, 305, 161, 368, 288
-0.986836, 305, 65, 368, 320
-0.986957, 169, 97, 232, 160
-0.98701, 129, 145, 160, 208
-0.987057, 81, 193, 144, 256
-0.987082, 209, 177, 336, 240
-0.9871, 289, 185, 416, 248
-0.987106, 245, 113, 276, 176
-0.987144, 81, 177, 208, 240
-0.987152, 177, 105, 304, 168
-0.987186, 1, 193, 64, 256
-0.987199, 305, 17, 432, 144
-0.98725, 225, 201, 256, 264
-0.987333, 225, 265, 288, 328
-0.987371, 1, 113, 64, 176
-0.987376, 233, 89, 296, 152
-0.987406, 69, 129, 100, 256
-0.987414, 1, 97, 64, 224
-0.987418, 345, 113, 376, 240
-0.987463, 257, 113, 288, 176
-0.987465, 453, 97, 484, 224
-0.98755, 193, 65, 256, 320
-0.987578, 261, 145, 292, 272
-0.987637, 233, 129, 264, 192
-0.987699, 129, 225, 256, 288
-0.987708, 385, 97, 448, 160
-0.987791, 153, 1, 216, 256
-0.987834, 33, 161, 64, 224
-0.987835, 409, 145, 472, 208
-0.987877, 121, 113, 152, 240
-0.987905, 89, 161, 120, 224
-0.987918, 193, 33, 256, 160
-0.987963, 365, 121, 396, 184
-0.987989, 321, 185, 384, 248
-0.988001, 197, 113, 228, 240
-0.988057, 45, 145, 76, 272
-0.988079, 177, 273, 240, 333
-0.988129, 105, 193, 168, 256
-0.988138, 273, 97, 400, 160
-0.988157, 113, 33, 176, 96
-0.988157, 241, 225, 304, 288
-0.988193, 9, 145, 72, 208
-0.98823, 453, 137, 484, 200
-0.988268, 337, 209, 400, 333
-0.988282, 161, 1, 224, 333
-0.988299, 1, 1, 128, 128
-0.988396, 121, 33, 184, 288
-0.988432, 329, 153, 392, 216
-0.98844, 57, 1, 120, 333
-0.988545, 217, 65, 280, 320
-0.988548, 213, 113, 244, 240
-0.988596, 313, 217, 376, 280
-0.988632, 113, 97, 176, 160
-0.988644, 97, 1, 160, 256
-0.988645, 269, 97, 300, 224
-0.988664, 465, 161, 496, 288
-0.988679, 321, 105, 384, 168
-0.988686, 433, 113, 464, 176
-0.988722, 393, 73, 456, 136
-0.988755, 425, 193, 488, 320
-0.98878, 57, 65, 120, 320
-0.988813, 145, 273, 272, 333
-0.988852, 49, 105, 176, 168
-0.988881, 281, 233, 344, 296
-0.988894, 369, 113, 400, 240
-0.988924, 369, 1, 432, 333
-0.988929, 189, 201, 220, 264
-0.988999, 321, 105, 448, 168
-0.98902, 297, 113, 328, 240
-0.989023, 97, 97, 224, 160
-0.989086, 65, 105, 128, 168
-0.989156, 345, 65, 408, 320
-0.989161, 193, 1, 256, 333
-0.989169, 177, 177, 208, 240
-0.989194, 65, 65, 128, 192
-0.989224, 285, 193, 316, 256
-0.989242, 321, 33, 384, 96
-0.989243, 169, 1, 232, 128
-0.989268, 273, 209, 400, 272
-0.989304, 169, 113, 200, 240
-0.989336, 349, 137, 380, 200
-0.989367, 173, 121, 204, 184
-0.98937, 385, 121, 416, 184
-0.989381, 121, 233, 184, 296
-0.989382, 57, 145, 88, 208
-0.989407, 109, 113, 140, 240
-0.989425, 401, 113, 432, 240
-0.989444, 237, 273, 268, 333
-0.989464, 425, 193, 488, 256
-0.989469, 121, 209, 184, 333
-0.989495, 377, 209, 440, 272
-0.989602, 465, 97, 496, 224
-0.989604, 285, 153, 316, 216
-0.989666, 433, 33, 496, 288
-0.989699, 153, 225, 216, 288
-0.989777, 425, 113, 456, 240
-0.989792, 65, 1, 128, 64
-0.989798, 85, 129, 116, 192
-0.989886, 309, 209, 340, 272
-0.989888, 345, 1, 408, 333
-0.989892, 401, 65, 464, 320
-0.989918, 97, 149, 160, 180
-0.989948, 225, 97, 352, 160
-0.989966, 433, 137, 496, 168
-0.989975, 409, 1, 472, 333
-0.990017, 41, 65, 104, 192
-0.990029, 357, 129, 388, 256
-0.990066, 17, 177, 48, 304
-0.99009, 153, 201, 216, 232
-0.990098, 225, 1, 288, 333
-0.990128, 213, 209, 244, 272
-0.990157, 273, 209, 336, 240
-0.990173, 369, 185, 496, 248
-0.990187, 257, 97, 288, 224
-0.990204, 241, 149, 304, 180
-0.990222, 281, 65, 344, 320
-0.990237, 257, 137, 320, 168
-0.990265, 217, 241, 248, 304
-0.99028, 313, 1, 376, 333
-0.990298, 333, 97, 364, 224
-0.990321, 249, 1, 312, 333
-0.990358, 221, 129, 252, 192
-0.990374, 121, 161, 184, 288
-0.99039, 377, 65, 440, 320
-0.990459, 161, 193, 192, 320
-0.990465, 113, 153, 240, 216
-0.990513, 25, 257, 88, 320
-0.990524, 321, 161, 448, 224
-0.990557, 437, 113, 468, 240
-0.990588, 185, 121, 216, 184
-0.9906, 233, 209, 296, 240
-0.990626, 33, 209, 160, 272
-0.990637, 433, 125, 496, 156
-0.990659, 409, 125, 472, 156
-0.990667, 153, 41, 216, 104
-0.990675, 193, 81, 256, 144
-0.990698, 393, 233, 456, 296
-0.99071, 217, 273, 248, 333
-0.990711, 257, 65, 320, 320
-0.990717, 265, 125, 328, 156
-0.990739, 393, 161, 424, 288
-0.990788, 177, 209, 240, 240
-0.990831, 121, 1, 184, 128
-0.990871, 257, 273, 320, 333
-0.990872, 81, 185, 112, 248
-0.990892, 169, 161, 232, 288
-0.990904, 145, 81, 208, 144
-0.990913, 89, 33, 152, 160
-0.990926, 305, 129, 368, 160
-0.990939, 185, 153, 248, 216
-0.990997, 137, 221, 200, 252
-0.991, 369, 209, 496, 272
-0.991009, 369, 1, 496, 128
-0.99101, 201, 205, 264, 236
-0.991013, 73, 217, 136, 280
-0.99104, 233, 133, 296, 164
-0.991043, 297, 213, 360, 244
-0.991071, 197, 257, 228, 320
-0.991117, 241, 121, 304, 152
-0.991131, 89, 17, 152, 80
-0.991132, 49, 1, 112, 128
-0.99118, 41, 1, 104, 64
-0.991181, 325, 121, 356, 184
-0.991203, 265, 221, 328, 252
-0.991208, 289, 141, 352, 172
-0.991211, 65, 145, 128, 176
-0.991215, 273, 33, 400, 96
-0.991267, 217, 121, 280, 152
-0.991276, 289, 225, 320, 288
-0.991279, 201, 209, 264, 333
-0.991288, 321, 9, 384, 72
-0.991292, 337, 217, 400, 280
-0.991299, 129, 209, 192, 240
-0.991301, 401, 225, 464, 256
-0.991304, 241, 225, 304, 256
-0.991304, 97, 1, 160, 333
-0.991335, 417, 17, 480, 144
-0.991342, 81, 177, 112, 304
-0.99137, 465, 153, 496, 216
-0.991377, 73, 133, 136, 164
-0.991381, 377, 217, 440, 248
-0.991386, 397, 65, 428, 192
-0.99142, 225, 225, 352, 288
-0.991427, 433, 57, 496, 120
-0.991446, 377, 65, 408, 192
-0.99145, 41, 145, 104, 176
-0.991451, 369, 97, 496, 160
-0.991466, 245, 137, 276, 200
-0.991473, 49, 181, 112, 212
-0.991493, 33, 193, 64, 320
-0.991494, 385, 121, 448, 152
-0.991494, 353, 125, 416, 156
-0.991496, 1, 105, 128, 168
-0.991512, 225, 273, 352, 333
-0.991523, 129, 153, 192, 184
-0.991531, 265, 153, 328, 184
-0.991534, 97, 137, 160, 168
-0.991562, 145, 17, 208, 144
-0.991567, 361, 33, 424, 96
-0.991574, 305, 117, 368, 148
-0.991592, 17, 273, 144, 333
-0.991622, 97, 217, 160, 248
-0.991632, 145, 25, 272, 88
-0.991634, 345, 177, 408, 240
-0.991637, 209, 133, 272, 164
-0.99168, 321, 221, 384, 252
-0.991681, 41, 157, 104, 188
-0.991682, 225, 297, 288, 328
-0.991691, 193, 193, 256, 224
-0.991693, 89, 97, 152, 160
-0.991696, 209, 161, 272, 192
-0.991721, 25, 177, 88, 208
-0.991724, 229, 161, 260, 288
-0.991734, 201, 209, 232, 272
-0.991737, 169, 269, 232, 300
-0.991766, 97, 121, 352, 184
-0.991774, 169, 17, 232, 80
-0.991781, 169, 125, 232, 156
-0.991781, 217, 149, 280, 180
-0.991809, 129, 1, 192, 333
-0.991813, 77, 153, 108, 216
-0.99182, 217, 269, 280, 300
-0.991826, 201, 65, 232, 192
-0.991829, 197, 129, 228, 192
-0.991839, 289, 1, 352, 333
-0.991843, 1, 137, 500, 200
-0.991844, 205, 177, 236, 240
-0.991848, 157, 129, 188, 256
-0.991882, 201, 233, 264, 264
-0.991886, 105, 161, 168, 192
-0.991888, 137, 177, 200, 240
-0.991912, 129, 65, 160, 192
-0.991918, 225, 197, 288, 228
-0.991919, 297, 41, 360, 104
-0.991925, 321, 17, 448, 80
-0.991931, 373, 161, 404, 288
-0.991937, 433, 149, 496, 180
-0.991947, 353, 217, 416, 248
-0.991948, 425, 221, 488, 252
-0.991954, 337, 121, 368, 184
-0.991964, 105, 125, 168, 156
-0.991982, 25, 189, 88, 220
-0.991982, 329, 149, 392, 180
-0.991995, 297, 177, 328, 240
-0.992004, 37, 201, 68, 264
-0.992009, 193, 57, 256, 120
-0.992017, 17, 233, 144, 296
-0.992026, 25, 205, 88, 236
-0.992047, 1, 205, 64, 236
-0.992054, 57, 193, 120, 224
-0.992059, 9, 225, 72, 288
-0.992067, 345, 137, 408, 168
-0.992083, 161, 129, 192, 192
-0.992091, 297, 201, 360, 232
-0.992095, 413, 97, 444, 224
-0.992099, 273, 197, 336, 228
-0.992107, 441, 65, 472, 192
-0.992114, 201, 221, 264, 252
-0.992122, 137, 133, 200, 164
-0.992124, 377, 145, 408, 208
-0.99215, 65, 157, 128, 188
-0.992164, 193, 193, 224, 320
-0.992167, 153, 193, 184, 256
-0.992174, 409, 145, 440, 208
-0.992197, 409, 137, 472, 168
-0.992198, 185, 65, 216, 192
-0.992213, 169, 221, 232, 252
-0.992223, 49, 129, 112, 160
-0.99225, 257, 121, 500, 184
-0.992259, 193, 145, 256, 176
-0.992282, 201, 249, 264, 280
-0.992286, 1, 165, 64, 196
-0.992286, 233, 161, 296, 192
-0.992287, 297, 225, 360, 256
-0.992301, 417, 113, 480, 144
-0.992323, 57, 205, 120, 236
-0.992324, 337, 205, 400, 236
-0.992326, 185, 281, 248, 312
-0.992343, 369, 141, 432, 172
-0.992408, 233, 237, 296, 268
-0.992412, 97, 257, 224, 320
-0.992421, 353, 165, 416, 196
-0.992423, 1, 265, 64, 328
-0.992429, 241, 109, 304, 140
-0.992433, 461, 137, 492, 168
-0.992445, 385, 173, 448, 204
-0.992457, 465, 97, 496, 160
-0.992476, 73, 217, 136, 248
-0.992479, 97, 1, 224, 64
-0.992483, 329, 125, 392, 156
-0.992498, 369, 33, 496, 96
-0.992507, 193, 117, 256, 148
-0.992509, 97, 205, 160, 236
-0.992511, 101, 193, 132, 256
-0.992523, 401, 213, 464, 244
-0.992526, 257, 297, 320, 328
-0.992528, 269, 201, 300, 264
-0.992534, 369, 229, 432, 260
-0.992546, 393, 109, 456, 140
-0.992563, 33, 65, 96, 320
-0.992564, 209, 281, 272, 312
-0.992565, 289, 153, 352, 184
-0.992571, 161, 1, 288, 64
-0.992573, 1, 221, 64, 252
-0.992576, 97, 145, 128, 176
-0.992576, 117, 153, 148, 184
-0.992576, 353, 113, 416, 144
-0.992581, 285, 97, 316, 160
-0.992582, 377, 153, 440, 184
-0.992588, 221, 177, 252, 240
-0.992621, 329, 1, 392, 128
-0.992624, 169, 161, 232, 192
-0.992627, 425, 33, 488, 96
-0.992633, 9, 281, 72, 312
-0.992638, 229, 205, 260, 236
-0.992638, 161, 209, 192, 240
-0.992653, 97, 81, 128, 208
-0.992657, 461, 125, 492, 156
-0.992665, 129, 49, 256, 112
-0.992676, 353, 153, 416, 184
-0.992685, 129, 145, 160, 176
-0.992687, 145, 165, 208, 196
-0.992688, 1, 49, 128, 176
-0.992711, 193, 269, 256, 300
-0.99272, 181, 201, 212, 232
-0.992726, 441, 125, 472, 156
-0.992745, 301, 137, 332, 168
-0.992749, 129, 121, 192, 152
-0.992749, 433, 177, 496, 208
-0.992754, 265, 113, 328, 144
-0.992757, 321, 209, 448, 272
-0.992773, 117, 141, 148, 172
-0.992782, 193, 301, 256, 332
-0.99279, 249, 161, 280, 288
-0.992792, 41, 1, 104, 32
-0.9928, 289, 233, 416, 296
-0.992808, 81, 121, 144, 152
-0.992808, 369, 205, 432, 236
-0.992823, 257, 169, 320, 200
-0.992824, 249, 197, 312, 228
-0.992828, 33, 97, 64, 224
-0.992842, 317, 177, 348, 240
-0.992843, 329, 165, 392, 196
-0.99285, 297, 65, 328, 192
-0.992864, 17, 153, 80, 184
-0.99287, 285, 121, 316, 152
-0.992873, 201, 269, 232, 300
-0.992879, 165, 197, 196, 228
-0.992882, 153, 189, 216, 220
-0.992884, 281, 145, 312, 176
-0.992888, 449, 137, 480, 168
-0.992893, 409, 73, 472, 104
-0.992895, 297, 201, 328, 232
-0.992903, 277, 209, 308, 240
-0.992904, 213, 281, 244, 312
-0.992907, 345, 229, 408, 260
-0.992908, 249, 301, 280, 332
-0.992918, 141, 149, 172, 180
-0.992923, 297, 213, 328, 244
-0.992929, 153, 113, 216, 144
-0.992934, 181, 213, 212, 244
-0.992941, 81, 233, 208, 296
-0.992946, 425, 209, 488, 240
-0.992947, 261, 141, 292, 172
-0.992954, 33, 145, 288, 208
-0.992957, 333, 125, 364, 156
-0.992969, 229, 65, 260, 192
-0.992973, 141, 217, 172, 280
-0.992976, 265, 261, 328, 292
-0.992986, 245, 121, 276, 152
-0.992987, 117, 125, 148, 156
-0.992987, 265, 233, 328, 264
-0.992995, 281, 1, 344, 64
-0.992999, 137, 301, 200, 332
-0.993004, 65, 169, 128, 200
-0.993008, 297, 125, 328, 156
-0.99301, 41, 289, 104, 320
-0.993012, 345, 65, 376, 192
-0.993015, 41, 277, 104, 308
-0.993018, 297, 165, 360, 196
-0.993021, 409, 173, 472, 204
-0.993021, 81, 301, 144, 332
-0.993021, 269, 177, 300, 240
-0.993023, 33, 117, 96, 148
-0.993023, 161, 257, 224, 288
-0.993029, 461, 149, 492, 180
-0.99303, 85, 129, 116, 160
-0.993032, 1, 189, 64, 220
-0.993035, 225, 1, 352, 64
-0.99304, 349, 129, 380, 160
-0.99305, 389, 121, 420, 152
-0.99305, 309, 125, 340, 156
-0.993051, 253, 153, 284, 184
-0.993053, 329, 81, 392, 144
-0.993058, 97, 193, 128, 224
-0.993067, 417, 217, 448, 248
-0.99307, 129, 197, 192, 228
-0.993072, 249, 209, 280, 240
-0.993073, 297, 149, 328, 180
-0.993074, 33, 1, 160, 64
-0.993076, 309, 213, 340, 244
-0.993077, 429, 65, 460, 192
-0.993077, 69, 177, 100, 304
-0.993078, 9, 293, 72, 324
-0.993079, 349, 141, 380, 172
-0.993082, 149, 209, 180, 240
-0.993089, 429, 125, 460, 156
-0.99309, 97, 133, 128, 164
-0.99309, 425, 161, 488, 192
-0.993093, 69, 129, 100, 192
-0.993094, 273, 121, 304, 152
-0.993094, 229, 221, 260, 252
-0.9931, 13, 205, 44, 236
-0.993101, 1, 65, 64, 320
-0.993102, 237, 237, 268, 268
-0.993105, 81, 193, 112, 224
-0.993107, 401, 121, 432, 152
-0.993116, 389, 133, 420, 164
-0.99312, 233, 301, 264, 332
-0.993138, 269, 153, 300, 184
-0.993141, 101, 157, 132, 188
-0.993147, 257, 121, 288, 152
-0.993147, 281, 221, 312, 252
-0.993148, 265, 209, 296, 240
-0.993153, 41, 177, 72, 208
-0.993166, 413, 121, 444, 152
-0.99317, 129, 157, 160, 188
-0.993175, 377, 209, 408, 333
-0.993178, 57, 185, 88, 216
-0.993178, 229, 129, 260, 160
-0.99318, 129, 1, 192, 64
-0.993184, 401, 221, 432, 252
-0.993191, 313, 145, 344, 176
-0.993193, 193, 201, 224, 232
-0.993194, 437, 137, 468, 168
-0.993199, 25, 157, 56, 188
-0.993203, 233, 161, 264, 192
-0.993204, 217, 205, 248, 236
-0.993207, 161, 221, 192, 252
-0.993212, 441, 221, 472, 252
-0.993214, 105, 217, 136, 248
-0.993215, 461, 217, 492, 248
-0.993216, 249, 141, 280, 172
-0.993217, 369, 133, 400, 164
-0.99322, 465, 225, 496, 288
-0.99322, 261, 285, 292, 316
-0.993231, 321, 217, 352, 248
-0.993237, 81, 181, 112, 212
-0.993237, 93, 217, 124, 248
-0.99324, 141, 221, 172, 252
-0.993241, 269, 229, 300, 260
-0.993249, 261, 273, 292, 333
-0.99325, 125, 217, 156, 248
-0.99325, 369, 149, 400, 180
-0.993257, 449, 113, 480, 144
-0.993264, 181, 125, 212, 156
-0.993269, 41, 205, 72, 236
-0.993272, 49, 201, 80, 264
-0.993274, 85, 141, 116, 172
-0.993275, 25, 205, 56, 236
-0.993282, 281, 133, 312, 164
-0.993284, 341, 185, 372, 248
-0.993285, 225, 289, 256, 320
-0.993287, 129, 133, 160, 164
-0.993289, 317, 201, 348, 232
-0.993293, 237, 145, 268, 176
-0.993294, 141, 65, 172, 192
-0.993298, 41, 153, 72, 184
-0.993299, 93, 177, 124, 304
-0.993302, 365, 221, 396, 252
-0.993305, 377, 161, 408, 192
-0.993306, 385, 221, 416, 252
-0.993308, 141, 125, 172, 156
-0.993315, 321, 201, 352, 264
-0.993322, 73, 129, 104, 160
-0.993323, 385, 145, 416, 176
-0.993323, 209, 121, 240, 184
-0.993324, 333, 137, 364, 168
-0.993324, 33, 285, 64, 316
-0.99333, 225, 237, 256, 268
-0.993332, 429, 225, 460, 256
-0.993334, 21, 217, 52, 248
-0.993334, 229, 269, 260, 300
-0.99334, 29, 169, 60, 200
-0.993343, 377, 121, 408, 152
-0.993345, 49, 165, 80, 196
-0.993345, 241, 221, 272, 252
-0.993348, 69, 177, 100, 208
-0.993352, 93, 205, 124, 236
-0.993362, 221, 161, 252, 192
-0.993363, 209, 133, 240, 164
-0.993364, 97, 177, 128, 208
-0.993365, 201, 213, 232, 244
-0.993367, 197, 157, 228, 188
-0.993369, 417, 97, 448, 160
-0.993369, 1, 205, 32, 236
-0.99337, 301, 225, 332, 256
-0.993371, 85, 153, 116, 184
-0.993374, 245, 197, 276, 228
-0.993375, 221, 257, 252, 288
-0.993382, 253, 221, 284, 252
-0.993383, 193, 257, 224, 288
-0.993383, 141, 137, 172, 168
-0.993383, 45, 137, 76, 168
-0.993385, 217, 149, 248, 180
-0.993388, 173, 225, 204, 256
-0.993389, 337, 149, 368, 180
-0.993394, 253, 273, 284, 304
-0.993394, 365, 121, 396, 152
-0.993431, 349, 113, 380, 176
-0.993462, 149, 161, 180, 224
-0.993466, 301, 161, 332, 288
-0.993484, 113, 65, 176, 128
-0.993497, 97, 25, 224, 88
-0.99353, 289, 1, 352, 128
-0.993555, 377, 97, 408, 160
-0.993566, 17, 129, 48, 256
-0.993592, 33, 81, 160, 144
-0.993618, 337, 233, 464, 296
-0.993621, 117, 65, 148, 192
-0.993651, 81, 57, 144, 120
-0.993666, 361, 65, 392, 192
-0.993687, 193, 17, 256, 80
-0.993787, 393, 1, 456, 128
-0.993802, 145, 205, 272, 236
-0.993827, 269, 209, 300, 333
-0.993844, 461, 209, 492, 333
-0.993875, 397, 161, 428, 224
-0.993881, 433, 1, 496, 333
-0.993884, 33, 169, 288, 232
-0.993887, 269, 233, 300, 296
-0.993906, 417, 193, 448, 320
-0.993934, 377, 185, 440, 248
-0.994062, 49, 257, 112, 320
-0.994067, 165, 177, 196, 240
-0.994081, 145, 81, 272, 144
-0.994107, 321, 41, 448, 104
-0.994107, 467, 121, 482, 184
-0.994123, 241, 209, 272, 333
-0.994134, 57, 113, 88, 176
-0.99417, 193, 25, 320, 88
-0.994173, 133, 97, 164, 160
-0.994175, 317, 65, 348, 192
-0.994205, 33, 1, 96, 333
-0.994226, 241, 33, 304, 160
-0.994232, 149, 105, 180, 168
-0.994271, 113, 161, 144, 288
-0.994287, 17, 193, 48, 256
-0.994333, 453, 145, 484, 272
-0.994349, 33, 201, 288, 264
-0.994366, 9, 49, 72, 176
-0.994395, 257, 209, 288, 272
-0.994432, 225, 249, 352, 312
-0.994452, 469, 193, 500, 256
-0.994454, 89, 257, 152, 320
-0.994463, 45, 193, 76, 320
-0.994469, 45, 97, 76, 224
-0.994476, 361, 1, 424, 64
-0.994481, 397, 209, 428, 333
-0.99451, 297, 209, 360, 333
-0.994519, 193, 177, 224, 240
-0.994519, 385, 41, 448, 104
-0.994531, 321, 81, 448, 144
-0.994536, 245, 241, 276, 304
-0.994544, 57, 33, 120, 96
-0.994544, 153, 257, 216, 320
-0.994548, 177, 201, 208, 264
-0.994629, 65, 201, 96, 264
-0.994643, 429, 137, 460, 200
-0.994658, 273, 41, 336, 104
-0.99471, 113, 129, 128, 192
-0.994718, 313, 153, 344, 216
-0.994718, 161, 65, 192, 192
-0.994723, 1, 121, 256, 184
-0.994725, 273, 57, 400, 120
-0.994782, 113, 217, 144, 280
-0.994798, 249, 265, 280, 328
-0.994801, 361, 57, 424, 120
-0.994804, 193, 57, 320, 120
-0.994847, 189, 97, 220, 160
-0.994854, 389, 97, 420, 160
-0.994888, 477, 121, 492, 184
-0.994891, 285, 177, 316, 304
-0.994893, 369, 1, 496, 64
-0.994935, 273, 1, 400, 64
-0.994959, 137, 137, 152, 200
-0.994979, 233, 169, 264, 232
-0.99499, 81, 57, 208, 120
-0.994998, 337, 145, 368, 208
-0.995002, 417, 217, 448, 280
-0.995023, 313, 161, 344, 288
-0.995029, 313, 97, 344, 160
-0.995029, 129, 145, 384, 208
-0.995055, 249, 169, 280, 232
-0.995089, 125, 217, 156, 280
-0.995108, 241, 65, 272, 192
-0.995121, 33, 25, 160, 88
-0.995149, 269, 97, 300, 160
-0.995155, 365, 217, 396, 280
-0.995167, 133, 161, 164, 288
-0.99518, 265, 33, 328, 160
-0.995187, 49, 217, 112, 280
-0.995187, 213, 65, 244, 192
-0.995213, 209, 209, 336, 240
-0.995302, 141, 193, 172, 256
-0.995309, 453, 217, 484, 280
-0.995312, 33, 149, 160, 180
-0.995315, 81, 205, 208, 236
-0.995319, 81, 149, 208, 180
-0.99534, 221, 105, 252, 168
-0.995348, 65, 81, 96, 208
-0.995354, 229, 249, 260, 312
-0.995397, 337, 57, 400, 120
-0.995412, 273, 265, 400, 328
-0.995427, 303, 137, 318, 200
-0.995436, 1, 145, 32, 272
-0.995446, 57, 177, 88, 304
-0.995452, 269, 137, 284, 200
-0.995483, 361, 161, 392, 224
-0.995503, 233, 105, 264, 168
-0.995534, 441, 137, 472, 200
-0.995542, 1, 273, 256, 333
-0.995555, 189, 153, 220, 216
-0.995556, 33, 137, 160, 168
-0.995586, 161, 217, 288, 248
-0.995594, 401, 81, 432, 144
-0.995606, 309, 137, 324, 200
-0.995614, 453, 33, 484, 160
-0.995628, 109, 1, 140, 128
-0.995629, 401, 9, 464, 72
-0.995643, 209, 125, 336, 156
-0.995644, 25, 97, 88, 160
-0.995679, 1, 193, 32, 256
-0.995692, 441, 161, 472, 288
-0.995696, 221, 209, 252, 333
-0.9957, 369, 125, 496, 156
-0.99571, 303, 113, 318, 176
-0.995719, 369, 141, 496, 172
-0.995729, 193, 217, 448, 280
-0.995742, 129, 169, 160, 232
-0.99575, 209, 221, 336, 252
-0.995777, 289, 125, 416, 156
-0.995779, 275, 121, 290, 184
-0.995783, 311, 201, 326, 264
-0.995804, 257, 145, 500, 208
-0.995806, 1, 161, 500, 224
-0.995815, 293, 121, 308, 184
-0.995816, 149, 209, 180, 333
-0.995824, 281, 81, 312, 208
-0.995828, 287, 121, 302, 184
-0.995864, 417, 241, 480, 304
-0.995913, 117, 97, 148, 160
-0.995943, 229, 225, 260, 288
-0.995944, 173, 65, 204, 192
-0.995954, 97, 217, 224, 248
-0.995955, 329, 177, 360, 240
-0.995957, 429, 217, 460, 280
-0.995975, 101, 105, 132, 168
-0.995976, 357, 185, 388, 248
-0.99599, 61, 177, 76, 240
-0.996024, 1, 181, 128, 212
-0.996058, 361, 193, 392, 320
-0.996058, 205, 233, 236, 296
-0.996058, 161, 145, 224, 208
-0.996081, 441, 217, 472, 280
-0.996088, 111, 153, 126, 216
-0.996107, 225, 97, 480, 160
-0.996115, 469, 33, 500, 160
-0.996118, 433, 1, 496, 64
-0.996121, 17, 161, 144, 192
-0.996132, 369, 65, 496, 128
-0.996135, 81, 193, 208, 224
-0.996142, 1, 217, 500, 280
-0.996183, 457, 113, 472, 176
-0.996194, 1, 233, 256, 296
-0.996194, 265, 73, 328, 136
-0.996217, 421, 121, 436, 184
-0.996235, 281, 121, 296, 184
-0.996243, 417, 49, 448, 176
-0.996247, 193, 177, 448, 240
-0.99626, 241, 137, 368, 168
-0.996286, 263, 137, 278, 200
-0.996287, 355, 137, 370, 200
-0.996296, 119, 129, 134, 192
-0.996307, 309, 113, 324, 176
-0.996315, 1, 113, 500, 176
-0.996317, 279, 145, 294, 208
-0.99634, 225, 17, 288, 80
-0.996346, 97, 193, 160, 320
-0.99635, 281, 265, 344, 328
-0.996354, 269, 113, 284, 176
-0.996377, 485, 121, 500, 184
-0.9964, 469, 145, 484, 208
-0.996412, 85, 65, 116, 192
-0.996425, 205, 161, 236, 288
-0.996432, 9, 1, 72, 333
-0.996436, 65, 161, 192, 192
-0.99646, 49, 177, 64, 240
-0.996466, 107, 129, 122, 192
-0.996478, 209, 197, 336, 228
-0.996482, 233, 57, 296, 120
-0.996487, 217, 161, 248, 288
-0.996506, 129, 97, 384, 160
-0.996507, 73, 1, 104, 128
-0.996531, 273, 213, 400, 244
-0.996538, 129, 157, 256, 188
-0.996541, 145, 137, 272, 168
-0.99655, 169, 65, 232, 128
-0.996578, 305, 137, 432, 168
-0.996587, 369, 221, 496, 252
-0.996588, 305, 201, 320, 264
-0.996591, 273, 149, 400, 180
-0.996608, 177, 153, 304, 184
-0.99661, 51, 137, 66, 200
-0.996612, 67, 177, 82, 240
-0.996637, 143, 137, 158, 200
-0.99664, 141, 113, 156, 176
-0.996676, 129, 121, 144, 184
-0.996678, 227, 201, 242, 264
-0.996679, 65, 125, 192, 156
-0.996698, 263, 113, 278, 176
-0.996709, 43, 169, 58, 232
-0.996716, 79, 177, 94, 240
-0.996716, 297, 209, 328, 333
-0.99672, 225, 233, 352, 264
-0.996733, 411, 121, 426, 184
-0.996765, 257, 145, 272, 208
-0.996769, 315, 113, 330, 176
-0.996793, 225, 149, 352, 180
-0.996801, 413, 145, 444, 272
-0.996831, 117, 153, 132, 216
-0.996836, 171, 193, 186, 256
-0.996859, 131, 145, 146, 208
-0.996879, 315, 137, 330, 200
-0.996883, 221, 209, 236, 272
-0.996889, 97, 233, 352, 296
-0.996905, 101, 121, 116, 184
-0.996905, 103, 153, 118, 216
-0.996919, 449, 209, 480, 333
-0.996952, 443, 113, 458, 176
-0.996957, 17, 201, 144, 232
-0.996961, 151, 121, 166, 184
-0.997004, 289, 225, 416, 256
-0.997004, 485, 145, 500, 208
-0.997006, 257, 209, 288, 333
-0.997016, 353, 17, 416, 144
-0.997028, 209, 113, 336, 144
-0.997034, 431, 121, 446, 184
-0.997039, 25, 1, 88, 128
-0.997052, 321, 257, 448, 320
-0.997058, 451, 113, 466, 176
-0.997085, 333, 49, 364, 176
-0.997099, 337, 173, 464, 204
-0.997102, 145, 193, 272, 224
-0.997103, 57, 145, 72, 208
-0.997105, 165, 201, 180, 264
-0.997138, 235, 129, 250, 192
-0.99714, 399, 121, 414, 184
-0.997169, 135, 141, 150, 172
-0.997186, 193, 137, 320, 168
-0.997197, 93, 153, 108, 216
-0.997202, 171, 129, 186, 192
-0.997213, 365, 121, 380, 184
-0.997217, 467, 97, 482, 160
-0.997218, 81, 137, 208, 168
-0.997224, 459, 137, 474, 200
-0.997241, 33, 185, 48, 248
-0.997254, 341, 161, 372, 288
-0.997257, 235, 177, 250, 240
-0.997262, 471, 217, 486, 280
-0.997264, 257, 121, 272, 184
-0.997286, 265, 273, 280, 333
-0.997291, 113, 121, 240, 152
-0.997298, 349, 129, 364, 192
-0.997301, 225, 161, 352, 192
-0.997309, 141, 145, 156, 176
-0.997314, 5, 193, 36, 320
-0.997314, 135, 113, 150, 176
-0.997319, 183, 121, 198, 184
-0.997327, 49, 217, 176, 248
-0.997329, 55, 177, 70, 240
-0.997341, 129, 229, 256, 260
-0.997345, 73, 177, 88, 240
-0.997349, 97, 273, 352, 333
-0.997356, 387, 121, 402, 184
-0.997357, 467, 137, 482, 168
-0.997359, 179, 193, 194, 256
-0.997367, 69, 145, 84, 208
-0.997384, 1, 193, 500, 256
-0.997387, 289, 161, 416, 192
-0.997387, 85, 177, 100, 240
-0.997389, 251, 113, 266, 176
-0.997401, 299, 161, 314, 224
-0.997403, 65, 173, 192, 204
-0.997414, 279, 201, 294, 264
-0.997416, 161, 125, 288, 156
-0.997425, 161, 301, 288, 332
-0.99743, 417, 145, 432, 208
-0.997433, 429, 217, 444, 280
-0.99745, 437, 121, 452, 184
-0.99746, 245, 121, 260, 184
-0.997464, 475, 137, 490, 168
-0.997469, 363, 185, 378, 248
-0.997472, 325, 121, 340, 184
-0.997475, 215, 265, 230, 328
-0.997477, 225, 177, 240, 240
-0.997478, 149, 145, 164, 208
-0.997498, 483, 129, 498, 160
-0.997502, 341, 121, 356, 184
-0.997512, 199, 201, 214, 264
-0.997513, 467, 125, 482, 156
-0.997514, 229, 129, 244, 192
-0.997517, 357, 185, 372, 248
-0.997537, 369, 153, 496, 184
-0.997549, 305, 161, 320, 224
-0.997552, 193, 177, 208, 240
-0.997552, 289, 113, 416, 144
-0.997553, 85, 129, 100, 192
-0.997557, 97, 193, 112, 256
-0.997565, 1, 281, 128, 312
-0.997577, 269, 137, 284, 168
-0.99758, 63, 145, 78, 208
-0.997586, 129, 269, 256, 300
-0.997587, 317, 201, 332, 264
-0.997591, 251, 145, 266, 208
-0.997592, 33, 57, 160, 120
-0.997596, 303, 133, 318, 164
-0.997606, 187, 193, 202, 256
-0.997612, 225, 41, 480, 104
-0.997615, 139, 161, 154, 224
-0.997616, 477, 149, 492, 180
-0.997622, 173, 161, 188, 224
-0.99763, 279, 97, 294, 160
-0.997633, 77, 153, 92, 216
-0.997642, 113, 145, 128, 176
-0.997659, 185, 169, 200, 232
-0.997669, 193, 265, 448, 328
-0.997675, 273, 161, 288, 224
-0.997679, 193, 129, 208, 192
-0.997679, 485, 141, 500, 172
-0.997684, 429, 193, 460, 320
-0.997687, 225, 301, 352, 332
-0.997691, 177, 233, 304, 264
-0.997699, 313, 177, 328, 240
-0.997702, 213, 129, 228, 192
-0.997706, 39, 201, 54, 264
-0.997715, 371, 121, 386, 184
-0.997715, 125, 145, 140, 208
-0.99773, 435, 97, 450, 160
-0.99773, 287, 153, 302, 216
-0.997736, 43, 145, 58, 208
-0.997736, 349, 185, 364, 248
-0.997737, 317, 225, 332, 288
-0.997737, 451, 125, 466, 156
-0.997739, 405, 121, 420, 184
-0.997739, 177, 129, 192, 192
-0.99774, 359, 161, 374, 224
-0.997741, 109, 105, 124, 168
-0.997754, 5, 97, 36, 224
-0.99776, 219, 241, 234, 304
-0.997776, 93, 129, 108, 192
-0.997782, 219, 177, 234, 240
-0.99779, 475, 145, 490, 208
-0.997793, 393, 121, 408, 184
-0.997794, 87, 153, 102, 216
-0.997794, 229, 249, 244, 312
-0.997795, 321, 213, 448, 244
-0.997796, 293, 145, 308, 208
-0.997798, 451, 137, 466, 200
-0.9978, 207, 129, 222, 192
-0.997811, 1, 117, 128, 148
-0.997819, 369, 209, 496, 240
-0.997832, 289, 201, 416, 232
-0.997851, 101, 141, 116, 172
-0.997872, 369, 257, 496, 320
-0.997872, 241, 205, 256, 236
-0.997874, 277, 145, 292, 176
-0.997877, 459, 137, 474, 168
-0.997912, 441, 225, 456, 256
-0.997915, 245, 221, 260, 252
-0.997918, 337, 113, 464, 144
-0.99792, 473, 125, 488, 156
-0.997922, 177, 245, 304, 276
-0.997934, 169, 201, 184, 232
-0.997938, 311, 125, 326, 156
-0.997957, 311, 205, 326, 236
-0.997974, 457, 125, 472, 156
-0.997974, 177, 165, 304, 196
-0.997988, 33, 97, 288, 160
-0.997994, 467, 149, 482, 180
-0.998, 289, 181, 416, 212
-0.998011, 107, 145, 122, 176
-0.998012, 313, 141, 328, 172
-0.998051, 181, 213, 196, 244
-0.99806, 435, 225, 450, 256
-0.998076, 65, 281, 192, 312
-0.998084, 1, 1, 256, 64
-0.998085, 137, 157, 152, 188
-0.9981, 269, 157, 284, 188
-0.998101, 1, 293, 128, 324
-0.998105, 275, 157, 290, 188
-0.998106, 219, 273, 234, 304
-0.998106, 97, 257, 224, 288
-0.99811, 233, 201, 248, 232
-0.998113, 295, 121, 310, 152
-0.998116, 161, 113, 288, 144
-0.998126, 303, 153, 318, 184
-0.998142, 65, 25, 320, 88
-0.998151, 17, 269, 144, 300
-0.998159, 193, 261, 320, 292
-0.998162, 395, 121, 410, 152
-0.998167, 163, 209, 178, 240
-0.99817, 177, 285, 304, 316
-0.998173, 213, 273, 228, 304
-0.998176, 441, 125, 456, 156
-0.998186, 345, 125, 360, 156
-0.998188, 281, 209, 296, 240
-0.998204, 227, 205, 242, 236
-0.998207, 185, 201, 200, 232
-0.998209, 259, 149, 274, 180
-0.998233, 147, 153, 162, 184
-0.998233, 195, 197, 210, 228
-0.998235, 95, 129, 110, 160
-0.998244, 267, 121, 282, 152
-0.99825, 255, 297, 270, 328
-0.998254, 17, 229, 144, 260
-0.998255, 415, 221, 430, 252
-0.998256, 187, 213, 202, 244
-0.998258, 305, 201, 320, 232
-0.998266, 263, 133, 278, 164
-0.998286, 141, 133, 156, 164
-0.998292, 285, 149, 300, 180
-0.998294, 269, 49, 300, 176
-0.998301, 197, 1, 228, 128
-0.998302, 305, 37, 432, 68
-0.998306, 253, 145, 268, 176
-0.998321, 23, 205, 38, 236
-0.998325, 301, 121, 316, 152
-0.998329, 111, 133, 126, 164
-0.998336, 293, 141, 308, 172
-0.998336, 321, 125, 336, 156
-0.998337, 33, 57, 288, 120
-0.99834, 297, 233, 328, 248
-0.998341, 441, 143, 472, 158
-0.998341, 153, 225, 184, 240
-0.998341, 349, 137, 380, 152
-0.998341, 253, 299, 284, 314
-0.998342, 109, 217, 140, 232
-0.998342, 427, 221, 442, 252
-0.998342, 413, 123, 444, 138
-0.998342, 273, 135, 304, 150
-0.998342, 349, 131, 380, 146
-0.998342, 329, 147, 360, 162
-0.998342, 357, 133, 372, 164
-0.998343, 13, 217, 44, 232
-0.998343, 393, 221, 424, 236
-0.998343, 241, 221, 272, 236
-0.998345, 193, 209, 224, 224
-0.998345, 433, 229, 464, 244
-0.998346, 121, 17, 152, 144
-0.998346, 373, 147, 404, 162
-0.998346, 337, 141, 368, 156
-0.998346, 451, 137, 466, 168
-0.998347, 77, 185, 108, 200
-0.998349, 229, 129, 260, 144
-0.998349, 281, 141, 312, 156
-0.99835, 229, 201, 260, 216
-0.99835, 29, 163, 60, 178
-0.998351, 297, 203, 328, 218
-0.998351, 89, 187, 120, 202
-0.998351, 261, 121, 276, 152
-0.998352, 225, 65, 480, 128
-0.998352, 309, 153, 324, 184
-0.998353, 301, 225, 332, 240
-0.998353, 313, 129, 344, 144
-0.998356, 175, 213, 190, 244
-0.998356, 233, 295, 264, 310
-0.998357, 269, 233, 300, 248
-0.998358, 97, 193, 112, 224
-0.998358, 397, 123, 428, 138
-0.998359, 277, 209, 308, 224
-0.99836, 349, 143, 380, 158
-0.998361, 209, 1, 240, 256
-0.998362, 33, 175, 64, 190
-0.998362, 133, 125, 148, 156
-0.998363, 85, 143, 116, 158
-0.998365, 469, 131, 500, 146
-0.998365, 261, 123, 292, 138
-0.998365, 229, 163, 260, 178
-0.998366, 25, 219, 56, 234
-0.998366, 357, 223, 388, 238
-0.998367, 437, 127, 468, 142
-0.998367, 45, 153, 76, 168
-0.998367, 297, 213, 312, 244
-0.998367, 277, 159, 308, 174
-0.998368, 175, 201, 190, 232
-0.998368, 393, 143, 424, 158
-0.998368, 285, 227, 316, 242
-0.998369, 301, 129, 332, 144
-0.998369, 253, 313, 284, 328
-0.998369, 213, 213, 244, 228
-0.99837, 79, 181, 94, 212
-0.998371, 483, 153, 498, 184
-0.998372, 369, 153, 400, 168
-0.998372, 405, 147, 436, 162
-0.998372, 113, 45, 240, 76
-0.998373, 89, 159, 120, 174
-0.998374, 421, 225, 452, 240
-0.998374, 121, 141, 152, 156
-0.998376, 393, 137, 424, 152
-0.998377, 125, 149, 140, 180
-0.998378, 297, 157, 328, 172
-0.998378, 169, 213, 184, 244
-0.998379, 17, 209, 48, 224
-0.998379, 1, 213, 32, 228
-0.99838, 229, 221, 260, 236
-0.99838, 457, 145, 488, 160
-0.99838, 245, 135, 276, 150
-0.99838, 49, 171, 80, 186
-0.998381, 369, 225, 400, 240
-0.998382, 205, 207, 236, 222
-0.998382, 33, 287, 64, 302
-0.998383, 287, 213, 302, 244
-0.998384, 69, 189, 84, 220
-0.998385, 393, 229, 424, 244
-0.998386, 307, 217, 322, 248
-0.998386, 131, 157, 146, 188
-0.998386, 89, 193, 120, 208
-0.998386, 385, 151, 416, 166
-0.998387, 309, 153, 340, 168
-0.998387, 317, 147, 348, 162
-0.998387, 201, 215, 232, 230
-0.998388, 465, 157, 496, 172
-0.998389, 165, 199, 196, 214
-0.99839, 237, 311, 268, 326
-0.998391, 281, 229, 296, 260
-0.998391, 109, 155, 140, 170
-0.998392, 285, 215, 316, 230
-0.998392, 445, 227, 476, 242
-0.998392, 241, 125, 272, 140
-0.998393, 201, 277, 232, 292
-0.998393, 45, 173, 60, 204
-0.998395, 125, 223, 156, 238
-0.998395, 185, 203, 216, 218
-0.998397, 321, 219, 352, 234
-0.998397, 383, 149, 398, 180
-0.998397, 81, 199, 112, 214
-0.998399, 53, 181, 84, 196
-0.998399, 181, 1, 212, 256
-0.998402, 453, 127, 484, 142
-0.998404, 301, 209, 332, 224
-0.998406, 469, 139, 500, 154
-0.998406, 273, 123, 304, 138
-0.998407, 193, 269, 224, 284
-0.998408, 317, 65, 348, 320
-0.998408, 209, 283, 240, 298
-0.998408, 369, 53, 496, 84
-0.998408, 241, 143, 272, 158
-0.998409, 227, 281, 242, 312
-0.99841, 301, 217, 332, 232
-0.998412, 385, 161, 400, 192
-0.998412, 241, 209, 272, 224
-0.998413, 281, 147, 312, 162
-0.998414, 165, 207, 196, 222
-0.998415, 141, 165, 172, 180
-0.998416, 269, 149, 300, 164
-0.998417, 381, 227, 412, 242
-0.998418, 253, 305, 284, 320
-0.998418, 161, 213, 192, 228
-0.998418, 257, 135, 288, 150
-0.998419, 181, 217, 212, 232
-0.998421, 233, 237, 264, 252
-0.998424, 225, 213, 256, 228
-0.998424, 277, 133, 292, 164
-0.998424, 245, 233, 260, 264
-0.998425, 289, 127, 320, 142
-0.998426, 109, 139, 140, 154
-0.998426, 297, 151, 328, 166
-0.998428, 133, 159, 164, 174
-0.998428, 285, 135, 316, 150
-0.99843, 85, 181, 100, 212
-0.998432, 177, 223, 208, 238
-0.998433, 137, 153, 168, 168
-0.998433, 285, 121, 300, 152
-0.998435, 445, 135, 476, 150
-0.998437, 97, 145, 128, 160
-0.998437, 265, 143, 296, 158
-0.998438, 101, 195, 132, 210
-0.998439, 249, 149, 280, 164
-0.99844, 461, 227, 492, 242
-0.998443, 241, 157, 256, 188
-0.998444, 369, 185, 496, 216
-0.998446, 411, 121, 426, 152
-0.998447, 121, 161, 152, 176
-0.998448, 111, 193, 126, 224
-0.998449, 145, 219, 176, 234
-0.99845, 31, 205, 46, 236
-0.998451, 105, 129, 120, 160
-0.998451, 405, 227, 436, 242
-0.998452, 273, 121, 288, 152
-0.998453, 315, 221, 330, 252
-0.998454, 297, 145, 328, 160
-0.998454, 157, 219, 188, 234
-0.998454, 263, 301, 278, 332
-0.998455, 457, 135, 488, 150
-0.998457, 177, 17, 208, 144
-0.998461, 315, 157, 330, 188
-0.998461, 101, 161, 132, 176
-0.998464, 143, 217, 158, 248
-0.998465, 351, 129, 366, 160
-0.998471, 207, 265, 222, 296
-0.998471, 109, 65, 140, 320
-0.998471, 155, 217, 170, 248
-0.998481, 257, 145, 320, 160
-0.998482, 257, 155, 320, 170
-0.998483, 281, 153, 312, 168
-0.998485, 97, 151, 128, 166
-0.998486, 81, 229, 208, 260
-0.998489, 353, 73, 480, 104
-0.998494, 91, 185, 106, 216
-0.998495, 461, 151, 492, 166
-0.9985, 111, 157, 126, 188
-0.998501, 105, 155, 168, 170
-0.998501, 265, 155, 296, 170
-0.998501, 1, 1, 64, 128
-0.998502, 109, 217, 124, 248
-0.998503, 297, 139, 328, 154
-0.998505, 375, 221, 390, 252
-0.998511, 201, 207, 264, 222
-0.998514, 37, 205, 52, 236
-0.99852, 433, 125, 448, 156
-0.998521, 97, 145, 160, 160
-0.998522, 485, 221, 500, 252
-0.998523, 249, 209, 264, 240
-0.998524, 109, 149, 140, 164
-0.998525, 289, 149, 352, 164
-0.998526, 275, 209, 290, 240
-0.998528, 119, 153, 134, 184
-0.998535, 239, 217, 254, 248
-0.998537, 273, 139, 336, 154
-0.998537, 105, 161, 168, 176
-0.998538, 279, 121, 294, 152
-0.99854, 421, 221, 436, 252
-0.998541, 249, 123, 312, 138
-0.998541, 101, 153, 116, 184
-0.998543, 245, 121, 260, 152
-0.998547, 177, 217, 240, 232
-0.998547, 129, 147, 160, 162
-0.998547, 389, 141, 404, 172
-0.998548, 61, 181, 76, 212
-0.998549, 377, 227, 440, 242
-0.998549, 137, 221, 200, 236
-0.99855, 273, 213, 336, 228
-0.998552, 225, 207, 256, 222
-0.998552, 409, 225, 472, 240
-0.998553, 129, 173, 256, 204
-0.998555, 241, 145, 256, 176
-0.998558, 403, 125, 418, 156
-0.998558, 241, 289, 368, 320
-0.998559, 121, 155, 152, 170
-0.998562, 193, 1, 448, 64
-0.998564, 161, 203, 224, 218
-0.998564, 85, 129, 100, 160
-0.998564, 233, 147, 296, 162
-0.998567, 249, 139, 312, 154
-0.998569, 161, 209, 224, 224
-0.998573, 265, 133, 328, 148
-0.998576, 363, 129, 378, 160
-0.998576, 281, 219, 344, 234
-0.998576, 153, 215, 216, 230
-0.998579, 209, 213, 272, 228
-0.998579, 145, 69, 272, 100
-0.998581, 225, 207, 288, 222
-0.998581, 433, 135, 496, 150
-0.998583, 337, 233, 464, 264
-0.998583, 233, 153, 296, 168
-0.998585, 113, 221, 176, 236
-0.998587, 281, 155, 344, 170
-0.998588, 103, 213, 118, 244
-0.998588, 17, 1, 144, 32
-0.998588, 273, 225, 336, 240
-0.99859, 317, 205, 332, 236
-0.99859, 289, 127, 352, 142
-0.998591, 313, 145, 376, 160
-0.998592, 193, 241, 448, 304
-0.998597, 93, 33, 124, 288
-0.998598, 73, 149, 136, 164
-0.998598, 409, 135, 472, 150
-0.9986, 401, 125, 464, 140
-0.998603, 225, 305, 288, 320
-0.998603, 35, 221, 50, 252
-0.998604, 37, 165, 52, 196
-0.99861, 265, 207, 328, 222
-0.99861, 55, 177, 70, 208
-0.99861, 241, 219, 304, 234
-0.998612, 225, 313, 288, 328
-0.998615, 49, 195, 112, 210
-0.998616, 389, 65, 420, 320
-0.998617, 305, 139, 368, 154
-0.998617, 71, 177, 86, 208
-0.99862, 37, 153, 52, 184
-0.998621, 105, 185, 120, 216
-0.998621, 433, 141, 496, 156
-0.998623, 345, 149, 408, 164
-0.998624, 209, 237, 272, 252
-0.998627, 305, 227, 368, 242
-0.998627, 65, 189, 128, 204
-0.998628, 137, 227, 200, 242
-0.998629, 177, 269, 240, 284
-0.998629, 153, 197, 216, 212
-0.998629, 345, 227, 408, 242
-0.99863, 401, 231, 464, 246
-0.998631, 305, 221, 368, 236
-0.998632, 49, 181, 112, 196
-0.998632, 81, 155, 144, 170
-0.998633, 241, 231, 304, 246
-0.998634, 1, 217, 128, 248
-0.998634, 73, 143, 136, 158
-0.998634, 289, 205, 352, 220
-0.998635, 9, 287, 72, 302
-0.998635, 25, 179, 88, 194
-0.998636, 209, 147, 272, 162
-0.998637, 217, 277, 280, 292
-0.998637, 409, 149, 472, 164
-0.998637, 425, 127, 488, 142
-0.998637, 121, 149, 184, 164
-0.998637, 193, 65, 224, 320
-0.998638, 265, 161, 328, 176
-0.998638, 289, 133, 352, 148
-0.998638, 201, 221, 264, 236
-0.99864, 369, 147, 432, 162
-0.99864, 377, 233, 440, 248
-0.998641, 129, 213, 192, 228
-0.998641, 233, 237, 296, 252
-0.998642, 89, 195, 152, 210
-0.998643, 161, 223, 224, 238
-0.998644, 345, 139, 408, 154
-0.998647, 241, 213, 304, 228
-0.998648, 433, 147, 496, 162
-0.998648, 225, 163, 288, 178
-0.998649, 377, 123, 440, 138
-0.998649, 97, 13, 224, 44
-0.998649, 105, 127, 168, 142
-0.998651, 385, 135, 448, 150
-0.998651, 233, 201, 296, 216
-0.998652, 97, 139, 160, 154
-0.998652, 225, 125, 288, 140
-0.998654, 89, 217, 152, 232
-0.998654, 129, 241, 256, 272
-0.998657, 377, 155, 440, 170
-0.998657, 377, 219, 440, 234
-0.998657, 193, 227, 256, 242
-0.998658, 217, 141, 280, 156
-0.998659, 289, 163, 352, 178
-0.998661, 73, 161, 136, 176
-0.998662, 137, 165, 200, 180
-0.998663, 193, 201, 256, 216
-0.998663, 425, 231, 488, 246
-0.998664, 233, 131, 296, 146
-0.998665, 321, 129, 384, 144
-0.998665, 41, 147, 104, 162
-0.998665, 409, 141, 472, 156
-0.998666, 337, 221, 400, 236
-0.998666, 185, 279, 248, 294
-0.998666, 265, 233, 328, 248
-0.998666, 353, 127, 416, 142
-0.998667, 201, 313, 264, 328
-0.998667, 169, 129, 232, 144
-0.998667, 193, 157, 256, 172
-0.998668, 1, 175, 64, 190
-0.998668, 433, 153, 496, 168
-0.998669, 225, 283, 288, 298
-0.998669, 85, 1, 116, 128
-0.998669, 305, 215, 368, 230
-0.998672, 249, 313, 312, 328
-0.998672, 9, 205, 72, 220
-0.998672, 81, 227, 144, 242
-0.998673, 305, 155, 368, 170
-0.998674, 121, 143, 184, 158
-0.998674, 41, 155, 104, 170
-0.998674, 201, 163, 264, 178
-0.998674, 209, 271, 272, 286
-0.998675, 81, 133, 144, 148
-0.998677, 177, 233, 240, 248
-0.998677, 297, 121, 360, 136
-0.998678, 137, 207, 200, 222
-0.998678, 1, 169, 64, 184
-0.998678, 369, 141, 432, 156
-0.998679, 345, 133, 408, 148
-0.998679, 129, 157, 192, 172
-0.998679, 313, 183, 376, 198
-0.99868, 425, 121, 488, 136
-0.998681, 129, 123, 192, 138
-0.998682, 353, 181, 416, 196
-0.998682, 221, 65, 252, 320
-0.998683, 65, 201, 128, 216
-0.998684, 161, 167, 224, 182
-0.998684, 41, 169, 104, 184
-0.998684, 353, 233, 416, 248
-0.998687, 97, 33, 224, 64
-0.998695, 97, 109, 224, 140
-0.998727, 113, 301, 240, 332
-0.99873, 145, 65, 176, 320
-0.998745, 49, 113, 176, 144
-0.998747, 369, 85, 496, 116
-0.998747, 321, 149, 448, 180
-0.998751, 129, 49, 384, 112
-0.99877, 113, 57, 240, 88
-0.998773, 193, 89, 320, 120
-0.998777, 129, 1, 160, 256
-0.998782, 177, 273, 304, 304
-0.998786, 161, 1, 288, 32
-0.998791, 69, 65, 100, 320
-0.998792, 65, 293, 192, 324
-0.998805, 113, 81, 240, 112
-0.998806, 321, 101, 448, 132
-0.998808, 177, 17, 304, 48
-0.998811, 225, 1, 352, 32
-0.998817, 33, 21, 160, 52
-0.998821, 165, 1, 196, 256
-0.998845, 97, 1, 352, 64
-0.998855, 177, 45, 304, 76
-0.998858, 1, 249, 128, 280
-0.998865, 97, 1, 224, 32
-0.998871, 53, 49, 84, 176
-0.998878, 461, 1, 492, 256
-0.9989, 65, 269, 192, 300
-0.998907, 273, 53, 400, 84
-0.998915, 113, 281, 240, 312
-0.998916, 393, 17, 424, 144
-0.99892, 233, 1, 264, 256
-0.998921, 241, 181, 368, 212
-0.998928, 177, 57, 304, 88
-0.998933, 361, 65, 392, 320
-0.998935, 257, 265, 384, 296
-0.998941, 341, 65, 372, 320
-0.998971, 65, 45, 192, 76
-0.998986, 257, 37, 384, 68
-0.998989, 49, 33, 176, 64
-0.998995, 129, 73, 384, 136
-0.999007, 329, 65, 360, 320
-0.999029, 177, 101, 304, 132
-0.999029, 273, 101, 400, 132
-0.999032, 281, 65, 312, 320
-0.99905, 305, 65, 432, 96
-0.99906, 81, 1, 112, 256
-0.99906, 241, 77, 368, 108
-0.999075, 273, 13, 400, 44
-0.999076, 253, 49, 284, 176
-0.999084, 441, 65, 472, 320
-0.99909, 49, 101, 176, 132
-0.999091, 369, 13, 496, 44
-0.999104, 145, 33, 272, 64
-0.999116, 297, 33, 328, 288
-0.999125, 373, 33, 404, 288
-0.99913, 53, 129, 68, 256
-0.999133, 161, 1, 192, 128
-0.999142, 321, 21, 448, 52
-0.999146, 49, 241, 176, 272
-0.999156, 177, 181, 304, 212
-0.999168, 193, 77, 320, 108
-0.999169, 243, 113, 258, 240
-0.99917, 273, 145, 288, 272
-0.999171, 57, 1, 88, 256
-0.999171, 1, 257, 500, 320
-0.999174, 81, 69, 208, 100
-0.999177, 289, 285, 416, 316
-0.999182, 69, 129, 84, 256
-0.999188, 141, 17, 172, 144
-0.9992, 271, 97, 286, 224
-0.999203, 81, 113, 96, 240
-0.999208, 321, 49, 448, 80
-0.999217, 391, 113, 406, 240
-0.999222, 41, 49, 72, 176
-0.999227, 217, 17, 280, 144
-0.999228, 251, 113, 266, 240
-0.999228, 319, 113, 334, 240
-0.99923, 283, 113, 298, 240
-0.999233, 87, 129, 102, 256
-0.999237, 199, 113, 214, 240
-0.999241, 41, 65, 72, 320
-0.999246, 97, 1, 128, 128
-0.999246, 329, 145, 360, 272
-0.999246, 105, 129, 120, 256
-0.999253, 59, 129, 74, 256
-0.999254, 321, 85, 448, 116
-0.999255, 473, 145, 488, 272
-0.999259, 225, 61, 352, 92
-0.999261, 75, 129, 90, 256
-0.999274, 1, 49, 500, 112
-0.999275, 257, 25, 384, 56
-0.999277, 401, 65, 432, 320
-0.999286, 93, 113, 108, 240
-0.999288, 253, 33, 284, 288
-0.999289, 45, 145, 60, 272
-0.999298, 129, 93, 256, 124
-0.999301, 273, 1, 400, 32
-0.999302, 185, 193, 200, 320
-0.999305, 359, 113, 374, 240
-0.999308, 191, 113, 206, 240
-0.999309, 399, 113, 414, 240
-0.999316, 481, 145, 496, 272
-0.999321, 481, 97, 496, 224
-0.99933, 147, 113, 162, 240
-0.999333, 233, 129, 248, 256
-0.999338, 31, 145, 46, 272
-0.99934, 261, 113, 276, 240
-0.999347, 39, 129, 54, 256
-0.999349, 257, 253, 384, 284
-0.999354, 205, 113, 220, 240
-0.999357, 191, 193, 206, 320
-0.999357, 241, 277, 368, 308
-0.999358, 135, 97, 150, 224
-0.999358, 311, 129, 326, 256
-0.999359, 465, 97, 480, 224
-0.999363, 185, 113, 200, 240
-0.99937, 379, 97, 394, 224
-0.999374, 111, 145, 126, 272
-0.999384, 409, 113, 424, 240
-0.999389, 179, 113, 194, 240
-0.999391, 173, 145, 188, 272
-0.999394, 429, 65, 460, 320
-0.999399, 385, 113, 400, 240
-0.999401, 197, 193, 212, 320
-0.999401, 199, 65, 214, 192
-0.999404, 161, 113, 176, 240
-0.999408, 385, 161, 400, 288
-0.99941, 351, 113, 366, 240
-0.999419, 441, 113, 456, 240
-0.999422, 419, 113, 434, 240
-0.999426, 211, 113, 226, 240
-0.999428, 99, 113, 114, 240
-0.999431, 79, 177, 94, 304
-0.999431, 227, 113, 242, 240
-0.999433, 431, 113, 446, 240
-0.999437, 453, 113, 468, 240
-0.999438, 327, 113, 342, 240
-0.999442, 283, 161, 298, 288
-0.999446, 141, 97, 156, 224
-0.999447, 205, 65, 220, 192
-0.999452, 337, 113, 352, 240
-0.999455, 289, 113, 304, 240
-0.999455, 343, 113, 358, 240
-0.999456, 241, 177, 256, 304
-0.999457, 379, 161, 394, 288
-0.999464, 141, 145, 156, 272
-0.999466, 305, 113, 320, 240
-0.999469, 55, 177, 70, 304
-0.99947, 385, 65, 400, 192
-0.999475, 277, 97, 292, 224
-0.999476, 135, 145, 150, 272
-0.999476, 153, 113, 168, 240
-0.999478, 117, 113, 132, 240
-0.999482, 373, 113, 388, 240
-0.999484, 179, 193, 194, 320
-0.999489, 47, 193, 62, 320
-0.999493, 123, 113, 138, 240
-0.999495, 471, 97, 486, 224
-0.999506, 265, 1, 296, 256
-0.999512, 399, 65, 414, 192
-0.999515, 211, 65, 226, 192
-0.999517, 349, 65, 364, 192
-0.999518, 13, 65, 44, 320
-0.99952, 467, 161, 482, 288
-0.999521, 217, 113, 232, 240
-0.999527, 417, 1, 448, 256
-0.999527, 93, 177, 108, 304
-0.999528, 25, 129, 40, 256
-0.99953, 99, 161, 114, 288
-0.99953, 277, 209, 292, 333
-0.999533, 167, 113, 182, 240
-0.999535, 191, 65, 206, 192
-0.999535, 447, 113, 462, 240
-0.999538, 129, 81, 144, 208
-0.999538, 411, 65, 426, 192
-0.999539, 365, 129, 380, 256
-0.999539, 41, 193, 56, 320
-0.99954, 337, 65, 352, 192
-0.999548, 421, 65, 436, 192
-0.999549, 267, 161, 282, 288
-0.999551, 441, 17, 472, 144
-0.999556, 295, 129, 310, 256
-0.999557, 459, 97, 474, 224
-0.999558, 391, 65, 406, 192
-0.999558, 301, 209, 316, 224
-0.999559, 443, 65, 458, 192
-0.999559, 137, 221, 152, 236
-0.999559, 285, 123, 300, 138
-0.99956, 239, 65, 254, 192
-0.99956, 129, 143, 144, 158
-0.999561, 211, 273, 226, 288
-0.999562, 393, 227, 408, 242
-0.999562, 217, 215, 232, 230
-0.999562, 349, 221, 364, 236
-0.999562, 93, 189, 108, 204
-0.999562, 197, 203, 212, 218
-0.999563, 463, 227, 478, 242
-0.999563, 87, 81, 102, 208
-0.999563, 313, 129, 328, 144
-0.999564, 147, 163, 162, 178
-0.999564, 109, 135, 124, 150
-0.999564, 111, 97, 126, 224
-0.999564, 447, 227, 462, 242
-0.999565, 23, 177, 38, 304
-0.999565, 435, 227, 450, 242
-0.999566, 471, 229, 486, 244
-0.999566, 355, 133, 370, 148
-0.999567, 329, 147, 344, 162
-0.999567, 457, 143, 472, 158
-0.999567, 113, 155, 128, 170
-0.999568, 381, 225, 396, 240
-0.999568, 425, 113, 440, 240
-0.999569, 141, 145, 156, 160
-0.999569, 55, 179, 70, 194
-0.999569, 333, 219, 348, 234
-0.999569, 289, 147, 304, 162
-0.999569, 445, 137, 460, 152
-0.999569, 315, 155, 330, 170
-0.999569, 385, 163, 400, 178
-0.99957, 211, 267, 226, 282
-0.99957, 135, 139, 150, 154
-0.999571, 479, 157, 494, 172
-0.999571, 163, 209, 178, 224
-0.999572, 45, 285, 60, 300
-0.999572, 295, 127, 310, 142
-0.999573, 31, 193, 46, 320
-0.999574, 47, 97, 62, 224
-0.999575, 43, 173, 58, 188
-0.999575, 449, 125, 464, 140
-0.999575, 427, 223, 442, 238
-0.999576, 375, 225, 390, 240
-0.999576, 265, 307, 280, 322
-0.999576, 269, 147, 284, 162
-0.999577, 461, 149, 476, 164
-0.999578, 279, 141, 294, 156
-0.999578, 259, 65, 274, 192
-0.999578, 415, 227, 430, 242
-0.999578, 237, 163, 252, 178
-0.999579, 311, 135, 326, 150
-0.999579, 221, 207, 236, 222
-0.99958, 93, 195, 108, 210
-0.99958, 169, 213, 184, 228
-0.999581, 169, 199, 184, 214
-0.999581, 409, 229, 424, 244
-0.999581, 35, 219, 50, 234
-0.999582, 471, 129, 486, 144
-0.999582, 223, 279, 238, 294
-0.999582, 315, 215, 330, 230
-0.999582, 449, 65, 464, 192
-0.999583, 243, 213, 258, 228
-0.999584, 325, 221, 340, 236
-0.999585, 151, 219, 166, 234
-0.999585, 109, 197, 124, 212
-0.999586, 107, 161, 122, 176
-0.999586, 103, 193, 118, 208
-0.999587, 287, 159, 302, 174
-0.999587, 297, 133, 312, 148
-0.999587, 105, 65, 120, 192
-0.999588, 249, 211, 264, 226
-0.999588, 111, 143, 126, 158
-0.999588, 307, 233, 322, 248
-0.999589, 313, 147, 328, 162
-0.99959, 287, 153, 302, 168
-0.99959, 315, 227, 330, 242
-0.99959, 483, 225, 498, 240
-0.99959, 457, 227, 472, 242
-0.99959, 253, 141, 268, 156
-0.99959, 141, 151, 156, 166
-0.999591, 179, 215, 194, 230
-0.999592, 441, 227, 456, 242
-0.999592, 389, 149, 404, 164
-0.999592, 265, 65, 280, 192
-0.999593, 141, 139, 156, 154
-0.999593, 393, 161, 408, 288
-0.999593, 481, 129, 496, 144
-0.999594, 49, 179, 64, 194
-0.999594, 171, 219, 186, 234
-0.999595, 1, 65, 32, 320
-0.999595, 217, 65, 232, 192
-0.999596, 181, 223, 196, 238
-0.999596, 283, 209, 298, 333
-0.999596, 307, 129, 322, 144
-0.999597, 297, 153, 312, 168
-0.999598, 243, 235, 258, 250
-0.999598, 327, 65, 342, 192
-0.999598, 243, 221, 258, 236
-0.999598, 101, 153, 116, 168
-0.999598, 217, 277, 232, 292
-0.9996, 159, 219, 174, 234
-0.9996, 51, 169, 66, 184
-0.999601, 227, 213, 242, 228
-0.999601, 73, 177, 88, 304
-0.999602, 311, 177, 326, 304
-0.999603, 309, 141, 324, 156
-0.999603, 143, 221, 158, 236
-0.999607, 415, 221, 430, 236
-0.999607, 129, 153, 144, 168
-0.999608, 283, 65, 298, 192
-0.999609, 135, 151, 150, 166
-0.999609, 483, 151, 498, 166
-0.999609, 359, 223, 374, 238
-0.999609, 75, 81, 90, 208
-0.99961, 451, 135, 466, 150
-0.99961, 409, 209, 424, 333
-0.99961, 441, 209, 456, 333
-0.999612, 405, 65, 420, 192
-0.999612, 101, 147, 116, 162
-0.999613, 113, 193, 128, 320
-0.999613, 147, 157, 162, 172
-0.999613, 249, 65, 264, 192
-0.999614, 437, 65, 452, 192
-0.999615, 427, 65, 442, 192
-0.999617, 343, 65, 358, 192
-0.999618, 303, 145, 318, 160
-0.999619, 113, 191, 128, 206
-0.999619, 25, 49, 56, 176
-0.99962, 237, 211, 252, 226
-0.99962, 233, 81, 248, 208
-0.999621, 123, 147, 138, 162
-0.999622, 317, 65, 332, 192
-0.999623, 85, 177, 100, 304
-0.999624, 465, 127, 480, 142
-0.999624, 465, 139, 480, 154
-0.999624, 141, 159, 156, 174
-0.999625, 135, 159, 150, 174
-0.999626, 373, 161, 388, 288
-0.999628, 471, 135, 486, 150
-0.999629, 259, 149, 274, 164
-0.999638, 467, 153, 482, 168
-0.999639, 301, 127, 316, 142
-0.99964, 279, 157, 294, 172
-0.999645, 459, 135, 474, 150
-0.999647, 387, 227, 402, 242
-0.999647, 319, 147, 334, 162
-0.999648, 103, 141, 118, 156
-0.999649, 303, 153, 318, 168
-0.999652, 237, 205, 252, 220
-0.999654, 243, 207, 258, 222
-0.99966, 123, 153, 138, 168
-0.999663, 305, 135, 320, 150
-0.999664, 113, 149, 128, 164
-0.999666, 277, 147, 292, 162
-0.999667, 485, 141, 500, 156
-0.999674, 227, 207, 242, 222
-0.999686, 135, 145, 150, 160
-0.99969, 309, 153, 324, 168
-0.999699, 269, 155, 284, 170
-0.999717, 477, 151, 492, 166
-0.999731, 25, 65, 56, 320
-0.999789, 49, 1, 80, 128
-0.999888, 285, 17, 316, 144
-0.999979, 349, 209, 380, 333
-0.999981, 309, 209, 340, 333
-1.00006, 137, 209, 168, 333
-1.00017, 1, 25, 500, 88
-1.0002, 113, 209, 144, 333
-1.00055, 1, 1, 500, 64
-1.00066, 1, 89, 500, 152
-1.00076, 209, 1, 240, 128
-1.00078, 221, 17, 252, 144
-1.00084, 61, 1, 92, 128
