1910
-0.260177, 1, 1, 333, 500
-0.360715, 1, 1, 333, 256
-0.370923, 1, 161, 333, 416
-0.391972, 1, 257, 333, 500
-0.394711, 1, 1, 256, 500
-0.521643, 33, 193, 288, 448
-0.592341, 33, 1, 288, 256
-0.678235, 33, 97, 288, 352
-0.846582, 1, 1, 128, 500
-0.852946, 65, 1, 192, 500
-0.85499, 177, 161, 304, 416
-0.8593, 81, 193, 208, 448
-0.864106, 113, 1, 240, 500
-0.864121, 129, 161, 256, 416
-0.866045, 193, 1, 320, 500
-0.871443, 1, 257, 333, 384
-0.875722, 145, 257, 272, 500
-0.876741, 177, 1, 304, 256
-0.882123, 1, 257, 128, 500
-0.882582, 49, 1, 176, 256
-0.886155, 129, 1, 256, 256
-0.886451, 1, 17, 333, 144
-0.890791, 1, 33, 128, 288
-0.891867, 33, 161, 160, 416
-0.901215, 1, 193, 333, 320
-0.903869, 1, 193, 256, 320
-0.905978, 193, 257, 320, 500
-0.907317, 1, 145, 333, 272
-0.907681, 81, 97, 208, 352
-0.917571, 65, 257, 320, 384
-0.92533, 33, 1, 288, 128
-0.927909, 1, 305, 333, 432
-0.929784, 161, 225, 224, 352
-0.932247, 1, 145, 256, 272
-0.935459, 65, 305, 320, 432
-0.937105, 1, 97, 333, 224
-0.937567, 1, 353, 333, 480
-0.937857, 201, 241, 264, 368
-0.940068, 1, 353, 256, 480
-0.94015, 33, 193, 160, 320
-0.940319, 209, 257, 333, 384
-0.940481, 49, 369, 176, 496
-0.941302, 81, 209, 208, 336
-0.94282, 129, 177, 256, 304
-0.944314, 129, 241, 256, 368
-0.945098, 209, 17, 333, 144
-0.94593, 33, 1, 160, 128
-0.946463, 193, 193, 256, 320
-0.947758, 1, 321, 128, 448
-0.947846, 121, 177, 184, 304
-0.947892, 225, 257, 288, 384
-0.947898, 145, 1, 272, 128
-0.948144, 241, 17, 304, 144
-0.949745, 41, 193, 104, 320
-0.950795, 273, 1, 333, 128
-0.950988, 129, 129, 256, 256
-0.951523, 177, 209, 304, 336
-0.952423, 217, 17, 280, 144
-0.952469, 129, 273, 192, 400
-0.952616, 41, 1, 104, 128
-0.952691, 153, 161, 216, 288
-0.95297, 209, 161, 333, 288
-0.953803, 49, 129, 176, 256
-0.954031, 33, 97, 288, 224
-0.954056, 81, 273, 208, 400
-0.954122, 1, 257, 128, 384
-0.954177, 193, 1, 256, 128
-0.954233, 137, 225, 200, 352
-0.95463, 9, 145, 72, 272
-0.955434, 89, 353, 152, 480
-0.956235, 33, 241, 96, 368
-0.956613, 129, 289, 256, 416
-0.956654, 73, 1, 136, 128
-0.957058, 33, 321, 96, 448
-0.957398, 257, 257, 320, 384
-0.957704, 113, 193, 176, 256
-0.95794, 73, 273, 136, 400
-0.958294, 169, 1, 232, 128
-0.958602, 81, 17, 208, 144
-0.959017, 97, 193, 160, 320
-0.959092, 49, 201, 112, 264
-0.959559, 145, 233, 208, 296
-0.960149, 161, 265, 224, 328
-0.960228, 161, 289, 224, 416
-0.960251, 1, 145, 128, 272
-0.96062, 97, 1, 160, 128
-0.960788, 65, 193, 128, 320
-0.960944, 233, 161, 296, 288
-0.961293, 81, 321, 208, 448
-0.961765, 113, 369, 176, 496
-0.961892, 185, 257, 248, 320
-0.962002, 249, 265, 312, 328
-0.962013, 9, 257, 72, 384
-0.962066, 33, 49, 288, 176
-0.962895, 273, 1, 333, 64
-0.962984, 137, 273, 200, 336
-0.963347, 49, 129, 112, 256
-0.964265, 65, 345, 128, 408
-0.964453, 49, 369, 112, 496
-0.964757, 97, 17, 160, 80
-0.966165, 89, 201, 152, 264
-0.967236, 9, 145, 72, 208
-0.967415, 201, 161, 264, 416
-0.967501, 193, 217, 256, 280
-0.967539, 33, 1, 96, 64
-0.967663, 241, 33, 304, 96
-0.967693, 17, 1, 80, 128
-0.967972, 233, 161, 296, 416
-0.967975, 201, 289, 264, 416
-0.968064, 137, 297, 200, 360
-0.968117, 193, 17, 256, 80
-0.968709, 181, 225, 212, 352
-0.969123, 153, 225, 216, 480
-0.969181, 217, 97, 280, 224
-0.969363, 209, 257, 272, 320
-0.969734, 265, 41, 328, 104
-0.969824, 89, 361, 152, 424
-0.969846, 105, 289, 168, 416
-0.970102, 57, 1, 120, 64
-0.970152, 233, 289, 296, 352
-0.970206, 49, 233, 112, 296
-0.970282, 209, 97, 333, 224
-0.970324, 177, 305, 304, 432
-0.970439, 9, 193, 72, 320
-0.970531, 193, 281, 256, 344
-0.970534, 217, 25, 280, 88
-0.9707, 153, 185, 216, 248
-0.970756, 1, 49, 128, 176
-0.971177, 153, 1, 216, 64
-0.971369, 121, 161, 184, 416
-0.971666, 233, 161, 296, 224
-0.971759, 241, 305, 304, 432
-0.971805, 161, 305, 224, 368
-0.971934, 105, 313, 168, 376
-0.97204, 169, 41, 232, 104
-0.972055, 145, 49, 272, 176
-0.972108, 33, 225, 96, 480
-0.97218, 121, 377, 184, 440
-0.972263, 193, 41, 256, 104
-0.972319, 129, 129, 192, 256
-0.972476, 225, 1, 288, 256
-0.972812, 165, 225, 196, 352
-0.972837, 249, 9, 312, 72
-0.972983, 193, 25, 320, 88
-0.973368, 97, 193, 160, 448
-0.97347, 113, 265, 176, 328
-0.973665, 41, 65, 104, 192
-0.973716, 9, 321, 72, 448
-0.973755, 193, 241, 224, 368
-0.973847, 97, 369, 224, 496
-0.973948, 233, 57, 296, 120
-0.974143, 257, 1, 320, 256
-0.974223, 41, 145, 104, 208
-0.974234, 169, 225, 232, 288
-0.974389, 81, 65, 208, 192
-0.974416, 57, 321, 120, 448
-0.974551, 225, 209, 288, 336
-0.974551, 145, 257, 272, 320
-0.974625, 33, 329, 96, 392
-0.974633, 89, 241, 152, 304
-0.974679, 49, 201, 176, 264
-0.974705, 273, 281, 333, 344
-0.975002, 281, 1, 312, 64
-0.975109, 9, 201, 72, 264
-0.975158, 273, 113, 333, 240
-0.975229, 145, 177, 176, 304
-0.975683, 169, 265, 200, 328
-0.97575, 113, 225, 240, 288
-0.975893, 41, 217, 72, 280
-0.975994, 57, 321, 120, 384
-0.976117, 97, 193, 224, 256
-0.976187, 73, 193, 136, 448
-0.976261, 1, 1, 128, 64
-0.97635, 49, 257, 112, 320
-0.976385, 209, 321, 272, 384
-0.97643, 169, 1, 232, 256
-0.976466, 105, 129, 168, 256
-0.976682, 217, 1, 248, 128
-0.976716, 157, 273, 188, 336
-0.976792, 33, 433, 96, 496
-0.976848, 1, 369, 128, 496
-0.97691, 257, 161, 320, 416
-0.97693, 81, 305, 144, 368
-0.976983, 153, 129, 216, 384
-0.977067, 129, 129, 192, 192
-0.977537, 105, 1, 136, 128
-0.977596, 177, 225, 240, 480
-0.9776, 209, 225, 240, 352
-0.977691, 229, 241, 260, 368
-0.977702, 237, 257, 268, 320
-0.977806, 225, 257, 288, 500
-0.977948, 121, 17, 184, 144
-0.977989, 257, 65, 320, 128
-0.978071, 145, 33, 208, 96
-0.978118, 81, 273, 208, 336
-0.978204, 49, 177, 112, 240
-0.978214, 193, 49, 256, 176
-0.978249, 65, 377, 192, 440
-0.978301, 201, 257, 264, 500
-0.978325, 9, 177, 72, 240
-0.978456, 17, 49, 80, 176
-0.978472, 121, 225, 184, 288
-0.978539, 121, 25, 184, 88
-0.978545, 257, 305, 320, 368
-0.978672, 1, 321, 128, 384
-0.978748, 145, 9, 272, 72
-0.978876, 9, 129, 72, 384
-0.97891, 189, 225, 220, 288
-0.978983, 73, 145, 136, 272
-0.979014, 145, 297, 272, 360
-0.979014, 113, 289, 176, 352
-0.979058, 73, 289, 104, 416
-0.979128, 97, 1, 160, 256
-0.979157, 209, 161, 333, 224
-0.97924, 245, 257, 276, 384
-0.97928, 81, 25, 208, 88
-0.979327, 121, 417, 184, 480
-0.979372, 89, 193, 120, 320
-0.979425, 209, 265, 333, 328
-0.979481, 1, 321, 64, 384
-0.979491, 65, 377, 128, 440
-0.979513, 153, 113, 216, 240
-0.979521, 81, 273, 144, 336
-0.979697, 161, 273, 192, 400
-0.979699, 41, 65, 104, 320
-0.979784, 145, 1, 208, 128
-0.979881, 265, 257, 296, 384
-0.979924, 49, 193, 80, 320
-0.979972, 97, 337, 160, 400
-0.980088, 165, 177, 196, 304
-0.980109, 25, 265, 88, 328
-0.980111, 225, 1, 288, 64
-0.980121, 145, 177, 272, 240
-0.980136, 233, 241, 296, 304
-0.980174, 49, 305, 176, 368
-0.98022, 145, 337, 208, 464
-0.980256, 217, 249, 248, 312
-0.980312, 193, 1, 320, 64
-0.98052, 57, 1, 120, 500
-0.98057, 181, 1, 212, 128
-0.980602, 265, 49, 328, 176
-0.980638, 33, 305, 96, 368
-0.980696, 53, 201, 84, 264
-0.980701, 37, 241, 68, 368
-0.980721, 245, 33, 276, 96
-0.980727, 121, 345, 184, 408
-0.98074, 261, 17, 292, 144
-0.980767, 9, 233, 72, 296
-0.980774, 185, 305, 248, 368
-0.980841, 89, 353, 120, 416
-0.981076, 245, 17, 276, 144
-0.981095, 129, 153, 192, 216
-0.981114, 169, 233, 200, 296
-0.981173, 257, 257, 320, 500
-0.981259, 17, 49, 80, 112
-0.9814, 205, 1, 236, 128
-0.98144, 33, 233, 160, 296
-0.98151, 9, 225, 72, 480
-0.981559, 153, 161, 216, 224
-0.981564, 145, 1, 208, 256
-0.981605, 193, 65, 256, 320
-0.981613, 197, 193, 228, 320
-0.98163, 41, 369, 104, 432
-0.981634, 193, 65, 256, 128
-0.981643, 65, 201, 96, 264
-0.98175, 81, 1, 112, 64
-0.981786, 9, 33, 72, 288
-0.981822, 121, 65, 184, 320
-0.981852, 237, 281, 268, 344
-0.981855, 193, 289, 320, 352
-0.981883, 161, 49, 288, 112
-0.981914, 65, 1, 96, 128
-0.981992, 193, 185, 256, 248
-0.982012, 97, 1, 224, 64
-0.982059, 189, 249, 220, 312
-0.982064, 17, 257, 144, 320
-0.982108, 153, 225, 184, 352
-0.98219, 73, 129, 136, 192
-0.982193, 109, 193, 140, 320
-0.98226, 49, 137, 176, 200
-0.982287, 141, 193, 172, 256
-0.982305, 145, 393, 208, 456
-0.982322, 85, 201, 116, 264
-0.982413, 121, 257, 184, 500
-0.982418, 225, 49, 256, 112
-0.982528, 77, 369, 108, 496
-0.982685, 1, 201, 128, 264
-0.982709, 65, 401, 128, 464
-0.982781, 213, 273, 244, 400
-0.982945, 65, 353, 192, 416
-0.982983, 225, 281, 256, 344
-0.982994, 37, 145, 68, 272
-0.983002, 73, 345, 104, 408
-0.983052, 165, 297, 196, 360
-0.983099, 185, 145, 248, 272
-0.983105, 1, 1, 64, 64
-0.98312, 273, 153, 333, 216
-0.983161, 257, 209, 320, 336
-0.983179, 37, 145, 68, 208
-0.98324, 145, 353, 272, 480
-0.983268, 85, 321, 116, 448
-0.983277, 25, 1, 56, 128
-0.983287, 233, 17, 264, 144
-0.98329, 177, 1, 240, 500
-0.98334, 97, 433, 160, 496
-0.983358, 33, 401, 160, 464
-0.983372, 233, 321, 296, 384
-0.983456, 117, 17, 148, 80
-0.983501, 285, 257, 316, 384
-0.983529, 85, 1, 116, 128
-0.983557, 33, 1, 96, 500
-0.983559, 237, 57, 268, 120
-0.983563, 97, 249, 224, 312
-0.983617, 157, 233, 188, 296
-0.983634, 261, 265, 292, 328
-0.983644, 193, 313, 320, 376
-0.983654, 145, 281, 176, 344
-0.983665, 1, 177, 128, 240
-0.983698, 193, 9, 224, 72
-0.983791, 9, 297, 72, 360
-0.983813, 193, 1, 224, 128
-0.98388, 269, 33, 300, 96
-0.983884, 209, 49, 333, 112
-0.983892, 57, 289, 120, 352
-0.983939, 129, 153, 256, 216
-0.983992, 177, 225, 304, 288
-0.984006, 89, 177, 152, 240
-0.984097, 41, 393, 104, 456
-0.984101, 1, 25, 64, 88
-0.98415, 85, 273, 116, 400
-0.984228, 273, 1, 304, 128
-0.984233, 225, 81, 288, 144
-0.984251, 109, 193, 140, 256
-0.984336, 57, 321, 88, 448
-0.984399, 9, 1, 72, 500
-0.984422, 161, 369, 224, 432
-0.984483, 181, 33, 212, 96
-0.984524, 73, 49, 136, 176
-0.984619, 145, 209, 208, 272
-0.984627, 233, 25, 264, 88
-0.984675, 97, 241, 160, 368
-0.984682, 65, 305, 96, 368
-0.984796, 141, 129, 172, 256
-0.984833, 217, 17, 248, 80
-0.98484, 273, 1, 333, 500
-0.984875, 69, 193, 100, 320
-0.984877, 121, 193, 152, 320
-0.984878, 53, 1, 84, 128
-0.98491, 97, 201, 128, 264
-0.984914, 205, 249, 236, 312
-0.984916, 193, 97, 256, 224
-0.985005, 41, 185, 72, 248
-0.985026, 113, 1, 176, 500
-0.985027, 1, 145, 128, 208
-0.985034, 57, 137, 88, 200
-0.985068, 209, 177, 240, 304
-0.985084, 281, 273, 312, 336
-0.985114, 225, 1, 288, 500
-0.985151, 49, 113, 112, 176
-0.985152, 181, 177, 212, 304
-0.985153, 81, 57, 208, 120
-0.985176, 129, 105, 192, 168
-0.985198, 1, 377, 128, 440
-0.985275, 129, 369, 160, 496
-0.985275, 57, 65, 120, 128
-0.985283, 97, 329, 224, 392
-0.985299, 41, 1, 72, 64
-0.985362, 193, 41, 224, 104
-0.985362, 201, 217, 232, 280
-0.98541, 189, 289, 220, 352
-0.98542, 181, 273, 212, 400
-0.985516, 137, 1, 200, 500
-0.985532, 73, 425, 136, 488
-0.9856, 81, 65, 144, 128
-0.985608, 241, 113, 304, 240
-0.985642, 125, 289, 156, 416
-0.985668, 9, 409, 72, 472
-0.98572, 257, 161, 320, 288
-0.985724, 1, 353, 128, 416
-0.985734, 49, 241, 80, 368
-0.985741, 73, 1, 136, 256
-0.985783, 169, 1, 200, 64
-0.98592, 1, 33, 128, 96
-0.985935, 265, 305, 328, 432
-0.985942, 209, 145, 272, 272
-0.985945, 73, 97, 136, 352
-0.985945, 73, 369, 104, 432
-0.986083, 113, 369, 144, 496
-0.986154, 213, 281, 244, 344
-0.986278, 121, 193, 152, 256
-0.986281, 21, 145, 52, 272
-0.986299, 105, 17, 136, 80
-0.986342, 81, 1, 144, 500
-0.986371, 193, 185, 320, 248
-0.9864, 53, 129, 84, 256
-0.9864, 165, 129, 196, 256
-0.986454, 101, 289, 132, 416
-0.986461, 197, 289, 228, 416
-0.986465, 85, 321, 116, 384
-0.986533, 141, 385, 172, 448
-0.986562, 17, 425, 144, 488
-0.986565, 169, 81, 232, 144
-0.986583, 1, 257, 64, 320
-0.98662, 161, 169, 192, 232
-0.986625, 49, 329, 176, 392
-0.986661, 61, 273, 92, 400
-0.986671, 233, 233, 264, 296
-0.986721, 149, 273, 180, 400
-0.986757, 201, 89, 264, 152
-0.986882, 49, 169, 176, 232
-0.98693, 153, 129, 184, 256
-0.986939, 193, 153, 256, 216
-0.986977, 269, 1, 300, 64
-0.987014, 301, 1, 332, 128
-0.987024, 25, 193, 56, 320
-0.987048, 117, 1, 148, 128
-0.987058, 293, 49, 324, 112
-0.987146, 97, 41, 160, 104
-0.987148, 201, 1, 264, 500
-0.987234, 113, 289, 144, 416
-0.987252, 249, 289, 280, 352
-0.987253, 169, 49, 232, 176
-0.987259, 29, 1, 60, 64
-0.987317, 145, 321, 272, 384
-0.98734, 113, 81, 240, 144
-0.987341, 133, 273, 164, 336
-0.987385, 97, 305, 224, 368
-0.987422, 221, 177, 252, 304
-0.987428, 41, 241, 72, 304
-0.987496, 93, 233, 124, 296
-0.987548, 57, 329, 88, 392
-0.987554, 33, 57, 160, 120
-0.987586, 249, 1, 312, 500
-0.987604, 57, 369, 88, 496
-0.987652, 25, 209, 56, 272
-0.987663, 161, 129, 288, 192
-0.987666, 9, 97, 72, 224
-0.987668, 129, 313, 160, 376
-0.987828, 121, 289, 152, 352
-0.987842, 1, 297, 128, 360
-0.987869, 105, 329, 136, 392
-0.987872, 249, 257, 280, 320
-0.98788, 145, 201, 272, 264
-0.987885, 97, 353, 128, 480
-0.987921, 53, 305, 84, 368
-0.987998, 209, 73, 333, 136
-0.988012, 9, 1, 40, 128
-0.988104, 93, 1, 124, 64
-0.988104, 209, 313, 240, 376
-0.98812, 293, 1, 324, 64
-0.988126, 49, 1, 176, 64
-0.988149, 153, 193, 184, 256
-0.988184, 181, 1, 212, 64
-0.988206, 97, 129, 160, 192
-0.988207, 89, 281, 120, 344
-0.988221, 201, 281, 232, 344
-0.988247, 205, 49, 236, 176
-0.988264, 129, 321, 192, 384
-0.988268, 57, 41, 120, 104
-0.988287, 225, 81, 256, 208
-0.988293, 97, 49, 160, 176
-0.988297, 61, 1, 92, 64
-0.988346, 81, 425, 208, 488
-0.988379, 233, 161, 264, 288
-0.988418, 285, 1, 316, 128
-0.988428, 225, 105, 288, 168
-0.988441, 29, 233, 60, 296
-0.988443, 169, 137, 232, 200
-0.98846, 137, 57, 200, 120
-0.988534, 169, 1, 200, 128
-0.98857, 177, 305, 208, 368
-0.988661, 161, 81, 288, 144
-0.988692, 249, 57, 280, 120
-0.988704, 301, 49, 332, 176
-0.98874, 25, 33, 56, 96
-0.988776, 25, 369, 88, 496
-0.988814, 97, 97, 160, 352
-0.988814, 41, 321, 72, 384
-0.988835, 261, 65, 292, 128
-0.98887, 257, 1, 288, 64
-0.988882, 213, 49, 244, 112
-0.988886, 25, 113, 88, 176
-0.988892, 133, 177, 164, 304
-0.98891, 145, 25, 176, 88
-0.988912, 129, 401, 256, 464
-0.988964, 169, 329, 232, 392
-0.988974, 141, 369, 172, 496
-0.988976, 113, 369, 144, 432
-0.989047, 65, 145, 96, 272
-0.989053, 25, 25, 88, 88
-0.989083, 41, 1, 72, 128
-0.989132, 101, 361, 132, 424
-0.989136, 149, 17, 180, 144
-0.989154, 145, 345, 208, 408
-0.989198, 141, 225, 172, 352
-0.989202, 73, 225, 104, 288
-0.989203, 49, 209, 112, 240
-0.989252, 49, 113, 176, 176
-0.989324, 101, 265, 132, 328
-0.989326, 37, 193, 68, 320
-0.989327, 165, 193, 196, 256
-0.989418, 233, 185, 296, 248
-0.989429, 193, 257, 256, 288
-0.989485, 213, 217, 244, 280
-0.989535, 89, 401, 152, 464
-0.989591, 121, 197, 184, 228
-0.989664, 13, 257, 44, 384
-0.989683, 213, 81, 244, 144
-0.989699, 249, 289, 312, 320
-0.989707, 293, 281, 324, 344
-0.989726, 81, 249, 112, 312
-0.989778, 157, 33, 188, 96
-0.989786, 145, 249, 176, 312
-0.989838, 53, 233, 84, 296
-0.989842, 129, 1, 192, 64
-0.989857, 277, 297, 308, 360
-0.989882, 241, 65, 304, 192
-0.989909, 25, 1, 88, 32
-0.989942, 161, 145, 192, 208
-0.989957, 129, 353, 256, 416
-0.990026, 257, 25, 288, 88
-0.990035, 145, 305, 176, 368
-0.99006, 153, 393, 184, 456
-0.990074, 1, 193, 256, 256
-0.99012, 113, 65, 176, 128
-0.990143, 13, 321, 44, 448
-0.990147, 89, 377, 120, 440
-0.990148, 273, 1, 333, 32
-0.99015, 217, 137, 280, 200
-0.990184, 89, 205, 152, 236
-0.990202, 225, 289, 256, 416
-0.990237, 41, 321, 72, 448
-0.990242, 209, 281, 272, 312
-0.990246, 57, 9, 120, 40
-0.99025, 133, 345, 164, 408
-0.990255, 145, 169, 176, 232
-0.990288, 233, 169, 264, 232
-0.990288, 193, 313, 224, 376
-0.990385, 169, 113, 232, 176
-0.990404, 169, 265, 232, 296
-0.990428, 273, 257, 333, 320
-0.990451, 97, 21, 160, 52
-0.99046, 153, 277, 216, 308
-0.990512, 49, 81, 176, 144
-0.990512, 241, 269, 304, 300
-0.990568, 153, 41, 216, 72
-0.990577, 253, 305, 284, 432
-0.990599, 145, 297, 208, 328
-0.990604, 153, 121, 184, 184
-0.990609, 225, 81, 256, 144
-0.99063, 49, 225, 112, 256
-0.990638, 1, 321, 32, 448
-0.990649, 9, 153, 72, 184
-0.990652, 101, 305, 132, 368
-0.990654, 205, 17, 236, 80
-0.990714, 193, 297, 256, 328
-0.990727, 1, 145, 256, 208
-0.990752, 153, 237, 216, 268
-0.990759, 17, 333, 80, 364
-0.990774, 117, 337, 148, 400
-0.990787, 105, 233, 136, 296
-0.990809, 233, 33, 296, 64
-0.990824, 49, 317, 112, 348
-0.990841, 17, 145, 48, 208
-0.99086, 245, 153, 276, 216
-0.990871, 65, 393, 128, 424
-0.990873, 121, 129, 152, 256
-0.990892, 113, 221, 176, 252
-0.990903, 17, 1, 48, 64
-0.990956, 177, 41, 240, 72
-0.990977, 145, 417, 208, 480
-0.990991, 233, 165, 296, 196
-0.991009, 153, 217, 216, 248
-0.991023, 249, 17, 312, 48
-0.991029, 121, 209, 184, 240
-0.991031, 49, 237, 112, 268
-0.991043, 77, 297, 108, 360
-0.99105, 97, 129, 224, 192
-0.991073, 53, 433, 84, 496
-0.99109, 29, 321, 60, 384
-0.991095, 301, 25, 332, 88
-0.991109, 77, 129, 108, 192
-0.99111, 133, 249, 164, 312
-0.99112, 121, 281, 184, 312
-0.99112, 25, 273, 88, 304
-0.991125, 85, 145, 116, 272
-0.991132, 73, 225, 136, 256
-0.991138, 33, 265, 64, 328
-0.991156, 209, 105, 333, 168
-0.991162, 73, 401, 104, 464
-0.991172, 193, 225, 256, 256
-0.991195, 121, 293, 184, 324
-0.991203, 209, 25, 272, 56
-0.991208, 265, 277, 328, 308
-0.991227, 1, 1, 64, 32
-0.991235, 129, 425, 160, 488
-0.991243, 185, 89, 248, 120
-0.991244, 73, 241, 104, 368
-0.991275, 73, 333, 136, 364
-0.991278, 73, 105, 136, 168
-0.991279, 153, 185, 216, 216
-0.991289, 33, 261, 96, 292
-0.991296, 57, 349, 120, 380
-0.991301, 49, 145, 112, 176
-0.991328, 65, 361, 128, 392
-0.991338, 97, 377, 160, 408
-0.991374, 233, 321, 264, 384
-0.991377, 65, 381, 128, 412
-0.991382, 85, 49, 116, 176
-0.991384, 273, 65, 304, 128
-0.991402, 257, 41, 320, 72
-0.991435, 137, 29, 200, 60
-0.991436, 285, 73, 316, 136
-0.991442, 241, 97, 272, 224
-0.991448, 25, 257, 56, 384
-0.991459, 217, 261, 280, 292
-0.991473, 273, 21, 333, 52
-0.99148, 129, 65, 192, 192
-0.99149, 161, 309, 224, 340
-0.991497, 217, 217, 280, 280
-0.991518, 9, 217, 72, 248
-0.99152, 9, 201, 72, 232
-0.991521, 265, 317, 328, 348
-0.991525, 185, 313, 248, 344
-0.991552, 233, 301, 296, 332
-0.991559, 241, 305, 272, 432
-0.991579, 1, 161, 32, 288
-0.991581, 133, 25, 164, 88
-0.991589, 185, 285, 248, 316
-0.991612, 9, 229, 72, 260
-0.991625, 257, 69, 320, 100
-0.991638, 209, 57, 272, 88
-0.99164, 105, 317, 168, 348
-0.991669, 129, 105, 256, 168
-0.991676, 165, 369, 196, 432
-0.991687, 41, 337, 104, 368
-0.991701, 273, 53, 333, 84
-0.991718, 89, 365, 152, 396
-0.991725, 97, 241, 128, 368
-0.991737, 209, 85, 272, 116
-0.991743, 265, 313, 296, 376
-0.99175, 1, 273, 64, 304
-0.991755, 1, 209, 32, 272
-0.991767, 1, 121, 64, 184
-0.991769, 97, 145, 128, 272
-0.991794, 81, 5, 144, 36
-0.991807, 233, 177, 296, 208
-0.991816, 169, 337, 232, 464
-0.991818, 81, 401, 208, 464
-0.991823, 41, 449, 104, 480
-0.991833, 153, 337, 184, 464
-0.991836, 233, 65, 296, 96
-0.991856, 49, 249, 112, 280
-0.991874, 105, 269, 168, 300
-0.991911, 73, 237, 136, 268
-0.991929, 81, 277, 144, 308
-0.991929, 129, 309, 192, 340
-0.991933, 49, 197, 112, 228
-0.991941, 113, 377, 240, 440
-0.991957, 277, 193, 308, 320
-0.991971, 9, 249, 72, 280
-0.991981, 121, 237, 184, 268
-0.992001, 73, 309, 136, 340
-0.992054, 17, 321, 80, 352
-0.992056, 209, 245, 272, 276
-0.992077, 81, 249, 144, 280
-0.992086, 1, 53, 64, 84
-0.992089, 153, 205, 216, 236
-0.992096, 33, 305, 288, 368
-0.9921, 81, 453, 144, 484
-0.99211, 193, 269, 256, 300
-0.992114, 73, 441, 136, 472
-0.992121, 57, 261, 120, 292
-0.99213, 121, 385, 184, 416
-0.992143, 145, 373, 208, 404
-0.992152, 97, 345, 160, 376
-0.99216, 193, 73, 256, 104
-0.992162, 129, 145, 192, 176
-0.992163, 225, 329, 288, 360
-0.992192, 33, 1, 288, 64
-0.992206, 105, 89, 168, 152
-0.992214, 97, 293, 160, 324
-0.992235, 241, 5, 304, 36
-0.992243, 217, 129, 248, 256
-0.992276, 1, 261, 64, 292
-0.992279, 1, 17, 64, 48
-0.992284, 241, 317, 304, 348
-0.992291, 273, 193, 333, 256
-0.992296, 17, 369, 80, 432
-0.992318, 33, 233, 288, 296
-0.99235, 177, 237, 240, 268
-0.992354, 121, 433, 184, 464
-0.992367, 129, 321, 192, 352
-0.992369, 185, 13, 248, 44
-0.992371, 273, 173, 333, 204
-0.99238, 69, 65, 100, 192
-0.992383, 145, 249, 208, 280
-0.992391, 9, 173, 72, 204
-0.992402, 201, 45, 264, 76
-0.992406, 169, 253, 232, 284
-0.992415, 169, 29, 232, 60
-0.992426, 233, 285, 264, 316
-0.992437, 121, 401, 184, 432
-0.992457, 49, 273, 112, 304
-0.992457, 113, 357, 176, 388
-0.992461, 65, 405, 128, 436
-0.992466, 113, 57, 176, 88
-0.992468, 169, 69, 232, 100
-0.992474, 105, 445, 168, 476
-0.992482, 153, 53, 216, 84
-0.992489, 1, 41, 64, 72
-0.992509, 9, 189, 72, 220
-0.992513, 41, 293, 104, 324
-0.992516, 25, 65, 88, 96
-0.992532, 73, 21, 136, 52
-0.992536, 113, 33, 176, 64
-0.992556, 37, 1, 68, 32
-0.992562, 201, 325, 264, 356
-0.992569, 41, 221, 72, 252
-0.992574, 97, 329, 160, 360
-0.99258, 137, 421, 200, 452
-0.992605, 121, 185, 184, 216
-0.992618, 245, 289, 276, 320
-0.992619, 161, 9, 224, 40
-0.992619, 89, 389, 152, 420
-0.99263, 85, 5, 116, 36
-0.99263, 49, 209, 80, 240
-0.992647, 1, 113, 128, 176
-0.992669, 181, 41, 212, 72
-0.992683, 117, 201, 148, 232
-0.992707, 201, 253, 232, 284
-0.992716, 213, 85, 244, 116
-0.992716, 137, 197, 168, 228
-0.992733, 213, 257, 244, 288
-0.992749, 153, 277, 184, 308
-0.99275, 181, 261, 212, 292
-0.992759, 105, 21, 136, 52
-0.992765, 81, 205, 112, 236
-0.992771, 41, 49, 72, 176
-0.992772, 281, 1, 312, 32
-0.992783, 285, 277, 316, 308
-0.992798, 105, 201, 136, 232
-0.992846, 57, 145, 88, 176
-0.992846, 41, 237, 72, 268
-0.992864, 53, 233, 84, 264
-0.992871, 157, 33, 188, 64
-0.992879, 25, 1, 56, 32
-0.992881, 293, 1, 324, 32
-0.992886, 213, 277, 244, 308
-0.992896, 229, 57, 260, 88
-0.992905, 89, 229, 120, 260
-0.992908, 73, 381, 104, 412
-0.992911, 93, 17, 124, 48
-0.992923, 233, 273, 264, 304
-0.992923, 93, 205, 124, 236
-0.99293, 153, 297, 184, 328
-0.992935, 165, 273, 196, 304
-0.992942, 117, 21, 148, 52
-0.99296, 33, 169, 288, 232
-0.992962, 97, 217, 128, 248
-0.992968, 89, 357, 120, 388
-0.99297, 73, 397, 104, 428
-0.99298, 261, 273, 292, 304
-0.992981, 33, 153, 64, 184
-0.992981, 145, 33, 176, 64
-0.992998, 245, 61, 276, 92
-0.992999, 85, 393, 116, 424
-0.993022, 197, 37, 228, 68
-0.993023, 229, 89, 260, 120
-0.993029, 257, 21, 288, 52
-0.993047, 65, 209, 96, 240
-0.993053, 265, 209, 296, 336
-0.993055, 197, 77, 228, 108
-0.993058, 225, 261, 256, 292
-0.993058, 273, 277, 304, 308
-0.993064, 137, 285, 168, 316
-0.993066, 33, 273, 64, 304
-0.993069, 277, 21, 308, 52
-0.99307, 237, 257, 268, 288
-0.993072, 45, 261, 76, 292
-0.993077, 1, 377, 256, 440
-0.993079, 109, 145, 140, 272
-0.993083, 181, 233, 212, 264
-0.993084, 41, 249, 72, 280
-0.9931, 65, 225, 96, 256
-0.993101, 249, 161, 280, 192
-0.993105, 89, 337, 120, 368
-0.993106, 73, 5, 104, 36
-0.993106, 217, 289, 248, 320
-0.993109, 9, 209, 40, 336
-0.993114, 165, 293, 196, 324
-0.99312, 161, 185, 192, 216
-0.99312, 97, 241, 128, 272
-0.993125, 33, 257, 288, 320
-0.993125, 213, 73, 244, 104
-0.993126, 189, 249, 220, 280
-0.993133, 29, 217, 60, 248
-0.993133, 197, 281, 228, 312
-0.993134, 177, 309, 208, 340
-0.993134, 125, 321, 156, 352
-0.993138, 229, 245, 260, 276
-0.993145, 185, 293, 216, 324
-0.993153, 97, 49, 128, 176
-0.993155, 33, 261, 64, 292
-0.993158, 129, 17, 160, 144
-0.993158, 97, 5, 128, 36
-0.993158, 193, 225, 224, 256
-0.993161, 77, 229, 108, 260
-0.993162, 249, 269, 280, 300
-0.993167, 201, 89, 232, 120
-0.993169, 53, 5, 84, 36
-0.993171, 217, 53, 248, 84
-0.993176, 49, 321, 80, 352
-0.993178, 165, 305, 196, 336
-0.993181, 161, 221, 192, 252
-0.993183, 149, 193, 180, 224
-0.993185, 145, 393, 176, 424
-0.993194, 53, 49, 84, 176
-0.993194, 37, 325, 68, 356
-0.993198, 17, 277, 48, 308
-0.9932, 249, 145, 280, 272
-0.993208, 257, 89, 320, 152
-0.993209, 53, 221, 84, 252
-0.993212, 233, 301, 264, 332
-0.993221, 85, 281, 116, 312
-0.993222, 109, 213, 140, 244
-0.993223, 77, 349, 108, 380
-0.993224, 117, 297, 148, 328
-0.993225, 301, 77, 332, 108
-0.99323, 25, 41, 56, 72
-0.993236, 169, 237, 200, 268
-0.993236, 193, 265, 224, 296
-0.993237, 201, 49, 232, 80
-0.993244, 109, 369, 140, 400
-0.993247, 129, 25, 160, 56
-0.993247, 161, 173, 192, 204
-0.993247, 181, 85, 212, 116
-0.993251, 1, 281, 32, 312
-0.993252, 65, 341, 96, 372
-0.993253, 61, 313, 92, 344
-0.993257, 129, 381, 160, 412
-0.993257, 269, 289, 300, 320
-0.993257, 73, 293, 104, 324
-0.993259, 49, 333, 80, 364
-0.993262, 13, 1, 44, 32
-0.993266, 149, 241, 180, 272
-0.993268, 129, 309, 160, 340
-0.99327, 269, 5, 300, 36
-0.993275, 217, 25, 248, 56
-0.993277, 165, 45, 196, 76
-0.993277, 13, 337, 44, 368
-0.993279, 265, 65, 296, 96
-0.993286, 233, 329, 264, 360
-0.993289, 289, 73, 320, 104
-0.993289, 89, 297, 120, 328
-0.99329, 93, 405, 124, 436
-0.99329, 145, 181, 176, 212
-0.993293, 273, 313, 304, 344
-0.993298, 109, 241, 140, 272
-0.9933, 197, 313, 228, 344
-0.9933, 73, 321, 104, 352
-0.993307, 73, 305, 104, 336
-0.99331, 129, 273, 160, 304
-0.99331, 105, 309, 136, 340
-0.993341, 249, 137, 312, 200
-0.993377, 161, 377, 288, 440
-0.993432, 265, 305, 296, 432
-0.99344, 25, 73, 88, 136
-0.993532, 1, 305, 333, 368
-0.993538, 297, 257, 328, 384
-0.993547, 65, 25, 320, 88
-0.993578, 1, 9, 333, 72
-0.993656, 209, 137, 333, 200
-0.993837, 29, 321, 60, 448
-0.993852, 269, 65, 300, 192
-0.993871, 289, 49, 320, 176
-0.993887, 65, 281, 320, 344
-0.99398, 193, 29, 320, 60
-0.994227, 129, 425, 256, 488
-0.994254, 283, 1, 298, 64
-0.994264, 105, 153, 168, 216
-0.9944, 165, 273, 180, 336
-0.994455, 161, 261, 288, 292
-0.994475, 173, 265, 188, 328
-0.994484, 137, 321, 168, 448
-0.994547, 253, 97, 284, 224
-0.994623, 153, 81, 184, 208
-0.994644, 109, 241, 140, 368
-0.994654, 5, 65, 36, 192
-0.994674, 1, 1, 128, 32
-0.994705, 193, 49, 224, 176
-0.994738, 273, 129, 333, 192
-0.994741, 1, 81, 128, 144
-0.994786, 1, 137, 333, 200
-0.994788, 1, 337, 128, 368
-0.994828, 229, 257, 244, 320
-0.995008, 33, 49, 288, 112
-0.995014, 193, 345, 256, 408
-0.995074, 1, 97, 128, 224
-0.995092, 65, 201, 192, 232
-0.995139, 1, 57, 333, 120
-0.995162, 261, 145, 292, 272
-0.995168, 145, 17, 272, 48
-0.995204, 209, 277, 333, 308
-0.995217, 193, 225, 208, 288
-0.995222, 97, 201, 112, 264
-0.995228, 45, 217, 60, 280
-0.99523, 247, 257, 262, 320
-0.995278, 97, 241, 224, 272
-0.995279, 239, 49, 254, 112
-0.995345, 1, 401, 256, 464
-0.995359, 1, 209, 333, 272
-0.995372, 301, 177, 332, 304
-0.995374, 53, 201, 68, 264
-0.995374, 241, 241, 256, 304
-0.995376, 65, 229, 192, 260
-0.995377, 193, 337, 320, 400
-0.995406, 81, 33, 208, 64
-0.995448, 83, 201, 98, 264
-0.995465, 193, 17, 320, 48
-0.995474, 17, 205, 144, 236
-0.995475, 159, 273, 174, 336
-0.995565, 33, 81, 288, 144
-0.99557, 289, 209, 320, 336
-0.9956, 293, 1, 308, 64
-0.99565, 145, 281, 272, 312
-0.995661, 33, 17, 160, 48
-0.995681, 89, 201, 104, 264
-0.995685, 33, 121, 288, 184
-0.995705, 33, 97, 64, 224
-0.995715, 179, 41, 194, 104
-0.995719, 1, 33, 333, 96
-0.995722, 209, 177, 333, 208
-0.99574, 219, 73, 234, 136
-0.995752, 145, 185, 272, 216
-0.995755, 153, 193, 168, 256
-0.995784, 209, 49, 224, 112
-0.995786, 185, 265, 200, 328
-0.995822, 1, 169, 333, 232
-0.995822, 49, 145, 176, 176
-0.995824, 181, 233, 196, 296
-0.995826, 49, 381, 176, 412
-0.995853, 1, 269, 128, 300
-0.995864, 101, 353, 116, 416
-0.995867, 191, 249, 206, 312
-0.995868, 81, 217, 208, 248
-0.995874, 193, 5, 320, 36
-0.99588, 81, 393, 208, 424
-0.995894, 237, 281, 252, 344
-0.995928, 107, 201, 122, 264
-0.995932, 169, 233, 184, 296
-0.995944, 271, 33, 286, 96
-0.995967, 47, 137, 62, 200
-0.995968, 199, 225, 214, 288
-0.995969, 179, 265, 194, 328
-0.995984, 245, 209, 276, 336
-0.995993, 49, 317, 176, 348
-0.996011, 1, 265, 333, 328
-0.996016, 97, 269, 224, 300
-0.996035, 81, 1, 208, 32
-0.996036, 201, 161, 232, 416
-0.996054, 65, 281, 192, 312
-0.996072, 33, 329, 288, 392
-0.996087, 233, 25, 248, 88
-0.996122, 145, 229, 272, 260
-0.996134, 171, 289, 186, 352
-0.996143, 91, 233, 106, 296
-0.996143, 255, 257, 270, 320
-0.996145, 163, 233, 178, 296
-0.996147, 17, 257, 144, 288
-0.996152, 217, 161, 248, 416
-0.996161, 199, 249, 214, 312
-0.996201, 175, 233, 190, 296
-0.996211, 139, 193, 154, 256
-0.996225, 219, 249, 234, 312
-0.996252, 243, 281, 258, 344
-0.996253, 153, 273, 168, 336
-0.996256, 185, 1, 200, 64
-0.996257, 69, 201, 84, 264
-0.996258, 223, 17, 238, 80
-0.996288, 189, 225, 220, 480
-0.996304, 199, 297, 214, 360
-0.996317, 113, 301, 240, 332
-0.996326, 129, 197, 256, 228
-0.996332, 177, 297, 304, 328
-0.996339, 77, 193, 108, 448
-0.996349, 283, 265, 298, 328
-0.996363, 95, 1, 110, 64
-0.996384, 37, 369, 68, 496
-0.996392, 243, 25, 258, 88
-0.996396, 119, 193, 134, 256
-0.996399, 165, 201, 180, 264
-0.996411, 145, 49, 272, 80
-0.996421, 75, 201, 90, 264
-0.996421, 191, 281, 206, 344
-0.996428, 257, 33, 272, 96
-0.996429, 231, 289, 246, 352
-0.996437, 45, 193, 60, 256
-0.996458, 97, 257, 224, 288
-0.996462, 75, 305, 90, 368
-0.996465, 89, 193, 120, 448
-0.996468, 213, 17, 228, 80
-0.996472, 179, 297, 194, 360
-0.996475, 81, 341, 208, 372
-0.9965, 99, 225, 114, 288
-0.996502, 235, 257, 250, 320
-0.996507, 277, 305, 308, 432
-0.996511, 1, 325, 128, 356
-0.996512, 137, 81, 168, 208
-0.996513, 237, 161, 268, 416
-0.996522, 187, 225, 202, 288
-0.996523, 63, 201, 78, 264
-0.996525, 49, 241, 176, 272
-0.996526, 137, 161, 168, 416
-0.99653, 91, 353, 106, 416
-0.996557, 77, 369, 92, 432
-0.996566, 49, 369, 176, 400
-0.996569, 207, 249, 222, 312
-0.99657, 277, 1, 292, 64
-0.99657, 227, 89, 242, 152
-0.99657, 129, 317, 256, 348
-0.996578, 249, 1, 280, 256
-0.996586, 167, 137, 182, 200
-0.996593, 189, 305, 204, 368
-0.9966, 267, 57, 282, 120
-0.996605, 173, 1, 188, 64
-0.996624, 303, 1, 318, 64
-0.99663, 197, 9, 212, 72
-0.99663, 53, 161, 84, 416
-0.996633, 165, 337, 196, 464
-0.996654, 209, 309, 333, 340
-0.996666, 1, 393, 128, 424
-0.996668, 143, 273, 158, 336
-0.996671, 69, 1, 84, 64
-0.996675, 255, 289, 270, 352
-0.996683, 125, 241, 156, 368
-0.996684, 209, 189, 333, 220
-0.996688, 65, 353, 320, 416
-0.996695, 45, 321, 60, 384
-0.996697, 61, 313, 76, 376
-0.996707, 161, 393, 176, 456
-0.996707, 219, 49, 234, 112
-0.996715, 153, 25, 168, 88
-0.996718, 65, 193, 96, 448
-0.996721, 157, 169, 172, 232
-0.996723, 105, 233, 120, 296
-0.996724, 145, 29, 272, 60
-0.996745, 31, 1, 46, 64
-0.996749, 151, 385, 166, 448
-0.996765, 113, 265, 128, 328
-0.996767, 289, 273, 304, 336
-0.996771, 249, 281, 264, 344
-0.996773, 209, 265, 333, 296
-0.996776, 45, 249, 60, 312
-0.996778, 249, 25, 264, 88
-0.996778, 169, 33, 184, 96
-0.996787, 207, 217, 222, 280
-0.996793, 179, 1, 194, 64
-0.996794, 121, 289, 136, 352
-0.996802, 127, 265, 142, 328
-0.996817, 53, 177, 68, 240
-0.99682, 249, 129, 280, 384
-0.996831, 103, 273, 118, 336
-0.99684, 55, 145, 70, 208
-0.996841, 131, 289, 146, 352
-0.996848, 137, 281, 152, 344
-0.996849, 93, 273, 108, 336
-0.996862, 145, 193, 160, 256
-0.996864, 165, 297, 180, 360
-0.996872, 205, 9, 220, 72
-0.996873, 53, 233, 68, 296
-0.996882, 159, 25, 174, 88
-0.996884, 1, 237, 128, 268
-0.996885, 153, 297, 168, 360
-0.996894, 1, 369, 64, 496
-0.996895, 261, 1, 292, 256
-0.996896, 189, 33, 204, 96
-0.996896, 65, 297, 192, 328
-0.996902, 69, 297, 84, 360
-0.996906, 105, 193, 136, 448
-0.996907, 173, 145, 188, 208
-0.996909, 177, 165, 304, 196
-0.996912, 143, 313, 158, 376
-0.996914, 1, 149, 128, 180
-0.996939, 109, 9, 124, 72
-0.99694, 279, 33, 294, 96
-0.996943, 83, 345, 98, 408
-0.996946, 207, 305, 222, 368
-0.996947, 117, 17, 132, 80
-0.996948, 161, 61, 288, 92
-0.996952, 125, 161, 156, 416
-0.996954, 209, 41, 333, 72
-0.996956, 213, 81, 228, 144
-0.996962, 225, 289, 240, 352
-0.996964, 163, 169, 178, 232
-0.996968, 273, 113, 304, 240
-0.99697, 93, 329, 108, 392
-0.996987, 177, 225, 208, 480
-0.996989, 225, 1, 256, 256
-0.996999, 1, 433, 256, 496
-0.997002, 191, 9, 206, 72
-0.997006, 113, 201, 128, 264
-0.997008, 69, 337, 84, 400
-0.997009, 145, 209, 272, 240
-0.997023, 53, 433, 68, 496
-0.997024, 33, 217, 160, 248
-0.997025, 265, 161, 296, 416
-0.997026, 171, 169, 186, 232
-0.997028, 301, 97, 332, 224
-0.997028, 283, 289, 298, 352
-0.997031, 37, 233, 52, 296
-0.997035, 109, 361, 124, 424
-0.997037, 49, 329, 176, 360
-0.99704, 213, 249, 228, 312
-0.997041, 229, 49, 244, 112
-0.997057, 81, 21, 208, 52
-0.997063, 1, 285, 128, 316
-0.997086, 33, 189, 160, 220
-0.997111, 141, 1, 172, 256
-0.997141, 1, 37, 128, 68
-0.997188, 93, 1, 108, 32
-0.997195, 245, 257, 276, 500
-0.997197, 201, 257, 232, 500
-0.997203, 81, 45, 208, 76
-0.997207, 81, 77, 208, 108
-0.997216, 49, 433, 176, 464
-0.997218, 209, 65, 333, 96
-0.997227, 209, 321, 240, 448
-0.997229, 209, 321, 333, 352
-0.997253, 1, 329, 333, 392
-0.997257, 17, 357, 144, 388
-0.997259, 1, 49, 128, 80
-0.99728, 273, 1, 304, 256
-0.997284, 237, 1, 268, 256
-0.997313, 1, 233, 333, 296
-0.997339, 161, 153, 288, 184
-0.997341, 25, 49, 56, 176
-0.997349, 149, 161, 180, 416
-0.997364, 193, 257, 208, 288
-0.997375, 41, 129, 72, 384
-0.997376, 229, 257, 260, 500
-0.997447, 49, 269, 176, 300
-0.997461, 113, 89, 240, 120
-0.99747, 1, 381, 128, 412
-0.99748, 177, 85, 304, 116
-0.99748, 113, 365, 240, 396
-0.997486, 129, 169, 256, 200
-0.997487, 117, 1, 148, 256
-0.997489, 37, 225, 68, 480
-0.997525, 65, 405, 192, 436
-0.997551, 257, 257, 288, 500
-0.997558, 121, 257, 152, 500
-0.997559, 129, 5, 256, 36
-0.997587, 231, 261, 246, 292
-0.997596, 129, 1, 160, 256
-0.997606, 45, 217, 60, 248
-0.997606, 245, 285, 260, 316
-0.997622, 235, 289, 250, 320
-0.99763, 49, 445, 176, 476
-0.997637, 43, 1, 58, 32
-0.997661, 81, 189, 208, 220
-0.997662, 109, 201, 124, 232
-0.997663, 33, 421, 160, 452
-0.997673, 209, 53, 333, 84
-0.997685, 81, 61, 208, 92
-0.997697, 217, 257, 248, 500
-0.997711, 1, 257, 32, 384
-0.997714, 295, 1, 310, 32
-0.997717, 1, 377, 333, 440
-0.99772, 251, 289, 266, 320
-0.997721, 25, 161, 56, 416
-0.997725, 107, 217, 122, 248
-0.997747, 25, 1, 56, 256
-0.997755, 281, 5, 296, 36
-0.997794, 119, 201, 134, 232
-0.997795, 181, 1, 212, 256
-0.997797, 97, 221, 112, 252
-0.997806, 9, 33, 40, 288
-0.997812, 33, 65, 160, 96
-0.997818, 169, 129, 200, 384
-0.997824, 209, 205, 333, 236
-0.997826, 69, 65, 100, 320
-0.997834, 127, 201, 142, 232
-0.997843, 53, 213, 68, 244
-0.997846, 153, 1, 184, 256
-0.997856, 289, 1, 320, 256
-0.997863, 81, 353, 208, 384
-0.997867, 221, 257, 236, 288
-0.997871, 213, 1, 244, 256
-0.997907, 57, 65, 88, 320
-0.997921, 33, 457, 160, 488
-0.997924, 99, 5, 114, 36
-0.997925, 157, 281, 172, 312
-0.997931, 81, 1, 112, 256
-0.997933, 47, 253, 62, 284
-0.997936, 113, 437, 240, 468
-0.997947, 229, 289, 244, 320
-0.997951, 37, 33, 68, 288
-0.997958, 179, 45, 194, 76
-0.997958, 129, 133, 256, 164
-0.997966, 103, 205, 118, 236
-0.997976, 161, 33, 176, 64
-0.997986, 145, 241, 272, 272
-0.997994, 35, 1, 50, 32
-0.998, 45, 229, 60, 260
-0.998003, 281, 273, 296, 304
-0.998013, 201, 253, 216, 284
-0.998018, 145, 329, 272, 360
-0.998019, 1, 313, 128, 344
-0.998024, 307, 1, 322, 32
-0.998033, 215, 253, 230, 284
-0.998036, 201, 1, 232, 256
-0.99804, 109, 17, 124, 48
-0.99805, 53, 257, 84, 500
-0.998051, 47, 153, 62, 184
-0.998053, 139, 197, 154, 228
-0.998054, 241, 57, 256, 88
-0.998062, 213, 41, 228, 72
-0.998064, 137, 257, 168, 500
-0.998066, 1, 297, 128, 328
-0.998066, 129, 421, 256, 452
-0.998074, 97, 205, 112, 236
-0.998084, 75, 209, 90, 240
-0.998085, 209, 101, 333, 132
-0.998085, 209, 245, 333, 276
-0.99809, 197, 37, 212, 68
-0.998092, 227, 277, 242, 308
-0.998115, 9, 161, 40, 416
-0.99812, 1, 445, 128, 476
-0.998122, 165, 277, 180, 308
-0.998128, 49, 177, 176, 208
-0.998143, 97, 33, 128, 288
-0.998144, 241, 261, 256, 292
-0.998156, 239, 245, 254, 276
-0.998158, 217, 85, 232, 116
-0.998159, 29, 1, 44, 32
-0.998166, 55, 237, 70, 268
-0.998171, 145, 401, 272, 432
-0.998183, 97, 377, 224, 408
-0.998184, 193, 225, 320, 256
-0.998185, 237, 85, 252, 116
-0.998191, 169, 1, 200, 256
-0.998192, 1, 113, 333, 176
-0.998206, 65, 209, 80, 240
-0.998208, 49, 1, 64, 32
-0.998213, 207, 253, 222, 284
-0.998214, 235, 273, 250, 304
-0.998217, 163, 297, 178, 328
-0.998219, 133, 197, 148, 228
-0.998219, 1, 401, 333, 464
-0.998228, 119, 21, 134, 52
-0.998228, 59, 321, 74, 352
-0.998232, 153, 29, 168, 60
-0.998237, 91, 205, 106, 236
-0.99824, 301, 33, 332, 288
-0.998244, 155, 197, 170, 228
-0.998245, 227, 93, 242, 124
-0.998251, 179, 305, 194, 336
-0.998257, 109, 229, 124, 260
-0.99826, 167, 145, 182, 176
-0.998262, 185, 269, 200, 300
-0.998263, 49, 133, 176, 164
-0.998265, 97, 449, 224, 480
-0.998266, 99, 17, 114, 48
-0.998273, 87, 5, 102, 36
-0.998273, 301, 1, 316, 32
-0.998273, 129, 77, 256, 108
-0.998278, 257, 289, 272, 320
-0.998283, 81, 209, 96, 240
-0.998298, 291, 277, 306, 308
-0.998304, 115, 213, 130, 244
-0.998314, 189, 129, 220, 384
-0.998319, 301, 161, 332, 416
-0.99833, 93, 341, 108, 372
-0.998331, 53, 225, 68, 256
-0.998335, 161, 401, 176, 432
-0.998339, 185, 309, 200, 340
-0.998339, 67, 313, 82, 344
-0.99834, 161, 97, 288, 128
-0.998342, 47, 241, 62, 272
-0.998343, 185, 37, 200, 68
-0.998346, 167, 33, 182, 64
-0.998354, 173, 273, 188, 304
-0.998355, 89, 229, 104, 260
-0.998358, 161, 225, 192, 480
-0.99836, 49, 335, 80, 350
-0.998361, 217, 53, 248, 68
-0.998361, 193, 279, 224, 294
-0.998361, 21, 235, 52, 250
-0.998362, 169, 45, 200, 60
-0.998362, 173, 85, 204, 100
-0.998363, 85, 405, 116, 420
-0.998364, 33, 267, 64, 282
-0.998364, 69, 235, 100, 250
-0.998365, 113, 315, 144, 330
-0.998365, 101, 237, 116, 268
-0.998366, 193, 315, 224, 330
-0.998366, 157, 193, 188, 208
-0.998367, 225, 281, 256, 296
-0.998367, 161, 277, 192, 292
-0.998367, 69, 391, 100, 406
-0.998367, 185, 237, 200, 268
-0.998368, 1, 157, 32, 172
-0.998369, 97, 245, 128, 260
-0.998369, 57, 373, 88, 388
-0.99837, 33, 259, 64, 274
-0.99837, 213, 283, 244, 298
-0.99837, 197, 289, 228, 304
-0.998372, 129, 201, 160, 216
-0.998372, 197, 83, 228, 98
-0.998373, 277, 277, 308, 292
-0.998376, 45, 257, 76, 272
-0.998376, 65, 223, 96, 238
-0.998376, 177, 267, 208, 282
-0.998377, 97, 227, 128, 242
-0.998377, 45, 263, 76, 278
-0.998377, 161, 233, 192, 248
-0.998377, 193, 95, 224, 110
-0.998378, 17, 405, 144, 436
-0.998379, 75, 225, 90, 256
-0.99838, 13, 157, 44, 172
-0.99838, 157, 243, 188, 258
-0.998381, 69, 5, 100, 20
-0.998381, 257, 285, 288, 300
-0.998382, 41, 247, 72, 262
-0.998383, 201, 265, 232, 280
-0.998383, 13, 277, 44, 292
-0.998384, 157, 149, 188, 164
-0.998384, 41, 275, 72, 290
-0.998385, 53, 239, 84, 254
-0.998386, 173, 239, 204, 254
-0.998387, 181, 47, 212, 62
-0.998387, 211, 89, 226, 120
-0.998387, 25, 275, 56, 290
-0.998387, 277, 29, 308, 44
-0.998388, 145, 295, 176, 310
-0.998388, 81, 293, 96, 324
-0.998388, 257, 31, 288, 46
-0.99839, 229, 261, 260, 276
-0.99839, 133, 293, 164, 308
-0.998391, 93, 393, 124, 408
-0.998392, 165, 305, 196, 320
-0.998393, 293, 281, 324, 296
-0.998393, 197, 47, 228, 62
-0.998394, 133, 317, 164, 332
-0.998395, 49, 323, 80, 338
-0.998396, 41, 241, 72, 256
-0.998396, 225, 59, 256, 74
-0.998398, 177, 311, 208, 326
-0.998398, 145, 283, 176, 298
-0.998398, 189, 229, 220, 244
-0.998402, 161, 181, 176, 212
-0.998402, 145, 241, 176, 256
-0.998402, 169, 301, 184, 332
-0.998403, 37, 331, 68, 346
-0.998403, 105, 203, 136, 218
-0.998403, 145, 385, 272, 416
-0.998404, 265, 67, 296, 82
-0.998406, 265, 291, 296, 306
-0.998407, 77, 339, 108, 354
-0.998407, 57, 145, 72, 176
-0.998409, 221, 267, 252, 282
-0.998409, 77, 9, 92, 40
-0.99841, 29, 219, 60, 234
-0.998411, 301, 1, 332, 16
-0.998411, 195, 309, 210, 340
-0.998412, 249, 165, 280, 180
-0.998414, 187, 257, 202, 288
-0.998415, 237, 267, 268, 282
-0.998415, 241, 273, 256, 304
-0.998415, 273, 283, 304, 298
-0.998416, 205, 39, 236, 54
-0.998416, 189, 257, 220, 272
-0.998419, 85, 235, 116, 250
-0.99842, 173, 273, 204, 288
-0.99842, 229, 95, 260, 110
-0.998421, 249, 63, 280, 78
-0.998422, 117, 203, 148, 218
-0.998422, 275, 273, 290, 304
-0.998424, 245, 297, 260, 328
-0.998424, 277, 193, 308, 448
-0.998424, 213, 297, 244, 312
-0.998426, 233, 301, 264, 316
-0.998426, 89, 361, 120, 376
-0.998428, 53, 225, 84, 240
-0.998428, 69, 11, 100, 26
-0.99843, 175, 293, 190, 324
-0.99843, 219, 41, 234, 72
-0.998431, 93, 205, 124, 220
-0.998432, 213, 289, 244, 304
-0.998433, 41, 223, 72, 238
-0.998433, 313, 1, 328, 32
-0.998434, 87, 397, 102, 428
-0.998434, 45, 269, 76, 284
-0.998435, 53, 7, 84, 22
-0.998438, 237, 59, 268, 74
-0.998438, 285, 287, 316, 302
-0.998438, 65, 373, 80, 404
-0.998439, 179, 77, 194, 108
-0.998439, 249, 297, 280, 312
-0.998441, 109, 215, 140, 230
-0.998441, 157, 299, 188, 314
-0.998444, 281, 5, 312, 20
-0.998449, 213, 85, 244, 100
-0.99845, 53, 231, 84, 246
-0.998452, 133, 309, 148, 340
-0.998452, 137, 31, 168, 46
-0.998453, 81, 15, 112, 30
-0.998455, 121, 321, 152, 336
-0.998456, 73, 399, 104, 414
-0.998456, 117, 25, 148, 40
-0.998457, 1, 81, 333, 144
-0.998458, 149, 285, 164, 316
-0.998458, 97, 149, 224, 180
-0.998459, 49, 213, 80, 228
-0.99846, 145, 197, 176, 212
-0.998463, 37, 155, 68, 170
-0.998463, 231, 53, 246, 84
-0.998463, 81, 3, 112, 18
-0.998465, 65, 229, 96, 244
-0.998465, 61, 5, 76, 36
-0.998466, 113, 97, 144, 352
-0.998466, 195, 229, 210, 260
-0.998466, 85, 229, 116, 244
-0.998468, 101, 221, 132, 236
-0.998469, 141, 289, 156, 320
-0.998475, 315, 81, 330, 112
-0.998475, 177, 91, 208, 106
-0.998477, 193, 257, 256, 272
-0.998477, 175, 157, 190, 188
-0.998479, 93, 19, 124, 34
-0.998479, 171, 173, 186, 204
-0.99848, 217, 261, 248, 276
-0.998482, 97, 329, 224, 360
-0.998482, 51, 201, 66, 232
-0.998483, 41, 235, 72, 250
-0.998484, 59, 213, 74, 244
-0.998484, 247, 265, 262, 296
-0.998487, 145, 197, 160, 228
-0.998488, 85, 9, 116, 24
-0.998489, 99, 345, 114, 376
-0.99849, 225, 293, 256, 308
-0.998493, 47, 265, 62, 296
-0.998493, 193, 89, 224, 104
-0.998495, 217, 293, 280, 308
-0.998495, 53, 149, 84, 164
-0.998498, 209, 281, 224, 312
-0.998499, 245, 289, 276, 304
-0.998501, 185, 41, 248, 56
-0.998502, 25, 7, 88, 22
-0.998502, 45, 329, 60, 360
-0.998504, 157, 37, 188, 52
-0.998505, 249, 293, 312, 308
-0.998506, 189, 263, 220, 278
-0.998506, 185, 93, 248, 108
-0.998508, 289, 1, 304, 32
-0.998508, 121, 199, 184, 214
-0.998508, 209, 113, 333, 144
-0.99851, 91, 357, 106, 388
-0.998511, 221, 281, 236, 312
-0.998513, 213, 91, 244, 106
-0.998513, 205, 77, 220, 108
-0.998514, 67, 325, 82, 356
-0.998514, 53, 321, 68, 352
-0.998516, 219, 73, 234, 104
-0.998518, 93, 393, 108, 424
-0.998519, 55, 1, 70, 32
-0.998519, 105, 21, 136, 36
-0.998527, 281, 21, 296, 52
-0.998527, 165, 165, 180, 196
-0.998528, 193, 41, 224, 56
-0.99853, 9, 257, 40, 500
-0.998531, 81, 205, 144, 220
-0.998532, 173, 45, 188, 76
-0.998533, 153, 239, 216, 254
-0.998533, 29, 1, 60, 16
-0.998537, 97, 25, 160, 40
-0.998537, 209, 299, 272, 314
-0.998539, 33, 231, 96, 246
-0.99854, 39, 269, 54, 300
-0.99854, 205, 265, 220, 296
-0.998541, 185, 265, 248, 280
-0.998549, 33, 225, 96, 240
-0.998549, 9, 157, 72, 172
-0.998551, 233, 287, 296, 302
-0.998551, 201, 255, 232, 270
-0.998552, 17, 337, 80, 352
-0.998554, 237, 295, 268, 310
-0.998555, 121, 211, 184, 226
-0.998555, 17, 1, 80, 16
-0.998556, 209, 263, 272, 278
-0.99856, 209, 285, 272, 300
-0.998561, 41, 229, 72, 244
-0.998563, 41, 149, 104, 164
-0.998564, 41, 3, 72, 18
-0.998565, 57, 11, 120, 26
-0.998567, 149, 257, 180, 500
-0.998569, 73, 19, 136, 34
-0.99857, 181, 41, 212, 56
-0.998571, 161, 279, 224, 294
-0.998572, 273, 283, 333, 298
-0.998578, 49, 211, 112, 226
-0.99858, 33, 265, 96, 280
-0.998582, 121, 295, 184, 310
-0.998583, 153, 233, 216, 248
-0.998585, 153, 225, 216, 240
-0.998585, 121, 217, 184, 232
-0.998585, 57, 1, 120, 16
-0.998586, 241, 301, 304, 316
-0.998587, 241, 23, 304, 38
-0.998587, 65, 401, 128, 416
-0.998588, 185, 301, 248, 316
-0.998589, 113, 31, 176, 46
-0.998591, 65, 335, 128, 350
-0.998592, 137, 37, 200, 52
-0.998592, 233, 287, 264, 302
-0.998592, 33, 273, 96, 288
-0.998594, 177, 271, 240, 286
-0.998599, 193, 53, 256, 68
-0.9986, 273, 5, 333, 20
-0.998601, 97, 219, 160, 234
-0.998601, 161, 293, 224, 308
-0.998603, 153, 45, 216, 60
-0.998604, 65, 395, 128, 410
-0.998608, 1, 85, 128, 116
-0.998609, 49, 327, 112, 342
-0.998611, 161, 311, 224, 326
-0.998611, 209, 87, 272, 102
-0.998611, 161, 35, 224, 50
-0.998612, 217, 61, 280, 76
-0.998613, 273, 13, 333, 28
-0.998614, 161, 117, 288, 148
-0.998615, 193, 293, 256, 308
-0.998615, 217, 35, 280, 50
-0.998616, 49, 239, 112, 254
-0.998616, 49, 257, 112, 272
-0.998616, 57, 229, 120, 244
-0.998619, 129, 313, 192, 328
-0.998619, 273, 23, 333, 38
-0.998619, 273, 289, 333, 304
-0.99862, 241, 173, 304, 188
-0.998621, 249, 29, 312, 44
-0.998623, 81, 247, 144, 262
-0.998624, 9, 277, 72, 292
-0.998625, 65, 387, 128, 402
-0.998625, 113, 289, 176, 304
-0.998627, 105, 325, 168, 340
-0.998629, 193, 225, 208, 352
-0.998629, 241, 35, 304, 50
-0.99863, 121, 223, 184, 238
-0.99863, 121, 237, 184, 252
-0.99863, 145, 305, 208, 320
-0.99863, 241, 167, 304, 182
-0.998633, 25, 257, 56, 500
-0.998633, 273, 37, 333, 52
-0.998634, 65, 315, 128, 330
-0.998636, 193, 47, 256, 62
-0.998636, 185, 87, 248, 102
-0.998636, 97, 385, 160, 400
-0.998637, 81, 7, 144, 22
-0.998638, 9, 235, 72, 250
-0.998638, 193, 321, 256, 336
-0.998638, 65, 365, 128, 380
-0.998638, 105, 319, 168, 334
-0.998638, 167, 225, 182, 352
-0.998638, 81, 225, 144, 240
-0.998641, 1, 283, 64, 298
-0.998641, 33, 251, 96, 266
-0.998641, 241, 17, 304, 32
-0.998642, 241, 271, 304, 286
-0.998643, 17, 151, 80, 166
-0.998644, 257, 71, 320, 86
-0.998645, 153, 189, 216, 204
-0.998645, 169, 317, 232, 332
-0.998646, 153, 273, 216, 288
-0.998646, 185, 227, 248, 242
-0.998646, 129, 245, 192, 260
-0.998647, 9, 217, 72, 232
-0.998648, 129, 325, 192, 340
-0.998649, 33, 217, 96, 232
-0.99865, 137, 319, 200, 334
-0.99865, 81, 309, 144, 324
-0.99865, 9, 229, 72, 244
-0.998652, 265, 321, 328, 336
-0.998653, 65, 407, 128, 422
-0.998653, 81, 343, 144, 358
-0.998654, 205, 225, 220, 352
-0.998654, 89, 353, 152, 368
-0.998655, 257, 327, 320, 342
-0.998655, 201, 29, 264, 44
-0.998656, 201, 307, 264, 322
-0.998657, 73, 219, 136, 234
-0.998657, 81, 375, 144, 390
-0.998657, 161, 265, 224, 280
-0.998657, 89, 331, 152, 346
-0.998658, 113, 229, 176, 244
-0.998658, 217, 269, 280, 284
-0.998659, 121, 205, 184, 220
-0.99866, 153, 195, 216, 210
-0.998662, 1, 55, 64, 70
-0.998662, 233, 67, 296, 82
-0.998662, 105, 243, 168, 258
-0.998662, 209, 93, 272, 108
-0.998663, 81, 295, 144, 310
-0.998663, 233, 179, 296, 194
-0.998664, 9, 207, 72, 222
-0.998664, 121, 273, 184, 288
-0.998664, 33, 245, 96, 260
-0.998665, 73, 285, 136, 300
-0.998665, 225, 331, 288, 346
-0.998665, 17, 331, 80, 346
-0.998665, 153, 219, 216, 234
-0.998725, 49, 89, 176, 120
-0.998754, 193, 333, 320, 364
-0.998756, 173, 225, 188, 352
-0.998791, 85, 97, 116, 352
-0.998811, 129, 341, 256, 372
-0.998878, 223, 241, 238, 368
-0.99889, 181, 225, 196, 352
-0.998899, 199, 241, 214, 368
-0.998914, 1, 425, 333, 488
-0.998942, 109, 1, 124, 128
-0.998944, 257, 257, 272, 384
-0.998951, 1, 169, 128, 200
-0.998957, 221, 17, 236, 144
-0.998959, 233, 241, 248, 368
-0.998962, 171, 273, 186, 400
-0.998962, 161, 225, 176, 352
-0.998966, 165, 273, 180, 400
-0.99898, 211, 257, 226, 384
-0.998981, 275, 1, 290, 128
-0.998984, 47, 145, 62, 272
-0.998989, 81, 417, 208, 448
-0.99899, 267, 257, 282, 384
-0.998992, 187, 209, 202, 336
-0.998992, 209, 1, 224, 128
-0.998999, 209, 129, 333, 160
-0.999001, 245, 241, 260, 368
-0.999017, 99, 1, 114, 128
-0.999022, 1, 353, 333, 416
-0.999022, 239, 241, 254, 368
-0.999023, 49, 165, 176, 196
-0.99904, 229, 1, 244, 128
-0.999044, 165, 177, 180, 304
-0.999053, 217, 225, 232, 352
-0.999053, 81, 353, 96, 480
-0.999059, 79, 1, 94, 128
-0.999077, 281, 1, 296, 128
-0.999084, 155, 177, 170, 304
-0.999084, 289, 161, 320, 416
-0.999085, 179, 1, 194, 128
-0.999086, 199, 193, 214, 320
-0.999094, 239, 17, 254, 144
-0.999099, 53, 177, 68, 304
-0.999099, 47, 193, 62, 320
-0.9991, 67, 1, 82, 128
-0.999107, 119, 193, 134, 320
-0.999109, 195, 1, 210, 128
-0.999116, 211, 209, 226, 336
-0.999125, 117, 1, 132, 128
-0.999127, 81, 305, 96, 432
-0.999138, 71, 321, 86, 448
-0.999142, 251, 257, 266, 384
-0.999145, 73, 1, 88, 128
-0.999151, 87, 289, 102, 416
-0.999161, 287, 257, 302, 384
-0.999169, 209, 153, 333, 184
-0.999171, 105, 193, 120, 320
-0.999173, 273, 257, 288, 384
-0.999179, 205, 177, 220, 304
-0.999185, 167, 17, 182, 144
-0.999186, 81, 193, 96, 320
-0.999191, 99, 193, 114, 320
-0.999191, 47, 257, 62, 384
-0.999192, 87, 193, 102, 320
-0.999199, 227, 193, 242, 320
-0.999201, 253, 17, 268, 144
-0.999203, 141, 177, 156, 304
-0.999213, 259, 17, 274, 144
-0.999217, 189, 1, 204, 128
-0.999223, 1, 369, 128, 400
-0.999226, 117, 273, 132, 400
-0.999228, 217, 273, 232, 400
-0.999229, 159, 273, 174, 400
-0.999231, 183, 273, 198, 400
-0.999234, 147, 177, 162, 304
-0.999239, 237, 161, 252, 288
-0.999242, 111, 209, 126, 336
-0.99925, 163, 129, 178, 256
-0.999252, 177, 141, 304, 172
-0.999254, 133, 193, 148, 320
-0.999257, 53, 241, 68, 368
-0.999266, 145, 369, 160, 496
-0.999268, 281, 257, 296, 384
-0.999271, 65, 193, 80, 320
-0.999276, 201, 1, 216, 128
-0.999277, 85, 1, 100, 128
-0.999278, 93, 193, 108, 320
-0.999279, 125, 193, 140, 320
-0.999287, 245, 17, 260, 144
-0.999287, 171, 177, 186, 304
-0.999288, 177, 273, 192, 400
-0.999289, 217, 177, 232, 304
-0.999289, 309, 1, 324, 128
-0.999291, 193, 177, 208, 304
-0.999295, 81, 113, 208, 144
-0.999303, 227, 81, 242, 208
-0.999307, 149, 129, 164, 256
-0.999309, 73, 273, 88, 400
-0.999309, 215, 1, 230, 128
-0.99931, 125, 353, 140, 480
-0.999314, 91, 337, 106, 464
-0.99932, 317, 49, 332, 176
-0.99932, 61, 1, 76, 128
-0.99932, 75, 369, 90, 496
-0.999321, 105, 305, 120, 432
-0.999326, 289, 257, 320, 500
-0.999334, 111, 289, 126, 416
-0.999337, 39, 241, 54, 368
-0.999338, 1, 137, 128, 168
-0.999341, 223, 305, 238, 432
-0.999342, 315, 1, 330, 128
-0.999342, 269, 1, 284, 128
-0.999342, 181, 177, 196, 304
-0.999344, 137, 369, 152, 496
-0.999352, 65, 305, 80, 432
-0.999353, 161, 357, 288, 388
-0.999356, 157, 337, 172, 464
-0.999357, 197, 289, 212, 416
-0.99936, 157, 17, 172, 144
-0.999361, 293, 241, 308, 368
-0.999363, 79, 257, 94, 384
-0.999365, 73, 145, 88, 272
-0.999365, 157, 129, 172, 256
-0.999369, 57, 129, 72, 256
-0.999369, 41, 145, 56, 272
-0.99937, 73, 193, 88, 320
-0.999371, 127, 273, 142, 400
-0.999371, 215, 49, 230, 176
-0.999374, 295, 1, 310, 128
-0.999376, 97, 305, 112, 432
-0.999378, 41, 193, 56, 320
-0.999381, 211, 305, 226, 432
-0.999388, 9, 1, 24, 128
-0.999393, 171, 65, 186, 192
-0.999397, 163, 337, 178, 464
-0.999401, 59, 193, 74, 320
-0.999405, 1, 433, 128, 464
-0.999409, 287, 1, 302, 128
-0.99941, 151, 369, 166, 496
-0.999413, 35, 145, 50, 272
-0.999421, 131, 369, 146, 496
-0.999424, 147, 289, 162, 416
-0.999425, 35, 1, 50, 128
-0.999426, 303, 1, 318, 128
-0.999427, 29, 257, 44, 384
-0.999433, 279, 49, 294, 176
-0.999437, 119, 353, 134, 480
-0.999454, 1, 101, 128, 132
-0.999508, 113, 101, 240, 132
-0.999564, 145, 287, 160, 302
-0.999565, 219, 267, 234, 282
-0.999565, 235, 57, 250, 72
-0.999565, 135, 201, 150, 216
-0.999566, 123, 317, 138, 332
-0.999566, 161, 187, 176, 202
-0.999568, 91, 397, 106, 412
-0.999569, 255, 63, 270, 78
-0.999569, 83, 233, 98, 248
-0.999569, 207, 279, 222, 294
-0.99957, 47, 269, 62, 284
-0.99957, 225, 95, 240, 110
-0.99957, 187, 85, 202, 100
-0.99957, 59, 231, 74, 246
-0.99957, 201, 91, 216, 106
-0.99957, 173, 275, 188, 290
-0.999571, 115, 203, 130, 218
-0.999571, 73, 147, 88, 162
-0.999571, 185, 309, 200, 324
-0.999572, 237, 243, 252, 258
-0.999572, 235, 89, 250, 104
-0.999573, 129, 201, 144, 216
-0.999573, 219, 83, 234, 98
-0.999573, 171, 39, 186, 54
-0.999574, 79, 13, 94, 28
-0.999575, 215, 289, 230, 304
-0.999576, 237, 267, 252, 282
-0.999576, 157, 239, 172, 254
-0.999577, 177, 305, 192, 320
-0.999577, 57, 7, 72, 22
-0.999578, 67, 9, 82, 24
-0.999578, 233, 303, 248, 318
-0.999578, 101, 361, 116, 376
-0.999579, 49, 5, 64, 20
-0.99958, 61, 317, 76, 332
-0.99958, 185, 269, 200, 284
-0.999581, 47, 249, 62, 264
-0.999581, 209, 85, 224, 100
-0.999581, 295, 3, 310, 18
-0.999582, 317, 1, 332, 16
-0.999582, 163, 299, 178, 314
-0.999582, 73, 11, 88, 26
-0.999584, 269, 67, 284, 82
-0.999585, 205, 255, 220, 270
-0.999586, 247, 61, 262, 76
-0.999586, 209, 93, 224, 108
-0.999587, 229, 55, 244, 70
-0.999587, 121, 211, 136, 226
-0.999588, 239, 303, 254, 318
-0.999589, 53, 213, 68, 228
-0.999589, 121, 203, 136, 218
-0.999589, 211, 255, 226, 270
-0.999591, 57, 147, 72, 162
-0.999591, 309, 1, 324, 16
-0.999591, 193, 265, 208, 280
-0.999592, 87, 15, 102, 30
-0.999592, 93, 17, 108, 32
-0.999592, 243, 245, 258, 260
-0.999592, 39, 273, 54, 288
-0.999592, 211, 49, 226, 64
-0.999593, 227, 101, 242, 116
-0.999593, 45, 243, 60, 258
-0.999593, 211, 295, 226, 310
-0.999593, 99, 11, 114, 26
-0.999594, 109, 25, 124, 40
-0.999594, 67, 375, 82, 390
-0.999595, 177, 49, 192, 64
-0.999595, 201, 47, 216, 62
-0.999595, 47, 257, 62, 272
-0.999597, 131, 211, 146, 226
-0.999597, 149, 31, 164, 46
-0.9996, 109, 231, 124, 246
-0.999601, 109, 205, 124, 220
-0.999602, 177, 93, 192, 108
-0.999602, 209, 469, 333, 500
-0.999603, 245, 263, 260, 278
-0.999603, 289, 279, 304, 294
-0.999603, 91, 227, 106, 242
-0.999604, 49, 101, 176, 132
-0.999604, 183, 93, 198, 108
-0.999604, 53, 231, 68, 246
-0.999605, 75, 231, 90, 246
-0.999605, 91, 233, 106, 248
-0.999606, 47, 263, 62, 278
-0.999608, 71, 225, 86, 240
-0.99961, 45, 237, 60, 252
-0.999611, 217, 89, 232, 104
-0.999613, 205, 39, 220, 54
-0.999616, 231, 285, 246, 300
-0.999617, 81, 227, 96, 242
-0.999617, 281, 281, 296, 296
-0.999617, 195, 91, 210, 106
-0.999618, 223, 295, 238, 310
-0.999621, 231, 95, 246, 110
-0.999623, 87, 7, 102, 22
-0.999623, 283, 7, 298, 22
-0.999623, 155, 35, 170, 50
-0.999623, 45, 229, 60, 244
-0.999629, 45, 219, 60, 234
-0.999632, 233, 293, 248, 308
-0.999633, 49, 155, 64, 170
-0.999634, 241, 59, 256, 74
-0.999634, 135, 321, 150, 336
-0.999634, 1, 125, 128, 156
-0.999639, 129, 321, 144, 336
-0.999645, 33, 1, 48, 16
-0.999646, 199, 257, 214, 272
-0.999646, 217, 257, 232, 272
-0.999647, 189, 91, 204, 106
-0.99965, 117, 23, 132, 38
-0.999653, 105, 223, 120, 238
-0.999653, 237, 287, 252, 302
-0.999655, 99, 19, 114, 34
-0.999656, 249, 297, 264, 312
-0.999656, 241, 297, 256, 312
-0.999657, 111, 215, 126, 230
-0.999659, 109, 19, 124, 34
-0.999663, 239, 261, 254, 276
-0.999664, 93, 11, 108, 26
-0.999668, 161, 35, 176, 50
-0.999668, 191, 259, 206, 274
-0.999672, 257, 293, 272, 308
-0.999672, 93, 1, 108, 16
-0.999673, 179, 87, 194, 102
-0.999674, 223, 261, 238, 276
-0.999681, 199, 41, 214, 56
-0.999684, 191, 41, 206, 56
-0.999693, 97, 227, 112, 242
-0.999696, 17, 469, 144, 500
-0.999698, 277, 97, 308, 352
-0.999699, 229, 263, 244, 278
-0.999701, 43, 3, 58, 18
-0.999705, 211, 39, 226, 54
-0.99972, 247, 289, 262, 304
-0.999743, 181, 43, 196, 58
-0.999747, 193, 345, 320, 376
-0.999856, 65, 469, 192, 500
-0.999884, 301, 257, 332, 500
-0.999935, 33, 113, 160, 144
-1.00007, 73, 97, 136, 224
-1.00008, 177, 369, 304, 400
-1.00056, 217, 337, 280, 464
-1.0016, 209, 385, 333, 448
-1.00164, 209, 433, 333, 496
-1.00181, 209, 361, 333, 424
-1.00214, 209, 409, 333, 472
-1.00359, 193, 353, 320, 480
-1.00501, 193, 353, 256, 480
-1.01442, 273, 353, 333, 480
-1.01513, 241, 353, 304, 480
