1967
-0.314304, 1, 1, 500, 375
-0.357344, 1, 1, 500, 256
-0.440614, 193, 1, 448, 375
-0.474666, 65, 1, 320, 375
-0.489938, 1, 129, 500, 375
-0.612357, 193, 1, 448, 256
-0.628498, 193, 97, 448, 352
-0.666593, 33, 1, 288, 256
-0.739581, 33, 97, 288, 352
-0.853711, 353, 1, 480, 256
-0.864857, 81, 1, 208, 256
-0.871966, 1, 49, 500, 176
-0.872078, 193, 1, 320, 375
-0.872352, 273, 1, 400, 256
-0.874972, 177, 65, 304, 320
-0.876247, 129, 1, 256, 256
-0.877162, 81, 1, 208, 375
-0.877302, 257, 1, 384, 375
-0.878658, 1, 97, 500, 224
-0.882083, 305, 97, 432, 352
-0.884495, 1, 1, 500, 128
-0.887588, 129, 97, 256, 352
-0.888889, 353, 97, 480, 352
-0.890773, 257, 97, 384, 352
-0.891003, 225, 1, 352, 256
-0.892742, 145, 1, 272, 375
-0.892789, 305, 1, 432, 375
-0.893746, 33, 129, 160, 375
-0.898772, 1, 193, 500, 320
-0.902582, 369, 1, 496, 375
-0.907145, 33, 1, 288, 128
-0.908353, 1, 1, 128, 375
-0.909714, 33, 1, 160, 256
-0.910399, 193, 1, 448, 128
-0.911417, 81, 129, 208, 375
-0.913688, 129, 49, 384, 176
-0.924579, 1, 145, 500, 272
-0.925434, 193, 193, 448, 320
-0.926402, 113, 1, 240, 128
-0.926492, 33, 81, 288, 208
-0.929048, 225, 49, 480, 176
-0.929404, 369, 1, 496, 128
-0.931757, 161, 97, 416, 224
-0.933946, 177, 49, 304, 176
-0.934252, 65, 177, 320, 304
-0.936115, 161, 145, 416, 272
-0.937174, 257, 65, 384, 192
-0.938897, 1, 241, 500, 368
-0.939593, 65, 225, 320, 352
-0.940038, 289, 17, 416, 144
-0.940204, 225, 209, 288, 336
-0.940322, 241, 209, 368, 336
-0.940863, 241, 1, 368, 128
-0.941893, 361, 113, 424, 240
-0.942145, 177, 17, 240, 144
-0.942261, 129, 49, 256, 176
-0.94245, 417, 1, 480, 128
-0.94339, 273, 145, 400, 272
-0.944578, 361, 65, 424, 192
-0.944839, 193, 193, 320, 320
-0.945069, 177, 1, 304, 128
-0.945937, 305, 65, 432, 192
-0.94608, 377, 1, 440, 128
-0.946273, 353, 49, 480, 176
-0.946372, 337, 193, 400, 320
-0.946694, 305, 225, 368, 352
-0.946885, 249, 193, 312, 320
-0.947537, 257, 145, 500, 272
-0.947634, 153, 1, 216, 128
-0.947711, 97, 97, 224, 224
-0.94806, 353, 129, 480, 256
-0.948831, 265, 73, 328, 136
-0.948919, 265, 49, 328, 176
-0.94936, 225, 241, 480, 368
-0.949745, 49, 1, 176, 128
-0.949771, 321, 65, 384, 192
-0.949845, 249, 1, 312, 128
-0.950106, 209, 33, 272, 160
-0.950375, 121, 81, 184, 208
-0.951178, 257, 97, 500, 224
-0.952199, 273, 1, 336, 128
-0.952665, 281, 209, 344, 336
-0.953019, 305, 193, 432, 320
-0.953375, 321, 145, 384, 272
-0.954828, 129, 1, 192, 128
-0.955187, 409, 17, 472, 80
-0.955364, 313, 17, 376, 144
-0.955432, 1, 129, 256, 256
-0.955913, 361, 177, 424, 304
-0.9563, 193, 193, 256, 320
-0.956405, 113, 161, 176, 288
-0.956535, 353, 1, 416, 128
-0.956912, 201, 193, 264, 256
-0.956981, 65, 49, 192, 176
-0.957245, 433, 49, 496, 176
-0.957802, 97, 1, 160, 128
-0.957802, 385, 49, 448, 176
-0.958492, 217, 73, 280, 136
-0.958736, 273, 209, 336, 272
-0.958754, 153, 65, 216, 192
-0.959018, 433, 17, 496, 80
-0.959043, 1, 17, 64, 144
-0.959231, 185, 49, 248, 112
-0.959412, 257, 241, 320, 368
-0.959456, 145, 177, 208, 304
-0.959967, 249, 209, 312, 272
-0.96046, 129, 177, 256, 304
-0.960469, 49, 145, 176, 272
-0.960636, 353, 177, 480, 304
-0.960898, 289, 49, 352, 176
-0.961067, 305, 233, 368, 296
-0.961157, 305, 297, 368, 360
-0.961632, 137, 225, 200, 352
-0.961637, 113, 225, 176, 352
-0.961868, 433, 113, 496, 240
-0.961879, 129, 225, 256, 352
-0.962251, 97, 97, 160, 224
-0.962434, 241, 57, 304, 120
-0.962648, 329, 81, 392, 144
-0.962773, 33, 97, 160, 224
-0.962829, 89, 241, 152, 368
-0.963068, 337, 241, 464, 368
-0.963148, 225, 201, 288, 264
-0.963534, 225, 161, 288, 288
-0.963648, 329, 241, 392, 368
-0.964035, 1, 241, 128, 368
-0.96404, 25, 33, 88, 160
-0.964094, 169, 73, 232, 136
-0.964392, 241, 65, 304, 192
-0.96461, 193, 145, 320, 272
-0.964676, 345, 217, 408, 280
-0.96475, 49, 225, 176, 352
-0.964752, 369, 73, 432, 136
-0.964947, 361, 121, 424, 184
-0.964966, 169, 161, 232, 288
-0.965111, 169, 1, 232, 64
-0.965376, 41, 81, 104, 208
-0.96539, 121, 1, 184, 64
-0.965472, 385, 113, 448, 240
-0.965693, 289, 73, 352, 136
-0.966795, 169, 209, 232, 336
-0.966966, 177, 193, 240, 256
-0.967328, 225, 225, 288, 288
-0.967354, 145, 97, 272, 224
-0.967504, 201, 241, 264, 368
-0.96766, 241, 81, 304, 144
-0.967691, 65, 209, 128, 336
-0.967739, 145, 177, 208, 240
-0.967748, 321, 193, 384, 256
-0.967911, 209, 73, 336, 136
-0.967965, 97, 1, 160, 64
-0.968129, 361, 153, 424, 216
-0.968215, 305, 257, 368, 320
-0.968253, 193, 1, 256, 64
-0.9684, 1, 241, 64, 368
-0.968428, 177, 113, 240, 240
-0.968447, 385, 9, 448, 72
-0.968579, 89, 145, 152, 272
-0.968877, 129, 65, 192, 128
-0.968992, 385, 121, 448, 184
-0.969118, 289, 161, 352, 288
-0.969244, 41, 241, 104, 368
-0.96935, 345, 305, 408, 368
-0.969599, 177, 241, 304, 368
-0.969631, 113, 177, 176, 240
-0.969659, 185, 65, 248, 192
-0.969699, 409, 41, 472, 104
-0.969792, 1, 33, 64, 96
-0.970042, 361, 185, 424, 248
-0.970142, 409, 81, 472, 208
-0.970228, 201, 217, 264, 280
-0.970478, 201, 25, 264, 88
-0.970503, 185, 297, 248, 360
-0.970742, 1, 145, 128, 272
-0.970812, 153, 113, 216, 240
-0.970815, 433, 1, 496, 256
-0.970988, 249, 305, 312, 368
-0.97122, 273, 241, 336, 304
-0.97131, 257, 73, 384, 136
-0.971339, 65, 129, 128, 256
-0.971414, 361, 97, 424, 160
-0.971638, 193, 73, 256, 136
-0.971659, 33, 313, 96, 375
-0.97186, 433, 113, 496, 176
-0.971871, 345, 193, 376, 320
-0.972113, 169, 25, 232, 88
-0.972123, 409, 145, 472, 208
-0.972241, 329, 1, 392, 64
-0.972513, 433, 41, 496, 104
-0.972545, 409, 145, 472, 272
-0.972605, 369, 33, 432, 288
-0.972685, 265, 65, 296, 128
-0.97272, 345, 257, 408, 320
-0.97276, 153, 209, 216, 272
-0.972867, 65, 1, 128, 128
-0.972899, 225, 313, 288, 375
-0.972963, 17, 161, 80, 288
-0.973188, 289, 241, 416, 368
-0.973315, 369, 17, 496, 80
-0.973361, 409, 1, 472, 256
-0.973605, 177, 49, 304, 112
-0.973657, 209, 97, 336, 224
-0.973817, 385, 49, 448, 112
-0.973851, 177, 217, 240, 280
-0.973889, 201, 145, 264, 272
-0.973895, 153, 305, 216, 368
-0.973941, 145, 25, 208, 88
-0.974059, 145, 1, 208, 64
-0.974059, 249, 145, 312, 272
-0.974135, 445, 1, 476, 128
-0.974173, 1, 9, 64, 72
-0.97422, 193, 201, 320, 264
-0.97446, 145, 281, 208, 344
-0.974461, 145, 89, 208, 152
-0.974481, 321, 169, 384, 232
-0.974526, 105, 81, 168, 144
-0.97456, 433, 241, 496, 368
-0.974595, 273, 313, 336, 375
-0.97462, 441, 1, 472, 64
-0.97464, 273, 217, 400, 280
-0.974691, 177, 1, 304, 64
-0.974712, 113, 1, 240, 64
-0.974756, 209, 49, 272, 112
-0.974872, 289, 1, 352, 64
-0.97494, 461, 1, 492, 128
-0.974969, 353, 241, 416, 368
-0.974981, 325, 209, 356, 336
-0.975041, 353, 49, 416, 112
-0.975085, 205, 17, 236, 144
-0.975147, 73, 9, 136, 72
-0.975229, 337, 145, 464, 208
-0.97523, 285, 73, 316, 136
-0.975231, 345, 97, 408, 352
-0.975268, 161, 73, 288, 136
-0.975331, 241, 33, 304, 96
-0.975379, 181, 1, 212, 128
-0.975433, 9, 1, 40, 64
-0.97549, 41, 41, 104, 104
-0.975533, 225, 1, 288, 64
-0.975749, 161, 49, 224, 112
-0.975762, 113, 257, 176, 320
-0.975807, 353, 225, 384, 288
-0.975911, 89, 161, 152, 224
-0.975941, 321, 1, 384, 256
-0.975973, 453, 17, 484, 80
-0.976015, 265, 17, 296, 144
-0.976062, 249, 233, 312, 296
-0.976065, 141, 65, 172, 192
-0.976148, 281, 281, 344, 344
-0.976183, 105, 201, 168, 264
-0.976244, 361, 9, 424, 72
-0.976425, 145, 193, 272, 256
-0.976469, 249, 281, 312, 344
-0.976626, 465, 17, 496, 80
-0.976646, 17, 1, 144, 64
-0.97668, 145, 241, 208, 304
-0.976793, 357, 193, 388, 320
-0.976858, 185, 97, 248, 352
-0.976875, 265, 1, 328, 64
-0.976979, 1, 1, 128, 128
-0.976983, 97, 73, 224, 136
-0.976991, 249, 185, 312, 248
-0.977016, 265, 33, 328, 96
-0.977016, 297, 209, 360, 272
-0.97706, 253, 1, 284, 128
-0.977206, 89, 193, 152, 320
-0.977327, 185, 113, 248, 176
-0.977357, 113, 289, 176, 352
-0.977362, 321, 1, 448, 64
-0.977381, 17, 113, 80, 240
-0.977419, 225, 289, 288, 352
-0.977445, 169, 1, 200, 128
-0.977487, 425, 305, 488, 368
-0.977614, 321, 97, 384, 352
-0.977692, 1, 193, 128, 320
-0.977697, 65, 297, 128, 360
-0.977703, 1, 65, 64, 192
-0.977706, 377, 49, 408, 176
-0.977773, 225, 233, 352, 296
-0.977778, 17, 57, 80, 120
-0.977886, 313, 57, 376, 120
-0.977889, 369, 65, 496, 128
-0.977904, 17, 273, 80, 336
-0.977982, 417, 81, 480, 144
-0.978015, 253, 193, 284, 320
-0.978207, 41, 249, 104, 312
-0.978252, 253, 57, 284, 120
-0.978365, 209, 41, 240, 104
-0.978414, 185, 241, 248, 304
-0.97847, 249, 97, 312, 352
-0.978497, 185, 273, 248, 336
-0.978518, 377, 105, 408, 168
-0.978519, 113, 153, 176, 216
-0.978535, 9, 1, 40, 128
-0.978543, 265, 193, 296, 320
-0.978577, 289, 49, 416, 112
-0.978614, 345, 241, 376, 368
-0.97863, 305, 73, 432, 136
-0.978647, 209, 97, 272, 352
-0.978648, 401, 49, 432, 176
-0.978717, 429, 1, 460, 64
-0.978751, 185, 169, 248, 232
-0.978779, 97, 1, 160, 256
-0.978786, 337, 145, 400, 208
-0.978933, 353, 169, 480, 232
-0.978978, 273, 185, 400, 248
-0.978994, 197, 1, 228, 64
-0.979003, 193, 49, 224, 176
-0.979008, 129, 49, 256, 112
-0.979107, 25, 9, 88, 72
-0.979121, 213, 1, 244, 64
-0.979228, 413, 1, 444, 128
-0.979233, 289, 49, 352, 112
-0.979272, 381, 81, 412, 144
-0.979302, 281, 49, 312, 176
-0.979327, 97, 177, 224, 240
-0.979332, 189, 193, 220, 256
-0.979347, 141, 177, 172, 304
-0.979367, 353, 129, 384, 256
-0.979388, 237, 65, 268, 128
-0.979404, 249, 257, 312, 320
-0.979407, 113, 233, 176, 296
-0.979436, 125, 1, 156, 128
-0.979452, 357, 201, 388, 264
-0.979503, 89, 281, 152, 344
-0.979532, 281, 97, 344, 224
-0.97955, 337, 225, 368, 288
-0.979586, 241, 209, 272, 336
-0.979688, 393, 193, 456, 320
-0.979689, 353, 121, 480, 184
-0.97974, 169, 1, 232, 256
-0.979765, 345, 273, 376, 336
-0.979781, 433, 153, 496, 216
-0.979815, 345, 313, 376, 375
-0.979836, 193, 1, 224, 128
-0.97985, 201, 73, 232, 136
-0.979879, 101, 1, 132, 64
-0.979931, 89, 49, 152, 176
-0.979932, 281, 193, 312, 320
-0.979932, 393, 89, 456, 152
-0.979954, 393, 1, 424, 128
-0.979989, 181, 65, 212, 128
-0.980126, 277, 209, 308, 272
-0.980164, 297, 73, 328, 136
-0.98022, 209, 97, 272, 160
-0.980325, 33, 49, 160, 112
-0.980344, 253, 209, 284, 272
-0.980396, 369, 209, 432, 272
-0.980397, 413, 17, 444, 80
-0.980417, 293, 17, 324, 144
-0.980421, 129, 313, 192, 375
-0.980427, 217, 81, 280, 208
-0.98043, 221, 193, 252, 256
-0.980449, 49, 273, 112, 336
-0.980467, 105, 33, 168, 96
-0.980468, 177, 225, 304, 288
-0.980509, 157, 97, 188, 224
-0.980544, 337, 281, 400, 344
-0.980645, 145, 17, 176, 144
-0.980665, 221, 193, 252, 320
-0.980743, 453, 49, 484, 112
-0.980749, 337, 121, 400, 184
-0.980761, 1, 1, 64, 256
-0.980777, 17, 241, 80, 304
-0.980791, 129, 81, 160, 208
-0.980793, 357, 33, 388, 160
-0.980793, 29, 33, 60, 96
-0.980794, 241, 281, 368, 344
-0.98082, 33, 25, 160, 88
-0.980868, 133, 1, 164, 64
-0.98088, 209, 193, 240, 256
-0.980983, 209, 97, 336, 160
-0.980983, 273, 185, 336, 248
-0.98102, 433, 161, 496, 288
-0.981023, 277, 1, 308, 128
-0.981082, 225, 177, 288, 240
-0.981095, 237, 201, 268, 264
-0.981217, 425, 1, 456, 128
-0.981255, 269, 65, 300, 192
-0.981286, 469, 57, 500, 120
-0.981306, 41, 105, 104, 168
-0.981308, 325, 17, 356, 144
-0.981341, 217, 33, 248, 160
-0.981417, 97, 313, 160, 375
-0.981467, 321, 193, 448, 256
-0.981511, 273, 1, 400, 64
-0.981528, 357, 249, 388, 312
-0.981588, 209, 1, 272, 256
-0.98163, 297, 65, 360, 320
-0.981673, 57, 153, 120, 216
-0.981689, 1, 49, 128, 176
-0.981736, 65, 1, 192, 64
-0.981738, 129, 201, 192, 264
-0.981738, 81, 225, 144, 288
-0.981786, 97, 25, 224, 88
-0.981853, 137, 97, 200, 352
-0.981884, 25, 81, 88, 144
-0.982014, 297, 217, 328, 280
-0.982024, 153, 161, 184, 288
-0.982113, 401, 177, 464, 240
-0.98212, 157, 17, 188, 144
-0.982166, 265, 97, 328, 160
-0.98217, 321, 265, 448, 328
-0.982181, 313, 217, 344, 280
-0.98221, 381, 1, 412, 128
-0.982245, 25, 217, 88, 280
-0.982261, 25, 1, 88, 256
-0.982287, 109, 169, 140, 232
-0.982331, 273, 97, 400, 160
-0.982334, 345, 1, 408, 256
-0.98236, 461, 81, 492, 208
-0.982392, 305, 17, 336, 144
-0.982429, 385, 241, 448, 368
-0.982467, 173, 177, 204, 240
-0.98251, 305, 25, 432, 88
-0.982529, 357, 73, 388, 136
-0.982598, 81, 89, 144, 152
-0.982678, 385, 313, 448, 375
-0.982699, 209, 265, 272, 328
-0.982715, 369, 41, 496, 104
-0.982753, 241, 161, 272, 288
-0.982757, 349, 81, 380, 208
-0.982758, 145, 1, 208, 256
-0.982759, 49, 17, 112, 80
-0.982784, 369, 129, 400, 192
-0.98281, 9, 297, 72, 360
-0.982932, 305, 209, 336, 336
-0.982935, 1, 241, 128, 304
-0.982998, 397, 9, 428, 72
-0.982999, 233, 1, 296, 256
-0.98309, 221, 241, 252, 368
-0.983133, 169, 73, 200, 136
-0.983135, 125, 161, 156, 288
-0.983138, 241, 49, 368, 112
-0.983155, 441, 33, 472, 96
-0.983168, 197, 41, 228, 104
-0.983168, 145, 177, 176, 240
-0.983357, 365, 81, 396, 208
-0.983413, 121, 209, 152, 336
-0.983437, 261, 89, 292, 152
-0.98345, 49, 305, 176, 368
-0.983463, 225, 1, 352, 64
-0.983477, 273, 129, 336, 375
-0.983488, 337, 249, 368, 312
-0.983509, 121, 1, 184, 256
-0.983522, 205, 177, 236, 304
-0.98358, 353, 177, 384, 240
-0.983599, 273, 145, 400, 208
-0.983611, 57, 97, 120, 352
-0.983665, 341, 17, 372, 144
-0.983682, 193, 177, 224, 304
-0.983755, 201, 113, 232, 176
-0.983767, 273, 241, 400, 304
-0.983845, 121, 169, 152, 232
-0.983852, 389, 113, 420, 240
-0.983912, 1, 313, 128, 375
-0.983914, 465, 145, 496, 208
-0.983926, 309, 65, 340, 128
-0.984098, 305, 297, 432, 360
-0.9841, 161, 297, 288, 360
-0.9842, 181, 49, 212, 176
-0.984275, 153, 65, 184, 128
-0.984321, 253, 49, 284, 176
-0.98437, 73, 1, 136, 256
-0.984529, 105, 1, 136, 128
-0.984583, 249, 81, 280, 144
-0.984591, 49, 169, 176, 232
-0.984591, 365, 225, 396, 288
-0.984642, 469, 129, 500, 256
-0.984649, 465, 121, 496, 184
-0.984708, 97, 201, 224, 264
-0.984729, 257, 25, 384, 88
-0.984765, 361, 241, 392, 368
-0.984765, 217, 81, 248, 144
-0.98477, 257, 305, 384, 368
-0.984819, 321, 225, 448, 288
-0.98483, 201, 225, 232, 352
-0.984836, 41, 193, 104, 320
-0.984839, 161, 273, 288, 336
-0.984869, 265, 209, 296, 272
-0.98489, 49, 217, 176, 280
-0.984901, 25, 17, 56, 144
-0.984981, 365, 305, 396, 368
-0.984991, 417, 129, 448, 192
-0.984991, 181, 289, 212, 352
-0.985094, 353, 153, 384, 216
-0.985099, 313, 1, 376, 375
-0.98513, 385, 9, 416, 72
-0.985132, 177, 169, 304, 232
-0.985165, 113, 1, 176, 375
-0.985195, 145, 113, 176, 240
-0.985289, 97, 297, 224, 360
-0.985319, 293, 193, 324, 320
-0.98534, 1, 145, 128, 208
-0.985375, 229, 33, 260, 160
-0.9854, 45, 49, 76, 112
-0.985449, 225, 177, 352, 240
-0.985455, 233, 281, 264, 344
-0.98547, 161, 177, 192, 240
-0.985491, 401, 57, 432, 120
-0.985533, 165, 161, 196, 288
-0.98563, 49, 73, 176, 136
-0.985638, 97, 97, 224, 160
-0.98564, 177, 177, 208, 304
-0.985655, 369, 129, 400, 256
-0.985663, 21, 1, 52, 64
-0.985706, 205, 225, 236, 288
-0.985723, 197, 113, 228, 240
-0.985743, 193, 25, 320, 88
-0.985766, 293, 65, 324, 192
-0.985777, 1, 273, 128, 336
-0.985786, 353, 89, 480, 152
-0.985795, 325, 217, 356, 280
-0.985796, 369, 313, 496, 375
-0.985834, 109, 145, 140, 272
-0.985857, 393, 33, 424, 96
-0.985866, 305, 1, 336, 64
-0.985866, 449, 65, 480, 192
-0.985876, 109, 201, 140, 264
-0.985913, 413, 113, 444, 240
-0.985914, 125, 81, 156, 144
-0.985992, 181, 241, 212, 368
-0.986002, 97, 225, 224, 288
-0.986003, 305, 241, 336, 304
-0.986014, 269, 41, 300, 104
-0.986046, 189, 217, 220, 280
-0.986071, 141, 241, 172, 368
-0.986089, 193, 297, 224, 360
-0.98615, 157, 209, 188, 336
-0.98615, 285, 241, 316, 368
-0.986214, 133, 177, 164, 240
-0.986228, 297, 281, 328, 344
-0.986305, 461, 97, 492, 160
-0.986324, 153, 209, 184, 272
-0.986352, 369, 201, 400, 264
-0.986367, 221, 41, 252, 104
-0.986381, 121, 193, 152, 256
-0.986436, 209, 1, 272, 375
-0.986508, 389, 57, 420, 120
-0.986508, 301, 305, 332, 368
-0.986549, 281, 289, 312, 352
-0.986584, 149, 1, 180, 64
-0.986596, 273, 121, 400, 184
-0.986603, 149, 297, 180, 360
-0.986639, 261, 233, 292, 296
-0.98671, 309, 65, 340, 192
-0.986745, 113, 129, 176, 375
-0.986801, 345, 1, 408, 375
-0.986811, 225, 257, 352, 320
-0.986814, 425, 25, 456, 88
-0.986824, 413, 49, 444, 176
-0.986829, 249, 1, 312, 375
-0.986896, 369, 177, 400, 304
-0.986939, 125, 305, 156, 368
-0.986948, 57, 297, 88, 360
-0.986982, 353, 289, 480, 352
-0.986991, 357, 273, 388, 336
-0.987084, 13, 25, 44, 88
-0.987106, 37, 313, 68, 375
-0.987113, 241, 225, 272, 288
-0.987134, 49, 249, 176, 312
-0.987138, 217, 305, 248, 368
-0.987204, 389, 65, 420, 192
-0.987222, 145, 25, 272, 88
-0.987225, 141, 65, 172, 128
-0.987296, 185, 1, 248, 375
-0.987304, 209, 305, 336, 368
-0.987305, 113, 1, 144, 64
-0.987324, 1, 97, 128, 160
-0.987327, 161, 97, 288, 160
-0.987331, 101, 225, 132, 288
-0.987334, 285, 49, 316, 112
-0.987339, 433, 97, 496, 352
-0.987347, 333, 161, 364, 288
-0.987347, 413, 41, 444, 104
-0.98736, 57, 33, 88, 96
-0.987362, 49, 273, 176, 336
-0.987392, 145, 1, 208, 375
-0.987402, 181, 89, 212, 152
-0.98742, 185, 1, 216, 64
-0.987434, 429, 137, 460, 200
-0.987441, 17, 129, 80, 375
-0.987458, 81, 129, 144, 375
-0.987458, 253, 241, 284, 368
-0.987477, 97, 153, 224, 216
-0.987487, 241, 41, 272, 104
-0.987493, 97, 161, 128, 288
-0.987506, 97, 257, 224, 320
-0.987508, 281, 1, 344, 375
-0.987508, 1, 121, 128, 184
-0.987537, 397, 113, 428, 176
-0.98754, 337, 65, 368, 192
-0.987542, 81, 113, 112, 240
-0.987551, 273, 89, 304, 152
-0.987582, 177, 249, 304, 312
-0.987714, 169, 305, 200, 368
-0.987745, 369, 81, 400, 144
-0.987777, 273, 145, 304, 272
-0.987807, 13, 241, 44, 304
-0.987821, 249, 185, 280, 248
-0.987823, 433, 1, 496, 375
-0.987861, 333, 289, 364, 352
-0.987872, 225, 1, 256, 64
-0.987889, 345, 201, 376, 264
-0.987915, 313, 281, 344, 344
-0.987925, 453, 73, 484, 136
-0.987952, 17, 225, 48, 352
-0.988029, 1, 25, 32, 88
-0.98808, 317, 241, 348, 304
-0.988085, 113, 297, 144, 360
-0.988132, 321, 65, 352, 192
-0.988144, 369, 193, 496, 256
-0.988189, 177, 97, 208, 224
-0.988238, 221, 217, 252, 280
-0.988261, 273, 81, 336, 112
-0.988344, 185, 25, 216, 88
-0.988353, 89, 1, 152, 375
-0.988416, 97, 225, 128, 352
-0.988467, 241, 49, 272, 176
-0.988507, 225, 145, 256, 272
-0.988507, 369, 129, 432, 375
-0.988678, 293, 1, 324, 64
-0.988686, 165, 201, 196, 264
-0.988697, 49, 1, 112, 256
-0.988703, 273, 1, 336, 256
-0.988706, 409, 241, 472, 368
-0.98875, 365, 105, 396, 168
-0.988752, 341, 73, 372, 136
-0.988811, 265, 241, 296, 368
-0.988877, 69, 241, 100, 368
-0.988983, 233, 69, 296, 100
-0.989013, 49, 145, 176, 208
-0.98906, 253, 145, 284, 272
-0.989062, 161, 97, 224, 352
-0.989215, 241, 213, 304, 244
-0.989218, 369, 1, 432, 375
-0.989232, 249, 81, 312, 112
-0.989242, 329, 85, 392, 116
-0.989245, 169, 49, 200, 176
-0.989256, 169, 93, 232, 124
-0.989275, 109, 209, 140, 336
-0.989301, 1, 1, 64, 375
-0.989363, 429, 129, 460, 256
-0.98939, 205, 65, 236, 192
-0.989393, 393, 97, 456, 352
-0.989445, 97, 1, 160, 32
-0.989457, 105, 89, 168, 120
-0.989514, 117, 97, 148, 224
-0.989523, 397, 161, 428, 288
-0.989555, 49, 193, 176, 256
-0.989631, 209, 77, 272, 108
-0.989674, 417, 5, 480, 36
-0.989694, 25, 145, 56, 272
-0.989738, 209, 113, 240, 240
-0.989749, 369, 1, 400, 128
-0.989792, 61, 81, 92, 208
-0.989832, 217, 201, 280, 232
-0.989835, 49, 97, 176, 160
-0.989899, 49, 225, 80, 352
-0.98991, 257, 225, 320, 256
-0.989931, 305, 249, 368, 280
-0.989979, 177, 81, 240, 112
-0.989988, 193, 49, 256, 80
-0.990007, 429, 65, 460, 192
-0.990068, 169, 105, 232, 136
-0.990073, 129, 93, 192, 124
-0.990078, 377, 17, 440, 48
-0.990121, 321, 237, 384, 268
-0.990123, 241, 1, 272, 128
-0.990143, 257, 69, 320, 100
-0.990176, 369, 77, 432, 108
-0.990194, 281, 217, 344, 248
-0.990215, 417, 21, 480, 52
-0.990229, 297, 81, 360, 112
-0.990236, 1, 217, 128, 280
-0.99024, 1, 209, 32, 336
-0.990259, 193, 221, 256, 252
-0.990278, 65, 1, 320, 64
-0.99029, 257, 17, 500, 80
-0.990295, 193, 197, 256, 228
-0.990325, 305, 265, 368, 296
-0.99037, 385, 133, 448, 164
-0.990412, 369, 257, 496, 320
-0.990429, 281, 245, 344, 276
-0.990448, 137, 181, 200, 212
-0.99045, 281, 229, 344, 260
-0.990484, 361, 161, 424, 192
-0.990501, 169, 189, 232, 220
-0.990545, 57, 1, 120, 375
-0.990553, 193, 65, 256, 96
-0.990569, 17, 45, 80, 76
-0.990603, 361, 121, 424, 152
-0.990615, 345, 249, 408, 280
-0.990646, 209, 89, 272, 120
-0.990677, 153, 81, 216, 112
-0.990685, 45, 33, 76, 160
-0.990689, 241, 253, 304, 284
-0.990694, 305, 305, 368, 336
-0.990712, 249, 93, 312, 124
-0.990714, 273, 305, 336, 336
-0.99073, 161, 209, 224, 240
-0.99074, 97, 73, 352, 136
-0.990758, 85, 209, 116, 336
-0.990785, 329, 213, 392, 244
-0.990812, 217, 305, 280, 336
-0.990817, 425, 41, 488, 72
-0.990818, 361, 193, 424, 224
-0.990826, 329, 225, 392, 256
-0.990829, 217, 213, 280, 244
-0.990847, 177, 233, 240, 264
-0.990865, 353, 145, 416, 176
-0.990879, 193, 113, 256, 144
-0.990899, 153, 229, 216, 260
-0.990903, 441, 241, 472, 368
-0.990912, 289, 93, 352, 124
-0.990928, 305, 321, 368, 352
-0.990945, 25, 297, 88, 328
-0.990951, 105, 13, 168, 44
-0.990951, 305, 293, 368, 324
-0.990953, 225, 265, 288, 296
-0.990959, 305, 225, 368, 256
-0.990974, 73, 1, 136, 32
-0.990977, 377, 345, 440, 375
-0.990982, 185, 277, 248, 308
-0.990989, 1, 13, 64, 44
-0.990998, 353, 1, 416, 32
-0.99101, 29, 241, 60, 368
-0.991014, 265, 205, 328, 236
-0.991021, 81, 121, 208, 184
-0.991022, 273, 257, 336, 288
-0.991026, 113, 181, 176, 212
-0.991034, 305, 161, 336, 288
-0.991038, 97, 313, 160, 344
-0.991072, 361, 177, 424, 208
-0.991073, 169, 1, 232, 32
-0.991085, 217, 233, 280, 264
-0.991086, 257, 317, 320, 348
-0.991091, 361, 217, 424, 248
-0.991091, 289, 69, 352, 100
-0.991097, 321, 73, 384, 104
-0.991098, 185, 305, 248, 336
-0.991098, 273, 329, 336, 360
-0.991098, 345, 321, 408, 352
-0.991119, 145, 193, 208, 224
-0.991132, 41, 345, 104, 375
-0.991139, 65, 81, 128, 208
-0.991142, 65, 297, 128, 328
-0.991152, 313, 345, 376, 375
-0.991153, 193, 5, 256, 36
-0.991155, 113, 221, 176, 252
-0.991156, 89, 249, 152, 280
-0.991158, 169, 61, 232, 92
-0.991158, 145, 245, 208, 276
-0.991166, 241, 305, 304, 336
-0.991178, 377, 1, 440, 32
-0.991192, 425, 129, 488, 160
-0.991194, 137, 261, 200, 292
-0.991204, 249, 285, 312, 316
-0.991211, 241, 201, 304, 232
-0.991213, 73, 329, 136, 360
-0.99122, 145, 1, 208, 32
-0.991227, 329, 265, 392, 296
-0.991239, 369, 89, 432, 120
-0.991246, 225, 57, 288, 88
-0.991248, 361, 133, 424, 164
-0.991251, 169, 241, 200, 368
-0.991257, 393, 149, 456, 180
-0.991259, 9, 345, 72, 375
-0.99126, 161, 317, 224, 348
-0.991272, 121, 237, 184, 268
-0.991274, 185, 249, 248, 280
-0.991281, 321, 161, 352, 288
-0.991283, 97, 169, 160, 200
-0.991295, 121, 193, 184, 224
-0.991298, 241, 241, 304, 272
-0.991304, 73, 317, 136, 348
-0.991306, 225, 285, 288, 316
-0.991309, 353, 205, 416, 236
-0.991314, 329, 201, 392, 232
-0.991316, 89, 341, 152, 372
-0.991317, 137, 69, 200, 100
-0.991325, 193, 209, 256, 240
-0.99133, 121, 325, 184, 356
-0.991334, 41, 49, 104, 80
-0.991342, 137, 297, 200, 328
-0.991343, 169, 17, 232, 48
-0.991366, 161, 261, 224, 292
-0.991366, 257, 273, 320, 304
-0.991368, 193, 177, 448, 240
-0.991377, 321, 173, 384, 204
-0.99138, 425, 141, 488, 172
-0.991385, 329, 185, 392, 216
-0.991387, 137, 309, 200, 340
-0.9914, 337, 13, 400, 44
-0.991406, 145, 105, 208, 136
-0.991426, 105, 261, 168, 292
-0.991431, 281, 317, 344, 348
-0.991502, 409, 161, 440, 288
-0.991517, 1, 169, 128, 232
-0.991518, 225, 73, 480, 136
-0.99182, 1, 97, 500, 160
-0.991863, 457, 129, 488, 256
-0.991956, 1, 73, 128, 136
-0.991958, 81, 49, 208, 112
-0.992049, 1, 73, 500, 136
-0.992073, 193, 49, 448, 112
-0.992175, 265, 85, 296, 116
-0.992181, 401, 1, 464, 375
-0.992207, 273, 73, 304, 104
-0.992224, 97, 49, 352, 112
-0.992257, 161, 145, 288, 208
-0.992342, 205, 49, 236, 80
-0.992344, 285, 73, 316, 104
-0.99236, 245, 73, 276, 104
-0.992388, 1, 193, 128, 256
-0.992433, 33, 65, 64, 192
-0.99249, 277, 85, 308, 116
-0.992492, 97, 201, 352, 264
-0.992495, 441, 9, 472, 40
-0.992504, 133, 89, 164, 120
-0.992505, 205, 81, 236, 112
-0.992505, 161, 1, 416, 64
-0.992543, 193, 1, 224, 32
-0.992579, 465, 45, 496, 76
-0.992593, 9, 5, 40, 36
-0.992598, 453, 21, 484, 52
-0.992601, 265, 217, 296, 248
-0.992606, 241, 85, 368, 116
-0.992617, 229, 73, 260, 104
-0.992617, 345, 289, 376, 320
-0.992621, 125, 173, 156, 204
-0.992638, 113, 1, 144, 32
-0.992641, 109, 89, 140, 120
-0.992646, 257, 65, 288, 96
-0.992647, 201, 93, 232, 124
-0.992649, 305, 81, 336, 112
-0.992667, 277, 217, 308, 248
-0.99267, 345, 321, 376, 352
-0.992672, 369, 225, 496, 288
-0.992677, 21, 97, 52, 224
-0.992677, 229, 57, 260, 88
-0.992678, 249, 217, 280, 248
-0.992691, 345, 245, 376, 276
-0.992702, 361, 85, 392, 116
-0.992705, 225, 153, 352, 216
-0.992719, 5, 49, 36, 176
-0.992721, 345, 261, 376, 292
-0.992722, 217, 69, 248, 100
-0.992722, 201, 109, 232, 140
-0.992724, 185, 85, 216, 116
-0.992724, 193, 281, 448, 344
-0.992733, 345, 305, 376, 336
-0.992733, 197, 61, 228, 92
-0.992733, 177, 189, 208, 220
-0.992733, 369, 149, 400, 180
-0.992735, 33, 41, 64, 72
-0.992739, 377, 105, 408, 136
-0.99276, 453, 5, 484, 36
-0.992778, 157, 189, 188, 220
-0.992779, 217, 49, 248, 80
-0.992779, 381, 77, 412, 108
-0.992781, 429, 5, 460, 36
-0.992782, 293, 217, 324, 248
-0.992782, 205, 221, 236, 252
-0.992784, 285, 229, 316, 260
-0.992784, 345, 277, 376, 308
-0.992792, 145, 97, 176, 128
-0.992794, 133, 189, 164, 220
-0.9928, 253, 85, 284, 116
-0.992801, 241, 205, 272, 236
-0.992802, 145, 177, 176, 208
-0.992808, 193, 201, 448, 264
-0.992821, 365, 337, 396, 368
-0.992824, 449, 45, 480, 76
-0.992832, 185, 69, 216, 100
-0.992842, 193, 13, 224, 44
-0.992843, 305, 225, 336, 256
-0.992847, 29, 341, 60, 372
-0.992847, 101, 9, 132, 40
-0.992848, 345, 337, 376, 368
-0.992848, 177, 201, 208, 232
-0.99285, 337, 233, 368, 264
-0.992851, 237, 217, 268, 248
-0.992857, 129, 1, 160, 32
-0.992857, 113, 181, 144, 212
-0.99286, 193, 189, 224, 220
-0.992865, 353, 229, 384, 260
-0.992872, 45, 45, 76, 76
-0.992883, 229, 205, 260, 236
-0.992885, 177, 69, 304, 100
-0.992888, 17, 341, 48, 372
-0.992888, 445, 33, 476, 64
-0.992892, 333, 253, 364, 284
-0.992893, 457, 33, 488, 64
-0.992901, 317, 85, 348, 116
-0.992906, 357, 257, 388, 288
-0.992906, 229, 297, 260, 328
-0.992907, 241, 285, 272, 316
-0.992909, 97, 113, 128, 240
-0.992911, 229, 229, 260, 260
-0.992912, 213, 201, 244, 232
-0.992917, 317, 221, 348, 252
-0.992921, 301, 305, 332, 336
-0.992923, 121, 89, 152, 120
-0.992923, 365, 137, 396, 168
-0.992925, 293, 89, 324, 120
-0.992926, 257, 205, 288, 236
-0.99293, 461, 57, 492, 88
-0.99293, 385, 17, 416, 48
-0.992938, 221, 281, 252, 312
-0.992939, 357, 193, 388, 224
-0.99294, 25, 1, 88, 375
-0.992943, 433, 21, 464, 52
-0.992947, 265, 97, 296, 128
-0.992953, 217, 213, 248, 244
-0.99296, 361, 213, 392, 244
-0.99296, 121, 305, 152, 336
-0.992961, 125, 17, 156, 48
-0.992963, 105, 317, 136, 348
-0.992966, 401, 113, 432, 240
-0.992966, 325, 285, 356, 316
-0.992973, 193, 225, 224, 256
-0.992977, 177, 325, 208, 356
-0.992979, 293, 245, 324, 276
-0.99298, 25, 297, 56, 328
-0.992981, 241, 61, 272, 92
-0.992982, 301, 285, 332, 316
-0.992986, 157, 97, 188, 128
-0.992988, 405, 17, 436, 48
-0.992989, 273, 241, 304, 272
-0.992992, 257, 229, 288, 260
-0.992992, 317, 249, 348, 280
-0.992996, 109, 169, 140, 200
-0.992997, 373, 217, 404, 248
-0.993001, 1, 337, 32, 368
-0.993002, 325, 233, 356, 264
-0.993005, 353, 169, 384, 200
-0.99301, 41, 333, 72, 364
-0.993012, 181, 101, 212, 132
-0.993013, 345, 77, 376, 108
-0.993013, 357, 181, 388, 212
-0.993015, 17, 21, 48, 52
-0.993018, 141, 245, 172, 276
-0.993018, 201, 277, 232, 308
-0.993021, 213, 1, 244, 32
-0.993022, 217, 325, 248, 356
-0.993023, 365, 313, 396, 344
-0.993026, 145, 201, 176, 232
-0.993027, 209, 305, 240, 336
-0.993027, 329, 81, 360, 112
-0.993031, 397, 117, 428, 148
-0.993032, 377, 117, 408, 148
-0.993034, 197, 317, 228, 348
-0.993034, 229, 265, 260, 296
-0.993067, 1, 33, 500, 96
-0.993089, 445, 129, 476, 256
-0.993137, 1, 1, 500, 64
-0.993238, 193, 81, 320, 112
-0.993323, 33, 25, 288, 88
-0.993326, 257, 97, 288, 224
-0.993326, 281, 97, 312, 224
-0.993341, 61, 193, 92, 320
-0.993361, 5, 161, 36, 288
-0.993361, 289, 81, 416, 112
-0.993387, 1, 57, 256, 120
-0.993407, 193, 97, 448, 160
-0.993423, 1, 97, 32, 224
-0.993445, 293, 145, 324, 272
-0.993474, 113, 1, 240, 32
-0.99351, 241, 73, 368, 104
-0.993611, 177, 93, 304, 124
-0.993673, 369, 5, 496, 36
-0.993708, 461, 17, 476, 80
-0.993716, 129, 225, 384, 288
-0.993934, 41, 145, 104, 272
-0.994076, 161, 305, 416, 368
-0.994116, 113, 93, 240, 124
-0.99415, 1, 177, 500, 240
-0.994151, 193, 249, 448, 312
-0.994158, 337, 173, 464, 204
-0.994164, 193, 153, 448, 216
-0.994167, 453, 9, 468, 72
-0.994221, 369, 17, 496, 48
-0.994266, 357, 233, 372, 296
-0.994276, 65, 281, 320, 344
-0.994325, 225, 217, 352, 248
-0.994332, 1, 209, 500, 272
-0.994337, 145, 81, 272, 112
-0.994344, 113, 13, 240, 44
-0.994345, 273, 73, 288, 136
-0.994377, 1, 137, 500, 200
-0.994459, 357, 289, 372, 352
-0.994465, 1, 81, 256, 144
-0.994513, 231, 193, 246, 256
-0.994539, 353, 185, 480, 216
-0.994565, 1, 185, 256, 248
-0.994595, 177, 205, 304, 236
-0.994633, 15, 1, 30, 64
-0.994635, 177, 53, 304, 84
-0.994664, 211, 41, 226, 104
-0.994719, 469, 97, 484, 160
-0.994725, 281, 73, 296, 136
-0.994747, 265, 57, 280, 120
-0.994774, 371, 129, 386, 192
-0.994813, 49, 89, 176, 120
-0.994819, 129, 25, 384, 88
-0.994834, 239, 201, 254, 264
-0.994847, 199, 185, 214, 248
-0.994851, 225, 225, 480, 288
-0.994857, 211, 193, 226, 256
-0.994861, 475, 121, 490, 184
-0.994945, 129, 185, 256, 216
-0.99496, 307, 73, 322, 136
-0.994976, 307, 217, 322, 280
-0.995024, 351, 225, 366, 288
-0.995036, 65, 305, 320, 368
-0.995038, 263, 81, 278, 144
-0.995062, 1, 161, 256, 224
-0.995073, 447, 1, 462, 64
-0.995077, 459, 49, 474, 112
-0.995082, 129, 69, 256, 100
-0.995121, 273, 221, 400, 252
-0.995155, 321, 1, 448, 32
-0.995162, 287, 73, 302, 136
-0.995165, 295, 65, 310, 128
-0.995185, 305, 17, 432, 48
-0.995191, 313, 209, 328, 272
-0.995197, 357, 265, 372, 328
-0.995231, 257, 313, 500, 375
-0.995231, 33, 1, 160, 32
-0.995233, 465, 57, 480, 120
-0.995249, 361, 209, 376, 272
-0.995252, 483, 17, 498, 80
-0.995276, 369, 73, 496, 104
-0.995276, 357, 313, 372, 375
-0.995282, 281, 209, 296, 272
-0.995304, 215, 1, 230, 64
-0.995322, 241, 277, 368, 308
-0.995328, 193, 121, 448, 184
-0.995328, 119, 169, 134, 232
-0.995332, 33, 257, 288, 320
-0.995344, 257, 201, 272, 264
-0.995352, 273, 201, 400, 232
-0.995354, 477, 17, 492, 80
-0.995369, 385, 73, 400, 136
-0.995371, 177, 121, 304, 184
-0.99539, 251, 65, 266, 128
-0.99541, 129, 121, 256, 184
-0.995428, 287, 209, 302, 272
-0.99543, 205, 193, 220, 256
-0.995431, 467, 17, 482, 80
-0.99548, 423, 17, 438, 80
-0.995494, 33, 29, 160, 60
-0.995505, 141, 1, 156, 64
-0.99552, 265, 201, 280, 264
-0.995522, 351, 273, 366, 336
-0.995543, 481, 145, 496, 208
-0.995545, 111, 1, 126, 64
-0.99557, 177, 1, 304, 32
-0.995573, 97, 177, 352, 240
-0.995578, 299, 209, 314, 272
-0.995585, 129, 197, 256, 228
-0.99559, 51, 41, 66, 104
-0.99559, 273, 261, 400, 292
-0.995595, 173, 177, 188, 240
-0.995613, 97, 81, 224, 112
-0.995615, 217, 25, 232, 88
-0.995616, 185, 65, 200, 128
-0.995617, 319, 217, 334, 280
-0.995624, 21, 1, 36, 64
-0.995642, 177, 301, 304, 332
-0.995647, 65, 101, 192, 132
-0.99565, 415, 17, 430, 80
-0.995658, 337, 145, 464, 176
-0.995684, 247, 209, 262, 272
-0.995691, 225, 201, 240, 264
-0.995693, 313, 73, 328, 136
-0.995696, 237, 289, 252, 352
-0.995701, 351, 305, 366, 368
-0.995712, 167, 177, 182, 240
-0.995713, 195, 281, 210, 344
-0.995735, 149, 177, 164, 240
-0.995741, 209, 233, 336, 264
-0.995742, 471, 57, 486, 120
-0.995747, 449, 1, 480, 256
-0.995784, 289, 93, 416, 124
-0.995791, 191, 185, 206, 248
-0.995792, 129, 33, 256, 64
-0.9958, 235, 225, 250, 288
-0.995802, 169, 65, 184, 128
-0.995837, 475, 81, 490, 144
-0.995847, 321, 277, 448, 308
-0.99585, 409, 17, 424, 80
-0.995852, 177, 217, 304, 248
-0.995869, 197, 1, 212, 64
-0.995869, 113, 161, 128, 224
-0.995882, 241, 289, 368, 320
-0.995886, 301, 65, 316, 128
-0.995911, 353, 197, 480, 228
-0.995924, 317, 241, 332, 304
-0.995927, 139, 193, 154, 256
-0.995929, 177, 317, 304, 348
-0.995933, 321, 213, 448, 244
-0.995953, 349, 249, 364, 312
-0.995955, 145, 229, 272, 260
-0.995967, 327, 217, 342, 280
-0.995973, 367, 177, 382, 240
-0.995985, 371, 209, 386, 272
-0.995986, 465, 1, 496, 256
-0.995987, 345, 217, 360, 280
-0.99599, 299, 313, 314, 375
-0.995992, 337, 133, 464, 164
-0.995993, 337, 85, 464, 116
-0.996005, 179, 65, 194, 128
-0.996011, 17, 337, 144, 368
-0.996032, 219, 185, 234, 248
-0.996033, 1, 17, 128, 48
-0.996037, 395, 65, 410, 128
-0.996038, 453, 41, 468, 104
-0.99604, 433, 1, 448, 64
-0.99604, 115, 201, 130, 264
-0.996041, 49, 173, 176, 204
-0.996051, 365, 297, 380, 360
-0.996063, 125, 177, 140, 240
-0.99607, 179, 185, 194, 248
-0.996091, 259, 225, 274, 288
-0.996097, 161, 201, 176, 264
-0.9961, 293, 217, 308, 280
-0.996102, 81, 265, 208, 296
-0.996104, 149, 281, 164, 344
-0.996105, 305, 69, 432, 100
-0.996121, 319, 289, 334, 352
-0.996128, 257, 65, 272, 128
-0.99613, 353, 33, 480, 64
-0.996138, 35, 33, 50, 96
-0.996139, 65, 13, 192, 44
-0.996139, 229, 41, 244, 104
-0.996174, 97, 97, 352, 160
-0.996175, 353, 121, 480, 152
-0.996188, 309, 241, 324, 304
-0.996198, 485, 169, 500, 232
-0.996201, 239, 49, 254, 112
-0.996204, 241, 325, 368, 356
-0.996209, 273, 233, 400, 264
-0.996213, 197, 209, 212, 272
-0.996225, 129, 285, 256, 316
-0.996228, 193, 265, 320, 296
-0.996229, 177, 329, 304, 360
-0.996231, 433, 25, 448, 88
-0.996233, 163, 65, 178, 128
-0.996241, 209, 217, 224, 280
-0.996241, 33, 261, 160, 292
-0.996242, 271, 201, 286, 264
-0.996255, 129, 53, 256, 84
-0.996255, 139, 281, 154, 344
-0.996257, 209, 89, 224, 152
-0.996258, 305, 309, 432, 340
-0.996261, 205, 49, 220, 112
-0.996264, 401, 9, 416, 72
-0.996268, 203, 217, 218, 280
-0.99627, 97, 305, 224, 336
-0.996274, 485, 41, 500, 104
-0.996274, 113, 105, 240, 136
-0.99628, 161, 177, 176, 240
-0.99628, 337, 161, 464, 192
-0.996288, 365, 233, 380, 296
-0.996289, 225, 61, 352, 92
-0.996289, 479, 57, 494, 120
-0.996289, 227, 1, 242, 64
-0.996298, 381, 105, 396, 168
-0.996303, 203, 97, 218, 160
-0.996314, 155, 177, 170, 240
-0.996316, 149, 313, 164, 375
-0.996317, 225, 253, 352, 284
-0.996323, 193, 277, 320, 308
-0.996323, 177, 341, 304, 372
-0.996327, 335, 297, 350, 360
-0.996328, 345, 313, 360, 375
-0.996341, 27, 1, 42, 64
-0.996343, 365, 257, 380, 320
-0.996346, 9, 1, 24, 64
-0.996359, 147, 1, 162, 64
-0.996361, 241, 225, 256, 288
-0.996371, 389, 9, 404, 72
-0.996372, 321, 325, 448, 356
-0.996386, 327, 305, 342, 368
-0.996397, 289, 297, 304, 360
-0.996405, 177, 25, 304, 56
-0.996407, 113, 337, 240, 368
-0.996409, 375, 105, 390, 168
-0.99641, 137, 169, 152, 232
-0.996425, 193, 37, 320, 68
-0.996452, 273, 173, 400, 204
-0.996457, 97, 325, 224, 356
-0.996466, 273, 189, 400, 220
-0.996471, 273, 337, 400, 368
-0.996473, 193, 289, 320, 320
-0.996511, 65, 245, 192, 276
-0.996528, 273, 149, 400, 180
-0.996538, 225, 9, 352, 40
-0.996547, 33, 325, 160, 356
-0.996563, 145, 253, 272, 284
-0.996581, 1, 289, 128, 320
-0.996591, 257, 309, 384, 340
-0.996592, 129, 265, 256, 296
-0.996605, 353, 301, 480, 332
-0.996614, 81, 189, 208, 220
-0.996617, 33, 305, 160, 336
-0.996635, 177, 193, 304, 224
-0.996643, 33, 233, 288, 296
-0.996646, 97, 213, 224, 244
-0.996646, 321, 289, 448, 320
-0.996666, 209, 1, 240, 256
-0.996697, 81, 201, 208, 232
-0.996726, 305, 29, 432, 60
-0.996748, 273, 161, 400, 192
-0.99675, 97, 173, 224, 204
-0.996754, 1, 209, 256, 272
-0.996779, 33, 277, 160, 308
-0.996799, 357, 129, 388, 375
-0.996818, 81, 37, 208, 68
-0.996825, 33, 129, 288, 192
-0.996828, 49, 293, 176, 324
-0.996829, 353, 97, 480, 128
-0.996836, 97, 225, 224, 256
-0.996848, 413, 1, 444, 256
-0.99685, 257, 29, 384, 60
-0.996859, 225, 97, 352, 128
-0.996918, 275, 81, 290, 112
-0.996932, 287, 77, 302, 108
-0.996936, 17, 157, 144, 188
-0.997004, 225, 205, 352, 236
-0.997007, 225, 345, 352, 375
-0.997025, 1, 233, 500, 296
-0.997043, 437, 1, 468, 256
-0.997045, 33, 77, 160, 108
-0.997062, 369, 45, 496, 76
-0.997084, 273, 1, 400, 32
-0.997085, 225, 129, 352, 192
-0.997089, 269, 81, 284, 112
-0.997107, 273, 137, 400, 168
-0.997112, 369, 341, 496, 372
-0.997113, 65, 341, 192, 372
-0.997126, 451, 1, 466, 32
-0.99714, 277, 65, 308, 320
-0.997166, 393, 1, 424, 256
-0.997171, 321, 261, 448, 292
-0.997179, 373, 65, 404, 320
-0.997183, 321, 229, 448, 260
-0.997183, 453, 13, 468, 44
-0.997193, 229, 97, 260, 352
-0.997194, 273, 105, 400, 136
-0.997209, 369, 321, 496, 352
-0.997218, 281, 73, 296, 104
-0.997246, 353, 1, 384, 256
-0.997253, 273, 245, 400, 276
-0.997259, 161, 13, 288, 44
-0.997285, 425, 1, 456, 256
-0.997294, 225, 193, 352, 224
-0.997299, 345, 129, 376, 375
-0.9973, 211, 45, 226, 76
-0.997306, 281, 85, 296, 116
-0.997308, 33, 41, 160, 72
-0.997308, 49, 229, 176, 260
-0.997309, 29, 1, 60, 256
-0.997323, 201, 97, 232, 352
-0.997326, 177, 105, 304, 136
-0.997375, 143, 89, 158, 120
-0.997377, 137, 1, 152, 32
-0.997379, 129, 241, 256, 272
-0.997379, 33, 61, 160, 92
-0.997383, 205, 109, 220, 140
-0.997397, 257, 97, 288, 352
-0.99741, 263, 85, 278, 116
-0.997425, 81, 277, 208, 308
-0.997439, 251, 69, 266, 100
-0.997445, 369, 61, 496, 92
-0.997464, 209, 93, 224, 124
-0.997475, 17, 213, 144, 244
-0.997477, 217, 97, 248, 352
-0.997499, 195, 193, 210, 224
-0.997505, 1, 289, 500, 352
-0.997526, 333, 1, 364, 256
-0.997531, 463, 45, 478, 76
-0.997535, 243, 73, 258, 104
-0.99756, 133, 177, 148, 208
-0.997576, 1, 137, 128, 168
-0.997577, 321, 345, 448, 375
-0.997582, 225, 1, 256, 256
-0.997584, 357, 249, 372, 280
-0.997587, 263, 213, 278, 244
-0.997599, 297, 77, 312, 108
-0.9976, 149, 89, 164, 120
-0.997625, 97, 153, 352, 216
-0.997633, 323, 237, 338, 268
-0.997635, 197, 229, 212, 260
-0.997642, 203, 205, 218, 236
-0.997656, 183, 189, 198, 220
-0.997659, 319, 81, 334, 112
-0.99766, 223, 201, 238, 232
-0.997669, 121, 1, 152, 256
-0.997676, 371, 129, 386, 160
-0.997678, 165, 181, 180, 212
-0.997686, 357, 313, 372, 344
-0.997706, 271, 217, 286, 248
-0.997706, 1, 1, 32, 256
-0.997706, 261, 73, 276, 104
-0.997717, 219, 213, 234, 244
-0.997718, 459, 5, 474, 36
-0.99772, 229, 201, 244, 232
-0.997724, 457, 45, 472, 76
-0.997731, 141, 181, 156, 212
-0.997734, 269, 93, 284, 124
-0.997747, 155, 97, 170, 128
-0.99775, 137, 1, 168, 256
-0.997757, 115, 1, 130, 32
-0.997759, 445, 5, 460, 36
-0.997768, 213, 197, 228, 228
-0.997769, 357, 273, 372, 304
-0.997785, 475, 125, 490, 156
-0.997785, 169, 97, 200, 352
-0.997794, 469, 45, 484, 76
-0.997795, 137, 89, 152, 120
-0.997795, 357, 289, 372, 320
-0.997796, 121, 181, 136, 212
-0.997799, 469, 97, 500, 352
-0.997804, 461, 21, 476, 52
-0.997809, 213, 217, 228, 248
-0.997816, 227, 69, 242, 100
-0.997822, 171, 189, 186, 220
-0.997825, 291, 229, 306, 260
-0.997827, 239, 205, 254, 236
-0.997827, 237, 217, 252, 248
-0.99783, 133, 189, 148, 220
-0.997836, 351, 305, 366, 336
-0.997838, 461, 33, 476, 64
-0.99784, 325, 225, 340, 256
-0.997848, 333, 229, 348, 260
-0.997848, 223, 225, 238, 256
-0.997856, 189, 129, 220, 375
-0.997857, 359, 233, 374, 264
-0.997864, 287, 89, 302, 120
-0.997868, 323, 249, 338, 280
-0.99787, 251, 205, 266, 236
-0.997878, 383, 77, 398, 108
-0.997879, 233, 69, 248, 100
-0.997883, 199, 57, 214, 88
-0.997883, 229, 229, 244, 260
-0.997884, 177, 1, 208, 256
-0.99789, 207, 193, 222, 224
-0.997891, 477, 141, 492, 172
-0.997897, 329, 85, 344, 116
-0.997901, 275, 305, 290, 336
-0.997909, 245, 205, 260, 236
-0.997918, 221, 49, 236, 80
-0.997921, 347, 241, 362, 272
-0.997923, 245, 129, 276, 375
-0.997925, 349, 261, 364, 292
-0.997926, 103, 337, 118, 368
-0.997926, 199, 93, 214, 124
-0.997929, 471, 113, 486, 144
-0.99793, 151, 181, 166, 212
-0.997936, 47, 337, 62, 368
-0.997942, 219, 97, 234, 128
-0.997944, 317, 233, 332, 264
-0.997945, 317, 129, 348, 375
-0.997946, 127, 177, 142, 208
-0.997948, 33, 37, 48, 68
-0.997948, 221, 237, 236, 268
-0.997949, 229, 213, 244, 244
-0.997949, 157, 237, 172, 268
-0.997951, 339, 237, 354, 268
-0.997953, 161, 97, 176, 128
-0.997957, 275, 93, 290, 124
-0.997959, 485, 45, 500, 76
-0.997964, 207, 81, 222, 112
-0.997964, 473, 97, 488, 128
-0.997967, 105, 1, 120, 32
-0.997967, 361, 301, 376, 332
-0.997973, 47, 325, 62, 356
-0.99798, 301, 229, 316, 260
-0.997981, 157, 1, 188, 256
-0.997981, 97, 1, 128, 256
-0.997986, 315, 257, 330, 288
-0.997994, 453, 25, 468, 56
-0.997995, 275, 69, 290, 100
-0.997998, 305, 81, 320, 112
-0.998001, 239, 61, 254, 92
-0.998003, 447, 185, 462, 216
-0.998004, 193, 73, 208, 104
-0.998005, 451, 41, 466, 72
-0.998008, 333, 97, 364, 352
-0.998014, 333, 249, 348, 280
-0.998019, 215, 1, 230, 32
-0.998019, 293, 241, 308, 272
-0.998027, 207, 221, 222, 252
-0.998031, 355, 261, 370, 292
-0.998034, 261, 305, 276, 336
-0.998036, 187, 277, 202, 308
-0.998037, 117, 89, 132, 120
-0.998037, 109, 1, 140, 256
-0.998041, 197, 1, 228, 256
-0.998042, 467, 93, 482, 124
-0.998049, 133, 97, 164, 352
-0.998049, 269, 205, 284, 236
-0.99805, 319, 305, 334, 336
-0.998051, 111, 89, 126, 120
-0.998056, 287, 241, 302, 272
-0.998058, 357, 341, 372, 372
-0.998059, 201, 193, 216, 224
-0.99806, 25, 1, 40, 32
-0.998063, 49, 45, 64, 76
-0.998066, 251, 217, 266, 248
-0.998067, 313, 217, 328, 248
-0.998071, 291, 217, 306, 248
-0.998075, 13, 5, 28, 36
-0.998075, 289, 129, 320, 375
-0.998077, 197, 1, 212, 32
-0.998093, 321, 1, 352, 256
-0.998158, 237, 1, 268, 256
-0.998161, 149, 97, 180, 352
-0.998192, 81, 129, 112, 375
-0.998204, 109, 129, 140, 375
-0.998227, 289, 1, 320, 256
-0.998245, 1, 313, 500, 375
-0.998277, 13, 1, 44, 256
-0.998378, 305, 97, 336, 352
-0.998391, 429, 97, 460, 352
-0.998391, 121, 129, 152, 375
-0.998412, 161, 101, 224, 116
-0.998422, 273, 83, 336, 98
-0.998425, 457, 97, 488, 352
-0.998432, 349, 263, 380, 278
-0.998433, 65, 49, 96, 64
-0.998433, 361, 227, 392, 242
-0.998434, 273, 299, 304, 314
-0.998434, 193, 85, 224, 100
-0.998435, 33, 43, 64, 58
-0.998435, 249, 87, 312, 102
-0.998435, 345, 349, 376, 364
-0.998435, 153, 245, 184, 260
-0.998436, 345, 323, 376, 338
-0.998437, 153, 193, 184, 208
-0.998437, 193, 15, 224, 30
-0.998439, 241, 263, 272, 278
-0.998439, 181, 195, 212, 210
-0.998439, 121, 191, 152, 206
-0.998441, 141, 253, 172, 268
-0.998443, 281, 91, 344, 106
-0.998443, 325, 93, 356, 108
-0.998443, 13, 343, 44, 358
-0.998443, 213, 211, 244, 226
-0.998443, 273, 237, 304, 252
-0.998444, 313, 239, 344, 254
-0.998445, 185, 213, 216, 228
-0.998445, 177, 279, 208, 294
-0.998446, 257, 221, 288, 236
-0.998446, 345, 355, 376, 370
-0.998446, 153, 187, 184, 202
-0.998447, 337, 267, 368, 282
-0.998449, 305, 233, 368, 248
-0.99845, 169, 191, 200, 206
-0.99845, 365, 143, 396, 158
-0.998451, 177, 95, 240, 110
-0.998451, 441, 19, 472, 34
-0.998451, 125, 177, 156, 192
-0.998452, 113, 91, 176, 106
-0.998453, 285, 321, 316, 336
-0.998453, 173, 101, 204, 116
-0.998453, 337, 229, 368, 244
-0.998454, 245, 219, 276, 234
-0.998455, 241, 75, 304, 90
-0.998455, 361, 87, 392, 102
-0.998456, 465, 47, 496, 62
-0.998456, 469, 57, 500, 72
-0.998456, 193, 207, 256, 222
-0.998457, 133, 87, 164, 102
-0.998457, 321, 87, 384, 102
-0.998457, 265, 81, 296, 96
-0.998458, 345, 293, 376, 308
-0.998458, 229, 79, 260, 94
-0.998458, 349, 361, 380, 375
-0.998459, 325, 253, 356, 268
-0.998459, 161, 199, 192, 214
-0.998459, 433, 191, 464, 206
-0.99846, 269, 215, 300, 230
-0.99846, 193, 71, 256, 86
-0.998461, 313, 91, 344, 106
-0.998461, 437, 3, 468, 18
-0.998462, 337, 307, 368, 322
-0.998463, 257, 235, 288, 250
-0.998464, 121, 1, 152, 16
-0.998465, 249, 231, 312, 246
-0.998465, 285, 237, 316, 252
-0.998465, 361, 359, 392, 374
-0.998466, 229, 227, 260, 242
-0.998467, 253, 89, 284, 104
-0.998467, 365, 149, 396, 164
-0.998467, 341, 273, 372, 288
-0.998468, 161, 201, 224, 216
-0.998469, 293, 229, 324, 244
-0.998469, 185, 73, 216, 88
-0.998469, 193, 9, 224, 24
-0.99847, 289, 227, 352, 242
-0.99847, 189, 201, 220, 216
-0.998472, 317, 261, 348, 276
-0.998473, 321, 245, 352, 260
-0.998474, 137, 99, 200, 114
-0.998477, 217, 53, 248, 68
-0.998478, 145, 181, 176, 196
-0.998479, 245, 227, 276, 242
-0.99848, 217, 79, 280, 94
-0.99848, 265, 75, 296, 90
-0.99848, 229, 215, 260, 230
-0.99848, 345, 299, 376, 314
-0.998482, 145, 103, 176, 118
-0.998483, 253, 211, 284, 226
-0.998483, 193, 53, 256, 68
-0.998485, 209, 199, 240, 214
-0.998486, 345, 317, 376, 332
-0.998488, 197, 71, 228, 86
-0.998488, 241, 79, 272, 94
-0.998488, 453, 25, 484, 40
-0.998489, 209, 213, 272, 228
-0.998489, 289, 81, 320, 96
-0.998492, 105, 101, 168, 116
-0.998492, 129, 189, 192, 204
-0.998492, 117, 91, 148, 106
-0.998493, 305, 227, 336, 242
-0.998494, 317, 231, 348, 246
-0.998494, 349, 231, 380, 246
-0.998496, 201, 109, 232, 124
-0.998497, 337, 255, 368, 270
-0.9985, 149, 97, 180, 112
-0.998501, 133, 103, 164, 118
-0.998501, 197, 103, 228, 118
-0.998501, 285, 89, 316, 104
-0.998505, 349, 243, 380, 258
-0.998506, 201, 207, 232, 222
-0.998506, 149, 199, 180, 214
-0.998507, 329, 235, 392, 250
-0.998507, 345, 81, 376, 96
-0.998509, 185, 103, 216, 118
-0.99851, 209, 81, 240, 96
-0.998512, 265, 225, 328, 240
-0.998513, 453, 15, 484, 30
-0.998514, 133, 183, 164, 198
-0.998514, 241, 213, 272, 228
-0.998514, 305, 243, 368, 258
-0.998515, 329, 227, 392, 242
-0.998515, 141, 189, 172, 204
-0.998517, 257, 229, 288, 244
-0.998517, 173, 95, 204, 110
-0.998518, 249, 81, 312, 96
-0.998519, 217, 91, 280, 106
-0.998519, 377, 117, 408, 132
-0.998519, 225, 235, 288, 250
-0.99852, 265, 95, 296, 110
-0.998521, 285, 221, 316, 236
-0.998521, 449, 5, 480, 20
-0.998521, 329, 81, 392, 96
-0.998521, 305, 261, 368, 276
-0.998522, 161, 195, 224, 210
-0.998522, 249, 95, 312, 110
-0.998524, 229, 207, 260, 222
-0.998527, 297, 85, 360, 100
-0.998529, 337, 261, 368, 276
-0.998529, 113, 19, 176, 34
-0.99853, 361, 123, 424, 138
-0.998531, 241, 69, 304, 84
-0.998533, 137, 27, 200, 42
-0.998533, 105, 95, 136, 110
-0.998533, 441, 13, 472, 28
-0.998533, 265, 241, 328, 256
-0.998534, 337, 243, 368, 258
-0.998534, 325, 239, 356, 254
-0.998535, 169, 205, 200, 220
-0.998536, 193, 83, 256, 98
-0.998538, 277, 231, 308, 246
-0.998539, 309, 85, 340, 100
-0.998539, 77, 1, 108, 256
-0.99854, 193, 117, 256, 132
-0.99854, 161, 279, 224, 294
-0.99854, 245, 233, 276, 248
-0.99854, 169, 111, 232, 126
-0.99854, 153, 1, 216, 16
-0.998541, 353, 83, 416, 98
-0.998542, 249, 217, 312, 232
-0.998542, 349, 237, 380, 252
-0.998543, 153, 249, 216, 264
-0.998544, 137, 201, 200, 216
-0.998546, 177, 241, 240, 256
-0.998546, 329, 87, 360, 102
-0.998547, 177, 217, 240, 232
-0.998547, 305, 317, 368, 332
-0.998548, 97, 3, 160, 18
-0.998549, 217, 229, 280, 244
-0.998552, 181, 1, 212, 16
-0.998552, 193, 201, 256, 216
-0.998554, 217, 219, 280, 234
-0.998554, 213, 205, 244, 220
-0.998555, 329, 93, 392, 108
-0.998555, 201, 115, 232, 130
-0.998555, 217, 85, 280, 100
-0.998556, 345, 249, 376, 264
-0.998558, 153, 295, 216, 310
-0.998558, 113, 101, 144, 116
-0.998561, 297, 339, 360, 354
-0.998561, 9, 361, 72, 375
-0.998562, 281, 235, 344, 250
-0.998562, 153, 207, 216, 222
-0.998562, 41, 361, 104, 375
-0.998562, 169, 71, 232, 86
-0.998563, 417, 21, 480, 36
-0.998564, 305, 291, 368, 306
-0.998564, 193, 77, 256, 92
-0.998565, 305, 301, 368, 316
-0.998566, 337, 235, 368, 250
-0.998567, 305, 329, 368, 344
-0.998568, 221, 73, 252, 88
-0.998568, 361, 171, 424, 186
-0.998569, 1, 341, 64, 356
-0.998569, 217, 73, 280, 88
-0.998569, 137, 319, 200, 334
-0.99857, 353, 89, 416, 104
-0.99857, 249, 211, 312, 226
-0.998571, 241, 225, 304, 240
-0.998571, 153, 213, 216, 228
-0.998573, 129, 195, 192, 210
-0.998573, 193, 5, 256, 20
-0.998574, 153, 235, 216, 250
-0.998574, 281, 321, 344, 336
-0.998575, 337, 359, 400, 374
-0.998575, 305, 251, 368, 266
-0.998576, 233, 317, 296, 332
-0.998576, 273, 247, 336, 262
-0.998577, 377, 21, 440, 36
-0.998577, 65, 49, 128, 64
-0.998577, 361, 129, 424, 144
-0.998577, 153, 187, 216, 202
-0.998578, 377, 79, 440, 94
-0.998578, 193, 273, 256, 288
-0.998578, 137, 105, 200, 120
-0.998581, 121, 183, 184, 198
-0.998581, 41, 1, 72, 256
-0.998581, 17, 349, 80, 364
-0.998581, 25, 47, 88, 62
-0.998582, 329, 259, 392, 274
-0.998582, 361, 357, 424, 372
-0.998583, 313, 323, 376, 338
-0.998583, 201, 237, 264, 252
-0.998583, 201, 65, 264, 80
-0.998585, 265, 297, 328, 312
-0.998585, 1, 355, 64, 370
-0.998585, 201, 279, 264, 294
-0.998585, 81, 101, 144, 116
-0.998585, 345, 323, 408, 338
-0.998585, 161, 99, 192, 114
-0.998585, 277, 79, 308, 94
-0.998586, 321, 353, 384, 368
-0.998586, 241, 73, 272, 88
-0.998586, 273, 273, 336, 288
-0.998588, 289, 345, 352, 360
-0.998588, 153, 93, 216, 108
-0.998589, 185, 321, 248, 336
-0.998589, 241, 241, 304, 256
-0.99859, 353, 143, 416, 158
-0.99859, 361, 191, 424, 206
-0.99859, 1, 299, 64, 314
-0.998591, 145, 241, 208, 256
-0.998591, 433, 189, 496, 204
-0.998591, 417, 1, 480, 16
-0.998592, 297, 267, 360, 282
-0.998592, 417, 15, 480, 30
-0.998593, 113, 31, 176, 46
-0.998593, 113, 315, 176, 330
-0.998593, 265, 339, 328, 354
-0.998593, 169, 83, 232, 98
-0.998594, 129, 247, 192, 262
-0.998594, 73, 95, 136, 110
-0.998595, 321, 311, 384, 326
-0.998595, 401, 39, 464, 54
-0.998596, 205, 51, 236, 66
-0.998596, 385, 137, 448, 152
-0.998596, 273, 315, 336, 330
-0.998596, 129, 299, 192, 314
-0.998596, 169, 19, 232, 34
-0.998597, 273, 259, 336, 274
-0.998606, 253, 69, 284, 84
-0.998612, 265, 1, 296, 256
-0.998612, 1, 105, 256, 168
-0.998614, 201, 95, 232, 110
-0.998622, 185, 97, 216, 112
-0.998635, 349, 209, 364, 336
-0.998643, 97, 129, 128, 375
-0.998659, 305, 1, 336, 256
-0.998667, 265, 87, 296, 102
-0.998705, 455, 1, 470, 128
-0.998728, 357, 193, 372, 320
-0.998734, 337, 209, 352, 336
-0.998759, 265, 193, 280, 320
-0.998766, 189, 1, 204, 128
-0.99877, 143, 65, 158, 192
-0.998772, 467, 1, 482, 128
-0.998779, 461, 1, 476, 128
-0.998784, 57, 65, 88, 320
-0.99881, 365, 161, 380, 288
-0.998814, 197, 1, 212, 128
-0.998837, 37, 129, 68, 375
-0.998854, 1, 265, 500, 328
-0.998868, 365, 225, 380, 352
-0.998883, 413, 97, 444, 352
-0.998888, 469, 81, 484, 208
-0.998898, 221, 33, 236, 160
-0.998917, 355, 241, 370, 368
-0.998926, 211, 1, 226, 128
-0.998937, 425, 1, 440, 128
-0.99894, 279, 49, 294, 176
-0.998942, 249, 1, 280, 256
-0.998944, 271, 193, 286, 320
-0.998945, 199, 49, 214, 176
-0.998958, 149, 65, 164, 192
-0.998958, 327, 209, 342, 336
-0.998968, 473, 1, 488, 128
-0.99897, 261, 1, 276, 128
-0.998972, 155, 65, 170, 192
-0.998974, 269, 1, 284, 128
-0.998976, 285, 49, 300, 176
-0.998985, 139, 1, 154, 128
-0.998995, 281, 193, 296, 320
-0.999011, 175, 1, 190, 128
-0.999012, 405, 1, 420, 128
-0.999015, 275, 1, 290, 128
-0.999016, 415, 1, 430, 128
-0.999017, 149, 17, 164, 144
-0.999019, 475, 113, 490, 240
-0.999024, 235, 193, 250, 320
-0.999027, 169, 1, 184, 128
-0.99903, 205, 33, 220, 160
-0.999037, 393, 1, 408, 128
-0.999041, 271, 49, 286, 176
-0.999041, 219, 177, 234, 304
-0.999042, 317, 49, 332, 176
-0.999042, 295, 193, 310, 320
-0.999043, 285, 1, 300, 128
-0.999044, 161, 97, 176, 224
-0.999049, 475, 49, 490, 176
-0.999057, 161, 33, 176, 160
-0.999067, 157, 177, 172, 304
-0.999068, 171, 161, 186, 288
-0.999071, 391, 49, 406, 176
-0.999073, 137, 65, 152, 192
-0.999082, 205, 177, 220, 304
-0.999084, 373, 81, 388, 208
-0.999086, 69, 97, 100, 352
-0.999089, 335, 1, 350, 128
-0.999089, 343, 225, 358, 352
-0.999089, 291, 49, 306, 176
-0.999098, 229, 177, 244, 304
-0.999099, 481, 1, 496, 128
-0.999104, 431, 1, 446, 128
-0.999104, 311, 49, 326, 176
-0.999105, 253, 49, 268, 176
-0.999111, 343, 17, 358, 144
-0.999112, 3, 1, 18, 128
-0.999114, 369, 33, 384, 160
-0.999114, 301, 49, 316, 176
-0.999114, 287, 193, 302, 320
-0.999118, 399, 1, 414, 128
-0.999119, 211, 177, 226, 304
-0.99912, 143, 177, 158, 304
-0.999126, 389, 129, 420, 375
-0.999134, 485, 129, 500, 256
-0.999141, 359, 81, 374, 208
-0.999143, 149, 161, 164, 288
-0.999145, 329, 17, 344, 144
-0.999147, 147, 113, 162, 240
-0.999148, 321, 209, 336, 336
-0.999153, 259, 177, 274, 304
-0.999156, 463, 49, 478, 176
-0.999158, 381, 65, 396, 192
-0.999158, 13, 1, 28, 128
-0.99916, 481, 49, 496, 176
-0.999161, 253, 209, 268, 336
-0.999161, 183, 1, 198, 128
-0.999163, 193, 49, 208, 176
-0.999168, 165, 161, 180, 288
-0.999168, 319, 1, 334, 128
-0.999171, 311, 209, 326, 336
-0.999173, 111, 161, 126, 288
-0.999177, 441, 97, 472, 352
-0.999179, 23, 1, 38, 128
-0.99918, 385, 1, 400, 128
-0.999182, 123, 209, 138, 336
-0.999185, 133, 1, 148, 128
-0.999189, 291, 1, 306, 128
-0.999191, 227, 33, 242, 160
-0.999191, 147, 225, 162, 352
-0.999193, 245, 193, 260, 320
-0.9992, 371, 177, 386, 304
-0.9992, 449, 1, 464, 128
-0.9992, 405, 49, 420, 176
-0.999203, 171, 81, 186, 208
-0.999205, 211, 225, 226, 352
-0.99922, 399, 49, 414, 176
-0.999231, 307, 1, 322, 128
-0.999243, 351, 161, 366, 288
-0.999244, 355, 17, 370, 144
-0.999244, 137, 161, 152, 288
-0.999244, 31, 17, 46, 144
-0.999247, 213, 49, 228, 176
-0.999248, 297, 1, 312, 128
-0.999249, 235, 241, 250, 368
-0.999249, 121, 145, 136, 272
-0.99925, 271, 241, 286, 368
-0.999258, 115, 1, 130, 128
-0.999258, 193, 161, 208, 288
-0.999263, 265, 81, 280, 208
-0.999265, 199, 177, 214, 304
-0.999267, 155, 17, 170, 144
-0.999267, 223, 225, 238, 352
-0.999268, 155, 113, 170, 240
-0.999274, 313, 1, 328, 128
-0.999277, 399, 97, 414, 224
-0.999278, 113, 225, 128, 352
-0.99928, 303, 209, 318, 336
-0.999284, 255, 1, 270, 128
-0.999285, 323, 49, 338, 176
-0.999286, 349, 17, 364, 144
-0.999288, 437, 1, 452, 128
-0.999289, 131, 81, 146, 208
-0.999295, 181, 225, 196, 352
-0.999296, 169, 209, 184, 336
-0.999297, 211, 113, 226, 240
-0.999316, 17, 97, 48, 352
-0.999383, 401, 97, 432, 352
-0.999569, 1, 97, 32, 352
-0.999632, 175, 103, 190, 118
-0.999633, 337, 241, 352, 256
-0.999634, 277, 315, 292, 330
-0.999634, 161, 103, 176, 118
-0.999635, 349, 289, 364, 304
-0.999635, 309, 225, 324, 240
-0.999636, 445, 9, 460, 24
-0.999636, 167, 197, 182, 212
-0.999637, 281, 93, 296, 108
-0.999637, 265, 67, 280, 82
-0.999637, 399, 121, 414, 136
-0.999637, 253, 67, 268, 82
-0.999637, 155, 97, 170, 112
-0.999638, 345, 261, 360, 276
-0.999638, 193, 195, 208, 210
-0.999639, 323, 239, 338, 254
-0.999641, 193, 101, 208, 116
-0.999641, 261, 85, 276, 100
-0.999641, 231, 85, 246, 100
-0.999642, 267, 95, 282, 110
-0.999644, 201, 217, 216, 232
-0.999644, 359, 251, 374, 266
-0.999645, 293, 225, 308, 240
-0.999645, 361, 245, 376, 260
-0.999646, 207, 101, 222, 116
-0.999646, 129, 101, 144, 116
-0.999646, 329, 85, 344, 100
-0.999646, 343, 241, 358, 256
-0.999648, 467, 45, 482, 60
-0.999648, 163, 187, 178, 202
-0.999649, 135, 185, 150, 200
-0.99965, 247, 221, 262, 236
-0.99965, 221, 219, 236, 234
-0.99965, 357, 299, 372, 314
-0.999651, 129, 189, 144, 204
-0.999651, 323, 85, 338, 100
-0.999652, 357, 311, 372, 326
-0.999652, 185, 211, 200, 226
-0.999653, 457, 23, 472, 38
-0.999653, 141, 191, 156, 206
-0.999653, 271, 231, 286, 246
-0.999653, 293, 233, 308, 248
-0.999654, 355, 291, 370, 306
-0.999656, 115, 99, 130, 114
-0.999656, 357, 353, 372, 368
-0.999656, 231, 215, 246, 230
-0.999657, 183, 199, 198, 214
-0.999658, 351, 263, 366, 278
-0.999658, 281, 75, 296, 90
-0.99966, 201, 197, 216, 212
-0.999662, 271, 217, 286, 232
-0.999662, 219, 83, 234, 98
-0.999662, 361, 239, 376, 254
-0.999664, 223, 203, 238, 218
-0.999664, 149, 103, 164, 118
-0.999665, 457, 9, 472, 24
-0.999665, 297, 81, 312, 96
-0.999666, 143, 183, 158, 198
-0.999668, 315, 229, 330, 244
-0.999668, 193, 205, 208, 220
-0.999669, 461, 47, 476, 62
-0.999669, 351, 251, 366, 266
-0.999669, 345, 247, 360, 262
-0.99967, 209, 207, 224, 222
-0.99967, 121, 91, 136, 106
-0.99967, 237, 81, 252, 96
-0.99967, 211, 215, 226, 230
-0.999671, 323, 231, 338, 246
-0.999672, 241, 209, 256, 224
-0.999672, 191, 213, 206, 228
-0.999673, 137, 179, 152, 194
-0.999673, 209, 199, 224, 214
-0.999673, 127, 177, 142, 192
-0.999674, 155, 103, 170, 118
-0.999675, 171, 203, 186, 218
-0.999676, 189, 73, 204, 88
-0.999676, 143, 103, 158, 118
-0.999679, 137, 103, 152, 118
-0.99968, 335, 87, 350, 102
-0.99968, 205, 115, 220, 130
-0.99968, 241, 227, 256, 242
-0.99968, 193, 1, 208, 16
-0.999681, 255, 213, 270, 228
-0.999682, 289, 85, 304, 100
-0.999684, 235, 73, 250, 88
-0.999684, 297, 219, 312, 234
-0.999684, 177, 201, 192, 216
-0.999685, 331, 239, 346, 254
-0.999686, 261, 223, 276, 238
-0.999688, 345, 233, 360, 248
-0.999689, 251, 229, 266, 244
-0.999689, 261, 233, 276, 248
-0.99969, 261, 91, 276, 106
-0.99969, 249, 211, 264, 226
-0.99969, 123, 101, 138, 116
-0.999692, 215, 207, 230, 222
-0.999694, 269, 225, 284, 240
-0.999695, 259, 69, 274, 84
-0.999696, 361, 359, 376, 374
-0.999696, 197, 95, 212, 110
-0.999698, 329, 91, 344, 106
-0.999699, 343, 255, 358, 270
-0.9997, 331, 233, 346, 248
-0.9997, 161, 97, 176, 112
-0.999701, 213, 97, 228, 112
-0.999701, 153, 183, 168, 198
-0.999704, 207, 95, 222, 110
-0.999705, 217, 201, 232, 216
-0.999707, 233, 207, 248, 222
-0.99971, 261, 213, 276, 228
-0.999712, 181, 99, 196, 114
-0.999712, 171, 97, 186, 112
-0.999712, 183, 205, 198, 220
-0.999712, 199, 101, 214, 116
-0.999713, 279, 87, 294, 102
-0.999713, 351, 241, 366, 256
-0.999713, 303, 223, 318, 238
-0.999717, 211, 47, 226, 62
-0.999717, 227, 209, 242, 224
-0.999722, 241, 75, 256, 90
-0.999731, 113, 93, 128, 108
-0.999731, 251, 73, 266, 88
-0.999734, 339, 235, 354, 250
-0.999738, 455, 15, 470, 30
-0.999742, 353, 235, 368, 250
-0.999743, 451, 5, 466, 20
-0.999754, 191, 95, 206, 110
-0.999758, 269, 89, 284, 104
-0.999759, 287, 79, 302, 94
-0.999759, 209, 107, 224, 122
