1981
-0.426897, 1, 97, 500, 352
-0.466408, 1, 1, 500, 375
-0.572503, 1, 1, 500, 256
-0.638963, 161, 1, 416, 375
-0.646358, 33, 1, 288, 375
-0.667345, 33, 97, 288, 352
-0.719041, 257, 1, 500, 375
-0.759196, 161, 97, 416, 352
-0.820654, 257, 97, 500, 352
-0.826003, 97, 1, 352, 256
-0.856091, 193, 1, 448, 256
-0.870429, 49, 97, 176, 352
-0.880963, 1, 97, 128, 352
-0.893727, 1, 113, 500, 240
-0.902639, 113, 97, 240, 352
-0.908552, 49, 1, 176, 375
-0.910063, 161, 97, 288, 352
-0.910597, 177, 1, 304, 375
-0.911743, 1, 1, 128, 375
-0.911832, 225, 97, 352, 352
-0.914166, 97, 1, 224, 375
-0.916794, 273, 97, 400, 352
-0.918871, 225, 1, 352, 375
-0.920688, 1, 1, 256, 256
-0.922374, 129, 1, 256, 256
-0.924365, 33, 129, 288, 256
-0.924897, 273, 1, 400, 375
-0.925612, 129, 113, 384, 240
-0.931289, 177, 1, 304, 256
-0.931307, 321, 129, 448, 375
-0.932366, 81, 1, 208, 256
-0.933239, 225, 1, 352, 256
-0.934707, 321, 1, 448, 375
-0.935356, 81, 113, 144, 240
-0.935949, 65, 113, 192, 240
-0.937685, 321, 33, 448, 288
-0.939017, 369, 97, 496, 352
-0.939371, 1, 161, 500, 288
-0.939718, 369, 1, 496, 375
-0.94072, 1, 209, 500, 336
-0.941131, 1, 145, 128, 272
-0.94342, 273, 1, 400, 256
-0.947081, 17, 1, 144, 256
-0.947623, 225, 129, 480, 256
-0.948126, 57, 129, 120, 256
-0.949639, 1, 65, 500, 192
-0.950703, 1, 177, 256, 304
-0.952341, 113, 113, 240, 240
-0.952932, 49, 161, 176, 288
-0.952941, 137, 113, 200, 240
-0.953782, 1, 193, 128, 320
-0.956014, 369, 1, 496, 256
-0.956093, 49, 161, 112, 224
-0.957335, 161, 113, 288, 240
-0.95738, 209, 113, 336, 240
-0.957429, 113, 145, 176, 272
-0.957785, 89, 121, 152, 184
-0.95822, 9, 145, 72, 272
-0.95947, 33, 145, 96, 272
-0.960676, 257, 113, 384, 240
-0.961803, 25, 161, 88, 224
-0.961867, 1, 225, 256, 352
-0.962073, 169, 145, 232, 272
-0.962708, 105, 97, 168, 224
-0.963069, 289, 113, 352, 240
-0.96332, 129, 65, 384, 192
-0.964054, 137, 121, 200, 184
-0.964266, 161, 97, 224, 224
-0.96477, 33, 81, 288, 208
-0.965733, 89, 153, 152, 216
-0.965899, 193, 113, 256, 240
-0.966106, 161, 177, 416, 304
-0.966178, 57, 185, 120, 248
-0.966187, 65, 121, 128, 184
-0.966334, 17, 97, 144, 224
-0.966487, 41, 137, 104, 200
-0.967174, 113, 121, 176, 184
-0.967302, 1, 1, 500, 128
-0.96731, 225, 81, 480, 208
-0.967735, 265, 113, 328, 240
-0.968775, 41, 193, 104, 320
-0.96976, 233, 113, 296, 240
-0.970042, 305, 129, 432, 256
-0.970392, 281, 121, 344, 184
-0.97077, 1, 169, 64, 232
-0.971005, 201, 121, 264, 184
-0.971138, 97, 161, 224, 288
-0.971195, 117, 121, 148, 184
-0.972267, 17, 193, 80, 320
-0.972625, 65, 121, 192, 184
-0.972652, 61, 129, 92, 256
-0.97272, 93, 113, 124, 240
-0.973026, 33, 193, 96, 256
-0.973098, 241, 121, 304, 184
-0.973287, 225, 161, 352, 288
-0.973308, 49, 209, 176, 336
-0.973566, 129, 145, 192, 208
-0.973648, 65, 65, 192, 192
-0.973776, 65, 161, 96, 224
-0.974998, 61, 185, 92, 248
-0.975043, 129, 65, 192, 192
-0.975061, 161, 121, 224, 184
-0.975319, 313, 129, 376, 256
-0.975462, 113, 113, 144, 240
-0.976131, 33, 153, 160, 216
-0.976249, 65, 177, 128, 304
-0.976437, 161, 65, 288, 192
-0.976778, 9, 129, 72, 375
-0.976782, 297, 145, 360, 208
-0.976971, 81, 185, 144, 248
-0.977007, 97, 113, 128, 176
-0.977225, 77, 129, 108, 256
-0.977382, 49, 129, 112, 375
-0.97757, 337, 145, 400, 272
-0.977628, 225, 121, 352, 184
-0.977761, 25, 241, 88, 368
-0.977887, 177, 161, 304, 288
-0.977887, 1, 241, 64, 368
-0.977914, 337, 153, 400, 216
-0.978027, 81, 169, 112, 232
-0.978161, 105, 177, 168, 240
-0.978171, 257, 177, 500, 304
-0.978341, 1, 193, 128, 256
-0.978367, 137, 121, 168, 184
-0.978418, 169, 145, 232, 208
-0.978475, 81, 97, 144, 352
-0.97882, 265, 185, 328, 248
-0.978836, 145, 161, 208, 288
-0.978846, 145, 121, 272, 184
-0.978878, 81, 65, 144, 192
-0.979098, 41, 161, 72, 224
-0.979153, 233, 145, 296, 208
-0.979252, 369, 129, 496, 256
-0.979349, 177, 185, 240, 248
-0.97939, 1, 241, 128, 368
-0.97943, 49, 129, 80, 256
-0.979702, 377, 129, 440, 256
-0.979806, 201, 145, 264, 208
-0.979824, 145, 169, 208, 232
-0.979827, 53, 161, 84, 224
-0.979884, 145, 201, 208, 264
-0.979999, 97, 145, 128, 208
-0.98001, 1, 217, 64, 280
-0.980177, 65, 297, 128, 360
-0.980293, 113, 65, 240, 192
-0.980338, 25, 249, 88, 312
-0.980377, 113, 97, 176, 352
-0.980456, 377, 153, 440, 216
-0.980619, 49, 81, 112, 208
-0.980666, 233, 201, 296, 264
-0.980967, 81, 185, 208, 248
-0.980978, 241, 177, 304, 240
-0.981338, 165, 113, 196, 240
-0.98175, 17, 137, 80, 200
-0.981834, 149, 113, 180, 240
-0.981909, 201, 185, 264, 248
-0.982154, 209, 65, 336, 192
-0.982444, 81, 161, 208, 224
-0.982513, 17, 129, 144, 192
-0.982523, 49, 273, 112, 336
-0.982574, 1, 97, 64, 224
-0.982758, 273, 161, 336, 288
-0.982991, 121, 201, 184, 264
-0.983009, 1, 145, 32, 272
-0.983029, 137, 113, 168, 240
-0.983145, 89, 161, 152, 288
-0.983185, 305, 121, 368, 184
-0.983203, 137, 145, 168, 208
-0.983246, 81, 121, 112, 184
-0.983337, 113, 145, 144, 208
-0.983507, 433, 129, 496, 256
-0.983654, 185, 65, 248, 192
-0.983765, 49, 185, 80, 248
-0.984139, 177, 145, 304, 208
-0.984189, 37, 129, 68, 256
-0.984202, 273, 145, 336, 208
-0.984354, 25, 289, 88, 352
-0.984442, 337, 97, 400, 224
-0.984457, 249, 121, 280, 184
-0.984659, 273, 113, 304, 240
-0.984712, 169, 97, 232, 352
-0.984727, 9, 169, 40, 232
-0.984867, 197, 113, 228, 240
-0.984875, 209, 121, 240, 184
-0.984954, 433, 153, 496, 216
-0.984969, 209, 65, 272, 192
-0.98499, 125, 97, 156, 224
-0.985065, 409, 129, 472, 256
-0.985186, 225, 121, 256, 184
-0.985368, 177, 185, 304, 248
-0.985615, 309, 121, 340, 184
-0.985616, 321, 81, 448, 208
-0.985701, 97, 97, 160, 160
-0.985729, 257, 33, 500, 160
-0.985736, 77, 145, 108, 208
-0.985789, 185, 121, 216, 184
-0.985849, 249, 177, 312, 304
-0.985874, 125, 145, 156, 208
-0.985948, 177, 97, 208, 224
-0.98595, 33, 313, 96, 375
-0.985955, 189, 145, 220, 208
-0.986092, 257, 65, 384, 192
-0.986192, 225, 97, 288, 352
-0.986236, 129, 177, 256, 240
-0.986257, 13, 145, 44, 272
-0.986268, 173, 121, 204, 184
-0.986336, 289, 153, 416, 216
-0.986337, 225, 185, 352, 248
-0.98634, 149, 121, 180, 184
-0.986429, 1, 265, 64, 328
-0.986432, 57, 137, 88, 200
-0.986509, 1, 233, 128, 296
-0.986602, 289, 113, 320, 240
-0.986689, 297, 97, 360, 352
-0.9867, 25, 97, 88, 224
-0.986753, 409, 153, 472, 216
-0.986778, 197, 121, 228, 184
-0.986807, 161, 121, 192, 184
-0.986838, 77, 193, 108, 256
-0.986854, 25, 161, 56, 288
-0.986876, 329, 121, 392, 184
-0.986986, 217, 113, 248, 240
-0.98699, 225, 145, 352, 208
-0.987072, 125, 145, 156, 272
-0.987086, 89, 313, 152, 375
-0.987281, 129, 145, 256, 208
-0.987368, 337, 153, 464, 216
-0.987388, 57, 241, 120, 368
-0.9874, 21, 169, 52, 232
-0.987528, 145, 209, 272, 272
-0.987628, 233, 65, 296, 192
-0.987657, 273, 177, 400, 304
-0.987676, 49, 33, 112, 288
-0.987766, 145, 193, 176, 256
-0.987771, 89, 209, 152, 272
-0.9878, 97, 225, 352, 352
-0.987843, 293, 129, 324, 192
-0.987919, 273, 129, 400, 192
-0.987955, 193, 161, 256, 288
-0.987959, 233, 113, 264, 240
-0.988013, 321, 129, 352, 192
-0.988068, 1, 313, 128, 375
-0.988138, 181, 145, 212, 272
-0.988149, 253, 113, 284, 240
-0.988155, 201, 97, 264, 352
-0.988211, 137, 65, 200, 320
-0.988281, 93, 169, 124, 232
-0.988478, 137, 209, 200, 336
-0.988496, 97, 209, 224, 336
-0.988591, 109, 65, 140, 192
-0.988596, 121, 97, 184, 160
-0.988618, 377, 153, 408, 216
-0.988694, 153, 161, 184, 288
-0.988736, 49, 193, 80, 320
-0.988783, 157, 177, 188, 240
-0.988803, 69, 121, 100, 184
-0.988818, 313, 113, 344, 240
-0.988834, 209, 209, 272, 272
-0.989007, 297, 169, 360, 232
-0.989038, 289, 65, 352, 192
-0.989091, 97, 97, 224, 160
-0.989094, 237, 145, 268, 208
-0.989097, 265, 97, 328, 352
-0.989183, 89, 137, 152, 168
-0.989234, 73, 177, 104, 304
-0.989326, 281, 129, 312, 192
-0.989335, 81, 1, 144, 256
-0.989338, 57, 209, 120, 272
-0.989457, 89, 153, 152, 184
-0.989506, 1, 289, 128, 352
-0.989529, 273, 177, 304, 240
-0.98953, 265, 65, 328, 192
-0.989628, 145, 97, 208, 160
-0.989679, 145, 209, 272, 336
-0.989686, 73, 97, 136, 160
-0.989695, 145, 169, 176, 232
-0.989725, 33, 33, 288, 160
-0.989733, 93, 161, 124, 288
-0.989763, 129, 145, 192, 176
-0.9898, 289, 185, 416, 248
-0.989801, 57, 197, 120, 228
-0.989863, 177, 145, 208, 208
-0.989891, 57, 185, 120, 216
-0.989892, 73, 81, 104, 208
-0.989903, 129, 17, 384, 144
-0.989913, 365, 153, 396, 216
-0.989927, 65, 137, 128, 168
-0.989943, 49, 209, 176, 272
-0.989985, 13, 193, 44, 320
-0.990087, 261, 121, 292, 184
-0.990111, 325, 113, 356, 240
-0.990115, 33, 265, 160, 328
-0.990126, 133, 169, 164, 232
-0.990281, 341, 153, 372, 216
-0.990362, 33, 121, 288, 184
-0.990488, 113, 157, 176, 188
-0.990509, 169, 209, 232, 272
-0.99053, 89, 121, 152, 152
-0.990584, 209, 97, 336, 160
-0.990593, 41, 1, 104, 375
-0.990697, 57, 173, 120, 204
-0.990729, 33, 193, 96, 224
-0.99079, 65, 121, 128, 152
-0.990795, 133, 193, 164, 256
-0.990796, 121, 1, 184, 375
-0.990808, 81, 1, 144, 375
-0.990809, 65, 149, 128, 180
-0.990809, 329, 185, 392, 248
-0.99082, 281, 129, 344, 160
-0.990834, 353, 185, 416, 248
-0.99087, 373, 145, 404, 272
-0.990887, 169, 185, 200, 248
-0.99091, 1, 193, 64, 256
-0.990923, 65, 297, 192, 360
-0.990951, 237, 121, 268, 184
-0.991015, 193, 145, 256, 176
-0.991051, 81, 189, 144, 220
-0.991067, 49, 161, 112, 192
-0.991107, 161, 209, 224, 336
-0.991124, 121, 121, 184, 152
-0.991171, 337, 145, 368, 272
-0.991175, 297, 145, 360, 176
-0.991209, 257, 209, 320, 272
-0.99122, 337, 129, 400, 375
-0.991254, 313, 81, 376, 208
-0.991312, 301, 113, 332, 240
-0.991423, 41, 113, 104, 176
-0.991423, 153, 141, 216, 172
-0.991437, 193, 1, 256, 375
-0.991457, 241, 1, 304, 375
-0.991524, 169, 157, 232, 188
-0.991539, 145, 125, 208, 156
-0.991571, 17, 205, 80, 236
-0.991585, 237, 201, 268, 264
-0.991616, 241, 201, 304, 232
-0.991624, 265, 1, 328, 256
-0.991632, 233, 145, 296, 176
-0.991652, 225, 209, 352, 272
-0.991662, 37, 241, 68, 368
-0.991681, 225, 129, 288, 160
-0.991687, 273, 141, 336, 172
-0.991687, 1, 1, 64, 375
-0.991724, 97, 209, 224, 272
-0.991741, 137, 161, 168, 288
-0.991807, 225, 161, 288, 288
-0.991819, 25, 173, 88, 204
-0.991824, 81, 173, 144, 204
-0.991829, 89, 193, 120, 256
-0.991849, 257, 153, 320, 184
-0.991856, 9, 209, 40, 272
-0.991872, 273, 185, 336, 216
-0.991887, 201, 125, 264, 156
-0.9919, 257, 129, 320, 160
-0.9919, 137, 201, 200, 232
-0.991915, 121, 133, 184, 164
-0.991916, 169, 125, 232, 156
-0.991927, 161, 65, 192, 192
-0.991934, 161, 1, 224, 375
-0.991944, 41, 129, 104, 160
-0.991946, 45, 297, 76, 360
-0.991946, 1, 241, 64, 304
-0.991946, 25, 209, 56, 336
-0.991971, 209, 157, 272, 188
-0.991996, 1, 237, 64, 268
-0.992005, 297, 157, 360, 188
-0.992031, 369, 153, 432, 184
-0.992039, 137, 157, 200, 188
-0.992051, 49, 209, 112, 240
-0.992071, 105, 169, 136, 232
-0.992106, 337, 145, 400, 176
-0.992131, 297, 177, 360, 208
-0.99214, 105, 193, 168, 224
-0.99214, 105, 49, 168, 176
-0.992169, 217, 205, 280, 236
-0.992187, 17, 253, 80, 284
-0.99222, 161, 97, 288, 160
-0.992223, 9, 193, 72, 224
-0.992226, 169, 189, 232, 220
-0.992229, 181, 177, 212, 240
-0.992236, 41, 141, 104, 172
-0.992236, 81, 201, 144, 232
-0.992254, 169, 177, 200, 304
-0.992257, 33, 273, 96, 304
-0.992292, 105, 213, 168, 244
-0.992299, 433, 153, 496, 184
-0.992302, 37, 177, 68, 304
-0.992303, 117, 145, 148, 176
-0.992312, 17, 105, 144, 168
-0.992324, 41, 285, 104, 316
-0.99233, 57, 301, 120, 332
-0.992333, 57, 313, 88, 375
-0.992356, 33, 241, 64, 304
-0.992357, 61, 193, 92, 224
-0.99237, 321, 153, 352, 216
-0.992372, 257, 193, 288, 256
-0.992377, 329, 165, 392, 196
-0.992382, 225, 177, 288, 208
-0.992389, 265, 197, 328, 228
-0.992394, 265, 1, 328, 375
-0.992408, 25, 273, 56, 336
-0.99241, 81, 329, 144, 360
-0.992417, 145, 213, 208, 244
-0.992419, 93, 149, 124, 180
-0.992428, 37, 193, 68, 256
-0.992429, 137, 189, 200, 220
-0.992446, 193, 1, 256, 256
-0.992447, 161, 129, 416, 192
-0.992453, 161, 49, 224, 176
-0.992453, 273, 213, 336, 244
-0.992454, 25, 161, 88, 192
-0.992456, 249, 185, 312, 216
-0.992459, 97, 137, 128, 168
-0.992482, 137, 145, 168, 176
-0.992504, 65, 313, 128, 344
-0.992516, 249, 217, 312, 248
-0.992523, 197, 177, 228, 240
-0.992553, 89, 341, 152, 372
-0.992576, 61, 153, 92, 184
-0.992586, 97, 121, 128, 152
-0.992602, 169, 97, 232, 160
-0.992603, 313, 133, 376, 164
-0.992604, 157, 201, 188, 264
-0.992612, 93, 65, 124, 192
-0.992619, 233, 157, 296, 188
-0.992623, 105, 1, 168, 256
-0.992623, 161, 1, 224, 256
-0.992638, 169, 213, 232, 244
-0.992657, 81, 189, 112, 220
-0.992659, 241, 1, 304, 256
-0.99266, 249, 173, 312, 204
-0.992661, 289, 1, 352, 375
-0.992667, 85, 137, 116, 168
-0.992668, 1, 173, 64, 204
-0.992681, 193, 209, 320, 336
-0.992697, 273, 173, 336, 204
-0.992697, 409, 153, 472, 184
-0.992718, 225, 217, 288, 248
-0.992718, 357, 145, 388, 272
-0.992732, 105, 173, 168, 204
-0.99276, 93, 313, 124, 375
-0.992768, 201, 145, 232, 208
-0.99281, 77, 173, 108, 204
-0.992812, 65, 173, 96, 204
-0.992814, 177, 177, 240, 208
-0.992814, 193, 193, 256, 224
-0.992822, 61, 141, 92, 172
-0.992844, 321, 121, 448, 184
-0.992871, 201, 217, 264, 248
-0.992879, 113, 133, 144, 164
-0.992889, 293, 161, 324, 288
-0.992893, 77, 121, 108, 152
-0.992896, 105, 153, 136, 184
-0.99291, 149, 141, 180, 172
-0.992922, 161, 113, 224, 144
-0.992926, 129, 157, 160, 188
-0.992932, 337, 33, 400, 288
-0.992932, 1, 285, 64, 316
-0.992936, 77, 153, 108, 184
-0.992937, 289, 201, 352, 264
-0.992938, 25, 313, 88, 344
-0.992942, 257, 97, 320, 160
-0.992947, 113, 193, 176, 320
-0.992951, 9, 257, 40, 320
-0.992954, 1, 161, 256, 224
-0.992957, 49, 189, 80, 220
-0.992959, 149, 65, 180, 192
-0.992963, 49, 341, 112, 372
-0.99297, 81, 201, 112, 232
-0.992977, 145, 197, 176, 228
-0.992981, 205, 145, 236, 176
-0.993, 69, 205, 100, 236
-0.993004, 229, 149, 260, 180
-0.993007, 65, 129, 96, 160
-0.993015, 177, 225, 240, 256
-0.99302, 41, 169, 72, 200
-0.99302, 277, 185, 308, 216
-0.993025, 193, 205, 256, 236
-0.993025, 445, 153, 476, 216
-0.993026, 41, 329, 104, 360
-0.993031, 137, 65, 168, 192
-0.99305, 49, 153, 80, 184
-0.993051, 137, 177, 200, 208
-0.993057, 353, 185, 416, 216
-0.993057, 9, 297, 72, 328
-0.993059, 165, 125, 196, 156
-0.99306, 153, 225, 216, 256
-0.993066, 377, 129, 440, 192
-0.993091, 121, 177, 152, 240
-0.993095, 161, 201, 224, 232
-0.993098, 149, 153, 180, 184
-0.993112, 297, 213, 360, 244
-0.993113, 165, 145, 196, 176
-0.993113, 225, 189, 288, 220
-0.993113, 209, 157, 240, 188
-0.993123, 93, 161, 124, 192
-0.993124, 157, 197, 188, 228
-0.993132, 321, 141, 352, 172
-0.993147, 133, 133, 164, 164
-0.993151, 9, 149, 72, 180
-0.993155, 117, 157, 148, 188
-0.993158, 89, 173, 120, 204
-0.993165, 385, 145, 416, 272
-0.993166, 81, 213, 144, 244
-0.993166, 105, 225, 168, 256
-0.993168, 133, 121, 164, 152
-0.993181, 353, 165, 416, 196
-0.993183, 189, 149, 220, 180
-0.993188, 53, 241, 84, 368
-0.993189, 209, 125, 240, 156
-0.99319, 129, 225, 192, 256
-0.993191, 53, 165, 84, 196
-0.993198, 377, 153, 408, 184
-0.9932, 113, 121, 144, 152
-0.993205, 237, 205, 268, 236
-0.993206, 1, 225, 64, 256
-0.993207, 41, 201, 72, 232
-0.993223, 369, 81, 496, 208
-0.993224, 293, 129, 324, 160
-0.993232, 145, 121, 176, 152
-0.993232, 1, 161, 64, 192
-0.993233, 269, 197, 300, 228
-0.993234, 309, 129, 340, 160
-0.993243, 49, 141, 80, 172
-0.993243, 141, 209, 172, 240
-0.993247, 241, 117, 304, 148
-0.993257, 217, 145, 248, 176
-0.99326, 181, 137, 212, 168
-0.993265, 377, 185, 440, 216
-0.99328, 181, 125, 212, 156
-0.993282, 17, 133, 80, 164
-0.993285, 45, 137, 76, 200
-0.993287, 273, 149, 304, 180
-0.993291, 281, 205, 312, 236
-0.993291, 333, 141, 364, 172
-0.993292, 73, 141, 104, 172
-0.9933, 17, 201, 48, 232
-0.993304, 281, 129, 312, 160
-0.993305, 341, 153, 372, 184
-0.993305, 53, 177, 84, 208
-0.993308, 289, 201, 352, 232
-0.99331, 197, 125, 228, 156
-0.993311, 325, 157, 356, 188
-0.993315, 1, 165, 32, 196
-0.993316, 253, 201, 284, 232
-0.993323, 57, 205, 88, 236
-0.993324, 165, 209, 196, 240
-0.993333, 329, 185, 392, 216
-0.993338, 37, 189, 68, 220
-0.99335, 329, 1, 392, 375
-0.993359, 377, 141, 408, 172
-0.99336, 261, 129, 292, 160
-0.99336, 93, 189, 124, 220
-0.993368, 441, 153, 472, 184
-0.993369, 113, 213, 144, 244
-0.993369, 81, 109, 144, 140
-0.993379, 153, 209, 184, 240
-0.993382, 309, 145, 340, 176
-0.993387, 229, 125, 260, 156
-0.993389, 145, 185, 176, 216
-0.993391, 49, 233, 176, 296
-0.993399, 201, 229, 264, 260
-0.9934, 133, 193, 164, 224
-0.993403, 369, 129, 496, 192
-0.993406, 289, 193, 320, 224
-0.993406, 241, 129, 272, 160
-0.993406, 345, 165, 376, 196
-0.993411, 241, 141, 272, 172
-0.993413, 25, 281, 56, 312
-0.993416, 49, 309, 80, 340
-0.993418, 365, 153, 396, 184
-0.993421, 241, 157, 272, 188
-0.993421, 401, 153, 432, 184
-0.993424, 61, 321, 92, 352
-0.993429, 37, 293, 68, 324
-0.99343, 229, 137, 260, 168
-0.993431, 265, 185, 296, 216
-0.993432, 361, 129, 424, 375
-0.993432, 253, 145, 284, 176
-0.993433, 217, 1, 280, 375
-0.993437, 69, 333, 100, 364
-0.99344, 225, 161, 256, 192
-0.993441, 321, 129, 352, 160
-0.993444, 81, 345, 112, 375
-0.993448, 13, 165, 44, 196
-0.993448, 129, 213, 160, 244
-0.99345, 9, 261, 40, 292
-0.99346, 25, 165, 56, 196
-0.993461, 465, 153, 496, 184
-0.993468, 177, 189, 208, 220
-0.993473, 217, 193, 248, 224
-0.993475, 281, 173, 312, 204
-0.993475, 177, 205, 208, 236
-0.993477, 157, 185, 188, 216
-0.993483, 261, 157, 292, 188
-0.993483, 293, 181, 324, 212
-0.993484, 257, 173, 288, 204
-0.993485, 53, 129, 84, 160
-0.993486, 353, 205, 416, 236
-0.993487, 393, 153, 424, 216
-0.99349, 189, 161, 220, 192
-0.993491, 361, 141, 424, 172
-0.993494, 401, 185, 464, 216
-0.993494, 41, 241, 104, 272
-0.993502, 225, 209, 256, 240
-0.99351, 297, 165, 328, 196
-0.993511, 177, 149, 208, 180
-0.993512, 285, 145, 316, 176
-0.993515, 37, 153, 68, 184
-0.993518, 417, 173, 480, 204
-0.993524, 9, 153, 40, 184
-0.99353, 121, 109, 184, 140
-0.993533, 241, 217, 272, 248
-0.993534, 337, 133, 400, 164
-0.993535, 353, 161, 384, 224
-0.993536, 13, 273, 44, 304
-0.993536, 81, 317, 112, 348
-0.993543, 385, 165, 448, 196
-0.993546, 1, 249, 32, 280
-0.993549, 253, 217, 284, 248
-0.99355, 289, 217, 320, 248
-0.993555, 273, 153, 304, 216
-0.993556, 65, 117, 96, 148
-0.99356, 353, 153, 384, 184
-0.993562, 93, 329, 124, 360
-0.993567, 97, 205, 128, 236
-0.993568, 57, 289, 88, 320
-0.993588, 289, 117, 352, 148
-0.993593, 25, 221, 88, 252
-0.993593, 33, 297, 96, 328
-0.993595, 217, 193, 248, 256
-0.993595, 393, 141, 456, 172
-0.993596, 57, 257, 120, 288
-0.993597, 273, 225, 336, 256
-0.9936, 1, 185, 256, 248
-0.993603, 71, 161, 86, 224
-0.993606, 185, 113, 248, 144
-0.993624, 329, 121, 392, 152
-0.993629, 201, 181, 264, 212
-0.993645, 201, 169, 264, 200
-0.993651, 121, 237, 184, 268
-0.993653, 1, 273, 64, 304
-0.99368, 81, 225, 144, 256
-0.9937, 377, 205, 440, 236
-0.993716, 1, 129, 500, 192
-0.993744, 1, 145, 32, 208
-0.993748, 397, 129, 428, 256
-0.993767, 1, 193, 32, 320
-0.993772, 1, 241, 32, 368
-0.993783, 417, 129, 480, 192
-0.993799, 81, 241, 144, 368
-0.993829, 257, 225, 500, 352
-0.993831, 161, 153, 192, 216
-0.993852, 133, 97, 164, 160
-0.993933, 53, 265, 84, 328
-0.993934, 193, 97, 256, 160
-0.993945, 21, 225, 52, 288
-0.993994, 57, 233, 120, 296
-0.994032, 201, 65, 232, 192
-0.994043, 73, 289, 104, 352
-0.99409, 113, 209, 144, 272
-0.994167, 469, 153, 500, 216
-0.994171, 57, 209, 88, 272
-0.994185, 25, 113, 56, 240
-0.994263, 273, 177, 304, 304
-0.994268, 289, 153, 320, 216
-0.994273, 273, 105, 400, 168
-0.994282, 81, 169, 96, 232
-0.994299, 217, 1, 280, 256
-0.994449, 17, 33, 80, 288
-0.994472, 61, 193, 92, 320
-0.994501, 65, 241, 96, 368
-0.994565, 73, 257, 136, 320
-0.994581, 333, 129, 364, 192
-0.994593, 217, 169, 248, 232
-0.994617, 433, 153, 464, 216
-0.994629, 369, 1, 432, 375
-0.994631, 89, 169, 104, 232
-0.994643, 113, 225, 176, 288
-0.994665, 33, 189, 160, 220
-0.99467, 97, 125, 224, 156
-0.994673, 321, 177, 448, 304
-0.99472, 253, 161, 284, 224
-0.994728, 189, 65, 220, 192
-0.994828, 63, 169, 78, 232
-0.994831, 213, 65, 244, 192
-0.994847, 293, 185, 324, 248
-0.994896, 75, 185, 90, 248
-0.994902, 289, 105, 320, 168
-0.994922, 139, 121, 154, 184
-0.994923, 369, 177, 496, 240
-0.994987, 69, 185, 84, 248
-0.995028, 103, 113, 118, 176
-0.995085, 51, 161, 66, 224
-0.995144, 1, 201, 128, 232
-0.99515, 137, 225, 200, 288
-0.995155, 289, 1, 352, 256
-0.995168, 109, 113, 124, 176
-0.99518, 217, 145, 248, 208
-0.995187, 65, 137, 192, 168
-0.995189, 457, 153, 488, 216
-0.995202, 53, 81, 84, 208
-0.995216, 105, 161, 136, 288
-0.995234, 405, 153, 436, 216
-0.995265, 203, 121, 218, 184
-0.995278, 57, 169, 72, 232
-0.995329, 193, 153, 448, 216
-0.99534, 21, 193, 52, 256
-0.995356, 385, 129, 448, 375
-0.995412, 63, 145, 78, 208
-0.99544, 461, 129, 492, 256
-0.995454, 149, 121, 164, 184
-0.99546, 119, 121, 134, 184
-0.995466, 1, 161, 500, 224
-0.995486, 97, 177, 352, 240
-0.99549, 393, 1, 456, 375
-0.995513, 81, 193, 208, 224
-0.995515, 393, 177, 456, 240
-0.995543, 77, 145, 92, 208
-0.995553, 13, 145, 44, 208
-0.995573, 193, 121, 208, 184
-0.995581, 409, 129, 440, 256
-0.995668, 149, 145, 180, 208
-0.995675, 129, 141, 256, 172
-0.995695, 157, 209, 188, 336
-0.995699, 121, 97, 152, 160
-0.99571, 129, 121, 144, 184
-0.995742, 233, 65, 264, 192
-0.995756, 441, 129, 472, 256
-0.995762, 353, 121, 416, 184
-0.995848, 297, 97, 360, 160
-0.995861, 193, 145, 208, 208
-0.995912, 113, 145, 128, 208
-0.995914, 95, 121, 110, 184
-0.995972, 237, 177, 268, 240
-0.996028, 1, 289, 64, 352
-0.996029, 65, 153, 192, 184
-0.99606, 61, 289, 92, 352
-0.996068, 213, 121, 228, 184
-0.996107, 185, 121, 200, 184
-0.996145, 109, 97, 140, 160
-0.996162, 85, 145, 100, 208
-0.996162, 97, 153, 352, 216
-0.996172, 309, 145, 340, 208
-0.996198, 201, 145, 216, 208
-0.996222, 269, 201, 300, 264
-0.996228, 9, 97, 40, 224
-0.996263, 237, 121, 252, 184
-0.99628, 225, 129, 352, 160
-0.996293, 243, 121, 258, 184
-0.996313, 65, 177, 192, 208
-0.996315, 145, 125, 272, 156
-0.996324, 57, 145, 72, 208
-0.996327, 255, 121, 270, 184
-0.996332, 81, 193, 96, 256
-0.996338, 41, 265, 72, 328
-0.996344, 1, 161, 16, 224
-0.996351, 175, 121, 190, 184
-0.996354, 129, 97, 384, 160
-0.996358, 139, 145, 154, 208
-0.996397, 49, 121, 176, 152
-0.996417, 25, 145, 56, 208
-0.996421, 145, 97, 176, 160
-0.996423, 233, 97, 296, 160
-0.996427, 433, 129, 496, 375
-0.99643, 257, 177, 288, 304
-0.996477, 7, 161, 22, 224
-0.996492, 69, 121, 84, 184
-0.996497, 287, 129, 302, 192
-0.996519, 129, 153, 256, 184
-0.996522, 33, 165, 160, 196
-0.996531, 39, 161, 54, 224
-0.996534, 335, 137, 350, 200
-0.996541, 61, 193, 76, 256
-0.996551, 337, 97, 368, 224
-0.996557, 167, 121, 182, 184
-0.996585, 267, 121, 282, 184
-0.996604, 273, 209, 400, 272
-0.996608, 17, 137, 144, 168
-0.996618, 429, 129, 460, 256
-0.996657, 97, 153, 112, 216
-0.996661, 33, 209, 288, 272
-0.996662, 87, 121, 102, 184
-0.996663, 257, 185, 384, 216
-0.996667, 21, 169, 36, 232
-0.996672, 181, 201, 212, 264
-0.996686, 217, 177, 248, 304
-0.996701, 257, 121, 500, 184
-0.996709, 157, 121, 172, 184
-0.996709, 293, 65, 324, 192
-0.996732, 13, 169, 28, 232
-0.996735, 161, 233, 288, 296
-0.996745, 119, 145, 134, 208
-0.99675, 33, 169, 48, 232
-0.996763, 101, 209, 132, 272
-0.99678, 81, 121, 96, 184
-0.996781, 45, 169, 60, 232
-0.996794, 417, 153, 448, 216
-0.9968, 293, 129, 308, 192
-0.996819, 329, 129, 344, 192
-0.996824, 145, 185, 272, 216
-0.996827, 97, 233, 224, 296
-0.996828, 249, 121, 264, 184
-0.996836, 65, 205, 192, 236
-0.996848, 41, 81, 72, 208
-0.996858, 211, 145, 226, 208
-0.996889, 27, 169, 42, 232
-0.996926, 209, 149, 336, 180
-0.996931, 187, 145, 202, 208
-0.996931, 265, 65, 296, 192
-0.996953, 225, 201, 352, 232
-0.996967, 313, 121, 328, 184
-0.996971, 225, 121, 240, 184
-0.996971, 433, 177, 496, 240
-0.996983, 193, 181, 320, 212
-0.996991, 301, 129, 316, 192
-0.997, 107, 137, 122, 200
-0.997013, 305, 177, 368, 304
-0.997038, 381, 153, 396, 216
-0.99708, 231, 121, 246, 184
-0.997094, 13, 241, 44, 368
-0.997094, 145, 145, 160, 208
-0.997095, 219, 121, 234, 184
-0.997103, 151, 153, 166, 216
-0.997115, 161, 201, 416, 264
-0.997119, 277, 121, 292, 184
-0.997119, 243, 145, 258, 208
-0.997133, 1, 241, 128, 272
-0.997153, 209, 213, 336, 244
-0.997155, 145, 209, 272, 240
-0.997159, 81, 313, 112, 375
-0.99717, 171, 177, 186, 240
-0.997174, 149, 193, 164, 256
-0.997175, 381, 97, 412, 224
-0.997176, 409, 129, 472, 375
-0.997208, 433, 1, 496, 375
-0.997236, 51, 137, 66, 200
-0.997238, 337, 209, 464, 272
-0.997245, 61, 189, 76, 220
-0.997265, 393, 81, 456, 208
-0.997268, 307, 129, 322, 192
-0.997269, 95, 177, 110, 240
-0.997275, 81, 189, 96, 220
-0.997338, 1, 249, 256, 312
-0.99734, 157, 177, 172, 240
-0.997343, 33, 129, 64, 375
-0.997356, 89, 97, 120, 352
-0.997366, 59, 121, 74, 184
-0.997372, 139, 145, 154, 176
-0.997373, 109, 141, 124, 172
-0.997376, 323, 121, 338, 184
-0.997381, 225, 177, 480, 240
-0.997381, 1, 177, 128, 208
-0.997397, 321, 165, 448, 196
-0.997399, 341, 153, 356, 216
-0.997402, 17, 81, 144, 144
-0.997406, 17, 153, 144, 184
-0.997422, 91, 145, 106, 208
-0.997426, 279, 169, 294, 232
-0.997435, 89, 233, 152, 296
-0.997449, 353, 161, 368, 224
-0.997455, 121, 97, 152, 352
-0.997456, 89, 193, 104, 256
-0.997468, 133, 145, 148, 208
-0.997471, 183, 177, 198, 240
-0.997476, 161, 201, 176, 264
-0.997494, 67, 189, 82, 220
-0.997525, 33, 97, 288, 160
-0.997539, 249, 145, 264, 208
-0.997539, 387, 153, 402, 216
-0.997549, 155, 201, 170, 264
-0.997563, 395, 153, 410, 216
-0.997569, 281, 201, 312, 264
-0.997574, 89, 173, 104, 204
-0.997578, 1, 129, 32, 375
-0.997585, 145, 197, 272, 228
-0.997588, 75, 193, 90, 224
-0.997613, 347, 161, 362, 224
-0.997616, 67, 141, 82, 172
-0.997619, 179, 201, 194, 264
-0.997637, 293, 185, 308, 248
-0.997642, 381, 129, 412, 192
-0.997645, 145, 169, 160, 232
-0.997649, 261, 121, 276, 184
-0.997653, 115, 141, 130, 172
-0.997657, 137, 169, 152, 232
-0.99769, 305, 181, 432, 212
-0.997703, 101, 121, 116, 152
-0.997705, 159, 153, 174, 216
-0.997708, 79, 153, 94, 184
-0.997733, 257, 165, 384, 196
-0.997748, 357, 97, 388, 224
-0.99775, 145, 209, 176, 336
-0.997754, 169, 153, 184, 216
-0.997754, 269, 145, 284, 208
-0.997758, 301, 169, 316, 232
-0.997759, 107, 185, 122, 248
-0.99776, 55, 193, 70, 256
-0.997761, 73, 161, 88, 192
-0.997767, 193, 161, 320, 192
-0.997775, 149, 97, 180, 352
-0.997786, 369, 153, 496, 184
-0.997796, 151, 141, 166, 172
-0.997802, 289, 145, 416, 176
-0.997804, 101, 133, 116, 164
-0.997808, 145, 221, 272, 252
-0.997818, 1, 105, 500, 168
-0.997819, 359, 161, 374, 224
-0.997826, 181, 145, 196, 208
-0.997827, 17, 213, 144, 244
-0.99784, 313, 65, 344, 192
-0.997841, 371, 161, 386, 224
-0.997842, 21, 129, 52, 375
-0.997844, 369, 81, 432, 208
-0.997849, 103, 161, 118, 224
-0.997855, 273, 105, 304, 168
-0.997856, 269, 193, 284, 256
-0.997859, 245, 65, 276, 192
-0.997879, 1, 257, 128, 288
-0.997895, 101, 97, 132, 352
-0.997896, 309, 161, 340, 288
-0.997898, 85, 161, 100, 192
-0.997906, 29, 193, 44, 256
-0.997912, 1, 297, 128, 328
-0.997914, 115, 153, 130, 184
-0.997924, 125, 49, 156, 176
-0.997925, 413, 145, 428, 208
-0.997926, 77, 173, 92, 204
-0.997926, 457, 153, 472, 216
-0.997938, 69, 97, 100, 352
-0.997944, 225, 153, 240, 184
-0.997948, 111, 121, 126, 152
-0.997958, 115, 97, 130, 160
-0.997973, 45, 129, 76, 375
-0.997975, 73, 137, 88, 168
-0.997978, 87, 193, 102, 224
-0.997993, 203, 153, 218, 184
-0.998001, 81, 273, 208, 336
-0.99801, 55, 189, 70, 220
-0.99801, 123, 209, 138, 272
-0.998016, 237, 201, 252, 264
-0.998017, 235, 149, 250, 180
-0.998025, 17, 277, 144, 308
-0.998031, 65, 337, 192, 368
-0.998048, 63, 201, 78, 232
-0.99805, 49, 317, 176, 348
-0.998051, 91, 97, 106, 160
-0.998052, 211, 177, 226, 240
-0.998055, 473, 145, 488, 208
-0.998056, 93, 185, 108, 216
-0.998062, 61, 177, 76, 208
-0.998065, 365, 161, 380, 224
-0.99807, 451, 145, 466, 208
-0.998073, 63, 153, 78, 184
-0.998086, 205, 161, 236, 288
-0.998087, 9, 249, 24, 312
-0.998095, 313, 145, 328, 208
-0.998095, 143, 193, 158, 256
-0.998099, 1, 185, 500, 248
-0.9981, 237, 153, 252, 216
-0.998102, 65, 313, 80, 375
-0.998103, 93, 197, 108, 228
-0.998108, 23, 193, 38, 256
-0.99811, 165, 97, 196, 352
-0.998112, 57, 305, 72, 368
-0.998114, 161, 137, 176, 168
-0.998114, 103, 145, 118, 176
-0.998122, 333, 137, 348, 168
-0.998129, 93, 137, 108, 168
-0.998131, 243, 193, 258, 256
-0.998132, 307, 161, 322, 224
-0.998137, 337, 185, 368, 248
-0.998137, 73, 149, 88, 180
-0.998139, 361, 33, 424, 288
-0.998143, 145, 97, 160, 160
-0.998146, 83, 297, 98, 360
-0.998148, 275, 193, 290, 256
-0.998148, 175, 145, 190, 208
-0.998149, 163, 177, 178, 240
-0.998149, 13, 145, 28, 208
-0.998163, 233, 161, 264, 288
-0.998165, 139, 157, 154, 188
-0.998172, 137, 217, 168, 280
-0.998175, 33, 313, 288, 375
-0.998201, 145, 141, 160, 172
-0.99821, 83, 177, 98, 208
-0.998221, 177, 137, 304, 168
-0.998223, 145, 153, 160, 184
-0.998232, 133, 65, 164, 320
-0.998233, 57, 133, 72, 164
-0.998234, 97, 157, 112, 188
-0.998242, 57, 97, 88, 352
-0.998245, 159, 197, 174, 228
-0.998251, 79, 141, 94, 172
-0.998262, 89, 241, 120, 368
-0.998263, 321, 97, 448, 160
-0.998264, 273, 205, 400, 236
-0.998266, 197, 153, 212, 184
-0.99827, 1, 313, 128, 344
-0.998272, 97, 113, 224, 144
-0.998274, 77, 97, 108, 160
-0.998279, 91, 121, 106, 152
-0.998284, 169, 167, 200, 182
-0.998285, 145, 139, 176, 154
-0.998285, 197, 161, 228, 176
-0.998286, 177, 191, 208, 206
-0.998287, 253, 211, 284, 226
-0.998287, 161, 193, 192, 208
-0.998288, 333, 151, 364, 166
-0.998289, 269, 131, 300, 146
-0.99829, 445, 155, 476, 170
-0.998292, 361, 161, 392, 176
-0.998293, 321, 137, 352, 152
-0.998294, 273, 179, 304, 194
-0.998294, 257, 179, 288, 194
-0.998296, 201, 141, 216, 172
-0.998296, 309, 149, 340, 164
-0.998297, 49, 157, 80, 172
-0.998297, 129, 209, 160, 224
-0.998297, 257, 217, 288, 232
-0.998298, 41, 179, 72, 194
-0.998298, 253, 145, 268, 176
-0.998299, 33, 201, 64, 216
-0.9983, 181, 209, 212, 224
-0.998301, 41, 167, 72, 182
-0.998301, 49, 145, 80, 160
-0.998302, 277, 141, 292, 172
-0.998302, 49, 305, 176, 336
-0.998304, 53, 131, 84, 146
-0.998306, 185, 161, 216, 176
-0.998307, 1, 125, 128, 156
-0.998308, 289, 125, 320, 140
-0.998308, 41, 207, 72, 222
-0.998309, 321, 159, 352, 174
-0.998309, 147, 197, 162, 228
-0.998309, 173, 161, 204, 176
-0.99831, 201, 127, 232, 142
-0.998311, 65, 125, 96, 140
-0.998311, 285, 153, 316, 168
-0.998312, 133, 123, 164, 138
-0.998314, 145, 195, 176, 210
-0.998315, 177, 143, 208, 158
-0.998315, 211, 145, 226, 176
-0.99832, 341, 163, 372, 178
-0.99832, 85, 205, 100, 236
-0.998321, 89, 187, 120, 202
-0.998322, 113, 215, 144, 230
-0.998323, 165, 213, 196, 228
-0.998324, 293, 179, 324, 194
-0.998324, 17, 333, 144, 364
-0.998324, 41, 173, 72, 188
-0.998326, 153, 207, 184, 222
-0.998326, 261, 157, 292, 172
-0.998326, 229, 141, 244, 172
-0.998327, 109, 157, 124, 188
-0.998329, 273, 195, 304, 210
-0.99833, 209, 161, 240, 176
-0.998331, 241, 149, 256, 180
-0.998333, 141, 209, 172, 224
-0.998333, 109, 123, 140, 138
-0.998334, 257, 217, 384, 248
-0.998335, 259, 153, 274, 184
-0.998335, 341, 157, 372, 172
-0.998337, 165, 207, 196, 222
-0.998337, 321, 151, 352, 166
-0.998337, 45, 195, 76, 210
-0.998338, 265, 203, 296, 218
-0.998341, 377, 151, 408, 166
-0.998341, 165, 125, 196, 140
-0.998342, 153, 125, 184, 140
-0.998342, 165, 143, 196, 158
-0.998343, 1, 167, 32, 182
-0.998346, 137, 163, 168, 178
-0.998346, 237, 207, 268, 222
-0.998346, 241, 159, 272, 174
-0.998346, 157, 199, 188, 214
-0.998347, 217, 149, 248, 164
-0.998348, 281, 131, 312, 146
-0.998349, 219, 153, 234, 184
-0.998351, 177, 97, 208, 352
-0.998352, 179, 125, 194, 156
-0.998353, 293, 131, 324, 146
-0.998354, 121, 123, 152, 138
-0.998354, 161, 159, 192, 174
-0.998354, 309, 129, 340, 144
-0.998356, 377, 157, 408, 172
-0.998357, 77, 137, 108, 152
-0.998358, 73, 157, 104, 172
-0.998359, 253, 151, 284, 166
-0.998361, 273, 153, 304, 168
-0.998366, 57, 205, 72, 236
-0.998366, 41, 189, 72, 204
-0.998367, 121, 145, 136, 176
-0.998367, 187, 141, 202, 172
-0.998368, 89, 171, 120, 186
-0.998369, 177, 49, 208, 176
-0.998371, 89, 145, 120, 160
-0.998372, 249, 157, 264, 188
-0.998375, 267, 145, 282, 176
-0.998375, 89, 159, 120, 174
-0.998376, 273, 185, 304, 200
-0.998379, 117, 137, 148, 152
-0.99838, 101, 131, 132, 146
-0.99838, 77, 125, 108, 140
-0.998381, 129, 225, 384, 288
-0.998383, 133, 145, 164, 160
-0.998384, 57, 145, 72, 176
-0.998385, 81, 221, 208, 252
-0.998385, 145, 145, 176, 160
-0.998387, 221, 141, 236, 172
-0.998388, 197, 149, 228, 164
-0.998389, 93, 165, 124, 180
-0.998389, 61, 157, 92, 172
-0.998391, 49, 151, 80, 166
-0.998392, 67, 177, 82, 208
-0.998393, 51, 153, 66, 184
-0.998394, 53, 165, 68, 196
-0.998395, 1, 289, 256, 352
-0.998397, 169, 125, 184, 156
-0.998398, 145, 201, 176, 216
-0.9984, 65, 131, 96, 146
-0.9984, 61, 167, 92, 182
-0.998401, 53, 209, 84, 224
-0.998401, 321, 143, 352, 158
-0.998402, 373, 177, 404, 240
-0.998407, 61, 141, 92, 156
-0.998413, 185, 149, 216, 164
-0.998417, 89, 139, 120, 154
-0.998418, 241, 153, 272, 168
-0.99842, 61, 173, 92, 188
-0.998421, 73, 163, 104, 178
-0.998423, 85, 193, 116, 208
-0.998426, 81, 151, 112, 166
-0.998427, 117, 159, 148, 174
-0.998427, 177, 155, 208, 170
-0.998433, 81, 205, 112, 220
-0.998435, 97, 123, 128, 138
-0.998437, 83, 121, 98, 152
-0.998438, 69, 125, 84, 156
-0.998439, 101, 159, 132, 174
-0.998442, 77, 183, 108, 198
-0.998443, 61, 179, 92, 194
-0.998444, 45, 201, 76, 216
-0.998448, 225, 117, 352, 148
-0.998454, 145, 153, 208, 168
-0.998456, 113, 173, 240, 204
-0.998457, 101, 147, 132, 162
-0.998458, 65, 209, 96, 224
-0.998458, 77, 131, 108, 146
-0.998459, 57, 199, 120, 214
-0.998461, 293, 185, 308, 216
-0.998461, 229, 157, 260, 172
-0.998461, 133, 149, 148, 180
-0.998463, 209, 155, 240, 170
-0.998468, 119, 121, 134, 152
-0.998469, 283, 205, 298, 236
-0.99847, 141, 121, 156, 152
-0.998473, 75, 125, 90, 156
-0.998475, 301, 181, 316, 212
-0.998475, 89, 133, 120, 148
-0.998475, 149, 157, 180, 172
-0.998476, 77, 173, 108, 188
-0.998476, 159, 149, 174, 180
-0.99848, 161, 113, 288, 144
-0.99848, 229, 151, 260, 166
-0.998483, 151, 153, 166, 184
-0.998489, 89, 155, 152, 170
-0.998493, 235, 137, 250, 168
-0.998493, 281, 65, 312, 192
-0.998494, 159, 121, 174, 152
-0.998494, 69, 201, 84, 232
-0.998496, 273, 81, 400, 144
-0.998502, 149, 151, 180, 166
-0.998502, 137, 157, 168, 172
-0.998506, 61, 151, 92, 166
-0.998506, 165, 151, 196, 166
-0.99851, 125, 217, 156, 280
-0.99851, 65, 135, 128, 150
-0.998511, 273, 97, 304, 352
-0.998514, 177, 149, 192, 180
-0.998516, 131, 121, 146, 152
-0.998517, 185, 155, 248, 170
-0.998517, 217, 97, 248, 352
-0.998518, 195, 141, 210, 172
-0.99852, 357, 121, 388, 184
-0.998523, 73, 193, 104, 208
-0.998524, 121, 151, 184, 166
-0.998526, 169, 141, 184, 172
-0.998526, 129, 137, 144, 168
-0.998526, 289, 129, 304, 160
-0.998528, 117, 147, 148, 162
-0.998528, 1, 217, 500, 280
-0.998529, 189, 155, 220, 170
-0.99853, 113, 159, 176, 174
-0.998531, 87, 133, 102, 164
-0.998532, 49, 129, 112, 144
-0.998533, 97, 153, 128, 168
-0.998535, 101, 141, 132, 156
-0.998536, 257, 201, 500, 264
-0.998539, 209, 157, 272, 172
-0.99854, 81, 199, 112, 214
-0.998544, 57, 171, 120, 186
-0.998544, 187, 125, 202, 156
-0.998547, 221, 125, 236, 156
-0.998548, 203, 125, 218, 156
-0.998553, 77, 225, 108, 352
-0.998556, 151, 121, 166, 152
-0.998557, 49, 205, 112, 220
-0.99856, 313, 1, 376, 256
-0.99856, 139, 133, 154, 164
-0.998561, 81, 123, 144, 138
-0.998561, 61, 185, 92, 200
-0.998563, 89, 149, 152, 164
-0.998563, 57, 185, 120, 200
-0.998563, 321, 209, 384, 272
-0.998568, 57, 193, 120, 208
-0.998568, 89, 163, 152, 178
-0.998569, 233, 155, 296, 170
-0.998572, 193, 201, 224, 264
-0.998572, 205, 201, 236, 264
-0.998576, 75, 205, 90, 236
-0.998578, 193, 125, 208, 156
-0.998583, 335, 157, 350, 188
-0.998584, 133, 151, 164, 166
-0.998584, 89, 137, 152, 152
-0.998585, 85, 149, 100, 180
-0.998588, 209, 151, 272, 166
-0.99859, 61, 165, 76, 196
-0.998591, 113, 145, 176, 160
-0.998591, 369, 185, 496, 216
-0.998591, 3, 161, 18, 192
-0.998592, 225, 97, 480, 160
-0.998593, 117, 153, 148, 168
-0.998594, 33, 199, 96, 214
-0.998599, 279, 153, 294, 184
-0.9986, 177, 205, 192, 236
-0.998601, 297, 147, 360, 162
-0.998603, 49, 151, 112, 166
-0.998603, 361, 185, 392, 248
-0.998606, 61, 201, 92, 216
-0.998607, 49, 177, 112, 192
-0.998608, 9, 203, 72, 218
-0.998608, 185, 149, 248, 164
-0.998608, 41, 165, 104, 180
-0.998609, 49, 141, 112, 156
-0.998611, 257, 153, 320, 168
-0.998612, 61, 193, 92, 208
-0.998613, 145, 147, 208, 162
-0.998613, 89, 143, 152, 158
-0.998614, 273, 145, 336, 160
-0.998616, 57, 211, 120, 226
-0.998616, 233, 147, 296, 162
-0.998616, 281, 131, 344, 146
-0.998617, 49, 157, 112, 172
-0.998618, 33, 193, 96, 208
-0.998621, 65, 163, 128, 178
-0.998622, 175, 137, 190, 168
-0.998622, 81, 169, 144, 184
-0.998624, 285, 149, 300, 180
-0.998624, 283, 129, 298, 160
-0.998625, 275, 129, 290, 160
-0.998625, 137, 125, 200, 140
-0.998625, 81, 205, 144, 220
-0.998629, 25, 175, 88, 190
-0.998629, 81, 193, 144, 208
-0.99863, 171, 193, 186, 224
-0.998633, 277, 185, 292, 216
-0.998639, 297, 141, 360, 156
-0.99864, 259, 129, 274, 160
-0.998644, 337, 161, 400, 176
-0.998645, 273, 185, 336, 200
-0.998645, 137, 159, 200, 174
-0.998646, 105, 123, 168, 138
-0.998646, 297, 153, 360, 168
-0.998647, 211, 125, 226, 156
-0.998647, 377, 157, 440, 172
-0.998648, 161, 159, 224, 174
-0.998649, 289, 205, 304, 236
-0.998652, 267, 129, 282, 160
-0.998653, 297, 161, 360, 176
-0.998654, 225, 209, 288, 224
-0.998654, 241, 97, 272, 352
-0.998654, 289, 179, 352, 194
-0.998655, 9, 169, 72, 184
-0.998658, 25, 209, 88, 224
-0.998658, 433, 81, 496, 208
-0.998658, 257, 193, 320, 208
-0.998659, 339, 145, 354, 176
-0.99866, 1, 241, 64, 256
-0.998661, 81, 129, 144, 144
-0.998661, 113, 139, 176, 154
-0.998662, 153, 207, 216, 222
-0.998663, 257, 203, 320, 218
-0.998663, 177, 209, 240, 224
-0.998664, 155, 209, 170, 240
-0.998664, 41, 135, 104, 150
-0.998665, 137, 213, 200, 228
-0.998668, 177, 127, 240, 142
-0.998669, 49, 303, 112, 318
-0.99867, 17, 263, 80, 278
-0.99867, 105, 215, 168, 230
-0.998671, 57, 309, 120, 324
-0.998672, 185, 161, 248, 176
-0.998674, 33, 285, 96, 300
-0.998676, 303, 129, 318, 160
-0.998676, 217, 203, 280, 218
-0.998676, 81, 341, 144, 356
-0.998677, 1, 345, 128, 375
-0.998677, 257, 159, 320, 174
-0.998677, 433, 155, 496, 170
-0.998677, 9, 257, 72, 272
-0.998677, 233, 161, 296, 176
-0.998677, 169, 191, 232, 206
-0.998677, 257, 131, 320, 146
-0.998678, 41, 293, 104, 308
-0.998678, 33, 183, 96, 198
-0.998678, 17, 269, 80, 284
-0.998679, 249, 185, 312, 200
-0.998679, 65, 319, 128, 334
-0.99868, 161, 141, 224, 156
-0.998681, 89, 347, 152, 362
-0.998682, 97, 357, 160, 372
-0.998682, 243, 137, 258, 168
-0.998683, 73, 329, 136, 344
-0.998683, 329, 155, 392, 170
-0.998684, 121, 133, 136, 164
-0.998685, 137, 197, 200, 212
-0.998688, 137, 191, 200, 206
-0.998688, 81, 199, 144, 214
-0.998689, 55, 177, 70, 208
-0.99869, 57, 123, 120, 138
-0.998691, 249, 219, 312, 234
-0.998692, 161, 97, 192, 160
-0.998692, 25, 275, 88, 290
-0.998693, 201, 211, 264, 226
-0.998694, 257, 209, 320, 224
-0.998696, 81, 185, 144, 200
-0.998696, 1, 247, 64, 262
-0.998697, 81, 335, 144, 350
-0.998698, 121, 165, 184, 180
-0.998698, 361, 163, 424, 178
-0.998698, 129, 203, 192, 218
-0.998699, 297, 167, 360, 182
-0.998703, 233, 197, 296, 212
-0.998703, 73, 179, 136, 194
-0.998705, 217, 129, 280, 144
-0.998705, 273, 139, 336, 154
-0.998707, 297, 185, 360, 200
-0.998707, 249, 179, 312, 194
-0.998711, 193, 201, 256, 216
-0.998712, 253, 97, 284, 352
-0.998712, 233, 191, 296, 206
-0.998712, 209, 223, 272, 238
-0.998713, 161, 165, 224, 180
-0.998714, 105, 207, 168, 222
-0.998714, 165, 205, 180, 236
-0.998716, 81, 215, 144, 230
-0.998716, 201, 167, 264, 182
-0.998718, 289, 173, 352, 188
-0.998718, 121, 171, 184, 186
-0.998718, 257, 173, 320, 188
-0.998718, 273, 219, 336, 234
-0.998719, 137, 141, 200, 156
-0.998719, 337, 149, 400, 164
-0.99872, 193, 97, 224, 352
-0.99872, 257, 125, 320, 140
-0.99872, 201, 143, 264, 158
-0.99872, 169, 217, 232, 232
-0.998721, 321, 143, 384, 158
-0.998721, 385, 187, 448, 202
-0.998723, 275, 197, 290, 228
-0.998724, 409, 155, 472, 170
-0.998733, 9, 157, 24, 188
-0.998736, 323, 129, 338, 160
-0.998737, 297, 129, 312, 160
-0.998739, 239, 205, 254, 236
-0.998739, 67, 165, 82, 196
-0.998741, 149, 185, 164, 216
-0.998742, 95, 169, 110, 200
-0.998743, 209, 233, 336, 296
-0.998743, 123, 213, 138, 244
-0.998756, 273, 133, 400, 164
-0.998761, 231, 161, 246, 192
-0.998762, 227, 125, 242, 156
-0.998765, 1, 173, 16, 204
-0.998773, 193, 225, 320, 256
-0.998788, 325, 97, 356, 352
-0.998792, 105, 1, 136, 256
-0.9988, 293, 97, 324, 352
-0.99881, 33, 229, 160, 260
-0.998811, 97, 113, 112, 240
-0.998822, 49, 293, 176, 324
-0.998849, 77, 129, 92, 256
-0.998854, 63, 129, 78, 256
-0.998885, 233, 225, 296, 288
-0.998915, 121, 113, 136, 240
-0.998922, 49, 253, 176, 284
-0.998958, 25, 225, 88, 288
-0.998959, 433, 33, 496, 288
-0.99897, 197, 97, 228, 160
-0.99897, 305, 121, 432, 152
-0.998976, 385, 33, 448, 288
-0.998976, 205, 97, 236, 352
-0.998982, 103, 113, 118, 240
-0.998993, 113, 305, 240, 368
-0.998995, 257, 17, 384, 80
-0.998999, 97, 281, 160, 344
-0.999006, 83, 145, 98, 272
-0.999012, 229, 97, 260, 352
-0.999018, 165, 1, 196, 256
-0.999023, 89, 129, 104, 256
-0.999027, 337, 209, 464, 240
-0.999028, 193, 161, 224, 288
-0.99903, 369, 165, 496, 196
-0.999031, 129, 233, 256, 264
-0.999048, 161, 113, 176, 240
-0.999061, 175, 113, 190, 240
-0.999072, 313, 97, 344, 352
-0.999073, 127, 113, 142, 240
-0.999073, 153, 113, 168, 240
-0.999083, 1, 49, 128, 176
-0.999092, 109, 113, 124, 240
-0.999093, 69, 145, 84, 272
-0.999103, 1, 161, 16, 288
-0.999125, 305, 169, 336, 232
-0.999128, 289, 57, 416, 120
-0.99913, 309, 193, 340, 256
-0.999139, 337, 197, 464, 228
-0.999142, 115, 113, 130, 240
-0.999144, 337, 129, 368, 375
-0.999145, 201, 113, 216, 240
-0.999146, 51, 145, 66, 272
-0.999171, 185, 97, 216, 160
-0.999181, 209, 49, 336, 112
-0.999188, 145, 1, 176, 256
-0.999189, 353, 141, 480, 172
-0.999193, 147, 113, 162, 240
-0.999198, 269, 113, 284, 240
-0.999199, 169, 113, 184, 240
-0.999206, 57, 129, 72, 256
-0.999214, 193, 97, 208, 224
-0.999223, 185, 97, 200, 224
-0.999225, 85, 1, 116, 256
-0.999229, 45, 241, 76, 304
-0.999233, 141, 97, 156, 224
-0.999251, 11, 145, 26, 272
-0.999255, 49, 109, 176, 140
-0.999258, 185, 1, 216, 256
-0.999258, 213, 113, 228, 240
-0.999258, 193, 1, 320, 64
-0.999262, 245, 113, 260, 240
-0.999271, 283, 113, 298, 240
-0.999275, 183, 145, 198, 272
-0.999279, 81, 233, 208, 264
-0.999281, 197, 1, 228, 256
-0.999282, 301, 113, 316, 240
-0.999285, 133, 113, 148, 240
-0.999286, 221, 1, 252, 256
-0.999289, 23, 161, 38, 288
-0.999289, 241, 17, 368, 144
-0.999301, 241, 1, 272, 256
-0.999302, 237, 113, 252, 240
-0.999306, 291, 113, 306, 240
-0.999311, 45, 145, 60, 272
-0.999314, 369, 129, 400, 375
-0.999314, 195, 145, 210, 272
-0.999324, 173, 97, 204, 160
-0.999325, 33, 145, 48, 272
-0.999328, 255, 113, 270, 240
-0.99933, 65, 281, 192, 312
-0.999339, 369, 177, 496, 304
-0.999344, 273, 1, 304, 256
-0.999344, 349, 129, 380, 375
-0.999351, 313, 113, 328, 240
-0.999353, 171, 177, 186, 304
-0.999353, 121, 1, 152, 256
-0.999355, 17, 161, 32, 288
-0.999362, 335, 129, 350, 256
-0.999366, 277, 113, 292, 240
-0.999391, 353, 33, 480, 96
-0.999391, 369, 273, 496, 336
-0.999395, 381, 129, 412, 375
-0.999395, 353, 209, 416, 272
-0.999398, 141, 145, 156, 272
-0.999404, 39, 145, 54, 272
-0.999404, 189, 145, 204, 272
-0.99941, 393, 129, 424, 375
-0.999411, 149, 161, 164, 288
-0.999413, 207, 97, 222, 224
-0.999413, 209, 1, 240, 256
-0.999414, 227, 113, 242, 240
-0.999423, 165, 161, 180, 288
-0.999426, 111, 65, 126, 192
-0.99943, 199, 65, 214, 192
-0.99945, 221, 113, 236, 240
-0.999454, 9, 33, 40, 288
-0.999454, 151, 65, 166, 192
-0.999458, 87, 81, 102, 208
-0.999458, 261, 113, 276, 240
-0.999461, 161, 65, 176, 192
-0.999463, 101, 65, 116, 192
-0.999463, 307, 113, 322, 240
-0.999468, 177, 237, 304, 268
-0.999481, 121, 65, 136, 192
-0.999489, 69, 81, 84, 208
-0.999498, 305, 233, 432, 296
-0.999499, 61, 177, 76, 304
-0.9995, 27, 209, 42, 336
-0.999503, 329, 113, 344, 240
-0.999506, 171, 65, 186, 192
-0.999507, 379, 129, 394, 256
-0.999507, 341, 145, 356, 272
-0.999509, 131, 65, 146, 192
-0.999515, 337, 221, 464, 252
-0.999518, 155, 161, 170, 288
-0.999525, 41, 225, 56, 352
-0.999526, 293, 1, 324, 256
-0.999528, 259, 147, 274, 162
-0.999529, 49, 201, 64, 216
-0.999529, 305, 131, 320, 146
-0.99953, 91, 175, 106, 190
-0.99953, 109, 123, 124, 138
-0.99953, 259, 209, 274, 224
-0.999531, 1, 167, 16, 182
-0.999532, 169, 141, 184, 156
-0.999533, 133, 123, 148, 138
-0.999534, 207, 157, 222, 172
-0.999534, 79, 147, 94, 162
-0.999534, 337, 157, 352, 172
-0.999534, 133, 159, 148, 174
-0.999534, 125, 193, 156, 320
-0.999535, 111, 133, 126, 148
-0.999536, 105, 163, 120, 178
-0.999536, 145, 151, 160, 166
-0.999537, 73, 141, 88, 156
-0.999537, 319, 113, 334, 240
-0.999538, 19, 209, 34, 336
-0.999538, 129, 153, 144, 168
-0.999539, 297, 179, 312, 194
-0.999541, 121, 137, 136, 152
-0.999541, 269, 147, 284, 162
-0.999541, 163, 125, 178, 140
-0.999541, 147, 207, 162, 222
-0.999542, 53, 241, 68, 368
-0.999542, 53, 169, 68, 184
-0.999542, 7, 165, 22, 180
-0.999544, 57, 143, 72, 158
-0.999545, 251, 159, 266, 174
-0.999547, 177, 65, 192, 192
-0.999547, 201, 147, 216, 162
-0.999547, 155, 205, 170, 220
-0.999547, 167, 155, 182, 170
-0.999549, 333, 137, 348, 152
-0.999549, 81, 211, 96, 226
-0.999549, 279, 153, 294, 168
-0.999549, 293, 191, 308, 206
-0.99955, 117, 159, 132, 174
-0.99955, 253, 147, 268, 162
-0.999552, 313, 97, 344, 160
-0.999552, 161, 205, 176, 220
-0.999553, 279, 161, 294, 288
-0.999554, 75, 211, 90, 226
-0.999555, 83, 163, 98, 178
-0.999556, 159, 199, 174, 214
-0.999557, 55, 203, 70, 218
-0.999557, 333, 151, 348, 166
-0.999558, 75, 131, 90, 146
-0.999558, 21, 249, 52, 312
-0.99956, 47, 241, 62, 368
-0.99956, 175, 145, 190, 160
-0.999561, 161, 145, 176, 160
-0.999562, 149, 199, 164, 214
-0.999562, 95, 169, 110, 184
-0.999563, 61, 165, 76, 180
-0.999564, 79, 177, 94, 192
-0.999565, 55, 197, 70, 212
-0.999566, 177, 177, 192, 304
-0.999566, 61, 209, 76, 224
-0.999566, 273, 229, 400, 260
-0.999566, 59, 81, 74, 208
-0.999567, 95, 161, 110, 288
-0.999567, 85, 133, 100, 148
-0.999567, 181, 155, 196, 170
-0.999568, 193, 145, 208, 160
-0.999569, 151, 145, 166, 160
-0.999569, 303, 161, 318, 288
-0.99957, 67, 185, 82, 200
-0.99957, 245, 65, 260, 192
-0.999571, 89, 183, 104, 198
-0.999572, 61, 187, 76, 202
-0.999572, 89, 139, 104, 154
-0.999573, 373, 145, 388, 272
-0.999573, 67, 209, 82, 336
-0.999573, 333, 143, 348, 158
-0.999574, 61, 175, 76, 190
-0.999574, 117, 153, 132, 168
-0.999575, 221, 151, 236, 166
-0.999575, 261, 1, 292, 256
-0.999576, 69, 157, 84, 172
-0.999577, 75, 125, 90, 140
-0.999577, 71, 173, 86, 188
-0.999577, 67, 209, 82, 224
-0.999577, 325, 193, 356, 256
-0.999579, 89, 191, 104, 206
-0.999579, 67, 141, 82, 156
-0.999582, 157, 151, 172, 166
-0.999587, 53, 193, 68, 320
-0.999588, 87, 203, 102, 218
-0.999589, 351, 145, 366, 272
-0.999589, 111, 145, 126, 160
-0.99959, 201, 159, 216, 174
-0.99959, 259, 153, 274, 168
-0.999591, 233, 157, 248, 172
-0.999594, 19, 113, 34, 240
-0.999594, 105, 157, 120, 172
-0.999594, 275, 147, 290, 162
-0.999595, 79, 187, 94, 202
-0.999596, 73, 151, 88, 166
-0.999598, 79, 153, 94, 168
-0.999599, 213, 157, 228, 172
-0.999603, 387, 145, 402, 272
-0.999603, 119, 147, 134, 162
-0.999604, 105, 147, 120, 162
-0.999605, 359, 145, 374, 272
-0.999605, 139, 161, 154, 176
-0.999605, 101, 139, 116, 154
-0.999606, 85, 193, 100, 320
-0.999606, 77, 169, 92, 184
-0.999608, 149, 157, 164, 172
-0.999609, 341, 33, 372, 288
-0.99961, 85, 175, 100, 190
-0.99961, 167, 149, 182, 164
-0.99961, 5, 113, 20, 240
-0.999611, 229, 151, 244, 166
-0.999611, 101, 123, 116, 138
-0.999612, 11, 193, 26, 320
-0.999613, 259, 65, 274, 192
-0.999613, 33, 225, 48, 352
-0.999614, 265, 153, 280, 168
-0.999614, 77, 193, 92, 320
-0.999615, 185, 149, 200, 164
-0.99962, 207, 145, 222, 272
-0.999621, 1, 113, 128, 144
-0.999622, 135, 161, 150, 288
-0.999624, 175, 151, 190, 166
-0.999626, 115, 161, 130, 288
-0.999626, 367, 145, 382, 272
-0.999628, 109, 161, 124, 288
-0.999629, 93, 127, 108, 142
-0.999629, 57, 149, 72, 164
-0.999629, 219, 157, 234, 172
-0.999632, 195, 157, 210, 172
-0.999635, 67, 199, 82, 214
-0.999636, 393, 145, 408, 272
-0.99964, 235, 65, 250, 192
-0.999641, 253, 153, 268, 168
-0.999641, 211, 151, 226, 166
-0.999641, 67, 131, 82, 146
-0.999641, 293, 177, 308, 304
-0.999642, 25, 113, 40, 240
-0.999643, 59, 241, 74, 368
-0.999645, 81, 81, 96, 208
-0.999645, 225, 157, 240, 172
-0.999646, 245, 157, 260, 172
-0.999646, 71, 165, 86, 180
-0.999647, 111, 159, 126, 174
-0.99965, 311, 161, 326, 288
-0.999651, 69, 193, 84, 208
-0.999652, 451, 129, 466, 256
-0.999653, 151, 151, 166, 166
-0.999655, 67, 151, 82, 166
-0.999655, 93, 65, 108, 192
-0.999655, 213, 65, 228, 192
-0.999655, 257, 273, 384, 336
-0.999656, 77, 161, 92, 176
-0.999656, 239, 157, 254, 172
-0.999658, 413, 129, 428, 256
-0.999659, 187, 155, 202, 170
-0.999659, 165, 209, 180, 336
-0.999659, 405, 129, 436, 375
-0.999659, 101, 133, 116, 148
-0.99966, 445, 129, 460, 256
-0.999663, 75, 195, 90, 210
-0.999664, 85, 169, 100, 184
-0.999664, 403, 129, 418, 256
-0.999666, 81, 241, 96, 368
-0.999668, 97, 249, 224, 280
-0.999669, 1, 225, 16, 352
-0.999671, 61, 193, 76, 208
-0.999672, 81, 205, 96, 220
-0.999674, 111, 151, 126, 166
-0.999677, 243, 151, 258, 166
-0.999677, 281, 209, 344, 336
-0.999679, 269, 65, 284, 192
-0.999679, 267, 161, 282, 288
-0.999681, 49, 97, 64, 224
-0.999682, 305, 281, 432, 344
-0.999683, 91, 133, 106, 148
-0.999684, 75, 81, 90, 208
-0.999686, 139, 153, 154, 168
-0.999687, 89, 197, 104, 212
-0.99969, 235, 151, 250, 166
-0.999691, 273, 177, 288, 304
-0.999698, 273, 109, 400, 140
-0.999699, 313, 1, 344, 256
-0.999703, 477, 129, 492, 256
-0.999705, 287, 161, 302, 288
-0.999706, 61, 199, 76, 214
-0.999707, 457, 129, 472, 256
-0.999708, 337, 65, 464, 128
-0.999709, 43, 97, 58, 224
-0.999709, 193, 151, 208, 166
-0.999709, 13, 241, 28, 368
-0.999712, 449, 129, 480, 192
-0.999712, 419, 129, 434, 256
-0.999715, 49, 265, 176, 296
-0.999719, 111, 139, 126, 154
-0.999721, 471, 129, 486, 256
-0.999721, 143, 193, 158, 320
-0.999722, 207, 49, 222, 176
-0.999722, 227, 65, 242, 192
-0.999725, 75, 201, 90, 216
-0.999727, 201, 153, 216, 168
-0.999747, 193, 25, 320, 88
-0.99975, 81, 193, 96, 208
-0.99975, 1, 297, 500, 360
-0.999766, 161, 1, 416, 64
-0.99977, 193, 17, 320, 144
-0.999771, 225, 57, 480, 120
-0.999776, 81, 199, 96, 214
-0.999791, 369, 105, 496, 168
-0.999812, 33, 33, 64, 288
-0.999819, 429, 129, 460, 375
-0.999823, 1, 241, 500, 304
-0.999823, 97, 321, 224, 352
-0.999827, 209, 105, 336, 136
-0.999836, 445, 97, 476, 352
-0.999837, 469, 129, 500, 375
-0.999843, 225, 237, 352, 268
-0.99989, 113, 341, 240, 372
-0.999902, 225, 225, 480, 288
-0.999933, 257, 233, 384, 296
-0.999938, 417, 129, 448, 375
-0.999962, 369, 97, 400, 224
-0.99997, 225, 33, 480, 96
-0.999972, 305, 33, 432, 96
-0.999974, 369, 33, 400, 288
-0.999986, 257, 1, 500, 64
-0.999992, 457, 129, 488, 375
-1, 73, 1, 104, 256
-1.00002, 389, 33, 420, 288
-1.00002, 353, 33, 384, 288
-1.00002, 97, 305, 224, 336
-1.00004, 329, 1, 360, 256
-1.00006, 245, 177, 276, 304
-1.00007, 353, 297, 480, 360
-1.00008, 21, 33, 52, 288
-1.00008, 337, 9, 464, 72
-1.00008, 97, 281, 352, 344
-1.00008, 45, 33, 76, 288
-1.00008, 169, 225, 200, 352
-1.00011, 145, 249, 272, 280
-1.00013, 209, 209, 272, 336
-1.00017, 305, 33, 432, 160
-1.00021, 129, 73, 384, 136
-1.00023, 129, 281, 256, 312
-1.00024, 405, 33, 436, 288
-1.00025, 353, 281, 480, 312
-1.00027, 209, 233, 272, 296
-1.00031, 305, 293, 432, 324
-1.00032, 289, 277, 416, 308
-1.00032, 353, 129, 480, 160
-1.00032, 289, 69, 416, 100
-1.00033, 225, 29, 352, 60
-1.00033, 225, 57, 352, 88
-1.00033, 321, 89, 448, 120
-1.00033, 305, 33, 432, 64
-1.00033, 241, 13, 368, 44
-1.00033, 241, 41, 368, 72
-1.00033, 305, 57, 432, 88
-1.00033, 273, 97, 400, 128
-1.00034, 225, 77, 352, 108
-1.00035, 353, 113, 480, 144
-1.00035, 321, 233, 448, 264
-1.00035, 177, 285, 304, 316
-1.00035, 353, 293, 480, 324
-1.00035, 421, 33, 452, 288
-1.00037, 457, 33, 488, 288
-1.00037, 241, 1, 368, 32
-1.00037, 273, 81, 400, 112
-1.00037, 337, 101, 464, 132
-1.00037, 337, 73, 464, 104
-1.00038, 225, 289, 352, 320
-1.00038, 225, 89, 352, 120
-1.00039, 65, 1, 320, 64
-1.00039, 209, 273, 336, 304
-1.0004, 145, 9, 272, 72
-1.0004, 129, 41, 384, 104
-1.0004, 289, 45, 416, 76
-1.00041, 297, 225, 360, 288
-1.00041, 369, 41, 496, 72
-1.00041, 433, 33, 464, 288
-1.00042, 305, 5, 432, 36
-1.00044, 145, 257, 272, 320
-1.00045, 305, 17, 432, 48
-1.00045, 177, 13, 304, 44
-1.00046, 161, 1, 288, 32
-1.00047, 469, 33, 500, 288
-1.00048, 273, 333, 400, 364
-1.00049, 145, 101, 272, 132
-1.00049, 353, 261, 480, 292
-1.0005, 369, 85, 496, 116
-1.0005, 353, 53, 480, 84
-1.00051, 113, 269, 240, 300
-1.00051, 57, 1, 88, 256
-1.00052, 321, 321, 448, 352
-1.00053, 225, 73, 352, 136
-1.00053, 97, 293, 224, 324
-1.00053, 369, 1, 496, 32
-1.00054, 209, 281, 336, 344
-1.00055, 369, 249, 496, 312
-1.00056, 177, 69, 304, 100
-1.00056, 193, 45, 320, 76
-1.00057, 305, 253, 432, 284
-1.00058, 445, 1, 476, 256
-1.00058, 161, 269, 288, 300
-1.00059, 353, 25, 480, 56
-1.00059, 209, 325, 336, 356
-1.00059, 81, 73, 208, 136
-1.0006, 273, 313, 400, 344
-1.00061, 369, 237, 496, 268
-1.00062, 49, 1, 176, 32
-1.00063, 161, 281, 288, 344
-1.00064, 257, 289, 500, 352
-1.00065, 161, 57, 288, 120
-1.00067, 409, 33, 472, 288
-1.00072, 193, 265, 448, 328
-1.00079, 97, 249, 352, 312
-1.00081, 113, 17, 240, 144
-1.00081, 241, 225, 368, 352
-1.00082, 305, 313, 432, 375
-1.00083, 1, 49, 500, 112
-1.00084, 109, 209, 140, 336
-1.00086, 321, 257, 448, 320
-1.00087, 1, 73, 500, 136
-1.00088, 49, 89, 112, 152
-1.00088, 145, 33, 272, 96
-1.0009, 241, 305, 368, 368
-1.00091, 121, 313, 184, 375
-1.00092, 129, 313, 384, 375
-1.00093, 81, 1, 208, 64
-1.00103, 113, 241, 176, 368
-1.00104, 33, 41, 288, 104
-1.00107, 33, 65, 288, 128
-1.00108, 161, 313, 288, 375
-1.00113, 257, 313, 500, 375
-1.00117, 181, 193, 212, 320
-1.0012, 1, 9, 500, 72
-1.00133, 325, 65, 356, 192
-1.00139, 9, 105, 72, 168
-1.0014, 185, 233, 248, 296
-1.00145, 377, 209, 440, 272
-1.00146, 329, 193, 392, 320
-1.00147, 145, 249, 208, 312
-1.0015, 325, 161, 356, 288
-1.00162, 1, 265, 500, 328
-1.00162, 97, 33, 224, 96
-1.0017, 209, 257, 336, 320
-1.00177, 321, 97, 384, 160
-1.0019, 1, 1, 128, 64
-1.00191, 461, 81, 492, 208
-1.00217, 1, 41, 128, 104
-1.00229, 425, 81, 456, 208
-1.0023, 393, 81, 424, 208
-1.00231, 49, 49, 176, 112
-1.00237, 433, 201, 496, 264
-1.00244, 361, 177, 424, 304
-1.00245, 353, 225, 480, 352
-1.0025, 441, 81, 472, 208
-1.00255, 49, 25, 176, 88
-1.00258, 401, 209, 464, 272
-1.00258, 413, 81, 444, 208
-1.00263, 337, 49, 368, 176
-1.00264, 369, 17, 496, 144
-1.00272, 185, 209, 248, 336
-1.00316, 305, 225, 432, 352
-1.00326, 229, 209, 260, 336
-1.00346, 121, 241, 152, 368
-1.00347, 197, 209, 228, 336
-1.00352, 29, 65, 60, 192
-1.00359, 365, 193, 396, 320
-1.00362, 257, 241, 320, 304
-1.00381, 353, 193, 384, 320
-1.00387, 225, 1, 288, 64
-1.00392, 385, 281, 448, 344
-1.00402, 97, 257, 160, 320
-1.00403, 313, 33, 376, 160
-1.00416, 449, 177, 480, 304
-1.00419, 273, 41, 336, 104
-1.00424, 281, 273, 344, 336
-1.00428, 313, 209, 344, 336
-1.00429, 401, 177, 464, 304
-1.00429, 217, 225, 248, 352
-1.00433, 321, 233, 384, 296
-1.00449, 249, 41, 312, 104
-1.00452, 133, 241, 164, 368
-1.0046, 289, 209, 320, 336
-1.0047, 297, 41, 360, 104
-1.00472, 325, 209, 356, 336
-1.00474, 217, 281, 280, 344
-1.00477, 249, 1, 312, 64
-1.00478, 465, 177, 496, 304
-1.00481, 353, 281, 416, 344
-1.00484, 241, 225, 272, 352
-1.00486, 225, 41, 288, 104
-1.00491, 409, 105, 472, 168
-1.00493, 345, 57, 408, 120
-1.00498, 257, 281, 320, 344
-1.00502, 437, 177, 468, 304
-1.00502, 273, 1, 336, 64
-1.00507, 233, 225, 296, 352
-1.00511, 49, 1, 176, 128
-1.00511, 301, 209, 332, 336
-1.00513, 273, 225, 304, 352
-1.00519, 337, 193, 368, 320
-1.00523, 121, 249, 184, 312
-1.00532, 421, 177, 452, 304
-1.00532, 377, 193, 408, 320
-1.00534, 81, 33, 112, 160
-1.00541, 105, 73, 168, 136
-1.00546, 137, 17, 200, 144
-1.0055, 289, 305, 352, 368
-1.00551, 253, 225, 284, 352
-1.00555, 321, 41, 384, 104
-1.00555, 233, 249, 296, 312
-1.00555, 257, 305, 320, 368
-1.00556, 161, 17, 192, 144
-1.00561, 213, 17, 244, 144
-1.00569, 385, 81, 448, 144
-1.00569, 329, 289, 392, 352
-1.00574, 393, 1, 456, 64
-1.00574, 193, 273, 256, 336
-1.0058, 433, 241, 496, 304
-1.00582, 209, 17, 272, 144
-1.00583, 241, 17, 272, 144
-1.00585, 337, 49, 400, 176
-1.00588, 433, 177, 496, 304
-1.00588, 409, 177, 440, 304
-1.0059, 417, 281, 480, 344
-1.00599, 369, 41, 432, 104
-1.00599, 441, 225, 472, 352
-1.00603, 289, 65, 352, 128
-1.00604, 193, 1, 256, 64
-1.00606, 149, 17, 180, 144
-1.00609, 201, 17, 232, 144
-1.0061, 297, 9, 360, 72
-1.0061, 217, 313, 280, 375
-1.00613, 201, 33, 264, 96
-1.00618, 329, 265, 392, 328
-1.00643, 305, 225, 368, 352
-1.00692, 57, 33, 120, 160
-1.00747, 257, 225, 320, 352
-1.00748, 185, 17, 248, 144
-1.00786, 425, 225, 488, 352
-1.00803, 273, 17, 336, 144
-1.00858, 241, 17, 304, 144
-1.00909, 353, 1, 416, 128
-1.00936, 81, 17, 144, 144
-1.00971, 401, 1, 464, 128
-1.00981, 377, 225, 440, 352
-1.00997, 353, 225, 416, 352
-1.01023, 425, 17, 488, 144
-1.01042, 377, 1, 440, 128
-1.01072, 329, 241, 392, 368
-1.01088, 401, 225, 464, 352
-1.01089, 1, 1, 128, 128
-1.01152, 25, 49, 88, 176
-1.01153, 33, 1, 96, 128
-1.01223, 161, 1, 224, 128
-1.01325, 1, 1, 64, 128
-1.01431, 105, 1, 168, 128
-1.01633, 1, 49, 64, 176
