1959
-0.514357, 1, 129, 500, 375
-0.542542, 161, 1, 416, 375
-0.545024, 65, 1, 320, 375
-0.56123, 1, 33, 500, 288
-0.678005, 1, 1, 500, 375
-0.710901, 193, 129, 448, 375
-0.736778, 65, 97, 320, 352
-0.762445, 257, 1, 500, 375
-0.775322, 161, 33, 416, 288
-0.869308, 177, 1, 304, 375
-0.879775, 65, 1, 320, 256
-0.888889, 161, 129, 288, 375
-0.889908, 129, 1, 256, 375
-0.893502, 225, 1, 352, 375
-0.893517, 113, 97, 240, 352
-0.896428, 177, 33, 304, 288
-0.907048, 1, 225, 500, 352
-0.907103, 257, 129, 384, 375
-0.912535, 1, 161, 500, 288
-0.915006, 81, 1, 208, 375
-0.919467, 305, 129, 432, 375
-0.91982, 209, 129, 336, 375
-0.921836, 225, 1, 352, 256
-0.9221, 161, 177, 416, 304
-0.922374, 33, 65, 160, 320
-0.923261, 97, 1, 224, 256
-0.923905, 209, 161, 272, 288
-0.928134, 161, 225, 416, 352
-0.929416, 17, 1, 144, 375
-0.930102, 65, 225, 320, 352
-0.931236, 273, 1, 400, 375
-0.931244, 1, 113, 500, 240
-0.931584, 233, 145, 296, 272
-0.935454, 209, 161, 336, 288
-0.93746, 65, 177, 320, 304
-0.940822, 217, 241, 280, 368
-0.941053, 233, 193, 296, 320
-0.943242, 161, 225, 288, 352
-0.943481, 161, 161, 288, 288
-0.943773, 273, 1, 400, 256
-0.94499, 65, 113, 320, 240
-0.945009, 185, 177, 248, 304
-0.945301, 257, 1, 500, 256
-0.945551, 257, 209, 500, 336
-0.946357, 1, 65, 500, 192
-0.947221, 185, 225, 248, 352
-0.948725, 233, 193, 296, 256
-0.949501, 209, 209, 336, 336
-0.949578, 209, 169, 272, 232
-0.950485, 193, 129, 448, 256
-0.950975, 337, 1, 464, 375
-0.950985, 97, 65, 352, 192
-0.952013, 321, 33, 448, 288
-0.952501, 217, 249, 280, 312
-0.954385, 201, 193, 264, 256
-0.955339, 257, 177, 384, 304
-0.955805, 233, 161, 296, 224
-0.955817, 257, 177, 320, 304
-0.956343, 185, 233, 248, 296
-0.957466, 209, 113, 272, 240
-0.958629, 353, 129, 480, 375
-0.959318, 129, 113, 256, 240
-0.959332, 49, 81, 176, 208
-0.959535, 89, 81, 152, 208
-0.960333, 113, 177, 240, 304
-0.961525, 369, 209, 432, 336
-0.961995, 249, 225, 312, 288
-0.962063, 217, 273, 280, 336
-0.9623, 257, 177, 320, 240
-0.962552, 113, 65, 176, 192
-0.963249, 209, 49, 336, 176
-0.964301, 241, 241, 304, 368
-0.964719, 161, 177, 224, 304
-0.964719, 177, 201, 240, 264
-0.965505, 257, 129, 320, 256
-0.965585, 257, 129, 384, 256
-0.965716, 225, 225, 288, 288
-0.966268, 185, 113, 248, 240
-0.966391, 257, 201, 320, 264
-0.966754, 193, 113, 320, 240
-0.967105, 393, 225, 456, 352
-0.967143, 185, 257, 248, 320
-0.96802, 321, 145, 448, 272
-0.968067, 97, 49, 224, 176
-0.968115, 153, 97, 216, 224
-0.96842, 261, 193, 292, 256
-0.968834, 209, 129, 272, 375
-0.969111, 297, 129, 360, 256
-0.969167, 209, 49, 272, 176
-0.96926, 217, 161, 248, 288
-0.969625, 245, 145, 276, 272
-0.969636, 249, 137, 312, 200
-0.969809, 233, 97, 296, 224
-0.96983, 193, 177, 320, 240
-0.970028, 161, 49, 288, 176
-0.970044, 193, 49, 448, 176
-0.970521, 221, 169, 252, 232
-0.970721, 185, 65, 248, 192
-0.971323, 241, 161, 272, 224
-0.971326, 89, 97, 152, 160
-0.971394, 229, 161, 260, 288
-0.971443, 305, 241, 432, 368
-0.971591, 257, 225, 384, 352
-0.971722, 353, 161, 416, 288
-0.971835, 249, 249, 280, 312
-0.972953, 113, 225, 240, 352
-0.972959, 177, 209, 304, 272
-0.973077, 1, 225, 64, 352
-0.973145, 205, 177, 236, 304
-0.973205, 249, 193, 280, 320
-0.973205, 241, 249, 304, 312
-0.97323, 289, 185, 352, 248
-0.973235, 241, 241, 272, 368
-0.973314, 1, 65, 256, 192
-0.973526, 353, 193, 480, 320
-0.973641, 281, 177, 344, 304
-0.97366, 329, 225, 392, 352
-0.973706, 169, 177, 232, 240
-0.973805, 241, 129, 304, 375
-0.973877, 233, 33, 296, 160
-0.974127, 201, 209, 232, 272
-0.974188, 169, 153, 232, 216
-0.974344, 161, 225, 224, 352
-0.97436, 65, 65, 128, 192
-0.974542, 209, 145, 272, 208
-0.974618, 221, 249, 252, 312
-0.974894, 161, 233, 224, 296
-0.974985, 49, 225, 176, 352
-0.974994, 225, 225, 256, 352
-0.975076, 225, 305, 288, 368
-0.975197, 217, 57, 280, 120
-0.975648, 273, 209, 304, 272
-0.975687, 209, 185, 240, 248
-0.975858, 393, 177, 456, 304
-0.975935, 257, 81, 320, 208
-0.975987, 353, 241, 480, 368
-0.975997, 241, 273, 304, 336
-0.976105, 153, 209, 216, 272
-0.976453, 217, 113, 248, 240
-0.976549, 261, 225, 292, 288
-0.976634, 1, 97, 128, 224
-0.976732, 321, 177, 384, 304
-0.976777, 257, 169, 288, 232
-0.976802, 321, 129, 384, 256
-0.977033, 65, 129, 192, 256
-0.977056, 261, 225, 292, 352
-0.977075, 261, 177, 292, 304
-0.977155, 1, 17, 128, 144
-0.977291, 49, 177, 176, 304
-0.977483, 289, 129, 352, 192
-0.977523, 237, 249, 268, 312
-0.97754, 65, 17, 320, 144
-0.977747, 361, 225, 424, 288
-0.977829, 241, 185, 272, 248
-0.977921, 1, 241, 64, 304
-0.978086, 145, 177, 272, 240
-0.978303, 329, 273, 392, 336
-0.978596, 129, 129, 192, 256
-0.978718, 105, 73, 168, 136
-0.978898, 193, 193, 224, 320
-0.97911, 281, 209, 344, 272
-0.979119, 193, 233, 224, 296
-0.97917, 161, 233, 288, 296
-0.979387, 273, 169, 304, 232
-0.979395, 377, 273, 440, 336
-0.979462, 241, 193, 368, 256
-0.979491, 241, 225, 272, 288
-0.979521, 237, 273, 268, 336
-0.979609, 233, 113, 264, 240
-0.979793, 265, 225, 328, 352
-0.979981, 177, 153, 304, 216
-0.980068, 209, 121, 272, 184
-0.980167, 65, 81, 128, 144
-0.980197, 225, 1, 288, 375
-0.980232, 313, 161, 376, 224
-0.980307, 153, 121, 216, 184
-0.980332, 113, 153, 240, 216
-0.980351, 201, 33, 264, 288
-0.980409, 225, 233, 352, 296
-0.980532, 25, 241, 88, 368
-0.980629, 225, 1, 480, 128
-0.980894, 249, 273, 280, 336
-0.981041, 1, 17, 500, 144
-0.981129, 161, 257, 288, 320
-0.981158, 221, 193, 252, 256
-0.981168, 189, 201, 220, 264
-0.981237, 81, 89, 208, 152
-0.981243, 313, 137, 376, 200
-0.981548, 305, 193, 432, 320
-0.981562, 193, 81, 256, 144
-0.981588, 277, 161, 308, 288
-0.981606, 401, 297, 464, 360
-0.981745, 113, 105, 176, 168
-0.981791, 393, 233, 456, 296
-0.981849, 213, 225, 244, 352
-0.981899, 25, 193, 88, 320
-0.981937, 425, 305, 488, 368
-0.981952, 161, 97, 224, 352
-0.982286, 369, 33, 496, 288
-0.982381, 369, 201, 432, 264
-0.982487, 57, 177, 120, 304
-0.982533, 33, 305, 96, 368
-0.982557, 109, 81, 140, 208
-0.98257, 353, 249, 416, 312
-0.982583, 137, 193, 200, 320
-0.982608, 241, 169, 368, 232
-0.982623, 193, 281, 256, 344
-0.982651, 257, 81, 384, 208
-0.982669, 281, 81, 344, 208
-0.982703, 193, 65, 320, 128
-0.982789, 289, 161, 352, 224
-0.982823, 337, 161, 400, 224
-0.982845, 289, 105, 352, 168
-0.982863, 113, 89, 144, 152
-0.98293, 425, 241, 488, 368
-0.982935, 65, 113, 128, 240
-0.983311, 65, 225, 128, 352
-0.983367, 33, 81, 96, 208
-0.983403, 237, 137, 268, 200
-0.983459, 129, 209, 256, 272
-0.98346, 249, 105, 312, 168
-0.983488, 1, 225, 128, 352
-0.983557, 209, 241, 240, 304
-0.983615, 1, 161, 128, 288
-0.98362, 265, 129, 328, 375
-0.983651, 209, 257, 336, 320
-0.983695, 225, 1, 352, 128
-0.983748, 261, 129, 292, 256
-0.983862, 273, 233, 336, 296
-0.98389, 89, 225, 152, 288
-0.983952, 273, 81, 336, 144
-0.983972, 89, 65, 152, 320
-0.983978, 101, 89, 132, 152
-0.983983, 25, 217, 88, 280
-0.984276, 257, 297, 320, 360
-0.984281, 97, 225, 160, 352
-0.984323, 145, 49, 208, 176
-0.984326, 261, 249, 292, 312
-0.984351, 353, 273, 416, 336
-0.984576, 241, 33, 304, 288
-0.984619, 169, 89, 232, 152
-0.984651, 321, 209, 384, 272
-0.984694, 113, 153, 176, 216
-0.984747, 401, 209, 464, 272
-0.984793, 65, 201, 128, 264
-0.98483, 185, 129, 248, 375
-0.984922, 237, 33, 268, 160
-0.984954, 273, 209, 304, 336
-0.985035, 273, 217, 400, 280
-0.985136, 249, 65, 312, 128
-0.985143, 145, 121, 272, 184
-0.985179, 313, 185, 376, 248
-0.985251, 57, 177, 120, 240
-0.98534, 161, 257, 224, 320
-0.985559, 345, 185, 408, 248
-0.985587, 193, 1, 256, 375
-0.985593, 113, 233, 240, 296
-0.985637, 193, 57, 256, 120
-0.985652, 265, 265, 328, 328
-0.985671, 197, 177, 228, 240
-0.985679, 285, 209, 316, 272
-0.985709, 289, 225, 352, 352
-0.985809, 89, 177, 152, 304
-0.985835, 265, 289, 296, 352
-0.985836, 197, 129, 228, 256
-0.98585, 97, 185, 224, 248
-0.985869, 285, 169, 316, 232
-0.985906, 209, 161, 240, 224
-0.985946, 129, 129, 192, 192
-0.985962, 321, 225, 448, 288
-0.985968, 97, 65, 224, 128
-0.986035, 229, 217, 260, 280
-0.986082, 417, 177, 480, 304
-0.986125, 33, 89, 160, 152
-0.98619, 225, 105, 352, 168
-0.986278, 225, 281, 256, 344
-0.986369, 225, 145, 352, 208
-0.986409, 97, 17, 160, 144
-0.986437, 337, 137, 400, 200
-0.98644, 129, 81, 192, 144
-0.986658, 189, 241, 220, 368
-0.986665, 253, 145, 284, 208
-0.986728, 321, 193, 448, 256
-0.986746, 49, 113, 176, 176
-0.986762, 221, 145, 252, 208
-0.986798, 305, 273, 432, 336
-0.986802, 201, 65, 232, 192
-0.986811, 33, 281, 96, 344
-0.986901, 1, 49, 64, 176
-0.986918, 381, 177, 412, 304
-0.986957, 97, 65, 128, 192
-0.987022, 225, 57, 256, 120
-0.987029, 401, 193, 432, 320
-0.987047, 97, 113, 224, 176
-0.987136, 129, 217, 192, 280
-0.987153, 57, 17, 120, 144
-0.987396, 65, 105, 128, 168
-0.987485, 213, 217, 244, 280
-0.987503, 189, 257, 220, 320
-0.987575, 321, 249, 384, 312
-0.987577, 337, 297, 464, 360
-0.98769, 201, 241, 232, 368
-0.987693, 105, 193, 168, 256
-0.987789, 305, 273, 368, 336
-0.987824, 181, 233, 212, 296
-0.987826, 225, 49, 256, 176
-0.987843, 161, 281, 288, 344
-0.987925, 25, 241, 88, 304
-0.987947, 177, 97, 304, 160
-0.988097, 377, 129, 440, 256
-0.988113, 249, 1, 312, 375
-0.988208, 145, 177, 208, 240
-0.988314, 225, 185, 288, 216
-0.988367, 289, 153, 416, 216
-0.988614, 409, 265, 472, 328
-0.98862, 105, 129, 168, 256
-0.988647, 241, 297, 368, 360
-0.988647, 201, 265, 232, 328
-0.988667, 185, 241, 248, 272
-0.988676, 241, 49, 272, 112
-0.988731, 197, 153, 228, 216
-0.988736, 217, 197, 280, 228
-0.988752, 201, 185, 264, 216
-0.988755, 289, 33, 416, 160
-0.988755, 257, 1, 320, 128
-0.988769, 337, 249, 464, 312
-0.988788, 273, 129, 400, 192
-0.988793, 185, 129, 248, 192
-0.988848, 161, 129, 192, 192
-0.988868, 377, 297, 440, 360
-0.988895, 241, 197, 304, 228
-0.98891, 469, 305, 500, 368
-0.988921, 217, 173, 280, 204
-0.988939, 109, 113, 140, 176
-0.989142, 209, 1, 272, 128
-0.989161, 217, 33, 280, 96
-0.989174, 369, 209, 496, 272
-0.989209, 217, 269, 280, 300
-0.989228, 201, 253, 264, 284
-0.989269, 197, 81, 228, 144
-0.989331, 161, 49, 224, 112
-0.989338, 321, 129, 384, 375
-0.989338, 245, 97, 276, 224
-0.989365, 269, 145, 300, 208
-0.989487, 405, 217, 436, 280
-0.989514, 49, 257, 112, 320
-0.989517, 193, 197, 256, 228
-0.989535, 137, 153, 200, 216
-0.98954, 297, 193, 328, 256
-0.989567, 249, 209, 312, 240
-0.989585, 49, 185, 176, 248
-0.9896, 281, 33, 344, 160
-0.989633, 13, 233, 44, 296
-0.989641, 113, 33, 176, 288
-0.989654, 177, 241, 208, 368
-0.989674, 201, 305, 264, 368
-0.989695, 225, 249, 288, 280
-0.989738, 185, 145, 216, 272
-0.989747, 145, 73, 272, 136
-0.989755, 237, 297, 268, 360
-0.989777, 273, 1, 336, 256
-0.98981, 225, 41, 352, 104
-0.98982, 1, 305, 64, 368
-0.989837, 289, 97, 352, 352
-0.989843, 97, 1, 224, 128
-0.989886, 289, 145, 320, 272
-0.989896, 185, 169, 216, 232
-0.98996, 277, 233, 308, 296
-0.989969, 213, 65, 244, 192
-0.989993, 337, 81, 464, 208
-0.990012, 341, 129, 372, 256
-0.990027, 65, 233, 128, 296
-0.990054, 73, 57, 136, 120
-0.990068, 313, 121, 344, 184
-0.990085, 393, 185, 456, 248
-0.990109, 241, 229, 304, 260
-0.990183, 25, 129, 88, 256
-0.99021, 169, 281, 232, 344
-0.990221, 177, 113, 208, 176
-0.990232, 65, 153, 192, 216
-0.990234, 297, 297, 360, 360
-0.99026, 249, 305, 280, 368
-0.990292, 345, 297, 408, 360
-0.990297, 257, 173, 320, 204
-0.990324, 105, 129, 168, 192
-0.990336, 249, 185, 312, 216
-0.990408, 337, 313, 368, 375
-0.990458, 33, 225, 160, 288
-0.990475, 177, 253, 240, 284
-0.990532, 33, 65, 160, 128
-0.990565, 169, 213, 232, 244
-0.990575, 49, 33, 176, 160
-0.990592, 209, 73, 240, 136
-0.990604, 185, 229, 248, 260
-0.990618, 193, 209, 256, 240
-0.990695, 273, 221, 336, 252
-0.990724, 193, 269, 256, 300
-0.990728, 117, 33, 148, 160
-0.990799, 337, 113, 400, 176
-0.990824, 249, 33, 280, 160
-0.990844, 89, 101, 152, 132
-0.990848, 265, 197, 328, 228
-0.990861, 225, 209, 288, 240
-0.990889, 325, 121, 356, 184
-0.990949, 321, 297, 384, 360
-0.990966, 137, 129, 200, 375
-0.990968, 149, 137, 180, 200
-0.990993, 161, 229, 224, 260
-0.991029, 401, 241, 432, 368
-0.99103, 65, 33, 128, 288
-0.991048, 185, 17, 248, 144
-0.991071, 225, 161, 288, 192
-0.99108, 209, 237, 272, 268
-0.991091, 217, 309, 280, 340
-0.991097, 273, 185, 336, 216
-0.991103, 185, 33, 248, 96
-0.991112, 173, 209, 204, 272
-0.991142, 185, 97, 216, 224
-0.991144, 273, 209, 336, 240
-0.991149, 169, 193, 232, 224
-0.991157, 249, 253, 312, 284
-0.991158, 161, 241, 224, 272
-0.991174, 413, 241, 444, 368
-0.99118, 209, 221, 272, 252
-0.991181, 113, 89, 176, 120
-0.991194, 257, 121, 288, 184
-0.991206, 337, 273, 400, 304
-0.991214, 169, 1, 232, 256
-0.991242, 137, 241, 200, 304
-0.991248, 185, 165, 248, 196
-0.99125, 225, 57, 288, 88
-0.991256, 249, 241, 312, 272
-0.991262, 161, 1, 288, 128
-0.99127, 401, 193, 432, 256
-0.991271, 145, 49, 272, 112
-0.991299, 193, 169, 448, 232
-0.991315, 405, 241, 436, 304
-0.991319, 337, 81, 400, 208
-0.991325, 233, 281, 296, 312
-0.991328, 337, 169, 464, 232
-0.99136, 177, 181, 240, 212
-0.991366, 241, 265, 304, 296
-0.991369, 217, 297, 280, 328
-0.991383, 65, 201, 320, 264
-0.991391, 225, 217, 480, 280
-0.991405, 153, 1, 216, 375
-0.991431, 173, 177, 204, 304
-0.99144, 297, 153, 328, 216
-0.991452, 1, 265, 64, 328
-0.991455, 161, 241, 416, 304
-0.99147, 257, 25, 320, 88
-0.991497, 225, 321, 288, 352
-0.99152, 113, 177, 176, 304
-0.991531, 241, 305, 304, 336
-0.991542, 81, 177, 144, 240
-0.991566, 353, 129, 416, 375
-0.991576, 325, 113, 356, 240
-0.991611, 157, 129, 188, 256
-0.991639, 369, 225, 432, 256
-0.991666, 89, 265, 152, 328
-0.991705, 233, 137, 296, 168
-0.991749, 121, 81, 152, 208
-0.99176, 125, 73, 156, 136
-0.991763, 81, 209, 208, 272
-0.991765, 201, 81, 264, 112
-0.991806, 289, 73, 416, 136
-0.991815, 369, 281, 432, 312
-0.991835, 281, 1, 344, 375
-0.991854, 241, 149, 304, 180
-0.991861, 305, 205, 368, 236
-0.991868, 73, 89, 136, 120
-0.991892, 337, 137, 368, 200
-0.991908, 317, 185, 348, 248
-0.991926, 249, 161, 312, 192
-0.99193, 273, 241, 400, 304
-0.991937, 201, 285, 264, 316
-0.991955, 237, 113, 268, 176
-0.991963, 65, 205, 128, 236
-0.991975, 169, 265, 232, 296
-0.991991, 209, 125, 272, 156
-0.991995, 177, 117, 240, 148
-0.992027, 41, 89, 104, 152
-0.99203, 193, 153, 256, 184
-0.992056, 153, 253, 216, 284
-0.992073, 225, 341, 288, 372
-0.992078, 257, 185, 288, 216
-0.992103, 101, 65, 132, 128
-0.992113, 217, 177, 248, 208
-0.992126, 97, 1, 160, 375
-0.992132, 153, 137, 216, 168
-0.992145, 241, 293, 304, 324
-0.992153, 89, 225, 152, 256
-0.992178, 137, 229, 200, 260
-0.992179, 281, 81, 312, 208
-0.992179, 393, 225, 456, 256
-0.992182, 401, 329, 464, 360
-0.992184, 109, 193, 140, 256
-0.992186, 449, 297, 480, 360
-0.992194, 25, 33, 88, 160
-0.99221, 113, 101, 176, 132
-0.992218, 209, 69, 272, 100
-0.992221, 57, 189, 120, 220
-0.992246, 369, 269, 432, 300
-0.992256, 65, 153, 128, 216
-0.992259, 281, 41, 344, 104
-0.992263, 1, 245, 64, 276
-0.99227, 425, 317, 488, 348
-0.992288, 185, 97, 248, 128
-0.992309, 113, 265, 240, 328
-0.992317, 137, 161, 200, 192
-0.99232, 237, 249, 268, 280
-0.992322, 413, 177, 444, 304
-0.992327, 297, 193, 360, 224
-0.992344, 137, 81, 168, 208
-0.992351, 257, 265, 384, 328
-0.992354, 97, 77, 160, 108
-0.992377, 233, 181, 264, 212
-0.992389, 273, 161, 336, 192
-0.992404, 81, 113, 144, 144
-0.992404, 65, 101, 128, 132
-0.992407, 257, 81, 288, 208
-0.99241, 193, 233, 224, 264
-0.992412, 253, 201, 284, 232
-0.992417, 337, 289, 400, 320
-0.992433, 145, 217, 208, 248
-0.992433, 357, 145, 388, 272
-0.992445, 393, 213, 456, 244
-0.99246, 145, 201, 208, 232
-0.992461, 345, 273, 376, 336
-0.992466, 305, 97, 336, 160
-0.992468, 377, 185, 440, 216
-0.992473, 145, 149, 208, 180
-0.992478, 245, 273, 276, 304
-0.992481, 313, 269, 376, 300
-0.992482, 237, 261, 268, 292
-0.992483, 209, 137, 272, 168
-0.992492, 261, 213, 292, 244
-0.992504, 249, 317, 312, 348
-0.992504, 221, 189, 252, 220
-0.992506, 17, 305, 144, 368
-0.992506, 225, 97, 288, 160
-0.992507, 273, 233, 336, 264
-0.99251, 393, 129, 456, 375
-0.992511, 265, 201, 296, 232
-0.992516, 161, 165, 224, 196
-0.992523, 385, 233, 416, 296
-0.992524, 245, 169, 276, 200
-0.99253, 265, 305, 328, 336
-0.992534, 249, 341, 312, 372
-0.992541, 73, 177, 136, 208
-0.992552, 297, 129, 360, 160
-0.992554, 193, 245, 224, 276
-0.99258, 241, 193, 272, 224
-0.992591, 417, 297, 480, 328
-0.992597, 257, 261, 288, 292
-0.992598, 205, 245, 236, 276
-0.992602, 361, 161, 424, 224
-0.992606, 241, 77, 304, 108
-0.992629, 217, 257, 248, 288
-0.992634, 201, 205, 232, 236
-0.992636, 377, 293, 440, 324
-0.992654, 353, 253, 416, 284
-0.992665, 137, 241, 200, 272
-0.992671, 205, 185, 236, 216
-0.992671, 385, 237, 448, 268
-0.992678, 221, 269, 252, 300
-0.992679, 297, 221, 360, 252
-0.992708, 281, 205, 312, 236
-0.992721, 233, 273, 264, 304
-0.992724, 113, 125, 176, 156
-0.992742, 33, 297, 96, 328
-0.992754, 201, 221, 232, 252
-0.992757, 313, 281, 376, 312
-0.992759, 105, 189, 168, 220
-0.992785, 257, 281, 320, 312
-0.992794, 433, 329, 496, 360
-0.9928, 205, 233, 236, 264
-0.992809, 305, 177, 368, 208
-0.992813, 193, 317, 256, 348
-0.992816, 369, 213, 432, 244
-0.992817, 321, 221, 384, 252
-0.992819, 193, 297, 256, 328
-0.99282, 97, 209, 160, 240
-0.99282, 277, 229, 308, 260
-0.992828, 313, 149, 376, 180
-0.992828, 225, 165, 256, 196
-0.992839, 237, 285, 268, 316
-0.99284, 269, 169, 300, 200
-0.992841, 57, 297, 120, 360
-0.992845, 273, 149, 336, 180
-0.992851, 361, 237, 424, 268
-0.992856, 257, 245, 288, 276
-0.992859, 281, 217, 312, 248
-0.992861, 225, 245, 256, 276
-0.992863, 189, 257, 220, 288
-0.992868, 153, 181, 216, 212
-0.992869, 245, 181, 276, 212
-0.992874, 113, 173, 176, 204
-0.992879, 257, 129, 320, 160
-0.99288, 129, 137, 192, 168
-0.992887, 189, 201, 220, 232
-0.992888, 25, 233, 88, 264
-0.99289, 361, 173, 424, 204
-0.992894, 249, 293, 280, 324
-0.992897, 377, 201, 440, 232
-0.992898, 273, 89, 336, 120
-0.992901, 217, 149, 280, 180
-0.992912, 385, 225, 416, 352
-0.992914, 301, 129, 332, 256
-0.992923, 241, 65, 368, 128
-0.992923, 177, 281, 240, 312
-0.992924, 257, 273, 288, 304
-0.99293, 297, 161, 360, 192
-0.992934, 1, 325, 64, 356
-0.992936, 237, 205, 268, 236
-0.992936, 153, 125, 216, 156
-0.992937, 105, 93, 136, 124
-0.992938, 265, 293, 328, 324
-0.992942, 217, 201, 248, 232
-0.992946, 181, 237, 212, 268
-0.992959, 177, 257, 208, 320
-0.992966, 229, 313, 260, 344
-0.992995, 269, 189, 300, 220
-0.992998, 189, 213, 220, 244
-0.993, 1, 193, 500, 256
-0.993006, 257, 57, 288, 120
-0.993027, 261, 149, 292, 180
-0.993048, 253, 233, 284, 264
-0.993056, 233, 297, 264, 328
-0.993056, 241, 133, 272, 164
-0.993063, 297, 241, 360, 304
-0.993072, 201, 269, 232, 300
-0.993074, 17, 265, 144, 328
-0.993078, 245, 157, 276, 188
-0.993081, 213, 281, 244, 344
-0.993084, 221, 69, 252, 100
-0.993099, 257, 173, 288, 204
-0.993103, 293, 213, 324, 244
-0.993108, 113, 65, 144, 128
-0.993127, 213, 213, 244, 244
-0.993128, 237, 237, 268, 268
-0.993138, 197, 169, 228, 200
-0.993144, 205, 85, 236, 116
-0.993144, 109, 109, 140, 140
-0.993145, 329, 201, 360, 232
-0.993152, 337, 333, 368, 364
-0.993152, 349, 273, 380, 304
-0.99316, 65, 241, 320, 304
-0.993162, 281, 185, 312, 216
-0.993162, 13, 241, 44, 272
-0.993163, 209, 137, 240, 200
-0.993164, 1, 113, 128, 176
-0.993167, 301, 201, 332, 232
-0.993169, 253, 137, 284, 168
-0.99318, 417, 185, 480, 248
-0.993185, 233, 121, 264, 152
-0.993187, 225, 233, 256, 264
-0.993188, 405, 225, 436, 256
-0.993189, 265, 293, 296, 324
-0.993189, 353, 273, 480, 336
-0.993189, 469, 325, 500, 356
-0.993193, 313, 185, 344, 216
-0.993199, 265, 305, 296, 336
-0.9932, 369, 193, 400, 320
-0.993209, 181, 225, 212, 256
-0.993218, 201, 257, 232, 288
-0.993221, 265, 225, 296, 256
-0.993224, 217, 289, 248, 320
-0.993228, 337, 345, 368, 375
-0.99323, 285, 161, 316, 192
-0.993234, 245, 309, 276, 340
-0.993234, 241, 53, 272, 84
-0.993236, 257, 161, 288, 192
-0.99325, 229, 57, 260, 88
-0.993251, 281, 173, 312, 204
-0.993251, 217, 309, 248, 340
-0.993253, 241, 145, 272, 176
-0.993253, 245, 325, 276, 356
-0.993259, 249, 213, 280, 244
-0.99326, 313, 49, 376, 176
-0.993263, 333, 137, 364, 168
-0.993264, 405, 329, 436, 360
-0.993265, 209, 165, 240, 196
-0.993269, 215, 177, 230, 240
-0.993288, 169, 133, 200, 164
-0.993291, 189, 105, 220, 136
-0.993301, 393, 281, 424, 312
-0.993301, 261, 341, 292, 372
-0.993303, 365, 277, 396, 308
-0.993307, 413, 237, 444, 268
-0.993314, 97, 113, 128, 240
-0.993314, 157, 137, 188, 168
-0.993316, 261, 317, 292, 348
-0.99332, 345, 149, 376, 180
-0.993327, 417, 217, 448, 248
-0.993329, 293, 225, 324, 256
-0.99333, 185, 189, 216, 220
-0.99333, 121, 97, 152, 128
-0.993331, 181, 117, 212, 148
-0.993332, 221, 305, 252, 368
-0.993333, 73, 189, 104, 220
-0.993336, 317, 201, 348, 232
-0.993339, 217, 81, 248, 112
-0.99334, 265, 313, 296, 375
-0.993344, 449, 325, 480, 356
-0.993344, 297, 161, 328, 192
-0.993345, 229, 133, 260, 164
-0.993347, 93, 105, 124, 136
-0.99335, 301, 189, 332, 220
-0.993352, 345, 261, 376, 292
-0.993354, 229, 149, 260, 180
-0.993358, 177, 257, 208, 288
-0.993362, 65, 153, 320, 216
-0.993363, 325, 189, 356, 220
-0.993364, 277, 149, 308, 180
-0.993371, 169, 121, 200, 152
-0.993371, 245, 121, 276, 152
-0.993375, 241, 225, 272, 256
-0.993376, 105, 81, 136, 112
-0.993379, 321, 125, 352, 156
-0.993385, 341, 189, 372, 220
-0.993387, 405, 249, 436, 280
-0.993391, 249, 337, 280, 368
-0.993398, 337, 321, 368, 352
-0.993404, 261, 65, 292, 96
-0.993407, 189, 269, 220, 300
-0.99341, 249, 81, 280, 112
-0.993421, 413, 177, 444, 240
-0.993421, 405, 213, 436, 244
-0.993424, 361, 161, 392, 192
-0.993444, 21, 241, 52, 368
-0.993476, 225, 17, 352, 80
-0.993512, 381, 193, 412, 256
-0.993516, 393, 273, 424, 336
-0.993547, 369, 145, 496, 272
-0.993573, 205, 201, 220, 264
-0.993598, 385, 161, 448, 224
-0.993607, 73, 177, 104, 240
-0.993608, 225, 193, 480, 256
-0.993608, 289, 313, 416, 375
-0.993619, 369, 225, 400, 288
-0.993638, 333, 273, 364, 336
-0.993651, 417, 217, 448, 280
-0.993664, 73, 177, 104, 304
-0.993665, 273, 105, 400, 168
-0.993699, 105, 49, 168, 112
-0.993782, 429, 297, 460, 360
-0.993787, 17, 153, 80, 216
-0.993799, 97, 177, 352, 240
-0.993805, 271, 185, 286, 248
-0.993899, 241, 73, 272, 136
-0.993909, 177, 185, 304, 216
-0.993944, 1, 177, 128, 240
-0.993948, 337, 193, 368, 320
-0.993962, 89, 153, 152, 216
-0.993963, 173, 113, 204, 240
-0.993966, 41, 137, 104, 200
-0.993985, 5, 225, 36, 352
-0.994024, 233, 169, 248, 232
-0.994067, 89, 89, 120, 152
-0.994112, 73, 1, 136, 375
-0.994128, 125, 145, 156, 272
-0.994131, 193, 305, 320, 368
-0.994148, 417, 233, 480, 296
-0.99416, 141, 145, 172, 272
-0.994164, 247, 249, 262, 312
-0.994194, 289, 89, 320, 152
-0.994196, 113, 129, 176, 375
-0.994223, 9, 73, 72, 136
-0.994241, 277, 193, 292, 256
-0.994305, 353, 209, 384, 336
-0.994316, 195, 241, 210, 304
-0.994318, 1, 241, 32, 304
-0.99435, 285, 209, 316, 336
-0.994351, 405, 265, 436, 328
-0.994367, 113, 129, 144, 256
-0.994386, 25, 113, 88, 176
-0.994406, 321, 105, 448, 168
-0.994441, 433, 281, 496, 344
-0.994461, 113, 225, 144, 288
-0.994476, 113, 241, 176, 304
-0.994513, 265, 177, 280, 240
-0.994519, 161, 253, 288, 284
-0.994525, 265, 201, 280, 264
-0.994537, 161, 25, 288, 88
-0.99455, 129, 1, 192, 375
-0.994589, 225, 177, 352, 208
-0.994593, 281, 129, 312, 192
-0.994596, 125, 153, 156, 216
-0.994614, 369, 273, 400, 336
-0.994627, 25, 193, 88, 256
-0.99463, 321, 89, 384, 152
-0.994668, 225, 105, 256, 168
-0.99467, 273, 257, 304, 320
-0.994679, 221, 1, 252, 128
-0.994687, 357, 241, 388, 304
-0.994691, 297, 1, 360, 256
-0.994778, 337, 145, 464, 208
-0.994782, 209, 249, 336, 280
-0.994787, 201, 233, 216, 296
-0.994799, 41, 305, 72, 368
-0.994844, 177, 305, 240, 368
-0.994846, 253, 241, 268, 304
-0.994848, 401, 129, 464, 256
-0.994853, 161, 237, 288, 268
-0.994906, 97, 201, 128, 264
-0.994908, 73, 129, 104, 256
-0.994933, 255, 185, 270, 248
-0.994954, 353, 153, 384, 216
-0.994961, 253, 265, 268, 328
-0.994972, 161, 265, 416, 328
-0.994979, 195, 217, 210, 280
-0.994985, 193, 209, 320, 240
-0.99499, 225, 145, 480, 208
-0.99501, 193, 105, 224, 168
-0.995028, 17, 129, 80, 375
-0.99503, 259, 233, 274, 296
-0.995065, 237, 249, 252, 312
-0.995067, 259, 257, 274, 320
-0.995121, 243, 273, 258, 336
-0.995141, 283, 201, 298, 264
-0.995146, 341, 241, 372, 368
-0.99516, 461, 225, 492, 352
-0.995162, 227, 169, 242, 232
-0.995182, 109, 177, 140, 304
-0.995184, 325, 305, 356, 368
-0.995194, 85, 65, 116, 192
-0.995207, 221, 177, 236, 240
-0.995241, 237, 273, 252, 336
-0.995245, 177, 173, 304, 204
-0.99526, 193, 221, 320, 252
-0.995283, 115, 81, 130, 144
-0.995293, 1, 137, 128, 200
-0.99531, 213, 217, 228, 280
-0.995316, 65, 257, 192, 320
-0.995333, 137, 281, 200, 344
-0.995333, 129, 105, 384, 168
-0.995359, 33, 265, 288, 328
-0.995376, 261, 153, 276, 216
-0.995382, 309, 65, 340, 192
-0.995411, 243, 169, 258, 232
-0.995414, 53, 177, 84, 304
-0.995445, 1, 41, 128, 104
-0.995462, 231, 241, 246, 304
-0.995502, 1, 1, 64, 128
-0.995506, 81, 289, 208, 352
-0.995525, 241, 197, 368, 228
-0.995537, 129, 81, 384, 144
-0.995564, 425, 225, 456, 352
-0.99557, 209, 241, 224, 304
-0.995598, 33, 1, 96, 375
-0.995627, 357, 265, 388, 328
-0.995629, 297, 65, 360, 128
-0.995647, 267, 241, 282, 304
-0.995647, 81, 129, 144, 192
-0.995655, 277, 161, 292, 224
-0.995664, 269, 65, 300, 192
-0.995668, 401, 145, 432, 272
-0.995673, 313, 113, 344, 240
-0.995694, 269, 281, 284, 344
-0.995702, 259, 209, 274, 272
-0.995703, 1, 1, 64, 375
-0.995717, 255, 161, 270, 224
-0.99573, 305, 1, 368, 375
-0.995748, 225, 297, 480, 360
-0.995754, 271, 209, 286, 272
-0.995758, 133, 129, 164, 192
-0.995759, 247, 193, 262, 256
-0.995772, 237, 193, 252, 256
-0.995781, 89, 65, 120, 128
-0.995802, 65, 129, 320, 192
-0.995819, 121, 17, 184, 144
-0.995847, 145, 305, 272, 368
-0.995876, 161, 265, 288, 296
-0.995878, 125, 97, 156, 160
-0.995887, 219, 201, 234, 264
-0.995895, 165, 177, 196, 240
-0.995929, 321, 25, 384, 88
-0.995929, 157, 65, 188, 192
-0.99594, 325, 193, 356, 320
-0.995947, 269, 73, 300, 136
-0.995948, 177, 197, 304, 228
-0.995955, 261, 17, 292, 144
-0.995964, 97, 193, 128, 320
-0.996011, 33, 97, 288, 160
-0.996033, 223, 241, 238, 304
-0.996038, 231, 265, 246, 328
-0.996038, 297, 193, 328, 320
-0.996038, 449, 241, 480, 368
-0.996043, 53, 113, 84, 240
-0.996048, 81, 97, 208, 128
-0.996063, 249, 161, 264, 224
-0.996094, 231, 289, 246, 352
-0.996098, 301, 225, 332, 288
-0.996114, 1, 177, 256, 240
-0.996125, 289, 49, 416, 112
-0.996132, 263, 281, 278, 344
-0.996134, 69, 225, 100, 352
-0.996136, 1, 201, 128, 264
-0.996137, 113, 213, 240, 244
-0.996139, 17, 1, 80, 64
-0.996147, 33, 297, 288, 360
-0.996161, 297, 9, 360, 72
-0.996175, 73, 201, 104, 264
-0.99618, 293, 129, 324, 192
-0.996187, 361, 193, 392, 256
-0.996228, 255, 137, 270, 200
-0.996234, 177, 161, 304, 192
-0.996255, 33, 93, 160, 124
-0.99628, 409, 297, 440, 360
-0.996292, 109, 137, 140, 200
-0.996295, 49, 241, 80, 368
-0.996299, 21, 281, 52, 344
-0.996307, 213, 105, 244, 168
-0.996307, 1, 217, 500, 280
-0.996314, 97, 241, 128, 368
-0.996332, 271, 153, 286, 216
-0.996355, 261, 313, 276, 375
-0.99636, 237, 129, 268, 375
-0.996367, 209, 177, 224, 240
-0.996373, 365, 161, 396, 224
-0.996375, 193, 81, 320, 112
-0.996375, 253, 217, 268, 280
-0.996379, 113, 177, 240, 208
-0.996389, 1, 305, 500, 368
-0.996402, 417, 241, 448, 304
-0.996414, 97, 57, 352, 120
-0.996432, 109, 89, 124, 152
-0.996439, 161, 129, 288, 160
-0.996452, 149, 161, 180, 224
-0.996457, 121, 209, 152, 336
-0.996468, 193, 293, 320, 324
-0.996479, 345, 249, 376, 312
-0.996483, 97, 225, 128, 288
-0.996494, 81, 109, 208, 140
-0.996507, 1, 145, 64, 272
-0.996515, 291, 217, 306, 280
-0.996519, 1, 65, 32, 192
-0.996523, 291, 177, 306, 240
-0.996529, 33, 241, 64, 304
-0.996529, 381, 257, 412, 320
-0.996548, 53, 265, 84, 328
-0.996554, 253, 289, 268, 352
-0.996606, 241, 165, 368, 196
-0.996607, 1, 249, 500, 312
-0.996608, 369, 145, 400, 272
-0.996616, 243, 217, 258, 280
-0.99663, 121, 97, 136, 160
-0.996633, 219, 145, 234, 208
-0.996637, 161, 281, 288, 312
-0.996654, 113, 193, 240, 224
-0.996666, 165, 233, 196, 296
-0.996668, 225, 121, 352, 152
-0.996684, 393, 161, 424, 224
-0.99669, 425, 177, 456, 304
-0.996693, 209, 237, 336, 268
-0.996699, 277, 217, 292, 280
-0.996709, 425, 185, 456, 248
-0.99672, 217, 129, 248, 375
-0.996739, 33, 209, 64, 336
-0.996754, 209, 265, 336, 296
-0.996767, 195, 193, 210, 256
-0.996772, 113, 241, 240, 272
-0.996784, 73, 81, 104, 208
-0.99681, 253, 129, 284, 375
-0.996811, 145, 225, 272, 256
-0.996837, 201, 177, 216, 240
-0.996849, 321, 189, 448, 220
-0.996851, 189, 233, 204, 296
-0.996872, 41, 65, 72, 192
-0.996873, 33, 105, 160, 136
-0.996876, 239, 145, 254, 208
-0.996884, 57, 33, 88, 160
-0.996919, 283, 169, 298, 232
-0.996922, 241, 209, 368, 240
-0.996931, 221, 281, 236, 344
-0.996957, 101, 17, 132, 144
-0.996958, 25, 233, 40, 296
-0.996983, 129, 305, 384, 368
-0.996989, 209, 65, 336, 96
-0.996995, 231, 177, 246, 208
-0.99701, 305, 333, 432, 364
-0.997013, 121, 241, 184, 368
-0.997015, 115, 105, 130, 168
-0.997026, 193, 145, 320, 176
-0.997037, 469, 297, 484, 360
-0.997047, 161, 117, 288, 148
-0.997054, 259, 189, 274, 220
-0.997063, 113, 85, 240, 116
-0.997074, 423, 225, 438, 288
-0.997107, 217, 181, 232, 212
-0.99711, 329, 1, 392, 256
-0.997118, 1, 1, 64, 256
-0.99714, 267, 185, 282, 216
-0.99714, 1, 161, 500, 224
-0.997147, 237, 225, 252, 288
-0.99715, 397, 225, 412, 288
-0.997165, 231, 313, 246, 375
-0.99718, 215, 249, 230, 312
-0.997184, 289, 169, 416, 200
-0.997188, 249, 129, 264, 192
-0.997193, 233, 49, 248, 112
-0.997194, 409, 225, 424, 288
-0.9972, 113, 141, 240, 172
-0.997216, 231, 145, 246, 208
-0.997235, 241, 133, 368, 164
-0.997237, 407, 249, 422, 312
-0.997238, 247, 297, 262, 360
-0.997244, 237, 297, 252, 360
-0.997272, 337, 129, 352, 192
-0.997272, 225, 109, 352, 140
-0.997289, 341, 273, 356, 336
-0.997292, 341, 313, 356, 375
-0.997295, 257, 265, 272, 296
-0.997299, 317, 241, 348, 368
-0.997311, 1, 273, 500, 336
-0.997315, 239, 49, 254, 112
-0.99733, 207, 197, 222, 228
-0.997331, 273, 1, 304, 128
-0.997333, 213, 153, 228, 216
-0.997335, 237, 177, 252, 208
-0.997344, 241, 273, 256, 304
-0.997349, 321, 209, 448, 240
-0.99735, 241, 297, 368, 328
-0.997377, 301, 185, 316, 248
-0.997387, 257, 225, 384, 256
-0.997391, 195, 265, 210, 328
-0.997395, 203, 229, 218, 260
-0.997398, 285, 213, 300, 244
-0.997401, 1, 65, 256, 128
-0.997405, 225, 65, 240, 128
-0.997408, 263, 173, 278, 204
-0.997421, 273, 189, 288, 220
-0.997436, 245, 49, 260, 112
-0.997452, 321, 289, 448, 320
-0.997457, 273, 25, 400, 88
-0.997461, 1, 97, 64, 224
-0.997462, 271, 305, 286, 368
-0.997465, 257, 153, 384, 184
-0.997467, 255, 313, 270, 375
-0.997469, 201, 257, 216, 320
-0.997484, 257, 241, 500, 304
-0.997484, 337, 237, 464, 268
-0.997487, 305, 321, 432, 352
-0.99749, 329, 121, 344, 184
-0.997491, 205, 153, 220, 216
-0.997492, 123, 73, 138, 136
-0.997499, 225, 309, 352, 340
-0.9975, 261, 129, 276, 192
-0.997503, 305, 345, 432, 375
-0.997511, 169, 129, 184, 192
-0.997515, 215, 73, 230, 136
-0.997516, 195, 169, 210, 232
-0.997518, 113, 257, 240, 288
-0.997526, 345, 137, 360, 200
-0.997528, 187, 201, 202, 264
-0.997528, 65, 205, 192, 236
-0.997534, 337, 225, 464, 256
-0.997541, 265, 129, 296, 375
-0.997544, 415, 209, 430, 272
-0.997563, 11, 241, 26, 304
-0.997571, 129, 165, 256, 196
-0.997572, 137, 33, 200, 288
-0.997576, 203, 209, 218, 240
-0.997576, 113, 193, 128, 256
-0.997576, 293, 81, 324, 208
-0.997586, 217, 33, 248, 288
-0.99759, 405, 201, 420, 264
-0.997591, 209, 81, 224, 144
-0.997593, 417, 129, 480, 375
-0.997595, 275, 213, 290, 244
-0.997603, 225, 145, 240, 208
-0.997612, 249, 253, 264, 284
-0.997621, 187, 257, 202, 320
-0.997624, 261, 309, 276, 340
-0.997626, 33, 81, 160, 112
-0.997626, 81, 121, 208, 152
-0.997629, 65, 129, 128, 375
-0.997632, 417, 233, 432, 296
-0.997636, 279, 197, 294, 228
-0.99764, 329, 1, 392, 375
-0.99765, 265, 197, 280, 228
-0.997657, 217, 201, 232, 232
-0.99766, 97, 225, 224, 256
-0.997666, 195, 241, 210, 272
-0.997666, 351, 145, 366, 208
-0.997666, 397, 265, 412, 328
-0.997674, 243, 185, 258, 216
-0.997674, 255, 253, 270, 284
-0.997676, 163, 137, 178, 200
-0.997682, 115, 57, 130, 120
-0.997688, 239, 165, 254, 196
-0.99769, 425, 201, 440, 264
-0.997692, 213, 237, 228, 268
-0.997692, 373, 241, 404, 368
-0.997696, 205, 245, 220, 276
-0.997699, 209, 53, 336, 84
-0.997712, 241, 277, 368, 308
-0.997722, 205, 129, 236, 375
-0.997724, 359, 153, 374, 216
-0.997732, 193, 57, 448, 120
-0.997736, 275, 281, 290, 344
-0.997739, 233, 189, 248, 220
-0.997743, 297, 209, 312, 272
-0.99776, 419, 289, 434, 352
-0.997761, 289, 1, 320, 128
-0.99777, 243, 245, 258, 276
-0.997771, 225, 201, 240, 264
-0.997783, 177, 97, 304, 128
-0.997785, 241, 261, 256, 292
-0.997788, 375, 273, 390, 336
-0.997792, 33, 33, 96, 288
-0.997792, 283, 145, 298, 208
-0.997795, 225, 313, 240, 375
-0.997795, 141, 193, 172, 320
-0.997797, 377, 1, 440, 375
-0.997802, 249, 269, 264, 300
-0.997812, 253, 193, 268, 224
-0.997815, 273, 257, 288, 320
-0.997817, 113, 73, 240, 104
-0.997818, 183, 113, 198, 176
-0.997823, 113, 153, 240, 184
-0.997827, 227, 189, 242, 220
-0.997833, 239, 105, 254, 168
-0.997834, 307, 97, 322, 160
-0.997839, 425, 129, 488, 256
-0.997842, 197, 17, 228, 144
-0.997845, 261, 321, 276, 352
-0.997849, 215, 273, 230, 336
-0.99785, 185, 97, 216, 352
-0.997852, 43, 297, 58, 360
-0.997852, 273, 181, 400, 212
-0.997863, 371, 233, 386, 296
-0.997871, 405, 273, 420, 336
-0.997876, 157, 137, 172, 200
-0.997877, 231, 193, 246, 256
-0.997878, 233, 165, 248, 196
-0.99788, 415, 265, 430, 328
-0.997886, 225, 169, 240, 200
-0.997897, 109, 65, 140, 320
-0.997899, 247, 201, 262, 232
-0.997899, 349, 305, 364, 368
-0.997913, 1, 137, 500, 200
-0.997921, 233, 33, 264, 288
-0.997922, 225, 97, 352, 128
-0.997941, 211, 185, 226, 216
-0.99795, 279, 225, 294, 256
-0.997956, 231, 313, 246, 344
-0.997956, 213, 213, 228, 244
-0.99796, 291, 225, 306, 256
-0.99797, 269, 301, 284, 332
-0.997973, 257, 173, 272, 204
-0.997985, 165, 225, 196, 352
-0.997987, 221, 249, 236, 280
-0.997987, 17, 65, 48, 192
-0.998003, 1, 17, 128, 80
-0.998005, 161, 57, 288, 88
-0.99801, 235, 261, 250, 292
-0.998019, 85, 225, 116, 352
-0.998021, 235, 273, 250, 304
-0.99803, 177, 305, 304, 336
-0.998043, 253, 241, 268, 272
-0.998047, 281, 129, 312, 375
-0.99805, 289, 241, 416, 272
-0.998056, 229, 249, 244, 280
-0.998065, 261, 33, 292, 288
-0.998067, 247, 281, 262, 312
-0.998075, 257, 333, 384, 364
-0.998082, 353, 1, 416, 375
-0.998102, 271, 289, 286, 320
-0.998115, 145, 293, 272, 324
-0.998118, 129, 101, 256, 132
-0.998118, 195, 257, 210, 288
-0.998121, 205, 33, 236, 288
-0.998123, 269, 173, 284, 204
-0.998124, 263, 253, 278, 284
-0.99813, 235, 245, 250, 276
-0.998136, 115, 93, 130, 124
-0.998136, 267, 345, 282, 375
-0.998145, 337, 277, 464, 308
-0.998164, 369, 297, 496, 328
-0.998167, 225, 121, 480, 184
-0.998175, 85, 177, 116, 304
-0.998177, 17, 245, 144, 276
-0.99818, 285, 225, 300, 256
-0.998185, 211, 261, 226, 292
-0.99821, 195, 225, 210, 256
-0.99821, 1, 97, 500, 160
-0.998225, 219, 169, 234, 200
-0.99823, 343, 273, 358, 304
-0.998234, 209, 225, 224, 256
-0.998234, 269, 237, 284, 268
-0.998237, 209, 17, 240, 144
-0.998242, 49, 225, 176, 256
-0.998248, 239, 201, 254, 232
-0.998249, 337, 265, 464, 296
-0.998255, 97, 41, 224, 104
-0.998263, 65, 193, 192, 224
-0.998267, 97, 313, 224, 375
-0.998275, 259, 241, 274, 272
-0.99828, 277, 293, 292, 324
-0.998282, 205, 257, 220, 288
-0.998284, 251, 297, 266, 328
-0.998285, 257, 345, 384, 375
-0.998286, 267, 313, 282, 344
-0.998289, 85, 113, 116, 240
-0.998291, 225, 69, 240, 100
-0.9983, 243, 125, 258, 156
-0.998308, 225, 321, 352, 352
-0.998324, 255, 321, 270, 352
-0.998325, 241, 153, 256, 184
-0.998331, 257, 161, 272, 192
-0.998332, 289, 277, 416, 308
-0.998333, 323, 189, 338, 220
-0.998335, 219, 73, 234, 104
-0.998335, 309, 177, 340, 304
-0.998336, 353, 333, 480, 364
-0.998338, 177, 121, 192, 152
-0.998343, 337, 147, 368, 162
-0.998344, 239, 293, 254, 324
-0.998344, 233, 125, 264, 140
-0.998344, 245, 239, 276, 254
-0.998344, 345, 271, 376, 286
-0.998344, 237, 321, 268, 336
-0.998344, 221, 241, 252, 256
-0.998345, 165, 137, 196, 152
-0.998345, 241, 153, 272, 168
-0.998346, 221, 281, 252, 296
-0.998348, 205, 179, 236, 194
-0.998349, 405, 333, 436, 348
-0.998349, 231, 301, 246, 332
-0.99835, 181, 229, 212, 244
-0.998353, 229, 305, 260, 320
-0.998354, 189, 221, 220, 236
-0.998354, 341, 359, 372, 374
-0.998356, 233, 161, 264, 176
-0.998356, 213, 83, 244, 98
-0.998357, 381, 229, 412, 244
-0.998357, 109, 107, 140, 122
-0.998358, 225, 259, 256, 274
-0.998358, 217, 173, 248, 188
-0.998358, 181, 203, 212, 218
-0.998359, 261, 145, 292, 160
-0.998359, 233, 131, 264, 146
-0.998362, 241, 55, 272, 70
-0.998362, 257, 265, 500, 328
-0.998362, 321, 253, 448, 284
-0.998363, 285, 165, 316, 180
-0.998363, 293, 227, 324, 242
-0.998363, 249, 157, 264, 188
-0.998364, 301, 189, 332, 204
-0.998366, 337, 347, 368, 362
-0.998367, 245, 161, 276, 176
-0.998367, 261, 161, 292, 176
-0.998369, 261, 235, 292, 250
-0.99837, 265, 179, 296, 194
-0.998372, 213, 211, 244, 226
-0.998373, 237, 299, 268, 314
-0.998374, 205, 233, 236, 248
-0.998376, 337, 341, 368, 356
-0.998379, 221, 321, 252, 336
-0.998379, 261, 345, 276, 375
-0.998379, 281, 195, 312, 210
-0.99838, 221, 75, 252, 90
-0.998381, 241, 145, 272, 160
-0.998381, 223, 309, 238, 340
-0.998381, 189, 215, 220, 230
-0.998382, 193, 201, 224, 216
-0.998382, 253, 205, 268, 236
-0.998382, 257, 223, 288, 238
-0.998382, 237, 139, 268, 154
-0.998384, 245, 215, 276, 230
-0.998385, 313, 201, 344, 216
-0.998386, 201, 191, 232, 206
-0.998389, 337, 335, 368, 350
-0.998389, 225, 69, 256, 84
-0.99839, 269, 309, 300, 324
-0.998391, 249, 179, 280, 194
-0.998391, 249, 167, 280, 182
-0.998393, 277, 203, 308, 218
-0.998393, 189, 209, 220, 224
-0.998395, 301, 201, 332, 216
-0.998397, 233, 241, 264, 256
-0.998397, 469, 329, 500, 344
-0.998398, 261, 301, 292, 316
-0.998398, 221, 313, 252, 328
-0.9984, 211, 249, 226, 280
-0.998401, 33, 121, 160, 152
-0.998401, 449, 329, 480, 344
-0.998402, 237, 315, 268, 330
-0.998404, 263, 281, 278, 312
-0.998405, 325, 201, 356, 216
-0.998406, 201, 197, 264, 212
-0.998409, 229, 291, 260, 306
-0.99841, 269, 261, 284, 292
-0.998414, 283, 157, 298, 188
-0.998414, 269, 193, 300, 208
-0.998416, 185, 249, 248, 264
-0.998418, 241, 201, 304, 216
-0.998418, 245, 173, 276, 188
-0.998418, 249, 307, 280, 322
-0.998418, 221, 247, 252, 262
-0.998418, 251, 169, 266, 200
-0.998421, 109, 99, 140, 114
-0.998421, 231, 61, 246, 92
-0.998423, 201, 223, 232, 238
-0.998423, 229, 173, 260, 188
-0.998423, 225, 187, 288, 202
-0.998423, 221, 275, 252, 290
-0.998424, 249, 281, 280, 296
-0.998425, 221, 269, 252, 284
-0.998427, 269, 171, 300, 186
-0.998427, 209, 263, 240, 278
-0.998427, 171, 129, 186, 160
-0.99843, 233, 275, 264, 290
-0.998431, 189, 255, 220, 270
-0.998431, 17, 243, 48, 258
-0.998431, 253, 281, 268, 312
-0.998438, 205, 185, 236, 200
-0.998439, 249, 293, 280, 308
-0.998439, 233, 195, 296, 210
-0.99844, 381, 129, 412, 256
-0.99844, 189, 249, 220, 264
-0.99844, 209, 205, 272, 220
-0.998441, 185, 243, 248, 258
-0.998443, 217, 181, 280, 196
-0.998447, 337, 177, 464, 208
-0.998447, 269, 227, 300, 242
-0.99845, 257, 267, 288, 282
-0.998451, 261, 211, 292, 226
-0.998453, 241, 209, 272, 224
-0.998454, 281, 209, 312, 224
-0.998454, 257, 241, 288, 256
-0.998455, 237, 285, 268, 300
-0.998457, 237, 259, 268, 274
-0.998458, 295, 209, 310, 240
-0.998459, 189, 249, 204, 280
-0.99846, 257, 255, 288, 270
-0.99846, 261, 217, 292, 232
-0.998461, 209, 257, 240, 272
-0.998465, 209, 251, 240, 266
-0.998465, 425, 1, 488, 375
-0.998466, 193, 261, 224, 276
-0.998467, 407, 261, 422, 292
-0.998467, 193, 231, 224, 246
-0.998469, 201, 215, 232, 230
-0.998469, 339, 137, 354, 168
-0.998469, 273, 215, 304, 230
-0.998472, 249, 287, 280, 302
-0.998472, 229, 253, 260, 268
-0.998474, 221, 203, 252, 218
-0.998475, 237, 309, 252, 340
-0.998476, 263, 293, 278, 324
-0.99848, 257, 261, 288, 276
-0.998481, 217, 253, 280, 268
-0.998481, 229, 261, 244, 292
-0.998481, 205, 205, 236, 220
-0.998483, 305, 125, 432, 156
-0.998486, 185, 255, 248, 270
-0.998487, 351, 269, 366, 300
-0.998487, 201, 189, 264, 204
-0.998489, 205, 199, 236, 214
-0.99849, 217, 175, 280, 190
-0.998492, 215, 273, 230, 304
-0.998492, 233, 207, 296, 222
-0.998496, 225, 191, 256, 206
-0.998499, 237, 201, 268, 216
-0.998499, 273, 233, 304, 248
-0.998499, 263, 161, 278, 192
-0.9985, 253, 137, 268, 168
-0.9985, 225, 245, 288, 260
-0.998501, 275, 165, 290, 196
-0.998501, 237, 193, 268, 208
-0.998501, 281, 225, 312, 240
-0.998502, 253, 185, 284, 200
-0.998503, 189, 243, 220, 258
-0.998507, 97, 33, 128, 288
-0.99851, 245, 33, 276, 288
-0.998511, 29, 49, 60, 176
-0.998511, 227, 237, 242, 268
-0.998512, 237, 265, 268, 280
-0.998512, 217, 273, 280, 288
-0.998517, 237, 179, 268, 194
-0.998518, 349, 145, 364, 176
-0.998519, 249, 217, 312, 232
-0.998521, 233, 185, 264, 200
-0.998522, 265, 199, 296, 214
-0.998524, 245, 293, 260, 324
-0.998525, 201, 267, 264, 282
-0.998526, 341, 329, 356, 360
-0.998528, 257, 73, 384, 104
-0.998528, 213, 191, 244, 206
-0.998528, 333, 201, 348, 232
-0.998528, 257, 177, 320, 192
-0.998528, 209, 243, 240, 258
-0.99853, 49, 133, 176, 164
-0.998531, 217, 259, 280, 274
-0.998532, 265, 205, 296, 220
-0.998534, 249, 197, 280, 212
-0.998534, 253, 203, 284, 218
-0.998534, 185, 117, 200, 148
-0.998536, 245, 253, 276, 268
-0.998536, 257, 247, 288, 262
-0.998537, 223, 261, 238, 292
-0.998539, 245, 273, 276, 288
-0.99854, 265, 209, 328, 224
-0.998543, 197, 197, 212, 228
-0.998544, 265, 227, 328, 242
-0.998544, 193, 237, 224, 252
-0.998546, 265, 201, 328, 216
-0.998547, 177, 265, 240, 280
-0.998549, 193, 101, 208, 132
-0.998549, 185, 237, 248, 252
-0.99855, 213, 81, 228, 112
-0.99855, 263, 333, 278, 364
-0.99855, 273, 191, 336, 206
-0.998552, 221, 197, 252, 212
-0.998552, 1, 233, 128, 264
-0.998553, 189, 261, 204, 292
-0.998553, 257, 183, 320, 198
-0.998554, 185, 203, 248, 218
-0.998555, 245, 313, 260, 344
-0.998559, 203, 181, 218, 212
-0.998559, 97, 101, 160, 116
-0.99856, 321, 49, 352, 176
-0.998562, 193, 181, 256, 196
-0.998564, 189, 237, 204, 268
-0.998568, 161, 241, 224, 256
-0.99857, 257, 233, 320, 248
-0.99857, 241, 225, 304, 240
-0.998571, 209, 211, 272, 226
-0.998572, 49, 181, 176, 212
-0.998574, 223, 289, 238, 320
-0.998575, 245, 145, 260, 272
-0.998576, 253, 217, 268, 248
-0.998579, 217, 179, 248, 194
-0.998579, 217, 279, 280, 294
-0.998581, 209, 239, 272, 254
-0.998583, 153, 1, 216, 128
-0.998585, 237, 161, 252, 288
-0.998586, 249, 243, 312, 258
-0.998586, 169, 215, 232, 230
-0.998587, 249, 189, 312, 204
-0.998588, 225, 265, 288, 280
-0.998588, 195, 213, 210, 244
-0.99859, 245, 245, 276, 260
-0.998591, 177, 197, 240, 212
-0.998592, 255, 125, 270, 156
-0.998596, 217, 225, 232, 256
-0.998596, 257, 191, 288, 206
-0.998599, 241, 273, 304, 288
-0.998599, 241, 169, 304, 184
-0.9986, 161, 255, 224, 270
-0.998601, 161, 247, 224, 262
-0.998602, 423, 229, 438, 260
-0.998603, 73, 101, 136, 116
-0.998604, 89, 107, 152, 122
-0.998604, 113, 269, 240, 300
-0.998604, 169, 209, 232, 224
-0.998606, 241, 53, 256, 84
-0.998607, 343, 345, 358, 375
-0.998608, 401, 129, 432, 375
-0.998609, 193, 273, 256, 288
-0.998612, 259, 229, 274, 260
-0.998614, 201, 85, 264, 100
-0.998615, 233, 307, 296, 322
-0.998616, 271, 201, 286, 232
-0.998619, 361, 97, 392, 224
-0.99862, 337, 279, 400, 294
-0.998621, 249, 121, 264, 152
-0.998622, 81, 95, 144, 110
-0.998622, 233, 285, 296, 300
-0.998622, 369, 231, 432, 246
-0.998623, 161, 203, 224, 218
-0.998624, 115, 109, 130, 140
-0.998624, 249, 251, 312, 266
-0.998625, 427, 201, 442, 232
-0.998628, 225, 61, 288, 76
-0.998628, 217, 321, 280, 336
-0.998629, 305, 207, 368, 222
-0.998631, 233, 247, 264, 262
-0.998633, 1, 213, 128, 244
-0.998634, 217, 169, 280, 184
-0.998634, 193, 167, 256, 182
-0.998634, 217, 185, 248, 200
-0.998635, 289, 201, 352, 216
-0.998635, 161, 231, 224, 246
-0.998637, 209, 219, 272, 234
-0.998638, 241, 257, 304, 272
-0.998639, 433, 329, 496, 344
-0.99864, 209, 79, 272, 94
-0.998641, 225, 301, 288, 316
-0.998641, 193, 231, 256, 246
-0.998641, 377, 293, 440, 308
-0.998642, 225, 291, 288, 306
-0.998642, 177, 187, 240, 202
-0.998644, 409, 331, 472, 346
-0.998644, 1, 245, 64, 260
-0.998645, 161, 69, 288, 100
-0.998645, 305, 309, 432, 340
-0.998647, 233, 231, 296, 246
-0.998648, 257, 309, 320, 324
-0.998648, 217, 313, 280, 328
-0.998649, 193, 175, 256, 190
-0.99865, 225, 67, 288, 82
-0.998651, 377, 221, 440, 236
-0.998654, 249, 265, 312, 280
-0.998655, 273, 219, 336, 234
-0.998656, 225, 145, 288, 160
-0.998658, 233, 159, 296, 174
-0.998658, 209, 307, 272, 322
-0.99866, 393, 235, 456, 250
-0.998661, 97, 87, 160, 102
-0.998661, 329, 273, 392, 288
-0.998661, 361, 237, 424, 252
-0.998665, 225, 357, 288, 372
-0.998666, 145, 155, 208, 170
-0.998666, 169, 225, 232, 240
-0.998667, 385, 331, 448, 346
-0.998667, 209, 225, 272, 240
-0.998668, 177, 121, 240, 136
-0.998668, 57, 95, 120, 110
-0.998669, 233, 151, 296, 166
-0.998669, 201, 291, 264, 306
-0.99867, 369, 275, 432, 290
-0.998671, 225, 55, 288, 70
-0.998672, 113, 95, 176, 110
-0.998672, 193, 161, 256, 176
-0.998673, 217, 327, 280, 342
-0.998675, 1, 251, 64, 266
-0.998676, 225, 341, 288, 356
-0.998678, 193, 151, 256, 166
-0.998679, 169, 177, 232, 192
-0.99868, 297, 189, 360, 204
-0.99868, 233, 237, 296, 252
-0.99868, 153, 147, 216, 162
-0.99868, 185, 103, 248, 118
-0.998681, 265, 169, 328, 184
-0.998681, 153, 263, 216, 278
-0.998681, 337, 287, 400, 302
-0.998682, 377, 287, 440, 302
-0.998683, 225, 349, 288, 364
-0.998683, 289, 137, 416, 168
-0.998684, 249, 315, 312, 330
-0.998685, 289, 225, 352, 240
-0.998686, 361, 243, 424, 258
-0.998686, 217, 137, 280, 152
-0.998686, 217, 129, 280, 144
-0.998686, 209, 285, 272, 300
-0.998687, 17, 301, 144, 332
-0.998688, 249, 295, 312, 310
-0.998688, 193, 91, 256, 106
-0.998688, 81, 113, 144, 128
-0.998689, 289, 179, 352, 194
-0.99869, 257, 163, 320, 178
-0.99869, 385, 187, 448, 202
-0.99869, 385, 211, 448, 226
-0.998691, 121, 103, 184, 118
-0.998699, 285, 33, 316, 288
-0.998715, 81, 165, 208, 196
-0.998749, 337, 33, 400, 160
-0.998752, 109, 225, 140, 352
-0.998753, 289, 109, 416, 140
-0.998753, 65, 145, 192, 176
-0.998756, 245, 209, 260, 336
-0.998773, 129, 305, 256, 336
-0.998794, 225, 89, 480, 152
-0.998795, 217, 161, 232, 288
-0.998805, 49, 41, 176, 104
-0.998809, 261, 177, 276, 304
-0.998814, 161, 321, 288, 352
-0.998815, 201, 193, 216, 320
-0.998821, 305, 153, 432, 184
-0.998825, 251, 193, 266, 320
-0.998851, 369, 213, 496, 244
-0.998856, 369, 121, 496, 184
-0.998865, 17, 345, 144, 375
-0.99887, 271, 225, 286, 352
-0.998881, 231, 161, 246, 288
-0.998884, 17, 265, 144, 296
-0.998885, 255, 241, 270, 368
-0.998886, 257, 253, 384, 284
-0.998887, 211, 177, 226, 304
-0.998891, 251, 145, 266, 272
-0.998897, 1, 285, 128, 316
-0.998898, 239, 225, 254, 352
-0.9989, 17, 317, 144, 348
-0.998901, 317, 97, 348, 352
-0.998907, 289, 97, 416, 128
-0.998931, 173, 97, 204, 352
-0.998934, 267, 177, 282, 304
-0.998954, 289, 85, 416, 116
-0.998968, 337, 33, 464, 96
-0.998972, 153, 209, 184, 336
-0.998973, 223, 161, 238, 288
-0.998973, 129, 45, 256, 76
-0.998977, 121, 33, 152, 288
-0.998979, 257, 61, 384, 92
-0.998981, 1, 69, 128, 100
-0.998984, 113, 65, 128, 192
-0.998986, 17, 197, 144, 228
-0.998989, 227, 225, 242, 352
-0.998995, 1, 133, 128, 164
-0.999002, 113, 281, 240, 312
-0.999007, 353, 321, 480, 352
-0.999008, 195, 209, 210, 336
-0.999017, 231, 113, 246, 240
-0.999021, 301, 17, 332, 144
-0.999024, 17, 329, 144, 360
-0.999028, 369, 253, 496, 284
-0.999028, 275, 145, 290, 272
-0.99903, 337, 165, 464, 196
-0.999034, 193, 33, 448, 96
-0.999056, 293, 129, 324, 375
-0.999061, 261, 225, 276, 352
-0.999069, 33, 157, 160, 188
-0.999075, 305, 1, 368, 128
-0.999079, 305, 1, 336, 256
-0.999084, 341, 129, 372, 375
-0.999111, 279, 193, 294, 320
-0.999113, 369, 189, 496, 220
-0.999114, 241, 41, 368, 72
-0.999115, 237, 113, 252, 240
-0.999115, 193, 1, 224, 256
-0.999118, 113, 61, 240, 92
-0.999119, 65, 237, 192, 268
-0.999125, 401, 1, 464, 375
-0.999126, 223, 113, 238, 240
-0.999132, 65, 301, 192, 332
-0.999133, 173, 49, 204, 176
-0.999174, 65, 261, 192, 292
-0.999179, 273, 265, 400, 296
-0.999192, 21, 193, 52, 320
-0.999218, 353, 345, 480, 375
-0.999224, 209, 129, 224, 256
-0.999228, 233, 241, 248, 368
-0.999231, 263, 129, 278, 256
-0.999236, 107, 65, 122, 192
-0.999237, 381, 129, 412, 375
-0.999241, 119, 65, 134, 192
-0.999247, 1, 37, 128, 68
-0.999251, 243, 97, 258, 224
-0.999256, 217, 209, 232, 336
-0.999269, 209, 225, 224, 352
-0.999278, 113, 113, 128, 240
-0.999279, 33, 169, 160, 200
-0.999312, 419, 209, 434, 336
-0.999314, 285, 145, 300, 272
-0.999317, 369, 201, 496, 232
-0.999319, 141, 129, 172, 375
-0.999325, 253, 97, 268, 224
-0.999325, 161, 97, 192, 352
-0.999335, 407, 209, 422, 336
-0.999336, 289, 1, 416, 64
-0.999343, 125, 65, 140, 192
-0.999348, 209, 333, 336, 364
-0.999357, 329, 129, 360, 375
-0.999358, 247, 33, 262, 160
-0.999367, 291, 177, 306, 304
-0.999371, 215, 113, 230, 240
-0.999372, 397, 177, 412, 304
-0.999372, 437, 225, 468, 352
-0.999388, 199, 145, 214, 272
-0.999404, 341, 65, 372, 192
-0.999407, 201, 241, 216, 368
-0.999416, 357, 129, 388, 375
-0.999426, 241, 33, 256, 160
-0.999426, 301, 129, 316, 256
-0.999429, 337, 129, 352, 256
-0.999429, 223, 65, 238, 192
-0.99943, 97, 129, 128, 375
-0.999433, 189, 209, 204, 336
-0.999434, 211, 65, 226, 192
-0.999447, 191, 161, 206, 288
-0.999447, 291, 129, 306, 256
-0.999449, 273, 33, 304, 288
-0.999453, 217, 65, 232, 192
-0.999462, 377, 209, 392, 336
-0.999465, 269, 129, 284, 256
-0.999465, 233, 49, 248, 176
-0.999469, 101, 65, 116, 192
-0.999488, 305, 241, 336, 368
-0.999488, 305, 97, 336, 352
-0.999489, 345, 129, 360, 256
-0.999492, 421, 161, 436, 288
-0.999493, 329, 241, 360, 368
-0.999498, 283, 81, 298, 208
-0.999499, 285, 193, 300, 320
-0.999502, 361, 145, 376, 272
-0.999504, 341, 241, 356, 368
-0.999505, 253, 33, 268, 160
-0.99951, 341, 193, 356, 320
-0.999512, 33, 33, 288, 96
-0.999513, 17, 129, 48, 256
-0.999514, 413, 225, 428, 352
-0.999522, 119, 113, 134, 240
-0.999526, 107, 113, 122, 240
-0.999528, 45, 1, 76, 128
-0.999534, 347, 241, 362, 368
-0.999536, 415, 161, 430, 288
-0.999536, 183, 209, 198, 336
-0.999537, 11, 225, 26, 352
-0.999539, 355, 129, 370, 256
-0.999539, 167, 113, 182, 240
-0.99954, 369, 177, 384, 304
-0.999549, 401, 225, 416, 352
-0.999554, 417, 129, 448, 375
-0.999557, 263, 233, 278, 248
-0.999557, 271, 299, 286, 314
-0.999558, 191, 109, 206, 124
-0.999559, 261, 343, 276, 358
-0.999559, 261, 349, 276, 364
-0.999559, 195, 227, 210, 242
-0.999559, 203, 81, 218, 208
-0.999559, 233, 169, 248, 184
-0.999559, 409, 161, 424, 288
-0.999559, 225, 199, 240, 214
-0.99956, 283, 169, 298, 184
-0.999561, 271, 293, 286, 308
-0.999561, 225, 73, 240, 88
-0.999561, 217, 239, 232, 254
-0.999562, 249, 191, 264, 206
-0.999562, 425, 209, 440, 336
-0.999562, 237, 291, 252, 306
-0.999562, 357, 175, 372, 190
-0.999563, 239, 205, 254, 220
-0.999563, 243, 211, 258, 226
-0.999563, 251, 165, 266, 180
-0.999564, 167, 137, 182, 152
-0.999564, 387, 161, 402, 288
-0.999565, 255, 307, 270, 322
-0.999566, 247, 299, 262, 314
-0.999567, 221, 257, 236, 272
-0.999567, 295, 223, 310, 238
-0.999568, 239, 241, 254, 256
-0.999568, 265, 177, 280, 192
-0.999569, 269, 247, 284, 262
-0.99957, 173, 133, 188, 148
-0.99957, 311, 97, 326, 224
-0.999573, 257, 319, 272, 334
-0.999573, 361, 33, 424, 288
-0.999573, 231, 307, 246, 322
-0.999574, 253, 293, 268, 308
-0.999574, 139, 65, 154, 192
-0.999574, 245, 259, 260, 274
-0.999574, 329, 113, 344, 240
-0.999575, 355, 225, 370, 352
-0.999575, 277, 293, 292, 308
-0.999575, 249, 211, 264, 226
-0.999576, 187, 97, 202, 224
-0.999577, 351, 269, 366, 284
-0.999578, 211, 237, 226, 252
-0.999578, 383, 209, 398, 336
-0.999579, 17, 1, 48, 128
-0.99958, 273, 213, 288, 228
-0.99958, 259, 173, 274, 188
-0.99958, 3, 225, 18, 352
-0.999581, 253, 205, 268, 220
-0.999582, 261, 49, 276, 176
-0.999582, 13, 245, 28, 260
-0.999584, 267, 351, 282, 366
-0.999585, 285, 233, 300, 248
-0.999585, 205, 261, 220, 276
-0.999586, 229, 243, 244, 258
-0.999586, 343, 279, 358, 294
-0.999587, 263, 255, 278, 270
-0.999588, 351, 169, 366, 184
-0.999588, 345, 163, 360, 178
-0.999589, 259, 269, 274, 284
-0.99959, 263, 261, 278, 276
-0.99959, 219, 79, 234, 94
-0.999591, 195, 259, 210, 274
-0.999591, 255, 301, 270, 316
-0.999592, 261, 357, 276, 372
-0.999592, 279, 227, 294, 242
-0.999593, 261, 325, 276, 340
-0.999594, 219, 203, 234, 218
-0.999596, 205, 231, 220, 246
-0.999596, 245, 293, 260, 308
-0.999597, 195, 81, 210, 208
-0.999597, 173, 113, 188, 240
-0.999598, 267, 357, 282, 372
-0.999598, 243, 193, 258, 208
-0.999599, 247, 205, 262, 220
-0.999599, 135, 209, 150, 336
-0.9996, 335, 155, 350, 170
-0.999601, 241, 279, 256, 294
-0.999601, 241, 171, 256, 186
-0.999602, 233, 313, 248, 328
-0.999602, 263, 239, 278, 254
-0.999602, 347, 177, 362, 304
-0.999603, 213, 217, 228, 232
-0.999604, 217, 245, 232, 260
-0.999604, 297, 177, 312, 304
-0.999604, 233, 193, 248, 208
-0.999604, 261, 311, 276, 326
-0.999604, 243, 247, 258, 262
-0.999605, 49, 129, 80, 375
-0.999608, 277, 303, 292, 318
-0.999609, 251, 253, 266, 268
-0.999611, 101, 113, 116, 240
-0.999612, 217, 209, 232, 224
-0.999613, 51, 81, 66, 208
-0.999613, 257, 263, 272, 278
-0.999614, 293, 229, 308, 244
-0.999615, 87, 113, 102, 240
-0.999616, 255, 199, 270, 214
-0.999616, 93, 81, 108, 208
-0.999617, 363, 209, 378, 336
-0.999617, 203, 223, 218, 238
-0.999617, 271, 207, 286, 222
-0.999617, 263, 249, 278, 264
-0.999618, 203, 217, 218, 232
-0.999618, 377, 161, 392, 288
-0.999618, 225, 187, 240, 202
-0.999618, 73, 129, 88, 256
-0.999619, 181, 97, 196, 224
-0.999621, 239, 255, 254, 270
-0.999622, 243, 181, 258, 196
-0.999622, 119, 161, 134, 288
-0.999623, 269, 237, 284, 252
-0.999624, 19, 225, 34, 352
-0.999625, 235, 275, 250, 290
-0.999625, 323, 113, 338, 240
-0.999626, 231, 321, 246, 336
-0.999628, 205, 253, 220, 268
-0.999628, 25, 225, 40, 352
-0.999629, 225, 17, 240, 144
-0.99963, 245, 253, 260, 268
-0.999632, 281, 207, 296, 222
-0.999632, 213, 195, 228, 210
-0.999632, 235, 265, 250, 280
-0.999632, 429, 161, 444, 288
-0.999632, 241, 265, 256, 280
-0.999634, 79, 81, 94, 208
-0.999636, 267, 307, 282, 322
-0.999636, 221, 177, 236, 192
-0.999637, 257, 255, 272, 270
-0.99964, 127, 113, 142, 240
-0.999642, 211, 263, 226, 278
-0.999643, 247, 283, 262, 298
-0.999644, 161, 129, 176, 256
-0.999645, 115, 17, 130, 144
-0.999646, 277, 241, 292, 368
-0.999647, 251, 263, 266, 278
-0.999647, 227, 175, 242, 190
-0.999648, 127, 177, 142, 304
-0.999648, 227, 193, 242, 208
-0.99965, 289, 81, 304, 208
-0.99965, 431, 241, 446, 368
-0.999652, 203, 211, 218, 226
-0.999653, 355, 177, 370, 304
-0.999653, 331, 209, 346, 336
-0.999653, 73, 81, 88, 208
-0.999653, 371, 225, 386, 352
-0.999655, 459, 241, 474, 368
-0.999656, 137, 161, 152, 288
-0.999657, 65, 177, 80, 304
-0.999657, 395, 225, 410, 352
-0.999658, 271, 195, 286, 210
-0.999659, 275, 233, 290, 248
-0.999659, 243, 199, 258, 214
-0.999659, 255, 245, 270, 260
-0.999659, 231, 255, 246, 270
-0.999659, 277, 201, 292, 216
-0.99966, 195, 251, 210, 266
-0.999662, 259, 187, 274, 202
-0.999663, 185, 161, 200, 288
-0.999664, 315, 177, 330, 304
-0.999666, 245, 273, 260, 288
-0.999666, 149, 81, 164, 208
-0.999668, 209, 201, 224, 216
-0.999668, 203, 237, 218, 252
-0.99967, 215, 17, 230, 144
-0.99967, 153, 129, 168, 256
-0.99967, 113, 193, 128, 320
-0.999671, 33, 241, 48, 368
-0.999672, 203, 247, 218, 262
-0.999673, 265, 203, 280, 218
-0.999678, 253, 271, 268, 286
-0.999682, 237, 183, 252, 198
-0.999685, 195, 241, 210, 256
-0.999689, 325, 1, 356, 256
-0.999699, 249, 247, 264, 262
-0.99971, 269, 189, 284, 204
-0.999711, 85, 65, 116, 320
-0.999715, 211, 243, 226, 258
-0.999718, 227, 249, 242, 264
-0.999727, 265, 183, 280, 198
-0.999729, 235, 177, 250, 192
-0.999729, 285, 225, 300, 240
-0.999732, 429, 129, 460, 375
-0.999746, 237, 247, 252, 262
-0.999746, 219, 185, 234, 200
-0.999756, 259, 193, 274, 208
-0.999776, 229, 181, 244, 196
-0.999806, 369, 129, 400, 375
-0.999817, 121, 129, 152, 375
-0.999818, 231, 187, 246, 202
-0.999826, 57, 1, 88, 256
-0.999831, 1, 161, 32, 288
-0.999837, 177, 1, 304, 64
-0.999912, 73, 129, 104, 375
-0.999972, 145, 33, 176, 160
-0.999979, 361, 1, 392, 256
-0.999993, 173, 1, 204, 256
-1.00001, 13, 1, 44, 256
-1.00002, 157, 1, 188, 256
-1.00003, 141, 33, 172, 288
-1.00006, 41, 1, 72, 256
-1.00006, 49, 9, 176, 72
-1.00007, 337, 33, 368, 288
-1.0001, 421, 129, 452, 256
-1.0002, 9, 129, 40, 375
-1.00021, 21, 129, 52, 375
-1.00021, 33, 97, 64, 352
-1.00023, 349, 33, 380, 288
-1.00024, 185, 49, 216, 176
-1.00025, 1, 33, 32, 288
-1.00026, 1, 73, 500, 136
-1.00027, 29, 1, 60, 256
-1.00032, 353, 9, 480, 72
-1.00032, 69, 33, 100, 288
-1.00037, 61, 129, 92, 375
-1.00047, 85, 17, 116, 144
-1.00047, 97, 9, 224, 72
-1.00054, 381, 33, 412, 288
-1.00055, 441, 97, 472, 352
-1.00055, 29, 97, 60, 224
-1.00059, 369, 89, 496, 152
-1.00065, 129, 33, 160, 160
-1.00067, 369, 57, 496, 120
-1.00068, 29, 145, 60, 272
-1.00077, 417, 33, 448, 288
-1.00078, 397, 33, 428, 288
-1.00079, 469, 129, 500, 375
-1.00083, 457, 97, 488, 352
-1.00083, 161, 9, 416, 72
-1.00085, 257, 9, 500, 72
-1.0009, 41, 113, 72, 240
-1.00091, 429, 33, 460, 288
-1.00099, 1, 25, 500, 88
-1.00113, 33, 9, 288, 72
-1.0012, 441, 1, 472, 256
-1.00139, 41, 129, 104, 375
-1.00139, 469, 33, 500, 288
-1.00151, 453, 1, 484, 256
-1.00183, 1, 49, 500, 112
-1.0019, 361, 81, 424, 208
-1.00224, 337, 33, 464, 160
-1.00237, 1, 1, 500, 64
-1.00442, 409, 33, 472, 288
-1.00543, 385, 81, 448, 208
-1.00544, 425, 81, 488, 208
-1.00632, 433, 33, 496, 288
-1.00636, 377, 33, 440, 160
-1.00729, 385, 33, 448, 288
-1.00769, 433, 33, 496, 160
-1.00863, 401, 33, 464, 160
