1982
-0.445182, 1, 129, 500, 375
-0.478546, 161, 1, 416, 375
-0.500644, 1, 1, 500, 256
-0.566917, 1, 1, 500, 375
-0.603726, 161, 129, 416, 375
-0.63746, 1, 1, 256, 375
-0.664031, 257, 1, 500, 375
-0.672598, 97, 1, 352, 256
-0.690101, 193, 1, 448, 256
-0.711766, 1, 1, 256, 256
-0.736122, 65, 129, 320, 375
-0.796507, 257, 129, 500, 375
-0.86739, 241, 97, 368, 352
-0.874765, 193, 1, 320, 256
-0.875202, 177, 129, 304, 375
-0.879564, 289, 1, 416, 256
-0.88716, 241, 1, 368, 256
-0.888079, 193, 1, 320, 375
-0.889407, 257, 1, 384, 375
-0.891968, 129, 1, 256, 256
-0.892242, 289, 129, 416, 375
-0.893542, 1, 1, 500, 128
-0.895105, 353, 1, 480, 256
-0.897898, 145, 1, 272, 375
-0.901472, 1, 145, 500, 272
-0.901475, 353, 1, 480, 375
-0.907083, 161, 161, 416, 288
-0.907746, 97, 1, 224, 375
-0.90935, 1, 225, 500, 352
-0.911977, 337, 129, 464, 375
-0.914571, 81, 1, 208, 256
-0.915277, 129, 129, 256, 375
-0.916652, 305, 1, 432, 375
-0.918153, 193, 113, 448, 240
-0.919617, 17, 1, 144, 256
-0.922604, 81, 97, 208, 352
-0.925274, 33, 1, 160, 375
-0.925495, 1, 49, 500, 176
-0.927779, 161, 241, 416, 368
-0.932308, 97, 1, 352, 128
-0.933477, 1, 97, 500, 224
-0.936916, 161, 145, 288, 272
-0.938044, 193, 145, 256, 272
-0.938753, 1, 1, 256, 128
-0.9396, 33, 129, 160, 375
-0.940834, 193, 1, 448, 128
-0.940902, 65, 129, 320, 256
-0.941291, 257, 193, 500, 320
-0.941319, 257, 113, 384, 240
-0.941601, 169, 193, 232, 320
-0.942529, 1, 1, 128, 128
-0.942623, 193, 153, 256, 216
-0.944664, 217, 145, 280, 272
-0.945001, 161, 193, 288, 320
-0.94617, 65, 225, 320, 352
-0.946495, 281, 97, 344, 224
-0.947961, 225, 137, 288, 200
-0.948377, 257, 241, 500, 368
-0.948471, 9, 1, 72, 128
-0.949476, 33, 1, 96, 128
-0.950106, 81, 1, 208, 128
-0.950193, 241, 241, 368, 368
-0.951248, 209, 193, 336, 320
-0.95187, 81, 1, 144, 128
-0.952752, 169, 145, 232, 272
-0.953183, 193, 209, 256, 336
-0.953186, 321, 225, 448, 352
-0.953449, 281, 1, 344, 128
-0.953864, 257, 161, 384, 288
-0.954021, 129, 1, 192, 128
-0.955107, 65, 65, 320, 192
-0.955107, 193, 97, 320, 224
-0.955117, 169, 241, 232, 368
-0.956685, 257, 49, 500, 176
-0.956775, 145, 241, 272, 368
-0.956884, 65, 177, 320, 304
-0.957373, 329, 193, 392, 320
-0.957406, 193, 97, 256, 224
-0.958009, 201, 129, 264, 192
-0.958238, 305, 241, 368, 368
-0.95928, 369, 1, 496, 128
-0.95933, 313, 129, 376, 256
-0.959566, 57, 1, 120, 128
-0.959672, 209, 145, 336, 272
-0.959897, 105, 1, 168, 128
-0.960527, 249, 145, 312, 208
-0.960623, 57, 33, 120, 96
-0.960662, 345, 145, 408, 272
-0.960781, 129, 1, 256, 128
-0.960852, 353, 145, 416, 208
-0.960885, 281, 105, 344, 168
-0.961462, 257, 33, 320, 160
-0.961485, 153, 1, 216, 128
-0.961627, 57, 9, 120, 72
-0.961741, 33, 33, 96, 96
-0.961798, 185, 1, 248, 128
-0.961884, 177, 1, 304, 128
-0.962133, 193, 241, 320, 368
-0.962323, 225, 161, 288, 224
-0.962403, 129, 9, 192, 72
-0.962681, 97, 9, 160, 72
-0.962878, 241, 113, 304, 240
-0.962905, 193, 177, 256, 240
-0.963078, 353, 129, 480, 256
-0.963229, 81, 33, 144, 96
-0.963341, 225, 1, 352, 128
-0.963629, 113, 129, 240, 256
-0.963724, 161, 49, 416, 176
-0.963821, 97, 209, 224, 336
-0.964036, 177, 25, 240, 88
-0.96415, 321, 177, 448, 304
-0.96422, 9, 17, 72, 80
-0.964291, 273, 1, 400, 128
-0.964623, 401, 241, 464, 368
-0.964758, 145, 241, 208, 368
-0.964985, 305, 241, 368, 304
-0.965155, 33, 9, 96, 72
-0.965236, 137, 33, 200, 96
-0.965304, 281, 241, 344, 304
-0.965323, 177, 49, 304, 176
-0.965383, 169, 201, 232, 264
-0.965491, 393, 1, 456, 64
-0.965718, 209, 25, 272, 88
-0.965824, 209, 1, 272, 128
-0.965939, 377, 1, 440, 128
-0.965971, 233, 1, 296, 64
-0.966261, 169, 145, 232, 208
-0.966506, 329, 169, 392, 232
-0.966508, 433, 241, 496, 368
-0.966707, 105, 33, 168, 96
-0.966739, 233, 193, 296, 320
-0.967035, 361, 17, 424, 80
-0.967081, 233, 25, 296, 88
-0.967232, 305, 49, 432, 176
-0.967292, 369, 113, 432, 240
-0.967394, 369, 241, 496, 368
-0.967961, 273, 225, 336, 352
-0.968033, 249, 121, 312, 184
-0.968166, 425, 1, 488, 128
-0.968417, 161, 225, 224, 288
-0.968791, 417, 17, 480, 80
-0.969027, 265, 25, 328, 88
-0.969324, 305, 33, 368, 160
-0.969502, 241, 257, 304, 320
-0.969592, 193, 153, 320, 216
-0.969668, 209, 161, 240, 224
-0.969703, 377, 137, 440, 200
-0.970293, 169, 177, 232, 240
-0.970315, 217, 97, 280, 224
-0.970327, 161, 1, 224, 64
-0.970644, 401, 1, 464, 128
-0.970667, 329, 145, 392, 208
-0.970772, 237, 161, 268, 224
-0.970785, 281, 129, 344, 192
-0.970795, 337, 97, 400, 224
-0.970952, 221, 145, 252, 208
-0.971036, 329, 1, 392, 128
-0.971321, 345, 121, 408, 184
-0.971468, 357, 169, 388, 232
-0.97157, 329, 225, 392, 288
-0.971579, 237, 145, 268, 272
-0.971699, 373, 153, 404, 216
-0.971826, 213, 145, 244, 272
-0.971827, 281, 49, 344, 176
-0.971845, 353, 1, 416, 128
-0.97187, 305, 137, 368, 200
-0.971932, 1, 49, 64, 176
-0.971963, 329, 17, 392, 80
-0.972114, 233, 241, 296, 368
-0.972127, 153, 257, 216, 320
-0.972208, 161, 49, 224, 112
-0.97233, 193, 129, 256, 375
-0.972337, 1, 41, 64, 104
-0.972577, 217, 241, 280, 304
-0.972911, 257, 129, 384, 192
-0.972948, 193, 129, 320, 192
-0.972963, 233, 17, 296, 144
-0.973093, 145, 113, 208, 240
-0.973258, 305, 17, 368, 80
-0.973412, 217, 265, 280, 328
-0.973741, 305, 97, 368, 352
-0.973758, 33, 49, 160, 176
-0.973917, 345, 241, 408, 368
-0.973942, 377, 241, 440, 368
-0.973959, 169, 121, 232, 184
-0.973995, 369, 49, 496, 176
-0.974007, 385, 25, 448, 88
-0.974223, 265, 1, 328, 64
-0.974223, 193, 257, 256, 320
-0.974359, 321, 1, 448, 128
-0.974387, 361, 257, 424, 320
-0.974457, 241, 65, 368, 192
-0.974675, 353, 161, 384, 288
-0.974712, 281, 97, 344, 352
-0.974775, 253, 137, 284, 200
-0.975194, 305, 97, 432, 224
-0.975261, 201, 145, 232, 272
-0.975317, 225, 129, 288, 375
-0.975711, 289, 1, 352, 256
-0.975778, 241, 1, 304, 256
-0.975953, 145, 193, 208, 320
-0.975976, 297, 265, 360, 328
-0.975977, 5, 1, 36, 128
-0.975997, 205, 137, 236, 200
-0.976058, 361, 145, 392, 208
-0.976082, 321, 1, 384, 256
-0.976158, 1, 305, 64, 368
-0.97628, 89, 49, 152, 176
-0.976446, 225, 113, 288, 176
-0.976478, 17, 9, 144, 72
-0.97656, 353, 169, 416, 232
-0.976641, 1, 33, 128, 96
-0.976668, 385, 257, 448, 320
-0.976693, 321, 265, 384, 328
-0.976798, 353, 193, 416, 320
-0.976812, 105, 1, 136, 128
-0.976858, 33, 49, 96, 176
-0.976921, 329, 129, 392, 375
-0.976936, 181, 193, 212, 320
-0.977092, 241, 137, 272, 200
-0.977116, 353, 145, 480, 208
-0.977188, 197, 177, 228, 240
-0.977218, 185, 1, 248, 64
-0.977271, 129, 297, 192, 360
-0.977395, 257, 161, 288, 224
-0.977482, 269, 129, 300, 192
-0.977578, 185, 49, 248, 112
-0.977643, 369, 1, 496, 64
-0.977672, 257, 177, 320, 304
-0.977686, 177, 25, 304, 88
-0.977793, 145, 153, 208, 216
-0.977903, 25, 1, 56, 128
-0.977977, 57, 33, 88, 96
-0.978014, 129, 1, 160, 128
-0.978016, 53, 1, 84, 128
-0.978061, 41, 1, 72, 128
-0.978106, 193, 1, 256, 256
-0.978164, 89, 297, 152, 360
-0.978251, 313, 1, 344, 128
-0.97835, 185, 281, 248, 344
-0.978393, 113, 49, 240, 176
-0.978428, 241, 153, 368, 216
-0.978447, 297, 177, 360, 304
-0.978456, 361, 41, 424, 104
-0.978479, 257, 233, 320, 296
-0.978512, 81, 1, 112, 128
-0.978533, 313, 81, 376, 208
-0.97855, 161, 185, 288, 248
-0.978557, 25, 297, 88, 360
-0.978697, 241, 257, 368, 320
-0.978727, 413, 1, 444, 64
-0.978792, 65, 161, 192, 288
-0.978874, 361, 49, 424, 176
-0.9789, 261, 113, 292, 240
-0.978933, 41, 41, 72, 104
-0.978961, 161, 209, 288, 272
-0.97897, 145, 145, 272, 208
-0.978978, 265, 1, 328, 256
-0.979008, 97, 1, 224, 64
-0.979051, 305, 241, 432, 304
-0.979085, 353, 225, 416, 288
-0.97913, 57, 49, 120, 176
-0.979135, 57, 9, 88, 72
-0.97914, 1, 1, 64, 256
-0.979218, 181, 241, 212, 368
-0.979242, 197, 241, 228, 368
-0.979246, 273, 265, 336, 328
-0.979303, 397, 1, 428, 64
-0.979485, 433, 257, 496, 320
-0.979513, 401, 113, 464, 176
-0.979655, 25, 57, 88, 120
-0.979666, 89, 33, 120, 96
-0.979711, 229, 121, 260, 184
-0.979762, 401, 49, 464, 176
-0.97979, 249, 97, 312, 352
-0.979839, 297, 217, 360, 280
-0.979871, 161, 241, 288, 304
-0.979917, 217, 193, 248, 320
-0.979927, 333, 241, 364, 304
-0.979943, 161, 241, 192, 368
-0.979958, 385, 17, 416, 80
-0.980074, 129, 1, 160, 64
-0.980097, 337, 225, 368, 352
-0.980106, 209, 1, 272, 64
-0.980133, 285, 97, 316, 224
-0.980199, 273, 153, 304, 216
-0.980218, 345, 1, 408, 256
-0.98038, 41, 1, 72, 64
-0.980451, 25, 33, 56, 96
-0.980503, 169, 129, 232, 375
-0.980518, 69, 1, 100, 128
-0.980529, 93, 1, 124, 128
-0.98053, 105, 9, 136, 72
-0.980563, 57, 289, 120, 352
-0.980579, 361, 129, 424, 375
-0.98058, 241, 25, 272, 88
-0.980603, 225, 145, 256, 272
-0.980621, 225, 25, 352, 88
-0.980683, 301, 97, 332, 160
-0.980727, 33, 113, 160, 240
-0.980824, 385, 137, 416, 200
-0.980846, 81, 33, 208, 96
-0.98087, 241, 281, 304, 344
-0.980906, 177, 273, 304, 336
-0.980906, 153, 289, 216, 352
-0.980924, 169, 193, 200, 320
-0.980941, 193, 193, 224, 320
-0.980996, 289, 17, 416, 80
-0.981104, 309, 249, 340, 312
-0.981129, 297, 1, 328, 128
-0.981159, 77, 41, 108, 104
-0.981162, 169, 97, 232, 224
-0.98118, 353, 209, 384, 336
-0.981203, 225, 105, 352, 168
-0.981322, 425, 17, 456, 80
-0.981387, 89, 9, 120, 72
-0.981397, 153, 1, 216, 256
-0.981405, 221, 97, 252, 224
-0.981407, 161, 1, 288, 64
-0.981608, 433, 193, 496, 320
-0.98163, 217, 185, 280, 248
-0.981659, 217, 49, 280, 112
-0.981662, 181, 25, 212, 88
-0.981674, 129, 25, 256, 88
-0.981688, 193, 217, 256, 280
-0.9817, 217, 121, 248, 184
-0.981763, 209, 97, 240, 224
-0.981792, 9, 17, 40, 80
-0.981835, 145, 121, 272, 184
-0.981847, 73, 1, 104, 64
-0.98193, 117, 1, 148, 128
-0.981945, 305, 49, 368, 112
-0.98196, 285, 1, 316, 128
-0.982088, 141, 1, 172, 64
-0.98214, 17, 113, 80, 240
-0.982239, 153, 9, 184, 72
-0.982295, 193, 153, 224, 216
-0.982366, 121, 161, 184, 288
-0.982382, 377, 1, 440, 256
-0.98239, 289, 169, 416, 232
-0.982446, 369, 113, 432, 176
-0.982487, 113, 129, 176, 192
-0.982516, 121, 33, 152, 96
-0.982611, 113, 257, 240, 320
-0.982641, 341, 137, 372, 200
-0.982653, 121, 49, 184, 176
-0.982791, 457, 1, 488, 128
-0.98282, 137, 217, 200, 280
-0.982846, 337, 25, 464, 88
-0.982875, 149, 1, 180, 128
-0.982879, 221, 169, 252, 232
-0.982944, 257, 1, 288, 64
-0.983014, 201, 1, 232, 128
-0.983031, 25, 1, 88, 256
-0.983044, 73, 57, 136, 120
-0.98306, 349, 1, 380, 64
-0.983089, 321, 241, 352, 304
-0.983132, 285, 105, 316, 168
-0.983196, 369, 1, 400, 64
-0.983224, 1, 41, 32, 104
-0.983272, 9, 137, 72, 200
-0.983299, 261, 257, 292, 320
-0.983361, 341, 265, 372, 328
-0.983416, 169, 1, 200, 64
-0.983479, 217, 1, 280, 256
-0.983493, 369, 257, 496, 320
-0.983502, 213, 25, 244, 88
-0.98359, 393, 297, 456, 360
-0.983602, 417, 1, 480, 256
-0.983607, 261, 25, 292, 88
-0.983678, 277, 25, 308, 88
-0.9837, 325, 241, 356, 368
-0.98373, 305, 121, 432, 184
-0.983816, 321, 193, 384, 256
-0.983844, 361, 289, 424, 352
-0.983933, 57, 145, 120, 272
-0.983934, 365, 145, 396, 272
-0.983952, 129, 273, 192, 336
-0.983965, 49, 57, 112, 120
-0.98398, 249, 49, 312, 112
-0.983988, 169, 209, 200, 272
-0.984018, 189, 129, 220, 256
-0.984026, 193, 25, 224, 88
-0.984077, 241, 233, 368, 296
-0.984131, 145, 129, 208, 192
-0.984149, 221, 1, 252, 128
-0.984163, 225, 25, 256, 88
-0.984219, 453, 17, 484, 80
-0.984235, 297, 233, 328, 296
-0.984241, 245, 257, 276, 320
-0.984244, 97, 153, 224, 216
-0.984262, 129, 289, 256, 352
-0.984263, 249, 97, 312, 160
-0.984282, 117, 9, 148, 72
-0.984291, 305, 89, 368, 152
-0.984328, 369, 193, 496, 320
-0.984344, 281, 49, 344, 112
-0.984353, 337, 49, 400, 176
-0.984384, 409, 257, 472, 320
-0.984441, 469, 241, 500, 368
-0.984484, 121, 209, 184, 336
-0.984552, 321, 265, 352, 328
-0.984557, 401, 25, 432, 88
-0.984561, 469, 1, 500, 128
-0.984565, 301, 49, 332, 176
-0.984577, 329, 17, 360, 80
-0.984611, 341, 129, 372, 256
-0.984629, 321, 305, 384, 368
-0.984682, 353, 225, 384, 288
-0.984707, 393, 49, 456, 112
-0.98473, 305, 145, 432, 208
-0.984745, 349, 25, 380, 88
-0.984749, 249, 113, 280, 240
-0.984754, 129, 1, 192, 256
-0.984783, 309, 225, 340, 352
-0.984802, 21, 9, 52, 72
-0.984809, 49, 241, 176, 368
-0.984843, 225, 1, 352, 64
-0.984939, 233, 97, 264, 224
-0.984973, 437, 17, 468, 80
-0.98505, 353, 113, 384, 240
-0.98512, 169, 25, 200, 88
-0.985121, 433, 49, 496, 176
-0.985125, 393, 113, 456, 240
-0.98518, 313, 17, 344, 80
-0.985198, 89, 273, 152, 336
-0.985209, 197, 257, 228, 320
-0.985356, 229, 193, 260, 320
-0.985357, 373, 129, 404, 192
-0.985454, 229, 241, 260, 368
-0.985464, 425, 113, 488, 176
-0.985468, 401, 137, 464, 200
-0.985497, 13, 41, 44, 104
-0.985515, 209, 177, 336, 240
-0.985526, 337, 41, 400, 104
-0.985627, 313, 113, 376, 176
-0.98565, 305, 297, 432, 360
-0.98566, 161, 49, 224, 176
-0.985691, 261, 177, 292, 304
-0.985694, 141, 25, 172, 88
-0.9857, 49, 289, 176, 352
-0.985711, 297, 1, 328, 64
-0.98585, 305, 217, 432, 280
-0.985872, 273, 153, 336, 216
-0.985877, 49, 241, 112, 368
-0.98589, 389, 1, 420, 128
-0.985903, 185, 1, 216, 128
-0.985905, 241, 1, 272, 128
-0.985958, 209, 289, 272, 352
-0.985976, 177, 233, 208, 296
-0.985993, 65, 137, 128, 200
-0.985998, 185, 49, 248, 176
-0.986002, 289, 265, 416, 328
-0.986084, 177, 113, 208, 240
-0.986132, 297, 97, 328, 224
-0.986141, 201, 1, 232, 64
-0.986157, 129, 49, 256, 112
-0.986198, 29, 57, 60, 120
-0.986254, 269, 1, 300, 64
-0.986301, 221, 1, 252, 64
-0.986316, 273, 257, 304, 320
-0.98634, 413, 257, 444, 320
-0.986347, 469, 17, 500, 80
-0.986369, 181, 1, 212, 64
-0.986456, 337, 169, 464, 232
-0.986458, 201, 1, 264, 375
-0.986488, 273, 145, 304, 272
-0.986584, 209, 241, 240, 368
-0.986604, 425, 305, 488, 368
-0.986614, 377, 129, 408, 256
-0.986634, 185, 201, 216, 264
-0.986663, 249, 1, 312, 375
-0.986743, 273, 1, 336, 375
-0.986744, 401, 193, 464, 320
-0.986771, 289, 257, 320, 320
-0.986821, 289, 289, 352, 352
-0.986932, 57, 1, 120, 256
-0.987007, 205, 193, 236, 320
-0.987018, 401, 257, 432, 320
-0.987068, 385, 257, 416, 320
-0.987093, 173, 49, 204, 112
-0.987146, 417, 41, 480, 104
-0.987165, 105, 33, 136, 96
-0.987177, 329, 137, 360, 200
-0.987192, 237, 1, 268, 64
-0.987251, 441, 241, 472, 368
-0.987283, 173, 257, 204, 320
-0.987428, 41, 161, 104, 224
-0.987428, 325, 1, 356, 128
-0.987432, 241, 281, 368, 344
-0.987445, 225, 1, 288, 375
-0.987484, 353, 121, 480, 184
-0.987555, 193, 169, 256, 200
-0.987563, 97, 113, 160, 240
-0.987592, 345, 161, 376, 224
-0.987643, 425, 233, 488, 296
-0.987655, 369, 297, 496, 360
-0.98769, 97, 129, 224, 192
-0.987741, 353, 1, 384, 128
-0.987771, 97, 241, 160, 368
-0.987773, 369, 25, 400, 88
-0.987783, 245, 193, 276, 320
-0.987789, 293, 25, 324, 88
-0.9878, 225, 49, 352, 112
-0.987806, 121, 113, 184, 240
-0.987822, 305, 161, 368, 224
-0.987835, 1, 297, 128, 360
-0.987863, 1, 65, 64, 128
-0.987869, 221, 241, 252, 304
-0.987919, 17, 161, 144, 288
-0.987937, 365, 97, 396, 224
-0.987984, 61, 305, 92, 368
-0.987995, 377, 1, 408, 128
-0.988003, 441, 1, 472, 128
-0.988053, 273, 41, 400, 104
-0.988056, 89, 1, 152, 256
-0.988057, 353, 313, 416, 375
-0.9881, 161, 1, 224, 375
-0.988127, 413, 241, 444, 368
-0.988137, 313, 105, 344, 168
-0.98815, 273, 97, 400, 160
-0.988189, 341, 177, 372, 304
-0.988226, 217, 153, 280, 184
-0.988247, 213, 265, 244, 328
-0.988256, 137, 57, 200, 120
-0.988261, 153, 33, 184, 96
-0.988271, 249, 169, 312, 232
-0.988272, 193, 157, 256, 188
-0.988275, 361, 121, 392, 184
-0.988311, 173, 1, 204, 128
-0.988346, 253, 1, 284, 128
-0.98837, 89, 153, 152, 216
-0.988407, 457, 225, 488, 352
-0.988429, 209, 185, 240, 248
-0.988442, 161, 1, 192, 128
-0.988477, 285, 49, 316, 176
-0.9885, 41, 129, 104, 192
-0.988506, 185, 257, 216, 320
-0.988529, 65, 97, 128, 224
-0.988531, 113, 153, 176, 216
-0.988541, 469, 257, 500, 320
-0.988576, 145, 129, 208, 375
-0.988611, 433, 281, 496, 344
-0.988641, 25, 45, 88, 76
-0.988645, 1, 161, 64, 224
-0.988667, 181, 145, 212, 208
-0.988673, 313, 1, 376, 375
-0.988812, 1, 57, 128, 120
-0.988858, 241, 161, 304, 192
-0.988867, 193, 49, 224, 112
-0.988897, 405, 1, 436, 128
-0.988929, 213, 49, 244, 112
-0.989011, 345, 161, 408, 192
-0.989024, 241, 149, 304, 180
-0.989032, 249, 305, 312, 368
-0.98904, 113, 177, 240, 240
-0.98905, 193, 153, 448, 216
-0.98908, 265, 17, 296, 144
-0.989092, 285, 145, 316, 208
-0.98913, 57, 45, 120, 76
-0.989143, 65, 313, 128, 375
-0.989163, 121, 97, 184, 352
-0.989171, 225, 265, 256, 328
-0.989174, 309, 225, 340, 288
-0.989175, 225, 49, 256, 112
-0.989215, 365, 193, 396, 320
-0.989235, 337, 49, 464, 112
-0.989279, 389, 241, 420, 368
-0.989285, 413, 25, 444, 88
-0.989381, 253, 113, 284, 176
-0.989439, 421, 1, 452, 128
-0.989446, 353, 249, 384, 312
-0.989461, 393, 233, 456, 296
-0.989461, 217, 169, 280, 200
-0.989473, 49, 297, 80, 360
-0.989477, 193, 185, 256, 216
-0.989502, 201, 105, 264, 168
-0.989516, 377, 241, 408, 368
-0.9896, 121, 49, 152, 176
-0.989607, 209, 49, 272, 176
-0.989625, 1, 281, 64, 344
-0.989631, 121, 193, 184, 256
-0.989651, 49, 129, 176, 192
-0.989668, 141, 297, 172, 360
-0.98973, 89, 37, 152, 68
-0.98973, 113, 201, 240, 264
-0.989731, 209, 141, 272, 172
-0.989735, 257, 201, 384, 264
-0.989805, 81, 305, 112, 368
-0.989834, 41, 33, 104, 64
-0.989915, 373, 177, 404, 240
-0.989935, 389, 113, 420, 176
-0.989958, 197, 289, 228, 352
-0.989961, 417, 97, 480, 224
-0.989982, 177, 57, 304, 120
-0.989984, 193, 129, 448, 192
-0.989992, 1, 41, 64, 72
-0.989994, 165, 233, 196, 296
-0.990015, 137, 49, 168, 112
-0.990022, 245, 241, 276, 368
-0.990035, 117, 289, 148, 352
-0.990049, 185, 281, 216, 344
-0.990093, 209, 241, 240, 304
-0.990132, 281, 113, 344, 144
-0.990174, 365, 225, 396, 288
-0.990194, 313, 49, 344, 176
-0.990196, 321, 217, 352, 280
-0.990219, 281, 1, 312, 64
-0.990232, 1, 241, 128, 368
-0.990249, 293, 225, 324, 352
-0.99029, 361, 1, 424, 32
-0.990294, 257, 241, 288, 368
-0.990327, 249, 137, 312, 168
-0.990328, 329, 113, 360, 240
-0.990332, 345, 173, 408, 204
-0.990343, 273, 97, 304, 224
-0.990344, 1, 57, 64, 88
-0.990386, 33, 161, 160, 224
-0.990421, 81, 225, 208, 288
-0.990446, 49, 57, 176, 120
-0.990453, 145, 53, 208, 84
-0.99046, 169, 161, 232, 192
-0.990556, 121, 41, 184, 72
-0.990567, 145, 5, 208, 36
-0.990584, 353, 217, 480, 280
-0.990597, 241, 265, 304, 296
-0.990649, 33, 161, 96, 288
-0.990676, 65, 33, 128, 64
-0.990679, 321, 249, 384, 280
-0.990684, 409, 1, 472, 32
-0.990692, 225, 313, 352, 375
-0.99071, 161, 201, 416, 264
-0.990734, 225, 181, 288, 212
-0.990784, 145, 37, 208, 68
-0.990793, 337, 141, 400, 172
-0.990794, 369, 141, 432, 172
-0.990814, 49, 313, 176, 375
-0.99082, 97, 49, 160, 80
-0.990852, 17, 305, 80, 336
-0.990866, 185, 145, 248, 176
-0.990885, 105, 289, 168, 320
-0.990889, 209, 249, 272, 280
-0.990897, 281, 257, 344, 288
-0.990899, 209, 209, 336, 272
-0.990916, 433, 249, 496, 280
-0.990918, 209, 1, 272, 32
-0.99093, 321, 161, 384, 192
-0.990933, 17, 29, 80, 60
-0.990952, 273, 241, 336, 272
-0.99098, 365, 241, 396, 368
-0.991011, 169, 173, 232, 204
-0.991011, 177, 249, 240, 280
-0.991012, 281, 101, 344, 132
-0.991014, 281, 241, 312, 368
-0.991026, 169, 209, 232, 240
-0.991049, 265, 153, 328, 184
-0.991072, 249, 57, 312, 88
-0.991073, 57, 57, 120, 88
-0.991076, 289, 269, 352, 300
-0.991076, 73, 49, 104, 176
-0.991083, 321, 9, 384, 40
-0.991115, 33, 57, 96, 88
-0.991115, 185, 49, 248, 80
-0.991141, 81, 293, 144, 324
-0.991163, 185, 1, 248, 32
-0.991195, 177, 61, 240, 92
-0.991218, 49, 297, 112, 328
-0.991228, 41, 97, 104, 224
-0.99125, 161, 261, 224, 292
-0.991264, 121, 29, 184, 60
-0.991277, 145, 25, 208, 56
-0.99128, 345, 129, 408, 160
-0.991285, 121, 57, 184, 88
-0.991302, 161, 233, 224, 264
-0.991309, 401, 253, 464, 284
-0.991337, 169, 25, 232, 56
-0.991343, 281, 125, 344, 156
-0.991347, 369, 153, 432, 184
-0.991349, 385, 41, 448, 72
-0.991356, 281, 1, 344, 32
-0.991364, 225, 249, 480, 312
-0.991369, 137, 285, 200, 316
-0.991389, 57, 13, 120, 44
-0.991393, 425, 17, 488, 48
-0.991396, 1, 17, 64, 48
-0.9914, 201, 261, 264, 292
-0.991426, 281, 21, 344, 52
-0.991429, 425, 241, 456, 368
-0.991443, 169, 281, 232, 312
-0.991444, 345, 305, 408, 336
-0.991445, 201, 277, 264, 308
-0.991458, 385, 5, 448, 36
-0.991462, 433, 1, 496, 32
-0.991462, 153, 149, 216, 180
-0.991481, 241, 1, 304, 32
-0.991491, 369, 257, 432, 288
-0.991497, 309, 97, 340, 224
-0.991499, 217, 57, 280, 88
-0.991503, 329, 265, 392, 296
-0.991513, 217, 13, 280, 44
-0.991514, 25, 17, 88, 48
-0.991524, 321, 177, 384, 208
-0.991539, 313, 149, 376, 180
-0.991542, 121, 17, 184, 48
-0.99155, 289, 53, 352, 84
-0.991572, 41, 49, 72, 176
-0.991579, 361, 53, 424, 84
-0.991583, 337, 49, 400, 80
-0.991597, 345, 1, 408, 375
-0.991618, 81, 13, 144, 44
-0.991625, 169, 37, 232, 68
-0.991634, 305, 229, 368, 260
-0.991663, 1, 137, 128, 200
-0.991678, 65, 153, 320, 216
-0.991709, 1, 1, 500, 64
-0.99171, 209, 129, 272, 160
-0.991715, 121, 1, 184, 32
-0.991721, 225, 281, 288, 312
-0.991731, 281, 141, 344, 172
-0.991733, 177, 197, 240, 228
-0.991733, 345, 17, 408, 48
-0.991738, 129, 1, 384, 64
-0.991739, 241, 13, 304, 44
-0.991741, 25, 1, 88, 32
-0.991753, 433, 45, 496, 76
-0.991762, 89, 25, 152, 56
-0.991773, 265, 45, 328, 76
-0.99178, 185, 13, 248, 44
-0.991789, 321, 97, 448, 160
-0.99179, 313, 53, 376, 84
-0.991802, 265, 273, 328, 304
-0.991823, 1, 1, 256, 64
-0.99183, 321, 309, 384, 340
-0.991837, 409, 49, 472, 80
-0.991837, 97, 61, 160, 92
-0.991843, 233, 245, 296, 276
-0.991852, 393, 141, 456, 172
-0.991853, 401, 17, 464, 48
-0.991858, 105, 145, 168, 176
-0.991906, 49, 1, 112, 32
-0.991909, 249, 25, 312, 56
-0.991924, 201, 25, 264, 56
-0.991925, 161, 25, 416, 88
-0.991935, 361, 41, 424, 72
-0.991936, 305, 101, 368, 132
-0.991937, 25, 49, 56, 176
-0.991939, 305, 21, 368, 52
-0.99194, 401, 265, 464, 296
-0.991942, 81, 1, 144, 32
-0.991955, 185, 129, 248, 160
-0.991961, 409, 37, 472, 68
-0.991966, 305, 129, 368, 160
-0.991987, 329, 205, 392, 236
-0.992035, 369, 169, 432, 200
-0.992042, 177, 297, 304, 360
-0.992044, 365, 161, 396, 192
-0.992048, 193, 149, 320, 180
-0.99207, 337, 1, 368, 128
-0.992099, 221, 169, 252, 200
-0.992117, 9, 49, 40, 176
-0.992158, 1, 33, 256, 96
-0.99216, 113, 313, 240, 375
-0.992173, 65, 129, 320, 192
-0.992206, 353, 161, 384, 192
-0.992224, 261, 149, 292, 180
-0.992226, 161, 273, 416, 336
-0.992275, 329, 49, 360, 176
-0.992284, 9, 113, 40, 240
-0.99232, 57, 49, 88, 176
-0.992337, 369, 97, 496, 160
-0.992357, 201, 161, 232, 192
-0.992359, 209, 173, 240, 204
-0.992382, 249, 161, 280, 192
-0.992386, 209, 149, 240, 180
-0.992437, 237, 169, 268, 200
-0.992455, 433, 129, 496, 375
-0.992474, 245, 149, 276, 180
-0.992511, 41, 45, 72, 76
-0.992517, 273, 149, 304, 180
-0.992528, 353, 177, 384, 208
-0.99255, 221, 49, 252, 176
-0.992566, 297, 97, 328, 128
-0.992575, 293, 113, 324, 144
-0.992588, 233, 181, 264, 212
-0.992597, 261, 161, 292, 192
-0.992608, 377, 153, 408, 184
-0.992611, 377, 161, 440, 288
-0.992625, 205, 185, 236, 216
-0.992667, 25, 241, 88, 368
-0.992684, 257, 133, 288, 164
-0.992695, 365, 149, 396, 180
-0.992703, 61, 45, 92, 76
-0.992722, 1, 153, 500, 216
-0.992728, 77, 45, 108, 76
-0.992728, 137, 41, 168, 72
-0.992728, 393, 97, 424, 224
-0.992733, 5, 41, 36, 72
-0.992737, 161, 129, 192, 256
-0.992738, 369, 173, 400, 204
-0.992754, 149, 225, 180, 352
-0.99279, 193, 161, 320, 192
-0.992795, 173, 53, 204, 84
-0.992795, 161, 177, 416, 240
-0.992799, 217, 129, 248, 160
-0.992808, 229, 153, 260, 184
-0.992827, 197, 173, 228, 204
-0.992829, 357, 189, 388, 220
-0.992831, 173, 29, 204, 60
-0.992836, 229, 1, 260, 32
-0.992837, 29, 45, 60, 76
-0.992845, 217, 1, 248, 32
-0.992845, 441, 1, 472, 32
-0.992846, 1, 53, 32, 84
-0.992859, 57, 33, 88, 64
-0.99286, 197, 149, 228, 180
-0.99287, 105, 37, 136, 68
-0.992872, 89, 45, 120, 76
-0.992883, 13, 57, 44, 88
-0.992883, 273, 161, 304, 192
-0.992884, 121, 33, 152, 64
-0.992884, 393, 49, 424, 176
-0.992885, 137, 1, 200, 375
-0.992901, 193, 189, 224, 220
-0.992902, 217, 249, 248, 280
-0.992907, 221, 185, 252, 216
-0.992921, 377, 141, 408, 172
-0.992922, 417, 1, 448, 32
-0.992927, 221, 141, 252, 172
-0.99293, 157, 1, 188, 32
-0.992932, 29, 33, 60, 64
-0.992935, 161, 53, 192, 84
-0.992948, 337, 193, 464, 256
-0.99295, 305, 109, 336, 140
-0.99295, 93, 29, 124, 60
-0.992954, 105, 293, 136, 324
-0.99296, 293, 261, 324, 292
-0.992969, 329, 265, 360, 296
-0.992972, 77, 33, 108, 64
-0.992973, 297, 53, 328, 84
-0.992975, 65, 57, 96, 88
-0.99298, 161, 37, 192, 68
-0.99298, 5, 17, 36, 48
-0.992981, 369, 1, 432, 375
-0.992988, 361, 1, 392, 32
-0.992988, 237, 137, 268, 168
-0.99299, 249, 1, 280, 32
-0.992991, 233, 261, 264, 292
-0.992994, 429, 1, 460, 32
-0.992996, 53, 57, 84, 88
-0.992997, 461, 17, 492, 48
-0.993, 261, 181, 292, 212
-0.993004, 461, 1, 492, 32
-0.993005, 141, 57, 172, 88
-0.993006, 337, 249, 368, 280
-0.993007, 389, 141, 420, 172
-0.99301, 309, 257, 340, 288
-0.993011, 185, 61, 216, 92
-0.993013, 273, 129, 304, 160
-0.993013, 169, 241, 200, 272
-0.993015, 17, 33, 48, 64
-0.993016, 45, 33, 76, 64
-0.99302, 277, 57, 308, 88
-0.993032, 289, 25, 320, 56
-0.993032, 173, 41, 204, 72
-0.993035, 17, 45, 48, 76
-0.993039, 205, 137, 236, 168
-0.993043, 77, 57, 108, 88
-0.993047, 189, 41, 220, 72
-0.993048, 169, 5, 200, 36
-0.993048, 253, 261, 284, 292
-0.993051, 285, 153, 316, 184
-0.993052, 349, 5, 380, 36
-0.993053, 341, 169, 372, 200
-0.993053, 129, 53, 160, 84
-0.993057, 41, 57, 72, 88
-0.993058, 193, 25, 224, 56
-0.993062, 349, 249, 380, 280
-0.993065, 41, 305, 72, 336
-0.993069, 453, 49, 484, 80
-0.993072, 441, 49, 472, 80
-0.993072, 385, 1, 416, 32
-0.993076, 149, 41, 180, 72
-0.993076, 369, 49, 400, 80
-0.993085, 89, 49, 120, 176
-0.993085, 209, 57, 240, 88
-0.993086, 353, 149, 384, 180
-0.993087, 317, 9, 348, 40
-0.993087, 357, 229, 388, 260
-0.993088, 45, 17, 76, 48
-0.993093, 69, 13, 100, 44
-0.993094, 189, 5, 220, 36
-0.993097, 29, 65, 60, 96
-0.993098, 397, 49, 428, 80
-0.993099, 417, 41, 448, 72
-0.993101, 241, 13, 272, 44
-0.993104, 273, 1, 304, 32
-0.993104, 121, 9, 152, 40
-0.993106, 329, 145, 360, 176
-0.993107, 89, 9, 120, 40
-0.993113, 57, 145, 88, 272
-0.993117, 265, 261, 296, 292
-0.993122, 389, 261, 420, 292
-0.993123, 337, 9, 368, 40
-0.993123, 341, 265, 372, 296
-0.993125, 453, 37, 484, 68
-0.993127, 409, 257, 440, 288
-0.993127, 241, 277, 272, 308
-0.993128, 437, 17, 468, 48
-0.993129, 205, 249, 236, 280
-0.993129, 221, 49, 252, 80
-0.993129, 201, 1, 232, 32
-0.993132, 281, 45, 312, 76
-0.993144, 1, 25, 500, 88
-0.993269, 365, 1, 396, 128
-0.993282, 65, 281, 320, 344
-0.993381, 401, 225, 432, 352
-0.993383, 41, 1, 104, 375
-0.993425, 409, 49, 440, 176
-0.993426, 247, 145, 262, 208
-0.993426, 273, 149, 400, 180
-0.993452, 109, 49, 140, 176
-0.993484, 257, 17, 500, 80
-0.99349, 193, 81, 320, 144
-0.993668, 253, 65, 284, 192
-0.993683, 201, 49, 232, 176
-0.993686, 241, 161, 368, 192
-0.993766, 341, 81, 372, 208
-0.993866, 193, 105, 448, 168
-0.993892, 177, 181, 304, 212
-0.993913, 49, 265, 176, 328
-0.99396, 65, 177, 320, 240
-0.99401, 317, 177, 348, 304
-0.99402, 1, 281, 500, 344
-0.994098, 129, 249, 384, 312
-0.994124, 233, 145, 248, 208
-0.994142, 215, 145, 230, 208
-0.994149, 129, 225, 384, 288
-0.994299, 81, 241, 112, 368
-0.994305, 149, 161, 180, 288
-0.99431, 381, 145, 396, 208
-0.994323, 273, 193, 304, 320
-0.994348, 365, 153, 380, 216
-0.994361, 225, 121, 240, 184
-0.99437, 359, 153, 374, 216
-0.994378, 255, 137, 270, 200
-0.994397, 381, 49, 412, 176
-0.994422, 57, 241, 88, 368
-0.994508, 133, 49, 164, 176
-0.994522, 201, 153, 216, 216
-0.994542, 437, 49, 468, 176
-0.994548, 385, 129, 448, 375
-0.994577, 113, 1, 176, 375
-0.994584, 1, 273, 128, 336
-0.994593, 329, 177, 360, 304
-0.994607, 45, 129, 76, 256
-0.994624, 9, 1, 72, 375
-0.994654, 169, 49, 200, 176
-0.994666, 1, 129, 500, 192
-0.994677, 269, 241, 300, 368
-0.9947, 209, 153, 224, 216
-0.994767, 261, 153, 276, 216
-0.99481, 223, 161, 238, 224
-0.994813, 433, 1, 496, 375
-0.994835, 201, 177, 216, 240
-0.994852, 225, 49, 480, 112
-0.994862, 409, 1, 472, 375
-0.994884, 273, 129, 288, 192
-0.99491, 73, 129, 104, 256
-0.994921, 325, 249, 340, 312
-0.994932, 33, 129, 96, 375
-0.994979, 353, 145, 368, 208
-0.99499, 145, 149, 272, 180
-0.99505, 307, 97, 322, 160
-0.995067, 209, 245, 336, 276
-0.995078, 241, 161, 256, 224
-0.99508, 393, 17, 408, 80
-0.995084, 177, 193, 304, 224
-0.995085, 401, 1, 416, 64
-0.995093, 65, 185, 192, 248
-0.995113, 279, 145, 294, 208
-0.995123, 375, 153, 390, 216
-0.995134, 145, 161, 272, 192
-0.995143, 261, 129, 276, 192
-0.995147, 421, 49, 452, 176
-0.995167, 289, 73, 416, 136
-0.995172, 77, 33, 92, 96
-0.995173, 177, 137, 304, 168
-0.995216, 289, 245, 416, 276
-0.995228, 267, 129, 282, 192
-0.995263, 21, 113, 52, 240
-0.995275, 195, 25, 210, 88
-0.995314, 113, 57, 240, 88
-0.995325, 469, 49, 500, 176
-0.995329, 301, 89, 316, 152
-0.995334, 1, 49, 500, 112
-0.995335, 53, 33, 68, 96
-0.995355, 241, 133, 368, 164
-0.995367, 145, 1, 160, 64
-0.995373, 233, 49, 264, 176
-0.995382, 289, 257, 416, 288
-0.995402, 69, 9, 84, 72
-0.995412, 265, 257, 280, 320
-0.995416, 279, 121, 294, 184
-0.995421, 337, 161, 464, 192
-0.995423, 171, 1, 186, 64
-0.995433, 113, 29, 240, 60
-0.995434, 1, 49, 128, 80
-0.995467, 1, 301, 128, 332
-0.995468, 411, 1, 426, 64
-0.995475, 161, 245, 288, 276
-0.995476, 259, 257, 274, 320
-0.995482, 7, 33, 22, 96
-0.995483, 449, 49, 480, 176
-0.995484, 209, 177, 224, 240
-0.99549, 95, 9, 110, 72
-0.995497, 85, 33, 100, 96
-0.995506, 469, 193, 500, 320
-0.995506, 391, 137, 406, 200
-0.99551, 423, 1, 438, 64
-0.995511, 145, 5, 272, 36
-0.995524, 363, 177, 378, 240
-0.995548, 81, 41, 208, 72
-0.995571, 21, 17, 36, 80
-0.995582, 351, 241, 366, 304
-0.995589, 257, 177, 384, 208
-0.995606, 357, 177, 372, 240
-0.995608, 13, 17, 28, 80
-0.99561, 33, 241, 288, 304
-0.995613, 1, 17, 16, 80
-0.995624, 187, 1, 202, 64
-0.995642, 101, 9, 116, 72
-0.995648, 285, 145, 300, 208
-0.99565, 305, 129, 432, 160
-0.995669, 49, 13, 176, 44
-0.995673, 49, 1, 64, 64
-0.995673, 225, 225, 480, 288
-0.995677, 225, 117, 352, 148
-0.995679, 63, 9, 78, 72
-0.995681, 171, 217, 186, 280
-0.995683, 313, 97, 328, 160
-0.995688, 241, 25, 256, 88
-0.995729, 239, 137, 254, 200
-0.995743, 111, 9, 126, 72
-0.995746, 43, 41, 58, 104
-0.995758, 345, 241, 360, 304
-0.995771, 87, 1, 102, 64
-0.995774, 345, 265, 360, 328
-0.995787, 433, 17, 448, 80
-0.995798, 59, 33, 74, 96
-0.995798, 273, 257, 288, 320
-0.995807, 65, 97, 128, 352
-0.995813, 223, 25, 238, 88
-0.995815, 129, 97, 256, 160
-0.995822, 71, 33, 86, 96
-0.995829, 105, 33, 120, 96
-0.995844, 369, 141, 496, 172
-0.995855, 417, 1, 432, 64
-0.995859, 49, 53, 176, 84
-0.995865, 253, 25, 268, 88
-0.99588, 91, 33, 106, 96
-0.995883, 217, 25, 232, 88
-0.995884, 267, 1, 282, 64
-0.99589, 139, 1, 154, 64
-0.995893, 289, 161, 416, 192
-0.9959, 155, 1, 170, 64
-0.995906, 235, 169, 250, 232
-0.995925, 319, 249, 334, 312
-0.995929, 209, 261, 336, 292
-0.99594, 399, 25, 414, 88
-0.995941, 353, 1, 480, 32
-0.995958, 81, 9, 96, 72
-0.995958, 339, 241, 354, 304
-0.995981, 337, 261, 464, 292
-0.995984, 219, 121, 234, 184
-0.995991, 271, 153, 286, 216
-0.995994, 225, 1, 352, 32
-0.996015, 131, 1, 146, 64
-0.99602, 177, 25, 192, 88
-0.996025, 117, 9, 132, 72
-0.996034, 1, 177, 500, 240
-0.996037, 403, 257, 418, 320
-0.996048, 15, 41, 30, 104
-0.996053, 257, 177, 500, 240
-0.996055, 161, 205, 288, 236
-0.996058, 365, 1, 380, 64
-0.996073, 55, 9, 70, 72
-0.996081, 129, 57, 384, 120
-0.996088, 257, 273, 500, 336
-0.996096, 273, 49, 400, 80
-0.996098, 209, 273, 336, 304
-0.996105, 161, 45, 288, 76
-0.996117, 365, 129, 380, 192
-0.996129, 371, 17, 386, 80
-0.996144, 335, 265, 350, 328
-0.996152, 369, 177, 384, 240
-0.996156, 235, 25, 250, 88
-0.996168, 81, 289, 208, 320
-0.996181, 27, 17, 42, 80
-0.996182, 331, 241, 346, 304
-0.996201, 73, 1, 136, 375
-0.996202, 145, 25, 160, 88
-0.996214, 81, 1, 208, 32
-0.996223, 193, 1, 208, 64
-0.996224, 369, 49, 496, 80
-0.996224, 1, 29, 128, 60
-0.996224, 289, 257, 304, 320
-0.996226, 189, 25, 204, 88
-0.996233, 295, 1, 310, 64
-0.996236, 177, 209, 192, 272
-0.99624, 201, 257, 216, 320
-0.996242, 281, 25, 296, 88
-0.996243, 1, 13, 128, 44
-0.996256, 333, 25, 348, 88
-0.996264, 193, 25, 320, 56
-0.996268, 201, 25, 216, 88
-0.996272, 37, 17, 52, 80
-0.996275, 209, 57, 336, 88
-0.996277, 253, 161, 268, 224
-0.996286, 327, 1, 342, 64
-0.996287, 75, 1, 90, 64
-0.99629, 125, 9, 140, 72
-0.996293, 1, 305, 256, 368
-0.996308, 303, 233, 318, 296
-0.996323, 309, 1, 324, 64
-0.996331, 455, 17, 470, 80
-0.996338, 343, 1, 358, 64
-0.996341, 273, 269, 400, 300
-0.996343, 413, 25, 428, 88
-0.996347, 351, 169, 366, 232
-0.99635, 215, 177, 230, 240
-0.996356, 311, 249, 326, 312
-0.996358, 7, 9, 22, 72
-0.996363, 351, 265, 366, 328
-0.99637, 463, 9, 478, 72
-0.99637, 229, 177, 244, 240
-0.996371, 279, 257, 294, 320
-0.996375, 321, 145, 448, 176
-0.996388, 181, 233, 196, 296
-0.996402, 195, 161, 210, 224
-0.996416, 217, 265, 232, 328
-0.996418, 183, 25, 198, 88
-0.996419, 225, 313, 480, 375
-0.996426, 229, 25, 244, 88
-0.996427, 425, 257, 440, 320
-0.99643, 347, 137, 362, 200
-0.996437, 1, 113, 128, 176
-0.99644, 161, 281, 288, 312
-0.996505, 361, 165, 376, 196
-0.996551, 337, 17, 464, 48
-0.996568, 1, 257, 500, 320
-0.996642, 273, 117, 400, 148
-0.996698, 213, 129, 244, 375
-0.996706, 321, 309, 448, 340
-0.996709, 97, 13, 224, 44
-0.996713, 273, 9, 400, 40
-0.996718, 97, 157, 224, 188
-0.996736, 353, 129, 384, 375
-0.996739, 1, 305, 500, 368
-0.996744, 97, 145, 224, 176
-0.996745, 369, 249, 496, 280
-0.996785, 241, 129, 272, 375
-0.996789, 209, 45, 336, 76
-0.996795, 341, 129, 372, 375
-0.996808, 129, 173, 256, 204
-0.996844, 145, 261, 272, 292
-0.996845, 369, 289, 496, 320
-0.996859, 73, 241, 136, 368
-0.996873, 161, 57, 288, 88
-0.996894, 1, 233, 500, 296
-0.996903, 161, 229, 288, 260
-0.996912, 161, 125, 288, 156
-0.996913, 329, 129, 360, 375
-0.996924, 369, 157, 384, 188
-0.996929, 1, 61, 128, 92
-0.996943, 321, 53, 448, 84
-0.996991, 97, 305, 352, 368
-0.997002, 277, 1, 308, 256
-0.997038, 1, 313, 128, 344
-0.997068, 49, 29, 176, 60
-0.997071, 129, 293, 256, 324
-0.997079, 229, 129, 260, 375
-0.99711, 9, 129, 72, 375
-0.997123, 285, 97, 316, 352
-0.997126, 255, 153, 270, 184
-0.997129, 381, 157, 396, 188
-0.99713, 145, 17, 272, 48
-0.997134, 273, 37, 400, 68
-0.997136, 369, 37, 496, 68
-0.997137, 273, 21, 400, 52
-0.997152, 257, 233, 384, 264
-0.997158, 355, 165, 370, 196
-0.997167, 337, 173, 464, 204
-0.997171, 201, 129, 232, 375
-0.997173, 365, 129, 396, 375
-0.997186, 247, 169, 262, 200
-0.997216, 81, 301, 208, 332
-0.997225, 321, 1, 352, 256
-0.997238, 361, 1, 392, 256
-0.997244, 309, 1, 340, 256
-0.997248, 237, 1, 268, 256
-0.997266, 33, 289, 160, 320
-0.997284, 337, 237, 464, 268
-0.997295, 375, 169, 390, 200
-0.997317, 197, 1, 228, 256
-0.997318, 219, 153, 234, 184
-0.997344, 1, 57, 256, 120
-0.997349, 241, 189, 368, 220
-0.997353, 321, 41, 448, 72
-0.997353, 349, 1, 380, 256
-0.997355, 273, 149, 288, 180
-0.997374, 205, 153, 220, 184
-0.997376, 209, 285, 336, 316
-0.997384, 369, 301, 496, 332
-0.99739, 353, 121, 480, 152
-0.997392, 375, 153, 390, 184
-0.997396, 265, 149, 280, 180
-0.997396, 261, 1, 292, 256
-0.997397, 301, 97, 332, 352
-0.997399, 1, 201, 500, 264
-0.997427, 33, 217, 288, 280
-0.997448, 213, 161, 228, 192
-0.997452, 1, 161, 128, 192
-0.997456, 231, 1, 246, 32
-0.997461, 293, 1, 324, 256
-0.997463, 223, 169, 238, 200
-0.997468, 321, 277, 448, 308
-0.997477, 201, 189, 216, 220
-0.99748, 283, 149, 298, 180
-0.997495, 273, 105, 400, 136
-0.997498, 209, 13, 336, 44
-0.997501, 311, 105, 326, 136
-0.997513, 303, 97, 318, 128
-0.997519, 33, 145, 160, 176
-0.997527, 185, 129, 216, 375
-0.997531, 9, 161, 72, 288
-0.997541, 203, 173, 218, 204
-0.997557, 387, 157, 402, 188
-0.99756, 365, 177, 380, 208
-0.997571, 247, 157, 262, 188
-0.997575, 257, 97, 288, 352
-0.997578, 257, 165, 272, 196
-0.997582, 215, 173, 230, 204
-0.997592, 231, 165, 246, 196
-0.997593, 239, 181, 254, 212
-0.997612, 225, 145, 240, 176
-0.997625, 377, 1, 408, 256
-0.997628, 225, 129, 240, 160
-0.99763, 33, 105, 288, 168
-0.997641, 1, 1, 128, 32
-0.997645, 225, 105, 352, 136
-0.997646, 409, 97, 472, 352
-0.997654, 321, 297, 448, 328
-0.997679, 97, 97, 160, 352
-0.997684, 237, 1, 252, 32
-0.997698, 383, 145, 398, 176
-0.997704, 209, 1, 240, 256
-0.997704, 113, 133, 240, 164
-0.997708, 237, 169, 252, 200
-0.997715, 265, 165, 280, 196
-0.997737, 209, 173, 224, 204
-0.997743, 113, 277, 240, 308
-0.997759, 273, 221, 400, 252
-0.997763, 129, 189, 256, 220
-0.997763, 273, 309, 400, 340
-0.997784, 233, 149, 248, 180
-0.997785, 249, 145, 264, 176
-0.997792, 161, 217, 288, 248
-0.997803, 175, 37, 190, 68
-0.997804, 1, 37, 16, 68
-0.99782, 333, 1, 364, 256
-0.997823, 61, 45, 76, 76
-0.997823, 249, 1, 280, 256
-0.997825, 225, 1, 256, 256
-0.997829, 309, 93, 324, 124
-0.99783, 175, 53, 190, 84
-0.997831, 183, 25, 198, 56
-0.997832, 207, 185, 222, 216
-0.997832, 363, 153, 378, 184
-0.997845, 445, 1, 460, 32
-0.997846, 257, 205, 384, 236
-0.997881, 273, 169, 288, 200
-0.997883, 359, 177, 374, 208
-0.997887, 45, 45, 60, 76
-0.997897, 317, 109, 332, 140
-0.9979, 157, 1, 188, 256
-0.9979, 273, 293, 400, 324
-0.997901, 49, 65, 176, 96
-0.99791, 209, 345, 336, 375
-0.997919, 469, 1, 500, 256
-0.997935, 35, 49, 50, 80
-0.997936, 223, 245, 238, 276
-0.997945, 307, 261, 322, 292
-0.997955, 351, 177, 366, 208
-0.997958, 89, 161, 152, 288
-0.997961, 139, 41, 154, 72
-0.997962, 455, 1, 470, 32
-0.997968, 67, 33, 82, 64
-0.997968, 77, 45, 92, 76
-0.997977, 305, 109, 320, 140
-0.997983, 437, 1, 468, 256
-0.99799, 321, 321, 448, 352
-0.997994, 255, 141, 270, 172
-0.997995, 65, 105, 192, 168
-0.997995, 417, 1, 448, 256
-0.997999, 215, 137, 230, 168
-0.998, 355, 153, 370, 184
-0.998002, 309, 237, 324, 268
-0.998004, 5, 53, 20, 84
-0.998005, 271, 261, 286, 292
-0.998009, 321, 189, 448, 220
-0.99801, 29, 1, 60, 256
-0.998012, 27, 37, 42, 68
-0.998024, 273, 281, 400, 312
-0.998031, 223, 185, 238, 216
-0.998033, 195, 29, 210, 60
-0.998034, 165, 1, 180, 32
-0.998039, 303, 237, 318, 268
-0.99804, 113, 241, 240, 272
-0.99804, 13, 41, 28, 72
-0.998048, 181, 1, 212, 256
-0.998049, 187, 45, 202, 76
-0.998052, 389, 141, 404, 172
-0.998053, 353, 333, 480, 364
-0.998053, 83, 37, 98, 68
-0.998057, 173, 97, 204, 352
-0.998057, 67, 45, 82, 76
-0.998059, 231, 185, 246, 216
-0.998063, 317, 129, 348, 375
-0.998066, 273, 321, 400, 352
-0.998066, 259, 265, 274, 296
-0.998083, 145, 41, 160, 72
-0.998084, 55, 45, 70, 76
-0.998084, 479, 1, 494, 32
-0.998085, 289, 153, 304, 184
-0.998086, 245, 1, 260, 32
-0.998088, 99, 45, 114, 76
-0.998092, 81, 229, 208, 260
-0.998093, 349, 165, 364, 196
-0.998096, 349, 249, 364, 280
-0.998102, 211, 149, 226, 180
-0.998105, 461, 1, 476, 32
-0.998113, 93, 45, 108, 76
-0.998113, 357, 237, 372, 268
-0.998126, 297, 97, 312, 128
-0.998133, 457, 1, 488, 256
-0.998134, 477, 17, 492, 48
-0.998139, 339, 249, 354, 280
-0.998142, 29, 53, 44, 84
-0.998143, 429, 1, 444, 32
-0.998154, 267, 133, 282, 164
-0.998155, 57, 33, 72, 64
-0.998164, 83, 57, 98, 88
-0.998167, 369, 273, 496, 304
-0.998173, 389, 1, 420, 256
-0.998176, 77, 57, 92, 88
-0.998177, 73, 33, 88, 64
-0.998177, 403, 1, 418, 32
-0.998179, 253, 1, 268, 32
-0.998181, 187, 9, 202, 40
-0.998183, 397, 1, 412, 32
-0.998186, 181, 37, 196, 68
-0.998188, 279, 161, 294, 192
-0.998189, 113, 293, 128, 324
-0.998197, 277, 181, 292, 212
-0.998199, 393, 261, 408, 292
-0.998201, 7, 37, 22, 68
-0.998202, 153, 57, 168, 88
-0.998203, 365, 1, 380, 32
-0.998215, 225, 157, 240, 188
-0.998215, 193, 61, 208, 92
-0.998217, 143, 53, 158, 84
-0.998217, 413, 261, 428, 292
-0.998217, 259, 1, 274, 32
-0.998219, 299, 261, 314, 292
-0.998221, 241, 157, 256, 188
-0.998221, 405, 1, 436, 256
-0.998224, 23, 13, 38, 44
-0.998227, 185, 57, 200, 88
-0.998228, 423, 257, 438, 288
-0.99823, 33, 33, 48, 64
-0.99823, 363, 229, 378, 260
-0.998232, 89, 33, 104, 64
-0.998234, 247, 265, 262, 296
-0.998234, 395, 141, 410, 172
-0.998239, 303, 45, 318, 76
-0.99824, 153, 41, 168, 72
-0.998244, 325, 1, 340, 32
-0.998244, 253, 181, 268, 212
-0.998244, 403, 261, 418, 292
-0.998289, 369, 313, 496, 344
-0.998308, 273, 97, 304, 352
-0.998311, 1, 133, 128, 164
-0.998321, 113, 201, 240, 232
-0.998324, 169, 1, 200, 256
-0.998328, 321, 29, 448, 60
-0.998336, 337, 217, 464, 248
-0.998351, 209, 233, 336, 264
-0.998362, 193, 173, 256, 188
-0.998363, 9, 1, 40, 256
-0.998369, 97, 261, 224, 292
-0.998376, 65, 65, 96, 80
-0.998377, 273, 165, 304, 180
-0.998379, 349, 155, 380, 170
-0.998379, 141, 33, 172, 48
-0.998379, 141, 57, 172, 72
-0.99838, 353, 55, 384, 70
-0.998381, 381, 143, 412, 158
-0.998383, 13, 55, 44, 70
-0.998383, 77, 59, 108, 74
-0.998384, 293, 23, 324, 38
-0.998385, 421, 53, 452, 68
-0.998386, 257, 3, 288, 18
-0.998387, 349, 265, 380, 280
-0.998387, 225, 61, 256, 76
-0.998387, 225, 161, 256, 176
-0.998387, 193, 163, 256, 178
-0.998388, 373, 55, 404, 70
-0.998388, 401, 51, 432, 66
-0.998389, 41, 303, 72, 318
-0.998389, 209, 191, 240, 206
-0.99839, 305, 111, 336, 126
-0.99839, 233, 189, 264, 204
-0.99839, 289, 271, 320, 286
-0.998391, 353, 241, 384, 256
-0.998392, 353, 185, 384, 200
-0.998393, 345, 171, 408, 186
-0.998393, 169, 9, 200, 24
-0.998393, 253, 275, 284, 290
-0.998395, 357, 199, 388, 214
-0.998395, 209, 61, 240, 76
-0.998396, 313, 57, 344, 72
-0.998396, 249, 61, 280, 76
-0.998397, 301, 261, 332, 276
-0.998397, 29, 37, 60, 52
-0.998397, 313, 267, 344, 282
-0.998397, 285, 157, 316, 172
-0.998398, 197, 5, 228, 20
-0.998398, 105, 299, 136, 314
-0.998399, 309, 1, 340, 16
-0.998399, 265, 147, 296, 162
-0.998401, 93, 49, 124, 64
-0.998401, 433, 53, 464, 68
-0.998402, 381, 153, 412, 168
-0.998403, 329, 57, 360, 72
-0.998403, 465, 51, 496, 66
-0.998403, 165, 3, 196, 18
-0.998404, 261, 185, 292, 200
-0.998406, 189, 161, 220, 176
-0.998406, 169, 41, 200, 56
-0.998406, 281, 59, 312, 74
-0.998406, 353, 345, 480, 375
-0.998408, 13, 63, 44, 78
-0.99841, 429, 255, 460, 270
-0.99841, 237, 61, 268, 76
-0.998411, 57, 45, 88, 60
-0.998411, 285, 149, 316, 164
-0.998411, 209, 157, 272, 172
-0.998412, 385, 263, 416, 278
-0.998413, 453, 51, 484, 66
-0.998413, 49, 157, 176, 188
-0.998415, 329, 1, 360, 16
-0.998415, 165, 241, 196, 256
-0.998415, 381, 161, 412, 176
-0.998417, 241, 153, 304, 168
-0.998419, 413, 257, 444, 272
-0.998419, 153, 31, 184, 46
-0.99842, 397, 261, 428, 276
-0.99842, 133, 51, 164, 66
-0.99842, 49, 61, 80, 76
-0.998421, 221, 279, 252, 294
-0.998423, 193, 63, 224, 78
-0.998424, 237, 155, 268, 170
-0.99843, 225, 181, 256, 196
-0.998431, 213, 155, 244, 170
-0.998433, 341, 175, 372, 190
-0.998433, 213, 167, 244, 182
-0.998435, 89, 35, 120, 50
-0.998437, 377, 167, 408, 182
-0.998437, 217, 247, 248, 262
-0.998439, 385, 55, 416, 70
-0.99844, 209, 147, 272, 162
-0.998443, 181, 31, 212, 46
-0.99845, 241, 277, 272, 292
-0.99845, 25, 45, 88, 60
-0.998451, 225, 153, 256, 168
-0.998454, 297, 241, 328, 256
-0.998455, 217, 169, 280, 184
-0.998455, 289, 115, 320, 130
-0.998456, 137, 43, 168, 58
-0.998459, 293, 109, 324, 124
-0.998459, 213, 145, 244, 160
-0.998461, 369, 179, 400, 194
-0.998461, 169, 57, 200, 72
-0.998461, 201, 185, 264, 200
-0.998463, 129, 345, 256, 375
-0.998463, 153, 49, 184, 64
-0.998464, 229, 145, 260, 160
-0.998465, 9, 49, 40, 64
-0.998465, 121, 51, 152, 66
-0.998466, 345, 165, 408, 180
-0.998466, 241, 161, 304, 176
-0.998467, 49, 45, 112, 60
-0.998467, 65, 129, 192, 160
-0.998467, 353, 161, 384, 176
-0.998468, 197, 187, 228, 202
-0.99847, 201, 157, 232, 172
-0.998472, 217, 5, 248, 20
-0.998474, 229, 5, 260, 20
-0.998476, 333, 265, 364, 280
-0.998479, 369, 153, 400, 168
-0.998481, 221, 187, 252, 202
-0.998481, 217, 163, 280, 178
-0.998481, 273, 159, 304, 174
-0.998481, 1, 55, 64, 70
-0.998481, 201, 177, 232, 192
-0.998484, 25, 53, 88, 68
-0.998486, 153, 1, 184, 16
-0.998486, 225, 305, 352, 336
-0.998487, 297, 99, 328, 114
-0.998491, 193, 179, 256, 194
-0.998491, 249, 157, 280, 172
-0.998492, 1, 55, 32, 70
-0.998493, 221, 173, 252, 188
-0.998495, 261, 169, 292, 184
-0.998496, 57, 53, 88, 68
-0.998503, 57, 37, 88, 52
-0.998504, 105, 43, 136, 58
-0.998508, 17, 337, 144, 368
-0.99851, 77, 45, 108, 60
-0.998512, 241, 167, 304, 182
-0.998515, 73, 45, 136, 60
-0.998515, 197, 193, 228, 208
-0.998516, 1, 81, 128, 144
-0.998519, 185, 151, 248, 166
-0.998523, 89, 51, 152, 66
-0.998523, 121, 35, 152, 50
-0.998526, 193, 193, 256, 208
-0.998529, 249, 151, 280, 166
-0.998529, 1, 49, 64, 64
-0.998531, 41, 45, 72, 60
-0.998533, 345, 159, 408, 174
-0.998533, 237, 183, 268, 198
-0.998533, 121, 49, 184, 64
-0.998535, 201, 151, 232, 166
-0.998535, 177, 157, 240, 172
-0.998536, 345, 177, 408, 192
-0.998537, 321, 169, 384, 184
-0.998541, 201, 167, 232, 182
-0.998541, 233, 179, 296, 194
-0.998541, 241, 169, 272, 184
-0.998542, 57, 53, 120, 68
-0.998544, 129, 33, 192, 48
-0.998544, 97, 43, 160, 58
-0.998545, 365, 165, 396, 180
-0.998545, 245, 177, 276, 192
-0.998545, 57, 37, 120, 52
-0.998552, 217, 5, 280, 20
-0.998552, 329, 265, 392, 280
-0.998554, 345, 143, 408, 158
-0.998555, 9, 305, 72, 320
-0.998557, 305, 1, 368, 16
-0.998561, 201, 279, 264, 294
-0.998566, 145, 57, 208, 72
-0.998568, 385, 259, 448, 274
-0.998569, 209, 205, 336, 236
-0.99857, 241, 275, 304, 290
-0.998571, 1, 37, 64, 52
-0.998572, 401, 51, 464, 66
-0.998574, 241, 147, 304, 162
-0.998575, 361, 55, 424, 70
-0.998576, 353, 179, 384, 194
-0.998576, 281, 125, 344, 140
-0.998578, 241, 333, 368, 364
-0.998579, 353, 167, 384, 182
-0.99858, 425, 51, 488, 66
-0.998581, 217, 61, 280, 76
-0.998581, 289, 243, 352, 258
-0.998582, 81, 35, 144, 50
-0.998584, 161, 7, 224, 22
-0.998585, 233, 185, 296, 200
-0.998587, 425, 255, 488, 270
-0.998588, 361, 259, 424, 274
-0.998588, 249, 1, 312, 16
-0.998588, 237, 161, 268, 176
-0.998588, 305, 265, 368, 280
-0.998588, 29, 55, 60, 70
-0.998589, 217, 247, 280, 262
-0.998589, 269, 153, 300, 168
-0.99859, 281, 57, 344, 72
-0.998591, 33, 307, 96, 322
-0.998592, 213, 161, 244, 176
-0.998592, 145, 39, 208, 54
-0.998594, 305, 57, 368, 72
-0.998594, 281, 267, 344, 282
-0.998594, 57, 301, 120, 316
-0.998594, 217, 141, 280, 156
-0.998596, 209, 185, 240, 200
-0.998599, 369, 173, 400, 188
-0.998599, 265, 243, 328, 258
-0.9986, 281, 115, 344, 130
-0.9986, 105, 33, 168, 48
-0.9986, 169, 177, 232, 192
-0.998601, 357, 173, 388, 188
-0.998601, 321, 181, 384, 196
-0.998601, 249, 59, 312, 74
-0.998601, 161, 247, 224, 262
-0.998602, 161, 33, 224, 48
-0.998603, 121, 43, 184, 58
-0.998603, 281, 109, 344, 124
-0.998604, 177, 63, 240, 78
-0.998605, 289, 259, 352, 274
-0.998606, 289, 27, 352, 42
-0.998607, 177, 281, 240, 296
-0.998608, 265, 159, 328, 174
-0.998608, 169, 183, 232, 198
-0.998608, 241, 135, 304, 150
-0.998609, 345, 25, 408, 40
-0.998609, 281, 131, 344, 146
-0.998609, 177, 205, 240, 220
-0.998609, 345, 149, 408, 164
-0.998612, 169, 169, 232, 184
-0.998613, 241, 173, 304, 188
-0.998613, 81, 341, 208, 372
-0.998616, 1, 63, 64, 78
-0.998617, 329, 55, 392, 70
-0.998617, 25, 65, 88, 80
-0.998618, 321, 163, 384, 178
-0.99862, 1, 43, 64, 58
-0.99862, 321, 175, 384, 190
-0.998621, 113, 55, 176, 70
-0.998621, 145, 51, 208, 66
-0.998622, 185, 9, 248, 24
-0.998622, 169, 163, 232, 178
-0.998622, 177, 39, 240, 54
-0.998623, 153, 153, 216, 168
-0.998623, 129, 73, 256, 136
-0.998623, 369, 153, 432, 168
-0.998624, 281, 3, 344, 18
-0.998625, 225, 283, 288, 298
-0.998626, 273, 103, 336, 118
-0.998626, 409, 269, 472, 284
-0.998626, 313, 259, 376, 274
-0.998627, 177, 53, 240, 68
-0.998627, 161, 143, 224, 158
-0.998627, 337, 309, 400, 324
-0.998627, 33, 37, 96, 52
-0.998627, 161, 1, 224, 16
-0.998627, 385, 141, 448, 156
-0.998627, 253, 163, 284, 178
-0.998628, 25, 59, 88, 74
-0.998629, 137, 7, 200, 22
-0.99863, 297, 21, 360, 36
-0.998632, 265, 273, 328, 288
-0.998632, 89, 61, 152, 76
-0.998634, 361, 265, 424, 280
-0.998634, 229, 167, 260, 182
-0.998634, 337, 19, 400, 34
-0.998634, 49, 59, 112, 74
-0.998634, 169, 289, 232, 304
-0.998636, 377, 49, 440, 64
-0.998637, 313, 239, 376, 254
-0.998637, 129, 1, 192, 16
-0.998637, 145, 285, 208, 300
-0.998638, 65, 313, 192, 344
-0.998638, 417, 23, 480, 38
-0.998638, 169, 211, 232, 226
-0.998639, 161, 227, 224, 242
-0.998639, 377, 17, 440, 32
-0.998641, 329, 249, 392, 264
-0.998641, 97, 295, 160, 310
-0.998644, 365, 159, 396, 174
-0.998652, 49, 325, 176, 356
-0.998652, 145, 1, 176, 256
-0.998657, 289, 93, 416, 124
-0.998663, 257, 61, 384, 92
-0.998664, 225, 321, 352, 352
-0.998694, 305, 205, 432, 236
-0.998701, 97, 1, 128, 256
-0.998732, 129, 305, 256, 336
-0.998741, 201, 161, 216, 288
-0.998741, 41, 1, 72, 256
-0.998744, 417, 145, 480, 272
-0.998753, 363, 161, 378, 288
-0.998754, 65, 1, 96, 256
-0.998773, 113, 321, 240, 352
-0.998816, 239, 145, 254, 272
-0.998841, 229, 145, 244, 272
-0.998863, 223, 145, 238, 272
-0.998876, 115, 1, 130, 128
-0.998876, 197, 241, 212, 368
-0.998883, 377, 97, 408, 352
-0.998884, 17, 1, 32, 128
-0.998891, 51, 1, 66, 128
-0.998898, 203, 241, 218, 368
-0.998904, 109, 1, 140, 256
-0.998911, 143, 1, 158, 128
-0.998916, 209, 161, 224, 288
-0.998919, 369, 161, 384, 288
-0.998931, 191, 241, 206, 368
-0.998934, 193, 193, 208, 320
-0.998937, 83, 1, 98, 128
-0.998944, 23, 1, 38, 128
-0.998949, 177, 241, 192, 368
-0.99895, 209, 241, 224, 368
-0.998965, 175, 193, 190, 320
-0.998987, 301, 1, 316, 128
-0.998998, 357, 161, 372, 288
-0.999003, 77, 1, 92, 128
-0.999004, 69, 1, 84, 128
-0.999005, 53, 1, 84, 256
-0.999006, 185, 193, 200, 320
-0.999012, 3, 1, 18, 128
-0.99902, 347, 225, 362, 352
-0.99902, 215, 113, 230, 240
-0.999024, 131, 1, 146, 128
-0.999024, 223, 97, 238, 224
-0.999026, 91, 1, 106, 128
-0.999029, 233, 193, 248, 320
-0.999029, 121, 1, 152, 256
-0.999031, 37, 1, 52, 128
-0.999041, 315, 1, 330, 128
-0.999048, 11, 1, 26, 128
-0.99905, 97, 1, 112, 128
-0.999051, 57, 1, 72, 128
-0.999055, 245, 145, 260, 272
-0.999055, 473, 1, 488, 128
-0.99906, 45, 1, 60, 128
-0.999061, 103, 1, 118, 128
-0.999061, 353, 209, 368, 336
-0.999069, 109, 1, 124, 128
-0.99907, 323, 1, 338, 128
-0.999071, 359, 209, 374, 336
-0.999077, 215, 225, 230, 352
-0.999084, 307, 97, 322, 224
-0.999088, 171, 241, 186, 368
-0.999096, 335, 225, 350, 352
-0.999101, 121, 1, 136, 128
-0.999107, 31, 1, 46, 128
-0.999107, 63, 1, 78, 128
-0.999111, 185, 241, 200, 368
-0.999113, 201, 113, 216, 240
-0.999113, 209, 113, 224, 240
-0.999122, 309, 17, 324, 144
-0.999122, 133, 1, 164, 256
-0.999123, 85, 1, 116, 256
-0.999125, 253, 145, 268, 272
-0.999127, 137, 1, 152, 128
-0.999128, 329, 241, 344, 368
-0.999134, 223, 1, 238, 128
-0.99916, 295, 33, 310, 160
-0.999167, 199, 1, 214, 128
-0.99918, 319, 225, 334, 352
-0.999195, 231, 1, 246, 128
-0.999198, 149, 97, 180, 352
-0.999204, 227, 225, 242, 352
-0.999205, 341, 225, 356, 352
-0.999205, 477, 241, 492, 368
-0.999207, 261, 145, 276, 272
-0.999207, 391, 1, 406, 128
-0.999216, 259, 1, 274, 128
-0.999217, 287, 97, 302, 224
-0.999217, 61, 129, 92, 375
-0.999219, 193, 113, 208, 240
-0.99922, 483, 241, 498, 368
-0.999225, 277, 113, 292, 240
-0.999227, 265, 1, 280, 128
-0.999227, 311, 241, 326, 368
-0.999231, 315, 49, 330, 176
-0.999232, 365, 209, 380, 336
-0.999233, 215, 161, 230, 288
-0.999234, 161, 97, 192, 352
-0.999237, 293, 97, 308, 224
-0.999242, 361, 1, 376, 128
-0.999244, 363, 113, 378, 240
-0.999244, 467, 17, 482, 144
-0.99925, 165, 225, 180, 352
-0.999252, 239, 193, 254, 320
-0.999261, 375, 161, 390, 288
-0.999263, 153, 1, 168, 128
-0.999265, 193, 17, 208, 144
-0.999266, 239, 241, 254, 368
-0.99927, 245, 225, 260, 352
-0.999271, 271, 113, 286, 240
-0.999281, 479, 1, 494, 128
-0.999283, 187, 1, 202, 128
-0.999286, 257, 193, 272, 320
-0.999291, 369, 113, 384, 240
-0.999292, 329, 1, 344, 128
-0.999293, 445, 1, 460, 128
-0.999297, 165, 1, 180, 128
-0.999297, 303, 49, 318, 176
-0.999298, 389, 129, 420, 375
-0.999303, 247, 97, 262, 224
-0.999304, 397, 1, 412, 128
-0.999311, 235, 97, 250, 224
-0.999314, 455, 241, 470, 368
-0.99932, 371, 209, 386, 336
-0.999324, 205, 1, 220, 128
-0.999327, 283, 145, 298, 272
-0.999328, 175, 1, 190, 128
-0.999331, 289, 1, 304, 128
-0.999332, 421, 1, 436, 128
-0.999334, 425, 241, 440, 368
-0.999335, 347, 177, 362, 304
-0.999337, 283, 1, 298, 128
-0.999339, 221, 193, 236, 320
-0.999346, 301, 97, 316, 224
-0.999348, 469, 241, 484, 368
-0.999349, 229, 97, 244, 224
-0.999356, 255, 241, 270, 368
-0.999356, 245, 1, 260, 128
-0.999362, 251, 1, 266, 128
-0.999363, 233, 241, 248, 368
-0.999375, 453, 17, 468, 144
-0.999376, 449, 241, 464, 368
-0.999376, 351, 129, 366, 256
-0.999377, 283, 49, 298, 176
-0.99938, 239, 1, 254, 128
-0.999384, 161, 81, 416, 144
-0.999385, 85, 129, 116, 375
-0.99939, 289, 49, 304, 176
-0.999396, 415, 1, 430, 128
-0.999397, 355, 1, 370, 128
-0.999397, 213, 1, 228, 128
-0.9994, 405, 1, 420, 128
-0.999535, 257, 201, 500, 264
-0.99955, 37, 129, 68, 375
-0.999554, 405, 129, 436, 375
-0.999568, 5, 129, 36, 375
-0.999586, 269, 165, 284, 180
-0.999587, 241, 5, 256, 20
-0.999588, 277, 185, 292, 200
-0.999588, 201, 63, 216, 78
-0.999588, 453, 51, 468, 66
-0.999588, 305, 271, 320, 286
-0.999588, 331, 57, 346, 72
-0.999589, 223, 131, 238, 146
-0.999589, 73, 53, 88, 68
-0.999589, 195, 63, 210, 78
-0.99959, 9, 57, 24, 72
-0.99959, 325, 269, 340, 284
-0.99959, 289, 149, 304, 164
-0.99959, 197, 189, 212, 204
-0.999591, 241, 185, 256, 200
-0.999591, 223, 7, 238, 22
-0.999591, 305, 111, 320, 126
-0.999592, 281, 273, 296, 288
-0.999592, 391, 259, 406, 274
-0.999592, 249, 277, 264, 292
-0.999593, 233, 143, 248, 158
-0.999593, 225, 171, 240, 186
-0.999594, 325, 1, 340, 16
-0.999594, 55, 45, 70, 60
-0.999595, 301, 95, 316, 110
-0.999596, 41, 55, 56, 70
-0.999596, 377, 163, 392, 178
-0.999596, 227, 187, 242, 202
-0.999597, 469, 51, 484, 66
-0.999598, 389, 55, 404, 70
-0.999598, 271, 275, 286, 290
-0.999599, 317, 107, 332, 122
-0.999599, 135, 51, 150, 66
-0.9996, 225, 139, 240, 154
-0.999601, 285, 161, 300, 176
-0.999601, 257, 277, 272, 292
-0.999601, 397, 55, 412, 70
-0.999602, 303, 239, 318, 254
-0.999602, 255, 61, 270, 76
-0.999604, 21, 61, 36, 76
-0.999605, 115, 35, 130, 50
-0.999605, 251, 183, 266, 198
-0.999606, 347, 263, 362, 278
-0.999608, 221, 219, 236, 234
-0.999609, 299, 109, 314, 124
-0.999609, 253, 175, 268, 190
-0.999609, 283, 149, 298, 164
-0.999609, 403, 259, 418, 274
-0.999609, 263, 151, 278, 166
-0.99961, 175, 55, 190, 70
-0.99961, 211, 179, 226, 194
-0.99961, 357, 181, 372, 196
-0.99961, 123, 35, 138, 50
-0.999611, 397, 261, 412, 276
-0.999611, 227, 211, 242, 226
-0.999612, 289, 155, 304, 170
-0.999612, 175, 33, 190, 48
-0.999613, 341, 265, 356, 280
-0.999613, 277, 165, 292, 180
-0.999614, 351, 181, 366, 196
-0.999616, 31, 55, 46, 70
-0.999616, 183, 31, 198, 46
-0.999617, 215, 185, 230, 200
-0.999617, 263, 157, 278, 172
-0.999622, 221, 247, 236, 262
-0.999623, 255, 189, 270, 204
-0.999623, 357, 161, 372, 176
-0.999623, 59, 37, 74, 52
-0.999624, 231, 167, 246, 182
-0.999624, 273, 159, 288, 174
-0.999625, 353, 169, 368, 184
-0.999625, 177, 1, 192, 16
-0.999626, 259, 179, 274, 194
-0.999626, 83, 37, 98, 52
-0.999626, 209, 191, 224, 206
-0.999626, 65, 47, 80, 62
-0.999627, 229, 3, 244, 18
-0.999629, 339, 1, 354, 16
-0.999629, 363, 159, 378, 174
-0.999629, 197, 197, 212, 212
-0.99963, 217, 159, 232, 174
-0.999633, 391, 155, 406, 170
-0.999634, 383, 149, 398, 164
-0.999635, 51, 39, 66, 54
-0.999635, 277, 151, 292, 166
-0.999636, 389, 143, 404, 158
-0.999637, 211, 165, 226, 180
-0.999638, 241, 159, 256, 174
-0.999639, 217, 149, 232, 164
-0.99964, 205, 159, 220, 174
-0.999644, 309, 241, 324, 256
-0.999644, 203, 173, 218, 188
-0.999645, 203, 181, 218, 196
-0.999649, 73, 129, 104, 375
-0.999649, 211, 151, 226, 166
-0.999653, 247, 159, 262, 174
-0.999655, 251, 151, 266, 166
-0.999658, 233, 161, 248, 176
-0.999661, 303, 101, 318, 116
-0.999662, 221, 185, 236, 200
-0.999663, 235, 187, 250, 202
-0.999665, 469, 97, 500, 352
-0.999671, 245, 177, 260, 192
-0.999671, 311, 99, 326, 114
-0.999672, 235, 5, 250, 20
-0.999674, 237, 169, 252, 184
-0.999676, 257, 167, 272, 182
-0.999677, 359, 173, 374, 188
-0.999677, 227, 145, 242, 160
-0.999678, 311, 107, 326, 122
-0.999678, 383, 167, 398, 182
-0.999685, 257, 155, 272, 170
-0.999689, 223, 155, 238, 170
-0.999689, 381, 155, 396, 170
-0.999692, 363, 179, 378, 194
-0.999695, 203, 193, 218, 208
-0.999696, 17, 185, 144, 248
-0.999697, 371, 173, 386, 188
-0.999697, 167, 1, 182, 16
-0.999698, 3, 55, 18, 70
-0.999709, 263, 163, 278, 178
-0.999717, 369, 161, 384, 176
-0.99972, 417, 129, 448, 375
-0.999721, 203, 187, 218, 202
-0.999724, 361, 167, 376, 182
-0.999724, 283, 155, 298, 170
-0.999725, 353, 175, 368, 190
-0.999728, 247, 171, 262, 186
-0.999744, 209, 185, 224, 200
-0.99975, 377, 169, 392, 184
-0.999751, 385, 161, 400, 176
-0.999776, 247, 165, 262, 180
-0.999777, 375, 157, 390, 172
-0.999807, 253, 161, 268, 176
-0.999821, 337, 73, 464, 136
-0.99984, 113, 129, 144, 375
-0.999892, 429, 129, 460, 375
-0.999931, 257, 81, 500, 144
-0.999941, 97, 129, 128, 375
-0.99995, 21, 129, 52, 375
-0.999954, 49, 129, 80, 375
-1, 133, 97, 164, 352
-1.00007, 457, 97, 488, 352
-1.00009, 441, 97, 472, 352
-1.0001, 49, 81, 176, 144
-1.00045, 1, 105, 500, 168
-1.00052, 1, 241, 64, 368
-1.00052, 241, 73, 368, 136
-1.00074, 65, 81, 320, 144
-1.00151, 1, 249, 128, 312
-1.00161, 1, 225, 128, 288
-1.00196, 1, 73, 500, 136
-1.00912, 65, 193, 128, 320
