1878
-0.57907, 1, 65, 500, 320
-0.635062, 1, 1, 500, 335
-0.756607, 1, 1, 256, 335
-0.807072, 225, 1, 480, 335
-0.813365, 129, 1, 384, 335
-0.876284, 1, 65, 256, 320
-0.930557, 17, 1, 144, 335
-0.930766, 1, 193, 500, 320
-0.939599, 161, 65, 416, 320
-0.943087, 1, 145, 500, 272
-0.945688, 353, 1, 480, 335
-0.947262, 97, 1, 224, 335
-0.94791, 257, 33, 500, 288
-0.948111, 305, 1, 432, 335
-0.949257, 1, 81, 500, 208
-0.950271, 177, 1, 304, 335
-0.951272, 81, 65, 208, 320
-0.952069, 1, 1, 500, 128
-0.953771, 225, 1, 352, 335
-0.955634, 1, 65, 128, 320
-0.960367, 129, 65, 256, 320
-0.9605, 369, 65, 496, 320
-0.962591, 305, 33, 432, 288
-0.963932, 193, 65, 320, 320
-0.965658, 33, 161, 288, 288
-0.973476, 161, 161, 416, 288
-0.974647, 1, 113, 256, 240
-0.976192, 33, 209, 288, 335
-0.976525, 257, 65, 384, 320
-0.977941, 257, 145, 500, 272
-0.978928, 1, 209, 128, 335
-0.979045, 161, 209, 416, 335
-0.981931, 97, 193, 224, 320
-0.983143, 177, 145, 304, 272
-0.985095, 161, 209, 288, 335
-0.98545, 97, 113, 352, 240
-0.986217, 49, 209, 112, 335
-0.986268, 65, 145, 192, 272
-0.987332, 225, 97, 480, 224
-0.987401, 1, 161, 128, 288
-0.987643, 49, 209, 176, 335
-0.987743, 113, 145, 240, 272
-0.988011, 209, 161, 272, 288
-0.988107, 337, 193, 464, 320
-0.988242, 81, 209, 144, 335
-0.988447, 1, 33, 256, 160
-0.988571, 33, 193, 96, 256
-0.988698, 257, 193, 500, 320
-0.988786, 73, 161, 136, 288
-0.98879, 33, 161, 96, 288
-0.989022, 33, 1, 160, 128
-0.989082, 177, 129, 240, 256
-0.989202, 65, 217, 128, 280
-0.989245, 33, 97, 160, 224
-0.989411, 225, 177, 352, 304
-0.989999, 209, 145, 272, 208
-0.990291, 113, 81, 240, 208
-0.990449, 33, 1, 96, 128
-0.99071, 185, 177, 248, 304
-0.990738, 201, 177, 264, 240
-0.990924, 1, 1, 64, 64
-0.990949, 233, 153, 296, 216
-0.990953, 9, 209, 72, 335
-0.99118, 41, 217, 104, 280
-0.991245, 153, 185, 216, 248
-0.99154, 177, 161, 304, 224
-0.991558, 257, 49, 500, 176
-0.991594, 1, 217, 128, 280
-0.99165, 257, 1, 500, 128
-0.991706, 185, 153, 248, 216
-0.991954, 369, 97, 496, 224
-0.991974, 1, 193, 128, 256
-0.992003, 49, 225, 176, 288
-0.992006, 193, 257, 256, 320
-0.992029, 225, 153, 352, 216
-0.992121, 113, 201, 240, 264
-0.992127, 9, 201, 72, 264
-0.99216, 1, 249, 128, 312
-0.992211, 65, 177, 192, 240
-0.992432, 209, 177, 272, 208
-0.992434, 401, 161, 464, 288
-0.992434, 137, 177, 200, 304
-0.99244, 161, 97, 288, 224
-0.992452, 177, 185, 304, 248
-0.992586, 33, 209, 96, 240
-0.992606, 33, 49, 160, 176
-0.992648, 57, 209, 120, 240
-0.992701, 433, 161, 496, 224
-0.992794, 161, 137, 288, 200
-0.992816, 225, 177, 288, 240
-0.992819, 97, 241, 160, 304
-0.992821, 113, 209, 176, 335
-0.99288, 33, 169, 96, 232
-0.992895, 233, 173, 296, 204
-0.992915, 33, 197, 96, 228
-0.992926, 185, 177, 248, 208
-0.992934, 81, 201, 144, 232
-0.993007, 97, 233, 224, 296
-0.993062, 193, 189, 256, 220
-0.993086, 9, 1, 72, 32
-0.99309, 209, 165, 272, 196
-0.993095, 169, 165, 232, 196
-0.993106, 65, 225, 128, 256
-0.993125, 9, 221, 72, 252
-0.993216, 97, 49, 352, 176
-0.993323, 33, 265, 96, 328
-0.993326, 17, 1, 144, 64
-0.993326, 9, 49, 72, 112
-0.993359, 153, 193, 216, 224
-0.993362, 89, 249, 152, 280
-0.993363, 161, 265, 288, 328
-0.993366, 97, 169, 160, 232
-0.993369, 57, 185, 120, 216
-0.993369, 17, 241, 80, 304
-0.993374, 209, 153, 272, 184
-0.993397, 73, 209, 104, 240
-0.993398, 221, 177, 252, 208
-0.993403, 25, 281, 88, 312
-0.993406, 33, 225, 96, 256
-0.993429, 193, 285, 256, 316
-0.99344, 153, 293, 216, 324
-0.993447, 65, 257, 128, 288
-0.99345, 233, 157, 296, 188
-0.993456, 33, 13, 96, 44
-0.993463, 89, 213, 152, 244
-0.993478, 9, 181, 72, 212
-0.993478, 185, 265, 248, 296
-0.993482, 177, 241, 240, 272
-0.993491, 209, 173, 240, 204
-0.993503, 1, 73, 64, 104
-0.993507, 217, 137, 280, 168
-0.993523, 217, 157, 248, 188
-0.993524, 49, 249, 176, 312
-0.993527, 73, 193, 136, 256
-0.993536, 33, 69, 96, 100
-0.993538, 457, 149, 488, 180
-0.993539, 33, 201, 64, 232
-0.993549, 233, 189, 296, 220
-0.993553, 233, 169, 264, 200
-0.993554, 193, 305, 256, 335
-0.993557, 433, 189, 496, 220
-0.993565, 9, 25, 72, 56
-0.993572, 97, 233, 160, 264
-0.993575, 105, 149, 168, 180
-0.993575, 33, 181, 96, 212
-0.993578, 393, 193, 456, 224
-0.993578, 41, 269, 104, 300
-0.993588, 129, 177, 256, 240
-0.993588, 49, 169, 112, 200
-0.993593, 9, 13, 72, 44
-0.993596, 85, 205, 116, 236
-0.993599, 9, 209, 72, 240
-0.993606, 97, 261, 160, 292
-0.993614, 33, 45, 96, 76
-0.993617, 9, 193, 72, 224
-0.993619, 1, 49, 64, 80
-0.993623, 45, 201, 76, 232
-0.993623, 85, 217, 116, 248
-0.99363, 57, 245, 120, 276
-0.993633, 305, 285, 368, 316
-0.993634, 57, 293, 88, 324
-0.993634, 469, 149, 500, 180
-0.99364, 229, 157, 260, 188
-0.99364, 153, 205, 216, 236
-0.993642, 177, 145, 240, 176
-0.993645, 217, 245, 280, 276
-0.993646, 65, 281, 128, 312
-0.993648, 257, 189, 320, 220
-0.99365, 89, 165, 152, 196
-0.993656, 137, 181, 200, 212
-0.993656, 49, 105, 112, 136
-0.993657, 61, 217, 92, 248
-0.993657, 197, 297, 228, 328
-0.993657, 165, 193, 196, 224
-0.993663, 225, 293, 288, 324
-0.993664, 89, 189, 120, 220
-0.993669, 101, 225, 132, 256
-0.993674, 329, 301, 392, 332
-0.993684, 433, 149, 496, 180
-0.99369, 33, 81, 96, 112
-0.99369, 177, 201, 240, 232
-0.99369, 145, 261, 208, 292
-0.993692, 21, 25, 52, 56
-0.993693, 425, 177, 488, 208
-0.993694, 229, 141, 260, 172
-0.993694, 25, 189, 56, 220
-0.993697, 213, 189, 244, 220
-0.993697, 209, 233, 272, 264
-0.9937, 17, 145, 80, 176
-0.993705, 161, 273, 224, 304
-0.993705, 213, 141, 244, 172
-0.993706, 97, 213, 128, 244
-0.993708, 193, 213, 256, 244
-0.993712, 445, 157, 476, 188
-0.993716, 61, 201, 92, 232
-0.993718, 17, 209, 48, 240
-0.993719, 49, 201, 176, 264
-0.99372, 457, 169, 488, 200
-0.993721, 25, 253, 88, 284
-0.993723, 33, 281, 64, 312
-0.993724, 121, 269, 184, 300
-0.993725, 25, 221, 56, 252
-0.993726, 49, 157, 112, 188
-0.993726, 37, 17, 68, 48
-0.993726, 65, 269, 128, 300
-0.993728, 25, 1, 56, 32
-0.993729, 361, 257, 424, 288
-0.99373, 73, 221, 104, 252
-0.993733, 1, 153, 128, 216
-0.993734, 153, 221, 216, 252
-0.993734, 197, 177, 228, 208
-0.993737, 33, 1, 96, 32
-0.993739, 81, 173, 112, 204
-0.993741, 129, 149, 192, 180
-0.993747, 97, 201, 128, 232
-0.993749, 193, 189, 224, 220
-0.993754, 29, 293, 60, 324
-0.993755, 137, 169, 200, 200
-0.993757, 169, 305, 232, 335
-0.993758, 113, 141, 144, 172
-0.99376, 105, 241, 136, 272
-0.993761, 93, 253, 124, 284
-0.993762, 249, 305, 312, 335
-0.993765, 61, 269, 92, 300
-0.993769, 241, 189, 272, 220
-0.993771, 245, 145, 276, 176
-0.993773, 401, 253, 464, 284
-0.993774, 49, 281, 80, 312
-0.993775, 209, 301, 240, 332
-0.993776, 137, 269, 168, 300
-0.993778, 37, 1, 68, 32
-0.993778, 1, 233, 64, 264
-0.993778, 217, 261, 280, 292
-0.993779, 49, 13, 80, 44
-0.993781, 17, 117, 80, 148
-0.993783, 33, 177, 64, 208
-0.993784, 213, 289, 244, 320
-0.993784, 181, 277, 212, 308
-0.993785, 21, 261, 52, 292
-0.993785, 9, 273, 40, 304
-0.993786, 457, 181, 488, 212
-0.993789, 53, 189, 84, 220
-0.993789, 229, 281, 260, 312
-0.99379, 81, 189, 144, 220
-0.993791, 361, 245, 424, 276
-0.993792, 245, 157, 276, 188
-0.993794, 401, 181, 464, 212
-0.993794, 337, 277, 400, 308
-0.993794, 73, 293, 136, 324
-0.993795, 461, 137, 492, 168
-0.993796, 261, 189, 292, 220
-0.993796, 185, 289, 216, 320
-0.993796, 445, 145, 476, 176
-0.993796, 121, 113, 184, 144
-0.993797, 225, 189, 256, 220
-0.993797, 261, 177, 292, 208
-0.993798, 73, 273, 104, 304
-0.9938, 469, 161, 500, 192
-0.9938, 97, 169, 128, 200
-0.9938, 201, 241, 232, 272
-0.993801, 121, 221, 152, 252
-0.993801, 73, 189, 104, 220
-0.993804, 245, 177, 276, 208
-0.993805, 133, 121, 164, 152
-0.993806, 125, 261, 156, 292
-0.993807, 105, 193, 168, 224
-0.993808, 401, 253, 432, 284
-0.993809, 41, 305, 72, 335
-0.993811, 245, 289, 276, 320
-0.993815, 41, 297, 104, 328
-0.993817, 45, 177, 76, 208
-0.993819, 177, 185, 208, 216
-0.993822, 185, 201, 216, 232
-0.993823, 25, 49, 56, 80
-0.993824, 153, 201, 184, 232
-0.993824, 165, 181, 196, 212
-0.993825, 113, 213, 176, 244
-0.993826, 49, 269, 80, 300
-0.993832, 113, 161, 144, 192
-0.993835, 145, 181, 176, 212
-0.993835, 265, 169, 328, 200
-0.993835, 33, 269, 64, 300
-0.993836, 321, 241, 384, 272
-0.993837, 97, 157, 128, 188
-0.993837, 45, 69, 76, 100
-0.993837, 169, 273, 200, 304
-0.993838, 225, 253, 256, 284
-0.993839, 9, 17, 40, 48
-0.993839, 13, 189, 44, 220
-0.993839, 45, 213, 76, 244
-0.99384, 41, 253, 72, 284
-0.99384, 353, 297, 384, 328
-0.99384, 161, 181, 224, 212
-0.99384, 17, 165, 80, 196
-0.993841, 21, 37, 52, 68
-0.993841, 65, 77, 128, 108
-0.993841, 1, 277, 64, 308
-0.993841, 81, 121, 208, 184
-0.993841, 17, 273, 144, 335
-0.993842, 341, 301, 372, 332
-0.993843, 41, 153, 72, 184
-0.993844, 273, 189, 304, 220
-0.993845, 345, 269, 376, 300
-0.993845, 265, 297, 296, 328
-0.993846, 445, 173, 476, 204
-0.993847, 445, 189, 476, 220
-0.993847, 197, 273, 228, 304
-0.993847, 69, 293, 100, 324
-0.993848, 213, 257, 244, 288
-0.993848, 41, 93, 104, 124
-0.993849, 197, 285, 228, 316
-0.99385, 217, 281, 280, 312
-0.993851, 49, 25, 112, 56
-0.993851, 1, 85, 64, 116
-0.993851, 369, 297, 432, 328
-0.993852, 61, 13, 92, 44
-0.993852, 345, 281, 376, 312
-0.993852, 109, 201, 140, 232
-0.993852, 149, 261, 180, 292
-0.993853, 65, 141, 128, 172
-0.993854, 37, 49, 68, 80
-0.993855, 117, 129, 148, 160
-0.993856, 185, 253, 248, 284
-0.993856, 57, 233, 88, 264
-0.993857, 337, 237, 368, 268
-0.993859, 129, 197, 192, 228
-0.993859, 41, 109, 72, 140
-0.99386, 41, 81, 72, 112
-0.99386, 333, 261, 364, 292
-0.993861, 1, 41, 32, 72
-0.993861, 273, 297, 336, 328
-0.993862, 65, 249, 96, 280
-0.993863, 185, 301, 216, 332
-0.993863, 121, 117, 152, 148
-0.993864, 93, 241, 124, 272
-0.993864, 105, 265, 136, 296
-0.993865, 205, 153, 236, 184
-0.993865, 145, 169, 176, 200
-0.993865, 397, 1, 428, 32
-0.993866, 77, 257, 108, 288
-0.993866, 13, 69, 44, 100
-0.993867, 41, 29, 72, 60
-0.993869, 305, 257, 368, 288
-0.993872, 9, 105, 72, 136
-0.993875, 273, 273, 336, 304
-0.993877, 177, 133, 240, 164
-0.993882, 249, 281, 312, 312
-0.993892, 25, 57, 88, 88
-0.993893, 97, 21, 160, 52
-0.993895, 1, 265, 64, 296
-0.993898, 137, 281, 200, 312
-0.9939, 409, 157, 472, 188
-0.993901, 97, 293, 160, 324
-0.993903, 345, 289, 408, 320
-0.993906, 137, 137, 200, 168
-0.993906, 257, 137, 320, 168
-0.993908, 17, 305, 80, 335
-0.99391, 113, 249, 176, 280
-0.993911, 393, 241, 456, 272
-0.993915, 273, 145, 400, 272
-0.993915, 57, 197, 120, 228
-0.993917, 393, 221, 456, 252
-0.993919, 225, 129, 352, 192
-0.993922, 273, 157, 336, 188
-0.993923, 145, 249, 208, 280
-0.993927, 33, 241, 96, 272
-0.993929, 105, 133, 168, 164
-0.993999, 113, 145, 240, 208
-0.994122, 353, 1, 480, 128
-0.994148, 169, 209, 232, 272
-0.994176, 9, 121, 72, 184
-0.994238, 17, 97, 144, 160
-0.994274, 209, 113, 272, 240
-0.994277, 17, 129, 144, 192
-0.994305, 1, 161, 64, 288
-0.994315, 401, 153, 464, 216
-0.994342, 177, 225, 304, 288
-0.994447, 113, 257, 240, 320
-0.994459, 49, 153, 176, 216
-0.99459, 385, 209, 448, 272
-0.994601, 25, 97, 88, 224
-0.99473, 33, 113, 96, 176
-0.994754, 73, 241, 136, 304
-0.994778, 369, 209, 496, 272
-0.994806, 129, 1, 384, 128
-0.994844, 145, 233, 208, 296
-0.994865, 17, 73, 80, 136
-0.994865, 9, 153, 72, 216
-0.99489, 177, 185, 240, 248
-0.994915, 193, 225, 256, 288
-0.99495, 225, 257, 352, 320
-0.995001, 129, 209, 192, 272
-0.995019, 97, 129, 160, 256
-0.995028, 233, 145, 296, 272
-0.995054, 169, 233, 232, 296
-0.995072, 353, 233, 480, 296
-0.995072, 57, 161, 120, 224
-0.995079, 105, 265, 168, 328
-0.995093, 225, 81, 352, 208
-0.995097, 41, 89, 104, 152
-0.995187, 33, 41, 96, 104
-0.995213, 225, 145, 256, 208
-0.995233, 1, 265, 64, 328
-0.995285, 353, 145, 480, 272
-0.995334, 337, 257, 464, 320
-0.995397, 97, 217, 160, 280
-0.995444, 233, 273, 296, 335
-0.995472, 89, 145, 152, 208
-0.995493, 97, 1, 160, 64
-0.99551, 49, 193, 80, 256
-0.995522, 73, 201, 104, 264
-0.99553, 81, 209, 112, 335
-0.995576, 401, 209, 464, 335
-0.995617, 237, 153, 268, 216
-0.995641, 433, 145, 496, 272
-0.995676, 377, 241, 440, 304
-0.995694, 337, 1, 464, 64
-0.995722, 265, 129, 328, 192
-0.995737, 161, 145, 224, 208
-0.995737, 1, 97, 64, 224
-0.995759, 273, 145, 400, 208
-0.995765, 97, 193, 160, 256
-0.995768, 65, 89, 192, 152
-0.99577, 289, 241, 416, 304
-0.995815, 129, 169, 192, 232
-0.995836, 137, 265, 200, 328
-0.995858, 9, 177, 72, 240
-0.995872, 9, 33, 72, 160
-0.995888, 17, 25, 144, 88
-0.995901, 353, 145, 480, 208
-0.995915, 225, 177, 352, 240
-0.995929, 257, 153, 320, 216
-0.995941, 225, 201, 352, 264
-0.995944, 433, 121, 496, 184
-0.995979, 65, 273, 128, 335
-0.996062, 233, 129, 296, 192
-0.996085, 33, 1, 96, 256
-0.996086, 257, 265, 320, 328
-0.996099, 225, 129, 352, 256
-0.996111, 121, 121, 184, 184
-0.996113, 17, 57, 144, 120
-0.996155, 233, 193, 296, 320
-0.996193, 65, 65, 192, 128
-0.996195, 273, 209, 400, 335
-0.996251, 297, 265, 360, 328
-0.996271, 305, 209, 432, 272
-0.996272, 33, 17, 96, 80
-0.996297, 353, 169, 480, 232
-0.996308, 33, 1, 96, 335
-0.996315, 337, 273, 400, 335
-0.996318, 233, 249, 296, 312
-0.996322, 145, 113, 272, 176
-0.996331, 9, 1, 72, 256
-0.996368, 33, 145, 96, 208
-0.996458, 209, 121, 272, 184
-0.996483, 273, 177, 400, 240
-0.996522, 305, 121, 432, 184
-0.996582, 137, 129, 200, 256
-0.996597, 201, 201, 264, 264
-0.996608, 213, 153, 244, 216
-0.996608, 37, 201, 68, 264
-0.996613, 213, 129, 244, 256
-0.996666, 289, 265, 416, 328
-0.996697, 61, 193, 92, 256
-0.996772, 65, 273, 192, 335
-0.996782, 345, 249, 408, 312
-0.996829, 41, 65, 104, 128
-0.996837, 209, 105, 336, 168
-0.996857, 377, 1, 440, 64
-0.996918, 409, 209, 472, 272
-0.996948, 89, 1, 152, 128
-0.996948, 113, 1, 176, 335
-0.996968, 417, 185, 480, 248
-0.996974, 65, 1, 192, 64
-0.996978, 121, 81, 184, 208
-0.996993, 313, 145, 376, 208
-0.997022, 85, 201, 116, 264
-0.997034, 377, 161, 440, 288
-0.997084, 129, 1, 256, 128
-0.997107, 65, 73, 128, 136
-0.997107, 313, 241, 376, 304
-0.997111, 25, 193, 56, 320
-0.997115, 369, 113, 496, 176
-0.997147, 57, 137, 120, 200
-0.997174, 1, 145, 500, 208
-0.997187, 9, 1, 72, 335
-0.997195, 209, 1, 272, 335
-0.997221, 49, 241, 112, 304
-0.99723, 49, 81, 112, 208
-0.997237, 121, 161, 152, 288
-0.997246, 81, 1, 208, 128
-0.997246, 225, 225, 352, 288
-0.997252, 85, 177, 116, 240
-0.997261, 33, 217, 288, 280
-0.997314, 81, 25, 144, 88
-0.997356, 353, 81, 480, 144
-0.997361, 273, 185, 336, 248
-0.997369, 1, 177, 256, 240
-0.997369, 265, 1, 328, 335
-0.997382, 361, 217, 424, 280
-0.997443, 1, 129, 256, 192
-0.997474, 369, 49, 496, 176
-0.997502, 89, 1, 152, 335
-0.997505, 225, 169, 256, 232
-0.997517, 161, 193, 224, 320
-0.997518, 385, 185, 448, 248
-0.997553, 129, 81, 256, 144
-0.997573, 93, 209, 124, 335
-0.997593, 249, 185, 312, 248
-0.997608, 337, 25, 464, 88
-0.997636, 169, 121, 232, 184
-0.997644, 97, 137, 352, 200
-0.997657, 89, 97, 152, 160
-0.997677, 1, 265, 500, 328
-0.997684, 65, 193, 96, 320
-0.997725, 353, 1, 416, 335
-0.997731, 105, 209, 136, 335
-0.997748, 161, 265, 416, 328
-0.997751, 65, 33, 192, 96
-0.997772, 129, 145, 192, 208
-0.997775, 57, 1, 120, 64
-0.997796, 97, 193, 352, 256
-0.997797, 161, 1, 224, 335
-0.997817, 193, 145, 448, 208
-0.997839, 217, 225, 280, 288
-0.997857, 377, 1, 440, 335
-0.997896, 33, 241, 288, 304
-0.997904, 81, 161, 112, 288
-0.997955, 221, 177, 252, 304
-0.997993, 1, 213, 128, 244
-0.997999, 305, 97, 432, 224
-0.998, 101, 161, 132, 288
-0.998004, 233, 161, 264, 288
-0.998006, 161, 189, 288, 220
-0.99804, 1, 201, 500, 264
-0.99806, 9, 257, 40, 320
-0.998071, 337, 217, 400, 280
-0.998079, 1, 265, 256, 328
-0.99808, 239, 153, 254, 216
-0.998111, 161, 217, 416, 280
-0.99812, 205, 177, 236, 240
-0.998121, 97, 169, 352, 232
-0.998146, 161, 177, 288, 208
-0.998162, 433, 1, 496, 335
-0.998164, 215, 145, 230, 208
-0.998166, 249, 137, 280, 200
-0.998182, 321, 1, 384, 335
-0.998194, 53, 227, 84, 242
-0.998194, 401, 233, 432, 248
-0.998195, 433, 215, 464, 230
-0.998195, 29, 293, 60, 308
-0.998195, 173, 211, 204, 226
-0.998195, 1, 151, 32, 166
-0.998196, 249, 151, 280, 166
-0.998196, 33, 83, 64, 98
-0.998196, 61, 193, 92, 208
-0.998197, 337, 287, 368, 302
-0.998197, 65, 263, 96, 278
-0.998197, 121, 217, 152, 232
-0.998197, 385, 241, 416, 256
-0.998197, 25, 59, 56, 74
-0.998197, 25, 319, 56, 334
-0.998197, 177, 219, 208, 234
-0.998197, 121, 235, 152, 250
-0.998197, 137, 223, 168, 238
-0.998197, 161, 225, 192, 240
-0.998198, 185, 203, 216, 218
-0.998198, 5, 321, 36, 335
-0.998198, 41, 313, 72, 328
-0.998198, 45, 23, 76, 38
-0.998198, 25, 73, 56, 88
-0.998199, 109, 211, 140, 226
-0.998199, 181, 291, 212, 306
-0.998199, 49, 15, 80, 30
-0.998199, 33, 277, 64, 292
-0.998199, 149, 217, 180, 232
-0.9982, 13, 245, 44, 260
-0.9982, 237, 181, 268, 196
-0.9982, 225, 259, 256, 274
-0.9982, 97, 245, 128, 260
-0.9982, 201, 171, 232, 186
-0.9982, 61, 11, 92, 26
-0.998201, 197, 295, 228, 310
-0.998201, 13, 203, 44, 218
-0.998201, 73, 189, 104, 204
-0.998202, 401, 247, 432, 262
-0.998202, 69, 199, 100, 214
-0.998202, 53, 221, 84, 236
-0.998202, 25, 53, 56, 68
-0.998202, 33, 169, 64, 184
-0.998203, 21, 281, 52, 296
-0.998203, 201, 177, 232, 192
-0.998203, 205, 185, 236, 200
-0.998203, 125, 173, 156, 188
-0.998204, 109, 249, 140, 264
-0.998204, 253, 191, 284, 206
-0.998204, 453, 161, 484, 176
-0.998204, 213, 197, 244, 212
-0.998204, 421, 233, 452, 248
-0.998204, 105, 233, 136, 248
-0.998204, 177, 279, 208, 294
-0.998205, 57, 183, 88, 198
-0.998205, 97, 265, 128, 280
-0.998205, 469, 165, 500, 180
-0.998205, 13, 15, 44, 30
-0.998205, 241, 287, 272, 302
-0.998205, 9, 23, 40, 38
-0.998205, 97, 239, 128, 254
-0.998206, 193, 191, 224, 206
-0.998207, 233, 187, 264, 202
-0.998208, 449, 167, 480, 182
-0.998208, 37, 321, 68, 335
-0.998209, 125, 265, 156, 280
-0.998209, 13, 275, 44, 290
-0.998209, 97, 213, 128, 228
-0.99821, 93, 189, 124, 204
-0.99821, 205, 191, 236, 206
-0.998211, 237, 143, 268, 158
-0.998212, 93, 175, 124, 190
-0.998212, 45, 183, 76, 198
-0.998212, 49, 191, 80, 206
-0.998212, 57, 293, 88, 308
-0.998213, 177, 273, 208, 288
-0.998214, 29, 221, 60, 236
-0.998214, 341, 317, 372, 332
-0.998214, 57, 233, 88, 248
-0.998215, 33, 183, 64, 198
-0.998215, 209, 305, 240, 320
-0.998216, 165, 271, 196, 286
-0.998217, 217, 145, 248, 160
-0.998217, 213, 161, 244, 176
-0.998217, 81, 197, 112, 212
-0.998217, 93, 205, 124, 220
-0.998217, 145, 197, 176, 212
-0.998218, 225, 193, 256, 208
-0.998218, 17, 225, 48, 240
-0.998218, 41, 199, 72, 214
-0.998219, 153, 205, 184, 220
-0.998221, 117, 223, 148, 238
-0.998222, 237, 193, 268, 208
-0.998223, 49, 177, 80, 192
-0.998223, 101, 169, 132, 184
-0.998225, 77, 183, 108, 198
-0.998228, 17, 215, 48, 230
-0.998229, 145, 267, 176, 282
-0.998229, 21, 25, 52, 40
-0.998231, 461, 147, 492, 162
-0.998235, 85, 217, 116, 232
-0.998235, 29, 19, 60, 34
-0.998237, 233, 171, 264, 186
-0.998238, 33, 215, 64, 230
-0.998238, 71, 201, 86, 264
-0.99824, 165, 197, 196, 212
-0.99824, 469, 153, 500, 168
-0.99824, 353, 177, 416, 304
-0.998241, 193, 301, 224, 316
-0.998243, 33, 283, 64, 298
-0.998244, 45, 211, 76, 226
-0.998244, 217, 187, 248, 202
-0.998246, 225, 157, 256, 172
-0.99825, 57, 199, 88, 214
-0.998252, 13, 209, 44, 224
-0.998252, 95, 177, 110, 240
-0.998254, 33, 25, 64, 40
-0.998255, 85, 223, 116, 238
-0.998257, 9, 97, 72, 160
-0.998257, 25, 201, 56, 216
-0.998257, 101, 227, 132, 242
-0.998259, 73, 205, 104, 220
-0.99826, 281, 153, 344, 216
-0.998264, 97, 205, 224, 236
-0.998266, 25, 207, 56, 222
-0.998267, 225, 177, 256, 192
-0.998277, 457, 153, 488, 168
-0.998279, 97, 219, 128, 234
-0.99828, 41, 205, 72, 220
-0.998283, 73, 221, 104, 236
-0.998283, 227, 153, 242, 216
-0.998284, 213, 171, 244, 186
-0.998285, 213, 177, 244, 192
-0.99829, 61, 207, 92, 222
-0.998292, 81, 211, 112, 226
-0.998298, 79, 193, 94, 256
-0.998305, 37, 177, 68, 240
-0.998307, 57, 215, 88, 230
-0.998311, 193, 177, 448, 240
-0.998334, 113, 25, 240, 88
-0.998364, 69, 213, 100, 228
-0.998375, 273, 33, 400, 96
-0.998379, 57, 1, 120, 335
-0.998385, 457, 145, 488, 272
-0.998385, 113, 177, 240, 208
-0.998387, 205, 177, 236, 304
-0.998387, 217, 169, 232, 232
-0.998418, 1, 177, 500, 240
-0.99843, 177, 65, 240, 320
-0.998447, 209, 297, 336, 328
-0.99845, 101, 169, 116, 232
-0.998454, 65, 265, 192, 296
-0.998459, 409, 1, 472, 335
-0.998461, 193, 165, 320, 196
-0.998462, 449, 169, 480, 232
-0.998462, 33, 249, 64, 312
-0.998481, 237, 177, 252, 240
-0.998487, 89, 193, 104, 256
-0.99849, 485, 145, 500, 208
-0.99849, 257, 105, 384, 168
-0.998495, 245, 145, 260, 208
-0.998537, 257, 241, 500, 304
-0.99856, 401, 241, 464, 304
-0.998569, 177, 201, 304, 232
-0.998576, 49, 221, 176, 252
-0.998582, 97, 57, 160, 120
-0.998591, 17, 173, 144, 204
-0.998598, 161, 241, 416, 304
-0.998608, 161, 301, 288, 332
-0.998616, 469, 145, 500, 208
-0.998633, 113, 193, 240, 224
-0.998636, 103, 217, 118, 280
-0.998643, 33, 203, 96, 218
-0.998656, 33, 213, 96, 228
-0.998661, 145, 153, 272, 184
-0.998668, 233, 145, 248, 208
-0.998675, 353, 217, 480, 248
-0.998676, 65, 211, 128, 226
-0.998677, 113, 217, 240, 248
-0.998678, 409, 265, 472, 328
-0.998687, 241, 1, 304, 335
-0.998693, 65, 221, 128, 236
-0.998703, 1, 209, 64, 224
-0.998705, 251, 137, 266, 200
-0.998711, 91, 201, 106, 232
-0.998711, 221, 137, 236, 200
-0.998712, 185, 177, 248, 192
-0.998715, 129, 57, 256, 120
-0.998716, 83, 205, 98, 236
-0.998719, 1, 203, 64, 218
-0.998721, 65, 169, 96, 232
-0.998723, 33, 183, 96, 198
-0.998724, 217, 177, 280, 192
-0.998725, 73, 205, 136, 220
-0.998725, 41, 219, 104, 234
-0.998725, 225, 177, 352, 208
-0.998726, 227, 165, 242, 196
-0.99873, 257, 201, 500, 264
-0.99873, 457, 145, 472, 208
-0.998732, 209, 185, 272, 200
-0.998735, 225, 113, 256, 240
-0.998738, 113, 241, 240, 272
-0.998738, 229, 177, 244, 208
-0.998739, 73, 227, 136, 242
-0.998742, 217, 171, 280, 186
-0.998742, 37, 1, 68, 64
-0.998745, 17, 219, 80, 234
-0.998745, 185, 171, 248, 186
-0.998745, 209, 145, 272, 160
-0.998749, 353, 1, 416, 64
-0.998749, 49, 197, 112, 212
-0.99875, 169, 153, 232, 168
-0.998752, 33, 225, 96, 240
-0.998754, 41, 177, 104, 192
-0.998754, 33, 97, 96, 112
-0.998755, 177, 303, 240, 318
-0.998755, 185, 191, 248, 206
-0.998755, 233, 191, 296, 206
-0.998756, 25, 283, 88, 298
-0.998756, 97, 113, 352, 176
-0.998756, 89, 215, 152, 230
-0.998756, 1, 321, 64, 335
-0.998756, 1, 89, 64, 104
-0.998757, 433, 155, 496, 170
-0.998757, 1, 181, 64, 196
-0.998757, 73, 235, 136, 250
-0.998757, 153, 235, 216, 250
-0.998757, 1, 53, 64, 68
-0.998757, 193, 285, 320, 316
-0.998757, 433, 161, 496, 176
-0.998758, 153, 199, 216, 214
-0.998759, 153, 297, 216, 312
-0.99876, 153, 213, 216, 228
-0.998761, 17, 1, 80, 16
-0.998761, 1, 275, 64, 290
-0.998762, 185, 183, 248, 198
-0.998762, 57, 259, 120, 274
-0.998762, 105, 207, 168, 222
-0.998762, 97, 167, 160, 182
-0.998763, 49, 241, 112, 256
-0.998764, 33, 47, 96, 62
-0.998764, 113, 235, 176, 250
-0.998764, 33, 23, 96, 38
-0.998764, 57, 293, 120, 308
-0.998764, 89, 255, 152, 270
-0.998765, 57, 191, 120, 206
-0.998765, 57, 183, 120, 198
-0.998765, 73, 177, 136, 192
-0.998766, 129, 207, 192, 222
-0.998766, 69, 209, 84, 240
-0.998766, 33, 191, 96, 206
-0.998767, 177, 243, 240, 258
-0.998767, 137, 265, 200, 280
-0.998768, 1, 9, 64, 24
-0.998768, 129, 159, 192, 174
-0.998768, 17, 175, 80, 190
-0.998768, 97, 263, 160, 278
-0.998768, 153, 287, 216, 302
-0.998768, 9, 25, 72, 40
-0.998769, 169, 273, 232, 288
-0.998769, 73, 241, 136, 256
-0.998769, 113, 227, 176, 242
-0.99877, 33, 83, 96, 98
-0.99877, 41, 15, 104, 30
-0.99877, 17, 127, 80, 142
-0.998771, 57, 171, 120, 186
-0.998771, 353, 255, 416, 270
-0.998771, 81, 189, 144, 204
-0.998771, 297, 319, 360, 334
-0.998771, 361, 247, 424, 262
-0.998771, 177, 293, 240, 308
-0.998771, 209, 191, 272, 206
-0.998772, 1, 59, 64, 74
-0.998772, 313, 263, 376, 278
-0.998772, 1, 47, 64, 62
-0.998772, 9, 225, 72, 240
-0.998772, 81, 247, 144, 262
-0.998773, 113, 241, 176, 256
-0.998773, 1, 169, 64, 184
-0.998773, 385, 233, 448, 248
-0.998773, 33, 277, 96, 292
-0.998774, 113, 147, 176, 162
-0.998774, 41, 235, 104, 250
-0.998774, 129, 213, 192, 228
-0.998774, 217, 303, 280, 318
-0.998774, 73, 267, 136, 282
-0.998774, 77, 209, 92, 240
-0.998774, 209, 157, 272, 172
-0.998775, 41, 59, 104, 74
-0.998775, 249, 147, 312, 162
-0.998775, 25, 293, 88, 308
-0.998775, 17, 197, 80, 212
-0.998776, 225, 153, 352, 184
-0.998776, 249, 305, 312, 320
-0.998776, 129, 271, 192, 286
-0.998776, 193, 283, 256, 298
-0.998777, 217, 245, 280, 260
-0.998777, 81, 293, 144, 308
-0.998777, 33, 265, 96, 280
-0.998778, 153, 303, 216, 318
-0.998778, 209, 239, 272, 254
-0.998778, 169, 165, 232, 180
-0.998778, 329, 315, 392, 330
-0.998778, 161, 207, 224, 222
-0.998779, 393, 199, 456, 214
-0.998779, 9, 259, 72, 274
-0.99878, 17, 237, 80, 252
-0.99878, 385, 227, 448, 242
-0.99878, 241, 297, 304, 312
-0.99878, 185, 267, 248, 282
-0.99878, 1, 31, 64, 46
-0.99878, 137, 145, 200, 160
-0.99878, 33, 163, 96, 178
-0.998781, 169, 221, 232, 236
-0.998781, 1, 245, 64, 260
-0.998781, 217, 309, 280, 324
-0.998781, 217, 253, 280, 268
-0.998781, 273, 145, 336, 160
-0.998781, 225, 151, 288, 166
-0.998781, 137, 1, 200, 335
-0.998782, 185, 309, 248, 324
-0.998782, 193, 219, 256, 234
-0.998782, 217, 285, 280, 300
-0.998782, 233, 141, 296, 156
-0.998782, 345, 293, 408, 308
-0.998782, 25, 53, 88, 68
-0.998782, 1, 75, 64, 90
-0.998782, 257, 191, 320, 206
-0.998782, 329, 285, 392, 300
-0.998785, 49, 205, 176, 236
-0.998794, 65, 185, 80, 248
-0.998805, 193, 141, 320, 172
-0.998814, 161, 273, 288, 304
-0.998814, 33, 245, 160, 276
-0.998821, 247, 169, 262, 232
-0.998824, 17, 273, 144, 304
-0.998851, 477, 145, 492, 208
-0.998852, 145, 261, 272, 292
-0.998855, 41, 185, 56, 248
-0.998855, 257, 273, 500, 335
-0.998858, 235, 169, 250, 200
-0.998864, 49, 189, 176, 220
-0.998878, 49, 113, 176, 144
-0.998888, 95, 209, 110, 272
-0.998894, 1, 105, 500, 168
-0.998896, 239, 129, 254, 192
-0.998903, 33, 1, 48, 64
-0.998903, 23, 249, 38, 312
-0.998903, 145, 113, 208, 176
-0.998907, 145, 141, 272, 172
-0.998907, 215, 169, 230, 200
-0.998909, 1, 81, 256, 144
-0.998911, 221, 169, 236, 200
-0.998913, 65, 209, 80, 272
-0.998913, 5, 193, 36, 320
-0.998914, 289, 1, 416, 128
-0.998918, 85, 169, 100, 232
-0.998921, 1, 25, 64, 88
-0.998924, 213, 233, 244, 296
-0.998937, 1, 153, 256, 216
-0.998941, 273, 57, 400, 120
-0.998946, 31, 193, 46, 256
-0.998948, 97, 229, 224, 260
-0.998948, 17, 21, 144, 52
-0.99895, 243, 169, 258, 200
-0.998954, 33, 1, 160, 32
-0.998958, 177, 229, 304, 260
-0.998964, 305, 97, 432, 160
-0.998969, 1, 189, 128, 220
-0.998973, 337, 305, 464, 335
-0.998974, 145, 289, 272, 320
-0.998977, 451, 153, 466, 216
-0.99898, 17, 69, 144, 100
-0.998981, 219, 185, 234, 216
-0.998982, 53, 185, 68, 248
-0.998988, 267, 137, 282, 200
-0.998994, 257, 137, 272, 200
-0.998999, 1, 25, 256, 88
-0.999, 39, 113, 54, 176
-0.999007, 95, 213, 110, 244
-0.999011, 71, 197, 86, 228
-0.999013, 71, 225, 86, 288
-0.999016, 39, 201, 54, 232
-0.999019, 221, 157, 236, 188
-0.999019, 209, 185, 224, 248
-0.999024, 241, 281, 368, 312
-0.99903, 129, 165, 256, 196
-0.999031, 321, 249, 448, 280
-0.999034, 33, 141, 160, 172
-0.999034, 51, 89, 66, 152
-0.999037, 145, 257, 160, 320
-0.999039, 1, 105, 256, 168
-0.99904, 41, 209, 56, 272
-0.999042, 65, 113, 128, 176
-0.999046, 209, 253, 336, 284
-0.999049, 65, 197, 80, 228
-0.999052, 117, 129, 132, 192
-0.999055, 111, 153, 126, 216
-0.999058, 15, 249, 30, 312
-0.999059, 241, 157, 256, 188
-0.999064, 57, 41, 120, 104
-0.999065, 283, 161, 298, 224
-0.999072, 273, 293, 400, 324
-0.999072, 353, 49, 480, 112
-0.999073, 47, 193, 62, 256
-0.999073, 111, 193, 126, 256
-0.999076, 235, 181, 250, 212
-0.999077, 185, 1, 248, 335
-0.999077, 235, 157, 250, 188
-0.99908, 233, 97, 296, 224
-0.999082, 225, 105, 480, 168
-0.999083, 59, 169, 74, 232
-0.999084, 461, 149, 476, 180
-0.999084, 33, 21, 48, 52
-0.999093, 89, 65, 152, 320
-0.999096, 177, 193, 208, 256
-0.999097, 49, 161, 176, 192
-0.999097, 209, 145, 224, 208
-0.999098, 265, 161, 280, 224
-0.999101, 1, 261, 128, 292
-0.999101, 45, 1, 60, 64
-0.999101, 471, 153, 486, 216
-0.999104, 81, 285, 208, 316
-0.999107, 1, 125, 128, 156
-0.999107, 1, 241, 500, 304
-0.999111, 45, 201, 60, 232
-0.999113, 111, 225, 126, 288
-0.999125, 275, 145, 290, 208
-0.999125, 97, 185, 112, 216
-0.999126, 97, 133, 224, 164
-0.99913, 209, 189, 336, 220
-0.999132, 465, 153, 480, 216
-0.999135, 289, 121, 352, 184
-0.999138, 91, 189, 106, 220
-0.999142, 103, 201, 118, 232
-0.999143, 85, 233, 100, 296
-0.99915, 105, 249, 120, 312
-0.999152, 201, 273, 216, 335
-0.999153, 1, 201, 128, 232
-0.999155, 187, 193, 202, 256
-0.999157, 33, 233, 160, 264
-0.999158, 257, 265, 384, 296
-0.999161, 191, 249, 206, 312
-0.999163, 29, 201, 44, 232
-0.999164, 33, 273, 48, 335
-0.999164, 77, 197, 92, 228
-0.999171, 253, 177, 268, 240
-0.999171, 219, 233, 234, 296
-0.999172, 1, 57, 256, 120
-0.999173, 49, 113, 64, 176
-0.999177, 249, 265, 264, 328
-0.999177, 321, 261, 448, 292
-0.999179, 167, 197, 182, 228
-0.99918, 385, 113, 448, 240
-0.999187, 17, 1, 48, 64
-0.999189, 259, 161, 274, 224
-0.999192, 199, 201, 214, 264
-0.999193, 109, 213, 124, 244
-0.999194, 61, 213, 76, 244
-0.999195, 27, 1, 42, 64
-0.999195, 463, 173, 478, 204
-0.9992, 79, 169, 94, 232
-0.999201, 211, 225, 226, 288
-0.999205, 229, 153, 244, 184
-0.999206, 113, 301, 240, 332
-0.999207, 145, 265, 160, 296
-0.99921, 29, 105, 44, 168
-0.999211, 195, 197, 210, 228
-0.999211, 39, 21, 54, 52
-0.999212, 17, 57, 144, 88
-0.999216, 101, 129, 116, 192
-0.999218, 49, 17, 64, 48
-0.999219, 39, 213, 54, 244
-0.999219, 31, 217, 46, 280
-0.99922, 273, 1, 400, 64
-0.999221, 49, 185, 64, 216
-0.999222, 35, 25, 50, 88
-0.999222, 101, 193, 116, 256
-0.999223, 261, 185, 276, 248
-0.999224, 89, 217, 104, 248
-0.999225, 177, 213, 304, 244
-0.999225, 1, 1, 16, 64
-0.999227, 115, 149, 130, 180
-0.999228, 43, 25, 58, 88
-0.999234, 119, 233, 134, 296
-0.999238, 159, 177, 174, 240
-0.999238, 449, 185, 464, 248
-0.999247, 101, 1, 116, 64
-0.999248, 205, 297, 220, 328
-0.999249, 83, 189, 98, 220
-0.999253, 97, 241, 112, 304
-0.999255, 95, 153, 110, 216
-0.999259, 481, 121, 496, 184
-0.999264, 59, 201, 74, 232
-0.999265, 175, 185, 190, 248
-0.999265, 97, 169, 112, 200
-0.999265, 483, 149, 498, 180
-0.999269, 65, 177, 192, 208
-0.99927, 191, 273, 206, 335
-0.999271, 71, 169, 86, 232
-0.999272, 241, 141, 256, 172
-0.999273, 129, 1, 256, 64
-0.999274, 225, 141, 240, 172
-0.999274, 251, 157, 266, 188
-0.999275, 241, 165, 368, 196
-0.999276, 69, 221, 84, 252
-0.999277, 79, 217, 94, 280
-0.999277, 423, 225, 438, 288
-0.999278, 337, 129, 400, 192
-0.999285, 87, 177, 102, 208
-0.999285, 33, 281, 48, 312
-0.999285, 227, 129, 242, 192
-0.999286, 39, 1, 54, 64
-0.999286, 211, 301, 226, 332
-0.999288, 33, 101, 160, 132
-0.99929, 47, 173, 62, 204
-0.99929, 297, 1, 360, 335
-0.999293, 115, 265, 130, 328
-0.999294, 455, 157, 470, 188
-0.999296, 121, 97, 184, 160
-0.999298, 105, 157, 120, 188
-0.999299, 29, 5, 44, 36
-0.999299, 207, 189, 222, 220
-0.999301, 369, 205, 496, 236
-0.999302, 251, 145, 266, 176
-0.999302, 65, 69, 192, 100
-0.999302, 195, 289, 210, 320
-0.999304, 47, 169, 62, 232
-0.999305, 215, 157, 230, 188
-0.999307, 443, 145, 458, 208
-0.999308, 99, 225, 114, 256
-0.999308, 211, 237, 226, 268
-0.99931, 257, 305, 384, 335
-0.999311, 283, 129, 298, 192
-0.999311, 17, 85, 144, 116
-0.999311, 369, 141, 496, 172
-0.999313, 231, 141, 246, 172
-0.999314, 103, 213, 118, 244
-0.999316, 77, 269, 92, 300
-0.999316, 139, 261, 154, 292
-0.999316, 205, 249, 220, 312
-0.999318, 193, 185, 208, 216
-0.999319, 347, 257, 362, 320
-0.99932, 39, 185, 54, 216
-0.99932, 433, 217, 448, 280
-0.99932, 31, 213, 46, 244
-0.999322, 19, 273, 34, 335
-0.999323, 249, 177, 264, 208
-0.999323, 439, 201, 454, 264
-0.999325, 425, 225, 440, 256
-0.999326, 97, 217, 128, 280
-0.999328, 59, 269, 74, 300
-0.999328, 293, 137, 308, 200
-0.999329, 471, 149, 486, 180
-0.999329, 455, 177, 470, 240
-0.999329, 229, 249, 244, 312
-0.999329, 1, 33, 500, 96
-0.99933, 201, 201, 216, 232
-0.999332, 271, 177, 286, 240
-0.999335, 405, 217, 420, 280
-0.999335, 1, 249, 16, 312
-0.999336, 97, 153, 224, 184
-0.999338, 15, 137, 30, 200
-0.999338, 77, 265, 92, 328
-0.999341, 123, 137, 138, 200
-0.999342, 121, 209, 152, 335
-0.999344, 97, 201, 112, 232
-0.999344, 111, 225, 126, 256
-0.999346, 337, 289, 464, 320
-0.999346, 1, 1, 256, 64
-0.999346, 41, 89, 56, 152
-0.99935, 61, 257, 76, 320
-0.999352, 45, 1, 60, 32
-0.999355, 23, 249, 38, 280
-0.999355, 435, 213, 450, 244
-0.999356, 225, 225, 240, 288
-0.999356, 213, 193, 228, 224
-0.999356, 141, 217, 156, 248
-0.999359, 217, 141, 232, 172
-0.999359, 411, 217, 426, 280
-0.999361, 199, 301, 214, 332
-0.999364, 225, 201, 288, 264
-0.999365, 33, 45, 160, 76
-0.999365, 113, 273, 240, 304
-0.999365, 23, 217, 38, 248
-0.999365, 101, 245, 116, 276
-0.999366, 117, 137, 132, 168
-0.999368, 9, 161, 24, 224
-0.999371, 91, 233, 106, 296
-0.999373, 125, 141, 140, 172
-0.999373, 283, 157, 298, 188
-0.999376, 345, 261, 360, 292
-0.999378, 77, 1, 92, 64
-0.999378, 181, 169, 196, 232
-0.999378, 207, 177, 222, 208
-0.999379, 43, 53, 58, 84
-0.99938, 169, 153, 184, 216
-0.999381, 187, 277, 202, 308
-0.999382, 227, 189, 242, 220
-0.999386, 471, 165, 486, 196
-0.999386, 103, 173, 118, 204
-0.999386, 13, 221, 28, 252
-0.999387, 369, 1, 496, 32
-0.999389, 267, 177, 282, 208
-0.999389, 189, 297, 204, 328
-0.999389, 231, 177, 246, 240
-0.99939, 75, 221, 90, 252
-0.999392, 43, 49, 58, 112
-0.999393, 105, 33, 120, 96
-0.999393, 139, 265, 154, 328
-0.999394, 341, 285, 356, 316
-0.999396, 33, 129, 48, 192
-0.999399, 219, 193, 234, 256
-0.999399, 277, 157, 292, 188
-0.9994, 465, 161, 480, 192
-0.9994, 97, 257, 112, 288
-0.999402, 91, 261, 106, 292
-0.999402, 125, 1, 140, 64
-0.999402, 149, 233, 164, 296
-0.999403, 113, 161, 128, 192
-0.999404, 25, 21, 40, 52
-0.999406, 247, 289, 262, 320
-0.999407, 211, 249, 226, 312
-0.999408, 29, 189, 44, 220
-0.999408, 447, 177, 462, 208
-0.999408, 407, 257, 422, 288
-0.999409, 67, 269, 82, 300
-0.999409, 131, 125, 146, 156
-0.99941, 241, 249, 256, 312
-0.99941, 151, 209, 166, 272
-0.999411, 415, 241, 430, 272
-0.999412, 61, 177, 76, 208
-0.999412, 193, 277, 208, 308
-0.999412, 37, 105, 52, 136
-0.999413, 17, 33, 144, 64
-0.999413, 477, 149, 492, 180
-0.999413, 241, 189, 256, 220
-0.999414, 129, 121, 144, 184
-0.999414, 115, 1, 130, 64
-0.999415, 67, 289, 82, 320
-0.999416, 129, 109, 256, 140
-0.999417, 387, 217, 402, 280
-0.999417, 455, 185, 470, 216
-0.999418, 57, 1, 120, 256
-0.999419, 143, 117, 158, 148
-0.999419, 1, 157, 128, 188
-0.999421, 55, 5, 70, 36
-0.999424, 255, 177, 270, 208
-0.999424, 241, 301, 256, 332
-0.999424, 281, 301, 296, 332
-0.999424, 413, 253, 428, 284
-0.999424, 71, 185, 86, 216
-0.999425, 321, 273, 448, 304
-0.999427, 57, 177, 72, 192
-0.999427, 145, 259, 160, 274
-0.999427, 283, 159, 298, 174
-0.999427, 113, 157, 128, 172
-0.999428, 135, 209, 150, 240
-0.999428, 465, 181, 480, 196
-0.999428, 11, 321, 26, 335
-0.999428, 109, 149, 124, 164
-0.999428, 213, 189, 228, 204
-0.999428, 103, 265, 118, 280
-0.999428, 45, 29, 60, 44
-0.999429, 345, 263, 360, 278
-0.999429, 121, 221, 136, 236
-0.999429, 173, 193, 188, 208
-0.999429, 431, 225, 446, 256
-0.999429, 207, 191, 222, 206
-0.999429, 77, 221, 92, 236
-0.999429, 55, 187, 70, 202
-0.999429, 83, 199, 98, 214
-0.999429, 209, 197, 224, 212
-0.999429, 21, 209, 36, 224
-0.99943, 241, 143, 256, 158
-0.99943, 41, 123, 56, 138
-0.99943, 157, 217, 172, 232
-0.99943, 257, 305, 272, 335
-0.99943, 447, 161, 462, 176
-0.999431, 101, 255, 116, 270
-0.999431, 37, 221, 52, 236
-0.999431, 295, 143, 310, 158
-0.999432, 169, 257, 232, 320
-0.999432, 33, 289, 160, 320
-0.999432, 97, 169, 128, 232
-0.999432, 59, 285, 74, 300
-0.999432, 475, 145, 490, 160
-0.999432, 143, 219, 158, 234
-0.999433, 23, 25, 38, 40
-0.999433, 469, 163, 484, 178
-0.999433, 33, 319, 48, 334
-0.999433, 1, 65, 500, 128
-0.999433, 411, 251, 426, 266
-0.999433, 47, 187, 62, 202
-0.999434, 63, 233, 78, 248
-0.999434, 39, 53, 54, 68
-0.999434, 215, 303, 230, 318
-0.999434, 29, 63, 44, 78
-0.999434, 29, 25, 44, 40
-0.999434, 199, 203, 214, 218
-0.999435, 289, 145, 416, 176
-0.999435, 379, 249, 394, 264
-0.999435, 117, 137, 132, 152
-0.999435, 177, 151, 192, 166
-0.999436, 97, 215, 112, 230
-0.999436, 149, 221, 164, 236
-0.999436, 123, 149, 138, 164
-0.999437, 193, 293, 208, 308
-0.999437, 235, 185, 250, 200
-0.999437, 71, 191, 86, 206
-0.999438, 205, 295, 220, 310
-0.999438, 89, 195, 104, 210
-0.999439, 111, 215, 126, 230
-0.999439, 35, 205, 50, 220
-0.999439, 41, 59, 56, 74
-0.999439, 65, 193, 80, 208
-0.99944, 401, 237, 416, 252
-0.99944, 231, 157, 246, 172
-0.99944, 461, 169, 476, 184
-0.99944, 151, 267, 166, 282
-0.999441, 435, 223, 450, 238
-0.999441, 89, 181, 104, 196
-0.999441, 283, 143, 298, 158
-0.999443, 431, 229, 446, 244
-0.999443, 461, 149, 476, 164
-0.999444, 39, 185, 54, 200
-0.999445, 219, 187, 234, 202
-0.999445, 45, 23, 60, 38
-0.999446, 257, 307, 272, 322
-0.999446, 139, 265, 154, 280
-0.999446, 99, 169, 114, 184
-0.999447, 221, 155, 236, 170
-0.999447, 165, 197, 180, 212
-0.999447, 241, 173, 256, 188
-0.999448, 91, 201, 106, 216
-0.999448, 239, 191, 254, 206
-0.999449, 65, 219, 80, 234
-0.99945, 117, 227, 132, 242
-0.999451, 457, 155, 472, 170
-0.999451, 109, 163, 124, 178
-0.999451, 97, 189, 112, 204
-0.999452, 39, 319, 54, 334
-0.999453, 93, 175, 108, 190
-0.999454, 47, 199, 62, 214
-0.999454, 103, 209, 118, 224
-0.999454, 475, 155, 490, 170
-0.999454, 241, 157, 256, 172
-0.999455, 59, 213, 74, 228
-0.999455, 45, 181, 60, 196
-0.999456, 51, 177, 66, 192
-0.999456, 71, 219, 86, 234
-0.999457, 255, 319, 270, 334
-0.999457, 205, 301, 220, 316
-0.999458, 229, 191, 244, 206
-0.999458, 37, 23, 52, 38
-0.999459, 217, 179, 232, 194
-0.999461, 103, 217, 118, 232
-0.999461, 111, 229, 126, 244
-0.999463, 35, 281, 50, 296
-0.999463, 101, 223, 116, 238
-0.999464, 235, 173, 250, 188
-0.999465, 55, 201, 70, 216
-0.999466, 61, 203, 76, 218
-0.999467, 237, 179, 252, 194
-0.999467, 97, 253, 224, 284
-0.999467, 89, 221, 104, 236
-0.999468, 485, 153, 500, 168
-0.999469, 221, 161, 236, 176
-0.99947, 29, 217, 44, 232
-0.99947, 273, 253, 400, 284
-0.999471, 109, 221, 124, 236
-0.999472, 41, 199, 56, 214
-0.999473, 81, 101, 208, 132
-0.999475, 29, 209, 44, 224
-0.999476, 145, 265, 160, 280
-0.999478, 47, 205, 62, 220
-0.999478, 227, 183, 242, 198
-0.99948, 91, 211, 106, 226
-0.999483, 197, 129, 228, 256
-0.999484, 217, 171, 232, 186
-0.999486, 85, 205, 100, 220
-0.999486, 369, 169, 496, 200
-0.999486, 353, 237, 480, 268
-0.999487, 29, 203, 44, 218
-0.999487, 83, 217, 98, 232
-0.999489, 95, 221, 110, 236
-0.99949, 467, 149, 482, 164
-0.999492, 1, 1, 500, 64
-0.999497, 39, 211, 54, 226
-0.9995, 227, 171, 242, 186
-0.999502, 69, 207, 84, 222
-0.999504, 41, 205, 56, 220
-0.999505, 177, 241, 304, 272
-0.999511, 17, 177, 48, 240
-0.999515, 65, 213, 80, 228
-0.999524, 227, 177, 242, 192
-0.999528, 385, 129, 448, 192
-0.999531, 65, 17, 192, 48
-0.999531, 353, 25, 416, 88
-0.999532, 421, 217, 452, 280
-0.999534, 273, 177, 400, 208
-0.999536, 75, 207, 90, 222
-0.999546, 209, 265, 336, 296
-0.999546, 105, 1, 136, 64
-0.99955, 145, 125, 272, 156
-0.999553, 83, 211, 98, 226
-0.999563, 257, 189, 384, 220
-0.999565, 305, 225, 432, 256
-0.999565, 241, 241, 368, 272
-0.99957, 71, 213, 86, 228
-0.999572, 369, 157, 496, 188
-0.999575, 237, 177, 268, 240
-0.999584, 369, 129, 496, 160
-0.999585, 77, 213, 92, 228
-0.999589, 17, 225, 48, 288
-0.999591, 85, 193, 100, 320
-0.999595, 305, 161, 432, 192
-0.999596, 41, 1, 72, 128
-0.999597, 177, 49, 304, 176
-0.999598, 209, 209, 272, 335
-0.999608, 17, 137, 48, 200
-0.999614, 385, 273, 448, 335
-0.999616, 17, 305, 144, 335
-0.999619, 65, 89, 192, 120
-0.999623, 225, 273, 256, 335
-0.999623, 77, 193, 92, 320
-0.999632, 305, 237, 432, 268
-0.999632, 321, 201, 448, 232
-0.999636, 369, 13, 496, 44
-0.999641, 185, 209, 216, 335
-0.999654, 113, 241, 144, 304
-0.999654, 97, 121, 224, 152
-0.999665, 215, 161, 230, 288
-0.999671, 433, 193, 464, 256
-0.999674, 321, 1, 448, 32
-0.999677, 225, 213, 352, 244
-0.99968, 225, 129, 352, 160
-0.999691, 69, 193, 84, 320
-0.999692, 245, 145, 276, 272
-0.999696, 369, 181, 496, 212
-0.999698, 273, 49, 400, 176
-0.999707, 145, 129, 176, 256
-0.999718, 463, 145, 478, 272
-0.999722, 225, 201, 352, 232
-0.999722, 273, 201, 400, 232
-0.999728, 49, 125, 176, 156
-0.999731, 221, 177, 236, 304
-0.999732, 95, 161, 110, 288
-0.999735, 121, 129, 136, 256
-0.999735, 219, 113, 234, 240
-0.999753, 225, 65, 288, 320
-0.999754, 227, 145, 242, 272
-0.999755, 27, 193, 42, 320
-0.999766, 115, 129, 130, 256
-0.999769, 65, 57, 192, 88
-0.99977, 121, 209, 136, 335
-0.999772, 445, 145, 476, 272
-0.999776, 201, 153, 232, 216
-0.999776, 209, 161, 224, 288
-0.999783, 457, 161, 472, 288
-0.999785, 79, 145, 94, 272
-0.999785, 81, 45, 208, 76
-0.999787, 101, 209, 116, 335
-0.999789, 337, 25, 464, 56
-0.999789, 57, 1, 88, 128
-0.999789, 245, 145, 260, 272
-0.99979, 107, 209, 122, 335
-0.999794, 1, 113, 128, 144
-0.999795, 369, 69, 496, 100
-0.999795, 337, 117, 464, 148
-0.999804, 105, 161, 120, 288
-0.999805, 85, 145, 100, 272
-0.999807, 465, 97, 480, 224
-0.999809, 239, 113, 254, 240
-0.999811, 91, 209, 106, 335
-0.999817, 51, 209, 66, 335
-0.999818, 43, 1, 58, 128
-0.999824, 113, 209, 128, 335
-0.999824, 33, 17, 48, 144
-0.999826, 235, 177, 250, 304
-0.999828, 177, 145, 192, 272
-0.999829, 233, 113, 248, 240
-0.99983, 321, 13, 448, 44
-0.999835, 123, 1, 138, 128
-0.999837, 73, 145, 88, 272
-0.999837, 183, 129, 198, 256
-0.999838, 71, 1, 86, 128
-0.999839, 369, 193, 496, 224
-0.999841, 39, 97, 54, 224
-0.999842, 469, 145, 484, 272
-0.999842, 305, 133, 432, 164
-0.999843, 165, 161, 180, 288
-0.999844, 61, 1, 76, 128
-0.999847, 59, 193, 74, 320
-0.999849, 353, 85, 480, 116
-0.999852, 81, 33, 208, 64
-0.999852, 189, 177, 204, 304
-0.999853, 25, 201, 56, 264
-0.999854, 203, 209, 218, 335
-0.999856, 33, 209, 48, 335
-0.999859, 253, 113, 268, 240
-0.999865, 213, 113, 228, 240
-0.999867, 261, 145, 292, 208
-0.999871, 195, 193, 210, 320
-0.999871, 145, 97, 272, 128
-0.999871, 153, 145, 168, 272
-0.999872, 5, 161, 20, 288
-0.999883, 213, 209, 228, 335
-0.999884, 51, 1, 66, 128
-0.999884, 147, 81, 162, 208
-0.999885, 213, 65, 244, 320
-0.999887, 173, 209, 188, 335
-0.999887, 457, 113, 472, 240
-0.999887, 227, 193, 242, 320
-0.999888, 25, 41, 56, 104
-0.999889, 21, 193, 36, 320
-0.99989, 17, 1, 32, 128
-0.99989, 251, 161, 266, 288
-0.999891, 33, 161, 48, 288
-0.999892, 39, 209, 54, 335
-0.999893, 97, 1, 224, 32
-0.999894, 51, 161, 66, 288
-0.999896, 121, 233, 184, 296
-0.999898, 65, 225, 96, 288
-0.999899, 265, 161, 328, 288
-0.999899, 225, 97, 240, 224
-0.999899, 305, 213, 432, 244
-0.9999, 369, 261, 496, 292
-0.999901, 133, 177, 148, 304
-0.999902, 59, 145, 74, 272
-0.999902, 27, 49, 42, 176
-0.999903, 443, 161, 458, 288
-0.999903, 283, 161, 298, 288
-0.999904, 171, 129, 186, 256
-0.999905, 33, 113, 48, 240
-0.999906, 125, 81, 140, 208
-0.999906, 27, 1, 42, 128
-0.999912, 181, 193, 196, 320
-0.999914, 201, 161, 216, 288
-0.999914, 89, 1, 104, 128
-0.999914, 65, 129, 80, 256
-0.999915, 241, 141, 368, 172
-0.999916, 147, 209, 162, 335
-0.999916, 43, 49, 58, 176
-0.999918, 155, 65, 170, 192
-0.999918, 475, 129, 490, 256
-0.999919, 39, 161, 54, 288
-0.999923, 137, 113, 152, 240
-0.999924, 435, 177, 450, 304
-0.999925, 59, 81, 74, 208
-0.999926, 143, 129, 158, 256
-0.999926, 157, 193, 172, 320
-0.999926, 17, 145, 32, 272
-0.999927, 241, 265, 272, 328
-0.999928, 381, 161, 396, 288
-0.999929, 33, 65, 48, 192
-0.99993, 53, 161, 84, 288
-0.999932, 273, 153, 304, 216
-0.999932, 117, 1, 132, 128
-0.999932, 77, 1, 92, 128
-0.999932, 111, 81, 126, 208
-0.999934, 105, 113, 120, 240
-0.999936, 27, 129, 42, 256
-0.999937, 391, 161, 406, 288
-0.999937, 387, 1, 402, 128
-0.999938, 127, 161, 142, 288
-0.999938, 13, 193, 28, 320
-0.999942, 273, 33, 400, 64
-0.999942, 389, 209, 404, 335
-0.999943, 91, 113, 106, 240
-0.999943, 257, 193, 272, 320
-0.999944, 483, 161, 498, 288
-0.999945, 401, 177, 416, 304
-0.999947, 261, 145, 276, 272
-0.999948, 53, 49, 68, 176
-0.999949, 429, 209, 444, 335
-0.999954, 7, 113, 22, 240
-0.999954, 289, 145, 304, 272
-0.999954, 161, 113, 176, 240
-0.999955, 277, 145, 292, 272
-0.999955, 395, 209, 410, 335
-0.999956, 247, 97, 262, 224
-0.999957, 1, 1, 16, 128
-0.999959, 189, 129, 204, 256
-0.999959, 127, 209, 142, 335
-0.999959, 257, 49, 500, 112
-0.99996, 141, 65, 156, 192
-0.999963, 161, 169, 192, 232
-0.999963, 353, 101, 480, 132
-0.999963, 177, 113, 304, 144
-0.999964, 47, 113, 62, 240
-0.999964, 277, 193, 292, 320
-0.999964, 407, 209, 422, 335
-0.999965, 267, 193, 282, 320
-0.999968, 413, 161, 428, 288
-0.999969, 53, 97, 68, 224
-0.999969, 421, 209, 436, 335
-0.999969, 451, 177, 466, 304
-0.999969, 369, 249, 496, 280
-0.99997, 351, 209, 366, 335
-0.99997, 361, 161, 376, 288
-0.999971, 141, 209, 156, 335
-0.999973, 97, 113, 112, 240
-0.999973, 103, 1, 118, 128
-0.999975, 225, 249, 256, 312
-0.999976, 241, 225, 368, 256
-0.999976, 243, 193, 258, 320
-0.999976, 113, 57, 240, 88
-0.999979, 131, 1, 146, 128
-0.999979, 145, 85, 272, 116
-0.999979, 75, 81, 90, 208
-0.999986, 225, 101, 352, 132
-0.999995, 97, 89, 352, 152
-1, 321, 37, 448, 68
-1.00001, 321, 173, 448, 204
-1.00006, 201, 65, 264, 320
-1.00007, 57, 1, 88, 256
-1.00008, 177, 65, 304, 128
-1.00008, 445, 145, 476, 208
-1.00009, 101, 241, 132, 304
-1.00011, 37, 129, 68, 256
-1.00012, 165, 193, 196, 256
-1.00012, 77, 1, 108, 128
-1.00013, 41, 65, 72, 320
-1.00013, 57, 1, 120, 128
-1.00014, 49, 169, 80, 232
-1.00015, 429, 193, 460, 320
-1.00016, 149, 177, 180, 304
-1.00016, 97, 193, 128, 256
-1.00016, 381, 241, 412, 304
-1.00017, 89, 121, 152, 184
-1.00017, 173, 177, 204, 304
-1.00017, 313, 105, 376, 168
-1.00017, 5, 129, 36, 256
-1.00018, 1, 33, 32, 96
-1.00018, 161, 33, 288, 96
-1.00019, 257, 1, 500, 64
-1.00021, 261, 177, 292, 240
-1.00021, 197, 65, 228, 320
-1.00024, 113, 129, 144, 192
-1.00025, 193, 1, 320, 64
-1.00025, 113, 113, 144, 240
-1.00026, 225, 65, 256, 320
-1.00026, 97, 1, 352, 64
-1.00028, 237, 129, 268, 192
-1.00029, 173, 65, 204, 320
-1.00029, 137, 265, 168, 328
-1.00029, 225, 81, 480, 144
-1.00029, 137, 65, 200, 320
-1.00029, 121, 1, 184, 64
-1.0003, 145, 233, 176, 296
-1.00033, 225, 73, 352, 136
-1.00033, 289, 233, 352, 296
-1.00034, 17, 1, 48, 256
-1.00037, 141, 1, 172, 256
-1.00037, 69, 65, 100, 320
-1.00038, 85, 225, 116, 288
-1.00038, 161, 65, 192, 320
-1.00041, 193, 201, 224, 264
-1.00042, 225, 41, 352, 104
-1.00043, 121, 1, 152, 128
-1.00043, 257, 25, 500, 88
-1.00043, 81, 65, 112, 320
-1.00043, 397, 1, 428, 256
-1.00044, 385, 1, 416, 256
-1.00044, 181, 241, 212, 304
-1.00045, 101, 65, 132, 320
-1.00045, 201, 241, 232, 304
-1.00046, 129, 1, 160, 256
-1.00047, 121, 65, 184, 128
-1.0005, 161, 57, 416, 120
-1.00052, 113, 65, 144, 320
-1.00052, 257, 233, 320, 296
-1.00052, 25, 1, 56, 128
-1.00056, 97, 25, 352, 88
-1.00057, 245, 193, 276, 320
-1.00058, 185, 161, 216, 288
-1.00059, 5, 1, 36, 256
-1.00059, 21, 273, 52, 335
-1.00059, 257, 273, 288, 335
-1.0006, 69, 145, 100, 272
-1.00061, 29, 65, 60, 320
-1.00062, 321, 33, 384, 96
-1.00062, 425, 193, 488, 320
-1.00063, 361, 265, 392, 328
-1.00063, 393, 257, 424, 320
-1.00064, 213, 129, 244, 192
-1.00064, 89, 249, 120, 312
-1.00064, 89, 65, 152, 192
-1.00065, 237, 1, 268, 256
-1.00066, 125, 81, 156, 208
-1.00068, 341, 65, 372, 320
-1.00069, 249, 177, 280, 240
-1.00069, 65, 1, 96, 64
-1.00069, 37, 121, 68, 184
-1.00069, 25, 81, 56, 208
-1.0007, 21, 249, 52, 312
-1.00071, 353, 169, 416, 232
-1.00073, 273, 209, 336, 272
-1.00073, 53, 209, 84, 335
-1.00073, 81, 129, 112, 192
-1.00073, 173, 161, 204, 224
-1.00075, 333, 257, 364, 320
-1.00081, 441, 1, 472, 256
-1.00083, 185, 65, 216, 320
-1.00084, 469, 65, 500, 320
-1.00084, 193, 177, 224, 240
-1.00084, 141, 209, 172, 272
-1.00084, 425, 241, 488, 304
-1.00084, 361, 1, 424, 128
-1.00084, 401, 1, 464, 64
-1.00086, 357, 1, 388, 256
-1.00086, 409, 129, 472, 192
-1.00087, 133, 129, 164, 256
-1.00089, 409, 209, 440, 272
-1.0009, 325, 1, 356, 256
-1.0009, 45, 81, 76, 144
-1.00091, 409, 241, 440, 304
-1.00092, 5, 137, 36, 200
-1.00095, 53, 233, 84, 296
-1.00097, 125, 233, 156, 296
-1.00097, 13, 1, 44, 128
-1.00097, 281, 65, 312, 320
-1.00098, 57, 265, 88, 328
-1.00098, 453, 65, 484, 320
-1.001, 165, 113, 196, 240
-1.00101, 409, 65, 440, 320
-1.00101, 301, 33, 332, 288
-1.00102, 369, 65, 400, 320
-1.00104, 113, 1, 176, 256
-1.00105, 429, 65, 460, 320
-1.00105, 121, 33, 184, 96
-1.00108, 101, 145, 132, 208
-1.0011, 41, 25, 72, 88
-1.0011, 393, 217, 424, 280
-1.00111, 261, 33, 292, 288
-1.00111, 37, 153, 68, 216
-1.00112, 225, 121, 256, 184
-1.00115, 249, 33, 280, 288
-1.00116, 385, 1, 416, 128
-1.00117, 161, 193, 192, 320
-1.0012, 313, 33, 344, 288
-1.00127, 289, 145, 320, 208
-1.00128, 361, 129, 424, 192
-1.0013, 193, 97, 256, 160
-1.00132, 1, 161, 32, 224
-1.00133, 461, 97, 492, 224
-1.00133, 17, 113, 48, 176
-1.00134, 429, 153, 460, 216
-1.00134, 109, 1, 140, 128
-1.00135, 353, 73, 416, 136
-1.00138, 73, 113, 136, 240
-1.00138, 217, 193, 248, 256
-1.00139, 345, 257, 376, 320
-1.00141, 237, 241, 268, 304
-1.00142, 425, 97, 488, 224
-1.00143, 13, 25, 44, 88
-1.00143, 113, 201, 144, 264
-1.00143, 85, 1, 116, 64
-1.00146, 225, 225, 256, 288
-1.00148, 257, 209, 320, 335
-1.00149, 269, 265, 300, 328
-1.0015, 317, 153, 348, 216
-1.00151, 53, 81, 84, 208
-1.00151, 361, 193, 424, 256
-1.00152, 329, 129, 392, 256
-1.00152, 153, 193, 184, 256
-1.00152, 101, 113, 132, 240
-1.00155, 189, 273, 220, 335
-1.00157, 457, 145, 488, 208
-1.00157, 85, 113, 116, 240
-1.0016, 77, 153, 108, 216
-1.0016, 289, 265, 320, 328
-1.0016, 17, 145, 48, 272
-1.00165, 117, 1, 148, 64
-1.00165, 433, 217, 496, 280
-1.00165, 149, 81, 180, 208
-1.00167, 37, 273, 68, 335
-1.00168, 149, 169, 180, 232
-1.00168, 125, 257, 156, 320
-1.00168, 69, 265, 100, 328
-1.00169, 41, 177, 72, 304
-1.0017, 361, 1, 424, 256
-1.00171, 377, 161, 440, 224
-1.00174, 93, 81, 124, 144
-1.00174, 53, 49, 84, 112
-1.00174, 49, 113, 80, 176
-1.00174, 153, 81, 216, 208
-1.00175, 201, 265, 232, 328
-1.00175, 129, 121, 160, 184
-1.00179, 273, 177, 304, 240
-1.0018, 261, 145, 292, 272
-1.00182, 117, 97, 148, 160
-1.00183, 161, 73, 224, 136
-1.00184, 161, 145, 192, 208
-1.00186, 373, 217, 404, 280
-1.00189, 253, 97, 284, 224
-1.00189, 93, 105, 124, 168
-1.0019, 385, 1, 448, 256
-1.00191, 249, 209, 312, 272
-1.00194, 305, 209, 368, 335
-1.00195, 369, 241, 400, 304
-1.00196, 5, 65, 36, 128
-1.00196, 89, 1, 120, 128
-1.00199, 189, 121, 220, 184
-1.002, 433, 9, 496, 72
-1.002, 381, 265, 412, 328
-1.00201, 189, 153, 220, 216
-1.00202, 109, 265, 140, 328
-1.00202, 65, 97, 96, 224
-1.00203, 29, 97, 60, 160
-1.00205, 33, 225, 64, 288
-1.00206, 297, 201, 360, 264
-1.00207, 313, 65, 376, 128
-1.00208, 321, 49, 448, 176
-1.0021, 469, 145, 500, 272
-1.00211, 201, 129, 232, 192
-1.00211, 1, 201, 32, 264
-1.00212, 421, 177, 452, 240
-1.00215, 273, 161, 304, 288
-1.00216, 149, 89, 180, 152
-1.00219, 409, 209, 440, 335
-1.0022, 361, 273, 424, 335
-1.00226, 65, 49, 96, 176
-1.00227, 297, 145, 360, 272
-1.00227, 13, 81, 44, 208
-1.00227, 401, 97, 464, 160
-1.00227, 353, 105, 416, 168
-1.0024, 373, 1, 404, 128
-1.00241, 209, 1, 336, 128
-1.00242, 1, 1, 32, 128
-1.00243, 113, 1, 176, 128
-1.00243, 389, 209, 420, 335
-1.00248, 297, 177, 360, 240
-1.00258, 377, 209, 440, 335
-1.00267, 37, 81, 68, 208
-1.00269, 137, 177, 168, 304
-1.00279, 237, 97, 268, 224
-1.0028, 257, 209, 288, 335
-1.0028, 441, 193, 472, 320
-1.00293, 405, 161, 436, 288
-1.00294, 341, 209, 372, 335
-1.00294, 233, 209, 264, 335
-1.00296, 197, 81, 228, 208
-1.00296, 361, 193, 392, 320
-1.00297, 329, 1, 392, 256
-1.00304, 433, 33, 496, 288
-1.00304, 81, 49, 112, 176
-1.00305, 353, 81, 416, 208
-1.00316, 137, 81, 168, 208
-1.00321, 441, 97, 472, 224
-1.00323, 389, 161, 420, 288
-1.00324, 213, 81, 244, 208
-1.00325, 425, 145, 456, 272
-1.00325, 377, 161, 408, 288
-1.0033, 289, 177, 320, 304
-1.00338, 401, 1, 464, 128
-1.00339, 177, 113, 208, 240
-1.00341, 453, 193, 484, 320
-1.00341, 409, 65, 472, 320
-1.00344, 329, 17, 392, 144
-1.00353, 209, 65, 272, 192
-1.00355, 101, 65, 132, 192
-1.00355, 273, 209, 304, 335
-1.00355, 377, 209, 408, 335
-1.00384, 133, 33, 164, 160
-1.00386, 401, 1, 432, 128
-1.00396, 361, 113, 392, 240
-1.00396, 301, 161, 332, 288
-1.00398, 329, 209, 392, 335
-1.00403, 313, 145, 344, 272
-1.00409, 137, 1, 200, 128
-1.00409, 257, 113, 320, 240
-1.00411, 337, 129, 368, 256
-1.00417, 177, 81, 240, 208
-1.00422, 285, 129, 316, 256
-1.00423, 249, 65, 312, 320
-1.00424, 269, 97, 300, 224
-1.00426, 225, 65, 256, 192
-1.00436, 325, 209, 356, 335
-1.00447, 313, 209, 344, 335
-1.00447, 145, 1, 176, 128
-1.00452, 385, 113, 416, 240
-1.00459, 305, 65, 368, 320
-1.00463, 161, 33, 192, 160
-1.00464, 429, 1, 460, 128
-1.00476, 325, 161, 356, 288
-1.00489, 417, 1, 448, 128
-1.00499, 349, 33, 380, 160
-1.00502, 181, 49, 212, 176
-1.00503, 113, 49, 144, 176
-1.00508, 273, 33, 336, 288
-1.00519, 373, 81, 404, 208
-1.00522, 301, 209, 332, 335
-1.00525, 1, 81, 32, 208
-1.00526, 329, 81, 392, 208
-1.00526, 465, 193, 496, 320
-1.00527, 361, 1, 392, 128
-1.00527, 325, 113, 356, 240
-1.00529, 349, 113, 380, 240
-1.00529, 281, 65, 344, 192
-1.00553, 441, 1, 472, 128
-1.00554, 349, 161, 380, 288
-1.00556, 193, 33, 224, 160
-1.00567, 401, 97, 432, 224
-1.0057, 413, 113, 444, 240
-1.00577, 337, 81, 368, 208
-1.00578, 461, 49, 492, 176
-1.00582, 337, 1, 368, 128
-1.006, 281, 81, 312, 208
-1.00602, 453, 1, 484, 128
-1.00614, 325, 1, 356, 128
-1.00624, 301, 113, 332, 240
-1.00626, 385, 65, 416, 192
-1.00631, 313, 97, 344, 224
-1.00634, 429, 97, 460, 224
-1.00639, 185, 33, 248, 160
-1.00643, 245, 49, 276, 176
-1.00665, 161, 33, 224, 160
-1.00698, 297, 1, 360, 128
-1.00717, 401, 65, 464, 192
-1.00723, 353, 129, 416, 256
-1.00733, 377, 65, 440, 192
-1.00746, 305, 97, 368, 224
-1.0075, 241, 33, 304, 160
-1.0075, 305, 49, 368, 176
-1.00768, 281, 209, 344, 335
-1.00785, 433, 49, 496, 176
-1.00825, 273, 17, 336, 144
-1.00951, 433, 1, 496, 128
-1.00961, 209, 17, 272, 144
