1950
-0.39266, 1, 1, 500, 369
-0.465489, 33, 1, 288, 369
-0.504339, 1, 129, 500, 369
-0.56065, 1, 1, 500, 256
-0.641236, 257, 1, 500, 369
-0.65066, 33, 97, 288, 352
-0.668244, 161, 1, 416, 369
-0.68022, 33, 1, 288, 256
-0.691958, 129, 129, 384, 369
-0.795931, 225, 65, 480, 320
-0.820174, 129, 1, 384, 256
-0.87334, 177, 97, 304, 352
-0.885703, 81, 1, 208, 369
-0.889344, 177, 1, 304, 369
-0.890358, 33, 1, 160, 369
-0.898709, 49, 65, 176, 320
-0.898903, 353, 1, 480, 369
-0.901474, 145, 1, 272, 256
-0.901548, 1, 161, 500, 288
-0.902692, 113, 129, 240, 369
-0.903204, 225, 129, 352, 369
-0.910071, 225, 1, 352, 369
-0.910088, 305, 1, 432, 369
-0.913757, 1, 17, 500, 144
-0.916265, 1, 1, 128, 256
-0.917871, 97, 33, 224, 288
-0.920743, 1, 225, 500, 352
-0.924316, 129, 1, 256, 369
-0.924505, 1, 97, 128, 352
-0.927222, 241, 1, 368, 256
-0.929728, 65, 49, 320, 176
-0.930292, 1, 81, 500, 208
-0.930628, 273, 97, 400, 352
-0.930923, 193, 225, 448, 352
-0.934011, 193, 1, 320, 256
-0.934034, 33, 145, 288, 272
-0.936252, 369, 97, 496, 352
-0.937895, 33, 1, 288, 128
-0.938128, 33, 97, 288, 224
-0.940409, 33, 225, 288, 352
-0.941626, 241, 225, 368, 352
-0.945714, 177, 145, 304, 272
-0.945974, 129, 177, 384, 304
-0.950074, 161, 129, 416, 256
-0.950764, 265, 225, 328, 352
-0.951651, 321, 33, 448, 288
-0.953182, 369, 1, 496, 256
-0.955318, 129, 161, 256, 288
-0.956552, 161, 97, 288, 224
-0.957129, 1, 1, 128, 128
-0.957716, 225, 81, 288, 208
-0.957741, 201, 33, 264, 160
-0.958341, 305, 225, 368, 352
-0.958551, 193, 1, 448, 128
-0.958732, 257, 145, 500, 272
-0.959869, 193, 209, 320, 336
-0.960366, 193, 145, 256, 272
-0.961493, 225, 129, 288, 256
-0.961572, 201, 209, 264, 336
-0.96243, 209, 97, 336, 224
-0.963149, 9, 65, 72, 192
-0.963319, 81, 17, 208, 144
-0.963392, 145, 225, 272, 352
-0.963477, 17, 113, 144, 240
-0.963788, 185, 97, 248, 224
-0.963858, 73, 33, 136, 160
-0.964401, 217, 265, 280, 328
-0.964411, 201, 161, 264, 224
-0.96472, 257, 81, 500, 208
-0.965057, 321, 129, 448, 369
-0.965388, 289, 241, 416, 368
-0.965528, 169, 161, 232, 288
-0.965724, 41, 17, 104, 144
-0.966904, 1, 65, 128, 192
-0.967288, 49, 65, 176, 192
-0.967991, 161, 81, 416, 208
-0.968292, 225, 17, 288, 144
-0.968425, 273, 305, 336, 368
-0.969123, 17, 225, 144, 352
-0.969174, 225, 241, 288, 368
-0.969289, 129, 17, 256, 144
-0.969535, 169, 145, 232, 208
-0.969831, 225, 145, 352, 272
-0.970187, 97, 1, 160, 128
-0.970364, 217, 113, 280, 176
-0.970453, 369, 241, 496, 368
-0.970499, 9, 1, 72, 128
-0.970513, 177, 225, 240, 352
-0.97065, 305, 193, 432, 320
-0.970738, 217, 137, 280, 200
-0.970795, 49, 225, 112, 352
-0.971598, 145, 153, 208, 216
-0.971737, 193, 297, 256, 360
-0.971987, 273, 225, 336, 288
-0.972559, 81, 225, 208, 352
-0.972616, 113, 81, 240, 208
-0.972705, 49, 89, 112, 152
-0.97292, 233, 305, 296, 368
-0.973217, 313, 305, 376, 368
-0.974084, 209, 273, 336, 336
-0.974102, 81, 49, 144, 112
-0.974355, 241, 177, 304, 304
-0.974442, 217, 97, 280, 352
-0.974906, 9, 161, 72, 288
-0.974952, 33, 65, 96, 192
-0.975119, 313, 265, 376, 328
-0.975239, 25, 209, 88, 336
-0.97533, 193, 17, 320, 144
-0.975379, 209, 25, 272, 88
-0.975522, 145, 145, 208, 272
-0.975883, 185, 33, 248, 96
-0.976067, 137, 17, 200, 144
-0.976111, 33, 57, 96, 120
-0.976211, 129, 41, 192, 104
-0.976267, 177, 137, 304, 200
-0.97628, 369, 161, 496, 288
-0.976396, 177, 1, 240, 128
-0.976779, 177, 49, 240, 176
-0.977016, 81, 305, 144, 368
-0.977124, 41, 113, 104, 240
-0.977199, 153, 97, 216, 224
-0.97722, 81, 161, 208, 288
-0.977304, 193, 137, 256, 200
-0.977354, 193, 273, 256, 336
-0.977629, 209, 89, 272, 152
-0.977939, 81, 73, 144, 136
-0.977954, 305, 233, 368, 296
-0.97825, 273, 281, 336, 344
-0.978464, 81, 17, 144, 80
-0.978465, 273, 177, 336, 304
-0.978499, 321, 1, 448, 128
-0.978792, 201, 1, 264, 64
-0.978877, 241, 305, 368, 368
-0.978928, 17, 161, 144, 288
-0.978971, 113, 1, 176, 64
-0.979079, 177, 1, 240, 64
-0.979275, 433, 129, 496, 256
-0.979702, 401, 193, 464, 320
-0.979821, 177, 57, 240, 120
-0.980071, 121, 305, 184, 368
-0.980215, 329, 209, 392, 336
-0.980267, 193, 241, 256, 304
-0.980335, 1, 129, 64, 192
-0.980391, 153, 273, 216, 336
-0.980815, 233, 81, 264, 208
-0.980828, 161, 281, 288, 344
-0.980974, 9, 73, 72, 136
-0.981077, 49, 113, 112, 176
-0.98108, 177, 177, 240, 240
-0.981138, 137, 17, 200, 80
-0.981184, 257, 265, 384, 328
-0.981192, 177, 161, 304, 224
-0.981206, 233, 17, 296, 80
-0.981281, 409, 145, 472, 272
-0.981316, 73, 225, 136, 352
-0.98135, 1, 73, 128, 136
-0.981426, 241, 233, 368, 296
-0.981461, 321, 1, 384, 128
-0.981532, 129, 305, 256, 368
-0.981554, 321, 225, 352, 352
-0.981645, 57, 65, 120, 128
-0.981707, 217, 153, 248, 216
-0.981735, 105, 25, 168, 88
-0.981797, 129, 169, 256, 232
-0.981815, 221, 1, 252, 128
-0.981863, 193, 129, 256, 369
-0.981895, 153, 225, 216, 352
-0.981977, 1, 1, 64, 64
-0.981992, 241, 1, 368, 128
-0.982112, 153, 65, 216, 320
-0.98214, 41, 161, 104, 288
-0.982331, 377, 209, 440, 336
-0.982338, 289, 305, 416, 368
-0.982496, 65, 81, 128, 208
-0.982659, 225, 161, 288, 224
-0.9827, 369, 113, 496, 240
-0.982704, 257, 65, 320, 192
-0.982712, 249, 225, 312, 288
-0.982758, 113, 1, 240, 64
-0.982779, 65, 65, 192, 128
-0.982918, 201, 1, 264, 256
-0.983156, 177, 33, 240, 288
-0.983194, 329, 225, 392, 288
-0.983195, 241, 129, 304, 369
-0.983578, 205, 153, 236, 216
-0.983602, 33, 305, 160, 368
-0.983606, 161, 249, 288, 312
-0.983668, 49, 225, 112, 288
-0.983695, 197, 161, 228, 288
-0.983708, 401, 217, 464, 280
-0.98373, 433, 289, 496, 352
-0.983793, 297, 1, 360, 128
-0.983887, 173, 153, 204, 216
-0.983948, 201, 57, 264, 120
-0.98398, 193, 209, 320, 272
-0.984076, 1, 113, 64, 240
-0.984103, 241, 257, 272, 320
-0.98412, 97, 65, 160, 192
-0.984215, 121, 153, 184, 216
-0.984245, 297, 225, 328, 352
-0.98431, 185, 113, 248, 176
-0.984314, 217, 33, 248, 96
-0.984371, 213, 97, 244, 224
-0.984395, 193, 153, 224, 216
-0.984483, 241, 257, 304, 320
-0.98454, 121, 1, 152, 64
-0.984558, 233, 193, 296, 256
-0.984605, 49, 1, 112, 256
-0.984644, 113, 33, 240, 96
-0.984658, 1, 105, 128, 168
-0.984748, 305, 145, 432, 272
-0.984769, 393, 97, 456, 224
-0.984787, 25, 105, 88, 168
-0.984791, 245, 241, 276, 368
-0.984794, 425, 225, 488, 352
-0.984795, 81, 1, 144, 256
-0.98489, 325, 225, 356, 288
-0.985026, 233, 89, 264, 152
-0.985052, 209, 17, 240, 144
-0.985095, 113, 161, 176, 288
-0.985137, 65, 1, 192, 64
-0.985146, 213, 145, 244, 272
-0.985161, 289, 201, 352, 264
-0.985247, 425, 81, 488, 208
-0.985251, 369, 1, 432, 128
-0.985338, 105, 225, 168, 352
-0.985356, 305, 49, 368, 176
-0.985358, 369, 49, 496, 176
-0.985478, 41, 305, 104, 368
-0.98551, 317, 257, 348, 320
-0.985633, 153, 305, 216, 368
-0.985711, 401, 1, 464, 64
-0.985727, 221, 273, 252, 336
-0.985739, 129, 225, 192, 352
-0.985782, 241, 137, 304, 200
-0.985794, 209, 113, 336, 176
-0.985836, 81, 153, 208, 216
-0.985857, 133, 25, 164, 88
-0.98595, 217, 1, 248, 64
-0.986012, 69, 17, 100, 144
-0.986018, 17, 201, 80, 264
-0.986036, 257, 81, 384, 208
-0.986112, 305, 241, 432, 304
-0.986185, 233, 33, 264, 160
-0.986257, 361, 161, 424, 288
-0.986363, 1, 33, 64, 288
-0.986434, 177, 305, 304, 368
-0.986491, 129, 145, 256, 208
-0.986542, 113, 265, 240, 328
-0.986571, 145, 65, 208, 128
-0.986638, 209, 89, 336, 152
-0.986668, 73, 1, 136, 369
-0.986669, 201, 217, 264, 280
-0.986684, 337, 305, 400, 368
-0.986698, 1, 49, 128, 112
-0.986712, 129, 113, 256, 176
-0.98674, 41, 33, 104, 96
-0.986747, 153, 153, 184, 216
-0.986794, 233, 33, 264, 96
-0.986815, 401, 25, 464, 88
-0.986818, 25, 1, 88, 64
-0.986826, 249, 17, 312, 144
-0.986914, 201, 17, 232, 80
-0.98698, 113, 1, 176, 256
-0.987052, 49, 97, 112, 352
-0.987056, 305, 81, 432, 208
-0.987061, 213, 129, 244, 192
-0.987106, 225, 129, 256, 256
-0.987136, 1, 161, 64, 224
-0.987161, 49, 1, 112, 64
-0.987244, 161, 17, 288, 80
-0.987275, 9, 41, 72, 104
-0.987294, 241, 281, 304, 344
-0.987314, 309, 225, 340, 288
-0.987352, 85, 33, 116, 160
-0.987369, 213, 225, 244, 352
-0.987402, 257, 241, 288, 368
-0.987441, 369, 1, 496, 128
-0.987506, 1, 1, 128, 64
-0.987537, 229, 145, 260, 208
-0.987642, 205, 289, 236, 352
-0.987657, 269, 209, 300, 336
-0.987668, 41, 169, 104, 232
-0.987702, 145, 33, 176, 96
-0.987711, 425, 209, 488, 272
-0.987745, 209, 49, 336, 112
-0.987747, 49, 89, 176, 152
-0.98776, 169, 1, 232, 369
-0.987779, 169, 241, 232, 304
-0.987845, 73, 81, 104, 144
-0.98785, 241, 81, 304, 144
-0.987969, 57, 17, 88, 144
-0.988025, 305, 217, 432, 280
-0.988076, 65, 33, 192, 96
-0.988139, 157, 41, 188, 104
-0.98816, 33, 137, 160, 200
-0.988203, 377, 129, 440, 192
-0.988324, 17, 129, 80, 369
-0.988376, 249, 113, 280, 240
-0.988393, 305, 281, 432, 344
-0.988429, 273, 1, 336, 128
-0.988459, 321, 305, 352, 368
-0.98846, 329, 1, 392, 64
-0.988463, 153, 177, 216, 240
-0.988472, 161, 25, 224, 88
-0.988509, 261, 305, 292, 368
-0.988512, 1, 1, 32, 128
-0.988543, 1, 297, 64, 360
-0.98863, 253, 257, 284, 320
-0.988685, 393, 49, 456, 112
-0.988788, 157, 1, 188, 128
-0.988824, 133, 305, 164, 368
-0.988824, 1, 65, 32, 192
-0.988853, 345, 249, 408, 312
-0.98887, 225, 1, 288, 369
-0.988882, 177, 185, 304, 248
-0.988914, 337, 209, 368, 336
-0.98896, 377, 209, 440, 272
-0.988968, 177, 157, 240, 188
-0.989065, 201, 1, 264, 369
-0.989103, 241, 57, 304, 120
-0.989107, 369, 113, 432, 240
-0.989168, 177, 129, 208, 256
-0.989202, 197, 241, 228, 368
-0.989307, 169, 217, 232, 280
-0.98933, 369, 273, 496, 336
-0.989346, 257, 113, 384, 176
-0.989351, 245, 1, 276, 128
-0.989353, 337, 305, 464, 368
-0.989357, 157, 17, 188, 80
-0.989375, 161, 41, 288, 104
-0.989399, 353, 225, 416, 352
-0.989403, 425, 65, 488, 128
-0.989421, 113, 305, 144, 368
-0.989425, 197, 97, 228, 224
-0.989429, 117, 1, 148, 128
-0.989431, 17, 25, 144, 88
-0.989475, 209, 9, 336, 72
-0.989495, 1, 217, 128, 280
-0.989513, 129, 97, 192, 224
-0.98953, 257, 209, 384, 272
-0.989555, 145, 1, 208, 369
-0.989557, 401, 185, 464, 248
-0.989569, 257, 185, 384, 248
-0.989581, 249, 129, 312, 256
-0.989585, 81, 233, 208, 296
-0.989595, 73, 233, 136, 296
-0.989652, 217, 57, 248, 120
-0.989704, 265, 257, 328, 320
-0.989708, 1, 105, 64, 168
-0.989747, 49, 1, 112, 369
-0.989777, 141, 17, 172, 144
-0.989802, 237, 193, 268, 320
-0.989835, 145, 225, 272, 288
-0.989838, 249, 129, 280, 192
-0.989852, 309, 209, 340, 336
-0.989868, 129, 97, 192, 352
-0.989885, 337, 281, 400, 344
-0.989892, 25, 1, 88, 256
-0.989979, 297, 233, 328, 296
-0.989996, 81, 289, 208, 352
-0.990002, 145, 233, 208, 296
-0.990004, 153, 121, 216, 184
-0.990014, 37, 65, 68, 192
-0.990052, 433, 177, 496, 304
-0.990117, 33, 161, 64, 288
-0.990162, 353, 249, 480, 312
-0.990166, 273, 325, 336, 356
-0.990178, 401, 161, 464, 224
-0.990183, 345, 17, 408, 144
-0.990183, 425, 33, 488, 160
-0.990192, 49, 145, 80, 272
-0.990199, 369, 1, 432, 369
-0.990238, 105, 17, 136, 80
-0.990253, 425, 265, 488, 328
-0.990317, 465, 297, 496, 360
-0.990407, 145, 161, 208, 192
-0.990417, 105, 49, 168, 112
-0.99043, 369, 169, 496, 232
-0.990442, 425, 1, 488, 64
-0.990451, 301, 297, 332, 360
-0.990457, 313, 329, 376, 360
-0.990461, 157, 129, 188, 256
-0.990472, 85, 65, 116, 128
-0.990508, 17, 169, 144, 232
-0.990535, 401, 241, 464, 368
-0.990538, 369, 17, 432, 80
-0.990575, 321, 49, 448, 112
-0.990602, 17, 17, 48, 144
-0.990602, 281, 25, 344, 88
-0.990603, 129, 41, 192, 72
-0.990616, 161, 65, 288, 128
-0.990619, 273, 337, 336, 368
-0.990649, 377, 233, 440, 296
-0.99067, 105, 33, 168, 64
-0.990671, 225, 1, 288, 256
-0.990736, 401, 17, 464, 144
-0.990751, 233, 241, 264, 368
-0.990798, 105, 337, 168, 368
-0.990809, 425, 25, 488, 88
-0.990876, 241, 333, 304, 364
-0.990877, 433, 137, 496, 200
-0.990899, 377, 177, 440, 240
-0.990913, 229, 65, 260, 128
-0.990918, 273, 97, 336, 352
-0.99094, 209, 25, 272, 56
-0.990978, 273, 313, 336, 344
-0.99101, 113, 281, 176, 344
-0.991015, 273, 301, 336, 332
-0.991077, 217, 273, 280, 304
-0.991078, 265, 1, 328, 369
-0.991091, 313, 317, 376, 348
-0.991105, 1, 1, 64, 369
-0.991109, 305, 177, 368, 304
-0.991109, 401, 81, 464, 144
-0.991119, 321, 145, 448, 208
-0.991122, 281, 225, 312, 352
-0.991128, 65, 161, 128, 288
-0.991142, 197, 1, 228, 128
-0.991154, 257, 1, 384, 64
-0.991197, 337, 1, 464, 64
-0.991199, 345, 1, 408, 369
-0.991205, 305, 57, 368, 120
-0.991232, 209, 169, 272, 200
-0.99127, 217, 101, 280, 132
-0.991278, 217, 117, 280, 148
-0.991292, 177, 57, 240, 88
-0.991307, 201, 297, 264, 328
-0.991316, 345, 25, 408, 88
-0.991339, 13, 65, 44, 192
-0.991396, 217, 285, 280, 316
-0.991403, 121, 129, 184, 192
-0.99143, 49, 113, 112, 144
-0.991432, 225, 145, 352, 208
-0.991433, 61, 65, 92, 192
-0.991458, 49, 209, 80, 336
-0.991502, 305, 33, 368, 96
-0.991506, 121, 157, 184, 188
-0.991517, 265, 193, 328, 256
-0.99152, 305, 1, 368, 64
-0.991523, 9, 1, 40, 64
-0.991527, 281, 225, 312, 288
-0.991528, 65, 209, 192, 272
-0.991537, 257, 81, 384, 144
-0.991539, 205, 177, 236, 240
-0.991545, 289, 233, 352, 264
-0.991545, 153, 173, 216, 204
-0.991549, 73, 65, 104, 192
-0.991549, 41, 65, 104, 96
-0.991578, 233, 1, 264, 64
-0.991586, 89, 21, 152, 52
-0.991587, 9, 73, 40, 136
-0.991608, 145, 29, 208, 60
-0.991615, 101, 305, 132, 368
-0.991626, 117, 33, 148, 96
-0.991628, 329, 201, 392, 264
-0.991632, 369, 137, 496, 200
-0.991648, 225, 149, 288, 180
-0.991653, 185, 169, 248, 200
-0.991666, 49, 113, 176, 176
-0.991668, 177, 29, 240, 60
-0.991672, 209, 13, 272, 44
-0.991681, 41, 137, 104, 200
-0.991685, 69, 225, 100, 352
-0.9917, 193, 285, 256, 316
-0.991723, 201, 153, 264, 184
-0.991729, 305, 269, 368, 300
-0.991756, 29, 17, 60, 144
-0.991765, 217, 137, 280, 168
-0.991784, 81, 209, 144, 272
-0.991788, 1, 281, 128, 344
-0.991817, 113, 1, 176, 369
-0.991844, 253, 281, 284, 344
-0.991846, 281, 49, 344, 176
-0.991867, 153, 149, 216, 180
-0.991868, 273, 41, 400, 104
-0.991869, 233, 313, 296, 344
-0.99187, 425, 1, 488, 256
-0.991874, 313, 305, 376, 336
-0.991888, 337, 161, 400, 288
-0.99189, 81, 73, 144, 104
-0.991908, 177, 41, 240, 72
-0.991919, 337, 337, 400, 368
-0.991934, 185, 81, 248, 144
-0.991944, 185, 177, 216, 304
-0.991947, 273, 289, 336, 320
-0.991959, 249, 161, 312, 224
-0.991966, 369, 49, 496, 112
-0.991984, 201, 37, 264, 68
-0.991984, 217, 337, 280, 368
-0.992005, 345, 305, 376, 368
-0.992006, 261, 145, 292, 272
-0.992023, 41, 93, 104, 124
-0.992048, 233, 261, 296, 292
-0.992052, 425, 169, 488, 232
-0.992061, 313, 289, 376, 320
-0.992065, 433, 297, 496, 328
-0.99207, 1, 77, 64, 108
-0.992072, 89, 177, 152, 304
-0.99208, 81, 9, 144, 40
-0.992104, 73, 85, 136, 116
-0.992107, 113, 57, 240, 120
-0.992114, 45, 81, 76, 144
-0.992137, 201, 89, 264, 120
-0.992155, 169, 277, 232, 308
-0.992163, 65, 337, 128, 368
-0.992175, 401, 213, 464, 244
-0.992177, 393, 157, 456, 188
-0.992195, 145, 337, 208, 368
-0.992212, 225, 297, 256, 360
-0.992231, 89, 41, 120, 104
-0.992236, 121, 5, 184, 36
-0.992238, 369, 337, 432, 368
-0.992241, 129, 53, 192, 84
-0.992243, 81, 225, 112, 352
-0.992245, 241, 93, 304, 124
-0.992261, 393, 1, 456, 369
-0.992262, 249, 105, 312, 136
-0.992273, 313, 233, 376, 264
-0.992285, 185, 265, 248, 296
-0.992288, 81, 53, 144, 84
-0.992296, 185, 13, 248, 44
-0.992312, 49, 65, 80, 192
-0.992324, 57, 281, 120, 344
-0.992324, 209, 1, 272, 32
-0.99233, 417, 105, 480, 168
-0.992333, 169, 297, 232, 328
-0.992345, 41, 193, 104, 256
-0.992389, 137, 17, 200, 48
-0.992394, 201, 49, 264, 80
-0.992401, 197, 241, 228, 304
-0.992405, 153, 45, 216, 76
-0.992418, 41, 77, 104, 108
-0.992421, 233, 17, 296, 48
-0.992471, 65, 57, 96, 120
-0.992476, 281, 217, 344, 248
-0.992491, 161, 89, 288, 152
-0.992491, 65, 113, 192, 240
-0.992492, 385, 17, 448, 48
-0.992501, 233, 161, 296, 192
-0.99251, 153, 57, 216, 88
-0.992522, 105, 325, 168, 356
-0.992528, 185, 101, 248, 132
-0.99253, 1, 1, 64, 32
-0.992533, 321, 245, 384, 276
-0.992534, 25, 121, 88, 152
-0.992534, 33, 225, 96, 256
-0.992546, 321, 73, 448, 136
-0.99255, 177, 181, 240, 212
-0.992566, 225, 297, 288, 328
-0.992576, 181, 273, 212, 336
-0.992578, 313, 257, 376, 288
-0.992611, 337, 225, 400, 256
-0.992611, 17, 65, 80, 96
-0.992614, 25, 105, 88, 136
-0.992614, 65, 97, 128, 128
-0.992617, 57, 229, 120, 260
-0.99263, 9, 337, 72, 368
-0.992634, 41, 53, 104, 84
-0.992644, 177, 309, 240, 340
-0.992663, 41, 25, 104, 56
-0.992674, 145, 293, 208, 324
-0.992678, 113, 21, 176, 52
-0.992681, 161, 17, 224, 48
-0.992684, 1, 129, 64, 160
-0.992692, 201, 249, 264, 280
-0.992701, 377, 89, 440, 152
-0.992704, 409, 197, 472, 228
-0.992705, 425, 25, 488, 56
-0.992711, 265, 229, 328, 260
-0.992714, 209, 261, 272, 292
-0.992717, 241, 221, 304, 252
-0.992721, 193, 337, 256, 368
-0.992721, 289, 49, 352, 80
-0.992725, 81, 37, 144, 68
-0.992726, 65, 25, 128, 56
-0.992726, 281, 49, 344, 112
-0.992735, 161, 161, 192, 192
-0.992739, 129, 65, 192, 96
-0.992748, 345, 113, 408, 176
-0.992753, 417, 1, 480, 369
-0.992755, 245, 17, 276, 80
-0.992764, 225, 193, 256, 320
-0.992788, 393, 181, 456, 212
-0.992796, 369, 81, 496, 144
-0.992799, 385, 137, 448, 168
-0.992805, 245, 261, 276, 292
-0.992809, 425, 241, 488, 304
-0.992819, 393, 5, 456, 36
-0.992826, 297, 1, 360, 369
-0.992828, 1, 177, 64, 208
-0.992833, 337, 309, 400, 340
-0.992838, 81, 317, 144, 348
-0.992849, 9, 205, 72, 236
-0.992851, 337, 225, 368, 288
-0.992851, 221, 29, 252, 60
-0.992861, 425, 141, 488, 172
-0.992865, 205, 41, 236, 104
-0.99287, 17, 21, 80, 52
-0.992872, 105, 1, 136, 128
-0.992874, 173, 161, 204, 192
-0.992874, 233, 181, 296, 212
-0.992877, 161, 233, 224, 264
-0.992877, 401, 29, 464, 60
-0.992878, 133, 33, 164, 64
-0.992888, 321, 333, 352, 364
-0.99289, 49, 1, 112, 32
-0.992892, 233, 209, 296, 240
-0.992903, 201, 161, 232, 192
-0.992904, 337, 25, 464, 88
-0.992906, 433, 177, 496, 208
-0.992907, 257, 265, 320, 296
-0.992909, 401, 129, 464, 192
-0.992911, 249, 117, 312, 148
-0.992911, 25, 325, 88, 356
-0.992912, 213, 153, 244, 184
-0.992912, 233, 29, 296, 60
-0.992913, 57, 105, 88, 168
-0.992924, 205, 289, 236, 320
-0.992929, 177, 145, 240, 176
-0.992978, 133, 337, 164, 368
-0.992987, 217, 281, 248, 312
-0.99302, 149, 157, 180, 188
-0.993038, 185, 161, 216, 192
-0.99305, 201, 33, 232, 64
-0.993065, 33, 49, 288, 112
-0.993074, 233, 97, 264, 128
-0.993075, 229, 273, 260, 304
-0.993078, 145, 37, 176, 68
-0.993085, 233, 161, 264, 192
-0.993087, 69, 97, 100, 128
-0.993087, 121, 333, 152, 364
-0.993101, 97, 129, 160, 369
-0.993107, 241, 337, 272, 368
-0.993122, 217, 17, 248, 48
-0.993141, 97, 233, 160, 296
-0.993146, 305, 193, 432, 256
-0.99315, 201, 21, 232, 52
-0.993165, 345, 137, 408, 200
-0.993174, 245, 105, 276, 168
-0.993177, 261, 333, 292, 364
-0.993178, 305, 337, 336, 368
-0.993183, 53, 109, 84, 140
-0.993192, 341, 337, 372, 368
-0.993201, 225, 41, 256, 72
-0.993209, 217, 141, 248, 172
-0.993217, 317, 233, 348, 264
-0.993218, 193, 301, 224, 332
-0.993225, 33, 113, 288, 176
-0.993231, 157, 25, 188, 56
-0.993236, 173, 173, 204, 204
-0.993238, 169, 149, 200, 180
-0.993241, 213, 173, 244, 204
-0.993248, 321, 317, 352, 348
-0.993266, 181, 57, 212, 88
-0.993268, 157, 41, 188, 72
-0.993276, 317, 261, 348, 292
-0.99328, 133, 1, 164, 64
-0.993283, 73, 305, 104, 368
-0.993288, 329, 229, 360, 260
-0.993289, 185, 177, 216, 240
-0.993293, 229, 337, 260, 368
-0.993301, 141, 145, 172, 208
-0.993302, 121, 29, 152, 60
-0.993304, 357, 337, 388, 368
-0.993304, 137, 157, 168, 188
-0.993305, 121, 1, 152, 32
-0.993306, 233, 21, 264, 52
-0.993318, 261, 305, 292, 336
-0.993322, 77, 109, 108, 140
-0.993328, 69, 69, 100, 100
-0.993328, 77, 81, 108, 112
-0.993336, 177, 69, 208, 100
-0.993336, 237, 33, 268, 64
-0.993338, 81, 281, 144, 344
-0.993346, 85, 69, 116, 100
-0.993348, 233, 81, 264, 112
-0.993348, 145, 337, 176, 368
-0.99335, 321, 305, 352, 336
-0.993357, 113, 201, 240, 264
-0.993357, 89, 337, 120, 368
-0.993361, 177, 57, 208, 120
-0.993362, 249, 281, 280, 312
-0.993366, 269, 221, 300, 252
-0.993371, 101, 1, 132, 32
-0.993371, 225, 69, 256, 100
-0.993375, 145, 25, 176, 56
-0.993383, 273, 333, 304, 364
-0.993384, 9, 73, 40, 104
-0.993387, 369, 337, 400, 368
-0.993389, 149, 169, 180, 200
-0.993395, 253, 109, 284, 140
-0.993395, 169, 49, 200, 80
-0.993396, 181, 149, 212, 180
-0.993401, 193, 273, 448, 336
-0.993405, 117, 17, 148, 48
-0.993405, 33, 81, 288, 144
-0.993408, 133, 21, 164, 52
-0.993414, 49, 121, 80, 152
-0.993422, 301, 301, 332, 332
-0.993427, 285, 233, 316, 264
-0.993428, 189, 181, 220, 212
-0.993431, 301, 317, 332, 348
-0.993439, 213, 41, 244, 72
-0.993446, 437, 25, 468, 56
-0.993447, 205, 301, 236, 332
-0.99345, 253, 121, 284, 152
-0.993453, 341, 229, 372, 260
-0.993454, 57, 81, 88, 112
-0.993454, 117, 57, 148, 88
-0.993462, 9, 29, 40, 60
-0.993462, 181, 305, 212, 336
-0.993464, 65, 57, 96, 88
-0.993465, 17, 193, 144, 256
-0.993467, 305, 233, 336, 264
-0.993472, 65, 113, 96, 144
-0.993473, 213, 5, 244, 36
-0.993476, 385, 337, 416, 368
-0.993485, 249, 25, 280, 56
-0.993486, 317, 273, 348, 304
-0.993486, 429, 217, 460, 248
-0.99349, 1, 5, 32, 36
-0.993492, 469, 305, 500, 336
-0.993493, 257, 1, 320, 256
-0.993496, 157, 145, 188, 176
-0.993498, 293, 333, 324, 364
-0.993498, 93, 17, 124, 48
-0.993503, 217, 293, 248, 324
-0.993506, 157, 333, 188, 364
-0.993507, 221, 57, 252, 88
-0.993508, 45, 57, 76, 88
-0.993508, 61, 225, 92, 256
-0.99351, 445, 201, 476, 232
-0.99351, 193, 9, 224, 40
-0.993517, 209, 89, 240, 120
-0.993522, 249, 89, 280, 120
-0.993523, 65, 337, 96, 368
-0.993526, 205, 53, 236, 84
-0.993528, 457, 297, 488, 328
-0.993532, 145, 49, 176, 80
-0.993533, 49, 217, 80, 248
-0.993537, 201, 141, 232, 172
-0.993538, 77, 25, 108, 56
-0.993538, 281, 321, 312, 352
-0.99354, 201, 241, 232, 272
-0.993543, 293, 221, 324, 252
-0.993545, 233, 5, 264, 36
-0.993548, 425, 189, 456, 220
-0.993549, 417, 201, 448, 232
-0.993551, 241, 117, 272, 148
-0.993552, 213, 121, 244, 152
-0.993555, 429, 205, 460, 236
-0.993555, 425, 145, 456, 176
-0.993557, 45, 169, 76, 200
-0.99356, 405, 161, 436, 192
-0.993561, 21, 21, 52, 52
-0.993562, 397, 13, 428, 44
-0.993563, 257, 157, 288, 188
-0.993564, 229, 141, 260, 172
-0.993582, 201, 265, 232, 328
-0.993586, 369, 225, 496, 288
-0.993594, 245, 305, 276, 368
-0.993595, 117, 57, 148, 120
-0.993625, 65, 265, 192, 328
-0.993663, 73, 97, 136, 160
-0.993677, 221, 49, 252, 176
-0.99369, 337, 113, 464, 176
-0.993701, 45, 113, 76, 176
-0.993711, 25, 65, 56, 192
-0.993715, 241, 281, 272, 344
-0.99379, 261, 97, 292, 224
-0.993798, 129, 225, 384, 288
-0.993814, 465, 129, 496, 256
-0.99382, 129, 305, 384, 368
-0.993901, 289, 257, 352, 320
-0.993947, 441, 1, 472, 64
-0.993953, 201, 129, 232, 192
-0.993966, 257, 105, 320, 168
-0.99397, 333, 1, 364, 128
-0.994021, 77, 17, 108, 80
-0.994022, 193, 137, 448, 200
-0.994036, 273, 153, 400, 216
-0.994038, 265, 217, 296, 280
-0.994057, 37, 209, 68, 336
-0.994059, 297, 65, 360, 320
-0.994062, 393, 1, 424, 128
-0.994073, 65, 281, 320, 344
-0.994112, 33, 137, 288, 200
-0.994165, 357, 1, 388, 64
-0.994173, 29, 113, 60, 240
-0.994181, 353, 201, 480, 264
-0.994204, 165, 129, 196, 192
-0.994282, 273, 129, 336, 256
-0.994287, 321, 169, 448, 232
-0.994306, 225, 329, 352, 360
-0.994325, 53, 217, 84, 280
-0.994361, 193, 297, 224, 360
-0.994363, 441, 57, 472, 120
-0.994378, 237, 145, 268, 272
-0.994407, 417, 97, 480, 352
-0.994409, 1, 305, 500, 368
-0.994433, 169, 33, 200, 96
-0.994459, 261, 145, 292, 208
-0.99447, 193, 249, 448, 312
-0.994502, 33, 121, 64, 184
-0.994507, 433, 217, 464, 280
-0.994528, 429, 65, 460, 192
-0.994546, 321, 1, 384, 369
-0.994668, 145, 1, 176, 64
-0.994686, 413, 97, 444, 224
-0.994708, 129, 57, 160, 120
-0.99474, 33, 25, 288, 88
-0.994753, 405, 1, 436, 64
-0.994773, 245, 65, 276, 192
-0.99478, 345, 1, 408, 256
-0.994797, 409, 49, 440, 176
-0.994841, 17, 257, 144, 320
-0.994857, 421, 33, 452, 96
-0.994878, 449, 289, 480, 352
-0.994895, 149, 81, 180, 208
-0.994916, 165, 49, 196, 176
-0.994932, 209, 281, 336, 312
-0.994948, 61, 81, 92, 144
-0.994955, 449, 33, 480, 160
-0.994977, 209, 233, 240, 296
-0.994979, 1, 225, 500, 288
-0.995026, 253, 81, 284, 144
-0.995029, 301, 273, 332, 336
-0.995049, 45, 305, 76, 368
-0.995064, 41, 1, 72, 128
-0.995074, 185, 81, 216, 208
-0.99508, 1, 161, 256, 224
-0.995115, 97, 161, 352, 224
-0.995131, 225, 261, 352, 292
-0.995135, 377, 1, 408, 128
-0.995192, 461, 241, 492, 368
-0.9952, 65, 1, 320, 64
-0.995211, 129, 1, 160, 128
-0.995211, 349, 225, 380, 352
-0.995213, 41, 161, 72, 224
-0.99525, 357, 305, 388, 368
-0.995275, 429, 65, 460, 128
-0.995277, 145, 161, 272, 192
-0.995282, 81, 105, 112, 168
-0.995289, 345, 65, 408, 192
-0.995293, 173, 225, 204, 352
-0.995303, 141, 145, 172, 272
-0.995308, 153, 225, 184, 352
-0.995312, 225, 121, 256, 184
-0.995329, 73, 129, 136, 369
-0.995342, 73, 225, 104, 288
-0.995361, 165, 177, 196, 304
-0.995381, 33, 193, 288, 256
-0.995406, 369, 49, 432, 176
-0.995478, 449, 241, 480, 368
-0.995491, 33, 233, 288, 296
-0.995508, 97, 225, 128, 352
-0.995526, 49, 333, 176, 364
-0.995538, 281, 193, 312, 256
-0.995556, 33, 305, 288, 368
-0.995557, 217, 177, 248, 240
-0.995567, 417, 201, 448, 264
-0.995594, 345, 1, 376, 128
-0.995617, 437, 193, 468, 256
-0.99568, 25, 1, 88, 369
-0.995685, 1, 169, 500, 232
-0.995709, 89, 305, 120, 368
-0.995715, 225, 313, 352, 344
-0.995716, 221, 33, 236, 96
-0.995739, 17, 113, 48, 240
-0.995754, 381, 225, 412, 352
-0.995758, 257, 177, 500, 240
-0.99577, 181, 305, 212, 368
-0.995773, 257, 209, 500, 272
-0.995784, 1, 193, 500, 256
-0.995787, 69, 105, 100, 168
-0.995793, 385, 1, 448, 256
-0.995799, 365, 225, 396, 352
-0.995804, 393, 9, 424, 72
-0.995812, 217, 97, 248, 160
-0.995825, 225, 137, 240, 200
-0.995848, 297, 177, 328, 304
-0.995895, 425, 129, 456, 192
-0.995925, 185, 241, 216, 368
-0.995942, 441, 161, 472, 288
-0.995944, 413, 161, 444, 288
-0.995954, 193, 293, 320, 324
-0.995968, 213, 17, 228, 80
-0.996005, 105, 41, 136, 104
-0.996013, 219, 145, 234, 208
-0.996048, 183, 153, 198, 216
-0.996049, 281, 145, 312, 272
-0.996069, 113, 89, 240, 152
-0.996098, 45, 137, 76, 200
-0.996109, 65, 257, 320, 320
-0.99611, 321, 177, 352, 304
-0.996147, 193, 169, 320, 200
-0.996152, 421, 209, 452, 336
-0.996154, 153, 129, 184, 192
-0.996181, 97, 49, 128, 176
-0.996198, 321, 257, 336, 320
-0.996199, 1, 41, 32, 104
-0.996201, 265, 97, 296, 160
-0.996221, 193, 41, 448, 104
-0.996233, 195, 161, 210, 224
-0.996247, 273, 337, 400, 368
-0.996251, 131, 1, 146, 64
-0.996276, 273, 321, 400, 352
-0.996276, 225, 113, 480, 176
-0.996278, 65, 17, 96, 80
-0.99628, 225, 297, 480, 360
-0.996299, 161, 273, 288, 304
-0.996301, 321, 1, 384, 256
-0.996302, 1, 85, 128, 116
-0.99631, 137, 225, 168, 352
-0.996315, 231, 273, 246, 336
-0.996318, 41, 209, 72, 272
-0.996319, 149, 305, 180, 368
-0.996338, 1, 281, 500, 344
-0.996359, 193, 157, 320, 188
-0.996373, 193, 217, 320, 248
-0.996373, 1, 137, 32, 200
-0.996408, 207, 153, 222, 216
-0.996419, 417, 153, 448, 216
-0.996424, 329, 225, 344, 288
-0.996436, 433, 153, 464, 216
-0.996437, 97, 165, 224, 196
-0.996438, 323, 225, 338, 288
-0.996472, 377, 177, 408, 304
-0.996473, 223, 281, 238, 344
-0.996479, 437, 25, 468, 88
-0.9965, 213, 153, 228, 216
-0.996512, 177, 141, 304, 172
-0.996527, 33, 297, 64, 360
-0.996537, 189, 153, 204, 216
-0.996547, 289, 293, 416, 324
-0.996564, 397, 225, 428, 288
-0.996572, 337, 129, 400, 369
-0.996578, 185, 129, 216, 192
-0.996615, 257, 273, 384, 304
-0.99662, 405, 153, 436, 216
-0.996622, 145, 329, 272, 360
-0.996624, 429, 1, 460, 64
-0.996627, 257, 249, 272, 312
-0.99663, 409, 225, 440, 352
-0.996634, 161, 1, 416, 64
-0.996636, 231, 33, 246, 96
-0.99665, 221, 1, 236, 64
-0.996651, 185, 225, 216, 288
-0.996653, 449, 185, 480, 248
-0.99666, 117, 225, 148, 352
-0.996665, 1, 69, 128, 100
-0.996683, 177, 153, 192, 216
-0.996685, 145, 301, 272, 332
-0.996687, 129, 201, 384, 264
-0.996688, 257, 233, 384, 264
-0.996709, 429, 17, 460, 144
-0.996721, 129, 285, 256, 316
-0.99673, 417, 1, 448, 64
-0.996745, 1, 57, 500, 120
-0.99678, 21, 1, 52, 64
-0.996784, 397, 161, 428, 288
-0.996792, 169, 281, 200, 344
-0.996792, 1, 137, 500, 200
-0.996795, 65, 69, 192, 100
-0.996802, 65, 85, 192, 116
-0.996805, 1, 97, 128, 128
-0.996809, 465, 137, 496, 200
-0.996818, 425, 161, 456, 288
-0.996842, 127, 33, 142, 96
-0.996844, 217, 281, 232, 344
-0.996845, 201, 161, 216, 224
-0.996852, 273, 309, 400, 340
-0.996855, 301, 1, 332, 128
-0.996857, 293, 201, 324, 264
-0.996864, 177, 261, 304, 292
-0.99687, 393, 225, 424, 352
-0.996873, 1, 113, 128, 144
-0.996879, 113, 9, 240, 40
-0.996888, 123, 1, 138, 64
-0.996939, 113, 21, 240, 52
-0.996946, 1, 241, 64, 368
-0.996946, 437, 113, 468, 240
-0.996958, 245, 33, 260, 96
-0.99696, 317, 225, 332, 288
-0.996962, 231, 153, 246, 216
-0.996969, 313, 297, 328, 360
-0.996978, 453, 129, 484, 256
-0.997004, 337, 225, 352, 288
-0.997006, 129, 49, 256, 80
-0.997007, 89, 65, 104, 128
-0.99704, 161, 13, 288, 44
-0.997047, 317, 17, 348, 144
-0.997051, 97, 337, 224, 368
-0.997055, 247, 1, 262, 64
-0.99708, 129, 149, 256, 180
-0.997086, 237, 17, 252, 80
-0.997099, 145, 173, 272, 204
-0.99712, 1, 113, 500, 176
-0.997124, 251, 257, 266, 320
-0.997128, 233, 1, 264, 256
-0.997155, 65, 13, 192, 44
-0.997161, 81, 57, 208, 88
-0.997165, 231, 129, 246, 192
-0.997195, 157, 33, 172, 96
-0.997199, 311, 233, 326, 296
-0.997202, 65, 185, 192, 248
-0.997202, 237, 273, 252, 336
-0.997207, 109, 65, 140, 192
-0.997211, 135, 33, 150, 96
-0.997212, 193, 89, 448, 152
-0.997219, 193, 229, 320, 260
-0.997238, 369, 293, 496, 324
-0.997252, 453, 193, 484, 320
-0.997262, 147, 25, 162, 88
-0.997264, 65, 97, 192, 128
-0.99727, 137, 305, 152, 368
-0.99728, 237, 65, 252, 128
-0.997289, 83, 73, 98, 136
-0.997303, 157, 145, 172, 208
-0.997305, 209, 113, 336, 144
-0.997305, 9, 1, 24, 64
-0.997318, 161, 125, 288, 156
-0.99732, 321, 337, 448, 368
-0.997332, 245, 257, 260, 320
-0.997335, 91, 41, 106, 104
-0.997354, 163, 17, 178, 80
-0.997368, 397, 97, 428, 224
-0.997379, 275, 305, 290, 368
-0.997384, 225, 161, 240, 224
-0.997401, 305, 229, 432, 260
-0.997411, 57, 81, 72, 144
-0.997414, 323, 305, 338, 368
-0.997417, 33, 1, 160, 32
-0.997427, 273, 81, 304, 208
-0.997429, 257, 1, 500, 64
-0.997429, 121, 41, 136, 104
-0.99744, 433, 241, 464, 368
-0.997467, 127, 305, 142, 368
-0.997472, 163, 153, 178, 216
-0.997496, 225, 57, 240, 120
-0.997496, 69, 73, 84, 136
-0.997496, 153, 177, 184, 304
-0.997496, 161, 97, 288, 128
-0.997498, 237, 41, 252, 104
-0.997513, 177, 49, 192, 112
-0.997515, 245, 89, 260, 152
-0.997521, 1, 113, 32, 240
-0.997535, 209, 125, 336, 156
-0.997536, 117, 17, 132, 80
-0.99754, 219, 121, 234, 184
-0.997543, 149, 305, 164, 368
-0.997544, 1, 33, 500, 96
-0.997556, 81, 297, 208, 328
-0.99756, 137, 1, 152, 64
-0.997564, 171, 153, 186, 216
-0.997577, 213, 97, 244, 352
-0.997582, 151, 145, 166, 208
-0.997583, 225, 113, 240, 176
-0.997597, 15, 1, 30, 64
-0.997603, 129, 37, 256, 68
-0.997611, 443, 49, 458, 112
-0.997611, 77, 81, 92, 144
-0.997615, 207, 289, 222, 352
-0.997622, 161, 65, 416, 128
-0.997622, 21, 161, 52, 288
-0.997628, 473, 297, 488, 360
-0.997636, 161, 33, 192, 288
-0.997639, 1, 81, 500, 144
-0.997642, 245, 97, 276, 352
-0.997649, 161, 109, 288, 140
-0.997676, 63, 105, 78, 168
-0.997677, 227, 9, 242, 72
-0.99769, 193, 25, 320, 56
-0.9977, 113, 313, 240, 344
-0.997725, 1, 125, 128, 156
-0.997734, 217, 177, 232, 240
-0.997735, 287, 225, 302, 288
-0.997745, 241, 13, 368, 44
-0.997752, 241, 97, 368, 128
-0.997752, 239, 153, 254, 216
-0.997755, 327, 249, 342, 312
-0.997761, 171, 161, 186, 192
-0.997763, 49, 149, 176, 180
-0.997764, 337, 173, 464, 204
-0.997768, 157, 157, 172, 188
-0.997781, 1, 225, 128, 256
-0.997786, 305, 245, 432, 276
-0.9978, 257, 217, 384, 248
-0.997803, 121, 305, 136, 368
-0.997804, 129, 137, 256, 168
-0.997808, 195, 137, 210, 200
-0.99781, 169, 1, 200, 128
-0.997811, 129, 113, 384, 176
-0.997812, 427, 161, 442, 224
-0.997814, 171, 41, 186, 104
-0.997827, 457, 81, 488, 208
-0.997828, 351, 305, 366, 368
-0.99784, 281, 217, 296, 280
-0.997842, 47, 121, 62, 184
-0.997849, 361, 305, 376, 368
-0.997851, 141, 25, 156, 88
-0.99786, 173, 33, 204, 288
-0.997861, 357, 33, 388, 160
-0.997864, 251, 105, 266, 168
-0.997867, 113, 269, 240, 300
-0.997876, 71, 97, 86, 160
-0.997879, 233, 89, 248, 152
-0.997891, 187, 57, 202, 120
-0.997894, 213, 25, 228, 56
-0.997894, 23, 1, 38, 64
-0.997896, 285, 1, 316, 128
-0.997901, 143, 305, 158, 368
-0.997911, 413, 209, 428, 272
-0.997911, 149, 33, 164, 64
-0.997913, 209, 1, 240, 256
-0.997918, 33, 321, 160, 352
-0.997919, 33, 1, 48, 64
-0.997921, 153, 9, 168, 72
-0.997922, 305, 281, 432, 312
-0.997922, 193, 205, 320, 236
-0.997925, 81, 33, 208, 64
-0.997925, 53, 113, 68, 176
-0.997931, 183, 157, 198, 188
-0.99794, 1, 337, 128, 368
-0.997944, 177, 161, 192, 192
-0.997949, 215, 41, 230, 104
-0.997958, 49, 109, 176, 140
-0.997959, 225, 129, 256, 369
-0.99796, 83, 49, 98, 112
-0.997969, 219, 157, 234, 188
-0.997984, 59, 305, 74, 368
-0.99799, 337, 9, 464, 40
-0.997992, 315, 265, 330, 328
-0.997992, 63, 81, 78, 144
-0.997997, 241, 297, 368, 328
-0.997998, 261, 273, 276, 336
-0.997999, 319, 333, 334, 364
-0.998, 99, 305, 114, 368
-0.998003, 207, 9, 222, 72
-0.998005, 33, 57, 160, 88
-0.998007, 201, 289, 216, 352
-0.998017, 479, 305, 494, 368
-0.998018, 113, 229, 240, 260
-0.998022, 427, 129, 442, 192
-0.998025, 253, 281, 268, 344
-0.998028, 33, 25, 160, 56
-0.99803, 257, 121, 272, 184
-0.998033, 165, 161, 180, 192
-0.998043, 445, 201, 460, 264
-0.998046, 263, 249, 278, 312
-0.998047, 253, 1, 268, 64
-0.998047, 147, 337, 162, 368
-0.998055, 195, 305, 210, 368
-0.998057, 9, 33, 24, 96
-0.998064, 7, 73, 22, 136
-0.998065, 87, 97, 102, 160
-0.998073, 407, 1, 422, 64
-0.998073, 435, 193, 450, 256
-0.998076, 225, 57, 352, 88
-0.99808, 197, 97, 228, 352
-0.998086, 345, 305, 360, 368
-0.998087, 305, 233, 320, 296
-0.998091, 257, 245, 384, 276
-0.998098, 129, 61, 256, 92
-0.998112, 299, 233, 314, 296
-0.998112, 111, 33, 126, 96
-0.998117, 17, 73, 32, 136
-0.998118, 219, 33, 234, 64
-0.998125, 87, 17, 102, 80
-0.998126, 131, 57, 146, 120
-0.998126, 257, 305, 272, 368
-0.998128, 177, 313, 304, 344
-0.998132, 105, 1, 136, 256
-0.998135, 165, 41, 180, 104
-0.998137, 451, 185, 466, 248
-0.998143, 207, 33, 222, 96
-0.998143, 1, 9, 500, 72
-0.998144, 115, 305, 130, 368
-0.998159, 263, 113, 278, 176
-0.998171, 1, 309, 128, 340
-0.998176, 129, 257, 256, 288
-0.998181, 33, 293, 160, 324
-0.998191, 313, 337, 328, 368
-0.998192, 189, 161, 204, 192
-0.998203, 257, 205, 384, 236
-0.998208, 305, 257, 432, 288
-0.998212, 227, 149, 242, 180
-0.998217, 177, 249, 304, 280
-0.998237, 257, 49, 288, 176
-0.998251, 129, 333, 144, 364
-0.998256, 361, 129, 424, 369
-0.998257, 137, 29, 152, 60
-0.998261, 193, 189, 320, 220
-0.998263, 211, 161, 226, 192
-0.998266, 1, 37, 128, 68
-0.998276, 65, 233, 192, 264
-0.998281, 141, 333, 156, 364
-0.998284, 245, 115, 276, 130
-0.998284, 353, 343, 384, 358
-0.998285, 1, 257, 500, 320
-0.998285, 29, 353, 60, 368
-0.998286, 113, 33, 144, 48
-0.998286, 233, 275, 264, 290
-0.998287, 89, 81, 120, 96
-0.998288, 181, 61, 212, 76
-0.998288, 145, 51, 176, 66
-0.998288, 125, 59, 156, 74
-0.998288, 233, 107, 264, 122
-0.998288, 125, 345, 156, 360
-0.998288, 173, 73, 204, 88
-0.998288, 177, 45, 304, 76
-0.998289, 357, 11, 388, 26
-0.998289, 225, 85, 256, 100
-0.998291, 225, 79, 256, 94
-0.998292, 49, 115, 80, 130
-0.998293, 193, 309, 224, 324
-0.998294, 233, 19, 264, 34
-0.998295, 225, 281, 256, 296
-0.998295, 213, 293, 228, 324
-0.998296, 249, 103, 280, 118
-0.998296, 5, 81, 36, 96
-0.998296, 157, 49, 188, 64
-0.998297, 141, 167, 172, 182
-0.998297, 429, 353, 460, 368
-0.998297, 113, 347, 144, 362
-0.998298, 65, 77, 96, 92
-0.998298, 253, 123, 284, 138
-0.998299, 241, 85, 368, 116
-0.998299, 81, 91, 112, 106
-0.998299, 317, 271, 348, 286
-0.998303, 181, 181, 212, 196
-0.998304, 149, 343, 180, 358
-0.998304, 17, 77, 48, 92
-0.998304, 69, 99, 100, 114
-0.998305, 89, 75, 120, 90
-0.998305, 261, 309, 292, 324
-0.998307, 237, 33, 268, 48
-0.998307, 181, 157, 212, 172
-0.998307, 217, 17, 248, 32
-0.99831, 73, 69, 104, 84
-0.99831, 121, 353, 152, 368
-0.99831, 297, 341, 328, 356
-0.99831, 217, 175, 248, 190
-0.998312, 409, 353, 440, 368
-0.998312, 321, 315, 352, 330
-0.998312, 265, 341, 296, 356
-0.998313, 285, 343, 316, 358
-0.998314, 197, 163, 228, 178
-0.998314, 249, 97, 280, 112
-0.998316, 213, 141, 244, 156
-0.998316, 209, 165, 240, 180
-0.998317, 321, 265, 352, 280
-0.998317, 385, 349, 416, 364
-0.998318, 153, 31, 184, 46
-0.998319, 197, 23, 228, 38
-0.998319, 321, 335, 352, 350
-0.998322, 333, 229, 364, 244
-0.998322, 177, 175, 208, 190
-0.998323, 197, 303, 228, 318
-0.998323, 229, 353, 260, 368
-0.998326, 177, 67, 208, 82
-0.998326, 97, 353, 128, 368
-0.998326, 129, 41, 160, 56
-0.998327, 221, 47, 252, 62
-0.998329, 221, 285, 236, 316
-0.99833, 241, 141, 368, 172
-0.99833, 135, 337, 150, 368
-0.998333, 253, 259, 284, 274
-0.998334, 233, 95, 264, 110
-0.998334, 65, 119, 96, 134
-0.998334, 53, 121, 84, 136
-0.998337, 225, 347, 256, 362
-0.998338, 165, 155, 196, 170
-0.99834, 221, 287, 252, 302
-0.99834, 141, 159, 172, 174
-0.998341, 205, 41, 236, 56
-0.998342, 81, 45, 208, 76
-0.998345, 241, 345, 272, 360
-0.998346, 369, 161, 496, 192
-0.998346, 253, 109, 284, 124
-0.998348, 213, 293, 244, 308
-0.998348, 193, 157, 224, 172
-0.99835, 269, 353, 300, 368
-0.998351, 233, 161, 264, 176
-0.998352, 397, 353, 428, 368
-0.998352, 353, 349, 384, 364
-0.998353, 321, 329, 352, 344
-0.998353, 201, 29, 232, 44
-0.998353, 321, 321, 352, 336
-0.998353, 145, 349, 176, 364
-0.998355, 229, 165, 244, 196
-0.998355, 245, 271, 276, 286
-0.998357, 217, 23, 248, 38
-0.998358, 201, 297, 232, 312
-0.998359, 217, 153, 248, 168
-0.998359, 293, 49, 324, 176
-0.998361, 197, 175, 228, 190
-0.998362, 177, 61, 304, 92
-0.998364, 221, 41, 252, 56
-0.998365, 237, 25, 268, 40
-0.998366, 241, 25, 368, 56
-0.998367, 149, 37, 180, 52
-0.998367, 369, 281, 496, 312
-0.998367, 153, 169, 184, 184
-0.998367, 85, 113, 116, 128
-0.998368, 49, 1, 80, 256
-0.998368, 65, 221, 192, 252
-0.998371, 205, 35, 236, 50
-0.998372, 61, 111, 92, 126
-0.998374, 45, 353, 76, 368
-0.998375, 369, 351, 400, 366
-0.998376, 337, 349, 368, 364
-0.998379, 153, 157, 184, 172
-0.998381, 309, 343, 340, 358
-0.998382, 321, 233, 352, 248
-0.998383, 155, 37, 170, 68
-0.998383, 233, 101, 264, 116
-0.998385, 125, 33, 156, 48
-0.998386, 143, 29, 158, 60
-0.998391, 217, 29, 248, 44
-0.998391, 289, 5, 416, 36
-0.998392, 257, 257, 272, 288
-0.998397, 133, 351, 164, 366
-0.998398, 239, 21, 254, 52
-0.9984, 137, 343, 168, 358
-0.998401, 153, 43, 184, 58
-0.998402, 165, 173, 196, 188
-0.998403, 229, 167, 260, 182
-0.998404, 167, 149, 182, 180
-0.998406, 177, 163, 208, 178
-0.998407, 253, 351, 284, 366
-0.998407, 177, 129, 208, 369
-0.998408, 325, 349, 356, 364
-0.998409, 241, 1, 368, 32
-0.99841, 245, 265, 276, 280
-0.998413, 221, 35, 252, 50
-0.998415, 69, 105, 100, 120
-0.99842, 225, 41, 352, 72
-0.99842, 85, 351, 116, 366
-0.99842, 285, 349, 316, 364
-0.998423, 109, 353, 140, 368
-0.998425, 241, 351, 272, 366
-0.998425, 141, 43, 172, 58
-0.998427, 65, 353, 96, 368
-0.998428, 219, 45, 234, 76
-0.998429, 269, 347, 300, 362
-0.99843, 73, 113, 104, 128
-0.998431, 139, 41, 154, 72
-0.998435, 151, 153, 166, 184
-0.99844, 297, 347, 328, 362
-0.998443, 297, 353, 328, 368
-0.998445, 221, 1, 252, 256
-0.998448, 49, 129, 80, 369
-0.998451, 157, 163, 188, 178
-0.998451, 213, 159, 244, 174
-0.998454, 241, 337, 256, 368
-0.998458, 65, 105, 80, 136
-0.998464, 137, 35, 168, 50
-0.998467, 227, 281, 242, 312
-0.998472, 219, 177, 234, 208
-0.998474, 207, 297, 222, 328
-0.998475, 305, 269, 432, 300
-0.998486, 313, 349, 344, 364
-0.998493, 337, 229, 352, 260
-0.998494, 161, 1, 288, 32
-0.998494, 17, 13, 144, 44
-0.998499, 337, 305, 464, 336
-0.998506, 273, 69, 400, 100
-0.99851, 237, 157, 252, 188
-0.998512, 17, 189, 144, 220
-0.998514, 33, 161, 160, 192
-0.998517, 129, 53, 144, 84
-0.998527, 71, 101, 86, 132
-0.998533, 1, 1, 32, 256
-0.998533, 319, 265, 334, 296
-0.998535, 201, 161, 216, 192
-0.998536, 249, 193, 280, 320
-0.998537, 281, 349, 344, 364
-0.998538, 201, 297, 216, 328
-0.99854, 249, 347, 312, 362
-0.998546, 305, 25, 432, 56
-0.998547, 273, 341, 336, 356
-0.99855, 369, 185, 496, 216
-0.998551, 273, 327, 336, 342
-0.998551, 349, 333, 364, 364
-0.998552, 161, 85, 288, 116
-0.998552, 209, 25, 272, 40
-0.998552, 179, 173, 194, 204
-0.998561, 247, 333, 262, 364
-0.998568, 33, 137, 160, 168
-0.998571, 161, 41, 176, 72
-0.998571, 185, 159, 248, 174
-0.998575, 305, 347, 368, 362
-0.998578, 153, 161, 216, 176
-0.998581, 113, 41, 176, 56
-0.998581, 233, 341, 296, 356
-0.998585, 17, 353, 80, 368
-0.998585, 57, 351, 120, 366
-0.998586, 87, 69, 102, 100
-0.998588, 321, 65, 448, 96
-0.998589, 55, 117, 70, 148
-0.998589, 201, 31, 264, 46
-0.998591, 105, 353, 168, 368
-0.998592, 357, 337, 372, 368
-0.998593, 161, 29, 176, 60
-0.998595, 273, 321, 336, 336
-0.998597, 225, 351, 288, 366
-0.998598, 217, 115, 280, 130
-0.9986, 273, 333, 336, 348
-0.998602, 217, 277, 280, 292
-0.998603, 263, 109, 278, 140
-0.998603, 195, 165, 210, 196
-0.998604, 343, 337, 358, 368
-0.998605, 249, 353, 312, 368
-0.998606, 69, 97, 100, 352
-0.998608, 273, 309, 336, 324
-0.99861, 305, 337, 368, 352
-0.998611, 185, 33, 216, 288
-0.998616, 113, 33, 176, 48
-0.998617, 49, 117, 112, 132
-0.998618, 337, 351, 400, 366
-0.998618, 225, 163, 288, 178
-0.998619, 185, 173, 248, 188
-0.998619, 217, 107, 280, 122
-0.99862, 251, 261, 266, 292
-0.998621, 153, 337, 168, 368
-0.998621, 305, 331, 368, 346
-0.998621, 313, 319, 376, 334
-0.998623, 321, 153, 448, 184
-0.998623, 377, 353, 440, 368
-0.998624, 225, 271, 288, 286
-0.998625, 273, 303, 336, 318
-0.998626, 217, 121, 280, 136
-0.998627, 217, 127, 280, 142
-0.998628, 209, 173, 272, 188
-0.998628, 217, 283, 280, 298
-0.99863, 121, 163, 184, 178
-0.99863, 209, 19, 272, 34
-0.99863, 17, 177, 144, 208
-0.99863, 321, 325, 448, 356
-0.998631, 105, 341, 168, 356
-0.998633, 157, 169, 172, 200
-0.998633, 225, 143, 288, 158
-0.998634, 161, 155, 224, 170
-0.998635, 297, 233, 360, 248
-0.998635, 81, 89, 96, 120
-0.998636, 325, 257, 340, 288
-0.998636, 137, 171, 200, 186
-0.998637, 185, 165, 248, 180
-0.998637, 225, 101, 288, 116
-0.998637, 177, 31, 240, 46
-0.998638, 169, 23, 232, 38
-0.998638, 49, 111, 112, 126
-0.998641, 217, 151, 280, 166
-0.998642, 193, 301, 256, 316
-0.998642, 49, 121, 176, 152
-0.998642, 129, 349, 192, 364
-0.998643, 157, 129, 188, 369
-0.998643, 343, 225, 358, 256
-0.998645, 209, 345, 272, 360
-0.998645, 137, 47, 200, 62
-0.998645, 313, 325, 376, 340
-0.998646, 273, 315, 336, 330
-0.998646, 313, 313, 376, 328
-0.998649, 201, 353, 264, 368
-0.99865, 377, 347, 440, 362
-0.99865, 177, 61, 240, 76
-0.998651, 201, 295, 264, 310
-0.998651, 243, 269, 258, 300
-0.998652, 201, 99, 264, 114
-0.998652, 233, 333, 296, 348
-0.998654, 73, 93, 136, 108
-0.998654, 49, 105, 112, 120
-0.998654, 305, 273, 368, 288
-0.998655, 185, 153, 248, 168
-0.998656, 81, 353, 144, 368
-0.998658, 239, 81, 254, 112
-0.998658, 41, 87, 104, 102
-0.998658, 201, 37, 264, 52
-0.998659, 233, 277, 248, 308
-0.99866, 41, 81, 104, 96
-0.99866, 255, 337, 270, 368
-0.998663, 281, 227, 344, 242
-0.998664, 81, 329, 144, 344
-0.998665, 137, 39, 200, 54
-0.998665, 89, 33, 152, 48
-0.998665, 273, 297, 336, 312
-0.998665, 241, 321, 304, 336
-0.998666, 401, 217, 464, 232
-0.998666, 217, 157, 280, 172
-0.998666, 233, 327, 296, 342
-0.998668, 209, 289, 272, 304
-0.998668, 313, 305, 376, 320
-0.998668, 193, 55, 256, 70
-0.998671, 41, 73, 104, 88
-0.998671, 155, 25, 170, 56
-0.998672, 121, 157, 184, 172
-0.998672, 225, 95, 288, 110
-0.998673, 217, 135, 280, 150
-0.998675, 73, 87, 136, 102
-0.998676, 169, 17, 232, 32
-0.998676, 17, 347, 80, 362
-0.998676, 9, 79, 72, 94
-0.998677, 129, 67, 192, 82
-0.998678, 81, 79, 144, 94
-0.998678, 145, 343, 208, 358
-0.998678, 241, 265, 304, 280
-0.998678, 129, 29, 144, 60
-0.998678, 25, 123, 88, 138
-0.998679, 233, 25, 296, 40
-0.998679, 81, 73, 144, 88
-0.99868, 1, 183, 64, 198
-0.998681, 137, 33, 200, 48
-0.998681, 33, 59, 96, 74
-0.998681, 177, 47, 240, 62
-0.998682, 305, 279, 368, 294
-0.998683, 89, 25, 152, 40
-0.998683, 209, 13, 272, 28
-0.998685, 185, 179, 248, 194
-0.998685, 321, 231, 384, 246
-0.998685, 41, 95, 104, 110
-0.998686, 329, 11, 392, 26
-0.998687, 305, 267, 368, 282
-0.998688, 231, 41, 246, 72
-0.998688, 369, 97, 400, 224
-0.998688, 169, 69, 232, 84
-0.99869, 331, 229, 346, 260
-0.99869, 41, 67, 104, 82
-0.99869, 225, 35, 288, 50
-0.99869, 279, 337, 294, 368
-0.99869, 85, 177, 116, 304
-0.998692, 417, 353, 480, 368
-0.998692, 241, 315, 304, 330
-0.998692, 81, 13, 144, 28
-0.998693, 305, 287, 368, 302
-0.998694, 305, 353, 368, 368
-0.998694, 225, 41, 240, 72
-0.998694, 233, 297, 296, 312
-0.998694, 25, 113, 88, 128
-0.998695, 185, 307, 248, 322
-0.998695, 177, 295, 240, 310
-0.998696, 217, 263, 280, 278
-0.998696, 265, 277, 328, 292
-0.998697, 73, 113, 136, 128
-0.998697, 137, 59, 200, 74
-0.998697, 137, 53, 200, 68
-0.998697, 161, 175, 224, 190
-0.998698, 209, 179, 272, 194
-0.998698, 161, 303, 224, 318
-0.998699, 369, 29, 496, 60
-0.998702, 49, 121, 64, 152
-0.998704, 375, 337, 390, 368
-0.998706, 213, 37, 228, 68
-0.998707, 369, 337, 384, 368
-0.998709, 197, 49, 228, 176
-0.99871, 193, 181, 208, 212
-0.998713, 179, 61, 194, 92
-0.998716, 129, 217, 256, 248
-0.998718, 185, 177, 200, 208
-0.998721, 225, 21, 240, 52
-0.998722, 261, 121, 276, 152
-0.998722, 121, 65, 152, 192
-0.998727, 247, 33, 262, 64
-0.998727, 337, 217, 464, 248
-0.998729, 229, 137, 244, 168
-0.998735, 11, 77, 26, 108
-0.998741, 281, 221, 296, 252
-0.998741, 421, 157, 436, 188
-0.998746, 195, 305, 210, 336
-0.998749, 33, 205, 160, 236
-0.99875, 273, 337, 288, 368
-0.998757, 369, 245, 496, 276
-0.99876, 65, 1, 96, 256
-0.99876, 177, 149, 192, 180
-0.998761, 185, 65, 200, 96
-0.998761, 81, 285, 208, 316
-0.998764, 215, 145, 230, 176
-0.998764, 211, 13, 226, 44
-0.99877, 353, 93, 480, 124
-0.998773, 151, 165, 166, 196
-0.998782, 257, 153, 384, 184
-0.998785, 257, 165, 384, 196
-0.998785, 245, 13, 260, 44
-0.998788, 353, 261, 480, 292
-0.998792, 257, 193, 384, 224
-0.998793, 83, 57, 98, 88
-0.998794, 325, 233, 340, 264
-0.998795, 257, 109, 272, 140
-0.998803, 263, 337, 278, 368
-0.998805, 315, 301, 330, 332
-0.998808, 1, 149, 128, 180
-0.99881, 89, 45, 104, 76
-0.998829, 469, 81, 500, 208
-0.998829, 465, 177, 496, 304
-0.998829, 161, 73, 288, 104
-0.99883, 235, 69, 250, 100
-0.998839, 175, 49, 190, 80
-0.99884, 145, 185, 272, 216
-0.998843, 249, 1, 280, 256
-0.998845, 271, 101, 286, 132
-0.998845, 49, 309, 176, 340
-0.998847, 383, 337, 398, 368
-0.998849, 441, 181, 456, 212
-0.998852, 245, 93, 260, 124
-0.998852, 7, 65, 22, 96
-0.998856, 105, 1, 120, 32
-0.998857, 257, 93, 272, 124
-0.998868, 251, 105, 266, 136
-0.998869, 325, 333, 340, 364
-0.99887, 271, 297, 286, 328
-0.998871, 241, 33, 256, 64
-0.998876, 83, 105, 98, 136
-0.998878, 287, 229, 302, 260
-0.998881, 149, 33, 180, 288
-0.998881, 219, 21, 234, 52
-0.998884, 81, 77, 96, 108
-0.998886, 475, 301, 490, 332
-0.998888, 335, 333, 350, 364
-0.998892, 7, 37, 22, 68
-0.998894, 93, 1, 124, 256
-0.998896, 121, 57, 136, 88
-0.998896, 363, 337, 378, 368
-0.9989, 87, 81, 102, 112
-0.998901, 129, 41, 144, 72
-0.998905, 93, 13, 108, 44
-0.99891, 105, 113, 168, 240
-0.998913, 17, 73, 32, 104
-0.998913, 97, 337, 112, 368
-0.998914, 389, 337, 404, 368
-0.998914, 135, 1, 150, 32
-0.998921, 145, 153, 160, 184
-0.998926, 263, 277, 278, 308
-0.998927, 3, 9, 18, 40
-0.998929, 125, 9, 140, 40
-0.998955, 13, 1, 44, 256
-0.998961, 257, 65, 500, 128
-0.998968, 453, 33, 484, 288
-0.998982, 441, 1, 472, 256
-0.998985, 349, 177, 380, 304
-0.999048, 265, 97, 296, 352
-0.999054, 81, 1, 112, 256
-0.999056, 133, 81, 164, 208
-0.999071, 69, 161, 100, 288
-0.999083, 61, 113, 92, 240
-0.999096, 319, 209, 334, 336
-0.999119, 33, 129, 64, 369
-0.999161, 311, 225, 326, 352
-0.999245, 1, 1, 16, 128
-0.999246, 257, 241, 272, 368
-0.999258, 209, 145, 224, 272
-0.999258, 201, 145, 216, 272
-0.999269, 243, 17, 258, 144
-0.999272, 37, 33, 68, 288
-0.999277, 417, 65, 448, 320
-0.999291, 83, 17, 98, 144
-0.999308, 247, 81, 262, 208
-0.99931, 237, 17, 252, 144
-0.999312, 215, 17, 230, 144
-0.999316, 429, 65, 460, 320
-0.99932, 185, 17, 216, 144
-0.999323, 221, 33, 236, 160
-0.999325, 329, 49, 360, 176
-0.999325, 15, 1, 30, 128
-0.999329, 325, 209, 340, 336
-0.999336, 215, 161, 230, 288
-0.999351, 249, 241, 264, 368
-0.999353, 9, 1, 24, 128
-0.999361, 101, 129, 132, 369
-0.999367, 223, 113, 238, 240
-0.999374, 77, 17, 92, 144
-0.99938, 145, 129, 176, 369
-0.999381, 231, 17, 246, 144
-0.999382, 241, 65, 256, 192
-0.999384, 235, 145, 250, 272
-0.999385, 81, 97, 112, 352
-0.999385, 71, 17, 86, 144
-0.999393, 305, 225, 320, 352
-0.999395, 121, 1, 136, 128
-0.999397, 231, 97, 246, 224
-0.999402, 281, 209, 296, 336
-0.999416, 223, 225, 238, 352
-0.999417, 49, 145, 64, 272
-0.999417, 137, 33, 168, 288
-0.999421, 65, 1, 80, 128
-0.999422, 199, 97, 214, 224
-0.99943, 465, 33, 496, 288
-0.999433, 229, 145, 244, 272
-0.999434, 193, 145, 208, 272
-0.999435, 339, 209, 354, 336
-0.999436, 469, 1, 500, 128
-0.999438, 229, 209, 244, 336
-0.999439, 213, 225, 228, 352
-0.99944, 209, 1, 224, 128
-0.99944, 15, 65, 30, 192
-0.999441, 179, 129, 194, 256
-0.999446, 263, 241, 278, 368
-0.999447, 187, 129, 202, 256
-0.999448, 211, 97, 226, 224
-0.999451, 91, 33, 106, 160
-0.999465, 205, 97, 220, 224
-0.99947, 33, 1, 48, 128
-0.999471, 353, 1, 384, 256
-0.999472, 331, 209, 346, 336
-0.999472, 253, 97, 268, 224
-0.999472, 49, 65, 64, 192
-0.999474, 51, 209, 66, 336
-0.999478, 203, 241, 218, 368
-0.999481, 151, 17, 166, 144
-0.999483, 263, 113, 278, 240
-0.999485, 55, 1, 70, 128
-0.999487, 171, 129, 186, 256
-0.999488, 55, 145, 70, 272
-0.99949, 165, 1, 180, 128
-0.999492, 217, 97, 232, 224
-0.999497, 165, 129, 180, 256
-0.999497, 251, 17, 266, 144
-0.999498, 25, 33, 56, 288
-0.999501, 201, 193, 216, 320
-0.999501, 21, 17, 36, 144
-0.999502, 197, 1, 228, 256
-0.999502, 57, 209, 72, 336
-0.999505, 65, 49, 80, 176
-0.999506, 271, 101, 286, 116
-0.999506, 385, 353, 400, 368
-0.999507, 321, 343, 336, 358
-0.999507, 201, 163, 216, 178
-0.999507, 91, 107, 106, 122
-0.999508, 223, 37, 238, 52
-0.999509, 239, 35, 254, 50
-0.999509, 191, 157, 206, 172
-0.999509, 407, 353, 422, 368
-0.99951, 231, 279, 246, 294
-0.999511, 243, 209, 258, 336
-0.999511, 63, 109, 78, 124
-0.999511, 159, 49, 174, 64
-0.999511, 345, 209, 360, 336
-0.999512, 375, 345, 390, 360
-0.999512, 149, 153, 164, 168
-0.999512, 79, 95, 94, 110
-0.999513, 121, 351, 136, 366
-0.999514, 343, 227, 358, 242
-0.999514, 321, 267, 336, 282
-0.999514, 183, 163, 198, 178
-0.999516, 231, 353, 246, 368
-0.999516, 245, 269, 260, 284
-0.999517, 227, 347, 242, 362
-0.999517, 65, 121, 80, 136
-0.999518, 83, 69, 98, 84
-0.999518, 227, 171, 242, 186
-0.999518, 93, 225, 108, 352
-0.999518, 231, 141, 246, 156
-0.999519, 261, 125, 276, 140
-0.999519, 27, 17, 42, 144
-0.999519, 319, 337, 334, 352
-0.99952, 167, 43, 182, 58
-0.999521, 185, 65, 200, 80
-0.999523, 293, 345, 308, 360
-0.999523, 219, 45, 234, 60
-0.999524, 209, 165, 224, 180
-0.999524, 161, 37, 176, 52
-0.999524, 139, 345, 154, 360
-0.999524, 87, 225, 102, 352
-0.999525, 391, 353, 406, 368
-0.999525, 97, 33, 112, 160
-0.999526, 235, 347, 250, 362
-0.999526, 255, 345, 270, 360
-0.999527, 225, 43, 240, 58
-0.999527, 63, 115, 78, 130
-0.999528, 215, 293, 230, 308
-0.999528, 225, 285, 240, 300
-0.999528, 183, 157, 198, 172
-0.999528, 153, 351, 168, 366
-0.999528, 401, 353, 416, 368
-0.999529, 57, 117, 72, 132
-0.99953, 199, 305, 214, 320
-0.99953, 239, 273, 254, 288
-0.999531, 195, 183, 210, 198
-0.999531, 245, 23, 260, 38
-0.999532, 243, 345, 258, 360
-0.999532, 413, 161, 428, 288
-0.999533, 85, 87, 100, 102
-0.999533, 115, 351, 130, 366
-0.999535, 241, 145, 256, 272
-0.999536, 77, 115, 92, 130
-0.999536, 217, 159, 232, 174
-0.999536, 145, 1, 160, 128
-0.999538, 151, 31, 166, 46
-0.999538, 177, 165, 192, 180
-0.999539, 227, 157, 242, 172
-0.99954, 127, 353, 142, 368
-0.999541, 129, 59, 144, 74
-0.999541, 359, 347, 374, 362
-0.999542, 255, 103, 270, 118
-0.999542, 57, 353, 72, 368
-0.999543, 135, 351, 150, 366
-0.999543, 405, 161, 420, 288
-0.999543, 189, 179, 204, 194
-0.999544, 419, 353, 434, 368
-0.999544, 175, 173, 190, 188
-0.999546, 41, 161, 56, 288
-0.999546, 71, 117, 86, 132
-0.999547, 291, 225, 306, 352
-0.999547, 241, 351, 256, 366
-0.999548, 289, 97, 320, 352
-0.999549, 287, 345, 302, 360
-0.99955, 335, 349, 350, 364
-0.999551, 297, 225, 312, 352
-0.999552, 205, 301, 220, 316
-0.999552, 481, 129, 496, 256
-0.999553, 65, 209, 80, 336
-0.999554, 141, 351, 156, 366
-0.999554, 81, 353, 96, 368
-0.999554, 179, 67, 194, 82
-0.999555, 221, 175, 236, 190
-0.999555, 153, 159, 168, 174
-0.999555, 181, 175, 196, 190
-0.999556, 235, 209, 250, 336
-0.999559, 55, 65, 70, 192
-0.999559, 73, 353, 88, 368
-0.99956, 365, 349, 380, 364
-0.999561, 73, 225, 88, 352
-0.999561, 159, 129, 174, 256
-0.999562, 133, 33, 148, 48
-0.999562, 157, 169, 172, 184
-0.999563, 337, 231, 352, 246
-0.999564, 89, 351, 104, 366
-0.999564, 237, 161, 252, 176
-0.999567, 97, 353, 112, 368
-0.999567, 167, 171, 182, 186
-0.999569, 147, 343, 162, 358
-0.99957, 217, 39, 232, 54
-0.999571, 109, 353, 124, 368
-0.999572, 83, 111, 98, 126
-0.999572, 345, 349, 360, 364
-0.999573, 329, 349, 344, 364
-0.999574, 221, 161, 236, 288
-0.999575, 5, 49, 20, 176
-0.999576, 247, 351, 262, 366
-0.999576, 275, 345, 290, 360
-0.999577, 351, 349, 366, 364
-0.999577, 147, 351, 162, 366
-0.999578, 267, 107, 282, 122
-0.999579, 77, 65, 92, 192
-0.999579, 147, 41, 162, 56
-0.999581, 193, 97, 208, 224
-0.999582, 257, 259, 272, 274
-0.999582, 161, 43, 176, 58
-0.999583, 67, 353, 82, 368
-0.999583, 251, 193, 266, 320
-0.999585, 299, 347, 314, 362
-0.999585, 315, 343, 330, 358
-0.999586, 269, 349, 284, 364
-0.999586, 225, 143, 240, 158
-0.999586, 89, 113, 104, 128
-0.999587, 159, 1, 174, 128
-0.999588, 153, 345, 168, 360
-0.999589, 213, 27, 228, 42
-0.99959, 81, 225, 96, 352
-0.999592, 269, 97, 284, 224
-0.999593, 349, 1, 364, 128
-0.999593, 197, 241, 212, 368
-0.999596, 259, 115, 274, 130
-0.999596, 277, 351, 292, 366
-0.999599, 215, 33, 230, 48
-0.999601, 71, 65, 86, 192
-0.999601, 253, 351, 268, 366
-0.999604, 41, 65, 56, 192
-0.999604, 107, 1, 122, 128
-0.999604, 227, 151, 242, 166
-0.999605, 379, 351, 394, 366
-0.999608, 115, 1, 130, 128
-0.99961, 275, 145, 290, 272
-0.999611, 207, 193, 222, 320
-0.999612, 31, 65, 46, 192
-0.999613, 323, 349, 338, 364
-0.999613, 171, 165, 186, 180
-0.999614, 261, 351, 276, 366
-0.999616, 309, 353, 324, 368
-0.999617, 153, 43, 168, 58
-0.999619, 317, 349, 332, 364
-0.999621, 309, 347, 324, 362
-0.999622, 39, 17, 54, 144
-0.999625, 471, 113, 486, 240
-0.999625, 299, 353, 314, 368
-0.999626, 451, 129, 466, 256
-0.999626, 159, 161, 174, 176
-0.999627, 21, 65, 36, 192
-0.999627, 313, 177, 328, 304
-0.99963, 29, 145, 44, 272
-0.999631, 447, 193, 462, 320
-0.999631, 401, 1, 416, 128
-0.999633, 259, 65, 274, 192
-0.999634, 195, 49, 210, 176
-0.999634, 293, 351, 308, 366
-0.999635, 153, 37, 168, 52
-0.999637, 135, 1, 150, 128
-0.999637, 305, 129, 336, 369
-0.999637, 39, 113, 54, 240
-0.999638, 139, 33, 154, 48
-0.999638, 153, 161, 168, 288
-0.999639, 281, 161, 296, 288
-0.999639, 257, 193, 272, 320
-0.99964, 165, 163, 180, 178
-0.99964, 283, 351, 298, 366
-0.999642, 275, 209, 290, 336
-0.999642, 189, 49, 204, 176
-0.999643, 145, 35, 160, 50
-0.999645, 419, 113, 434, 240
-0.999646, 129, 1, 144, 128
-0.999651, 157, 81, 172, 208
-0.999653, 473, 241, 488, 368
-0.999657, 403, 225, 418, 352
-0.99966, 179, 81, 194, 208
-0.999662, 103, 49, 118, 176
-0.999665, 103, 225, 118, 352
-0.999667, 399, 177, 414, 304
-0.999668, 117, 1, 148, 256
-0.999669, 325, 129, 356, 369
-0.999671, 465, 129, 480, 256
-0.999675, 49, 17, 64, 144
-0.999676, 289, 177, 304, 304
-0.999679, 167, 177, 182, 304
-0.999681, 405, 113, 420, 240
-0.999753, 389, 1, 420, 256
-0.999803, 441, 97, 472, 352
-0.999823, 349, 97, 380, 352
-0.99985, 317, 1, 348, 256
-0.999854, 277, 129, 308, 369
-0.999957, 261, 1, 292, 256
-0.999971, 369, 129, 400, 369
-0.999983, 401, 65, 432, 320
-0.999991, 365, 1, 396, 256
-1.00003, 117, 97, 148, 352
-1.00004, 277, 33, 308, 288
-1.00006, 1, 129, 32, 369
-1.00018, 457, 129, 488, 369
-1.00018, 469, 129, 500, 369
-1.00019, 329, 33, 360, 288
-1.00024, 133, 129, 164, 369
-1.00032, 305, 1, 336, 256
-1.00034, 389, 97, 420, 352
-1.00038, 377, 1, 408, 256
-1.00045, 341, 1, 372, 256
-1.00051, 289, 1, 320, 256
-1.00051, 13, 129, 44, 369
-1.00072, 337, 129, 368, 369
-1.00078, 393, 129, 456, 369
-1.00088, 305, 97, 368, 224
-1.00168, 337, 113, 400, 240
