1881
-0.275081, 1, 1, 500, 332
-0.395275, 1, 33, 500, 288
-0.414393, 225, 1, 480, 332
-0.41733, 97, 1, 352, 332
-0.490678, 1, 1, 256, 332
-0.642509, 33, 33, 288, 288
-0.646001, 161, 1, 416, 256
-0.693847, 257, 33, 500, 288
-0.850931, 113, 1, 240, 332
-0.855208, 321, 1, 448, 332
-0.856022, 193, 1, 320, 332
-0.857516, 49, 1, 176, 332
-0.863117, 241, 1, 368, 332
-0.863261, 145, 33, 272, 288
-0.863503, 1, 1, 128, 332
-0.869714, 65, 33, 192, 288
-0.871249, 193, 1, 320, 256
-0.873869, 369, 1, 496, 332
-0.877461, 1, 65, 500, 192
-0.881686, 241, 1, 368, 256
-0.883203, 17, 33, 144, 288
-0.883706, 289, 33, 416, 288
-0.885131, 337, 33, 464, 288
-0.902275, 225, 81, 480, 208
-0.908162, 65, 65, 320, 192
-0.914568, 1, 113, 500, 240
-0.923109, 1, 17, 500, 144
-0.923326, 193, 81, 320, 208
-0.926915, 145, 81, 272, 208
-0.928255, 321, 81, 448, 208
-0.928531, 281, 81, 344, 208
-0.929278, 65, 113, 320, 240
-0.92977, 241, 81, 368, 208
-0.931864, 217, 81, 280, 208
-0.932364, 193, 33, 448, 160
-0.93308, 337, 81, 400, 208
-0.933953, 97, 65, 224, 192
-0.934363, 417, 81, 480, 208
-0.93489, 257, 81, 320, 208
-0.937626, 161, 65, 224, 192
-0.93862, 377, 81, 440, 208
-0.94308, 369, 81, 496, 208
-0.943208, 305, 81, 368, 208
-0.944445, 33, 65, 160, 192
-0.945845, 377, 121, 440, 184
-0.946052, 65, 113, 192, 240
-0.946771, 193, 129, 448, 256
-0.947839, 105, 65, 168, 192
-0.947847, 281, 113, 344, 176
-0.948574, 185, 65, 248, 192
-0.948717, 161, 129, 288, 256
-0.949262, 121, 113, 184, 240
-0.949933, 241, 121, 304, 184
-0.950137, 73, 81, 136, 208
-0.951537, 417, 121, 480, 184
-0.951695, 9, 65, 72, 192
-0.952995, 337, 97, 400, 160
-0.952996, 209, 33, 336, 160
-0.953301, 1, 113, 128, 240
-0.953338, 273, 33, 400, 160
-0.953916, 33, 81, 96, 208
-0.954403, 129, 65, 192, 192
-0.955642, 25, 121, 88, 184
-0.955994, 145, 33, 272, 160
-0.956226, 225, 97, 288, 160
-0.956708, 377, 33, 440, 160
-0.957318, 113, 113, 176, 176
-0.957853, 201, 113, 264, 176
-0.957934, 337, 33, 464, 160
-0.958135, 113, 129, 240, 256
-0.958243, 193, 113, 256, 240
-0.9583, 377, 97, 440, 160
-0.958675, 73, 121, 136, 184
-0.959593, 33, 17, 288, 144
-0.960046, 241, 33, 304, 160
-0.960073, 305, 121, 368, 184
-0.960646, 297, 129, 360, 256
-0.96083, 417, 33, 480, 160
-0.96094, 321, 33, 384, 160
-0.960963, 145, 113, 208, 176
-0.960986, 289, 33, 352, 160
-0.96139, 257, 129, 320, 256
-0.961464, 9, 113, 72, 240
-0.961569, 273, 129, 400, 256
-0.962331, 417, 97, 480, 160
-0.962715, 217, 33, 280, 160
-0.962898, 169, 113, 232, 176
-0.963477, 209, 129, 336, 256
-0.963823, 169, 113, 232, 240
-0.964091, 353, 33, 416, 160
-0.964306, 49, 137, 112, 200
-0.96448, 1, 121, 64, 184
-0.964842, 265, 33, 328, 160
-0.964845, 73, 129, 136, 256
-0.965736, 409, 121, 440, 184
-0.966426, 385, 129, 448, 256
-0.966487, 145, 113, 208, 240
-0.966816, 113, 137, 176, 200
-0.967266, 225, 129, 288, 256
-0.967438, 185, 137, 248, 200
-0.96761, 241, 121, 368, 184
-0.967893, 305, 97, 368, 160
-0.967936, 129, 89, 192, 152
-0.968158, 297, 81, 328, 208
-0.968286, 89, 97, 152, 160
-0.968443, 193, 113, 320, 176
-0.968608, 1, 161, 500, 288
-0.968878, 309, 81, 340, 208
-0.968917, 329, 121, 392, 184
-0.969161, 393, 121, 424, 184
-0.969546, 321, 121, 352, 184
-0.969613, 321, 81, 352, 208
-0.96982, 49, 129, 112, 256
-0.969941, 265, 137, 328, 200
-0.969999, 245, 113, 276, 176
-0.970158, 113, 121, 240, 184
-0.970395, 213, 65, 244, 192
-0.970513, 97, 129, 160, 256
-0.970548, 233, 65, 264, 192
-0.970608, 337, 129, 464, 256
-0.970632, 257, 97, 320, 160
-0.97067, 409, 129, 472, 256
-0.970862, 245, 81, 276, 208
-0.970909, 353, 121, 416, 184
-0.970971, 289, 113, 320, 176
-0.971022, 49, 113, 112, 176
-0.971028, 269, 121, 300, 184
-0.971139, 269, 81, 300, 208
-0.97117, 321, 97, 448, 160
-0.971231, 461, 121, 492, 184
-0.971405, 469, 81, 500, 208
-0.971465, 217, 137, 280, 200
-0.971664, 161, 89, 224, 152
-0.971878, 201, 89, 264, 152
-0.971906, 25, 97, 88, 160
-0.972061, 81, 33, 144, 288
-0.972189, 289, 121, 416, 184
-0.972309, 33, 209, 288, 332
-0.972309, 201, 65, 232, 192
-0.972609, 409, 81, 440, 208
-0.973317, 97, 209, 224, 332
-0.973332, 181, 121, 212, 184
-0.973401, 281, 89, 344, 152
-0.973439, 393, 81, 424, 208
-0.973507, 129, 33, 192, 288
-0.973767, 337, 121, 464, 184
-0.974042, 33, 121, 160, 184
-0.97414, 233, 33, 296, 288
-0.974247, 165, 113, 196, 176
-0.9743, 429, 81, 460, 208
-0.974367, 1, 65, 32, 192
-0.974415, 417, 145, 480, 208
-0.974453, 285, 81, 316, 208
-0.974471, 145, 137, 208, 200
-0.974513, 445, 81, 476, 208
-0.974698, 185, 17, 248, 144
-0.97473, 201, 113, 232, 176
-0.974811, 1, 17, 128, 144
-0.97489, 341, 81, 372, 208
-0.974901, 21, 129, 52, 192
-0.975022, 309, 113, 340, 176
-0.975106, 233, 113, 264, 176
-0.975279, 389, 97, 420, 160
-0.975336, 73, 233, 136, 296
-0.975515, 361, 129, 424, 256
-0.975517, 177, 65, 208, 192
-0.975518, 9, 145, 72, 208
-0.975529, 369, 81, 400, 208
-0.975545, 281, 33, 344, 288
-0.975586, 49, 17, 176, 144
-0.975616, 145, 49, 176, 176
-0.975634, 41, 33, 104, 160
-0.975796, 381, 121, 412, 184
-0.975922, 61, 121, 92, 184
-0.976003, 33, 121, 64, 184
-0.976118, 217, 113, 248, 176
-0.976227, 457, 81, 488, 208
-0.976326, 177, 33, 240, 288
-0.976328, 241, 145, 304, 208
-0.97633, 85, 113, 116, 240
-0.976452, 9, 17, 72, 144
-0.976462, 385, 153, 448, 216
-0.976482, 337, 33, 400, 288
-0.97662, 321, 129, 384, 256
-0.976633, 161, 81, 192, 208
-0.976634, 1, 209, 500, 332
-0.976745, 273, 97, 400, 160
-0.976752, 321, 97, 352, 160
-0.976761, 145, 97, 272, 160
-0.97679, 109, 121, 140, 184
-0.976838, 105, 33, 168, 288
-0.977084, 117, 65, 148, 192
-0.977153, 97, 17, 224, 144
-0.977322, 369, 97, 400, 160
-0.977404, 81, 33, 144, 160
-0.977427, 133, 49, 164, 176
-0.977469, 153, 33, 216, 288
-0.977475, 13, 97, 44, 224
-0.977594, 49, 89, 112, 152
-0.97775, 161, 17, 224, 144
-0.977774, 381, 81, 412, 208
-0.977834, 409, 97, 440, 160
-0.977882, 441, 105, 472, 168
-0.977912, 201, 33, 264, 288
-0.977985, 189, 65, 220, 192
-0.978006, 121, 17, 184, 144
-0.978009, 305, 1, 368, 256
-0.978149, 305, 145, 368, 208
-0.978224, 97, 97, 224, 160
-0.978244, 1, 89, 64, 152
-0.97834, 153, 121, 184, 184
-0.978365, 49, 121, 80, 184
-0.97852, 97, 121, 128, 184
-0.978523, 369, 97, 496, 160
-0.978574, 193, 137, 320, 200
-0.978657, 41, 33, 104, 288
-0.978714, 9, 121, 40, 184
-0.978777, 341, 97, 372, 160
-0.978977, 29, 65, 60, 192
-0.979054, 81, 113, 112, 176
-0.979183, 137, 113, 168, 176
-0.979238, 105, 81, 136, 208
-0.979293, 81, 65, 112, 192
-0.979293, 385, 1, 448, 256
-0.9794, 133, 97, 164, 224
-0.979542, 33, 97, 160, 160
-0.979618, 333, 121, 364, 184
-0.979635, 193, 89, 320, 152
-0.979708, 253, 137, 284, 200
-0.979798, 201, 113, 232, 240
-0.979975, 217, 113, 248, 240
-0.980007, 177, 161, 240, 288
-0.980141, 93, 65, 124, 192
-0.980147, 9, 33, 72, 288
-0.980163, 229, 113, 260, 240
-0.980308, 257, 65, 288, 192
-0.980406, 73, 145, 136, 208
-0.980443, 65, 65, 96, 192
-0.980518, 257, 33, 320, 288
-0.980709, 417, 33, 480, 288
-0.980854, 265, 97, 296, 160
-0.980942, 429, 105, 460, 168
-0.981003, 309, 137, 340, 200
-0.981033, 121, 1, 184, 332
-0.981382, 353, 81, 384, 208
-0.981392, 89, 73, 152, 136
-0.98144, 409, 33, 440, 160
-0.981759, 65, 1, 128, 332
-0.981891, 381, 33, 412, 160
-0.981932, 129, 57, 192, 120
-0.98201, 313, 73, 376, 136
-0.982031, 241, 73, 304, 136
-0.982054, 361, 1, 424, 256
-0.982109, 337, 1, 400, 332
-0.982113, 361, 145, 424, 208
-0.982254, 109, 97, 140, 160
-0.982298, 233, 137, 264, 200
-0.982409, 117, 129, 148, 256
-0.982478, 301, 129, 332, 256
-0.982521, 13, 49, 44, 176
-0.982529, 233, 1, 296, 332
-0.982566, 281, 1, 344, 332
-0.982566, 65, 161, 192, 288
-0.982832, 49, 65, 80, 192
-0.982855, 249, 265, 312, 328
-0.982876, 73, 137, 104, 200
-0.982877, 241, 145, 368, 208
-0.982938, 189, 97, 220, 160
-0.982987, 329, 33, 360, 160
-0.983043, 409, 1, 472, 332
-0.983085, 153, 1, 216, 332
-0.983106, 377, 1, 440, 332
-0.98315, 449, 33, 480, 160
-0.983194, 177, 1, 240, 332
-0.983213, 69, 97, 100, 160
-0.983219, 101, 129, 132, 256
-0.983249, 97, 1, 160, 332
-0.98328, 25, 1, 88, 332
-0.983388, 253, 129, 284, 256
-0.983397, 145, 209, 272, 332
-0.983523, 301, 33, 332, 160
-0.983524, 361, 33, 392, 160
-0.983671, 177, 97, 208, 160
-0.983719, 289, 129, 320, 256
-0.983724, 157, 145, 188, 272
-0.983741, 329, 129, 360, 256
-0.983749, 469, 97, 500, 160
-0.983787, 341, 33, 372, 160
-0.98388, 49, 57, 112, 120
-0.983918, 57, 257, 120, 320
-0.98395, 97, 225, 224, 288
-0.984002, 289, 33, 320, 160
-0.984035, 377, 73, 440, 136
-0.984116, 233, 89, 264, 152
-0.984209, 153, 97, 184, 160
-0.984229, 217, 137, 248, 200
-0.984272, 121, 121, 152, 184
-0.984375, 85, 137, 116, 200
-0.9844, 217, 89, 248, 152
-0.984401, 429, 129, 460, 192
-0.984433, 313, 129, 344, 256
-0.984454, 145, 113, 176, 240
-0.984457, 201, 1, 264, 332
-0.984508, 201, 89, 232, 152
-0.984543, 257, 1, 320, 332
-0.984548, 353, 73, 416, 136
-0.984595, 401, 129, 432, 256
-0.98466, 281, 137, 312, 200
-0.984789, 393, 33, 424, 160
-0.984904, 437, 33, 468, 160
-0.985092, 97, 97, 128, 160
-0.985104, 165, 89, 196, 152
-0.985141, 433, 73, 496, 136
-0.985188, 1, 97, 32, 160
-0.985247, 57, 113, 88, 240
-0.985281, 389, 129, 420, 256
-0.985317, 433, 1, 496, 332
-0.985342, 245, 33, 276, 160
-0.985379, 469, 33, 500, 160
-0.985408, 441, 137, 472, 200
-0.985454, 25, 113, 56, 240
-0.985466, 33, 145, 160, 208
-0.98549, 309, 89, 340, 152
-0.985493, 73, 113, 104, 240
-0.985532, 113, 145, 240, 208
-0.985536, 353, 97, 384, 160
-0.985541, 1, 1, 64, 332
-0.985556, 209, 65, 272, 128
-0.985557, 193, 233, 256, 296
-0.985673, 169, 65, 232, 128
-0.985803, 317, 33, 348, 160
-0.985809, 29, 97, 60, 160
-0.985861, 13, 89, 44, 152
-0.985874, 81, 209, 144, 332
-0.985875, 369, 145, 496, 208
-0.98588, 321, 145, 352, 208
-0.98591, 313, 1, 376, 332
-0.985919, 277, 33, 308, 160
-0.98593, 433, 129, 496, 256
-0.985987, 409, 153, 440, 216
-0.986036, 225, 241, 288, 304
-0.986062, 245, 89, 276, 152
-0.986172, 329, 145, 392, 208
-0.986174, 461, 129, 492, 256
-0.986298, 189, 113, 220, 240
-0.986314, 157, 33, 188, 160
-0.986437, 1, 57, 64, 120
-0.986568, 113, 217, 176, 280
-0.98658, 129, 89, 160, 152
-0.986592, 457, 97, 488, 160
-0.986617, 97, 161, 352, 288
-0.986646, 145, 233, 272, 296
-0.986716, 305, 145, 432, 208
-0.986899, 81, 89, 112, 152
-0.986939, 17, 161, 144, 288
-0.98704, 1, 161, 256, 288
-0.987052, 97, 49, 160, 112
-0.98713, 25, 57, 88, 120
-0.987251, 289, 89, 320, 152
-0.987318, 129, 73, 256, 136
-0.987337, 169, 137, 200, 200
-0.98741, 409, 73, 472, 136
-0.987448, 41, 113, 72, 240
-0.98752, 425, 33, 456, 160
-0.987623, 393, 145, 424, 208
-0.987685, 297, 137, 328, 200
-0.987693, 141, 89, 172, 152
-0.987813, 81, 129, 144, 160
-0.987867, 129, 57, 160, 120
-0.987886, 369, 65, 496, 128
-0.987943, 273, 73, 400, 136
-0.988143, 57, 97, 88, 160
-0.988163, 161, 225, 224, 288
-0.988169, 45, 89, 76, 152
-0.988216, 193, 137, 224, 200
-0.988226, 9, 145, 40, 208
-0.98825, 429, 81, 460, 144
-0.988341, 417, 129, 448, 256
-0.988372, 277, 97, 308, 160
-0.988457, 241, 133, 304, 164
-0.988469, 65, 73, 192, 136
-0.988475, 205, 137, 236, 200
-0.988491, 269, 145, 300, 208
-0.988492, 153, 161, 216, 288
-0.988689, 49, 209, 176, 332
-0.988712, 385, 125, 448, 156
-0.988957, 113, 137, 176, 168
-0.989014, 281, 125, 344, 156
-0.989064, 145, 133, 208, 164
-0.989086, 85, 241, 116, 304
-0.989094, 345, 121, 376, 184
-0.989113, 73, 241, 104, 304
-0.989145, 441, 81, 472, 144
-0.989209, 425, 121, 488, 152
-0.989217, 137, 209, 200, 332
-0.989233, 453, 145, 484, 208
-0.989317, 425, 137, 488, 168
-0.98938, 185, 133, 248, 164
-0.989416, 33, 153, 64, 216
-0.989425, 1, 113, 32, 240
-0.989501, 73, 49, 136, 112
-0.989511, 41, 133, 104, 164
-0.989534, 377, 137, 440, 168
-0.98957, 113, 121, 176, 152
-0.989651, 265, 137, 328, 168
-0.989675, 241, 117, 304, 148
-0.989778, 1, 73, 128, 136
-0.989808, 145, 65, 176, 128
-0.98981, 9, 133, 72, 164
-0.989822, 257, 113, 500, 176
-0.989938, 173, 145, 204, 272
-0.989946, 129, 121, 384, 184
-0.98995, 141, 137, 172, 200
-0.989977, 73, 141, 136, 172
-0.9901, 337, 133, 400, 164
-0.990135, 225, 17, 256, 144
-0.990145, 33, 265, 96, 328
-0.990164, 241, 145, 304, 176
-0.99017, 409, 109, 472, 140
-0.990183, 321, 65, 448, 128
-0.99019, 217, 133, 280, 164
-0.990209, 381, 145, 412, 208
-0.990232, 145, 117, 208, 148
-0.990274, 337, 121, 400, 152
-0.990295, 377, 113, 440, 144
-0.990329, 265, 65, 328, 128
-0.990339, 117, 73, 148, 136
-0.99036, 305, 137, 368, 168
-0.990384, 113, 209, 176, 332
-0.990408, 281, 113, 344, 144
-0.990427, 169, 97, 232, 128
-0.990468, 469, 145, 500, 208
-0.990473, 401, 145, 464, 176
-0.990495, 73, 57, 104, 120
-0.990511, 85, 57, 116, 120
-0.990513, 193, 249, 320, 312
-0.990544, 53, 145, 84, 208
-0.99058, 33, 113, 288, 176
-0.990616, 49, 145, 112, 176
-0.99065, 289, 57, 352, 120
-0.990754, 105, 101, 168, 132
-0.990769, 129, 97, 192, 128
-0.990774, 185, 121, 248, 152
-0.990779, 73, 117, 136, 148
-0.990814, 377, 97, 440, 128
-0.990841, 193, 97, 256, 128
-0.990855, 9, 121, 72, 152
-0.990881, 137, 217, 200, 280
-0.990921, 9, 145, 72, 176
-0.990967, 305, 125, 368, 156
-0.990973, 185, 17, 216, 144
-0.990983, 337, 145, 400, 176
-0.990983, 209, 17, 240, 144
-0.99102, 329, 97, 392, 128
-0.991051, 217, 117, 280, 148
-0.991121, 157, 145, 188, 208
-0.991147, 145, 145, 208, 176
-0.991176, 257, 17, 288, 144
-0.991186, 121, 221, 184, 252
-0.991191, 373, 73, 404, 136
-0.991219, 225, 105, 288, 136
-0.991251, 9, 101, 72, 132
-0.991252, 65, 101, 128, 132
-0.99129, 201, 145, 264, 176
-0.991311, 189, 73, 220, 136
-0.991315, 1, 73, 32, 136
-0.991357, 185, 109, 248, 140
-0.991369, 161, 229, 224, 260
-0.991383, 433, 93, 496, 124
-0.9914, 49, 49, 176, 112
-0.991414, 353, 97, 416, 128
-0.991423, 105, 33, 136, 160
-0.991427, 337, 109, 400, 140
-0.99144, 369, 121, 400, 184
-0.991495, 409, 97, 472, 128
-0.9915, 169, 145, 232, 176
-0.99152, 193, 57, 320, 120
-0.991527, 201, 241, 264, 272
-0.991539, 265, 149, 328, 180
-0.991571, 289, 97, 352, 128
-0.991594, 201, 161, 264, 288
-0.991608, 277, 129, 308, 256
-0.991617, 41, 101, 104, 132
-0.991636, 49, 241, 176, 304
-0.991661, 33, 121, 96, 152
-0.991678, 113, 49, 240, 112
-0.99168, 425, 149, 488, 180
-0.991687, 305, 113, 368, 144
-0.991722, 361, 73, 392, 136
-0.991724, 81, 237, 144, 268
-0.991734, 273, 249, 336, 312
-0.99174, 113, 149, 176, 180
-0.991743, 1, 265, 128, 328
-0.991784, 97, 145, 128, 208
-0.991786, 305, 149, 368, 180
-0.991798, 249, 97, 312, 128
-0.99181, 273, 273, 336, 332
-0.991834, 241, 129, 272, 256
-0.991881, 377, 153, 440, 184
-0.991888, 65, 253, 128, 284
-0.99191, 97, 233, 128, 296
-0.991924, 121, 17, 152, 144
-0.991968, 361, 125, 424, 156
-0.991984, 225, 249, 288, 280
-0.992086, 197, 17, 228, 144
-0.992103, 161, 209, 224, 332
-0.992135, 21, 153, 52, 216
-0.992138, 269, 117, 300, 148
-0.992148, 185, 229, 248, 260
-0.992152, 225, 209, 480, 332
-0.992183, 161, 129, 192, 160
-0.992195, 433, 109, 496, 140
-0.992207, 461, 133, 492, 164
-0.992221, 233, 49, 296, 112
-0.99223, 389, 125, 420, 156
-0.992231, 181, 121, 212, 152
-0.992241, 321, 125, 352, 156
-0.992253, 181, 133, 212, 164
-0.992308, 269, 265, 300, 328
-0.992308, 1, 17, 32, 144
-0.992308, 101, 137, 132, 168
-0.992319, 409, 125, 440, 156
-0.992354, 65, 133, 96, 164
-0.992356, 465, 121, 480, 184
-0.992378, 429, 129, 460, 256
-0.992381, 21, 137, 52, 168
-0.992387, 9, 89, 72, 120
-0.992389, 329, 137, 360, 168
-0.992394, 85, 129, 116, 160
-0.992409, 241, 265, 304, 296
-0.992417, 97, 225, 160, 256
-0.992417, 129, 97, 384, 160
-0.992419, 269, 133, 300, 164
-0.99242, 25, 241, 88, 304
-0.992424, 217, 93, 280, 124
-0.992433, 389, 137, 420, 168
-0.992443, 257, 137, 500, 200
-0.992444, 245, 125, 276, 156
-0.992496, 165, 141, 196, 172
-0.992501, 395, 121, 410, 184
-0.992517, 89, 153, 152, 184
-0.992526, 93, 17, 124, 144
-0.992533, 329, 73, 360, 136
-0.992547, 65, 265, 96, 328
-0.992553, 449, 129, 480, 256
-0.992554, 145, 217, 208, 248
-0.992561, 245, 137, 276, 168
-0.992569, 9, 137, 40, 168
-0.992569, 105, 89, 168, 120
-0.99257, 285, 133, 316, 164
-0.992571, 129, 85, 192, 116
-0.992579, 409, 137, 440, 168
-0.992585, 117, 137, 148, 168
-0.992592, 269, 145, 300, 176
-0.992603, 85, 141, 116, 172
-0.992627, 341, 73, 372, 136
-0.992641, 1, 49, 128, 112
-0.992642, 389, 113, 420, 144
-0.992649, 169, 85, 232, 116
-0.992651, 321, 113, 352, 144
-0.992659, 309, 121, 340, 152
-0.992661, 469, 145, 500, 176
-0.992662, 105, 125, 136, 156
-0.992665, 193, 133, 224, 164
-0.99267, 309, 137, 340, 168
-0.992671, 441, 109, 472, 140
-0.992688, 33, 133, 64, 164
-0.99273, 217, 137, 248, 168
-0.992737, 81, 133, 208, 164
-0.992745, 233, 137, 264, 168
-0.992756, 161, 117, 192, 148
-0.992766, 449, 137, 480, 168
-0.992768, 145, 137, 176, 168
-0.992785, 289, 117, 320, 148
-0.99279, 429, 137, 460, 168
-0.992794, 9, 125, 40, 156
-0.992795, 225, 121, 256, 152
-0.99281, 109, 225, 140, 288
-0.992811, 449, 125, 480, 156
-0.992811, 49, 89, 112, 120
-0.992816, 409, 113, 440, 144
-0.992823, 33, 133, 160, 164
-0.992826, 21, 125, 52, 156
-0.992829, 193, 121, 224, 152
-0.992831, 173, 97, 204, 128
-0.992838, 381, 97, 412, 128
-0.992839, 161, 133, 288, 164
-0.992841, 153, 97, 184, 128
-0.992841, 49, 133, 80, 164
-0.992842, 257, 137, 288, 168
-0.992845, 177, 145, 208, 176
-0.992856, 173, 17, 204, 144
-0.992865, 101, 113, 132, 144
-0.992867, 245, 109, 276, 140
-0.992879, 209, 97, 240, 128
-0.992884, 265, 249, 328, 280
-0.992894, 109, 101, 140, 132
-0.992894, 137, 117, 168, 148
-0.992896, 33, 261, 96, 292
-0.9929, 13, 101, 44, 132
-0.992902, 429, 105, 460, 136
-0.992904, 197, 97, 228, 128
-0.992907, 361, 85, 424, 116
-0.992913, 85, 117, 116, 148
-0.992916, 129, 97, 160, 128
-0.992927, 389, 73, 420, 136
-0.992928, 173, 109, 204, 140
-0.992929, 73, 145, 104, 176
-0.99293, 57, 265, 120, 296
-0.992933, 65, 113, 96, 144
-0.992935, 89, 101, 120, 132
-0.992941, 21, 149, 52, 180
-0.992941, 137, 1, 168, 128
-0.992947, 189, 145, 220, 176
-0.992947, 57, 241, 120, 272
-0.992957, 337, 145, 368, 208
-0.992957, 241, 233, 368, 296
-0.992961, 361, 97, 392, 128
-0.992964, 105, 229, 136, 260
-0.992966, 429, 125, 460, 156
-0.992971, 373, 141, 404, 172
-0.992978, 73, 89, 136, 120
-0.992982, 117, 113, 148, 144
-0.992995, 341, 137, 372, 168
-0.992995, 97, 73, 128, 136
-0.992997, 221, 97, 252, 128
-0.993001, 77, 245, 108, 276
-0.993002, 461, 121, 492, 152
-0.993004, 77, 97, 108, 128
-0.993005, 409, 73, 440, 136
-0.993005, 1, 101, 32, 132
-0.993012, 57, 101, 88, 132
-0.993015, 205, 137, 236, 168
-0.993025, 197, 109, 228, 140
-0.993029, 233, 97, 264, 128
-0.993029, 301, 109, 332, 140
-0.993037, 93, 237, 124, 268
-0.993044, 185, 97, 216, 128
-0.993045, 337, 85, 400, 116
-0.993053, 409, 97, 440, 128
-0.993055, 461, 105, 492, 136
-0.993057, 57, 145, 88, 176
-0.99306, 217, 109, 248, 140
-0.993063, 41, 101, 72, 132
-0.993071, 393, 97, 424, 128
-0.993071, 281, 145, 312, 176
-0.993074, 393, 85, 456, 116
-0.993074, 253, 97, 284, 128
-0.993078, 441, 93, 472, 124
-0.993085, 29, 101, 60, 132
-0.993086, 113, 121, 240, 152
-0.993091, 129, 137, 160, 168
-0.993095, 33, 249, 96, 280
-0.993114, 249, 237, 312, 268
-0.993119, 257, 253, 288, 284
-0.99312, 421, 93, 452, 124
-0.993121, 341, 97, 372, 128
-0.993128, 201, 233, 232, 264
-0.993129, 69, 257, 100, 288
-0.993132, 141, 101, 172, 132
-0.993134, 233, 149, 264, 180
-0.993136, 153, 149, 184, 180
-0.993139, 313, 85, 376, 116
-0.99314, 229, 241, 260, 272
-0.993143, 257, 89, 500, 152
-0.993144, 185, 229, 216, 260
-0.99315, 297, 133, 328, 164
-0.993157, 373, 109, 404, 140
-0.993158, 117, 125, 148, 156
-0.993159, 309, 149, 340, 180
-0.993159, 341, 125, 372, 156
-0.993162, 321, 149, 352, 180
-0.993163, 97, 149, 128, 180
-0.993164, 329, 101, 360, 132
-0.993165, 193, 85, 256, 116
-0.993176, 341, 109, 372, 140
-0.993178, 233, 109, 264, 140
-0.993183, 457, 93, 488, 124
-0.993184, 269, 265, 300, 296
-0.993185, 217, 237, 248, 268
-0.99319, 29, 113, 60, 144
-0.993193, 285, 101, 316, 132
-0.993195, 13, 145, 44, 272
-0.993205, 165, 209, 196, 332
-0.993212, 121, 209, 184, 240
-0.993214, 241, 245, 272, 276
-0.993217, 9, 149, 40, 180
-0.993227, 153, 221, 184, 252
-0.993231, 33, 153, 64, 184
-0.993231, 169, 225, 200, 256
-0.993233, 253, 149, 284, 180
-0.993233, 49, 121, 80, 152
-0.993234, 309, 97, 340, 128
-0.993249, 33, 89, 288, 152
-0.99325, 257, 277, 320, 308
-0.99328, 129, 33, 160, 96
-0.993283, 225, 233, 288, 264
-0.993319, 177, 217, 240, 248
-0.99332, 145, 33, 208, 96
-0.993333, 17, 273, 80, 304
-0.99334, 209, 221, 272, 252
-0.993363, 25, 157, 88, 188
-0.99339, 265, 265, 328, 296
-0.993392, 1, 121, 500, 184
-0.993419, 265, 293, 328, 324
-0.99342, 401, 157, 464, 188
-0.993431, 241, 85, 304, 116
-0.993432, 421, 153, 452, 216
-0.993449, 217, 161, 248, 288
-0.993451, 217, 81, 280, 112
-0.993452, 113, 145, 144, 208
-0.99348, 353, 157, 416, 188
-0.993501, 97, 213, 160, 244
-0.993509, 425, 81, 488, 112
-0.993522, 73, 17, 104, 144
-0.993531, 105, 57, 168, 88
-0.993533, 185, 209, 248, 272
-0.993551, 457, 73, 488, 136
-0.99357, 129, 61, 192, 92
-0.99359, 289, 85, 352, 116
-0.993616, 57, 157, 120, 188
-0.993639, 1, 157, 64, 188
-0.99364, 121, 161, 184, 288
-0.993641, 193, 273, 320, 332
-0.993674, 241, 137, 368, 168
-0.993689, 257, 73, 288, 136
-0.993698, 241, 125, 368, 156
-0.993709, 49, 229, 112, 260
-0.993733, 81, 201, 208, 264
-0.993783, 117, 49, 148, 112
-0.993791, 41, 277, 104, 308
-0.993794, 205, 113, 220, 176
-0.993796, 1, 261, 64, 292
-0.993829, 65, 217, 128, 248
-0.993845, 247, 113, 262, 176
-0.993847, 57, 57, 88, 120
-0.993855, 153, 157, 216, 188
-0.993855, 201, 157, 264, 188
-0.993865, 237, 121, 252, 184
-0.993867, 129, 49, 192, 80
-0.993867, 105, 69, 168, 100
-0.993871, 195, 121, 210, 184
-0.993878, 331, 113, 346, 176
-0.993878, 403, 129, 418, 192
-0.993879, 241, 157, 304, 188
-0.993882, 81, 57, 144, 88
-0.993897, 161, 121, 288, 152
-0.993901, 1, 77, 64, 108
-0.993905, 395, 97, 410, 160
-0.993911, 337, 133, 464, 164
-0.993916, 1, 301, 64, 332
-0.993922, 145, 205, 208, 236
-0.993924, 241, 49, 368, 112
-0.993932, 25, 293, 88, 324
-0.993946, 177, 157, 240, 188
-0.993959, 265, 81, 328, 112
-0.993968, 153, 57, 216, 88
-0.993975, 325, 121, 340, 184
-0.993982, 177, 73, 208, 136
-0.993997, 49, 57, 112, 88
-0.994045, 423, 121, 438, 184
-0.99405, 161, 209, 288, 272
-0.994051, 411, 121, 426, 184
-0.994057, 1, 97, 500, 160
-0.994059, 67, 121, 82, 184
-0.994074, 265, 129, 296, 256
-0.994123, 111, 121, 126, 184
-0.994123, 121, 33, 184, 96
-0.99413, 263, 121, 278, 184
-0.994134, 33, 137, 288, 200
-0.994187, 25, 57, 56, 120
-0.994192, 377, 129, 408, 256
-0.994203, 337, 121, 352, 184
-0.994239, 341, 129, 372, 256
-0.994245, 469, 73, 500, 136
-0.994246, 23, 113, 38, 176
-0.994256, 285, 273, 316, 332
-0.994328, 119, 113, 134, 176
-0.994374, 289, 133, 416, 164
-0.994393, 1, 233, 128, 296
-0.994445, 249, 249, 280, 312
-0.99447, 315, 121, 330, 184
-0.994487, 321, 33, 448, 96
-0.994491, 299, 121, 314, 184
-0.994529, 41, 57, 72, 120
-0.994556, 229, 113, 244, 176
-0.994558, 13, 57, 44, 120
-0.994566, 277, 73, 308, 136
-0.994583, 113, 145, 240, 176
-0.994593, 75, 121, 90, 184
-0.99462, 241, 273, 368, 332
-0.994642, 105, 121, 120, 184
-0.994651, 215, 113, 230, 176
-0.994662, 181, 113, 196, 176
-0.99467, 33, 121, 48, 184
-0.994678, 161, 97, 176, 160
-0.994684, 305, 113, 320, 176
-0.994688, 49, 265, 176, 328
-0.994698, 291, 113, 306, 176
-0.994741, 33, 121, 160, 152
-0.994756, 417, 49, 480, 112
-0.99479, 193, 33, 320, 96
-0.994797, 61, 121, 76, 184
-0.994806, 25, 161, 88, 288
-0.994816, 105, 209, 136, 332
-0.994818, 385, 97, 400, 160
-0.99483, 433, 113, 448, 176
-0.994837, 65, 225, 320, 288
-0.994841, 169, 113, 184, 176
-0.994851, 253, 113, 268, 176
-0.99488, 189, 225, 220, 288
-0.994898, 337, 121, 464, 152
-0.9949, 263, 97, 278, 160
-0.994927, 217, 57, 248, 120
-0.994937, 23, 137, 38, 200
-0.994978, 33, 145, 160, 176
-0.995019, 193, 109, 320, 140
-0.995036, 159, 121, 174, 184
-0.995037, 305, 145, 432, 176
-0.995052, 129, 145, 384, 208
-0.995069, 357, 137, 388, 200
-0.995071, 97, 221, 224, 252
-0.995072, 161, 145, 288, 176
-0.995089, 53, 17, 84, 144
-0.995169, 125, 121, 140, 184
-0.995187, 273, 25, 400, 88
-0.995202, 201, 65, 232, 128
-0.995219, 221, 113, 236, 176
-0.995222, 337, 97, 352, 160
-0.995252, 185, 161, 216, 288
-0.995273, 369, 41, 496, 104
-0.995274, 459, 121, 474, 184
-0.995275, 241, 113, 368, 144
-0.995288, 405, 97, 420, 160
-0.995304, 55, 121, 70, 184
-0.995313, 113, 97, 240, 128
-0.995344, 347, 97, 362, 160
-0.995362, 279, 113, 294, 176
-0.995404, 325, 97, 340, 160
-0.99544, 389, 121, 404, 184
-0.99545, 15, 121, 30, 184
-0.99546, 81, 121, 96, 184
-0.995465, 209, 33, 272, 96
-0.995469, 29, 17, 60, 144
-0.995481, 161, 97, 288, 128
-0.995499, 273, 113, 288, 176
-0.995507, 193, 97, 208, 160
-0.995507, 319, 97, 334, 160
-0.995524, 417, 121, 432, 184
-0.995525, 285, 121, 300, 184
-0.995558, 329, 33, 392, 96
-0.995566, 337, 97, 464, 128
-0.995572, 369, 145, 496, 176
-0.995596, 411, 97, 426, 160
-0.995601, 187, 121, 202, 184
-0.995602, 71, 97, 86, 160
-0.995616, 103, 97, 118, 160
-0.995638, 471, 137, 486, 200
-0.995639, 299, 97, 314, 160
-0.995658, 343, 121, 358, 184
-0.995669, 113, 109, 240, 140
-0.995681, 393, 49, 456, 112
-0.995703, 49, 121, 64, 184
-0.995704, 289, 121, 416, 152
-0.995712, 425, 97, 440, 160
-0.995719, 169, 33, 232, 96
-0.995744, 235, 97, 250, 160
-0.995748, 41, 121, 56, 184
-0.995754, 177, 209, 208, 332
-0.995766, 33, 101, 160, 132
-0.99578, 95, 121, 110, 184
-0.99578, 255, 137, 270, 200
-0.995793, 225, 209, 288, 332
-0.995804, 365, 97, 380, 160
-0.995818, 129, 209, 384, 332
-0.995824, 185, 209, 248, 332
-0.99585, 461, 97, 476, 160
-0.995856, 313, 97, 328, 160
-0.995858, 281, 33, 344, 96
-0.995881, 215, 89, 230, 152
-0.995895, 169, 89, 184, 152
-0.995898, 129, 73, 384, 136
-0.995917, 89, 121, 104, 184
-0.995922, 337, 109, 464, 140
-0.995926, 473, 97, 488, 160
-0.995935, 433, 89, 448, 152
-0.995987, 125, 97, 140, 160
-0.995989, 193, 209, 320, 332
-0.996005, 209, 89, 224, 152
-0.996005, 175, 97, 190, 160
-0.99602, 231, 137, 246, 200
-0.996032, 111, 97, 126, 160
-0.996035, 131, 121, 146, 184
-0.996107, 175, 137, 190, 200
-0.996108, 253, 89, 268, 152
-0.996141, 23, 89, 38, 152
-0.996143, 137, 33, 168, 288
-0.996152, 429, 137, 444, 200
-0.996155, 269, 137, 284, 200
-0.996158, 257, 33, 320, 96
-0.996163, 113, 25, 240, 88
-0.996166, 215, 137, 230, 200
-0.996172, 169, 137, 184, 200
-0.996179, 153, 121, 168, 184
-0.996184, 353, 49, 416, 112
-0.996228, 81, 97, 96, 160
-0.996252, 151, 97, 166, 160
-0.996254, 203, 89, 218, 152
-0.996262, 241, 149, 368, 180
-0.996262, 289, 109, 416, 140
-0.996269, 41, 217, 104, 280
-0.996275, 305, 137, 320, 200
-0.99631, 33, 97, 48, 160
-0.996311, 305, 89, 320, 152
-0.996311, 209, 209, 336, 272
-0.996321, 15, 97, 30, 160
-0.996323, 451, 113, 466, 176
-0.99634, 289, 97, 416, 128
-0.996368, 187, 97, 202, 160
-0.99638, 371, 97, 386, 160
-0.996397, 241, 97, 256, 160
-0.996408, 141, 57, 156, 120
-0.996429, 85, 33, 116, 288
-0.996432, 7, 129, 22, 192
-0.996433, 33, 33, 96, 96
-0.996438, 57, 97, 72, 160
-0.996444, 91, 57, 106, 120
-0.996445, 221, 89, 236, 152
-0.996459, 323, 145, 338, 208
-0.99646, 181, 89, 196, 152
-0.996467, 453, 137, 468, 200
-0.996475, 443, 105, 458, 168
-0.996476, 117, 137, 132, 200
-0.996478, 395, 153, 410, 216
-0.996493, 41, 17, 72, 144
-0.99651, 479, 121, 494, 184
-0.996513, 379, 97, 394, 160
-0.996514, 107, 133, 122, 164
-0.996529, 247, 89, 262, 152
-0.996538, 257, 65, 500, 128
-0.99654, 241, 97, 368, 128
-0.996541, 1, 89, 16, 152
-0.996547, 369, 17, 496, 80
-0.996548, 205, 137, 220, 200
-0.99655, 245, 33, 276, 288
-0.996557, 245, 137, 260, 200
-0.996558, 67, 145, 82, 208
-0.99656, 413, 153, 428, 216
-0.996566, 419, 97, 434, 160
-0.996599, 85, 57, 100, 120
-0.996617, 131, 97, 146, 160
-0.996618, 63, 89, 78, 152
-0.996626, 1, 129, 16, 192
-0.996627, 137, 97, 152, 160
-0.99663, 229, 89, 244, 152
-0.996633, 117, 209, 148, 332
-0.996653, 125, 1, 156, 256
-0.996655, 89, 209, 152, 272
-0.996678, 461, 153, 476, 216
-0.996687, 117, 89, 132, 152
-0.996699, 161, 33, 192, 288
-0.996703, 201, 161, 232, 288
-0.99671, 467, 97, 482, 160
-0.996715, 419, 153, 434, 216
-0.996743, 33, 57, 288, 120
-0.99683, 113, 1, 144, 256
-0.996844, 65, 33, 96, 288
-0.996867, 225, 33, 256, 288
-0.996871, 173, 1, 204, 256
-0.996879, 1, 145, 500, 208
-0.996908, 183, 133, 198, 164
-0.996938, 101, 33, 132, 288
-0.996969, 395, 125, 410, 156
-0.996986, 9, 265, 72, 328
-0.996989, 113, 193, 176, 256
-0.996996, 265, 33, 296, 288
-0.99704, 465, 125, 480, 156
-0.997063, 201, 33, 232, 288
-0.997068, 213, 33, 244, 288
-0.997074, 33, 161, 96, 224
-0.997084, 67, 133, 82, 164
-0.997093, 129, 233, 256, 264
-0.997098, 263, 129, 278, 160
-0.997102, 77, 133, 92, 164
-0.997112, 13, 1, 44, 128
-0.99714, 65, 25, 192, 88
-0.997143, 23, 121, 38, 152
-0.997143, 195, 121, 210, 152
-0.997153, 23, 137, 38, 168
-0.997186, 1, 1, 32, 256
-0.997188, 1, 73, 500, 136
-0.99719, 301, 1, 332, 256
-0.997239, 169, 133, 184, 164
-0.997243, 193, 161, 320, 224
-0.997245, 65, 249, 320, 312
-0.99725, 161, 133, 176, 164
-0.997257, 29, 1, 60, 256
-0.997264, 461, 137, 476, 168
-0.997265, 305, 33, 368, 96
-0.997269, 321, 1, 352, 256
-0.997284, 289, 33, 320, 288
-0.997287, 241, 133, 256, 164
-0.997291, 57, 209, 120, 332
-0.997313, 337, 1, 368, 256
-0.997314, 73, 209, 104, 332
-0.997318, 117, 133, 132, 164
-0.99732, 125, 133, 140, 164
-0.99733, 149, 1, 180, 256
-0.99733, 185, 33, 216, 288
-0.99734, 13, 33, 44, 288
-0.997345, 107, 121, 122, 152
-0.99735, 101, 137, 116, 168
-0.997355, 41, 33, 72, 288
-0.99736, 175, 137, 190, 168
-0.997362, 441, 33, 472, 288
-0.997417, 277, 1, 308, 256
-0.997447, 9, 33, 72, 96
-0.997468, 249, 225, 312, 288
-0.997488, 393, 33, 424, 288
-0.997493, 289, 133, 304, 164
-0.997494, 403, 141, 418, 172
-0.997497, 189, 137, 204, 168
-0.997498, 405, 121, 420, 152
-0.997514, 289, 249, 416, 312
-0.997516, 325, 133, 340, 164
-0.997528, 195, 133, 210, 164
-0.99753, 33, 133, 48, 164
-0.997532, 357, 33, 388, 288
-0.997537, 1, 89, 128, 120
-0.997538, 69, 161, 100, 288
-0.997547, 369, 33, 400, 288
-0.997551, 461, 33, 492, 288
-0.997565, 1, 209, 128, 272
-0.997584, 475, 145, 490, 176
-0.997599, 409, 33, 440, 288
-0.997609, 15, 137, 30, 168
-0.997627, 281, 161, 344, 224
-0.997635, 205, 133, 220, 164
-0.997641, 241, 117, 256, 148
-0.997654, 107, 145, 122, 176
-0.997656, 235, 133, 250, 164
-0.997658, 189, 125, 204, 156
-0.997672, 337, 125, 352, 156
-0.997678, 395, 113, 410, 144
-0.997701, 71, 113, 86, 144
-0.997721, 67, 145, 82, 176
-0.997723, 319, 137, 334, 168
-0.997725, 65, 89, 192, 120
-0.997726, 395, 137, 410, 168
-0.997727, 325, 117, 340, 148
-0.997749, 53, 33, 84, 288
-0.997756, 319, 125, 334, 156
-0.99776, 381, 1, 412, 256
-0.99776, 235, 117, 250, 148
-0.997764, 179, 121, 194, 152
-0.997784, 331, 125, 346, 156
-0.997786, 279, 145, 294, 176
-0.997787, 87, 145, 102, 176
-0.997788, 481, 145, 496, 176
-0.997799, 237, 145, 252, 176
-0.997804, 215, 133, 230, 164
-0.99781, 469, 141, 484, 172
-0.997819, 341, 137, 356, 168
-0.997839, 61, 133, 76, 164
-0.997843, 153, 193, 216, 256
-0.997847, 433, 113, 448, 144
-0.997864, 217, 217, 280, 280
-0.997867, 169, 97, 184, 128
-0.997876, 113, 113, 128, 144
-0.997879, 271, 145, 286, 176
-0.997897, 429, 65, 460, 320
-0.997897, 299, 133, 314, 164
-0.997899, 69, 101, 84, 132
-0.997906, 215, 97, 230, 128
-0.997907, 411, 117, 426, 148
-0.997909, 169, 121, 184, 152
-0.997911, 263, 141, 278, 172
-0.997914, 385, 141, 400, 172
-0.99792, 101, 113, 116, 144
-0.997924, 259, 117, 274, 148
-0.997925, 247, 133, 262, 164
-0.997926, 123, 113, 138, 144
-0.997927, 195, 145, 210, 176
-0.997935, 253, 133, 268, 164
-0.997937, 17, 101, 32, 132
-0.99794, 229, 161, 260, 288
-0.997944, 331, 113, 346, 144
-0.997964, 209, 97, 224, 128
-0.997974, 81, 145, 96, 176
-0.997975, 89, 25, 152, 88
-0.997979, 65, 201, 128, 264
-0.997982, 353, 85, 480, 116
-0.997985, 325, 145, 340, 176
-0.997987, 455, 141, 470, 172
-0.997994, 159, 109, 174, 140
-0.997998, 217, 209, 248, 332
-0.997998, 385, 97, 400, 128
-0.998, 61, 145, 76, 176
-0.998, 141, 97, 156, 128
-0.998007, 401, 109, 416, 140
-0.99801, 95, 145, 110, 176
-0.998012, 77, 249, 92, 280
-0.998014, 455, 117, 470, 148
-0.998014, 425, 137, 440, 168
-0.998015, 81, 233, 208, 264
-0.998023, 433, 137, 448, 168
-0.998026, 111, 101, 126, 132
-0.998032, 117, 101, 132, 132
-0.998035, 23, 101, 38, 132
-0.998039, 101, 125, 116, 156
-0.998043, 199, 97, 214, 128
-0.998047, 7, 97, 22, 128
-0.99805, 155, 137, 170, 168
-0.998051, 83, 133, 98, 164
-0.998057, 1, 49, 500, 112
-0.998057, 433, 97, 448, 128
-0.998062, 105, 101, 120, 132
-0.998065, 129, 49, 384, 112
-0.998066, 425, 125, 440, 156
-0.99807, 305, 125, 320, 156
-0.99808, 183, 145, 198, 176
-0.998084, 123, 145, 138, 176
-0.998091, 1, 25, 128, 88
-0.998094, 93, 209, 124, 332
-0.998095, 221, 97, 236, 128
-0.9981, 305, 137, 320, 168
-0.998104, 131, 101, 146, 132
-0.998107, 189, 97, 204, 128
-0.99811, 95, 97, 110, 128
-0.998111, 319, 113, 334, 144
-0.998117, 245, 97, 260, 128
-0.998119, 33, 101, 48, 132
-0.998119, 279, 117, 294, 148
-0.998122, 229, 137, 244, 168
-0.998132, 299, 117, 314, 148
-0.998137, 427, 97, 442, 128
-0.998138, 73, 145, 88, 176
-0.998142, 461, 113, 476, 144
-0.998143, 123, 101, 138, 132
-0.998143, 95, 129, 110, 160
-0.998145, 285, 145, 300, 176
-0.998147, 313, 125, 328, 156
-0.998148, 65, 121, 80, 152
-0.99815, 309, 113, 324, 144
-0.998151, 1, 97, 16, 128
-0.998157, 81, 101, 96, 132
-0.99816, 75, 101, 90, 132
-0.99816, 409, 137, 424, 168
-0.998162, 129, 145, 144, 176
-0.998163, 283, 133, 298, 164
-0.998164, 369, 25, 432, 88
-0.998166, 161, 121, 176, 152
-0.99817, 163, 97, 178, 128
-0.99817, 25, 149, 40, 180
-0.998175, 177, 241, 304, 272
-0.998185, 63, 101, 78, 132
-0.998186, 337, 113, 352, 144
-0.998224, 321, 9, 448, 72
-0.998247, 209, 229, 336, 260
-0.998257, 393, 25, 456, 88
-0.998274, 225, 33, 480, 96
-0.998282, 81, 257, 144, 320
-0.998315, 49, 249, 176, 280
-0.998374, 241, 131, 304, 146
-0.998384, 1, 245, 128, 276
-0.998387, 373, 99, 404, 114
-0.99839, 145, 103, 176, 118
-0.99839, 373, 147, 404, 162
-0.99839, 81, 139, 144, 154
-0.99839, 169, 125, 200, 140
-0.998391, 309, 139, 340, 154
-0.998392, 409, 143, 440, 158
-0.998392, 145, 109, 176, 124
-0.998394, 97, 151, 128, 166
-0.998396, 1, 101, 32, 116
-0.998397, 61, 119, 92, 134
-0.998397, 201, 147, 232, 162
-0.998397, 441, 141, 472, 156
-0.998398, 265, 117, 296, 132
-0.998399, 321, 113, 352, 128
-0.998401, 105, 231, 136, 246
-0.998402, 233, 115, 264, 130
-0.998402, 281, 147, 312, 162
-0.998403, 429, 147, 460, 162
-0.998403, 97, 237, 128, 252
-0.998403, 229, 245, 260, 260
-0.998404, 145, 125, 176, 140
-0.998405, 57, 103, 88, 118
-0.998405, 377, 127, 440, 142
-0.998405, 145, 133, 176, 148
-0.998405, 117, 103, 148, 118
-0.998406, 165, 101, 196, 116
-0.998409, 145, 141, 176, 156
-0.998409, 469, 147, 500, 162
-0.998409, 1, 123, 32, 138
-0.99841, 245, 115, 276, 130
-0.998411, 289, 113, 320, 128
-0.998412, 393, 115, 424, 130
-0.998413, 81, 133, 144, 148
-0.998416, 81, 121, 112, 136
-0.998416, 161, 225, 192, 240
-0.998417, 393, 147, 424, 162
-0.998418, 225, 135, 256, 150
-0.998419, 429, 129, 460, 144
-0.998419, 253, 147, 284, 162
-0.998421, 217, 239, 248, 254
-0.998422, 461, 123, 492, 138
-0.998423, 21, 119, 52, 134
-0.998424, 241, 137, 304, 152
-0.998425, 449, 121, 480, 136
-0.998425, 137, 117, 168, 132
-0.998426, 309, 147, 340, 162
-0.998429, 309, 113, 340, 128
-0.998429, 285, 137, 316, 152
-0.99843, 121, 133, 184, 148
-0.998431, 429, 137, 460, 152
-0.998431, 33, 133, 64, 148
-0.998431, 113, 123, 144, 138
-0.998432, 209, 119, 240, 134
-0.998433, 93, 119, 124, 134
-0.998433, 245, 141, 276, 156
-0.998435, 61, 127, 92, 142
-0.998436, 233, 147, 264, 162
-0.998437, 9, 141, 40, 156
-0.998437, 117, 147, 148, 162
-0.998438, 309, 133, 340, 148
-0.99844, 233, 129, 264, 144
-0.998442, 149, 221, 180, 236
-0.998443, 29, 147, 60, 162
-0.998445, 1, 147, 32, 162
-0.998445, 321, 145, 352, 160
-0.998446, 29, 127, 60, 142
-0.998446, 205, 235, 236, 250
-0.998448, 117, 141, 148, 156
-0.99845, 157, 117, 188, 132
-0.99845, 109, 117, 140, 132
-0.99845, 145, 147, 176, 162
-0.998452, 145, 133, 208, 148
-0.998453, 189, 231, 220, 246
-0.998453, 169, 139, 200, 154
-0.998454, 185, 129, 248, 144
-0.998455, 441, 109, 472, 124
-0.998455, 241, 123, 304, 138
-0.998455, 173, 227, 204, 242
-0.998458, 69, 145, 100, 160
-0.998458, 121, 139, 184, 154
-0.998462, 425, 127, 488, 142
-0.998463, 185, 147, 216, 162
-0.998463, 457, 147, 488, 162
-0.998464, 129, 219, 160, 234
-0.998466, 369, 157, 496, 188
-0.998467, 449, 127, 480, 142
-0.998469, 101, 139, 132, 154
-0.998471, 181, 119, 212, 134
-0.998471, 197, 129, 228, 144
-0.998474, 73, 127, 136, 142
-0.998474, 101, 125, 132, 140
-0.998475, 241, 145, 304, 160
-0.998476, 65, 139, 96, 154
-0.998477, 21, 141, 52, 156
-0.998477, 245, 135, 276, 150
-0.998478, 409, 137, 440, 152
-0.998483, 281, 127, 344, 142
-0.998484, 85, 141, 116, 156
-0.998484, 217, 129, 248, 144
-0.998484, 121, 221, 184, 236
-0.998485, 265, 121, 328, 136
-0.998485, 425, 141, 488, 156
-0.998489, 289, 127, 320, 142
-0.998489, 425, 133, 488, 148
-0.99849, 309, 127, 340, 142
-0.99849, 9, 135, 40, 150
-0.99849, 61, 133, 92, 148
-0.998491, 425, 121, 488, 136
-0.998493, 377, 135, 440, 150
-0.998494, 311, 81, 326, 208
-0.998495, 265, 135, 328, 150
-0.998496, 269, 145, 300, 160
-0.998496, 113, 125, 176, 140
-0.998497, 185, 123, 248, 138
-0.998497, 81, 145, 144, 160
-0.998501, 25, 131, 88, 146
-0.998503, 145, 127, 208, 142
-0.998504, 257, 241, 500, 304
-0.998505, 145, 139, 208, 154
-0.998506, 1, 129, 32, 144
-0.998506, 177, 253, 304, 284
-0.998511, 21, 135, 52, 150
-0.998512, 241, 249, 368, 280
-0.998513, 461, 129, 492, 144
-0.998513, 389, 141, 420, 156
-0.998515, 157, 123, 188, 138
-0.998516, 289, 119, 352, 134
-0.998517, 385, 121, 448, 136
-0.998517, 193, 121, 224, 136
-0.998518, 293, 81, 308, 208
-0.998519, 225, 123, 256, 138
-0.998519, 113, 149, 176, 164
-0.99852, 185, 137, 248, 152
-0.99852, 337, 133, 400, 148
-0.998521, 157, 137, 188, 152
-0.998523, 457, 141, 488, 156
-0.998524, 377, 141, 440, 156
-0.998525, 101, 145, 132, 160
-0.998527, 321, 135, 352, 150
-0.998528, 145, 145, 208, 160
-0.99853, 161, 85, 288, 116
-0.99853, 289, 119, 320, 134
-0.99853, 85, 127, 116, 142
-0.998531, 303, 81, 318, 208
-0.998533, 409, 131, 440, 146
-0.998533, 13, 149, 44, 164
-0.998533, 9, 125, 72, 140
-0.998534, 85, 147, 116, 162
-0.998535, 337, 139, 400, 154
-0.998536, 217, 129, 280, 144
-0.998537, 245, 121, 276, 136
-0.998537, 185, 131, 216, 146
-0.998537, 321, 81, 336, 208
-0.998538, 337, 127, 400, 142
-0.998539, 157, 145, 188, 160
-0.998543, 409, 115, 472, 130
-0.998545, 461, 135, 492, 150
-0.998549, 417, 151, 480, 166
-0.99855, 377, 147, 440, 162
-0.998552, 221, 65, 236, 192
-0.998552, 129, 117, 192, 132
-0.998553, 269, 137, 300, 152
-0.998554, 409, 117, 440, 132
-0.998554, 265, 147, 328, 162
-0.998555, 25, 137, 88, 152
-0.998556, 225, 115, 288, 130
-0.998556, 181, 125, 212, 140
-0.998559, 309, 121, 340, 136
-0.99856, 57, 147, 120, 162
-0.99856, 417, 109, 480, 124
-0.998562, 85, 135, 116, 150
-0.998562, 57, 141, 120, 156
-0.998564, 245, 129, 276, 144
-0.998565, 49, 133, 112, 148
-0.998568, 173, 147, 204, 162
-0.998569, 239, 65, 254, 192
-0.998569, 13, 127, 44, 142
-0.99857, 109, 131, 140, 146
-0.99857, 289, 113, 352, 128
-0.998572, 73, 121, 136, 136
-0.998574, 265, 141, 328, 156
-0.998575, 247, 81, 262, 208
-0.998575, 185, 143, 248, 158
-0.998577, 337, 147, 400, 162
-0.998577, 9, 147, 72, 162
-0.99858, 389, 121, 420, 136
-0.99858, 321, 121, 352, 136
-0.998582, 337, 81, 352, 208
-0.998584, 161, 217, 288, 248
-0.998586, 305, 127, 368, 142
-0.998586, 401, 145, 464, 160
-0.998587, 321, 127, 352, 142
-0.998588, 329, 101, 392, 116
-0.998589, 337, 121, 400, 136
-0.998591, 217, 137, 280, 152
-0.998592, 259, 81, 274, 208
-0.998592, 331, 81, 346, 208
-0.998594, 129, 103, 192, 118
-0.998595, 145, 227, 208, 242
-0.998596, 177, 235, 240, 250
-0.998596, 217, 123, 280, 138
-0.998596, 305, 147, 368, 162
-0.998597, 153, 101, 216, 116
-0.998599, 401, 135, 464, 150
-0.998599, 185, 117, 248, 132
-0.998599, 25, 119, 88, 134
-0.998599, 269, 123, 300, 138
-0.9986, 233, 25, 296, 88
-0.998603, 409, 125, 440, 140
-0.998604, 269, 131, 300, 146
-0.998607, 215, 65, 230, 192
-0.998609, 105, 119, 168, 134
-0.998609, 273, 85, 400, 116
-0.99861, 377, 111, 440, 126
-0.998612, 405, 97, 420, 224
-0.998612, 217, 145, 280, 160
-0.998612, 193, 241, 256, 256
-0.998613, 389, 135, 420, 150
-0.998614, 1, 103, 64, 118
-0.998615, 49, 121, 112, 136
-0.998615, 129, 111, 192, 126
-0.998617, 1, 131, 64, 146
-0.998618, 153, 117, 216, 132
-0.998618, 89, 151, 152, 166
-0.998619, 209, 65, 224, 192
-0.99862, 201, 101, 264, 116
-0.998621, 181, 137, 212, 152
-0.998622, 297, 133, 360, 148
-0.998624, 297, 139, 360, 154
-0.998625, 65, 103, 128, 118
-0.998625, 97, 103, 160, 118
-0.998628, 265, 115, 328, 130
-0.99863, 33, 103, 96, 118
-0.998631, 473, 81, 488, 208
-0.998634, 369, 99, 432, 114
-0.998637, 229, 65, 244, 192
-0.998642, 193, 149, 256, 164
-0.998642, 313, 119, 376, 134
-0.998644, 113, 85, 240, 116
-0.998646, 389, 127, 420, 142
-0.998647, 169, 109, 232, 124
-0.998647, 393, 99, 456, 114
-0.998647, 49, 127, 112, 142
-0.998648, 177, 99, 240, 114
-0.99865, 9, 153, 72, 168
-0.998651, 161, 131, 192, 146
-0.998652, 361, 117, 424, 132
-0.998652, 425, 97, 488, 112
-0.998653, 253, 81, 268, 208
-0.998655, 377, 155, 440, 170
-0.998656, 225, 151, 288, 166
-0.998658, 395, 81, 410, 208
-0.998659, 353, 153, 416, 168
-0.998659, 169, 149, 232, 164
-0.998659, 33, 145, 96, 160
-0.99866, 1, 119, 64, 134
-0.99866, 329, 107, 392, 122
-0.998661, 57, 115, 120, 130
-0.998661, 201, 247, 264, 262
-0.998661, 145, 151, 208, 166
-0.998662, 289, 101, 352, 116
-0.998663, 353, 109, 416, 124
-0.998664, 241, 101, 304, 116
-0.998664, 401, 127, 464, 142
-0.998666, 89, 235, 152, 250
-0.99867, 105, 113, 168, 128
-0.998672, 289, 155, 352, 170
-0.998673, 1, 137, 64, 152
-0.998676, 65, 255, 128, 270
-0.998677, 241, 109, 304, 124
-0.998681, 433, 81, 448, 208
-0.998681, 81, 241, 144, 256
-0.998682, 41, 155, 104, 170
-0.998684, 201, 107, 264, 122
-0.998685, 225, 257, 288, 272
-0.998686, 433, 103, 496, 118
-0.998686, 65, 153, 128, 168
-0.998688, 257, 153, 320, 168
-0.998689, 377, 105, 440, 120
-0.99869, 313, 113, 376, 128
-0.99869, 153, 233, 216, 248
-0.99869, 97, 229, 160, 244
-0.998691, 265, 101, 328, 116
-0.998692, 313, 153, 376, 168
-0.998695, 65, 261, 128, 276
-0.998696, 5, 65, 20, 192
-0.998746, 209, 85, 336, 116
-0.998751, 193, 265, 320, 296
-0.998754, 203, 65, 218, 192
-0.998771, 385, 81, 400, 208
-0.998779, 225, 273, 480, 332
-0.998784, 167, 81, 182, 208
-0.998793, 141, 33, 156, 160
-0.998794, 13, 81, 28, 208
-0.998794, 161, 209, 416, 272
-0.998799, 23, 97, 38, 224
-0.9988, 411, 81, 426, 208
-0.998803, 467, 81, 482, 208
-0.998813, 321, 157, 448, 188
-0.998835, 423, 81, 438, 208
-0.99884, 347, 81, 362, 208
-0.998842, 461, 65, 476, 192
-0.998843, 49, 217, 176, 248
-0.998854, 197, 65, 212, 192
-0.998868, 161, 65, 176, 192
-0.99888, 281, 81, 296, 208
-0.998882, 433, 25, 496, 88
-0.998882, 33, 33, 288, 96
-0.99889, 119, 97, 134, 224
-0.998895, 287, 81, 302, 208
-0.998896, 485, 81, 500, 208
-0.998913, 113, 65, 128, 192
-0.99892, 453, 81, 468, 208
-0.998922, 211, 113, 226, 240
-0.998928, 175, 65, 190, 192
-0.998932, 1, 265, 128, 296
-0.998933, 265, 81, 280, 208
-0.998937, 129, 273, 384, 332
-0.998942, 107, 65, 122, 192
-0.998943, 479, 81, 494, 208
-0.998944, 131, 65, 146, 192
-0.998944, 417, 65, 432, 192
-0.998948, 125, 65, 140, 192
-0.99895, 91, 65, 106, 192
-0.998963, 205, 113, 220, 240
-0.998989, 145, 185, 272, 248
-0.998989, 33, 65, 48, 192
-0.998994, 67, 65, 82, 192
-0.998997, 77, 65, 92, 192
-0.998998, 237, 113, 252, 240
-0.998999, 147, 49, 162, 176
-0.999002, 109, 113, 124, 240
-0.999002, 379, 81, 394, 208
-0.999003, 99, 97, 114, 224
-0.999005, 271, 81, 286, 208
-0.999006, 229, 113, 244, 240
-0.999007, 439, 81, 454, 208
-0.999019, 25, 209, 88, 332
-0.999027, 447, 81, 462, 208
-0.999029, 129, 25, 384, 88
-0.99903, 1, 233, 128, 264
-0.999038, 85, 65, 100, 192
-0.999041, 19, 49, 34, 176
-0.999041, 97, 49, 112, 176
-0.999045, 221, 113, 236, 240
-0.999053, 395, 33, 410, 160
-0.999055, 155, 65, 170, 192
-0.999058, 373, 81, 388, 208
-0.999067, 65, 113, 80, 240
-0.99908, 365, 81, 380, 208
-0.999083, 73, 113, 88, 240
-0.999097, 303, 129, 318, 256
-0.999103, 169, 145, 184, 272
-0.999112, 191, 65, 206, 192
-0.999112, 33, 157, 160, 188
-0.999115, 357, 81, 372, 208
-0.999116, 263, 129, 278, 256
-0.999118, 57, 65, 72, 192
-0.999134, 295, 129, 310, 256
-0.999137, 209, 289, 336, 320
-0.99914, 51, 65, 66, 192
-0.999141, 289, 129, 304, 256
-0.999141, 461, 113, 476, 240
-0.999143, 369, 33, 384, 160
-0.99915, 379, 33, 394, 160
-0.999155, 121, 145, 136, 272
-0.999157, 41, 65, 56, 192
-0.999159, 321, 129, 336, 256
-0.99916, 309, 129, 324, 256
-0.99916, 315, 129, 330, 256
-0.999161, 249, 33, 264, 160
-0.999161, 163, 129, 178, 256
-0.999168, 113, 273, 240, 332
-0.999178, 225, 265, 288, 328
-0.999179, 363, 33, 378, 160
-0.99918, 49, 261, 176, 292
-0.999183, 337, 33, 352, 160
-0.999184, 309, 33, 324, 160
-0.999185, 339, 129, 354, 256
-0.999187, 199, 113, 214, 240
-0.999187, 255, 129, 270, 256
-0.999194, 315, 33, 330, 160
-0.999202, 417, 113, 432, 240
-0.999203, 183, 65, 198, 192
-0.999203, 329, 33, 344, 160
-0.999204, 329, 129, 344, 256
-0.999206, 89, 113, 104, 240
-0.999206, 1, 161, 32, 288
-0.999207, 153, 113, 168, 240
-0.99921, 385, 33, 400, 160
-0.999211, 357, 33, 372, 160
-0.999213, 411, 33, 426, 160
-0.999214, 449, 33, 464, 160
-0.999217, 347, 33, 362, 160
-0.999218, 303, 33, 318, 160
-0.999222, 287, 33, 302, 160
-0.999229, 435, 33, 450, 160
-0.999231, 295, 33, 310, 160
-0.999233, 25, 49, 40, 176
-0.999236, 321, 33, 336, 160
-0.999241, 425, 129, 440, 256
-0.999245, 443, 33, 458, 160
-0.999247, 395, 145, 410, 272
-0.999247, 65, 57, 192, 88
-0.99925, 263, 33, 278, 160
-0.999251, 401, 49, 416, 176
-0.999253, 5, 113, 20, 240
-0.999256, 479, 33, 494, 160
-0.999257, 119, 49, 134, 176
-0.999269, 137, 81, 152, 208
-0.999269, 411, 145, 426, 272
-0.999269, 135, 17, 150, 144
-0.99927, 209, 277, 336, 308
-0.999279, 115, 145, 130, 272
-0.999282, 113, 57, 240, 88
-0.999284, 249, 129, 264, 256
-0.999287, 281, 33, 296, 160
-0.999287, 425, 33, 440, 160
-0.999289, 1, 281, 128, 312
-0.999289, 269, 33, 284, 160
-0.999291, 131, 113, 146, 240
-0.999357, 81, 157, 208, 188
-0.999364, 193, 157, 320, 188
-0.999399, 145, 157, 272, 188
-0.999402, 201, 161, 264, 224
-0.999406, 225, 161, 480, 224
-0.999425, 257, 261, 384, 292
-0.999436, 257, 297, 384, 328
-0.999451, 1, 161, 64, 288
-0.999453, 145, 205, 272, 236
-0.999478, 269, 209, 300, 332
-0.999533, 17, 57, 144, 88
-0.999543, 161, 57, 288, 88
-0.999558, 49, 205, 176, 236
-0.999576, 161, 241, 416, 304
-0.999582, 257, 277, 384, 308
-0.999597, 241, 49, 368, 80
-0.99961, 163, 223, 178, 238
-0.99961, 465, 121, 480, 136
-0.99961, 299, 127, 314, 142
-0.999611, 237, 141, 252, 156
-0.999612, 305, 127, 320, 142
-0.999612, 433, 103, 448, 118
-0.999613, 169, 225, 184, 240
-0.999613, 385, 147, 400, 162
-0.999613, 169, 145, 184, 160
-0.999615, 81, 133, 96, 148
-0.999616, 33, 147, 48, 162
-0.999616, 159, 147, 174, 162
-0.999616, 125, 147, 140, 162
-0.999617, 331, 127, 346, 142
-0.999617, 97, 237, 112, 252
-0.999617, 113, 139, 128, 154
-0.999617, 221, 239, 236, 254
-0.999618, 235, 243, 250, 258
-0.999618, 323, 147, 338, 162
-0.999618, 395, 139, 410, 154
-0.999619, 423, 125, 438, 140
-0.999619, 325, 139, 340, 154
-0.999619, 179, 227, 194, 242
-0.999619, 303, 113, 318, 128
-0.99962, 249, 119, 264, 134
-0.999621, 195, 141, 210, 156
-0.999621, 73, 149, 88, 164
-0.999621, 215, 129, 230, 144
-0.999622, 101, 119, 116, 134
-0.999623, 215, 237, 230, 252
-0.999623, 229, 241, 244, 256
-0.999624, 193, 231, 208, 246
-0.999624, 185, 127, 200, 142
-0.999625, 33, 119, 48, 134
-0.999625, 115, 227, 130, 242
-0.999625, 475, 147, 490, 162
-0.999627, 201, 233, 216, 248
-0.999627, 209, 235, 224, 250
-0.999628, 289, 129, 304, 144
-0.999628, 101, 127, 116, 142
-0.999629, 231, 123, 246, 138
-0.999629, 189, 137, 204, 152
-0.999629, 281, 147, 296, 162
-0.99963, 61, 127, 76, 142
-0.999631, 125, 141, 140, 156
-0.999631, 215, 123, 230, 138
-0.999632, 17, 147, 32, 162
-0.999632, 185, 229, 200, 244
-0.999632, 321, 45, 448, 76
-0.999633, 75, 119, 90, 134
-0.999634, 325, 133, 340, 148
-0.999634, 315, 121, 330, 136
-0.999634, 169, 137, 184, 152
-0.999634, 107, 119, 122, 134
-0.999637, 411, 117, 426, 132
-0.999638, 117, 117, 132, 132
-0.999639, 81, 139, 96, 154
-0.999639, 117, 145, 132, 160
-0.99964, 263, 141, 278, 156
-0.999641, 461, 115, 476, 130
-0.999641, 181, 147, 196, 162
-0.999642, 123, 125, 138, 140
-0.999642, 461, 139, 476, 154
-0.999642, 169, 131, 184, 146
-0.999642, 253, 129, 268, 144
-0.999645, 337, 127, 352, 142
-0.999645, 193, 129, 208, 144
-0.999646, 163, 121, 178, 136
-0.999648, 257, 9, 500, 72
-0.999648, 91, 149, 106, 164
-0.999648, 15, 135, 30, 150
-0.999649, 1, 225, 500, 288
-0.99965, 237, 147, 252, 162
-0.99965, 239, 129, 254, 144
-0.999651, 315, 127, 330, 142
-0.999652, 331, 119, 346, 134
-0.999653, 411, 125, 426, 140
-0.999655, 405, 135, 420, 150
-0.999655, 161, 141, 176, 156
-0.999656, 263, 123, 278, 138
-0.999656, 241, 135, 256, 150
-0.999656, 169, 125, 184, 140
-0.999657, 289, 119, 304, 134
-0.999657, 303, 119, 318, 134
-0.999657, 405, 121, 420, 136
-0.999659, 175, 145, 190, 160
-0.999659, 179, 127, 194, 142
-0.999662, 111, 149, 126, 164
-0.999664, 67, 121, 82, 136
-0.999666, 309, 119, 324, 134
-0.999667, 75, 127, 90, 142
-0.999668, 245, 129, 260, 144
-0.999669, 231, 129, 246, 144
-0.999669, 263, 135, 278, 150
-0.99967, 205, 121, 220, 136
-0.999672, 465, 133, 480, 148
-0.999675, 23, 143, 38, 158
-0.999675, 323, 121, 338, 136
-0.999675, 81, 145, 96, 160
-0.999675, 117, 125, 132, 140
-0.999675, 195, 147, 210, 162
-0.999677, 325, 127, 340, 142
-0.999679, 1, 25, 500, 88
-0.99968, 71, 141, 86, 156
-0.99968, 205, 129, 220, 144
-0.999681, 33, 133, 48, 148
-0.999681, 15, 129, 30, 144
-0.999683, 395, 133, 410, 148
-0.999686, 239, 121, 254, 136
-0.999688, 67, 147, 82, 162
-0.999689, 187, 145, 202, 160
-0.99969, 33, 69, 160, 100
-0.999691, 401, 127, 416, 142
-0.999691, 23, 119, 38, 134
-0.999694, 97, 147, 112, 162
-0.999701, 177, 135, 192, 150
-0.999703, 123, 131, 138, 146
-0.999705, 395, 117, 410, 132
-0.999707, 25, 149, 40, 164
-0.999708, 117, 131, 132, 146
-0.999712, 209, 301, 336, 332
-0.999713, 195, 121, 210, 136
-0.999714, 75, 133, 90, 148
-0.999716, 67, 133, 82, 148
-0.999722, 161, 301, 288, 332
-0.999722, 67, 127, 82, 142
-0.999723, 23, 137, 38, 152
-0.999726, 103, 145, 118, 160
-0.999742, 161, 131, 176, 146
-0.999748, 107, 125, 122, 140
-0.999748, 97, 209, 224, 240
-0.999753, 113, 45, 240, 76
-0.999754, 369, 41, 496, 72
-0.999755, 107, 139, 122, 154
-0.999757, 395, 125, 410, 140
-0.999759, 1, 217, 128, 248
-0.99976, 321, 57, 448, 88
-0.999763, 113, 69, 240, 100
-0.999767, 237, 209, 268, 332
-0.99977, 263, 129, 278, 144
-0.999771, 23, 127, 38, 142
-0.999772, 289, 273, 416, 332
-0.999774, 465, 127, 480, 142
-0.999775, 183, 137, 198, 152
-0.999795, 209, 61, 336, 92
-0.999809, 107, 133, 122, 148
-0.999814, 49, 297, 176, 328
-0.999836, 369, 53, 496, 84
-0.999842, 193, 45, 320, 76
-0.999845, 65, 45, 192, 76
-0.999848, 209, 9, 336, 72
-0.999862, 145, 161, 208, 224
-0.999863, 1, 161, 256, 224
-0.999871, 273, 61, 400, 92
-0.999886, 257, 237, 384, 268
-0.99989, 1, 273, 256, 332
-0.999903, 273, 1, 400, 64
-0.999922, 49, 281, 176, 312
-1.00002, 257, 37, 384, 68
-1.00003, 113, 301, 240, 332
-1.00004, 297, 257, 360, 320
-1.00005, 161, 69, 288, 100
-1.00005, 1, 293, 128, 324
-1.00006, 321, 33, 448, 64
-1.00008, 369, 73, 496, 104
-1.00008, 241, 209, 368, 332
-1.0001, 33, 161, 64, 288
-1.00011, 1, 45, 128, 76
-1.00017, 129, 245, 256, 276
-1.00022, 369, 29, 496, 60
-1.00023, 369, 1, 496, 32
-1.00024, 209, 33, 336, 64
-1.00025, 113, 285, 240, 316
-1.00028, 33, 201, 288, 264
-1.0003, 321, 73, 448, 104
-1.00036, 305, 237, 432, 268
-1.00037, 177, 161, 240, 224
-1.0004, 209, 217, 336, 248
-1.0004, 273, 25, 400, 56
-1.00042, 161, 289, 288, 320
-1.00043, 321, 21, 448, 52
-1.00044, 209, 73, 336, 104
-1.00046, 369, 17, 496, 48
-1.00049, 161, 33, 288, 64
-1.00049, 305, 9, 432, 40
-1.00051, 145, 161, 176, 288
-1.00055, 321, 249, 448, 280
-1.00055, 89, 161, 120, 288
-1.00057, 273, 73, 400, 104
-1.00062, 305, 289, 432, 320
-1.00063, 33, 185, 160, 248
-1.00064, 113, 273, 240, 304
-1.00065, 305, 277, 432, 308
-1.00066, 353, 277, 480, 308
-1.00068, 113, 33, 240, 64
-1.00069, 305, 301, 432, 332
-1.0007, 273, 221, 400, 252
-1.00072, 225, 21, 352, 52
-1.00075, 65, 33, 192, 64
-1.00076, 353, 297, 480, 328
-1.00076, 369, 261, 496, 292
-1.00077, 305, 265, 432, 296
-1.00078, 353, 237, 480, 268
-1.00079, 129, 185, 384, 248
-1.00079, 161, 277, 288, 308
-1.00079, 241, 161, 368, 192
-1.00079, 113, 257, 240, 288
-1.00081, 1, 265, 500, 328
-1.00082, 257, 9, 384, 40
-1.00084, 257, 217, 500, 280
-1.00086, 65, 193, 192, 224
-1.00087, 1, 209, 128, 332
-1.0009, 97, 161, 160, 224
-1.00093, 353, 265, 480, 328
-1.00107, 161, 1, 416, 64
-1.00114, 161, 9, 288, 72
-1.00123, 321, 225, 448, 288
-1.00129, 129, 145, 160, 272
-1.0013, 65, 25, 128, 88
-1.00131, 121, 161, 184, 224
-1.00135, 57, 161, 88, 288
-1.0014, 33, 9, 288, 72
-1.00158, 105, 241, 168, 304
-1.0016, 153, 209, 184, 332
-1.00163, 1, 233, 64, 296
-1.00173, 205, 209, 236, 332
-1.00178, 369, 241, 496, 304
-1.00192, 1, 1, 500, 64
-1.00211, 369, 217, 496, 280
-1.00223, 45, 161, 76, 288
-1.00223, 289, 201, 416, 264
-1.00224, 257, 185, 500, 248
-1.00229, 249, 209, 312, 332
-1.00229, 113, 1, 240, 64
-1.00233, 249, 209, 280, 332
-1.0024, 53, 209, 84, 332
-1.00241, 81, 177, 208, 240
-1.00246, 369, 193, 496, 256
-1.00261, 129, 209, 160, 332
-1.00269, 1, 201, 500, 264
-1.00273, 97, 249, 224, 312
-1.00274, 49, 1, 176, 64
-1.00283, 361, 129, 392, 256
-1.00285, 305, 177, 432, 240
-1.00288, 369, 169, 496, 232
-1.00291, 241, 177, 368, 240
-1.00306, 141, 209, 172, 332
-1.00309, 273, 225, 336, 288
-1.00311, 1, 1, 128, 64
-1.00318, 193, 209, 224, 332
-1.00345, 105, 265, 168, 328
-1.00355, 193, 185, 320, 248
-1.00359, 1, 177, 500, 240
-1.00374, 285, 209, 316, 332
-1.00404, 345, 9, 408, 72
-1.00421, 281, 209, 344, 332
-1.00442, 433, 257, 496, 320
-1.00443, 313, 9, 376, 72
-1.00478, 393, 1, 456, 64
-1.00494, 129, 9, 192, 72
-1.00494, 289, 9, 352, 72
-1.00495, 161, 273, 224, 332
-1.00495, 201, 273, 264, 332
-1.00498, 129, 273, 192, 332
-1.00499, 433, 1, 496, 64
-1.00504, 369, 1, 432, 64
-1.00514, 185, 185, 248, 248
-1.00519, 265, 9, 328, 72
-1.00532, 401, 249, 464, 312
-1.00553, 321, 249, 384, 312
-1.00571, 369, 209, 496, 332
-1.006, 1, 209, 64, 332
-1.00616, 305, 209, 432, 332
-1.01081, 337, 209, 400, 332
-1.01159, 433, 209, 496, 332
-1.01201, 361, 209, 424, 332
-1.01273, 393, 193, 456, 320
-1.01288, 305, 209, 368, 332
