1980
-0.267749, 1, 1, 500, 375
-0.323902, 1, 129, 500, 375
-0.390571, 1, 33, 500, 288
-0.502601, 1, 1, 256, 375
-0.510322, 193, 129, 448, 375
-0.518332, 161, 1, 416, 375
-0.564783, 1, 129, 256, 375
-0.623039, 97, 97, 352, 352
-0.626658, 257, 1, 500, 375
-0.720125, 1, 1, 256, 256
-0.73324, 257, 1, 500, 256
-0.791896, 129, 1, 384, 256
-0.844028, 1, 129, 128, 375
-0.851203, 1, 1, 128, 375
-0.858351, 65, 129, 192, 375
-0.859119, 257, 129, 384, 375
-0.870274, 353, 129, 480, 375
-0.870442, 177, 129, 304, 375
-0.874218, 113, 129, 240, 375
-0.874468, 1, 129, 500, 256
-0.874964, 161, 1, 288, 375
-0.877826, 1, 1, 128, 256
-0.880032, 1, 241, 500, 368
-0.886529, 305, 129, 432, 375
-0.887668, 353, 1, 480, 375
-0.888287, 113, 1, 240, 375
-0.888325, 289, 1, 416, 375
-0.888766, 353, 33, 480, 288
-0.889675, 49, 1, 176, 375
-0.896311, 241, 1, 368, 375
-0.897555, 1, 177, 500, 304
-0.899406, 145, 33, 272, 288
-0.902652, 97, 241, 352, 368
-0.91136, 289, 1, 416, 256
-0.911662, 1, 225, 256, 352
-0.912538, 257, 129, 500, 256
-0.913499, 49, 33, 176, 288
-0.917877, 1, 129, 256, 256
-0.917923, 1, 177, 256, 304
-0.91855, 1, 81, 500, 208
-0.919128, 241, 33, 368, 288
-0.920504, 193, 225, 256, 352
-0.922591, 97, 193, 352, 320
-0.923531, 1, 241, 128, 368
-0.92492, 217, 209, 280, 336
-0.92632, 193, 225, 448, 352
-0.92655, 1, 193, 128, 320
-0.927406, 145, 241, 272, 368
-0.927443, 97, 1, 224, 256
-0.929242, 169, 225, 232, 352
-0.929391, 161, 97, 416, 224
-0.930125, 193, 33, 320, 288
-0.930568, 161, 145, 416, 272
-0.931458, 9, 161, 72, 288
-0.932395, 353, 129, 480, 256
-0.934554, 129, 241, 192, 368
-0.935799, 193, 225, 320, 352
-0.93608, 25, 241, 88, 368
-0.937331, 97, 241, 224, 368
-0.938762, 33, 193, 96, 320
-0.939049, 89, 241, 152, 368
-0.939523, 65, 241, 128, 368
-0.940174, 1, 113, 64, 240
-0.940894, 1, 129, 128, 256
-0.941244, 49, 241, 176, 368
-0.943451, 241, 161, 368, 288
-0.943537, 1, 17, 500, 144
-0.943743, 57, 193, 120, 320
-0.94377, 113, 193, 240, 320
-0.944396, 161, 97, 288, 224
-0.944903, 193, 177, 320, 304
-0.946344, 233, 161, 296, 288
-0.947746, 201, 289, 264, 352
-0.947974, 241, 241, 304, 368
-0.948021, 177, 273, 240, 336
-0.948128, 169, 177, 232, 304
-0.948336, 209, 161, 272, 288
-0.94876, 1, 1, 256, 128
-0.948883, 129, 257, 192, 320
-0.949414, 241, 241, 368, 368
-0.949463, 257, 113, 320, 240
-0.949733, 289, 129, 416, 256
-0.950347, 361, 129, 424, 256
-0.95036, 225, 257, 288, 320
-0.950375, 193, 113, 256, 240
-0.951046, 153, 265, 216, 328
-0.95136, 185, 217, 248, 280
-0.951684, 225, 113, 352, 240
-0.951724, 17, 249, 80, 312
-0.951903, 177, 241, 240, 304
-0.952327, 1, 169, 64, 232
-0.952591, 65, 81, 320, 208
-0.953205, 161, 297, 224, 360
-0.954194, 97, 249, 160, 312
-0.954206, 185, 113, 248, 176
-0.954359, 65, 145, 192, 272
-0.954459, 57, 129, 120, 256
-0.954726, 1, 129, 64, 192
-0.955006, 65, 193, 192, 320
-0.955777, 169, 113, 232, 240
-0.95603, 9, 209, 72, 272
-0.956467, 257, 177, 500, 304
-0.956661, 257, 81, 500, 208
-0.956779, 249, 169, 312, 232
-0.956854, 225, 233, 288, 296
-0.957236, 217, 193, 280, 256
-0.958168, 289, 137, 352, 200
-0.958346, 257, 177, 320, 304
-0.958441, 201, 265, 264, 328
-0.958465, 297, 129, 360, 256
-0.958803, 1, 225, 64, 352
-0.958943, 65, 225, 128, 288
-0.9594, 129, 289, 192, 352
-0.960161, 9, 129, 72, 375
-0.960784, 249, 281, 312, 344
-0.960956, 57, 257, 120, 320
-0.961223, 9, 305, 72, 368
-0.961353, 129, 193, 192, 320
-0.961466, 225, 161, 288, 224
-0.962426, 1, 1, 128, 128
-0.962693, 185, 193, 248, 256
-0.962698, 353, 177, 480, 304
-0.962759, 221, 225, 252, 352
-0.962769, 225, 289, 288, 352
-0.962866, 201, 241, 264, 304
-0.963362, 97, 289, 160, 352
-0.96338, 113, 113, 240, 240
-0.963789, 321, 153, 384, 216
-0.964378, 249, 145, 312, 208
-0.964383, 81, 193, 144, 320
-0.964657, 197, 225, 228, 352
-0.964687, 1, 65, 128, 192
-0.964823, 225, 105, 288, 168
-0.965191, 273, 81, 400, 208
-0.965192, 81, 145, 144, 272
-0.965236, 161, 273, 288, 336
-0.965285, 265, 241, 328, 368
-0.965324, 249, 257, 312, 320
-0.96558, 225, 81, 288, 208
-0.965673, 433, 129, 496, 256
-0.965764, 353, 137, 416, 200
-0.965864, 321, 129, 384, 256
-0.965964, 401, 129, 464, 256
-0.966054, 21, 241, 52, 368
-0.966382, 385, 81, 448, 208
-0.966706, 33, 113, 96, 240
-0.966723, 353, 81, 480, 208
-0.967119, 49, 1, 112, 128
-0.967252, 129, 129, 192, 256
-0.967565, 41, 233, 104, 296
-0.967718, 289, 177, 416, 304
-0.967771, 121, 145, 184, 208
-0.967966, 1, 65, 64, 192
-0.968033, 89, 1, 152, 128
-0.968057, 113, 257, 240, 320
-0.9681, 1, 257, 128, 320
-0.968218, 1, 1, 64, 128
-0.968543, 161, 113, 224, 176
-0.968634, 161, 241, 288, 304
-0.96879, 153, 233, 216, 296
-0.968987, 233, 289, 264, 352
-0.969122, 237, 241, 268, 368
-0.969123, 105, 193, 168, 320
-0.969233, 289, 241, 416, 368
-0.969302, 233, 177, 264, 304
-0.969373, 225, 33, 480, 160
-0.969456, 209, 273, 240, 336
-0.969492, 121, 313, 184, 375
-0.969516, 257, 97, 320, 352
-0.969588, 49, 129, 112, 192
-0.969588, 17, 273, 80, 336
-0.969917, 49, 97, 112, 352
-0.969959, 209, 241, 240, 368
-0.970051, 9, 121, 40, 184
-0.970273, 361, 81, 424, 208
-0.970335, 17, 257, 48, 320
-0.97034, 13, 113, 44, 240
-0.970649, 1, 217, 128, 280
-0.970657, 49, 1, 176, 128
-0.97077, 353, 137, 480, 200
-0.970851, 33, 209, 96, 272
-0.970852, 137, 129, 200, 375
-0.971026, 209, 313, 272, 375
-0.9711, 197, 273, 228, 336
-0.971136, 21, 289, 52, 352
-0.971184, 181, 265, 212, 328
-0.971354, 117, 241, 148, 368
-0.971377, 113, 305, 240, 368
-0.971402, 69, 225, 100, 288
-0.971656, 177, 49, 304, 176
-0.971723, 233, 233, 264, 296
-0.971956, 273, 265, 336, 328
-0.97204, 289, 161, 352, 224
-0.972052, 161, 193, 224, 256
-0.972102, 353, 177, 416, 304
-0.97225, 181, 225, 212, 352
-0.972285, 361, 97, 424, 352
-0.97233, 25, 185, 88, 248
-0.97247, 37, 161, 68, 288
-0.972548, 245, 273, 276, 336
-0.972659, 433, 1, 496, 128
-0.972715, 289, 177, 352, 304
-0.97288, 81, 129, 144, 375
-0.972886, 265, 121, 328, 184
-0.973045, 233, 129, 296, 375
-0.97319, 97, 137, 160, 200
-0.973332, 245, 297, 276, 360
-0.973506, 213, 297, 244, 360
-0.973507, 49, 97, 176, 224
-0.973597, 177, 217, 304, 280
-0.973842, 337, 225, 464, 352
-0.973886, 417, 65, 480, 192
-0.973916, 85, 241, 116, 368
-0.974029, 113, 281, 240, 344
-0.974057, 105, 257, 136, 320
-0.97406, 17, 225, 48, 288
-0.974208, 177, 65, 240, 192
-0.97428, 69, 209, 100, 336
-0.97431, 257, 233, 320, 296
-0.974485, 369, 1, 496, 128
-0.974504, 233, 257, 264, 320
-0.97456, 65, 273, 192, 336
-0.974577, 185, 89, 248, 152
-0.974658, 65, 257, 96, 320
-0.974664, 225, 257, 352, 320
-0.974673, 53, 177, 84, 304
-0.974742, 1, 137, 128, 200
-0.974983, 145, 145, 208, 208
-0.97502, 185, 137, 248, 200
-0.975036, 377, 113, 440, 176
-0.97513, 257, 273, 288, 336
-0.975137, 1, 105, 64, 168
-0.975183, 73, 65, 136, 192
-0.975227, 117, 257, 148, 320
-0.975318, 273, 145, 400, 208
-0.975425, 305, 249, 368, 312
-0.97547, 253, 161, 284, 288
-0.975558, 137, 121, 200, 184
-0.975565, 257, 161, 288, 224
-0.975582, 105, 241, 136, 368
-0.975647, 241, 153, 272, 216
-0.975668, 185, 209, 216, 272
-0.975811, 33, 313, 96, 375
-0.975822, 65, 249, 192, 312
-0.975906, 137, 241, 168, 368
-0.975985, 433, 209, 496, 272
-0.976017, 17, 281, 144, 344
-0.976104, 169, 265, 200, 328
-0.976114, 117, 281, 148, 344
-0.976128, 25, 137, 88, 200
-0.976138, 193, 129, 256, 375
-0.976176, 165, 241, 196, 368
-0.976194, 249, 225, 280, 352
-0.976271, 137, 249, 168, 312
-0.976475, 245, 217, 276, 280
-0.97663, 185, 161, 248, 224
-0.976675, 41, 241, 72, 368
-0.976806, 225, 161, 352, 224
-0.976825, 201, 297, 232, 360
-0.976875, 217, 177, 248, 304
-0.976884, 185, 233, 216, 296
-0.976932, 237, 185, 268, 248
-0.976961, 1, 193, 128, 256
-0.976982, 193, 177, 224, 304
-0.976997, 253, 241, 284, 304
-0.977001, 301, 137, 332, 200
-0.977127, 289, 129, 352, 375
-0.977168, 1, 73, 64, 136
-0.977291, 33, 305, 64, 368
-0.977403, 157, 265, 188, 328
-0.977419, 177, 297, 304, 360
-0.977437, 221, 273, 252, 336
-0.977502, 29, 249, 60, 312
-0.977504, 17, 193, 48, 320
-0.977611, 217, 129, 280, 192
-0.977642, 181, 105, 212, 168
-0.977738, 337, 81, 400, 208
-0.977817, 225, 193, 256, 256
-0.977832, 49, 1, 112, 256
-0.977896, 21, 313, 52, 375
-0.977979, 97, 313, 160, 375
-0.978013, 417, 137, 480, 200
-0.978089, 57, 233, 88, 296
-0.978156, 225, 233, 352, 296
-0.978157, 29, 217, 60, 280
-0.97816, 105, 129, 168, 256
-0.978238, 385, 1, 448, 256
-0.978354, 161, 185, 288, 248
-0.978377, 289, 113, 320, 240
-0.978378, 185, 313, 248, 375
-0.97841, 85, 241, 116, 304
-0.978443, 161, 129, 224, 375
-0.9787, 41, 185, 72, 248
-0.97874, 85, 265, 116, 328
-0.978773, 201, 65, 264, 192
-0.978941, 1, 33, 64, 288
-0.979041, 261, 225, 292, 352
-0.979122, 241, 281, 368, 344
-0.97928, 433, 193, 496, 320
-0.979312, 33, 65, 96, 192
-0.979327, 225, 121, 352, 184
-0.979347, 241, 193, 304, 256
-0.979406, 385, 1, 448, 128
-0.979455, 313, 129, 376, 192
-0.979556, 353, 241, 416, 304
-0.979583, 321, 137, 352, 200
-0.979609, 233, 313, 296, 375
-0.979672, 49, 185, 112, 248
-0.979713, 353, 113, 416, 176
-0.979738, 209, 105, 240, 168
-0.979741, 345, 225, 408, 352
-0.979769, 53, 225, 84, 352
-0.979779, 313, 129, 376, 375
-0.979832, 269, 273, 300, 336
-0.979898, 85, 193, 116, 320
-0.980099, 213, 209, 244, 272
-0.980164, 137, 193, 200, 256
-0.980168, 5, 65, 36, 192
-0.980202, 309, 129, 340, 256
-0.98027, 145, 129, 272, 192
-0.980314, 201, 201, 232, 264
-0.980346, 133, 137, 164, 200
-0.980441, 289, 225, 352, 352
-0.980549, 337, 129, 400, 375
-0.980586, 97, 225, 224, 288
-0.980688, 377, 137, 440, 200
-0.980708, 45, 241, 76, 304
-0.980727, 329, 233, 392, 296
-0.980758, 141, 289, 172, 352
-0.980762, 189, 297, 220, 360
-0.980764, 1, 49, 64, 112
-0.980814, 205, 177, 236, 304
-0.980823, 73, 137, 136, 200
-0.980969, 321, 193, 384, 320
-0.981052, 153, 241, 184, 368
-0.981141, 1, 305, 128, 368
-0.981155, 197, 233, 228, 296
-0.981195, 5, 97, 36, 160
-0.981246, 269, 145, 300, 208
-0.981253, 385, 97, 448, 352
-0.981276, 381, 97, 412, 224
-0.981333, 209, 185, 336, 248
-0.981352, 361, 185, 424, 248
-0.981438, 89, 113, 152, 176
-0.981457, 13, 201, 44, 264
-0.981461, 129, 233, 192, 296
-0.981539, 89, 225, 152, 288
-0.981585, 373, 137, 404, 200
-0.981591, 305, 113, 432, 176
-0.981592, 1, 25, 64, 88
-0.981614, 113, 129, 176, 375
-0.981688, 173, 241, 204, 304
-0.981762, 277, 113, 308, 240
-0.981826, 49, 209, 80, 272
-0.981843, 1, 1, 64, 64
-0.981937, 285, 265, 316, 328
-0.981991, 349, 153, 380, 216
-0.982044, 409, 1, 472, 128
-0.982106, 273, 169, 400, 232
-0.982147, 353, 185, 480, 248
-0.982192, 165, 305, 196, 368
-0.982255, 377, 57, 440, 120
-0.982325, 417, 1, 480, 256
-0.982333, 105, 1, 168, 64
-0.982343, 313, 81, 376, 208
-0.982369, 457, 161, 488, 288
-0.982391, 1, 161, 128, 224
-0.982418, 453, 185, 484, 248
-0.982548, 29, 169, 60, 232
-0.982607, 49, 225, 176, 288
-0.982616, 209, 233, 240, 296
-0.982669, 145, 81, 208, 208
-0.982755, 417, 41, 480, 104
-0.982762, 417, 185, 480, 248
-0.98278, 97, 1, 224, 128
-0.982811, 273, 257, 400, 320
-0.982845, 433, 113, 496, 176
-0.982896, 161, 97, 288, 160
-0.982954, 333, 145, 364, 208
-0.982967, 9, 241, 40, 368
-0.982977, 53, 185, 84, 248
-0.983013, 181, 161, 212, 288
-0.983014, 365, 129, 396, 256
-0.983015, 65, 49, 192, 176
-0.983021, 289, 153, 320, 216
-0.983032, 97, 201, 224, 264
-0.983106, 93, 1, 124, 128
-0.983115, 129, 33, 384, 160
-0.983117, 73, 281, 136, 344
-0.983117, 161, 153, 288, 216
-0.983122, 265, 97, 296, 224
-0.983152, 281, 81, 344, 208
-0.983244, 181, 185, 212, 248
-0.983319, 201, 1, 264, 375
-0.983365, 81, 1, 144, 64
-0.983414, 57, 1, 120, 375
-0.983616, 389, 113, 420, 176
-0.983653, 393, 65, 424, 192
-0.983669, 5, 249, 36, 312
-0.983766, 25, 1, 88, 256
-0.983874, 265, 249, 296, 312
-0.983898, 209, 97, 336, 160
-0.98393, 37, 145, 68, 208
-0.983962, 1, 1, 64, 375
-0.984027, 221, 233, 252, 296
-0.984054, 453, 113, 484, 240
-0.984063, 281, 241, 344, 304
-0.984201, 165, 193, 196, 320
-0.984246, 97, 137, 224, 200
-0.984301, 65, 1, 96, 128
-0.984345, 225, 65, 352, 192
-0.984347, 1, 1, 32, 64
-0.984442, 353, 161, 480, 224
-0.984458, 469, 129, 500, 256
-0.984492, 361, 1, 424, 375
-0.984504, 129, 49, 256, 176
-0.984539, 289, 121, 320, 184
-0.984541, 177, 97, 208, 224
-0.984565, 97, 161, 160, 224
-0.98457, 25, 161, 88, 224
-0.984583, 85, 129, 116, 192
-0.984587, 49, 161, 176, 224
-0.984664, 393, 129, 424, 256
-0.984705, 25, 145, 56, 272
-0.98474, 177, 1, 240, 375
-0.984783, 417, 17, 480, 80
-0.984805, 321, 129, 352, 256
-0.984928, 221, 121, 252, 184
-0.98494, 237, 129, 268, 256
-0.98496, 249, 193, 280, 256
-0.985001, 189, 113, 220, 240
-0.98507, 217, 81, 280, 144
-0.985101, 77, 129, 108, 256
-0.985108, 313, 177, 376, 240
-0.985146, 129, 273, 160, 336
-0.985252, 225, 305, 352, 368
-0.985274, 341, 145, 372, 272
-0.985288, 385, 1, 448, 375
-0.985304, 5, 225, 36, 288
-0.985381, 273, 233, 400, 296
-0.985543, 321, 241, 384, 368
-0.985579, 9, 177, 40, 240
-0.98559, 49, 137, 176, 200
-0.985602, 5, 193, 36, 320
-0.98561, 73, 49, 104, 176
-0.985624, 409, 97, 472, 352
-0.985627, 105, 289, 136, 352
-0.985652, 65, 1, 192, 64
-0.985692, 49, 265, 80, 328
-0.985724, 1, 9, 128, 72
-0.985727, 277, 169, 308, 232
-0.985907, 49, 9, 112, 72
-0.98593, 409, 177, 472, 304
-0.985959, 121, 145, 152, 208
-0.985988, 97, 193, 128, 320
-0.985997, 345, 1, 408, 256
-0.986004, 25, 105, 88, 168
-0.98604, 369, 225, 432, 352
-0.986066, 145, 1, 272, 128
-0.986082, 265, 161, 296, 288
-0.986097, 409, 113, 472, 176
-0.986104, 361, 137, 392, 200
-0.986113, 257, 297, 288, 360
-0.986154, 457, 145, 488, 208
-0.986222, 65, 297, 192, 360
-0.986334, 113, 105, 240, 168
-0.986355, 277, 121, 308, 184
-0.986362, 353, 145, 384, 272
-0.986374, 321, 1, 448, 128
-0.986455, 49, 193, 176, 256
-0.98649, 273, 241, 304, 368
-0.986652, 377, 49, 408, 176
-0.986657, 145, 169, 208, 232
-0.986678, 177, 297, 208, 360
-0.98669, 81, 1, 112, 128
-0.986708, 193, 129, 224, 192
-0.98673, 25, 145, 56, 208
-0.986786, 153, 1, 216, 375
-0.986816, 321, 241, 448, 304
-0.986879, 393, 33, 456, 96
-0.986922, 33, 281, 64, 344
-0.986927, 5, 313, 36, 375
-0.986941, 5, 65, 36, 128
-0.986978, 353, 113, 480, 176
-0.986993, 169, 193, 200, 256
-0.987053, 329, 257, 392, 320
-0.98706, 281, 185, 344, 248
-0.987085, 85, 65, 116, 192
-0.987086, 65, 241, 320, 304
-0.987096, 213, 97, 244, 224
-0.987099, 193, 301, 256, 332
-0.987155, 225, 129, 256, 256
-0.98718, 385, 137, 416, 200
-0.987182, 201, 97, 232, 224
-0.987185, 233, 89, 264, 152
-0.987242, 313, 161, 344, 224
-0.987297, 249, 97, 312, 160
-0.987306, 33, 113, 160, 176
-0.987326, 241, 209, 368, 272
-0.987357, 81, 1, 144, 375
-0.987376, 465, 185, 496, 248
-0.987439, 53, 113, 84, 240
-0.987439, 257, 305, 320, 368
-0.98747, 5, 41, 36, 104
-0.987534, 433, 129, 464, 256
-0.987566, 117, 233, 148, 296
-0.987586, 461, 209, 492, 272
-0.987594, 145, 137, 176, 200
-0.987613, 249, 1, 312, 256
-0.987633, 5, 1, 36, 128
-0.987678, 345, 161, 408, 224
-0.987717, 433, 129, 496, 375
-0.987717, 469, 177, 500, 304
-0.987719, 101, 233, 132, 296
-0.987792, 417, 1, 480, 375
-0.987795, 225, 313, 256, 375
-0.987818, 469, 1, 500, 128
-0.987851, 293, 161, 324, 288
-0.987867, 161, 241, 192, 304
-0.98789, 97, 169, 224, 232
-0.98789, 105, 153, 136, 216
-0.987912, 89, 201, 152, 264
-0.98795, 129, 313, 160, 375
-0.988023, 225, 33, 288, 160
-0.988029, 129, 193, 160, 320
-0.988086, 57, 313, 120, 375
-0.988101, 197, 105, 228, 168
-0.988111, 25, 1, 88, 375
-0.988137, 109, 193, 140, 320
-0.988141, 353, 233, 384, 296
-0.988172, 89, 129, 120, 256
-0.988185, 353, 193, 384, 320
-0.988248, 193, 33, 256, 288
-0.988303, 185, 113, 248, 144
-0.988305, 1, 217, 64, 248
-0.98836, 217, 297, 280, 328
-0.988427, 321, 33, 384, 288
-0.988432, 65, 201, 96, 264
-0.988441, 9, 289, 40, 352
-0.988447, 193, 177, 224, 240
-0.988499, 97, 81, 160, 208
-0.988506, 153, 305, 216, 336
-0.988565, 25, 253, 88, 284
-0.988573, 233, 113, 264, 176
-0.988665, 249, 173, 312, 204
-0.988697, 81, 217, 112, 280
-0.98876, 405, 129, 436, 256
-0.988865, 241, 261, 304, 292
-0.988912, 405, 137, 436, 200
-0.98893, 1, 129, 64, 160
-0.988957, 49, 105, 112, 168
-0.988986, 209, 201, 272, 232
-0.989001, 261, 185, 292, 248
-0.989026, 217, 309, 280, 340
-0.989034, 1, 173, 64, 204
-0.98906, 177, 281, 240, 312
-0.989063, 121, 169, 184, 232
-0.989112, 229, 153, 260, 216
-0.989119, 277, 177, 308, 304
-0.989121, 217, 269, 280, 300
-0.989122, 1, 89, 128, 152
-0.989135, 353, 217, 480, 280
-0.989161, 253, 81, 284, 208
-0.989183, 1, 217, 256, 280
-0.98919, 97, 265, 352, 328
-0.98919, 225, 33, 288, 288
-0.989193, 257, 137, 500, 200
-0.989249, 129, 301, 192, 332
-0.989327, 153, 265, 216, 296
-0.989361, 377, 89, 440, 152
-0.989364, 41, 113, 72, 240
-0.989373, 177, 217, 240, 248
-0.989376, 297, 177, 328, 240
-0.989384, 321, 1, 384, 375
-0.989387, 97, 153, 160, 184
-0.989445, 185, 233, 248, 264
-0.989457, 453, 1, 484, 128
-0.989465, 369, 17, 496, 80
-0.989479, 433, 161, 496, 224
-0.989485, 29, 193, 60, 256
-0.989514, 177, 257, 240, 288
-0.989573, 85, 105, 116, 168
-0.989574, 9, 337, 72, 368
-0.989581, 57, 265, 120, 296
-0.989593, 249, 185, 312, 216
-0.989598, 1, 145, 64, 176
-0.98961, 241, 161, 304, 192
-0.989619, 1, 157, 64, 188
-0.989631, 305, 173, 368, 204
-0.989634, 137, 289, 200, 320
-0.989649, 257, 97, 288, 160
-0.989654, 273, 173, 336, 204
-0.989674, 225, 245, 288, 276
-0.989674, 385, 177, 448, 304
-0.989702, 281, 137, 344, 168
-0.989734, 9, 325, 72, 356
-0.989759, 153, 297, 184, 360
-0.989768, 273, 1, 336, 256
-0.989779, 173, 217, 204, 280
-0.989793, 129, 317, 192, 348
-0.989797, 161, 89, 224, 152
-0.989804, 49, 229, 112, 260
-0.989823, 97, 305, 352, 368
-0.989853, 105, 1, 136, 128
-0.989856, 169, 293, 232, 324
-0.989859, 185, 17, 248, 144
-0.989861, 225, 1, 288, 375
-0.989879, 241, 277, 304, 308
-0.98989, 281, 161, 344, 192
-0.989912, 25, 217, 88, 248
-0.989914, 209, 233, 272, 264
-0.989925, 137, 277, 200, 308
-0.989956, 9, 229, 72, 260
-0.989965, 161, 33, 224, 288
-0.989967, 249, 1, 312, 375
-0.98997, 377, 105, 408, 168
-0.989978, 113, 257, 176, 288
-0.989993, 353, 89, 416, 152
-0.990009, 73, 1, 136, 256
-0.990015, 1, 57, 128, 120
-0.99004, 265, 265, 328, 296
-0.990052, 209, 189, 272, 220
-0.990056, 369, 137, 432, 168
-0.990066, 333, 249, 364, 312
-0.990067, 177, 269, 240, 300
-0.990073, 97, 289, 160, 320
-0.990117, 297, 273, 360, 336
-0.990119, 209, 221, 272, 252
-0.990131, 65, 129, 96, 256
-0.990152, 369, 41, 496, 104
-0.990169, 241, 305, 304, 336
-0.990188, 361, 1, 424, 128
-0.990205, 41, 289, 104, 352
-0.990211, 177, 313, 240, 344
-0.99022, 257, 65, 320, 192
-0.99023, 289, 113, 352, 176
-0.990241, 137, 145, 200, 176
-0.990243, 393, 9, 456, 72
-0.99028, 201, 257, 264, 288
-0.990286, 365, 241, 396, 304
-0.990299, 81, 265, 144, 296
-0.990308, 9, 153, 40, 216
-0.990324, 313, 141, 376, 172
-0.990412, 209, 129, 240, 192
-0.990414, 1, 205, 64, 236
-0.990421, 1, 113, 32, 240
-0.990469, 217, 157, 280, 188
-0.990473, 9, 185, 72, 216
-0.990527, 201, 49, 232, 176
-0.990537, 1, 249, 64, 280
-0.990537, 9, 285, 72, 316
-0.990553, 401, 65, 464, 128
-0.990564, 209, 321, 272, 352
-0.990581, 225, 109, 288, 140
-0.990586, 9, 297, 72, 328
-0.990616, 169, 197, 232, 228
-0.990623, 97, 129, 352, 192
-0.990643, 421, 129, 452, 256
-0.990655, 65, 253, 128, 284
-0.990697, 433, 209, 496, 240
-0.990732, 225, 177, 288, 208
-0.990735, 65, 241, 128, 272
-0.99074, 49, 161, 112, 224
-0.990741, 241, 17, 368, 144
-0.990752, 1, 265, 256, 328
-0.990773, 97, 277, 160, 308
-0.99078, 105, 1, 168, 375
-0.990784, 9, 313, 72, 344
-0.990799, 177, 245, 240, 276
-0.990812, 129, 1, 192, 256
-0.99086, 137, 249, 200, 280
-0.990863, 341, 241, 372, 368
-0.990866, 289, 257, 352, 288
-0.990899, 121, 157, 184, 188
-0.990914, 97, 141, 160, 172
-0.990917, 353, 217, 416, 280
-0.990957, 161, 233, 416, 296
-0.990959, 273, 125, 336, 156
-0.990959, 201, 285, 264, 316
-0.990972, 365, 177, 396, 304
-0.991004, 285, 241, 316, 368
-0.991012, 17, 265, 80, 296
-0.991016, 297, 1, 360, 375
-0.991024, 33, 205, 96, 236
-0.99107, 349, 97, 380, 224
-0.991092, 249, 293, 312, 324
-0.991095, 417, 141, 480, 172
-0.991105, 89, 245, 152, 276
-0.99111, 25, 241, 88, 272
-0.991119, 441, 1, 472, 128
-0.991122, 177, 133, 240, 164
-0.991133, 329, 105, 392, 168
-0.991158, 337, 1, 400, 128
-0.99116, 49, 217, 112, 248
-0.991177, 1, 193, 256, 256
-0.991212, 25, 137, 88, 168
-0.991215, 161, 113, 224, 144
-0.991224, 177, 101, 240, 132
-0.991234, 313, 161, 376, 192
-0.991237, 73, 65, 136, 128
-0.991258, 97, 165, 160, 196
-0.991261, 281, 277, 344, 308
-0.991269, 185, 149, 248, 180
-0.991274, 57, 137, 120, 168
-0.991298, 249, 249, 312, 280
-0.991302, 153, 225, 216, 256
-0.991323, 73, 277, 136, 308
-0.991331, 89, 333, 152, 364
-0.991365, 397, 1, 428, 128
-0.991368, 153, 317, 216, 348
-0.991394, 153, 237, 216, 268
-0.991398, 53, 1, 84, 128
-0.991409, 353, 57, 416, 120
-0.991429, 329, 129, 392, 160
-0.991432, 377, 125, 440, 156
-0.991445, 121, 81, 184, 208
-0.991458, 161, 113, 192, 240
-0.991465, 33, 333, 96, 364
-0.991503, 65, 337, 128, 368
-0.991531, 121, 329, 184, 360
-0.991536, 201, 101, 264, 132
-0.991542, 281, 185, 344, 216
-0.99158, 161, 177, 416, 240
-0.991605, 201, 125, 264, 156
-0.991614, 129, 1, 192, 375
-0.991628, 433, 129, 496, 160
-0.991641, 257, 237, 320, 268
-0.991647, 1, 1, 64, 32
-0.991648, 33, 345, 96, 375
-0.991657, 193, 265, 448, 328
-0.991663, 301, 81, 332, 208
-0.991664, 185, 185, 248, 216
-0.991682, 33, 289, 96, 320
-0.991685, 257, 137, 320, 168
-0.991701, 241, 317, 304, 348
-0.991703, 345, 141, 408, 172
-0.991727, 25, 1, 88, 64
-0.991729, 321, 257, 384, 288
-0.991731, 1, 153, 256, 216
-0.99174, 329, 173, 392, 204
-0.991743, 1, 117, 64, 148
-0.991756, 289, 149, 352, 180
-0.991792, 109, 145, 140, 272
-0.991805, 245, 301, 276, 332
-0.991816, 133, 129, 164, 256
-0.991822, 33, 277, 96, 308
-0.991822, 113, 1, 176, 32
-0.99183, 153, 133, 216, 164
-0.991836, 97, 305, 160, 336
-0.991839, 257, 149, 320, 180
-0.991851, 1, 101, 64, 132
-0.991851, 225, 121, 288, 152
-0.99187, 409, 209, 472, 272
-0.991883, 161, 153, 416, 216
-0.99191, 229, 301, 260, 332
-0.991913, 201, 245, 264, 276
-0.991931, 1, 85, 64, 116
-0.991947, 213, 305, 244, 336
-0.991975, 13, 249, 44, 280
-0.991996, 57, 1, 120, 32
-0.992008, 429, 1, 460, 128
-0.992017, 145, 305, 272, 336
-0.992017, 425, 49, 488, 80
-0.992105, 281, 177, 312, 208
-0.992151, 181, 49, 212, 176
-0.992163, 201, 301, 232, 332
-0.992167, 1, 33, 128, 96
-0.992211, 9, 125, 40, 156
-0.992248, 17, 293, 48, 324
-0.992253, 17, 305, 48, 336
-0.992256, 401, 161, 464, 224
-0.992276, 237, 185, 268, 216
-0.992298, 1, 129, 500, 192
-0.992321, 305, 89, 432, 152
-0.992338, 177, 269, 208, 300
-0.992339, 213, 49, 244, 176
-0.99234, 217, 293, 248, 324
-0.992343, 73, 261, 104, 292
-0.992354, 125, 149, 156, 180
-0.992356, 149, 129, 180, 256
-0.99236, 201, 113, 232, 144
-0.99238, 17, 281, 48, 312
-0.992384, 21, 345, 52, 375
-0.992437, 181, 233, 212, 264
-0.992443, 197, 217, 228, 248
-0.992449, 309, 137, 340, 168
-0.992451, 229, 313, 260, 344
-0.992461, 249, 313, 280, 344
-0.992467, 261, 177, 292, 208
-0.992471, 69, 225, 100, 256
-0.992476, 229, 289, 260, 320
-0.992478, 25, 257, 56, 288
-0.992483, 105, 269, 136, 300
-0.992489, 233, 257, 264, 288
-0.992492, 189, 309, 220, 340
-0.992502, 161, 201, 416, 264
-0.992509, 117, 289, 148, 320
-0.992512, 13, 213, 44, 244
-0.992513, 253, 261, 284, 292
-0.992514, 21, 325, 52, 356
-0.99252, 249, 169, 280, 200
-0.992525, 213, 113, 244, 144
-0.992528, 281, 273, 312, 304
-0.992534, 17, 269, 48, 300
-0.992561, 209, 277, 240, 308
-0.992562, 1, 249, 500, 312
-0.992569, 49, 65, 112, 128
-0.992584, 405, 49, 436, 176
-0.99259, 293, 181, 324, 212
-0.992598, 37, 213, 68, 244
-0.992599, 13, 237, 44, 268
-0.992602, 249, 245, 280, 276
-0.992606, 165, 265, 196, 296
-0.992607, 61, 261, 92, 292
-0.992627, 45, 249, 76, 280
-0.992633, 453, 65, 484, 192
-0.992635, 85, 265, 116, 296
-0.992636, 165, 309, 196, 340
-0.992639, 201, 229, 232, 260
-0.992641, 305, 177, 336, 208
-0.992641, 181, 221, 212, 252
-0.992641, 209, 273, 224, 336
-0.992642, 181, 293, 212, 324
-0.992648, 233, 81, 264, 208
-0.992657, 297, 129, 328, 160
-0.992677, 201, 317, 232, 348
-0.992681, 181, 257, 212, 288
-0.992681, 117, 261, 148, 292
-0.992691, 269, 161, 300, 192
-0.992693, 253, 277, 284, 308
-0.992693, 257, 301, 288, 332
-0.992697, 257, 157, 288, 188
-0.992701, 213, 317, 244, 348
-0.992708, 273, 261, 304, 292
-0.992713, 181, 197, 212, 228
-0.992713, 213, 229, 244, 260
-0.992715, 197, 273, 228, 304
-0.992718, 321, 141, 352, 172
-0.992728, 185, 245, 216, 276
-0.992735, 109, 149, 140, 180
-0.992755, 233, 233, 264, 264
-0.99276, 453, 209, 484, 240
-0.992774, 249, 181, 280, 212
-0.99278, 353, 157, 384, 188
-0.992786, 177, 309, 208, 340
-0.992794, 425, 65, 488, 128
-0.992801, 369, 141, 400, 172
-0.992808, 137, 285, 168, 316
-0.992809, 5, 113, 36, 144
-0.99281, 353, 241, 384, 368
-0.992816, 165, 297, 196, 328
-0.99282, 145, 297, 176, 328
-0.992829, 1, 225, 128, 256
-0.99283, 33, 177, 64, 208
-0.992832, 221, 273, 236, 336
-0.992841, 221, 273, 252, 304
-0.992847, 241, 289, 272, 320
-0.992851, 293, 269, 324, 300
-0.992852, 133, 257, 164, 288
-0.992852, 265, 281, 296, 312
-0.992852, 277, 125, 308, 156
-0.992856, 49, 213, 80, 244
-0.992864, 165, 253, 196, 284
-0.992866, 233, 245, 264, 276
-0.992877, 125, 277, 156, 308
-0.992881, 285, 165, 316, 196
-0.992885, 181, 109, 212, 140
-0.992894, 217, 205, 248, 236
-0.992901, 45, 185, 76, 216
-0.992901, 29, 301, 60, 332
-0.992904, 285, 137, 316, 168
-0.992907, 145, 145, 176, 176
-0.992908, 57, 225, 88, 256
-0.992909, 377, 233, 440, 296
-0.992911, 233, 149, 264, 180
-0.992919, 245, 157, 276, 188
-0.992921, 297, 141, 328, 172
-0.992921, 381, 133, 412, 164
-0.992921, 33, 141, 64, 172
-0.99293, 33, 289, 64, 320
-0.992932, 337, 165, 368, 196
-0.992936, 289, 193, 416, 256
-0.992937, 233, 197, 264, 228
-0.99294, 341, 269, 372, 300
-0.992946, 85, 137, 116, 168
-0.992949, 317, 173, 348, 204
-0.992953, 193, 261, 224, 292
-0.992954, 225, 113, 256, 144
-0.992955, 465, 209, 496, 240
-0.992957, 97, 257, 128, 288
-0.992958, 453, 181, 484, 212
-0.992958, 261, 189, 292, 220
-0.992962, 241, 269, 272, 300
-0.992964, 161, 277, 192, 308
-0.992965, 29, 237, 60, 268
-0.992966, 1, 1, 32, 32
-0.992967, 217, 217, 248, 248
-0.992972, 193, 201, 224, 232
-0.992981, 245, 233, 276, 264
-0.992981, 9, 197, 40, 228
-0.992992, 457, 169, 488, 200
-0.992994, 149, 261, 180, 292
-0.992996, 113, 1, 176, 128
-0.992998, 89, 277, 120, 308
-0.993, 1, 289, 256, 352
-0.993003, 1, 249, 32, 280
-0.993003, 341, 141, 372, 172
-0.993004, 45, 233, 76, 264
-0.993004, 85, 253, 116, 284
-0.993008, 297, 241, 328, 368
-0.993009, 9, 177, 40, 208
-0.993012, 33, 333, 64, 364
-0.99304, 161, 273, 288, 304
-0.993149, 161, 293, 288, 324
-0.993193, 193, 113, 448, 176
-0.993217, 425, 65, 456, 192
-0.993238, 255, 273, 270, 336
-0.993292, 193, 261, 320, 292
-0.993322, 177, 237, 304, 268
-0.993366, 353, 81, 480, 144
-0.993399, 19, 249, 34, 312
-0.993408, 161, 73, 288, 136
-0.993419, 65, 261, 192, 292
-0.99342, 313, 81, 344, 208
-0.993425, 445, 177, 476, 304
-0.99348, 259, 161, 274, 224
-0.993511, 389, 177, 420, 304
-0.993529, 297, 33, 360, 288
-0.993538, 215, 273, 230, 336
-0.993563, 365, 81, 396, 208
-0.993605, 377, 177, 408, 304
-0.99363, 337, 265, 464, 328
-0.993724, 377, 1, 408, 128
-0.993744, 239, 289, 254, 352
-0.993749, 25, 97, 56, 224
-0.99376, 231, 289, 246, 352
-0.993764, 153, 193, 184, 320
-0.993846, 177, 249, 304, 280
-0.993854, 225, 161, 352, 192
-0.99388, 273, 1, 336, 375
-0.993899, 121, 129, 152, 256
-0.993906, 1, 225, 500, 288
-0.99394, 333, 97, 364, 224
-0.993947, 17, 269, 144, 300
-0.993952, 183, 265, 198, 328
-0.993968, 1, 273, 500, 336
-0.994053, 21, 273, 36, 336
-0.994092, 1, 253, 128, 284
-0.994104, 465, 81, 496, 208
-0.994128, 217, 297, 232, 360
-0.994149, 65, 89, 192, 152
-0.994154, 27, 313, 42, 375
-0.994156, 211, 297, 226, 360
-0.994164, 257, 169, 500, 232
-0.994166, 257, 177, 384, 208
-0.99419, 193, 1, 320, 128
-0.994205, 25, 1, 88, 128
-0.994206, 27, 257, 42, 320
-0.994207, 329, 241, 360, 368
-0.994216, 69, 225, 84, 288
-0.994273, 193, 185, 320, 216
-0.994288, 257, 297, 272, 360
-0.994295, 113, 317, 240, 348
-0.994305, 113, 293, 240, 324
-0.994305, 269, 273, 284, 336
-0.994315, 117, 1, 148, 128
-0.994323, 193, 305, 320, 336
-0.994331, 113, 281, 240, 312
-0.994351, 1, 129, 256, 192
-0.994361, 113, 261, 240, 292
-0.994361, 161, 17, 224, 144
-0.994397, 441, 65, 472, 192
-0.994406, 171, 265, 186, 328
-0.994423, 249, 273, 264, 336
-0.994426, 235, 233, 250, 296
-0.994432, 97, 1, 160, 256
-0.994462, 261, 273, 276, 336
-0.994498, 413, 1, 444, 128
-0.994498, 41, 177, 56, 240
-0.994505, 37, 249, 52, 312
-0.994507, 119, 257, 134, 320
-0.994526, 177, 217, 304, 248
-0.994526, 75, 225, 90, 288
-0.994527, 247, 249, 262, 312
-0.994531, 229, 265, 244, 328
-0.994534, 363, 153, 378, 216
-0.994545, 257, 149, 384, 180
-0.994569, 353, 141, 480, 172
-0.9946, 79, 257, 94, 320
-0.994606, 113, 1, 240, 64
-0.994624, 1, 197, 128, 228
-0.994628, 365, 241, 396, 368
-0.994633, 17, 281, 144, 312
-0.994649, 1, 209, 128, 240
-0.994657, 17, 141, 144, 172
-0.994693, 225, 297, 240, 360
-0.994698, 305, 137, 432, 168
-0.9947, 209, 273, 336, 304
-0.994728, 35, 313, 50, 375
-0.994739, 161, 17, 288, 80
-0.99475, 113, 257, 128, 320
-0.994763, 205, 297, 220, 360
-0.994764, 201, 273, 216, 336
-0.994801, 1, 313, 256, 375
-0.994823, 131, 281, 146, 344
-0.994837, 19, 225, 34, 288
-0.994842, 315, 137, 330, 200
-0.994853, 251, 297, 266, 360
-0.994895, 161, 205, 288, 236
-0.994901, 257, 97, 384, 160
-0.994911, 247, 225, 262, 288
-0.994913, 305, 17, 432, 80
-0.994949, 133, 257, 148, 320
-0.994965, 245, 297, 260, 360
-0.994966, 185, 225, 200, 288
-0.994975, 1, 1, 256, 64
-0.994992, 97, 249, 224, 280
-0.995003, 25, 233, 40, 296
-0.995017, 1, 161, 500, 224
-0.995032, 1, 237, 128, 268
-0.995045, 127, 249, 142, 312
-0.995062, 97, 105, 352, 168
-0.99507, 13, 97, 44, 352
-0.995073, 89, 233, 104, 296
-0.995097, 191, 209, 206, 272
-0.995114, 227, 105, 242, 168
-0.99512, 97, 305, 224, 336
-0.995147, 309, 177, 340, 304
-0.99516, 105, 257, 120, 320
-0.995164, 321, 49, 448, 112
-0.995187, 43, 281, 58, 344
-0.995197, 59, 241, 74, 304
-0.995221, 251, 185, 266, 248
-0.995247, 193, 317, 320, 348
-0.995262, 471, 177, 486, 240
-0.995278, 97, 221, 224, 252
-0.995282, 257, 233, 500, 296
-0.995283, 201, 209, 216, 272
-0.995306, 273, 269, 400, 300
-0.995351, 277, 273, 292, 336
-0.99536, 1, 153, 128, 184
-0.995364, 1, 185, 500, 248
-0.995402, 73, 257, 88, 320
-0.995405, 195, 273, 210, 336
-0.995408, 65, 249, 80, 312
-0.995419, 141, 249, 156, 312
-0.995421, 41, 209, 56, 272
-0.995427, 255, 233, 270, 296
-0.995439, 179, 241, 194, 304
-0.995439, 141, 193, 172, 320
-0.99544, 31, 217, 46, 280
-0.995474, 241, 257, 368, 288
-0.995491, 241, 189, 368, 220
-0.995493, 177, 173, 304, 204
-0.995497, 333, 145, 348, 208
-0.995505, 225, 137, 352, 168
-0.995526, 155, 257, 170, 320
-0.99553, 1, 185, 128, 216
-0.995546, 81, 225, 96, 288
-0.995547, 267, 249, 282, 312
-0.995552, 11, 121, 26, 184
-0.995558, 97, 233, 224, 264
-0.995587, 177, 41, 304, 104
-0.99559, 225, 129, 240, 192
-0.995601, 51, 209, 66, 272
-0.995604, 289, 145, 304, 208
-0.995621, 341, 193, 372, 320
-0.995626, 17, 293, 144, 324
-0.995632, 193, 233, 208, 296
-0.995656, 193, 185, 208, 248
-0.995668, 475, 137, 490, 200
-0.995669, 353, 189, 480, 220
-0.995683, 235, 257, 250, 320
-0.995686, 261, 241, 276, 304
-0.995703, 33, 313, 160, 344
-0.995716, 463, 169, 478, 232
-0.995718, 95, 241, 110, 304
-0.995729, 201, 105, 216, 168
-0.995746, 241, 257, 256, 320
-0.995747, 165, 257, 180, 320
-0.995749, 145, 113, 272, 144
-0.995749, 283, 273, 298, 336
-0.995763, 95, 265, 110, 328
-0.995767, 17, 341, 144, 372
-0.995772, 47, 185, 62, 248
-0.995776, 183, 193, 198, 256
-0.995783, 357, 153, 372, 216
-0.995788, 135, 137, 150, 200
-0.995804, 209, 293, 336, 324
-0.995811, 65, 289, 192, 320
-0.995819, 27, 289, 42, 352
-0.99582, 469, 201, 484, 264
-0.995825, 225, 193, 240, 256
-0.995826, 241, 225, 256, 288
-0.995831, 175, 289, 190, 352
-0.995834, 13, 241, 28, 304
-0.995841, 129, 145, 144, 208
-0.995848, 37, 289, 52, 352
-0.995851, 253, 161, 268, 224
-0.995854, 1, 105, 256, 168
-0.995855, 89, 265, 104, 328
-0.995862, 325, 137, 340, 200
-0.995865, 213, 209, 228, 272
-0.995894, 291, 265, 306, 328
-0.995903, 257, 193, 500, 256
-0.995915, 49, 245, 176, 276
-0.995932, 395, 113, 410, 176
-0.995935, 289, 125, 416, 156
-0.995936, 241, 185, 256, 248
-0.995951, 469, 153, 484, 216
-0.995952, 289, 257, 416, 288
-0.995954, 1, 105, 500, 168
-0.995954, 255, 209, 270, 272
-0.995982, 285, 121, 300, 184
-0.995982, 45, 305, 60, 368
-0.995982, 289, 281, 416, 344
-0.995995, 373, 137, 388, 200
-0.996009, 143, 281, 158, 344
-0.996013, 43, 249, 58, 312
-0.996019, 199, 297, 214, 360
-0.996021, 193, 297, 448, 360
-0.996025, 1, 305, 500, 368
-0.996035, 125, 281, 140, 344
-0.996048, 189, 265, 204, 328
-0.996051, 113, 197, 240, 228
-0.996052, 149, 249, 164, 312
-0.996075, 277, 249, 292, 312
-0.996098, 87, 57, 102, 120
-0.996098, 11, 97, 26, 160
-0.996106, 209, 125, 336, 156
-0.996112, 81, 145, 208, 176
-0.996123, 17, 201, 32, 264
-0.996124, 145, 125, 272, 156
-0.996128, 65, 273, 192, 304
-0.99613, 201, 233, 216, 296
-0.996135, 141, 137, 156, 200
-0.996138, 231, 193, 246, 256
-0.99614, 219, 201, 234, 264
-0.996142, 53, 177, 68, 240
-0.996143, 225, 241, 240, 304
-0.996155, 43, 145, 58, 208
-0.996156, 381, 225, 412, 352
-0.996164, 1, 173, 128, 204
-0.996175, 177, 265, 192, 328
-0.996178, 65, 333, 192, 364
-0.996182, 477, 113, 492, 176
-0.996193, 207, 301, 222, 332
-0.996201, 37, 129, 68, 375
-0.996206, 137, 297, 152, 360
-0.996214, 265, 161, 280, 224
-0.996217, 15, 273, 30, 336
-0.99622, 385, 65, 416, 320
-0.996225, 27, 129, 42, 192
-0.996226, 113, 65, 240, 128
-0.996233, 51, 249, 66, 312
-0.996243, 177, 161, 304, 192
-0.996271, 85, 97, 116, 352
-0.996274, 241, 245, 368, 276
-0.996324, 259, 301, 274, 332
-0.996347, 25, 129, 56, 375
-0.996365, 249, 129, 280, 375
-0.996377, 97, 25, 224, 88
-0.996384, 229, 129, 260, 375
-0.996444, 97, 65, 128, 192
-0.996458, 225, 89, 480, 152
-0.9965, 329, 177, 360, 304
-0.996536, 193, 113, 320, 144
-0.996549, 317, 225, 348, 352
-0.996589, 73, 1, 104, 256
-0.9966, 69, 97, 100, 352
-0.996601, 353, 209, 480, 240
-0.996607, 353, 177, 480, 208
-0.996654, 161, 129, 192, 375
-0.99666, 129, 145, 256, 176
-0.99668, 213, 305, 228, 336
-0.99672, 365, 129, 396, 375
-0.996749, 253, 305, 268, 336
-0.996768, 49, 1, 176, 32
-0.996789, 161, 101, 288, 132
-0.996798, 49, 221, 176, 252
-0.996822, 97, 129, 128, 375
-0.996844, 219, 305, 234, 336
-0.996845, 19, 249, 34, 280
-0.99685, 295, 177, 310, 208
-0.996884, 49, 205, 176, 236
-0.996887, 25, 253, 40, 284
-0.996907, 305, 173, 432, 204
-0.996921, 225, 225, 352, 256
-0.996932, 49, 157, 176, 188
-0.996942, 225, 33, 256, 160
-0.996961, 353, 129, 480, 160
-0.996962, 201, 113, 216, 144
-0.996964, 209, 205, 336, 236
-0.996967, 75, 261, 90, 292
-0.996968, 149, 129, 180, 375
-0.996972, 289, 65, 320, 192
-0.996982, 237, 297, 252, 328
-0.996986, 49, 129, 80, 375
-0.99701, 97, 157, 224, 188
-0.997025, 243, 301, 258, 332
-0.997032, 261, 65, 292, 320
-0.997038, 1, 325, 128, 356
-0.997059, 19, 261, 34, 292
-0.997067, 231, 293, 246, 324
-0.997069, 257, 73, 384, 136
-0.997091, 25, 329, 40, 360
-0.997093, 225, 25, 352, 88
-0.997101, 1, 13, 128, 44
-0.997104, 305, 149, 432, 180
-0.997106, 209, 129, 240, 375
-0.997112, 397, 1, 428, 256
-0.997129, 25, 341, 40, 372
-0.997161, 1, 1, 128, 32
-0.997178, 1, 129, 128, 160
-0.99722, 227, 113, 242, 144
-0.997223, 21, 277, 36, 308
-0.997237, 353, 165, 480, 196
-0.997247, 215, 317, 230, 348
-0.997248, 225, 305, 240, 336
-0.997265, 259, 161, 274, 192
-0.997268, 181, 257, 196, 288
-0.99727, 281, 177, 296, 208
-0.99728, 57, 1, 88, 256
-0.997283, 241, 305, 368, 336
-0.997306, 273, 161, 400, 192
-0.997317, 23, 305, 38, 336
-0.997324, 261, 181, 276, 212
-0.997335, 113, 329, 240, 360
-0.997351, 171, 265, 186, 296
-0.997358, 207, 313, 222, 344
-0.99736, 353, 129, 384, 375
-0.997404, 145, 185, 272, 216
-0.997407, 353, 221, 480, 252
-0.99742, 289, 173, 304, 204
-0.997425, 301, 181, 316, 212
-0.997433, 137, 33, 200, 160
-0.997434, 133, 129, 164, 375
-0.997441, 85, 265, 100, 296
-0.997443, 199, 305, 214, 336
-0.997448, 81, 129, 208, 160
-0.997456, 177, 149, 304, 180
-0.997461, 285, 97, 316, 352
-0.997464, 257, 281, 384, 312
-0.997476, 193, 221, 208, 252
-0.99748, 235, 233, 250, 264
-0.997497, 255, 261, 270, 292
-0.997509, 109, 81, 140, 208
-0.997509, 297, 97, 328, 352
-0.997515, 17, 237, 32, 268
-0.997518, 185, 229, 200, 260
-0.997521, 1, 25, 256, 88
-0.997524, 247, 249, 262, 280
-0.997524, 323, 137, 338, 168
-0.997526, 97, 1, 224, 32
-0.997531, 231, 305, 246, 336
-0.997533, 33, 253, 48, 284
-0.997533, 47, 213, 62, 244
-0.997541, 127, 149, 142, 180
-0.997547, 217, 221, 232, 252
-0.997548, 113, 129, 144, 375
-0.997555, 307, 185, 322, 216
-0.997571, 65, 253, 80, 284
-0.997579, 225, 233, 240, 264
-0.997583, 239, 313, 254, 344
-0.997591, 127, 285, 142, 316
-0.997601, 121, 277, 136, 308
-0.997606, 275, 177, 290, 208
-0.997609, 225, 273, 240, 304
-0.997613, 265, 169, 280, 200
-0.997617, 369, 241, 496, 304
-0.997618, 249, 293, 264, 324
-0.997625, 241, 185, 256, 216
-0.997627, 141, 285, 156, 316
-0.997631, 33, 305, 48, 336
-0.997634, 253, 177, 268, 208
-0.99764, 397, 97, 428, 352
-0.997643, 329, 137, 344, 168
-0.997649, 97, 209, 224, 240
-0.997657, 293, 269, 308, 300
-0.99766, 225, 25, 480, 88
-0.997668, 273, 97, 304, 352
-0.997674, 173, 297, 188, 328
-0.997678, 97, 169, 224, 200
-0.997679, 33, 333, 48, 364
-0.997684, 39, 289, 54, 320
-0.997688, 261, 261, 276, 292
-0.997689, 49, 193, 176, 224
-0.997696, 251, 193, 266, 224
-0.997696, 247, 313, 262, 344
-0.997701, 169, 309, 184, 340
-0.997705, 53, 181, 68, 212
-0.997707, 21, 289, 36, 320
-0.997715, 183, 269, 198, 300
-0.997725, 81, 225, 96, 256
-0.997725, 195, 233, 210, 264
-0.997725, 247, 265, 262, 296
-0.997726, 253, 245, 268, 276
-0.997727, 315, 141, 330, 172
-0.997735, 357, 153, 372, 184
-0.997739, 41, 177, 56, 208
-0.997745, 321, 241, 448, 272
-0.997749, 225, 293, 240, 324
-0.997754, 341, 129, 372, 375
-0.997754, 177, 97, 208, 352
-0.997761, 29, 241, 44, 272
-0.997762, 1, 117, 128, 148
-0.997764, 265, 301, 280, 332
-0.997768, 11, 125, 26, 156
-0.997772, 457, 1, 488, 256
-0.997774, 39, 253, 54, 284
-0.997775, 287, 185, 302, 216
-0.997777, 111, 269, 126, 300
-0.997784, 139, 153, 154, 184
-0.997786, 275, 281, 290, 312
-0.99779, 463, 213, 478, 244
-0.997792, 305, 305, 432, 368
-0.9978, 373, 1, 404, 256
-0.997801, 281, 165, 296, 196
-0.997813, 413, 1, 444, 256
-0.997822, 321, 129, 352, 375
-0.997823, 9, 1, 40, 256
-0.997825, 287, 265, 302, 296
-0.997825, 259, 313, 274, 344
-0.997826, 353, 153, 480, 184
-0.997829, 235, 253, 250, 284
-0.99783, 41, 217, 56, 248
-0.997834, 183, 185, 198, 216
-0.997837, 1, 97, 32, 352
-0.997839, 27, 293, 42, 324
-0.997841, 185, 217, 200, 248
-0.997843, 209, 213, 224, 244
-0.997854, 85, 1, 116, 256
-0.997854, 71, 217, 86, 248
-0.997858, 213, 277, 228, 308
-0.997862, 255, 213, 270, 244
-0.997867, 469, 197, 484, 228
-0.997877, 283, 277, 298, 308
-0.997882, 45, 249, 60, 280
-0.997886, 99, 265, 114, 296
-0.997898, 373, 141, 388, 172
-0.997898, 181, 297, 196, 328
-0.997901, 49, 181, 176, 212
-0.997902, 25, 129, 40, 160
-0.997911, 221, 321, 236, 352
-0.997915, 49, 169, 176, 200
-0.997921, 241, 233, 256, 264
-0.997924, 17, 217, 32, 248
-0.997926, 271, 261, 286, 292
-0.997929, 29, 317, 44, 348
-0.997934, 123, 261, 138, 292
-0.997935, 201, 273, 216, 304
-0.997938, 151, 145, 166, 176
-0.997939, 261, 241, 276, 272
-0.997944, 131, 273, 146, 304
-0.997955, 91, 265, 106, 296
-0.997958, 469, 209, 484, 240
-0.997961, 289, 189, 416, 220
-0.997961, 201, 221, 216, 252
-0.997963, 263, 277, 278, 308
-0.99797, 15, 273, 30, 304
-0.997972, 363, 161, 378, 192
-0.997978, 49, 65, 176, 128
-0.997998, 241, 253, 256, 284
-0.997999, 309, 129, 340, 375
-0.998001, 273, 233, 400, 264
-0.998008, 15, 201, 30, 232
-0.998009, 425, 1, 456, 256
-0.998012, 369, 53, 496, 84
-0.998015, 191, 193, 206, 224
-0.998017, 215, 293, 230, 324
-0.99802, 319, 173, 334, 204
-0.998021, 247, 181, 262, 212
-0.998024, 117, 261, 132, 292
-0.998029, 211, 225, 226, 256
-0.998032, 247, 233, 262, 264
-0.998041, 1, 81, 256, 144
-0.998054, 409, 129, 440, 375
-0.998055, 1, 65, 128, 96
-0.998079, 193, 129, 224, 375
-0.998142, 65, 345, 192, 375
-0.998165, 445, 1, 476, 256
-0.998201, 209, 101, 336, 132
-0.998232, 305, 113, 432, 144
-0.998324, 49, 233, 176, 264
-0.998333, 469, 1, 500, 256
-0.998367, 81, 117, 208, 148
-0.998372, 241, 317, 368, 348
-0.998389, 469, 129, 500, 375
-0.998392, 201, 317, 264, 332
-0.998394, 201, 301, 264, 316
-0.998396, 457, 129, 488, 375
-0.998403, 265, 183, 328, 198
-0.998407, 9, 223, 72, 238
-0.998408, 201, 311, 264, 326
-0.998409, 161, 309, 224, 324
-0.998411, 1, 177, 64, 192
-0.998412, 249, 189, 312, 204
-0.998417, 1, 77, 128, 108
-0.998426, 9, 343, 72, 358
-0.998428, 241, 183, 304, 198
-0.998429, 185, 121, 248, 136
-0.998432, 1, 217, 64, 232
-0.998434, 201, 279, 232, 294
-0.998434, 81, 275, 112, 290
-0.998436, 225, 229, 256, 244
-0.998437, 49, 227, 112, 242
-0.998437, 117, 261, 148, 276
-0.998437, 321, 269, 448, 300
-0.998437, 233, 251, 264, 266
-0.998438, 173, 303, 204, 318
-0.998439, 265, 275, 296, 290
-0.998439, 369, 141, 400, 156
-0.99844, 25, 259, 56, 274
-0.99844, 1, 137, 64, 152
-0.998441, 25, 255, 88, 270
-0.998441, 221, 203, 252, 218
-0.998441, 265, 189, 296, 204
-0.998441, 233, 111, 264, 126
-0.998443, 177, 193, 208, 208
-0.998446, 169, 315, 232, 330
-0.998447, 217, 325, 248, 340
-0.998448, 161, 271, 192, 286
-0.998448, 129, 291, 160, 306
-0.998448, 289, 141, 352, 156
-0.998449, 237, 185, 268, 200
-0.99845, 133, 257, 164, 272
-0.99845, 253, 165, 284, 180
-0.99845, 177, 311, 208, 326
-0.99845, 229, 291, 260, 306
-0.998451, 337, 145, 368, 160
-0.998452, 289, 177, 320, 192
-0.998453, 37, 225, 68, 240
-0.998453, 137, 305, 200, 320
-0.998454, 249, 269, 312, 284
-0.998455, 193, 273, 224, 288
-0.998456, 21, 331, 52, 346
-0.998456, 209, 271, 272, 286
-0.998456, 289, 189, 320, 204
-0.998457, 189, 225, 220, 240
-0.998458, 17, 281, 48, 296
-0.998458, 5, 123, 36, 138
-0.998461, 205, 129, 236, 144
-0.998463, 277, 171, 308, 186
-0.998464, 233, 271, 264, 286
-0.998464, 225, 319, 288, 334
-0.998465, 241, 1, 368, 64
-0.998465, 185, 115, 248, 130
-0.998466, 13, 229, 44, 244
-0.998467, 381, 139, 412, 154
-0.998468, 9, 183, 72, 198
-0.998468, 21, 353, 52, 368
-0.998468, 245, 159, 276, 174
-0.998468, 421, 129, 452, 375
-0.998469, 225, 305, 288, 320
-0.998471, 237, 197, 268, 212
-0.998472, 177, 199, 208, 214
-0.998472, 1, 171, 64, 186
-0.998472, 33, 221, 96, 236
-0.998473, 113, 101, 240, 132
-0.998474, 45, 187, 76, 202
-0.998475, 181, 107, 212, 122
-0.998475, 297, 135, 328, 150
-0.998476, 169, 271, 232, 286
-0.998477, 177, 301, 240, 316
-0.998477, 333, 173, 364, 188
-0.998479, 73, 267, 136, 282
-0.998479, 61, 221, 92, 236
-0.998479, 177, 277, 240, 292
-0.99848, 269, 161, 300, 176
-0.998481, 181, 297, 212, 312
-0.998481, 9, 231, 72, 246
-0.998481, 249, 245, 280, 260
-0.998481, 241, 173, 304, 188
-0.998482, 257, 159, 288, 174
-0.998482, 321, 175, 352, 190
-0.998482, 185, 239, 248, 254
-0.998482, 209, 237, 240, 252
-0.998483, 177, 231, 240, 246
-0.998484, 213, 117, 244, 132
-0.998484, 165, 265, 196, 280
-0.998485, 209, 241, 224, 368
-0.998485, 17, 319, 48, 334
-0.998488, 129, 145, 160, 160
-0.998488, 21, 339, 52, 354
-0.998488, 1, 143, 64, 158
-0.998488, 217, 203, 280, 218
-0.998489, 17, 313, 48, 328
-0.998489, 249, 173, 280, 188
-0.99849, 233, 311, 264, 326
-0.99849, 13, 269, 44, 284
-0.998491, 257, 313, 288, 328
-0.998492, 213, 273, 244, 288
-0.998492, 201, 295, 264, 310
-0.998493, 241, 161, 304, 176
-0.998493, 241, 263, 304, 278
-0.998494, 109, 281, 140, 296
-0.998494, 1, 131, 64, 146
-0.998494, 177, 223, 240, 238
-0.998496, 225, 297, 288, 312
-0.998497, 1, 49, 256, 112
-0.998497, 41, 217, 72, 232
-0.998498, 13, 245, 44, 260
-0.998498, 257, 305, 288, 320
-0.998499, 273, 221, 400, 252
-0.998499, 21, 359, 52, 374
-0.998499, 13, 235, 44, 250
-0.998499, 61, 269, 92, 284
-0.9985, 301, 181, 332, 196
-0.9985, 201, 123, 232, 138
-0.9985, 227, 225, 242, 352
-0.9985, 249, 167, 312, 182
-0.9985, 201, 113, 232, 128
-0.998501, 125, 285, 156, 300
-0.998501, 165, 309, 196, 324
-0.998502, 13, 223, 44, 238
-0.998502, 97, 281, 160, 296
-0.998502, 9, 337, 72, 352
-0.998503, 277, 279, 308, 294
-0.998503, 1, 155, 64, 170
-0.998504, 301, 187, 332, 202
-0.998504, 1, 149, 64, 164
-0.998504, 25, 241, 40, 368
-0.998504, 289, 179, 352, 194
-0.998504, 129, 317, 192, 332
-0.998504, 225, 247, 288, 262
-0.998505, 137, 265, 200, 280
-0.998505, 1, 163, 64, 178
-0.998506, 453, 213, 484, 228
-0.998507, 265, 175, 296, 190
-0.998507, 113, 259, 176, 274
-0.998508, 17, 325, 48, 340
-0.998511, 213, 123, 244, 138
-0.998511, 181, 231, 212, 246
-0.998512, 41, 271, 104, 286
-0.998513, 97, 161, 160, 176
-0.998514, 33, 307, 64, 322
-0.998515, 33, 253, 64, 268
-0.998515, 233, 259, 264, 274
-0.998516, 121, 145, 184, 160
-0.998516, 49, 225, 80, 240
-0.998517, 265, 275, 328, 290
-0.998518, 229, 323, 260, 338
-0.998518, 293, 141, 324, 156
-0.99852, 201, 309, 232, 324
-0.99852, 217, 159, 280, 174
-0.99852, 185, 239, 216, 254
-0.998521, 137, 289, 200, 304
-0.998522, 129, 311, 192, 326
-0.998523, 65, 263, 96, 278
-0.998524, 277, 189, 308, 204
-0.998525, 129, 299, 192, 314
-0.998525, 57, 261, 120, 276
-0.998528, 177, 263, 240, 278
-0.998528, 217, 311, 248, 326
-0.998529, 189, 309, 220, 324
-0.998529, 193, 127, 256, 142
-0.99853, 1, 251, 64, 266
-0.998531, 61, 227, 92, 242
-0.998532, 313, 175, 376, 190
-0.998532, 201, 231, 264, 246
-0.998533, 97, 287, 160, 302
-0.998534, 253, 263, 284, 278
-0.998535, 9, 331, 72, 346
-0.998535, 49, 13, 176, 44
-0.998537, 229, 303, 260, 318
-0.998537, 215, 209, 230, 336
-0.998538, 129, 323, 192, 338
-0.998538, 153, 297, 216, 312
-0.998539, 225, 311, 288, 326
-0.99854, 277, 137, 308, 152
-0.998541, 161, 329, 288, 360
-0.998541, 25, 261, 88, 276
-0.998543, 217, 197, 280, 212
-0.998545, 201, 323, 264, 338
-0.998546, 265, 139, 328, 154
-0.998546, 81, 267, 112, 282
-0.998548, 237, 191, 268, 206
-0.998548, 97, 293, 160, 308
-0.998549, 177, 269, 208, 284
-0.998549, 17, 307, 48, 322
-0.998549, 1, 191, 64, 206
-0.99855, 169, 321, 232, 336
-0.99855, 201, 317, 232, 332
-0.99855, 329, 143, 392, 158
-0.998551, 177, 217, 240, 232
-0.998551, 9, 301, 72, 316
-0.998551, 13, 217, 44, 232
-0.998551, 225, 255, 288, 270
-0.998552, 197, 233, 228, 248
-0.998553, 177, 295, 240, 310
-0.998553, 245, 321, 276, 336
-0.998553, 17, 287, 48, 302
-0.998554, 9, 245, 72, 260
-0.998556, 433, 215, 496, 230
-0.998556, 201, 221, 264, 236
-0.998557, 249, 179, 280, 194
-0.998557, 97, 155, 160, 170
-0.998558, 361, 139, 424, 154
-0.998561, 237, 33, 268, 288
-0.998561, 249, 281, 312, 296
-0.998562, 1, 211, 64, 226
-0.998563, 9, 325, 72, 340
-0.998563, 41, 233, 104, 248
-0.998565, 145, 271, 208, 286
-0.998567, 321, 183, 384, 198
-0.998567, 249, 315, 312, 330
-0.998568, 137, 281, 200, 296
-0.998569, 225, 291, 288, 306
-0.998569, 225, 115, 288, 130
-0.99857, 213, 297, 244, 312
-0.998571, 169, 201, 232, 216
-0.998572, 265, 177, 328, 192
-0.998573, 1, 105, 128, 136
-0.998574, 9, 295, 72, 310
-0.998574, 177, 107, 240, 122
-0.998577, 137, 155, 200, 170
-0.998577, 209, 209, 272, 224
-0.998578, 313, 141, 344, 156
-0.998578, 193, 151, 256, 166
-0.998579, 1, 197, 64, 212
-0.998579, 21, 347, 52, 362
-0.998581, 9, 307, 72, 322
-0.998581, 217, 153, 280, 168
-0.998581, 209, 231, 240, 246
-0.998582, 233, 297, 264, 312
-0.998582, 9, 319, 72, 334
-0.998583, 209, 191, 272, 206
-0.998584, 117, 291, 148, 306
-0.998584, 321, 153, 384, 168
-0.998585, 137, 255, 200, 270
-0.998585, 17, 267, 80, 282
-0.998585, 89, 261, 152, 276
-0.998586, 289, 189, 352, 204
-0.998588, 281, 159, 344, 174
-0.998588, 201, 265, 264, 280
-0.998589, 177, 137, 304, 168
-0.998589, 245, 307, 276, 322
-0.998589, 161, 257, 224, 272
-0.998589, 289, 271, 352, 286
-0.99859, 49, 139, 112, 154
-0.99859, 121, 329, 184, 344
-0.99859, 1, 261, 64, 276
-0.998591, 233, 265, 264, 280
-0.998591, 273, 133, 336, 148
-0.998592, 177, 211, 240, 226
-0.998592, 417, 141, 480, 156
-0.998592, 17, 351, 80, 366
-0.998593, 45, 251, 76, 266
-0.998593, 1, 205, 64, 220
-0.998594, 289, 263, 352, 278
-0.998594, 1, 239, 64, 254
-0.998596, 261, 183, 292, 198
-0.998607, 203, 209, 218, 336
-0.998611, 277, 177, 308, 192
-0.998613, 221, 241, 236, 368
-0.998621, 73, 227, 104, 242
-0.998621, 13, 261, 44, 276
-0.998624, 225, 65, 480, 128
-0.998625, 245, 299, 276, 314
-0.998633, 45, 1, 76, 256
-0.998635, 183, 225, 198, 352
-0.998641, 257, 293, 384, 324
-0.998643, 1, 53, 128, 84
-0.998645, 201, 303, 232, 318
-0.99865, 9, 129, 40, 144
-0.998652, 209, 73, 336, 136
-0.998659, 233, 225, 248, 352
-0.998662, 233, 317, 264, 332
-0.998665, 257, 209, 384, 240
-0.998667, 213, 319, 244, 334
-0.998675, 245, 313, 276, 328
-0.998675, 293, 1, 324, 256
-0.998681, 13, 251, 44, 266
-0.998691, 277, 183, 308, 198
-0.998698, 289, 183, 320, 198
-0.998704, 433, 129, 464, 375
-0.998708, 17, 297, 48, 312
-0.998736, 97, 1, 352, 64
-0.998743, 353, 113, 480, 144
-0.998751, 113, 345, 240, 375
-0.998755, 257, 1, 500, 64
-0.99876, 253, 241, 268, 368
-0.998761, 1, 89, 128, 120
-0.99877, 171, 241, 186, 368
-0.998771, 241, 241, 256, 368
-0.998794, 85, 209, 100, 336
-0.998797, 261, 225, 276, 352
-0.998798, 197, 225, 212, 352
-0.998807, 1, 25, 500, 88
-0.998808, 259, 161, 274, 288
-0.99881, 43, 161, 58, 288
-0.99881, 129, 241, 144, 368
-0.998814, 19, 193, 34, 320
-0.998815, 113, 241, 128, 368
-0.998818, 101, 241, 116, 368
-0.998824, 79, 209, 94, 336
-0.998837, 123, 241, 138, 368
-0.998841, 369, 41, 496, 72
-0.998844, 243, 193, 258, 320
-0.998846, 33, 33, 64, 288
-0.998854, 191, 241, 206, 368
-0.998862, 361, 33, 392, 288
-0.998868, 73, 209, 88, 336
-0.998871, 209, 193, 224, 320
-0.998892, 33, 241, 48, 368
-0.998902, 235, 161, 250, 288
-0.998906, 445, 97, 476, 352
-0.998908, 247, 241, 262, 368
-0.998918, 161, 89, 288, 120
-0.998928, 471, 129, 486, 256
-0.998928, 315, 129, 330, 256
-0.998931, 395, 81, 410, 208
-0.998934, 13, 113, 28, 240
-0.998943, 253, 161, 268, 288
-0.998962, 91, 241, 106, 368
-0.998965, 87, 49, 102, 176
-0.99897, 19, 241, 34, 368
-0.998972, 43, 241, 58, 368
-0.998974, 273, 1, 304, 256
-0.998975, 193, 177, 208, 304
-0.99898, 353, 81, 480, 112
-0.998984, 157, 1, 188, 256
-0.998992, 37, 193, 52, 320
-0.998993, 49, 161, 64, 288
-0.998993, 291, 129, 306, 256
-0.998994, 181, 1, 212, 256
-0.998999, 161, 25, 288, 56
-0.999003, 241, 113, 368, 144
-0.999011, 369, 233, 496, 264
-0.999012, 61, 193, 76, 320
-0.999015, 221, 193, 236, 320
-0.999016, 157, 241, 172, 368
-0.999022, 141, 241, 156, 368
-0.999023, 55, 177, 70, 304
-0.999031, 107, 241, 122, 368
-0.999031, 97, 185, 224, 216
-0.999033, 87, 1, 102, 128
-0.999044, 67, 193, 82, 320
-0.999051, 1, 41, 128, 72
-0.999054, 177, 209, 192, 336
-0.99906, 267, 225, 282, 352
-0.999061, 391, 129, 406, 256
-0.999061, 33, 145, 48, 272
-0.999062, 477, 97, 492, 224
-0.999066, 135, 241, 150, 368
-0.999072, 265, 161, 280, 288
-0.999073, 67, 241, 82, 368
-0.999078, 297, 113, 312, 240
-0.99908, 305, 113, 320, 240
-0.999084, 249, 33, 280, 288
-0.99909, 25, 193, 40, 320
-0.999094, 193, 33, 224, 288
-0.999098, 51, 241, 66, 368
-0.9991, 13, 225, 28, 352
-0.999114, 149, 241, 164, 368
-0.999117, 365, 145, 380, 272
-0.999124, 1, 29, 128, 60
-0.999124, 27, 113, 42, 240
-0.999127, 91, 193, 106, 320
-0.999132, 95, 1, 110, 128
-0.999143, 321, 129, 336, 256
-0.99915, 11, 65, 26, 192
-0.999151, 321, 33, 352, 288
-0.999154, 229, 177, 244, 304
-0.999155, 1, 49, 500, 112
-0.999155, 163, 241, 178, 368
-0.999159, 463, 145, 478, 272
-0.999175, 385, 129, 400, 256
-0.999179, 285, 113, 300, 240
-0.99918, 89, 129, 104, 256
-0.999184, 401, 65, 416, 192
-0.999194, 471, 177, 486, 304
-0.999195, 389, 65, 404, 192
-0.999207, 97, 193, 112, 320
-0.999209, 79, 1, 94, 128
-0.999214, 355, 129, 370, 256
-0.99922, 369, 289, 496, 352
-0.999221, 345, 33, 376, 288
-0.999231, 221, 33, 252, 288
-0.999232, 481, 1, 496, 128
-0.999232, 31, 193, 46, 320
-0.999233, 399, 129, 414, 256
-0.999233, 405, 129, 420, 256
-0.999238, 109, 193, 124, 320
-0.999245, 187, 177, 202, 304
-0.999262, 309, 33, 340, 288
-0.999269, 475, 1, 490, 128
-0.999274, 7, 177, 22, 304
-0.999279, 197, 113, 212, 240
-0.999284, 201, 161, 216, 288
-0.99929, 183, 97, 198, 224
-0.999299, 103, 193, 118, 320
-0.999304, 273, 225, 288, 352
-0.999304, 61, 241, 76, 368
-0.999309, 291, 241, 306, 368
-0.999312, 373, 129, 388, 256
-0.999319, 129, 25, 384, 88
-0.99932, 279, 97, 294, 224
-0.999337, 477, 145, 492, 272
-0.999348, 21, 113, 36, 240
-0.999348, 335, 129, 350, 256
-0.99935, 83, 129, 98, 256
-0.99935, 55, 129, 70, 256
-0.999351, 103, 1, 118, 128
-0.999356, 227, 129, 242, 256
-0.999374, 3, 97, 18, 224
-0.999375, 203, 97, 218, 224
-0.999378, 49, 113, 64, 240
-0.999386, 329, 129, 344, 256
-0.999391, 471, 65, 486, 192
-0.999394, 379, 129, 394, 256
-0.999396, 245, 145, 260, 272
-0.9994, 73, 1, 88, 128
-0.9994, 109, 1, 124, 128
-0.999401, 9, 17, 24, 144
-0.999402, 215, 161, 230, 288
-0.999403, 81, 65, 96, 192
-0.999403, 283, 241, 298, 368
-0.999406, 409, 81, 424, 208
-0.999407, 41, 113, 56, 240
-0.999411, 291, 177, 306, 304
-0.999413, 481, 49, 496, 176
-0.999416, 121, 193, 136, 320
-0.999417, 467, 1, 482, 128
-0.999418, 1, 49, 16, 176
-0.999423, 191, 97, 206, 224
-0.999423, 457, 145, 472, 272
-0.999424, 357, 193, 372, 320
-0.999429, 301, 161, 316, 288
-0.999454, 169, 1, 200, 256
-0.999485, 1, 1, 500, 64
-0.999511, 393, 225, 456, 352
-0.999555, 97, 33, 128, 288
-0.999558, 21, 1, 52, 256
-0.999619, 209, 33, 240, 288
-0.999619, 145, 1, 176, 256
-0.999625, 225, 49, 352, 112
-0.999631, 469, 209, 484, 224
-0.999631, 287, 189, 302, 204
-0.999633, 59, 251, 74, 266
-0.999633, 263, 261, 278, 276
-0.999633, 121, 283, 136, 298
-0.999634, 241, 189, 256, 204
-0.999634, 245, 181, 260, 196
-0.999634, 169, 315, 184, 330
-0.999634, 259, 299, 274, 314
-0.999634, 175, 309, 190, 324
-0.999635, 79, 265, 94, 280
-0.999636, 21, 287, 36, 302
-0.999637, 197, 305, 212, 320
-0.999638, 107, 161, 122, 176
-0.999638, 253, 269, 268, 284
-0.999639, 235, 323, 250, 338
-0.999641, 129, 147, 144, 162
-0.999641, 49, 33, 176, 96
-0.999642, 225, 275, 240, 290
-0.999642, 191, 197, 206, 212
-0.999642, 171, 271, 186, 286
-0.999643, 21, 305, 36, 320
-0.999643, 23, 323, 38, 338
-0.999643, 17, 247, 32, 262
-0.999643, 223, 299, 238, 314
-0.999644, 335, 175, 350, 190
-0.999644, 353, 265, 368, 280
-0.999645, 301, 179, 316, 194
-0.999646, 29, 299, 44, 314
-0.999647, 47, 215, 62, 230
-0.999647, 289, 177, 304, 192
-0.999648, 97, 267, 112, 282
-0.999649, 41, 179, 56, 194
-0.999649, 363, 151, 378, 166
-0.999651, 139, 287, 154, 302
-0.999653, 129, 1, 160, 256
-0.999654, 173, 285, 188, 300
-0.999654, 295, 139, 310, 154
-0.999655, 203, 313, 218, 328
-0.999656, 141, 293, 156, 308
-0.999657, 185, 257, 200, 272
-0.999657, 201, 231, 216, 246
-0.999658, 245, 265, 260, 280
-0.999658, 23, 311, 38, 326
-0.999659, 257, 185, 272, 200
-0.999659, 39, 305, 54, 320
-0.999659, 209, 323, 224, 338
-0.999659, 43, 253, 58, 268
-0.999659, 25, 353, 40, 368
-0.999659, 173, 303, 188, 318
-0.99966, 231, 293, 246, 308
-0.999661, 321, 143, 336, 158
-0.999663, 21, 295, 36, 310
-0.999664, 281, 175, 296, 190
-0.999664, 241, 313, 256, 328
-0.999665, 73, 229, 88, 244
-0.999666, 41, 217, 56, 232
-0.999667, 281, 189, 296, 204
-0.999667, 311, 189, 326, 204
-0.999672, 263, 181, 278, 196
-0.999672, 25, 329, 40, 344
-0.999673, 227, 121, 242, 136
-0.999674, 305, 185, 320, 200
-0.999675, 287, 137, 302, 152
-0.999676, 251, 191, 266, 206
-0.999678, 253, 109, 268, 124
-0.999683, 51, 185, 66, 200
-0.999683, 293, 189, 308, 204
-0.999685, 265, 313, 280, 328
-0.999687, 215, 305, 230, 320
-0.999689, 241, 305, 256, 320
-0.999689, 197, 311, 212, 326
-0.999689, 183, 227, 198, 242
-0.999689, 33, 343, 48, 358
-0.99969, 169, 309, 184, 324
-0.99969, 19, 263, 34, 278
-0.999691, 217, 229, 232, 244
-0.999695, 79, 227, 94, 242
-0.999696, 127, 283, 142, 298
-0.999697, 207, 231, 222, 246
-0.999698, 255, 317, 270, 332
-0.999699, 35, 255, 50, 270
-0.9997, 25, 335, 40, 350
-0.999703, 253, 311, 268, 326
-0.999703, 253, 299, 268, 314
-0.999704, 133, 283, 148, 298
-0.999704, 231, 299, 246, 314
-0.999707, 203, 319, 218, 334
-0.999708, 327, 141, 342, 156
-0.99971, 251, 181, 266, 196
-0.999711, 229, 321, 244, 336
-0.999712, 295, 179, 310, 194
-0.999713, 195, 233, 210, 248
-0.999714, 15, 217, 30, 232
-0.999715, 19, 277, 34, 292
-0.999715, 185, 233, 200, 248
-0.99972, 29, 253, 44, 268
-0.999722, 283, 181, 298, 196
-0.999723, 271, 181, 286, 196
-0.999723, 259, 159, 274, 174
-0.999724, 201, 113, 216, 128
-0.999725, 221, 321, 236, 336
-0.999725, 255, 263, 270, 278
-0.999725, 253, 305, 268, 320
-0.999726, 247, 309, 262, 324
-0.999729, 73, 263, 88, 278
-0.99973, 19, 269, 34, 284
-0.999732, 225, 233, 240, 248
-0.999734, 261, 175, 276, 190
-0.999735, 181, 267, 196, 282
-0.999738, 61, 227, 76, 242
-0.999738, 69, 223, 84, 238
-0.999741, 237, 297, 252, 312
-0.999741, 25, 341, 40, 356
-0.999744, 299, 185, 314, 200
-0.999747, 203, 307, 218, 322
-0.999748, 235, 317, 250, 332
-0.999752, 333, 1, 364, 256
-0.999753, 277, 183, 292, 198
-0.999755, 85, 267, 100, 282
-0.999757, 207, 301, 222, 316
-0.999758, 247, 297, 262, 312
-0.999761, 25, 347, 40, 362
-0.999763, 215, 319, 230, 334
-0.999773, 25, 261, 40, 276
-0.999775, 19, 253, 34, 268
-0.999784, 259, 305, 274, 320
-0.999784, 127, 289, 142, 304
-0.999805, 249, 317, 264, 332
-0.999811, 209, 315, 224, 330
-0.999812, 259, 311, 274, 326
-0.999821, 241, 319, 256, 334
-0.999826, 289, 183, 304, 198
-0.99986, 129, 49, 384, 112
-1.00001, 265, 17, 328, 144
-1.00004, 117, 1, 148, 256
-1.0004, 129, 73, 384, 136
-1.0005, 369, 313, 496, 375
-1.00079, 273, 41, 400, 104
-1.0009, 1, 81, 500, 144
-1.00214, 313, 1, 376, 128
-1.00405, 417, 241, 480, 368
-1.00668, 289, 1, 352, 128
