1970
-0.303729, 1, 1, 500, 256
-0.345672, 1, 1, 500, 375
-0.468213, 1, 129, 500, 375
-0.547541, 257, 1, 500, 375
-0.549726, 33, 1, 288, 375
-0.566297, 129, 1, 384, 375
-0.690917, 1, 33, 256, 288
-0.710997, 257, 1, 500, 256
-0.734777, 129, 1, 384, 256
-0.784913, 65, 129, 320, 375
-0.836155, 257, 129, 500, 375
-0.851816, 161, 129, 416, 375
-0.85954, 369, 1, 496, 375
-0.862484, 33, 1, 160, 256
-0.871556, 65, 1, 192, 375
-0.877284, 113, 1, 240, 256
-0.878338, 353, 1, 480, 256
-0.881095, 1, 1, 128, 375
-0.882334, 257, 1, 384, 375
-0.883398, 1, 1, 500, 128
-0.885911, 113, 1, 240, 375
-0.898364, 161, 1, 288, 256
-0.901483, 305, 1, 432, 256
-0.903945, 65, 129, 192, 375
-0.905047, 1, 129, 500, 256
-0.907804, 1, 97, 128, 352
-0.907882, 209, 1, 336, 375
-0.91131, 321, 1, 448, 375
-0.914302, 161, 1, 288, 375
-0.914655, 257, 1, 384, 256
-0.920103, 209, 129, 336, 375
-0.921139, 289, 129, 416, 375
-0.921395, 113, 129, 240, 375
-0.924161, 1, 177, 500, 304
-0.925568, 209, 1, 336, 256
-0.925855, 337, 129, 464, 375
-0.931769, 257, 17, 500, 144
-0.932075, 1, 65, 500, 192
-0.933486, 161, 129, 288, 375
-0.933749, 65, 1, 320, 128
-0.939789, 321, 1, 448, 128
-0.944632, 161, 1, 416, 128
-0.948739, 17, 1, 80, 128
-0.949794, 17, 1, 144, 128
-0.950136, 177, 1, 304, 128
-0.950221, 273, 1, 336, 128
-0.951665, 65, 145, 320, 272
-0.952985, 361, 1, 424, 128
-0.954123, 257, 161, 500, 288
-0.954266, 1, 225, 500, 352
-0.95469, 33, 97, 288, 224
-0.95469, 145, 17, 208, 144
-0.95533, 65, 1, 192, 128
-0.956032, 425, 33, 488, 160
-0.956188, 225, 113, 480, 240
-0.956605, 41, 17, 104, 144
-0.957875, 273, 1, 400, 128
-0.958938, 113, 81, 176, 208
-0.960237, 113, 17, 240, 144
-0.960459, 17, 1, 80, 64
-0.960641, 169, 1, 232, 128
-0.960853, 73, 17, 136, 144
-0.960936, 65, 49, 320, 176
-0.961728, 297, 1, 360, 128
-0.961729, 129, 97, 384, 224
-0.962733, 369, 33, 496, 160
-0.963624, 33, 81, 160, 208
-0.964021, 113, 1, 176, 128
-0.964079, 81, 1, 144, 64
-0.964086, 161, 177, 416, 304
-0.96419, 281, 1, 344, 64
-0.965255, 273, 129, 400, 256
-0.965276, 81, 161, 144, 288
-0.96529, 233, 1, 296, 128
-0.965645, 81, 97, 144, 224
-0.965994, 65, 129, 192, 256
-0.966094, 209, 177, 336, 304
-0.966357, 113, 113, 240, 240
-0.966413, 225, 113, 352, 240
-0.967078, 145, 129, 208, 192
-0.967117, 25, 65, 88, 192
-0.967166, 49, 177, 176, 304
-0.967488, 65, 193, 320, 320
-0.967513, 105, 129, 168, 256
-0.968015, 337, 1, 400, 128
-0.968278, 337, 1, 400, 64
-0.968318, 33, 81, 96, 144
-0.968497, 1, 161, 128, 288
-0.969036, 337, 177, 464, 304
-0.969247, 313, 145, 376, 272
-0.969259, 225, 1, 352, 128
-0.969452, 361, 9, 424, 72
-0.969578, 153, 145, 216, 272
-0.969755, 129, 129, 192, 256
-0.969827, 425, 49, 488, 112
-0.969832, 113, 9, 176, 72
-0.970061, 401, 33, 464, 160
-0.970334, 57, 81, 120, 208
-0.971126, 161, 225, 416, 352
-0.971295, 113, 89, 176, 152
-0.97153, 1, 81, 64, 208
-0.971796, 169, 81, 232, 208
-0.971967, 265, 49, 328, 176
-0.97213, 289, 177, 416, 304
-0.972223, 105, 177, 168, 304
-0.972655, 81, 185, 144, 248
-0.972711, 217, 97, 280, 224
-0.972749, 41, 1, 104, 256
-0.972798, 153, 1, 216, 64
-0.972798, 225, 1, 288, 64
-0.972977, 353, 177, 416, 304
-0.97303, 249, 1, 312, 64
-0.973273, 57, 177, 120, 304
-0.973338, 337, 113, 464, 240
-0.973534, 241, 145, 304, 272
-0.973601, 145, 161, 272, 288
-0.973644, 57, 81, 120, 144
-0.973929, 305, 17, 368, 80
-0.973988, 257, 65, 500, 192
-0.974223, 113, 169, 176, 232
-0.974665, 257, 225, 500, 352
-0.974756, 137, 1, 200, 256
-0.974997, 81, 65, 208, 192
-0.975188, 257, 193, 320, 320
-0.975193, 257, 153, 320, 216
-0.975234, 241, 49, 368, 176
-0.975284, 57, 129, 120, 256
-0.975348, 273, 81, 336, 144
-0.975372, 17, 57, 80, 120
-0.975431, 161, 81, 288, 208
-0.975576, 281, 49, 344, 112
-0.975627, 33, 113, 96, 240
-0.975664, 153, 25, 216, 88
-0.975762, 289, 145, 352, 272
-0.975806, 377, 177, 440, 304
-0.975815, 89, 25, 152, 88
-0.97586, 161, 1, 224, 256
-0.975886, 257, 25, 320, 88
-0.976136, 89, 81, 152, 144
-0.976158, 193, 129, 256, 256
-0.976288, 33, 25, 160, 88
-0.976405, 137, 105, 200, 168
-0.976532, 57, 33, 120, 96
-0.976708, 97, 113, 160, 176
-0.976729, 185, 89, 248, 152
-0.976742, 113, 1, 176, 256
-0.976776, 401, 41, 464, 104
-0.976986, 297, 145, 360, 208
-0.977029, 137, 153, 200, 216
-0.977235, 297, 1, 360, 256
-0.977351, 73, 113, 136, 176
-0.977421, 81, 1, 208, 64
-0.977462, 81, 161, 144, 224
-0.977482, 81, 1, 144, 256
-0.977556, 209, 1, 272, 128
-0.977682, 25, 161, 88, 288
-0.977735, 201, 1, 264, 64
-0.977821, 361, 1, 424, 256
-0.977934, 137, 65, 200, 192
-0.978, 89, 49, 152, 112
-0.978007, 385, 17, 448, 80
-0.978018, 81, 137, 144, 200
-0.978075, 433, 161, 496, 224
-0.978229, 169, 113, 232, 176
-0.97837, 161, 49, 416, 176
-0.978391, 337, 113, 400, 240
-0.978421, 305, 9, 432, 72
-0.978492, 21, 1, 52, 128
-0.978504, 121, 41, 184, 104
-0.978626, 113, 1, 144, 64
-0.978693, 121, 129, 184, 192
-0.978807, 41, 153, 104, 216
-0.9789, 233, 145, 296, 208
-0.978925, 33, 177, 96, 240
-0.979385, 49, 201, 112, 264
-0.979441, 313, 193, 376, 320
-0.979442, 297, 169, 360, 232
-0.979468, 17, 25, 80, 88
-0.979613, 425, 1, 488, 256
-0.979759, 1, 241, 256, 368
-0.980149, 1, 1, 128, 64
-0.980217, 57, 9, 120, 72
-0.980224, 113, 193, 176, 256
-0.98025, 201, 177, 264, 304
-0.98029, 137, 81, 200, 144
-0.980369, 369, 193, 432, 256
-0.980424, 401, 33, 464, 288
-0.980542, 145, 185, 208, 248
-0.980631, 177, 137, 240, 200
-0.980658, 281, 97, 344, 224
-0.980659, 177, 1, 240, 64
-0.980764, 81, 97, 144, 352
-0.980787, 177, 1, 304, 64
-0.980802, 409, 177, 472, 240
-0.980821, 241, 1, 304, 256
-0.98092, 225, 1, 352, 64
-0.980959, 1, 161, 64, 288
-0.981055, 433, 129, 496, 256
-0.98112, 249, 185, 312, 248
-0.981138, 125, 25, 156, 88
-0.981164, 29, 1, 60, 64
-0.981208, 49, 89, 176, 152
-0.981493, 389, 1, 420, 128
-0.981541, 9, 81, 72, 144
-0.981567, 257, 241, 384, 368
-0.981783, 281, 193, 344, 320
-0.98183, 97, 177, 224, 304
-0.98194, 337, 193, 400, 256
-0.982016, 25, 105, 88, 168
-0.982046, 69, 17, 100, 144
-0.982076, 217, 185, 280, 248
-0.982187, 409, 17, 472, 80
-0.982252, 241, 49, 304, 176
-0.982329, 369, 49, 496, 112
-0.982335, 25, 97, 88, 352
-0.982381, 353, 225, 480, 352
-0.982386, 177, 225, 304, 352
-0.982419, 89, 1, 120, 128
-0.982426, 297, 1, 328, 128
-0.982441, 181, 1, 212, 128
-0.982465, 417, 1, 480, 375
-0.982499, 433, 73, 496, 136
-0.982502, 1, 177, 64, 240
-0.982522, 129, 177, 192, 304
-0.982527, 321, 153, 384, 216
-0.982559, 305, 1, 336, 64
-0.982606, 369, 161, 496, 224
-0.98261, 73, 209, 136, 272
-0.982638, 25, 73, 56, 136
-0.982744, 65, 177, 192, 240
-0.982764, 285, 1, 316, 128
-0.982777, 233, 121, 296, 184
-0.982886, 357, 1, 388, 64
-0.982901, 281, 25, 344, 88
-0.983045, 41, 225, 104, 352
-0.983223, 33, 57, 160, 120
-0.983241, 41, 233, 104, 296
-0.983309, 209, 145, 272, 208
-0.983358, 89, 249, 152, 312
-0.983433, 57, 17, 88, 144
-0.983493, 141, 1, 172, 64
-0.983498, 121, 17, 152, 144
-0.983516, 341, 1, 372, 128
-0.983523, 297, 49, 360, 176
-0.983549, 305, 97, 368, 224
-0.983595, 65, 113, 192, 176
-0.983684, 469, 153, 500, 216
-0.983685, 37, 33, 68, 160
-0.983717, 41, 1, 72, 64
-0.983724, 81, 209, 144, 336
-0.983793, 113, 97, 176, 352
-0.983899, 49, 57, 112, 120
-0.983945, 101, 1, 132, 64
-0.983978, 81, 193, 112, 256
-0.98398, 1, 153, 64, 216
-0.984006, 193, 81, 256, 208
-0.98416, 453, 161, 484, 224
-0.984225, 109, 1, 140, 128
-0.984279, 265, 1, 328, 256
-0.984279, 121, 129, 152, 256
-0.984341, 85, 177, 116, 304
-0.984484, 433, 81, 496, 208
-0.984485, 57, 1, 120, 375
-0.984487, 297, 89, 360, 152
-0.984499, 321, 49, 448, 176
-0.984513, 137, 1, 200, 375
-0.984539, 49, 225, 176, 352
-0.984629, 265, 145, 328, 272
-0.984629, 169, 161, 232, 224
-0.984642, 453, 33, 484, 160
-0.984643, 393, 17, 424, 80
-0.984648, 57, 177, 120, 240
-0.984709, 81, 129, 112, 256
-0.984738, 105, 113, 136, 240
-0.98474, 257, 49, 320, 112
-0.984753, 169, 17, 200, 144
-0.984792, 441, 41, 472, 104
-0.984793, 305, 193, 368, 256
-0.984836, 385, 169, 448, 232
-0.984872, 133, 17, 164, 144
-0.984873, 281, 121, 344, 184
-0.984875, 129, 81, 160, 208
-0.984883, 369, 41, 432, 104
-0.984895, 401, 177, 464, 304
-0.984906, 273, 145, 400, 208
-0.984918, 393, 1, 456, 375
-0.984931, 309, 1, 340, 128
-0.984968, 1, 209, 128, 336
-0.98503, 225, 193, 288, 320
-0.98509, 1, 177, 128, 240
-0.985093, 409, 201, 472, 264
-0.985098, 353, 193, 480, 256
-0.985121, 81, 25, 208, 88
-0.985155, 437, 33, 468, 160
-0.985194, 33, 1, 96, 375
-0.985211, 1, 97, 128, 160
-0.985315, 113, 65, 176, 128
-0.985343, 137, 209, 200, 272
-0.985348, 73, 177, 104, 304
-0.985353, 157, 1, 188, 128
-0.985358, 129, 225, 256, 352
-0.985362, 125, 89, 156, 152
-0.985395, 129, 1, 256, 64
-0.985443, 157, 1, 188, 64
-0.985473, 433, 25, 496, 88
-0.985493, 289, 1, 320, 64
-0.985582, 285, 153, 316, 216
-0.985618, 129, 89, 256, 152
-0.985655, 469, 17, 500, 144
-0.985677, 17, 1, 80, 256
-0.985758, 209, 161, 336, 224
-0.985775, 417, 57, 448, 120
-0.985825, 369, 17, 496, 80
-0.985826, 41, 65, 72, 128
-0.986008, 425, 129, 488, 192
-0.986016, 241, 1, 272, 128
-0.986038, 377, 1, 408, 128
-0.986044, 469, 81, 500, 208
-0.986048, 401, 17, 432, 144
-0.986074, 337, 1, 400, 256
-0.986096, 89, 1, 120, 64
-0.986157, 93, 129, 124, 256
-0.986162, 145, 161, 272, 224
-0.986187, 345, 153, 408, 216
-0.986227, 257, 113, 320, 176
-0.98624, 289, 265, 352, 328
-0.986292, 129, 185, 160, 248
-0.986307, 125, 1, 156, 64
-0.986321, 193, 81, 320, 144
-0.986395, 17, 153, 144, 216
-0.986415, 105, 113, 136, 176
-0.986422, 89, 81, 120, 208
-0.986425, 273, 185, 336, 248
-0.986439, 137, 33, 168, 96
-0.986444, 209, 121, 272, 184
-0.986485, 305, 129, 368, 375
-0.98653, 241, 97, 304, 224
-0.986562, 185, 1, 248, 256
-0.986587, 125, 145, 156, 208
-0.986632, 49, 257, 112, 320
-0.986651, 49, 201, 176, 264
-0.986653, 245, 1, 276, 64
-0.986683, 25, 49, 56, 112
-0.986686, 81, 153, 208, 216
-0.986787, 249, 81, 312, 144
-0.986816, 17, 121, 144, 184
-0.98684, 297, 1, 360, 375
-0.986843, 65, 281, 128, 344
-0.98689, 193, 185, 320, 248
-0.986908, 149, 121, 180, 184
-0.986929, 273, 217, 336, 280
-0.986932, 321, 113, 384, 176
-0.986978, 81, 65, 208, 128
-0.987001, 9, 225, 72, 352
-0.987051, 5, 1, 36, 64
-0.987052, 161, 89, 224, 152
-0.987078, 69, 97, 100, 224
-0.987082, 109, 25, 140, 88
-0.987173, 273, 153, 304, 216
-0.987197, 105, 241, 168, 368
-0.987199, 81, 1, 144, 375
-0.987211, 289, 193, 416, 256
-0.987288, 149, 113, 180, 240
-0.987322, 273, 1, 304, 128
-0.987405, 117, 177, 148, 240
-0.987428, 153, 193, 216, 320
-0.987454, 49, 129, 112, 192
-0.987515, 321, 169, 448, 232
-0.98752, 453, 49, 484, 112
-0.987535, 97, 273, 160, 336
-0.987576, 109, 161, 140, 288
-0.987593, 433, 185, 496, 248
-0.987606, 117, 49, 148, 112
-0.987632, 321, 33, 448, 96
-0.987654, 81, 137, 112, 200
-0.987675, 369, 1, 400, 64
-0.987695, 145, 97, 208, 352
-0.987718, 189, 97, 220, 160
-0.987719, 361, 129, 424, 256
-0.987731, 1, 97, 64, 352
-0.987824, 21, 25, 52, 88
-0.98789, 49, 265, 176, 328
-0.987903, 145, 17, 176, 144
-0.98791, 169, 97, 232, 352
-0.98792, 101, 49, 132, 176
-0.987931, 113, 121, 240, 184
-0.987993, 265, 241, 328, 304
-0.988, 129, 185, 256, 248
-0.988008, 173, 121, 204, 184
-0.988126, 13, 49, 44, 112
-0.988142, 345, 225, 408, 352
-0.988142, 257, 241, 320, 368
-0.98815, 305, 57, 368, 120
-0.988193, 49, 105, 112, 168
-0.988196, 97, 217, 160, 280
-0.988223, 57, 129, 120, 375
-0.988228, 137, 273, 200, 336
-0.988256, 257, 25, 384, 88
-0.98827, 25, 81, 56, 208
-0.988303, 273, 169, 400, 232
-0.988309, 185, 9, 216, 72
-0.988309, 425, 33, 456, 160
-0.988468, 265, 129, 328, 375
-0.988478, 65, 233, 128, 296
-0.988516, 85, 105, 116, 168
-0.98869, 425, 177, 488, 304
-0.988757, 161, 25, 192, 88
-0.988771, 133, 129, 164, 256
-0.988798, 73, 217, 104, 280
-0.9888, 433, 289, 496, 352
-0.988803, 257, 265, 320, 328
-0.988807, 441, 177, 472, 240
-0.988868, 1, 1, 64, 375
-0.98889, 37, 81, 68, 208
-0.988903, 281, 49, 312, 112
-0.988925, 161, 1, 224, 375
-0.988926, 1, 161, 32, 288
-0.988951, 17, 1, 48, 64
-0.988984, 149, 25, 180, 88
-0.989028, 25, 313, 88, 375
-0.989041, 161, 137, 288, 200
-0.989042, 217, 145, 248, 272
-0.989046, 69, 33, 100, 96
-0.989082, 221, 161, 252, 224
-0.989158, 469, 145, 500, 272
-0.989164, 313, 257, 376, 320
-0.989182, 209, 97, 272, 160
-0.989185, 73, 161, 104, 224
-0.98919, 345, 113, 376, 240
-0.989199, 353, 129, 480, 192
-0.989215, 249, 1, 312, 375
-0.989243, 93, 185, 124, 248
-0.989264, 389, 177, 420, 304
-0.989305, 105, 169, 136, 232
-0.989312, 345, 1, 376, 64
-0.989316, 401, 177, 432, 304
-0.989349, 117, 81, 148, 208
-0.989369, 313, 241, 376, 368
-0.989372, 429, 41, 460, 104
-0.989372, 113, 1, 176, 375
-0.989399, 289, 241, 352, 304
-0.989461, 465, 33, 496, 96
-0.989477, 85, 81, 116, 144
-0.989481, 273, 1, 336, 375
-0.989484, 325, 1, 356, 128
-0.989506, 53, 25, 84, 88
-0.989521, 329, 145, 360, 272
-0.989532, 209, 57, 336, 120
-0.989534, 113, 273, 240, 336
-0.989535, 193, 185, 256, 248
-0.989553, 361, 177, 392, 304
-0.989554, 277, 1, 308, 64
-0.989573, 209, 265, 336, 328
-0.989595, 457, 81, 488, 208
-0.9896, 9, 1, 40, 128
-0.989608, 225, 137, 352, 200
-0.989608, 1, 257, 128, 320
-0.98961, 25, 257, 88, 320
-0.989633, 53, 73, 84, 136
-0.98965, 241, 225, 304, 288
-0.9897, 185, 241, 248, 368
-0.989712, 137, 105, 168, 168
-0.989713, 273, 145, 304, 272
-0.989714, 233, 1, 264, 64
-0.989729, 49, 289, 176, 352
-0.989737, 413, 49, 444, 176
-0.98977, 377, 49, 440, 176
-0.989784, 193, 225, 320, 288
-0.989784, 149, 145, 180, 208
-0.989802, 221, 81, 252, 208
-0.989815, 85, 161, 116, 224
-0.989892, 209, 1, 272, 256
-0.989943, 1, 201, 128, 264
-0.989991, 321, 17, 352, 80
-0.989996, 257, 257, 384, 320
-0.990031, 289, 177, 320, 304
-0.990067, 425, 105, 488, 168
-0.990084, 193, 105, 320, 168
-0.990095, 233, 265, 296, 328
-0.990142, 177, 25, 240, 88
-0.990156, 41, 93, 104, 124
-0.990161, 381, 9, 412, 72
-0.990193, 425, 49, 488, 80
-0.990224, 329, 129, 392, 375
-0.99023, 129, 25, 256, 88
-0.990253, 337, 273, 400, 336
-0.990271, 17, 1, 80, 32
-0.990271, 121, 177, 152, 304
-0.990294, 141, 193, 172, 256
-0.990318, 229, 1, 260, 128
-0.990341, 97, 25, 128, 88
-0.990349, 281, 241, 344, 368
-0.990362, 89, 29, 152, 60
-0.990385, 49, 313, 112, 375
-0.990391, 469, 81, 500, 144
-0.990393, 261, 1, 292, 64
-0.990412, 73, 9, 104, 72
-0.990413, 361, 281, 424, 344
-0.990418, 301, 153, 332, 216
-0.990437, 169, 153, 200, 216
-0.990441, 341, 169, 372, 232
-0.990443, 1, 177, 32, 240
-0.990456, 17, 233, 80, 296
-0.990466, 137, 137, 168, 200
-0.99048, 361, 1, 392, 128
-0.990495, 321, 1, 384, 375
-0.990507, 121, 21, 184, 52
-0.990542, 237, 145, 268, 208
-0.990549, 385, 129, 448, 256
-0.990557, 117, 113, 148, 176
-0.990568, 145, 65, 176, 192
-0.990599, 113, 297, 176, 360
-0.990605, 201, 129, 264, 375
-0.990605, 393, 241, 456, 368
-0.990606, 49, 161, 80, 288
-0.990609, 1, 105, 64, 168
-0.990623, 129, 65, 256, 128
-0.990632, 49, 81, 80, 208
-0.990637, 73, 97, 136, 128
-0.990639, 273, 121, 400, 184
-0.990682, 369, 1, 432, 375
-0.990688, 333, 9, 364, 72
-0.990717, 281, 13, 344, 44
-0.990732, 9, 281, 72, 344
-0.990735, 157, 185, 188, 248
-0.990741, 73, 81, 136, 112
-0.990772, 273, 89, 400, 152
-0.990777, 377, 129, 440, 375
-0.990788, 241, 225, 368, 288
-0.990823, 33, 81, 96, 112
-0.990824, 61, 177, 92, 240
-0.990825, 121, 145, 184, 176
-0.990827, 433, 241, 496, 368
-0.990831, 377, 257, 440, 320
-0.990845, 153, 129, 216, 160
-0.990857, 305, 273, 432, 336
-0.990867, 337, 9, 400, 40
-0.990915, 169, 1, 200, 64
-0.990923, 349, 177, 380, 304
-0.990933, 97, 209, 224, 272
-0.99095, 409, 153, 472, 216
-0.990951, 285, 185, 316, 248
-0.990969, 305, 225, 432, 352
-0.990974, 97, 177, 128, 304
-0.990986, 113, 33, 176, 64
-0.990991, 17, 13, 80, 44
-0.991002, 261, 145, 292, 208
-0.991011, 253, 185, 284, 248
-0.991035, 213, 137, 244, 200
-0.991044, 401, 193, 432, 256
-0.991074, 257, 1, 320, 32
-0.991091, 369, 89, 496, 152
-0.991102, 121, 133, 184, 164
-0.991121, 193, 1, 256, 32
-0.991145, 25, 105, 88, 136
-0.991145, 85, 25, 116, 88
-0.991155, 401, 37, 464, 68
-0.99118, 337, 297, 400, 360
-0.991193, 281, 81, 344, 112
-0.991202, 265, 289, 328, 352
-0.991222, 69, 113, 100, 176
-0.991256, 293, 113, 324, 240
-0.991259, 105, 93, 168, 124
-0.991263, 145, 29, 208, 60
-0.991267, 217, 217, 280, 280
-0.991267, 57, 9, 120, 40
-0.991277, 97, 81, 160, 112
-0.991278, 241, 193, 368, 256
-0.991283, 233, 1, 296, 32
-0.991284, 73, 109, 136, 140
-0.99131, 413, 177, 444, 304
-0.99132, 73, 121, 136, 152
-0.991346, 81, 197, 144, 228
-0.991362, 97, 117, 160, 148
-0.991369, 1, 281, 128, 344
-0.99137, 161, 257, 288, 320
-0.991373, 101, 89, 132, 152
-0.991377, 289, 25, 352, 56
-0.991387, 137, 113, 200, 144
-0.991411, 281, 41, 344, 72
-0.991414, 169, 145, 232, 176
-0.991415, 89, 17, 152, 48
-0.991427, 9, 25, 40, 88
-0.991437, 65, 81, 96, 144
-0.991459, 177, 25, 304, 88
-0.991459, 65, 241, 192, 304
-0.991465, 145, 17, 208, 48
-0.991465, 313, 177, 344, 304
-0.991476, 361, 17, 424, 48
-0.991511, 121, 9, 184, 40
-0.991533, 97, 157, 160, 188
-0.991545, 409, 129, 472, 256
-0.991554, 285, 73, 316, 136
-0.991555, 65, 33, 128, 64
-0.991567, 257, 29, 320, 60
-0.991581, 205, 113, 236, 240
-0.991604, 25, 25, 88, 56
-0.991606, 229, 145, 260, 272
-0.991611, 121, 157, 184, 188
-0.991616, 289, 217, 416, 280
-0.991628, 129, 57, 160, 120
-0.991645, 265, 57, 328, 88
-0.991654, 113, 45, 176, 76
-0.991655, 145, 149, 208, 180
-0.991656, 161, 5, 224, 36
-0.99166, 97, 1, 160, 32
-0.991674, 113, 201, 176, 232
-0.991684, 241, 85, 304, 116
-0.991707, 401, 49, 464, 80
-0.991718, 145, 209, 208, 240
-0.991722, 277, 25, 308, 88
-0.991742, 9, 89, 72, 120
-0.991743, 433, 37, 496, 68
-0.991744, 9, 57, 72, 88
-0.991757, 193, 97, 256, 128
-0.9918, 97, 129, 160, 160
-0.991804, 469, 113, 500, 176
-0.991813, 297, 89, 328, 152
-0.991815, 405, 49, 436, 112
-0.99182, 369, 41, 432, 72
-0.99182, 209, 1, 240, 128
-0.991861, 313, 17, 376, 48
-0.991863, 233, 97, 264, 224
-0.991865, 17, 177, 48, 240
-0.991868, 433, 181, 496, 212
-0.991898, 257, 49, 384, 112
-0.991932, 177, 17, 240, 48
-0.991934, 193, 141, 256, 172
-0.991939, 329, 169, 360, 232
-0.991942, 177, 177, 240, 304
-0.991974, 17, 69, 80, 100
-0.991978, 453, 145, 484, 272
-0.991978, 333, 193, 364, 320
-0.991985, 41, 105, 72, 168
-0.992006, 197, 1, 228, 128
-0.99201, 81, 141, 144, 172
-0.992023, 145, 161, 208, 192
-0.992027, 313, 173, 376, 204
-0.992029, 257, 173, 320, 204
-0.992033, 197, 1, 228, 64
-0.992033, 113, 105, 176, 136
-0.992033, 57, 201, 120, 232
-0.992038, 161, 129, 192, 256
-0.992048, 305, 113, 336, 240
-0.992052, 281, 157, 344, 188
-0.99207, 281, 65, 312, 192
-0.992074, 433, 81, 496, 112
-0.992077, 257, 73, 320, 104
-0.992094, 241, 13, 304, 44
-0.992126, 169, 117, 232, 148
-0.99215, 29, 97, 60, 160
-0.992155, 89, 181, 152, 212
-0.99216, 41, 161, 104, 192
-0.992169, 265, 93, 328, 124
-0.992171, 1, 233, 128, 296
-0.992174, 1, 101, 64, 132
-0.992182, 241, 157, 304, 188
-0.992185, 121, 213, 184, 244
-0.992194, 401, 177, 464, 208
-0.992205, 257, 45, 320, 76
-0.992211, 209, 169, 272, 200
-0.992231, 281, 69, 344, 100
-0.992244, 145, 85, 208, 116
-0.992252, 17, 165, 80, 196
-0.992254, 97, 69, 160, 100
-0.992256, 49, 69, 112, 100
-0.992267, 41, 177, 104, 208
-0.992272, 457, 73, 488, 136
-0.992275, 145, 193, 208, 224
-0.992288, 49, 105, 112, 136
-0.992308, 65, 21, 128, 52
-0.992325, 49, 121, 112, 152
-0.99233, 49, 217, 112, 248
-0.992332, 369, 249, 496, 312
-0.992333, 185, 169, 248, 200
-0.992349, 161, 121, 192, 184
-0.992353, 433, 157, 496, 188
-0.992373, 177, 129, 240, 160
-0.992378, 297, 1, 360, 32
-0.992389, 389, 193, 420, 256
-0.992408, 113, 189, 176, 220
-0.992414, 425, 93, 488, 124
-0.992416, 121, 77, 184, 108
-0.992424, 297, 261, 360, 292
-0.992424, 121, 169, 184, 200
-0.992424, 9, 45, 72, 76
-0.992427, 185, 157, 248, 188
-0.992429, 273, 261, 336, 292
-0.992439, 289, 57, 352, 88
-0.992443, 425, 169, 488, 200
-0.992448, 89, 45, 152, 76
-0.992466, 305, 161, 368, 192
-0.992471, 161, 97, 224, 128
-0.992481, 137, 41, 200, 72
-0.992484, 321, 281, 384, 312
-0.992484, 433, 109, 496, 140
-0.992487, 217, 13, 280, 44
-0.992496, 233, 129, 296, 375
-0.9925, 369, 53, 432, 84
-0.992501, 289, 173, 352, 204
-0.992504, 65, 269, 128, 300
-0.992505, 293, 25, 324, 88
-0.992505, 97, 273, 160, 304
-0.992507, 73, 213, 136, 244
-0.99251, 97, 217, 160, 248
-0.992512, 193, 85, 256, 116
-0.992532, 217, 153, 280, 184
-0.992535, 193, 1, 448, 64
-0.992549, 33, 257, 96, 288
-0.992553, 401, 25, 464, 56
-0.992554, 65, 161, 128, 192
-0.992554, 305, 209, 368, 240
-0.992554, 273, 185, 304, 248
-0.992559, 429, 193, 460, 256
-0.992562, 41, 149, 104, 180
-0.992565, 209, 185, 272, 216
-0.992566, 65, 177, 128, 208
-0.99259, 1, 33, 64, 64
-0.992621, 217, 241, 280, 368
-0.992638, 413, 193, 444, 256
-0.992645, 361, 113, 392, 240
-0.992646, 137, 161, 168, 224
-0.992686, 129, 225, 192, 352
-0.992709, 137, 177, 168, 304
-0.992714, 349, 193, 380, 256
-0.992724, 301, 177, 332, 304
-0.992746, 121, 41, 152, 72
-0.992772, 37, 1, 68, 32
-0.992783, 29, 161, 60, 288
-0.992791, 437, 45, 468, 76
-0.992796, 141, 129, 172, 160
-0.992803, 213, 81, 244, 144
-0.992812, 369, 241, 432, 368
-0.992818, 249, 121, 280, 184
-0.992821, 65, 313, 192, 375
-0.992822, 241, 177, 272, 304
-0.992858, 117, 21, 148, 52
-0.992881, 81, 197, 112, 228
-0.992884, 241, 185, 272, 248
-0.992894, 469, 157, 500, 188
-0.992896, 417, 25, 448, 88
-0.992903, 453, 169, 484, 200
-0.992911, 285, 129, 316, 192
-0.992913, 77, 93, 108, 124
-0.992922, 121, 97, 152, 128
-0.992923, 177, 97, 208, 160
-0.992937, 157, 129, 188, 160
-0.992941, 121, 121, 152, 152
-0.992946, 85, 117, 116, 148
-0.992948, 25, 81, 56, 112
-0.992957, 105, 193, 136, 256
-0.992968, 145, 21, 176, 52
-0.992973, 313, 185, 344, 248
-0.992974, 97, 1, 128, 32
-0.99298, 57, 89, 88, 120
-0.99298, 353, 169, 384, 232
-0.992983, 293, 49, 324, 112
-0.992988, 129, 25, 160, 56
-0.99299, 229, 105, 260, 168
-0.992993, 85, 105, 116, 136
-0.993006, 393, 17, 424, 48
-0.993006, 29, 57, 60, 88
-0.993016, 13, 73, 44, 136
-0.993024, 105, 121, 136, 152
-0.993027, 101, 25, 132, 56
-0.993033, 165, 25, 196, 56
-0.993034, 165, 13, 196, 44
-0.993035, 289, 49, 320, 80
-0.993045, 125, 137, 156, 168
-0.993049, 145, 205, 176, 236
-0.993057, 45, 17, 76, 48
-0.993059, 77, 209, 108, 240
-0.99306, 141, 33, 172, 64
-0.993062, 289, 85, 320, 116
-0.993073, 25, 17, 56, 48
-0.993074, 373, 177, 404, 304
-0.993075, 37, 93, 68, 124
-0.993081, 37, 73, 68, 104
-0.993081, 125, 85, 156, 116
-0.993085, 133, 113, 164, 144
-0.993097, 413, 37, 444, 68
-0.993099, 241, 5, 272, 36
-0.993102, 89, 81, 120, 112
-0.993104, 73, 225, 104, 256
-0.993109, 257, 1, 288, 32
-0.99311, 137, 149, 168, 180
-0.993112, 1, 9, 500, 72
-0.993118, 413, 57, 444, 88
-0.993125, 289, 33, 320, 64
-0.993125, 109, 5, 140, 36
-0.993129, 337, 65, 400, 192
-0.993134, 21, 41, 52, 72
-0.993134, 469, 93, 500, 124
-0.993136, 57, 101, 88, 132
-0.993138, 153, 117, 184, 148
-0.993143, 305, 257, 336, 320
-0.993144, 137, 9, 168, 40
-0.993144, 101, 109, 132, 140
-0.993147, 273, 157, 304, 188
-0.993148, 133, 97, 164, 128
-0.993151, 5, 5, 36, 36
-0.993154, 277, 93, 308, 124
-0.99316, 49, 77, 80, 108
-0.99316, 121, 109, 152, 140
-0.993165, 149, 149, 180, 180
-0.993166, 141, 217, 172, 248
-0.993167, 129, 201, 160, 232
-0.993167, 341, 161, 372, 192
-0.993167, 105, 97, 136, 128
-0.993172, 121, 9, 152, 40
-0.993174, 133, 49, 164, 80
-0.993174, 353, 5, 384, 36
-0.993176, 65, 205, 96, 236
-0.993176, 145, 45, 176, 76
-0.993179, 373, 193, 404, 256
-0.993189, 225, 1, 256, 32
-0.993189, 169, 141, 200, 172
-0.993195, 69, 109, 100, 140
-0.993196, 309, 13, 340, 44
-0.993196, 325, 157, 356, 188
-0.993196, 221, 93, 252, 124
-0.993201, 173, 161, 204, 192
-0.993206, 409, 129, 472, 375
-0.993208, 217, 165, 248, 196
-0.99321, 209, 137, 240, 168
-0.99321, 157, 37, 188, 68
-0.993214, 69, 33, 100, 64
-0.993215, 461, 41, 492, 72
-0.993223, 297, 13, 328, 44
-0.993227, 125, 161, 156, 192
-0.993227, 153, 161, 184, 192
-0.993233, 293, 1, 324, 32
-0.993235, 109, 37, 140, 68
-0.993237, 25, 5, 56, 36
-0.993242, 321, 25, 352, 56
-0.993243, 169, 129, 200, 160
-0.993243, 457, 157, 488, 188
-0.993247, 397, 41, 428, 72
-0.993251, 441, 165, 472, 196
-0.993252, 185, 1, 216, 32
-0.993255, 17, 57, 48, 88
-0.993259, 425, 49, 456, 80
-0.99326, 145, 85, 176, 116
-0.993261, 97, 37, 128, 68
-0.993264, 329, 177, 360, 208
-0.993265, 277, 1, 308, 32
-0.993266, 69, 81, 100, 112
-0.993267, 25, 93, 56, 124
-0.993269, 441, 145, 472, 272
-0.993278, 465, 81, 496, 112
-0.993282, 365, 5, 396, 36
-0.993282, 113, 57, 144, 88
-0.993285, 461, 109, 492, 140
-0.993287, 197, 1, 228, 32
-0.993289, 341, 13, 372, 44
-0.993294, 189, 129, 220, 192
-0.993297, 21, 29, 52, 60
-0.993297, 449, 181, 480, 212
-0.993297, 353, 289, 480, 352
-0.993303, 273, 173, 304, 204
-0.993303, 9, 37, 40, 68
-0.993304, 89, 21, 120, 52
-0.993307, 185, 17, 216, 48
-0.993308, 105, 137, 136, 168
-0.99331, 457, 53, 488, 84
-0.993311, 141, 65, 172, 128
-0.993311, 261, 157, 292, 188
-0.993311, 89, 93, 120, 124
-0.993314, 57, 217, 88, 248
-0.993315, 277, 29, 308, 60
-0.993317, 181, 161, 212, 224
-0.99332, 33, 33, 64, 64
-0.993321, 105, 85, 136, 116
-0.993333, 37, 109, 68, 140
-0.993333, 17, 177, 48, 304
-0.993333, 281, 13, 312, 44
-0.993336, 113, 233, 240, 296
-0.993337, 129, 189, 160, 220
-0.993337, 81, 129, 112, 160
-0.993338, 289, 113, 320, 144
-0.99334, 65, 177, 96, 208
-0.993341, 341, 181, 372, 212
-0.993342, 469, 189, 500, 220
-0.993342, 149, 1, 180, 32
-0.993342, 137, 177, 168, 208
-0.993376, 97, 9, 352, 72
-0.99338, 353, 129, 416, 375
-0.993405, 185, 1, 248, 375
-0.993442, 113, 297, 240, 360
-0.993476, 253, 145, 284, 272
-0.993512, 257, 297, 384, 360
-0.993519, 297, 49, 328, 176
-0.993555, 13, 49, 44, 176
-0.993649, 1, 153, 500, 216
-0.993664, 413, 1, 444, 128
-0.993692, 317, 113, 348, 240
-0.993715, 305, 249, 432, 312
-0.993774, 321, 57, 448, 120
-0.993808, 257, 41, 500, 104
-0.994002, 61, 209, 92, 336
-0.994019, 277, 193, 308, 320
-0.9941, 13, 113, 44, 240
-0.994113, 173, 97, 204, 224
-0.994153, 61, 145, 92, 272
-0.994356, 217, 49, 280, 176
-0.994459, 369, 225, 496, 288
-0.99454, 261, 1, 292, 128
-0.994577, 265, 193, 296, 320
-0.994629, 1, 305, 128, 368
-0.994651, 189, 81, 220, 208
-0.994652, 209, 1, 336, 32
-0.994654, 49, 225, 80, 352
-0.994658, 373, 129, 404, 256
-0.994767, 149, 177, 180, 304
-0.994783, 65, 153, 320, 216
-0.994831, 305, 297, 432, 360
-0.994857, 1, 13, 128, 44
-0.994871, 177, 13, 304, 44
-0.994923, 161, 289, 288, 352
-0.994937, 209, 297, 336, 360
-0.994977, 65, 121, 320, 184
-0.994987, 201, 161, 232, 288
-0.995003, 129, 185, 384, 248
-0.995053, 385, 129, 416, 256
-0.995055, 257, 161, 500, 224
-0.995107, 1, 25, 256, 88
-0.995125, 257, 193, 500, 256
-0.995163, 257, 137, 500, 200
-0.99517, 201, 65, 232, 192
-0.995195, 125, 1, 140, 64
-0.995234, 1, 1, 256, 64
-0.995357, 145, 209, 272, 272
-0.995357, 1, 177, 500, 240
-0.995367, 261, 97, 292, 224
-0.995372, 181, 145, 212, 272
-0.995392, 217, 1, 280, 375
-0.995395, 135, 25, 150, 88
-0.995434, 97, 21, 224, 52
-0.995445, 305, 9, 432, 40
-0.995526, 97, 89, 352, 152
-0.995545, 133, 225, 164, 352
-0.995552, 43, 1, 58, 64
-0.99559, 133, 1, 148, 64
-0.995626, 313, 225, 344, 352
-0.995648, 345, 1, 408, 375
-0.995656, 49, 1, 176, 32
-0.995681, 333, 97, 364, 224
-0.995703, 269, 49, 300, 176
-0.995724, 433, 97, 496, 352
-0.995729, 97, 1, 224, 32
-0.995737, 429, 177, 460, 304
-0.995761, 369, 49, 496, 80
-0.995767, 165, 1, 180, 64
-0.995827, 1, 73, 256, 136
-0.99596, 65, 113, 192, 144
-0.995964, 17, 225, 48, 352
-0.995965, 155, 17, 170, 80
-0.995972, 31, 57, 46, 120
-0.995991, 21, 17, 36, 80
-0.996002, 37, 1, 52, 64
-0.996006, 147, 33, 162, 96
-0.996018, 161, 113, 416, 176
-0.996038, 81, 129, 208, 160
-0.996045, 65, 201, 192, 232
-0.996052, 257, 65, 500, 128
-0.996057, 87, 193, 102, 256
-0.996073, 37, 241, 68, 368
-0.996092, 289, 49, 304, 112
-0.996103, 481, 65, 496, 128
-0.996117, 293, 1, 308, 64
-0.996128, 49, 21, 176, 52
-0.996129, 103, 1, 118, 64
-0.996141, 141, 1, 156, 64
-0.996149, 301, 225, 332, 352
-0.996152, 81, 193, 96, 256
-0.996158, 65, 97, 192, 128
-0.996161, 1, 33, 128, 64
-0.996167, 27, 17, 42, 80
-0.996185, 153, 241, 216, 368
-0.996192, 1, 105, 128, 136
-0.996198, 113, 149, 240, 180
-0.996201, 377, 225, 408, 352
-0.99621, 147, 185, 162, 248
-0.996216, 305, 21, 432, 52
-0.996223, 119, 1, 134, 64
-0.99626, 229, 193, 260, 320
-0.99627, 41, 73, 56, 136
-0.996299, 65, 241, 320, 304
-0.996299, 319, 1, 334, 64
-0.996305, 161, 145, 288, 176
-0.996306, 313, 1, 328, 64
-0.996312, 253, 193, 284, 320
-0.996327, 469, 225, 500, 352
-0.996332, 111, 1, 126, 64
-0.996343, 371, 1, 386, 64
-0.996358, 49, 33, 176, 64
-0.996363, 1, 121, 500, 184
-0.996369, 433, 49, 448, 112
-0.996391, 457, 241, 488, 368
-0.996417, 123, 89, 138, 152
-0.996426, 321, 105, 448, 168
-0.996444, 475, 145, 490, 208
-0.996457, 89, 225, 120, 352
-0.996461, 161, 1, 288, 32
-0.996461, 253, 1, 268, 64
-0.99647, 453, 193, 484, 320
-0.996478, 115, 113, 130, 176
-0.996481, 465, 161, 480, 224
-0.996482, 97, 45, 224, 76
-0.996491, 407, 17, 422, 80
-0.996499, 87, 161, 102, 224
-0.996527, 137, 145, 152, 208
-0.996528, 77, 225, 92, 288
-0.99653, 417, 49, 432, 112
-0.996537, 133, 49, 148, 112
-0.996548, 95, 81, 110, 144
-0.996554, 53, 1, 84, 256
-0.996556, 93, 185, 108, 248
-0.996562, 139, 97, 154, 160
-0.996569, 87, 105, 102, 168
-0.996571, 161, 153, 416, 216
-0.996572, 127, 25, 142, 88
-0.996576, 241, 13, 368, 44
-0.996578, 141, 185, 156, 248
-0.996579, 353, 1, 368, 64
-0.996585, 113, 105, 240, 136
-0.996609, 141, 41, 156, 104
-0.996641, 163, 121, 178, 184
-0.996643, 197, 241, 228, 368
-0.996644, 149, 105, 164, 168
-0.996655, 17, 89, 144, 120
-0.996667, 81, 1, 112, 256
-0.996675, 241, 153, 368, 184
-0.996688, 129, 41, 384, 104
-0.996697, 451, 41, 466, 104
-0.996698, 231, 161, 246, 224
-0.99674, 97, 65, 352, 128
-0.996751, 69, 1, 100, 256
-0.996755, 97, 33, 224, 64
-0.99677, 445, 41, 460, 104
-0.996783, 365, 1, 380, 64
-0.996808, 401, 225, 432, 352
-0.996812, 295, 81, 310, 144
-0.996812, 155, 121, 170, 184
-0.996818, 119, 161, 134, 224
-0.996822, 57, 73, 72, 136
-0.996849, 33, 177, 288, 240
-0.996851, 85, 81, 100, 144
-0.996858, 273, 181, 400, 212
-0.996862, 33, 81, 48, 144
-0.996867, 283, 25, 298, 88
-0.996875, 105, 1, 136, 256
-0.996888, 385, 1, 400, 64
-0.99689, 81, 153, 96, 216
-0.996895, 1, 1, 128, 32
-0.996898, 359, 1, 374, 64
-0.996903, 439, 41, 454, 104
-0.996907, 457, 49, 472, 112
-0.996908, 127, 145, 142, 208
-0.996917, 33, 217, 288, 280
-0.996918, 283, 57, 298, 120
-0.996934, 173, 153, 188, 216
-0.996935, 193, 89, 448, 152
-0.996936, 425, 129, 456, 256
-0.996938, 1, 97, 256, 160
-0.99694, 123, 185, 138, 248
-0.996941, 157, 41, 172, 104
-0.996945, 305, 153, 320, 216
-0.996958, 133, 185, 148, 248
-0.996967, 183, 145, 198, 208
-0.996967, 79, 81, 94, 144
-0.99698, 393, 1, 424, 256
-0.996996, 49, 145, 176, 176
-0.997009, 277, 153, 292, 216
-0.997018, 241, 169, 368, 200
-0.997019, 353, 181, 480, 212
-0.997027, 165, 1, 196, 256
-0.997044, 189, 9, 204, 72
-0.997046, 105, 185, 120, 248
-0.997051, 475, 41, 490, 104
-0.997057, 85, 97, 116, 352
-0.997059, 329, 17, 344, 80
-0.997068, 293, 25, 308, 88
-0.997069, 147, 1, 162, 64
-0.99707, 291, 153, 306, 216
-0.997071, 307, 1, 322, 64
-0.997073, 177, 25, 304, 56
-0.997076, 1, 201, 128, 232
-0.997079, 145, 161, 160, 224
-0.997079, 191, 97, 206, 160
-0.997082, 173, 121, 188, 184
-0.997088, 299, 33, 314, 96
-0.997089, 457, 161, 472, 224
-0.997089, 243, 1, 258, 64
-0.997099, 279, 1, 294, 64
-0.997106, 23, 41, 38, 104
-0.99711, 1, 97, 500, 160
-0.997119, 369, 169, 496, 200
-0.99712, 89, 1, 104, 64
-0.997128, 81, 129, 96, 192
-0.997131, 51, 65, 66, 128
-0.997132, 197, 89, 212, 152
-0.997132, 1, 177, 128, 208
-0.997137, 99, 169, 114, 232
-0.997141, 27, 89, 42, 152
-0.997143, 121, 25, 136, 88
-0.997144, 1, 177, 16, 240
-0.99715, 153, 193, 168, 256
-0.997152, 451, 161, 466, 224
-0.997156, 97, 273, 352, 336
-0.997157, 181, 121, 196, 184
-0.997165, 299, 1, 314, 64
-0.997167, 113, 169, 128, 232
-0.997177, 305, 45, 432, 76
-0.997177, 193, 161, 320, 192
-0.997182, 139, 73, 154, 136
-0.997186, 131, 73, 146, 136
-0.997186, 145, 1, 176, 256
-0.997187, 241, 141, 368, 172
-0.997189, 485, 153, 500, 216
-0.99719, 401, 129, 432, 256
-0.997197, 257, 1, 384, 32
-0.997198, 271, 145, 286, 208
-0.997202, 337, 17, 352, 80
-0.997205, 9, 177, 24, 240
-0.997217, 297, 129, 312, 192
-0.997238, 193, 89, 320, 120
-0.997243, 33, 25, 48, 88
-0.997246, 141, 121, 156, 184
-0.997246, 109, 25, 124, 88
-0.99725, 99, 25, 114, 88
-0.997253, 69, 33, 84, 96
-0.997257, 259, 1, 274, 64
-0.997261, 161, 313, 288, 375
-0.997268, 171, 9, 186, 72
-0.997273, 125, 113, 140, 176
-0.997289, 161, 177, 176, 240
-0.997293, 59, 1, 74, 64
-0.997294, 481, 41, 496, 104
-0.997296, 297, 161, 312, 224
-0.997298, 83, 33, 98, 96
-0.997304, 81, 85, 208, 116
-0.997311, 183, 9, 198, 72
-0.997317, 401, 9, 416, 72
-0.997324, 393, 17, 408, 80
-0.997336, 475, 81, 490, 144
-0.997337, 369, 37, 496, 68
-0.997339, 463, 49, 478, 112
-0.997344, 163, 25, 178, 88
-0.997347, 153, 169, 168, 232
-0.997347, 125, 33, 156, 288
-0.997353, 97, 1, 112, 64
-0.997359, 289, 157, 416, 188
-0.997365, 413, 129, 444, 256
-0.997371, 129, 117, 256, 148
-0.997372, 49, 213, 176, 244
-0.997372, 325, 1, 356, 256
-0.997378, 197, 1, 228, 256
-0.997382, 1, 49, 256, 112
-0.997412, 345, 225, 376, 352
-0.99743, 257, 241, 288, 368
-0.997455, 369, 313, 496, 375
-0.997457, 145, 133, 272, 164
-0.997472, 361, 65, 392, 192
-0.997476, 193, 265, 448, 328
-0.997492, 369, 61, 496, 92
-0.997505, 81, 161, 208, 192
-0.997511, 1, 33, 500, 96
-0.997533, 65, 189, 192, 220
-0.997549, 129, 81, 256, 112
-0.997549, 321, 81, 448, 144
-0.997555, 353, 153, 480, 184
-0.997565, 1, 265, 256, 328
-0.997577, 33, 161, 160, 192
-0.99758, 381, 1, 412, 256
-0.997604, 129, 209, 256, 240
-0.997611, 321, 193, 448, 224
-0.997612, 369, 89, 496, 120
-0.997634, 257, 113, 500, 176
-0.997659, 225, 233, 480, 296
-0.997665, 273, 1, 304, 256
-0.997673, 437, 1, 468, 256
-0.997693, 17, 65, 144, 96
-0.997709, 113, 193, 240, 224
-0.997713, 129, 173, 256, 204
-0.997719, 17, 45, 144, 76
-0.997733, 405, 33, 436, 288
-0.997738, 241, 265, 368, 296
-0.997741, 425, 33, 456, 288
-0.997751, 1, 269, 128, 300
-0.997764, 193, 105, 320, 136
-0.997768, 321, 33, 448, 64
-0.997769, 241, 33, 368, 64
-0.997774, 37, 65, 68, 320
-0.997781, 449, 33, 480, 288
-0.997788, 17, 77, 144, 108
-0.997793, 177, 173, 304, 204
-0.997799, 465, 1, 496, 256
-0.997815, 65, 273, 192, 304
-0.997818, 33, 125, 160, 156
-0.99782, 121, 25, 136, 56
-0.997836, 87, 197, 102, 228
-0.997842, 129, 93, 256, 124
-0.997848, 17, 1, 48, 256
-0.997855, 141, 33, 156, 64
-0.997883, 113, 97, 144, 352
-0.997905, 149, 205, 164, 236
-0.997923, 193, 185, 320, 216
-0.997944, 33, 253, 160, 284
-0.997948, 185, 1, 216, 256
-0.997952, 129, 157, 144, 188
-0.997987, 1, 213, 128, 244
-0.997989, 135, 41, 150, 72
-0.998006, 131, 21, 146, 52
-0.998007, 301, 1, 332, 256
-0.998022, 65, 225, 192, 256
-0.998022, 125, 37, 140, 68
-0.998025, 41, 93, 56, 124
-0.998029, 117, 121, 132, 152
-0.998037, 143, 129, 158, 160
-0.998044, 225, 213, 352, 244
-0.998045, 177, 301, 304, 332
-0.99806, 337, 281, 464, 312
-0.998064, 49, 177, 176, 208
-0.998066, 209, 281, 336, 312
-0.998081, 337, 1, 368, 256
-0.998082, 145, 37, 272, 68
-0.998103, 285, 89, 300, 120
-0.998108, 73, 129, 104, 375
-0.99812, 369, 101, 496, 132
-0.998122, 169, 125, 184, 156
-0.998125, 193, 125, 320, 156
-0.998133, 471, 157, 486, 188
-0.998136, 273, 193, 400, 224
-0.998145, 117, 5, 132, 36
-0.998146, 155, 29, 170, 60
-0.998148, 129, 161, 256, 192
-0.998149, 41, 5, 56, 36
-0.998152, 93, 1, 124, 256
-0.998159, 257, 293, 384, 324
-0.998163, 273, 217, 400, 248
-0.998165, 149, 85, 164, 116
-0.998167, 155, 201, 170, 232
-0.998169, 313, 1, 344, 256
-0.998174, 33, 85, 48, 116
-0.998187, 157, 129, 172, 160
-0.998189, 131, 85, 146, 116
-0.998189, 461, 165, 476, 196
-0.998196, 259, 1, 274, 32
-0.998197, 485, 97, 500, 128
-0.998214, 179, 125, 194, 156
-0.998219, 139, 101, 154, 132
-0.998222, 151, 45, 166, 76
-0.998223, 29, 29, 44, 60
-0.998223, 123, 105, 138, 136
-0.998227, 27, 57, 42, 88
-0.998233, 1, 189, 128, 220
-0.998233, 109, 105, 124, 136
-0.998234, 163, 129, 178, 160
-0.998236, 99, 101, 114, 132
-0.998237, 133, 145, 148, 176
-0.998243, 33, 69, 48, 100
-0.998253, 405, 17, 420, 48
-0.998255, 127, 121, 142, 152
-0.998255, 79, 205, 94, 236
-0.998259, 447, 45, 462, 76
-0.998261, 353, 21, 480, 52
-0.998262, 293, 41, 308, 72
-0.998263, 225, 289, 480, 352
-0.998275, 321, 169, 448, 200
-0.998279, 279, 9, 294, 40
-0.99828, 81, 93, 96, 124
-0.998283, 295, 81, 310, 112
-0.998285, 289, 53, 304, 84
-0.998288, 55, 81, 70, 112
-0.998288, 67, 93, 82, 124
-0.998288, 97, 57, 224, 88
-0.998296, 257, 57, 384, 88
-0.998298, 173, 153, 188, 184
-0.998305, 145, 265, 272, 296
-0.998308, 183, 161, 198, 192
-0.998313, 289, 257, 416, 288
-0.998314, 115, 21, 130, 52
-0.998315, 29, 17, 44, 48
-0.998318, 125, 9, 140, 40
-0.998318, 301, 41, 316, 72
-0.998324, 129, 209, 384, 272
-0.998328, 47, 89, 62, 120
-0.99833, 1, 241, 128, 272
-0.998333, 127, 133, 142, 164
-0.998336, 139, 113, 154, 144
-0.998337, 29, 45, 60, 60
-0.998337, 265, 9, 296, 24
-0.998338, 101, 111, 132, 126
-0.998339, 93, 31, 124, 46
-0.998339, 137, 149, 168, 164
-0.998339, 189, 107, 220, 122
-0.99834, 81, 217, 96, 248
-0.99834, 393, 21, 424, 36
-0.998341, 281, 13, 312, 28
-0.998341, 393, 35, 424, 50
-0.998341, 289, 7, 320, 22
-0.998341, 297, 17, 328, 32
-0.998341, 273, 157, 304, 172
-0.998341, 119, 45, 134, 76
-0.998342, 101, 93, 132, 108
-0.998342, 133, 41, 164, 56
-0.998342, 449, 167, 480, 182
-0.998342, 129, 277, 256, 308
-0.998343, 301, 167, 332, 182
-0.998343, 141, 91, 172, 106
-0.998343, 465, 91, 496, 106
-0.998343, 309, 23, 340, 38
-0.998344, 61, 157, 92, 172
-0.998344, 189, 5, 220, 20
-0.998344, 113, 197, 144, 212
-0.998345, 25, 33, 56, 48
-0.998345, 137, 15, 168, 30
-0.998346, 117, 39, 148, 54
-0.998346, 29, 81, 60, 96
-0.998347, 257, 153, 288, 168
-0.998347, 277, 89, 308, 104
-0.998347, 421, 53, 452, 68
-0.998347, 9, 37, 40, 52
-0.998347, 17, 3, 48, 18
-0.998347, 133, 107, 164, 122
-0.998348, 165, 13, 196, 28
-0.998348, 461, 53, 492, 68
-0.998349, 439, 45, 454, 76
-0.99835, 277, 51, 308, 66
-0.99835, 461, 113, 492, 128
-0.99835, 85, 139, 116, 154
-0.99835, 145, 115, 176, 130
-0.998351, 213, 165, 244, 180
-0.998351, 73, 115, 104, 130
-0.998351, 137, 85, 168, 100
-0.998351, 149, 45, 180, 60
-0.998351, 85, 253, 116, 268
-0.998352, 201, 1, 232, 16
-0.998352, 165, 39, 196, 54
-0.998352, 239, 1, 254, 32
-0.998353, 169, 163, 200, 178
-0.998354, 133, 203, 164, 218
-0.998355, 25, 95, 56, 110
-0.998356, 141, 21, 172, 36
-0.998356, 77, 93, 108, 108
-0.998357, 41, 105, 56, 136
-0.998358, 433, 55, 464, 70
-0.998358, 53, 89, 84, 104
-0.998359, 413, 59, 444, 74
-0.99836, 337, 155, 368, 170
-0.99836, 153, 17, 184, 32
-0.99836, 281, 169, 312, 184
-0.99836, 85, 123, 116, 138
-0.998361, 73, 107, 104, 122
-0.998361, 321, 15, 352, 30
-0.998362, 121, 139, 152, 154
-0.998363, 65, 93, 96, 108
-0.998364, 89, 93, 120, 108
-0.998364, 185, 15, 216, 30
-0.998364, 301, 9, 332, 24
-0.998364, 57, 103, 88, 118
-0.998365, 97, 5, 128, 20
-0.998365, 167, 141, 182, 172
-0.998366, 85, 133, 116, 148
-0.998367, 473, 101, 488, 132
-0.998368, 5, 3, 36, 18
-0.998368, 117, 21, 148, 36
-0.998368, 277, 7, 308, 22
-0.998368, 87, 121, 102, 152
-0.998368, 145, 137, 176, 152
-0.998369, 297, 55, 328, 70
-0.998371, 229, 7, 260, 22
-0.998371, 145, 125, 176, 140
-0.998373, 121, 119, 152, 134
-0.998373, 469, 101, 500, 116
-0.998373, 37, 75, 68, 90
-0.998374, 193, 261, 320, 292
-0.998374, 105, 27, 136, 42
-0.998374, 105, 39, 136, 54
-0.998374, 101, 1, 116, 32
-0.998375, 117, 91, 148, 106
-0.998375, 105, 103, 136, 118
-0.998375, 157, 125, 188, 140
-0.998375, 113, 221, 240, 252
-0.998375, 281, 1, 312, 16
-0.998376, 25, 19, 56, 34
-0.998377, 449, 173, 480, 188
-0.998377, 91, 85, 106, 116
-0.998378, 101, 117, 132, 132
-0.998378, 127, 145, 142, 176
-0.998379, 41, 81, 72, 96
-0.998379, 289, 49, 320, 64
-0.998379, 165, 23, 196, 38
-0.99838, 133, 125, 164, 140
-0.998382, 85, 113, 116, 128
-0.998384, 101, 253, 132, 268
-0.998385, 141, 1, 156, 32
-0.998385, 165, 33, 196, 48
-0.998386, 85, 103, 116, 118
-0.998386, 113, 159, 144, 174
-0.998387, 413, 49, 428, 80
-0.998387, 289, 91, 320, 106
-0.998387, 133, 133, 148, 164
-0.998388, 21, 13, 36, 44
-0.998388, 77, 225, 108, 240
-0.998388, 121, 109, 152, 124
-0.99839, 69, 235, 100, 250
-0.99839, 27, 81, 42, 112
-0.99839, 173, 137, 188, 168
-0.998391, 109, 33, 140, 48
-0.998392, 81, 199, 112, 214
-0.998392, 261, 1, 292, 16
-0.998393, 21, 51, 52, 66
-0.998393, 417, 47, 448, 62
-0.998394, 277, 95, 308, 110
-0.998394, 213, 97, 228, 128
-0.998395, 25, 25, 56, 40
-0.998396, 13, 25, 44, 40
-0.998399, 69, 99, 100, 114
-0.9984, 221, 1, 252, 16
-0.9984, 73, 233, 88, 264
-0.9984, 33, 57, 48, 88
-0.998401, 143, 201, 158, 232
-0.998402, 171, 25, 186, 56
-0.998403, 97, 85, 128, 100
-0.998407, 117, 85, 132, 116
-0.998408, 197, 99, 228, 114
-0.99841, 125, 133, 156, 148
-0.998412, 289, 269, 416, 300
-0.998412, 121, 27, 152, 42
-0.998413, 163, 13, 178, 44
-0.998413, 141, 35, 172, 50
-0.998414, 217, 101, 248, 116
-0.998414, 121, 45, 152, 60
-0.998414, 35, 105, 50, 136
-0.998415, 97, 81, 112, 112
-0.998415, 45, 25, 76, 40
-0.998417, 409, 37, 424, 68
-0.998419, 95, 1, 110, 32
-0.998419, 275, 157, 290, 188
-0.998419, 353, 293, 480, 324
-0.998419, 153, 131, 184, 146
-0.99842, 449, 179, 480, 194
-0.998421, 109, 25, 124, 56
-0.998423, 209, 53, 336, 84
-0.998424, 209, 1, 240, 256
-0.998427, 453, 45, 468, 76
-0.998427, 99, 33, 114, 64
-0.998428, 21, 33, 36, 64
-0.998428, 121, 141, 136, 172
-0.99843, 111, 1, 126, 32
-0.998431, 85, 87, 116, 102
-0.998433, 21, 57, 52, 72
-0.998433, 23, 45, 38, 76
-0.998435, 147, 33, 162, 64
-0.998435, 139, 141, 154, 172
-0.998436, 141, 131, 172, 146
-0.998437, 235, 149, 250, 180
-0.998438, 97, 249, 224, 280
-0.998439, 257, 45, 384, 76
-0.998441, 469, 107, 500, 122
-0.998444, 41, 5, 72, 20
-0.998447, 29, 87, 60, 102
-0.998449, 149, 133, 164, 164
-0.99845, 263, 153, 278, 184
-0.99845, 453, 169, 468, 200
-0.998452, 285, 1, 300, 32
-0.998453, 301, 113, 316, 144
-0.998454, 57, 13, 72, 44
-0.998454, 63, 25, 78, 56
-0.998456, 241, 7, 272, 22
-0.998456, 437, 49, 468, 64
-0.998457, 125, 101, 156, 116
-0.998461, 361, 1, 376, 32
-0.998461, 469, 157, 500, 172
-0.998468, 301, 13, 316, 44
-0.998472, 301, 129, 332, 375
-0.998472, 251, 9, 266, 40
-0.998473, 343, 153, 358, 184
-0.998473, 131, 101, 146, 132
-0.998476, 369, 197, 496, 228
-0.998476, 139, 89, 154, 120
-0.998477, 257, 281, 384, 312
-0.998478, 121, 33, 152, 48
-0.99848, 273, 105, 400, 136
-0.998481, 287, 153, 302, 184
-0.998483, 79, 33, 94, 64
-0.998483, 189, 9, 204, 40
-0.998484, 17, 97, 48, 352
-0.998485, 93, 197, 108, 228
-0.998486, 199, 1, 214, 32
-0.99849, 93, 101, 108, 132
-0.998491, 479, 81, 494, 112
-0.998492, 35, 13, 50, 44
-0.998493, 61, 89, 76, 120
-0.998494, 145, 113, 160, 144
-0.998496, 117, 109, 132, 140
-0.998498, 433, 53, 448, 84
-0.998499, 125, 129, 156, 375
-0.9985, 145, 217, 160, 248
-0.998504, 1, 289, 256, 352
-0.998505, 209, 249, 336, 280
-0.998508, 1, 341, 128, 372
-0.998509, 475, 49, 490, 80
-0.99851, 129, 69, 256, 100
-0.998511, 297, 1, 312, 32
-0.998514, 1, 149, 128, 180
-0.998517, 87, 109, 102, 140
-0.998518, 97, 121, 112, 152
-0.998521, 137, 21, 152, 52
-0.998521, 151, 1, 166, 32
-0.998521, 101, 17, 116, 48
-0.998523, 213, 1, 228, 32
-0.998524, 479, 93, 494, 124
-0.998528, 273, 91, 336, 106
-0.998529, 1, 1, 32, 256
-0.998536, 193, 1, 256, 16
-0.998537, 25, 91, 88, 106
-0.998538, 137, 129, 200, 144
-0.998545, 409, 51, 472, 66
-0.998548, 17, 5, 80, 20
-0.998548, 401, 45, 464, 60
-0.998551, 113, 39, 176, 54
-0.998552, 177, 345, 304, 375
-0.998562, 433, 51, 496, 66
-0.998565, 161, 135, 224, 150
-0.998565, 121, 157, 184, 172
-0.998568, 121, 29, 184, 44
-0.998569, 273, 17, 336, 32
-0.998573, 169, 129, 232, 144
-0.998574, 89, 33, 152, 48
-0.998578, 25, 99, 88, 114
-0.998578, 17, 11, 80, 26
-0.99858, 369, 77, 496, 108
-0.998581, 233, 5, 296, 20
-0.998581, 17, 85, 80, 100
-0.998581, 241, 121, 368, 152
-0.998584, 1, 281, 128, 312
-0.998591, 281, 23, 344, 38
-0.998593, 57, 85, 120, 100
-0.998595, 337, 261, 464, 292
-0.998597, 81, 159, 144, 174
-0.998599, 185, 99, 248, 114
-0.998599, 17, 17, 80, 32
-0.998602, 137, 135, 200, 150
-0.998603, 137, 23, 200, 38
-0.998605, 257, 1, 320, 16
-0.998606, 89, 197, 152, 212
-0.998607, 57, 79, 120, 94
-0.998609, 313, 19, 376, 34
-0.99861, 49, 95, 112, 110
-0.998611, 33, 107, 96, 122
-0.998611, 113, 47, 176, 62
-0.998614, 73, 105, 136, 120
-0.998614, 141, 97, 172, 352
-0.998615, 17, 25, 80, 40
-0.998616, 97, 89, 160, 104
-0.998617, 337, 15, 400, 30
-0.998617, 245, 1, 276, 256
-0.998618, 17, 79, 80, 94
-0.998618, 281, 51, 344, 66
-0.998619, 177, 9, 240, 24
-0.998619, 137, 17, 200, 32
-0.99862, 65, 285, 192, 316
-0.99862, 209, 7, 272, 22
-0.998622, 17, 31, 80, 46
-0.998623, 265, 97, 328, 112
-0.998626, 321, 141, 448, 172
-0.998628, 137, 147, 200, 162
-0.998628, 105, 23, 168, 38
-0.998628, 281, 85, 344, 100
-0.99863, 145, 163, 208, 178
-0.99863, 121, 87, 184, 102
-0.998632, 257, 93, 384, 124
-0.998633, 153, 33, 216, 48
-0.998634, 265, 57, 328, 72
-0.998635, 97, 1, 160, 16
-0.998635, 273, 11, 336, 26
-0.998635, 137, 111, 200, 126
-0.998636, 177, 213, 304, 244
-0.998637, 57, 9, 120, 24
-0.998637, 73, 125, 136, 140
-0.998638, 17, 73, 80, 88
-0.998638, 97, 137, 160, 152
-0.998639, 81, 81, 144, 96
-0.99864, 145, 123, 208, 138
-0.998641, 169, 163, 232, 178
-0.998641, 113, 131, 176, 146
-0.998642, 233, 95, 296, 110
-0.998642, 1, 103, 64, 118
-0.998643, 9, 55, 72, 70
-0.998644, 65, 69, 192, 100
-0.998644, 121, 165, 184, 180
-0.998646, 401, 39, 464, 54
-0.998648, 249, 19, 312, 34
-0.998648, 57, 17, 120, 32
-0.998649, 97, 107, 160, 122
-0.998649, 177, 15, 240, 30
-0.99865, 105, 101, 168, 116
-0.99865, 169, 3, 232, 18
-0.99865, 297, 13, 360, 28
-0.99865, 137, 39, 200, 54
-0.998651, 89, 39, 152, 54
-0.998651, 281, 167, 344, 182
-0.998651, 337, 9, 400, 24
-0.998651, 97, 95, 160, 110
-0.998651, 121, 119, 184, 134
-0.998651, 161, 141, 224, 156
-0.998651, 201, 137, 264, 152
-0.998652, 285, 1, 316, 256
-0.998653, 241, 13, 304, 28
-0.998653, 137, 141, 200, 156
-0.998654, 409, 57, 472, 72
-0.998654, 105, 125, 168, 140
-0.998654, 425, 45, 488, 60
-0.998655, 97, 113, 160, 128
-0.998655, 209, 159, 272, 174
-0.998655, 425, 89, 488, 104
-0.998655, 57, 25, 120, 40
-0.998655, 73, 111, 136, 126
-0.998656, 193, 93, 256, 108
-0.998657, 33, 217, 96, 232
-0.998658, 153, 117, 216, 132
-0.998658, 161, 21, 224, 36
-0.998658, 121, 191, 184, 206
-0.998658, 281, 173, 344, 188
-0.998658, 145, 211, 208, 226
-0.998659, 73, 91, 136, 106
-0.99866, 369, 51, 432, 66
-0.99866, 425, 173, 488, 188
-0.99866, 161, 27, 224, 42
-0.998661, 113, 337, 240, 368
-0.998661, 65, 35, 128, 50
-0.998661, 209, 225, 336, 256
-0.998662, 105, 15, 168, 30
-0.998664, 313, 171, 376, 186
-0.998664, 97, 75, 160, 90
-0.998664, 89, 7, 152, 22
-0.998664, 65, 153, 128, 168
-0.998665, 89, 45, 152, 60
-0.998665, 241, 165, 304, 180
-0.998665, 41, 161, 104, 176
-0.998666, 361, 19, 424, 34
-0.998667, 433, 183, 496, 198
-0.998668, 369, 43, 432, 58
-0.998668, 209, 101, 272, 116
-0.998669, 97, 165, 160, 180
-0.99867, 257, 83, 320, 98
-0.99867, 289, 41, 352, 56
-0.99867, 401, 173, 464, 188
-0.998671, 177, 109, 240, 124
-0.998671, 137, 217, 200, 232
-0.998671, 1, 93, 64, 108
-0.998672, 257, 75, 320, 90
-0.998672, 385, 57, 448, 72
-0.998672, 257, 29, 320, 44
-0.998672, 161, 155, 224, 170
-0.998672, 65, 223, 128, 238
-0.998673, 81, 131, 144, 146
-0.998673, 137, 9, 200, 24
-0.998677, 217, 129, 248, 375
-0.998692, 101, 97, 132, 352
-0.998711, 369, 141, 496, 172
-0.998713, 317, 129, 348, 375
-0.998719, 285, 129, 316, 375
-0.998746, 153, 97, 184, 352
-0.99876, 209, 313, 336, 344
-0.998789, 113, 233, 240, 264
-0.998801, 97, 261, 224, 292
-0.998809, 225, 313, 480, 375
-0.99882, 305, 57, 432, 88
-0.998827, 113, 289, 240, 320
-0.998827, 305, 293, 432, 324
-0.998843, 61, 97, 92, 352
-0.998855, 173, 129, 204, 375
-0.998866, 33, 313, 288, 375
-0.998875, 161, 225, 288, 256
-0.998875, 33, 325, 160, 356
-0.998887, 161, 289, 288, 320
-0.998907, 27, 1, 42, 128
-0.998914, 369, 1, 400, 256
-0.998916, 341, 129, 372, 375
-0.998979, 205, 129, 236, 375
-0.998992, 139, 1, 154, 128
-0.999003, 345, 1, 360, 128
-0.999005, 225, 1, 256, 256
-0.999013, 35, 1, 50, 128
-0.999013, 273, 129, 304, 375
-0.999025, 473, 17, 488, 144
-0.999033, 329, 129, 360, 375
-0.999041, 123, 97, 138, 224
-0.999043, 1, 201, 500, 264
-0.999045, 401, 129, 432, 375
-0.999051, 49, 97, 80, 352
-0.999054, 405, 1, 420, 128
-0.999064, 313, 1, 328, 128
-0.999069, 97, 1, 112, 128
-0.999104, 91, 129, 106, 256
-0.999125, 349, 1, 380, 256
-0.999136, 133, 129, 148, 256
-0.999141, 63, 17, 78, 144
-0.999142, 189, 1, 204, 128
-0.999143, 41, 1, 56, 128
-0.999149, 115, 97, 130, 224
-0.999157, 381, 129, 412, 375
-0.99916, 103, 1, 118, 128
-0.999163, 129, 81, 144, 208
-0.999173, 41, 81, 56, 208
-0.999174, 157, 1, 172, 128
-0.999178, 261, 1, 292, 256
-0.99918, 283, 1, 298, 128
-0.999187, 485, 49, 500, 176
-0.999187, 83, 17, 98, 144
-0.999191, 147, 97, 162, 224
-0.999193, 391, 1, 406, 128
-0.999207, 291, 1, 306, 128
-0.999208, 89, 33, 104, 160
-0.999208, 249, 1, 264, 128
-0.999215, 87, 177, 102, 304
-0.999218, 305, 1, 320, 128
-0.999218, 375, 1, 390, 128
-0.999219, 147, 17, 162, 144
-0.99922, 113, 1, 128, 128
-0.999228, 353, 129, 384, 375
-0.999235, 97, 129, 112, 256
-0.999235, 399, 1, 414, 128
-0.999236, 73, 17, 88, 144
-0.999242, 383, 1, 398, 128
-0.999247, 139, 81, 154, 208
-0.999247, 479, 81, 494, 208
-0.999251, 35, 81, 50, 208
-0.999256, 479, 1, 494, 128
-0.999261, 113, 161, 128, 288
-0.999262, 473, 81, 488, 208
-0.999266, 185, 97, 216, 352
-0.999277, 1, 273, 500, 336
-0.999279, 463, 33, 478, 160
-0.999282, 171, 17, 186, 144
-0.999283, 183, 1, 198, 128
-0.999283, 243, 1, 258, 128
-0.999284, 49, 17, 64, 144
-0.999285, 113, 49, 128, 176
-0.99929, 163, 1, 178, 128
-0.9993, 157, 49, 172, 176
-0.999303, 355, 1, 370, 128
-0.999303, 91, 81, 106, 208
-0.999308, 421, 49, 436, 176
-0.999309, 123, 1, 138, 128
-0.999312, 365, 129, 396, 375
-0.999312, 321, 17, 336, 144
-0.999312, 97, 81, 112, 208
-0.999316, 433, 33, 448, 160
-0.999321, 163, 113, 178, 240
-0.999322, 411, 17, 426, 144
-0.999322, 439, 33, 454, 160
-0.99933, 417, 129, 448, 375
-0.999331, 55, 1, 70, 128
-0.999339, 21, 1, 36, 128
-0.999344, 85, 129, 100, 256
-0.999349, 29, 49, 44, 176
-0.999352, 139, 129, 154, 256
-0.999352, 157, 113, 172, 240
-0.999353, 341, 129, 356, 256
-0.999353, 105, 113, 120, 240
-0.999355, 133, 1, 148, 128
-0.99936, 339, 1, 354, 128
-0.999362, 127, 161, 142, 288
-0.999365, 449, 33, 464, 160
-0.999368, 79, 177, 94, 304
-0.999372, 291, 177, 306, 304
-0.999375, 93, 177, 108, 304
-0.999381, 457, 33, 472, 160
-0.999382, 119, 161, 134, 288
-0.999386, 445, 129, 476, 375
-0.999394, 177, 17, 192, 144
-0.999403, 471, 145, 486, 272
-0.999403, 347, 145, 362, 272
-0.999409, 245, 129, 276, 375
-0.99941, 327, 177, 342, 304
-0.999412, 369, 1, 384, 128
-0.999412, 461, 97, 492, 352
-0.999417, 363, 177, 378, 304
-0.99942, 297, 1, 312, 128
-0.999421, 233, 129, 264, 375
-0.999423, 301, 113, 316, 240
-0.999426, 217, 113, 232, 240
-0.999426, 419, 177, 434, 304
-0.999429, 383, 177, 398, 304
-0.999431, 107, 161, 122, 288
-0.999431, 119, 49, 134, 176
-0.999433, 195, 1, 210, 128
-0.999433, 277, 1, 292, 128
-0.999439, 357, 177, 372, 304
-0.999442, 409, 177, 424, 304
-0.999443, 1, 161, 16, 288
-0.999449, 297, 177, 312, 304
-0.999451, 331, 17, 346, 144
-0.999452, 397, 177, 412, 304
-0.999453, 209, 1, 224, 128
-0.99946, 477, 129, 492, 256
-0.999463, 433, 129, 464, 375
-0.999464, 101, 177, 116, 304
-0.999468, 427, 49, 442, 176
-0.999476, 355, 113, 370, 240
-0.99948, 73, 209, 88, 336
-0.999481, 335, 145, 350, 272
-0.999486, 83, 81, 98, 208
-0.999486, 223, 81, 238, 208
-0.999487, 1, 225, 500, 288
-0.999487, 77, 129, 92, 256
-0.999489, 51, 65, 66, 192
-0.99949, 231, 145, 246, 272
-0.999494, 247, 177, 262, 304
-0.999494, 1, 73, 500, 136
-0.999495, 11, 161, 26, 288
-0.999495, 69, 161, 84, 288
-0.999497, 467, 97, 482, 224
-0.999502, 403, 177, 418, 304
-0.999504, 29, 97, 44, 224
-0.999504, 211, 129, 226, 256
-0.99951, 223, 1, 238, 128
-0.99951, 217, 161, 232, 288
-0.999514, 315, 177, 330, 304
-0.999515, 375, 129, 390, 256
-0.999516, 15, 17, 30, 144
-0.999517, 369, 177, 384, 304
-0.99952, 169, 129, 184, 256
-0.99952, 149, 177, 164, 304
-0.999522, 303, 161, 318, 288
-0.999523, 295, 113, 310, 240
-0.999525, 203, 1, 218, 128
-0.999526, 69, 97, 84, 224
-0.999526, 191, 81, 206, 208
-0.99954, 5, 129, 36, 375
-0.999546, 285, 59, 300, 74
-0.999546, 301, 7, 316, 22
-0.999546, 129, 1, 144, 16
-0.999546, 131, 107, 146, 122
-0.999546, 129, 149, 144, 164
-0.999546, 193, 15, 208, 30
-0.999547, 37, 27, 52, 42
-0.999547, 123, 33, 138, 48
-0.999547, 321, 21, 336, 36
-0.999547, 299, 45, 314, 60
-0.999548, 251, 9, 266, 24
-0.999549, 23, 77, 38, 92
-0.999549, 69, 231, 84, 246
-0.999549, 151, 45, 166, 60
-0.999549, 279, 11, 294, 26
-0.99955, 485, 83, 500, 98
-0.99955, 169, 13, 184, 28
-0.99955, 137, 113, 152, 128
-0.99955, 297, 169, 312, 184
-0.999551, 153, 141, 168, 156
-0.999551, 79, 33, 94, 48
-0.999551, 79, 211, 94, 226
-0.999551, 97, 253, 112, 268
-0.999551, 29, 93, 44, 108
-0.999552, 163, 133, 178, 148
-0.999552, 139, 119, 154, 134
-0.999552, 133, 49, 148, 64
-0.999553, 441, 47, 456, 62
-0.999553, 65, 93, 80, 108
-0.999554, 97, 7, 112, 22
-0.999555, 295, 115, 310, 130
-0.999555, 215, 107, 230, 122
-0.999555, 335, 153, 350, 168
-0.999555, 471, 157, 486, 172
-0.999556, 145, 29, 160, 44
-0.999556, 73, 113, 88, 128
-0.999556, 117, 5, 132, 20
-0.999556, 177, 131, 192, 146
-0.999556, 31, 19, 46, 34
-0.999557, 451, 47, 466, 62
-0.999557, 83, 89, 98, 104
-0.999557, 29, 57, 44, 72
-0.999557, 211, 139, 226, 154
-0.999559, 169, 127, 184, 142
-0.999559, 303, 165, 318, 180
-0.999559, 117, 121, 132, 136
-0.99956, 183, 163, 198, 178
-0.99956, 287, 51, 302, 66
-0.99956, 109, 43, 124, 58
-0.999561, 135, 129, 150, 144
-0.999562, 235, 101, 250, 116
-0.999562, 301, 117, 316, 132
-0.999562, 477, 107, 492, 122
-0.999562, 79, 109, 94, 124
-0.999563, 485, 101, 500, 116
-0.999563, 77, 227, 92, 242
-0.999563, 115, 21, 130, 36
-0.999563, 27, 99, 42, 114
-0.999563, 131, 33, 146, 48
-0.999564, 129, 163, 144, 178
-0.999564, 139, 95, 154, 110
-0.999564, 201, 7, 216, 22
-0.999565, 113, 31, 128, 46
-0.999565, 89, 123, 104, 138
-0.999565, 23, 53, 38, 68
-0.999565, 95, 103, 110, 118
-0.999566, 155, 83, 170, 98
-0.999566, 173, 161, 188, 176
-0.999567, 157, 19, 172, 34
-0.999567, 283, 1, 298, 16
-0.999568, 133, 139, 148, 154
-0.999568, 479, 91, 494, 106
-0.999569, 175, 33, 190, 48
-0.999569, 457, 169, 472, 184
-0.999569, 131, 87, 146, 102
-0.999569, 57, 23, 72, 38
-0.99957, 111, 5, 126, 20
-0.99957, 143, 141, 158, 156
-0.999571, 123, 113, 138, 128
-0.999571, 31, 85, 46, 100
-0.999571, 213, 1, 228, 16
-0.999572, 453, 177, 468, 192
-0.999572, 75, 93, 90, 108
-0.999573, 407, 33, 422, 48
-0.999573, 137, 33, 152, 48
-0.999574, 471, 105, 486, 120
-0.999574, 245, 7, 260, 22
-0.999574, 127, 135, 142, 150
-0.999575, 17, 25, 32, 40
-0.999575, 11, 1, 26, 16
-0.999575, 43, 93, 58, 108
-0.999576, 129, 297, 384, 360
-0.999576, 75, 235, 90, 250
-0.999577, 485, 63, 500, 78
-0.999577, 291, 1, 306, 16
-0.999577, 113, 115, 128, 130
-0.999577, 81, 115, 96, 130
-0.999577, 235, 1, 250, 16
-0.999577, 295, 91, 310, 106
-0.999578, 151, 121, 166, 136
-0.999579, 215, 101, 230, 116
-0.99958, 55, 79, 70, 94
-0.999581, 91, 87, 106, 102
-0.999582, 147, 201, 162, 216
-0.999583, 131, 101, 146, 116
-0.999583, 153, 135, 168, 150
-0.999583, 145, 83, 160, 98
-0.999584, 141, 103, 156, 118
-0.999586, 27, 25, 42, 40
-0.999586, 85, 201, 100, 216
-0.999589, 131, 93, 146, 108
-0.999592, 141, 41, 156, 56
-0.999593, 209, 99, 224, 114
-0.999594, 293, 49, 308, 64
-0.999595, 131, 43, 146, 58
-0.999596, 119, 39, 134, 54
-0.999597, 121, 105, 136, 120
-0.999598, 131, 23, 146, 38
-0.9996, 145, 35, 160, 50
-0.999603, 151, 129, 166, 144
-0.999603, 37, 93, 52, 108
-0.999606, 97, 81, 112, 96
-0.999607, 157, 129, 172, 144
-0.99961, 21, 37, 36, 52
-0.999613, 121, 27, 136, 42
-0.999615, 33, 101, 48, 116
-0.999616, 41, 103, 56, 118
-0.999625, 285, 91, 300, 106
-0.999631, 125, 157, 140, 172
-0.999662, 143, 135, 158, 150
-0.999663, 145, 129, 160, 144
-0.999684, 401, 81, 464, 208
-0.999691, 261, 129, 292, 375
-0.999899, 1, 305, 500, 368
-1.00023, 1, 249, 500, 312
