1884
-0.391014, 1, 33, 500, 288
-0.475278, 161, 1, 416, 333
-0.47776, 33, 1, 288, 333
-0.500676, 1, 1, 500, 333
-0.595623, 97, 33, 352, 288
-0.674984, 225, 65, 480, 320
-0.690404, 1, 33, 256, 288
-0.713202, 257, 1, 500, 333
-0.851445, 1, 97, 500, 224
-0.854417, 177, 33, 304, 288
-0.85514, 241, 65, 368, 320
-0.862731, 97, 33, 224, 288
-0.869219, 129, 1, 256, 333
-0.870263, 241, 1, 368, 333
-0.874752, 49, 65, 176, 320
-0.882048, 289, 65, 416, 320
-0.883645, 65, 1, 192, 333
-0.884636, 1, 145, 500, 272
-0.886098, 177, 1, 304, 333
-0.901261, 97, 97, 352, 224
-0.904967, 1, 209, 500, 333
-0.9067, 193, 209, 448, 333
-0.907911, 65, 145, 320, 272
-0.908135, 193, 145, 448, 272
-0.913565, 337, 65, 464, 320
-0.915401, 305, 1, 432, 333
-0.918266, 193, 97, 448, 224
-0.91844, 1, 33, 128, 288
-0.919578, 1, 49, 500, 176
-0.922174, 129, 49, 384, 176
-0.924578, 353, 1, 480, 333
-0.926578, 65, 193, 320, 320
-0.926801, 177, 65, 304, 192
-0.930201, 137, 113, 200, 240
-0.930854, 225, 193, 288, 320
-0.932205, 257, 129, 384, 256
-0.932316, 129, 49, 256, 176
-0.93274, 97, 97, 224, 224
-0.93282, 1, 81, 256, 208
-0.933847, 217, 81, 280, 208
-0.934779, 145, 161, 272, 288
-0.936028, 201, 177, 264, 304
-0.936141, 225, 193, 352, 320
-0.936852, 249, 145, 312, 272
-0.937533, 145, 113, 272, 240
-0.93834, 177, 177, 240, 304
-0.938515, 257, 65, 320, 192
-0.938602, 1, 1, 128, 333
-0.939922, 49, 129, 112, 256
-0.941587, 121, 65, 184, 192
-0.942076, 97, 161, 224, 288
-0.942391, 49, 81, 176, 208
-0.942807, 281, 193, 344, 320
-0.943181, 177, 49, 240, 176
-0.943667, 33, 145, 160, 272
-0.943824, 321, 177, 448, 304
-0.944491, 329, 129, 392, 256
-0.944517, 281, 81, 344, 208
-0.944725, 161, 209, 288, 333
-0.945039, 225, 81, 352, 208
-0.9451, 249, 193, 312, 320
-0.945695, 97, 81, 160, 208
-0.945835, 49, 81, 112, 208
-0.946925, 361, 177, 424, 304
-0.947382, 273, 209, 400, 333
-0.947403, 161, 113, 224, 240
-0.949628, 121, 161, 184, 288
-0.949936, 193, 113, 256, 240
-0.950533, 89, 145, 152, 272
-0.952747, 305, 113, 368, 240
-0.952918, 305, 129, 432, 256
-0.953162, 313, 209, 376, 333
-0.953419, 153, 65, 216, 128
-0.953431, 145, 65, 208, 192
-0.953586, 209, 81, 272, 144
-0.953953, 241, 73, 304, 136
-0.953966, 209, 193, 272, 256
-0.95413, 305, 201, 368, 264
-0.954315, 177, 177, 240, 240
-0.954441, 209, 145, 336, 272
-0.955608, 241, 257, 304, 320
-0.956123, 185, 257, 248, 320
-0.956463, 225, 145, 288, 272
-0.956589, 153, 193, 216, 320
-0.956965, 273, 129, 336, 256
-0.956983, 337, 177, 400, 304
-0.957154, 161, 89, 224, 152
-0.957444, 209, 265, 272, 328
-0.957626, 185, 233, 248, 296
-0.958131, 41, 137, 104, 200
-0.958194, 185, 65, 248, 128
-0.958368, 145, 137, 208, 200
-0.958882, 329, 177, 392, 240
-0.959014, 137, 89, 200, 152
-0.959074, 185, 89, 248, 152
-0.959382, 1, 33, 256, 160
-0.959419, 169, 201, 232, 264
-0.959785, 97, 73, 160, 136
-0.959849, 329, 201, 392, 264
-0.959864, 281, 201, 344, 264
-0.959991, 1, 1, 500, 128
-0.960161, 209, 33, 272, 160
-0.960439, 225, 217, 288, 280
-0.960514, 265, 81, 328, 144
-0.960918, 217, 241, 280, 304
-0.961034, 281, 137, 344, 200
-0.961246, 257, 209, 320, 272
-0.961559, 265, 257, 328, 320
-0.961874, 321, 129, 384, 192
-0.962099, 265, 65, 328, 320
-0.962379, 129, 177, 192, 240
-0.96251, 153, 113, 216, 176
-0.962656, 361, 185, 424, 248
-0.96277, 153, 161, 216, 224
-0.963105, 89, 153, 152, 216
-0.96318, 129, 65, 192, 128
-0.963191, 225, 49, 480, 176
-0.963327, 345, 233, 408, 296
-0.963791, 329, 153, 392, 216
-0.964761, 73, 81, 136, 208
-0.964817, 41, 113, 104, 176
-0.964956, 257, 177, 320, 240
-0.965468, 41, 161, 104, 224
-0.96568, 233, 33, 296, 160
-0.965751, 65, 145, 128, 208
-0.965911, 81, 209, 208, 333
-0.965933, 233, 193, 296, 256
-0.966031, 81, 33, 208, 160
-0.966072, 41, 81, 104, 144
-0.966268, 377, 257, 440, 320
-0.966386, 105, 177, 168, 240
-0.966672, 161, 249, 224, 312
-0.966709, 225, 33, 352, 160
-0.966814, 137, 97, 168, 224
-0.96683, 289, 105, 352, 168
-0.966846, 353, 209, 416, 272
-0.967077, 273, 81, 400, 208
-0.967721, 185, 113, 248, 176
-0.967906, 177, 185, 304, 248
-0.967915, 257, 209, 384, 272
-0.968193, 113, 129, 176, 192
-0.968271, 25, 113, 88, 240
-0.968302, 385, 177, 448, 304
-0.968318, 1, 97, 128, 224
-0.96837, 137, 17, 200, 144
-0.968511, 73, 73, 136, 136
-0.968547, 361, 129, 424, 256
-0.968805, 209, 169, 272, 232
-0.968876, 193, 273, 320, 333
-0.968915, 305, 161, 368, 288
-0.969295, 353, 273, 416, 333
-0.969392, 273, 137, 400, 200
-0.969544, 249, 233, 312, 296
-0.969764, 145, 201, 208, 264
-0.969818, 209, 73, 336, 136
-0.969918, 209, 57, 272, 120
-0.969984, 209, 105, 272, 168
-0.970236, 289, 161, 352, 224
-0.970241, 229, 177, 260, 304
-0.970286, 65, 113, 128, 176
-0.970564, 289, 65, 352, 320
-0.970859, 113, 65, 240, 128
-0.971051, 73, 177, 136, 240
-0.971115, 145, 33, 208, 288
-0.971333, 233, 65, 296, 320
-0.971466, 193, 217, 320, 280
-0.971553, 161, 81, 288, 144
-0.971648, 313, 65, 376, 320
-0.971742, 289, 273, 352, 333
-0.971762, 113, 89, 240, 152
-0.971863, 353, 129, 480, 256
-0.971917, 241, 193, 272, 320
-0.972048, 137, 65, 168, 128
-0.972132, 349, 129, 380, 256
-0.972202, 97, 33, 160, 288
-0.972239, 209, 73, 240, 136
-0.97259, 257, 161, 384, 224
-0.97294, 269, 257, 300, 320
-0.973149, 361, 161, 424, 224
-0.973237, 177, 113, 304, 176
-0.973319, 53, 129, 84, 192
-0.973343, 129, 177, 256, 240
-0.973516, 161, 97, 192, 224
-0.973582, 153, 97, 184, 160
-0.973663, 349, 201, 380, 264
-0.97383, 113, 97, 176, 160
-0.973876, 373, 193, 404, 256
-0.973914, 173, 65, 204, 128
-0.974148, 129, 209, 192, 333
-0.974423, 121, 153, 184, 216
-0.974448, 233, 73, 264, 136
-0.974468, 257, 65, 288, 192
-0.974577, 189, 89, 220, 152
-0.974708, 89, 33, 152, 160
-0.974948, 237, 193, 268, 256
-0.974952, 321, 241, 384, 304
-0.97501, 65, 73, 192, 136
-0.97511, 33, 145, 160, 208
-0.975119, 17, 129, 80, 192
-0.975128, 337, 201, 368, 264
-0.975211, 269, 209, 300, 272
-0.975271, 321, 201, 352, 264
-0.975286, 249, 113, 312, 176
-0.97531, 197, 49, 228, 176
-0.975362, 205, 185, 236, 248
-0.975551, 253, 193, 284, 320
-0.97558, 113, 145, 240, 208
-0.975631, 153, 73, 184, 136
-0.975661, 273, 241, 400, 304
-0.975712, 141, 129, 172, 192
-0.975765, 193, 241, 320, 304
-0.975882, 301, 169, 332, 232
-0.975932, 369, 177, 400, 304
-0.975939, 305, 65, 368, 192
-0.975953, 149, 129, 180, 256
-0.976024, 33, 33, 160, 160
-0.976047, 145, 217, 272, 280
-0.976058, 257, 201, 288, 264
-0.976067, 233, 169, 296, 232
-0.976111, 273, 185, 400, 248
-0.976111, 209, 209, 240, 272
-0.976169, 185, 193, 216, 320
-0.976176, 209, 177, 240, 304
-0.976282, 85, 145, 116, 208
-0.976286, 221, 233, 252, 296
-0.976316, 245, 273, 276, 333
-0.976323, 201, 33, 264, 288
-0.97643, 313, 273, 376, 333
-0.976454, 385, 233, 448, 296
-0.976457, 237, 97, 268, 224
-0.976733, 289, 193, 320, 320
-0.976841, 233, 265, 264, 328
-0.976851, 65, 177, 128, 304
-0.976853, 225, 105, 352, 168
-0.976923, 177, 153, 240, 216
-0.976982, 221, 65, 252, 128
-0.976983, 333, 113, 364, 240
-0.977069, 161, 225, 224, 288
-0.977211, 337, 81, 464, 208
-0.977213, 73, 33, 136, 288
-0.977225, 65, 113, 192, 176
-0.977284, 81, 97, 112, 224
-0.977311, 209, 161, 336, 224
-0.977328, 177, 17, 304, 144
-0.977443, 289, 273, 416, 333
-0.977465, 353, 137, 384, 200
-0.977515, 149, 153, 180, 216
-0.977554, 225, 169, 256, 232
-0.977591, 297, 241, 360, 304
-0.977633, 245, 65, 276, 128
-0.977682, 125, 65, 156, 192
-0.977683, 209, 249, 240, 312
-0.977687, 241, 49, 304, 112
-0.977719, 137, 105, 168, 168
-0.977781, 273, 113, 400, 176
-0.977842, 269, 145, 300, 272
-0.977912, 81, 169, 208, 232
-0.97798, 209, 97, 240, 224
-0.978, 105, 49, 168, 112
-0.978004, 145, 241, 272, 304
-0.978054, 333, 121, 364, 184
-0.978083, 41, 121, 72, 184
-0.978094, 41, 65, 104, 320
-0.978112, 169, 33, 232, 288
-0.978128, 169, 89, 200, 152
-0.978172, 161, 57, 288, 120
-0.978207, 257, 17, 320, 144
-0.978277, 277, 73, 308, 136
-0.978331, 245, 241, 276, 304
-0.978481, 269, 193, 300, 320
-0.978511, 261, 73, 292, 136
-0.978513, 245, 49, 276, 176
-0.978562, 225, 49, 256, 176
-0.978599, 285, 137, 316, 200
-0.978611, 297, 81, 328, 208
-0.97866, 369, 169, 400, 232
-0.978669, 145, 49, 176, 176
-0.978725, 57, 113, 88, 240
-0.978746, 185, 201, 216, 264
-0.978767, 257, 273, 288, 333
-0.978787, 281, 209, 312, 272
-0.978807, 361, 209, 392, 272
-0.978824, 281, 257, 312, 320
-0.978872, 361, 137, 424, 200
-0.978905, 209, 49, 240, 176
-0.978913, 113, 201, 176, 264
-0.978926, 377, 273, 408, 333
-0.978961, 289, 177, 320, 240
-0.978991, 133, 177, 164, 240
-0.978999, 185, 65, 216, 128
-0.979002, 221, 97, 252, 224
-0.979023, 165, 209, 196, 333
-0.979038, 225, 185, 352, 248
-0.979075, 385, 177, 416, 240
-0.979195, 301, 201, 332, 264
-0.979199, 253, 145, 284, 272
-0.979203, 221, 193, 252, 256
-0.979389, 69, 81, 100, 208
-0.979419, 289, 81, 352, 144
-0.979468, 129, 1, 256, 128
-0.979581, 321, 185, 448, 248
-0.979623, 305, 209, 432, 272
-0.979645, 189, 265, 220, 328
-0.97965, 129, 41, 192, 104
-0.979793, 17, 105, 80, 168
-0.979848, 185, 41, 248, 104
-0.979854, 257, 153, 320, 216
-0.98004, 233, 241, 264, 304
-0.980067, 357, 169, 388, 232
-0.980093, 309, 97, 340, 160
-0.980102, 33, 169, 160, 232
-0.980124, 285, 65, 316, 192
-0.980179, 57, 97, 88, 160
-0.980259, 125, 145, 156, 272
-0.980301, 257, 249, 288, 312
-0.980341, 337, 169, 368, 232
-0.98037, 181, 177, 212, 240
-0.980418, 305, 161, 432, 224
-0.980475, 97, 145, 128, 272
-0.980522, 317, 161, 348, 224
-0.980574, 121, 65, 184, 320
-0.980584, 381, 177, 412, 304
-0.980637, 249, 89, 280, 152
-0.980666, 161, 273, 224, 333
-0.980678, 369, 177, 496, 304
-0.980746, 269, 65, 300, 192
-0.980747, 97, 193, 160, 320
-0.980749, 97, 1, 352, 128
-0.980774, 401, 177, 432, 304
-0.980808, 17, 161, 80, 224
-0.98082, 73, 137, 104, 200
-0.980822, 193, 177, 224, 240
-0.980825, 173, 49, 204, 176
-0.980847, 289, 73, 320, 136
-0.980861, 293, 273, 324, 333
-0.980913, 313, 137, 344, 200
-0.980943, 145, 265, 272, 328
-0.981078, 17, 161, 80, 288
-0.981393, 81, 201, 208, 264
-0.981421, 321, 105, 352, 168
-0.981479, 317, 97, 348, 224
-0.981483, 157, 121, 188, 184
-0.981558, 185, 65, 216, 192
-0.981689, 81, 145, 112, 272
-0.981744, 41, 97, 72, 160
-0.981854, 45, 97, 76, 224
-0.981899, 221, 265, 252, 328
-0.981906, 101, 153, 132, 216
-0.981914, 157, 49, 188, 176
-0.981943, 357, 193, 388, 320
-0.982038, 69, 81, 100, 144
-0.982101, 197, 177, 228, 304
-0.982128, 173, 97, 204, 224
-0.982136, 193, 137, 320, 200
-0.98217, 321, 233, 448, 296
-0.98237, 377, 249, 408, 312
-0.982389, 201, 97, 232, 160
-0.982414, 313, 105, 376, 168
-0.982426, 245, 169, 276, 232
-0.982532, 145, 1, 208, 333
-0.982555, 25, 65, 88, 192
-0.98262, 385, 209, 448, 272
-0.982625, 89, 97, 152, 160
-0.982631, 321, 209, 352, 333
-0.982636, 201, 273, 232, 333
-0.982667, 185, 145, 216, 272
-0.982729, 121, 81, 152, 144
-0.982733, 309, 177, 340, 304
-0.982737, 277, 185, 308, 248
-0.982892, 129, 121, 256, 184
-0.982981, 81, 49, 144, 112
-0.983182, 117, 161, 148, 224
-0.983206, 337, 209, 368, 333
-0.983223, 241, 273, 368, 333
-0.983346, 197, 57, 228, 120
-0.983356, 365, 273, 396, 333
-0.983364, 305, 273, 336, 333
-0.98339, 393, 265, 424, 328
-0.983537, 137, 257, 200, 320
-0.983541, 385, 185, 448, 248
-0.983543, 53, 153, 84, 216
-0.983548, 257, 225, 288, 288
-0.98371, 93, 97, 124, 224
-0.983729, 69, 129, 100, 256
-0.983764, 153, 49, 184, 112
-0.983764, 69, 113, 100, 176
-0.983802, 157, 193, 188, 256
-0.983808, 113, 145, 144, 272
-0.983831, 137, 153, 168, 216
-0.983872, 269, 233, 300, 296
-0.983897, 285, 113, 316, 176
-0.983915, 245, 217, 276, 280
-0.983915, 297, 129, 328, 256
-0.983947, 273, 233, 336, 296
-0.983966, 337, 65, 400, 320
-0.984031, 397, 177, 428, 240
-0.984055, 189, 113, 220, 176
-0.984059, 337, 161, 368, 288
-0.984093, 33, 193, 160, 320
-0.984129, 281, 145, 312, 272
-0.984222, 229, 97, 260, 160
-0.984355, 197, 241, 228, 304
-0.984426, 109, 65, 140, 128
-0.984435, 337, 273, 464, 333
-0.984592, 361, 129, 392, 256
-0.984656, 41, 145, 72, 208
-0.984729, 1, 113, 64, 240
-0.984813, 213, 97, 244, 160
-0.984815, 281, 33, 344, 160
-0.984889, 297, 129, 328, 192
-0.984917, 269, 105, 300, 168
-0.984981, 177, 265, 208, 328
-0.985129, 113, 97, 144, 224
-0.985237, 137, 225, 200, 288
-0.985405, 261, 177, 292, 240
-0.985488, 81, 169, 112, 232
-0.985532, 161, 161, 192, 224
-0.985536, 169, 121, 200, 184
-0.985724, 233, 217, 264, 280
-0.985774, 297, 97, 328, 160
-0.985828, 145, 177, 176, 240
-0.985858, 177, 1, 240, 333
-0.985892, 17, 73, 144, 136
-0.985903, 137, 161, 168, 288
-0.985943, 69, 161, 100, 224
-0.986086, 97, 265, 224, 328
-0.986144, 93, 177, 124, 240
-0.986169, 337, 137, 464, 200
-0.986296, 337, 233, 368, 296
-0.986323, 33, 49, 96, 112
-0.986326, 197, 113, 228, 240
-0.986326, 97, 65, 128, 128
-0.986397, 41, 177, 104, 304
-0.986443, 1, 121, 128, 184
-0.986691, 177, 1, 240, 128
-0.986713, 225, 1, 480, 128
-0.986728, 33, 185, 96, 248
-0.986808, 273, 81, 400, 144
-0.986891, 345, 81, 408, 208
-0.986966, 233, 145, 296, 208
-0.987077, 321, 1, 384, 333
-0.987097, 281, 1, 344, 333
-0.987113, 397, 233, 428, 296
-0.987226, 89, 201, 152, 264
-0.987257, 201, 153, 232, 216
-0.987276, 373, 129, 404, 256
-0.987399, 369, 137, 400, 200
-0.987414, 121, 185, 152, 248
-0.987464, 401, 265, 464, 328
-0.987467, 353, 161, 480, 224
-0.987589, 233, 1, 296, 333
-0.987604, 321, 273, 352, 333
-0.987611, 113, 41, 240, 104
-0.987701, 49, 17, 112, 144
-0.987904, 97, 233, 224, 296
-0.987939, 185, 225, 216, 288
-0.988001, 17, 81, 80, 144
-0.988008, 129, 113, 384, 176
-0.988041, 241, 145, 272, 272
-0.988058, 113, 17, 176, 144
-0.988122, 201, 1, 264, 333
-0.988135, 57, 201, 120, 264
-0.988155, 153, 41, 216, 104
-0.988177, 233, 49, 264, 112
-0.988193, 361, 65, 424, 320
-0.988304, 193, 181, 256, 212
-0.988359, 161, 169, 416, 232
-0.988401, 233, 205, 296, 236
-0.988418, 121, 57, 152, 120
-0.988428, 161, 161, 192, 288
-0.988468, 169, 185, 200, 248
-0.988561, 57, 49, 120, 112
-0.988563, 321, 161, 352, 288
-0.9886, 65, 49, 192, 112
-0.988609, 105, 177, 136, 240
-0.988612, 197, 209, 228, 272
-0.988667, 357, 233, 388, 296
-0.988685, 73, 77, 136, 108
-0.98869, 409, 193, 440, 256
-0.988692, 413, 193, 444, 320
-0.988697, 249, 77, 312, 108
-0.988698, 277, 161, 308, 224
-0.988729, 397, 209, 428, 272
-0.988761, 293, 249, 324, 312
-0.988802, 217, 85, 280, 116
-0.988808, 33, 193, 160, 256
-0.988827, 129, 77, 192, 108
-0.988891, 81, 65, 112, 128
-0.988939, 129, 89, 384, 152
-0.988992, 201, 193, 264, 224
-0.989022, 17, 33, 80, 288
-0.989023, 97, 1, 160, 333
-0.989047, 217, 173, 280, 204
-0.989079, 225, 241, 480, 304
-0.989125, 305, 201, 368, 232
-0.989307, 185, 249, 248, 280
-0.989316, 193, 89, 256, 120
-0.989319, 121, 185, 184, 216
-0.989337, 281, 205, 344, 236
-0.989341, 329, 205, 392, 236
-0.989357, 169, 73, 232, 104
-0.989387, 353, 209, 480, 272
-0.989402, 289, 33, 416, 160
-0.989432, 145, 165, 208, 196
-0.989433, 385, 129, 416, 256
-0.989435, 173, 145, 204, 272
-0.989467, 161, 89, 224, 120
-0.989467, 145, 137, 208, 168
-0.989473, 233, 225, 296, 256
-0.989492, 273, 157, 336, 188
-0.989499, 33, 97, 64, 224
-0.989514, 97, 65, 352, 128
-0.989515, 281, 101, 344, 132
-0.989528, 225, 253, 288, 284
-0.989534, 385, 129, 448, 256
-0.989551, 273, 169, 336, 200
-0.989561, 177, 169, 240, 200
-0.98959, 297, 117, 360, 148
-0.98963, 361, 217, 424, 248
-0.989642, 209, 213, 272, 244
-0.989648, 281, 141, 344, 172
-0.989655, 225, 109, 288, 140
-0.989663, 137, 109, 200, 140
-0.989664, 97, 169, 160, 200
-0.989672, 137, 89, 200, 120
-0.989709, 161, 181, 224, 212
-0.989713, 209, 69, 272, 100
-0.98972, 105, 157, 168, 188
-0.989749, 321, 113, 448, 176
-0.98981, 345, 105, 408, 168
-0.989851, 369, 185, 432, 216
-0.989912, 153, 197, 216, 228
-0.989917, 249, 165, 312, 196
-0.989975, 193, 261, 256, 292
-0.989997, 185, 101, 248, 132
-0.989998, 361, 169, 424, 200
-0.990014, 201, 237, 264, 268
-0.990018, 193, 225, 256, 256
-0.990028, 257, 237, 320, 268
-0.990028, 233, 241, 296, 272
-0.990034, 225, 193, 480, 256
-0.99004, 257, 213, 320, 244
-0.990043, 65, 145, 320, 208
-0.99005, 257, 285, 320, 316
-0.990051, 361, 197, 424, 228
-0.99007, 313, 129, 376, 160
-0.99008, 41, 133, 104, 164
-0.990089, 97, 73, 160, 104
-0.990111, 121, 1, 184, 333
-0.990113, 37, 145, 68, 272
-0.990129, 1, 65, 64, 192
-0.990142, 177, 197, 240, 228
-0.990148, 289, 281, 352, 312
-0.99017, 345, 233, 408, 264
-0.99019, 145, 125, 208, 156
-0.990199, 337, 277, 400, 308
-0.990208, 329, 169, 392, 200
-0.990229, 321, 157, 384, 188
-0.990246, 329, 185, 392, 216
-0.990283, 1, 49, 128, 112
-0.990286, 41, 161, 104, 192
-0.990299, 369, 249, 496, 312
-0.990322, 233, 281, 296, 312
-0.99033, 33, 121, 96, 152
-0.990332, 241, 97, 304, 128
-0.990339, 145, 153, 208, 184
-0.990347, 265, 57, 328, 120
-0.990347, 161, 101, 224, 132
-0.990349, 121, 65, 184, 96
-0.990352, 265, 117, 328, 148
-0.990354, 129, 197, 192, 228
-0.990383, 185, 117, 248, 148
-0.990386, 265, 89, 328, 120
-0.990392, 217, 265, 280, 296
-0.99043, 161, 137, 416, 200
-0.990442, 329, 141, 392, 172
-0.990445, 65, 145, 128, 176
-0.990454, 177, 209, 240, 240
-0.990473, 33, 149, 96, 180
-0.990487, 257, 1, 320, 333
-0.990502, 97, 85, 160, 116
-0.990604, 161, 61, 224, 92
-0.990611, 177, 281, 240, 312
-0.990696, 361, 277, 424, 308
-0.990703, 41, 109, 104, 140
-0.990707, 81, 185, 144, 216
-0.990784, 57, 89, 120, 120
-0.990796, 129, 217, 384, 280
-0.990813, 257, 193, 320, 224
-0.990815, 169, 269, 232, 300
-0.990822, 25, 17, 88, 144
-0.990831, 1, 89, 256, 152
-0.990849, 241, 65, 304, 96
-0.990849, 249, 153, 312, 184
-0.990864, 297, 161, 360, 192
-0.990878, 313, 281, 376, 312
-0.99088, 321, 221, 384, 252
-0.990888, 149, 177, 180, 304
-0.990931, 125, 17, 156, 144
-0.990985, 177, 157, 240, 188
-0.991026, 273, 77, 336, 108
-0.991042, 209, 289, 272, 320
-0.991045, 305, 237, 368, 268
-0.991095, 225, 193, 288, 224
-0.991107, 257, 257, 320, 288
-0.991121, 121, 141, 184, 172
-0.991124, 73, 169, 136, 200
-0.991134, 57, 161, 88, 288
-0.991149, 121, 173, 184, 204
-0.99118, 73, 157, 136, 188
-0.9912, 225, 161, 288, 192
-0.991203, 169, 225, 232, 256
-0.991206, 113, 105, 176, 136
-0.991226, 385, 265, 448, 296
-0.991244, 1, 137, 500, 200
-0.991273, 241, 177, 304, 208
-0.991274, 281, 233, 344, 264
-0.991283, 309, 49, 340, 176
-0.99129, 161, 245, 224, 276
-0.99133, 161, 257, 224, 288
-0.991333, 153, 209, 216, 240
-0.991359, 241, 297, 304, 328
-0.991366, 209, 49, 336, 112
-0.991427, 297, 189, 360, 220
-0.991476, 217, 97, 280, 128
-0.991491, 269, 17, 300, 144
-0.991517, 33, 73, 96, 104
-0.991541, 265, 297, 328, 328
-0.991542, 65, 185, 320, 248
-0.991545, 161, 113, 224, 144
-0.991556, 305, 141, 368, 172
-0.991567, 1, 113, 256, 176
-0.991604, 397, 129, 428, 256
-0.991606, 177, 301, 240, 332
-0.991624, 49, 173, 112, 204
-0.991647, 249, 269, 312, 300
-0.991687, 161, 273, 416, 333
-0.991705, 333, 65, 364, 192
-0.991749, 241, 125, 304, 156
-0.991763, 305, 293, 368, 324
-0.991765, 57, 121, 120, 152
-0.991797, 369, 229, 432, 260
-0.991833, 281, 217, 344, 248
-0.991837, 89, 129, 152, 192
-0.991847, 345, 1, 408, 333
-0.991852, 273, 129, 336, 160
-0.991873, 201, 301, 264, 332
-0.991934, 73, 65, 136, 96
-0.991944, 17, 133, 80, 164
-0.99196, 385, 213, 448, 244
-0.991983, 33, 93, 96, 124
-0.992004, 153, 289, 216, 320
-0.992078, 41, 1, 104, 333
-0.992095, 149, 101, 180, 132
-0.992181, 225, 85, 256, 116
-0.992189, 205, 85, 236, 116
-0.992193, 237, 81, 268, 112
-0.992195, 369, 185, 496, 248
-0.992202, 117, 161, 148, 192
-0.992237, 225, 181, 256, 212
-0.992243, 209, 137, 272, 200
-0.992271, 117, 173, 148, 204
-0.992279, 281, 169, 312, 200
-0.992279, 257, 205, 288, 236
-0.99231, 285, 205, 316, 236
-0.992313, 313, 201, 344, 232
-0.992315, 1, 105, 500, 168
-0.992315, 377, 177, 408, 208
-0.992326, 141, 85, 172, 116
-0.992341, 133, 73, 164, 104
-0.992353, 229, 193, 260, 224
-0.992392, 245, 201, 276, 232
-0.992406, 297, 169, 328, 200
-0.992409, 121, 73, 152, 104
-0.992412, 1, 161, 500, 224
-0.992422, 217, 169, 248, 200
-0.992441, 221, 225, 252, 256
-0.992457, 157, 73, 188, 104
-0.99247, 233, 213, 264, 244
-0.992475, 281, 157, 312, 188
-0.992476, 137, 185, 168, 216
-0.992514, 73, 85, 104, 116
-0.992524, 137, 173, 168, 204
-0.992538, 205, 181, 236, 212
-0.992542, 209, 97, 240, 128
-0.992546, 301, 205, 332, 236
-0.992547, 209, 245, 240, 276
-0.992548, 49, 149, 80, 180
-0.992549, 289, 57, 352, 120
-0.992551, 209, 81, 336, 112
-0.992553, 249, 89, 280, 120
-0.992554, 109, 69, 140, 100
-0.992559, 369, 189, 400, 220
-0.992559, 349, 205, 380, 236
-0.99256, 153, 113, 184, 144
-0.992574, 389, 177, 420, 208
-0.992582, 257, 221, 288, 252
-0.992587, 337, 201, 368, 232
-0.99259, 277, 77, 308, 108
-0.992591, 305, 97, 336, 128
-0.992595, 253, 69, 284, 100
-0.992598, 273, 209, 304, 240
-0.992605, 193, 73, 224, 104
-0.992605, 105, 169, 136, 200
-0.99263, 325, 201, 356, 232
-0.992635, 173, 93, 204, 124
-0.992638, 169, 69, 200, 100
-0.992642, 193, 177, 224, 208
-0.992643, 61, 129, 92, 160
-0.992644, 321, 113, 352, 144
-0.992645, 249, 233, 280, 264
-0.992649, 369, 217, 400, 248
-0.99265, 149, 161, 180, 192
-0.992675, 205, 69, 236, 100
-0.992678, 241, 169, 272, 200
-0.992679, 181, 169, 212, 200
-0.992682, 289, 137, 320, 168
-0.992683, 153, 85, 184, 116
-0.992684, 357, 189, 388, 220
-0.992684, 173, 193, 204, 224
-0.992685, 257, 281, 288, 312
-0.992686, 401, 177, 432, 208
-0.992686, 269, 165, 300, 196
-0.992689, 189, 101, 220, 132
-0.992697, 57, 117, 88, 148
-0.992701, 93, 73, 124, 104
-0.992706, 253, 245, 284, 276
-0.992713, 293, 81, 324, 112
-0.992715, 353, 153, 384, 184
-0.992724, 365, 201, 396, 232
-0.992727, 105, 49, 136, 176
-0.992728, 145, 149, 176, 180
-0.99273, 281, 241, 312, 272
-0.992739, 233, 105, 264, 136
-0.992739, 221, 213, 252, 244
-0.99274, 305, 157, 336, 188
-0.99274, 185, 197, 216, 228
-0.992745, 317, 157, 348, 188
-0.992749, 257, 161, 288, 192
-0.99276, 369, 165, 400, 196
-0.992762, 181, 69, 212, 100
-0.992765, 225, 261, 256, 292
-0.992769, 153, 129, 184, 160
-0.99277, 245, 213, 276, 244
-0.992774, 265, 73, 296, 104
-0.992774, 157, 197, 188, 228
-0.99278, 181, 213, 212, 244
-0.99279, 45, 137, 76, 168
-0.992791, 137, 109, 168, 140
-0.992792, 333, 153, 364, 184
-0.992792, 209, 233, 240, 264
-0.992794, 321, 281, 352, 312
-0.992796, 317, 101, 348, 132
-0.992797, 357, 277, 388, 308
-0.992802, 57, 93, 88, 124
-0.992803, 229, 169, 260, 200
-0.992809, 145, 65, 176, 96
-0.99281, 221, 249, 252, 280
-0.992814, 293, 157, 324, 188
-0.992817, 81, 73, 112, 104
-0.99282, 365, 177, 396, 208
-0.99282, 73, 137, 104, 168
-0.992827, 161, 173, 192, 204
-0.992827, 169, 105, 200, 136
-0.992828, 141, 125, 172, 156
-0.992837, 317, 145, 348, 176
-0.992838, 189, 113, 220, 144
-0.992844, 237, 233, 268, 264
-0.992849, 41, 125, 72, 156
-0.992854, 273, 149, 400, 180
-0.992859, 297, 281, 328, 312
-0.99286, 349, 165, 380, 196
-0.992861, 193, 85, 224, 116
-0.992862, 105, 233, 168, 296
-0.992862, 317, 173, 348, 204
-0.992863, 337, 165, 368, 196
-0.992865, 185, 281, 216, 312
-0.992867, 269, 149, 300, 180
-0.992868, 265, 233, 296, 264
-0.992871, 253, 269, 284, 300
-0.992871, 177, 81, 208, 112
-0.992871, 269, 253, 300, 284
-0.992875, 357, 229, 388, 260
-0.992877, 41, 109, 72, 140
-0.992884, 1, 201, 500, 264
-0.992886, 201, 165, 232, 196
-0.992891, 209, 205, 240, 236
-0.992901, 261, 101, 292, 132
-0.992903, 157, 145, 188, 176
-0.992909, 89, 181, 120, 212
-0.99291, 397, 261, 428, 292
-0.992913, 269, 281, 300, 312
-0.992916, 381, 193, 412, 224
-0.992942, 193, 169, 320, 200
-0.992985, 161, 33, 288, 96
-0.993004, 129, 85, 256, 116
-0.993103, 257, 273, 500, 333
-0.993104, 177, 197, 304, 228
-0.993157, 321, 89, 448, 152
-0.993174, 129, 249, 384, 312
-0.99327, 257, 137, 384, 168
-0.993323, 9, 57, 72, 120
-0.993332, 257, 17, 288, 144
-0.993344, 273, 161, 400, 192
-0.993357, 241, 205, 368, 236
-0.993369, 257, 137, 500, 200
-0.993375, 225, 217, 480, 280
-0.993388, 345, 81, 376, 208
-0.993413, 369, 1, 432, 333
-0.993414, 1, 73, 500, 136
-0.993425, 97, 161, 224, 192
-0.993447, 125, 193, 156, 320
-0.993464, 113, 73, 240, 104
-0.993485, 145, 185, 272, 216
-0.993502, 65, 273, 320, 333
-0.993583, 65, 77, 192, 108
-0.993603, 185, 17, 216, 144
-0.993633, 363, 201, 378, 264
-0.993657, 17, 217, 144, 280
-0.993676, 193, 69, 320, 100
-0.993715, 273, 57, 400, 120
-0.993749, 147, 73, 162, 136
-0.993781, 193, 209, 320, 240
-0.993807, 1, 65, 256, 128
-0.993847, 177, 281, 304, 312
-0.993857, 409, 209, 472, 333
-0.993892, 57, 49, 88, 176
-0.993895, 177, 225, 304, 256
-0.993908, 57, 225, 120, 288
-0.993962, 417, 241, 480, 304
-0.994012, 245, 65, 260, 128
-0.994037, 209, 93, 336, 124
-0.994069, 349, 201, 364, 264
-0.994091, 129, 173, 256, 204
-0.994102, 209, 241, 336, 272
-0.994109, 59, 121, 74, 184
-0.994149, 257, 161, 500, 224
-0.994183, 81, 225, 144, 288
-0.994205, 17, 153, 144, 184
-0.994249, 129, 97, 256, 128
-0.994252, 343, 201, 358, 264
-0.994264, 159, 65, 174, 128
-0.994297, 273, 173, 400, 204
-0.994338, 217, 185, 232, 248
-0.994362, 33, 209, 288, 272
-0.994408, 225, 181, 352, 212
-0.994424, 279, 257, 294, 320
-0.994435, 261, 201, 276, 264
-0.994456, 293, 73, 308, 136
-0.994468, 277, 217, 292, 280
-0.994483, 221, 225, 236, 288
-0.994514, 17, 1, 80, 333
-0.994522, 373, 177, 388, 240
-0.994526, 289, 197, 416, 228
-0.994531, 373, 201, 388, 264
-0.994541, 17, 97, 144, 160
-0.994602, 167, 73, 182, 136
-0.994606, 273, 257, 288, 320
-0.994625, 237, 65, 252, 128
-0.994628, 65, 1, 128, 333
-0.994632, 229, 233, 244, 296
-0.994637, 241, 113, 368, 144
-0.994644, 271, 209, 286, 272
-0.994736, 329, 201, 344, 264
-0.994742, 205, 73, 220, 136
-0.994744, 159, 161, 174, 224
-0.994754, 1, 241, 500, 304
-0.994754, 231, 73, 246, 136
-0.994782, 315, 169, 330, 232
-0.994789, 195, 65, 210, 128
-0.994803, 285, 257, 300, 320
-0.994813, 257, 281, 384, 312
-0.99482, 241, 273, 256, 333
-0.99483, 379, 185, 394, 248
-0.994833, 101, 193, 132, 320
-0.99487, 237, 241, 252, 304
-0.994873, 33, 165, 160, 196
-0.99488, 385, 161, 448, 224
-0.994905, 283, 209, 298, 272
-0.994909, 257, 237, 384, 268
-0.994924, 337, 201, 352, 264
-0.994925, 211, 73, 226, 136
-0.994926, 299, 185, 314, 248
-0.994934, 383, 273, 398, 333
-0.994938, 297, 33, 328, 160
-0.994944, 249, 177, 264, 240
-0.994967, 155, 113, 170, 176
-0.994976, 329, 81, 392, 144
-0.994977, 305, 161, 320, 224
-0.99498, 195, 177, 210, 240
-0.994987, 145, 177, 160, 240
-0.994997, 225, 73, 480, 136
-0.995021, 295, 273, 310, 333
-0.99503, 225, 73, 240, 136
-0.995034, 263, 265, 278, 328
-0.995046, 235, 265, 250, 328
-0.995066, 137, 73, 152, 136
-0.995073, 255, 185, 270, 248
-0.99509, 97, 149, 224, 180
-0.995094, 329, 105, 344, 168
-0.995104, 53, 137, 68, 200
-0.995111, 179, 65, 194, 128
-0.995123, 225, 193, 240, 256
-0.99513, 291, 217, 306, 280
-0.995133, 251, 65, 266, 128
-0.995137, 317, 97, 332, 160
-0.99514, 145, 161, 272, 192
-0.995182, 173, 73, 188, 136
-0.995189, 81, 177, 208, 208
-0.995196, 321, 201, 336, 264
-0.995208, 225, 265, 240, 328
-0.995224, 163, 97, 178, 160
-0.995251, 145, 213, 272, 244
-0.995259, 257, 65, 272, 128
-0.995265, 357, 209, 372, 272
-0.995272, 55, 97, 70, 160
-0.995274, 49, 89, 176, 120
-0.995289, 211, 225, 226, 288
-0.995292, 161, 261, 288, 292
-0.995297, 153, 89, 168, 152
-0.995301, 263, 225, 278, 288
-0.995301, 33, 233, 288, 296
-0.995307, 101, 145, 116, 208
-0.995318, 303, 273, 318, 333
-0.995327, 337, 193, 464, 224
-0.995336, 49, 249, 176, 312
-0.995349, 367, 177, 382, 240
-0.995354, 257, 125, 384, 156
-0.995357, 175, 209, 190, 272
-0.995357, 73, 249, 136, 312
-0.995376, 359, 137, 374, 200
-0.995382, 273, 185, 400, 216
-0.995396, 243, 193, 258, 256
-0.995397, 281, 17, 312, 144
-0.995401, 217, 97, 232, 160
-0.995409, 265, 73, 280, 136
-0.995415, 185, 65, 200, 128
-0.995419, 189, 273, 204, 333
-0.995426, 305, 201, 320, 264
-0.995429, 193, 157, 320, 188
-0.99544, 287, 137, 302, 200
-0.995442, 253, 273, 268, 333
-0.995457, 277, 33, 308, 288
-0.995459, 305, 277, 432, 308
-0.995461, 97, 197, 224, 228
-0.995473, 131, 73, 146, 136
-0.995476, 155, 137, 170, 200
-0.995495, 297, 65, 328, 320
-0.995505, 203, 177, 218, 240
-0.995528, 97, 137, 224, 168
-0.995529, 185, 193, 200, 256
-0.995534, 161, 137, 176, 200
-0.995539, 251, 89, 266, 152
-0.99555, 241, 217, 368, 248
-0.995557, 211, 249, 226, 312
-0.995558, 389, 273, 404, 333
-0.995561, 113, 257, 176, 320
-0.995562, 309, 273, 324, 333
-0.995577, 287, 73, 302, 136
-0.995615, 49, 25, 176, 88
-0.995625, 17, 141, 144, 172
-0.995626, 219, 73, 234, 136
-0.995639, 323, 97, 338, 160
-0.995646, 247, 273, 262, 333
-0.995649, 217, 33, 280, 96
-0.995651, 179, 185, 194, 248
-0.995668, 391, 249, 406, 312
-0.995681, 325, 169, 340, 232
-0.995682, 81, 105, 208, 136
-0.99569, 145, 241, 272, 272
-0.99569, 337, 113, 352, 176
-0.995704, 257, 241, 272, 304
-0.995716, 351, 129, 366, 192
-0.995717, 351, 169, 366, 232
-0.995734, 81, 121, 208, 152
-0.995742, 377, 273, 392, 333
-0.995755, 161, 117, 288, 148
-0.99576, 243, 241, 258, 304
-0.99576, 219, 265, 234, 328
-0.995769, 195, 89, 210, 152
-0.995769, 277, 185, 292, 248
-0.995773, 373, 153, 388, 216
-0.995781, 145, 1, 176, 128
-0.995799, 243, 89, 258, 152
-0.995816, 417, 145, 448, 272
-0.995831, 235, 209, 250, 272
-0.995848, 257, 101, 384, 132
-0.995851, 195, 265, 210, 328
-0.995855, 293, 113, 308, 176
-0.99586, 129, 225, 256, 256
-0.995863, 315, 201, 330, 264
-0.995891, 211, 201, 226, 264
-0.995896, 271, 233, 286, 296
-0.995898, 383, 249, 398, 312
-0.995906, 63, 145, 78, 208
-0.995924, 387, 177, 402, 240
-0.995926, 205, 241, 220, 304
-0.995936, 343, 121, 358, 184
-0.995953, 83, 137, 98, 200
-0.995955, 257, 89, 272, 152
-0.995967, 331, 161, 346, 224
-0.995967, 315, 137, 330, 200
-0.995981, 293, 177, 308, 240
-0.995988, 149, 145, 164, 208
-0.995993, 65, 113, 80, 176
-0.995996, 287, 113, 302, 176
-0.996006, 281, 73, 296, 136
-0.996008, 257, 105, 500, 168
-0.996011, 49, 113, 64, 176
-0.996026, 143, 105, 158, 168
-0.996026, 299, 137, 314, 200
-0.996026, 315, 273, 330, 333
-0.996029, 305, 137, 432, 168
-0.996033, 225, 193, 352, 224
-0.996042, 345, 225, 360, 288
-0.996084, 93, 145, 108, 208
-0.996086, 317, 65, 348, 320
-0.996096, 251, 209, 266, 272
-0.996098, 97, 209, 224, 240
-0.996153, 85, 49, 116, 176
-0.996187, 197, 1, 228, 128
-0.996215, 241, 1, 272, 128
-0.99623, 225, 297, 352, 328
-0.996263, 177, 105, 304, 136
-0.996281, 33, 101, 160, 132
-0.996288, 265, 65, 296, 320
-0.996292, 289, 209, 416, 240
-0.99632, 289, 293, 416, 324
-0.996345, 321, 181, 448, 212
-0.996346, 209, 253, 336, 284
-0.99636, 33, 177, 160, 208
-0.996381, 85, 193, 116, 320
-0.996413, 137, 209, 168, 333
-0.996435, 33, 41, 288, 104
-0.996448, 357, 81, 388, 208
-0.996451, 97, 61, 224, 92
-0.996461, 33, 209, 96, 272
-0.996487, 145, 61, 272, 92
-0.996489, 9, 185, 72, 248
-0.996547, 321, 169, 448, 200
-0.996552, 173, 1, 204, 128
-0.996569, 177, 293, 304, 324
-0.996572, 409, 201, 472, 264
-0.996593, 409, 169, 472, 232
-0.996627, 385, 65, 448, 320
-0.996678, 137, 33, 168, 288
-0.996701, 177, 129, 304, 160
-0.996716, 157, 33, 188, 288
-0.996743, 409, 145, 472, 272
-0.996749, 229, 85, 244, 116
-0.996763, 145, 145, 272, 176
-0.996779, 1, 265, 500, 328
-0.996817, 221, 1, 252, 128
-0.996819, 253, 33, 284, 288
-0.996821, 321, 229, 448, 260
-0.996822, 45, 49, 76, 176
-0.996863, 193, 141, 320, 172
-0.996925, 329, 65, 360, 320
-0.996965, 17, 73, 144, 104
-0.99698, 159, 101, 174, 132
-0.996995, 305, 125, 432, 156
-0.997, 337, 205, 464, 236
-0.997003, 101, 33, 132, 288
-0.99701, 353, 277, 480, 308
-0.99703, 337, 157, 464, 188
-0.997033, 283, 169, 298, 200
-0.997033, 367, 201, 382, 232
-0.997038, 129, 273, 256, 304
-0.997039, 241, 269, 368, 300
-0.997056, 253, 197, 268, 228
-0.997077, 151, 105, 166, 136
-0.997086, 247, 193, 262, 224
-0.997096, 289, 165, 304, 196
-0.997138, 261, 201, 276, 232
-0.99714, 227, 169, 242, 200
-0.997147, 185, 65, 216, 320
-0.997173, 317, 201, 332, 232
-0.997174, 329, 205, 344, 236
-0.997178, 113, 193, 144, 320
-0.997203, 237, 33, 268, 288
-0.997208, 323, 201, 338, 232
-0.997219, 323, 101, 338, 132
-0.997225, 113, 257, 240, 288
-0.997274, 205, 85, 220, 116
-0.997274, 305, 205, 320, 236
-0.99728, 273, 249, 400, 280
-0.997282, 129, 161, 144, 192
-0.997285, 159, 141, 174, 172
-0.997294, 267, 205, 282, 236
-0.997297, 221, 33, 252, 288
-0.997311, 1, 129, 128, 160
-0.997317, 295, 169, 310, 200
-0.997322, 321, 33, 352, 160
-0.997337, 235, 85, 250, 116
-0.997347, 277, 213, 292, 244
-0.997383, 329, 109, 344, 140
-0.997387, 221, 85, 236, 116
-0.997393, 241, 193, 256, 224
-0.997398, 341, 65, 372, 320
-0.997406, 105, 1, 136, 128
-0.997418, 111, 165, 126, 196
-0.997422, 157, 85, 172, 116
-0.997423, 331, 149, 346, 180
-0.997423, 287, 201, 302, 232
-0.997426, 197, 33, 228, 288
-0.997428, 305, 101, 432, 132
-0.997435, 321, 265, 448, 296
-0.99744, 33, 113, 160, 144
-0.997448, 229, 261, 244, 292
-0.997457, 373, 189, 388, 220
-0.997461, 135, 73, 150, 104
-0.997468, 219, 249, 234, 280
-0.997468, 241, 85, 256, 116
-0.997469, 371, 221, 386, 252
-0.997472, 123, 73, 138, 104
-0.997476, 343, 201, 358, 232
-0.997478, 257, 85, 384, 116
-0.997479, 249, 81, 264, 112
-0.997486, 233, 213, 248, 244
-0.997495, 281, 153, 296, 184
-0.997499, 119, 161, 134, 192
-0.997501, 145, 85, 160, 116
-0.997504, 243, 173, 258, 204
-0.997506, 77, 33, 108, 288
-0.99751, 129, 289, 256, 320
-0.997525, 351, 201, 366, 232
-0.997526, 389, 177, 404, 208
-0.997528, 293, 205, 308, 236
-0.997549, 245, 213, 260, 244
-0.99755, 141, 173, 156, 204
-0.997557, 299, 201, 314, 232
-0.997591, 297, 157, 312, 188
-0.997607, 129, 301, 256, 332
-0.997611, 193, 49, 448, 112
-0.997611, 233, 169, 248, 200
-0.997613, 291, 137, 306, 168
-0.997618, 59, 141, 74, 172
-0.997626, 315, 93, 330, 124
-0.997626, 49, 149, 64, 180
-0.997627, 311, 197, 326, 228
-0.997631, 337, 289, 464, 320
-0.997635, 109, 153, 124, 184
-0.997636, 231, 181, 246, 212
-0.997638, 307, 165, 322, 196
-0.997639, 301, 169, 316, 200
-0.997648, 227, 249, 242, 280
-0.99765, 337, 201, 352, 232
-0.997655, 167, 77, 182, 108
-0.997656, 177, 89, 192, 120
-0.997663, 305, 85, 320, 116
-0.997668, 329, 161, 344, 192
-0.99767, 293, 77, 308, 108
-0.997677, 131, 177, 146, 208
-0.997678, 153, 121, 168, 152
-0.997694, 219, 181, 234, 212
-0.997698, 117, 33, 148, 288
-0.997699, 55, 105, 70, 136
-0.997706, 207, 73, 222, 104
-0.997711, 173, 101, 188, 132
-0.997713, 261, 265, 276, 296
-0.997719, 183, 209, 198, 240
-0.997721, 335, 113, 350, 144
-0.997723, 129, 77, 144, 108
-0.997724, 173, 69, 188, 100
-0.997734, 269, 265, 284, 296
-0.997737, 381, 193, 396, 224
-0.997739, 181, 69, 196, 100
-0.99774, 165, 97, 180, 128
-0.997754, 97, 245, 224, 276
-0.997754, 407, 177, 422, 208
-0.997757, 259, 233, 274, 264
-0.99776, 287, 73, 302, 104
-0.99776, 321, 241, 448, 272
-0.997767, 171, 205, 186, 236
-0.997767, 227, 229, 242, 260
-0.997768, 275, 253, 290, 284
-0.99777, 253, 233, 268, 264
-0.997772, 261, 77, 276, 108
-0.997776, 195, 177, 210, 208
-0.997778, 369, 181, 496, 212
-0.997781, 57, 1, 88, 128
-0.997782, 53, 125, 68, 156
-0.997788, 287, 149, 302, 180
-0.997789, 265, 245, 280, 276
-0.99779, 257, 217, 272, 248
-0.997792, 299, 81, 314, 112
-0.997792, 215, 85, 230, 116
-0.997796, 223, 97, 238, 128
-0.997798, 241, 225, 256, 256
-0.997806, 267, 233, 282, 264
-0.997811, 313, 129, 328, 160
-0.997822, 169, 33, 200, 288
-0.997824, 425, 265, 488, 328
-0.997836, 81, 221, 208, 252
-0.99784, 375, 201, 390, 232
-0.997852, 197, 97, 212, 128
-0.997853, 233, 225, 248, 256
-0.997854, 237, 181, 252, 212
-0.997856, 187, 165, 202, 196
-0.997857, 197, 73, 212, 104
-0.997857, 109, 73, 124, 104
-0.997859, 61, 97, 76, 128
-0.997861, 55, 153, 70, 184
-0.997863, 203, 101, 218, 132
-0.997868, 159, 189, 174, 220
-0.997878, 283, 213, 298, 244
-0.997886, 321, 113, 448, 144
-0.997887, 49, 197, 176, 228
-0.997894, 213, 73, 228, 104
-0.997899, 109, 177, 124, 208
-0.997902, 325, 141, 340, 172
-0.997903, 369, 265, 496, 296
-0.997905, 117, 73, 132, 104
-0.99791, 395, 177, 410, 208
-0.99791, 213, 181, 228, 212
-0.997911, 189, 177, 204, 208
-0.997913, 225, 209, 240, 240
-0.997915, 377, 177, 392, 208
-0.997917, 213, 249, 228, 280
-0.99792, 393, 1, 456, 333
-0.99792, 119, 173, 134, 204
-0.997924, 263, 221, 278, 252
-0.997925, 81, 233, 208, 264
-0.997928, 135, 165, 150, 196
-0.997933, 317, 185, 332, 216
-0.997947, 165, 193, 180, 224
-0.997951, 319, 117, 334, 148
-0.997952, 217, 169, 232, 200
-0.997983, 357, 65, 388, 320
-0.997991, 89, 1, 120, 256
-0.998075, 53, 1, 84, 256
-0.998083, 241, 69, 368, 100
-0.998097, 209, 1, 240, 128
-0.998106, 33, 49, 64, 176
-0.998192, 337, 217, 464, 248
-0.998227, 69, 177, 100, 304
-0.998236, 353, 145, 480, 176
-0.998273, 65, 65, 96, 320
-0.998294, 77, 1, 108, 128
-0.998339, 1, 61, 128, 92
-0.998367, 49, 57, 176, 88
-0.998368, 121, 81, 184, 96
-0.998381, 257, 83, 320, 98
-0.998389, 153, 97, 216, 112
-0.998397, 273, 167, 336, 182
-0.998399, 289, 205, 352, 220
-0.998399, 201, 87, 264, 102
-0.998406, 73, 83, 136, 98
-0.998408, 105, 163, 168, 178
-0.998409, 209, 33, 240, 288
-0.998414, 321, 205, 384, 220
-0.998423, 217, 201, 280, 216
-0.998424, 249, 167, 312, 182
-0.998426, 241, 207, 304, 222
-0.998432, 241, 173, 304, 188
-0.998448, 145, 143, 208, 158
-0.998448, 273, 161, 336, 176
-0.99845, 129, 89, 192, 104
-0.998451, 185, 257, 248, 272
-0.998453, 177, 93, 240, 108
-0.998459, 265, 205, 328, 220
-0.99846, 129, 97, 192, 112
-0.99846, 209, 111, 240, 126
-0.99846, 153, 199, 184, 214
-0.998461, 185, 99, 248, 114
-0.998461, 221, 227, 252, 242
-0.998462, 157, 151, 188, 166
-0.998463, 189, 77, 220, 92
-0.998463, 209, 215, 272, 230
-0.998465, 281, 211, 344, 226
-0.998465, 205, 213, 236, 228
-0.998465, 313, 241, 376, 256
-0.998466, 209, 223, 240, 238
-0.998467, 273, 177, 336, 192
-0.998467, 141, 175, 172, 190
-0.998468, 205, 183, 236, 198
-0.998468, 145, 67, 176, 82
-0.998468, 121, 179, 152, 194
-0.998469, 97, 75, 160, 90
-0.998469, 249, 89, 312, 104
-0.998469, 269, 287, 300, 302
-0.99847, 237, 93, 268, 108
-0.99847, 177, 85, 208, 100
-0.99847, 225, 267, 256, 282
-0.998471, 273, 203, 304, 218
-0.998471, 273, 141, 336, 156
-0.998471, 225, 257, 288, 272
-0.998474, 225, 87, 288, 102
-0.998475, 321, 211, 384, 226
-0.998475, 369, 187, 432, 202
-0.998477, 365, 231, 396, 246
-0.998477, 141, 137, 172, 152
-0.998477, 253, 219, 284, 234
-0.998477, 53, 151, 84, 166
-0.998478, 109, 85, 140, 100
-0.998478, 173, 101, 204, 116
-0.998479, 165, 89, 196, 104
-0.998479, 265, 71, 296, 86
-0.998479, 325, 159, 356, 174
-0.99848, 249, 213, 312, 228
-0.99848, 153, 133, 184, 148
-0.998481, 153, 145, 184, 160
-0.998482, 213, 257, 244, 272
-0.998482, 205, 249, 236, 264
-0.998483, 121, 185, 152, 200
-0.998484, 153, 105, 216, 120
-0.998484, 161, 87, 224, 102
-0.998485, 349, 167, 380, 182
-0.998487, 273, 217, 336, 232
-0.998487, 353, 159, 384, 174
-0.998487, 169, 195, 200, 210
-0.998487, 233, 107, 264, 122
-0.998488, 345, 237, 408, 252
-0.998489, 217, 195, 280, 210
-0.998489, 241, 197, 272, 212
-0.998489, 301, 179, 332, 194
-0.998489, 289, 285, 352, 300
-0.998489, 373, 183, 404, 198
-0.998489, 249, 77, 312, 92
-0.99849, 281, 217, 312, 232
-0.998491, 185, 177, 216, 192
-0.998492, 321, 157, 384, 172
-0.998493, 177, 171, 240, 186
-0.998494, 385, 277, 416, 292
-0.998495, 293, 211, 324, 226
-0.998495, 365, 191, 396, 206
-0.998496, 169, 171, 200, 186
-0.998496, 85, 79, 116, 94
-0.998496, 325, 121, 356, 136
-0.998497, 89, 171, 152, 186
-0.998497, 309, 103, 340, 118
-0.998498, 145, 155, 208, 170
-0.998498, 233, 227, 264, 242
-0.998498, 297, 161, 360, 176
-0.998499, 301, 243, 332, 258
-0.998499, 129, 165, 192, 180
-0.9985, 313, 239, 344, 254
-0.998501, 313, 173, 344, 188
-0.998501, 145, 133, 208, 148
-0.998503, 129, 69, 192, 84
-0.998503, 105, 179, 136, 194
-0.998504, 305, 167, 368, 182
-0.998504, 265, 243, 328, 258
-0.998504, 345, 199, 408, 214
-0.998505, 257, 87, 288, 102
-0.998507, 265, 175, 296, 190
-0.998507, 221, 175, 252, 190
-0.998507, 297, 135, 328, 150
-0.998508, 377, 195, 408, 210
-0.998508, 145, 155, 176, 170
-0.998508, 309, 213, 340, 228
-0.998509, 81, 285, 208, 316
-0.998509, 209, 227, 272, 242
-0.998509, 361, 179, 424, 194
-0.99851, 105, 185, 168, 200
-0.99851, 161, 201, 224, 216
-0.998511, 345, 281, 408, 296
-0.998511, 97, 75, 128, 90
-0.998511, 145, 77, 208, 92
-0.998512, 181, 171, 212, 186
-0.998512, 233, 235, 296, 250
-0.998512, 185, 189, 248, 204
-0.998513, 321, 65, 448, 128
-0.998514, 137, 111, 200, 126
-0.998516, 289, 109, 352, 124
-0.998516, 33, 1, 160, 64
-0.998517, 225, 221, 288, 236
-0.998517, 189, 69, 220, 84
-0.998518, 169, 75, 232, 90
-0.99852, 117, 173, 148, 188
-0.99852, 313, 179, 344, 194
-0.998522, 177, 179, 240, 194
-0.998522, 225, 109, 288, 124
-0.998523, 121, 157, 184, 172
-0.998523, 125, 165, 156, 180
-0.998523, 369, 193, 432, 208
-0.998524, 317, 167, 348, 182
-0.998524, 373, 177, 404, 192
-0.998525, 77, 85, 108, 100
-0.998525, 233, 215, 264, 230
-0.998525, 109, 73, 140, 88
-0.998525, 313, 109, 344, 124
-0.998526, 285, 159, 316, 174
-0.998527, 81, 163, 144, 178
-0.998527, 297, 117, 360, 132
-0.998528, 137, 119, 200, 134
-0.99853, 249, 205, 280, 220
-0.99853, 217, 93, 280, 108
-0.99853, 305, 129, 368, 144
-0.99853, 121, 193, 184, 208
-0.998531, 193, 99, 224, 114
-0.998531, 185, 267, 248, 282
-0.998532, 201, 175, 264, 190
-0.998532, 201, 247, 264, 262
-0.998534, 325, 241, 356, 256
-0.998534, 57, 147, 120, 162
-0.998534, 193, 209, 256, 224
-0.998535, 145, 171, 208, 186
-0.998535, 97, 177, 160, 192
-0.998535, 173, 69, 204, 84
-0.998535, 137, 181, 168, 196
-0.998536, 225, 247, 288, 262
-0.998537, 293, 87, 324, 102
-0.998537, 205, 97, 236, 112
-0.998537, 225, 263, 288, 278
-0.998538, 369, 277, 432, 292
-0.998538, 217, 167, 280, 182
-0.998539, 385, 185, 416, 200
-0.998539, 273, 91, 336, 106
-0.998539, 53, 129, 84, 144
-0.998539, 201, 109, 264, 124
-0.99854, 353, 231, 416, 246
-0.998541, 349, 209, 380, 224
-0.998541, 145, 177, 208, 192
-0.998541, 321, 173, 384, 188
-0.998541, 321, 139, 384, 154
-0.998542, 217, 87, 248, 102
-0.998542, 129, 105, 192, 120
-0.998543, 357, 237, 388, 252
-0.998543, 265, 81, 296, 96
-0.998543, 157, 105, 188, 120
-0.998544, 313, 161, 344, 176
-0.998545, 229, 193, 260, 208
-0.998545, 221, 97, 252, 112
-0.998546, 281, 171, 312, 186
-0.998546, 361, 205, 424, 220
-0.998547, 269, 163, 300, 178
-0.998547, 297, 93, 328, 108
-0.998548, 257, 287, 320, 302
-0.998549, 177, 123, 240, 138
-0.998549, 153, 99, 184, 114
-0.998549, 241, 171, 272, 186
-0.998549, 165, 75, 196, 90
-0.99855, 169, 273, 232, 288
-0.998551, 225, 115, 288, 130
-0.998551, 321, 151, 384, 166
-0.998552, 161, 195, 224, 210
-0.998554, 225, 169, 256, 184
-0.998554, 209, 269, 272, 284
-0.998555, 397, 179, 428, 194
-0.998555, 161, 69, 224, 84
-0.998555, 337, 165, 368, 180
-0.998556, 145, 149, 208, 164
-0.998556, 289, 241, 352, 256
-0.998556, 73, 77, 136, 92
-0.998557, 137, 125, 200, 140
-0.998557, 177, 247, 240, 262
-0.998557, 265, 117, 328, 132
-0.998558, 225, 295, 288, 310
-0.998558, 321, 145, 384, 160
-0.998558, 129, 173, 160, 188
-0.998558, 169, 207, 232, 222
-0.998559, 33, 135, 96, 150
-0.99856, 305, 167, 336, 182
-0.99856, 261, 209, 292, 224
-0.998561, 133, 73, 164, 88
-0.998561, 249, 219, 312, 234
-0.998561, 253, 165, 284, 180
-0.998562, 129, 199, 192, 214
-0.998562, 145, 73, 176, 88
-0.998563, 321, 281, 384, 296
-0.998563, 185, 217, 248, 232
-0.998564, 33, 121, 96, 136
-0.998565, 121, 175, 184, 190
-0.998566, 217, 207, 280, 222
-0.998566, 217, 181, 280, 196
-0.998568, 41, 165, 104, 180
-0.998569, 321, 115, 352, 130
-0.998569, 289, 153, 352, 168
-0.99857, 225, 81, 288, 96
-0.99857, 281, 99, 344, 114
-0.998571, 185, 93, 216, 108
-0.998572, 177, 165, 240, 180
-0.998573, 137, 85, 168, 100
-0.998574, 193, 241, 256, 256
-0.998575, 173, 95, 204, 110
-0.998575, 161, 115, 224, 130
-0.998576, 293, 165, 324, 180
-0.998576, 141, 99, 172, 114
-0.998577, 185, 117, 248, 132
-0.998577, 225, 281, 288, 296
-0.998578, 273, 235, 336, 250
-0.998578, 97, 81, 160, 96
-0.998579, 193, 195, 256, 210
-0.998579, 337, 239, 368, 254
-0.998582, 149, 115, 180, 130
-0.998582, 281, 179, 312, 194
-0.998584, 357, 203, 388, 218
-0.998584, 253, 171, 284, 186
-0.998585, 269, 215, 300, 230
-0.998586, 145, 107, 176, 122
-0.998588, 321, 209, 352, 224
-0.998592, 337, 205, 368, 220
-0.998594, 293, 173, 324, 188
-0.998599, 237, 85, 268, 100
-0.998599, 305, 89, 432, 120
-0.998602, 149, 113, 164, 240
-0.998609, 113, 163, 144, 178
-0.998615, 33, 33, 64, 288
-0.99862, 301, 205, 332, 220
-0.998632, 205, 87, 236, 102
-0.998633, 321, 203, 352, 218
-0.998633, 277, 79, 308, 94
-0.998638, 269, 169, 300, 184
-0.998642, 1, 193, 128, 224
-0.998645, 1, 85, 128, 116
-0.998654, 281, 165, 312, 180
-0.998654, 129, 79, 160, 94
-0.998656, 281, 209, 312, 224
-0.99866, 153, 79, 184, 94
-0.998705, 155, 129, 170, 256
-0.998712, 289, 73, 416, 104
-0.99872, 263, 65, 278, 192
-0.998727, 241, 177, 256, 304
-0.998731, 359, 129, 374, 256
-0.998747, 213, 49, 228, 176
-0.99875, 113, 49, 240, 80
-0.998752, 93, 97, 108, 224
-0.998767, 365, 145, 380, 272
-0.998796, 253, 193, 268, 320
-0.998797, 81, 269, 208, 300
-0.998812, 155, 81, 170, 208
-0.998824, 257, 33, 384, 96
-0.998834, 141, 81, 156, 208
-0.998877, 291, 193, 306, 320
-0.998878, 271, 65, 286, 192
-0.998883, 257, 65, 272, 192
-0.998884, 219, 49, 234, 176
-0.998885, 223, 177, 238, 304
-0.99889, 179, 209, 194, 333
-0.998891, 165, 81, 180, 208
-0.998905, 353, 129, 368, 256
-0.998909, 231, 161, 246, 288
-0.998911, 263, 113, 278, 240
-0.998939, 371, 161, 386, 288
-0.99894, 265, 177, 280, 304
-0.99895, 353, 133, 480, 164
-0.998961, 141, 161, 156, 288
-0.998962, 251, 97, 266, 224
-0.998963, 247, 177, 262, 304
-0.998966, 373, 33, 404, 288
-0.998969, 205, 49, 220, 176
-0.998977, 175, 97, 190, 224
-0.998984, 277, 209, 292, 333
-0.998985, 377, 145, 392, 272
-0.998988, 223, 97, 238, 224
-0.998989, 329, 161, 344, 288
-0.998992, 187, 209, 202, 333
-0.998992, 243, 97, 258, 224
-0.998994, 59, 81, 74, 208
-0.998994, 257, 57, 384, 88
-0.998995, 1, 241, 128, 304
-0.998997, 231, 209, 246, 333
-0.999002, 281, 161, 296, 288
-0.999007, 271, 193, 286, 320
-0.999009, 299, 65, 314, 192
-0.999036, 1, 49, 500, 112
-0.999044, 87, 97, 102, 224
-0.999051, 217, 177, 232, 304
-0.999053, 195, 49, 210, 176
-0.999053, 147, 49, 162, 176
-0.999058, 305, 81, 320, 208
-0.999059, 215, 97, 230, 224
-0.999061, 161, 129, 176, 256
-0.999063, 325, 97, 340, 224
-0.999065, 65, 257, 192, 288
-0.999066, 17, 213, 144, 244
-0.999067, 185, 81, 200, 208
-0.999071, 109, 145, 124, 272
-0.999072, 319, 81, 334, 208
-0.999075, 293, 145, 308, 272
-0.999077, 303, 193, 318, 320
-0.999077, 177, 49, 192, 176
-0.999081, 193, 209, 208, 333
-0.999082, 271, 145, 286, 272
-0.999082, 259, 193, 274, 320
-0.999083, 99, 129, 114, 256
-0.999084, 347, 113, 362, 240
-0.999085, 319, 193, 334, 320
-0.999091, 211, 177, 226, 304
-0.999091, 339, 113, 354, 240
-0.999098, 119, 129, 134, 256
-0.999098, 131, 145, 146, 272
-0.999112, 225, 49, 240, 176
-0.999114, 193, 57, 320, 88
-0.99912, 245, 49, 260, 176
-0.99913, 343, 209, 358, 333
-0.999131, 237, 97, 252, 224
-0.999133, 395, 161, 410, 288
-0.999135, 285, 209, 300, 333
-0.999135, 229, 97, 244, 224
-0.999141, 297, 193, 312, 320
-0.999144, 403, 193, 418, 320
-0.999146, 135, 49, 150, 176
-0.999146, 233, 33, 248, 160
-0.999147, 201, 161, 216, 288
-0.999152, 251, 33, 266, 160
-0.999153, 361, 209, 376, 333
-0.99916, 309, 129, 324, 256
-0.999163, 383, 161, 398, 288
-0.999164, 127, 97, 142, 224
-0.999166, 283, 65, 298, 192
-0.999167, 313, 193, 328, 320
-0.999175, 135, 97, 150, 224
-0.999183, 333, 209, 348, 333
-0.999185, 277, 113, 292, 240
-0.999192, 49, 97, 64, 224
-0.999194, 99, 81, 114, 208
-0.999207, 89, 161, 104, 288
-0.999213, 257, 145, 272, 272
-0.999213, 239, 33, 254, 160
-0.999215, 311, 81, 326, 208
-0.99922, 157, 33, 172, 160
-0.99922, 293, 65, 308, 192
-0.999226, 349, 209, 364, 333
-0.999232, 65, 113, 80, 240
-0.999237, 81, 129, 96, 256
-0.999239, 325, 209, 340, 333
-0.99924, 191, 129, 206, 256
-0.999248, 355, 193, 370, 320
-0.99925, 71, 113, 86, 240
-0.999257, 207, 97, 222, 224
-0.999259, 333, 97, 348, 224
-0.999261, 409, 161, 424, 288
-0.999262, 183, 33, 198, 160
-0.999264, 161, 1, 192, 128
-0.999264, 367, 209, 382, 333
-0.999265, 287, 145, 302, 272
-0.99927, 303, 129, 318, 256
-0.999272, 335, 161, 350, 288
-0.999277, 389, 161, 404, 288
-0.999278, 169, 33, 184, 160
-0.999287, 169, 129, 184, 256
-0.999293, 201, 97, 216, 224
-0.999295, 57, 129, 72, 256
-0.999296, 377, 193, 392, 320
-0.999301, 171, 193, 186, 320
-0.999302, 81, 81, 96, 208
-0.999305, 317, 129, 332, 256
-0.999306, 163, 33, 178, 160
-0.99931, 177, 161, 192, 288
-0.99931, 425, 209, 456, 333
-0.999313, 125, 145, 140, 272
-0.999314, 119, 81, 134, 208
-0.999332, 147, 161, 162, 288
-0.999348, 127, 49, 142, 176
-0.999354, 201, 209, 216, 333
-0.999357, 261, 17, 276, 144
-0.999365, 33, 241, 160, 272
-0.999365, 347, 161, 362, 288
-0.99937, 141, 33, 156, 160
-0.999378, 369, 169, 496, 200
-0.999382, 277, 65, 292, 192
-0.999397, 415, 177, 430, 304
-0.999397, 51, 145, 66, 272
-0.999415, 105, 25, 168, 88
-0.999418, 321, 253, 448, 284
-0.999467, 397, 65, 428, 320
-0.999502, 25, 145, 56, 272
-0.999594, 1, 17, 256, 80
-0.999594, 1, 25, 128, 88
-0.999611, 369, 233, 496, 264
-0.999625, 369, 253, 496, 284
-0.999633, 417, 1, 480, 333
-0.999657, 289, 139, 304, 154
-0.999658, 267, 173, 282, 188
-0.999659, 311, 173, 326, 188
-0.999659, 327, 239, 342, 254
-0.99966, 365, 235, 380, 250
-0.999662, 181, 211, 196, 226
-0.999662, 119, 79, 134, 94
-0.999662, 227, 257, 242, 272
-0.999662, 273, 83, 288, 98
-0.999663, 173, 79, 188, 94
-0.999663, 49, 151, 64, 166
-0.999665, 65, 45, 192, 76
-0.999666, 311, 243, 326, 258
-0.999667, 321, 243, 336, 258
-0.99967, 143, 79, 158, 94
-0.99967, 411, 179, 426, 194
-0.999671, 179, 79, 194, 94
-0.999672, 343, 209, 358, 224
-0.999672, 321, 161, 336, 176
-0.999673, 275, 73, 290, 88
-0.999674, 33, 225, 160, 256
-0.999674, 293, 171, 308, 186
-0.999674, 305, 175, 320, 190
-0.999676, 203, 69, 218, 84
-0.999677, 305, 163, 320, 178
-0.999678, 247, 175, 262, 190
-0.999678, 339, 121, 354, 136
-0.999678, 151, 119, 166, 134
-0.999678, 153, 125, 168, 140
-0.999679, 249, 83, 264, 98
-0.999679, 275, 175, 290, 190
-0.99968, 211, 95, 226, 110
-0.999681, 229, 189, 244, 204
-0.999681, 327, 105, 342, 120
-0.999682, 131, 75, 146, 90
-0.999682, 159, 75, 174, 90
-0.999682, 213, 87, 228, 102
-0.999682, 171, 73, 186, 88
-0.999682, 281, 165, 296, 180
-0.999683, 227, 87, 242, 102
-0.999683, 325, 167, 340, 182
-0.999683, 147, 105, 162, 120
-0.999684, 287, 175, 302, 190
-0.999685, 365, 141, 380, 156
-0.999686, 223, 97, 238, 112
-0.999686, 229, 97, 244, 112
-0.999686, 241, 85, 256, 100
-0.999688, 167, 95, 182, 110
-0.999689, 377, 191, 392, 206
-0.999689, 137, 73, 152, 88
-0.999689, 321, 211, 336, 226
-0.999689, 245, 195, 260, 210
-0.99969, 279, 79, 294, 94
-0.99969, 161, 95, 176, 110
-0.999693, 295, 159, 310, 174
-0.999693, 167, 101, 182, 116
-0.999694, 301, 203, 316, 218
-0.999695, 193, 169, 208, 184
-0.999695, 217, 97, 232, 112
-0.999695, 283, 181, 298, 196
-0.999695, 297, 81, 312, 96
-0.999696, 315, 161, 330, 176
-0.999696, 263, 203, 278, 218
-0.999696, 253, 199, 268, 214
-0.999698, 221, 87, 236, 102
-0.999699, 167, 79, 182, 94
-0.9997, 309, 91, 324, 106
-0.999701, 153, 131, 168, 146
-0.999702, 181, 171, 196, 186
-0.999702, 275, 213, 290, 228
-0.999703, 299, 173, 314, 188
-0.999703, 317, 177, 332, 192
-0.999704, 195, 95, 210, 110
-0.999705, 203, 101, 218, 116
-0.999705, 147, 99, 162, 114
-0.999705, 333, 239, 348, 254
-0.999706, 369, 201, 384, 216
-0.999707, 231, 263, 246, 278
-0.999708, 285, 207, 300, 222
-0.999708, 185, 95, 200, 110
-0.999709, 285, 77, 300, 92
-0.99971, 261, 171, 276, 186
-0.99971, 293, 179, 308, 194
-0.999711, 317, 169, 332, 184
-0.999713, 349, 237, 364, 252
-0.999715, 157, 105, 172, 120
-0.999715, 157, 143, 172, 158
-0.999716, 155, 137, 170, 152
-0.999718, 149, 75, 164, 90
-0.999718, 235, 191, 250, 206
-0.999719, 177, 95, 192, 110
-0.999721, 133, 163, 148, 178
-0.999721, 111, 167, 126, 182
-0.999722, 303, 85, 318, 100
-0.999723, 207, 87, 222, 102
-0.999724, 201, 93, 216, 108
-0.999725, 127, 163, 142, 178
-0.999725, 329, 111, 344, 126
-0.999727, 125, 77, 140, 92
-0.999727, 159, 153, 174, 168
-0.999731, 17, 41, 144, 72
-0.999733, 249, 169, 264, 184
-0.999735, 317, 99, 332, 114
-0.999736, 281, 215, 296, 230
-0.999736, 143, 175, 158, 190
-0.999741, 305, 169, 320, 184
-0.999742, 187, 171, 202, 186
-0.999743, 119, 163, 134, 178
-0.999744, 281, 171, 296, 186
-0.999745, 159, 81, 174, 96
-0.999748, 269, 167, 284, 182
-0.999751, 275, 167, 290, 182
-0.999751, 359, 203, 374, 218
-0.999751, 255, 169, 270, 184
-0.999751, 289, 165, 304, 180
-0.999753, 371, 229, 386, 244
-0.999753, 351, 203, 366, 218
-0.999755, 287, 213, 302, 228
-0.99976, 339, 241, 354, 256
-0.999761, 333, 117, 348, 132
-0.999763, 149, 81, 164, 96
-0.999767, 307, 209, 322, 224
-0.999768, 299, 167, 314, 182
-0.999769, 367, 207, 382, 222
-0.999772, 337, 205, 352, 220
-0.999785, 343, 203, 358, 218
-0.999787, 311, 167, 326, 182
-0.999787, 331, 205, 346, 220
-0.999788, 155, 99, 170, 114
-0.999789, 295, 209, 310, 224
-0.999799, 321, 205, 336, 220
-0.999802, 313, 207, 328, 222
-0.999821, 17, 253, 144, 284
-0.999822, 301, 209, 316, 224
-0.99983, 81, 297, 208, 328
-0.999854, 49, 273, 176, 333
-0.999931, 385, 65, 416, 320
-0.999935, 369, 301, 496, 332
-0.999954, 177, 45, 304, 76
-0.99996, 1, 265, 128, 328
-0.999978, 409, 65, 440, 320
-1.00005, 33, 29, 160, 60
-1.00006, 49, 1, 176, 32
-1.00011, 193, 25, 448, 88
-1.00018, 369, 113, 496, 176
-1.00021, 33, 13, 160, 44
-1.00024, 21, 1, 52, 256
-1.00033, 209, 25, 336, 88
-1.00043, 33, 269, 160, 300
-1.00044, 401, 137, 464, 200
-1.00046, 33, 285, 160, 316
-1.00047, 97, 1, 224, 64
-1.00049, 81, 33, 208, 64
-1.0005, 97, 1, 224, 32
-1.0005, 421, 33, 452, 288
-1.00051, 225, 45, 352, 76
-1.00058, 369, 113, 432, 176
-1.00069, 49, 25, 112, 88
-1.00079, 1, 9, 500, 72
-1.00084, 5, 1, 36, 256
-1.00114, 97, 9, 352, 72
-1.00118, 409, 65, 472, 320
-1.00118, 433, 33, 464, 288
-1.00119, 21, 65, 52, 192
-1.00123, 57, 1, 120, 64
-1.00127, 369, 81, 400, 208
-1.00139, 445, 33, 476, 288
-1.0015, 457, 33, 488, 288
-1.00158, 469, 1, 500, 256
-1.00162, 1, 33, 64, 96
-1.00181, 257, 1, 500, 64
-1.00188, 417, 97, 448, 224
-1.0019, 41, 193, 72, 320
-1.0019, 37, 1, 68, 128
-1.00198, 89, 1, 120, 128
-1.00203, 369, 73, 496, 136
-1.00217, 353, 9, 480, 72
-1.00218, 305, 17, 368, 144
-1.00222, 369, 41, 496, 104
-1.00228, 49, 249, 112, 312
-1.00231, 369, 81, 432, 208
-1.00238, 313, 57, 376, 120
-1.00246, 25, 17, 88, 80
-1.00291, 241, 1, 368, 64
-1.00291, 289, 9, 416, 72
-1.00298, 145, 1, 272, 64
-1.00302, 73, 25, 136, 88
-1.00335, 405, 81, 436, 208
-1.00339, 321, 41, 448, 104
-1.00348, 329, 33, 392, 160
-1.00362, 401, 81, 464, 208
-1.00368, 437, 209, 468, 333
-1.00397, 13, 161, 44, 288
-1.00402, 193, 1, 320, 64
-1.0042, 13, 113, 44, 240
-1.00429, 429, 161, 460, 288
-1.00441, 53, 209, 84, 333
-1.00445, 1, 17, 32, 144
-1.00457, 21, 17, 52, 144
-1.00473, 385, 81, 416, 208
-1.00524, 29, 193, 60, 320
-1.00534, 345, 33, 376, 160
-1.00558, 1, 129, 32, 256
-1.00572, 1, 193, 32, 320
-1.00581, 5, 65, 36, 192
-1.00595, 429, 113, 460, 240
-1.00639, 433, 209, 496, 333
-1.00657, 1, 17, 64, 144
-1.00663, 441, 65, 472, 192
-1.00671, 425, 49, 456, 176
-1.00677, 441, 129, 472, 256
-1.00702, 337, 33, 464, 160
-1.00741, 433, 65, 496, 320
-1.0088, 433, 129, 496, 256
-1.00974, 9, 209, 72, 333
-1.00977, 425, 49, 488, 176
-1.01146, 433, 1, 496, 128
-1.01169, 401, 33, 464, 160
-1.01276, 377, 1, 440, 128
-1.01306, 353, 33, 416, 160
