1973
-0.43902, 1, 225, 375, 480
-0.450522, 1, 129, 375, 384
-0.496068, 1, 1, 375, 500
-0.52772, 1, 1, 256, 500
-0.559693, 1, 33, 375, 288
-0.567392, 65, 193, 320, 448
-0.657634, 129, 1, 375, 500
-0.719405, 33, 97, 288, 352
-0.779982, 129, 97, 375, 352
-0.858318, 33, 1, 288, 256
-0.859653, 161, 193, 288, 448
-0.877451, 49, 257, 176, 500
-0.877778, 97, 257, 224, 500
-0.878562, 17, 1, 144, 500
-0.88181, 97, 161, 224, 416
-0.882396, 209, 129, 336, 384
-0.886512, 209, 225, 336, 480
-0.890694, 1, 273, 375, 400
-0.890799, 1, 225, 128, 480
-0.892027, 1, 193, 375, 320
-0.896936, 1, 129, 375, 256
-0.899145, 97, 1, 224, 500
-0.902436, 49, 161, 176, 416
-0.90627, 161, 97, 288, 352
-0.907182, 145, 1, 272, 500
-0.910237, 241, 1, 368, 500
-0.912359, 193, 1, 320, 500
-0.913479, 65, 209, 320, 336
-0.913698, 17, 65, 144, 320
-0.915422, 65, 289, 320, 416
-0.915532, 1, 321, 375, 448
-0.921343, 33, 161, 288, 288
-0.925096, 65, 65, 192, 320
-0.927556, 1, 369, 375, 496
-0.929476, 113, 65, 240, 320
-0.937143, 209, 33, 336, 288
-0.937704, 1, 81, 375, 208
-0.937774, 129, 1, 375, 256
-0.937775, 177, 241, 240, 368
-0.937971, 65, 209, 192, 336
-0.938654, 113, 257, 240, 384
-0.939897, 1, 353, 256, 480
-0.940303, 161, 193, 288, 320
-0.943768, 177, 193, 240, 320
-0.944806, 33, 113, 288, 240
-0.945184, 65, 273, 192, 400
-0.945644, 153, 241, 216, 368
-0.94597, 113, 193, 240, 320
-0.947181, 113, 241, 176, 368
-0.947443, 177, 257, 304, 384
-0.948935, 73, 193, 136, 320
-0.949212, 161, 305, 288, 432
-0.949353, 201, 113, 264, 240
-0.9496, 129, 145, 375, 272
-0.950141, 209, 273, 272, 400
-0.950589, 169, 305, 232, 432
-0.951251, 113, 145, 240, 272
-0.951999, 161, 145, 288, 272
-0.952039, 113, 305, 240, 432
-0.952152, 225, 161, 288, 288
-0.952761, 121, 289, 184, 416
-0.953083, 121, 297, 184, 360
-0.953715, 89, 257, 152, 384
-0.954161, 161, 289, 224, 352
-0.954609, 177, 257, 240, 320
-0.955059, 113, 193, 176, 320
-0.956188, 129, 337, 375, 464
-0.957725, 129, 257, 192, 320
-0.957744, 153, 193, 216, 320
-0.957814, 161, 1, 288, 256
-0.957957, 169, 193, 232, 256
-0.958032, 17, 289, 144, 416
-0.958964, 65, 257, 128, 384
-0.959585, 209, 209, 336, 336
-0.959799, 65, 161, 192, 288
-0.959952, 105, 273, 168, 336
-0.960256, 217, 209, 280, 336
-0.960399, 17, 241, 144, 368
-0.960858, 121, 145, 184, 272
-0.961135, 49, 353, 176, 480
-0.961349, 129, 369, 256, 496
-0.961917, 129, 161, 192, 224
-0.962199, 201, 145, 264, 208
-0.96236, 97, 305, 160, 432
-0.962952, 129, 97, 375, 224
-0.963494, 209, 169, 272, 232
-0.964026, 145, 145, 208, 272
-0.96419, 209, 161, 336, 288
-0.964553, 17, 177, 144, 304
-0.964721, 153, 265, 216, 328
-0.965605, 81, 233, 144, 296
-0.965628, 169, 313, 232, 376
-0.965855, 177, 129, 240, 256
-0.966054, 201, 289, 264, 352
-0.96606, 233, 257, 296, 384
-0.966382, 153, 169, 216, 232
-0.96646, 161, 97, 288, 224
-0.966747, 1, 81, 128, 208
-0.967301, 137, 337, 200, 464
-0.967901, 209, 321, 272, 448
-0.967972, 1, 65, 256, 192
-0.968051, 241, 257, 368, 384
-0.968112, 225, 97, 352, 224
-0.968357, 129, 185, 192, 248
-0.968536, 73, 201, 136, 264
-0.968637, 1, 337, 128, 464
-0.968694, 49, 113, 176, 240
-0.968862, 201, 161, 264, 288
-0.968911, 177, 225, 240, 480
-0.968936, 177, 129, 240, 192
-0.968939, 81, 273, 144, 336
-0.968981, 233, 97, 296, 224
-0.969038, 1, 33, 375, 160
-0.969067, 65, 145, 128, 272
-0.969152, 217, 129, 280, 384
-0.969158, 81, 177, 144, 240
-0.969212, 81, 353, 144, 480
-0.969797, 129, 257, 256, 320
-0.970042, 105, 217, 168, 280
-0.970089, 145, 289, 208, 416
-0.970132, 153, 241, 216, 304
-0.970194, 89, 145, 152, 272
-0.970338, 177, 369, 240, 496
-0.97072, 177, 369, 304, 496
-0.970813, 233, 185, 296, 248
-0.970952, 49, 193, 112, 320
-0.970954, 113, 289, 240, 352
-0.971568, 201, 121, 264, 184
-0.971697, 113, 193, 240, 256
-0.971974, 105, 169, 168, 232
-0.972006, 9, 81, 72, 208
-0.972027, 105, 353, 168, 480
-0.972282, 173, 169, 204, 232
-0.972284, 257, 97, 320, 224
-0.9724, 65, 273, 192, 336
-0.972564, 57, 353, 120, 480
-0.972673, 233, 161, 296, 224
-0.972787, 65, 249, 192, 312
-0.972895, 177, 233, 240, 296
-0.97292, 153, 217, 216, 280
-0.972921, 17, 337, 80, 464
-0.973006, 209, 265, 272, 328
-0.973207, 73, 305, 136, 432
-0.973267, 193, 193, 224, 320
-0.973384, 177, 257, 304, 320
-0.973989, 209, 257, 272, 500
-0.973989, 113, 177, 144, 304
-0.974237, 249, 161, 280, 224
-0.974791, 65, 257, 128, 500
-0.974909, 225, 113, 288, 176
-0.974912, 225, 289, 288, 352
-0.975104, 89, 193, 152, 448
-0.975243, 225, 353, 352, 480
-0.975253, 25, 161, 88, 288
-0.975282, 177, 241, 208, 368
-0.975585, 161, 169, 288, 232
-0.975679, 233, 265, 296, 328
-0.975747, 237, 145, 268, 208
-0.975805, 193, 209, 256, 272
-0.975858, 249, 161, 312, 288
-0.975898, 129, 233, 192, 296
-0.975905, 145, 265, 176, 328
-0.975936, 185, 185, 216, 248
-0.976259, 197, 201, 228, 264
-0.976453, 169, 281, 200, 344
-0.976571, 209, 369, 272, 496
-0.976582, 57, 257, 120, 320
-0.976904, 113, 233, 240, 296
-0.976926, 241, 145, 272, 272
-0.976955, 225, 137, 288, 200
-0.976955, 117, 265, 148, 328
-0.977033, 257, 273, 320, 400
-0.977084, 105, 249, 168, 312
-0.977154, 257, 273, 320, 336
-0.977245, 97, 169, 224, 232
-0.977505, 177, 233, 304, 296
-0.977575, 125, 241, 156, 368
-0.977587, 161, 297, 288, 360
-0.977806, 137, 321, 200, 384
-0.977827, 161, 129, 224, 384
-0.977929, 213, 273, 244, 336
-0.97796, 125, 161, 156, 224
-0.978043, 73, 145, 136, 208
-0.978338, 25, 81, 88, 144
-0.97837, 177, 161, 208, 288
-0.97851, 257, 177, 320, 240
-0.978537, 157, 289, 188, 352
-0.97854, 129, 209, 192, 272
-0.978559, 161, 209, 288, 272
-0.97861, 65, 217, 192, 280
-0.978613, 241, 369, 304, 496
-0.978616, 253, 161, 284, 288
-0.978656, 81, 297, 144, 360
-0.978757, 257, 225, 320, 352
-0.978895, 205, 193, 236, 320
-0.978998, 193, 129, 256, 384
-0.979041, 217, 225, 280, 288
-0.979214, 145, 297, 176, 360
-0.979268, 209, 305, 336, 432
-0.979324, 97, 377, 160, 440
-0.979351, 125, 289, 156, 352
-0.979398, 213, 241, 244, 368
-0.979415, 197, 289, 228, 352
-0.979568, 157, 241, 188, 304
-0.979716, 97, 289, 128, 352
-0.97976, 161, 393, 224, 456
-0.979969, 113, 241, 144, 368
-0.97998, 209, 377, 272, 440
-0.979996, 157, 225, 188, 352
-0.98009, 165, 145, 196, 272
-0.980165, 101, 289, 132, 416
-0.980176, 145, 257, 176, 384
-0.980242, 161, 273, 192, 400
-0.980265, 177, 169, 240, 232
-0.980449, 33, 169, 96, 232
-0.980545, 121, 361, 184, 424
-0.980546, 113, 257, 176, 500
-0.980569, 65, 193, 192, 256
-0.980595, 145, 129, 272, 192
-0.98061, 197, 257, 228, 320
-0.980754, 233, 321, 296, 448
-0.980853, 105, 193, 168, 256
-0.981003, 93, 209, 124, 336
-0.98103, 65, 297, 192, 360
-0.981124, 161, 161, 192, 224
-0.981146, 41, 241, 104, 368
-0.981155, 41, 113, 104, 240
-0.981206, 81, 321, 144, 384
-0.981341, 189, 241, 220, 368
-0.981355, 17, 145, 80, 208
-0.981433, 113, 201, 144, 264
-0.981483, 137, 225, 200, 480
-0.981491, 177, 249, 208, 312
-0.981516, 97, 345, 160, 408
-0.981776, 193, 313, 256, 376
-0.98193, 233, 257, 296, 500
-0.981992, 177, 305, 208, 432
-0.982045, 225, 401, 288, 464
-0.982081, 49, 193, 112, 256
-0.982103, 113, 169, 144, 232
-0.982148, 165, 209, 196, 272
-0.982256, 201, 233, 232, 296
-0.982264, 201, 241, 232, 368
-0.982292, 129, 257, 160, 320
-0.982307, 113, 313, 240, 376
-0.982347, 33, 65, 96, 192
-0.982449, 49, 161, 112, 416
-0.982499, 137, 129, 200, 384
-0.982533, 137, 209, 168, 336
-0.982614, 33, 145, 160, 208
-0.982663, 73, 177, 104, 304
-0.982767, 125, 161, 156, 288
-0.982806, 237, 273, 268, 400
-0.983004, 209, 193, 336, 256
-0.983036, 49, 169, 176, 232
-0.983081, 237, 169, 268, 232
-0.983127, 33, 241, 96, 304
-0.983181, 257, 145, 320, 208
-0.983266, 113, 161, 176, 416
-0.98334, 17, 257, 144, 320
-0.983368, 17, 65, 80, 320
-0.983443, 249, 209, 280, 336
-0.983452, 69, 249, 100, 312
-0.98346, 233, 97, 264, 224
-0.983485, 85, 257, 116, 320
-0.983491, 57, 233, 120, 296
-0.983534, 65, 329, 192, 392
-0.983543, 221, 129, 252, 192
-0.98362, 241, 97, 304, 352
-0.98367, 81, 97, 144, 224
-0.983759, 241, 273, 368, 336
-0.983799, 201, 97, 264, 160
-0.983847, 209, 209, 240, 272
-0.983851, 65, 361, 128, 424
-0.983883, 145, 145, 176, 272
-0.983894, 57, 281, 120, 344
-0.983897, 261, 177, 292, 240
-0.983959, 1, 105, 128, 168
-0.984103, 249, 97, 280, 224
-0.984141, 265, 233, 328, 296
-0.984141, 181, 209, 212, 272
-0.98426, 81, 225, 112, 352
-0.984338, 57, 169, 120, 232
-0.984352, 257, 225, 320, 480
-0.984401, 241, 209, 304, 272
-0.984404, 25, 345, 88, 408
-0.984442, 305, 97, 368, 224
-0.984459, 249, 185, 280, 248
-0.984537, 113, 289, 144, 416
-0.984616, 209, 105, 336, 168
-0.984657, 193, 409, 256, 472
-0.984719, 81, 273, 112, 400
-0.984757, 1, 129, 128, 256
-0.984901, 1, 105, 64, 168
-0.984915, 197, 113, 228, 240
-0.984979, 157, 185, 188, 248
-0.985018, 229, 145, 260, 272
-0.985062, 161, 369, 224, 432
-0.985104, 41, 257, 104, 500
-0.985111, 181, 273, 212, 336
-0.98514, 105, 241, 136, 304
-0.985188, 49, 369, 176, 432
-0.985229, 121, 401, 184, 464
-0.985242, 225, 273, 256, 400
-0.985297, 17, 305, 144, 368
-0.985367, 225, 153, 352, 216
-0.985439, 233, 377, 296, 440
-0.985473, 185, 161, 216, 224
-0.985494, 209, 65, 272, 192
-0.985497, 213, 305, 244, 432
-0.985601, 217, 193, 248, 320
-0.98565, 113, 393, 240, 456
-0.985893, 49, 145, 112, 208
-0.986007, 249, 137, 280, 200
-0.986029, 97, 209, 128, 272
-0.986041, 217, 249, 248, 312
-0.986046, 213, 297, 244, 360
-0.986086, 1, 337, 64, 400
-0.986163, 149, 305, 180, 432
-0.986256, 161, 321, 288, 384
-0.986312, 197, 169, 228, 232
-0.986313, 9, 1, 72, 500
-0.986456, 121, 337, 152, 464
-0.986462, 137, 169, 168, 232
-0.98654, 49, 121, 112, 184
-0.986546, 249, 297, 312, 360
-0.986575, 1, 345, 128, 408
-0.986652, 157, 265, 188, 328
-0.986875, 265, 225, 296, 352
-0.986926, 209, 113, 240, 240
-0.986943, 193, 401, 320, 464
-0.986954, 25, 217, 88, 280
-0.98699, 33, 1, 96, 500
-0.986994, 121, 233, 152, 296
-0.987025, 209, 337, 272, 400
-0.987031, 241, 241, 368, 304
-0.987111, 25, 289, 88, 416
-0.987151, 193, 313, 224, 376
-0.987391, 265, 265, 296, 328
-0.987396, 185, 377, 248, 440
-0.987443, 265, 161, 296, 288
-0.987485, 161, 369, 288, 432
-0.987527, 69, 241, 100, 368
-0.987554, 81, 233, 112, 296
-0.987652, 233, 281, 264, 344
-0.98767, 129, 137, 192, 200
-0.987685, 73, 97, 136, 352
-0.987776, 165, 313, 196, 376
-0.987786, 265, 129, 328, 384
-0.987788, 149, 161, 180, 224
-0.987801, 249, 105, 312, 168
-0.987832, 73, 193, 104, 256
-0.987865, 1, 81, 128, 144
-0.987922, 161, 369, 192, 496
-0.987943, 25, 161, 88, 416
-0.987953, 313, 409, 375, 472
-0.988002, 209, 297, 336, 360
-0.988066, 137, 233, 168, 296
-0.988095, 233, 369, 264, 496
-0.988129, 1, 177, 128, 240
-0.988156, 113, 337, 240, 400
-0.988224, 97, 265, 128, 328
-0.988262, 113, 97, 240, 224
-0.988284, 257, 321, 320, 448
-0.988352, 129, 193, 160, 256
-0.988364, 57, 89, 120, 152
-0.988381, 177, 313, 208, 376
-0.988398, 161, 393, 192, 456
-0.988429, 81, 281, 112, 344
-0.988528, 249, 401, 312, 464
-0.988534, 49, 65, 176, 192
-0.988541, 65, 1, 128, 500
-0.988543, 201, 33, 264, 288
-0.988561, 133, 353, 164, 480
-0.988597, 225, 153, 256, 216
-0.988636, 217, 313, 280, 376
-0.98864, 93, 145, 124, 272
-0.988642, 161, 321, 192, 448
-0.988679, 93, 233, 124, 296
-0.98871, 17, 201, 144, 264
-0.988722, 241, 233, 304, 296
-0.988786, 205, 129, 236, 192
-0.988843, 129, 289, 160, 416
-0.988896, 161, 345, 288, 408
-0.989066, 1, 233, 128, 296
-0.989094, 113, 313, 144, 376
-0.989116, 177, 265, 240, 296
-0.989156, 133, 393, 164, 456
-0.989205, 65, 265, 320, 328
-0.989253, 185, 113, 216, 240
-0.989259, 265, 369, 328, 496
-0.989277, 241, 217, 368, 280
-0.989322, 61, 177, 92, 304
-0.989385, 97, 361, 224, 424
-0.989407, 145, 401, 176, 464
-0.989425, 253, 289, 284, 416
-0.989505, 129, 1, 192, 500
-0.989528, 169, 1, 232, 500
-0.989546, 221, 97, 252, 224
-0.989548, 129, 113, 160, 240
-0.989628, 177, 277, 240, 308
-0.989643, 221, 105, 252, 168
-0.989659, 289, 105, 352, 168
-0.989662, 65, 169, 320, 232
-0.989707, 129, 273, 192, 304
-0.989711, 89, 281, 152, 312
-0.989716, 121, 97, 184, 224
-0.989765, 237, 105, 268, 168
-0.989778, 225, 129, 352, 192
-0.98978, 85, 353, 116, 480
-0.989832, 245, 289, 276, 352
-0.989867, 209, 377, 336, 440
-0.989894, 229, 257, 260, 320
-0.989924, 193, 1, 256, 500
-0.989932, 169, 209, 232, 240
-0.989943, 189, 305, 220, 432
-0.989953, 1, 33, 128, 160
-0.989979, 153, 145, 216, 208
-0.990039, 169, 345, 232, 408
-0.99013, 49, 337, 80, 464
-0.990136, 261, 113, 292, 240
-0.990199, 17, 281, 144, 344
-0.990228, 153, 253, 216, 284
-0.99028, 97, 369, 128, 496
-0.990338, 217, 165, 280, 196
-0.990342, 105, 321, 168, 384
-0.990364, 57, 329, 120, 392
-0.990406, 105, 293, 168, 324
-0.990416, 169, 321, 232, 352
-0.990455, 193, 137, 256, 168
-0.990464, 145, 289, 208, 320
-0.99048, 121, 173, 184, 204
-0.990482, 97, 49, 352, 176
-0.990501, 153, 321, 184, 384
-0.990541, 65, 289, 320, 352
-0.990545, 153, 197, 216, 228
-0.990559, 209, 297, 272, 328
-0.990559, 249, 321, 312, 384
-0.990565, 241, 409, 368, 472
-0.990587, 169, 289, 232, 320
-0.990656, 97, 145, 224, 208
-0.990671, 5, 321, 36, 448
-0.990693, 189, 121, 220, 184
-0.990738, 273, 401, 336, 464
-0.990758, 237, 225, 268, 352
-0.990762, 193, 353, 224, 480
-0.990774, 81, 269, 144, 300
-0.990804, 209, 153, 272, 184
-0.990809, 217, 281, 280, 312
-0.99081, 145, 169, 208, 200
-0.990815, 49, 65, 112, 320
-0.990817, 169, 65, 232, 192
-0.990831, 49, 161, 80, 288
-0.990855, 153, 301, 216, 332
-0.990865, 9, 97, 40, 224
-0.990891, 153, 185, 216, 216
-0.990901, 281, 97, 344, 224
-0.990932, 217, 1, 280, 500
-0.990943, 229, 321, 260, 448
-0.990945, 241, 173, 304, 204
-0.990957, 273, 145, 336, 272
-0.99096, 265, 209, 328, 272
-0.990967, 201, 125, 264, 156
-0.990968, 5, 105, 36, 168
-0.990991, 121, 313, 184, 344
-0.990994, 153, 265, 216, 296
-0.99104, 225, 89, 288, 152
-0.99104, 113, 189, 176, 220
-0.991048, 297, 369, 360, 496
-0.991063, 81, 177, 144, 208
-0.991077, 97, 217, 160, 248
-0.991088, 177, 249, 240, 280
-0.991107, 81, 189, 144, 220
-0.991134, 113, 237, 176, 268
-0.99116, 129, 313, 160, 376
-0.991176, 137, 241, 200, 272
-0.991212, 121, 361, 152, 424
-0.991212, 185, 301, 248, 332
-0.991237, 169, 129, 232, 160
-0.991255, 253, 265, 284, 328
-0.99129, 241, 161, 304, 192
-0.991307, 241, 185, 304, 216
-0.991327, 37, 337, 68, 464
-0.991332, 109, 289, 140, 352
-0.991353, 209, 197, 272, 228
-0.991357, 161, 401, 224, 432
-0.991363, 9, 313, 72, 376
-0.991406, 121, 325, 184, 356
-0.991429, 217, 137, 280, 168
-0.991439, 73, 209, 136, 240
-0.991442, 209, 309, 272, 340
-0.991456, 129, 261, 192, 292
-0.991456, 153, 277, 216, 308
-0.991464, 261, 153, 292, 216
-0.991473, 61, 169, 92, 232
-0.991477, 217, 257, 280, 288
-0.991503, 65, 241, 320, 304
-0.991509, 81, 425, 144, 488
-0.991523, 245, 369, 276, 496
-0.991539, 65, 241, 128, 272
-0.991545, 217, 185, 280, 216
-0.991549, 261, 289, 292, 352
-0.991553, 129, 201, 192, 232
-0.991568, 65, 353, 96, 480
-0.991588, 25, 121, 88, 184
-0.991589, 73, 257, 136, 288
-0.99159, 121, 225, 184, 256
-0.991598, 89, 229, 152, 260
-0.991614, 177, 197, 240, 228
-0.991659, 9, 257, 72, 500
-0.991665, 105, 269, 168, 300
-0.991678, 121, 213, 184, 244
-0.991694, 189, 233, 220, 296
-0.991715, 209, 213, 272, 244
-0.991732, 69, 129, 100, 256
-0.991737, 297, 385, 360, 448
-0.991742, 25, 193, 88, 256
-0.991794, 57, 221, 120, 252
-0.991796, 57, 233, 88, 296
-0.991835, 209, 49, 336, 176
-0.991849, 193, 165, 256, 196
-0.991874, 233, 149, 296, 180
-0.99188, 209, 353, 240, 480
-0.99188, 121, 337, 184, 368
-0.991895, 57, 157, 120, 188
-0.991918, 241, 257, 272, 320
-0.991932, 129, 301, 192, 332
-0.991949, 177, 225, 240, 256
-0.991962, 177, 185, 240, 216
-0.991963, 73, 293, 136, 324
-0.991994, 241, 277, 304, 308
-0.992009, 93, 177, 124, 240
-0.992022, 241, 197, 304, 228
-0.992042, 113, 249, 176, 280
-0.992049, 57, 145, 120, 176
-0.992052, 49, 265, 112, 296
-0.992056, 257, 1, 320, 500
-0.992058, 65, 369, 128, 400
-0.992067, 41, 189, 104, 220
-0.99207, 97, 137, 160, 200
-0.992078, 201, 289, 232, 416
-0.992086, 233, 297, 296, 328
-0.992089, 217, 269, 280, 300
-0.992091, 209, 409, 272, 440
-0.992123, 177, 237, 240, 268
-0.992123, 49, 277, 112, 308
-0.992129, 145, 229, 208, 260
-0.992135, 209, 321, 272, 352
-0.992137, 209, 245, 272, 276
-0.992148, 257, 377, 320, 440
-0.992157, 233, 385, 264, 448
-0.992158, 97, 361, 160, 392
-0.992159, 25, 93, 88, 124
-0.992174, 137, 389, 200, 420
-0.992188, 97, 381, 160, 412
-0.992188, 209, 385, 240, 448
-0.992191, 173, 369, 204, 496
-0.99221, 209, 229, 272, 260
-0.992216, 97, 121, 224, 184
-0.992218, 221, 225, 252, 288
-0.992219, 97, 193, 352, 256
-0.992237, 141, 201, 172, 264
-0.992262, 265, 257, 328, 288
-0.992262, 213, 409, 244, 472
-0.992272, 105, 201, 168, 232
-0.992284, 33, 321, 96, 384
-0.992285, 121, 161, 184, 192
-0.992286, 209, 393, 272, 424
-0.992289, 233, 109, 296, 140
-0.992289, 249, 165, 280, 196
-0.992295, 49, 89, 176, 152
-0.992301, 169, 173, 232, 204
-0.992302, 49, 253, 112, 284
-0.992309, 25, 169, 88, 200
-0.992315, 33, 353, 96, 384
-0.992326, 185, 153, 248, 184
-0.992331, 65, 313, 320, 376
-0.992347, 85, 209, 116, 272
-0.992348, 25, 337, 56, 464
-0.992356, 69, 217, 100, 280
-0.992375, 145, 321, 208, 352
-0.992385, 1, 341, 64, 372
-0.992387, 121, 373, 184, 404
-0.99239, 233, 245, 296, 276
-0.99239, 233, 221, 296, 252
-0.992392, 89, 245, 152, 276
-0.992396, 209, 337, 272, 368
-0.992421, 185, 401, 248, 432
-0.99246, 17, 149, 80, 180
-0.992468, 249, 177, 280, 208
-0.992469, 241, 321, 368, 384
-0.992475, 57, 169, 120, 200
-0.992476, 233, 209, 296, 240
-0.99248, 125, 173, 156, 204
-0.992489, 169, 389, 232, 420
-0.992501, 81, 157, 144, 188
-0.992505, 33, 81, 96, 112
-0.992509, 261, 201, 292, 264
-0.992512, 237, 153, 268, 184
-0.992518, 257, 289, 320, 320
-0.992528, 17, 105, 80, 136
-0.992543, 225, 125, 288, 156
-0.992554, 97, 1, 160, 500
-0.992556, 197, 205, 228, 236
-0.992567, 177, 193, 208, 224
-0.992572, 169, 333, 232, 364
-0.992578, 1, 117, 64, 148
-0.992579, 145, 217, 208, 248
-0.99258, 225, 141, 256, 172
-0.992599, 201, 113, 264, 144
-0.992614, 121, 349, 184, 380
-0.992616, 145, 417, 272, 480
-0.992617, 197, 393, 228, 456
-0.992617, 21, 81, 52, 208
-0.992625, 189, 193, 220, 224
-0.992641, 173, 281, 204, 312
-0.992651, 265, 241, 328, 272
-0.992658, 313, 113, 375, 176
-0.99267, 113, 97, 240, 160
-0.992671, 197, 257, 228, 288
-0.992683, 121, 433, 184, 496
-0.992686, 49, 305, 112, 432
-0.99269, 113, 213, 144, 244
-0.992695, 97, 293, 128, 324
-0.992702, 41, 65, 72, 192
-0.992707, 57, 65, 120, 192
-0.992711, 257, 193, 288, 224
-0.992713, 233, 405, 296, 436
-0.992717, 93, 369, 124, 432
-0.992726, 81, 317, 144, 348
-0.99273, 141, 301, 172, 332
-0.992754, 265, 273, 296, 400
-0.992762, 49, 209, 112, 240
-0.992767, 237, 169, 268, 200
-0.992772, 213, 297, 244, 328
-0.992783, 205, 133, 236, 164
-0.992792, 249, 113, 280, 176
-0.992799, 89, 329, 152, 360
-0.992802, 289, 113, 352, 144
-0.992825, 173, 169, 204, 200
-0.992835, 97, 305, 160, 336
-0.99284, 121, 185, 152, 216
-0.992843, 165, 293, 196, 324
-0.992847, 121, 273, 152, 304
-0.992848, 113, 201, 144, 232
-0.992862, 225, 153, 256, 184
-0.992872, 313, 413, 375, 444
-0.992873, 213, 185, 244, 248
-0.992879, 181, 181, 212, 212
-0.992882, 145, 237, 176, 268
-0.992896, 137, 401, 200, 432
-0.992897, 233, 233, 296, 264
-0.992898, 33, 229, 96, 260
-0.992908, 81, 249, 112, 280
-0.992914, 125, 289, 156, 320
-0.992914, 81, 129, 112, 256
-0.992919, 109, 281, 140, 312
-0.992921, 121, 361, 184, 392
-0.992938, 109, 369, 140, 496
-0.99294, 197, 309, 228, 340
-0.992941, 81, 349, 144, 380
-0.992944, 109, 189, 140, 220
-0.992954, 177, 253, 208, 284
-0.992962, 153, 301, 184, 332
-0.99297, 265, 277, 328, 308
-0.992975, 81, 285, 112, 316
-0.99298, 177, 269, 208, 300
-0.992982, 261, 181, 292, 212
-0.992988, 217, 237, 248, 268
-0.992988, 217, 129, 248, 160
-0.992988, 165, 193, 196, 224
-0.99299, 253, 369, 284, 432
-0.992992, 113, 173, 144, 204
-0.992994, 209, 281, 240, 312
-0.993003, 137, 269, 168, 300
-0.993007, 153, 289, 184, 320
-0.993012, 1, 129, 64, 256
-0.993013, 181, 209, 212, 240
-0.993014, 193, 129, 224, 160
-0.993018, 237, 141, 268, 172
-0.993025, 157, 273, 188, 304
-0.993026, 97, 401, 160, 464
-0.993027, 165, 245, 196, 276
-0.993035, 133, 257, 164, 288
-0.993043, 201, 297, 232, 328
-0.993062, 65, 401, 192, 464
-0.993062, 125, 197, 156, 228
-0.99307, 197, 245, 228, 276
-0.993071, 189, 281, 220, 312
-0.993074, 169, 181, 200, 212
-0.993077, 245, 189, 276, 220
-0.993078, 165, 321, 196, 352
-0.993102, 221, 285, 252, 316
-0.993108, 165, 233, 196, 264
-0.993108, 141, 289, 172, 320
-0.99311, 161, 257, 192, 288
-0.993111, 133, 229, 164, 260
-0.993116, 121, 261, 152, 292
-0.993123, 249, 153, 280, 184
-0.993125, 189, 297, 220, 328
-0.993127, 145, 317, 176, 348
-0.993132, 121, 233, 152, 264
-0.993145, 209, 209, 240, 240
-0.993148, 237, 293, 268, 324
-0.99315, 137, 169, 168, 200
-0.993156, 193, 269, 224, 300
-0.993157, 137, 189, 168, 220
-0.993162, 161, 105, 288, 168
-0.993164, 121, 301, 152, 332
-0.993176, 93, 281, 124, 312
-0.993176, 165, 401, 196, 432
-0.993177, 217, 257, 248, 288
-0.993178, 181, 317, 212, 348
-0.993199, 77, 273, 108, 304
-0.993199, 229, 129, 260, 160
-0.993201, 261, 165, 292, 196
-0.993203, 125, 313, 156, 344
-0.993208, 125, 217, 156, 248
-0.993215, 165, 309, 196, 340
-0.993219, 61, 261, 92, 292
-0.993224, 117, 245, 148, 276
-0.993234, 157, 177, 188, 208
-0.993237, 81, 261, 112, 292
-0.993237, 217, 225, 248, 256
-0.993244, 169, 213, 200, 244
-0.993262, 269, 281, 300, 312
-0.993264, 1, 257, 375, 320
-0.993267, 205, 225, 236, 256
-0.993271, 97, 241, 128, 272
-0.993273, 265, 205, 296, 236
-0.993284, 161, 161, 192, 192
-0.993284, 261, 217, 292, 248
-0.993284, 225, 301, 256, 332
-0.993285, 101, 209, 132, 240
-0.993288, 209, 269, 240, 300
-0.993289, 149, 261, 180, 292
-0.993292, 225, 169, 256, 200
-0.993292, 97, 229, 128, 260
-0.993293, 69, 237, 100, 268
-0.993293, 1, 209, 256, 272
-0.993295, 281, 209, 344, 336
-0.993298, 209, 309, 240, 340
-0.993302, 109, 293, 140, 324
-0.993305, 49, 157, 80, 188
-0.993308, 229, 409, 260, 440
-0.993311, 77, 193, 108, 224
-0.993314, 61, 181, 92, 212
-0.993316, 69, 249, 100, 280
-0.993317, 169, 369, 200, 432
-0.99332, 185, 241, 216, 272
-0.993328, 77, 205, 108, 236
-0.993338, 89, 373, 120, 404
-0.993341, 65, 277, 192, 308
-0.993347, 5, 113, 36, 144
-0.993349, 141, 401, 172, 432
-0.993357, 93, 269, 124, 300
-0.993357, 245, 201, 276, 232
-0.993358, 105, 269, 136, 300
-0.99336, 153, 193, 184, 224
-0.993368, 193, 181, 224, 212
-0.993368, 121, 385, 152, 416
-0.993368, 109, 233, 140, 264
-0.993369, 85, 229, 116, 260
-0.993373, 213, 149, 244, 180
-0.993374, 97, 305, 128, 336
-0.993381, 137, 209, 168, 240
-0.993382, 69, 217, 100, 248
-0.993385, 149, 161, 180, 192
-0.993391, 217, 117, 248, 148
-0.993396, 161, 389, 192, 420
-0.993401, 149, 249, 180, 280
-0.993403, 177, 301, 208, 332
-0.993407, 249, 301, 280, 332
-0.993421, 49, 425, 176, 488
-0.993465, 297, 97, 360, 352
-0.993499, 97, 433, 224, 496
-0.993502, 21, 89, 52, 152
-0.993528, 141, 321, 172, 384
-0.993545, 1, 161, 375, 224
-0.99356, 177, 105, 240, 168
-0.993588, 69, 145, 100, 208
-0.993608, 33, 145, 288, 208
-0.993617, 77, 169, 108, 232
-0.993669, 173, 393, 204, 456
-0.993697, 49, 121, 176, 184
-0.993703, 221, 385, 252, 448
-0.993753, 263, 177, 278, 240
-0.993763, 1, 409, 128, 472
-0.993766, 153, 209, 184, 272
-0.993784, 173, 145, 204, 208
-0.993804, 313, 1, 375, 500
-0.993823, 33, 57, 96, 120
-0.993849, 65, 337, 320, 400
-0.993866, 113, 273, 240, 304
-0.993883, 129, 337, 160, 400
-0.993944, 49, 65, 176, 128
-0.993961, 241, 321, 272, 448
-0.993999, 145, 345, 208, 408
-0.994069, 49, 145, 80, 208
-0.994079, 257, 241, 288, 304
-0.994091, 149, 353, 180, 480
-0.994108, 49, 17, 176, 144
-0.99414, 33, 417, 96, 480
-0.994141, 157, 353, 188, 416
-0.994158, 65, 401, 128, 464
-0.994162, 185, 169, 200, 232
-0.99421, 109, 129, 140, 256
-0.994214, 281, 1, 344, 500
-0.994223, 1, 369, 128, 432
-0.994225, 129, 49, 256, 176
-0.994251, 169, 417, 232, 480
-0.994258, 179, 161, 194, 224
-0.994278, 125, 137, 156, 200
-0.994332, 141, 369, 172, 432
-0.994373, 251, 145, 266, 208
-0.994379, 113, 297, 240, 328
-0.994382, 149, 265, 164, 328
-0.994388, 113, 337, 144, 400
-0.994405, 269, 241, 300, 304
-0.994421, 177, 277, 304, 308
-0.994439, 261, 369, 292, 496
-0.994542, 49, 113, 80, 240
-0.994548, 221, 369, 252, 496
-0.994563, 209, 81, 336, 144
-0.994565, 255, 169, 270, 232
-0.994581, 97, 217, 352, 280
-0.994599, 177, 265, 304, 296
-0.994643, 65, 257, 192, 288
-0.994646, 1, 329, 32, 392
-0.994666, 157, 137, 188, 200
-0.994696, 97, 169, 224, 200
-0.994705, 289, 265, 352, 328
-0.994706, 169, 289, 184, 352
-0.994708, 277, 273, 308, 336
-0.994708, 249, 345, 312, 408
-0.994762, 1, 289, 64, 416
-0.994769, 129, 285, 256, 316
-0.994774, 241, 1, 304, 256
-0.994777, 161, 165, 288, 196
-0.994793, 173, 161, 188, 224
-0.994805, 159, 297, 174, 360
-0.99482, 61, 353, 92, 416
-0.994822, 129, 145, 375, 208
-0.994839, 33, 345, 64, 408
-0.994842, 175, 273, 190, 336
-0.994845, 1, 233, 375, 296
-0.994847, 145, 433, 208, 496
-0.994851, 13, 337, 44, 400
-0.994859, 229, 409, 260, 472
-0.994865, 1, 209, 375, 272
-0.994879, 243, 137, 258, 200
-0.99488, 153, 121, 216, 184
-0.994897, 123, 169, 138, 232
-0.994897, 131, 161, 146, 224
-0.994927, 113, 257, 240, 288
-0.994937, 193, 425, 320, 488
-0.994938, 213, 321, 244, 384
-0.994965, 177, 33, 240, 288
-0.995002, 65, 245, 192, 276
-0.995017, 161, 185, 288, 216
-0.995068, 211, 201, 226, 264
-0.99507, 241, 345, 368, 408
-0.995093, 113, 209, 240, 240
-0.995137, 191, 177, 206, 240
-0.995153, 249, 217, 280, 280
-0.995184, 177, 185, 192, 248
-0.995199, 225, 305, 256, 368
-0.995205, 1, 81, 64, 144
-0.99521, 161, 209, 288, 240
-0.995217, 65, 289, 192, 320
-0.99523, 209, 105, 240, 168
-0.995258, 269, 169, 284, 232
-0.995263, 109, 377, 140, 440
-0.995324, 129, 229, 256, 260
-0.995353, 237, 129, 252, 192
-0.995387, 133, 265, 148, 328
-0.99539, 49, 81, 80, 144
-0.995418, 81, 361, 112, 424
-0.995426, 33, 113, 288, 176
-0.995459, 65, 81, 96, 208
-0.995481, 281, 257, 344, 384
-0.995487, 1, 369, 256, 432
-0.995497, 143, 265, 158, 328
-0.995497, 143, 289, 158, 352
-0.995507, 237, 193, 268, 256
-0.995514, 345, 409, 375, 472
-0.995521, 129, 401, 375, 464
-0.995525, 57, 241, 88, 368
-0.995527, 273, 97, 304, 224
-0.995532, 233, 49, 296, 176
-0.995551, 9, 169, 72, 232
-0.995637, 177, 249, 304, 280
-0.995646, 197, 289, 212, 352
-0.99567, 113, 197, 240, 228
-0.995679, 221, 217, 236, 280
-0.995682, 1, 289, 375, 352
-0.995697, 129, 241, 256, 272
-0.995747, 153, 289, 168, 352
-0.995748, 1, 185, 375, 248
-0.995752, 191, 241, 206, 304
-0.995754, 157, 265, 172, 328
-0.99576, 137, 161, 152, 224
-0.995764, 113, 321, 240, 352
-0.995773, 271, 193, 286, 256
-0.995778, 1, 137, 375, 200
-0.995786, 117, 201, 132, 264
-0.995815, 111, 281, 126, 344
-0.995816, 61, 113, 92, 176
-0.995849, 205, 289, 220, 352
-0.995855, 223, 273, 238, 336
-0.995861, 141, 97, 172, 224
-0.995872, 167, 249, 182, 312
-0.99588, 193, 369, 224, 432
-0.995892, 33, 173, 160, 204
-0.995895, 97, 181, 224, 212
-0.995899, 167, 153, 182, 216
-0.995917, 69, 305, 100, 432
-0.995926, 65, 193, 192, 224
-0.995929, 193, 433, 256, 496
-0.995929, 137, 145, 168, 208
-0.995932, 85, 249, 100, 312
-0.99594, 165, 97, 196, 224
-0.995955, 131, 185, 146, 248
-0.995962, 205, 201, 220, 264
-0.995986, 263, 153, 278, 216
-0.996005, 191, 273, 206, 336
-0.996036, 199, 185, 214, 248
-0.996042, 121, 33, 184, 288
-0.99605, 57, 425, 120, 488
-0.99609, 73, 65, 136, 128
-0.996099, 121, 273, 136, 336
-0.996124, 17, 265, 144, 296
-0.99613, 313, 257, 375, 500
-0.996134, 137, 185, 152, 248
-0.996137, 33, 157, 160, 188
-0.996146, 177, 197, 304, 228
-0.996175, 185, 297, 200, 360
-0.996196, 185, 201, 200, 264
-0.99622, 245, 161, 260, 224
-0.996231, 217, 265, 232, 328
-0.996238, 65, 301, 192, 332
-0.996246, 167, 313, 182, 376
-0.996258, 1, 89, 256, 152
-0.996276, 197, 257, 212, 320
-0.996279, 65, 209, 192, 240
-0.99628, 229, 121, 244, 184
-0.996295, 161, 305, 288, 336
-0.996299, 161, 317, 288, 348
-0.99631, 95, 265, 110, 328
-0.996312, 329, 97, 360, 224
-0.996314, 183, 257, 198, 320
-0.996317, 65, 225, 192, 256
-0.99632, 257, 145, 272, 208
-0.996357, 191, 297, 206, 360
-0.996373, 1, 329, 375, 392
-0.996399, 111, 209, 126, 272
-0.996411, 289, 209, 352, 272
-0.996417, 193, 209, 208, 272
-0.99642, 209, 225, 336, 256
-0.996452, 177, 289, 304, 320
-0.996455, 117, 193, 148, 448
-0.99649, 33, 393, 288, 456
-0.996497, 163, 273, 178, 336
-0.996505, 173, 313, 188, 376
-0.996507, 91, 241, 106, 304
-0.996511, 161, 161, 176, 224
-0.996523, 105, 281, 120, 344
-0.996523, 65, 313, 192, 344
-0.996551, 73, 217, 88, 280
-0.996579, 265, 201, 280, 264
-0.996597, 213, 297, 228, 360
-0.9966, 33, 385, 96, 448
-0.996606, 177, 237, 304, 268
-0.996606, 273, 369, 304, 496
-0.996612, 241, 433, 368, 496
-0.99662, 125, 193, 140, 256
-0.996624, 161, 153, 288, 184
-0.996632, 125, 217, 140, 280
-0.996642, 101, 257, 116, 320
-0.996659, 171, 185, 186, 248
-0.996673, 271, 265, 286, 328
-0.996678, 127, 265, 142, 328
-0.996703, 257, 289, 272, 352
-0.996739, 225, 181, 352, 212
-0.99674, 89, 273, 104, 336
-0.996769, 161, 241, 176, 304
-0.996784, 179, 209, 194, 272
-0.99679, 79, 249, 94, 312
-0.996794, 209, 225, 240, 480
-0.996804, 237, 129, 268, 384
-0.996809, 127, 241, 142, 304
-0.996809, 145, 73, 272, 136
-0.996816, 81, 1, 144, 256
-0.996826, 185, 233, 200, 296
-0.996846, 197, 161, 212, 224
-0.996852, 235, 273, 250, 336
-0.996871, 221, 129, 236, 192
-0.996893, 313, 193, 375, 256
-0.996894, 143, 161, 158, 224
-0.996904, 1, 109, 128, 140
-0.996907, 129, 369, 375, 432
-0.996912, 133, 289, 148, 352
-0.996913, 215, 233, 230, 296
-0.996914, 203, 257, 218, 320
-0.99692, 197, 313, 212, 376
-0.996936, 113, 309, 240, 340
-0.996945, 101, 193, 132, 448
-0.996958, 127, 297, 142, 360
-0.996962, 219, 193, 234, 256
-0.996967, 177, 161, 208, 416
-0.996976, 263, 289, 278, 352
-0.996981, 165, 257, 196, 500
-0.996989, 237, 153, 252, 216
-0.996995, 257, 193, 272, 256
-0.997002, 17, 277, 144, 308
-0.997011, 207, 313, 222, 376
-0.99702, 219, 305, 234, 368
-0.997024, 179, 313, 194, 376
-0.997029, 209, 165, 336, 196
-0.997031, 117, 297, 132, 360
-0.997032, 89, 257, 120, 500
-0.997039, 257, 81, 320, 144
-0.99705, 209, 109, 336, 140
-0.997059, 197, 193, 228, 448
-0.997072, 173, 249, 188, 312
-0.997079, 209, 213, 336, 244
-0.997098, 97, 333, 224, 364
-0.9971, 249, 129, 280, 384
-0.997101, 147, 393, 162, 456
-0.997103, 107, 257, 122, 320
-0.997121, 129, 401, 256, 432
-0.997131, 125, 329, 140, 392
-0.997138, 115, 249, 130, 312
-0.997141, 277, 273, 308, 400
-0.997153, 305, 169, 368, 232
-0.99716, 1, 401, 375, 464
-0.997169, 305, 209, 368, 336
-0.997178, 145, 185, 160, 248
-0.997188, 25, 273, 56, 400
-0.997188, 169, 209, 184, 272
-0.997195, 211, 177, 226, 240
-0.9972, 205, 177, 220, 240
-0.99721, 73, 241, 88, 304
-0.997218, 115, 177, 130, 240
-0.99723, 133, 225, 148, 288
-0.997233, 277, 209, 308, 336
-0.997238, 277, 273, 292, 336
-0.997241, 129, 121, 375, 184
-0.997243, 9, 401, 72, 464
-0.997249, 281, 225, 344, 480
-0.997249, 75, 177, 90, 240
-0.997252, 1, 105, 375, 168
-0.997261, 221, 241, 236, 304
-0.997265, 153, 33, 216, 288
-0.997273, 227, 209, 242, 272
-0.997281, 211, 257, 226, 320
-0.997281, 237, 105, 252, 168
-0.997286, 243, 281, 258, 344
-0.997299, 143, 241, 158, 304
-0.997306, 193, 125, 320, 156
-0.997311, 313, 217, 375, 280
-0.997317, 271, 289, 286, 352
-0.997332, 265, 177, 280, 208
-0.997332, 231, 297, 246, 360
-0.997336, 341, 113, 372, 240
-0.997344, 153, 153, 168, 216
-0.997347, 213, 129, 228, 192
-0.997362, 17, 189, 144, 220
-0.997364, 263, 193, 278, 224
-0.997365, 1, 97, 128, 128
-0.997368, 293, 97, 324, 224
-0.997371, 241, 257, 368, 288
-0.997372, 225, 409, 240, 472
-0.997378, 165, 393, 180, 456
-0.997387, 17, 333, 144, 364
-0.997388, 161, 329, 288, 360
-0.997388, 99, 289, 114, 352
-0.997392, 161, 129, 192, 384
-0.997394, 225, 289, 352, 320
-0.997396, 233, 257, 264, 500
-0.997401, 253, 169, 268, 200
-0.997415, 97, 233, 112, 296
-0.997417, 65, 353, 192, 384
-0.997417, 159, 401, 174, 464
-0.997423, 221, 129, 252, 384
-0.997423, 203, 121, 218, 184
-0.997442, 77, 257, 108, 500
-0.997445, 149, 241, 164, 304
-0.997454, 161, 321, 176, 384
-0.997462, 69, 177, 84, 240
-0.997464, 145, 133, 272, 164
-0.997484, 171, 369, 186, 432
-0.997486, 81, 193, 96, 256
-0.997488, 1, 433, 256, 496
-0.9975, 209, 301, 336, 332
-0.997508, 281, 321, 344, 448
-0.997508, 221, 257, 252, 500
-0.997508, 225, 297, 240, 360
-0.997511, 135, 313, 150, 376
-0.997513, 253, 225, 284, 480
-0.997515, 161, 381, 288, 412
-0.997518, 33, 265, 96, 328
-0.997536, 181, 257, 212, 500
-0.997538, 1, 357, 128, 388
-0.997543, 193, 185, 208, 216
-0.997553, 225, 277, 352, 308
-0.997575, 247, 161, 262, 192
-0.997583, 49, 369, 176, 400
-0.997586, 289, 241, 352, 304
-0.997588, 57, 289, 88, 416
-0.997592, 145, 257, 176, 500
-0.997594, 209, 153, 336, 184
-0.99762, 313, 97, 344, 224
-0.997643, 65, 257, 96, 500
-0.997651, 127, 173, 142, 204
-0.997665, 187, 193, 202, 224
-0.997667, 1, 369, 375, 432
-0.997679, 209, 413, 336, 444
-0.997699, 45, 289, 76, 416
-0.9977, 97, 365, 224, 396
-0.997703, 269, 189, 284, 220
-0.997726, 205, 97, 236, 352
-0.997729, 129, 129, 160, 384
-0.997758, 1, 257, 32, 384
-0.997764, 259, 177, 274, 208
-0.997768, 177, 281, 192, 312
-0.99777, 1, 289, 128, 320
-0.997774, 123, 193, 138, 224
-0.997777, 241, 141, 256, 172
-0.997781, 235, 149, 250, 180
-0.997797, 133, 273, 148, 304
-0.997801, 211, 209, 226, 240
-0.997802, 263, 165, 278, 196
-0.997806, 175, 193, 190, 224
-0.997807, 1, 17, 256, 144
-0.997808, 17, 201, 144, 232
-0.997808, 161, 345, 288, 376
-0.997815, 223, 297, 238, 328
-0.997834, 241, 153, 256, 184
-0.997837, 141, 289, 156, 320
-0.997845, 247, 149, 262, 180
-0.99785, 65, 381, 192, 412
-0.997853, 181, 193, 196, 224
-0.997856, 1, 161, 64, 416
-0.997863, 185, 181, 200, 212
-0.997869, 115, 209, 130, 240
-0.99788, 133, 257, 164, 500
-0.997884, 225, 193, 352, 224
-0.99789, 33, 145, 160, 176
-0.997893, 147, 273, 162, 304
-0.997895, 297, 369, 328, 496
-0.997914, 253, 153, 268, 184
-0.997914, 131, 193, 146, 224
-0.997915, 149, 301, 164, 332
-0.997945, 113, 389, 240, 420
-0.997976, 69, 97, 100, 352
-0.998001, 113, 377, 240, 408
-0.998003, 85, 161, 116, 416
-0.998013, 113, 157, 240, 188
-0.998015, 1, 81, 375, 144
-0.998019, 199, 193, 214, 224
-0.998024, 157, 241, 172, 272
-0.998026, 203, 205, 218, 236
-0.99804, 241, 245, 368, 276
-0.99804, 159, 301, 174, 332
-0.99804, 113, 349, 240, 380
-0.998061, 221, 245, 236, 276
-0.998062, 129, 121, 256, 152
-0.998065, 17, 213, 144, 244
-0.998069, 1, 245, 128, 276
-0.998071, 257, 189, 272, 220
-0.998085, 181, 169, 196, 200
-0.998086, 161, 361, 288, 392
-0.998087, 177, 393, 304, 424
-0.998092, 203, 129, 218, 160
-0.9981, 207, 301, 222, 332
-0.998104, 169, 293, 184, 324
-0.998106, 209, 141, 336, 172
-0.998109, 215, 133, 230, 164
-0.998112, 227, 141, 242, 172
-0.998117, 107, 293, 122, 324
-0.998127, 213, 301, 228, 332
-0.99813, 91, 281, 106, 312
-0.998132, 191, 249, 206, 280
-0.998149, 121, 181, 136, 212
-0.998158, 265, 257, 296, 500
-0.998162, 167, 321, 182, 352
-0.998162, 33, 65, 288, 128
-0.998168, 241, 169, 256, 200
-0.998169, 135, 169, 150, 200
-0.99817, 17, 233, 144, 264
-0.998176, 169, 273, 184, 304
-0.998177, 129, 97, 375, 160
-0.998182, 185, 213, 200, 244
-0.998183, 209, 129, 224, 160
-0.998193, 193, 205, 208, 236
-0.998208, 221, 137, 236, 168
-0.99821, 125, 205, 140, 236
-0.99821, 147, 289, 162, 320
-0.998217, 175, 169, 190, 200
-0.99822, 127, 273, 142, 304
-0.998222, 269, 201, 284, 232
-0.998223, 221, 281, 236, 312
-0.998227, 133, 181, 148, 212
-0.998234, 223, 221, 238, 252
-0.998241, 233, 129, 248, 160
-0.998241, 17, 305, 144, 336
-0.998254, 117, 193, 132, 224
-0.998267, 199, 297, 214, 328
-0.998273, 117, 281, 132, 312
-0.998275, 165, 257, 180, 288
-0.998277, 139, 277, 154, 308
-0.998279, 1, 121, 128, 152
-0.99831, 199, 261, 214, 292
-0.998316, 333, 369, 364, 496
-0.998321, 81, 269, 96, 300
-0.998323, 205, 313, 220, 344
-0.998331, 113, 239, 144, 254
-0.998331, 217, 219, 248, 234
-0.998332, 217, 267, 248, 282
-0.998332, 193, 275, 224, 290
-0.998333, 237, 181, 268, 196
-0.998333, 129, 249, 160, 264
-0.998333, 61, 263, 92, 278
-0.998334, 129, 233, 160, 248
-0.998334, 113, 173, 144, 188
-0.998334, 157, 209, 188, 224
-0.998335, 213, 235, 244, 250
-0.998335, 153, 243, 184, 258
-0.998337, 133, 223, 164, 238
-0.998337, 165, 401, 196, 416
-0.998337, 165, 283, 196, 298
-0.998338, 177, 295, 208, 310
-0.998338, 161, 187, 192, 202
-0.99834, 217, 257, 248, 272
-0.99834, 77, 257, 108, 272
-0.99834, 81, 241, 112, 256
-0.99834, 229, 301, 260, 316
-0.99834, 73, 251, 104, 266
-0.998341, 237, 187, 268, 202
-0.998343, 77, 281, 108, 296
-0.998343, 249, 157, 280, 172
-0.998344, 181, 251, 212, 266
-0.998345, 113, 289, 144, 304
-0.998346, 157, 319, 188, 334
-0.998347, 49, 109, 176, 140
-0.998347, 133, 265, 164, 280
-0.998347, 141, 233, 172, 248
-0.998347, 217, 243, 248, 258
-0.998348, 97, 433, 352, 496
-0.998349, 257, 215, 288, 230
-0.99835, 225, 169, 256, 184
-0.998351, 157, 277, 188, 292
-0.998351, 157, 267, 188, 282
-0.998351, 125, 209, 156, 224
-0.998351, 261, 173, 292, 188
-0.998352, 161, 313, 176, 344
-0.998353, 257, 165, 288, 180
-0.998353, 113, 233, 144, 248
-0.998354, 113, 223, 144, 238
-0.998355, 189, 197, 220, 212
-0.998357, 81, 265, 112, 280
-0.998359, 257, 205, 288, 220
-0.998359, 211, 253, 226, 284
-0.99836, 213, 249, 244, 264
-0.99836, 97, 285, 128, 300
-0.998361, 163, 245, 178, 276
-0.998362, 121, 269, 152, 284
-0.998362, 197, 245, 228, 260
-0.998362, 217, 133, 248, 148
-0.998364, 201, 319, 232, 334
-0.998365, 137, 239, 168, 254
-0.998365, 165, 325, 196, 340
-0.998365, 237, 175, 268, 190
-0.998365, 213, 293, 244, 308
-0.998366, 261, 179, 292, 194
-0.998366, 193, 97, 224, 352
-0.998366, 97, 243, 128, 258
-0.99837, 177, 177, 208, 192
-0.99837, 109, 199, 140, 214
-0.99837, 121, 201, 152, 216
-0.998371, 145, 321, 176, 336
-0.998371, 261, 185, 292, 200
-0.998371, 185, 319, 216, 334
-0.998372, 201, 215, 232, 230
-0.998373, 179, 213, 194, 244
-0.998374, 145, 193, 176, 208
-0.998374, 205, 277, 236, 292
-0.998375, 145, 315, 176, 330
-0.998377, 197, 301, 228, 316
-0.998377, 125, 289, 156, 304
-0.998379, 85, 289, 116, 304
-0.99838, 113, 297, 144, 312
-0.998383, 229, 301, 244, 332
-0.998384, 105, 189, 136, 204
-0.998385, 5, 49, 36, 176
-0.998386, 261, 191, 292, 206
-0.998386, 193, 251, 224, 266
-0.998386, 165, 257, 196, 272
-0.998388, 187, 169, 202, 200
-0.99839, 101, 291, 132, 306
-0.998391, 245, 195, 276, 210
-0.998393, 197, 257, 228, 272
-0.998394, 177, 265, 208, 280
-0.998396, 165, 197, 196, 212
-0.998396, 209, 139, 240, 154
-0.998396, 161, 329, 176, 360
-0.998396, 229, 295, 260, 310
-0.998397, 121, 185, 152, 200
-0.998399, 217, 147, 248, 162
-0.998401, 181, 211, 212, 226
-0.998401, 127, 285, 142, 316
-0.998401, 117, 245, 148, 260
-0.998403, 145, 249, 176, 264
-0.998403, 121, 179, 152, 194
-0.998404, 193, 301, 208, 332
-0.998404, 173, 183, 204, 198
-0.998406, 269, 213, 284, 244
-0.998407, 165, 251, 196, 266
-0.998407, 185, 261, 200, 292
-0.998409, 197, 125, 212, 156
-0.99841, 229, 161, 260, 176
-0.998412, 137, 271, 168, 286
-0.998413, 157, 261, 172, 292
-0.998413, 169, 171, 200, 186
-0.998413, 33, 133, 160, 164
-0.998414, 49, 65, 80, 320
-0.998415, 141, 161, 172, 416
-0.998416, 201, 313, 232, 328
-0.998417, 233, 147, 264, 162
-0.998421, 169, 201, 184, 232
-0.998421, 213, 305, 244, 320
-0.998424, 271, 177, 286, 208
-0.998427, 225, 141, 256, 156
-0.998428, 153, 289, 168, 320
-0.998428, 225, 155, 256, 170
-0.998429, 215, 265, 230, 296
-0.99843, 133, 301, 164, 316
-0.998431, 197, 269, 228, 284
-0.998434, 117, 191, 148, 206
-0.998436, 205, 193, 220, 224
-0.998437, 121, 275, 152, 290
-0.998441, 181, 257, 212, 272
-0.998442, 189, 131, 220, 146
-0.998443, 237, 153, 268, 168
-0.998444, 251, 189, 266, 220
-0.998447, 121, 297, 136, 328
-0.998448, 177, 201, 208, 216
-0.998448, 141, 173, 156, 204
-0.998448, 129, 195, 160, 210
-0.998449, 177, 275, 208, 290
-0.99845, 221, 233, 236, 264
-0.99845, 133, 295, 164, 310
-0.99845, 149, 291, 180, 306
-0.998453, 179, 181, 194, 212
-0.998455, 217, 299, 248, 314
-0.998457, 231, 289, 246, 320
-0.998457, 113, 215, 144, 230
-0.998459, 261, 205, 276, 236
-0.99846, 169, 289, 200, 304
-0.998461, 157, 301, 188, 316
-0.998462, 133, 237, 148, 268
-0.998469, 201, 133, 232, 148
-0.998471, 177, 281, 208, 296
-0.998473, 151, 257, 166, 288
-0.998479, 201, 263, 232, 278
-0.998482, 185, 185, 216, 200
-0.998484, 101, 293, 116, 324
-0.998485, 191, 281, 206, 312
-0.998485, 125, 173, 156, 188
-0.998485, 193, 269, 208, 300
-0.998486, 97, 297, 128, 312
-0.998489, 197, 245, 212, 276
-0.998489, 89, 283, 152, 298
-0.998495, 185, 191, 216, 206
-0.998495, 177, 277, 240, 292
-0.998498, 145, 297, 176, 312
-0.998499, 17, 85, 144, 116
-0.9985, 209, 321, 336, 352
-0.9985, 249, 183, 280, 198
-0.998501, 145, 305, 176, 320
-0.998504, 139, 193, 154, 224
-0.998505, 257, 199, 288, 214
-0.998506, 57, 161, 88, 416
-0.998508, 125, 329, 140, 360
-0.998509, 89, 289, 152, 304
-0.99851, 169, 209, 232, 224
-0.998512, 219, 205, 234, 236
-0.998512, 217, 217, 232, 248
-0.998512, 107, 233, 122, 264
-0.998512, 195, 313, 210, 344
-0.998515, 81, 249, 96, 280
-0.998516, 285, 369, 316, 496
-0.998517, 99, 281, 114, 312
-0.998526, 33, 429, 160, 460
-0.998527, 215, 285, 230, 316
-0.998528, 249, 177, 280, 192
-0.998529, 249, 189, 280, 204
-0.998529, 177, 263, 240, 278
-0.998531, 189, 321, 204, 352
-0.998532, 173, 191, 204, 206
-0.998534, 129, 291, 192, 306
-0.998538, 73, 273, 136, 288
-0.998539, 177, 271, 240, 286
-0.998541, 241, 163, 272, 178
-0.998541, 143, 301, 158, 332
-0.998541, 165, 295, 196, 310
-0.998541, 25, 65, 56, 320
-0.998544, 129, 277, 192, 292
-0.998544, 141, 233, 156, 264
-0.998546, 193, 207, 224, 222
-0.998546, 169, 287, 232, 302
-0.998546, 179, 269, 194, 300
-0.998548, 73, 229, 88, 260
-0.998549, 153, 255, 216, 270
-0.998551, 129, 283, 192, 298
-0.998552, 81, 191, 144, 206
-0.998553, 139, 265, 154, 296
-0.998557, 217, 299, 280, 314
-0.998559, 193, 137, 256, 152
-0.99856, 161, 295, 224, 310
-0.998562, 245, 169, 276, 184
-0.998563, 105, 295, 168, 310
-0.998564, 121, 173, 184, 188
-0.998565, 265, 129, 296, 384
-0.998565, 75, 261, 90, 292
-0.998567, 247, 173, 262, 204
-0.998568, 131, 225, 146, 256
-0.998569, 233, 167, 296, 182
-0.998574, 193, 131, 256, 146
-0.998574, 153, 261, 216, 276
-0.998575, 169, 321, 232, 336
-0.998575, 113, 243, 176, 258
-0.998576, 241, 185, 304, 200
-0.998577, 153, 191, 216, 206
-0.998577, 317, 353, 348, 480
-0.998579, 169, 203, 232, 218
-0.99858, 221, 265, 236, 296
-0.998582, 117, 97, 148, 352
-0.998586, 113, 187, 176, 202
-0.998586, 129, 109, 256, 140
-0.998587, 169, 215, 232, 230
-0.998587, 241, 173, 304, 188
-0.998588, 273, 281, 288, 312
-0.998588, 105, 303, 168, 318
-0.998589, 209, 143, 272, 158
-0.99859, 131, 205, 146, 236
-0.99859, 145, 183, 208, 198
-0.998591, 193, 317, 256, 332
-0.998592, 11, 117, 26, 148
-0.998592, 113, 445, 240, 476
-0.998594, 73, 267, 136, 282
-0.998594, 209, 211, 272, 226
-0.998595, 107, 213, 122, 244
-0.998595, 209, 171, 272, 186
-0.998598, 169, 133, 232, 148
-0.998598, 121, 323, 184, 338
-0.9986, 241, 179, 304, 194
-0.9986, 153, 247, 216, 262
-0.998602, 297, 49, 360, 176
-0.998602, 185, 297, 248, 312
-0.998602, 113, 181, 176, 196
-0.998603, 209, 149, 272, 164
-0.998603, 145, 171, 208, 186
-0.998604, 49, 97, 176, 128
-0.998605, 129, 303, 192, 318
-0.998605, 121, 269, 136, 300
-0.998607, 225, 159, 288, 174
-0.998607, 241, 191, 304, 206
-0.998607, 161, 301, 224, 316
-0.998608, 217, 177, 280, 192
-0.998608, 123, 253, 138, 284
-0.998608, 87, 193, 102, 224
-0.998608, 177, 321, 192, 352
-0.998609, 121, 329, 184, 344
-0.998609, 217, 183, 280, 198
-0.99861, 217, 271, 280, 286
-0.998612, 105, 277, 168, 292
-0.998612, 65, 245, 128, 260
-0.998612, 129, 223, 192, 238
-0.998615, 137, 297, 200, 312
-0.998615, 177, 257, 240, 272
-0.998616, 113, 193, 176, 208
-0.998616, 89, 239, 152, 254
-0.998617, 151, 229, 166, 260
-0.998618, 113, 311, 176, 326
-0.998619, 153, 267, 216, 282
-0.99862, 113, 271, 176, 286
-0.99862, 183, 321, 198, 352
-0.998623, 153, 313, 216, 328
-0.998624, 97, 225, 160, 240
-0.998631, 121, 337, 184, 352
-0.998631, 97, 233, 160, 248
-0.998632, 193, 125, 256, 140
-0.998633, 121, 249, 184, 264
-0.998635, 153, 197, 216, 212
-0.998635, 185, 191, 248, 206
-0.998636, 73, 261, 136, 276
-0.998636, 193, 303, 256, 318
-0.998638, 65, 217, 128, 232
-0.998639, 121, 217, 184, 232
-0.998641, 209, 165, 272, 180
-0.998641, 217, 293, 280, 308
-0.998643, 209, 205, 272, 220
-0.998643, 121, 167, 184, 182
-0.998643, 153, 275, 216, 290
-0.998643, 113, 317, 176, 332
-0.998643, 217, 285, 280, 300
-0.998643, 145, 177, 208, 192
-0.998644, 121, 237, 184, 252
-0.998645, 209, 217, 272, 232
-0.998646, 65, 281, 128, 296
-0.998649, 233, 279, 296, 294
-0.998649, 137, 207, 200, 222
-0.99865, 177, 221, 240, 236
-0.998651, 209, 327, 272, 342
-0.998651, 209, 259, 272, 274
-0.998652, 89, 245, 152, 260
-0.998652, 57, 235, 120, 250
-0.998652, 81, 185, 144, 200
-0.998655, 209, 189, 272, 204
-0.998656, 217, 137, 280, 152
-0.998657, 97, 175, 160, 190
-0.998657, 121, 229, 184, 244
-0.998658, 185, 249, 248, 264
-0.998659, 193, 155, 256, 170
-0.99866, 89, 215, 152, 230
-0.99866, 65, 251, 128, 266
-0.99866, 113, 201, 176, 216
-0.99866, 241, 201, 304, 216
-0.998661, 97, 369, 160, 384
-0.998661, 161, 401, 224, 416
-0.998662, 153, 241, 216, 256
-0.998662, 57, 229, 120, 244
-0.998663, 169, 327, 232, 342
-0.998663, 209, 311, 272, 326
-0.998664, 57, 161, 120, 176
-0.998665, 73, 197, 136, 212
-0.998665, 209, 265, 272, 280
-0.998668, 193, 291, 256, 306
-0.998668, 209, 413, 272, 428
-0.998668, 73, 223, 136, 238
-0.998669, 121, 343, 184, 358
-0.99867, 145, 97, 208, 224
-0.99867, 185, 147, 248, 162
-0.998671, 1, 369, 128, 400
-0.998672, 49, 287, 112, 302
-0.998674, 49, 41, 176, 104
-0.998676, 153, 307, 216, 322
-0.998677, 217, 199, 280, 214
-0.998677, 41, 191, 104, 206
-0.998677, 177, 185, 240, 200
-0.998679, 217, 131, 280, 146
-0.998679, 185, 177, 248, 192
-0.998679, 209, 279, 272, 294
-0.99868, 57, 173, 120, 188
-0.99868, 65, 207, 128, 222
-0.99868, 153, 281, 216, 296
-0.99868, 145, 215, 208, 230
-0.998681, 113, 211, 176, 226
-0.998699, 17, 345, 144, 376
-0.998702, 297, 161, 360, 288
-0.998719, 161, 453, 288, 484
-0.998722, 225, 401, 352, 432
-0.998738, 65, 393, 192, 424
-0.998751, 265, 33, 328, 288
-0.998771, 225, 33, 256, 288
-0.998808, 209, 465, 336, 496
-0.998809, 9, 33, 72, 160
-0.998829, 217, 241, 232, 368
-0.998833, 183, 225, 198, 352
-0.998838, 17, 321, 144, 352
-0.998852, 97, 417, 224, 448
-0.998854, 53, 65, 84, 192
-0.998857, 211, 193, 226, 320
-0.998858, 1, 49, 128, 112
-0.998869, 265, 321, 296, 448
-0.99888, 189, 241, 204, 368
-0.998901, 241, 341, 368, 372
-0.998927, 159, 241, 174, 368
-0.998931, 153, 257, 168, 384
-0.998938, 115, 193, 130, 320
-0.998964, 241, 357, 368, 388
-0.998967, 245, 97, 260, 224
-0.998971, 175, 145, 190, 272
-0.998973, 123, 177, 138, 304
-0.998982, 97, 133, 224, 164
-0.998986, 49, 121, 176, 152
-0.998989, 203, 193, 218, 320
-0.998998, 187, 161, 202, 288
-0.999008, 1, 417, 128, 448
-0.999009, 241, 369, 368, 400
-0.99902, 45, 193, 76, 448
-0.999031, 13, 65, 44, 320
-0.999031, 179, 305, 194, 432
-0.999035, 255, 129, 270, 256
-0.999043, 129, 97, 256, 128
-0.999044, 173, 305, 188, 432
-0.999048, 223, 241, 238, 368
-0.999049, 253, 33, 284, 288
-0.999051, 263, 145, 278, 272
-0.999052, 37, 65, 68, 320
-0.999061, 181, 161, 196, 288
-0.999062, 195, 241, 210, 368
-0.999063, 173, 257, 188, 384
-0.999068, 165, 241, 180, 368
-0.999078, 193, 193, 208, 320
-0.999081, 313, 1, 375, 256
-0.999082, 81, 433, 208, 464
-0.999089, 109, 209, 124, 336
-0.999102, 89, 273, 104, 400
-0.999113, 1, 25, 128, 88
-0.999117, 277, 97, 308, 352
-0.999126, 167, 145, 182, 272
-0.999128, 209, 65, 240, 192
-0.999128, 93, 209, 108, 336
-0.999129, 163, 305, 178, 432
-0.999139, 109, 289, 124, 416
-0.999144, 119, 305, 134, 432
-0.999152, 127, 241, 142, 368
-0.999153, 125, 321, 140, 448
-0.999156, 83, 193, 98, 320
-0.999159, 161, 413, 288, 444
-0.999164, 213, 289, 228, 416
-0.999164, 99, 289, 114, 416
-0.99917, 77, 193, 92, 320
-0.999173, 263, 209, 278, 336
-0.99918, 209, 381, 336, 412
-0.99918, 205, 241, 220, 368
-0.999189, 209, 97, 336, 128
-0.999201, 345, 353, 375, 480
-0.999202, 115, 241, 130, 368
-0.999203, 157, 161, 172, 288
-0.999204, 135, 257, 150, 384
-0.999205, 175, 193, 190, 320
-0.999206, 49, 409, 176, 440
-0.999208, 189, 305, 204, 432
-0.999214, 143, 241, 158, 368
-0.999214, 257, 177, 272, 304
-0.999217, 249, 145, 264, 272
-0.999228, 97, 65, 224, 128
-0.999231, 217, 193, 232, 320
-0.999231, 1, 257, 32, 500
-0.999232, 211, 113, 226, 240
-0.999232, 97, 97, 128, 352
-0.999234, 229, 225, 244, 352
-0.99924, 301, 97, 332, 352
-0.999253, 99, 209, 114, 336
-0.999273, 237, 273, 252, 400
-0.999276, 49, 17, 112, 144
-0.999279, 237, 129, 252, 256
-0.999283, 289, 97, 320, 352
-0.999285, 201, 305, 216, 432
-0.999294, 131, 337, 146, 464
-0.999305, 151, 209, 166, 336
-0.999305, 13, 257, 44, 500
-0.999307, 261, 273, 276, 400
-0.999307, 199, 145, 214, 272
-0.999308, 193, 145, 208, 272
-0.999326, 171, 369, 186, 496
-0.999327, 83, 273, 98, 400
-0.999328, 211, 241, 226, 368
-0.999334, 243, 145, 258, 272
-0.999338, 269, 225, 284, 352
-0.999341, 269, 161, 284, 288
-0.999347, 195, 305, 210, 432
-0.999348, 133, 161, 148, 288
-0.999357, 137, 209, 152, 336
-0.999361, 143, 161, 158, 288
-0.999368, 109, 369, 124, 496
-0.999368, 225, 445, 352, 476
-0.999368, 205, 129, 220, 256
-0.999368, 231, 289, 246, 416
-0.999369, 265, 97, 280, 224
-0.999374, 29, 257, 60, 500
-0.999374, 121, 241, 136, 368
-0.999378, 145, 429, 272, 460
-0.999382, 149, 369, 164, 496
-0.999382, 105, 161, 120, 288
-0.999382, 157, 321, 172, 448
-0.99939, 313, 97, 344, 352
-0.999393, 207, 305, 222, 432
-0.999395, 329, 97, 360, 352
-0.9994, 223, 161, 238, 288
-0.9994, 115, 369, 130, 496
-0.999401, 99, 353, 114, 480
-0.999402, 65, 161, 80, 288
-0.999402, 247, 369, 262, 496
-0.999404, 13, 273, 44, 400
-0.999407, 71, 177, 86, 304
-0.999411, 87, 145, 102, 272
-0.999413, 165, 369, 180, 496
-0.999413, 1, 433, 375, 496
-0.999417, 169, 193, 184, 320
-0.999417, 245, 273, 260, 400
-0.999418, 61, 337, 76, 464
-0.999421, 143, 305, 158, 432
-0.999425, 235, 81, 250, 208
-0.999428, 209, 353, 224, 480
-0.99943, 81, 145, 208, 176
-0.999436, 71, 353, 86, 480
-0.999441, 137, 353, 152, 480
-0.999443, 149, 145, 164, 272
-0.999446, 137, 305, 152, 432
-0.999446, 125, 369, 140, 496
-0.999451, 253, 289, 268, 416
-0.999453, 217, 129, 232, 256
-0.999454, 65, 85, 192, 116
-0.999459, 221, 49, 252, 176
-0.999459, 275, 193, 290, 320
-0.999471, 183, 113, 198, 240
-0.999471, 241, 369, 256, 496
-0.999474, 267, 273, 282, 400
-0.999474, 225, 289, 240, 416
-0.999477, 253, 369, 268, 496
-0.999482, 219, 289, 234, 416
-0.999483, 189, 369, 204, 496
-0.999484, 79, 353, 94, 480
-0.999486, 71, 225, 86, 352
-0.999491, 143, 369, 158, 496
-0.999494, 55, 337, 70, 464
-0.999497, 235, 225, 250, 352
-0.9995, 117, 145, 132, 272
-0.999503, 33, 337, 48, 464
-0.999503, 19, 321, 34, 448
-0.999506, 49, 337, 64, 464
-0.99951, 1, 321, 16, 448
-0.999511, 255, 81, 270, 208
-0.999512, 243, 225, 258, 352
-0.999513, 241, 121, 368, 152
-0.999515, 275, 241, 290, 368
-0.999516, 159, 369, 174, 496
-0.999516, 85, 353, 100, 480
-0.999516, 177, 369, 192, 496
-0.999517, 235, 369, 250, 496
-0.999519, 93, 353, 108, 480
-0.999529, 177, 65, 208, 320
-0.999532, 131, 113, 146, 240
-0.999534, 77, 145, 92, 272
-0.999534, 39, 337, 54, 464
-0.999535, 197, 271, 212, 286
-0.999536, 77, 253, 92, 268
-0.999537, 219, 307, 234, 322
-0.999537, 27, 337, 42, 464
-0.999537, 235, 135, 250, 150
-0.999537, 219, 369, 234, 496
-0.999537, 167, 257, 182, 272
-0.999538, 171, 189, 186, 204
-0.999538, 83, 281, 98, 296
-0.999539, 219, 211, 234, 226
-0.999539, 1, 97, 32, 352
-0.999539, 109, 243, 124, 258
-0.999539, 135, 171, 150, 186
-0.99954, 187, 267, 202, 282
-0.999541, 197, 203, 212, 218
-0.999541, 117, 193, 132, 208
-0.999541, 199, 135, 214, 150
-0.999543, 139, 279, 154, 294
-0.999543, 177, 281, 192, 296
-0.999543, 123, 213, 138, 228
-0.999544, 85, 195, 100, 210
-0.999545, 215, 143, 230, 158
-0.999545, 143, 301, 158, 316
-0.999546, 195, 369, 210, 496
-0.999546, 255, 197, 270, 212
-0.999547, 137, 187, 152, 202
-0.999548, 117, 187, 132, 202
-0.999549, 229, 369, 244, 496
-0.999549, 219, 245, 234, 260
-0.999549, 135, 269, 150, 284
-0.999549, 181, 185, 196, 200
-0.99955, 269, 187, 284, 202
-0.99955, 209, 301, 224, 316
-0.999551, 217, 273, 232, 288
-0.999551, 83, 275, 98, 290
-0.999551, 161, 261, 176, 276
-0.999552, 197, 323, 212, 338
-0.999552, 171, 321, 186, 336
-0.999552, 131, 187, 146, 202
-0.999553, 185, 321, 200, 336
-0.999553, 127, 177, 142, 192
-0.999553, 191, 129, 206, 144
-0.999553, 265, 213, 280, 228
-0.999553, 161, 319, 176, 334
-0.999553, 217, 297, 232, 312
-0.999554, 169, 251, 184, 266
-0.999554, 227, 235, 242, 250
-0.999555, 229, 303, 244, 318
-0.999557, 169, 289, 184, 304
-0.999558, 189, 213, 204, 228
-0.999558, 247, 147, 262, 162
-0.999559, 155, 269, 170, 284
-0.99956, 183, 277, 198, 292
-0.999562, 221, 265, 236, 280
-0.999564, 223, 219, 238, 234
-0.999565, 241, 161, 256, 176
-0.999565, 233, 297, 248, 312
-0.999566, 129, 219, 144, 234
-0.999566, 127, 271, 142, 286
-0.999566, 197, 187, 212, 202
-0.999567, 171, 275, 186, 290
-0.999568, 181, 213, 196, 228
-0.999569, 195, 249, 210, 264
-0.99957, 223, 145, 238, 160
-0.99957, 147, 289, 162, 304
-0.99957, 133, 243, 148, 258
-0.99957, 257, 181, 272, 196
-0.999571, 175, 197, 190, 212
-0.999572, 251, 153, 266, 168
-0.999573, 257, 161, 272, 176
-0.999573, 271, 205, 286, 220
-0.999574, 213, 307, 228, 322
-0.999575, 123, 199, 138, 214
-0.999575, 137, 287, 152, 302
-0.999575, 241, 171, 256, 186
-0.999576, 101, 297, 116, 312
-0.999576, 237, 33, 268, 288
-0.999576, 221, 281, 236, 296
-0.999578, 185, 203, 200, 218
-0.999578, 217, 137, 232, 152
-0.999579, 257, 191, 272, 206
-0.999579, 87, 287, 102, 302
-0.999579, 97, 291, 112, 306
-0.999583, 159, 245, 174, 260
-0.999583, 129, 171, 144, 186
-0.999584, 313, 321, 375, 448
-0.999585, 179, 169, 194, 184
-0.999586, 175, 293, 190, 308
-0.999589, 143, 271, 158, 286
-0.999593, 261, 167, 276, 182
-0.999595, 133, 275, 148, 290
-0.999596, 37, 145, 68, 272
-0.999597, 195, 209, 210, 224
-0.9996, 241, 141, 256, 156
-0.999601, 107, 295, 122, 310
-0.999601, 257, 175, 272, 190
-0.999602, 191, 201, 206, 216
-0.999604, 269, 199, 284, 214
-0.999605, 93, 281, 108, 296
-0.999606, 341, 97, 372, 352
-0.999608, 147, 295, 162, 310
-0.99961, 123, 187, 138, 202
-0.999612, 209, 209, 224, 224
-0.999612, 185, 197, 200, 212
-0.999612, 191, 185, 206, 200
-0.999613, 163, 295, 178, 310
-0.999614, 263, 173, 278, 188
-0.999617, 129, 193, 144, 208
-0.999617, 197, 129, 212, 144
-0.999619, 157, 305, 172, 320
-0.99962, 241, 155, 256, 170
-0.99962, 221, 239, 236, 254
-0.999621, 169, 297, 184, 312
-0.999622, 123, 193, 138, 208
-0.999626, 189, 191, 204, 206
-0.999627, 267, 179, 282, 194
-0.999627, 177, 287, 192, 302
-0.999629, 265, 207, 280, 222
-0.999631, 223, 299, 238, 314
-0.999631, 115, 211, 130, 226
-0.999634, 211, 133, 226, 148
-0.999635, 165, 325, 180, 340
-0.999636, 253, 169, 268, 184
-0.999639, 157, 299, 172, 314
-0.999639, 229, 143, 244, 158
-0.99964, 205, 133, 220, 148
-0.99964, 263, 191, 278, 206
-0.999643, 141, 293, 156, 308
-0.999643, 269, 193, 284, 208
-0.999643, 223, 139, 238, 154
-0.999644, 281, 225, 312, 480
-0.999645, 195, 193, 210, 208
-0.999655, 149, 301, 164, 316
-0.999657, 183, 191, 198, 206
-0.999666, 247, 163, 262, 178
-0.999669, 163, 301, 178, 316
-0.99967, 261, 201, 276, 216
-0.999673, 235, 149, 250, 164
-0.999682, 203, 205, 218, 220
-0.999689, 263, 185, 278, 200
-0.999693, 17, 381, 144, 412
-0.999738, 161, 465, 288, 496
-0.999745, 65, 445, 192, 476
-0.999791, 49, 73, 176, 104
-0.999802, 1, 1, 32, 256
-0.999811, 85, 65, 116, 320
-0.999848, 33, 161, 64, 416
-0.999866, 1, 405, 128, 436
-0.999878, 13, 161, 44, 416
-0.999936, 1, 241, 64, 368
-0.999941, 265, 33, 296, 288
-0.999958, 341, 257, 372, 500
-0.99998, 177, 441, 304, 472
-0.999984, 129, 73, 375, 136
-1.00008, 197, 1, 228, 256
-1.00008, 293, 225, 324, 480
-1.00009, 69, 1, 100, 256
-1.00009, 1, 73, 128, 104
-1.00009, 97, 61, 224, 92
-1.0001, 1, 433, 128, 496
-1.00014, 133, 33, 164, 288
-1.00016, 93, 97, 124, 224
-1.00017, 161, 33, 192, 288
-1.00017, 49, 61, 176, 92
-1.00018, 321, 225, 352, 480
-1.00021, 17, 453, 144, 484
-1.00021, 1, 393, 128, 424
-1.00025, 301, 1, 332, 256
-1.00025, 1, 45, 128, 76
-1.00026, 145, 65, 176, 320
-1.0003, 317, 1, 348, 256
-1.00031, 285, 1, 316, 256
-1.00032, 1, 465, 128, 496
-1.00034, 333, 1, 364, 256
-1.00034, 225, 425, 352, 456
-1.00036, 345, 1, 375, 256
-1.00036, 129, 85, 256, 116
-1.00037, 309, 257, 340, 500
-1.00041, 313, 209, 344, 336
-1.00047, 153, 97, 184, 224
-1.00054, 289, 1, 352, 256
-1.00058, 113, 1, 144, 256
-1.00065, 49, 17, 176, 80
-1.00065, 209, 1, 240, 256
-1.00069, 277, 161, 308, 288
-1.00069, 25, 33, 56, 160
-1.00075, 261, 65, 292, 192
-1.0008, 97, 1, 128, 256
-1.0009, 33, 41, 288, 104
-1.00091, 189, 65, 220, 192
-1.00096, 177, 41, 304, 104
-1.00101, 65, 33, 96, 160
-1.00102, 97, 41, 224, 104
-1.00104, 277, 321, 308, 448
-1.00104, 289, 225, 320, 352
-1.00105, 325, 193, 356, 320
-1.00108, 313, 161, 344, 288
-1.00109, 293, 321, 324, 448
-1.00111, 345, 65, 375, 192
-1.00136, 65, 17, 320, 80
-1.00157, 25, 129, 56, 256
-1.00161, 81, 49, 144, 176
-1.00169, 1, 1, 128, 64
-1.00171, 241, 49, 272, 176
-1.00174, 129, 41, 375, 104
-1.00175, 305, 321, 336, 448
-1.00176, 97, 1, 224, 64
-1.00183, 49, 17, 80, 144
-1.00185, 145, 17, 272, 80
-1.00205, 281, 49, 312, 176
-1.0021, 265, 49, 328, 176
-1.00238, 225, 49, 352, 112
-1.00244, 305, 273, 368, 400
-1.0026, 1, 57, 375, 120
-1.00264, 209, 1, 336, 64
-1.00288, 225, 25, 352, 88
-1.00325, 1, 9, 375, 72
-1.00356, 1, 33, 375, 96
-1.0054, 193, 1, 320, 128
-1.00558, 1, 177, 64, 304
-1.00583, 113, 1, 240, 128
-1.00637, 209, 17, 272, 144
-1.00665, 97, 1, 352, 128
-1.00749, 73, 1, 136, 128
-1.00798, 105, 33, 168, 160
-1.0087, 129, 1, 192, 128
-1.01015, 185, 1, 248, 128
-1.01074, 153, 17, 216, 144
-1.01154, 241, 1, 304, 128
-1.01158, 129, 49, 192, 176
-1.01163, 241, 1, 368, 128
-1.01304, 265, 1, 328, 128
-1.01414, 297, 1, 360, 128
