1875
-0.424266, 1, 1, 500, 333
-0.492715, 1, 33, 500, 288
-0.505064, 161, 1, 416, 333
-0.560721, 33, 1, 288, 333
-0.615925, 257, 1, 500, 333
-0.662734, 161, 1, 416, 256
-0.717722, 33, 33, 288, 288
-0.826612, 257, 65, 500, 320
-0.861531, 145, 33, 272, 288
-0.863885, 161, 1, 288, 333
-0.876584, 113, 1, 240, 333
-0.886066, 209, 33, 336, 288
-0.89553, 209, 1, 336, 333
-0.896833, 369, 1, 496, 333
-0.898364, 65, 1, 192, 333
-0.900305, 353, 65, 480, 320
-0.903706, 97, 33, 224, 288
-0.910519, 1, 17, 500, 144
-0.912945, 1, 81, 500, 208
-0.91381, 289, 1, 416, 333
-0.914512, 129, 49, 384, 176
-0.915697, 1, 145, 500, 272
-0.915714, 305, 65, 432, 320
-0.925961, 257, 65, 384, 320
-0.93324, 129, 145, 384, 272
-0.933907, 1, 193, 500, 320
-0.939179, 17, 1, 144, 333
-0.939293, 257, 209, 500, 333
-0.939381, 225, 161, 352, 288
-0.939409, 129, 97, 384, 224
-0.939741, 49, 1, 176, 256
-0.940418, 193, 1, 448, 128
-0.941174, 209, 113, 272, 240
-0.941377, 225, 81, 480, 208
-0.941384, 145, 65, 272, 192
-0.943648, 33, 97, 288, 224
-0.946553, 33, 49, 288, 176
-0.947356, 313, 193, 376, 320
-0.947776, 145, 113, 272, 240
-0.94864, 33, 161, 288, 288
-0.948681, 281, 161, 344, 288
-0.950223, 161, 161, 288, 288
-0.95082, 241, 161, 304, 288
-0.951956, 281, 209, 344, 333
-0.952477, 129, 209, 384, 333
-0.95361, 177, 49, 240, 176
-0.953685, 305, 209, 432, 333
-0.955231, 193, 113, 320, 240
-0.95545, 225, 145, 480, 272
-0.95665, 281, 241, 344, 304
-0.957708, 353, 65, 480, 192
-0.957895, 177, 177, 240, 304
-0.958478, 257, 209, 384, 333
-0.959042, 97, 1, 352, 128
-0.959953, 193, 1, 320, 128
-0.960601, 417, 81, 480, 208
-0.961025, 305, 129, 432, 256
-0.961201, 241, 113, 304, 240
-0.961222, 353, 17, 480, 144
-0.961295, 369, 193, 496, 320
-0.962234, 201, 177, 264, 304
-0.963174, 361, 81, 424, 208
-0.963452, 337, 193, 400, 320
-0.963479, 145, 17, 272, 144
-0.963482, 201, 33, 264, 160
-0.963733, 217, 113, 280, 176
-0.964136, 169, 129, 232, 256
-0.964266, 385, 1, 448, 128
-0.96471, 97, 49, 224, 176
-0.965206, 385, 145, 448, 272
-0.965266, 297, 217, 360, 280
-0.965316, 137, 113, 200, 240
-0.965733, 249, 153, 312, 216
-0.965792, 97, 97, 224, 224
-0.965882, 169, 177, 232, 240
-0.966611, 193, 209, 320, 333
-0.966916, 225, 65, 352, 192
-0.967143, 249, 225, 312, 288
-0.9676, 281, 161, 344, 224
-0.967709, 145, 49, 208, 176
-0.968058, 369, 129, 496, 256
-0.968288, 433, 209, 496, 333
-0.968601, 273, 217, 336, 280
-0.968978, 1, 1, 128, 256
-0.969806, 201, 1, 264, 256
-0.969815, 81, 1, 208, 128
-0.969986, 233, 209, 296, 333
-0.970107, 257, 65, 320, 192
-0.970241, 401, 137, 464, 200
-0.970595, 385, 65, 448, 192
-0.970691, 257, 209, 320, 333
-0.970835, 81, 145, 208, 272
-0.971149, 321, 193, 384, 256
-0.971169, 401, 209, 464, 333
-0.971187, 241, 113, 368, 240
-0.971532, 289, 185, 352, 248
-0.97167, 369, 209, 432, 333
-0.972037, 177, 49, 240, 112
-0.972174, 233, 65, 296, 192
-0.97241, 169, 129, 232, 192
-0.972476, 257, 249, 320, 312
-0.972904, 273, 33, 400, 160
-0.97297, 193, 185, 256, 248
-0.97335, 225, 17, 288, 144
-0.973505, 321, 233, 384, 296
-0.973827, 393, 233, 456, 296
-0.974115, 169, 33, 232, 288
-0.974295, 409, 129, 472, 256
-0.97434, 201, 41, 264, 104
-0.974467, 305, 81, 432, 208
-0.975076, 417, 273, 480, 333
-0.975134, 121, 33, 184, 160
-0.975472, 193, 217, 256, 280
-0.975744, 193, 105, 256, 168
-0.975851, 209, 137, 272, 200
-0.976226, 233, 185, 296, 248
-0.976406, 353, 145, 416, 272
-0.976494, 241, 233, 368, 296
-0.976586, 161, 121, 288, 184
-0.976674, 49, 49, 176, 176
-0.976714, 129, 145, 192, 208
-0.976793, 425, 33, 488, 160
-0.976961, 417, 89, 480, 152
-0.977591, 145, 161, 208, 288
-0.977629, 385, 73, 448, 136
-0.977632, 169, 153, 232, 216
-0.977757, 217, 161, 280, 224
-0.97806, 313, 257, 376, 320
-0.978207, 241, 129, 304, 192
-0.978315, 225, 161, 352, 224
-0.97836, 313, 193, 344, 320
-0.978459, 305, 145, 368, 272
-0.978603, 369, 241, 432, 304
-0.978625, 385, 1, 448, 64
-0.978686, 409, 113, 472, 176
-0.978878, 129, 113, 192, 176
-0.979065, 433, 145, 496, 272
-0.979088, 113, 97, 176, 224
-0.979184, 81, 49, 144, 176
-0.979217, 329, 145, 392, 272
-0.979321, 361, 105, 424, 168
-0.979395, 401, 49, 464, 112
-0.97946, 325, 193, 356, 320
-0.979716, 113, 193, 240, 320
-0.979863, 33, 209, 288, 333
-0.979945, 153, 57, 216, 120
-0.980071, 353, 217, 416, 280
-0.980167, 217, 209, 280, 272
-0.980181, 281, 265, 344, 328
-0.980359, 1, 1, 256, 128
-0.980504, 193, 1, 256, 333
-0.980527, 169, 209, 232, 272
-0.980553, 265, 113, 328, 240
-0.98056, 177, 49, 304, 112
-0.980669, 229, 129, 260, 256
-0.980817, 233, 89, 296, 152
-0.980817, 377, 137, 440, 200
-0.980817, 369, 273, 432, 333
-0.980853, 177, 225, 304, 288
-0.980877, 353, 89, 480, 152
-0.980942, 293, 241, 324, 304
-0.98106, 193, 161, 256, 224
-0.981303, 305, 233, 336, 296
-0.981352, 145, 169, 208, 232
-0.981394, 425, 1, 488, 256
-0.981561, 161, 153, 288, 216
-0.981562, 385, 161, 448, 224
-0.981688, 433, 113, 496, 176
-0.981765, 177, 185, 304, 248
-0.981889, 129, 57, 192, 120
-0.981892, 249, 65, 312, 320
-0.981902, 433, 225, 496, 288
-0.981909, 225, 241, 288, 304
-0.981963, 105, 49, 168, 112
-0.982007, 305, 233, 432, 296
-0.982213, 305, 257, 432, 320
-0.982234, 401, 65, 464, 320
-0.98225, 225, 1, 288, 256
-0.982322, 145, 97, 272, 160
-0.982347, 97, 57, 224, 120
-0.982378, 169, 89, 232, 152
-0.982455, 433, 177, 496, 240
-0.982542, 425, 249, 488, 312
-0.982603, 393, 265, 456, 328
-0.982634, 425, 65, 488, 128
-0.982694, 369, 233, 496, 296
-0.982772, 229, 105, 260, 168
-0.982813, 209, 177, 240, 304
-0.983011, 145, 33, 208, 288
-0.983012, 345, 241, 408, 304
-0.983016, 369, 193, 496, 256
-0.983019, 241, 209, 368, 272
-0.983024, 317, 217, 348, 280
-0.983096, 225, 185, 352, 248
-0.983102, 233, 17, 296, 80
-0.983373, 401, 209, 464, 272
-0.983525, 169, 1, 232, 333
-0.983532, 361, 1, 424, 128
-0.983533, 185, 49, 216, 112
-0.98363, 425, 9, 488, 72
-0.983634, 269, 225, 300, 288
-0.983727, 329, 185, 360, 248
-0.98393, 137, 81, 200, 144
-0.983951, 305, 193, 432, 256
-0.984003, 185, 33, 216, 160
-0.984094, 113, 145, 240, 208
-0.984127, 321, 81, 384, 208
-0.984202, 345, 169, 408, 232
-0.984292, 317, 193, 348, 256
-0.984299, 353, 273, 480, 333
-0.984316, 377, 49, 440, 112
-0.984336, 193, 25, 320, 88
-0.984447, 297, 1, 360, 128
-0.984469, 341, 193, 372, 320
-0.984474, 321, 169, 384, 232
-0.984506, 241, 177, 272, 304
-0.984548, 401, 25, 464, 88
-0.984681, 265, 193, 328, 256
-0.984706, 417, 121, 448, 184
-0.984734, 249, 129, 280, 256
-0.984759, 353, 41, 480, 104
-0.98477, 421, 113, 452, 240
-0.984875, 257, 145, 288, 208
-0.984954, 105, 97, 168, 160
-0.984988, 301, 209, 332, 333
-0.985039, 1, 193, 128, 320
-0.985064, 353, 65, 480, 128
-0.985108, 193, 249, 320, 312
-0.985198, 409, 113, 440, 240
-0.985218, 369, 1, 432, 256
-0.985227, 169, 113, 200, 240
-0.985234, 337, 113, 464, 176
-0.985234, 305, 145, 432, 208
-0.985272, 377, 201, 440, 264
-0.985279, 193, 161, 224, 288
-0.985323, 273, 33, 336, 288
-0.98535, 201, 177, 232, 240
-0.985381, 241, 121, 272, 184
-0.985382, 389, 1, 420, 128
-0.985522, 449, 233, 480, 296
-0.985587, 209, 17, 272, 80
-0.985609, 241, 257, 368, 320
-0.985612, 225, 137, 352, 200
-0.98563, 345, 193, 408, 256
-0.985665, 137, 33, 200, 96
-0.985818, 285, 153, 316, 216
-0.98584, 425, 145, 488, 208
-0.98592, 433, 81, 464, 208
-0.985961, 145, 1, 208, 128
-0.986011, 209, 105, 336, 168
-0.986054, 217, 113, 248, 240
-0.986072, 81, 105, 208, 168
-0.986106, 405, 129, 436, 192
-0.986125, 425, 33, 488, 96
-0.98615, 257, 1, 320, 64
-0.986202, 157, 113, 188, 240
-0.986281, 145, 73, 272, 136
-0.986309, 169, 121, 200, 184
-0.986412, 277, 209, 308, 333
-0.986446, 309, 169, 340, 232
-0.986462, 217, 105, 248, 168
-0.986484, 289, 161, 320, 288
-0.986536, 265, 129, 328, 192
-0.986548, 369, 9, 496, 72
-0.98658, 345, 65, 408, 320
-0.986634, 289, 217, 320, 280
-0.986641, 321, 169, 448, 232
-0.98674, 249, 41, 312, 104
-0.986762, 377, 25, 440, 88
-0.986793, 73, 49, 136, 112
-0.986798, 273, 65, 400, 128
-0.986871, 269, 249, 300, 312
-0.986971, 197, 33, 228, 160
-0.986979, 289, 33, 352, 96
-0.987037, 165, 49, 196, 176
-0.987053, 437, 265, 468, 328
-0.987108, 201, 81, 264, 144
-0.987137, 129, 177, 256, 240
-0.987154, 361, 81, 424, 144
-0.98726, 265, 65, 328, 128
-0.987283, 301, 161, 332, 288
-0.987322, 145, 1, 208, 333
-0.987391, 329, 225, 360, 288
-0.987438, 221, 193, 252, 320
-0.987456, 289, 33, 416, 96
-0.987528, 265, 1, 328, 128
-0.98754, 217, 33, 248, 160
-0.987604, 393, 145, 424, 272
-0.987685, 213, 193, 244, 256
-0.987729, 257, 1, 320, 333
-0.987749, 201, 241, 264, 304
-0.987761, 209, 1, 336, 64
-0.987804, 237, 81, 268, 208
-0.987879, 281, 241, 312, 304
-0.988113, 369, 145, 496, 208
-0.988311, 113, 201, 240, 264
-0.988319, 289, 209, 320, 333
-0.988355, 177, 177, 208, 240
-0.988379, 273, 169, 400, 232
-0.988394, 229, 17, 260, 144
-0.988397, 289, 137, 352, 200
-0.988443, 265, 145, 296, 272
-0.988543, 345, 49, 408, 112
-0.988545, 281, 49, 344, 176
-0.988573, 217, 1, 280, 333
-0.988585, 169, 161, 200, 288
-0.988604, 81, 33, 208, 96
-0.988645, 249, 273, 312, 333
-0.988682, 113, 1, 176, 333
-0.988778, 345, 129, 408, 192
-0.988781, 333, 145, 364, 272
-0.988798, 177, 145, 208, 208
-0.988837, 189, 169, 220, 232
-0.98888, 289, 121, 416, 184
-0.988934, 157, 121, 188, 184
-0.988958, 393, 145, 424, 208
-0.988964, 313, 145, 344, 272
-0.988991, 257, 81, 288, 208
-0.988992, 81, 169, 208, 232
-0.989038, 49, 97, 176, 224
-0.989096, 313, 145, 376, 208
-0.989121, 105, 73, 168, 136
-0.989161, 457, 193, 488, 320
-0.989162, 81, 81, 208, 144
-0.989181, 181, 113, 212, 240
-0.98919, 221, 33, 252, 96
-0.989248, 401, 1, 464, 333
-0.989267, 329, 105, 392, 168
-0.989288, 345, 265, 408, 328
-0.989386, 381, 241, 412, 304
-0.989409, 425, 1, 488, 333
-0.989413, 277, 161, 308, 288
-0.989439, 225, 57, 288, 120
-0.989488, 225, 81, 352, 144
-0.989519, 385, 97, 448, 160
-0.989569, 337, 33, 400, 160
-0.989596, 325, 257, 356, 320
-0.989607, 177, 1, 240, 128
-0.989635, 49, 49, 112, 112
-0.989666, 369, 1, 432, 333
-0.989696, 353, 193, 384, 320
-0.98974, 429, 97, 460, 160
-0.989741, 145, 49, 176, 176
-0.989762, 209, 41, 240, 104
-0.98979, 281, 65, 312, 192
-0.989822, 197, 41, 228, 104
-0.989834, 241, 9, 272, 72
-0.989857, 257, 233, 288, 296
-0.989895, 81, 81, 144, 144
-0.990017, 445, 65, 476, 192
-0.990033, 49, 57, 176, 120
-0.990098, 113, 49, 144, 176
-0.99013, 249, 241, 312, 272
-0.99016, 121, 33, 184, 288
-0.990189, 289, 241, 352, 272
-0.990227, 57, 33, 120, 160
-0.990241, 305, 65, 368, 320
-0.990256, 181, 161, 212, 288
-0.990278, 249, 157, 312, 188
-0.99035, 277, 65, 308, 128
-0.990412, 373, 81, 404, 208
-0.990436, 129, 225, 256, 288
-0.990478, 417, 273, 448, 333
-0.990538, 381, 209, 412, 333
-0.990546, 169, 173, 232, 204
-0.990609, 241, 177, 272, 240
-0.990619, 249, 97, 280, 160
-0.990628, 465, 217, 496, 280
-0.990658, 281, 253, 344, 284
-0.990671, 265, 225, 328, 256
-0.990683, 469, 193, 500, 320
-0.99073, 245, 1, 276, 128
-0.990757, 273, 97, 400, 160
-0.990775, 417, 65, 448, 192
-0.990782, 273, 1, 400, 64
-0.990793, 201, 217, 232, 280
-0.990844, 369, 169, 496, 232
-0.990854, 201, 113, 264, 144
-0.990924, 297, 9, 360, 72
-0.990965, 417, 153, 448, 216
-0.991003, 185, 49, 248, 80
-0.991041, 89, 97, 152, 224
-0.991046, 293, 265, 324, 328
-0.991119, 229, 201, 260, 264
-0.991144, 289, 229, 352, 260
-0.99115, 165, 161, 196, 224
-0.991181, 417, 9, 448, 72
-0.9912, 281, 169, 344, 200
-0.991202, 401, 209, 432, 333
-0.991207, 269, 137, 300, 200
-0.991229, 401, 141, 464, 172
-0.991229, 193, 201, 256, 232
-0.991243, 297, 161, 328, 224
-0.991276, 393, 237, 456, 268
-0.991299, 281, 1, 344, 333
-0.991305, 417, 1, 448, 128
-0.991345, 209, 177, 272, 208
-0.991349, 217, 221, 280, 252
-0.991352, 269, 97, 300, 224
-0.991352, 129, 33, 256, 96
-0.99138, 169, 185, 232, 216
-0.991387, 217, 125, 280, 156
-0.991387, 313, 213, 376, 244
-0.991396, 329, 257, 392, 288
-0.991427, 241, 217, 272, 280
-0.991461, 257, 253, 320, 284
-0.991479, 193, 213, 256, 244
-0.991494, 249, 169, 312, 200
-0.991603, 241, 229, 304, 260
-0.991618, 257, 145, 320, 176
-0.991635, 321, 189, 384, 220
-0.991656, 313, 201, 376, 232
-0.991659, 217, 141, 280, 172
-0.991666, 289, 189, 352, 220
-0.99167, 257, 217, 500, 280
-0.991676, 225, 109, 288, 140
-0.991698, 281, 265, 344, 296
-0.991735, 361, 245, 424, 276
-0.99174, 145, 121, 208, 152
-0.991744, 305, 209, 336, 272
-0.991745, 161, 133, 224, 164
-0.991746, 337, 73, 400, 136
-0.991759, 409, 285, 472, 316
-0.99176, 169, 61, 232, 92
-0.991769, 373, 89, 404, 152
-0.991772, 177, 121, 240, 152
-0.991795, 409, 129, 472, 160
-0.991806, 429, 233, 460, 296
-0.991806, 249, 53, 312, 84
-0.991842, 401, 273, 432, 333
-0.991851, 361, 225, 424, 256
-0.991867, 385, 281, 448, 312
-0.991875, 393, 153, 456, 184
-0.991879, 193, 189, 256, 220
-0.991901, 425, 269, 488, 300
-0.991915, 289, 217, 352, 248
-0.991924, 209, 45, 272, 76
-0.991927, 417, 117, 480, 148
-0.991937, 405, 153, 436, 216
-0.991976, 217, 193, 280, 224
-0.991979, 321, 177, 384, 208
-0.991984, 257, 97, 320, 160
-0.991992, 137, 61, 200, 92
-0.991997, 233, 181, 296, 212
-0.992013, 401, 253, 464, 284
-0.992018, 389, 65, 420, 192
-0.992022, 313, 225, 376, 256
-0.992028, 313, 241, 376, 272
-0.99204, 257, 121, 288, 184
-0.992041, 169, 145, 232, 176
-0.992041, 209, 165, 272, 196
-0.992056, 345, 1, 408, 333
-0.99207, 289, 205, 352, 236
-0.992088, 425, 209, 456, 333
-0.992115, 193, 273, 320, 333
-0.992116, 433, 81, 496, 112
-0.992137, 145, 165, 208, 196
-0.99214, 269, 49, 300, 176
-0.992147, 401, 269, 464, 300
-0.992153, 381, 217, 412, 280
-0.992168, 225, 249, 288, 280
-0.992172, 177, 109, 240, 140
-0.992176, 321, 9, 448, 72
-0.992178, 425, 201, 488, 264
-0.992181, 429, 129, 460, 192
-0.992189, 137, 133, 200, 164
-0.992194, 169, 201, 232, 232
-0.992209, 177, 17, 240, 80
-0.992216, 361, 1, 424, 64
-0.992218, 161, 49, 224, 80
-0.992219, 337, 249, 368, 312
-0.99223, 337, 209, 400, 240
-0.992234, 129, 149, 192, 180
-0.992246, 345, 201, 376, 264
-0.992262, 433, 281, 496, 312
-0.99227, 145, 177, 208, 208
-0.992273, 385, 77, 448, 108
-0.992291, 213, 225, 244, 288
-0.992313, 257, 69, 320, 100
-0.992314, 89, 65, 152, 96
-0.992324, 281, 157, 344, 188
-0.992327, 377, 13, 440, 44
-0.99233, 409, 241, 440, 304
-0.992346, 313, 265, 344, 328
-0.99235, 281, 277, 344, 308
-0.992364, 113, 57, 176, 88
-0.992366, 169, 213, 232, 244
-0.992387, 385, 49, 448, 80
-0.992399, 417, 97, 480, 128
-0.992401, 389, 9, 420, 72
-0.992416, 433, 193, 496, 224
-0.992419, 433, 249, 496, 280
-0.992419, 129, 109, 192, 140
-0.992441, 297, 97, 360, 224
-0.992447, 369, 153, 432, 184
-0.992464, 153, 209, 216, 333
-0.992478, 441, 81, 472, 144
-0.992479, 401, 297, 464, 328
-0.992487, 305, 253, 368, 284
-0.992499, 353, 173, 416, 204
-0.992499, 413, 161, 444, 288
-0.992512, 65, 45, 128, 76
-0.992523, 17, 217, 80, 280
-0.992525, 337, 241, 400, 272
-0.992535, 137, 45, 200, 76
-0.992535, 217, 153, 280, 184
-0.992538, 241, 121, 304, 152
-0.992544, 361, 281, 424, 312
-0.992545, 33, 145, 160, 272
-0.992557, 425, 29, 488, 60
-0.992567, 377, 141, 440, 172
-0.992567, 65, 145, 192, 208
-0.992575, 137, 73, 200, 104
-0.992579, 169, 161, 232, 192
-0.992581, 401, 225, 464, 256
-0.992583, 193, 225, 256, 256
-0.992589, 333, 161, 364, 224
-0.992599, 417, 237, 480, 268
-0.9926, 337, 221, 400, 252
-0.992601, 377, 89, 440, 120
-0.992606, 233, 209, 296, 240
-0.992611, 225, 33, 288, 64
-0.992624, 281, 61, 344, 92
-0.992625, 385, 129, 448, 160
-0.99263, 125, 49, 156, 176
-0.992636, 377, 261, 440, 292
-0.992658, 121, 85, 184, 116
-0.992669, 173, 57, 204, 120
-0.992676, 89, 53, 152, 84
-0.992677, 1, 33, 128, 160
-0.992682, 401, 65, 464, 96
-0.99269, 233, 261, 296, 292
-0.992691, 241, 133, 304, 164
-0.992694, 377, 25, 440, 56
-0.992698, 425, 61, 488, 92
-0.9927, 437, 209, 468, 333
-0.992712, 81, 1, 144, 128
-0.992718, 185, 133, 248, 164
-0.992729, 425, 41, 488, 72
-0.99273, 225, 97, 288, 128
-0.992741, 425, 13, 488, 44
-0.992751, 321, 165, 384, 196
-0.992755, 449, 273, 480, 333
-0.992756, 369, 101, 432, 132
-0.992762, 257, 41, 320, 72
-0.992763, 169, 73, 232, 104
-0.992769, 65, 1, 128, 256
-0.99278, 345, 197, 408, 228
-0.992784, 265, 1, 328, 32
-0.99281, 161, 161, 416, 224
-0.992811, 433, 33, 464, 160
-0.992812, 377, 293, 440, 324
-0.992814, 241, 193, 304, 224
-0.992817, 121, 121, 184, 152
-0.992821, 185, 37, 248, 68
-0.992822, 229, 109, 260, 140
-0.992828, 393, 173, 456, 204
-0.992833, 193, 237, 256, 268
-0.992833, 305, 265, 368, 296
-0.992837, 145, 193, 208, 256
-0.992844, 345, 269, 408, 300
-0.99286, 189, 49, 220, 80
-0.992862, 225, 57, 352, 120
-0.992863, 437, 33, 468, 96
-0.992892, 413, 209, 444, 333
-0.992909, 393, 249, 424, 312
-0.992913, 285, 157, 316, 188
-0.992913, 421, 281, 452, 312
-0.992939, 325, 205, 356, 236
-0.992973, 345, 25, 408, 88
-0.99298, 157, 121, 188, 152
-0.993, 169, 129, 200, 160
-0.993002, 257, 157, 288, 188
-0.993002, 409, 141, 440, 172
-0.993003, 205, 213, 236, 244
-0.993003, 301, 241, 332, 272
-0.993005, 321, 217, 352, 248
-0.993029, 429, 73, 460, 136
-0.993035, 277, 245, 308, 276
-0.993057, 469, 145, 500, 272
-0.993069, 93, 49, 124, 112
-0.993071, 309, 229, 340, 260
-0.993072, 265, 209, 296, 333
-0.993079, 145, 113, 176, 240
-0.99308, 277, 73, 308, 104
-0.993085, 433, 265, 464, 296
-0.993087, 313, 169, 344, 200
-0.993092, 269, 229, 300, 260
-0.993104, 205, 129, 236, 256
-0.993105, 289, 245, 320, 276
-0.993114, 65, 49, 320, 112
-0.993156, 217, 113, 248, 144
-0.993158, 213, 41, 244, 72
-0.993166, 33, 81, 160, 144
-0.993167, 197, 173, 228, 204
-0.993169, 333, 185, 364, 216
-0.993171, 221, 201, 252, 232
-0.993173, 417, 129, 448, 160
-0.993182, 261, 241, 292, 272
-0.993186, 217, 153, 248, 216
-0.99319, 445, 249, 476, 280
-0.993204, 177, 185, 208, 216
-0.993207, 229, 129, 260, 192
-0.99323, 201, 49, 232, 80
-0.993232, 289, 65, 320, 96
-0.993236, 217, 213, 248, 244
-0.993247, 245, 241, 276, 272
-0.993258, 229, 125, 260, 156
-0.993262, 289, 169, 320, 200
-0.993277, 301, 253, 332, 284
-0.993277, 345, 213, 376, 244
-0.993285, 397, 145, 428, 176
-0.993289, 177, 205, 208, 236
-0.99329, 321, 241, 352, 272
-0.993295, 249, 125, 280, 156
-0.9933, 325, 257, 356, 288
-0.993308, 269, 149, 300, 180
-0.993309, 421, 117, 452, 148
-0.99331, 313, 193, 344, 224
-0.993315, 289, 225, 320, 256
-0.993343, 225, 37, 256, 68
-0.993346, 433, 69, 464, 100
-0.993349, 253, 1, 284, 32
-0.993354, 385, 229, 416, 260
-0.993357, 409, 277, 440, 308
-0.993358, 273, 165, 304, 196
-0.993358, 417, 153, 448, 184
-0.993362, 229, 217, 260, 248
-0.993363, 241, 17, 272, 48
-0.993366, 305, 217, 336, 248
-0.993367, 217, 185, 248, 216
-0.993367, 257, 145, 288, 176
-0.993368, 161, 61, 192, 92
-0.993368, 293, 265, 324, 296
-0.993369, 449, 233, 480, 264
-0.99337, 269, 137, 300, 168
-0.993371, 233, 201, 264, 232
-0.993372, 241, 253, 272, 284
-0.993376, 177, 57, 208, 88
-0.993379, 333, 233, 364, 264
-0.993382, 169, 117, 200, 148
-0.993384, 405, 293, 436, 324
-0.993387, 241, 109, 272, 140
-0.993393, 281, 257, 312, 288
-0.993393, 209, 201, 240, 232
-0.993394, 177, 173, 208, 204
-0.993395, 265, 57, 296, 88
-0.993396, 173, 141, 204, 172
-0.993397, 433, 289, 464, 320
-0.993402, 445, 277, 476, 308
-0.993408, 429, 89, 460, 120
-0.99341, 313, 253, 344, 284
-0.993411, 165, 185, 196, 216
-0.993414, 157, 133, 188, 164
-0.993415, 401, 233, 432, 264
-0.993423, 337, 253, 368, 284
-0.993423, 269, 257, 300, 288
-0.993428, 245, 137, 276, 168
-0.99343, 337, 201, 368, 232
-0.993432, 277, 61, 308, 92
-0.993436, 289, 277, 320, 308
-0.993438, 133, 57, 164, 88
-0.993439, 241, 177, 272, 208
-0.99344, 369, 241, 400, 304
-0.993444, 209, 225, 240, 256
-0.993446, 193, 201, 224, 232
-0.993448, 177, 161, 208, 192
-0.99345, 189, 193, 220, 256
-0.993453, 253, 253, 284, 284
-0.993455, 157, 109, 188, 140
-0.993464, 205, 185, 236, 216
-0.993472, 393, 161, 424, 192
-0.993474, 377, 245, 408, 276
-0.993479, 237, 189, 268, 220
-0.993481, 405, 129, 436, 160
-0.993489, 73, 45, 104, 76
-0.993489, 429, 129, 460, 160
-0.99349, 257, 257, 288, 320
-0.99349, 389, 9, 420, 40
-0.99349, 429, 253, 460, 284
-0.993495, 469, 213, 500, 244
-0.993496, 165, 169, 196, 200
-0.993497, 421, 13, 452, 44
-0.993502, 437, 113, 468, 144
-0.993504, 309, 205, 340, 236
-0.993505, 97, 61, 128, 92
-0.993506, 425, 141, 456, 172
-0.993509, 193, 217, 224, 248
-0.99351, 121, 53, 152, 84
-0.993513, 237, 33, 268, 64
-0.993519, 369, 109, 400, 140
-0.993522, 321, 181, 352, 212
-0.993528, 389, 241, 420, 272
-0.993529, 213, 125, 244, 156
-0.99353, 277, 49, 308, 80
-0.993531, 321, 269, 352, 300
-0.993532, 245, 161, 276, 192
-0.993532, 237, 149, 268, 180
-0.993533, 157, 145, 188, 176
-0.993533, 349, 201, 380, 232
-0.993537, 429, 237, 460, 268
-0.993539, 429, 101, 460, 132
-0.993539, 285, 209, 316, 240
-0.99354, 17, 209, 80, 333
-0.993543, 461, 225, 492, 256
-0.993546, 145, 61, 176, 92
-0.993547, 337, 173, 368, 204
-0.993549, 301, 165, 332, 196
-0.993553, 89, 77, 120, 108
-0.99358, 105, 153, 168, 216
-0.993581, 145, 113, 176, 176
-0.993597, 257, 241, 500, 304
-0.993597, 289, 57, 320, 120
-0.993655, 241, 33, 368, 96
-0.993669, 225, 225, 256, 288
-0.993688, 269, 169, 300, 232
-0.993688, 241, 249, 272, 312
-0.993708, 157, 97, 188, 160
-0.993712, 193, 33, 448, 96
-0.993754, 417, 97, 448, 160
-0.99381, 101, 33, 132, 160
-0.993879, 289, 57, 352, 120
-0.994025, 1, 57, 128, 120
-0.994055, 81, 41, 112, 104
-0.994081, 201, 145, 232, 208
-0.994084, 449, 193, 480, 256
-0.994096, 369, 209, 400, 333
-0.994103, 277, 41, 308, 104
-0.994125, 97, 1, 160, 256
-0.994136, 57, 257, 120, 320
-0.994148, 261, 49, 292, 112
-0.994156, 129, 81, 384, 144
-0.994192, 457, 49, 488, 176
-0.994222, 153, 57, 184, 120
-0.994247, 49, 193, 112, 256
-0.99425, 1, 233, 128, 296
-0.994254, 401, 65, 432, 192
-0.99432, 277, 1, 308, 128
-0.994376, 169, 97, 200, 160
-0.994378, 341, 225, 372, 288
-0.99444, 213, 129, 244, 192
-0.994442, 193, 97, 224, 224
-0.994469, 1, 41, 500, 104
-0.994471, 245, 153, 276, 216
-0.994476, 233, 33, 264, 96
-0.994536, 465, 97, 496, 224
-0.99454, 113, 65, 144, 128
-0.994549, 125, 97, 156, 224
-0.994567, 161, 225, 416, 288
-0.994612, 89, 25, 152, 88
-0.99467, 225, 121, 480, 184
-0.994755, 293, 33, 324, 96
-0.994765, 453, 113, 484, 240
-0.994785, 129, 105, 384, 168
-0.994797, 225, 169, 352, 200
-0.994841, 369, 129, 400, 256
-0.994867, 57, 177, 120, 304
-0.99487, 73, 1, 136, 333
-0.994877, 129, 9, 256, 72
-0.994888, 365, 217, 396, 280
-0.994918, 433, 145, 464, 272
-0.99494, 385, 73, 416, 136
-0.994948, 285, 177, 316, 240
-0.994955, 293, 33, 324, 160
-0.994969, 133, 105, 164, 168
-0.994971, 377, 273, 408, 333
-0.995012, 253, 1, 284, 64
-0.995091, 449, 121, 480, 184
-0.995118, 133, 57, 164, 120
-0.995125, 65, 161, 320, 224
-0.995204, 321, 1, 384, 333
-0.995234, 49, 1, 112, 333
-0.995292, 413, 41, 444, 104
-0.995293, 113, 257, 240, 320
-0.995387, 253, 177, 284, 304
-0.99539, 113, 145, 176, 272
-0.995395, 129, 129, 384, 192
-0.995425, 409, 169, 472, 232
-0.995444, 97, 249, 352, 312
-0.995445, 145, 181, 272, 212
-0.995457, 229, 9, 260, 72
-0.995463, 377, 1, 408, 128
-0.995502, 89, 33, 120, 160
-0.995538, 193, 57, 448, 120
-0.995553, 257, 265, 500, 328
-0.995555, 237, 105, 252, 168
-0.995559, 1, 153, 500, 216
-0.995569, 453, 65, 484, 128
-0.995583, 257, 193, 500, 256
-0.995586, 161, 153, 288, 184
-0.995586, 393, 217, 424, 280
-0.995625, 257, 145, 500, 208
-0.995639, 33, 185, 160, 248
-0.995664, 145, 109, 272, 140
-0.995697, 1, 73, 500, 136
-0.995752, 465, 1, 496, 128
-0.995768, 161, 141, 288, 172
-0.995772, 33, 241, 96, 304
-0.995772, 225, 265, 288, 328
-0.995815, 193, 9, 448, 72
-0.995818, 225, 249, 352, 280
-0.995818, 177, 201, 208, 264
-0.995843, 57, 73, 120, 136
-0.995847, 161, 129, 288, 160
-0.995849, 469, 97, 500, 160
-0.995852, 429, 1, 460, 64
-0.995876, 313, 145, 344, 208
-0.995885, 361, 265, 392, 328
-0.995893, 241, 237, 368, 268
-0.995904, 225, 97, 480, 160
-0.995904, 17, 265, 144, 328
-0.995915, 33, 137, 288, 200
-0.995966, 1, 209, 128, 272
-0.996066, 161, 201, 416, 264
-0.996099, 161, 53, 288, 84
-0.996101, 243, 105, 258, 168
-0.996105, 161, 217, 288, 248
-0.996107, 327, 193, 342, 256
-0.996139, 461, 153, 492, 216
-0.996144, 165, 185, 196, 248
-0.996158, 265, 73, 296, 136
-0.996162, 357, 145, 388, 272
-0.996169, 169, 1, 200, 128
-0.996201, 153, 153, 184, 216
-0.996218, 281, 265, 312, 328
-0.996239, 257, 33, 288, 160
-0.996247, 437, 209, 468, 272
-0.996265, 319, 217, 334, 280
-0.996285, 137, 81, 168, 144
-0.996305, 33, 73, 288, 136
-0.996311, 129, 97, 256, 128
-0.996325, 169, 233, 232, 296
-0.996336, 81, 233, 208, 296
-0.996337, 225, 157, 352, 188
-0.99634, 461, 185, 492, 248
-0.996354, 381, 161, 412, 288
-0.996438, 165, 33, 196, 96
-0.996445, 231, 105, 246, 168
-0.996449, 325, 217, 340, 280
-0.996451, 419, 121, 434, 184
-0.996453, 177, 197, 304, 228
-0.99646, 241, 225, 368, 256
-0.996474, 157, 161, 188, 288
-0.996485, 273, 265, 400, 296
-0.996509, 81, 61, 208, 92
-0.996525, 285, 113, 316, 240
-0.996529, 397, 177, 428, 240
-0.996538, 287, 241, 302, 304
-0.996572, 261, 97, 292, 160
-0.996593, 333, 185, 348, 248
-0.996603, 353, 225, 384, 288
-0.996611, 305, 229, 432, 260
-0.996632, 261, 153, 276, 216
-0.996651, 185, 25, 216, 88
-0.996666, 33, 201, 288, 264
-0.996667, 369, 273, 496, 304
-0.99667, 413, 137, 428, 200
-0.996672, 225, 181, 352, 212
-0.996676, 269, 233, 284, 296
-0.996676, 333, 233, 348, 296
-0.99669, 353, 229, 480, 260
-0.996699, 205, 17, 236, 80
-0.996707, 189, 137, 220, 200
-0.996718, 81, 273, 144, 333
-0.996737, 167, 121, 182, 184
-0.996744, 337, 121, 464, 152
-0.996774, 175, 113, 190, 176
-0.996777, 431, 1, 446, 64
-0.996779, 113, 25, 176, 88
-0.996782, 213, 1, 244, 256
-0.996789, 81, 169, 144, 232
-0.996791, 211, 177, 226, 240
-0.996801, 293, 265, 308, 328
-0.996823, 17, 33, 144, 96
-0.996828, 205, 81, 236, 208
-0.996833, 289, 153, 304, 216
-0.99684, 281, 225, 296, 288
-0.996846, 321, 277, 448, 308
-0.996862, 145, 169, 272, 200
-0.996866, 193, 117, 320, 148
-0.996882, 33, 97, 288, 160
-0.996882, 353, 89, 480, 120
-0.996889, 1, 265, 500, 328
-0.996903, 425, 105, 440, 168
-0.99691, 353, 69, 480, 100
-0.996915, 241, 209, 368, 240
-0.996919, 321, 261, 448, 292
-0.996943, 313, 233, 328, 296
-0.996946, 303, 241, 318, 304
-0.996947, 327, 257, 342, 320
-0.99695, 189, 49, 204, 112
-0.996951, 97, 169, 224, 200
-0.996958, 1, 217, 500, 280
-0.996973, 109, 97, 140, 224
-0.99698, 305, 213, 432, 244
-0.996995, 281, 249, 296, 312
-0.997007, 451, 249, 466, 312
-0.997017, 263, 233, 278, 296
-0.997024, 273, 253, 400, 284
-0.997025, 189, 33, 220, 288
-0.997033, 65, 225, 320, 288
-0.997033, 293, 233, 308, 296
-0.997052, 181, 209, 212, 333
-0.997064, 229, 1, 260, 256
-0.997068, 445, 161, 476, 288
-0.997069, 161, 237, 288, 268
-0.99707, 423, 273, 438, 333
-0.997077, 241, 17, 256, 80
-0.997082, 65, 25, 128, 88
-0.997089, 1, 177, 500, 240
-0.997096, 209, 41, 224, 104
-0.9971, 1, 97, 500, 160
-0.997117, 247, 1, 262, 64
-0.997121, 305, 189, 432, 220
-0.997123, 353, 249, 480, 280
-0.997149, 305, 241, 432, 272
-0.997185, 369, 205, 496, 236
-0.997186, 181, 145, 196, 208
-0.997207, 235, 201, 250, 264
-0.997222, 161, 65, 288, 96
-0.997228, 193, 41, 320, 72
-0.997229, 275, 225, 290, 288
-0.997251, 369, 285, 496, 316
-0.997255, 217, 185, 232, 248
-0.99726, 257, 193, 384, 224
-0.997263, 231, 33, 246, 96
-0.997281, 321, 169, 336, 232
-0.997288, 445, 257, 460, 320
-0.997289, 169, 33, 200, 288
-0.997307, 129, 205, 256, 236
-0.997315, 209, 105, 336, 136
-0.99733, 181, 177, 196, 240
-0.99733, 337, 109, 464, 140
-0.99733, 369, 13, 496, 44
-0.997343, 459, 233, 474, 296
-0.997345, 433, 121, 448, 184
-0.997349, 113, 81, 240, 112
-0.997353, 369, 41, 496, 72
-0.997356, 339, 225, 354, 288
-0.997368, 205, 177, 220, 240
-0.997372, 295, 153, 310, 216
-0.997381, 319, 249, 334, 312
-0.997382, 1, 129, 500, 192
-0.997383, 197, 209, 228, 333
-0.997394, 251, 169, 266, 232
-0.997396, 407, 145, 422, 208
-0.9974, 201, 1, 232, 256
-0.997425, 453, 1, 484, 128
-0.997426, 321, 201, 448, 232
-0.997435, 197, 169, 212, 232
-0.997446, 113, 137, 240, 168
-0.997455, 353, 53, 480, 84
-0.997472, 337, 1, 400, 64
-0.997475, 427, 137, 442, 200
-0.997484, 203, 41, 218, 104
-0.997509, 369, 25, 496, 56
-0.997509, 65, 193, 192, 320
-0.997516, 81, 121, 208, 152
-0.997534, 253, 121, 268, 184
-0.997543, 305, 1, 336, 128
-0.997552, 113, 49, 240, 80
-0.99756, 271, 137, 286, 200
-0.997577, 233, 129, 248, 192
-0.99758, 429, 273, 444, 333
-0.997584, 227, 225, 242, 288
-0.997604, 289, 53, 416, 84
-0.99762, 289, 173, 416, 204
-0.99762, 387, 241, 402, 304
-0.99763, 175, 169, 190, 232
-0.997633, 241, 145, 368, 176
-0.997635, 273, 65, 400, 96
-0.997641, 353, 217, 480, 248
-0.997642, 279, 161, 294, 224
-0.997652, 209, 53, 336, 84
-0.997659, 287, 217, 302, 280
-0.997671, 257, 169, 500, 232
-0.997675, 345, 217, 360, 280
-0.997684, 305, 217, 320, 280
-0.997695, 451, 273, 466, 333
-0.997698, 65, 49, 192, 80
-0.997699, 245, 177, 260, 240
-0.9977, 207, 209, 222, 272
-0.997702, 243, 129, 258, 192
-0.997715, 181, 121, 196, 184
-0.997717, 393, 241, 408, 304
-0.997726, 81, 109, 208, 140
-0.997728, 381, 241, 396, 304
-0.997729, 177, 253, 304, 284
-0.99773, 401, 145, 416, 208
-0.997732, 263, 113, 278, 176
-0.997734, 213, 209, 228, 272
-0.997737, 189, 177, 204, 240
-0.997746, 295, 57, 310, 120
-0.997763, 337, 169, 464, 200
-0.997763, 369, 261, 496, 292
-0.997766, 209, 29, 336, 60
-0.997768, 313, 81, 376, 144
-0.997777, 33, 25, 288, 88
-0.99778, 65, 185, 192, 216
-0.997785, 211, 145, 226, 208
-0.997785, 439, 265, 454, 328
-0.997798, 195, 49, 210, 112
-0.9978, 355, 193, 370, 256
-0.997803, 471, 217, 486, 280
-0.997808, 223, 193, 238, 256
-0.997814, 399, 241, 414, 304
-0.997815, 113, 149, 240, 180
-0.997816, 301, 161, 316, 224
-0.997827, 289, 157, 416, 188
-0.997839, 369, 1, 496, 32
-0.997846, 215, 41, 230, 104
-0.997848, 225, 105, 240, 168
-0.997855, 475, 185, 490, 248
-0.99787, 465, 225, 480, 288
-0.997877, 279, 73, 294, 136
-0.997892, 257, 249, 272, 312
-0.997892, 449, 225, 464, 288
-0.997897, 235, 109, 250, 140
-0.997902, 393, 201, 408, 264
-0.997907, 183, 57, 198, 120
-0.997913, 307, 161, 322, 224
-0.997919, 369, 145, 496, 176
-0.997933, 435, 65, 450, 128
-0.997944, 129, 273, 384, 333
-0.99795, 333, 257, 348, 320
-0.997951, 421, 1, 452, 256
-0.997955, 413, 273, 428, 333
-0.997959, 301, 113, 332, 240
-0.997972, 315, 193, 330, 256
-0.997973, 289, 29, 416, 60
-0.997973, 129, 193, 256, 224
-0.997979, 285, 65, 300, 128
-0.997981, 193, 77, 320, 108
-0.997985, 233, 225, 248, 288
-0.997989, 225, 261, 352, 292
-0.998004, 289, 41, 416, 72
-0.998007, 229, 201, 244, 264
-0.998015, 387, 209, 402, 272
-0.998036, 175, 145, 190, 208
-0.998038, 327, 169, 342, 232
-0.99804, 33, 105, 160, 168
-0.99804, 373, 97, 388, 160
-0.998043, 241, 209, 256, 272
-0.998049, 217, 153, 232, 216
-0.998056, 245, 1, 276, 256
-0.998057, 249, 97, 264, 160
-0.998058, 419, 153, 434, 216
-0.998061, 251, 145, 266, 208
-0.998062, 125, 1, 156, 128
-0.998064, 479, 209, 494, 272
-0.998068, 221, 41, 236, 104
-0.99808, 103, 49, 118, 112
-0.998084, 95, 49, 110, 112
-0.998086, 169, 153, 184, 216
-0.998092, 303, 33, 318, 96
-0.998106, 431, 97, 446, 160
-0.998115, 443, 233, 458, 296
-0.998117, 383, 81, 398, 144
-0.998119, 89, 145, 152, 272
-0.998119, 361, 177, 376, 240
-0.998127, 225, 1, 352, 32
-0.998137, 161, 113, 176, 176
-0.998146, 113, 217, 240, 248
-0.998152, 209, 13, 336, 44
-0.998159, 369, 297, 496, 328
-0.998165, 457, 273, 472, 333
-0.998175, 237, 81, 252, 144
-0.998177, 289, 17, 416, 48
-0.998192, 275, 249, 290, 312
-0.998199, 201, 209, 216, 272
-0.998205, 257, 101, 384, 132
-0.998205, 149, 105, 164, 168
-0.998211, 337, 133, 464, 164
-0.998211, 283, 129, 298, 192
-0.998211, 333, 161, 348, 224
-0.998212, 413, 241, 428, 304
-0.998216, 287, 273, 302, 333
-0.998216, 439, 113, 454, 176
-0.998219, 273, 125, 400, 156
-0.998234, 291, 245, 306, 276
-0.998262, 237, 201, 252, 232
-0.998275, 213, 207, 244, 222
-0.998276, 421, 149, 452, 164
-0.998276, 401, 157, 432, 172
-0.998276, 177, 187, 208, 202
-0.998276, 241, 237, 272, 252
-0.998276, 241, 153, 272, 168
-0.998276, 445, 261, 476, 276
-0.998277, 401, 293, 432, 308
-0.998277, 245, 15, 276, 30
-0.998277, 289, 283, 320, 298
-0.998277, 217, 195, 248, 210
-0.998278, 201, 205, 232, 220
-0.998278, 309, 263, 340, 278
-0.998278, 253, 3, 284, 18
-0.998279, 177, 55, 208, 70
-0.99828, 317, 255, 348, 270
-0.99828, 333, 215, 364, 230
-0.998282, 429, 93, 460, 108
-0.998283, 213, 201, 244, 216
-0.998283, 329, 249, 360, 264
-0.998283, 425, 139, 456, 154
-0.998283, 261, 169, 292, 184
-0.998284, 333, 183, 364, 198
-0.998286, 225, 201, 256, 216
-0.998286, 301, 169, 332, 184
-0.998286, 125, 57, 156, 72
-0.998286, 181, 217, 212, 232
-0.998287, 405, 237, 436, 252
-0.998287, 293, 277, 324, 292
-0.998287, 245, 189, 276, 204
-0.998288, 189, 205, 220, 220
-0.998288, 241, 255, 272, 270
-0.998288, 389, 243, 420, 258
-0.998289, 301, 235, 332, 250
-0.998289, 157, 119, 188, 134
-0.998289, 265, 65, 296, 80
-0.99829, 221, 189, 252, 204
-0.99829, 249, 113, 280, 128
-0.998291, 237, 199, 268, 214
-0.998291, 245, 123, 276, 138
-0.998291, 257, 153, 288, 168
-0.998292, 425, 117, 456, 132
-0.998292, 341, 257, 372, 272
-0.998292, 329, 197, 360, 212
-0.998292, 169, 121, 200, 136
-0.998292, 177, 169, 208, 184
-0.998293, 425, 111, 456, 126
-0.998294, 113, 55, 144, 70
-0.998294, 201, 183, 232, 198
-0.998295, 307, 241, 322, 272
-0.998296, 305, 219, 336, 234
-0.998297, 281, 155, 312, 170
-0.998297, 273, 259, 304, 274
-0.998297, 409, 279, 440, 294
-0.998298, 249, 145, 280, 160
-0.998299, 309, 191, 340, 206
-0.998299, 261, 237, 292, 252
-0.9983, 165, 121, 180, 152
-0.998301, 169, 143, 200, 158
-0.998301, 249, 245, 280, 260
-0.998302, 417, 127, 448, 142
-0.998303, 313, 173, 344, 188
-0.998304, 433, 85, 464, 100
-0.998304, 281, 227, 312, 242
-0.998305, 345, 213, 376, 228
-0.998306, 413, 133, 444, 148
-0.998306, 249, 135, 280, 150
-0.998307, 421, 291, 452, 306
-0.998307, 253, 255, 284, 270
-0.998308, 301, 225, 332, 240
-0.998309, 285, 173, 316, 188
-0.998309, 429, 265, 460, 280
-0.998309, 265, 71, 296, 86
-0.99831, 289, 235, 320, 250
-0.99831, 329, 191, 360, 206
-0.99831, 173, 203, 204, 218
-0.99831, 329, 203, 360, 218
-0.998312, 81, 93, 208, 124
-0.998312, 269, 163, 300, 178
-0.998312, 229, 109, 260, 124
-0.998313, 69, 47, 100, 62
-0.998313, 233, 37, 264, 52
-0.998316, 181, 211, 212, 226
-0.998317, 277, 61, 308, 76
-0.998317, 169, 61, 200, 76
-0.998322, 433, 77, 464, 92
-0.998322, 213, 219, 244, 234
-0.998323, 297, 261, 328, 276
-0.998324, 413, 139, 444, 154
-0.998324, 441, 255, 472, 270
-0.998324, 217, 115, 248, 130
-0.998325, 169, 137, 200, 152
-0.998326, 177, 175, 208, 190
-0.998326, 273, 277, 400, 308
-0.998327, 277, 67, 308, 82
-0.998332, 193, 177, 224, 192
-0.998332, 197, 211, 228, 226
-0.998332, 281, 167, 312, 182
-0.998333, 169, 129, 200, 144
-0.998335, 209, 225, 240, 240
-0.998336, 369, 157, 496, 188
-0.998336, 405, 151, 436, 166
-0.998336, 325, 209, 356, 224
-0.998338, 233, 127, 264, 142
-0.998339, 293, 163, 324, 178
-0.99834, 225, 207, 256, 222
-0.998341, 301, 253, 332, 268
-0.998341, 177, 181, 208, 196
-0.998343, 157, 131, 188, 146
-0.998343, 269, 151, 300, 166
-0.998344, 241, 109, 256, 140
-0.998344, 221, 213, 252, 228
-0.998346, 269, 231, 300, 246
-0.998346, 289, 1, 416, 32
-0.998352, 285, 253, 316, 268
-0.998352, 317, 227, 348, 242
-0.998354, 217, 43, 248, 58
-0.998354, 261, 241, 276, 272
-0.998355, 257, 77, 384, 108
-0.998359, 201, 49, 232, 64
-0.998359, 409, 145, 440, 160
-0.99836, 321, 217, 352, 232
-0.998361, 313, 233, 344, 248
-0.998364, 289, 67, 320, 82
-0.998364, 221, 121, 252, 136
-0.998369, 233, 121, 264, 136
-0.998369, 209, 213, 240, 228
-0.998369, 293, 241, 324, 256
-0.998373, 1, 17, 500, 80
-0.998381, 157, 125, 188, 140
-0.998385, 401, 1, 432, 128
-0.998386, 281, 161, 312, 176
-0.998389, 257, 159, 288, 174
-0.998393, 305, 247, 336, 262
-0.998394, 281, 73, 312, 88
-0.998397, 313, 239, 344, 254
-0.998397, 365, 33, 396, 160
-0.998398, 289, 247, 320, 262
-0.9984, 417, 285, 448, 300
-0.998402, 261, 65, 292, 320
-0.998404, 369, 193, 496, 224
-0.998415, 201, 219, 232, 234
-0.99842, 189, 53, 220, 68
-0.998428, 229, 115, 260, 130
-0.998441, 293, 157, 308, 188
-0.998445, 191, 53, 206, 84
-0.998448, 285, 33, 316, 288
-0.998455, 423, 277, 438, 308
-0.998455, 157, 33, 188, 288
-0.998463, 289, 145, 416, 176
-0.998463, 263, 153, 278, 184
-0.998468, 219, 213, 234, 244
-0.998477, 225, 65, 352, 96
-0.998489, 313, 233, 328, 264
-0.998491, 417, 129, 432, 160
-0.998492, 17, 137, 144, 200
-0.998502, 227, 213, 242, 244
-0.998503, 319, 217, 334, 248
-0.998503, 405, 1, 436, 256
-0.998508, 331, 189, 346, 220
-0.998515, 293, 65, 308, 96
-0.998518, 97, 1, 352, 64
-0.998519, 433, 285, 448, 316
-0.998529, 257, 89, 384, 120
-0.998531, 301, 249, 316, 280
-0.998535, 197, 49, 212, 80
-0.998543, 285, 153, 300, 184
-0.998555, 225, 133, 352, 164
-0.998555, 357, 81, 388, 208
-0.998556, 287, 165, 302, 196
-0.998558, 249, 159, 312, 174
-0.99856, 289, 255, 352, 270
-0.998561, 265, 231, 328, 246
-0.998565, 171, 121, 186, 152
-0.998571, 329, 249, 344, 280
-0.998581, 249, 253, 312, 268
-0.998582, 169, 177, 232, 192
-0.998584, 205, 49, 220, 80
-0.998587, 229, 109, 244, 140
-0.998588, 281, 245, 344, 260
-0.998588, 193, 215, 256, 230
-0.998589, 287, 69, 302, 100
-0.998593, 297, 237, 312, 268
-0.998595, 257, 237, 320, 252
-0.998596, 249, 247, 312, 262
-0.998598, 203, 213, 218, 244
-0.998598, 201, 119, 264, 134
-0.998599, 327, 201, 342, 232
-0.998599, 335, 177, 350, 208
-0.998602, 281, 225, 344, 240
-0.998604, 321, 293, 448, 324
-0.998606, 281, 239, 344, 254
-0.998607, 65, 73, 192, 104
-0.998609, 299, 161, 314, 192
-0.998609, 185, 53, 248, 68
-0.99861, 209, 113, 272, 128
-0.998611, 193, 221, 256, 236
-0.998615, 289, 261, 352, 276
-0.998616, 169, 183, 232, 198
-0.998617, 249, 165, 312, 180
-0.998618, 423, 121, 438, 152
-0.998619, 393, 1, 424, 256
-0.998621, 313, 213, 376, 228
-0.998622, 249, 165, 264, 196
-0.998624, 321, 191, 384, 206
-0.998624, 209, 179, 272, 194
-0.998626, 209, 125, 272, 140
-0.998626, 169, 127, 232, 142
-0.998627, 289, 231, 352, 246
-0.998628, 411, 141, 426, 172
-0.998629, 305, 239, 368, 254
-0.998629, 313, 207, 376, 222
-0.998631, 209, 187, 272, 202
-0.998633, 279, 73, 294, 104
-0.998633, 295, 261, 310, 292
-0.998634, 249, 153, 312, 168
-0.998634, 313, 257, 376, 272
-0.998635, 193, 201, 256, 216
-0.998637, 249, 173, 312, 188
-0.998639, 281, 267, 344, 282
-0.998639, 289, 171, 352, 186
-0.99864, 305, 223, 368, 238
-0.99864, 169, 171, 232, 186
-0.998641, 401, 141, 464, 156
-0.998641, 137, 61, 200, 76
-0.998641, 217, 231, 280, 246
-0.998642, 281, 273, 344, 288
-0.998642, 327, 261, 342, 292
-0.998643, 211, 45, 226, 76
-0.998643, 193, 47, 256, 62
-0.998647, 437, 33, 468, 288
-0.998647, 257, 259, 320, 274
-0.998647, 177, 121, 240, 136
-0.998648, 193, 209, 256, 224
-0.99865, 181, 185, 196, 216
-0.998651, 161, 143, 224, 158
-0.998652, 185, 195, 248, 210
-0.998652, 263, 253, 278, 284
-0.998653, 385, 283, 448, 298
-0.998653, 401, 135, 464, 150
-0.998654, 225, 225, 240, 256
-0.998654, 145, 133, 208, 148
-0.998655, 241, 41, 368, 72
-0.998655, 245, 121, 260, 152
-0.998655, 393, 147, 456, 162
-0.998655, 393, 153, 456, 168
-0.998656, 113, 177, 176, 240
-0.99866, 177, 59, 240, 74
-0.99866, 233, 195, 296, 210
-0.99866, 173, 137, 188, 168
-0.99866, 217, 157, 280, 172
-0.998661, 433, 291, 496, 306
-0.998661, 321, 185, 384, 200
-0.998661, 329, 221, 392, 236
-0.998662, 209, 193, 272, 208
-0.998662, 289, 189, 352, 204
-0.998663, 353, 181, 480, 212
-0.998664, 267, 237, 282, 268
-0.998664, 145, 123, 208, 138
-0.998664, 253, 1, 268, 32
-0.998667, 409, 287, 472, 302
-0.998667, 169, 209, 232, 224
-0.998668, 321, 197, 384, 212
-0.998668, 97, 55, 160, 70
-0.998668, 201, 131, 264, 146
-0.998668, 289, 179, 352, 194
-0.998669, 225, 119, 288, 134
-0.998671, 273, 113, 400, 144
-0.998672, 211, 177, 226, 208
-0.998672, 249, 63, 312, 78
-0.998674, 289, 217, 352, 232
-0.998674, 177, 133, 240, 148
-0.998675, 177, 115, 240, 130
-0.998677, 329, 263, 392, 278
-0.998677, 217, 143, 280, 158
-0.998678, 129, 151, 192, 166
-0.998678, 249, 57, 312, 72
-0.998678, 409, 127, 472, 142
-0.998679, 169, 219, 232, 234
-0.99868, 145, 175, 208, 190
-0.998681, 401, 295, 464, 310
-0.998682, 401, 267, 464, 282
-0.998682, 385, 75, 448, 90
-0.998682, 233, 185, 296, 200
-0.998683, 169, 65, 232, 80
-0.998683, 289, 203, 352, 218
-0.998683, 193, 93, 320, 124
-0.998683, 401, 239, 464, 254
-0.998684, 281, 279, 344, 294
-0.998684, 369, 231, 432, 246
-0.998685, 377, 239, 440, 254
-0.998685, 425, 279, 488, 294
-0.998686, 321, 231, 384, 246
-0.998686, 409, 121, 472, 136
-0.998687, 401, 83, 464, 98
-0.998687, 249, 185, 264, 216
-0.998688, 257, 69, 320, 84
-0.998688, 241, 179, 304, 194
-0.998689, 241, 137, 304, 152
-0.99869, 417, 109, 480, 124
-0.99869, 281, 165, 344, 180
-0.99869, 81, 63, 144, 78
-0.998691, 401, 245, 464, 260
-0.998691, 169, 151, 232, 166
-0.998691, 169, 165, 232, 180
-0.998691, 233, 241, 296, 256
-0.998692, 217, 43, 280, 58
-0.998692, 225, 225, 288, 240
-0.998692, 97, 37, 224, 68
-0.998692, 417, 147, 480, 162
-0.998693, 409, 273, 472, 288
-0.998693, 57, 49, 120, 64
-0.998693, 169, 201, 232, 216
-0.998693, 385, 277, 448, 292
-0.998693, 345, 245, 408, 260
-0.998694, 153, 55, 216, 70
-0.998694, 271, 145, 286, 176
-0.998695, 193, 227, 256, 242
-0.998695, 321, 179, 384, 194
-0.998695, 145, 183, 208, 198
-0.998695, 401, 261, 464, 276
-0.998696, 377, 137, 440, 152
-0.998697, 209, 169, 272, 184
-0.998697, 337, 211, 400, 226
-0.998698, 433, 87, 496, 102
-0.998698, 65, 57, 128, 72
-0.998698, 241, 125, 304, 140
-0.998698, 313, 249, 376, 264
-0.998699, 325, 213, 340, 244
-0.998699, 417, 233, 480, 248
-0.9987, 233, 201, 296, 216
-0.9987, 257, 51, 320, 66
-0.998701, 177, 189, 240, 204
-0.998701, 433, 99, 496, 114
-0.998701, 425, 29, 488, 44
-0.998701, 385, 51, 448, 66
-0.998702, 377, 17, 440, 32
-0.998702, 137, 143, 200, 158
-0.998705, 449, 33, 480, 288
-0.998706, 227, 41, 242, 72
-0.998707, 405, 145, 420, 176
-0.998711, 173, 185, 188, 216
-0.998714, 281, 105, 344, 168
-0.998715, 227, 121, 242, 152
-0.998716, 449, 249, 464, 280
-0.998722, 235, 125, 250, 156
-0.998727, 233, 33, 248, 64
-0.998743, 459, 233, 474, 264
-0.998743, 399, 241, 414, 272
-0.998745, 355, 201, 370, 232
-0.998747, 325, 169, 340, 200
-0.998749, 307, 221, 322, 252
-0.998752, 243, 197, 258, 228
-0.998764, 273, 33, 304, 288
-0.998767, 429, 109, 444, 140
-0.998773, 243, 181, 258, 212
-0.998773, 247, 9, 262, 40
-0.998777, 41, 1, 104, 256
-0.998784, 257, 257, 272, 288
-0.998786, 209, 217, 224, 248
-0.998788, 279, 229, 294, 260
-0.998801, 425, 141, 440, 172
-0.998805, 255, 245, 270, 276
-0.998808, 417, 293, 432, 324
-0.998811, 227, 201, 242, 232
-0.998814, 273, 289, 400, 320
-0.998817, 177, 265, 304, 296
-0.998818, 225, 277, 352, 308
-0.998827, 319, 229, 334, 260
-0.99883, 279, 57, 294, 88
-0.998835, 285, 249, 300, 280
-0.998837, 191, 205, 206, 236
-0.99884, 1, 241, 500, 304
-0.998857, 305, 77, 432, 108
-0.99886, 233, 213, 248, 244
-0.99886, 255, 177, 270, 208
-0.998861, 289, 277, 304, 308
-0.998866, 145, 33, 176, 288
-0.998868, 65, 149, 192, 180
-0.998868, 321, 257, 336, 288
-0.998869, 279, 161, 294, 192
-0.998871, 239, 25, 254, 56
-0.998874, 333, 261, 348, 292
-0.998877, 217, 45, 232, 76
-0.99888, 285, 225, 300, 256
-0.998882, 445, 265, 460, 296
-0.998886, 179, 201, 194, 232
-0.998892, 337, 237, 352, 268
-0.998892, 465, 229, 480, 260
-0.998897, 185, 57, 200, 88
-0.998898, 377, 33, 408, 288
-0.998901, 203, 169, 218, 200
-0.998905, 273, 229, 288, 260
-0.998909, 431, 133, 446, 164
-0.99891, 169, 257, 232, 320
-0.998915, 179, 129, 194, 160
-0.998916, 177, 57, 192, 88
-0.99892, 259, 141, 274, 172
-0.998921, 255, 165, 270, 196
-0.998922, 269, 249, 284, 280
-0.998924, 247, 109, 262, 140
-0.998928, 97, 81, 128, 208
-0.998933, 443, 253, 458, 284
-0.998936, 297, 53, 312, 84
-0.998936, 371, 105, 386, 136
-0.998937, 273, 133, 288, 164
-0.99894, 431, 9, 446, 40
-0.99894, 319, 193, 334, 224
-0.998944, 171, 161, 186, 192
-0.998945, 419, 149, 434, 180
-0.998947, 327, 193, 342, 320
-0.998953, 305, 165, 320, 196
-0.998955, 215, 201, 230, 232
-0.998959, 189, 177, 204, 208
-0.998961, 345, 213, 360, 244
-0.998965, 399, 153, 414, 184
-0.998966, 439, 289, 454, 320
-0.998975, 273, 61, 288, 92
-0.998978, 393, 241, 408, 272
-0.998981, 197, 209, 212, 240
-0.998981, 179, 153, 194, 184
-0.998984, 337, 225, 352, 256
-0.998985, 185, 197, 200, 228
-0.998986, 287, 57, 302, 88
-0.998986, 453, 233, 468, 264
-0.998989, 181, 173, 196, 204
-0.998989, 357, 189, 372, 220
-0.998989, 443, 237, 458, 268
-0.998991, 265, 141, 280, 172
-0.998995, 331, 217, 346, 248
-0.998997, 175, 173, 190, 204
-0.998998, 177, 117, 192, 148
-0.999011, 145, 37, 272, 68
-0.999027, 273, 301, 400, 332
-0.999034, 65, 273, 192, 333
-0.999035, 469, 1, 500, 256
-0.999038, 17, 81, 144, 112
-0.999048, 65, 137, 192, 168
-0.999068, 305, 89, 432, 120
-0.999088, 365, 65, 396, 320
-0.999098, 321, 209, 336, 333
-0.999111, 1, 69, 128, 100
-0.999137, 333, 65, 364, 320
-0.999167, 241, 129, 256, 256
-0.99918, 33, 93, 160, 124
-0.999192, 333, 177, 348, 304
-0.999204, 233, 129, 248, 256
-0.999206, 1, 241, 128, 272
-0.999212, 145, 21, 272, 52
-0.999243, 309, 65, 340, 320
-0.999244, 17, 49, 144, 80
-0.999244, 217, 177, 232, 304
-0.999256, 251, 113, 266, 240
-0.999259, 421, 113, 436, 240
-0.999269, 229, 209, 244, 333
-0.999284, 235, 193, 250, 320
-0.999285, 353, 193, 368, 320
-0.999293, 291, 177, 306, 304
-0.999293, 179, 129, 194, 256
-0.999299, 431, 65, 446, 192
-0.999301, 245, 177, 260, 304
-0.999312, 179, 65, 194, 192
-0.999313, 323, 145, 338, 272
-0.999315, 251, 161, 266, 288
-0.999323, 257, 145, 272, 272
-0.999326, 199, 33, 214, 160
-0.999327, 187, 49, 202, 176
-0.999331, 235, 81, 250, 208
-0.999332, 261, 97, 276, 224
-0.999345, 263, 145, 278, 272
-0.999347, 347, 193, 362, 320
-0.999351, 245, 1, 260, 128
-0.999353, 339, 209, 354, 333
-0.999355, 227, 129, 242, 256
-0.999358, 207, 161, 222, 288
-0.999364, 173, 113, 188, 240
-0.999366, 223, 177, 238, 304
-0.999368, 415, 129, 430, 256
-0.999371, 205, 33, 220, 160
-0.999371, 65, 197, 192, 228
-0.999372, 231, 33, 246, 160
-0.999375, 1, 229, 128, 260
-0.999378, 243, 81, 258, 208
-0.999381, 313, 161, 328, 288
-0.999395, 427, 113, 442, 240
-0.999397, 201, 161, 216, 288
-0.999398, 171, 49, 186, 176
-0.9994, 49, 209, 176, 272
-0.999405, 161, 49, 176, 176
-0.99941, 193, 33, 208, 160
-0.999423, 391, 1, 406, 128
-0.999426, 195, 161, 210, 288
-0.999427, 285, 177, 300, 304
-0.999433, 73, 1, 104, 256
-0.999435, 237, 17, 252, 144
-0.999438, 185, 129, 200, 256
-0.999442, 345, 129, 376, 256
-0.999442, 33, 209, 160, 240
-0.999445, 315, 209, 330, 333
-0.99945, 223, 33, 238, 160
-0.999451, 121, 49, 136, 176
-0.999456, 279, 177, 294, 304
-0.999465, 359, 177, 374, 304
-0.999471, 339, 161, 354, 288
-0.999472, 389, 193, 404, 320
-0.999474, 407, 145, 422, 272
-0.999475, 325, 191, 340, 206
-0.999475, 191, 211, 206, 226
-0.999475, 255, 255, 270, 270
-0.999476, 255, 189, 270, 204
-0.999477, 185, 199, 200, 214
-0.999477, 311, 221, 326, 236
-0.999477, 95, 79, 110, 94
-0.999477, 273, 77, 288, 92
-0.999477, 233, 125, 248, 140
-0.999478, 203, 173, 218, 188
-0.999478, 449, 253, 464, 268
-0.999478, 247, 123, 262, 138
-0.999479, 437, 33, 452, 160
-0.999479, 221, 129, 236, 256
-0.999479, 309, 209, 324, 333
-0.999479, 255, 247, 270, 262
-0.99948, 181, 209, 196, 224
-0.99948, 163, 133, 178, 148
-0.99948, 289, 129, 304, 256
-0.99948, 293, 275, 308, 290
-0.99948, 251, 173, 266, 188
-0.999481, 303, 167, 318, 182
-0.999481, 319, 263, 334, 278
-0.999481, 159, 119, 174, 134
-0.999483, 329, 253, 344, 268
-0.999483, 473, 317, 488, 332
-0.999483, 413, 143, 428, 158
-0.999484, 289, 267, 304, 282
-0.999484, 249, 15, 264, 30
-0.999484, 143, 59, 158, 74
-0.999486, 417, 137, 432, 152
-0.999486, 101, 83, 116, 98
-0.999486, 221, 45, 236, 60
-0.999486, 281, 229, 296, 244
-0.999487, 245, 111, 260, 126
-0.999487, 397, 243, 412, 258
-0.999487, 305, 233, 320, 248
-0.999487, 181, 183, 196, 198
-0.999487, 291, 71, 306, 86
-0.999488, 209, 221, 224, 236
-0.999488, 239, 197, 254, 212
-0.999488, 439, 291, 454, 306
-0.999488, 405, 1, 420, 128
-0.999488, 293, 281, 308, 296
-0.999488, 237, 107, 252, 122
-0.999489, 193, 217, 208, 232
-0.999489, 219, 209, 234, 224
-0.99949, 251, 9, 266, 24
-0.99949, 211, 183, 226, 198
-0.99949, 327, 267, 342, 282
-0.999491, 211, 209, 226, 224
-0.999492, 227, 125, 242, 140
-0.999492, 167, 97, 182, 224
-0.999492, 297, 33, 328, 288
-0.999493, 217, 33, 232, 160
-0.999493, 255, 3, 270, 18
-0.999494, 197, 211, 212, 226
-0.999494, 327, 173, 342, 188
-0.999494, 283, 277, 298, 292
-0.999494, 209, 177, 224, 192
-0.999495, 211, 33, 226, 160
-0.999495, 177, 121, 192, 136
-0.999496, 413, 293, 428, 308
-0.999497, 407, 149, 422, 164
-0.999497, 331, 197, 346, 212
-0.999497, 181, 177, 196, 304
-0.999498, 297, 263, 312, 278
-0.999498, 421, 131, 436, 146
-0.999498, 187, 205, 202, 220
-0.999498, 229, 219, 244, 234
-0.999499, 337, 179, 352, 194
-0.9995, 251, 179, 266, 194
-0.9995, 433, 287, 448, 302
-0.9995, 177, 203, 192, 218
-0.9995, 329, 205, 344, 220
-0.9995, 261, 147, 276, 162
-0.999501, 215, 47, 230, 62
-0.999501, 237, 211, 252, 226
-0.999501, 441, 265, 456, 280
-0.999502, 335, 185, 350, 200
-0.999502, 249, 185, 264, 200
-0.999503, 327, 259, 342, 274
-0.999503, 353, 209, 368, 224
-0.999504, 229, 119, 244, 134
-0.999505, 181, 59, 196, 74
-0.999505, 281, 159, 296, 174
-0.999505, 305, 251, 320, 266
-0.999505, 423, 279, 438, 294
-0.999506, 333, 191, 348, 206
-0.999506, 299, 257, 314, 272
-0.999507, 235, 37, 250, 52
-0.999507, 267, 97, 282, 224
-0.999507, 75, 45, 90, 60
-0.999508, 473, 193, 488, 320
-0.999509, 297, 65, 312, 80
-0.999509, 291, 253, 306, 268
-0.999509, 261, 257, 276, 272
-0.99951, 221, 227, 236, 242
-0.99951, 231, 205, 246, 220
-0.999511, 245, 191, 260, 206
-0.999512, 273, 233, 288, 248
-0.999512, 271, 149, 286, 164
-0.999513, 263, 241, 278, 256
-0.999513, 245, 197, 260, 212
-0.999513, 181, 177, 196, 192
-0.999513, 279, 71, 294, 86
-0.999514, 327, 211, 342, 226
-0.999514, 253, 165, 268, 180
-0.999514, 325, 217, 340, 232
-0.999514, 131, 49, 146, 176
-0.999514, 223, 221, 238, 236
-0.999515, 285, 75, 300, 90
-0.999516, 397, 1, 412, 128
-0.999516, 207, 49, 222, 64
-0.999517, 49, 173, 176, 204
-0.999517, 113, 33, 128, 160
-0.999517, 203, 213, 218, 228
-0.999517, 321, 227, 336, 242
-0.999519, 229, 41, 244, 56
-0.999521, 317, 233, 332, 248
-0.999524, 239, 203, 254, 218
-0.999524, 299, 241, 314, 256
-0.999525, 155, 49, 170, 176
-0.999526, 215, 225, 230, 240
-0.999527, 161, 125, 176, 140
-0.999528, 307, 245, 322, 260
-0.999529, 171, 131, 186, 146
-0.99953, 305, 161, 320, 288
-0.999532, 267, 235, 282, 250
-0.999532, 191, 55, 206, 70
-0.999532, 297, 161, 312, 176
-0.999533, 479, 193, 494, 320
-0.999534, 203, 219, 218, 234
-0.999534, 313, 239, 328, 254
-0.999536, 227, 211, 242, 226
-0.999541, 279, 77, 294, 92
-0.999541, 329, 129, 344, 256
-0.999547, 485, 193, 500, 320
-0.999548, 291, 157, 306, 172
-0.999549, 291, 65, 306, 80
-0.99955, 285, 165, 300, 180
-0.999551, 353, 65, 384, 320
-0.999551, 211, 215, 226, 230
-0.999552, 395, 193, 410, 320
-0.999554, 261, 157, 276, 172
-0.999555, 161, 129, 176, 256
-0.999555, 445, 65, 460, 192
-0.999556, 145, 1, 272, 32
-0.999557, 437, 81, 452, 208
-0.999557, 303, 17, 318, 144
-0.999558, 285, 69, 300, 84
-0.999558, 167, 125, 182, 140
-0.999559, 457, 65, 472, 192
-0.999559, 189, 177, 204, 304
-0.999562, 113, 1, 144, 128
-0.999562, 97, 253, 224, 284
-0.999563, 239, 113, 254, 128
-0.999564, 295, 247, 310, 262
-0.999565, 133, 1, 164, 256
-0.999566, 221, 215, 236, 230
-0.999566, 225, 289, 352, 320
-0.999566, 231, 113, 246, 128
-0.999566, 201, 51, 216, 66
-0.999566, 459, 209, 474, 333
-0.999568, 395, 145, 410, 272
-0.999569, 61, 193, 92, 320
-0.99957, 377, 81, 392, 208
-0.999573, 225, 301, 352, 332
-0.999573, 273, 129, 288, 256
-0.999573, 297, 209, 312, 333
-0.999574, 465, 209, 480, 333
-0.999575, 303, 209, 318, 333
-0.999576, 81, 9, 208, 72
-0.999577, 425, 209, 440, 333
-0.999581, 297, 145, 312, 272
-0.999581, 229, 81, 244, 208
-0.999585, 137, 49, 152, 176
-0.999587, 253, 65, 268, 192
-0.999588, 387, 65, 402, 192
-0.999588, 451, 65, 466, 192
-0.999588, 101, 1, 132, 256
-0.999588, 215, 113, 230, 240
-0.999589, 273, 81, 288, 208
-0.999597, 383, 193, 398, 320
-0.999598, 235, 119, 250, 134
-0.9996, 463, 49, 478, 176
-0.999602, 417, 209, 432, 333
-0.999602, 485, 129, 500, 256
-0.99961, 173, 161, 188, 288
-0.99961, 401, 145, 416, 272
-0.999611, 293, 65, 308, 192
-0.999612, 287, 65, 302, 192
-0.999615, 385, 1, 400, 128
-0.999615, 155, 113, 170, 240
-0.999618, 449, 193, 464, 320
-0.999619, 479, 145, 494, 272
-0.999619, 99, 33, 114, 160
-0.99962, 49, 297, 176, 328
-0.999621, 439, 209, 454, 333
-0.999627, 201, 265, 264, 328
-0.999628, 179, 17, 194, 144
-0.999629, 33, 285, 160, 316
-0.999633, 433, 209, 448, 333
-0.999633, 371, 81, 386, 208
-0.999635, 401, 209, 416, 333
-0.99964, 411, 209, 426, 333
-0.999641, 127, 97, 142, 224
-0.999641, 431, 1, 446, 128
-0.999641, 145, 65, 160, 192
-0.999644, 433, 129, 448, 256
-0.999648, 135, 97, 150, 224
-0.999652, 271, 177, 286, 304
-0.999654, 281, 129, 296, 256
-0.999662, 423, 161, 438, 288
-0.999664, 469, 97, 484, 224
-0.999667, 209, 113, 224, 240
-0.999667, 1, 253, 128, 284
-0.999669, 187, 1, 202, 128
-0.99967, 291, 17, 306, 144
-0.999672, 463, 161, 478, 288
-0.999673, 107, 33, 122, 160
-0.999677, 33, 105, 160, 136
-0.999677, 17, 269, 144, 300
-0.999687, 211, 209, 226, 333
-0.999697, 121, 1, 152, 256
-0.999697, 77, 33, 108, 160
-0.999812, 321, 65, 352, 320
-0.999835, 177, 301, 304, 332
-0.999852, 81, 241, 208, 272
-0.999899, 129, 297, 256, 328
-1.00006, 41, 217, 104, 280
-1.00008, 85, 33, 116, 288
-1.00008, 1, 241, 64, 304
-1.00022, 1, 161, 128, 224
-1.00023, 17, 9, 144, 72
-1.0003, 333, 97, 364, 224
-1.00034, 61, 1, 92, 256
-1.00035, 9, 1, 72, 333
-1.00047, 1, 257, 256, 320
-1.00061, 25, 169, 88, 232
-1.00064, 33, 25, 96, 88
-1.00068, 81, 249, 144, 312
-1.00075, 41, 193, 72, 320
-1.00079, 313, 97, 344, 224
-1.00094, 37, 65, 68, 320
-1.00095, 349, 33, 380, 160
-1.00095, 21, 65, 52, 320
-1.00112, 49, 33, 80, 288
-1.00124, 5, 65, 36, 320
-1.00124, 1, 1, 256, 64
-1.00125, 81, 177, 112, 304
-1.00128, 141, 1, 172, 128
-1.00146, 33, 33, 96, 160
-1.00152, 157, 1, 188, 128
-1.00154, 469, 49, 500, 176
-1.00182, 345, 81, 376, 208
-1.00194, 9, 161, 72, 288
-1.00228, 121, 145, 152, 272
-1.0024, 65, 33, 96, 160
-1.00255, 133, 145, 164, 272
-1.00258, 85, 81, 116, 208
-1.00271, 169, 209, 200, 333
-1.00288, 33, 145, 96, 272
-1.00306, 21, 209, 52, 333
-1.00311, 105, 145, 136, 272
-1.00384, 61, 145, 92, 272
-1.00403, 9, 209, 40, 333
-1.00411, 17, 161, 48, 288
-1.00416, 93, 161, 124, 288
-1.00421, 145, 161, 176, 288
-1.00422, 41, 145, 72, 272
-1.00464, 121, 193, 184, 320
-1.00472, 1, 81, 128, 208
-1.00473, 333, 1, 364, 128
-1.0049, 57, 129, 120, 256
-1.00509, 57, 81, 120, 208
-1.0051, 29, 161, 60, 288
-1.00521, 77, 129, 108, 256
-1.00547, 9, 65, 72, 320
-1.00591, 157, 209, 188, 333
-1.00591, 5, 161, 36, 288
-1.00592, 101, 209, 132, 333
-1.00593, 53, 17, 84, 144
-1.0085, 33, 97, 96, 224
-1.00856, 97, 209, 160, 333
-1.00948, 1, 17, 64, 144
-1.01165, 1, 113, 64, 240
-1.01224, 1, 65, 64, 192
