1868
-0.462676, 65, 1, 320, 334
-0.467556, 1, 1, 500, 334
-0.535655, 225, 1, 480, 334
-0.540357, 1, 65, 500, 320
-0.667955, 65, 65, 320, 320
-0.715465, 225, 33, 480, 288
-0.869736, 177, 65, 304, 320
-0.877391, 209, 1, 336, 334
-0.880354, 97, 65, 224, 320
-0.882351, 161, 1, 288, 334
-0.884163, 113, 1, 240, 334
-0.887341, 225, 33, 352, 288
-0.8913, 17, 1, 144, 334
-0.893132, 1, 209, 500, 334
-0.897516, 257, 1, 384, 334
-0.900673, 65, 1, 192, 334
-0.901604, 65, 193, 320, 320
-0.90233, 33, 65, 160, 320
-0.905496, 161, 193, 416, 320
-0.90621, 321, 1, 448, 334
-0.919898, 369, 1, 496, 334
-0.924893, 305, 65, 432, 320
-0.926044, 209, 161, 272, 288
-0.928254, 65, 145, 320, 272
-0.930124, 241, 177, 368, 304
-0.932048, 161, 145, 416, 272
-0.93376, 161, 161, 288, 288
-0.934062, 177, 177, 240, 304
-0.934369, 1, 49, 500, 176
-0.934405, 1, 161, 500, 288
-0.937489, 201, 209, 264, 334
-0.939289, 177, 209, 304, 334
-0.939953, 33, 209, 160, 334
-0.941581, 209, 129, 336, 256
-0.941849, 1, 1, 500, 128
-0.941889, 353, 65, 480, 320
-0.942602, 57, 193, 120, 320
-0.944871, 257, 177, 500, 304
-0.946859, 33, 209, 96, 334
-0.947004, 249, 177, 312, 304
-0.948196, 145, 209, 208, 334
-0.948914, 201, 217, 264, 280
-0.949362, 225, 113, 288, 240
-0.94939, 289, 177, 352, 304
-0.950148, 65, 81, 320, 208
-0.95029, 1, 97, 500, 224
-0.950399, 225, 81, 480, 208
-0.950519, 97, 177, 224, 304
-0.952681, 33, 161, 160, 288
-0.952932, 225, 145, 288, 208
-0.954158, 97, 209, 160, 334
-0.955833, 193, 33, 448, 160
-0.956365, 41, 265, 104, 328
-0.956502, 145, 257, 208, 320
-0.95694, 201, 169, 264, 232
-0.957246, 161, 97, 288, 224
-0.957501, 249, 129, 312, 256
-0.958446, 185, 249, 248, 312
-0.958668, 121, 209, 184, 334
-0.95921, 97, 81, 224, 208
-0.959308, 177, 217, 240, 280
-0.959702, 97, 129, 224, 256
-0.95979, 1, 1, 256, 128
-0.960078, 281, 185, 344, 248
-0.960499, 249, 209, 312, 272
-0.961841, 185, 273, 248, 334
-0.962015, 169, 81, 232, 208
-0.962623, 209, 249, 272, 312
-0.963133, 161, 185, 224, 248
-0.963261, 137, 81, 200, 208
-0.96331, 33, 81, 96, 208
-0.963377, 201, 193, 264, 256
-0.963578, 201, 97, 264, 224
-0.963629, 169, 129, 232, 256
-0.963961, 73, 145, 136, 272
-0.964266, 225, 209, 288, 334
-0.964604, 225, 225, 288, 288
-0.964764, 257, 129, 500, 256
-0.96556, 97, 17, 352, 144
-0.965612, 121, 233, 184, 296
-0.96593, 33, 241, 96, 304
-0.966033, 225, 169, 288, 232
-0.966079, 81, 217, 144, 280
-0.966682, 225, 121, 288, 184
-0.966712, 237, 217, 268, 280
-0.966791, 17, 81, 144, 208
-0.966912, 145, 161, 208, 288
-0.966985, 241, 33, 304, 96
-0.967034, 217, 65, 280, 320
-0.967464, 217, 161, 248, 288
-0.967637, 145, 209, 208, 272
-0.967863, 177, 49, 304, 176
-0.968197, 33, 17, 96, 144
-0.968874, 289, 193, 416, 320
-0.96897, 65, 33, 192, 160
-0.969207, 57, 97, 120, 224
-0.969217, 257, 145, 320, 208
-0.969536, 17, 33, 144, 160
-0.96956, 97, 273, 160, 334
-0.969652, 221, 225, 252, 288
-0.969914, 45, 209, 76, 334
-0.969928, 121, 201, 184, 264
-0.970145, 145, 89, 208, 152
-0.970184, 205, 209, 236, 334
-0.970198, 145, 217, 272, 280
-0.970329, 57, 241, 120, 304
-0.970383, 241, 1, 304, 128
-0.970427, 249, 145, 280, 208
-0.970559, 17, 265, 80, 328
-0.970576, 33, 161, 96, 288
-0.97075, 41, 185, 104, 248
-0.970805, 177, 177, 304, 240
-0.970973, 249, 121, 280, 184
-0.971543, 45, 249, 76, 312
-0.972078, 249, 145, 280, 272
-0.972249, 241, 65, 304, 192
-0.972454, 241, 81, 368, 208
-0.972463, 97, 257, 224, 320
-0.972528, 201, 145, 264, 208
-0.972853, 105, 161, 168, 288
-0.973049, 229, 161, 260, 288
-0.973167, 161, 161, 224, 224
-0.973329, 209, 217, 240, 280
-0.973374, 241, 209, 272, 334
-0.973557, 41, 217, 104, 280
-0.973609, 9, 65, 72, 192
-0.973641, 225, 193, 288, 256
-0.973781, 273, 129, 336, 256
-0.973802, 1, 209, 64, 334
-0.973807, 241, 209, 368, 272
-0.973934, 97, 241, 160, 304
-0.974239, 225, 33, 352, 160
-0.974264, 225, 185, 352, 248
-0.974315, 169, 89, 232, 152
-0.974706, 65, 273, 128, 334
-0.974816, 257, 129, 384, 256
-0.975261, 81, 185, 144, 248
-0.975301, 193, 177, 224, 304
-0.975503, 57, 97, 120, 160
-0.975644, 249, 169, 312, 232
-0.975775, 33, 89, 96, 152
-0.976049, 97, 81, 160, 208
-0.976055, 237, 145, 268, 208
-0.97638, 145, 233, 208, 296
-0.976477, 217, 249, 248, 312
-0.976565, 241, 9, 304, 72
-0.976583, 205, 161, 236, 288
-0.976662, 249, 1, 312, 256
-0.976693, 33, 65, 96, 128
-0.977034, 193, 249, 320, 312
-0.977156, 45, 273, 76, 334
-0.977231, 33, 241, 160, 304
-0.977357, 81, 81, 144, 144
-0.97748, 41, 225, 72, 288
-0.977639, 401, 249, 464, 312
-0.977915, 225, 209, 256, 334
-0.977974, 129, 177, 256, 240
-0.977996, 177, 249, 208, 312
-0.978047, 1, 241, 64, 304
-0.978071, 201, 105, 264, 168
-0.978213, 209, 177, 240, 240
-0.978229, 169, 137, 232, 200
-0.978229, 97, 201, 224, 264
-0.978478, 305, 1, 432, 128
-0.978545, 241, 241, 272, 304
-0.978622, 57, 49, 120, 176
-0.978718, 33, 217, 160, 280
-0.978804, 173, 209, 204, 334
-0.978821, 145, 97, 272, 160
-0.978923, 321, 193, 384, 320
-0.979106, 169, 65, 232, 320
-0.97927, 261, 161, 292, 288
-0.979307, 205, 249, 236, 312
-0.979346, 65, 153, 128, 216
-0.979484, 297, 185, 328, 248
-0.979541, 57, 193, 88, 320
-0.979556, 121, 257, 184, 320
-0.979767, 33, 185, 160, 248
-0.979776, 229, 249, 260, 312
-0.979787, 145, 257, 272, 320
-0.979879, 97, 89, 224, 152
-0.979892, 237, 97, 268, 224
-0.979939, 129, 65, 192, 128
-0.979959, 137, 65, 200, 320
-0.980037, 209, 153, 336, 216
-0.980134, 289, 209, 352, 272
-0.980241, 221, 193, 252, 256
-0.980468, 189, 257, 220, 320
-0.980547, 193, 185, 224, 248
-0.980606, 297, 177, 328, 304
-0.980633, 17, 265, 144, 328
-0.980637, 129, 33, 192, 160
-0.980646, 225, 89, 288, 152
-0.980818, 41, 65, 104, 320
-0.98082, 253, 169, 284, 232
-0.980845, 209, 273, 272, 334
-0.980921, 105, 177, 168, 240
-0.980925, 237, 121, 268, 184
-0.980934, 105, 209, 136, 272
-0.980955, 321, 145, 384, 272
-0.981023, 65, 273, 96, 334
-0.981059, 233, 249, 296, 312
-0.98108, 377, 241, 440, 304
-0.98115, 245, 41, 276, 104
-0.981152, 177, 129, 304, 192
-0.981168, 193, 217, 320, 280
-0.981196, 281, 161, 344, 224
-0.98121, 217, 41, 280, 104
-0.98121, 249, 97, 280, 224
-0.981291, 109, 209, 140, 334
-0.981791, 313, 201, 376, 264
-0.981924, 197, 217, 228, 280
-0.982111, 249, 121, 312, 184
-0.982175, 305, 145, 432, 272
-0.982602, 317, 185, 348, 248
-0.982631, 137, 177, 200, 240
-0.982787, 241, 57, 304, 120
-0.982839, 1, 1, 64, 128
-0.982855, 425, 257, 488, 320
-0.982943, 97, 233, 224, 296
-0.983054, 253, 225, 284, 288
-0.983076, 261, 25, 292, 88
-0.983144, 173, 81, 204, 208
-0.983387, 173, 81, 204, 144
-0.983452, 369, 249, 496, 312
-0.983467, 345, 161, 408, 288
-0.983484, 177, 1, 304, 128
-0.983534, 201, 81, 264, 144
-0.983603, 369, 193, 496, 320
-0.983652, 45, 161, 76, 288
-0.983774, 81, 209, 112, 334
-0.983789, 97, 33, 160, 160
-0.983865, 253, 209, 284, 334
-0.983875, 185, 33, 248, 160
-0.983887, 85, 113, 116, 240
-0.9839, 321, 233, 384, 296
-0.983998, 81, 65, 144, 320
-0.984023, 161, 65, 224, 128
-0.984074, 313, 177, 344, 304
-0.984093, 193, 65, 256, 320
-0.984129, 129, 209, 160, 334
-0.984172, 145, 113, 208, 176
-0.984184, 225, 33, 352, 96
-0.984212, 57, 73, 120, 136
-0.984246, 321, 49, 448, 176
-0.984283, 265, 41, 328, 104
-0.984338, 129, 33, 256, 160
-0.984452, 157, 209, 188, 334
-0.984516, 129, 153, 256, 216
-0.984531, 321, 241, 448, 304
-0.984656, 117, 217, 148, 280
-0.984686, 225, 129, 352, 192
-0.984737, 121, 89, 184, 152
-0.984744, 97, 177, 128, 304
-0.984957, 273, 41, 304, 104
-0.984967, 17, 73, 144, 136
-0.98499, 25, 25, 88, 88
-0.985016, 69, 193, 100, 320
-0.985058, 85, 89, 116, 152
-0.985123, 221, 161, 252, 224
-0.985276, 65, 65, 192, 128
-0.98529, 233, 49, 264, 112
-0.985295, 241, 1, 304, 334
-0.985298, 209, 49, 272, 176
-0.985313, 177, 49, 304, 112
-0.985436, 65, 121, 128, 184
-0.985507, 145, 201, 176, 264
-0.985559, 81, 57, 144, 120
-0.985764, 233, 193, 264, 256
-0.985796, 369, 81, 496, 208
-0.985862, 97, 145, 160, 208
-0.985929, 261, 129, 292, 192
-0.985953, 353, 241, 416, 304
-0.985998, 137, 145, 200, 208
-0.986019, 1, 217, 64, 280
-0.98611, 345, 1, 408, 128
-0.9862, 97, 105, 160, 168
-0.98636, 217, 1, 280, 334
-0.986433, 17, 97, 144, 160
-0.986536, 105, 57, 168, 120
-0.986656, 257, 233, 384, 296
-0.986707, 9, 81, 72, 144
-0.986883, 209, 273, 240, 334
-0.986885, 105, 265, 136, 328
-0.986898, 165, 57, 196, 120
-0.986908, 157, 209, 188, 272
-0.986928, 249, 33, 280, 160
-0.986962, 65, 161, 192, 224
-0.987142, 89, 273, 120, 334
-0.987182, 305, 161, 368, 224
-0.987281, 165, 249, 196, 312
-0.987302, 125, 241, 156, 304
-0.987315, 273, 145, 304, 272
-0.98737, 237, 97, 268, 160
-0.987415, 17, 65, 80, 320
-0.987428, 153, 33, 216, 160
-0.987463, 173, 217, 204, 280
-0.987467, 369, 1, 496, 128
-0.987544, 97, 113, 224, 176
-0.987592, 173, 161, 204, 288
-0.987617, 33, 1, 96, 334
-0.987642, 137, 225, 168, 288
-0.987675, 97, 1, 160, 334
-0.987681, 137, 1, 200, 334
-0.987685, 85, 145, 116, 208
-0.987686, 41, 161, 104, 224
-0.98769, 105, 65, 168, 320
-0.987714, 245, 17, 276, 80
-0.987718, 169, 113, 232, 176
-0.987771, 297, 129, 360, 256
-0.987819, 57, 225, 88, 288
-0.987848, 45, 185, 76, 248
-0.98795, 377, 129, 440, 192
-0.987965, 153, 177, 184, 240
-0.988016, 289, 209, 416, 272
-0.98804, 105, 81, 136, 208
-0.988061, 85, 161, 116, 288
-0.988221, 129, 201, 160, 264
-0.988228, 257, 233, 320, 296
-0.988234, 73, 145, 104, 272
-0.988288, 89, 185, 120, 248
-0.988337, 29, 209, 60, 334
-0.988356, 177, 73, 304, 136
-0.988374, 273, 33, 336, 288
-0.988391, 321, 97, 448, 224
-0.988416, 37, 1, 68, 128
-0.988496, 265, 1, 328, 334
-0.988508, 17, 49, 144, 112
-0.988518, 185, 217, 216, 280
-0.988529, 433, 209, 496, 334
-0.988593, 65, 81, 96, 208
-0.988652, 257, 201, 288, 264
-0.988655, 265, 49, 328, 176
-0.988667, 249, 89, 280, 152
-0.988694, 305, 161, 336, 224
-0.9887, 273, 185, 304, 248
-0.988723, 401, 241, 432, 304
-0.988827, 273, 185, 400, 248
-0.988893, 105, 89, 136, 152
-0.988995, 297, 129, 328, 256
-0.989002, 209, 273, 336, 334
-0.989019, 185, 253, 248, 284
-0.989029, 209, 169, 272, 200
-0.989074, 57, 1, 120, 334
-0.989078, 25, 1, 88, 64
-0.989105, 225, 81, 256, 208
-0.989121, 57, 281, 120, 312
-0.989211, 185, 1, 248, 334
-0.989214, 441, 249, 472, 312
-0.989257, 65, 201, 320, 264
-0.989279, 241, 41, 304, 72
-0.98932, 77, 273, 108, 334
-0.989338, 65, 137, 192, 200
-0.989389, 233, 221, 296, 252
-0.98939, 261, 1, 292, 128
-0.989449, 241, 105, 368, 168
-0.989465, 157, 89, 188, 152
-0.989467, 209, 217, 272, 248
-0.989521, 93, 209, 124, 272
-0.989531, 161, 257, 224, 288
-0.989544, 189, 129, 220, 256
-0.989578, 265, 1, 328, 64
-0.989588, 169, 209, 232, 240
-0.989602, 153, 249, 184, 312
-0.989653, 33, 293, 96, 324
-0.989682, 65, 249, 96, 312
-0.989713, 157, 81, 188, 208
-0.989715, 217, 233, 280, 264
-0.989721, 281, 189, 344, 220
-0.989774, 401, 225, 464, 288
-0.989788, 85, 113, 116, 176
-0.989809, 33, 65, 64, 192
-0.989875, 65, 257, 320, 320
-0.989887, 117, 193, 148, 256
-0.989903, 1, 49, 64, 112
-0.989922, 225, 125, 288, 156
-0.989949, 185, 297, 248, 328
-0.98995, 129, 65, 256, 128
-0.989982, 57, 301, 120, 332
-0.989998, 225, 57, 352, 120
-0.990004, 177, 221, 240, 252
-0.990008, 277, 209, 308, 272
-0.990044, 85, 49, 116, 176
-0.990053, 285, 177, 316, 304
-0.990062, 41, 265, 104, 296
-0.99014, 105, 185, 136, 248
-0.990148, 33, 305, 96, 334
-0.990185, 33, 233, 288, 296
-0.990197, 385, 81, 448, 208
-0.9902, 145, 209, 176, 334
-0.990225, 249, 81, 312, 144
-0.990253, 145, 93, 208, 124
-0.990267, 33, 281, 96, 312
-0.990279, 113, 241, 144, 304
-0.990309, 209, 253, 272, 284
-0.990323, 185, 277, 248, 308
-0.990336, 137, 257, 200, 288
-0.990375, 161, 173, 224, 204
-0.9904, 369, 209, 432, 334
-0.990425, 161, 197, 224, 228
-0.990433, 129, 205, 192, 236
-0.990438, 337, 209, 400, 272
-0.990461, 225, 149, 288, 180
-0.990473, 33, 249, 96, 280
-0.990483, 81, 221, 144, 252
-0.990487, 25, 265, 56, 328
-0.9905, 345, 209, 408, 334
-0.990512, 209, 153, 240, 216
-0.990512, 89, 285, 152, 316
-0.990534, 165, 185, 196, 248
-0.990559, 29, 225, 60, 288
-0.990561, 161, 177, 416, 240
-0.990587, 161, 217, 416, 280
-0.990629, 161, 245, 224, 276
-0.990657, 17, 1, 144, 64
-0.990659, 17, 261, 80, 292
-0.990659, 453, 257, 484, 320
-0.990668, 309, 129, 340, 256
-0.990672, 225, 137, 256, 200
-0.990691, 273, 161, 304, 224
-0.990706, 161, 25, 288, 88
-0.99073, 145, 269, 208, 300
-0.990751, 17, 121, 144, 184
-0.990777, 41, 233, 104, 264
-0.990804, 161, 1, 224, 334
-0.990844, 209, 289, 272, 320
-0.99087, 101, 65, 132, 128
-0.990884, 185, 169, 248, 200
-0.990899, 217, 17, 280, 80
-0.990919, 105, 245, 168, 276
-0.990949, 173, 105, 204, 168
-0.990959, 33, 93, 96, 124
-0.99096, 193, 205, 256, 236
-0.99097, 41, 189, 104, 220
-0.990976, 137, 245, 200, 276
-0.990984, 201, 185, 264, 216
-0.991023, 25, 65, 88, 96
-0.991025, 17, 25, 144, 88
-0.991052, 289, 201, 352, 232
-0.991083, 161, 185, 224, 216
-0.991101, 213, 97, 244, 224
-0.991106, 117, 161, 148, 288
-0.991127, 225, 137, 288, 168
-0.99113, 241, 53, 304, 84
-0.99114, 161, 81, 224, 112
-0.99116, 9, 161, 72, 288
-0.991174, 121, 89, 184, 120
-0.9912, 129, 161, 160, 288
-0.991237, 249, 209, 312, 240
-0.991257, 161, 161, 224, 192
-0.991262, 81, 209, 144, 240
-0.991298, 281, 1, 344, 128
-0.991312, 81, 97, 144, 128
-0.991332, 393, 249, 456, 280
-0.991343, 161, 161, 192, 288
-0.991346, 289, 217, 352, 248
-0.991384, 249, 233, 312, 264
-0.991398, 233, 169, 296, 200
-0.991405, 257, 221, 320, 252
-0.991406, 65, 177, 128, 208
-0.99142, 185, 265, 248, 296
-0.991444, 385, 129, 416, 192
-0.991482, 369, 153, 400, 216
-0.991483, 265, 177, 328, 208
-0.991495, 105, 273, 168, 304
-0.991498, 393, 193, 456, 320
-0.991502, 417, 57, 480, 120
-0.99151, 217, 1, 280, 128
-0.991528, 85, 65, 116, 128
-0.991537, 105, 225, 168, 256
-0.99154, 17, 153, 144, 216
-0.991547, 25, 77, 88, 108
-0.991552, 237, 49, 268, 176
-0.991585, 169, 93, 232, 124
-0.991602, 233, 245, 296, 276
-0.991613, 257, 1, 288, 64
-0.991616, 1, 241, 500, 304
-0.991621, 185, 81, 248, 112
-0.991623, 345, 153, 408, 216
-0.991626, 17, 1, 48, 128
-0.991626, 277, 33, 308, 160
-0.991643, 57, 253, 120, 284
-0.991661, 261, 113, 292, 240
-0.991666, 57, 93, 120, 124
-0.991693, 65, 269, 128, 300
-0.991715, 425, 257, 488, 288
-0.991723, 361, 245, 424, 276
-0.99173, 57, 209, 120, 240
-0.99174, 321, 237, 384, 268
-0.991741, 313, 1, 376, 334
-0.991748, 189, 89, 220, 152
-0.991768, 81, 297, 144, 328
-0.99178, 273, 41, 336, 72
-0.991794, 105, 189, 168, 220
-0.991796, 185, 105, 248, 136
-0.991818, 233, 169, 264, 232
-0.991825, 189, 153, 220, 216
-0.991827, 9, 301, 72, 332
-0.991844, 241, 29, 304, 60
-0.991867, 337, 177, 368, 304
-0.991868, 57, 49, 120, 112
-0.991878, 105, 201, 168, 232
-0.991879, 285, 41, 316, 104
-0.991884, 9, 249, 72, 280
-0.991898, 65, 165, 128, 196
-0.991903, 321, 33, 384, 288
-0.991905, 1, 281, 64, 312
-0.991924, 241, 181, 304, 212
-0.991935, 145, 285, 208, 316
-0.991958, 217, 45, 280, 76
-0.991967, 129, 233, 192, 264
-0.991968, 137, 41, 200, 104
-0.991969, 289, 233, 352, 296
-0.991971, 33, 177, 288, 240
-0.991982, 33, 205, 96, 236
-0.992015, 93, 249, 124, 312
-0.992017, 185, 241, 248, 272
-0.992032, 49, 33, 80, 160
-0.992035, 241, 217, 272, 248
-0.992039, 145, 105, 208, 136
-0.992055, 33, 221, 96, 252
-0.992056, 185, 153, 248, 184
-0.992061, 217, 277, 280, 308
-0.992072, 409, 49, 472, 176
-0.992103, 137, 73, 200, 104
-0.992109, 225, 113, 288, 144
-0.992114, 57, 221, 120, 252
-0.992117, 201, 137, 264, 168
-0.992121, 273, 17, 400, 80
-0.992122, 321, 225, 384, 256
-0.992136, 105, 261, 168, 292
-0.992141, 325, 193, 356, 320
-0.992146, 297, 33, 360, 288
-0.992154, 57, 105, 120, 136
-0.992167, 193, 145, 448, 208
-0.992173, 113, 77, 176, 108
-0.992177, 321, 197, 384, 228
-0.992182, 121, 101, 184, 132
-0.992194, 217, 169, 248, 200
-0.992195, 257, 129, 320, 160
-0.9922, 177, 177, 208, 240
-0.992215, 245, 65, 276, 128
-0.992225, 209, 265, 272, 296
-0.992262, 169, 33, 200, 160
-0.992266, 361, 217, 424, 280
-0.992266, 369, 65, 496, 128
-0.992269, 41, 245, 72, 276
-0.99227, 25, 53, 88, 84
-0.992278, 273, 41, 304, 72
-0.9923, 289, 229, 352, 260
-0.992308, 249, 149, 312, 180
-0.992319, 193, 253, 224, 284
-0.992328, 257, 153, 384, 216
-0.99233, 241, 237, 272, 268
-0.992334, 433, 233, 496, 296
-0.992349, 65, 153, 128, 184
-0.992373, 209, 217, 240, 248
-0.992381, 213, 253, 244, 284
-0.992398, 257, 165, 320, 196
-0.992403, 229, 217, 260, 248
-0.992431, 81, 193, 144, 224
-0.992441, 249, 197, 312, 228
-0.992448, 265, 53, 328, 84
-0.992458, 225, 101, 288, 132
-0.992459, 177, 273, 208, 334
-0.992463, 145, 217, 208, 248
-0.99247, 185, 125, 248, 156
-0.992472, 45, 257, 76, 288
-0.992478, 9, 237, 72, 268
-0.992478, 81, 233, 144, 264
-0.992485, 45, 297, 76, 328
-0.99249, 173, 253, 204, 284
-0.992493, 137, 185, 200, 216
-0.992498, 321, 213, 384, 244
-0.992514, 245, 41, 276, 72
-0.992517, 249, 121, 280, 152
-0.992526, 425, 249, 456, 312
-0.992531, 45, 269, 76, 300
-0.992534, 81, 109, 144, 140
-0.992534, 337, 129, 400, 192
-0.992551, 189, 49, 220, 176
-0.99256, 217, 205, 280, 236
-0.992567, 217, 57, 280, 88
-0.992568, 145, 117, 208, 148
-0.992568, 265, 209, 296, 334
-0.992586, 261, 49, 292, 112
-0.992587, 81, 249, 144, 280
-0.992592, 193, 57, 256, 120
-0.992596, 65, 289, 96, 320
-0.992603, 65, 77, 128, 108
-0.992608, 297, 189, 328, 220
-0.992612, 249, 149, 280, 180
-0.992613, 225, 81, 352, 144
-0.992617, 253, 169, 284, 200
-0.992622, 409, 297, 472, 328
-0.992625, 173, 93, 204, 124
-0.992626, 169, 81, 200, 112
-0.992631, 225, 273, 256, 334
-0.992633, 57, 117, 120, 148
-0.992633, 45, 233, 76, 264
-0.992633, 253, 217, 268, 280
-0.99265, 243, 217, 258, 280
-0.992652, 1, 77, 64, 108
-0.99267, 245, 193, 276, 256
-0.992686, 9, 225, 72, 256
-0.992724, 217, 281, 248, 312
-0.992728, 57, 1, 120, 128
-0.992729, 45, 281, 76, 312
-0.992731, 197, 269, 228, 300
-0.992744, 113, 221, 144, 252
-0.992748, 209, 265, 240, 296
-0.99276, 193, 241, 448, 304
-0.992786, 161, 241, 192, 272
-0.99279, 193, 209, 224, 240
-0.992799, 233, 25, 264, 88
-0.992807, 225, 253, 256, 284
-0.992819, 153, 89, 184, 120
-0.992837, 225, 233, 256, 264
-0.992848, 89, 285, 120, 316
-0.99286, 369, 217, 496, 280
-0.992861, 273, 17, 304, 80
-0.992876, 237, 149, 268, 180
-0.992882, 433, 65, 496, 192
-0.992882, 285, 185, 316, 248
-0.992885, 129, 177, 160, 240
-0.992889, 257, 41, 288, 72
-0.992891, 65, 277, 96, 308
-0.992895, 225, 1, 352, 64
-0.992895, 329, 177, 392, 240
-0.992895, 377, 1, 440, 334
-0.992901, 321, 209, 352, 272
-0.99291, 85, 93, 116, 124
-0.992912, 9, 1, 72, 334
-0.992914, 309, 189, 340, 220
-0.992918, 81, 301, 112, 332
-0.992918, 93, 209, 124, 240
-0.992923, 109, 273, 140, 304
-0.992926, 205, 181, 236, 212
-0.992938, 145, 253, 176, 284
-0.99294, 337, 201, 368, 264
-0.992941, 65, 305, 96, 334
-0.992943, 417, 1, 480, 334
-0.992945, 257, 225, 288, 256
-0.992946, 205, 205, 236, 236
-0.992954, 413, 249, 444, 312
-0.992955, 241, 253, 272, 284
-0.992959, 173, 145, 204, 208
-0.992968, 205, 281, 236, 312
-0.99297, 77, 285, 108, 316
-0.992972, 101, 225, 132, 256
-0.992988, 245, 53, 276, 84
-0.992989, 45, 189, 76, 220
-0.993012, 173, 209, 204, 240
-0.993021, 121, 241, 152, 272
-0.993023, 177, 265, 208, 296
-0.993026, 229, 165, 260, 196
-0.993027, 189, 197, 220, 228
-0.993035, 133, 229, 164, 260
-0.993038, 69, 89, 100, 152
-0.993045, 101, 289, 132, 320
-0.993047, 205, 293, 236, 324
-0.99305, 145, 205, 176, 236
-0.99305, 257, 29, 288, 60
-0.993062, 57, 229, 88, 260
-0.993071, 161, 265, 192, 296
-0.993081, 197, 221, 228, 252
-0.993085, 321, 177, 448, 240
-0.993085, 193, 297, 224, 328
-0.993091, 409, 249, 440, 280
-0.993096, 193, 165, 224, 196
-0.9931, 69, 225, 100, 256
-0.993106, 249, 133, 280, 164
-0.993108, 253, 245, 284, 276
-0.993111, 141, 81, 172, 112
-0.993113, 277, 205, 308, 236
-0.993116, 389, 245, 420, 276
-0.993118, 233, 53, 264, 84
-0.993127, 261, 53, 292, 84
-0.993133, 165, 197, 196, 228
-0.993135, 133, 245, 164, 276
-0.993135, 217, 293, 248, 324
-0.993139, 89, 221, 120, 252
-0.993141, 285, 41, 316, 72
-0.993152, 85, 105, 116, 136
-0.993158, 241, 169, 272, 200
-0.993164, 157, 209, 188, 240
-0.993165, 429, 253, 460, 284
-0.993166, 105, 97, 136, 128
-0.993167, 189, 81, 220, 112
-0.99317, 273, 181, 304, 212
-0.993172, 105, 209, 136, 240
-0.993182, 221, 265, 252, 296
-0.993185, 273, 53, 304, 84
-0.993187, 65, 93, 96, 124
-0.993189, 205, 169, 236, 200
-0.993192, 277, 193, 308, 224
-0.993195, 369, 161, 432, 288
-0.993195, 277, 221, 308, 252
-0.993197, 377, 153, 408, 184
-0.993202, 185, 241, 216, 272
-0.993217, 229, 285, 260, 316
-0.993219, 57, 257, 88, 288
-0.993226, 41, 217, 72, 248
-0.993233, 233, 101, 264, 132
-0.993234, 85, 193, 116, 224
-0.993239, 261, 1, 292, 32
-0.993239, 409, 65, 472, 320
-0.99324, 173, 105, 204, 136
-0.99324, 289, 1, 352, 334
-0.993243, 85, 165, 116, 196
-0.993255, 269, 29, 300, 60
-0.993255, 221, 205, 252, 236
-0.993256, 193, 185, 224, 216
-0.993258, 193, 281, 224, 312
-0.993262, 33, 233, 64, 264
-0.993263, 365, 1, 396, 32
-0.993265, 41, 93, 72, 124
-0.993266, 233, 41, 264, 72
-0.993266, 149, 193, 180, 224
-0.993272, 41, 205, 72, 236
-0.993272, 57, 241, 88, 272
-0.993276, 37, 73, 68, 104
-0.993276, 157, 253, 188, 284
-0.993277, 157, 77, 188, 108
-0.993282, 445, 257, 476, 288
-0.993283, 305, 173, 336, 204
-0.993284, 361, 129, 392, 192
-0.993286, 85, 121, 116, 152
-0.993287, 237, 133, 268, 164
-0.993288, 209, 241, 240, 272
-0.99329, 257, 213, 288, 244
-0.993294, 77, 177, 108, 240
-0.993302, 213, 229, 244, 260
-0.993302, 317, 201, 348, 232
-0.993307, 85, 133, 116, 164
-0.993309, 85, 149, 116, 180
-0.993313, 365, 153, 396, 184
-0.993327, 117, 273, 148, 334
-0.993481, 97, 205, 224, 236
-0.993481, 257, 121, 272, 184
-0.993506, 251, 121, 266, 184
-0.993516, 233, 225, 248, 288
-0.993623, 17, 193, 80, 256
-0.993625, 193, 181, 320, 212
-0.993667, 345, 33, 408, 288
-0.993689, 153, 57, 184, 120
-0.99372, 45, 225, 60, 288
-0.993729, 29, 201, 60, 264
-0.993744, 337, 1, 400, 334
-0.993746, 141, 249, 172, 312
-0.993794, 421, 73, 452, 136
-0.993868, 1, 217, 500, 280
-0.993889, 129, 253, 256, 284
-0.993899, 223, 217, 238, 280
-0.993906, 321, 41, 448, 104
-0.993921, 377, 65, 440, 320
-0.993944, 433, 81, 496, 144
-0.994042, 265, 49, 296, 176
-0.994067, 209, 221, 336, 252
-0.994077, 261, 105, 292, 168
-0.994078, 273, 41, 400, 104
-0.994088, 251, 145, 266, 208
-0.99415, 389, 241, 420, 304
-0.994156, 257, 145, 272, 208
-0.994179, 425, 105, 488, 168
-0.994221, 61, 145, 92, 272
-0.994248, 369, 273, 496, 334
-0.994276, 369, 153, 432, 216
-0.994285, 113, 57, 144, 120
-0.994287, 281, 129, 344, 192
-0.994302, 217, 249, 232, 312
-0.994305, 211, 185, 226, 248
-0.994306, 129, 265, 256, 296
-0.994336, 177, 253, 304, 284
-0.994361, 211, 217, 226, 280
-0.994367, 285, 129, 316, 256
-0.994405, 289, 17, 352, 80
-0.994419, 141, 177, 172, 240
-0.99443, 33, 1, 64, 64
-0.99444, 369, 17, 432, 144
-0.994457, 33, 229, 160, 260
-0.994466, 177, 169, 304, 200
-0.994466, 469, 257, 500, 320
-0.994501, 41, 121, 104, 184
-0.994542, 65, 145, 320, 208
-0.994547, 263, 145, 278, 208
-0.994575, 61, 33, 92, 160
-0.994595, 177, 205, 304, 236
-0.9946, 321, 129, 352, 256
-0.994608, 217, 209, 232, 272
-0.994613, 177, 1, 304, 64
-0.994624, 157, 33, 188, 160
-0.994642, 97, 129, 128, 256
-0.994727, 1, 113, 64, 240
-0.994748, 241, 201, 368, 232
-0.994792, 385, 209, 416, 334
-0.994796, 225, 105, 480, 168
-0.994801, 1, 1, 64, 64
-0.994806, 177, 125, 304, 156
-0.994819, 1, 25, 64, 88
-0.994865, 57, 89, 88, 152
-0.99488, 209, 265, 224, 328
-0.994882, 341, 233, 372, 296
-0.994894, 161, 237, 288, 268
-0.994913, 37, 89, 68, 152
-0.994931, 17, 277, 144, 308
-0.994964, 357, 1, 388, 128
-0.994965, 393, 105, 456, 168
-0.994965, 181, 249, 196, 312
-0.994991, 49, 249, 64, 312
-0.994992, 1, 65, 256, 128
-0.994993, 149, 161, 180, 288
-0.995031, 97, 97, 224, 128
-0.995053, 113, 217, 240, 248
-0.995066, 169, 33, 232, 96
-0.995093, 37, 65, 68, 128
-0.995105, 241, 233, 368, 264
-0.995113, 361, 209, 392, 334
-0.995116, 217, 177, 232, 240
-0.995139, 253, 249, 284, 312
-0.995149, 21, 49, 52, 176
-0.995163, 333, 177, 364, 240
-0.995182, 243, 241, 258, 304
-0.995184, 33, 217, 160, 248
-0.995184, 425, 1, 488, 128
-0.995185, 177, 193, 304, 224
-0.995246, 201, 249, 216, 312
-0.995262, 65, 121, 320, 184
-0.995269, 433, 65, 496, 320
-0.99529, 189, 249, 204, 312
-0.995314, 81, 41, 208, 104
-0.995326, 17, 289, 144, 320
-0.995335, 105, 145, 136, 208
-0.995341, 231, 249, 246, 312
-0.995372, 233, 273, 296, 334
-0.995376, 97, 285, 224, 316
-0.995394, 409, 97, 472, 224
-0.995426, 65, 241, 192, 272
-0.995452, 381, 153, 412, 216
-0.995453, 233, 73, 264, 136
-0.995464, 97, 41, 352, 104
-0.995465, 255, 41, 270, 104
-0.995528, 357, 233, 388, 296
-0.995541, 257, 209, 500, 272
-0.995542, 257, 25, 500, 88
-0.995547, 55, 225, 70, 288
-0.995558, 245, 145, 260, 208
-0.995562, 125, 217, 140, 280
-0.995563, 77, 249, 108, 312
-0.99557, 129, 185, 256, 216
-0.995586, 385, 73, 448, 136
-0.995587, 223, 249, 238, 312
-0.995597, 161, 217, 288, 248
-0.995616, 65, 97, 320, 160
-0.99562, 161, 273, 416, 334
-0.995628, 263, 121, 278, 184
-0.995631, 299, 185, 314, 248
-0.995656, 245, 193, 260, 256
-0.995668, 17, 301, 144, 332
-0.995672, 369, 25, 496, 88
-0.995688, 53, 81, 84, 208
-0.995693, 249, 49, 264, 112
-0.995704, 321, 265, 448, 328
-0.995725, 259, 225, 274, 288
-0.995729, 177, 265, 304, 296
-0.995758, 241, 189, 368, 220
-0.995814, 225, 125, 352, 156
-0.995841, 305, 137, 368, 200
-0.995869, 17, 241, 144, 272
-0.995872, 193, 105, 320, 168
-0.995912, 73, 33, 104, 160
-0.995923, 177, 281, 304, 312
-0.995958, 117, 209, 132, 272
-0.995981, 223, 161, 238, 224
-0.995982, 233, 65, 264, 320
-0.996, 249, 241, 264, 304
-0.996009, 321, 245, 448, 276
-0.996014, 145, 113, 272, 144
-0.996035, 253, 81, 268, 144
-0.996036, 1, 273, 500, 334
-0.996042, 33, 205, 160, 236
-0.996045, 197, 273, 212, 334
-0.996056, 17, 265, 144, 296
-0.996058, 113, 33, 176, 96
-0.996063, 329, 193, 344, 256
-0.996069, 59, 257, 74, 320
-0.996076, 211, 241, 226, 304
-0.996104, 145, 81, 272, 112
-0.996119, 229, 161, 244, 224
-0.996134, 45, 201, 60, 264
-0.996154, 225, 45, 352, 76
-0.996163, 237, 249, 252, 312
-0.99618, 249, 25, 264, 88
-0.996181, 33, 189, 160, 220
-0.996183, 17, 89, 144, 120
-0.996201, 111, 217, 126, 280
-0.996217, 161, 297, 288, 328
-0.996219, 225, 49, 480, 112
-0.996224, 267, 169, 282, 232
-0.996234, 233, 193, 248, 256
-0.996246, 337, 105, 464, 168
-0.996259, 283, 33, 298, 96
-0.996271, 45, 273, 60, 334
-0.996273, 243, 41, 258, 104
-0.996284, 205, 185, 220, 248
-0.996307, 177, 141, 304, 172
-0.996327, 145, 97, 272, 128
-0.996335, 235, 161, 250, 224
-0.996351, 369, 1, 400, 128
-0.996351, 121, 249, 136, 312
-0.99636, 173, 57, 188, 120
-0.996391, 195, 249, 210, 312
-0.996397, 277, 25, 292, 88
-0.9964, 321, 1, 384, 128
-0.996444, 65, 81, 192, 112
-0.996481, 175, 249, 190, 312
-0.996482, 65, 265, 192, 296
-0.996497, 25, 161, 56, 288
-0.996504, 305, 153, 432, 216
-0.996505, 225, 185, 240, 248
-0.996505, 201, 113, 232, 240
-0.996508, 217, 153, 232, 216
-0.99651, 101, 273, 116, 334
-0.996512, 337, 129, 464, 192
-0.996541, 17, 253, 144, 284
-0.996551, 145, 81, 176, 208
-0.996555, 269, 41, 284, 104
-0.996565, 369, 253, 496, 284
-0.996587, 249, 65, 280, 320
-0.996598, 81, 297, 208, 328
-0.996608, 111, 257, 126, 320
-0.996616, 321, 73, 448, 136
-0.996629, 381, 153, 396, 216
-0.996651, 263, 25, 278, 88
-0.996669, 225, 137, 352, 168
-0.996709, 155, 249, 170, 312
-0.996714, 245, 121, 260, 184
-0.996716, 243, 217, 258, 248
-0.996729, 187, 217, 202, 280
-0.996756, 257, 213, 384, 244
-0.996776, 149, 225, 164, 288
-0.99679, 177, 49, 304, 80
-0.996802, 321, 177, 336, 240
-0.996803, 113, 173, 240, 204
-0.996827, 149, 201, 164, 264
-0.996839, 183, 81, 198, 144
-0.996846, 333, 129, 364, 256
-0.996846, 65, 273, 80, 334
-0.99685, 193, 73, 448, 136
-0.996851, 157, 185, 172, 248
-0.996851, 93, 273, 108, 334
-0.996854, 221, 65, 252, 320
-0.996866, 131, 233, 146, 296
-0.996873, 169, 233, 184, 296
-0.996879, 257, 185, 500, 248
-0.996881, 131, 209, 146, 272
-0.996882, 251, 193, 266, 256
-0.996883, 169, 257, 184, 320
-0.996885, 313, 177, 328, 240
-0.996892, 105, 217, 120, 280
-0.996893, 209, 253, 224, 284
-0.996897, 139, 225, 154, 288
-0.9969, 377, 33, 440, 96
-0.996912, 65, 253, 192, 284
-0.996915, 33, 69, 160, 100
-0.996927, 253, 169, 268, 232
-0.996938, 239, 193, 254, 256
-0.996964, 225, 273, 240, 334
-0.99697, 43, 249, 58, 312
-0.996973, 183, 253, 198, 284
-0.996974, 257, 249, 272, 312
-0.996979, 211, 161, 226, 224
-0.996996, 349, 209, 380, 334
-0.997003, 97, 73, 352, 136
-0.997023, 113, 241, 240, 272
-0.997024, 269, 129, 284, 192
-0.997043, 241, 177, 368, 208
-0.997043, 1, 49, 500, 112
-0.997047, 421, 65, 452, 192
-0.997052, 177, 81, 192, 144
-0.997055, 191, 273, 206, 334
-0.997058, 215, 273, 230, 334
-0.997066, 215, 253, 230, 284
-0.997072, 61, 233, 76, 296
-0.997076, 451, 249, 466, 312
-0.997089, 97, 185, 112, 248
-0.997097, 117, 185, 132, 248
-0.997097, 53, 273, 68, 334
-0.997111, 289, 233, 416, 264
-0.997112, 45, 237, 60, 268
-0.997115, 243, 97, 258, 160
-0.997122, 203, 253, 218, 284
-0.997124, 17, 57, 144, 88
-0.997126, 41, 65, 56, 128
-0.997144, 221, 217, 236, 248
-0.997154, 217, 169, 232, 200
-0.99716, 181, 185, 196, 248
-0.99716, 97, 109, 224, 140
-0.997162, 255, 17, 270, 80
-0.997202, 253, 221, 268, 252
-0.997235, 417, 241, 432, 304
-0.997244, 91, 89, 106, 152
-0.997259, 171, 81, 186, 144
-0.997263, 251, 41, 266, 72
-0.997266, 339, 209, 354, 272
-0.997272, 17, 101, 144, 132
-0.99729, 289, 41, 304, 104
-0.997294, 205, 217, 220, 280
-0.997294, 123, 193, 138, 256
-0.997296, 211, 205, 226, 236
-0.997298, 43, 89, 58, 152
-0.997312, 283, 41, 298, 72
-0.997317, 225, 245, 352, 276
-0.997339, 293, 193, 308, 256
-0.997347, 101, 65, 116, 128
-0.997347, 457, 257, 472, 320
-0.997349, 175, 217, 190, 280
-0.997356, 37, 249, 52, 312
-0.997358, 167, 57, 182, 120
-0.997371, 225, 33, 352, 64
-0.997373, 81, 229, 208, 260
-0.997378, 361, 161, 392, 288
-0.997382, 181, 217, 196, 280
-0.997386, 221, 277, 236, 308
-0.997395, 221, 253, 236, 284
-0.997397, 65, 177, 192, 208
-0.99741, 71, 265, 86, 328
-0.997411, 161, 209, 176, 272
-0.997424, 247, 169, 262, 232
-0.997425, 33, 65, 48, 128
-0.997434, 337, 1, 464, 64
-0.997436, 253, 237, 268, 268
-0.997441, 107, 81, 122, 144
-0.997449, 269, 17, 284, 80
-0.997452, 163, 257, 178, 320
-0.997466, 167, 177, 182, 240
-0.997466, 65, 125, 192, 156
-0.997473, 91, 217, 106, 280
-0.997475, 155, 225, 170, 288
-0.997477, 91, 185, 106, 248
-0.997479, 263, 1, 278, 64
-0.997479, 197, 225, 212, 288
-0.997483, 289, 193, 416, 224
-0.997484, 191, 177, 206, 240
-0.997495, 65, 137, 192, 168
-0.997499, 177, 253, 192, 284
-0.9975, 225, 57, 352, 88
-0.997503, 1, 41, 256, 104
-0.997509, 215, 217, 230, 248
-0.997516, 65, 17, 320, 80
-0.997516, 65, 165, 192, 196
-0.997579, 211, 185, 226, 216
-0.997582, 197, 253, 212, 284
-0.997594, 61, 65, 92, 320
-0.997638, 209, 269, 224, 300
-0.997638, 251, 149, 266, 180
-0.99764, 99, 285, 114, 316
-0.997653, 41, 65, 72, 320
-0.997654, 247, 237, 262, 268
-0.997665, 209, 153, 336, 184
-0.997667, 125, 97, 156, 224
-0.997671, 157, 253, 172, 284
-0.997672, 257, 1, 500, 64
-0.997719, 267, 169, 282, 200
-0.997719, 273, 41, 400, 72
-0.997729, 1, 81, 500, 144
-0.997732, 369, 265, 432, 328
-0.997733, 229, 253, 244, 284
-0.997737, 93, 285, 108, 316
-0.99774, 381, 153, 396, 184
-0.997749, 45, 249, 60, 280
-0.997753, 189, 253, 204, 284
-0.997759, 273, 1, 304, 256
-0.997761, 277, 45, 292, 76
-0.997775, 469, 49, 500, 176
-0.997785, 401, 137, 464, 200
-0.997808, 373, 161, 404, 288
-0.997821, 129, 157, 256, 188
-0.997832, 237, 221, 252, 252
-0.997834, 209, 293, 336, 324
-0.997836, 45, 273, 60, 304
-0.997839, 257, 149, 272, 180
-0.997841, 45, 225, 60, 256
-0.997857, 257, 265, 500, 328
-0.997866, 209, 65, 240, 320
-0.997871, 237, 233, 252, 264
-0.997876, 197, 65, 228, 320
-0.997882, 299, 189, 314, 220
-0.997887, 205, 189, 220, 220
-0.997902, 177, 37, 304, 68
-0.997922, 81, 69, 208, 100
-0.997922, 1, 185, 500, 248
-0.997932, 227, 289, 242, 320
-0.997937, 289, 113, 416, 176
-0.997938, 81, 189, 208, 220
-0.997941, 187, 209, 202, 240
-0.997951, 105, 33, 136, 160
-0.997954, 227, 217, 242, 248
-0.997956, 179, 81, 194, 112
-0.997959, 65, 149, 192, 180
-0.997959, 223, 169, 238, 200
-0.99796, 141, 33, 172, 160
-0.997963, 171, 81, 186, 112
-0.997971, 17, 117, 144, 148
-0.997972, 193, 25, 256, 88
-0.997986, 261, 65, 292, 320
-0.997986, 113, 213, 128, 244
-0.998, 147, 249, 162, 280
-0.998004, 217, 265, 232, 296
-0.998013, 127, 229, 142, 260
-0.998014, 321, 221, 448, 252
-0.998036, 257, 249, 272, 280
-0.998053, 245, 41, 260, 72
-0.998055, 209, 217, 224, 248
-0.998058, 55, 233, 70, 264
-0.99806, 61, 297, 76, 328
-0.998064, 235, 253, 250, 284
-0.998066, 133, 225, 148, 256
-0.998067, 45, 261, 60, 292
-0.998077, 61, 265, 76, 296
-0.998081, 229, 169, 244, 200
-0.998082, 177, 61, 304, 92
-0.998088, 311, 189, 326, 220
-0.998095, 259, 45, 274, 76
-0.998096, 123, 217, 138, 248
-0.998097, 171, 265, 186, 296
-0.998098, 45, 189, 60, 220
-0.998102, 243, 53, 258, 84
-0.998109, 153, 65, 184, 320
-0.998111, 209, 97, 336, 128
-0.998118, 409, 81, 472, 144
-0.998121, 243, 253, 258, 284
-0.998126, 183, 93, 198, 124
-0.998133, 369, 81, 496, 112
-0.998136, 17, 173, 144, 204
-0.998138, 203, 265, 218, 296
-0.99814, 251, 121, 266, 152
-0.998146, 325, 189, 340, 220
-0.998148, 81, 1, 208, 64
-0.99815, 87, 289, 102, 320
-0.99816, 241, 165, 368, 196
-0.998164, 55, 249, 70, 280
-0.998164, 105, 65, 136, 320
-0.998167, 397, 193, 428, 320
-0.998172, 107, 225, 122, 256
-0.998182, 41, 73, 56, 104
-0.998189, 231, 233, 246, 264
-0.998193, 251, 169, 266, 200
-0.998197, 197, 277, 212, 308
-0.998206, 265, 1, 280, 32
-0.998206, 257, 121, 272, 152
-0.99821, 221, 289, 236, 320
-0.998213, 289, 41, 304, 72
-0.998225, 65, 285, 80, 316
-0.998226, 185, 81, 200, 112
-0.998227, 157, 81, 172, 112
-0.998234, 51, 261, 66, 292
-0.998235, 267, 45, 282, 76
-0.998237, 211, 173, 226, 204
-0.998239, 345, 1, 408, 64
-0.99824, 85, 1, 116, 256
-0.998247, 17, 41, 144, 72
-0.998249, 165, 81, 180, 112
-0.998255, 129, 125, 256, 156
-0.998262, 43, 93, 58, 124
-0.998268, 217, 181, 232, 212
-0.998268, 107, 209, 122, 240
-0.99827, 161, 93, 176, 124
-0.998273, 133, 241, 148, 272
-0.998273, 261, 225, 276, 256
-0.998274, 213, 289, 228, 320
-0.998277, 177, 65, 208, 320
-0.998278, 165, 265, 180, 296
-0.998278, 425, 17, 488, 80
-0.998282, 105, 293, 120, 324
-0.998284, 263, 149, 278, 180
-0.998286, 227, 277, 242, 308
-0.998287, 273, 97, 304, 224
-0.998293, 17, 129, 144, 160
-0.998294, 319, 189, 334, 220
-0.998301, 161, 201, 176, 232
-0.998329, 217, 161, 232, 288
-0.998337, 277, 33, 292, 64
-0.99834, 405, 245, 420, 276
-0.998347, 259, 169, 274, 200
-0.998349, 167, 93, 182, 124
-0.998351, 183, 241, 198, 272
-0.998353, 273, 133, 400, 164
-0.998355, 277, 207, 308, 222
-0.998355, 29, 65, 60, 320
-0.998355, 65, 273, 96, 288
-0.998356, 85, 111, 116, 126
-0.998357, 277, 223, 308, 238
-0.998357, 193, 173, 224, 188
-0.998357, 213, 179, 244, 194
-0.998358, 29, 235, 60, 250
-0.998359, 37, 69, 68, 84
-0.998359, 249, 37, 280, 52
-0.99836, 221, 213, 252, 228
-0.99836, 53, 239, 84, 254
-0.998361, 57, 309, 88, 324
-0.998361, 249, 129, 280, 144
-0.998362, 161, 263, 192, 278
-0.998362, 417, 251, 448, 266
-0.998363, 377, 155, 408, 170
-0.998364, 237, 147, 268, 162
-0.998364, 199, 289, 214, 320
-0.998366, 281, 53, 312, 68
-0.998366, 85, 105, 116, 120
-0.998367, 245, 253, 276, 268
-0.998367, 185, 185, 216, 200
-0.998368, 121, 239, 152, 254
-0.998368, 177, 91, 208, 106
-0.998369, 217, 205, 232, 236
-0.998369, 205, 191, 236, 206
-0.99837, 257, 215, 288, 230
-0.99837, 181, 269, 212, 284
-0.99837, 97, 209, 128, 224
-0.998372, 185, 219, 216, 234
-0.998374, 87, 213, 102, 244
-0.998374, 101, 223, 132, 238
-0.998374, 45, 315, 76, 330
-0.99838, 173, 103, 204, 118
-0.99838, 129, 229, 160, 244
-0.99838, 77, 227, 108, 242
-0.99838, 305, 205, 432, 236
-0.998382, 93, 293, 124, 308
-0.998383, 393, 245, 424, 260
-0.998385, 85, 99, 116, 114
-0.998385, 257, 53, 288, 68
-0.998386, 65, 279, 96, 294
-0.998387, 165, 77, 196, 92
-0.998387, 153, 99, 184, 114
-0.998387, 277, 213, 308, 228
-0.998388, 157, 203, 188, 218
-0.998389, 173, 215, 204, 230
-0.998389, 53, 233, 84, 248
-0.99839, 121, 113, 184, 176
-0.99839, 209, 273, 240, 288
-0.998391, 253, 101, 268, 132
-0.998391, 193, 295, 224, 310
-0.998391, 157, 209, 188, 224
-0.998391, 155, 189, 170, 220
-0.998392, 185, 259, 216, 274
-0.998393, 193, 179, 224, 194
-0.998393, 305, 181, 432, 212
-0.998393, 209, 219, 272, 234
-0.998394, 41, 223, 72, 238
-0.998394, 185, 281, 216, 296
-0.998395, 249, 53, 264, 84
-0.998396, 229, 45, 260, 60
-0.998396, 245, 55, 276, 70
-0.998397, 229, 165, 260, 180
-0.998399, 145, 257, 176, 272
-0.998401, 241, 245, 272, 260
-0.998405, 45, 309, 76, 324
-0.998406, 261, 41, 292, 56
-0.998407, 253, 231, 284, 246
-0.998409, 65, 285, 96, 300
-0.998409, 209, 265, 240, 280
-0.99841, 191, 277, 206, 308
-0.99841, 105, 97, 136, 112
-0.998411, 45, 189, 76, 204
-0.998411, 249, 149, 280, 164
-0.998414, 273, 39, 304, 54
-0.998415, 145, 207, 176, 222
-0.998415, 285, 45, 316, 60
-0.998417, 229, 225, 260, 240
-0.998418, 171, 245, 186, 276
-0.998419, 181, 209, 196, 240
-0.998421, 249, 139, 280, 154
-0.998422, 161, 253, 224, 268
-0.998422, 197, 265, 228, 280
-0.998423, 161, 249, 192, 264
-0.998423, 161, 257, 192, 272
-0.998426, 61, 227, 92, 242
-0.998427, 197, 211, 228, 226
-0.998427, 313, 191, 344, 206
-0.998427, 145, 201, 176, 216
-0.998429, 89, 223, 120, 238
-0.99843, 81, 301, 112, 316
-0.998431, 245, 149, 260, 180
-0.998432, 285, 33, 316, 288
-0.998433, 65, 303, 96, 318
-0.998435, 161, 259, 224, 274
-0.998436, 249, 253, 264, 284
-0.998438, 107, 281, 122, 312
-0.998439, 81, 289, 96, 320
-0.998439, 297, 191, 328, 206
-0.99844, 65, 293, 96, 308
-0.99844, 253, 169, 284, 184
-0.99844, 81, 93, 112, 108
-0.99844, 229, 253, 260, 268
-0.99844, 421, 249, 436, 280
-0.998443, 85, 287, 116, 302
-0.998443, 153, 91, 184, 106
-0.998444, 129, 65, 256, 96
-0.998448, 211, 177, 226, 304
-0.998449, 205, 185, 236, 200
-0.998449, 223, 265, 238, 296
-0.998449, 197, 273, 228, 288
-0.998451, 45, 277, 76, 292
-0.998451, 173, 209, 204, 224
-0.998451, 185, 213, 216, 228
-0.998451, 161, 85, 192, 100
-0.998451, 113, 219, 144, 234
-0.998451, 17, 25, 144, 56
-0.998452, 237, 235, 268, 250
-0.998453, 231, 265, 246, 296
-0.998453, 289, 53, 304, 84
-0.998455, 17, 13, 144, 44
-0.998455, 201, 205, 216, 236
-0.998457, 197, 223, 228, 238
-0.998457, 235, 169, 250, 200
-0.998458, 165, 189, 180, 220
-0.998459, 41, 237, 72, 252
-0.998459, 191, 265, 206, 296
-0.99846, 173, 97, 204, 112
-0.998461, 319, 173, 334, 204
-0.998462, 225, 113, 352, 144
-0.998462, 217, 253, 248, 268
-0.998463, 57, 287, 120, 302
-0.998464, 453, 209, 484, 334
-0.998465, 209, 285, 240, 300
-0.998467, 233, 209, 248, 240
-0.998467, 217, 229, 248, 244
-0.998469, 97, 213, 112, 244
-0.998474, 273, 1, 400, 32
-0.998475, 45, 291, 76, 306
-0.998476, 45, 269, 76, 284
-0.998478, 185, 253, 248, 268
-0.998481, 155, 201, 170, 232
-0.998484, 161, 265, 224, 280
-0.998485, 45, 249, 76, 264
-0.998485, 249, 43, 280, 58
-0.998486, 33, 299, 96, 314
-0.998488, 161, 273, 224, 288
-0.998491, 269, 51, 300, 66
-0.998493, 209, 169, 272, 184
-0.998493, 45, 283, 76, 298
-0.998496, 233, 221, 296, 236
-0.998497, 41, 281, 104, 296
-0.998497, 45, 303, 76, 318
-0.998497, 241, 225, 272, 240
-0.998499, 249, 123, 280, 138
-0.998501, 33, 259, 96, 274
-0.998502, 193, 279, 256, 294
-0.998502, 173, 263, 204, 278
-0.998502, 169, 211, 232, 226
-0.998502, 197, 259, 228, 274
-0.998503, 41, 231, 72, 246
-0.998503, 229, 219, 260, 234
-0.998506, 241, 45, 304, 60
-0.998511, 33, 265, 96, 280
-0.998512, 281, 191, 344, 206
-0.998513, 205, 253, 236, 268
-0.998514, 197, 279, 228, 294
-0.998516, 17, 141, 144, 172
-0.998517, 209, 279, 240, 294
-0.998519, 369, 237, 496, 268
-0.998519, 241, 53, 304, 68
-0.998519, 165, 91, 196, 106
-0.998522, 197, 287, 228, 302
-0.998525, 17, 153, 144, 184
-0.998527, 177, 221, 240, 236
-0.998529, 225, 125, 288, 140
-0.998532, 41, 305, 104, 320
-0.998534, 169, 175, 232, 190
-0.998534, 45, 297, 76, 312
-0.998534, 217, 171, 248, 186
-0.998536, 185, 287, 248, 302
-0.998537, 49, 293, 112, 308
-0.998538, 41, 227, 104, 242
-0.998539, 33, 311, 96, 326
-0.998541, 161, 205, 224, 220
-0.998542, 41, 257, 72, 272
-0.998544, 225, 137, 288, 152
-0.998545, 153, 281, 216, 296
-0.998547, 273, 45, 304, 60
-0.998548, 245, 49, 276, 64
-0.998549, 153, 89, 216, 104
-0.998551, 81, 225, 144, 240
-0.998553, 137, 255, 200, 270
-0.998556, 145, 97, 208, 112
-0.998556, 193, 253, 224, 268
-0.998558, 217, 253, 280, 268
-0.998559, 33, 253, 96, 268
-0.99856, 185, 263, 248, 278
-0.998561, 33, 319, 96, 334
-0.998562, 41, 271, 104, 286
-0.998563, 45, 263, 76, 278
-0.998563, 249, 215, 312, 230
-0.998564, 137, 209, 200, 224
-0.998565, 185, 269, 248, 284
-0.998567, 225, 147, 288, 162
-0.998567, 225, 131, 288, 146
-0.99857, 25, 69, 88, 84
-0.99857, 193, 227, 256, 242
-0.99857, 33, 247, 96, 262
-0.99857, 241, 39, 304, 54
-0.998571, 161, 199, 224, 214
-0.998573, 161, 183, 224, 198
-0.998576, 17, 1, 144, 32
-0.998576, 73, 93, 136, 108
-0.998577, 233, 227, 296, 242
-0.998581, 251, 161, 266, 288
-0.998582, 41, 243, 72, 258
-0.998582, 185, 297, 248, 312
-0.998583, 373, 209, 404, 334
-0.998583, 113, 203, 176, 218
-0.998583, 97, 283, 160, 298
-0.998584, 33, 287, 96, 302
-0.998585, 193, 213, 256, 228
-0.998587, 201, 185, 264, 200
-0.998588, 121, 99, 184, 114
-0.998591, 17, 293, 80, 308
-0.998592, 217, 219, 248, 234
-0.998592, 41, 189, 104, 204
-0.998593, 185, 303, 248, 318
-0.998594, 81, 57, 208, 88
-0.998595, 57, 261, 120, 276
-0.998595, 121, 269, 184, 284
-0.998595, 193, 191, 256, 206
-0.998596, 17, 273, 80, 288
-0.998597, 41, 233, 104, 248
-0.998599, 121, 277, 184, 292
-0.998604, 33, 95, 96, 110
-0.998605, 169, 169, 232, 184
-0.998606, 205, 217, 236, 232
-0.998606, 225, 161, 288, 176
-0.998608, 289, 197, 352, 212
-0.998609, 249, 235, 312, 250
-0.998612, 121, 93, 184, 108
-0.998613, 181, 253, 212, 268
-0.998613, 209, 305, 336, 334
-0.998614, 73, 299, 136, 314
-0.998619, 65, 181, 128, 196
-0.998619, 249, 245, 312, 260
-0.99862, 305, 235, 368, 250
-0.99862, 129, 263, 192, 278
-0.99862, 393, 249, 456, 264
-0.998622, 145, 247, 208, 262
-0.998622, 257, 223, 320, 238
-0.998623, 217, 237, 280, 252
-0.998624, 241, 219, 272, 234
-0.998624, 223, 161, 238, 288
-0.998624, 289, 213, 352, 228
-0.998626, 17, 281, 80, 296
-0.998627, 97, 99, 160, 114
-0.998627, 321, 77, 448, 108
-0.998628, 217, 245, 280, 260
-0.998628, 289, 221, 352, 236
-0.998629, 73, 99, 136, 114
-0.998629, 97, 291, 160, 306
-0.99863, 221, 209, 236, 334
-0.998631, 17, 305, 80, 320
-0.998631, 145, 103, 208, 118
-0.998631, 57, 311, 120, 326
-0.998632, 433, 113, 496, 240
-0.998634, 289, 203, 352, 218
-0.998635, 369, 245, 432, 260
-0.998637, 329, 239, 392, 254
-0.998637, 289, 229, 352, 244
-0.998638, 33, 239, 96, 254
-0.998639, 137, 203, 200, 218
-0.998639, 185, 103, 248, 118
-0.998639, 185, 309, 248, 324
-0.99864, 425, 257, 488, 272
-0.99864, 161, 191, 224, 206
-0.99864, 265, 183, 328, 198
-0.998641, 105, 249, 168, 264
-0.998641, 81, 217, 144, 232
-0.998642, 105, 227, 168, 242
-0.998642, 81, 231, 144, 246
-0.998642, 265, 45, 328, 60
-0.998643, 57, 255, 120, 270
-0.998643, 9, 253, 72, 268
-0.998643, 185, 161, 248, 176
-0.998644, 409, 297, 472, 312
-0.998645, 33, 221, 96, 236
-0.998645, 25, 89, 88, 104
-0.998646, 265, 197, 328, 212
-0.998647, 57, 317, 120, 332
-0.998647, 209, 289, 272, 304
-0.998647, 169, 97, 232, 112
-0.998648, 241, 187, 304, 202
-0.998648, 25, 75, 88, 90
-0.998651, 201, 179, 264, 194
-0.998651, 233, 171, 296, 186
-0.998651, 153, 77, 216, 92
-0.998651, 161, 287, 224, 302
-0.998653, 121, 233, 184, 248
-0.998655, 9, 259, 72, 274
-0.998656, 33, 201, 96, 216
-0.998657, 257, 143, 320, 158
-0.998657, 9, 287, 72, 302
-0.998658, 81, 277, 144, 292
-0.998668, 353, 121, 480, 152
-0.998689, 247, 209, 262, 334
-0.998693, 229, 161, 244, 288
-0.998736, 265, 161, 280, 288
-0.998756, 205, 193, 220, 320
-0.998759, 165, 65, 196, 320
-0.998778, 225, 257, 352, 288
-0.998787, 253, 209, 268, 334
-0.998788, 273, 245, 400, 276
-0.998797, 421, 65, 452, 320
-0.998799, 117, 65, 148, 320
-0.998807, 245, 161, 260, 288
-0.998808, 45, 193, 60, 320
-0.998815, 257, 145, 272, 272
-0.998815, 369, 297, 496, 328
-0.998848, 225, 269, 352, 300
-0.998851, 369, 69, 496, 100
-0.998851, 241, 209, 256, 334
-0.998869, 227, 209, 242, 334
-0.998893, 253, 97, 268, 224
-0.998897, 235, 161, 250, 288
-0.998904, 337, 1, 464, 32
-0.998928, 289, 1, 320, 128
-0.998937, 235, 209, 250, 334
-0.998944, 161, 1, 416, 64
-0.998949, 73, 65, 104, 320
-0.998951, 273, 53, 400, 84
-0.998966, 181, 209, 196, 334
-0.998969, 193, 77, 320, 108
-0.998974, 401, 273, 464, 334
-0.998987, 61, 193, 76, 320
-0.998988, 191, 209, 206, 334
-0.998991, 273, 29, 400, 60
-0.998999, 321, 133, 448, 164
-0.999005, 297, 33, 328, 288
-0.999019, 141, 65, 172, 320
-0.999054, 129, 137, 256, 168
-0.999071, 259, 97, 274, 224
-0.999077, 55, 193, 70, 320
-0.999081, 385, 161, 416, 288
-0.999089, 67, 193, 82, 320
-0.999094, 289, 121, 416, 152
-0.999119, 125, 209, 140, 334
-0.999134, 259, 209, 274, 334
-0.999145, 1, 1, 500, 64
-0.999147, 129, 53, 256, 84
-0.999147, 225, 281, 352, 312
-0.999155, 199, 193, 214, 320
-0.999161, 369, 133, 496, 164
-0.999166, 301, 177, 316, 304
-0.999179, 119, 209, 134, 334
-0.999179, 175, 209, 190, 334
-0.999183, 1, 105, 500, 168
-0.999188, 313, 33, 344, 288
-0.999191, 113, 209, 128, 334
-0.999193, 329, 177, 344, 304
-0.999202, 321, 61, 448, 92
-0.999211, 131, 209, 146, 334
-0.999226, 265, 113, 280, 240
-0.999228, 289, 41, 352, 104
-0.999243, 369, 93, 496, 124
-0.999244, 251, 33, 266, 160
-0.999246, 117, 49, 148, 176
-0.999246, 187, 161, 202, 288
-0.999255, 129, 41, 256, 72
-0.999259, 225, 21, 352, 52
-0.999265, 129, 65, 160, 320
-0.999271, 169, 209, 184, 334
-0.999281, 183, 81, 198, 208
-0.999289, 243, 97, 258, 224
-0.999295, 317, 177, 332, 304
-0.999306, 39, 1, 54, 128
-0.999311, 81, 209, 96, 334
-0.999313, 73, 177, 88, 304
-0.999316, 81, 45, 208, 76
-0.999317, 225, 1, 352, 32
-0.999319, 223, 81, 238, 208
-0.99932, 1, 25, 500, 88
-0.99932, 161, 1, 288, 32
-0.999321, 307, 177, 322, 304
-0.999337, 43, 81, 58, 208
-0.999337, 271, 161, 286, 288
-0.999342, 161, 209, 176, 334
-0.99935, 337, 33, 368, 288
-0.999354, 91, 193, 106, 320
-0.999355, 105, 177, 120, 304
-0.999356, 293, 177, 308, 304
-0.999359, 79, 161, 94, 288
-0.999364, 323, 161, 338, 288
-0.999367, 153, 209, 168, 334
-0.999377, 281, 17, 296, 144
-0.999379, 39, 193, 54, 320
-0.999381, 353, 145, 480, 272
-0.999385, 137, 209, 152, 334
-0.999386, 99, 209, 114, 334
-0.999396, 433, 193, 464, 320
-0.999401, 321, 89, 448, 120
-0.999403, 369, 225, 496, 256
-0.999406, 409, 65, 440, 320
-0.999406, 129, 33, 160, 160
-0.999411, 257, 17, 272, 144
-0.999412, 115, 161, 130, 288
-0.999415, 273, 1, 288, 128
-0.999423, 229, 81, 244, 208
-0.999428, 47, 145, 62, 272
-0.99943, 257, 257, 384, 320
-0.999432, 177, 81, 192, 208
-0.999433, 107, 81, 122, 208
-0.999437, 147, 209, 162, 334
-0.999444, 273, 65, 400, 128
-0.999445, 211, 129, 226, 256
-0.99945, 57, 81, 72, 208
-0.999453, 121, 161, 136, 288
-0.999459, 37, 65, 52, 192
-0.99946, 425, 129, 488, 192
-0.999461, 181, 161, 196, 288
-0.999467, 47, 33, 62, 160
-0.999474, 311, 129, 326, 256
-0.999483, 325, 33, 356, 288
-0.999487, 299, 129, 314, 256
-0.999487, 265, 17, 280, 144
-0.999496, 129, 161, 144, 288
-0.999496, 277, 129, 292, 256
-0.999497, 217, 113, 232, 240
-0.9995, 33, 17, 48, 144
-0.999511, 97, 97, 112, 224
-0.999512, 89, 145, 104, 272
-0.999514, 175, 161, 190, 288
-0.999517, 81, 97, 96, 224
-0.99952, 193, 161, 208, 288
-0.999523, 169, 161, 184, 288
-0.99953, 137, 161, 152, 288
-0.99953, 433, 65, 464, 320
-0.999533, 245, 33, 260, 160
-0.999533, 237, 81, 252, 208
-0.999539, 369, 41, 496, 72
-0.999544, 191, 81, 206, 208
-0.999547, 369, 265, 496, 296
-0.999548, 71, 81, 86, 208
-0.999549, 291, 129, 306, 256
-0.99955, 1, 161, 500, 224
-0.999551, 53, 145, 68, 272
-0.999551, 53, 33, 68, 160
-0.999554, 409, 193, 440, 320
-0.999555, 209, 81, 224, 208
-0.99956, 63, 145, 78, 272
-0.999563, 167, 65, 182, 192
-0.999564, 177, 17, 304, 48
-0.999565, 203, 129, 218, 256
-0.999569, 357, 33, 388, 288
-0.999572, 247, 237, 262, 252
-0.999572, 243, 53, 258, 68
-0.999574, 275, 51, 290, 66
-0.999574, 39, 67, 54, 82
-0.999574, 325, 191, 340, 206
-0.999575, 447, 295, 462, 310
-0.999576, 339, 177, 354, 304
-0.999576, 7, 135, 22, 150
-0.999577, 111, 223, 126, 238
-0.999578, 113, 215, 128, 230
-0.999579, 129, 241, 144, 256
-0.999579, 153, 251, 168, 266
-0.999579, 229, 279, 244, 294
-0.999579, 89, 203, 104, 218
-0.99958, 169, 207, 184, 222
-0.99958, 215, 185, 230, 200
-0.99958, 227, 287, 242, 302
-0.999581, 125, 221, 140, 236
-0.999581, 313, 49, 376, 112
-0.999582, 169, 269, 184, 284
-0.999582, 45, 279, 60, 294
-0.999582, 209, 183, 224, 198
-0.999583, 149, 201, 164, 216
-0.999583, 267, 1, 282, 16
-0.999583, 105, 223, 120, 238
-0.999583, 265, 209, 280, 334
-0.999584, 185, 33, 200, 160
-0.999585, 221, 267, 236, 282
-0.999585, 241, 227, 256, 242
-0.999585, 61, 227, 76, 242
-0.999585, 163, 273, 178, 288
-0.999586, 99, 145, 114, 272
-0.999586, 55, 237, 70, 252
-0.999586, 319, 189, 334, 204
-0.999586, 81, 49, 96, 176
-0.999587, 183, 259, 198, 274
-0.999587, 251, 123, 266, 138
-0.999587, 161, 267, 176, 282
-0.999588, 65, 293, 80, 308
-0.999588, 45, 255, 60, 270
-0.999589, 211, 211, 226, 226
-0.999591, 251, 149, 266, 164
-0.999591, 175, 255, 190, 270
-0.999591, 107, 289, 122, 304
-0.999591, 287, 33, 302, 160
-0.999591, 177, 93, 192, 108
-0.999592, 257, 253, 272, 268
-0.999592, 257, 123, 272, 138
-0.999592, 249, 55, 264, 70
-0.999593, 299, 191, 314, 206
-0.999593, 329, 129, 344, 256
-0.999593, 211, 205, 226, 220
-0.999593, 45, 189, 60, 204
-0.999594, 43, 271, 58, 286
-0.999596, 235, 253, 250, 268
-0.999597, 287, 39, 302, 54
-0.999597, 133, 231, 148, 246
-0.999597, 253, 235, 268, 250
-0.999597, 395, 245, 410, 260
-0.999597, 197, 293, 212, 308
-0.999598, 101, 285, 116, 300
-0.999599, 243, 47, 258, 62
-0.999599, 317, 129, 332, 256
-0.9996, 175, 209, 190, 224
-0.999601, 61, 301, 76, 316
-0.999601, 195, 267, 210, 282
-0.999601, 269, 51, 284, 66
-0.999604, 209, 223, 224, 238
-0.999605, 171, 81, 186, 96
-0.999606, 277, 177, 292, 304
-0.999607, 95, 287, 110, 302
-0.999607, 231, 217, 246, 232
-0.999607, 165, 85, 180, 100
-0.999608, 275, 45, 290, 60
-0.999608, 207, 199, 222, 214
-0.99961, 201, 267, 216, 282
-0.99961, 241, 81, 368, 112
-0.999612, 45, 249, 60, 264
-0.999613, 159, 91, 174, 106
-0.999613, 353, 109, 480, 140
-0.999613, 171, 87, 186, 102
-0.999613, 245, 253, 260, 268
-0.999613, 233, 229, 248, 244
-0.999614, 59, 33, 74, 160
-0.999614, 255, 243, 270, 258
-0.999615, 187, 91, 202, 106
-0.999615, 199, 287, 214, 302
-0.999616, 55, 231, 70, 246
-0.999617, 173, 17, 188, 144
-0.999619, 253, 229, 268, 244
-0.999621, 69, 33, 84, 160
-0.999622, 157, 257, 172, 272
-0.999622, 91, 81, 106, 208
-0.999623, 227, 253, 242, 268
-0.999623, 45, 261, 60, 276
-0.999624, 469, 1, 500, 128
-0.999624, 59, 267, 74, 282
-0.999624, 469, 65, 500, 320
-0.999627, 305, 129, 320, 256
-0.999627, 127, 235, 142, 250
-0.999629, 397, 209, 412, 334
-0.99963, 161, 65, 176, 192
-0.99963, 205, 285, 220, 300
-0.999632, 381, 153, 396, 168
-0.999633, 371, 1, 386, 128
-0.999634, 281, 41, 296, 56
-0.999636, 253, 43, 268, 58
-0.999637, 287, 51, 302, 66
-0.999637, 181, 209, 196, 224
-0.999637, 49, 81, 64, 208
-0.999637, 259, 45, 274, 60
-0.999638, 167, 263, 182, 278
-0.999639, 401, 17, 464, 80
-0.999639, 221, 253, 236, 268
-0.99964, 377, 1, 392, 128
-0.99964, 161, 203, 176, 218
-0.99964, 107, 129, 122, 256
-0.999641, 75, 33, 90, 160
-0.999643, 209, 279, 224, 294
-0.999643, 223, 223, 238, 238
-0.999644, 195, 281, 210, 296
-0.999644, 247, 41, 262, 56
-0.999645, 205, 217, 220, 232
-0.999645, 201, 261, 216, 276
-0.999645, 209, 189, 224, 204
-0.999646, 265, 169, 280, 184
-0.999646, 163, 17, 178, 144
-0.999647, 387, 161, 402, 288
-0.999648, 195, 273, 210, 288
-0.999649, 177, 261, 192, 276
-0.999649, 363, 1, 378, 128
-0.999652, 231, 223, 246, 238
-0.999652, 219, 273, 234, 288
-0.999655, 369, 285, 496, 316
-0.999655, 101, 291, 116, 306
-0.999655, 281, 49, 296, 64
-0.999655, 271, 113, 286, 240
-0.999656, 165, 91, 180, 106
-0.999659, 153, 161, 168, 288
-0.99966, 181, 87, 196, 102
-0.999662, 201, 279, 216, 294
-0.999664, 211, 273, 226, 288
-0.999665, 187, 211, 202, 226
-0.999665, 421, 193, 452, 320
-0.999667, 45, 229, 60, 244
-0.999668, 125, 81, 140, 208
-0.999669, 155, 201, 170, 216
-0.999672, 191, 253, 206, 268
-0.999673, 191, 33, 206, 160
-0.999674, 213, 263, 228, 278
-0.999674, 213, 255, 228, 270
-0.99968, 253, 221, 268, 236
-0.99968, 249, 49, 264, 64
-0.999681, 45, 241, 60, 256
-0.999681, 217, 171, 232, 186
-0.999682, 63, 81, 78, 208
-0.999685, 199, 253, 214, 268
-0.999688, 419, 81, 434, 208
-0.999688, 179, 33, 194, 160
-0.99969, 369, 33, 400, 288
-0.999697, 207, 263, 222, 278
-0.999698, 211, 217, 226, 232
-0.999701, 219, 279, 234, 294
-0.999701, 205, 273, 220, 288
-0.999704, 155, 81, 170, 208
-0.999707, 377, 209, 392, 334
-0.999711, 397, 65, 428, 320
-0.999723, 287, 45, 302, 60
-0.999725, 243, 219, 258, 234
-0.999727, 207, 253, 222, 268
-0.999729, 405, 81, 436, 208
-0.999735, 45, 235, 60, 250
-0.99975, 183, 253, 198, 268
-0.999751, 219, 217, 234, 232
-0.999763, 289, 49, 352, 176
-0.999769, 349, 161, 380, 288
-0.999774, 381, 1, 412, 128
-0.999808, 345, 1, 376, 128
-0.999815, 381, 33, 412, 288
-0.999819, 1, 137, 500, 200
-0.999865, 425, 17, 456, 144
-0.999909, 449, 65, 480, 320
-0.999912, 213, 49, 244, 176
-1.00004, 457, 49, 488, 176
-1.00005, 445, 65, 476, 192
-1.00011, 17, 1, 48, 256
-1.00013, 433, 97, 464, 224
-1.00015, 397, 33, 428, 160
-1.00019, 229, 1, 260, 128
-1.00027, 321, 97, 384, 224
-1.00032, 469, 209, 500, 334
-1.00032, 85, 1, 116, 128
-1.00057, 293, 49, 324, 176
-1.0006, 401, 1, 464, 128
-1.00061, 345, 49, 408, 176
-1.00067, 369, 153, 496, 216
-1.00089, 41, 113, 72, 240
-1.00094, 369, 193, 496, 256
-1.00095, 457, 1, 488, 128
-1.00107, 129, 1, 256, 64
-1.00111, 437, 17, 468, 144
-1.00138, 1, 1, 32, 256
-1.00149, 413, 17, 444, 144
-1.00212, 201, 33, 232, 160
-1.00228, 181, 1, 212, 128
-1.00233, 345, 113, 408, 240
-1.0024, 313, 49, 376, 176
-1.00268, 341, 49, 372, 176
-1.00297, 309, 49, 340, 176
-1.003, 25, 113, 56, 240
-1.00314, 381, 49, 412, 176
-1.00314, 397, 145, 428, 272
-1.00317, 465, 97, 496, 224
-1.00328, 369, 49, 400, 176
-1.00341, 425, 161, 488, 288
-1.00379, 321, 49, 352, 176
-1.00381, 393, 81, 424, 208
-1.00398, 329, 1, 360, 128
-1.00412, 353, 49, 384, 176
-1.00417, 417, 113, 448, 240
-1.0063, 393, 145, 456, 272
