1967
-0.349567, 1, 1, 500, 375
-0.389572, 1, 129, 500, 375
-0.495533, 1, 1, 500, 256
-0.530097, 225, 1, 480, 375
-0.56126, 225, 129, 480, 375
-0.573571, 97, 1, 352, 375
-0.663175, 1, 1, 256, 375
-0.676618, 129, 129, 384, 375
-0.744417, 33, 129, 288, 375
-0.784193, 257, 1, 500, 256
-0.7873, 97, 33, 352, 288
-0.853874, 305, 97, 432, 352
-0.854347, 1, 33, 256, 288
-0.860539, 353, 129, 480, 375
-0.866372, 321, 1, 448, 375
-0.869329, 65, 1, 192, 375
-0.873725, 1, 241, 500, 368
-0.877791, 33, 129, 160, 375
-0.88763, 273, 1, 400, 375
-0.888153, 257, 129, 384, 375
-0.892158, 369, 1, 496, 256
-0.894431, 369, 1, 496, 375
-0.898588, 1, 193, 500, 320
-0.899327, 65, 241, 320, 368
-0.900019, 225, 209, 480, 336
-0.904654, 1, 129, 500, 256
-0.905268, 129, 129, 256, 375
-0.905353, 113, 1, 240, 375
-0.906241, 257, 113, 500, 240
-0.906635, 257, 1, 384, 256
-0.90714, 225, 1, 352, 375
-0.907875, 209, 129, 336, 375
-0.909745, 17, 1, 144, 375
-0.910879, 81, 129, 208, 375
-0.914226, 177, 1, 304, 375
-0.917368, 1, 49, 500, 176
-0.918871, 113, 209, 176, 336
-0.919961, 97, 33, 224, 288
-0.921492, 305, 1, 432, 256
-0.921574, 65, 209, 192, 336
-0.92458, 65, 193, 320, 320
-0.925597, 321, 241, 448, 368
-0.927074, 129, 145, 384, 272
-0.928669, 193, 1, 320, 256
-0.929404, 161, 241, 288, 368
-0.930941, 145, 1, 272, 256
-0.930941, 49, 33, 176, 288
-0.931232, 81, 225, 144, 352
-0.932555, 361, 241, 424, 368
-0.935628, 257, 161, 500, 288
-0.936338, 321, 97, 448, 224
-0.93678, 273, 225, 400, 352
-0.937412, 73, 177, 136, 304
-0.937769, 17, 193, 144, 320
-0.938597, 217, 241, 280, 368
-0.939437, 209, 241, 336, 368
-0.939979, 369, 145, 496, 272
-0.943599, 337, 193, 464, 320
-0.944119, 17, 241, 144, 368
-0.944356, 113, 209, 240, 336
-0.945434, 385, 241, 448, 368
-0.945848, 33, 129, 288, 256
-0.94614, 1, 1, 500, 128
-0.946659, 409, 129, 472, 256
-0.946915, 321, 225, 384, 352
-0.947186, 377, 257, 440, 320
-0.947414, 257, 65, 500, 192
-0.947854, 273, 113, 400, 240
-0.94849, 49, 241, 112, 368
-0.94909, 401, 121, 464, 184
-0.949148, 137, 241, 200, 368
-0.949171, 113, 217, 176, 280
-0.9497, 81, 161, 208, 288
-0.950669, 129, 81, 384, 208
-0.950725, 65, 193, 128, 256
-0.951025, 105, 249, 168, 312
-0.951329, 241, 241, 304, 368
-0.951388, 161, 313, 224, 375
-0.951787, 73, 257, 136, 320
-0.951916, 137, 281, 200, 344
-0.95219, 401, 81, 464, 208
-0.952423, 1, 33, 128, 288
-0.952761, 129, 161, 192, 288
-0.95323, 81, 233, 144, 296
-0.953697, 353, 289, 416, 352
-0.953777, 409, 161, 472, 224
-0.953832, 369, 313, 432, 375
-0.953926, 329, 297, 392, 360
-0.954205, 369, 193, 432, 320
-0.954476, 289, 177, 416, 304
-0.954784, 105, 161, 168, 288
-0.954924, 89, 193, 152, 256
-0.955579, 369, 241, 496, 368
-0.955957, 409, 177, 472, 304
-0.956013, 41, 177, 104, 304
-0.956043, 281, 225, 344, 352
-0.956239, 353, 97, 416, 224
-0.956246, 169, 225, 232, 352
-0.956612, 161, 257, 224, 320
-0.957023, 385, 129, 448, 256
-0.95707, 345, 193, 408, 320
-0.957767, 161, 193, 288, 320
-0.958252, 193, 241, 256, 368
-0.958626, 129, 145, 256, 272
-0.958678, 361, 105, 424, 168
-0.959314, 193, 313, 256, 375
-0.959491, 225, 193, 352, 320
-0.959549, 65, 281, 128, 344
-0.959651, 17, 129, 144, 256
-0.96013, 73, 129, 136, 256
-0.960522, 33, 81, 288, 208
-0.960592, 433, 129, 496, 256
-0.96142, 217, 281, 280, 344
-0.961658, 153, 145, 216, 272
-0.961938, 329, 97, 392, 224
-0.962379, 257, 49, 384, 176
-0.962449, 369, 209, 432, 272
-0.96251, 1, 305, 64, 368
-0.962661, 257, 1, 500, 128
-0.96288, 281, 289, 344, 352
-0.962901, 409, 185, 472, 248
-0.963138, 129, 257, 192, 320
-0.963249, 57, 217, 120, 280
-0.963385, 425, 137, 488, 200
-0.963614, 377, 281, 440, 344
-0.963897, 137, 313, 200, 375
-0.964056, 129, 33, 384, 160
-0.964286, 305, 297, 368, 360
-0.96449, 385, 169, 448, 232
-0.964555, 161, 145, 224, 208
-0.964675, 337, 49, 464, 176
-0.964777, 117, 209, 148, 336
-0.965468, 177, 81, 304, 208
-0.96547, 25, 225, 88, 352
-0.965534, 161, 289, 224, 352
-0.965793, 157, 265, 188, 328
-0.965943, 249, 297, 312, 360
-0.966031, 369, 97, 496, 224
-0.966067, 217, 193, 280, 320
-0.966294, 65, 113, 192, 240
-0.966321, 433, 177, 496, 304
-0.966438, 193, 193, 256, 320
-0.966646, 137, 193, 168, 320
-0.966838, 369, 129, 432, 375
-0.966876, 361, 233, 424, 296
-0.967065, 433, 169, 496, 232
-0.967115, 49, 257, 112, 320
-0.967241, 345, 209, 408, 272
-0.967358, 329, 249, 392, 312
-0.967609, 257, 161, 320, 288
-0.967649, 41, 129, 104, 256
-0.967905, 9, 281, 72, 344
-0.967936, 369, 49, 432, 176
-0.96798, 113, 289, 176, 352
-0.968036, 385, 145, 448, 208
-0.968107, 193, 129, 320, 256
-0.968144, 249, 273, 312, 336
-0.968155, 273, 297, 400, 360
-0.968186, 425, 121, 456, 184
-0.968666, 89, 281, 152, 344
-0.968666, 393, 313, 456, 375
-0.968707, 33, 153, 96, 216
-0.968775, 145, 193, 208, 256
-0.968854, 353, 257, 416, 320
-0.969071, 369, 289, 400, 352
-0.969198, 121, 217, 152, 280
-0.969279, 105, 113, 168, 240
-0.969527, 321, 105, 448, 168
-0.969576, 273, 113, 336, 240
-0.969844, 57, 161, 120, 224
-0.970192, 161, 305, 288, 368
-0.970206, 49, 121, 112, 184
-0.970241, 413, 121, 444, 184
-0.970475, 217, 257, 280, 320
-0.9705, 33, 281, 96, 344
-0.97056, 105, 225, 136, 288
-0.970593, 65, 241, 192, 304
-0.970629, 25, 305, 88, 368
-0.970732, 85, 209, 116, 336
-0.970804, 369, 1, 432, 64
-0.970893, 105, 209, 136, 336
-0.970954, 145, 217, 208, 280
-0.970979, 337, 265, 464, 328
-0.971141, 77, 257, 108, 320
-0.971213, 381, 305, 412, 368
-0.971509, 337, 105, 400, 168
-0.971567, 321, 225, 384, 288
-0.971576, 157, 241, 188, 368
-0.971908, 1, 209, 64, 336
-0.9721, 385, 241, 416, 368
-0.972302, 433, 193, 496, 256
-0.972314, 193, 281, 320, 344
-0.972413, 329, 273, 392, 336
-0.972468, 369, 169, 496, 232
-0.972521, 113, 185, 176, 248
-0.972554, 313, 49, 376, 176
-0.972579, 373, 241, 404, 368
-0.972624, 89, 153, 152, 216
-0.972637, 273, 1, 400, 128
-0.972652, 409, 241, 472, 368
-0.972675, 161, 257, 288, 320
-0.972861, 169, 313, 200, 375
-0.972959, 273, 241, 400, 304
-0.973101, 425, 145, 456, 208
-0.973147, 137, 1, 200, 128
-0.973361, 321, 305, 448, 368
-0.973575, 81, 281, 208, 344
-0.973634, 193, 273, 256, 336
-0.973644, 169, 233, 232, 296
-0.973696, 89, 257, 120, 320
-0.973723, 21, 313, 52, 375
-0.97374, 1, 145, 64, 208
-0.973755, 73, 81, 136, 144
-0.973781, 97, 49, 160, 176
-0.973996, 33, 233, 96, 296
-0.974108, 281, 129, 344, 192
-0.974214, 129, 193, 160, 256
-0.974248, 345, 49, 408, 176
-0.974321, 153, 289, 184, 352
-0.974341, 393, 313, 424, 375
-0.974357, 385, 97, 448, 160
-0.974385, 113, 305, 240, 368
-0.974392, 361, 185, 424, 248
-0.974505, 305, 201, 432, 264
-0.974598, 369, 233, 400, 296
-0.974705, 73, 113, 136, 176
-0.974738, 225, 305, 288, 368
-0.974744, 49, 305, 112, 368
-0.974748, 73, 241, 104, 368
-0.974797, 1, 281, 128, 344
-0.974828, 101, 257, 132, 320
-0.974985, 113, 1, 240, 128
-0.975194, 353, 305, 384, 368
-0.975196, 337, 97, 400, 352
-0.975285, 425, 113, 488, 176
-0.975294, 1, 1, 256, 128
-0.975309, 41, 97, 104, 352
-0.975323, 129, 161, 192, 224
-0.975426, 129, 81, 192, 208
-0.975427, 241, 249, 304, 312
-0.975457, 249, 145, 312, 208
-0.975654, 417, 249, 480, 312
-0.975696, 313, 129, 376, 375
-0.975865, 245, 241, 276, 368
-0.975951, 17, 201, 80, 264
-0.976049, 265, 65, 328, 192
-0.976165, 81, 49, 208, 176
-0.976214, 385, 257, 416, 320
-0.976257, 65, 265, 96, 328
-0.976385, 193, 1, 320, 128
-0.976581, 305, 113, 368, 240
-0.976585, 113, 1, 176, 128
-0.976661, 345, 241, 376, 368
-0.976787, 289, 129, 352, 375
-0.976807, 9, 177, 72, 240
-0.976814, 113, 257, 240, 320
-0.976843, 397, 225, 428, 352
-0.9769, 49, 201, 176, 264
-0.976947, 365, 313, 396, 375
-0.977029, 129, 121, 192, 184
-0.97703, 97, 201, 128, 264
-0.977075, 437, 137, 468, 200
-0.977101, 105, 313, 168, 375
-0.977172, 97, 73, 160, 136
-0.977239, 81, 113, 208, 176
-0.977255, 337, 225, 464, 288
-0.977333, 353, 193, 480, 256
-0.977422, 1, 257, 128, 320
-0.977425, 225, 225, 288, 288
-0.977438, 409, 145, 440, 208
-0.977444, 257, 225, 320, 288
-0.977477, 77, 113, 108, 176
-0.977497, 313, 105, 376, 168
-0.977521, 169, 257, 200, 320
-0.977532, 377, 177, 408, 304
-0.977641, 281, 265, 344, 328
-0.977687, 41, 193, 104, 256
-0.977687, 17, 313, 144, 375
-0.977704, 389, 105, 420, 168
-0.977728, 241, 113, 304, 240
-0.977739, 357, 209, 388, 336
-0.977784, 117, 193, 148, 256
-0.977818, 145, 281, 272, 344
-0.977834, 97, 209, 224, 272
-0.977889, 409, 241, 440, 368
-0.977983, 117, 249, 148, 312
-0.978024, 89, 233, 120, 296
-0.978069, 57, 209, 88, 336
-0.978104, 33, 129, 160, 192
-0.978123, 81, 97, 144, 352
-0.978128, 141, 273, 172, 336
-0.978136, 25, 257, 88, 320
-0.978188, 133, 241, 164, 368
-0.97823, 73, 65, 136, 192
-0.978262, 361, 201, 392, 264
-0.978299, 393, 1, 424, 64
-0.978479, 209, 313, 336, 375
-0.978508, 273, 273, 400, 336
-0.978557, 377, 209, 408, 272
-0.978584, 265, 129, 328, 375
-0.978603, 73, 313, 136, 375
-0.978608, 1, 257, 64, 320
-0.978665, 149, 313, 180, 375
-0.978665, 305, 273, 368, 336
-0.978758, 225, 241, 256, 368
-0.978828, 113, 233, 240, 296
-0.978832, 409, 217, 472, 280
-0.97893, 337, 1, 400, 128
-0.978938, 369, 129, 496, 192
-0.978943, 17, 153, 144, 216
-0.979043, 257, 241, 288, 368
-0.979163, 305, 1, 368, 64
-0.979183, 401, 289, 464, 352
-0.979382, 9, 313, 40, 375
-0.979412, 105, 97, 168, 352
-0.979496, 113, 97, 240, 224
-0.979566, 81, 137, 112, 200
-0.979651, 361, 145, 424, 272
-0.979742, 81, 193, 112, 256
-0.97984, 177, 145, 240, 272
-0.979855, 317, 225, 348, 352
-0.979873, 129, 129, 192, 375
-0.979907, 193, 217, 256, 280
-0.979939, 245, 281, 276, 344
-0.980092, 73, 177, 104, 304
-0.980111, 329, 297, 360, 360
-0.980146, 193, 241, 256, 304
-0.980214, 101, 161, 132, 288
-0.980242, 265, 297, 296, 360
-0.98025, 161, 1, 224, 128
-0.980318, 301, 241, 332, 368
-0.980397, 81, 281, 112, 344
-0.980414, 121, 161, 152, 288
-0.980422, 313, 289, 344, 352
-0.980486, 201, 1, 264, 128
-0.98054, 405, 257, 436, 320
-0.980543, 405, 305, 436, 368
-0.980571, 321, 129, 448, 192
-0.980622, 97, 161, 224, 224
-0.980631, 169, 177, 232, 240
-0.980637, 369, 265, 400, 328
-0.980675, 173, 241, 204, 368
-0.980676, 409, 89, 472, 152
-0.980767, 281, 233, 344, 296
-0.980787, 253, 257, 284, 320
-0.980801, 145, 241, 176, 368
-0.980835, 273, 105, 336, 168
-0.98088, 433, 65, 496, 192
-0.980929, 289, 49, 352, 176
-0.980963, 429, 169, 460, 232
-0.98103, 341, 305, 372, 368
-0.981032, 413, 97, 444, 224
-0.98104, 257, 129, 384, 192
-0.98112, 453, 153, 484, 216
-0.981136, 269, 273, 300, 336
-0.981153, 253, 313, 284, 375
-0.98117, 373, 185, 404, 248
-0.981287, 9, 289, 40, 352
-0.981299, 49, 177, 176, 240
-0.981349, 45, 209, 76, 336
-0.981393, 197, 305, 228, 368
-0.981397, 165, 289, 196, 352
-0.981452, 369, 1, 496, 128
-0.981475, 65, 313, 192, 375
-0.981478, 357, 233, 388, 296
-0.98163, 33, 305, 64, 368
-0.981639, 385, 233, 448, 296
-0.981695, 357, 97, 388, 224
-0.981723, 133, 233, 164, 296
-0.981771, 153, 97, 216, 224
-0.981803, 337, 185, 400, 248
-0.981889, 457, 177, 488, 240
-0.981956, 245, 193, 276, 320
-0.981978, 1, 233, 64, 296
-0.982015, 181, 305, 212, 368
-0.98205, 41, 281, 72, 344
-0.98206, 97, 129, 160, 192
-0.982066, 393, 1, 456, 64
-0.982108, 221, 313, 252, 375
-0.98211, 157, 233, 188, 296
-0.982154, 77, 89, 108, 152
-0.982208, 65, 121, 96, 184
-0.982209, 393, 129, 456, 375
-0.98221, 17, 81, 144, 208
-0.98221, 401, 113, 432, 176
-0.982244, 113, 185, 240, 248
-0.982262, 345, 225, 376, 288
-0.982266, 241, 1, 304, 128
-0.982304, 81, 113, 112, 240
-0.982306, 389, 177, 420, 304
-0.98232, 337, 81, 400, 144
-0.982346, 161, 217, 288, 280
-0.982354, 97, 121, 128, 184
-0.982419, 397, 113, 428, 240
-0.982432, 177, 129, 304, 192
-0.982452, 345, 1, 408, 64
-0.982454, 381, 281, 412, 344
-0.982479, 225, 257, 352, 320
-0.982646, 409, 33, 472, 160
-0.982649, 1, 233, 128, 296
-0.982812, 77, 233, 108, 296
-0.982869, 369, 297, 496, 360
-0.982965, 277, 297, 308, 360
-0.98299, 333, 225, 364, 352
-0.983013, 161, 193, 192, 320
-0.983083, 145, 169, 176, 232
-0.983155, 177, 137, 208, 200
-0.983165, 65, 169, 96, 232
-0.983196, 437, 129, 468, 256
-0.983209, 97, 97, 160, 160
-0.983267, 301, 289, 332, 352
-0.983342, 441, 161, 472, 224
-0.983351, 425, 113, 456, 240
-0.983424, 1, 257, 32, 320
-0.983445, 169, 201, 232, 264
-0.98349, 373, 97, 404, 224
-0.983491, 249, 201, 312, 264
-0.983569, 233, 121, 296, 184
-0.983577, 65, 81, 192, 144
-0.983796, 305, 1, 368, 256
-0.983831, 9, 161, 72, 288
-0.983835, 401, 233, 432, 296
-0.983845, 45, 305, 76, 368
-0.983852, 25, 129, 88, 192
-0.983888, 225, 265, 256, 328
-0.983914, 65, 201, 96, 264
-0.983923, 313, 81, 376, 144
-0.983927, 361, 1, 424, 128
-0.983933, 353, 1, 416, 375
-0.983974, 169, 233, 200, 296
-0.983985, 297, 1, 360, 128
-0.984026, 321, 1, 448, 128
-0.984044, 469, 177, 500, 240
-0.984098, 193, 193, 320, 256
-0.984101, 49, 65, 112, 192
-0.984107, 289, 297, 320, 360
-0.984162, 81, 137, 208, 200
-0.984174, 241, 217, 368, 280
-0.984189, 397, 137, 428, 200
-0.984204, 253, 217, 284, 280
-0.984205, 121, 57, 184, 120
-0.984265, 149, 145, 180, 272
-0.984293, 193, 153, 320, 216
-0.984319, 193, 185, 256, 248
-0.984349, 261, 137, 292, 200
-0.98438, 233, 129, 296, 375
-0.984381, 297, 209, 360, 272
-0.984396, 209, 305, 240, 368
-0.98441, 441, 113, 472, 176
-0.984428, 441, 185, 472, 248
-0.984442, 289, 241, 320, 368
-0.984449, 49, 97, 112, 160
-0.984462, 433, 217, 496, 280
-0.984499, 77, 65, 108, 192
-0.98451, 233, 297, 264, 360
-0.98453, 201, 1, 264, 64
-0.984585, 1, 201, 128, 264
-0.98461, 209, 129, 272, 256
-0.984624, 233, 65, 296, 192
-0.984653, 1, 89, 128, 152
-0.984659, 361, 81, 424, 144
-0.9847, 357, 265, 388, 328
-0.984744, 65, 145, 96, 208
-0.984777, 417, 129, 480, 375
-0.984788, 85, 161, 116, 288
-0.984788, 53, 257, 84, 320
-0.984791, 93, 113, 124, 240
-0.984846, 153, 129, 216, 375
-0.984895, 209, 241, 240, 368
-0.984932, 65, 233, 96, 296
-0.984945, 17, 153, 48, 216
-0.984945, 181, 217, 212, 280
-0.984967, 53, 145, 84, 208
-0.984983, 353, 1, 416, 256
-0.985008, 141, 209, 172, 272
-0.985053, 321, 1, 448, 64
-0.985062, 53, 201, 84, 264
-0.985074, 37, 145, 68, 208
-0.985098, 361, 137, 424, 200
-0.98513, 177, 1, 240, 64
-0.985132, 377, 1, 440, 256
-0.98514, 361, 25, 424, 88
-0.985169, 29, 281, 60, 344
-0.985189, 413, 97, 444, 160
-0.985244, 113, 1, 176, 375
-0.985281, 97, 281, 128, 344
-0.985334, 225, 1, 288, 64
-0.985407, 165, 145, 196, 208
-0.985484, 381, 233, 412, 296
-0.985486, 129, 289, 160, 352
-0.985496, 109, 281, 140, 344
-0.985499, 289, 161, 352, 288
-0.985506, 369, 105, 496, 168
-0.985517, 65, 289, 96, 352
-0.985563, 393, 201, 424, 264
-0.985563, 409, 145, 440, 272
-0.985579, 273, 169, 400, 232
-0.985586, 353, 105, 384, 168
-0.985596, 417, 169, 448, 232
-0.985625, 313, 129, 376, 192
-0.985633, 185, 153, 248, 216
-0.985707, 149, 193, 180, 320
-0.985733, 469, 201, 500, 264
-0.985764, 281, 313, 344, 375
-0.985768, 33, 33, 160, 160
-0.985805, 457, 145, 488, 272
-0.985817, 377, 1, 440, 375
-0.98592, 425, 313, 488, 375
-0.985948, 237, 257, 268, 320
-0.985965, 5, 177, 36, 304
-0.98598, 209, 161, 272, 224
-0.986091, 385, 97, 416, 224
-0.986122, 185, 129, 248, 192
-0.986177, 73, 57, 136, 120
-0.98619, 193, 241, 224, 368
-0.986198, 329, 1, 392, 256
-0.986335, 145, 249, 176, 312
-0.98639, 1, 241, 32, 368
-0.986502, 405, 1, 436, 64
-0.986508, 273, 137, 304, 200
-0.986519, 1, 177, 32, 240
-0.986558, 33, 225, 64, 352
-0.986578, 45, 169, 76, 232
-0.986582, 197, 193, 228, 320
-0.986666, 345, 97, 376, 224
-0.986757, 265, 129, 296, 256
-0.986769, 173, 193, 204, 256
-0.986786, 89, 1, 152, 375
-0.986787, 409, 193, 440, 320
-0.986787, 321, 1, 384, 375
-0.986796, 97, 177, 128, 240
-0.986826, 273, 241, 304, 368
-0.986865, 409, 1, 472, 256
-0.986891, 53, 281, 84, 344
-0.986971, 65, 129, 96, 256
-0.987122, 265, 17, 328, 144
-0.987156, 93, 313, 124, 375
-0.987262, 113, 1, 176, 256
-0.987267, 193, 81, 256, 208
-0.987281, 145, 153, 272, 216
-0.98732, 337, 81, 464, 144
-0.987367, 409, 281, 440, 344
-0.987432, 177, 1, 304, 64
-0.987432, 181, 249, 212, 312
-0.98744, 57, 1, 120, 375
-0.987447, 357, 161, 388, 288
-0.987465, 57, 89, 88, 152
-0.98747, 153, 201, 184, 264
-0.98755, 225, 193, 256, 320
-0.987561, 257, 89, 384, 152
-0.98758, 401, 133, 464, 164
-0.987602, 129, 257, 160, 320
-0.987624, 1, 177, 128, 240
-0.987653, 357, 33, 388, 160
-0.987698, 321, 153, 448, 216
-0.987703, 257, 193, 288, 320
-0.987734, 277, 129, 308, 256
-0.987782, 257, 129, 500, 192
-0.987797, 17, 241, 48, 368
-0.987824, 177, 193, 208, 320
-0.987925, 105, 229, 168, 260
-0.98796, 453, 129, 484, 192
-0.987971, 89, 1, 152, 128
-0.988001, 469, 161, 500, 288
-0.988002, 225, 1, 352, 64
-0.988114, 321, 177, 384, 304
-0.98812, 49, 1, 112, 256
-0.988125, 265, 33, 328, 288
-0.988166, 73, 277, 136, 308
-0.988177, 241, 193, 368, 256
-0.988206, 405, 49, 436, 176
-0.988221, 129, 281, 192, 312
-0.988386, 129, 49, 256, 176
-0.988441, 193, 305, 448, 368
-0.988464, 73, 265, 136, 296
-0.98847, 377, 261, 440, 292
-0.98853, 369, 25, 496, 88
-0.988612, 133, 129, 164, 256
-0.988665, 169, 129, 200, 256
-0.988717, 185, 145, 216, 272
-0.988766, 9, 1, 72, 256
-0.988813, 209, 193, 240, 320
-0.988852, 385, 49, 416, 176
-0.98891, 369, 1, 496, 64
-0.988954, 409, 145, 472, 176
-0.98898, 113, 265, 176, 296
-0.988997, 393, 341, 456, 372
-0.989023, 129, 265, 384, 328
-0.989065, 65, 65, 96, 192
-0.989099, 81, 237, 144, 268
-0.98912, 33, 1, 96, 375
-0.989137, 105, 241, 168, 272
-0.989142, 409, 161, 472, 192
-0.989159, 105, 217, 168, 248
-0.989189, 369, 317, 432, 348
-0.989201, 129, 17, 256, 80
-0.989217, 177, 129, 240, 375
-0.989255, 49, 277, 112, 308
-0.989302, 145, 97, 176, 224
-0.98931, 65, 297, 320, 360
-0.98938, 361, 329, 424, 360
-0.9894, 337, 309, 400, 340
-0.989409, 81, 209, 144, 240
-0.989416, 433, 241, 496, 368
-0.989416, 161, 313, 224, 344
-0.98949, 113, 253, 176, 284
-0.989491, 129, 293, 192, 324
-0.989497, 105, 277, 168, 308
-0.989506, 81, 221, 144, 252
-0.989512, 161, 345, 224, 375
-0.989523, 377, 273, 440, 304
-0.989562, 433, 33, 496, 288
-0.989575, 225, 25, 352, 88
-0.989589, 401, 181, 464, 212
-0.989596, 345, 205, 408, 236
-0.989596, 1, 265, 256, 328
-0.98961, 421, 161, 452, 288
-0.989619, 433, 141, 496, 172
-0.989653, 145, 1, 208, 375
-0.989707, 369, 193, 432, 224
-0.98973, 177, 25, 304, 88
-0.989736, 73, 253, 136, 284
-0.989749, 21, 193, 52, 320
-0.989768, 401, 121, 464, 152
-0.98977, 93, 49, 124, 176
-0.989775, 353, 297, 416, 328
-0.989782, 257, 65, 384, 128
-0.989794, 161, 153, 224, 184
-0.989796, 193, 305, 256, 336
-0.989805, 153, 33, 216, 288
-0.989809, 137, 1, 168, 128
-0.989842, 217, 265, 280, 296
-0.989844, 201, 345, 264, 375
-0.989846, 145, 333, 208, 364
-0.989847, 169, 261, 232, 292
-0.989859, 25, 285, 88, 316
-0.989864, 57, 201, 120, 232
-0.989865, 81, 189, 144, 220
-0.989882, 89, 1, 152, 256
-0.990006, 369, 285, 432, 316
-0.990064, 385, 149, 448, 180
-0.990146, 65, 57, 192, 120
-0.990167, 377, 181, 440, 212
-0.990174, 369, 113, 432, 144
-0.990179, 225, 265, 480, 328
-0.990191, 401, 1, 464, 375
-0.990194, 129, 221, 192, 252
-0.990207, 369, 345, 432, 375
-0.990209, 333, 49, 364, 176
-0.990216, 33, 329, 96, 360
-0.990248, 153, 301, 216, 332
-0.99026, 145, 57, 272, 120
-0.990286, 33, 157, 96, 188
-0.990293, 337, 345, 400, 375
-0.990331, 425, 1, 488, 375
-0.990368, 433, 181, 496, 212
-0.990369, 105, 205, 168, 236
-0.990406, 9, 329, 72, 360
-0.990406, 17, 97, 80, 352
-0.990413, 369, 205, 432, 236
-0.990415, 305, 301, 368, 332
-0.990437, 217, 305, 280, 336
-0.990444, 425, 129, 488, 160
-0.990445, 421, 241, 452, 368
-0.990446, 209, 1, 272, 375
-0.990449, 377, 133, 440, 164
-0.99045, 425, 341, 488, 372
-0.990469, 25, 269, 88, 300
-0.990487, 337, 329, 400, 360
-0.990489, 145, 265, 208, 296
-0.990537, 1, 157, 64, 188
-0.990561, 249, 321, 312, 352
-0.990567, 1, 297, 64, 328
-0.99057, 57, 93, 120, 124
-0.99057, 449, 81, 480, 208
-0.990575, 209, 317, 272, 348
-0.990582, 209, 105, 336, 168
-0.990584, 57, 213, 120, 244
-0.990601, 49, 125, 112, 156
-0.990604, 121, 325, 184, 356
-0.990611, 401, 329, 464, 360
-0.990614, 153, 277, 216, 308
-0.990619, 121, 153, 184, 184
-0.99064, 425, 193, 488, 224
-0.990646, 169, 325, 232, 356
-0.99066, 433, 153, 496, 184
-0.990727, 25, 309, 88, 340
-0.990732, 193, 261, 256, 292
-0.99076, 369, 221, 432, 252
-0.99076, 401, 193, 464, 224
-0.990778, 49, 289, 112, 320
-0.990797, 345, 221, 408, 252
-0.99083, 145, 209, 208, 240
-0.990848, 241, 305, 304, 336
-0.99087, 345, 241, 408, 272
-0.990912, 377, 297, 440, 328
-0.990915, 353, 253, 416, 284
-0.990917, 377, 1, 440, 32
-0.990921, 105, 289, 168, 320
-0.990923, 73, 149, 136, 180
-0.990927, 193, 329, 256, 360
-0.990948, 49, 265, 112, 296
-0.990952, 377, 245, 440, 276
-0.990963, 45, 129, 76, 256
-0.990987, 337, 113, 400, 144
-0.990988, 241, 261, 304, 292
-0.990996, 289, 133, 352, 164
-0.991001, 329, 297, 392, 328
-0.991011, 9, 1, 72, 375
-0.991019, 393, 317, 456, 348
-0.991023, 81, 289, 144, 320
-0.991023, 169, 289, 232, 320
-0.991025, 313, 229, 376, 260
-0.991062, 273, 145, 336, 176
-0.991069, 73, 129, 136, 160
-0.991076, 273, 1, 400, 64
-0.991087, 373, 49, 404, 176
-0.991098, 293, 113, 324, 240
-0.991104, 1, 285, 64, 316
-0.991116, 49, 113, 112, 144
-0.991165, 297, 1, 360, 375
-0.991169, 57, 189, 120, 220
-0.991189, 345, 33, 376, 160
-0.991222, 81, 325, 144, 356
-0.991223, 1, 317, 64, 348
-0.991224, 105, 185, 168, 216
-0.991242, 17, 181, 80, 212
-0.991248, 25, 297, 88, 328
-0.991254, 129, 241, 192, 272
-0.991269, 49, 141, 112, 172
-0.991277, 321, 241, 384, 272
-0.991298, 313, 109, 376, 140
-0.991303, 321, 25, 448, 88
-0.991306, 57, 329, 120, 360
-0.991326, 105, 337, 168, 368
-0.99134, 257, 177, 500, 240
-0.991343, 129, 197, 192, 228
-0.991348, 193, 157, 256, 188
-0.991396, 17, 97, 80, 224
-0.991401, 225, 345, 288, 375
-0.991409, 241, 153, 304, 184
-0.991413, 329, 285, 392, 316
-0.991418, 321, 113, 352, 240
-0.991491, 1, 313, 500, 375
-0.991492, 265, 305, 328, 336
-0.991501, 73, 113, 136, 144
-0.991512, 1, 289, 500, 352
-0.99152, 345, 193, 408, 224
-0.991527, 409, 253, 472, 284
-0.991577, 353, 1, 416, 32
-0.991594, 57, 237, 120, 268
-0.991597, 57, 225, 120, 256
-0.99173, 129, 209, 384, 272
-0.99174, 425, 65, 456, 192
-0.991912, 121, 221, 152, 252
-0.991947, 409, 133, 440, 164
-0.991949, 421, 133, 452, 164
-0.991962, 249, 1, 312, 375
-0.992015, 121, 113, 152, 240
-0.992022, 157, 281, 188, 312
-0.992043, 77, 277, 108, 308
-0.992046, 421, 121, 452, 152
-0.992077, 401, 333, 432, 364
-0.992084, 433, 17, 496, 144
-0.992105, 433, 133, 464, 164
-0.99212, 101, 229, 132, 260
-0.992186, 429, 145, 460, 176
-0.992212, 89, 189, 120, 220
-0.992212, 1, 265, 500, 328
-0.992216, 117, 209, 148, 240
-0.992217, 1, 153, 256, 216
-0.992222, 165, 265, 180, 328
-0.992243, 365, 301, 396, 332
-0.992257, 129, 209, 160, 240
-0.99226, 117, 237, 148, 268
-0.992267, 129, 145, 384, 208
-0.992292, 125, 49, 156, 176
-0.992298, 373, 193, 404, 224
-0.992303, 81, 1, 208, 64
-0.992307, 145, 49, 176, 176
-0.992319, 385, 317, 416, 348
-0.99232, 157, 265, 188, 296
-0.992336, 217, 1, 280, 256
-0.992337, 101, 205, 132, 236
-0.992354, 373, 313, 404, 344
-0.992367, 321, 57, 448, 120
-0.992372, 349, 309, 380, 340
-0.992374, 149, 325, 180, 356
-0.992375, 101, 241, 132, 272
-0.992375, 113, 277, 144, 308
-0.992397, 85, 253, 116, 284
-0.99241, 93, 265, 124, 296
-0.992427, 161, 105, 288, 168
-0.992431, 429, 169, 460, 200
-0.992432, 389, 345, 420, 375
-0.992433, 73, 265, 104, 296
-0.992434, 257, 233, 500, 296
-0.992437, 177, 305, 208, 336
-0.992443, 389, 333, 420, 364
-0.992444, 89, 237, 120, 268
-0.992457, 445, 177, 476, 304
-0.99246, 321, 113, 448, 144
-0.992461, 1, 233, 256, 296
-0.99247, 365, 329, 396, 360
-0.992477, 429, 181, 460, 212
-0.992478, 133, 221, 164, 252
-0.992499, 441, 181, 472, 212
-0.992502, 153, 297, 184, 328
-0.992509, 57, 285, 88, 316
-0.992526, 365, 241, 396, 272
-0.992529, 221, 261, 252, 292
-0.99253, 413, 345, 444, 375
-0.992538, 33, 309, 64, 340
-0.992539, 229, 345, 260, 375
-0.992544, 421, 157, 452, 188
-0.99255, 97, 217, 128, 248
-0.992551, 165, 1, 196, 128
-0.992551, 457, 193, 488, 320
-0.992554, 417, 145, 448, 176
-0.992561, 257, 81, 288, 208
-0.992564, 121, 217, 136, 280
-0.992566, 405, 145, 436, 176
-0.992567, 209, 129, 272, 375
-0.992569, 77, 121, 108, 152
-0.99257, 93, 285, 124, 316
-0.992576, 375, 281, 390, 344
-0.992582, 165, 293, 196, 324
-0.992583, 161, 313, 192, 344
-0.992587, 461, 177, 492, 208
-0.992592, 145, 281, 176, 312
-0.992597, 17, 321, 48, 352
-0.992597, 429, 337, 460, 368
-0.992608, 101, 253, 132, 284
-0.992608, 117, 249, 148, 280
-0.992617, 161, 337, 192, 368
-0.992622, 369, 285, 400, 316
-0.992628, 133, 241, 164, 272
-0.99263, 41, 285, 72, 316
-0.992634, 361, 205, 392, 236
-0.992637, 89, 201, 120, 232
-0.992637, 93, 133, 124, 164
-0.992639, 445, 141, 476, 172
-0.992642, 17, 333, 48, 364
-0.992645, 377, 333, 408, 364
-0.992658, 377, 261, 408, 292
-0.992664, 25, 281, 56, 312
-0.992665, 261, 141, 292, 172
-0.992667, 245, 305, 276, 336
-0.992669, 65, 205, 96, 236
-0.992674, 469, 189, 500, 220
-0.992679, 17, 293, 48, 324
-0.992679, 129, 197, 160, 228
-0.992689, 257, 317, 288, 348
-0.992692, 13, 181, 44, 212
-0.992693, 401, 257, 432, 288
-0.992698, 105, 265, 136, 296
-0.992701, 385, 205, 416, 236
-0.992708, 417, 169, 448, 200
-0.992716, 213, 345, 244, 375
-0.992717, 101, 189, 132, 220
-0.992717, 457, 193, 488, 224
-0.992717, 81, 217, 112, 248
-0.992724, 61, 273, 92, 304
-0.992724, 401, 345, 432, 375
-0.992724, 53, 213, 84, 244
-0.99273, 133, 337, 164, 368
-0.992738, 357, 229, 388, 260
-0.99274, 161, 325, 192, 356
-0.992744, 233, 317, 264, 348
-0.992751, 1, 269, 32, 300
-0.992754, 353, 297, 384, 328
-0.992755, 117, 189, 148, 220
-0.992757, 77, 201, 108, 232
-0.992762, 389, 261, 420, 292
-0.992764, 409, 117, 440, 148
-0.992774, 121, 265, 152, 296
-0.992774, 369, 273, 400, 304
-0.992774, 169, 265, 200, 296
-0.992776, 401, 1, 432, 32
-0.992783, 397, 313, 428, 344
-0.992794, 169, 1, 232, 375
-0.992794, 377, 249, 408, 280
-0.992799, 41, 157, 72, 188
-0.992802, 365, 253, 396, 284
-0.992804, 161, 157, 192, 188
-0.992807, 189, 305, 220, 336
-0.99281, 201, 309, 232, 340
-0.992817, 53, 157, 84, 188
-0.992821, 453, 341, 484, 372
-0.992828, 29, 329, 60, 360
-0.992829, 37, 297, 68, 328
-0.992829, 29, 157, 60, 188
-0.992829, 171, 273, 186, 336
-0.992833, 369, 49, 496, 112
-0.992837, 173, 345, 204, 375
-0.992838, 49, 277, 176, 308
-0.992842, 349, 241, 380, 272
-0.992842, 361, 313, 392, 344
-0.99285, 69, 289, 100, 320
-0.99285, 337, 305, 368, 336
-0.992852, 369, 229, 400, 260
-0.992862, 189, 337, 220, 368
-0.992862, 417, 185, 448, 216
-0.992863, 325, 301, 356, 332
-0.992863, 385, 1, 448, 128
-0.992866, 465, 141, 496, 172
-0.992867, 341, 109, 372, 140
-0.992872, 221, 305, 252, 336
-0.992874, 449, 157, 480, 188
-0.992878, 177, 321, 208, 352
-0.992879, 1, 337, 32, 368
-0.992882, 145, 265, 176, 296
-0.992887, 81, 265, 96, 328
-0.992905, 129, 129, 256, 192
-0.992995, 257, 105, 500, 168
-0.993059, 281, 81, 312, 208
-0.993062, 193, 49, 320, 112
-0.993085, 437, 137, 452, 200
-0.993102, 333, 97, 364, 224
-0.993129, 159, 273, 174, 336
-0.99316, 65, 185, 320, 248
-0.993175, 273, 25, 400, 88
-0.993245, 273, 1, 336, 375
-0.993256, 421, 129, 436, 192
-0.993268, 381, 305, 396, 368
-0.993286, 131, 209, 146, 272
-0.993319, 391, 313, 406, 375
-0.993346, 427, 137, 442, 200
-0.993353, 161, 241, 416, 304
-0.993357, 415, 121, 430, 184
-0.993403, 53, 81, 84, 208
-0.993433, 427, 113, 442, 176
-0.993526, 129, 105, 384, 168
-0.993588, 273, 301, 400, 332
-0.993639, 145, 345, 272, 375
-0.993645, 437, 81, 468, 208
-0.993653, 353, 193, 480, 224
-0.993729, 1, 137, 500, 200
-0.993759, 381, 281, 396, 344
-0.993791, 225, 153, 480, 216
-0.993792, 249, 1, 280, 128
-0.993805, 161, 261, 288, 292
-0.993839, 369, 289, 384, 352
-0.993872, 337, 285, 464, 316
-0.993885, 141, 193, 156, 256
-0.993898, 345, 193, 376, 320
-0.993908, 381, 241, 396, 304
-0.994011, 65, 253, 192, 284
-0.994032, 445, 129, 460, 192
-0.994057, 321, 33, 352, 160
-0.99406, 113, 89, 240, 152
-0.994066, 33, 33, 160, 96
-0.99407, 101, 185, 116, 248
-0.994103, 17, 201, 144, 232
-0.994111, 117, 1, 148, 128
-0.994133, 1, 305, 16, 368
-0.994151, 465, 49, 496, 176
-0.994172, 225, 209, 480, 272
-0.994192, 201, 1, 232, 128
-0.994216, 433, 113, 448, 176
-0.994245, 421, 153, 436, 216
-0.994254, 17, 289, 144, 320
-0.99429, 353, 333, 480, 364
-0.994305, 229, 1, 260, 128
-0.994314, 87, 265, 102, 328
-0.99434, 161, 305, 288, 336
-0.994364, 33, 305, 48, 368
-0.994376, 161, 317, 288, 348
-0.994381, 1, 329, 128, 360
-0.994381, 121, 257, 136, 320
-0.994402, 375, 305, 390, 368
-0.994411, 1, 277, 128, 308
-0.994412, 81, 337, 208, 368
-0.99442, 27, 313, 42, 375
-0.994437, 387, 281, 402, 344
-0.994452, 397, 313, 412, 375
-0.994462, 11, 305, 26, 368
-0.994506, 173, 297, 188, 360
-0.994526, 353, 273, 480, 304
-0.994545, 111, 201, 126, 264
-0.994576, 1, 161, 500, 224
-0.994612, 113, 265, 240, 296
-0.994615, 269, 49, 300, 176
-0.994619, 149, 1, 180, 128
-0.994629, 371, 233, 386, 296
-0.994636, 65, 265, 192, 296
-0.994644, 161, 297, 176, 360
-0.994678, 95, 225, 110, 288
-0.994696, 157, 97, 188, 224
-0.994698, 369, 133, 496, 164
-0.994775, 337, 297, 464, 328
-0.994805, 337, 309, 464, 340
-0.994823, 129, 333, 256, 364
-0.994828, 113, 221, 240, 252
-0.99485, 403, 313, 418, 375
-0.99485, 431, 161, 446, 224
-0.994857, 153, 257, 168, 320
-0.99486, 49, 233, 176, 264
-0.994867, 17, 1, 80, 128
-0.994873, 71, 89, 86, 152
-0.994879, 267, 281, 282, 344
-0.994888, 447, 153, 462, 216
-0.994919, 99, 121, 114, 184
-0.99492, 105, 65, 136, 192
-0.994934, 375, 193, 390, 256
-0.994938, 273, 321, 400, 352
-0.994944, 75, 257, 90, 320
-0.994963, 201, 145, 232, 272
-0.994973, 279, 297, 294, 360
-0.994974, 145, 153, 272, 184
-0.994974, 113, 241, 240, 272
-0.99498, 305, 205, 432, 236
-0.995003, 105, 209, 120, 272
-0.995005, 57, 17, 120, 144
-0.995013, 113, 225, 128, 288
-0.995017, 97, 277, 224, 308
-0.995034, 177, 81, 208, 208
-0.995051, 65, 189, 192, 220
-0.995052, 411, 1, 426, 64
-0.995057, 167, 297, 182, 360
-0.995058, 403, 1, 418, 64
-0.995067, 95, 249, 110, 312
-0.995076, 17, 157, 144, 188
-0.995083, 183, 305, 198, 368
-0.995091, 81, 25, 208, 88
-0.995091, 305, 257, 432, 288
-0.995111, 33, 129, 288, 192
-0.995112, 41, 305, 56, 368
-0.995117, 453, 137, 468, 200
-0.995123, 103, 257, 118, 320
-0.995126, 49, 217, 176, 248
-0.99513, 257, 1, 500, 64
-0.99514, 131, 185, 146, 248
-0.995142, 67, 201, 82, 264
-0.995142, 387, 257, 402, 320
-0.995154, 161, 185, 416, 248
-0.995154, 85, 241, 100, 304
-0.99517, 81, 297, 208, 328
-0.995174, 417, 257, 432, 320
-0.995178, 241, 33, 304, 288
-0.995184, 289, 1, 320, 128
-0.995211, 173, 233, 188, 296
-0.995215, 189, 305, 204, 368
-0.995219, 377, 217, 392, 280
-0.995234, 261, 281, 276, 344
-0.995236, 1, 241, 500, 304
-0.99524, 1, 265, 128, 296
-0.995242, 177, 273, 192, 336
-0.995243, 265, 257, 280, 320
-0.995252, 91, 121, 106, 184
-0.995271, 339, 297, 354, 360
-0.995279, 387, 209, 402, 272
-0.995298, 245, 145, 276, 272
-0.995299, 353, 225, 368, 288
-0.9953, 337, 345, 464, 375
-0.99531, 273, 281, 288, 344
-0.995312, 321, 237, 448, 268
-0.995335, 395, 1, 410, 64
-0.995338, 69, 281, 84, 344
-0.995353, 75, 281, 90, 344
-0.995381, 405, 105, 420, 168
-0.995382, 21, 145, 52, 272
-0.99539, 33, 177, 64, 304
-0.995391, 97, 153, 224, 184
-0.995399, 359, 225, 374, 288
-0.995417, 359, 305, 374, 368
-0.995422, 65, 325, 192, 356
-0.995439, 177, 141, 304, 172
-0.995439, 165, 241, 180, 304
-0.995444, 33, 209, 288, 272
-0.995454, 333, 297, 348, 360
-0.99546, 421, 105, 436, 168
-0.995464, 219, 305, 234, 368
-0.995465, 1, 181, 128, 212
-0.995474, 115, 249, 130, 312
-0.995505, 89, 185, 104, 248
-0.99552, 1, 193, 500, 256
-0.995525, 161, 289, 288, 320
-0.995532, 385, 185, 400, 248
-0.995543, 255, 297, 270, 360
-0.995552, 19, 313, 34, 375
-0.995553, 213, 145, 244, 272
-0.995557, 137, 217, 152, 280
-0.995563, 95, 193, 110, 256
-0.995564, 213, 1, 244, 128
-0.995586, 79, 113, 94, 176
-0.995588, 153, 49, 216, 176
-0.9956, 327, 289, 342, 352
-0.995625, 61, 201, 76, 264
-0.995641, 145, 277, 272, 308
-0.995656, 433, 177, 464, 304
-0.995659, 473, 177, 488, 240
-0.995663, 467, 185, 482, 248
-0.995676, 225, 301, 352, 332
-0.995681, 33, 73, 288, 136
-0.995687, 45, 281, 60, 344
-0.995693, 37, 281, 52, 344
-0.995695, 407, 289, 422, 352
-0.995697, 353, 261, 480, 292
-0.995701, 345, 297, 360, 360
-0.995704, 19, 281, 34, 344
-0.995704, 195, 305, 210, 368
-0.995719, 443, 177, 458, 240
-0.995719, 321, 289, 336, 352
-0.995721, 287, 281, 302, 344
-0.995732, 337, 321, 464, 352
-0.995736, 273, 273, 400, 304
-0.995739, 149, 289, 164, 352
-0.995747, 225, 321, 352, 352
-0.995767, 147, 209, 162, 272
-0.995779, 369, 257, 384, 320
-0.995783, 369, 181, 496, 212
-0.995785, 263, 225, 278, 288
-0.995799, 249, 297, 264, 360
-0.995808, 93, 273, 108, 336
-0.995813, 421, 313, 436, 375
-0.99582, 415, 145, 430, 208
-0.995825, 209, 265, 336, 296
-0.995849, 65, 201, 192, 232
-0.995855, 411, 313, 426, 375
-0.995857, 161, 1, 416, 64
-0.995859, 181, 249, 196, 312
-0.995863, 245, 257, 260, 320
-0.995877, 1, 273, 16, 336
-0.995886, 315, 289, 330, 352
-0.995888, 99, 281, 114, 344
-0.995893, 159, 249, 174, 312
-0.995897, 437, 161, 452, 224
-0.995905, 105, 233, 120, 296
-0.995905, 293, 297, 308, 360
-0.995907, 113, 177, 128, 240
-0.995907, 255, 273, 270, 336
-0.995912, 267, 305, 282, 368
-0.995918, 369, 205, 496, 236
-0.99592, 155, 313, 170, 375
-0.995926, 209, 313, 224, 375
-0.99593, 461, 153, 476, 216
-0.995935, 289, 289, 416, 320
-0.995938, 11, 177, 26, 240
-0.995943, 63, 257, 78, 320
-0.995944, 305, 125, 432, 156
-0.995954, 289, 193, 416, 224
-0.995955, 321, 221, 448, 252
-0.995959, 305, 49, 336, 176
-0.99596, 1, 105, 500, 168
-0.995971, 121, 185, 136, 248
-0.995996, 17, 137, 144, 168
-0.996017, 161, 81, 288, 144
-0.996019, 1, 317, 128, 348
-0.996029, 381, 1, 412, 128
-0.996034, 393, 97, 424, 352
-0.996067, 321, 137, 448, 168
-0.996084, 1, 217, 500, 280
-0.996122, 269, 1, 300, 128
-0.996134, 353, 149, 480, 180
-0.996147, 305, 97, 336, 224
-0.996179, 421, 133, 436, 164
-0.996182, 257, 133, 384, 164
-0.996189, 269, 177, 300, 304
-0.996213, 293, 49, 324, 176
-0.996224, 193, 341, 320, 372
-0.9963, 1, 121, 128, 152
-0.996302, 9, 17, 40, 144
-0.996303, 369, 169, 496, 200
-0.996313, 113, 209, 240, 240
-0.996328, 225, 145, 352, 176
-0.996337, 461, 97, 492, 224
-0.996343, 273, 233, 400, 264
-0.99635, 393, 1, 424, 128
-0.996373, 1, 253, 128, 284
-0.996377, 17, 1, 144, 64
-0.996384, 273, 217, 400, 248
-0.996387, 129, 81, 384, 144
-0.996403, 333, 161, 364, 288
-0.996418, 209, 281, 336, 312
-0.996425, 113, 321, 240, 352
-0.996436, 177, 329, 304, 360
-0.996441, 129, 197, 256, 228
-0.996443, 257, 73, 500, 136
-0.996455, 1, 1, 256, 64
-0.996478, 369, 97, 400, 352
-0.996502, 113, 181, 240, 212
-0.996512, 353, 249, 480, 280
-0.996517, 101, 1, 132, 128
-0.996559, 1, 97, 256, 160
-0.996567, 113, 253, 240, 284
-0.996577, 25, 49, 88, 176
-0.996592, 65, 137, 192, 168
-0.996599, 65, 309, 192, 340
-0.996612, 161, 249, 288, 280
-0.996615, 431, 125, 446, 156
-0.996667, 257, 33, 500, 96
-0.996676, 337, 1, 464, 32
-0.996678, 273, 245, 400, 276
-0.996678, 33, 341, 160, 372
-0.99668, 357, 97, 388, 352
-0.996715, 131, 209, 146, 240
-0.996735, 437, 125, 452, 156
-0.996737, 165, 265, 180, 296
-0.996742, 49, 89, 176, 120
-0.996745, 81, 265, 96, 296
-0.996758, 17, 65, 144, 128
-0.996774, 257, 121, 384, 152
-0.996784, 1, 241, 128, 272
-0.996798, 257, 109, 384, 140
-0.9968, 121, 221, 136, 252
-0.996806, 97, 165, 224, 196
-0.996826, 167, 281, 182, 312
-0.996834, 375, 285, 390, 316
-0.996843, 117, 277, 132, 308
-0.996859, 193, 161, 320, 192
-0.996907, 427, 137, 442, 168
-0.996911, 145, 1, 272, 32
-0.996911, 73, 277, 88, 308
-0.996914, 405, 129, 436, 375
-0.996921, 133, 221, 148, 252
-0.996923, 413, 133, 428, 164
-0.996924, 65, 109, 192, 140
-0.996943, 225, 201, 352, 232
-0.996945, 1, 169, 128, 200
-0.996951, 439, 137, 454, 168
-0.996959, 453, 33, 484, 160
-0.996979, 209, 81, 336, 144
-0.996985, 421, 145, 436, 176
-0.996994, 105, 113, 136, 240
-0.996995, 445, 137, 460, 168
-0.996995, 209, 253, 336, 284
-0.996995, 369, 225, 496, 256
-0.997009, 83, 277, 98, 308
-0.997009, 379, 313, 394, 344
-0.997012, 159, 265, 174, 296
-0.99703, 371, 201, 386, 232
-0.997038, 159, 281, 174, 312
-0.997047, 145, 165, 272, 196
-0.997049, 97, 41, 352, 104
-0.997065, 113, 309, 240, 340
-0.997082, 381, 97, 412, 352
-0.997088, 81, 121, 208, 152
-0.997097, 433, 137, 448, 168
-0.997117, 257, 257, 384, 288
-0.997147, 241, 345, 256, 375
-0.997161, 177, 201, 304, 232
-0.997171, 105, 189, 120, 220
-0.997177, 117, 97, 148, 352
-0.997187, 375, 297, 390, 328
-0.997209, 403, 333, 418, 364
-0.997225, 305, 333, 432, 364
-0.997231, 125, 209, 140, 240
-0.997232, 433, 149, 448, 180
-0.997237, 193, 1, 256, 256
-0.997239, 389, 313, 404, 344
-0.997241, 89, 273, 104, 304
-0.997252, 109, 277, 124, 308
-0.997282, 161, 221, 288, 252
-0.997292, 421, 173, 436, 204
-0.997297, 321, 173, 448, 204
-0.997319, 423, 157, 438, 188
-0.997323, 337, 101, 464, 132
-0.997323, 425, 121, 440, 152
-0.997335, 141, 201, 156, 232
-0.997345, 127, 221, 142, 252
-0.997363, 397, 345, 412, 375
-0.997364, 389, 1, 420, 256
-0.997373, 97, 129, 112, 160
-0.997381, 1, 221, 128, 252
-0.997386, 273, 141, 288, 172
-0.997392, 1, 301, 128, 332
-0.997394, 173, 289, 188, 320
-0.997395, 91, 189, 106, 220
-0.997396, 73, 289, 88, 320
-0.997399, 123, 233, 138, 264
-0.997402, 441, 149, 456, 180
-0.997403, 377, 273, 392, 304
-0.99741, 223, 261, 238, 292
-0.99741, 209, 213, 336, 244
-0.997426, 459, 189, 474, 220
-0.997435, 471, 181, 486, 212
-0.997436, 433, 169, 448, 200
-0.997439, 177, 13, 304, 44
-0.997443, 1, 25, 256, 88
-0.997447, 181, 305, 196, 336
-0.997448, 225, 1, 352, 32
-0.997453, 95, 233, 110, 264
-0.997455, 83, 197, 98, 228
-0.997456, 161, 233, 288, 264
-0.997464, 13, 185, 28, 216
-0.997471, 121, 265, 136, 296
-0.99748, 379, 241, 394, 272
-0.997482, 163, 325, 178, 356
-0.997484, 49, 289, 64, 320
-0.997492, 99, 197, 114, 228
-0.997495, 43, 281, 58, 312
-0.997497, 153, 329, 168, 360
-0.997498, 373, 309, 388, 340
-0.997498, 153, 281, 168, 312
-0.997501, 85, 129, 116, 375
-0.997508, 95, 277, 110, 308
-0.997508, 443, 173, 458, 204
-0.997517, 31, 317, 46, 348
-0.997522, 101, 273, 116, 304
-0.997529, 123, 253, 138, 284
-0.997531, 97, 61, 224, 92
-0.997533, 419, 117, 434, 148
-0.997535, 11, 337, 26, 368
-0.997545, 1, 333, 16, 364
-0.997548, 133, 241, 148, 272
-0.997552, 273, 181, 400, 212
-0.99756, 381, 193, 396, 224
-0.997564, 381, 333, 396, 364
-0.99757, 265, 129, 296, 375
-0.997584, 401, 317, 416, 348
-0.997586, 1, 93, 128, 124
-0.997593, 421, 329, 436, 360
-0.997599, 391, 325, 406, 356
-0.997599, 147, 337, 162, 368
-0.9976, 175, 301, 190, 332
-0.997605, 409, 329, 424, 360
-0.997606, 231, 261, 246, 292
-0.997615, 257, 65, 384, 96
-0.997616, 363, 237, 378, 268
-0.997623, 369, 297, 384, 328
-0.997634, 11, 37, 26, 68
-0.997637, 385, 253, 400, 284
-0.997641, 427, 181, 442, 212
-0.997644, 351, 225, 366, 256
-0.997646, 177, 53, 304, 84
-0.997646, 37, 305, 52, 336
-0.997653, 171, 269, 186, 300
-0.997655, 139, 221, 154, 252
-0.997656, 449, 181, 464, 212
-0.99766, 257, 97, 384, 128
-0.997663, 389, 205, 404, 236
-0.997671, 365, 313, 380, 344
-0.997677, 43, 293, 58, 324
-0.99768, 163, 337, 178, 368
-0.99768, 101, 97, 132, 352
-0.997681, 381, 297, 396, 328
-0.997683, 445, 161, 460, 192
-0.997685, 225, 225, 352, 256
-0.997686, 57, 281, 72, 312
-0.997687, 325, 129, 356, 375
-0.997689, 237, 261, 252, 292
-0.99769, 369, 69, 496, 100
-0.997694, 451, 141, 466, 172
-0.997702, 89, 117, 104, 148
-0.99772, 257, 77, 384, 108
-0.99773, 465, 193, 480, 224
-0.997732, 173, 229, 188, 260
-0.997735, 369, 249, 384, 280
-0.997736, 301, 129, 332, 375
-0.997738, 111, 233, 126, 264
-0.99774, 425, 345, 440, 375
-0.99775, 195, 313, 210, 344
-0.99775, 19, 333, 34, 364
-0.997754, 49, 169, 176, 200
-0.997756, 115, 265, 130, 296
-0.997758, 79, 117, 94, 148
-0.997759, 209, 189, 336, 220
-0.99776, 169, 321, 184, 352
-0.997763, 63, 205, 78, 236
-0.997769, 229, 345, 244, 375
-0.997774, 379, 205, 394, 236
-0.997776, 369, 121, 496, 152
-0.997779, 87, 261, 102, 292
-0.997787, 241, 157, 368, 188
-0.997788, 443, 125, 458, 156
-0.997792, 413, 1, 428, 32
-0.997794, 413, 345, 428, 375
-0.997794, 1, 17, 500, 80
-0.997795, 111, 185, 126, 216
-0.9978, 375, 229, 390, 260
-0.997804, 167, 297, 182, 328
-0.997805, 273, 21, 400, 52
-0.997806, 153, 129, 184, 375
-0.997808, 373, 329, 388, 360
-0.997809, 159, 301, 174, 332
-0.997812, 345, 97, 376, 352
-0.997815, 97, 261, 112, 292
-0.997824, 49, 157, 64, 188
-0.997825, 133, 189, 148, 220
-0.997829, 395, 261, 410, 292
-0.997833, 435, 185, 450, 216
-0.997834, 387, 277, 402, 308
-0.997838, 115, 209, 130, 240
-0.997868, 289, 345, 416, 375
-0.997885, 69, 97, 100, 352
-0.997898, 133, 129, 164, 375
-0.997911, 369, 29, 496, 60
-0.997922, 209, 121, 336, 152
-0.997933, 1, 65, 500, 128
-0.997941, 305, 161, 432, 192
-0.997954, 321, 17, 448, 48
-0.997974, 337, 89, 464, 120
-0.997986, 377, 1, 408, 256
-0.998132, 313, 129, 344, 375
-0.998147, 277, 129, 308, 375
-0.998356, 73, 279, 136, 294
-0.998361, 9, 1, 40, 256
-0.998377, 449, 1, 480, 256
-0.99838, 413, 1, 444, 256
-0.998381, 121, 209, 136, 336
-0.998385, 105, 225, 168, 240
-0.998385, 57, 97, 88, 352
-0.99839, 105, 239, 168, 254
-0.998401, 417, 193, 480, 208
-0.998402, 105, 231, 168, 246
-0.998418, 401, 135, 464, 150
-0.998418, 129, 289, 192, 304
-0.998423, 73, 267, 136, 282
-0.998427, 113, 279, 176, 294
-0.998427, 81, 231, 144, 246
-0.998428, 361, 1, 392, 256
-0.998429, 409, 147, 472, 162
-0.998431, 349, 1, 380, 256
-0.998435, 377, 341, 440, 356
-0.998438, 113, 273, 176, 288
-0.998445, 105, 245, 168, 260
-0.998448, 81, 245, 144, 260
-0.998449, 377, 261, 440, 276
-0.99845, 57, 207, 120, 222
-0.998453, 377, 267, 440, 282
-0.998455, 73, 273, 136, 288
-0.998457, 169, 311, 232, 326
-0.998458, 145, 281, 176, 296
-0.998458, 153, 325, 184, 340
-0.99846, 129, 297, 192, 312
-0.99846, 65, 285, 128, 300
-0.998461, 85, 257, 116, 272
-0.998461, 133, 239, 164, 254
-0.998461, 73, 201, 104, 216
-0.998463, 105, 217, 168, 232
-0.998463, 245, 265, 276, 280
-0.998464, 193, 345, 224, 360
-0.998466, 33, 287, 64, 302
-0.998468, 353, 113, 384, 128
-0.998468, 217, 265, 280, 280
-0.998468, 401, 129, 464, 144
-0.998468, 369, 305, 400, 320
-0.998469, 429, 339, 460, 354
-0.99847, 385, 263, 416, 278
-0.998471, 37, 303, 68, 318
-0.998473, 389, 347, 420, 362
-0.998474, 57, 209, 88, 224
-0.998474, 401, 141, 464, 156
-0.998475, 193, 259, 224, 274
-0.998475, 81, 237, 144, 252
-0.998476, 61, 103, 92, 118
-0.998477, 369, 299, 400, 314
-0.998477, 353, 325, 384, 340
-0.998478, 97, 287, 160, 302
-0.998479, 425, 169, 456, 184
-0.998481, 121, 157, 184, 172
-0.998481, 161, 321, 224, 336
-0.998482, 141, 1, 172, 256
-0.998482, 193, 347, 256, 362
-0.998482, 141, 297, 172, 312
-0.998482, 121, 255, 152, 270
-0.998483, 221, 309, 252, 324
-0.998484, 357, 305, 388, 320
-0.998484, 141, 289, 172, 304
-0.998485, 417, 185, 480, 200
-0.998486, 69, 269, 100, 284
-0.998487, 393, 359, 456, 374
-0.998488, 89, 245, 120, 260
-0.998488, 269, 145, 300, 160
-0.998488, 101, 257, 132, 272
-0.998489, 73, 261, 136, 276
-0.99849, 161, 305, 224, 320
-0.99849, 145, 333, 176, 348
-0.99849, 49, 277, 112, 292
-0.998491, 401, 261, 432, 276
-0.998492, 89, 187, 120, 202
-0.998492, 385, 317, 416, 332
-0.998493, 433, 143, 496, 158
-0.998493, 357, 239, 388, 254
-0.998493, 257, 319, 288, 334
-0.998494, 377, 335, 440, 350
-0.998495, 465, 195, 496, 210
-0.998495, 97, 203, 128, 218
-0.998495, 225, 361, 288, 375
-0.998496, 421, 177, 452, 192
-0.998496, 81, 225, 144, 240
-0.998497, 129, 339, 192, 354
-0.998497, 137, 281, 200, 296
-0.998498, 245, 361, 276, 375
-0.998498, 461, 183, 492, 198
-0.998499, 53, 293, 84, 308
-0.998499, 105, 283, 136, 298
-0.9985, 429, 149, 460, 164
-0.9985, 157, 275, 188, 290
-0.9985, 89, 239, 120, 254
-0.998502, 137, 225, 168, 240
-0.998502, 409, 339, 472, 354
-0.998502, 361, 361, 424, 375
-0.998502, 109, 209, 140, 224
-0.998503, 353, 255, 416, 270
-0.998503, 209, 319, 272, 334
-0.998504, 189, 309, 220, 324
-0.998504, 449, 197, 480, 212
-0.998504, 353, 313, 416, 328
-0.998505, 217, 351, 248, 366
-0.998505, 369, 287, 400, 302
-0.998506, 409, 351, 440, 366
-0.998508, 169, 317, 200, 332
-0.998509, 113, 267, 176, 282
-0.99851, 365, 331, 396, 346
-0.998511, 5, 331, 36, 346
-0.998511, 417, 153, 480, 168
-0.998511, 409, 359, 440, 374
-0.998512, 89, 279, 120, 294
-0.998514, 101, 269, 132, 284
-0.998514, 421, 359, 452, 374
-0.998515, 105, 251, 168, 266
-0.998517, 413, 185, 444, 200
-0.998517, 85, 207, 116, 222
-0.998518, 193, 313, 256, 328
-0.998518, 57, 201, 120, 216
-0.998518, 361, 327, 424, 342
-0.998519, 161, 297, 192, 312
-0.998519, 129, 209, 160, 224
-0.998519, 441, 135, 472, 150
-0.998519, 377, 361, 408, 375
-0.99852, 161, 339, 192, 354
-0.99852, 369, 319, 400, 334
-0.998521, 217, 263, 248, 278
-0.998521, 33, 285, 96, 300
-0.998522, 401, 343, 432, 358
-0.998522, 361, 201, 424, 216
-0.998523, 369, 311, 400, 326
-0.998523, 81, 255, 144, 270
-0.998524, 117, 279, 148, 294
-0.998524, 201, 353, 264, 368
-0.998525, 409, 173, 472, 188
-0.998526, 81, 263, 112, 278
-0.998526, 61, 287, 92, 302
-0.998527, 69, 207, 100, 222
-0.998528, 21, 323, 52, 338
-0.998528, 161, 153, 224, 168
-0.998529, 153, 287, 184, 302
-0.998529, 101, 245, 132, 260
-0.99853, 89, 211, 152, 226
-0.99853, 377, 275, 440, 290
-0.99853, 441, 149, 472, 164
-0.99853, 177, 307, 208, 322
-0.998531, 233, 319, 296, 334
-0.998532, 81, 131, 112, 146
-0.998532, 201, 311, 232, 326
-0.998532, 101, 263, 132, 278
-0.998534, 177, 261, 240, 276
-0.998535, 73, 219, 136, 234
-0.998535, 393, 183, 456, 198
-0.998535, 185, 339, 216, 354
-0.998536, 393, 347, 456, 362
-0.998536, 381, 341, 412, 356
-0.998537, 377, 283, 440, 298
-0.998537, 337, 329, 400, 344
-0.998538, 165, 303, 196, 318
-0.998539, 353, 321, 416, 336
-0.99854, 381, 327, 412, 342
-0.99854, 145, 313, 208, 328
-0.998541, 221, 357, 252, 372
-0.998541, 389, 353, 420, 368
-0.998541, 329, 323, 392, 338
-0.998542, 165, 129, 196, 375
-0.998543, 129, 223, 192, 238
-0.998544, 361, 209, 424, 224
-0.998544, 81, 293, 144, 308
-0.998544, 377, 253, 440, 268
-0.998544, 85, 269, 116, 284
-0.998546, 429, 157, 460, 172
-0.998546, 97, 191, 160, 206
-0.998547, 145, 327, 208, 342
-0.998547, 89, 291, 120, 306
-0.998547, 81, 199, 144, 214
-0.998548, 369, 301, 432, 316
-0.998548, 133, 215, 164, 230
-0.998548, 369, 355, 432, 370
-0.998549, 369, 257, 400, 272
-0.998549, 41, 291, 104, 306
-0.998549, 117, 239, 148, 254
-0.99855, 161, 351, 224, 366
-0.998551, 57, 129, 120, 144
-0.998552, 153, 265, 216, 280
-0.998552, 425, 179, 488, 194
-0.998553, 425, 137, 488, 152
-0.998554, 137, 303, 200, 318
-0.998555, 73, 289, 104, 304
-0.998555, 113, 215, 144, 230
-0.998556, 353, 307, 416, 322
-0.998556, 113, 261, 176, 276
-0.998558, 241, 319, 272, 334
-0.998558, 177, 341, 240, 356
-0.99856, 405, 139, 436, 154
-0.99856, 1, 301, 64, 316
-0.998561, 1, 323, 64, 338
-0.998561, 49, 271, 112, 286
-0.998563, 329, 305, 392, 320
-0.998563, 49, 103, 112, 118
-0.998564, 445, 191, 476, 206
-0.998564, 97, 209, 128, 224
-0.998564, 185, 303, 248, 318
-0.998564, 139, 193, 154, 320
-0.998565, 89, 233, 120, 248
-0.998565, 145, 345, 208, 360
-0.998566, 161, 279, 224, 294
-0.998566, 41, 109, 104, 124
-0.998566, 57, 187, 120, 202
-0.998567, 113, 211, 176, 226
-0.998567, 101, 251, 132, 266
-0.998567, 377, 191, 440, 206
-0.998567, 369, 115, 432, 130
-0.998567, 329, 299, 392, 314
-0.998568, 33, 211, 96, 226
-0.998568, 33, 161, 96, 176
-0.998569, 329, 249, 392, 264
-0.99857, 369, 203, 400, 218
-0.998571, 393, 361, 424, 375
-0.998571, 17, 183, 80, 198
-0.998572, 353, 345, 416, 360
-0.998572, 113, 193, 128, 320
-0.998572, 377, 289, 440, 304
-0.998572, 129, 233, 160, 248
-0.998573, 273, 147, 336, 162
-0.998573, 57, 213, 120, 228
-0.998574, 201, 359, 264, 374
-0.998575, 137, 275, 200, 290
-0.998575, 157, 269, 188, 284
-0.998578, 9, 287, 72, 302
-0.998578, 361, 295, 424, 310
-0.998579, 121, 325, 184, 340
-0.99858, 401, 333, 464, 348
-0.99858, 41, 233, 104, 248
-0.99858, 129, 229, 192, 244
-0.99858, 101, 215, 132, 230
-0.998581, 393, 1, 456, 16
-0.998581, 161, 163, 224, 178
-0.998581, 425, 163, 488, 178
-0.998582, 161, 295, 224, 310
-0.998582, 73, 157, 136, 172
-0.998583, 105, 295, 168, 310
-0.998583, 65, 117, 128, 132
-0.998584, 201, 341, 264, 356
-0.998585, 9, 161, 72, 176
-0.998587, 217, 271, 280, 286
-0.998587, 233, 361, 264, 375
-0.998589, 131, 209, 146, 336
-0.99859, 101, 225, 132, 240
-0.998595, 85, 193, 116, 208
-0.998596, 441, 183, 472, 198
-0.998596, 289, 129, 320, 375
-0.998598, 249, 129, 280, 375
-0.998599, 397, 333, 428, 348
-0.998602, 101, 239, 132, 254
-0.998603, 101, 277, 132, 292
-0.998608, 429, 187, 460, 202
-0.998609, 105, 289, 136, 304
-0.998614, 101, 233, 132, 248
-0.998617, 377, 225, 392, 352
-0.998618, 117, 245, 148, 260
-0.998625, 93, 285, 124, 300
-0.998628, 85, 199, 116, 214
-0.998629, 425, 193, 456, 208
-0.998632, 421, 127, 452, 142
-0.998636, 157, 281, 188, 296
-0.998636, 429, 137, 460, 152
-0.99864, 163, 241, 178, 368
-0.998643, 433, 143, 464, 158
-0.998653, 369, 225, 384, 352
-0.99866, 333, 1, 364, 256
-0.998668, 117, 231, 148, 246
-0.99867, 81, 241, 96, 368
-0.998671, 417, 147, 448, 162
-0.998682, 121, 223, 152, 238
-0.998729, 77, 277, 108, 292
-0.99874, 417, 137, 448, 152
-0.998741, 469, 65, 500, 320
-0.998745, 391, 241, 406, 368
-0.998758, 397, 241, 412, 368
-0.998796, 45, 129, 76, 375
-0.998807, 321, 1, 352, 256
-0.99881, 95, 209, 110, 336
-0.998821, 103, 241, 118, 368
-0.998827, 263, 209, 278, 336
-0.998834, 363, 225, 378, 352
-0.998841, 113, 241, 128, 368
-0.99886, 355, 225, 370, 352
-0.998869, 157, 241, 172, 368
-0.998873, 189, 129, 220, 375
-0.998876, 107, 177, 122, 304
-0.998879, 75, 241, 90, 368
-0.998891, 237, 225, 252, 352
-0.998892, 87, 241, 102, 368
-0.998905, 83, 193, 98, 320
-0.998915, 385, 241, 400, 368
-0.998925, 323, 225, 338, 352
-0.998934, 237, 129, 268, 375
-0.998943, 387, 193, 402, 320
-0.998951, 247, 241, 262, 368
-0.998957, 375, 177, 390, 304
-0.998957, 175, 241, 190, 368
-0.998963, 117, 1, 148, 256
-0.998964, 417, 225, 432, 352
-0.998964, 231, 225, 246, 352
-0.998968, 101, 193, 116, 320
-0.998982, 411, 241, 426, 368
-0.998984, 129, 33, 160, 288
-0.998988, 67, 209, 82, 336
-0.998995, 151, 193, 166, 320
-0.998996, 403, 225, 418, 352
-0.999004, 145, 193, 160, 320
-0.999015, 169, 225, 184, 352
-0.999015, 257, 241, 272, 368
-0.999015, 431, 113, 446, 240
-0.999025, 413, 97, 428, 224
-0.999025, 425, 97, 440, 224
-0.999034, 329, 225, 344, 352
-0.999041, 393, 193, 408, 320
-0.999047, 129, 161, 144, 288
-0.999063, 449, 129, 464, 256
-0.999064, 149, 241, 164, 368
-0.999065, 349, 225, 364, 352
-0.999068, 177, 129, 208, 375
-0.99907, 257, 193, 272, 320
-0.999071, 265, 1, 296, 256
-0.999076, 313, 241, 328, 368
-0.99908, 425, 129, 456, 375
-0.999081, 269, 225, 284, 352
-0.999097, 61, 209, 76, 336
-0.999101, 105, 1, 136, 256
-0.999106, 307, 241, 322, 368
-0.999115, 405, 97, 420, 224
-0.999127, 359, 97, 374, 224
-0.999132, 219, 241, 234, 368
-0.999134, 441, 113, 456, 240
-0.99914, 417, 145, 432, 272
-0.999141, 143, 145, 158, 272
-0.999141, 369, 177, 384, 304
-0.999142, 341, 241, 356, 368
-0.999144, 181, 241, 196, 368
-0.999146, 371, 97, 386, 224
-0.999146, 411, 193, 426, 320
-0.999148, 89, 177, 104, 304
-0.999148, 1, 49, 256, 112
-0.999156, 335, 225, 350, 352
-0.999158, 121, 161, 136, 288
-0.999173, 419, 81, 434, 208
-0.99918, 225, 241, 240, 368
-0.999182, 137, 241, 152, 368
-0.999186, 309, 1, 340, 256
-0.999192, 77, 177, 92, 304
-0.999193, 277, 33, 308, 288
-0.999196, 301, 241, 316, 368
-0.999198, 89, 129, 104, 256
-0.999202, 463, 145, 478, 272
-0.999204, 171, 161, 186, 288
-0.999204, 457, 97, 488, 352
-0.999211, 281, 241, 296, 368
-0.999226, 381, 161, 396, 288
-0.999227, 457, 129, 472, 256
-0.999231, 43, 241, 58, 368
-0.999231, 287, 241, 302, 368
-0.999232, 97, 113, 112, 240
-0.999236, 399, 97, 414, 224
-0.999241, 95, 161, 110, 288
-0.999249, 237, 1, 268, 256
-0.999252, 1, 241, 16, 368
-0.999255, 201, 129, 232, 375
-0.999269, 437, 129, 468, 375
-0.999279, 411, 145, 426, 272
-0.99928, 53, 209, 68, 336
-0.999285, 143, 241, 158, 368
-0.999285, 157, 161, 172, 288
-0.999293, 11, 161, 26, 288
-0.999294, 187, 241, 202, 368
-0.999298, 365, 97, 380, 224
-0.999303, 281, 129, 296, 256
-0.999304, 137, 145, 152, 272
-0.999307, 391, 97, 406, 224
-0.999316, 353, 97, 368, 224
-0.999316, 377, 97, 392, 224
-0.999325, 69, 161, 84, 288
-0.99933, 423, 161, 438, 288
-0.999331, 293, 241, 308, 368
-0.999343, 195, 241, 210, 368
-0.999345, 275, 241, 290, 368
-0.999351, 385, 97, 400, 224
-0.999352, 75, 113, 90, 240
-0.999356, 437, 33, 468, 288
-0.999356, 263, 161, 278, 288
-0.999356, 405, 177, 420, 304
-0.999358, 5, 129, 36, 375
-0.999362, 361, 33, 376, 160
-0.99937, 171, 113, 186, 240
-0.999375, 15, 241, 30, 368
-0.999377, 399, 161, 414, 288
-0.999377, 165, 177, 180, 304
-0.999382, 411, 49, 426, 176
-0.999384, 225, 193, 240, 320
-0.99939, 37, 241, 52, 368
-0.999395, 251, 193, 266, 320
-0.999401, 369, 33, 384, 160
-0.999403, 165, 33, 196, 288
-0.999403, 245, 193, 260, 320
-0.999403, 287, 129, 302, 256
-0.999406, 87, 65, 102, 192
-0.999408, 423, 241, 438, 368
-0.999408, 451, 81, 466, 208
-0.999409, 81, 129, 96, 256
-0.999415, 471, 145, 486, 272
-0.999416, 207, 161, 222, 288
-0.999416, 117, 1, 132, 128
-0.999419, 351, 49, 366, 176
-0.999422, 191, 161, 206, 288
-0.999423, 207, 241, 222, 368
-0.999429, 379, 49, 394, 176
-0.999439, 137, 49, 152, 176
-0.999445, 79, 65, 94, 192
-0.999448, 181, 113, 196, 240
-0.999473, 401, 1, 432, 256
-0.99949, 25, 129, 56, 375
-0.999505, 253, 1, 284, 256
-0.999542, 1, 41, 500, 104
-0.999585, 221, 129, 252, 375
-0.999617, 297, 1, 328, 256
-0.999627, 69, 1, 100, 256
-0.999649, 153, 33, 184, 288
-0.999653, 77, 277, 92, 292
-0.999653, 177, 313, 192, 328
-0.999653, 91, 201, 106, 216
-0.999653, 29, 321, 44, 336
-0.999653, 63, 213, 78, 228
-0.999655, 419, 155, 434, 170
-0.999655, 409, 333, 424, 348
-0.999655, 205, 309, 220, 324
-0.999655, 123, 271, 138, 286
-0.999656, 239, 353, 254, 368
-0.999657, 397, 317, 412, 332
-0.999658, 437, 151, 452, 166
-0.99966, 35, 309, 50, 324
-0.99966, 391, 341, 406, 356
-0.99966, 1, 337, 16, 352
-0.999661, 413, 129, 428, 144
-0.999661, 43, 301, 58, 316
-0.999661, 375, 307, 390, 322
-0.999661, 139, 223, 154, 238
-0.999662, 85, 195, 100, 210
-0.999662, 379, 253, 394, 268
-0.999663, 143, 289, 158, 304
-0.999663, 157, 327, 172, 342
-0.999664, 95, 213, 110, 228
-0.999666, 161, 303, 176, 318
-0.999666, 123, 257, 138, 272
-0.999666, 147, 333, 162, 348
-0.999667, 153, 339, 168, 354
-0.999667, 381, 289, 396, 304
-0.999668, 99, 273, 114, 288
-0.999668, 403, 333, 418, 348
-0.999668, 249, 361, 264, 375
-0.999668, 49, 1, 80, 256
-0.999669, 469, 195, 484, 210
-0.999669, 109, 209, 124, 224
-0.999669, 253, 321, 268, 336
-0.99967, 91, 289, 106, 304
-0.99967, 101, 187, 116, 202
-0.99967, 121, 239, 136, 254
-0.99967, 473, 185, 488, 200
-0.999673, 83, 295, 98, 310
-0.999673, 399, 361, 414, 375
-0.999673, 429, 183, 444, 198
-0.999673, 9, 267, 24, 282
-0.999673, 137, 215, 152, 230
-0.999674, 121, 245, 136, 260
-0.999675, 223, 263, 238, 278
-0.999675, 141, 197, 156, 212
-0.999676, 367, 323, 382, 338
-0.999676, 387, 361, 402, 375
-0.999677, 443, 185, 458, 200
-0.999677, 115, 275, 130, 290
-0.999677, 183, 307, 198, 322
-0.999677, 165, 267, 180, 282
-0.999678, 381, 333, 396, 348
-0.999678, 373, 315, 388, 330
-0.99968, 273, 149, 288, 164
-0.99968, 159, 269, 174, 284
-0.999682, 131, 239, 146, 254
-0.999683, 97, 207, 112, 222
-0.999684, 177, 307, 192, 322
-0.999686, 119, 209, 134, 224
-0.999686, 29, 315, 44, 330
-0.999688, 115, 215, 130, 230
-0.999688, 111, 223, 126, 238
-0.999689, 67, 285, 82, 300
-0.999689, 139, 231, 154, 246
-0.99969, 173, 297, 188, 312
-0.999691, 189, 309, 204, 324
-0.999691, 101, 223, 116, 238
-0.999691, 459, 195, 474, 210
-0.999691, 93, 189, 108, 204
-0.999692, 141, 207, 156, 222
-0.999693, 37, 303, 52, 318
-0.999693, 161, 281, 176, 296
-0.999693, 421, 185, 436, 200
-0.999693, 101, 289, 116, 304
-0.999694, 97, 195, 112, 210
-0.999695, 65, 207, 80, 222
-0.999697, 1, 331, 16, 346
-0.999697, 375, 247, 390, 262
-0.999697, 107, 293, 122, 308
-0.999698, 97, 281, 112, 296
-0.999698, 171, 289, 186, 304
-0.9997, 273, 139, 288, 154
-0.9997, 111, 235, 126, 250
-0.9997, 117, 289, 132, 304
-0.999701, 387, 315, 402, 330
-0.999701, 411, 139, 426, 154
-0.999705, 375, 293, 390, 308
-0.999706, 121, 279, 136, 294
-0.999707, 447, 145, 462, 160
-0.999709, 375, 299, 390, 314
-0.99971, 391, 355, 406, 370
-0.99971, 211, 311, 226, 326
-0.999711, 121, 229, 136, 244
-0.999711, 431, 155, 446, 170
-0.999718, 101, 229, 116, 244
-0.999719, 133, 233, 148, 248
-0.99972, 91, 277, 106, 292
-0.999721, 167, 281, 182, 296
-0.999722, 13, 185, 28, 200
-0.999722, 439, 145, 454, 160
-0.999724, 11, 39, 26, 54
-0.999725, 147, 339, 162, 354
-0.999728, 419, 147, 434, 162
-0.999728, 435, 187, 450, 202
-0.999729, 435, 129, 450, 144
-0.99973, 431, 137, 446, 152
-0.99973, 109, 277, 124, 292
-0.999731, 133, 223, 148, 238
-0.999733, 103, 203, 118, 218
-0.999733, 421, 173, 436, 188
-0.999734, 379, 277, 394, 292
-0.999742, 425, 147, 440, 162
-0.999743, 369, 253, 384, 268
-0.999749, 105, 193, 120, 208
-0.999749, 83, 267, 98, 282
-0.99975, 177, 33, 208, 288
-0.999752, 95, 231, 110, 246
-0.999755, 103, 279, 118, 294
-0.999758, 437, 137, 452, 152
-0.999769, 433, 145, 448, 160
-0.999769, 123, 223, 138, 238
-0.99977, 97, 131, 112, 146
-0.999774, 111, 285, 126, 300
-0.999778, 377, 283, 392, 298
-0.999778, 131, 213, 146, 228
-0.999791, 373, 201, 388, 216
-0.999805, 421, 135, 436, 150
-0.999813, 425, 1, 456, 256
-0.999856, 73, 289, 88, 304
-0.999857, 443, 135, 458, 150
-0.999939, 205, 33, 236, 288
-0.999965, 225, 1, 256, 256
-0.999969, 93, 1, 124, 256
-1, 21, 1, 52, 256
-1.00005, 81, 33, 112, 288
-1.00006, 193, 33, 224, 288
-1.0002, 37, 1, 68, 256
-1.00285, 1, 49, 64, 176
