1964
-0.391167, 1, 1, 500, 375
-0.417443, 1, 1, 500, 256
-0.439897, 161, 1, 416, 375
-0.448607, 1, 129, 500, 375
-0.592549, 193, 1, 448, 256
-0.603531, 33, 1, 288, 375
-0.640716, 129, 129, 384, 375
-0.653927, 257, 1, 500, 375
-0.679916, 65, 1, 320, 256
-0.723455, 225, 97, 480, 352
-0.799469, 1, 97, 256, 352
-0.846728, 257, 1, 384, 256
-0.84937, 177, 1, 304, 256
-0.85071, 209, 1, 336, 375
-0.852997, 257, 1, 384, 375
-0.873084, 161, 1, 288, 375
-0.874783, 273, 129, 400, 375
-0.879423, 225, 129, 352, 375
-0.880544, 113, 33, 240, 288
-0.882201, 1, 113, 500, 240
-0.882996, 177, 97, 304, 352
-0.895823, 305, 1, 432, 375
-0.896796, 1, 161, 500, 288
-0.900174, 1, 65, 500, 192
-0.904659, 129, 129, 256, 375
-0.907793, 113, 1, 240, 375
-0.910631, 1, 17, 500, 144
-0.913896, 337, 97, 464, 352
-0.914095, 193, 1, 448, 128
-0.914942, 33, 1, 160, 375
-0.915378, 33, 65, 160, 320
-0.915713, 193, 97, 448, 224
-0.917699, 305, 1, 432, 256
-0.92328, 353, 1, 480, 375
-0.924754, 129, 161, 384, 288
-0.928907, 81, 129, 208, 375
-0.929468, 1, 241, 500, 368
-0.930271, 193, 49, 448, 176
-0.931338, 353, 1, 480, 256
-0.934951, 241, 1, 304, 128
-0.937604, 97, 113, 352, 240
-0.938546, 273, 17, 400, 144
-0.9389, 225, 1, 352, 128
-0.942764, 177, 1, 304, 128
-0.942949, 1, 97, 256, 224
-0.944734, 257, 161, 384, 288
-0.945461, 161, 49, 288, 176
-0.948079, 177, 113, 304, 240
-0.948833, 97, 49, 352, 176
-0.950573, 113, 97, 240, 224
-0.951196, 313, 1, 376, 128
-0.951665, 225, 97, 288, 224
-0.951895, 193, 177, 320, 304
-0.952026, 273, 1, 336, 128
-0.95206, 225, 177, 480, 304
-0.953272, 289, 145, 352, 272
-0.954158, 201, 17, 264, 144
-0.954291, 241, 17, 304, 80
-0.955306, 65, 241, 320, 368
-0.955329, 177, 49, 240, 176
-0.957518, 273, 65, 400, 192
-0.958185, 145, 177, 272, 304
-0.959052, 313, 1, 376, 64
-0.95994, 97, 1, 352, 128
-0.96065, 273, 113, 400, 240
-0.960758, 225, 113, 352, 240
-0.961004, 49, 97, 176, 224
-0.961189, 185, 113, 248, 240
-0.961334, 33, 161, 288, 288
-0.96135, 193, 161, 256, 288
-0.961782, 313, 161, 376, 288
-0.961989, 321, 113, 384, 240
-0.96215, 145, 145, 208, 272
-0.962318, 121, 193, 184, 320
-0.962913, 257, 161, 320, 288
-0.963259, 281, 1, 344, 64
-0.963526, 281, 161, 344, 224
-0.963594, 217, 17, 280, 80
-0.964076, 201, 41, 264, 104
-0.964189, 233, 177, 296, 304
-0.964518, 209, 49, 336, 176
-0.964712, 281, 25, 344, 88
-0.964735, 313, 65, 376, 192
-0.965232, 257, 169, 320, 232
-0.965522, 177, 49, 240, 112
-0.965978, 145, 193, 208, 320
-0.966125, 313, 25, 376, 88
-0.966191, 1, 97, 128, 224
-0.966282, 337, 113, 464, 240
-0.967007, 193, 177, 256, 240
-0.967762, 313, 185, 376, 248
-0.968003, 177, 153, 240, 216
-0.968101, 1, 97, 64, 224
-0.968528, 81, 97, 144, 224
-0.968668, 201, 65, 264, 192
-0.968967, 249, 97, 312, 224
-0.968997, 233, 1, 296, 256
-0.969585, 113, 145, 176, 272
-0.969855, 305, 177, 432, 304
-0.970135, 145, 177, 208, 240
-0.970375, 209, 1, 272, 256
-0.970588, 49, 97, 112, 224
-0.970609, 345, 129, 408, 256
-0.970624, 241, 41, 304, 104
-0.970677, 121, 97, 184, 224
-0.970808, 257, 1, 320, 256
-0.971152, 321, 161, 384, 224
-0.971541, 209, 17, 336, 80
-0.971806, 169, 177, 232, 304
-0.972127, 313, 57, 376, 120
-0.972151, 97, 145, 224, 272
-0.972547, 9, 121, 72, 184
-0.972625, 289, 185, 352, 248
-0.972686, 337, 33, 464, 160
-0.972794, 257, 9, 384, 72
-0.972865, 241, 169, 368, 232
-0.973031, 97, 49, 224, 176
-0.973238, 281, 1, 344, 256
-0.973406, 161, 97, 224, 224
-0.973725, 113, 185, 176, 248
-0.973956, 169, 129, 232, 192
-0.974068, 233, 185, 296, 248
-0.974723, 177, 73, 240, 136
-0.975104, 1, 49, 256, 176
-0.975228, 313, 33, 376, 288
-0.975403, 253, 1, 284, 64
-0.975463, 289, 129, 352, 375
-0.975508, 321, 137, 384, 200
-0.975889, 17, 97, 80, 160
-0.976069, 113, 241, 240, 368
-0.976186, 281, 57, 344, 120
-0.976343, 321, 209, 384, 336
-0.976737, 273, 49, 336, 176
-0.976739, 201, 121, 264, 184
-0.976786, 161, 225, 416, 352
-0.976869, 177, 41, 304, 104
-0.976889, 273, 57, 400, 120
-0.977144, 137, 145, 200, 208
-0.977146, 269, 17, 300, 80
-0.97726, 353, 33, 416, 160
-0.977372, 273, 33, 400, 96
-0.977526, 241, 97, 304, 352
-0.978405, 317, 1, 348, 128
-0.978426, 269, 1, 300, 128
-0.978477, 57, 105, 120, 168
-0.978666, 225, 105, 288, 168
-0.978726, 193, 177, 320, 240
-0.978778, 161, 241, 288, 368
-0.978839, 257, 241, 500, 368
-0.978937, 177, 33, 240, 288
-0.97899, 153, 49, 216, 176
-0.979042, 153, 73, 216, 136
-0.979164, 265, 129, 328, 375
-0.979293, 313, 129, 376, 375
-0.979417, 81, 105, 144, 168
-0.979576, 241, 49, 304, 176
-0.979617, 273, 81, 400, 144
-0.979793, 177, 65, 304, 128
-0.97996, 281, 1, 312, 64
-0.980014, 97, 193, 224, 320
-0.980121, 217, 33, 248, 96
-0.980167, 113, 161, 240, 224
-0.980344, 229, 17, 260, 144
-0.980364, 33, 145, 160, 272
-0.980396, 201, 65, 264, 128
-0.980475, 245, 1, 276, 128
-0.980597, 273, 145, 400, 208
-0.980648, 169, 185, 232, 248
-0.980697, 161, 153, 288, 216
-0.980988, 237, 25, 268, 88
-0.981031, 345, 145, 408, 208
-0.981106, 265, 1, 328, 375
-0.981138, 113, 121, 176, 184
-0.981343, 249, 25, 280, 88
-0.981349, 121, 97, 184, 160
-0.981364, 313, 145, 344, 272
-0.981383, 209, 33, 240, 160
-0.981569, 113, 137, 240, 200
-0.981684, 197, 145, 228, 208
-0.981895, 353, 81, 416, 208
-0.981963, 209, 153, 272, 216
-0.981991, 145, 185, 272, 248
-0.982078, 233, 161, 296, 224
-0.982109, 309, 161, 340, 224
-0.982341, 257, 281, 320, 344
-0.982427, 145, 89, 272, 152
-0.982495, 153, 65, 216, 320
-0.98262, 161, 97, 224, 160
-0.98265, 273, 169, 304, 232
-0.982809, 109, 97, 140, 224
-0.982812, 337, 185, 400, 248
-0.982923, 25, 113, 88, 240
-0.98297, 345, 177, 408, 304
-0.982973, 201, 97, 264, 352
-0.982982, 257, 209, 384, 336
-0.98299, 321, 1, 352, 64
-0.98317, 113, 161, 176, 224
-0.983282, 49, 105, 176, 168
-0.983321, 193, 49, 224, 112
-0.983371, 177, 65, 208, 128
-0.983387, 293, 153, 324, 216
-0.983428, 129, 113, 160, 240
-0.983541, 225, 73, 288, 136
-0.983602, 337, 17, 400, 80
-0.983611, 289, 185, 416, 248
-0.983628, 337, 129, 400, 375
-0.983645, 49, 49, 176, 176
-0.983714, 1, 105, 128, 168
-0.983715, 125, 161, 156, 224
-0.983729, 177, 153, 208, 216
-0.983825, 217, 177, 248, 240
-0.983859, 1, 1, 256, 128
-0.983918, 201, 89, 264, 152
-0.983924, 173, 113, 204, 240
-0.984036, 169, 257, 232, 320
-0.984136, 289, 1, 352, 375
-0.984137, 353, 57, 416, 120
-0.984138, 225, 1, 288, 375
-0.984187, 217, 113, 248, 240
-0.984215, 49, 225, 176, 352
-0.984285, 185, 49, 216, 176
-0.984385, 21, 97, 52, 160
-0.984457, 321, 209, 384, 272
-0.984495, 209, 241, 336, 368
-0.984508, 225, 49, 352, 112
-0.984554, 241, 193, 368, 256
-0.984615, 273, 161, 304, 288
-0.984645, 177, 1, 240, 128
-0.984708, 305, 1, 432, 64
-0.98484, 201, 265, 264, 328
-0.984956, 173, 65, 204, 192
-0.984973, 229, 49, 260, 112
-0.984994, 233, 97, 264, 224
-0.985005, 193, 17, 256, 80
-0.985072, 345, 177, 376, 240
-0.985189, 113, 113, 240, 176
-0.985203, 121, 49, 184, 176
-0.985306, 329, 177, 360, 304
-0.985317, 313, 185, 344, 248
-0.985364, 121, 65, 184, 320
-0.985409, 189, 113, 220, 240
-0.985436, 345, 121, 408, 184
-0.985452, 17, 49, 80, 176
-0.985482, 89, 225, 152, 352
-0.985486, 233, 273, 296, 336
-0.985486, 245, 177, 276, 304
-0.985493, 301, 145, 332, 272
-0.985639, 289, 193, 352, 320
-0.985665, 253, 185, 284, 248
-0.985694, 301, 17, 332, 80
-0.985721, 197, 169, 228, 232
-0.985792, 337, 145, 464, 208
-0.985839, 161, 1, 288, 64
-0.985871, 181, 177, 212, 304
-0.985884, 289, 1, 320, 128
-0.985891, 273, 97, 336, 224
-0.985909, 205, 49, 236, 112
-0.985926, 89, 161, 152, 288
-0.986014, 345, 129, 376, 256
-0.986039, 261, 97, 292, 224
-0.986181, 333, 185, 364, 248
-0.9862, 145, 257, 208, 320
-0.986217, 345, 177, 376, 304
-0.98624, 129, 217, 192, 280
-0.986254, 317, 41, 348, 104
-0.986335, 257, 177, 288, 304
-0.986409, 221, 161, 252, 288
-0.986419, 353, 97, 416, 160
-0.986438, 193, 113, 320, 176
-0.986466, 337, 65, 464, 128
-0.986476, 9, 97, 72, 352
-0.986488, 209, 209, 272, 336
-0.986525, 197, 121, 228, 184
-0.986528, 321, 1, 384, 375
-0.986538, 129, 257, 256, 320
-0.986567, 153, 145, 184, 272
-0.986579, 145, 193, 176, 320
-0.986582, 129, 1, 256, 128
-0.98659, 97, 65, 160, 320
-0.986682, 65, 257, 128, 320
-0.98675, 353, 33, 416, 288
-0.986844, 33, 153, 160, 216
-0.986883, 321, 113, 384, 176
-0.986922, 209, 161, 240, 288
-0.986965, 201, 1, 264, 375
-0.987027, 257, 1, 288, 128
-0.987053, 113, 145, 144, 208
-0.987111, 337, 25, 464, 88
-0.987151, 21, 81, 52, 208
-0.987217, 273, 121, 400, 184
-0.987223, 245, 113, 276, 240
-0.98729, 61, 105, 92, 168
-0.987332, 125, 161, 156, 288
-0.987336, 337, 169, 464, 232
-0.987348, 177, 129, 240, 375
-0.98735, 97, 257, 160, 320
-0.987416, 205, 113, 236, 240
-0.987422, 241, 177, 272, 240
-0.987434, 341, 1, 372, 64
-0.987446, 121, 249, 184, 312
-0.987605, 249, 241, 312, 368
-0.987654, 1, 49, 128, 176
-0.987699, 245, 49, 276, 176
-0.987718, 209, 153, 240, 216
-0.987733, 165, 73, 196, 136
-0.987775, 337, 97, 464, 160
-0.987828, 289, 25, 320, 88
-0.987862, 301, 1, 332, 128
-0.987943, 169, 1, 232, 375
-0.988036, 229, 185, 260, 248
-0.988046, 81, 161, 144, 224
-0.988086, 313, 81, 376, 144
-0.988092, 249, 97, 312, 160
-0.988188, 297, 209, 360, 272
-0.988229, 1, 225, 128, 352
-0.988238, 337, 121, 464, 184
-0.988294, 197, 177, 228, 304
-0.988333, 49, 257, 176, 320
-0.988356, 233, 177, 264, 304
-0.988425, 357, 145, 388, 272
-0.988642, 209, 145, 336, 208
-0.988647, 217, 57, 248, 120
-0.988649, 49, 97, 112, 352
-0.988654, 137, 121, 200, 184
-0.988738, 9, 1, 72, 256
-0.988802, 97, 81, 224, 144
-0.988806, 177, 265, 304, 328
-0.988859, 49, 129, 176, 192
-0.988886, 193, 89, 320, 152
-0.988921, 65, 225, 128, 352
-0.988954, 225, 9, 256, 72
-0.989002, 241, 1, 272, 64
-0.989027, 289, 145, 320, 272
-0.989087, 273, 97, 304, 224
-0.989187, 241, 49, 272, 112
-0.989189, 177, 241, 240, 368
-0.989193, 185, 129, 216, 192
-0.989202, 273, 81, 336, 144
-0.989252, 217, 121, 248, 184
-0.989277, 333, 129, 364, 256
-0.989309, 129, 49, 256, 112
-0.989333, 157, 193, 188, 320
-0.98942, 197, 49, 228, 176
-0.989452, 41, 257, 104, 320
-0.989493, 1, 265, 128, 328
-0.989499, 225, 273, 352, 336
-0.989501, 129, 185, 160, 248
-0.989581, 225, 29, 288, 60
-0.989602, 1, 113, 32, 240
-0.989604, 149, 153, 180, 216
-0.989653, 313, 1, 376, 32
-0.989778, 289, 9, 352, 40
-0.989795, 257, 305, 320, 368
-0.989827, 249, 13, 312, 44
-0.989867, 257, 193, 320, 256
-0.989892, 273, 169, 336, 200
-0.989899, 169, 177, 200, 304
-0.98991, 177, 61, 240, 92
-0.989975, 193, 25, 448, 88
-0.989987, 149, 177, 180, 240
-0.990008, 241, 49, 304, 80
-0.990024, 297, 289, 360, 352
-0.990025, 209, 41, 272, 72
-0.990027, 41, 49, 104, 176
-0.990036, 361, 25, 424, 88
-0.990092, 97, 185, 224, 248
-0.990095, 41, 129, 104, 192
-0.990172, 321, 185, 384, 216
-0.990174, 145, 1, 208, 128
-0.990198, 161, 65, 192, 192
-0.99021, 153, 233, 216, 296
-0.990214, 57, 97, 88, 224
-0.99025, 169, 121, 200, 184
-0.990266, 313, 13, 376, 44
-0.990304, 289, 25, 352, 56
-0.990317, 257, 297, 384, 360
-0.990411, 161, 73, 224, 104
-0.990427, 313, 69, 376, 100
-0.990434, 313, 49, 376, 80
-0.990453, 153, 49, 216, 112
-0.99048, 289, 209, 416, 272
-0.990513, 249, 73, 312, 136
-0.990515, 185, 181, 248, 212
-0.99052, 357, 145, 388, 208
-0.990575, 249, 29, 312, 60
-0.990592, 97, 97, 128, 224
-0.990656, 321, 173, 384, 204
-0.990681, 169, 177, 200, 240
-0.99073, 225, 189, 288, 220
-0.990743, 117, 105, 148, 168
-0.990781, 353, 161, 480, 288
-0.990801, 281, 65, 344, 96
-0.990802, 49, 113, 80, 176
-0.990802, 257, 181, 320, 212
-0.990831, 185, 49, 248, 80
-0.990833, 1, 133, 64, 164
-0.99087, 133, 121, 164, 184
-0.99089, 345, 1, 408, 375
-0.990913, 161, 145, 192, 208
-0.990923, 169, 145, 232, 176
-0.990952, 1, 129, 128, 192
-0.99096, 321, 65, 352, 128
-0.990966, 201, 65, 264, 96
-0.991042, 113, 185, 176, 216
-0.991052, 289, 181, 352, 212
-0.991083, 113, 241, 176, 368
-0.991087, 321, 37, 384, 68
-0.99109, 313, 25, 376, 56
-0.991098, 145, 189, 208, 220
-0.991113, 145, 1, 208, 375
-0.991116, 321, 161, 384, 192
-0.991161, 137, 177, 200, 208
-0.99119, 265, 41, 328, 72
-0.991195, 161, 85, 224, 116
-0.991201, 193, 1, 448, 64
-0.99122, 233, 305, 296, 368
-0.991224, 201, 241, 264, 304
-0.991254, 169, 165, 232, 196
-0.991256, 321, 197, 384, 228
-0.99126, 237, 81, 268, 144
-0.991282, 113, 173, 176, 204
-0.991313, 281, 53, 344, 84
-0.991316, 17, 265, 80, 328
-0.991338, 225, 173, 288, 204
-0.991354, 353, 1, 480, 64
-0.991364, 185, 81, 248, 112
-0.991375, 17, 121, 80, 152
-0.991444, 113, 145, 144, 272
-0.991474, 241, 1, 304, 32
-0.991501, 41, 137, 72, 200
-0.991559, 193, 113, 448, 176
-0.991577, 169, 133, 232, 164
-0.991602, 297, 177, 328, 240
-0.991606, 217, 53, 280, 84
-0.991609, 81, 109, 144, 140
-0.991637, 121, 105, 184, 136
-0.991648, 281, 193, 344, 224
-0.991654, 225, 13, 288, 44
-0.991654, 193, 269, 256, 300
-0.991655, 289, 37, 352, 68
-0.991659, 137, 157, 200, 188
-0.991662, 101, 105, 132, 168
-0.991668, 73, 65, 136, 320
-0.991672, 225, 109, 288, 140
-0.991684, 1, 121, 32, 184
-0.991718, 17, 105, 80, 136
-0.991726, 77, 97, 108, 224
-0.991734, 221, 65, 252, 192
-0.991755, 297, 165, 360, 196
-0.991792, 217, 273, 280, 304
-0.991823, 305, 241, 432, 368
-0.99184, 249, 169, 312, 200
-0.99184, 129, 93, 192, 124
-0.991865, 257, 145, 320, 208
-0.991883, 281, 77, 344, 108
-0.991896, 201, 193, 264, 224
-0.99191, 185, 185, 216, 248
-0.991913, 225, 249, 288, 312
-0.991924, 113, 201, 176, 232
-0.991949, 189, 81, 220, 144
-0.991964, 41, 265, 104, 296
-0.991975, 169, 265, 232, 296
-0.991978, 193, 149, 256, 180
-0.991987, 241, 61, 304, 92
-0.991996, 145, 261, 208, 292
-0.991996, 49, 109, 112, 140
-0.992004, 1, 145, 500, 208
-0.992068, 313, 149, 376, 180
-0.992088, 121, 73, 184, 136
-0.992117, 145, 205, 208, 236
-0.992124, 113, 261, 176, 292
-0.992132, 361, 1, 392, 128
-0.992136, 201, 29, 264, 60
-0.992144, 129, 25, 256, 88
-0.992144, 145, 145, 208, 176
-0.992158, 241, 85, 304, 116
-0.992169, 89, 169, 152, 200
-0.992175, 345, 141, 408, 172
-0.992175, 89, 261, 152, 292
-0.992188, 41, 125, 104, 156
-0.992192, 337, 193, 464, 256
-0.992195, 353, 65, 416, 96
-0.992201, 161, 209, 288, 272
-0.992205, 113, 157, 176, 188
-0.992241, 353, 25, 416, 56
-0.992254, 81, 233, 208, 296
-0.992266, 201, 201, 264, 264
-0.992287, 241, 97, 304, 128
-0.992287, 337, 1, 400, 32
-0.9923, 193, 153, 448, 216
-0.992305, 273, 157, 336, 188
-0.992305, 345, 169, 408, 200
-0.992318, 321, 81, 384, 112
-0.992318, 113, 129, 176, 160
-0.992319, 265, 1, 328, 32
-0.99232, 249, 193, 312, 224
-0.992328, 65, 261, 128, 292
-0.992345, 249, 109, 312, 140
-0.992358, 193, 49, 448, 112
-0.992361, 41, 89, 72, 152
-0.992399, 9, 269, 72, 300
-0.992416, 241, 325, 304, 356
-0.992422, 321, 213, 384, 244
-0.992429, 209, 125, 272, 156
-0.99244, 81, 337, 144, 368
-0.992449, 137, 69, 200, 100
-0.992458, 193, 177, 448, 240
-0.992463, 241, 277, 304, 308
-0.992472, 225, 201, 288, 232
-0.992482, 285, 177, 316, 240
-0.992484, 345, 157, 408, 188
-0.992487, 317, 193, 348, 320
-0.992487, 253, 29, 284, 60
-0.992499, 321, 137, 384, 168
-0.992509, 345, 53, 408, 84
-0.992527, 161, 177, 224, 208
-0.992549, 345, 129, 408, 160
-0.992555, 105, 337, 168, 368
-0.992556, 353, 77, 416, 108
-0.992557, 269, 41, 300, 104
-0.99257, 249, 289, 312, 320
-0.992576, 269, 17, 300, 48
-0.992592, 121, 213, 184, 244
-0.992597, 289, 205, 352, 236
-0.992597, 81, 1, 208, 128
-0.992601, 289, 273, 416, 336
-0.992605, 265, 97, 328, 128
-0.992609, 41, 1, 104, 256
-0.992613, 337, 13, 400, 44
-0.992616, 217, 181, 248, 212
-0.992634, 345, 37, 408, 68
-0.992637, 225, 161, 288, 192
-0.992637, 329, 1, 360, 128
-0.992646, 297, 241, 360, 368
-0.992651, 149, 97, 180, 224
-0.992659, 153, 97, 216, 128
-0.992669, 345, 109, 408, 140
-0.992674, 121, 117, 184, 148
-0.992681, 353, 97, 416, 128
-0.992683, 233, 105, 264, 168
-0.992712, 369, 241, 496, 368
-0.992717, 137, 81, 200, 112
-0.992718, 309, 173, 340, 204
-0.992734, 317, 9, 348, 40
-0.992742, 273, 41, 304, 72
-0.992747, 321, 93, 384, 124
-0.992747, 1, 145, 64, 176
-0.992748, 233, 45, 264, 76
-0.99275, 257, 105, 288, 168
-0.99275, 241, 201, 272, 264
-0.992757, 321, 125, 384, 156
-0.992761, 41, 137, 104, 168
-0.992767, 273, 169, 304, 200
-0.992772, 153, 57, 216, 88
-0.992778, 241, 73, 304, 104
-0.992791, 285, 297, 316, 360
-0.992792, 201, 169, 264, 200
-0.992801, 361, 49, 392, 176
-0.992805, 257, 1, 288, 32
-0.992821, 213, 57, 244, 88
-0.992823, 57, 337, 120, 368
-0.99283, 281, 9, 312, 40
-0.992834, 193, 81, 448, 144
-0.992836, 285, 169, 316, 200
-0.992837, 297, 265, 360, 328
-0.99284, 173, 77, 204, 108
-0.992851, 305, 297, 432, 360
-0.992862, 201, 65, 232, 96
-0.992864, 217, 73, 248, 104
-0.99288, 129, 333, 192, 364
-0.99288, 265, 313, 328, 344
-0.99289, 265, 301, 328, 332
-0.992893, 181, 65, 212, 96
-0.992911, 361, 41, 392, 104
-0.992915, 297, 173, 328, 204
-0.992916, 337, 1, 368, 32
-0.992917, 321, 109, 384, 140
-0.992924, 125, 169, 156, 200
-0.992927, 237, 189, 268, 220
-0.992938, 89, 121, 152, 152
-0.992944, 197, 169, 228, 200
-0.992947, 225, 57, 256, 88
-0.99295, 197, 145, 228, 176
-0.992951, 197, 185, 228, 216
-0.992952, 97, 233, 160, 296
-0.992955, 233, 21, 264, 52
-0.992958, 245, 9, 276, 40
-0.99296, 1, 105, 256, 168
-0.992977, 145, 133, 208, 164
-0.992979, 301, 21, 332, 52
-0.99298, 129, 181, 160, 212
-0.992989, 189, 77, 220, 108
-0.992991, 281, 145, 312, 208
-0.992997, 169, 153, 200, 184
-0.993004, 129, 97, 160, 160
-0.993009, 113, 145, 176, 176
-0.993015, 1, 169, 500, 232
-0.993028, 113, 177, 144, 240
-0.993042, 193, 257, 224, 320
-0.993045, 113, 161, 144, 192
-0.993053, 257, 49, 288, 80
-0.993054, 245, 49, 276, 80
-0.993059, 289, 29, 320, 60
-0.993064, 237, 61, 268, 92
-0.993072, 189, 53, 220, 84
-0.993074, 169, 89, 200, 120
-0.993093, 269, 181, 300, 212
-0.993101, 317, 53, 348, 84
-0.99311, 177, 137, 208, 168
-0.993112, 241, 33, 272, 64
-0.993113, 89, 49, 152, 176
-0.99312, 137, 241, 200, 368
-0.993125, 217, 41, 248, 72
-0.993136, 317, 37, 348, 68
-0.993138, 129, 233, 256, 296
-0.993144, 109, 173, 140, 204
-0.99315, 253, 189, 284, 220
-0.993152, 277, 29, 308, 60
-0.993152, 45, 125, 76, 156
-0.993158, 309, 161, 340, 192
-0.993161, 297, 161, 328, 192
-0.993162, 81, 313, 144, 375
-0.993166, 341, 1, 372, 128
-0.99317, 49, 177, 176, 240
-0.993176, 1, 141, 32, 172
-0.993179, 29, 121, 60, 184
-0.993185, 169, 165, 200, 196
-0.993187, 121, 109, 152, 140
-0.993192, 61, 109, 92, 140
-0.993192, 157, 141, 188, 172
-0.993195, 205, 45, 236, 76
-0.993196, 189, 157, 220, 188
-0.993203, 317, 21, 348, 52
-0.993209, 313, 65, 344, 96
-0.993233, 345, 177, 376, 208
-0.993239, 149, 173, 180, 204
-0.993239, 65, 49, 128, 176
-0.993243, 201, 265, 232, 296
-0.993244, 221, 29, 252, 60
-0.99325, 209, 165, 240, 196
-0.993254, 177, 233, 304, 296
-0.99326, 221, 269, 252, 300
-0.993267, 285, 181, 316, 212
-0.99327, 321, 177, 352, 208
-0.993286, 41, 113, 72, 144
-0.993288, 177, 177, 208, 208
-0.993289, 261, 105, 292, 136
-0.993294, 161, 77, 192, 108
-0.993295, 357, 145, 388, 176
-0.993296, 153, 89, 184, 152
-0.993299, 185, 189, 216, 220
-0.993301, 321, 161, 352, 224
-0.993306, 237, 109, 268, 140
-0.993308, 237, 273, 268, 304
-0.993308, 45, 129, 76, 256
-0.993308, 157, 93, 188, 124
-0.993309, 113, 149, 144, 180
-0.993312, 357, 129, 388, 160
-0.993315, 169, 65, 200, 96
-0.993316, 125, 157, 156, 188
-0.993321, 201, 77, 232, 108
-0.993324, 65, 313, 192, 375
-0.993327, 185, 93, 216, 124
-0.993335, 1, 121, 500, 184
-0.993339, 329, 61, 360, 92
-0.993339, 37, 137, 68, 168
-0.993341, 297, 185, 328, 216
-0.993343, 169, 261, 200, 292
-0.993343, 153, 261, 184, 292
-0.993344, 149, 185, 180, 216
-0.993347, 137, 261, 168, 292
-0.993352, 21, 105, 52, 136
-0.993353, 189, 265, 220, 296
-0.993358, 197, 133, 228, 164
-0.993359, 121, 261, 152, 292
-0.99336, 105, 109, 136, 140
-0.99337, 133, 105, 164, 136
-0.993378, 221, 193, 252, 224
-0.993378, 309, 185, 340, 216
-0.993379, 5, 129, 36, 160
-0.993388, 21, 129, 52, 160
-0.993388, 73, 265, 104, 296
-0.99339, 57, 265, 88, 296
-0.993391, 225, 113, 256, 144
-0.993392, 1, 1, 64, 375
-0.993393, 273, 101, 304, 132
-0.993393, 265, 29, 296, 60
-0.993395, 249, 109, 280, 140
-0.993395, 213, 9, 244, 72
-0.993399, 249, 273, 280, 304
-0.9934, 217, 125, 248, 156
-0.993406, 361, 25, 392, 56
-0.993406, 357, 169, 388, 232
-0.993412, 249, 201, 280, 232
-0.993413, 129, 193, 160, 224
-0.993413, 325, 73, 356, 104
-0.993413, 109, 261, 140, 292
-0.993416, 149, 201, 180, 232
-0.993416, 253, 161, 284, 224
-0.993422, 93, 261, 124, 292
-0.993422, 117, 185, 148, 216
-0.993425, 329, 213, 360, 244
-0.99343, 357, 169, 388, 200
-0.993431, 149, 153, 180, 184
-0.993435, 257, 17, 288, 48
-0.993441, 165, 105, 196, 136
-0.993441, 361, 53, 392, 84
-0.993445, 329, 189, 360, 220
-0.993447, 269, 1, 300, 32
-0.993448, 57, 133, 88, 164
-0.99345, 333, 173, 364, 204
-0.993451, 313, 197, 344, 228
-0.993453, 301, 5, 332, 36
-0.993455, 21, 117, 52, 148
-0.993456, 361, 1, 392, 32
-0.99346, 361, 41, 392, 72
-0.993463, 173, 189, 204, 220
-0.993466, 357, 113, 388, 176
-0.993468, 361, 1, 392, 64
-0.993528, 169, 25, 232, 88
-0.993576, 329, 33, 360, 96
-0.993614, 17, 313, 144, 375
-0.993663, 341, 33, 372, 96
-0.993682, 345, 153, 376, 216
-0.993687, 81, 81, 144, 144
-0.993773, 177, 97, 208, 160
-0.993802, 213, 81, 244, 144
-0.993817, 289, 137, 352, 200
-0.99384, 241, 173, 368, 204
-0.993869, 357, 97, 388, 224
-0.993891, 45, 65, 76, 192
-0.993894, 181, 1, 212, 128
-0.993908, 329, 209, 360, 272
-0.993919, 129, 41, 192, 104
-0.993958, 285, 81, 316, 208
-0.99405, 101, 145, 132, 208
-0.994094, 321, 65, 352, 192
-0.994213, 105, 209, 168, 272
-0.994244, 49, 81, 176, 144
-0.994328, 225, 249, 352, 312
-0.994353, 181, 257, 212, 320
-0.994364, 97, 1, 160, 375
-0.994382, 89, 105, 120, 168
-0.994386, 49, 313, 112, 375
-0.994394, 97, 81, 352, 144
-0.994417, 93, 225, 124, 352
-0.994419, 133, 225, 164, 352
-0.994428, 101, 257, 132, 320
-0.994449, 33, 113, 64, 240
-0.994454, 1, 81, 500, 144
-0.99446, 333, 1, 348, 64
-0.994461, 169, 257, 200, 320
-0.994521, 265, 1, 280, 64
-0.994545, 193, 45, 320, 76
-0.994567, 125, 257, 156, 320
-0.994572, 345, 209, 408, 272
-0.994618, 385, 33, 448, 96
-0.994625, 273, 9, 400, 40
-0.994625, 273, 29, 400, 60
-0.994643, 265, 273, 296, 336
-0.994652, 273, 185, 400, 216
-0.994656, 109, 225, 140, 352
-0.994672, 361, 65, 392, 128
-0.994688, 273, 61, 400, 92
-0.994701, 81, 137, 144, 200
-0.994726, 1, 257, 256, 320
-0.994735, 325, 33, 340, 96
-0.994739, 141, 249, 172, 312
-0.994744, 97, 145, 352, 208
-0.994774, 205, 257, 236, 320
-0.994786, 1, 81, 128, 144
-0.994787, 237, 265, 268, 328
-0.994818, 161, 189, 288, 220
-0.994829, 97, 57, 352, 120
-0.994829, 97, 177, 352, 240
-0.99483, 273, 73, 304, 136
-0.994831, 209, 297, 336, 360
-0.994841, 161, 305, 288, 368
-0.99485, 121, 273, 184, 336
-0.994859, 193, 57, 320, 88
-0.994864, 181, 41, 212, 104
-0.994878, 157, 249, 188, 312
-0.994884, 121, 1, 184, 375
-0.994916, 141, 145, 172, 272
-0.994925, 225, 185, 352, 216
-0.994945, 127, 153, 142, 216
-0.994979, 137, 153, 168, 216
-0.994984, 41, 241, 104, 368
-0.994988, 273, 73, 400, 104
-0.994994, 49, 1, 112, 375
-0.995002, 327, 9, 342, 72
-0.995056, 121, 225, 152, 352
-0.995102, 257, 41, 384, 72
-0.995119, 65, 233, 128, 296
-0.995141, 287, 1, 302, 64
-0.995183, 225, 21, 352, 52
-0.99523, 361, 89, 392, 152
-0.995235, 273, 161, 400, 192
-0.995287, 273, 85, 400, 116
-0.995305, 113, 313, 240, 375
-0.995342, 33, 233, 160, 296
-0.995354, 113, 257, 144, 320
-0.995371, 225, 81, 256, 144
-0.995373, 209, 33, 336, 64
-0.995407, 339, 1, 354, 64
-0.995473, 155, 177, 170, 240
-0.995505, 33, 73, 96, 136
-0.995526, 77, 105, 108, 168
-0.99553, 259, 1, 274, 64
-0.995535, 133, 65, 164, 192
-0.995557, 73, 1, 136, 375
-0.995559, 245, 105, 276, 168
-0.995584, 165, 97, 196, 160
-0.995584, 273, 97, 400, 128
-0.995608, 333, 161, 364, 224
-0.995659, 253, 9, 268, 72
-0.995663, 293, 49, 324, 112
-0.995677, 273, 49, 304, 176
-0.995679, 13, 121, 44, 184
-0.995728, 275, 169, 290, 232
-0.995729, 345, 209, 376, 272
-0.995732, 129, 177, 256, 208
-0.995739, 81, 225, 112, 352
-0.995742, 321, 1, 336, 64
-0.995746, 331, 33, 346, 96
-0.995748, 193, 69, 320, 100
-0.995774, 261, 49, 292, 176
-0.99579, 17, 241, 80, 304
-0.995792, 113, 1, 240, 64
-0.995796, 215, 145, 230, 208
-0.995819, 277, 9, 292, 72
-0.995826, 361, 1, 424, 64
-0.995852, 211, 121, 226, 184
-0.995856, 121, 65, 152, 192
-0.995871, 241, 201, 368, 232
-0.995888, 257, 257, 320, 320
-0.995891, 225, 9, 352, 40
-0.995891, 231, 25, 246, 88
-0.99591, 305, 97, 336, 224
-0.995927, 369, 297, 496, 360
-0.995938, 1, 57, 500, 120
-0.995946, 241, 17, 256, 80
-0.995947, 177, 233, 240, 296
-0.995994, 121, 313, 184, 375
-0.99601, 1, 137, 256, 200
-0.996014, 345, 81, 376, 208
-0.996063, 145, 217, 176, 280
-0.996111, 361, 177, 424, 240
-0.996133, 193, 173, 320, 204
-0.996147, 97, 265, 352, 328
-0.996156, 149, 121, 180, 184
-0.996168, 141, 89, 172, 152
-0.996173, 303, 161, 318, 224
-0.996185, 213, 1, 244, 256
-0.996199, 345, 225, 408, 352
-0.996209, 1, 33, 500, 96
-0.996216, 341, 57, 372, 120
-0.99623, 81, 33, 208, 96
-0.99623, 235, 185, 250, 248
-0.996261, 271, 9, 286, 72
-0.996265, 335, 185, 350, 248
-0.996271, 241, 241, 272, 368
-0.996271, 215, 169, 230, 232
-0.996276, 269, 1, 300, 256
-0.99628, 49, 109, 176, 140
-0.996289, 97, 113, 352, 176
-0.996308, 223, 33, 238, 96
-0.99632, 197, 193, 228, 256
-0.99633, 327, 57, 342, 120
-0.996334, 207, 145, 222, 208
-0.996357, 113, 165, 240, 196
-0.996369, 293, 1, 308, 64
-0.996392, 249, 265, 280, 328
-0.996404, 1, 9, 500, 72
-0.996407, 225, 265, 256, 328
-0.99642, 297, 153, 312, 216
-0.996425, 225, 1, 256, 256
-0.996426, 127, 129, 142, 192
-0.996444, 127, 105, 142, 168
-0.996447, 129, 265, 256, 296
-0.996448, 153, 209, 216, 272
-0.996452, 89, 257, 120, 320
-0.996452, 97, 1, 352, 64
-0.996455, 353, 185, 368, 248
-0.996462, 201, 145, 216, 208
-0.996466, 241, 41, 256, 104
-0.996482, 89, 185, 152, 248
-0.996488, 277, 97, 308, 160
-0.996505, 289, 173, 416, 204
-0.996512, 201, 89, 232, 152
-0.996522, 319, 25, 334, 88
-0.996524, 169, 225, 200, 352
-0.996526, 195, 57, 210, 120
-0.99653, 257, 1, 288, 256
-0.99654, 153, 153, 168, 216
-0.996548, 65, 257, 96, 320
-0.996564, 245, 185, 260, 248
-0.996564, 357, 193, 388, 320
-0.996576, 323, 161, 338, 224
-0.996586, 325, 185, 340, 248
-0.996589, 185, 57, 200, 120
-0.996594, 97, 25, 352, 88
-0.996594, 249, 33, 264, 96
-0.996595, 265, 25, 280, 88
-0.996598, 45, 257, 76, 320
-0.996608, 25, 1, 88, 375
-0.99661, 237, 65, 268, 320
-0.996611, 217, 41, 232, 104
-0.996646, 1, 193, 500, 256
-0.996647, 257, 297, 500, 360
-0.996648, 179, 65, 194, 128
-0.996652, 269, 177, 284, 240
-0.996656, 309, 161, 324, 224
-0.996675, 321, 273, 384, 336
-0.99669, 205, 49, 220, 112
-0.996708, 337, 273, 464, 336
-0.996727, 161, 33, 288, 64
-0.996728, 231, 49, 246, 112
-0.996732, 261, 241, 292, 368
-0.996734, 81, 261, 208, 292
-0.996758, 193, 85, 320, 116
-0.996758, 1, 129, 16, 192
-0.996768, 129, 149, 256, 180
-0.996776, 345, 121, 376, 184
-0.996783, 229, 177, 244, 240
-0.996788, 211, 49, 226, 112
-0.996789, 113, 113, 240, 144
-0.996799, 193, 161, 320, 192
-0.996804, 1, 161, 256, 224
-0.996806, 217, 121, 232, 184
-0.996812, 281, 1, 312, 256
-0.996814, 259, 25, 274, 88
-0.99682, 345, 185, 360, 248
-0.996821, 265, 305, 296, 368
-0.996839, 191, 153, 206, 216
-0.996856, 127, 177, 142, 240
-0.996878, 433, 49, 496, 112
-0.996886, 273, 149, 400, 180
-0.996889, 317, 161, 332, 224
-0.996898, 113, 189, 240, 220
-0.996898, 63, 105, 78, 168
-0.996918, 57, 81, 120, 144
-0.996918, 145, 77, 272, 108
-0.996962, 97, 101, 224, 132
-0.996969, 49, 337, 176, 368
-0.996995, 263, 185, 278, 248
-0.997003, 273, 137, 400, 168
-0.997004, 17, 265, 144, 296
-0.997012, 337, 145, 464, 176
-0.997014, 191, 185, 206, 248
-0.997034, 337, 53, 464, 84
-0.997038, 291, 25, 306, 88
-0.997054, 321, 1, 448, 32
-0.997054, 201, 25, 232, 88
-0.997055, 165, 153, 180, 216
-0.99706, 177, 21, 304, 52
-0.997061, 183, 153, 198, 216
-0.997062, 253, 185, 268, 248
-0.997064, 173, 145, 188, 208
-0.997067, 329, 297, 392, 360
-0.99707, 1, 49, 32, 176
-0.997082, 293, 1, 324, 256
-0.997086, 173, 233, 204, 296
-0.997091, 129, 281, 256, 344
-0.997091, 177, 269, 304, 300
-0.997095, 221, 145, 236, 208
-0.997112, 239, 89, 254, 152
-0.997124, 359, 177, 374, 240
-0.997126, 291, 161, 306, 224
-0.997135, 233, 209, 296, 272
-0.997137, 147, 177, 162, 240
-0.997139, 337, 25, 464, 56
-0.997149, 77, 257, 108, 320
-0.997149, 191, 129, 206, 192
-0.997156, 305, 197, 432, 228
-0.997167, 247, 9, 262, 72
-0.997203, 97, 49, 128, 176
-0.997207, 337, 97, 464, 128
-0.997209, 319, 49, 334, 112
-0.997226, 309, 1, 340, 256
-0.997235, 301, 193, 332, 320
-0.997245, 145, 101, 272, 132
-0.997268, 313, 129, 344, 375
-0.997268, 135, 121, 150, 184
-0.997269, 311, 17, 326, 80
-0.997279, 321, 37, 448, 68
-0.997283, 337, 173, 464, 204
-0.997289, 145, 65, 272, 96
-0.997289, 193, 201, 448, 264
-0.997327, 337, 25, 352, 88
-0.997328, 173, 73, 188, 136
-0.997379, 273, 125, 400, 156
-0.99738, 117, 105, 132, 168
-0.997394, 209, 185, 224, 248
-0.997402, 201, 169, 216, 232
-0.997408, 225, 121, 240, 184
-0.997408, 281, 169, 296, 232
-0.997413, 221, 169, 236, 232
-0.997413, 337, 121, 464, 152
-0.997416, 205, 121, 220, 184
-0.997417, 135, 97, 150, 160
-0.997429, 113, 137, 240, 168
-0.997443, 237, 241, 268, 304
-0.997446, 305, 137, 336, 200
-0.997452, 233, 113, 248, 176
-0.997476, 345, 129, 376, 375
-0.997484, 273, 249, 400, 312
-0.997488, 249, 81, 280, 144
-0.997489, 353, 133, 480, 164
-0.997492, 145, 45, 272, 76
-0.997495, 189, 65, 220, 320
-0.997511, 201, 33, 232, 288
-0.997512, 293, 129, 324, 375
-0.997532, 363, 105, 378, 168
-0.997551, 177, 117, 304, 148
-0.997554, 97, 289, 352, 352
-0.997557, 321, 33, 352, 288
-0.997568, 1, 145, 64, 208
-0.997573, 273, 109, 400, 140
-0.99759, 211, 81, 226, 144
-0.99759, 253, 97, 284, 352
-0.997593, 177, 113, 192, 176
-0.997615, 177, 281, 304, 312
-0.997624, 49, 133, 176, 164
-0.997626, 97, 333, 224, 364
-0.997631, 81, 153, 208, 184
-0.997632, 109, 49, 140, 176
-0.997636, 337, 77, 464, 108
-0.997638, 289, 305, 416, 336
-0.997639, 181, 225, 212, 352
-0.99764, 337, 109, 464, 140
-0.997641, 225, 1, 240, 64
-0.997655, 161, 185, 176, 248
-0.997664, 297, 313, 360, 375
-0.997666, 167, 81, 182, 144
-0.997668, 127, 165, 142, 196
-0.997669, 155, 201, 170, 264
-0.997676, 133, 161, 148, 224
-0.997685, 369, 289, 432, 352
-0.997691, 49, 121, 176, 152
-0.997697, 117, 145, 132, 208
-0.997704, 319, 185, 334, 248
-0.997705, 285, 25, 300, 88
-0.997711, 145, 89, 272, 120
-0.997712, 333, 57, 348, 120
-0.997728, 257, 105, 272, 168
-0.99773, 201, 97, 216, 160
-0.997733, 327, 13, 342, 44
-0.997734, 121, 169, 136, 232
-0.997744, 7, 129, 22, 192
-0.997747, 311, 185, 326, 248
-0.997762, 49, 281, 176, 344
-0.997762, 173, 33, 204, 288
-0.997763, 1, 113, 128, 144
-0.997769, 337, 65, 464, 96
-0.997769, 51, 145, 66, 208
-0.997771, 161, 17, 192, 144
-0.997776, 329, 57, 344, 88
-0.997784, 129, 65, 160, 320
-0.997789, 291, 169, 306, 200
-0.997795, 1, 313, 256, 375
-0.997796, 225, 293, 352, 324
-0.997796, 197, 121, 212, 184
-0.997804, 185, 185, 200, 248
-0.997811, 325, 129, 356, 375
-0.997812, 93, 105, 108, 168
-0.997822, 235, 1, 250, 64
-0.997825, 225, 97, 256, 352
-0.997837, 49, 165, 176, 196
-0.997847, 185, 65, 200, 96
-0.99785, 1, 129, 128, 160
-0.997862, 321, 37, 336, 68
-0.997871, 161, 9, 288, 40
-0.997872, 163, 121, 178, 184
-0.997876, 329, 29, 344, 60
-0.997879, 177, 201, 304, 232
-0.997881, 269, 97, 300, 352
-0.997883, 153, 173, 168, 204
-0.997886, 97, 313, 352, 375
-0.997888, 129, 125, 256, 156
-0.997899, 305, 185, 320, 248
-0.997915, 283, 33, 298, 64
-0.997915, 301, 169, 316, 200
-0.997926, 23, 97, 38, 160
-0.997927, 251, 37, 266, 68
-0.997934, 321, 185, 448, 216
-0.997951, 263, 161, 278, 224
-0.997953, 273, 213, 400, 244
-0.997954, 159, 153, 174, 216
-0.997961, 327, 41, 342, 72
-0.997967, 363, 145, 378, 208
-0.997974, 297, 177, 312, 240
-0.997976, 337, 157, 464, 188
-0.997976, 129, 257, 144, 320
-0.997981, 345, 1, 360, 64
-0.997982, 275, 173, 290, 204
-0.997985, 329, 161, 344, 224
-0.997986, 177, 73, 192, 104
-0.997992, 323, 57, 338, 88
-0.997992, 69, 105, 84, 168
-0.997995, 181, 257, 196, 320
-0.997996, 249, 65, 264, 128
-0.998005, 215, 61, 230, 92
-0.998019, 201, 73, 216, 136
-0.998026, 43, 129, 58, 192
-0.998034, 167, 185, 182, 248
-0.998039, 335, 5, 350, 36
-0.998042, 241, 65, 256, 128
-0.998043, 17, 149, 144, 180
-0.998054, 321, 9, 336, 40
-0.998055, 321, 13, 448, 44
-0.99806, 207, 257, 222, 320
-0.99806, 171, 121, 186, 184
-0.998061, 151, 185, 166, 216
-0.998061, 187, 81, 202, 144
-0.998065, 13, 121, 28, 184
-0.998065, 79, 105, 94, 168
-0.998066, 81, 177, 208, 208
-0.99807, 155, 205, 170, 236
-0.998073, 225, 109, 352, 140
-0.998076, 97, 73, 224, 104
-0.998076, 283, 13, 298, 44
-0.998076, 267, 25, 282, 56
-0.998079, 191, 61, 206, 92
-0.998084, 281, 129, 312, 375
-0.998087, 225, 225, 352, 288
-0.998088, 195, 73, 210, 104
-0.998091, 267, 1, 282, 32
-0.998098, 321, 21, 336, 52
-0.998104, 357, 129, 388, 375
-0.998109, 285, 169, 300, 200
-0.998113, 69, 225, 100, 352
-0.998119, 149, 49, 180, 176
-0.998121, 215, 181, 230, 212
-0.998131, 221, 57, 236, 88
-0.998136, 129, 201, 256, 232
-0.998141, 335, 21, 350, 52
-0.998142, 211, 145, 226, 176
-0.998149, 1, 305, 500, 368
-0.998149, 201, 241, 232, 368
-0.998149, 189, 77, 204, 108
-0.998156, 323, 69, 338, 100
-0.998164, 341, 1, 356, 32
-0.99817, 243, 189, 258, 220
-0.998173, 231, 69, 246, 100
-0.998174, 161, 137, 288, 168
-0.998174, 307, 173, 322, 204
-0.998175, 109, 97, 140, 352
-0.998176, 229, 49, 244, 80
-0.998183, 291, 25, 306, 56
-0.998184, 261, 33, 276, 64
-0.99819, 161, 65, 192, 320
-0.9982, 313, 173, 328, 204
-0.998202, 273, 21, 288, 52
-0.998202, 171, 89, 186, 120
-0.998209, 289, 5, 304, 36
-0.99821, 127, 185, 142, 216
-0.998219, 333, 33, 364, 288
-0.998224, 225, 281, 352, 312
-0.998233, 127, 109, 142, 140
-0.998238, 241, 45, 256, 76
-0.998239, 409, 297, 472, 360
-0.998256, 207, 65, 222, 96
-0.998257, 289, 293, 416, 324
-0.998261, 7, 133, 22, 164
-0.998262, 333, 41, 348, 72
-0.99827, 273, 41, 288, 72
-0.998283, 327, 1, 342, 32
-0.998295, 33, 325, 160, 356
-0.998296, 193, 273, 448, 336
-0.998296, 179, 89, 194, 120
-0.998306, 221, 177, 236, 208
-0.99831, 273, 103, 304, 118
-0.99831, 209, 269, 240, 284
-0.998311, 237, 197, 268, 212
-0.998311, 317, 39, 348, 54
-0.998312, 229, 181, 244, 212
-0.998312, 197, 129, 228, 144
-0.998312, 149, 173, 180, 188
-0.998313, 173, 139, 204, 154
-0.998313, 185, 189, 216, 204
-0.998313, 5, 137, 36, 152
-0.998314, 253, 201, 284, 216
-0.998314, 113, 167, 144, 182
-0.998315, 317, 7, 348, 22
-0.998316, 117, 187, 148, 202
-0.998317, 61, 109, 92, 124
-0.998317, 301, 31, 332, 46
-0.998318, 321, 73, 352, 88
-0.998319, 49, 143, 80, 158
-0.998321, 297, 177, 328, 192
-0.998321, 125, 119, 156, 134
-0.998321, 221, 271, 252, 286
-0.998321, 309, 205, 340, 220
-0.998321, 41, 117, 72, 132
-0.998321, 217, 157, 232, 188
-0.998322, 267, 45, 282, 76
-0.998322, 273, 49, 304, 64
-0.998324, 333, 3, 364, 18
-0.998324, 149, 183, 180, 198
-0.998325, 357, 149, 388, 164
-0.998327, 317, 67, 348, 82
-0.998328, 113, 179, 144, 194
-0.998328, 109, 111, 140, 126
-0.998328, 317, 79, 348, 94
-0.998329, 357, 137, 388, 152
-0.998329, 201, 55, 232, 70
-0.998329, 229, 29, 260, 44
-0.998329, 177, 95, 208, 110
-0.99833, 329, 175, 360, 190
-0.99833, 261, 43, 292, 58
-0.998331, 21, 133, 52, 148
-0.998332, 329, 189, 360, 204
-0.998332, 281, 21, 312, 36
-0.998332, 253, 189, 284, 204
-0.998332, 325, 177, 340, 208
-0.998333, 173, 103, 204, 118
-0.998335, 157, 149, 188, 164
-0.998335, 265, 189, 280, 220
-0.998336, 1, 101, 128, 132
-0.998337, 125, 161, 156, 176
-0.998337, 249, 19, 280, 34
-0.998338, 253, 11, 284, 26
-0.998338, 129, 189, 160, 204
-0.998339, 65, 105, 80, 136
-0.998339, 165, 95, 196, 110
-0.998339, 241, 25, 272, 40
-0.99834, 169, 145, 200, 160
-0.998341, 321, 33, 352, 48
-0.998343, 349, 175, 380, 190
-0.998344, 229, 35, 260, 50
-0.998344, 217, 123, 248, 138
-0.998345, 239, 61, 254, 92
-0.998345, 197, 69, 228, 84
-0.998346, 65, 115, 96, 130
-0.998346, 121, 107, 152, 122
-0.998346, 173, 83, 204, 98
-0.998348, 113, 173, 144, 188
-0.998348, 209, 49, 240, 64
-0.998349, 261, 49, 276, 80
-0.998351, 269, 27, 300, 42
-0.998351, 321, 61, 352, 76
-0.998352, 321, 47, 352, 62
-0.998353, 269, 37, 300, 52
-0.998353, 317, 13, 348, 28
-0.998355, 197, 155, 228, 170
-0.998357, 41, 127, 72, 142
-0.998359, 357, 143, 388, 158
-0.998361, 1, 129, 32, 144
-0.998361, 285, 163, 316, 178
-0.998362, 113, 161, 144, 176
-0.998362, 125, 167, 156, 182
-0.998364, 249, 113, 280, 128
-0.998364, 289, 29, 320, 44
-0.998365, 197, 189, 228, 204
-0.998365, 281, 9, 312, 24
-0.998365, 189, 167, 220, 182
-0.998367, 1, 143, 32, 158
-0.998368, 261, 109, 292, 124
-0.998369, 305, 161, 336, 176
-0.99837, 225, 269, 352, 300
-0.99837, 217, 79, 248, 94
-0.998371, 201, 85, 232, 100
-0.998371, 253, 55, 284, 70
-0.998372, 265, 3, 296, 18
-0.998374, 197, 89, 212, 120
-0.998374, 209, 69, 240, 84
-0.998376, 237, 61, 268, 76
-0.998377, 279, 101, 294, 132
-0.998378, 169, 167, 200, 182
-0.99838, 197, 183, 228, 198
-0.99838, 189, 93, 220, 108
-0.99838, 345, 187, 376, 202
-0.998386, 261, 49, 292, 64
-0.998386, 51, 129, 66, 160
-0.998387, 201, 77, 216, 108
-0.998388, 227, 33, 242, 64
-0.998389, 213, 187, 244, 202
-0.99839, 157, 185, 172, 216
-0.99839, 197, 149, 228, 164
-0.998391, 169, 161, 200, 176
-0.998391, 317, 1, 348, 16
-0.998396, 197, 175, 228, 190
-0.998397, 301, 25, 332, 40
-0.998398, 233, 47, 264, 62
-0.9984, 173, 89, 204, 104
-0.998402, 257, 29, 288, 44
-0.998402, 277, 171, 308, 186
-0.998403, 249, 47, 280, 62
-0.998404, 173, 73, 204, 88
-0.998405, 249, 17, 264, 48
-0.998406, 317, 19, 348, 34
-0.998406, 237, 115, 268, 130
-0.998406, 169, 155, 200, 170
-0.998406, 185, 81, 216, 96
-0.998407, 281, 35, 312, 50
-0.998407, 1, 341, 128, 372
-0.998407, 189, 161, 220, 176
-0.998407, 229, 67, 260, 82
-0.998408, 125, 173, 156, 188
-0.998408, 211, 165, 226, 196
-0.998409, 189, 61, 220, 76
-0.998409, 1, 41, 256, 104
-0.998411, 213, 97, 244, 352
-0.998411, 297, 171, 328, 186
-0.998412, 259, 9, 274, 40
-0.998413, 193, 189, 208, 220
-0.998416, 193, 75, 224, 90
-0.998418, 277, 15, 308, 30
-0.998418, 209, 63, 240, 78
-0.998424, 345, 1, 376, 16
-0.998424, 331, 69, 346, 100
-0.998425, 249, 37, 280, 52
-0.998428, 129, 183, 160, 198
-0.998437, 243, 21, 258, 52
-0.998438, 217, 57, 248, 72
-0.998442, 345, 181, 376, 196
-0.998444, 97, 89, 224, 120
-0.998445, 229, 53, 260, 68
-0.998447, 181, 67, 212, 82
-0.998447, 313, 181, 344, 196
-0.998447, 301, 181, 316, 212
-0.99845, 333, 181, 364, 196
-0.998452, 241, 53, 272, 68
-0.998454, 255, 53, 270, 84
-0.998455, 269, 21, 300, 36
-0.998456, 361, 33, 392, 288
-0.998461, 249, 57, 264, 88
-0.998469, 361, 129, 424, 375
-0.998469, 171, 145, 186, 176
-0.998476, 319, 173, 334, 204
-0.99848, 315, 17, 330, 48
-0.99848, 209, 185, 224, 216
-0.998482, 265, 109, 280, 140
-0.998484, 235, 49, 250, 80
-0.998484, 239, 109, 254, 140
-0.998487, 193, 249, 448, 312
-0.998488, 1, 133, 16, 164
-0.998488, 81, 273, 208, 304
-0.998489, 125, 121, 140, 152
-0.998489, 281, 171, 344, 186
-0.998496, 221, 73, 252, 88
-0.998497, 273, 43, 304, 58
-0.998503, 13, 133, 28, 164
-0.998504, 277, 161, 292, 192
-0.998507, 321, 187, 384, 202
-0.998509, 321, 181, 384, 196
-0.998513, 345, 33, 376, 288
-0.998515, 253, 113, 268, 144
-0.998517, 309, 171, 340, 186
-0.998518, 221, 73, 236, 104
-0.998518, 177, 129, 208, 375
-0.998519, 213, 181, 244, 196
-0.99853, 205, 133, 220, 164
-0.998531, 221, 37, 236, 68
-0.998536, 197, 1, 228, 128
-0.998536, 313, 7, 376, 22
-0.998537, 335, 57, 350, 88
-0.998545, 49, 201, 176, 264
-0.998546, 363, 133, 378, 164
-0.998547, 225, 189, 288, 204
-0.998548, 311, 161, 326, 192
-0.998549, 257, 21, 320, 36
-0.998549, 61, 121, 76, 152
-0.998553, 305, 171, 368, 186
-0.998555, 313, 65, 376, 80
-0.998555, 177, 67, 240, 82
-0.998556, 133, 105, 148, 136
-0.998556, 241, 35, 304, 50
-0.998558, 281, 29, 344, 44
-0.998559, 265, 15, 328, 30
-0.998559, 253, 189, 268, 220
-0.99856, 241, 41, 304, 56
-0.998565, 313, 1, 376, 16
-0.998566, 289, 11, 352, 26
-0.998568, 171, 77, 186, 108
-0.998568, 209, 61, 272, 76
-0.998568, 217, 39, 280, 54
-0.998571, 289, 181, 352, 196
-0.998571, 259, 189, 274, 220
-0.998573, 185, 59, 248, 74
-0.998573, 193, 345, 320, 375
-0.998574, 241, 55, 304, 70
-0.998575, 313, 73, 376, 88
-0.998576, 217, 49, 280, 64
-0.998577, 165, 169, 180, 200
-0.998578, 313, 13, 376, 28
-0.998578, 313, 59, 376, 74
-0.998578, 191, 133, 206, 164
-0.998578, 235, 189, 250, 220
-0.998579, 169, 75, 232, 90
-0.998579, 113, 183, 176, 198
-0.99858, 211, 45, 226, 76
-0.998581, 225, 29, 288, 44
-0.998581, 313, 21, 376, 36
-0.998586, 193, 185, 256, 200
-0.998588, 249, 27, 312, 42
-0.998589, 241, 15, 304, 30
-0.998589, 273, 35, 336, 50
-0.99859, 249, 47, 312, 62
-0.99859, 273, 163, 336, 178
-0.99859, 17, 133, 80, 148
-0.998593, 235, 25, 250, 56
-0.998593, 1, 277, 128, 308
-0.998594, 185, 81, 248, 96
-0.998595, 203, 53, 218, 84
-0.998597, 289, 23, 352, 38
-0.998597, 137, 189, 200, 204
-0.998598, 211, 129, 226, 160
-0.998599, 169, 157, 232, 172
-0.998599, 1, 145, 16, 176
-0.998599, 201, 149, 216, 180
-0.998602, 345, 179, 408, 194
-0.998603, 217, 145, 232, 176
-0.998605, 1, 143, 64, 158
-0.998605, 249, 9, 312, 24
-0.998606, 313, 51, 376, 66
-0.998606, 113, 173, 176, 188
-0.998607, 313, 31, 376, 46
-0.998607, 191, 177, 206, 208
-0.998608, 313, 45, 376, 60
-0.99861, 137, 183, 200, 198
-0.998612, 161, 81, 224, 96
-0.998612, 295, 13, 310, 44
-0.998614, 201, 67, 264, 82
-0.998614, 313, 159, 376, 174
-0.998615, 321, 165, 384, 180
-0.998615, 281, 73, 344, 88
-0.998615, 321, 197, 384, 212
-0.998616, 313, 37, 376, 52
-0.998616, 289, 191, 352, 206
-0.998616, 289, 49, 352, 64
-0.998616, 317, 53, 332, 84
-0.998617, 113, 189, 176, 204
-0.998618, 289, 63, 352, 78
-0.998619, 169, 149, 232, 164
-0.99862, 257, 171, 320, 186
-0.998622, 155, 153, 170, 184
-0.998622, 289, 17, 352, 32
-0.998622, 201, 129, 232, 375
-0.998624, 193, 149, 320, 180
-0.998625, 165, 85, 180, 116
-0.998627, 17, 127, 80, 142
-0.998628, 321, 203, 384, 218
-0.998628, 281, 43, 344, 58
-0.998628, 203, 265, 218, 296
-0.998629, 265, 177, 328, 192
-0.998629, 185, 179, 248, 194
-0.99863, 225, 181, 288, 196
-0.998631, 217, 123, 280, 138
-0.998631, 177, 165, 240, 180
-0.998632, 153, 87, 216, 102
-0.998635, 289, 5, 352, 20
-0.998635, 333, 185, 348, 216
-0.998636, 281, 57, 344, 72
-0.998636, 321, 209, 448, 240
-0.998638, 193, 269, 256, 284
-0.998638, 225, 111, 288, 126
-0.998639, 149, 261, 164, 292
-0.998641, 129, 101, 192, 116
-0.998642, 97, 345, 224, 375
-0.998644, 193, 53, 256, 68
-0.998644, 179, 133, 194, 164
-0.998646, 133, 181, 148, 212
-0.998649, 233, 21, 296, 36
-0.998649, 321, 209, 384, 224
-0.99865, 217, 55, 280, 70
-0.99865, 169, 143, 232, 158
-0.998651, 197, 57, 212, 88
-0.998653, 321, 79, 384, 94
-0.998653, 121, 107, 184, 122
-0.998653, 241, 61, 304, 76
-0.998654, 227, 121, 242, 152
-0.998655, 17, 121, 80, 136
-0.998656, 201, 73, 264, 88
-0.998656, 241, 95, 304, 110
-0.998657, 113, 203, 176, 218
-0.998657, 321, 153, 384, 168
-0.998657, 193, 151, 256, 166
-0.998658, 71, 113, 86, 144
-0.998658, 139, 261, 154, 292
-0.998658, 281, 79, 344, 94
-0.998659, 289, 201, 352, 216
-0.998659, 353, 29, 416, 44
-0.998659, 169, 93, 232, 108
-0.998661, 257, 199, 320, 214
-0.998662, 81, 111, 144, 126
-0.998662, 127, 153, 142, 184
-0.998662, 203, 185, 218, 216
-0.998662, 9, 113, 72, 128
-0.998663, 291, 181, 306, 212
-0.998665, 145, 93, 208, 108
-0.998665, 121, 105, 136, 136
-0.998665, 169, 189, 232, 204
-0.998666, 329, 171, 392, 186
-0.998666, 249, 111, 312, 126
-0.998667, 215, 77, 230, 108
-0.998667, 137, 205, 200, 220
-0.998668, 233, 201, 296, 216
-0.998668, 257, 187, 320, 202
-0.998668, 337, 1, 400, 16
-0.99867, 193, 191, 256, 206
-0.998671, 225, 97, 352, 128
-0.998671, 21, 65, 52, 320
-0.998672, 271, 189, 286, 220
-0.998673, 169, 173, 232, 188
-0.998674, 137, 177, 200, 192
-0.998674, 41, 133, 104, 148
-0.998674, 345, 151, 408, 166
-0.998675, 353, 73, 416, 88
-0.998675, 321, 85, 384, 100
-0.998676, 169, 267, 232, 282
-0.998676, 113, 167, 176, 182
-0.998677, 345, 141, 408, 156
-0.998678, 17, 271, 80, 286
-0.998679, 217, 273, 280, 288
-0.998679, 185, 87, 248, 102
-0.99868, 193, 157, 256, 172
-0.998681, 89, 169, 152, 184
-0.998683, 41, 269, 104, 284
-0.998683, 137, 199, 200, 214
-0.998684, 65, 341, 128, 356
-0.998685, 193, 201, 256, 216
-0.998685, 345, 65, 408, 80
-0.998685, 145, 147, 208, 162
-0.998686, 265, 1, 328, 16
-0.998686, 49, 113, 112, 128
-0.998686, 137, 215, 200, 230
-0.998687, 217, 117, 280, 132
-0.998688, 121, 113, 184, 128
-0.998713, 149, 97, 180, 352
-0.998716, 145, 333, 272, 364
-0.998731, 369, 1, 432, 375
-0.998756, 129, 253, 256, 284
-0.998773, 325, 1, 340, 128
-0.998778, 97, 61, 224, 92
-0.998779, 273, 241, 336, 368
-0.998789, 97, 241, 352, 304
-0.998818, 1, 233, 256, 296
-0.998833, 145, 345, 272, 375
-0.998834, 1, 273, 500, 336
-0.998852, 41, 1, 72, 256
-0.998863, 409, 33, 472, 96
-0.998876, 49, 97, 176, 128
-0.998884, 193, 329, 320, 360
-0.998886, 61, 65, 92, 320
-0.998917, 177, 257, 304, 288
-0.998954, 33, 177, 160, 208
-0.998988, 225, 257, 352, 288
-0.998989, 97, 209, 224, 272
-0.998994, 319, 1, 334, 128
-0.999001, 9, 97, 40, 352
-0.999008, 331, 1, 346, 128
-0.99903, 41, 129, 72, 375
-0.999045, 249, 33, 264, 160
-0.999055, 153, 161, 168, 288
-0.999076, 353, 197, 480, 228
-0.999094, 145, 241, 176, 368
-0.999102, 229, 1, 244, 128
-0.999103, 69, 49, 100, 176
-0.999109, 1, 289, 128, 352
-0.999131, 33, 253, 160, 284
-0.999132, 323, 145, 338, 272
-0.999144, 127, 113, 142, 240
-0.999147, 243, 1, 258, 128
-0.999147, 281, 1, 296, 128
-0.999156, 129, 277, 256, 308
-0.999158, 233, 137, 296, 200
-0.999163, 275, 161, 290, 288
-0.999176, 353, 161, 368, 288
-0.999178, 345, 265, 408, 328
-0.999181, 145, 213, 272, 244
-0.999195, 287, 1, 302, 128
-0.999197, 225, 305, 352, 336
-0.999198, 273, 281, 400, 312
-0.999201, 1, 1, 32, 256
-0.999203, 93, 65, 124, 320
-0.999205, 217, 113, 232, 240
-0.999206, 369, 313, 496, 344
-0.999217, 191, 177, 206, 304
-0.999218, 147, 193, 162, 320
-0.999225, 25, 313, 88, 375
-0.999227, 179, 65, 194, 192
-0.99923, 1, 185, 256, 248
-0.999232, 335, 177, 350, 304
-0.999239, 229, 113, 244, 240
-0.999248, 259, 177, 274, 304
-0.999251, 209, 317, 336, 348
-0.999256, 317, 145, 332, 272
-0.999257, 265, 97, 280, 224
-0.999257, 347, 177, 362, 304
-0.999273, 165, 145, 180, 272
-0.999275, 81, 321, 208, 352
-0.999278, 337, 1, 352, 128
-0.999282, 345, 225, 376, 352
-0.999284, 255, 1, 270, 128
-0.999284, 81, 57, 208, 120
-0.999288, 225, 213, 352, 244
-0.999291, 1, 1, 256, 64
-0.999294, 359, 129, 374, 256
-0.999295, 223, 113, 238, 240
-0.999295, 159, 193, 174, 320
-0.999295, 269, 161, 284, 288
-0.999296, 341, 177, 356, 304
-0.999296, 433, 1, 496, 375
-0.999303, 253, 177, 268, 304
-0.999308, 275, 1, 290, 128
-0.999309, 235, 177, 250, 304
-0.99931, 255, 113, 270, 240
-0.99931, 277, 97, 292, 224
-0.999311, 223, 33, 238, 160
-0.999313, 155, 113, 170, 240
-0.999321, 209, 161, 224, 288
-0.999321, 1, 113, 16, 240
-0.999321, 245, 177, 260, 304
-0.999327, 127, 161, 142, 288
-0.999332, 313, 1, 328, 128
-0.999333, 191, 113, 206, 240
-0.999339, 1, 161, 128, 192
-0.99934, 227, 161, 242, 288
-0.999342, 241, 49, 256, 176
-0.999346, 249, 113, 264, 240
-0.999347, 121, 97, 136, 224
-0.999347, 311, 145, 326, 272
-0.999348, 281, 161, 296, 288
-0.999349, 203, 33, 218, 160
-0.999353, 235, 113, 250, 240
-0.999354, 305, 145, 320, 272
-0.999355, 241, 341, 368, 372
-0.999363, 285, 81, 300, 208
-0.999363, 73, 65, 104, 320
-0.999367, 115, 97, 130, 224
-0.999375, 201, 129, 216, 256
-0.999377, 135, 97, 150, 224
-0.999382, 211, 113, 226, 240
-0.999385, 185, 177, 200, 304
-0.999389, 269, 17, 284, 144
-0.99939, 293, 1, 308, 128
-0.999392, 129, 21, 256, 52
-0.999393, 299, 145, 314, 272
-0.999395, 329, 161, 344, 288
-0.999406, 271, 97, 286, 224
-0.99941, 175, 113, 190, 240
-0.999413, 197, 81, 212, 208
-0.999413, 153, 209, 168, 336
-0.999417, 289, 161, 304, 288
-0.999417, 103, 97, 118, 224
-0.999418, 175, 177, 190, 304
-0.999419, 229, 49, 244, 176
-0.999419, 193, 33, 208, 160
-0.999425, 93, 97, 108, 224
-0.999426, 359, 177, 374, 304
-0.999428, 209, 313, 272, 375
-0.999433, 121, 145, 136, 272
-0.999448, 243, 113, 258, 240
-0.999451, 197, 177, 212, 304
-0.999453, 217, 33, 232, 160
-0.999455, 145, 145, 160, 272
-0.999456, 215, 161, 230, 288
-0.999461, 185, 65, 200, 192
-0.999464, 61, 97, 76, 224
-0.999467, 321, 65, 336, 192
-0.999478, 173, 65, 188, 192
-0.999483, 353, 209, 368, 336
-0.999483, 337, 217, 464, 280
-0.999485, 263, 1, 278, 128
-0.999495, 165, 193, 180, 320
-0.999502, 211, 65, 226, 192
-0.99951, 237, 1, 252, 128
-0.999512, 149, 1, 180, 256
-0.999513, 7, 129, 22, 256
-0.999518, 1, 189, 128, 220
-0.99952, 113, 33, 240, 64
-0.999523, 71, 97, 86, 224
-0.999523, 105, 1, 136, 256
-0.999523, 255, 49, 270, 176
-0.999528, 221, 161, 236, 288
-0.999531, 329, 187, 344, 202
-0.999532, 273, 21, 288, 36
-0.999532, 157, 219, 172, 234
-0.999532, 273, 15, 288, 30
-0.999533, 213, 83, 228, 98
-0.999533, 3, 129, 18, 144
-0.999533, 187, 93, 202, 108
-0.999533, 165, 99, 180, 114
-0.999533, 117, 173, 132, 188
-0.999534, 285, 101, 300, 116
-0.999535, 311, 23, 326, 38
-0.999535, 179, 103, 194, 118
-0.999536, 343, 183, 358, 198
-0.999536, 211, 17, 226, 144
-0.999536, 109, 97, 124, 224
-0.999537, 133, 145, 148, 272
-0.999538, 299, 17, 314, 144
-0.999538, 283, 165, 298, 180
-0.999538, 261, 29, 276, 44
-0.999538, 325, 1, 340, 16
-0.999538, 41, 113, 56, 240
-0.999538, 165, 81, 180, 208
-0.999539, 335, 129, 350, 256
-0.999539, 357, 185, 372, 200
-0.999539, 127, 125, 142, 140
-0.999539, 273, 269, 400, 300
-0.999539, 279, 17, 294, 32
-0.999541, 241, 45, 256, 60
-0.999541, 157, 181, 172, 196
-0.999541, 185, 113, 200, 240
-0.999541, 233, 73, 248, 88
-0.999541, 213, 127, 228, 142
-0.999541, 157, 207, 172, 222
-0.999542, 127, 159, 142, 174
-0.999543, 217, 147, 232, 162
-0.999543, 283, 11, 298, 26
-0.999543, 219, 79, 234, 94
-0.999544, 213, 65, 228, 80
-0.999544, 7, 145, 22, 160
-0.999545, 255, 33, 270, 48
-0.999545, 319, 181, 334, 196
-0.999545, 171, 105, 186, 120
-0.999546, 15, 113, 30, 240
-0.999546, 231, 121, 246, 136
-0.999547, 247, 117, 262, 132
-0.999547, 23, 81, 38, 208
-0.999547, 13, 135, 28, 150
-0.999547, 181, 97, 196, 112
-0.999548, 191, 189, 206, 204
-0.999548, 335, 45, 350, 60
-0.999551, 127, 107, 142, 122
-0.999551, 227, 181, 242, 196
-0.999551, 203, 71, 218, 86
-0.999551, 129, 119, 144, 134
-0.999552, 267, 1, 282, 16
-0.999552, 215, 181, 230, 196
-0.999552, 157, 187, 172, 202
-0.999552, 153, 213, 168, 228
-0.999554, 321, 45, 336, 60
-0.999555, 125, 181, 140, 196
-0.999555, 329, 77, 344, 92
-0.999556, 291, 27, 306, 42
-0.999557, 1, 139, 16, 154
-0.999557, 181, 87, 196, 102
-0.999557, 203, 85, 218, 100
-0.999559, 211, 147, 226, 162
-0.999559, 235, 49, 250, 176
-0.99956, 323, 11, 338, 26
-0.99956, 51, 143, 66, 158
-0.99956, 203, 177, 218, 304
-0.999561, 233, 51, 248, 66
-0.999561, 327, 55, 342, 70
-0.999561, 193, 95, 208, 110
-0.999562, 243, 57, 258, 72
-0.999563, 327, 69, 342, 84
-0.999564, 283, 171, 298, 186
-0.999565, 327, 65, 342, 192
-0.999565, 207, 79, 222, 94
-0.999565, 353, 113, 368, 240
-0.999566, 219, 125, 234, 140
-0.999566, 131, 185, 146, 200
-0.999566, 277, 171, 292, 186
-0.999566, 187, 85, 202, 100
-0.999566, 331, 31, 346, 46
-0.999567, 297, 171, 312, 186
-0.999567, 323, 25, 338, 40
-0.999568, 329, 63, 344, 78
-0.999568, 319, 65, 334, 80
-0.999569, 321, 57, 336, 72
-0.999569, 363, 81, 378, 208
-0.999569, 345, 129, 360, 256
-0.99957, 329, 49, 344, 64
-0.999571, 269, 47, 284, 62
-0.999571, 213, 77, 228, 92
-0.999572, 193, 61, 208, 76
-0.999572, 211, 159, 226, 174
-0.999573, 227, 69, 242, 84
-0.999573, 87, 97, 102, 224
-0.999574, 279, 107, 294, 122
-0.999574, 205, 81, 220, 208
-0.999575, 171, 93, 186, 108
-0.999575, 331, 1, 346, 16
-0.999576, 241, 329, 368, 360
-0.999576, 127, 165, 142, 180
-0.999577, 153, 173, 168, 188
-0.999577, 97, 45, 224, 76
-0.999578, 329, 39, 344, 54
-0.999578, 65, 109, 80, 124
-0.999579, 97, 213, 224, 244
-0.99958, 339, 5, 354, 20
-0.99958, 283, 43, 298, 58
-0.99958, 239, 65, 254, 80
-0.999582, 271, 109, 286, 124
-0.999583, 333, 25, 348, 40
-0.999584, 321, 71, 336, 86
-0.999585, 325, 33, 340, 48
-0.999585, 221, 73, 236, 88
-0.999585, 125, 189, 140, 204
-0.999586, 195, 77, 210, 92
-0.999586, 291, 171, 306, 186
-0.999588, 307, 171, 322, 186
-0.999588, 321, 193, 336, 320
-0.999588, 249, 55, 264, 70
-0.99959, 7, 135, 22, 150
-0.999591, 225, 123, 240, 138
-0.999591, 321, 17, 336, 32
-0.999592, 363, 33, 378, 160
-0.999594, 285, 17, 300, 32
-0.999595, 265, 111, 280, 126
-0.999596, 433, 305, 496, 368
-0.999596, 217, 157, 232, 172
-0.999597, 127, 175, 142, 190
-0.999597, 331, 15, 346, 30
-0.999598, 317, 171, 332, 186
-0.9996, 125, 225, 140, 352
-0.999604, 257, 51, 272, 66
-0.999604, 253, 115, 268, 130
-0.999606, 259, 113, 274, 128
-0.999606, 357, 179, 372, 194
-0.999607, 47, 129, 62, 256
-0.999607, 65, 189, 192, 220
-0.999607, 233, 67, 248, 82
-0.999607, 197, 89, 212, 104
-0.999607, 151, 189, 166, 204
-0.999609, 127, 65, 142, 192
-0.99961, 289, 7, 304, 22
-0.99961, 325, 181, 340, 196
-0.999611, 291, 33, 306, 48
-0.999611, 187, 67, 202, 82
-0.999613, 151, 181, 166, 196
-0.999614, 333, 9, 348, 24
-0.999614, 295, 97, 310, 224
-0.999614, 263, 47, 278, 62
-0.999616, 221, 179, 236, 194
-0.999619, 181, 71, 196, 86
-0.99962, 55, 113, 70, 240
-0.999621, 115, 225, 130, 352
-0.999622, 107, 225, 122, 352
-0.999625, 279, 37, 294, 52
-0.999626, 323, 171, 338, 186
-0.999627, 79, 97, 94, 224
-0.999628, 101, 225, 116, 352
-0.999628, 273, 41, 288, 56
-0.999631, 149, 97, 164, 224
-0.999633, 161, 225, 288, 256
-0.999633, 285, 35, 300, 50
-0.999639, 133, 225, 148, 352
-0.999641, 1, 177, 128, 240
-0.999641, 29, 81, 44, 208
-0.999642, 35, 81, 50, 208
-0.999651, 329, 113, 344, 240
-0.999654, 175, 17, 190, 144
-0.999655, 349, 183, 364, 198
-0.999655, 117, 1, 148, 256
-0.999661, 175, 225, 190, 352
-0.999662, 95, 225, 110, 352
-0.99967, 161, 313, 288, 344
-0.999677, 177, 293, 304, 324
-0.99971, 81, 49, 112, 176
-0.999775, 161, 313, 224, 375
-0.999827, 277, 241, 308, 368
-0.99988, 97, 201, 352, 264
-0.999887, 13, 129, 44, 256
-0.999903, 425, 241, 488, 368
-0.999917, 81, 281, 144, 344
-0.99992, 229, 241, 260, 368
-0.999943, 1, 81, 256, 144
-0.999953, 1, 281, 256, 344
-0.99997, 101, 145, 132, 272
-0.999999, 193, 225, 448, 288
-1.00001, 1, 241, 500, 304
-1.00006, 57, 225, 88, 352
-1.00006, 213, 241, 244, 368
-1.00012, 9, 241, 72, 368
-1.00017, 41, 281, 104, 344
-1.00018, 409, 57, 472, 120
-1.0002, 393, 1, 456, 375
-1.00021, 257, 121, 320, 184
-1.00028, 41, 233, 104, 296
-1.00028, 369, 129, 400, 375
-1.0004, 21, 33, 52, 160
-1.00046, 373, 1, 404, 256
-1.00047, 321, 249, 448, 312
-1.00048, 157, 241, 188, 368
-1.00055, 33, 57, 160, 120
-1.00061, 397, 1, 428, 256
-1.00073, 381, 129, 412, 375
-1.00074, 385, 1, 416, 256
-1.00077, 433, 25, 496, 88
-1.00077, 433, 1, 464, 256
-1.00081, 377, 17, 440, 144
-1.00085, 1, 217, 500, 280
-1.00091, 429, 129, 460, 375
-1.00094, 393, 129, 424, 375
-1.00095, 445, 129, 476, 375
-1.00097, 393, 241, 456, 368
-1.00098, 377, 313, 440, 375
-1.00098, 1, 209, 256, 272
-1.00104, 417, 129, 448, 375
-1.00105, 305, 49, 336, 176
-1.00108, 413, 1, 444, 256
-1.0011, 405, 129, 436, 375
-1.0011, 457, 129, 488, 375
-1.00114, 289, 193, 320, 320
-1.00115, 305, 241, 336, 368
-1.00122, 49, 9, 176, 72
-1.00123, 469, 129, 500, 375
-1.00128, 369, 129, 400, 256
-1.0013, 33, 65, 64, 192
-1.00131, 333, 225, 364, 352
-1.00131, 289, 241, 320, 368
-1.00132, 1, 209, 128, 272
-1.00145, 369, 241, 496, 304
-1.00147, 57, 49, 88, 176
-1.00156, 445, 33, 476, 288
-1.00158, 177, 281, 240, 344
-1.00163, 121, 1, 184, 128
-1.00164, 469, 33, 500, 288
-1.00166, 17, 33, 144, 96
-1.00171, 457, 33, 488, 288
-1.00172, 49, 153, 112, 216
-1.00188, 129, 17, 160, 144
-1.00189, 317, 241, 348, 368
-1.00197, 1, 9, 128, 72
-1.00197, 373, 49, 404, 176
-1.00223, 333, 49, 364, 176
-1.00237, 393, 241, 424, 368
-1.0024, 433, 17, 496, 144
-1.00243, 85, 145, 116, 272
-1.00244, 409, 33, 472, 160
-1.0025, 369, 241, 432, 368
-1.00263, 369, 241, 400, 368
-1.00264, 433, 33, 464, 160
-1.00292, 401, 1, 464, 256
-1.00299, 449, 241, 480, 368
-1.00304, 469, 241, 500, 368
-1.00307, 373, 1, 404, 128
-1.00314, 381, 241, 412, 368
-1.00318, 1, 241, 32, 368
-1.00325, 389, 17, 420, 144
-1.00334, 145, 1, 176, 128
-1.00339, 45, 241, 76, 368
-1.00354, 417, 129, 480, 375
-1.00354, 445, 49, 476, 176
-1.00372, 13, 241, 44, 368
-1.00378, 437, 241, 468, 368
-1.00379, 405, 241, 436, 368
-1.00397, 377, 33, 440, 288
-1.00455, 393, 129, 456, 375
-1.00456, 65, 161, 128, 288
-1.0048, 17, 193, 80, 320
-1.00565, 17, 1, 144, 128
-1.00571, 41, 193, 104, 320
-1.00583, 425, 1, 488, 256
-1.00604, 377, 65, 440, 192
-1.00746, 369, 129, 432, 256
-1.00753, 433, 65, 496, 192
-1.0076, 17, 1, 80, 128
-1.00785, 377, 193, 440, 320
-1.00837, 1, 145, 64, 272
-1.00858, 97, 1, 160, 128
-1.0086, 409, 193, 472, 320
-1.00913, 401, 81, 464, 208
-1.01084, 433, 193, 496, 320
-1.01091, 425, 113, 488, 240
-1.01098, 57, 1, 120, 128
-1.01143, 393, 129, 456, 256
