2121
-0.289732, 1, 193, 495, 448
-0.325034, 1, 1, 495, 500
-0.358509, 1, 1, 256, 500
-0.424551, 1, 65, 495, 320
-0.487311, 1, 129, 256, 384
-0.539571, 129, 1, 384, 500
-0.591299, 65, 225, 320, 480
-0.651589, 161, 193, 416, 448
-0.699741, 1, 33, 256, 288
-0.705721, 225, 1, 480, 500
-0.737964, 161, 97, 416, 352
-0.825065, 65, 193, 192, 448
-0.837405, 161, 1, 416, 256
-0.838554, 17, 257, 144, 500
-0.840824, 81, 1, 208, 500
-0.843532, 1, 273, 495, 400
-0.851205, 113, 129, 240, 384
-0.851413, 65, 65, 192, 320
-0.851444, 17, 161, 144, 416
-0.85932, 33, 1, 160, 500
-0.862947, 145, 257, 272, 500
-0.864457, 1, 353, 495, 480
-0.864542, 1, 209, 495, 336
-0.869062, 145, 1, 272, 500
-0.875859, 161, 161, 288, 416
-0.876718, 1, 97, 495, 224
-0.887099, 1, 161, 495, 288
-0.887875, 17, 65, 144, 320
-0.889489, 177, 65, 304, 320
-0.889908, 193, 1, 320, 500
-0.895101, 1, 193, 256, 320
-0.89643, 353, 1, 480, 500
-0.897337, 113, 33, 240, 288
-0.898025, 337, 161, 464, 416
-0.90192, 337, 257, 464, 500
-0.904421, 257, 161, 384, 416
-0.905263, 193, 257, 320, 500
-0.906866, 129, 273, 384, 400
-0.908656, 1, 337, 128, 464
-0.909155, 257, 1, 384, 500
-0.911302, 209, 161, 336, 416
-0.915071, 1, 337, 64, 464
-0.915894, 33, 289, 288, 416
-0.916265, 1, 241, 256, 368
-0.916415, 1, 353, 256, 480
-0.916494, 81, 353, 144, 480
-0.92062, 305, 1, 432, 500
-0.921751, 193, 209, 448, 336
-0.921818, 33, 145, 288, 272
-0.922278, 49, 337, 176, 464
-0.922491, 49, 337, 112, 464
-0.922965, 1, 289, 128, 416
-0.925634, 57, 161, 120, 288
-0.927049, 49, 193, 176, 320
-0.927619, 57, 289, 120, 416
-0.927955, 65, 257, 192, 384
-0.928832, 25, 305, 88, 432
-0.928874, 113, 337, 176, 464
-0.929347, 105, 1, 168, 128
-0.929383, 129, 193, 256, 320
-0.929944, 137, 193, 200, 320
-0.930026, 81, 113, 208, 240
-0.930226, 337, 33, 464, 288
-0.930758, 17, 145, 144, 272
-0.93077, 1, 49, 495, 176
-0.931242, 185, 225, 248, 352
-0.931558, 257, 257, 384, 500
-0.931584, 169, 161, 232, 288
-0.931837, 33, 97, 288, 224
-0.931969, 225, 161, 480, 288
-0.932298, 9, 161, 72, 288
-0.932818, 153, 305, 216, 432
-0.934109, 49, 113, 112, 240
-0.936075, 97, 193, 352, 320
-0.936132, 177, 241, 304, 368
-0.936189, 41, 241, 104, 368
-0.936308, 81, 193, 144, 320
-0.937006, 225, 65, 352, 320
-0.937036, 345, 305, 408, 432
-0.937123, 33, 17, 288, 144
-0.937251, 81, 305, 144, 432
-0.938641, 425, 145, 488, 272
-0.938713, 33, 193, 96, 320
-0.939048, 129, 305, 256, 432
-0.939968, 25, 353, 88, 480
-0.940615, 97, 353, 224, 480
-0.941022, 129, 145, 384, 272
-0.941139, 153, 257, 216, 384
-0.941241, 105, 361, 168, 424
-0.94152, 129, 241, 256, 368
-0.941779, 17, 241, 80, 368
-0.942397, 321, 321, 448, 448
-0.94247, 81, 17, 208, 144
-0.943067, 1, 345, 64, 408
-0.943097, 65, 241, 128, 368
-0.943608, 1, 193, 128, 320
-0.94409, 89, 81, 152, 208
-0.94427, 121, 49, 184, 176
-0.945776, 1, 393, 64, 456
-0.945812, 25, 321, 88, 384
-0.946343, 81, 65, 208, 192
-0.946409, 129, 321, 384, 448
-0.946568, 105, 209, 168, 336
-0.946762, 185, 233, 248, 296
-0.946806, 1, 1, 495, 128
-0.947184, 97, 257, 160, 384
-0.948091, 33, 249, 96, 312
-0.948183, 57, 345, 120, 408
-0.948257, 369, 145, 495, 272
-0.948601, 81, 377, 144, 440
-0.948801, 73, 409, 136, 472
-0.949327, 25, 417, 88, 480
-0.94933, 225, 257, 480, 384
-0.949364, 129, 33, 256, 160
-0.949464, 137, 225, 200, 288
-0.949752, 1, 289, 64, 416
-0.949993, 177, 201, 240, 264
-0.95051, 161, 209, 224, 336
-0.950539, 273, 65, 400, 320
-0.950944, 177, 273, 240, 400
-0.951525, 1, 241, 128, 368
-0.951583, 217, 225, 280, 352
-0.951853, 49, 385, 112, 448
-0.951855, 345, 329, 408, 392
-0.951872, 353, 273, 480, 400
-0.95216, 57, 153, 120, 216
-0.95232, 129, 289, 192, 416
-0.952334, 201, 265, 264, 328
-0.952655, 105, 225, 168, 288
-0.952728, 177, 193, 304, 320
-0.952747, 129, 145, 256, 272
-0.952973, 121, 337, 184, 400
-0.953224, 105, 17, 168, 80
-0.95323, 137, 145, 200, 272
-0.954045, 25, 377, 88, 440
-0.954438, 49, 305, 112, 368
-0.954511, 49, 417, 112, 480
-0.954602, 97, 145, 160, 272
-0.954625, 153, 313, 216, 376
-0.95502, 153, 249, 216, 312
-0.955129, 81, 17, 144, 144
-0.956169, 153, 33, 216, 160
-0.956182, 225, 337, 480, 464
-0.956198, 1, 369, 64, 432
-0.956207, 177, 289, 304, 416
-0.95627, 137, 97, 200, 224
-0.956613, 321, 129, 448, 256
-0.956711, 57, 193, 120, 256
-0.956725, 129, 241, 192, 368
-0.956739, 73, 257, 136, 320
-0.957488, 161, 81, 288, 208
-0.957772, 113, 41, 176, 104
-0.958033, 369, 305, 432, 432
-0.958924, 193, 177, 256, 304
-0.959104, 33, 281, 96, 344
-0.959301, 169, 177, 232, 240
-0.959419, 25, 345, 88, 408
-0.959821, 97, 353, 128, 480
-0.959854, 81, 321, 144, 384
-0.960014, 33, 17, 160, 144
-0.960121, 161, 97, 416, 224
-0.960267, 161, 225, 224, 288
-0.961129, 409, 289, 472, 416
-0.961135, 217, 241, 280, 304
-0.961973, 1, 217, 64, 280
-0.962018, 177, 129, 304, 256
-0.962152, 129, 33, 384, 160
-0.962815, 129, 1, 192, 128
-0.963008, 17, 97, 144, 224
-0.963193, 33, 225, 96, 288
-0.963486, 153, 129, 216, 384
-0.963503, 65, 217, 128, 280
-0.963519, 9, 281, 72, 344
-0.963547, 193, 49, 256, 112
-0.9639, 1, 417, 64, 480
-0.963919, 137, 353, 200, 480
-0.963965, 121, 353, 152, 416
-0.963975, 9, 257, 72, 500
-0.964046, 5, 337, 36, 464
-0.964053, 1, 321, 64, 384
-0.964132, 81, 353, 144, 416
-0.964184, 17, 321, 144, 384
-0.964241, 49, 225, 112, 480
-0.964387, 241, 273, 368, 400
-0.964608, 417, 161, 480, 224
-0.964694, 133, 345, 164, 408
-0.964795, 145, 201, 208, 264
-0.964886, 337, 193, 464, 320
-0.96502, 201, 273, 264, 400
-0.965025, 89, 193, 152, 448
-0.965176, 433, 273, 495, 400
-0.965365, 177, 297, 240, 360
-0.965859, 193, 97, 256, 224
-0.965946, 25, 113, 88, 240
-0.965966, 13, 353, 44, 416
-0.966013, 329, 353, 392, 480
-0.966143, 53, 313, 84, 376
-0.966165, 77, 353, 108, 480
-0.966289, 21, 321, 52, 448
-0.966377, 33, 337, 64, 464
-0.966391, 153, 153, 216, 216
-0.966422, 113, 65, 176, 128
-0.966821, 77, 425, 108, 488
-0.966829, 1, 345, 128, 408
-0.966851, 1, 401, 128, 464
-0.966896, 73, 433, 136, 496
-0.967219, 21, 393, 52, 456
-0.967257, 177, 161, 240, 416
-0.967282, 137, 33, 200, 96
-0.967294, 345, 257, 408, 384
-0.967325, 97, 249, 160, 312
-0.967375, 33, 345, 64, 408
-0.967404, 433, 65, 495, 192
-0.967448, 353, 305, 416, 368
-0.967457, 129, 193, 192, 448
-0.967585, 113, 385, 176, 448
-0.967647, 257, 193, 384, 320
-0.967664, 45, 369, 76, 496
-0.967715, 69, 273, 100, 400
-0.967733, 201, 225, 232, 352
-0.967761, 25, 153, 88, 216
-0.967765, 9, 393, 40, 456
-0.967767, 89, 41, 152, 104
-0.967788, 49, 305, 80, 432
-0.967797, 121, 65, 184, 320
-0.967798, 65, 337, 96, 400
-0.967814, 385, 177, 448, 304
-0.967989, 129, 257, 192, 320
-0.968031, 121, 337, 152, 464
-0.968173, 369, 337, 495, 464
-0.968302, 241, 209, 304, 336
-0.968418, 377, 129, 440, 256
-0.968626, 9, 177, 72, 240
-0.96864, 433, 225, 495, 352
-0.968655, 49, 345, 176, 408
-0.968683, 97, 369, 352, 496
-0.968846, 433, 305, 495, 368
-0.96885, 193, 33, 256, 160
-0.968876, 89, 201, 152, 264
-0.96894, 113, 241, 240, 304
-0.968987, 257, 145, 384, 272
-0.96901, 417, 185, 480, 248
-0.969014, 69, 305, 100, 368
-0.969071, 113, 25, 144, 88
-0.969279, 137, 113, 200, 176
-0.969315, 17, 161, 80, 416
-0.969365, 133, 321, 164, 448
-0.969392, 41, 129, 104, 384
-0.969464, 401, 321, 464, 384
-0.969467, 97, 417, 160, 480
-0.96958, 393, 241, 456, 368
-0.969718, 433, 137, 495, 200
-0.96992, 97, 65, 160, 320
-0.969933, 197, 177, 228, 304
-0.970069, 49, 225, 80, 352
-0.970124, 161, 113, 224, 240
-0.970135, 57, 129, 120, 192
-0.97021, 177, 273, 240, 336
-0.970391, 65, 233, 192, 296
-0.970435, 81, 81, 144, 144
-0.970478, 181, 145, 212, 272
-0.970525, 181, 241, 212, 368
-0.970599, 369, 329, 432, 392
-0.970657, 81, 17, 144, 80
-0.970664, 65, 353, 96, 480
-0.970733, 33, 257, 160, 320
-0.970787, 21, 321, 52, 384
-0.970818, 133, 233, 164, 296
-0.970932, 97, 153, 160, 216
-0.971211, 89, 305, 120, 432
-0.971273, 241, 281, 304, 344
-0.971273, 177, 281, 304, 344
-0.971293, 153, 225, 216, 480
-0.971353, 85, 153, 116, 216
-0.971414, 329, 129, 392, 256
-0.971423, 61, 417, 92, 480
-0.971474, 433, 337, 495, 464
-0.971591, 37, 289, 68, 416
-0.971626, 33, 393, 64, 456
-0.971646, 81, 257, 112, 384
-0.971738, 353, 321, 384, 384
-0.971772, 165, 225, 196, 288
-0.971785, 113, 193, 176, 256
-0.97185, 109, 353, 140, 480
-0.971866, 45, 337, 76, 400
-0.971896, 25, 201, 88, 264
-0.971977, 17, 425, 144, 488
-0.972014, 129, 9, 192, 72
-0.972097, 321, 305, 384, 432
-0.972294, 321, 329, 448, 392
-0.972328, 265, 161, 328, 288
-0.972345, 377, 305, 440, 368
-0.972464, 49, 369, 176, 432
-0.972528, 133, 209, 164, 336
-0.972637, 101, 417, 132, 480
-0.972643, 9, 329, 40, 392
-0.972647, 65, 305, 192, 368
-0.972658, 425, 225, 488, 288
-0.972709, 77, 401, 108, 464
-0.972741, 273, 169, 336, 232
-0.972798, 105, 1, 136, 128
-0.972803, 65, 97, 128, 352
-0.972854, 1, 377, 128, 440
-0.972925, 129, 313, 192, 376
-0.972927, 233, 217, 296, 280
-0.973012, 129, 201, 256, 264
-0.973064, 273, 353, 400, 480
-0.973074, 29, 369, 60, 432
-0.973088, 33, 321, 64, 384
-0.973113, 9, 161, 40, 288
-0.973156, 185, 217, 216, 280
-0.973174, 145, 337, 208, 400
-0.973219, 369, 81, 495, 208
-0.973279, 425, 129, 488, 384
-0.973332, 225, 1, 480, 128
-0.973482, 81, 25, 208, 88
-0.973509, 1, 153, 128, 216
-0.973558, 53, 377, 84, 440
-0.973613, 201, 201, 232, 264
-0.973628, 53, 145, 84, 272
-0.973862, 65, 393, 192, 456
-0.973951, 433, 329, 495, 392
-0.974002, 161, 209, 192, 336
-0.974021, 145, 305, 176, 432
-0.974139, 121, 225, 152, 288
-0.974175, 105, 353, 136, 416
-0.974216, 177, 145, 240, 208
-0.974238, 153, 57, 216, 120
-0.974241, 81, 161, 208, 224
-0.974266, 321, 153, 384, 216
-0.974309, 289, 241, 416, 368
-0.974312, 289, 193, 352, 256
-0.974367, 37, 161, 68, 288
-0.974444, 385, 353, 448, 480
-0.974459, 145, 353, 272, 480
-0.974491, 61, 225, 92, 352
-0.974529, 137, 377, 200, 440
-0.974615, 113, 89, 176, 152
-0.974628, 369, 257, 432, 384
-0.97463, 49, 409, 80, 472
-0.974686, 121, 1, 152, 128
-0.974784, 57, 281, 120, 344
-0.974817, 409, 193, 472, 320
-0.974865, 393, 345, 456, 408
-0.974939, 113, 97, 176, 224
-0.975101, 169, 257, 200, 384
-0.975107, 93, 209, 124, 336
-0.975131, 33, 209, 160, 272
-0.975135, 133, 1, 164, 128
-0.97515, 1, 249, 64, 312
-0.975157, 21, 417, 52, 480
-0.97518, 109, 385, 140, 448
-0.975223, 73, 105, 136, 168
-0.975243, 1, 281, 128, 344
-0.975263, 213, 209, 244, 336
-0.975312, 429, 145, 460, 272
-0.975324, 149, 321, 180, 384
-0.975338, 201, 209, 264, 272
-0.975357, 81, 265, 112, 328
-0.975399, 353, 305, 480, 368
-0.975447, 129, 337, 256, 400
-0.975454, 177, 321, 240, 448
-0.975517, 217, 177, 280, 304
-0.975536, 17, 185, 144, 248
-0.975631, 305, 145, 368, 272
-0.975652, 77, 353, 108, 416
-0.975773, 137, 177, 200, 240
-0.975832, 225, 273, 288, 400
-0.975833, 313, 177, 376, 240
-0.975857, 217, 233, 248, 296
-0.975865, 81, 305, 112, 368
-0.975875, 33, 177, 96, 240
-0.975886, 337, 353, 400, 416
-0.975905, 177, 193, 208, 320
-0.975944, 77, 145, 108, 272
-0.975945, 81, 129, 208, 192
-0.975947, 113, 417, 144, 480
-0.97601, 133, 17, 164, 80
-0.976015, 377, 153, 440, 216
-0.976043, 409, 265, 472, 328
-0.976063, 197, 241, 228, 304
-0.97607, 53, 153, 84, 216
-0.976093, 177, 257, 304, 320
-0.976131, 97, 273, 224, 336
-0.976154, 49, 225, 80, 288
-0.976254, 65, 241, 96, 304
-0.97628, 453, 137, 484, 200
-0.976373, 349, 305, 380, 432
-0.976392, 113, 209, 144, 336
-0.976541, 141, 41, 172, 104
-0.976609, 29, 225, 60, 352
-0.976621, 1, 361, 32, 424
-0.976704, 65, 65, 128, 192
-0.97671, 33, 417, 64, 480
-0.976721, 77, 329, 108, 392
-0.976726, 53, 185, 84, 248
-0.976736, 101, 161, 132, 288
-0.97675, 101, 17, 132, 80
-0.976754, 153, 225, 184, 288
-0.976769, 65, 393, 96, 456
-0.976786, 1, 217, 32, 280
-0.976814, 105, 217, 136, 280
-0.977096, 17, 369, 48, 496
-0.977114, 409, 425, 472, 488
-0.977129, 65, 105, 192, 168
-0.977154, 65, 177, 96, 304
-0.977172, 81, 185, 208, 248
-0.977226, 181, 145, 212, 208
-0.977272, 89, 161, 120, 288
-0.977293, 453, 129, 484, 256
-0.977425, 149, 209, 180, 336
-0.977544, 421, 169, 452, 232
-0.977609, 393, 161, 456, 416
-0.977657, 81, 177, 144, 240
-0.977767, 33, 289, 64, 352
-0.977816, 161, 225, 288, 288
-0.977885, 181, 185, 212, 248
-0.977911, 177, 89, 240, 152
-0.977938, 181, 305, 212, 368
-0.977986, 1, 233, 128, 296
-0.978041, 157, 305, 188, 432
-0.978161, 129, 41, 160, 104
-0.978164, 97, 121, 160, 184
-0.978166, 137, 257, 168, 320
-0.978195, 313, 257, 376, 384
-0.978201, 161, 25, 224, 88
-0.978209, 49, 281, 176, 344
-0.978227, 113, 57, 240, 120
-0.97823, 353, 161, 416, 288
-0.978246, 89, 409, 120, 472
-0.978254, 61, 265, 92, 328
-0.978255, 125, 393, 156, 456
-0.978299, 201, 193, 264, 448
-0.978318, 161, 113, 192, 240
-0.97833, 465, 65, 495, 192
-0.978331, 133, 257, 164, 384
-0.978475, 361, 353, 424, 480
-0.978482, 105, 65, 136, 128
-0.978491, 365, 321, 396, 384
-0.978491, 265, 209, 328, 336
-0.978538, 1, 113, 64, 240
-0.978561, 381, 305, 412, 368
-0.978648, 181, 257, 212, 320
-0.97878, 145, 17, 176, 144
-0.978871, 25, 161, 56, 288
-0.978915, 433, 281, 495, 344
-0.978988, 337, 169, 464, 232
-0.97899, 25, 225, 56, 288
-0.978994, 81, 97, 112, 224
-0.979073, 37, 201, 68, 264
-0.979097, 401, 257, 464, 500
-0.979115, 145, 257, 176, 384
-0.979196, 25, 129, 88, 192
-0.979213, 321, 321, 384, 384
-0.979248, 65, 113, 96, 240
-0.979299, 177, 33, 304, 160
-0.979306, 201, 73, 264, 136
-0.97931, 97, 65, 128, 192
-0.979313, 73, 145, 104, 208
-0.979428, 433, 249, 495, 312
-0.97944, 93, 201, 124, 264
-0.979643, 165, 161, 196, 288
-0.979684, 81, 209, 208, 272
-0.979709, 169, 305, 200, 432
-0.979736, 181, 289, 212, 416
-0.979751, 153, 25, 184, 88
-0.97979, 25, 257, 56, 320
-0.979803, 433, 393, 495, 456
-0.979808, 201, 265, 232, 328
-0.979863, 61, 121, 92, 184
-0.979871, 377, 185, 440, 248
-0.97994, 177, 65, 240, 320
-0.979955, 353, 225, 416, 480
-0.979965, 5, 417, 36, 480
-0.98009, 153, 273, 216, 336
-0.980105, 129, 313, 256, 376
-0.980173, 249, 289, 312, 416
-0.980211, 17, 273, 48, 400
-0.980262, 441, 297, 472, 360
-0.980296, 145, 81, 272, 144
-0.980305, 81, 209, 112, 336
-0.980367, 401, 129, 464, 256
-0.980395, 89, 361, 120, 424
-0.980401, 105, 305, 168, 368
-0.980427, 437, 153, 468, 216
-0.980545, 97, 1, 160, 500
-0.980564, 97, 361, 224, 424
-0.980669, 145, 33, 208, 288
-0.980675, 209, 233, 336, 296
-0.980728, 121, 1, 184, 500
-0.980835, 161, 145, 288, 208
-0.980879, 385, 289, 416, 416
-0.980914, 113, 1, 144, 64
-0.980928, 1, 209, 32, 336
-0.980968, 1, 153, 64, 216
-0.981033, 85, 177, 116, 240
-0.981182, 65, 417, 192, 480
-0.981267, 33, 177, 64, 240
-0.981332, 461, 313, 492, 376
-0.981332, 193, 273, 224, 400
-0.98137, 141, 369, 172, 432
-0.981387, 109, 257, 140, 320
-0.981395, 97, 385, 128, 448
-0.981464, 149, 201, 180, 264
-0.981466, 441, 129, 472, 256
-0.981576, 77, 241, 108, 304
-0.981663, 65, 1, 128, 500
-0.981703, 321, 353, 448, 416
-0.981741, 337, 177, 400, 240
-0.981831, 201, 185, 264, 248
-0.981847, 145, 345, 176, 408
-0.981882, 101, 305, 132, 432
-0.981888, 161, 177, 288, 240
-0.981911, 93, 17, 124, 144
-0.981941, 193, 297, 224, 360
-0.981944, 409, 353, 472, 480
-0.982084, 393, 321, 424, 384
-0.982091, 369, 353, 432, 416
-0.982109, 9, 249, 40, 312
-0.982174, 169, 321, 200, 384
-0.982301, 149, 161, 180, 288
-0.982308, 317, 177, 348, 240
-0.982317, 337, 209, 400, 336
-0.982354, 209, 209, 336, 272
-0.982441, 265, 289, 328, 352
-0.982467, 433, 81, 495, 144
-0.982486, 161, 33, 192, 160
-0.982487, 321, 145, 448, 208
-0.982497, 221, 257, 252, 320
-0.982505, 117, 49, 148, 176
-0.982508, 105, 273, 168, 336
-0.982512, 177, 257, 240, 500
-0.982522, 369, 273, 400, 400
-0.982545, 65, 57, 128, 120
-0.982573, 433, 225, 495, 480
-0.982583, 93, 65, 124, 128
-0.982617, 101, 257, 132, 384
-0.982629, 161, 153, 192, 216
-0.982638, 249, 257, 312, 320
-0.982678, 137, 89, 200, 152
-0.982681, 397, 345, 428, 408
-0.982683, 201, 321, 264, 448
-0.98271, 165, 121, 196, 184
-0.982738, 33, 9, 160, 72
-0.982855, 321, 369, 448, 496
-0.9829, 73, 217, 104, 280
-0.982949, 273, 321, 400, 384
-0.982956, 369, 321, 400, 448
-0.982991, 337, 337, 368, 464
-0.98306, 89, 337, 120, 400
-0.983061, 65, 49, 192, 112
-0.983064, 377, 329, 408, 392
-0.983068, 65, 185, 96, 248
-0.983109, 369, 329, 495, 392
-0.983152, 433, 17, 495, 144
-0.983184, 121, 201, 152, 264
-0.983252, 401, 81, 464, 208
-0.983262, 369, 137, 495, 200
-0.983366, 341, 329, 372, 392
-0.983405, 201, 97, 264, 352
-0.983431, 41, 153, 72, 216
-0.983431, 169, 193, 200, 256
-0.983495, 465, 113, 495, 240
-0.983498, 129, 25, 256, 88
-0.9835, 133, 161, 164, 288
-0.983511, 361, 281, 424, 344
-0.983586, 37, 233, 68, 296
-0.983587, 393, 241, 456, 304
-0.983629, 157, 257, 188, 384
-0.983632, 121, 257, 152, 320
-0.983638, 133, 369, 164, 496
-0.983665, 57, 17, 120, 144
-0.983676, 137, 321, 168, 384
-0.983729, 97, 41, 128, 104
-0.983747, 225, 225, 256, 352
-0.983786, 169, 1, 232, 500
-0.983829, 321, 81, 448, 208
-0.983948, 61, 217, 92, 280
-0.98404, 1, 129, 128, 192
-0.984052, 225, 49, 480, 176
-0.984131, 433, 57, 495, 120
-0.984146, 125, 65, 156, 128
-0.984165, 149, 249, 180, 312
-0.984223, 401, 121, 464, 184
-0.984314, 257, 217, 320, 280
-0.984349, 49, 433, 80, 496
-0.98438, 465, 105, 495, 168
-0.984393, 241, 297, 368, 360
-0.984394, 313, 201, 376, 264
-0.984442, 313, 193, 376, 320
-0.984443, 353, 281, 480, 344
-0.984446, 117, 289, 148, 416
-0.984502, 337, 129, 400, 192
-0.98456, 93, 305, 124, 368
-0.98458, 93, 257, 124, 320
-0.984589, 177, 305, 304, 368
-0.984594, 225, 225, 288, 480
-0.984638, 149, 65, 180, 192
-0.984692, 273, 97, 400, 224
-0.984702, 129, 153, 192, 216
-0.984706, 321, 297, 384, 360
-0.98471, 257, 169, 384, 232
-0.984763, 193, 49, 320, 112
-0.984784, 81, 81, 208, 144
-0.984815, 409, 337, 440, 400
-0.984893, 21, 281, 52, 344
-0.984925, 289, 193, 352, 320
-0.984955, 265, 161, 328, 416
-0.985011, 345, 81, 408, 208
-0.98504, 413, 177, 444, 304
-0.985121, 397, 337, 428, 464
-0.985196, 225, 17, 352, 144
-0.985203, 17, 209, 48, 336
-0.985205, 17, 65, 80, 320
-0.985215, 437, 289, 468, 416
-0.985232, 133, 49, 164, 176
-0.985233, 241, 161, 304, 288
-0.985237, 421, 321, 452, 384
-0.98524, 193, 169, 224, 232
-0.985242, 93, 225, 124, 288
-0.985255, 369, 33, 495, 160
-0.985259, 269, 265, 300, 328
-0.98529, 341, 137, 372, 200
-0.985362, 65, 361, 96, 424
-0.985374, 181, 281, 212, 344
-0.985376, 321, 129, 384, 384
-0.985542, 213, 273, 244, 400
-0.985547, 113, 1, 240, 64
-0.985648, 337, 193, 464, 256
-0.985673, 145, 1, 208, 500
-0.985687, 57, 289, 88, 352
-0.985717, 137, 393, 168, 456
-0.985756, 193, 1, 256, 500
-0.985895, 281, 113, 344, 240
-0.985916, 453, 305, 484, 432
-0.985967, 337, 129, 368, 256
-0.985983, 105, 113, 136, 240
-0.986093, 209, 169, 336, 232
-0.986333, 41, 1, 104, 500
-0.986426, 437, 353, 468, 480
-0.986461, 161, 121, 288, 184
-0.986472, 73, 1, 136, 256
-0.98652, 337, 233, 464, 296
-0.986596, 145, 361, 272, 424
-0.986832, 185, 97, 216, 224
-0.986997, 425, 33, 488, 288
-0.987325, 129, 385, 256, 448
-0.987357, 117, 145, 148, 272
-0.987423, 33, 425, 96, 456
-0.987517, 285, 161, 316, 288
-0.98755, 1, 353, 64, 384
-0.987584, 233, 1, 296, 128
-0.987612, 273, 145, 400, 208
-0.987633, 225, 321, 352, 448
-0.987681, 1, 257, 256, 320
-0.98771, 453, 65, 484, 192
-0.987771, 145, 369, 176, 496
-0.98784, 433, 1, 495, 500
-0.987851, 357, 257, 388, 384
-0.987858, 1, 417, 64, 448
-0.987869, 369, 353, 495, 416
-0.987881, 33, 345, 96, 376
-0.987929, 113, 361, 176, 392
-0.987962, 93, 113, 124, 240
-0.988022, 213, 161, 244, 288
-0.988148, 9, 369, 72, 400
-0.988181, 177, 221, 240, 252
-0.988198, 321, 161, 352, 288
-0.988203, 17, 1, 80, 500
-0.988212, 217, 49, 280, 176
-0.988217, 65, 429, 128, 460
-0.988278, 193, 277, 256, 308
-0.988299, 345, 329, 408, 360
-0.988373, 305, 353, 368, 480
-0.988384, 217, 1, 280, 500
-0.988443, 369, 257, 495, 320
-0.988448, 257, 209, 384, 272
-0.988478, 145, 261, 208, 292
-0.988495, 465, 273, 495, 400
-0.988522, 113, 377, 176, 408
-0.988575, 9, 429, 72, 460
-0.988599, 193, 73, 320, 136
-0.988613, 193, 245, 256, 276
-0.988665, 1, 217, 256, 280
-0.988802, 65, 369, 128, 400
-0.98882, 237, 225, 268, 352
-0.988845, 57, 197, 120, 228
-0.988848, 41, 357, 104, 388
-0.988879, 197, 81, 228, 208
-0.988887, 41, 309, 104, 340
-0.988957, 33, 285, 96, 316
-0.988973, 397, 273, 428, 400
-0.988979, 41, 437, 104, 468
-0.989012, 409, 353, 440, 480
-0.989047, 97, 257, 160, 288
-0.989057, 105, 17, 168, 48
-0.989074, 57, 185, 120, 216
-0.989096, 41, 245, 104, 276
-0.989102, 1, 397, 64, 428
-0.98914, 353, 113, 480, 176
-0.989191, 89, 365, 152, 396
-0.989205, 17, 41, 144, 104
-0.989217, 137, 229, 200, 260
-0.989233, 1, 281, 256, 344
-0.98925, 65, 441, 128, 472
-0.989253, 57, 157, 120, 188
-0.989272, 25, 329, 88, 360
-0.989318, 53, 97, 84, 224
-0.989358, 89, 397, 152, 428
-0.989358, 257, 209, 288, 336
-0.989378, 9, 341, 72, 372
-0.989402, 37, 113, 68, 240
-0.989414, 129, 349, 192, 380
-0.98942, 385, 337, 416, 464
-0.989422, 73, 381, 136, 412
-0.989433, 49, 413, 112, 444
-0.989447, 129, 29, 192, 60
-0.989486, 273, 273, 400, 336
-0.989511, 185, 265, 248, 296
-0.989534, 57, 329, 120, 360
-0.989567, 33, 397, 96, 428
-0.989569, 113, 409, 240, 472
-0.98959, 177, 233, 240, 264
-0.989602, 33, 65, 96, 192
-0.989622, 297, 161, 328, 288
-0.989677, 33, 73, 160, 136
-0.989692, 169, 209, 232, 240
-0.989697, 169, 253, 232, 284
-0.98974, 81, 417, 144, 448
-0.989755, 65, 353, 128, 384
-0.98977, 345, 345, 408, 376
-0.989775, 89, 353, 152, 384
-0.989781, 81, 217, 144, 248
-0.989824, 397, 129, 428, 256
-0.989824, 369, 409, 495, 472
-0.989835, 201, 17, 232, 144
-0.989845, 73, 265, 136, 296
-0.989861, 289, 305, 352, 432
-0.989868, 25, 381, 88, 412
-0.989891, 113, 245, 176, 276
-0.989931, 413, 305, 444, 432
-0.989944, 113, 105, 240, 168
-0.989946, 89, 101, 152, 132
-0.98995, 25, 409, 88, 440
-0.98997, 153, 329, 216, 360
-0.990007, 117, 97, 148, 224
-0.990023, 49, 385, 112, 416
-0.990023, 57, 209, 120, 240
-0.990038, 145, 217, 208, 248
-0.990062, 57, 297, 120, 328
-0.990064, 1, 313, 256, 376
-0.990076, 33, 273, 96, 304
-0.990092, 225, 353, 288, 480
-0.990093, 289, 297, 416, 360
-0.990136, 225, 129, 288, 384
-0.990152, 233, 293, 296, 324
-0.990153, 445, 241, 476, 368
-0.990171, 121, 45, 184, 76
-0.990207, 17, 317, 80, 348
-0.990208, 129, 337, 192, 368
-0.990232, 209, 81, 336, 208
-0.990246, 33, 261, 96, 292
-0.990248, 369, 345, 432, 376
-0.99025, 369, 129, 432, 384
-0.990258, 257, 345, 384, 408
-0.990303, 65, 309, 128, 340
-0.99031, 201, 1, 264, 256
-0.990313, 169, 197, 232, 228
-0.990321, 33, 181, 96, 212
-0.990358, 137, 249, 200, 280
-0.990362, 105, 33, 168, 64
-0.990384, 377, 325, 440, 356
-0.990412, 65, 253, 128, 284
-0.990423, 169, 185, 232, 216
-0.990433, 33, 193, 288, 256
-0.990437, 177, 169, 240, 200
-0.990438, 217, 257, 280, 288
-0.990441, 1, 229, 64, 260
-0.990465, 33, 449, 96, 480
-0.990481, 49, 145, 112, 176
-0.990482, 137, 161, 200, 192
-0.990488, 65, 173, 128, 204
-0.990502, 193, 289, 256, 320
-0.990503, 433, 317, 495, 348
-0.990508, 421, 353, 452, 480
-0.990517, 201, 233, 264, 264
-0.990521, 257, 273, 288, 400
-0.990528, 113, 389, 176, 420
-0.990549, 113, 401, 176, 432
-0.990549, 121, 109, 184, 140
-0.99058, 461, 225, 492, 352
-0.990592, 217, 33, 248, 160
-0.990602, 449, 353, 480, 480
-0.99061, 81, 457, 144, 488
-0.99062, 105, 225, 168, 256
-0.990682, 193, 53, 256, 84
-0.990684, 5, 257, 36, 384
-0.990687, 153, 41, 216, 72
-0.990716, 129, 305, 384, 368
-0.990718, 217, 281, 280, 312
-0.990735, 1, 329, 64, 360
-0.990739, 305, 225, 368, 480
-0.990771, 1, 385, 64, 416
-0.990774, 169, 317, 232, 348
-0.990787, 33, 193, 96, 224
-0.990805, 89, 49, 152, 80
-0.990813, 1, 441, 64, 472
-0.990814, 9, 293, 72, 324
-0.990821, 121, 213, 184, 244
-0.990825, 409, 353, 472, 384
-0.990831, 385, 145, 416, 272
-0.990857, 121, 261, 184, 292
-0.990862, 1, 241, 64, 272
-0.990866, 417, 173, 480, 204
-0.990879, 193, 209, 256, 240
-0.990883, 49, 233, 112, 264
-0.99089, 225, 257, 352, 320
-0.990893, 97, 153, 160, 184
-0.990904, 1, 273, 495, 336
-0.99091, 277, 225, 308, 352
-0.990915, 73, 277, 136, 308
-0.990918, 305, 97, 368, 224
-0.990934, 65, 341, 128, 372
-0.990952, 105, 65, 168, 96
-0.990962, 49, 1, 112, 256
-0.990965, 417, 185, 480, 216
-0.990969, 89, 429, 152, 460
-0.99097, 89, 185, 152, 216
-0.990979, 193, 81, 256, 112
-0.990984, 353, 161, 384, 288
-0.990997, 441, 177, 472, 304
-0.991025, 153, 57, 216, 88
-0.991026, 137, 121, 200, 152
-0.991041, 81, 241, 144, 272
-0.991063, 337, 357, 400, 388
-0.991071, 97, 197, 160, 228
-0.991097, 25, 233, 88, 264
-0.991097, 9, 217, 72, 248
-0.991098, 153, 149, 216, 180
-0.991103, 81, 33, 112, 160
-0.991135, 193, 65, 256, 96
-0.99114, 217, 245, 280, 276
-0.991159, 385, 361, 448, 392
-0.991163, 153, 345, 216, 376
-0.991178, 409, 341, 472, 372
-0.99119, 9, 257, 72, 288
-0.991193, 193, 25, 320, 88
-0.991196, 129, 273, 192, 304
-0.991198, 349, 353, 380, 480
-0.991212, 17, 169, 80, 200
-0.991218, 1, 313, 495, 376
-0.991218, 1, 361, 256, 424
-0.991226, 281, 177, 344, 208
-0.991231, 33, 161, 288, 224
-0.991245, 129, 193, 384, 256
-0.991246, 425, 161, 488, 192
-0.991257, 369, 377, 495, 440
-0.991283, 1, 337, 256, 400
-0.991465, 421, 241, 452, 368
-0.991501, 305, 1, 368, 500
-0.991576, 309, 161, 340, 288
-0.991844, 1, 177, 495, 240
-0.991844, 65, 353, 96, 384
-0.991863, 129, 353, 160, 384
-0.991877, 145, 113, 176, 240
-0.991905, 273, 177, 304, 304
-0.991946, 13, 397, 44, 428
-0.991947, 13, 413, 44, 444
-0.991955, 409, 1, 472, 500
-0.991972, 1, 425, 128, 456
-0.991988, 77, 433, 108, 464
-0.991999, 45, 357, 76, 388
-0.992014, 61, 429, 92, 460
-0.992046, 41, 421, 72, 452
-0.992077, 17, 105, 144, 168
-0.992108, 5, 425, 36, 456
-0.992121, 197, 209, 228, 240
-0.992127, 25, 409, 56, 440
-0.992139, 109, 361, 140, 392
-0.99214, 93, 445, 124, 476
-0.992181, 273, 249, 400, 312
-0.992182, 13, 365, 44, 396
-0.992188, 1, 233, 495, 296
-0.992198, 273, 257, 336, 384
-0.992216, 33, 333, 160, 364
-0.992228, 49, 337, 80, 368
-0.992228, 93, 373, 124, 404
-0.992245, 141, 345, 172, 376
-0.99225, 177, 289, 304, 320
-0.992256, 21, 353, 52, 384
-0.992258, 97, 329, 352, 392
-0.992262, 197, 269, 228, 300
-0.992283, 129, 253, 160, 284
-0.992289, 41, 433, 72, 464
-0.992307, 133, 229, 164, 260
-0.99232, 49, 313, 80, 344
-0.992321, 21, 393, 36, 456
-0.992321, 69, 321, 100, 352
-0.992332, 29, 421, 60, 452
-0.992334, 353, 329, 384, 360
-0.992344, 113, 13, 144, 44
-0.992344, 161, 1, 288, 64
-0.99235, 77, 197, 108, 228
-0.99235, 69, 253, 100, 284
-0.992362, 213, 241, 244, 272
-0.992363, 137, 265, 168, 296
-0.992379, 53, 385, 84, 416
-0.992391, 85, 157, 116, 188
-0.992393, 65, 309, 96, 340
-0.992399, 59, 305, 74, 368
-0.992401, 81, 317, 112, 348
-0.992423, 1, 145, 495, 208
-0.992424, 365, 329, 396, 360
-0.992438, 181, 253, 212, 284
-0.992441, 17, 425, 48, 456
-0.992441, 57, 441, 88, 472
-0.992441, 61, 193, 92, 224
-0.992448, 113, 385, 144, 416
-0.992452, 337, 1, 400, 500
-0.992453, 9, 385, 40, 416
-0.992453, 11, 393, 26, 456
-0.992456, 77, 445, 108, 476
-0.992457, 33, 365, 64, 396
-0.992465, 61, 341, 92, 372
-0.992466, 385, 325, 416, 356
-0.992469, 189, 221, 220, 252
-0.99247, 29, 433, 60, 464
-0.992474, 161, 241, 416, 304
-0.992478, 29, 325, 60, 356
-0.992481, 81, 333, 112, 364
-0.992481, 177, 337, 304, 400
-0.992482, 149, 257, 180, 288
-0.992483, 101, 433, 132, 464
-0.992494, 149, 37, 180, 68
-0.992503, 1, 229, 32, 260
-0.992508, 145, 229, 176, 260
-0.99251, 453, 141, 484, 172
-0.992514, 33, 353, 64, 384
-0.992514, 105, 25, 136, 56
-0.992519, 169, 221, 200, 252
-0.99252, 193, 257, 224, 288
-0.992526, 25, 397, 56, 428
-0.992532, 49, 237, 80, 268
-0.992538, 389, 349, 420, 380
-0.992541, 89, 209, 120, 240
-0.992546, 1, 401, 32, 432
-0.992549, 101, 421, 132, 452
-0.992555, 133, 21, 164, 52
-0.992556, 185, 273, 216, 304
-0.992557, 33, 341, 64, 372
-0.992558, 105, 445, 136, 476
-0.992559, 181, 149, 212, 180
-0.99256, 129, 277, 160, 308
-0.992564, 61, 181, 92, 212
-0.992573, 141, 357, 172, 388
-0.992573, 113, 221, 144, 252
-0.992574, 1, 353, 32, 384
-0.992578, 81, 265, 112, 296
-0.992582, 217, 269, 248, 300
-0.992584, 93, 309, 124, 340
-0.992587, 149, 333, 180, 364
-0.992591, 213, 257, 244, 288
-0.992599, 13, 333, 44, 364
-0.992601, 113, 433, 144, 464
-0.992604, 25, 281, 56, 312
-0.992604, 181, 161, 212, 192
-0.992606, 81, 305, 112, 336
-0.992614, 29, 377, 60, 408
-0.992618, 121, 365, 152, 396
-0.992618, 101, 457, 132, 488
-0.992619, 201, 245, 232, 276
-0.992619, 105, 69, 136, 100
-0.992625, 225, 161, 480, 224
-0.99263, 37, 409, 68, 440
-0.992632, 101, 401, 132, 432
-0.992636, 49, 197, 80, 228
-0.992641, 121, 241, 152, 272
-0.992644, 253, 289, 284, 320
-0.992647, 73, 185, 104, 216
-0.992649, 45, 225, 76, 256
-0.992657, 133, 241, 164, 272
-0.992662, 101, 385, 132, 416
-0.992665, 409, 353, 440, 384
-0.992668, 105, 89, 136, 120
-0.992681, 101, 221, 132, 252
-0.992685, 17, 361, 144, 392
-0.992688, 241, 285, 272, 316
-0.992693, 125, 405, 156, 436
-0.992693, 461, 333, 492, 364
-0.992695, 125, 381, 156, 412
-0.992697, 57, 325, 88, 356
-0.992698, 73, 421, 104, 452
-0.992698, 117, 421, 148, 452
-0.992708, 225, 329, 480, 392
-0.992709, 53, 161, 84, 192
-0.992714, 465, 129, 495, 160
-0.992716, 345, 345, 376, 376
-0.992716, 73, 153, 104, 184
-0.992717, 49, 349, 176, 380
-0.992718, 185, 173, 216, 204
-0.992718, 229, 281, 260, 312
-0.99272, 17, 229, 48, 260
-0.992724, 201, 221, 232, 252
-0.992729, 181, 209, 212, 240
-0.99273, 213, 229, 244, 260
-0.99273, 69, 365, 100, 396
-0.992734, 149, 25, 180, 56
-0.992734, 169, 253, 200, 284
-0.992734, 49, 177, 80, 208
-0.992739, 1, 241, 32, 272
-0.992754, 201, 281, 232, 312
-0.992765, 265, 293, 296, 324
-0.992767, 377, 337, 408, 368
-0.992773, 209, 369, 336, 496
-0.992774, 153, 349, 184, 380
-0.992775, 61, 297, 92, 328
-0.992796, 129, 217, 384, 280
-0.99281, 1, 337, 495, 400
-0.992826, 73, 305, 88, 368
-0.992834, 137, 345, 152, 408
-0.992837, 33, 401, 288, 464
-0.992849, 209, 377, 336, 440
-0.992882, 377, 1, 440, 500
-0.992893, 143, 225, 158, 288
-0.992916, 119, 353, 134, 416
-0.992945, 129, 269, 256, 300
-0.99298, 1, 401, 128, 432
-0.993023, 337, 433, 464, 496
-0.993047, 15, 361, 30, 424
-0.993048, 393, 33, 456, 288
-0.993094, 1, 201, 495, 264
-0.993154, 305, 377, 432, 440
-0.993203, 67, 313, 82, 376
-0.993234, 377, 257, 440, 500
-0.993241, 131, 353, 146, 416
-0.993258, 117, 409, 132, 472
-0.993263, 65, 257, 192, 288
-0.993318, 45, 401, 60, 464
-0.993354, 33, 25, 288, 88
-0.99336, 33, 57, 288, 120
-0.993412, 1, 345, 128, 376
-0.993427, 69, 417, 84, 480
-0.993467, 55, 329, 70, 392
-0.993488, 39, 313, 54, 376
-0.993512, 257, 369, 384, 432
-0.993535, 225, 193, 480, 256
-0.99356, 129, 225, 256, 256
-0.993565, 321, 409, 448, 472
-0.993575, 77, 337, 92, 400
-0.993578, 31, 321, 46, 384
-0.9936, 97, 205, 224, 236
-0.993606, 329, 225, 392, 480
-0.993608, 209, 145, 336, 208
-0.99361, 241, 121, 368, 184
-0.993639, 25, 353, 40, 416
-0.993641, 321, 341, 448, 372
-0.993651, 321, 257, 448, 320
-0.993668, 33, 345, 48, 408
-0.993695, 129, 249, 256, 280
-0.993706, 129, 281, 384, 344
-0.993739, 65, 361, 192, 392
-0.993748, 369, 89, 495, 152
-0.993757, 49, 269, 176, 300
-0.99376, 83, 321, 98, 384
-0.993762, 1, 121, 256, 184
-0.993782, 97, 153, 112, 216
-0.993791, 353, 325, 480, 356
-0.993793, 321, 1, 448, 128
-0.993804, 83, 265, 98, 328
-0.993827, 123, 377, 138, 440
-0.993855, 1, 361, 495, 424
-0.993867, 39, 401, 54, 464
-0.993872, 67, 345, 82, 408
-0.993875, 111, 17, 126, 80
-0.993887, 1, 361, 16, 424
-0.993899, 65, 25, 192, 56
-0.993919, 137, 233, 152, 296
-0.99394, 17, 321, 144, 352
-0.993952, 29, 393, 44, 456
-0.993972, 143, 337, 158, 400
-0.993986, 151, 345, 166, 408
-0.993989, 369, 41, 495, 104
-0.994007, 59, 353, 74, 416
-0.994029, 55, 161, 70, 224
-0.994037, 65, 373, 192, 404
-0.994047, 125, 345, 140, 408
-0.994105, 187, 137, 202, 200
-0.994107, 1, 253, 128, 284
-0.994116, 1, 393, 495, 456
-0.99412, 225, 353, 480, 416
-0.994141, 1, 113, 495, 176
-0.994167, 65, 153, 80, 216
-0.994182, 177, 277, 304, 308
-0.994204, 109, 65, 124, 128
-0.994214, 455, 137, 470, 200
-0.994266, 1, 413, 128, 444
-0.99427, 213, 241, 228, 304
-0.994304, 79, 297, 94, 360
-0.994314, 43, 337, 58, 400
-0.994315, 53, 417, 68, 480
-0.994319, 353, 321, 368, 384
-0.994328, 85, 425, 100, 488
-0.994342, 81, 401, 96, 464
-0.994349, 35, 377, 50, 440
-0.994353, 127, 25, 142, 88
-0.994362, 103, 25, 118, 88
-0.994365, 113, 433, 240, 496
-0.994374, 129, 169, 384, 232
-0.99439, 25, 321, 40, 384
-0.994394, 75, 393, 90, 456
-0.994403, 1, 389, 128, 420
-0.994417, 11, 337, 26, 400
-0.994429, 49, 417, 176, 448
-0.994429, 49, 389, 176, 420
-0.99443, 65, 321, 192, 352
-0.994447, 33, 97, 288, 160
-0.994449, 49, 321, 64, 384
-0.994459, 129, 145, 384, 208
-0.994465, 51, 393, 66, 456
-0.994472, 185, 225, 200, 288
-0.994487, 405, 329, 420, 392
-0.994506, 1, 401, 16, 464
-0.994511, 225, 265, 480, 328
-0.994537, 81, 193, 208, 224
-0.99455, 81, 161, 208, 192
-0.994552, 57, 185, 72, 248
-0.994556, 71, 241, 86, 304
-0.994577, 17, 377, 144, 408
-0.994579, 153, 225, 168, 288
-0.994586, 119, 9, 134, 72
-0.994597, 19, 329, 34, 392
-0.994621, 89, 329, 104, 392
-0.994624, 81, 241, 96, 304
-0.994632, 223, 225, 238, 288
-0.994653, 79, 425, 94, 488
-0.994656, 131, 233, 146, 296
-0.994657, 257, 113, 320, 240
-0.994659, 33, 217, 160, 248
-0.99466, 73, 281, 88, 344
-0.994677, 27, 417, 42, 480
-0.994683, 63, 185, 78, 248
-0.994684, 17, 437, 144, 468
-0.994692, 157, 25, 172, 88
-0.994692, 375, 321, 390, 384
-0.994699, 213, 209, 228, 272
-0.994711, 63, 417, 78, 480
-0.994712, 231, 249, 246, 312
-0.994721, 33, 425, 288, 488
-0.994724, 113, 361, 128, 424
-0.994747, 97, 353, 352, 416
-0.994751, 133, 25, 148, 88
-0.994752, 17, 165, 144, 196
-0.994758, 177, 225, 192, 288
-0.994784, 395, 305, 410, 368
-0.994799, 111, 41, 126, 104
-0.994825, 11, 417, 26, 480
-0.994857, 265, 1, 328, 500
-0.994862, 81, 181, 208, 212
-0.994871, 61, 329, 76, 392
-0.994887, 49, 353, 64, 416
-0.994891, 97, 409, 112, 472
-0.994899, 1, 417, 495, 480
-0.994903, 1, 309, 128, 340
-0.994905, 109, 217, 124, 280
-0.994905, 125, 217, 140, 280
-0.994915, 171, 217, 186, 280
-0.994916, 91, 153, 106, 216
-0.99492, 81, 333, 208, 364
-0.994941, 197, 297, 212, 360
-0.99495, 129, 237, 256, 268
-0.994956, 369, 65, 495, 128
-0.99496, 193, 97, 320, 160
-0.994976, 143, 33, 158, 96
-0.994984, 195, 209, 210, 272
-0.994986, 217, 129, 280, 256
-0.994988, 193, 369, 256, 496
-0.994997, 201, 249, 216, 312
-0.995006, 1, 281, 128, 312
-0.995011, 57, 257, 88, 500
-0.995018, 191, 265, 206, 328
-0.995036, 115, 217, 130, 280
-0.995036, 49, 229, 176, 260
-0.995039, 105, 409, 120, 472
-0.995039, 17, 193, 144, 224
-0.995047, 361, 321, 376, 384
-0.995052, 249, 257, 312, 500
-0.995056, 47, 297, 62, 360
-0.995064, 51, 193, 66, 256
-0.99507, 129, 337, 256, 368
-0.995071, 65, 245, 192, 276
-0.995074, 45, 193, 76, 448
-0.99508, 153, 321, 168, 384
-0.995093, 113, 353, 240, 384
-0.995104, 191, 241, 206, 304
-0.995107, 63, 225, 78, 288
-0.995116, 89, 361, 104, 424
-0.995125, 185, 129, 216, 384
-0.99513, 207, 241, 222, 304
-0.995136, 13, 225, 28, 288
-0.995148, 43, 425, 58, 488
-0.995149, 55, 217, 70, 280
-0.995153, 77, 153, 92, 216
-0.995161, 177, 265, 304, 296
-0.995169, 297, 1, 360, 256
-0.99517, 163, 25, 178, 88
-0.995172, 367, 321, 382, 384
-0.995178, 421, 177, 436, 240
-0.995181, 65, 109, 192, 140
-0.99519, 125, 1, 140, 64
-0.995191, 1, 293, 128, 324
-0.995193, 65, 401, 192, 432
-0.9952, 83, 353, 98, 416
-0.9952, 177, 217, 304, 248
-0.995208, 161, 225, 176, 288
-0.995222, 87, 401, 102, 464
-0.995239, 205, 201, 220, 264
-0.995239, 17, 181, 144, 212
-0.995242, 81, 37, 208, 68
-0.995251, 49, 281, 176, 312
-0.995255, 177, 301, 304, 332
-0.995262, 177, 253, 304, 284
-0.995269, 97, 281, 224, 312
-0.995272, 297, 129, 360, 384
-0.995273, 23, 249, 38, 312
-0.995276, 63, 129, 78, 192
-0.995281, 345, 97, 408, 352
-0.995337, 159, 329, 174, 392
-0.995354, 151, 17, 166, 80
-0.99536, 5, 217, 20, 280
-0.995361, 173, 321, 188, 384
-0.995371, 165, 161, 196, 416
-0.995373, 35, 425, 50, 488
-0.995404, 137, 225, 168, 480
-0.995404, 475, 49, 490, 112
-0.99542, 37, 257, 52, 320
-0.995422, 135, 201, 150, 264
-0.995438, 151, 193, 166, 256
-0.995452, 273, 329, 400, 360
-0.995453, 161, 417, 288, 480
-0.995469, 321, 357, 448, 388
-0.995475, 429, 161, 444, 224
-0.995476, 145, 361, 160, 424
-0.995492, 411, 337, 426, 400
-0.995497, 477, 105, 492, 168
-0.9955, 145, 73, 272, 104
-0.995516, 21, 417, 36, 480
-0.995541, 145, 325, 272, 356
-0.995561, 257, 65, 384, 128
-0.995605, 17, 205, 144, 236
-0.995628, 33, 193, 64, 448
-0.995629, 161, 201, 288, 232
-0.995636, 81, 149, 208, 180
-0.995638, 145, 53, 272, 84
-0.99566, 337, 181, 464, 212
-0.995667, 1, 449, 128, 480
-0.995681, 225, 137, 480, 200
-0.995696, 113, 193, 144, 448
-0.995713, 153, 161, 184, 416
-0.995721, 197, 161, 228, 416
-0.995755, 81, 61, 208, 92
-0.995756, 369, 337, 495, 368
-0.995785, 129, 89, 384, 152
-0.995793, 177, 229, 304, 260
-0.995812, 65, 309, 192, 340
-0.99582, 1, 153, 128, 184
-0.995822, 369, 169, 495, 200
-0.995856, 97, 1, 352, 64
-0.995884, 177, 241, 304, 272
-0.995891, 81, 193, 112, 448
-0.995927, 225, 217, 480, 280
-0.995937, 129, 57, 384, 120
-0.995959, 353, 313, 480, 344
-0.995966, 13, 225, 44, 480
-0.995983, 113, 89, 240, 120
-0.996014, 1, 241, 128, 272
-0.996044, 49, 297, 176, 328
-0.996048, 161, 153, 288, 184
-0.996052, 65, 429, 192, 460
-0.996062, 225, 433, 352, 496
-0.996062, 145, 313, 272, 344
-0.996148, 81, 49, 208, 80
-0.996149, 129, 365, 256, 396
-0.996169, 101, 257, 132, 500
-0.996207, 125, 193, 156, 448
-0.996245, 97, 385, 224, 416
-0.996259, 321, 169, 448, 200
-0.996259, 41, 429, 56, 460
-0.996269, 385, 1, 448, 128
-0.996271, 305, 105, 432, 168
-0.996271, 49, 121, 176, 152
-0.996292, 369, 145, 495, 176
-0.996313, 257, 1, 384, 64
-0.996327, 241, 1, 304, 500
-0.996381, 129, 121, 384, 184
-0.996392, 65, 97, 96, 352
-0.9964, 321, 157, 448, 188
-0.99641, 81, 441, 208, 472
-0.996419, 97, 73, 224, 104
-0.996425, 17, 413, 32, 444
-0.996429, 113, 293, 240, 324
-0.99648, 161, 189, 288, 220
-0.996481, 145, 345, 160, 376
-0.996488, 105, 65, 136, 320
-0.996512, 225, 297, 480, 360
-0.996514, 1, 265, 128, 296
-0.996522, 273, 401, 400, 464
-0.996529, 81, 217, 208, 248
-0.996532, 145, 101, 272, 132
-0.996534, 31, 421, 46, 452
-0.996541, 129, 33, 384, 96
-0.996567, 161, 177, 288, 208
-0.996572, 69, 257, 100, 500
-0.996588, 225, 237, 352, 268
-0.996607, 97, 13, 224, 44
-0.996629, 67, 429, 82, 460
-0.996636, 35, 409, 50, 440
-0.996638, 177, 225, 208, 480
-0.996676, 11, 425, 26, 456
-0.996776, 199, 265, 214, 296
-0.996789, 193, 385, 448, 448
-0.996794, 361, 209, 424, 336
-0.9968, 21, 425, 36, 456
-0.996815, 53, 429, 68, 460
-0.996821, 11, 409, 26, 440
-0.996821, 161, 65, 192, 320
-0.996848, 353, 1, 416, 256
-0.996849, 73, 429, 88, 460
-0.99685, 93, 129, 124, 384
-0.99689, 55, 185, 70, 216
-0.996891, 25, 393, 40, 424
-0.9969, 97, 417, 224, 448
-0.9969, 23, 413, 38, 444
-0.996906, 1, 89, 495, 152
-0.99691, 61, 369, 76, 400
-0.996914, 21, 129, 52, 384
-0.996915, 125, 97, 156, 352
-0.996921, 225, 297, 352, 328
-0.996932, 257, 173, 384, 204
-0.996936, 73, 341, 88, 372
-0.996942, 117, 377, 132, 408
-0.996953, 369, 133, 495, 164
-0.996954, 41, 417, 56, 448
-0.996956, 337, 197, 464, 228
-0.996972, 123, 361, 138, 392
-0.996977, 73, 309, 88, 340
-0.99698, 257, 341, 384, 372
-0.996983, 161, 165, 288, 196
-0.996987, 53, 353, 68, 384
-0.996995, 43, 345, 58, 376
-0.996995, 139, 349, 154, 380
-0.996998, 59, 425, 74, 456
-0.996999, 225, 409, 352, 472
-0.997007, 193, 81, 320, 112
-0.997008, 35, 349, 50, 380
-0.997009, 97, 445, 112, 476
-0.997013, 145, 257, 160, 288
-0.997018, 143, 229, 158, 260
-0.997023, 257, 97, 384, 160
-0.997028, 67, 361, 82, 392
-0.997034, 225, 33, 288, 288
-0.997038, 187, 137, 202, 168
-0.997049, 129, 37, 256, 68
-0.997051, 47, 417, 62, 448
-0.997052, 369, 301, 495, 332
-0.997052, 11, 397, 26, 428
-0.997058, 273, 297, 400, 328
-0.997059, 49, 13, 176, 44
-0.997062, 369, 157, 495, 188
-0.997076, 95, 317, 110, 348
-0.997079, 93, 193, 108, 224
-0.997087, 337, 241, 464, 272
-0.997095, 205, 265, 220, 296
-0.997098, 137, 65, 168, 320
-0.997102, 353, 329, 368, 360
-0.997105, 321, 369, 448, 400
-0.997107, 1, 161, 32, 416
-0.997107, 55, 161, 70, 192
-0.997113, 67, 345, 82, 376
-0.99712, 209, 205, 336, 236
-0.997138, 241, 41, 368, 104
-0.997143, 369, 273, 495, 304
-0.997144, 81, 273, 96, 304
-0.997157, 19, 401, 34, 432
-0.997162, 77, 353, 92, 384
-0.997163, 87, 433, 102, 464
-0.997166, 29, 409, 44, 440
-0.997179, 369, 361, 495, 392
-0.997184, 125, 225, 140, 256
-0.997187, 59, 337, 74, 368
-0.997188, 151, 341, 166, 372
-0.997191, 113, 365, 128, 396
-0.997197, 113, 17, 128, 48
-0.997197, 149, 65, 180, 320
-0.997207, 97, 377, 352, 440
-0.997209, 455, 137, 470, 168
-0.997226, 217, 237, 232, 268
-0.997226, 137, 233, 152, 264
-0.997228, 139, 265, 154, 296
-0.997236, 49, 337, 64, 368
-0.997238, 139, 253, 154, 284
-0.99724, 113, 85, 128, 116
-0.997247, 429, 257, 460, 500
-0.997251, 65, 453, 192, 484
-0.997253, 353, 285, 480, 316
-0.997256, 421, 161, 452, 416
-0.99726, 61, 313, 76, 344
-0.997275, 33, 53, 160, 84
-0.997281, 39, 365, 54, 396
-0.997287, 45, 361, 60, 392
-0.997288, 405, 345, 420, 376
-0.997297, 433, 129, 464, 384
-0.997298, 97, 205, 112, 236
-0.997306, 115, 389, 130, 420
-0.997309, 79, 321, 94, 352
-0.99731, 225, 225, 352, 256
-0.997319, 151, 253, 166, 284
-0.99732, 33, 373, 48, 404
-0.997322, 273, 285, 400, 316
-0.997329, 131, 277, 146, 308
-0.997339, 29, 353, 44, 384
-0.997341, 225, 265, 352, 296
-0.997344, 81, 137, 208, 168
-0.997347, 369, 17, 495, 80
-0.997352, 69, 325, 84, 356
-0.997353, 257, 213, 384, 244
-0.997357, 225, 321, 352, 384
-0.997358, 109, 65, 124, 96
-0.99736, 191, 225, 206, 256
-0.997368, 375, 329, 390, 360
-0.99737, 79, 309, 94, 340
-0.997371, 155, 357, 170, 388
-0.997373, 225, 113, 480, 176
-0.997373, 273, 317, 400, 348
-0.997375, 209, 197, 224, 228
-0.997384, 209, 193, 240, 448
-0.997386, 59, 225, 74, 256
-0.997394, 85, 321, 100, 352
-0.997397, 81, 97, 112, 352
-0.997398, 113, 397, 240, 428
-0.9974, 257, 185, 384, 216
-0.997403, 201, 205, 216, 236
-0.997404, 229, 241, 244, 272
-0.997409, 205, 253, 220, 284
-0.99742, 123, 377, 138, 408
-0.997421, 85, 253, 100, 284
-0.997421, 61, 437, 76, 468
-0.997422, 193, 253, 208, 284
-0.997434, 105, 449, 120, 480
-0.997438, 115, 437, 130, 468
-0.997442, 73, 181, 88, 212
-0.997444, 145, 21, 272, 52
-0.997445, 193, 53, 320, 84
-0.997448, 213, 249, 228, 280
-0.997453, 49, 397, 64, 428
-0.997456, 125, 13, 140, 44
-0.997461, 137, 361, 152, 392
-0.997467, 57, 197, 72, 228
-0.997478, 127, 393, 142, 424
-0.997481, 113, 113, 240, 144
-0.99749, 193, 69, 320, 100
-0.997492, 169, 29, 184, 60
-0.997501, 35, 433, 50, 464
-0.997501, 5, 357, 20, 388
-0.997503, 205, 277, 220, 308
-0.997513, 197, 281, 212, 312
-0.997513, 103, 309, 118, 340
-0.997514, 129, 353, 144, 384
-0.997518, 211, 273, 226, 304
-0.997523, 193, 417, 448, 480
-0.997524, 49, 97, 176, 128
-0.99753, 97, 161, 112, 192
-0.997536, 47, 429, 62, 460
-0.997536, 79, 433, 94, 464
-0.997536, 163, 41, 178, 72
-0.997543, 87, 197, 102, 228
-0.99755, 51, 205, 66, 236
-0.99756, 211, 209, 226, 240
-0.997565, 83, 185, 98, 216
-0.997566, 55, 173, 70, 204
-0.997575, 337, 261, 464, 292
-0.997575, 49, 305, 64, 336
-0.997584, 41, 405, 56, 436
-0.99759, 181, 217, 196, 248
-0.997594, 13, 345, 28, 376
-0.997598, 411, 361, 426, 392
-0.9976, 119, 417, 134, 448
-0.997614, 257, 353, 384, 384
-0.997618, 55, 441, 70, 472
-0.997618, 67, 441, 82, 472
-0.997626, 65, 177, 80, 208
-0.997626, 79, 333, 94, 364
-0.997627, 23, 357, 38, 388
-0.997636, 185, 245, 200, 276
-0.997637, 137, 277, 152, 308
-0.997643, 143, 241, 158, 272
-0.997645, 481, 113, 495, 144
-0.997656, 15, 365, 30, 396
-0.997659, 145, 269, 160, 300
-0.997664, 35, 397, 50, 428
-0.997678, 399, 349, 414, 380
-0.99768, 73, 445, 88, 476
-0.997681, 77, 253, 92, 284
-0.997686, 457, 97, 488, 352
-0.997701, 1, 49, 495, 112
-0.997701, 273, 1, 400, 128
-0.997739, 45, 97, 76, 352
-0.99774, 445, 129, 476, 384
-0.997803, 409, 161, 440, 416
-0.997811, 213, 97, 244, 352
-0.997826, 165, 257, 196, 500
-0.997835, 153, 257, 184, 500
-0.99787, 93, 33, 124, 288
-0.997997, 253, 225, 284, 480
-0.998059, 197, 257, 228, 500
-0.998066, 197, 65, 228, 320
-0.998084, 221, 225, 252, 480
-0.998097, 305, 65, 432, 128
-0.998132, 273, 161, 304, 416
-0.998175, 321, 17, 448, 80
-0.998196, 1, 65, 32, 320
-0.998197, 1, 1, 256, 64
-0.998238, 341, 129, 372, 384
-0.998246, 361, 225, 392, 480
-0.998282, 119, 369, 134, 496
-0.998301, 25, 427, 88, 442
-0.998301, 181, 1, 212, 256
-0.99832, 305, 41, 432, 104
-0.998327, 37, 337, 52, 464
-0.998336, 161, 369, 224, 496
-0.998355, 1, 419, 64, 434
-0.998366, 345, 333, 408, 348
-0.998372, 89, 369, 152, 384
-0.998373, 113, 363, 176, 378
-0.99838, 113, 257, 176, 272
-0.998381, 1, 403, 64, 418
-0.998389, 385, 257, 416, 500
-0.998395, 129, 337, 144, 464
-0.998399, 33, 351, 96, 366
-0.998402, 201, 285, 264, 300
-0.998411, 117, 1, 148, 256
-0.998416, 9, 435, 72, 450
-0.998416, 185, 273, 248, 288
-0.998424, 65, 433, 128, 448
-0.998427, 145, 263, 208, 278
-0.998432, 121, 357, 184, 372
-0.998433, 93, 353, 108, 480
-0.998433, 17, 361, 80, 376
-0.998434, 129, 351, 192, 366
-0.998435, 81, 427, 144, 442
-0.998439, 19, 337, 34, 464
-0.998442, 33, 433, 96, 448
-0.998443, 1, 355, 64, 370
-0.998448, 1, 367, 64, 382
-0.998449, 105, 21, 168, 36
-0.998449, 81, 361, 144, 376
-0.998451, 9, 347, 72, 362
-0.998457, 345, 339, 408, 354
-0.998458, 33, 325, 96, 340
-0.998459, 49, 363, 112, 378
-0.998459, 177, 215, 240, 230
-0.99846, 1, 397, 64, 412
-0.99846, 1, 429, 64, 444
-0.99846, 57, 201, 120, 216
-0.99846, 33, 287, 96, 302
-0.998463, 41, 345, 104, 360
-0.998464, 89, 263, 152, 278
-0.998465, 185, 279, 248, 294
-0.998467, 49, 427, 112, 442
-0.99847, 33, 439, 96, 454
-0.99847, 65, 445, 128, 460
-0.998471, 177, 221, 240, 236
-0.998472, 113, 379, 176, 394
-0.998473, 25, 421, 88, 436
-0.998474, 377, 327, 440, 342
-0.998477, 193, 249, 256, 264
-0.998479, 57, 209, 120, 224
-0.99848, 1, 375, 64, 390
-0.99848, 49, 369, 112, 384
-0.998481, 73, 391, 136, 406
-0.998483, 185, 267, 248, 282
-0.998485, 57, 195, 120, 210
-0.998485, 185, 243, 248, 258
-0.998485, 41, 183, 104, 198
-0.998486, 117, 415, 148, 430
-0.998486, 57, 331, 120, 346
-0.998487, 61, 435, 92, 450
-0.998487, 181, 253, 212, 268
-0.998487, 137, 233, 200, 248
-0.998487, 25, 353, 40, 480
-0.998487, 181, 153, 212, 168
-0.998487, 33, 403, 64, 418
-0.998487, 49, 155, 112, 170
-0.998488, 41, 203, 72, 218
-0.998488, 81, 209, 112, 224
-0.998488, 65, 421, 128, 436
-0.998489, 1, 243, 32, 258
-0.998489, 237, 285, 268, 300
-0.998489, 33, 401, 96, 416
-0.99849, 25, 369, 88, 384
-0.99849, 109, 449, 140, 464
-0.99849, 57, 311, 120, 326
-0.998492, 105, 437, 136, 452
-0.998492, 17, 229, 48, 244
-0.998492, 45, 345, 76, 360
-0.998492, 153, 231, 184, 246
-0.998492, 33, 347, 64, 362
-0.998494, 81, 221, 144, 236
-0.998494, 109, 443, 140, 458
-0.998494, 41, 249, 104, 264
-0.998495, 81, 375, 144, 390
-0.998495, 105, 393, 136, 408
-0.998496, 89, 417, 152, 432
-0.998496, 81, 333, 112, 348
-0.998496, 113, 387, 144, 402
-0.998497, 197, 209, 228, 224
-0.998497, 141, 35, 172, 50
-0.998497, 57, 215, 120, 230
-0.998497, 81, 305, 112, 320
-0.998498, 185, 173, 216, 188
-0.998498, 129, 251, 160, 266
-0.998498, 169, 255, 232, 270
-0.998498, 381, 323, 412, 338
-0.998499, 121, 403, 152, 418
-0.9985, 461, 333, 492, 348
-0.9985, 201, 221, 232, 236
-0.998501, 49, 339, 112, 354
-0.998501, 101, 95, 132, 110
-0.998501, 177, 217, 208, 232
-0.998501, 1, 413, 64, 428
-0.998502, 25, 281, 56, 296
-0.998502, 181, 163, 212, 178
-0.998502, 73, 399, 136, 414
-0.998502, 37, 225, 68, 240
-0.998503, 249, 289, 280, 304
-0.998503, 9, 437, 40, 452
-0.998503, 73, 305, 136, 320
-0.998503, 105, 73, 136, 88
-0.998503, 385, 339, 416, 354
-0.998505, 89, 259, 120, 274
-0.998505, 1, 407, 32, 422
-0.998505, 9, 353, 40, 368
-0.998505, 41, 393, 104, 408
-0.998506, 109, 381, 140, 396
-0.998506, 33, 281, 96, 296
-0.998508, 113, 385, 176, 400
-0.998508, 137, 269, 200, 284
-0.998508, 177, 227, 240, 242
-0.998509, 197, 247, 228, 262
-0.99851, 17, 339, 80, 354
-0.998511, 113, 369, 176, 384
-0.998512, 89, 265, 120, 280
-0.998513, 157, 41, 188, 56
-0.998513, 129, 371, 160, 386
-0.998514, 65, 385, 128, 400
-0.998514, 99, 305, 114, 432
-0.998515, 133, 405, 164, 420
-0.998515, 137, 345, 200, 360
-0.998515, 61, 193, 92, 208
-0.998516, 57, 325, 120, 340
-0.998517, 193, 275, 224, 290
-0.998517, 149, 341, 180, 356
-0.998517, 41, 317, 104, 332
-0.998517, 465, 193, 495, 448
-0.998518, 377, 339, 440, 354
-0.998518, 61, 311, 92, 326
-0.998519, 145, 355, 176, 370
-0.998519, 45, 449, 76, 464
-0.998521, 65, 349, 96, 364
-0.998521, 185, 257, 200, 384
-0.998521, 133, 275, 164, 290
-0.998522, 33, 447, 96, 462
-0.998523, 37, 377, 68, 392
-0.998523, 177, 209, 240, 224
-0.998523, 83, 353, 98, 480
-0.998524, 9, 391, 72, 406
-0.998524, 129, 31, 192, 46
-0.998525, 129, 281, 160, 296
-0.998525, 209, 249, 240, 264
-0.998525, 41, 357, 104, 372
-0.998527, 9, 367, 40, 382
-0.998528, 145, 227, 208, 242
-0.998529, 57, 391, 88, 406
-0.99853, 1, 359, 32, 374
-0.998531, 81, 451, 144, 466
-0.998531, 73, 155, 104, 170
-0.998531, 113, 363, 144, 378
-0.998531, 41, 189, 104, 204
-0.998531, 89, 407, 152, 422
-0.998531, 33, 293, 96, 308
-0.998532, 393, 361, 424, 376
-0.998532, 49, 255, 112, 270
-0.998533, 105, 229, 168, 244
-0.998533, 185, 235, 248, 250
-0.998534, 65, 439, 128, 454
-0.998534, 57, 385, 88, 400
-0.998535, 89, 355, 152, 370
-0.998536, 393, 345, 424, 360
-0.998536, 249, 297, 312, 312
-0.998536, 137, 255, 200, 270
-0.998536, 221, 283, 252, 298
-0.998536, 249, 337, 312, 464
-0.998537, 93, 373, 124, 388
-0.998537, 29, 427, 60, 442
-0.998538, 181, 265, 212, 280
-0.998538, 9, 385, 72, 400
-0.998539, 169, 187, 232, 202
-0.998539, 337, 345, 400, 360
-0.998539, 149, 255, 180, 270
-0.998539, 113, 395, 176, 410
-0.998541, 133, 365, 164, 380
-0.998541, 81, 449, 112, 464
-0.998541, 81, 459, 144, 474
-0.998543, 93, 435, 124, 450
-0.998544, 25, 413, 88, 428
-0.998544, 453, 143, 484, 158
-0.998545, 33, 97, 64, 352
-0.998546, 65, 189, 128, 204
-0.998546, 145, 221, 208, 236
-0.998547, 141, 267, 172, 282
-0.998549, 81, 441, 112, 456
-0.998549, 57, 161, 120, 176
-0.99855, 353, 327, 416, 342
-0.99855, 49, 149, 112, 164
-0.99855, 361, 347, 424, 362
-0.998551, 49, 379, 112, 394
-0.998551, 89, 383, 152, 398
-0.998552, 205, 271, 236, 286
-0.998552, 97, 103, 160, 118
-0.998552, 41, 243, 104, 258
-0.998553, 1, 441, 64, 456
-0.998555, 65, 175, 128, 190
-0.998556, 161, 261, 192, 276
-0.998556, 233, 291, 296, 306
-0.998556, 59, 369, 74, 496
-0.998557, 9, 231, 72, 246
-0.998557, 405, 363, 436, 378
-0.998557, 105, 221, 136, 236
-0.998558, 57, 447, 88, 462
-0.998558, 225, 49, 480, 112
-0.998559, 209, 243, 272, 258
-0.998559, 17, 331, 80, 346
-0.998559, 41, 435, 72, 450
-0.998559, 113, 263, 176, 278
-0.99856, 169, 197, 232, 212
-0.99856, 177, 261, 240, 276
-0.998561, 65, 429, 96, 444
-0.998561, 17, 253, 80, 268
-0.998562, 129, 359, 160, 374
-0.998562, 153, 337, 216, 352
-0.998562, 153, 161, 216, 176
-0.998563, 177, 203, 240, 218
-0.998563, 49, 239, 80, 254
-0.998563, 137, 249, 200, 264
-0.998563, 129, 45, 192, 60
-0.998564, 73, 257, 136, 272
-0.998564, 33, 275, 96, 290
-0.998564, 161, 269, 224, 284
-0.998565, 33, 371, 64, 386
-0.998565, 49, 369, 64, 496
-0.998568, 381, 329, 412, 344
-0.998568, 25, 397, 56, 412
-0.998569, 21, 437, 52, 452
-0.998569, 9, 423, 40, 438
-0.998569, 13, 407, 44, 422
-0.99857, 109, 369, 140, 384
-0.998572, 133, 21, 164, 36
-0.998573, 193, 241, 208, 368
-0.998576, 13, 373, 44, 388
-0.99858, 9, 337, 24, 464
-0.998581, 25, 361, 56, 376
-0.998581, 149, 261, 180, 276
-0.998581, 173, 223, 204, 238
-0.998584, 9, 429, 40, 444
-0.998585, 121, 227, 152, 242
-0.998586, 289, 433, 416, 496
-0.998587, 65, 327, 96, 342
-0.998588, 213, 243, 244, 258
-0.998589, 41, 365, 72, 380
-0.998591, 53, 337, 84, 352
-0.998598, 21, 419, 52, 434
-0.998601, 205, 279, 236, 294
-0.998601, 145, 347, 176, 362
-0.998603, 213, 1, 244, 256
-0.998605, 105, 353, 120, 480
-0.998607, 197, 215, 228, 230
-0.998607, 101, 459, 132, 474
-0.998608, 93, 443, 124, 458
-0.99861, 33, 353, 64, 368
-0.998612, 33, 421, 64, 436
-0.998613, 65, 361, 96, 376
-0.998614, 13, 395, 44, 410
-0.998614, 77, 323, 108, 338
-0.998615, 73, 435, 104, 450
-0.998615, 65, 305, 80, 432
-0.998616, 113, 17, 144, 32
-0.998618, 211, 193, 226, 320
-0.998623, 25, 411, 56, 426
-0.998627, 57, 441, 88, 456
-0.998628, 133, 231, 164, 246
-0.99863, 9, 401, 40, 416
-0.998631, 105, 27, 136, 42
-0.998632, 133, 257, 164, 272
-0.998634, 59, 145, 74, 272
-0.99864, 441, 257, 472, 500
-0.998642, 133, 353, 164, 368
-0.998646, 53, 427, 84, 442
-0.99865, 41, 289, 56, 416
-0.998654, 93, 453, 124, 468
-0.998657, 59, 289, 74, 416
-0.998659, 51, 289, 66, 416
-0.998674, 457, 1, 488, 256
-0.998678, 345, 225, 376, 480
-0.998681, 81, 1, 112, 256
-0.998682, 53, 353, 84, 368
-0.998684, 257, 65, 320, 320
-0.998687, 55, 209, 70, 336
-0.998689, 193, 269, 224, 284
-0.998694, 143, 193, 158, 320
-0.998695, 101, 145, 116, 272
-0.998696, 1, 353, 16, 480
-0.998699, 65, 355, 96, 370
-0.9987, 205, 177, 220, 304
-0.998701, 9, 417, 40, 432
-0.998706, 203, 225, 218, 352
-0.998714, 77, 353, 92, 480
-0.998723, 45, 359, 76, 374
-0.998724, 73, 273, 88, 400
-0.998729, 333, 225, 364, 480
-0.998736, 147, 321, 162, 448
-0.99874, 381, 161, 412, 416
-0.998741, 179, 177, 194, 304
-0.998752, 43, 353, 58, 480
-0.998754, 417, 257, 448, 500
-0.998755, 49, 161, 64, 288
-0.998761, 31, 305, 46, 432
-0.998765, 223, 225, 238, 352
-0.998765, 99, 353, 114, 480
-0.99877, 1, 257, 32, 500
-0.99878, 179, 257, 194, 384
-0.998782, 135, 321, 150, 448
-0.998785, 123, 321, 138, 448
-0.998789, 233, 225, 264, 480
-0.998797, 85, 305, 100, 432
-0.998798, 257, 1, 320, 128
-0.998803, 129, 1, 144, 128
-0.998804, 479, 49, 494, 176
-0.998809, 89, 257, 104, 384
-0.998812, 71, 369, 86, 496
-0.998814, 5, 161, 20, 288
-0.998824, 23, 161, 38, 288
-0.998824, 67, 225, 82, 352
-0.998834, 157, 305, 172, 432
-0.998841, 153, 17, 168, 144
-0.998843, 119, 1, 134, 128
-0.998847, 93, 305, 108, 432
-0.998848, 113, 353, 128, 480
-0.998858, 83, 225, 98, 352
-0.998859, 65, 353, 80, 480
-0.998864, 151, 209, 166, 336
-0.998867, 65, 161, 80, 288
-0.998875, 61, 241, 76, 368
-0.998877, 97, 209, 112, 336
-0.998881, 173, 257, 188, 384
-0.998884, 31, 369, 46, 496
-0.998885, 265, 257, 296, 500
-0.998888, 217, 209, 232, 336
-0.998897, 397, 257, 428, 500
-0.99891, 433, 145, 448, 272
-0.998915, 473, 81, 488, 208
-0.998915, 199, 161, 214, 288
-0.998916, 25, 305, 40, 432
-0.998918, 147, 257, 162, 384
-0.998922, 187, 209, 202, 336
-0.998926, 257, 129, 288, 384
-0.998928, 195, 289, 210, 416
-0.99893, 131, 209, 146, 336
-0.998935, 41, 241, 56, 368
-0.998936, 185, 129, 200, 256
-0.998938, 75, 209, 90, 336
-0.998938, 169, 209, 184, 336
-0.99894, 17, 161, 32, 288
-0.998941, 111, 1, 126, 128
-0.998949, 449, 129, 464, 256
-0.998961, 141, 321, 156, 448
-0.998962, 147, 1, 162, 128
-0.998963, 357, 305, 372, 432
-0.998963, 79, 273, 94, 400
-0.998968, 363, 305, 378, 432
-0.998968, 11, 161, 26, 288
-0.998969, 455, 129, 470, 256
-0.998972, 141, 257, 156, 384
-0.998973, 157, 225, 172, 352
-0.998975, 427, 161, 442, 288
-0.998985, 347, 321, 362, 448
-0.998985, 95, 97, 110, 224
-0.998987, 167, 305, 182, 432
-0.998991, 95, 161, 110, 288
-0.998994, 177, 305, 192, 432
-0.998995, 65, 113, 80, 240
-0.998996, 193, 145, 208, 272
-0.998998, 225, 97, 256, 352
-0.999001, 41, 161, 56, 288
-0.999002, 401, 273, 416, 400
-0.999007, 373, 273, 388, 400
-0.999008, 429, 33, 460, 288
-0.999009, 47, 241, 62, 368
-0.999023, 121, 49, 136, 176
-0.999025, 445, 33, 476, 288
-0.999035, 163, 33, 178, 160
-0.999036, 87, 145, 102, 272
-0.999039, 107, 209, 122, 336
-0.999041, 107, 161, 122, 288
-0.999043, 95, 257, 110, 384
-0.99905, 183, 305, 198, 432
-0.99905, 229, 209, 244, 336
-0.999053, 193, 193, 208, 320
-0.999057, 137, 193, 152, 320
-0.999066, 35, 225, 50, 352
-0.99908, 235, 225, 250, 352
-0.99908, 23, 241, 38, 368
-0.999081, 105, 273, 120, 400
-0.999084, 439, 145, 454, 272
-0.999086, 125, 193, 140, 320
-0.999094, 77, 113, 92, 240
-0.999095, 85, 97, 100, 224
-0.999096, 395, 289, 410, 416
-0.999101, 105, 17, 120, 144
-0.999102, 329, 129, 360, 384
-0.999108, 189, 305, 204, 432
-0.999112, 115, 305, 130, 432
-0.999112, 29, 209, 44, 336
-0.999117, 201, 273, 216, 400
-0.99912, 135, 273, 150, 400
-0.999127, 29, 161, 44, 288
-0.999129, 453, 257, 484, 500
-0.999131, 175, 113, 190, 240
-0.999131, 379, 305, 394, 432
-0.999143, 465, 129, 480, 256
-0.999145, 137, 369, 152, 496
-0.99915, 135, 1, 150, 128
-0.999158, 119, 193, 134, 320
-0.999162, 17, 225, 32, 352
-0.999163, 421, 161, 436, 288
-0.999164, 373, 257, 404, 500
-0.999171, 285, 161, 316, 416
-0.99926, 397, 161, 428, 416
-0.999318, 317, 193, 348, 448
-0.999326, 225, 25, 480, 88
-0.999379, 1, 17, 495, 80
-0.999412, 317, 65, 348, 320
-0.999423, 301, 161, 332, 416
-0.999437, 237, 129, 268, 384
-0.999438, 401, 65, 432, 320
-0.999442, 417, 33, 448, 288
-0.99947, 9, 65, 72, 192
-0.99949, 353, 129, 384, 384
-0.999534, 65, 1, 96, 256
-0.999541, 13, 33, 44, 288
-0.999602, 45, 1, 76, 256
-0.999629, 369, 129, 400, 384
-0.99967, 49, 401, 64, 416
-0.999671, 113, 91, 128, 106
-0.999672, 411, 341, 426, 356
-0.999672, 137, 233, 152, 248
-0.999672, 213, 249, 228, 264
-0.999673, 269, 295, 284, 310
-0.999673, 215, 277, 230, 292
-0.999673, 113, 381, 128, 396
-0.999674, 75, 185, 90, 200
-0.999675, 221, 239, 236, 254
-0.999675, 3, 411, 18, 426
-0.999675, 181, 261, 196, 276
-0.999677, 61, 441, 76, 456
-0.999677, 117, 27, 132, 42
-0.999677, 157, 357, 172, 372
-0.999677, 111, 27, 126, 42
-0.999678, 119, 429, 134, 444
-0.999678, 157, 259, 172, 274
-0.999678, 123, 417, 138, 432
-0.999679, 67, 443, 82, 458
-0.999679, 225, 1, 256, 256
-0.999679, 95, 203, 110, 218
-0.999679, 79, 323, 94, 338
-0.999682, 131, 283, 146, 298
-0.999683, 389, 307, 404, 322
-0.999683, 73, 445, 88, 460
-0.999683, 385, 329, 400, 344
-0.999684, 111, 19, 126, 34
-0.999684, 83, 331, 98, 346
-0.999684, 39, 369, 54, 384
-0.999684, 85, 323, 100, 338
-0.999685, 45, 363, 60, 378
-0.999686, 27, 431, 42, 446
-0.999686, 277, 297, 292, 312
-0.999686, 235, 283, 250, 298
-0.999686, 229, 281, 244, 296
-0.999687, 31, 443, 46, 458
-0.999687, 117, 437, 132, 452
-0.999688, 187, 143, 202, 158
-0.999689, 191, 265, 206, 280
-0.999689, 201, 285, 216, 300
-0.99969, 209, 271, 224, 286
-0.99969, 27, 409, 42, 424
-0.999691, 51, 429, 66, 444
-0.999691, 147, 263, 162, 278
-0.999693, 57, 447, 72, 462
-0.999694, 209, 211, 224, 226
-0.999695, 111, 303, 126, 318
-0.999696, 259, 291, 274, 306
-0.999696, 187, 149, 202, 164
-0.999697, 409, 363, 424, 378
-0.999697, 31, 437, 46, 452
-0.999697, 45, 357, 60, 372
-0.999698, 333, 33, 364, 288
-0.9997, 59, 233, 74, 248
-0.999701, 109, 85, 124, 100
-0.999702, 97, 455, 112, 470
-0.999703, 73, 439, 88, 454
-0.999703, 39, 439, 54, 454
-0.999703, 27, 423, 42, 438
-0.999704, 67, 435, 82, 450
-0.999705, 455, 147, 470, 162
-0.999705, 467, 331, 482, 346
-0.999705, 137, 251, 152, 266
-0.999707, 97, 447, 112, 462
-0.999708, 65, 365, 80, 380
-0.999708, 161, 41, 176, 56
-0.999708, 127, 359, 142, 374
-0.999708, 67, 349, 82, 364
-0.999709, 11, 399, 26, 414
-0.999712, 105, 309, 120, 324
-0.999712, 241, 285, 256, 300
-0.999712, 11, 409, 26, 424
-0.999713, 253, 289, 268, 304
-0.999714, 93, 321, 108, 336
-0.999715, 203, 273, 218, 288
-0.999715, 201, 209, 216, 224
-0.999715, 87, 435, 102, 450
-0.999716, 117, 393, 132, 408
-0.999716, 215, 243, 230, 258
-0.999717, 247, 287, 262, 302
-0.999719, 39, 413, 54, 428
-0.99972, 99, 315, 114, 330
-0.99972, 33, 369, 48, 384
-0.999721, 71, 325, 86, 340
-0.999721, 221, 233, 236, 248
-0.999724, 55, 441, 70, 456
-0.999724, 117, 221, 132, 236
-0.999726, 457, 141, 472, 156
-0.999726, 55, 355, 70, 370
-0.999726, 57, 433, 72, 448
-0.999729, 15, 435, 30, 450
-0.999729, 15, 393, 30, 408
-0.999731, 105, 453, 120, 468
-0.999735, 141, 267, 156, 282
-0.999737, 133, 277, 148, 292
-0.999738, 127, 227, 142, 242
-0.999738, 141, 347, 156, 362
-0.999739, 59, 375, 74, 390
-0.99974, 121, 381, 136, 396
-0.999741, 9, 433, 24, 448
-0.999742, 147, 349, 162, 364
-0.999743, 143, 357, 158, 372
-0.999747, 151, 257, 166, 272
-0.999753, 143, 231, 158, 246
-0.999753, 33, 431, 48, 446
-0.999754, 55, 175, 70, 190
-0.999756, 151, 343, 166, 358
-0.999759, 77, 431, 92, 446
-0.999759, 25, 437, 40, 452
-0.999761, 33, 413, 48, 428
-0.999765, 11, 417, 26, 432
-0.999766, 25, 395, 40, 410
-0.999766, 209, 1, 336, 64
-0.999771, 35, 425, 50, 440
-0.999776, 61, 427, 76, 442
-0.999784, 41, 421, 56, 436
-0.999784, 43, 427, 58, 442
-0.999787, 21, 431, 36, 446
-0.999788, 41, 433, 56, 448
-0.999789, 15, 423, 30, 438
-0.99979, 119, 387, 134, 402
-0.999793, 133, 353, 148, 368
-0.999798, 51, 423, 66, 438
-0.9998, 33, 419, 48, 434
-0.999801, 21, 425, 36, 440
-0.999801, 77, 355, 92, 370
-0.999808, 67, 429, 82, 444
-0.999809, 9, 427, 24, 442
-0.999811, 15, 429, 30, 444
-0.999818, 17, 415, 32, 430
-0.999819, 197, 269, 212, 284
-0.999822, 25, 417, 40, 432
-0.999866, 353, 33, 384, 288
-0.99992, 293, 65, 324, 320
-0.999936, 225, 73, 480, 136
-1.00001, 269, 65, 300, 320
-1.00016, 321, 1, 384, 128
-1.00024, 241, 1, 272, 256
-1.0003, 305, 1, 336, 256
-1.00032, 25, 1, 56, 256
-1.00034, 273, 49, 400, 176
-1.00038, 277, 257, 308, 500
-1.00044, 389, 65, 420, 320
-1.00048, 377, 81, 440, 208
-1.00049, 281, 65, 312, 320
-1.00051, 193, 1, 448, 64
-1.00055, 257, 33, 288, 288
-1.00061, 329, 1, 392, 256
-1.00063, 369, 33, 400, 288
-1.00084, 241, 49, 304, 176
-1.00086, 33, 17, 96, 144
-1.00086, 305, 49, 368, 176
-1.00093, 345, 1, 408, 128
-1.00099, 297, 257, 328, 500
-1.0014, 297, 1, 360, 128
-1.00155, 409, 1, 472, 128
-1.00183, 281, 65, 344, 192
-1.00277, 281, 257, 344, 500
-1.00626, 1, 17, 64, 144
-1.00779, 273, 353, 336, 480
