1423
-0.399766, 1, 1, 320, 223
-0.695417, 65, 1, 320, 223
-0.858226, 1, 65, 320, 192
-0.878369, 33, 1, 160, 223
-0.883389, 177, 1, 304, 223
-0.885825, 1, 17, 320, 144
-0.891316, 81, 1, 208, 223
-0.89397, 65, 49, 320, 176
-0.895325, 129, 1, 256, 223
-0.916681, 129, 49, 256, 176
-0.922698, 1, 97, 256, 223
-0.92449, 49, 65, 176, 192
-0.929679, 169, 49, 232, 176
-0.930383, 233, 65, 296, 192
-0.930906, 73, 49, 136, 176
-0.931038, 145, 65, 208, 192
-0.932744, 121, 65, 184, 192
-0.935753, 65, 1, 320, 128
-0.93673, 209, 81, 272, 208
-0.93745, 1, 65, 128, 192
-0.937948, 257, 65, 320, 192
-0.93818, 193, 65, 320, 192
-0.939266, 97, 97, 224, 223
-0.939812, 97, 49, 160, 176
-0.941466, 41, 97, 104, 223
-0.94346, 1, 97, 64, 223
-0.943934, 41, 49, 104, 176
-0.944704, 193, 33, 256, 160
-0.945206, 177, 17, 304, 144
-0.946233, 65, 17, 192, 144
-0.946414, 145, 17, 208, 144
-0.94761, 241, 81, 304, 144
-0.94795, 145, 97, 272, 223
-0.94846, 121, 105, 184, 168
-0.948692, 105, 129, 168, 192
-0.948994, 97, 89, 160, 152
-0.949075, 129, 73, 192, 136
-0.949232, 177, 97, 240, 223
-0.95016, 169, 65, 232, 128
-0.950235, 193, 49, 256, 112
-0.950253, 81, 97, 144, 223
-0.950763, 57, 73, 120, 136
-0.952673, 1, 89, 64, 152
-0.953092, 129, 1, 256, 128
-0.953298, 233, 113, 296, 176
-0.953464, 97, 65, 160, 128
-0.954024, 257, 105, 320, 168
-0.956057, 41, 113, 104, 176
-0.956156, 17, 17, 144, 144
-0.9564, 17, 49, 80, 176
-0.956665, 193, 129, 256, 192
-0.957623, 217, 81, 280, 144
-0.957932, 57, 41, 120, 104
-0.958004, 145, 121, 208, 184
-0.958902, 145, 41, 208, 104
-0.958936, 73, 113, 136, 176
-0.959211, 57, 1, 120, 128
-0.959619, 121, 17, 184, 144
-0.960229, 33, 89, 96, 152
-0.960982, 49, 73, 176, 136
-0.962101, 225, 17, 288, 144
-0.962207, 257, 57, 320, 120
-0.962414, 145, 97, 208, 160
-0.962863, 169, 129, 232, 192
-0.963639, 185, 97, 248, 160
-0.963645, 209, 105, 272, 168
-0.964031, 225, 57, 288, 120
-0.965083, 201, 153, 264, 216
-0.965274, 97, 1, 160, 128
-0.965335, 257, 17, 320, 144
-0.965958, 97, 153, 160, 216
-0.965985, 81, 97, 208, 160
-0.966286, 133, 65, 164, 128
-0.966664, 1, 129, 64, 192
-0.967098, 97, 41, 160, 104
-0.967867, 129, 65, 256, 128
-0.968274, 73, 137, 136, 200
-0.968329, 9, 65, 72, 128
-0.968366, 121, 49, 184, 112
-0.968811, 1, 105, 128, 168
-0.969, 41, 17, 104, 80
-0.969148, 33, 65, 96, 128
-0.969187, 169, 41, 232, 104
-0.969252, 129, 97, 256, 160
-0.969628, 289, 81, 320, 144
-0.969879, 129, 105, 160, 168
-0.96992, 133, 49, 164, 176
-0.970435, 97, 129, 128, 192
-0.970487, 97, 129, 224, 192
-0.970496, 269, 73, 300, 136
-0.970532, 285, 65, 316, 192
-0.970604, 49, 129, 176, 192
-0.971035, 89, 65, 120, 192
-0.971116, 129, 145, 192, 208
-0.971181, 81, 49, 112, 112
-0.971275, 257, 73, 288, 136
-0.971295, 257, 65, 288, 192
-0.971299, 149, 65, 180, 192
-0.971303, 117, 129, 148, 192
-0.971661, 149, 81, 180, 144
-0.972206, 193, 121, 320, 184
-0.972399, 209, 65, 240, 192
-0.972439, 117, 65, 148, 192
-0.972492, 169, 1, 232, 128
-0.972627, 65, 73, 96, 136
-0.972874, 33, 1, 96, 128
-0.972912, 193, 73, 256, 136
-0.972994, 1, 81, 128, 144
-0.973078, 145, 121, 272, 184
-0.973177, 237, 81, 268, 208
-0.973536, 77, 49, 108, 176
-0.973757, 65, 49, 192, 112
-0.973854, 221, 65, 252, 192
-0.973862, 201, 1, 264, 223
-0.973941, 225, 153, 288, 216
-0.973968, 181, 49, 212, 176
-0.974058, 85, 113, 116, 176
-0.974069, 137, 129, 168, 192
-0.974351, 57, 1, 120, 223
-0.97475, 193, 49, 224, 176
-0.974885, 169, 65, 200, 192
-0.97502, 197, 49, 228, 112
-0.975651, 257, 129, 320, 192
-0.975656, 169, 121, 200, 184
-0.975714, 1, 49, 128, 112
-0.975919, 117, 105, 148, 168
-0.976166, 209, 121, 240, 184
-0.97635, 145, 41, 272, 104
-0.976452, 261, 97, 292, 160
-0.976462, 53, 105, 84, 168
-0.976574, 145, 1, 208, 223
-0.976588, 25, 97, 56, 223
-0.976633, 41, 153, 104, 216
-0.976717, 257, 1, 320, 223
-0.97676, 145, 105, 176, 168
-0.976812, 53, 73, 84, 136
-0.976879, 177, 57, 208, 120
-0.976926, 49, 97, 80, 223
-0.97718, 33, 41, 96, 104
-0.977216, 161, 41, 192, 104
-0.97732, 77, 73, 108, 136
-0.977391, 193, 57, 320, 120
-0.977419, 61, 65, 92, 192
-0.977494, 209, 41, 240, 104
-0.9775, 245, 81, 276, 144
-0.977566, 69, 41, 100, 104
-0.977571, 1, 129, 128, 192
-0.977774, 29, 89, 60, 152
-0.97779, 97, 153, 128, 216
-0.978181, 169, 1, 232, 223
-0.978334, 273, 113, 304, 176
-0.97836, 101, 65, 132, 192
-0.978446, 17, 153, 144, 216
-0.978471, 269, 81, 300, 208
-0.978532, 17, 9, 80, 72
-0.97858, 173, 33, 204, 96
-0.978628, 129, 153, 256, 216
-0.97864, 177, 9, 240, 72
-0.978779, 233, 97, 264, 160
-0.978934, 161, 73, 192, 136
-0.979074, 213, 17, 244, 144
-0.979144, 13, 97, 44, 223
-0.979168, 9, 1, 72, 128
-0.979222, 117, 81, 148, 144
-0.979281, 121, 1, 184, 64
-0.979308, 197, 97, 228, 223
-0.979351, 241, 33, 304, 96
-0.979379, 81, 1, 112, 128
-0.979446, 157, 129, 188, 192
-0.979485, 161, 17, 192, 144
-0.979659, 65, 161, 128, 223
-0.97972, 49, 49, 80, 176
-0.979885, 221, 129, 252, 192
-0.979933, 93, 65, 124, 128
-0.980055, 101, 105, 132, 168
-0.980121, 189, 129, 220, 192
-0.980167, 177, 161, 240, 223
-0.980201, 217, 25, 280, 88
-0.98022, 81, 153, 208, 216
-0.980285, 153, 161, 216, 223
-0.980297, 217, 89, 248, 152
-0.980414, 65, 9, 128, 72
-0.980549, 29, 129, 60, 192
-0.980579, 245, 57, 276, 120
-0.980699, 273, 49, 304, 112
-0.980833, 133, 1, 164, 128
-0.980835, 1, 17, 128, 80
-0.980937, 257, 121, 288, 184
-0.981049, 149, 57, 180, 120
-0.981107, 33, 1, 96, 223
-0.981161, 37, 17, 68, 144
-0.981574, 41, 81, 72, 144
-0.981586, 73, 97, 104, 223
-0.981637, 149, 17, 180, 144
-0.981698, 257, 153, 320, 216
-0.981982, 177, 145, 304, 208
-0.982084, 97, 1, 160, 64
-0.982094, 89, 1, 152, 223
-0.982204, 289, 105, 320, 168
-0.982438, 221, 49, 252, 112
-0.982448, 1, 97, 32, 223
-0.982524, 273, 33, 304, 160
-0.982713, 17, 89, 48, 152
-0.982763, 233, 17, 264, 144
-0.982782, 61, 17, 92, 80
-0.982794, 205, 97, 236, 160
-0.982928, 17, 65, 48, 128
-0.982962, 289, 57, 320, 120
-0.982977, 89, 89, 120, 152
-0.983011, 9, 49, 40, 176
-0.983014, 1, 105, 32, 168
-0.983024, 41, 105, 72, 168
-0.983041, 185, 97, 216, 223
-0.983108, 37, 97, 68, 223
-0.983146, 129, 97, 160, 223
-0.983537, 173, 1, 204, 128
-0.983543, 225, 1, 288, 223
-0.983582, 25, 49, 56, 176
-0.983613, 185, 25, 216, 88
-0.983868, 225, 161, 256, 223
-0.98388, 73, 129, 104, 192
-0.983889, 177, 97, 304, 160
-0.984282, 209, 65, 240, 128
-0.984326, 193, 33, 320, 96
-0.984412, 1, 81, 32, 144
-0.984467, 121, 1, 184, 223
-0.984587, 45, 129, 76, 192
-0.984594, 97, 25, 224, 88
-0.984697, 161, 97, 192, 160
-0.984932, 97, 17, 128, 144
-0.985068, 193, 105, 224, 168
-0.985121, 97, 41, 128, 104
-0.985203, 69, 1, 100, 128
-0.985246, 9, 129, 40, 192
-0.985391, 45, 49, 76, 112
-0.98541, 69, 97, 100, 160
-0.985486, 1, 1, 64, 223
-0.985603, 241, 145, 272, 208
-0.985812, 209, 145, 240, 208
-0.985877, 185, 1, 216, 128
-0.986143, 257, 49, 288, 112
-0.986379, 29, 65, 60, 128
-0.986432, 249, 17, 280, 144
-0.986452, 49, 1, 176, 64
-0.986453, 49, 153, 80, 216
-0.986462, 193, 73, 224, 136
-0.986475, 37, 17, 68, 80
-0.986499, 233, 57, 264, 120
-0.986742, 49, 25, 176, 88
-0.986757, 49, 9, 80, 72
-0.98681, 153, 17, 216, 80
-0.986839, 173, 97, 204, 160
-0.986906, 197, 1, 228, 128
-0.986958, 241, 121, 272, 184
-0.987112, 81, 25, 112, 88
-0.987209, 9, 41, 72, 104
-0.987274, 113, 57, 144, 120
-0.987457, 289, 129, 320, 192
-0.98747, 137, 153, 168, 216
-0.987585, 73, 153, 104, 216
-0.987679, 241, 89, 304, 120
-0.987835, 1, 153, 64, 216
-0.987925, 65, 57, 320, 120
-0.987992, 129, 77, 192, 108
-0.98804, 129, 41, 160, 104
-0.988197, 253, 153, 284, 216
-0.988372, 97, 129, 160, 160
-0.988558, 125, 1, 156, 64
-0.988639, 97, 85, 160, 116
-0.988677, 161, 137, 224, 168
-0.988688, 121, 17, 152, 144
-0.988699, 1, 49, 320, 112
-0.988737, 41, 81, 104, 112
-0.988807, 129, 89, 192, 120
-0.988836, 257, 105, 320, 136
-0.98884, 1, 105, 256, 168
-0.988862, 193, 53, 256, 84
-0.988939, 197, 161, 228, 223
-0.989044, 193, 141, 256, 172
-0.98906, 137, 137, 200, 168
-0.989069, 153, 77, 216, 108
-0.989071, 57, 41, 88, 104
-0.989115, 97, 73, 160, 104
-0.989205, 9, 93, 72, 124
-0.98926, 117, 153, 148, 216
-0.989312, 65, 129, 320, 192
-0.989357, 85, 153, 116, 216
-0.989372, 257, 77, 320, 108
-0.989404, 73, 113, 136, 144
-0.989508, 57, 45, 120, 76
-0.989531, 137, 65, 200, 96
-0.98954, 209, 1, 272, 64
-0.989569, 73, 193, 136, 223
-0.989572, 209, 93, 272, 124
-0.989636, 169, 189, 232, 220
-0.989638, 193, 185, 256, 216
-0.989642, 105, 81, 136, 144
-0.989645, 209, 105, 272, 136
-0.989662, 185, 125, 248, 156
-0.989757, 233, 105, 296, 136
-0.989853, 41, 101, 104, 132
-0.98987, 97, 61, 160, 92
-0.989887, 161, 65, 224, 96
-0.989923, 225, 77, 288, 108
-0.989991, 1, 105, 64, 136
-0.990003, 177, 153, 240, 184
-0.990005, 97, 101, 160, 132
-0.990017, 1, 81, 256, 144
-0.990018, 261, 1, 292, 128
-0.99006, 257, 65, 320, 96
-0.990098, 225, 121, 288, 152
-0.990146, 57, 69, 120, 100
-0.990157, 73, 85, 136, 116
-0.990217, 201, 153, 264, 184
-0.990259, 33, 113, 96, 144
-0.990317, 89, 173, 152, 204
-0.990318, 113, 141, 176, 172
-0.990372, 173, 145, 204, 208
-0.990373, 289, 17, 320, 144
-0.990375, 137, 125, 200, 156
-0.990378, 257, 117, 320, 148
-0.990391, 1, 73, 320, 136
-0.990395, 217, 17, 248, 80
-0.990437, 97, 157, 160, 188
-0.990484, 73, 133, 136, 164
-0.990627, 25, 193, 88, 223
-0.990629, 193, 169, 256, 200
-0.990662, 1, 105, 320, 168
-0.990666, 145, 149, 208, 180
-0.990723, 137, 53, 200, 84
-0.990745, 161, 89, 224, 120
-0.990757, 41, 57, 104, 88
-0.990814, 137, 101, 200, 132
-0.990815, 145, 17, 272, 80
-0.990873, 145, 181, 208, 212
-0.990881, 201, 73, 264, 104
-0.990894, 57, 1, 88, 128
-0.990905, 217, 137, 280, 168
-0.990929, 225, 65, 288, 96
-0.990929, 169, 101, 232, 132
-0.990934, 161, 37, 224, 68
-0.990969, 121, 25, 184, 88
-0.990982, 169, 165, 232, 196
-0.990988, 81, 45, 144, 76
-0.990993, 97, 193, 160, 223
-0.991032, 65, 97, 128, 128
-0.991063, 169, 177, 232, 208
-0.991084, 257, 137, 320, 168
-0.991086, 177, 77, 240, 108
-0.991105, 225, 153, 288, 184
-0.991117, 41, 129, 104, 160
-0.991148, 229, 25, 260, 88
-0.99116, 185, 113, 248, 144
-0.991168, 169, 53, 232, 84
-0.991171, 49, 81, 176, 112
-0.991207, 121, 157, 184, 188
-0.991241, 41, 33, 104, 64
-0.991258, 73, 161, 136, 192
-0.991275, 73, 145, 136, 176
-0.991309, 61, 153, 92, 216
-0.991334, 185, 41, 248, 72
-0.991357, 285, 153, 316, 216
-0.9914, 1, 129, 320, 192
-0.991407, 49, 193, 112, 223
-0.991409, 129, 113, 192, 144
-0.99142, 17, 81, 80, 112
-0.991433, 161, 121, 224, 152
-0.991436, 1, 129, 64, 160
-0.991464, 73, 1, 104, 64
-0.991475, 97, 117, 160, 148
-0.991475, 217, 181, 280, 212
-0.991504, 121, 189, 184, 220
-0.991523, 73, 57, 136, 88
-0.991534, 249, 157, 312, 188
-0.991543, 33, 21, 96, 52
-0.991558, 145, 33, 176, 96
-0.991561, 129, 169, 192, 200
-0.991578, 29, 153, 60, 216
-0.991617, 217, 53, 280, 84
-0.991654, 185, 89, 248, 120
-0.991663, 257, 1, 320, 64
-0.991669, 1, 117, 64, 148
-0.991704, 1, 21, 64, 52
-0.991704, 81, 33, 144, 64
-0.991705, 185, 161, 216, 223
-0.991711, 5, 57, 36, 120
-0.991737, 57, 21, 120, 52
-0.991746, 1, 149, 64, 180
-0.991835, 141, 69, 172, 100
-0.991838, 145, 193, 208, 223
-0.991922, 197, 25, 228, 88
-0.991974, 49, 177, 112, 208
-0.991997, 41, 141, 104, 172
-0.992012, 133, 85, 164, 116
-0.992086, 269, 105, 300, 136
-0.99212, 241, 53, 304, 84
-0.99212, 109, 17, 140, 144
-0.992124, 17, 41, 80, 72
-0.992169, 289, 93, 320, 124
-0.992173, 209, 41, 272, 72
-0.992183, 261, 93, 292, 124
-0.992183, 17, 69, 80, 100
-0.9922, 201, 185, 232, 216
-0.992211, 153, 65, 168, 128
-0.992212, 137, 41, 200, 72
-0.992226, 269, 77, 300, 108
-0.99227, 253, 81, 284, 112
-0.9923, 81, 69, 112, 100
-0.992311, 153, 89, 184, 120
-0.992324, 205, 45, 236, 76
-0.992357, 233, 193, 296, 223
-0.992364, 129, 73, 160, 104
-0.992383, 177, 25, 240, 56
-0.992392, 41, 153, 104, 184
-0.992394, 217, 165, 280, 196
-0.9924, 189, 181, 220, 212
-0.992421, 209, 145, 240, 176
-0.992422, 169, 137, 200, 168
-0.992424, 189, 137, 220, 168
-0.992435, 273, 93, 304, 124
-0.992442, 221, 157, 252, 188
-0.992443, 133, 137, 164, 168
-0.99245, 129, 1, 192, 32
-0.992451, 273, 153, 304, 216
-0.992455, 165, 73, 196, 104
-0.992491, 217, 57, 248, 88
-0.992492, 209, 125, 240, 156
-0.992504, 153, 137, 184, 168
-0.992515, 49, 85, 80, 116
-0.99252, 257, 105, 288, 136
-0.992535, 81, 45, 112, 76
-0.992538, 93, 65, 124, 96
-0.992551, 153, 77, 184, 108
-0.992554, 149, 153, 180, 216
-0.992555, 217, 93, 248, 124
-0.99256, 105, 5, 168, 36
-0.99256, 277, 65, 308, 96
-0.992568, 221, 145, 252, 176
-0.992572, 269, 121, 300, 152
-0.992577, 137, 29, 200, 60
-0.992585, 53, 105, 84, 136
-0.992606, 281, 81, 312, 112
-0.99262, 177, 37, 208, 68
-0.992625, 37, 189, 68, 220
-0.992625, 185, 61, 216, 92
-0.992633, 201, 169, 232, 200
-0.992636, 289, 65, 320, 96
-0.992642, 97, 153, 128, 184
-0.992646, 109, 129, 140, 160
-0.992647, 245, 97, 276, 128
-0.992656, 289, 105, 320, 136
-0.992672, 177, 77, 208, 108
-0.992682, 81, 81, 112, 112
-0.992688, 245, 65, 276, 96
-0.992694, 201, 157, 232, 188
-0.992699, 89, 133, 120, 164
-0.992701, 121, 133, 152, 164
-0.992704, 193, 49, 224, 80
-0.992707, 173, 61, 204, 92
-0.992711, 61, 77, 92, 108
-0.992716, 17, 41, 48, 104
-0.992723, 257, 65, 288, 96
-0.992732, 209, 29, 272, 60
-0.992757, 229, 53, 260, 84
-0.992758, 149, 125, 180, 156
-0.992766, 113, 85, 144, 116
-0.992772, 17, 57, 80, 88
-0.992773, 85, 117, 116, 148
-0.992776, 189, 169, 220, 200
-0.992776, 189, 193, 220, 223
-0.992779, 97, 113, 128, 144
-0.992783, 33, 9, 96, 40
-0.992797, 1, 93, 32, 124
-0.992817, 213, 181, 244, 212
-0.992824, 189, 149, 220, 180
-0.992827, 221, 125, 252, 156
-0.992833, 37, 93, 68, 124
-0.992841, 1, 193, 64, 223
-0.992847, 257, 117, 288, 148
-0.992854, 81, 57, 112, 88
-0.992861, 217, 169, 248, 200
-0.992865, 145, 149, 176, 180
-0.99288, 177, 125, 208, 156
-0.99288, 49, 21, 80, 52
-0.992895, 77, 193, 108, 223
-0.992908, 229, 81, 260, 112
-0.992909, 137, 17, 200, 48
-0.992915, 57, 9, 120, 40
-0.99292, 41, 165, 104, 196
-0.992934, 13, 93, 44, 124
-0.992934, 73, 149, 104, 180
-0.992934, 233, 145, 264, 176
-0.992944, 205, 57, 236, 88
-0.992945, 81, 105, 112, 136
-0.992945, 69, 89, 100, 120
-0.992953, 149, 101, 180, 132
-0.992954, 93, 81, 124, 112
-0.992954, 117, 157, 148, 188
-0.992955, 133, 109, 164, 140
-0.992959, 213, 81, 244, 112
-0.992961, 1, 9, 64, 40
-0.992964, 57, 193, 88, 223
-0.992975, 249, 153, 280, 184
-0.992978, 61, 33, 92, 64
-0.99298, 233, 157, 264, 188
-0.992981, 201, 113, 232, 144
-0.992981, 229, 105, 260, 136
-0.992981, 93, 53, 124, 84
-0.992984, 97, 173, 128, 204
-0.992987, 157, 61, 188, 92
-0.992988, 121, 145, 152, 176
-0.99299, 177, 153, 208, 184
-0.992995, 289, 117, 320, 148
-0.993, 157, 149, 188, 180
-0.993007, 241, 85, 272, 116
-0.993012, 177, 181, 208, 212
-0.993014, 85, 161, 116, 192
-0.993014, 37, 21, 68, 52
-0.993021, 233, 41, 296, 72
-0.993026, 69, 65, 100, 96
-0.993036, 129, 93, 256, 124
-0.993037, 117, 73, 148, 104
-0.993037, 133, 125, 164, 156
-0.993038, 197, 69, 228, 100
-0.99304, 143, 65, 158, 128
-0.993044, 117, 173, 148, 204
-0.993054, 25, 93, 56, 124
-0.993072, 1, 113, 32, 144
-0.993074, 25, 17, 56, 80
-0.993076, 165, 41, 196, 72
-0.993088, 105, 193, 136, 223
-0.993092, 221, 69, 252, 100
-0.993095, 101, 141, 132, 172
-0.993095, 125, 61, 156, 92
-0.993099, 25, 149, 56, 180
-0.9931, 165, 85, 196, 116
-0.9931, 177, 193, 208, 223
-0.993102, 177, 169, 208, 200
-0.993104, 133, 149, 164, 180
-0.993106, 85, 177, 116, 208
-0.993108, 133, 97, 164, 128
-0.993114, 65, 101, 96, 132
-0.993114, 97, 97, 128, 128
-0.993117, 289, 149, 320, 180
-0.993119, 49, 157, 80, 188
-0.993122, 37, 113, 68, 144
-0.993124, 141, 57, 172, 88
-0.993124, 45, 173, 76, 204
-0.99313, 189, 125, 220, 156
-0.993132, 113, 49, 176, 80
-0.993132, 165, 185, 196, 216
-0.993135, 129, 69, 256, 100
-0.993147, 49, 69, 176, 100
-0.993149, 105, 37, 168, 68
-0.993157, 137, 161, 168, 192
-0.993164, 93, 65, 108, 128
-0.993181, 97, 1, 224, 64
-0.99336, 259, 65, 274, 128
-0.993367, 177, 1, 240, 32
-0.993367, 193, 9, 320, 72
-0.993378, 113, 81, 240, 112
-0.993384, 133, 105, 148, 168
-0.993392, 105, 25, 168, 56
-0.993403, 201, 17, 264, 48
-0.993445, 25, 181, 88, 212
-0.993487, 257, 193, 320, 223
-0.993488, 49, 97, 176, 128
-0.993505, 225, 5, 288, 36
-0.993544, 107, 129, 122, 192
-0.993548, 81, 5, 144, 36
-0.993564, 241, 181, 304, 212
-0.993591, 143, 105, 158, 168
-0.993645, 1, 153, 256, 216
-0.993678, 177, 13, 240, 44
-0.993683, 241, 169, 304, 200
-0.993684, 1, 161, 64, 192
-0.993686, 85, 49, 100, 112
-0.993686, 101, 129, 116, 192
-0.993735, 145, 133, 272, 164
-0.993749, 293, 65, 308, 128
-0.993751, 81, 21, 144, 52
-0.993836, 81, 137, 208, 168
-0.993859, 63, 73, 78, 136
-0.993893, 177, 53, 304, 84
-0.994029, 123, 129, 138, 192
-0.994135, 29, 41, 60, 104
-0.994174, 113, 121, 128, 184
-0.994184, 93, 113, 108, 176
-0.994221, 269, 73, 284, 136
-0.994227, 193, 137, 320, 168
-0.994234, 251, 81, 266, 144
-0.994241, 143, 129, 158, 192
-0.994243, 133, 81, 148, 144
-0.994245, 65, 193, 192, 223
-0.994276, 253, 57, 268, 120
-0.994292, 229, 129, 244, 192
-0.994305, 85, 1, 116, 64
-0.994314, 131, 129, 146, 192
-0.994324, 263, 89, 278, 152
-0.994381, 71, 73, 86, 136
-0.994409, 1, 33, 256, 96
-0.99443, 129, 53, 256, 84
-0.994436, 113, 149, 240, 180
-0.994458, 201, 1, 232, 64
-0.994468, 213, 41, 228, 104
-0.994551, 137, 129, 152, 192
-0.994552, 1, 81, 128, 112
-0.994627, 57, 81, 72, 144
-0.99465, 1, 97, 128, 128
-0.99466, 161, 181, 288, 212
-0.99467, 127, 105, 142, 168
-0.994687, 181, 33, 196, 96
-0.994722, 79, 129, 94, 192
-0.994736, 223, 57, 238, 120
-0.99474, 185, 1, 216, 64
-0.994777, 181, 57, 196, 120
-0.994791, 51, 105, 66, 168
-0.994858, 149, 129, 164, 192
-0.994883, 161, 117, 288, 148
-0.994911, 155, 89, 170, 152
-0.994944, 127, 81, 142, 144
-0.994961, 279, 113, 294, 176
-0.994963, 101, 105, 116, 168
-0.994965, 223, 121, 238, 184
-0.994969, 185, 121, 200, 184
-0.995012, 261, 113, 276, 176
-0.995039, 17, 145, 144, 176
-0.995048, 17, 121, 144, 152
-0.995057, 17, 193, 144, 223
-0.995085, 113, 181, 240, 212
-0.995105, 83, 73, 98, 136
-0.995138, 171, 129, 186, 192
-0.995146, 81, 161, 208, 192
-0.995153, 201, 49, 216, 112
-0.995157, 179, 129, 194, 192
-0.99516, 161, 89, 176, 152
-0.995167, 33, 133, 160, 164
-0.995179, 149, 105, 164, 168
-0.995185, 219, 89, 234, 152
-0.995194, 43, 81, 58, 144
-0.995203, 81, 109, 208, 140
-0.995209, 5, 25, 36, 88
-0.995228, 235, 153, 250, 216
-0.99525, 229, 49, 244, 112
-0.99526, 161, 149, 288, 180
-0.995271, 81, 105, 96, 168
-0.995281, 77, 1, 108, 223
-0.995327, 191, 57, 206, 120
-0.995329, 217, 121, 232, 184
-0.995334, 25, 1, 56, 128
-0.995354, 175, 41, 190, 104
-0.99536, 299, 81, 314, 144
-0.995364, 81, 121, 208, 152
-0.995366, 233, 1, 296, 64
-0.995378, 1, 105, 16, 168
-0.995418, 91, 89, 106, 152
-0.995418, 137, 1, 168, 64
-0.995426, 227, 97, 242, 160
-0.995435, 1, 109, 128, 140
-0.995444, 285, 113, 300, 176
-0.995455, 61, 129, 92, 192
-0.99546, 41, 129, 56, 192
-0.995467, 95, 41, 110, 104
-0.995496, 17, 161, 144, 192
-0.995497, 17, 173, 144, 204
-0.995514, 1, 1, 320, 64
-0.995541, 119, 105, 134, 168
-0.995594, 69, 129, 84, 192
-0.995599, 271, 113, 286, 176
-0.995604, 1, 1, 256, 64
-0.995628, 221, 33, 236, 96
-0.995631, 107, 105, 122, 168
-0.995654, 257, 25, 288, 88
-0.99566, 209, 137, 224, 200
-0.995669, 257, 89, 272, 152
-0.995683, 145, 41, 160, 104
-0.995686, 161, 169, 288, 200
-0.995686, 81, 53, 208, 84
-0.995697, 193, 101, 320, 132
-0.995697, 241, 33, 272, 96
-0.995708, 161, 81, 288, 112
-0.995731, 33, 89, 48, 152
-0.995739, 17, 105, 32, 168
-0.995752, 217, 65, 232, 128
-0.995761, 59, 105, 74, 168
-0.99577, 167, 57, 182, 120
-0.995775, 129, 41, 256, 72
-0.995783, 129, 105, 256, 136
-0.995788, 177, 69, 304, 100
-0.995801, 67, 97, 82, 160
-0.995824, 173, 105, 188, 168
-0.995826, 283, 73, 298, 136
-0.995869, 159, 65, 174, 128
-0.995871, 33, 57, 160, 88
-0.995871, 41, 105, 56, 168
-0.995879, 129, 193, 256, 223
-0.995911, 1, 25, 320, 88
-0.995925, 207, 41, 222, 104
-0.995937, 239, 73, 254, 136
-0.995943, 9, 105, 24, 168
-0.995953, 67, 153, 82, 216
-0.995961, 87, 129, 102, 192
-0.995966, 275, 81, 290, 144
-0.995991, 187, 33, 202, 96
-0.996003, 239, 105, 254, 168
-0.996013, 265, 49, 280, 112
-0.996033, 79, 41, 94, 104
-0.996046, 99, 153, 114, 216
-0.996075, 165, 129, 180, 192
-0.996078, 23, 89, 38, 152
-0.996083, 117, 33, 148, 96
-0.996083, 21, 65, 36, 128
-0.99609, 9, 81, 24, 144
-0.996107, 191, 121, 206, 184
-0.99611, 233, 97, 248, 160
-0.996111, 241, 161, 256, 223
-0.99615, 33, 65, 48, 128
-0.996211, 21, 129, 36, 192
-0.996232, 1, 81, 16, 144
-0.996237, 209, 113, 224, 176
-0.996254, 33, 129, 48, 192
-0.996267, 49, 81, 64, 144
-0.996278, 65, 173, 192, 204
-0.996293, 173, 1, 204, 223
-0.99632, 157, 41, 172, 104
-0.996347, 85, 25, 100, 88
-0.996355, 245, 65, 260, 128
-0.996368, 175, 73, 190, 136
-0.996377, 273, 25, 304, 88
-0.996378, 11, 129, 26, 192
-0.996379, 289, 33, 320, 96
-0.996381, 211, 65, 226, 128
-0.996383, 101, 49, 116, 112
-0.996397, 53, 57, 68, 120
-0.996402, 65, 149, 192, 180
-0.996412, 87, 153, 102, 216
-0.996415, 157, 1, 188, 64
-0.996416, 135, 57, 150, 120
-0.99642, 27, 121, 42, 184
-0.99645, 77, 73, 92, 136
-0.996451, 3, 129, 18, 192
-0.996456, 147, 69, 162, 100
-0.996483, 305, 65, 320, 128
-0.996484, 101, 81, 116, 144
-0.996484, 305, 89, 320, 152
-0.996498, 193, 193, 320, 223
-0.9965, 27, 65, 42, 128
-0.9965, 139, 69, 154, 100
-0.996526, 223, 145, 238, 208
-0.996527, 67, 33, 82, 96
-0.996531, 179, 105, 194, 168
-0.996558, 229, 73, 244, 136
-0.996559, 93, 69, 108, 100
-0.996564, 299, 145, 314, 208
-0.99659, 121, 81, 136, 144
-0.996608, 75, 9, 90, 72
-0.996614, 201, 137, 216, 200
-0.996629, 155, 121, 170, 184
-0.996657, 61, 9, 76, 72
-0.996666, 1, 1, 32, 64
-0.996757, 1, 21, 128, 52
-0.996802, 13, 1, 44, 64
-0.996858, 153, 73, 168, 104
-0.996962, 277, 105, 292, 136
-0.99699, 203, 185, 218, 216
-0.997027, 293, 65, 308, 96
-0.997041, 293, 77, 308, 108
-0.997051, 269, 89, 284, 120
-0.997064, 227, 53, 242, 84
-0.997127, 81, 41, 208, 72
-0.997158, 143, 89, 158, 120
-0.997177, 259, 65, 274, 96
-0.997197, 133, 85, 148, 116
-0.997198, 145, 137, 160, 168
-0.997204, 209, 185, 224, 216
-0.997229, 269, 77, 284, 108
-0.997233, 277, 1, 308, 223
-0.997244, 177, 41, 304, 72
-0.997259, 53, 109, 68, 140
-0.997273, 33, 33, 160, 64
-0.997291, 257, 1, 288, 223
-0.997324, 151, 85, 166, 116
-0.997337, 205, 1, 236, 223
-0.997337, 1, 69, 128, 100
-0.997341, 253, 65, 268, 96
-0.997355, 85, 49, 100, 80
-0.997372, 217, 45, 232, 76
-0.997383, 169, 137, 184, 168
-0.997384, 133, 133, 148, 164
-0.997387, 187, 61, 202, 92
-0.997387, 225, 121, 240, 152
-0.997388, 187, 133, 202, 164
-0.997388, 151, 137, 166, 168
-0.997402, 177, 137, 192, 168
-0.997407, 161, 153, 192, 216
-0.997408, 93, 121, 108, 152
-0.997413, 83, 81, 98, 112
-0.997416, 49, 21, 176, 52
-0.997425, 159, 77, 174, 108
-0.997445, 259, 81, 274, 112
-0.997473, 63, 93, 78, 124
-0.997479, 283, 105, 298, 136
-0.99749, 61, 193, 76, 223
-0.997493, 273, 121, 288, 152
-0.997496, 235, 153, 250, 184
-0.997504, 193, 1, 224, 223
-0.997505, 231, 137, 246, 168
-0.997511, 81, 141, 96, 172
-0.99753, 85, 65, 100, 96
-0.997531, 163, 137, 178, 168
-0.997533, 149, 1, 180, 223
-0.997542, 65, 1, 96, 223
-0.997561, 101, 137, 116, 168
-0.997564, 215, 121, 230, 152
-0.997569, 107, 133, 122, 164
-0.997581, 63, 81, 78, 112
-0.997581, 73, 81, 88, 112
-0.997584, 197, 137, 212, 168
-0.997601, 267, 117, 282, 148
-0.997603, 213, 173, 228, 204
-0.997607, 59, 105, 74, 136
-0.997611, 113, 1, 240, 32
-0.997613, 283, 93, 298, 124
-0.997614, 101, 17, 132, 80
-0.997615, 91, 133, 106, 164
-0.997618, 95, 57, 110, 88
-0.99765, 271, 105, 286, 136
-0.99765, 211, 45, 226, 76
-0.997652, 303, 93, 318, 124
-0.997655, 223, 145, 238, 176
-0.997657, 197, 189, 212, 220
-0.997661, 261, 113, 276, 144
-0.997662, 133, 73, 148, 104
-0.997662, 225, 1, 256, 223
-0.997665, 117, 129, 132, 160
-0.997666, 5, 97, 20, 128
-0.99769, 57, 85, 72, 116
-0.997695, 177, 69, 192, 100
-0.997708, 79, 129, 94, 160
-0.997708, 233, 57, 248, 88
-0.99771, 73, 97, 88, 128
-0.99773, 129, 1, 160, 223
-0.997735, 221, 57, 236, 88
-0.997736, 139, 137, 154, 168
-0.997739, 1, 153, 320, 216
-0.99774, 29, 1, 60, 223
-0.997747, 215, 141, 230, 172
-0.99775, 203, 49, 218, 80
-0.997756, 199, 173, 214, 204
-0.99776, 275, 93, 290, 124
-0.997763, 209, 137, 224, 168
-0.99777, 11, 93, 26, 124
-0.997772, 303, 145, 318, 176
-0.997777, 157, 93, 172, 124
-0.997778, 215, 189, 230, 220
-0.997782, 83, 105, 98, 136
-0.997796, 159, 149, 174, 180
-0.997805, 265, 65, 280, 96
-0.997807, 33, 45, 160, 76
-0.997809, 169, 69, 184, 100
-0.997822, 123, 129, 138, 160
-0.997826, 79, 117, 94, 148
-0.997847, 283, 121, 298, 152
-0.997851, 167, 81, 182, 112
-0.997852, 265, 101, 280, 132
-0.997853, 17, 93, 32, 124
-0.997868, 49, 1, 80, 223
-0.997872, 203, 137, 218, 168
-0.997875, 169, 9, 200, 72
-0.997877, 251, 85, 266, 116
-0.997887, 217, 97, 232, 128
-0.997892, 157, 137, 172, 168
-0.997898, 205, 169, 220, 200
-0.997899, 179, 33, 194, 64
-0.997902, 203, 153, 218, 184
-0.997935, 197, 53, 212, 84
-0.997955, 53, 21, 68, 52
-0.997957, 177, 53, 192, 84
-0.997966, 93, 93, 108, 124
-0.997974, 97, 1, 128, 223
-0.99799, 209, 117, 224, 148
-0.99799, 247, 65, 262, 96
-0.997992, 221, 185, 236, 216
-0.998001, 153, 125, 168, 156
-0.998001, 93, 109, 108, 140
-0.998002, 43, 21, 58, 52
-0.998004, 191, 189, 206, 220
-0.998008, 101, 121, 116, 152
-0.99801, 71, 137, 86, 168
-0.998014, 75, 193, 90, 223
-0.998026, 127, 85, 142, 116
-0.998028, 225, 89, 240, 120
-0.998032, 245, 85, 260, 116
-0.998034, 93, 81, 108, 112
-0.998037, 101, 149, 116, 180
-0.998055, 211, 153, 226, 184
-0.998058, 89, 169, 104, 200
-0.998064, 91, 157, 106, 188
-0.998065, 217, 109, 232, 140
-0.998088, 141, 57, 156, 88
-0.998097, 33, 9, 160, 40
-0.998105, 161, 1, 192, 223
-0.998107, 225, 41, 240, 72
-0.998108, 217, 157, 232, 188
-0.99811, 245, 101, 260, 132
-0.998119, 239, 93, 254, 124
-0.998127, 79, 65, 94, 96
-0.998131, 287, 65, 302, 96
-0.998139, 153, 149, 168, 180
-0.998141, 9, 109, 24, 140
-0.998154, 65, 105, 80, 136
-0.998161, 43, 93, 58, 124
-0.998171, 235, 105, 250, 136
-0.998177, 289, 1, 320, 223
-0.998178, 145, 29, 272, 60
-0.998347, 97, 29, 224, 60
-0.998358, 241, 99, 304, 114
-0.998379, 241, 89, 304, 104
-0.998393, 129, 73, 192, 88
-0.998405, 97, 79, 160, 94
-0.998407, 129, 83, 192, 98
-0.998413, 117, 163, 148, 178
-0.998414, 153, 205, 184, 220
-0.998414, 57, 81, 120, 96
-0.998414, 245, 81, 276, 96
-0.998416, 113, 103, 144, 118
-0.998416, 117, 189, 148, 204
-0.998417, 77, 201, 108, 216
-0.998417, 49, 81, 80, 96
-0.998417, 93, 173, 124, 188
-0.998419, 97, 191, 128, 206
-0.998419, 1, 115, 32, 130
-0.99842, 217, 67, 248, 82
-0.998421, 117, 171, 148, 186
-0.998421, 189, 157, 220, 172
-0.998422, 193, 53, 256, 68
-0.998423, 249, 155, 280, 170
-0.998423, 233, 161, 264, 176
-0.998423, 257, 119, 320, 134
-0.998423, 225, 99, 256, 114
-0.998424, 165, 39, 196, 54
-0.998424, 249, 71, 280, 86
-0.998424, 273, 131, 304, 146
-0.998425, 97, 135, 128, 150
-0.998426, 201, 191, 232, 206
-0.998426, 105, 209, 136, 223
-0.998427, 241, 65, 272, 80
-0.998428, 237, 149, 268, 164
-0.998429, 249, 105, 312, 120
-0.99843, 101, 85, 132, 100
-0.998431, 209, 149, 240, 164
-0.998431, 189, 63, 220, 78
-0.998431, 189, 165, 220, 180
-0.998432, 65, 209, 96, 223
-0.998434, 169, 149, 200, 164
-0.998434, 205, 179, 236, 194
-0.998438, 81, 115, 112, 130
-0.99844, 129, 71, 160, 86
-0.998442, 1, 101, 64, 116
-0.998443, 137, 149, 168, 164
-0.998443, 201, 165, 232, 180
-0.998445, 81, 63, 112, 78
-0.998445, 213, 143, 244, 158
-0.998445, 209, 59, 240, 74
-0.99845, 289, 113, 320, 128
-0.99845, 189, 139, 220, 154
-0.998451, 93, 71, 124, 86
-0.998452, 273, 125, 304, 140
-0.998455, 81, 45, 112, 60
-0.998457, 129, 89, 192, 104
-0.998457, 153, 79, 216, 94
-0.998459, 269, 69, 300, 84
-0.998459, 257, 83, 320, 98
-0.99846, 125, 77, 156, 92
-0.998461, 177, 77, 208, 92
-0.998462, 65, 105, 96, 120
-0.998462, 165, 79, 196, 94
-0.998463, 77, 207, 108, 222
-0.998465, 177, 183, 208, 198
-0.998465, 97, 133, 160, 148
-0.998465, 257, 111, 320, 126
-0.998466, 93, 79, 124, 94
-0.998468, 97, 85, 160, 100
-0.998469, 149, 145, 180, 160
-0.998471, 209, 121, 240, 136
-0.998473, 49, 87, 80, 102
-0.998473, 273, 119, 304, 134
-0.998474, 37, 197, 68, 212
-0.998474, 81, 121, 112, 136
-0.998475, 37, 205, 68, 220
-0.998475, 97, 73, 160, 88
-0.998476, 153, 137, 216, 152
-0.998477, 97, 167, 128, 182
-0.998477, 205, 155, 236, 170
-0.998478, 97, 157, 128, 172
-0.998479, 185, 151, 216, 166
-0.998479, 213, 133, 244, 148
-0.99848, 133, 99, 164, 114
-0.998481, 233, 93, 264, 108
-0.998481, 201, 141, 232, 156
-0.998482, 57, 103, 120, 118
-0.998482, 117, 157, 148, 172
-0.998483, 289, 67, 320, 82
-0.998484, 133, 109, 164, 124
-0.998484, 189, 181, 220, 196
-0.998485, 149, 103, 180, 118
-0.998485, 153, 73, 216, 88
-0.998487, 81, 131, 112, 146
-0.998487, 157, 67, 188, 82
-0.998489, 161, 185, 224, 200
-0.998489, 17, 95, 80, 110
-0.99849, 81, 51, 112, 66
-0.99849, 121, 95, 184, 110
-0.998492, 221, 157, 252, 172
-0.998493, 165, 137, 196, 152
-0.998493, 197, 53, 228, 68
-0.998493, 81, 69, 112, 84
-0.998495, 221, 55, 252, 70
-0.998496, 193, 155, 256, 170
-0.998497, 145, 67, 208, 82
-0.998498, 225, 129, 288, 144
-0.998503, 129, 103, 192, 118
-0.998505, 133, 137, 164, 152
-0.998506, 213, 97, 244, 112
-0.998507, 97, 91, 160, 106
-0.998507, 33, 203, 96, 218
-0.998507, 9, 101, 40, 116
-0.998507, 49, 111, 80, 126
-0.998508, 97, 159, 160, 174
-0.998509, 289, 79, 320, 94
-0.998509, 273, 93, 304, 108
-0.998511, 97, 67, 160, 82
-0.998513, 261, 79, 292, 94
-0.998514, 225, 123, 288, 138
-0.998514, 289, 87, 320, 102
-0.998515, 81, 81, 112, 96
-0.998516, 97, 125, 128, 140
-0.998517, 277, 75, 308, 90
-0.998517, 57, 203, 88, 218
-0.998517, 1, 107, 64, 122
-0.998518, 97, 103, 160, 118
-0.998518, 177, 63, 208, 78
-0.99852, 221, 163, 252, 178
-0.99852, 13, 1, 44, 128
-0.99852, 257, 125, 320, 140
-0.998521, 253, 87, 284, 102
-0.998521, 185, 141, 248, 156
-0.998522, 209, 97, 272, 112
-0.998523, 33, 107, 96, 122
-0.998523, 193, 59, 256, 74
-0.998524, 73, 209, 136, 223
-0.998525, 221, 149, 252, 164
-0.998525, 257, 77, 320, 92
-0.998525, 225, 107, 288, 122
-0.998525, 145, 143, 208, 158
-0.998526, 185, 131, 248, 146
-0.998527, 189, 187, 220, 202
-0.998527, 177, 69, 240, 84
-0.998528, 177, 193, 240, 208
-0.998529, 289, 99, 320, 114
-0.998529, 209, 163, 272, 178
-0.998531, 97, 109, 160, 124
-0.998531, 73, 127, 136, 142
-0.998532, 57, 97, 120, 112
-0.998533, 21, 97, 52, 112
-0.998535, 185, 183, 248, 198
-0.998535, 177, 71, 208, 86
-0.998535, 41, 89, 104, 104
-0.998535, 17, 209, 80, 223
-0.998536, 233, 157, 296, 172
-0.998537, 25, 101, 88, 116
-0.998538, 109, 131, 140, 146
-0.998539, 249, 103, 280, 118
-0.99854, 273, 81, 304, 96
-0.99854, 41, 117, 104, 132
-0.99854, 273, 105, 304, 120
-0.998542, 1, 113, 64, 128
-0.998544, 89, 191, 152, 206
-0.998545, 57, 47, 120, 62
-0.998545, 237, 99, 268, 114
-0.998545, 9, 95, 40, 110
-0.998549, 157, 85, 188, 100
-0.998549, 97, 97, 160, 112
-0.998551, 57, 75, 120, 90
-0.998551, 145, 79, 176, 94
-0.998552, 289, 107, 320, 122
-0.998552, 261, 103, 292, 118
-0.998553, 233, 83, 296, 98
-0.998553, 161, 87, 224, 102
-0.998556, 161, 149, 224, 164
-0.998557, 177, 137, 208, 152
-0.998557, 145, 95, 208, 110
-0.998558, 241, 69, 304, 84
-0.998558, 91, 65, 106, 192
-0.998559, 201, 185, 232, 200
-0.998559, 261, 129, 292, 144
-0.998562, 61, 81, 92, 96
-0.998562, 33, 197, 96, 212
-0.998563, 129, 149, 192, 164
-0.998568, 225, 115, 288, 130
-0.998569, 129, 207, 192, 222
-0.998569, 169, 167, 232, 182
-0.998571, 145, 155, 208, 170
-0.998571, 137, 189, 200, 204
-0.998571, 41, 123, 104, 138
-0.998573, 217, 89, 280, 104
-0.998574, 169, 115, 232, 130
-0.998575, 73, 117, 136, 132
-0.998576, 169, 95, 232, 110
-0.998576, 189, 193, 220, 208
-0.998578, 225, 135, 288, 150
-0.998578, 73, 133, 136, 148
-0.998579, 149, 93, 180, 108
-0.998579, 89, 173, 152, 188
-0.998579, 57, 53, 120, 68
-0.998581, 177, 201, 240, 216
-0.998581, 57, 203, 120, 218
-0.998581, 269, 113, 300, 128
-0.998582, 161, 73, 192, 88
-0.998582, 153, 139, 184, 154
-0.998582, 121, 109, 184, 124
-0.998583, 257, 97, 288, 112
-0.998583, 97, 139, 160, 154
-0.998586, 89, 165, 152, 180
-0.998587, 169, 61, 232, 76
-0.998589, 49, 209, 112, 223
-0.99859, 121, 139, 184, 154
-0.99859, 153, 205, 216, 220
-0.99859, 257, 109, 288, 124
-0.99859, 113, 187, 176, 202
-0.99859, 201, 105, 264, 120
-0.998591, 169, 157, 232, 172
-0.998591, 193, 47, 256, 62
-0.998594, 121, 157, 184, 172
-0.998595, 209, 49, 240, 64
-0.998595, 193, 149, 256, 164
-0.998596, 97, 149, 160, 164
-0.998597, 177, 75, 240, 90
-0.998599, 237, 1, 268, 223
-0.998599, 57, 59, 120, 74
-0.998601, 257, 131, 320, 146
-0.998601, 25, 25, 88, 40
-0.998602, 81, 61, 144, 76
-0.998603, 81, 47, 144, 62
-0.998604, 233, 77, 296, 92
-0.998604, 257, 137, 320, 152
-0.998604, 217, 151, 280, 166
-0.998605, 201, 201, 264, 216
-0.998607, 201, 193, 264, 208
-0.998607, 81, 75, 112, 90
-0.998607, 57, 69, 120, 84
-0.998608, 57, 109, 120, 124
-0.99861, 209, 183, 272, 198
-0.99861, 177, 121, 240, 136
-0.998611, 201, 65, 264, 80
-0.998612, 261, 119, 292, 134
-0.998613, 153, 47, 216, 62
-0.998614, 65, 193, 128, 208
-0.998615, 113, 171, 176, 186
-0.998615, 73, 139, 136, 154
-0.998618, 145, 131, 208, 146
-0.998618, 193, 177, 256, 192
-0.998618, 49, 41, 112, 56
-0.998619, 137, 49, 152, 176
-0.998619, 129, 83, 160, 98
-0.998621, 17, 89, 80, 104
-0.998622, 81, 55, 144, 70
-0.998627, 153, 199, 216, 214
-0.998627, 169, 101, 232, 116
-0.998628, 145, 85, 176, 100
-0.998629, 289, 93, 320, 108
-0.99863, 81, 81, 96, 208
-0.99863, 209, 75, 272, 90
-0.99863, 161, 41, 224, 56
-0.998632, 97, 119, 160, 134
-0.998633, 41, 129, 104, 144
-0.998634, 273, 99, 304, 114
-0.998635, 209, 83, 272, 98
-0.998637, 273, 87, 304, 102
-0.998641, 129, 89, 160, 104
-0.998649, 141, 73, 172, 88
-0.99868, 293, 65, 308, 192
-0.998691, 225, 49, 240, 176
-0.998692, 249, 1, 280, 64
-0.998708, 259, 49, 274, 176
-0.99872, 131, 65, 146, 192
-0.998731, 71, 65, 86, 192
-0.998745, 155, 49, 170, 176
-0.998752, 213, 81, 228, 208
-0.998756, 271, 81, 286, 208
-0.998767, 251, 65, 266, 192
-0.998782, 193, 13, 320, 44
-0.998793, 233, 49, 248, 176
-0.998816, 117, 1, 148, 223
-0.998822, 219, 49, 234, 176
-0.998843, 143, 49, 158, 176
-0.998844, 299, 81, 314, 208
-0.998849, 49, 97, 64, 223
-0.998857, 193, 25, 320, 56
-0.998863, 41, 97, 56, 223
-0.99889, 207, 49, 222, 176
-0.998898, 149, 81, 164, 208
-0.998935, 183, 65, 198, 192
-0.998938, 59, 65, 74, 192
-0.998941, 19, 65, 34, 192
-0.998956, 241, 81, 256, 208
-0.998973, 265, 65, 280, 192
-0.998975, 103, 65, 118, 192
-0.998981, 165, 65, 180, 192
-0.998982, 189, 65, 204, 192
-0.998992, 83, 17, 98, 144
-0.998996, 125, 65, 140, 192
-0.998998, 137, 1, 152, 128
-0.998998, 173, 65, 188, 192
-0.998998, 193, 1, 320, 32
-0.999008, 231, 97, 246, 223
-0.999024, 73, 17, 88, 144
-0.999027, 221, 97, 236, 223
-0.999029, 1, 65, 16, 192
-0.999031, 29, 97, 44, 223
-0.999039, 43, 17, 58, 144
-0.999042, 35, 97, 50, 223
-0.999049, 195, 49, 210, 176
-0.999052, 145, 17, 272, 48
-0.999056, 305, 97, 320, 223
-0.999064, 181, 17, 196, 144
-0.999068, 213, 17, 228, 144
-0.999077, 207, 97, 222, 223
-0.999091, 25, 49, 40, 176
-0.999094, 119, 65, 134, 192
-0.999107, 285, 81, 300, 208
-0.999111, 93, 17, 108, 144
-0.999111, 13, 65, 28, 192
-0.999116, 187, 1, 202, 128
-0.999138, 201, 33, 216, 160
-0.999141, 223, 1, 238, 128
-0.999151, 35, 49, 50, 176
-0.999152, 149, 17, 164, 144
-0.999156, 201, 97, 216, 223
-0.999157, 7, 65, 22, 192
-0.999158, 143, 97, 158, 223
-0.999158, 293, 1, 308, 128
-0.999166, 97, 13, 224, 44
-0.999167, 113, 65, 128, 192
-0.999167, 277, 81, 292, 208
-0.999173, 231, 1, 246, 128
-0.999177, 157, 97, 172, 223
-0.999183, 167, 17, 182, 144
-0.999192, 175, 17, 190, 144
-0.999196, 239, 33, 254, 160
-0.999207, 229, 1, 260, 64
-0.999227, 97, 65, 112, 192
-0.999247, 143, 1, 158, 128
-0.99928, 259, 97, 274, 223
-0.999302, 195, 97, 210, 223
-0.999303, 253, 17, 268, 144
-0.999323, 55, 17, 70, 144
-0.999324, 161, 17, 176, 144
-0.999328, 129, 17, 144, 144
-0.999346, 265, 17, 280, 144
-0.999348, 65, 97, 80, 223
-0.99935, 279, 33, 294, 160
-0.999351, 137, 97, 152, 223
-0.999357, 271, 33, 286, 160
-0.999359, 49, 17, 64, 144
-0.99936, 65, 17, 80, 144
-0.999364, 247, 17, 262, 144
-0.999383, 305, 49, 320, 176
-0.999397, 5, 1, 36, 223
-0.999424, 99, 1, 114, 128
-0.99944, 123, 17, 138, 144
-0.999454, 195, 1, 210, 128
-0.999454, 299, 17, 314, 144
-0.999479, 207, 1, 222, 128
-0.99948, 19, 17, 34, 144
-0.999482, 259, 1, 274, 128
-0.99949, 155, 1, 170, 128
-0.999527, 11, 17, 26, 144
-0.999527, 285, 1, 316, 64
-0.99956, 285, 33, 300, 160
-0.999568, 37, 1, 52, 128
-0.999569, 1, 17, 16, 144
-0.9996, 105, 17, 120, 144
-0.999623, 139, 77, 154, 92
-0.999625, 195, 137, 210, 152
-0.999625, 83, 115, 98, 130
-0.999626, 231, 67, 246, 82
-0.999626, 201, 53, 216, 68
-0.999626, 253, 101, 268, 116
-0.999627, 135, 69, 150, 84
-0.999628, 225, 147, 240, 162
-0.999629, 101, 139, 116, 154
-0.999629, 199, 193, 214, 208
-0.999629, 63, 101, 78, 116
-0.999629, 253, 71, 268, 86
-0.999629, 71, 151, 86, 166
-0.999629, 231, 155, 246, 170
-0.99963, 223, 51, 238, 66
-0.99963, 281, 131, 296, 146
-0.999631, 3, 101, 18, 116
-0.999631, 71, 145, 86, 160
-0.999631, 9, 107, 24, 122
-0.999632, 93, 111, 108, 126
-0.999632, 101, 129, 116, 144
-0.999632, 285, 105, 300, 120
-0.999633, 199, 181, 214, 196
-0.999633, 217, 95, 232, 110
-0.999634, 173, 39, 188, 54
-0.999634, 213, 191, 228, 206
-0.999634, 271, 103, 286, 118
-0.999635, 143, 109, 158, 124
-0.999635, 141, 89, 156, 104
-0.999636, 263, 109, 278, 124
-0.999636, 211, 47, 226, 62
-0.999637, 293, 71, 308, 86
-0.999637, 95, 65, 110, 80
-0.99964, 305, 97, 320, 112
-0.99964, 85, 69, 100, 84
-0.999641, 295, 89, 310, 104
-0.999641, 55, 85, 70, 100
-0.999642, 65, 81, 80, 96
-0.999642, 217, 143, 232, 158
-0.999642, 285, 125, 300, 140
-0.999643, 305, 151, 320, 166
-0.999643, 257, 79, 272, 94
-0.999643, 237, 165, 252, 180
-0.999644, 209, 183, 224, 198
-0.999644, 265, 75, 280, 90
-0.999645, 159, 143, 174, 158
-0.999645, 85, 53, 100, 68
-0.999646, 285, 99, 300, 114
-0.999646, 111, 17, 126, 144
-0.999646, 155, 75, 170, 90
-0.999647, 83, 129, 98, 144
-0.999647, 93, 117, 108, 132
-0.999648, 91, 141, 106, 156
-0.999649, 93, 123, 108, 138
-0.999651, 85, 43, 100, 58
-0.999652, 133, 81, 148, 96
-0.999653, 267, 129, 282, 144
-0.999654, 177, 139, 192, 154
-0.999655, 93, 129, 108, 144
-0.999655, 275, 97, 290, 112
-0.999656, 83, 123, 98, 138
-0.999657, 95, 83, 110, 98
-0.999659, 225, 133, 240, 148
-0.999659, 189, 63, 204, 78
-0.999661, 189, 137, 204, 152
-0.999661, 153, 145, 168, 160
-0.999661, 83, 135, 98, 150
-0.999661, 61, 201, 76, 216
-0.999662, 33, 95, 48, 110
-0.999663, 143, 139, 158, 154
-0.999665, 279, 125, 294, 140
-0.999669, 217, 49, 232, 64
-0.999669, 207, 193, 222, 208
-0.99967, 259, 65, 274, 80
-0.99967, 171, 139, 186, 154
-0.999671, 21, 95, 36, 110
-0.999672, 133, 89, 148, 104
-0.999672, 283, 117, 298, 132
-0.999672, 9, 95, 24, 110
-0.999674, 239, 99, 254, 114
-0.999675, 231, 149, 246, 164
-0.999676, 267, 87, 282, 102
-0.999676, 117, 131, 132, 146
-0.999678, 19, 101, 34, 116
-0.999679, 231, 143, 246, 158
-0.999679, 31, 1, 46, 128
-0.999683, 253, 65, 268, 80
-0.999684, 283, 111, 298, 126
-0.999685, 273, 127, 288, 142
-0.999685, 171, 71, 186, 86
-0.999686, 305, 1, 320, 128
-0.999686, 167, 87, 182, 102
-0.999688, 27, 97, 42, 112
-0.999688, 225, 127, 240, 142
-0.999689, 165, 139, 180, 154
-0.999689, 269, 119, 284, 134
-0.999689, 81, 145, 96, 160
-0.999689, 1, 95, 16, 110
-0.99969, 149, 73, 164, 88
-0.999691, 299, 151, 314, 166
-0.999692, 85, 75, 100, 90
-0.999695, 269, 81, 284, 96
-0.999697, 179, 35, 194, 50
-0.999699, 275, 111, 290, 126
-0.9997, 259, 85, 274, 100
-0.999702, 83, 81, 98, 96
-0.999702, 293, 77, 308, 92
-0.999706, 183, 137, 198, 152
-0.999707, 261, 127, 276, 142
-0.999707, 277, 119, 292, 134
-0.999709, 73, 95, 88, 110
-0.999709, 141, 69, 156, 84
-0.999713, 91, 135, 106, 150
-0.999716, 269, 109, 284, 124
-0.999716, 269, 93, 284, 108
-0.999717, 141, 83, 156, 98
-0.999718, 63, 107, 78, 122
-0.99972, 291, 65, 306, 80
-0.999724, 53, 111, 68, 126
-0.999725, 95, 77, 110, 92
-0.999726, 203, 187, 218, 202
-0.999726, 157, 81, 172, 96
-0.999728, 153, 139, 168, 154
-0.999728, 153, 89, 168, 104
-0.999733, 279, 103, 294, 118
-0.999738, 95, 71, 110, 86
-0.999739, 117, 17, 132, 144
-0.999745, 9, 101, 24, 116
-0.999745, 147, 85, 162, 100
-0.999752, 181, 73, 196, 88
-0.999757, 229, 53, 244, 68
-0.99976, 263, 117, 278, 132
-0.999761, 15, 95, 30, 110
-0.999772, 25, 1, 40, 128
-0.99978, 293, 83, 308, 98
-0.999957, 17, 1, 48, 223
-1.00007, 273, 1, 304, 64
-1.00013, 1, 1, 32, 128
-1.0002, 261, 1, 292, 64
-1.00103, 13, 153, 44, 216
