1959
-0.24882, 1, 1, 500, 375
-0.305631, 1, 129, 500, 375
-0.312133, 1, 1, 256, 375
-0.342864, 161, 1, 416, 375
-0.410662, 1, 33, 500, 288
-0.510991, 257, 1, 500, 375
-0.530402, 65, 129, 320, 375
-0.541243, 65, 33, 320, 288
-0.547616, 161, 129, 416, 375
-0.609282, 161, 1, 416, 256
-0.683615, 257, 129, 500, 375
-0.760286, 257, 33, 500, 288
-0.836139, 225, 1, 352, 375
-0.837579, 81, 33, 208, 288
-0.842656, 113, 129, 240, 375
-0.842695, 97, 1, 224, 375
-0.845322, 145, 1, 272, 375
-0.854046, 177, 129, 304, 375
-0.854103, 17, 1, 144, 256
-0.854946, 225, 97, 352, 352
-0.855766, 225, 1, 352, 256
-0.856179, 1, 1, 128, 375
-0.857024, 161, 1, 288, 256
-0.859353, 289, 1, 416, 375
-0.864104, 1, 113, 500, 240
-0.869905, 1, 177, 500, 304
-0.875061, 49, 1, 176, 375
-0.876155, 65, 129, 192, 375
-0.878444, 17, 97, 144, 352
-0.886287, 273, 1, 400, 256
-0.889309, 289, 129, 416, 375
-0.891532, 337, 1, 464, 256
-0.894501, 369, 129, 496, 375
-0.900757, 1, 225, 500, 352
-0.904182, 337, 1, 464, 375
-0.909342, 97, 129, 352, 256
-0.913994, 257, 177, 500, 304
-0.915312, 1, 225, 256, 352
-0.915323, 1, 1, 500, 128
-0.918533, 161, 193, 416, 320
-0.923354, 65, 1, 320, 128
-0.92522, 225, 113, 480, 240
-0.928118, 1, 49, 500, 176
-0.928613, 1, 145, 256, 272
-0.929603, 193, 17, 448, 144
-0.932316, 113, 113, 240, 240
-0.933703, 65, 49, 320, 176
-0.935956, 161, 113, 288, 240
-0.936097, 209, 113, 336, 240
-0.937108, 137, 113, 200, 240
-0.937905, 321, 193, 448, 320
-0.93932, 81, 65, 208, 192
-0.939606, 145, 49, 272, 176
-0.939953, 161, 1, 288, 128
-0.940509, 161, 241, 416, 368
-0.942914, 1, 1, 128, 128
-0.944491, 433, 161, 496, 288
-0.944496, 137, 65, 200, 192
-0.944825, 257, 161, 384, 288
-0.946231, 257, 209, 384, 336
-0.946913, 49, 145, 176, 272
-0.947565, 225, 33, 352, 160
-0.947676, 1, 113, 128, 240
-0.94849, 393, 1, 456, 128
-0.948613, 241, 33, 304, 160
-0.949064, 337, 1, 464, 128
-0.949085, 1, 97, 256, 224
-0.949484, 273, 129, 336, 256
-0.949721, 17, 225, 144, 352
-0.949815, 273, 225, 336, 352
-0.949875, 97, 33, 160, 160
-0.950263, 369, 177, 432, 304
-0.950694, 217, 1, 280, 128
-0.950791, 369, 177, 496, 304
-0.95083, 113, 209, 176, 336
-0.950851, 105, 145, 168, 272
-0.951172, 241, 113, 304, 240
-0.951178, 129, 193, 256, 320
-0.951347, 305, 177, 368, 304
-0.951595, 257, 225, 500, 352
-0.952155, 225, 65, 480, 192
-0.952526, 433, 177, 496, 240
-0.952687, 137, 129, 200, 192
-0.953027, 201, 113, 264, 240
-0.953141, 177, 193, 304, 320
-0.953279, 161, 33, 224, 160
-0.954035, 113, 1, 240, 128
-0.954119, 329, 177, 392, 304
-0.95549, 113, 97, 176, 224
-0.956097, 169, 193, 232, 320
-0.956101, 81, 209, 208, 336
-0.957028, 65, 17, 192, 144
-0.957044, 129, 161, 192, 288
-0.957231, 1, 65, 64, 192
-0.957527, 273, 177, 336, 304
-0.95772, 233, 193, 296, 320
-0.958364, 161, 145, 224, 272
-0.958917, 305, 33, 368, 160
-0.959324, 305, 201, 368, 264
-0.959713, 273, 17, 336, 144
-0.96028, 305, 281, 368, 344
-0.96048, 305, 241, 368, 368
-0.960606, 49, 97, 112, 224
-0.960842, 417, 1, 480, 128
-0.960863, 153, 241, 216, 368
-0.960977, 81, 161, 144, 288
-0.961055, 353, 185, 416, 248
-0.961107, 257, 113, 384, 240
-0.961259, 25, 225, 88, 352
-0.961325, 65, 1, 128, 128
-0.96203, 265, 33, 328, 96
-0.962054, 73, 137, 136, 200
-0.962113, 33, 137, 96, 200
-0.962313, 337, 241, 464, 368
-0.962495, 281, 217, 344, 280
-0.962545, 273, 241, 336, 304
-0.962673, 273, 129, 336, 192
-0.963541, 105, 153, 168, 216
-0.963572, 121, 129, 184, 375
-0.96368, 161, 121, 224, 184
-0.963791, 33, 65, 160, 192
-0.964261, 9, 1, 72, 128
-0.964266, 185, 1, 248, 128
-0.964308, 241, 145, 304, 208
-0.964565, 129, 257, 192, 320
-0.964579, 137, 33, 200, 288
-0.96484, 113, 225, 176, 288
-0.964914, 25, 233, 88, 296
-0.96499, 177, 241, 304, 368
-0.96505, 329, 1, 392, 128
-0.965162, 265, 81, 328, 208
-0.965179, 329, 185, 392, 248
-0.965191, 433, 153, 496, 216
-0.965461, 273, 313, 336, 375
-0.965557, 241, 201, 304, 264
-0.965593, 89, 33, 152, 288
-0.965637, 273, 185, 336, 248
-0.965717, 369, 129, 496, 256
-0.965761, 273, 17, 400, 144
-0.965929, 17, 129, 80, 256
-0.965993, 137, 201, 200, 264
-0.966226, 369, 1, 432, 128
-0.96629, 305, 257, 368, 320
-0.966377, 409, 225, 472, 352
-0.966382, 273, 289, 336, 352
-0.966654, 81, 25, 144, 88
-0.966864, 121, 105, 184, 168
-0.966872, 169, 97, 232, 224
-0.966893, 33, 1, 96, 64
-0.967037, 417, 1, 480, 64
-0.967138, 49, 145, 112, 272
-0.96774, 297, 129, 360, 256
-0.967847, 113, 129, 176, 192
-0.968051, 1, 161, 128, 288
-0.968249, 145, 113, 272, 176
-0.968295, 305, 145, 432, 272
-0.968389, 321, 33, 384, 96
-0.968428, 273, 265, 336, 328
-0.968444, 401, 161, 464, 288
-0.968794, 337, 225, 400, 352
-0.968825, 409, 169, 472, 232
-0.96922, 65, 1, 128, 64
-0.969239, 433, 201, 496, 264
-0.969328, 201, 113, 264, 176
-0.969438, 209, 161, 272, 288
-0.969464, 305, 225, 368, 288
-0.96952, 97, 49, 160, 112
-0.969533, 33, 1, 96, 128
-0.969535, 1, 137, 64, 200
-0.969559, 121, 1, 184, 128
-0.969776, 217, 49, 280, 176
-0.96988, 393, 9, 456, 72
-0.969911, 145, 129, 208, 375
-0.969938, 121, 81, 184, 144
-0.97009, 129, 145, 160, 272
-0.970216, 137, 281, 200, 344
-0.970302, 137, 49, 200, 112
-0.97037, 273, 105, 336, 168
-0.970466, 153, 257, 216, 320
-0.970652, 169, 209, 232, 272
-0.970709, 361, 225, 424, 352
-0.97072, 297, 57, 360, 120
-0.971003, 145, 89, 208, 152
-0.971022, 73, 113, 136, 240
-0.971205, 149, 105, 180, 168
-0.971217, 161, 41, 224, 104
-0.971431, 129, 241, 256, 368
-0.971534, 1, 1, 64, 256
-0.971577, 433, 113, 496, 240
-0.972029, 273, 97, 336, 352
-0.972309, 289, 33, 352, 96
-0.972359, 337, 265, 400, 328
-0.972411, 65, 113, 192, 176
-0.972505, 241, 129, 304, 375
-0.972897, 345, 129, 408, 256
-0.973019, 225, 33, 288, 288
-0.973062, 161, 265, 192, 328
-0.973119, 193, 65, 256, 192
-0.973265, 97, 129, 160, 375
-0.973434, 385, 241, 448, 368
-0.973489, 369, 193, 496, 256
-0.973505, 17, 9, 144, 72
-0.973508, 417, 241, 480, 304
-0.973509, 161, 33, 224, 288
-0.973616, 217, 25, 280, 88
-0.973737, 393, 201, 456, 264
-0.973744, 81, 225, 144, 352
-0.973946, 121, 25, 184, 88
-0.97413, 145, 81, 176, 208
-0.974225, 193, 113, 320, 176
-0.974234, 161, 65, 224, 128
-0.974372, 177, 129, 240, 375
-0.974423, 137, 153, 200, 216
-0.974437, 257, 281, 384, 344
-0.974491, 273, 161, 336, 224
-0.974512, 25, 81, 88, 208
-0.974549, 25, 177, 88, 304
-0.974575, 265, 1, 328, 256
-0.974607, 161, 9, 288, 72
-0.974646, 129, 89, 256, 152
-0.974652, 161, 145, 224, 208
-0.974716, 113, 33, 176, 288
-0.974862, 57, 161, 120, 224
-0.974865, 353, 225, 416, 288
-0.974865, 361, 257, 424, 320
-0.974948, 445, 169, 476, 232
-0.975024, 161, 241, 192, 368
-0.975046, 153, 1, 216, 375
-0.975107, 153, 305, 216, 368
-0.975286, 241, 33, 304, 96
-0.975367, 305, 1, 368, 256
-0.975429, 177, 17, 240, 80
-0.975533, 297, 161, 360, 224
-0.975681, 209, 145, 336, 208
-0.975805, 153, 233, 216, 296
-0.975816, 17, 137, 144, 200
-0.975903, 145, 129, 176, 192
-0.976015, 201, 97, 264, 352
-0.976015, 433, 25, 496, 88
-0.976043, 257, 185, 384, 248
-0.976044, 65, 137, 192, 200
-0.97605, 381, 185, 412, 248
-0.976142, 73, 129, 136, 375
-0.976191, 425, 57, 456, 120
-0.976211, 113, 137, 240, 200
-0.976218, 233, 113, 264, 240
-0.976275, 305, 129, 368, 375
-0.976294, 49, 113, 112, 176
-0.976423, 113, 57, 240, 120
-0.976458, 1, 161, 64, 224
-0.97654, 421, 1, 452, 128
-0.976782, 185, 137, 248, 200
-0.976783, 469, 161, 500, 288
-0.976844, 1, 73, 64, 136
-0.976972, 273, 225, 400, 288
-0.977024, 289, 81, 352, 208
-0.977054, 145, 177, 208, 240
-0.977094, 329, 241, 392, 304
-0.977095, 81, 233, 144, 296
-0.977202, 193, 201, 320, 264
-0.977203, 273, 81, 336, 144
-0.977206, 289, 65, 416, 192
-0.977221, 321, 9, 384, 72
-0.977308, 57, 225, 120, 352
-0.977421, 225, 33, 352, 96
-0.97744, 393, 41, 456, 104
-0.977542, 49, 49, 112, 176
-0.977586, 1, 241, 64, 368
-0.977617, 385, 281, 448, 344
-0.977722, 9, 33, 72, 96
-0.977724, 145, 81, 176, 144
-0.977726, 65, 89, 192, 152
-0.977767, 321, 193, 448, 256
-0.977772, 33, 129, 96, 375
-0.977826, 81, 225, 208, 288
-0.978016, 129, 209, 256, 272
-0.978116, 293, 129, 324, 192
-0.978124, 345, 17, 408, 80
-0.978229, 89, 1, 152, 64
-0.978231, 69, 97, 100, 224
-0.978263, 353, 1, 480, 64
-0.978325, 241, 1, 304, 375
-0.978371, 377, 225, 440, 288
-0.978373, 369, 169, 496, 232
-0.978374, 305, 265, 432, 328
-0.978403, 161, 33, 288, 96
-0.97841, 101, 25, 132, 88
-0.978492, 241, 57, 304, 120
-0.978515, 17, 233, 144, 296
-0.978658, 221, 113, 252, 240
-0.978711, 257, 249, 384, 312
-0.978757, 97, 1, 160, 375
-0.978791, 261, 129, 292, 256
-0.978824, 201, 209, 264, 272
-0.978878, 125, 65, 156, 192
-0.979272, 209, 113, 240, 176
-0.979274, 65, 41, 192, 104
-0.979413, 469, 201, 500, 264
-0.979422, 385, 1, 448, 256
-0.97946, 33, 297, 96, 360
-0.97951, 57, 233, 120, 296
-0.979518, 233, 113, 296, 176
-0.979536, 353, 129, 416, 375
-0.979549, 113, 281, 176, 344
-0.979616, 17, 33, 144, 96
-0.979618, 433, 209, 496, 336
-0.979725, 97, 73, 160, 136
-0.979753, 177, 241, 240, 368
-0.979761, 173, 33, 204, 160
-0.979786, 129, 161, 160, 224
-0.979814, 401, 113, 464, 240
-0.979939, 81, 9, 112, 72
-0.979945, 205, 113, 236, 240
-0.980026, 245, 113, 276, 240
-0.980061, 345, 185, 376, 248
-0.980093, 161, 281, 224, 344
-0.980146, 113, 201, 176, 264
-0.980187, 81, 1, 208, 64
-0.980205, 73, 209, 136, 272
-0.980235, 81, 161, 144, 224
-0.980315, 121, 49, 152, 112
-0.980317, 317, 257, 348, 320
-0.980319, 49, 161, 176, 224
-0.980336, 449, 145, 480, 272
-0.980356, 209, 1, 272, 64
-0.980367, 441, 1, 472, 64
-0.980439, 137, 209, 168, 336
-0.980641, 305, 305, 368, 368
-0.98087, 65, 1, 128, 256
-0.980876, 409, 65, 472, 128
-0.980881, 325, 193, 356, 320
-0.98089, 113, 161, 144, 288
-0.981019, 281, 121, 312, 184
-0.981029, 241, 241, 304, 368
-0.981191, 161, 289, 192, 352
-0.981197, 313, 1, 376, 375
-0.981226, 273, 33, 304, 96
-0.981297, 113, 33, 240, 96
-0.981354, 9, 113, 72, 176
-0.981372, 329, 217, 392, 280
-0.981401, 457, 177, 488, 240
-0.981406, 417, 129, 480, 375
-0.981454, 137, 217, 168, 280
-0.981509, 157, 129, 188, 256
-0.981621, 409, 1, 440, 128
-0.981649, 209, 89, 336, 152
-0.981731, 233, 1, 296, 64
-0.981732, 313, 217, 344, 280
-0.98175, 469, 177, 500, 240
-0.981787, 313, 193, 344, 320
-0.98182, 245, 33, 276, 160
-0.981927, 1, 129, 64, 375
-0.981973, 173, 33, 204, 96
-0.982043, 81, 297, 208, 360
-0.982043, 97, 105, 160, 168
-0.982071, 345, 177, 376, 304
-0.982078, 321, 217, 448, 280
-0.982091, 377, 193, 408, 320
-0.982137, 409, 273, 472, 336
-0.982188, 257, 305, 384, 368
-0.982229, 33, 233, 64, 296
-0.982252, 313, 81, 376, 208
-0.982287, 329, 185, 360, 248
-0.98238, 209, 1, 272, 375
-0.982383, 257, 161, 384, 224
-0.982385, 257, 33, 288, 160
-0.982395, 45, 137, 76, 200
-0.982447, 89, 137, 120, 200
-0.982459, 241, 225, 304, 288
-0.982462, 209, 153, 272, 216
-0.982498, 17, 1, 80, 375
-0.982499, 193, 145, 224, 272
-0.982525, 1, 113, 32, 240
-0.982548, 397, 177, 428, 304
-0.982561, 353, 241, 480, 304
-0.982604, 413, 9, 444, 72
-0.982666, 201, 177, 264, 240
-0.98272, 249, 33, 280, 96
-0.982739, 77, 137, 108, 200
-0.982752, 129, 305, 192, 368
-0.982755, 165, 313, 196, 375
-0.982765, 41, 209, 104, 272
-0.982777, 297, 105, 360, 168
-0.98278, 1, 1, 64, 64
-0.982847, 305, 33, 336, 96
-0.982853, 329, 1, 392, 256
-0.982903, 81, 129, 112, 256
-0.982922, 25, 1, 88, 256
-0.983045, 81, 257, 208, 320
-0.983066, 293, 217, 324, 280
-0.98312, 201, 1, 264, 256
-0.98314, 317, 241, 348, 368
-0.983165, 25, 177, 88, 240
-0.983172, 209, 233, 336, 296
-0.983234, 225, 17, 256, 144
-0.98329, 101, 161, 132, 288
-0.983296, 273, 57, 336, 120
-0.983347, 297, 129, 328, 256
-0.983398, 53, 97, 84, 224
-0.983431, 37, 225, 68, 352
-0.983451, 1, 313, 64, 375
-0.983522, 209, 65, 336, 128
-0.983546, 157, 241, 188, 304
-0.983563, 177, 193, 208, 320
-0.983577, 153, 177, 184, 304
-0.983587, 329, 129, 392, 375
-0.983589, 281, 113, 312, 240
-0.983628, 129, 185, 256, 248
-0.98363, 369, 1, 432, 64
-0.983726, 297, 81, 360, 144
-0.983739, 297, 89, 328, 152
-0.983782, 21, 33, 52, 96
-0.983785, 305, 305, 432, 368
-0.983786, 81, 1, 112, 128
-0.983794, 293, 153, 324, 216
-0.983863, 305, 1, 432, 64
-0.983886, 177, 313, 304, 375
-0.983896, 65, 65, 192, 128
-0.983966, 113, 161, 240, 224
-0.98398, 329, 41, 360, 104
-0.98399, 265, 1, 328, 375
-0.984019, 81, 201, 208, 264
-0.98402, 377, 49, 440, 176
-0.984033, 161, 153, 288, 216
-0.984037, 273, 33, 400, 96
-0.984041, 297, 9, 360, 72
-0.984065, 133, 129, 164, 192
-0.984104, 433, 1, 464, 128
-0.984137, 469, 153, 500, 216
-0.984146, 97, 17, 128, 144
-0.98416, 353, 225, 384, 288
-0.984181, 409, 49, 472, 176
-0.984183, 457, 153, 488, 216
-0.984199, 57, 129, 88, 192
-0.984233, 337, 161, 400, 224
-0.98427, 277, 17, 308, 144
-0.984304, 317, 33, 348, 160
-0.984305, 169, 185, 232, 248
-0.984356, 65, 1, 96, 64
-0.984395, 261, 33, 292, 96
-0.984411, 73, 1, 136, 375
-0.98444, 73, 65, 136, 192
-0.984442, 177, 145, 208, 272
-0.984504, 121, 1, 184, 375
-0.984571, 185, 1, 248, 375
-0.984627, 261, 193, 292, 320
-0.984639, 317, 33, 348, 96
-0.98467, 1, 145, 32, 208
-0.984694, 237, 113, 268, 176
-0.984768, 297, 33, 328, 160
-0.984785, 9, 33, 40, 160
-0.984836, 57, 25, 120, 88
-0.984851, 257, 137, 384, 200
-0.984864, 69, 113, 100, 176
-0.984869, 281, 161, 312, 288
-0.98487, 249, 177, 312, 240
-0.984873, 17, 305, 144, 368
-0.984877, 225, 113, 256, 176
-0.984898, 353, 281, 480, 344
-0.984921, 261, 201, 292, 264
-0.984935, 145, 153, 176, 216
-0.984954, 225, 65, 256, 192
-0.985057, 129, 257, 256, 320
-0.985064, 225, 1, 352, 64
-0.98507, 365, 209, 396, 272
-0.985103, 393, 89, 456, 152
-0.985116, 161, 49, 192, 176
-0.98512, 161, 65, 192, 128
-0.985209, 429, 1, 460, 64
-0.985209, 305, 137, 368, 200
-0.985254, 153, 185, 184, 248
-0.985298, 321, 129, 384, 256
-0.9853, 49, 145, 80, 272
-0.985324, 249, 89, 312, 152
-0.985331, 369, 185, 400, 248
-0.985416, 317, 281, 348, 344
-0.985421, 401, 193, 432, 256
-0.985457, 321, 25, 448, 88
-0.98546, 265, 145, 296, 208
-0.985533, 141, 161, 172, 288
-0.985553, 237, 161, 268, 288
-0.9856, 281, 65, 312, 192
-0.985627, 129, 281, 256, 344
-0.985644, 33, 161, 64, 288
-0.985701, 257, 9, 320, 72
-0.985739, 157, 129, 188, 192
-0.98574, 161, 57, 288, 120
-0.98583, 93, 1, 124, 64
-0.985841, 113, 33, 144, 160
-0.98591, 1, 57, 128, 120
-0.98593, 217, 65, 280, 128
-0.985953, 1, 169, 128, 232
-0.986011, 177, 177, 304, 240
-0.986017, 281, 233, 312, 296
-0.986125, 297, 81, 328, 208
-0.986275, 369, 217, 496, 280
-0.986311, 417, 313, 480, 375
-0.986328, 341, 273, 372, 336
-0.986331, 169, 97, 232, 160
-0.986365, 329, 241, 360, 304
-0.986367, 381, 217, 412, 280
-0.986374, 337, 33, 368, 160
-0.986377, 145, 57, 176, 120
-0.986381, 17, 201, 144, 264
-0.986384, 349, 1, 380, 128
-0.986488, 357, 177, 388, 304
-0.986504, 57, 153, 88, 216
-0.986604, 369, 49, 432, 112
-0.98661, 313, 145, 344, 272
-0.986647, 433, 1, 496, 256
-0.986653, 429, 177, 460, 304
-0.986666, 289, 1, 352, 375
-0.986671, 353, 49, 480, 176
-0.986673, 185, 1, 216, 128
-0.986702, 69, 1, 100, 128
-0.986723, 341, 217, 372, 280
-0.986775, 401, 9, 432, 72
-0.98678, 209, 289, 336, 352
-0.986842, 305, 241, 336, 304
-0.986863, 121, 209, 152, 336
-0.986967, 305, 169, 432, 232
-0.987005, 265, 113, 296, 176
-0.987018, 25, 1, 56, 128
-0.987053, 241, 249, 304, 312
-0.98706, 289, 113, 416, 176
-0.987132, 61, 161, 92, 288
-0.987134, 457, 193, 488, 320
-0.987156, 297, 57, 328, 120
-0.987182, 377, 129, 440, 375
-0.987191, 209, 257, 336, 320
-0.9872, 357, 185, 388, 248
-0.987225, 129, 305, 256, 368
-0.987274, 273, 73, 400, 136
-0.987314, 317, 57, 348, 120
-0.987353, 1, 233, 64, 296
-0.987368, 145, 1, 208, 64
-0.987385, 33, 153, 64, 216
-0.987431, 69, 169, 100, 232
-0.98748, 85, 81, 116, 208
-0.98753, 289, 33, 320, 96
-0.987542, 301, 209, 332, 336
-0.987571, 197, 113, 228, 176
-0.987593, 217, 161, 248, 288
-0.987613, 409, 33, 472, 288
-0.987618, 281, 89, 312, 152
-0.987677, 117, 161, 148, 224
-0.987709, 109, 129, 140, 192
-0.987788, 313, 193, 344, 256
-0.987935, 157, 217, 188, 280
-0.987946, 345, 249, 376, 312
-0.98803, 21, 161, 52, 288
-0.988039, 281, 65, 312, 128
-0.988064, 17, 257, 144, 320
-0.988085, 217, 89, 248, 152
-0.988096, 125, 225, 156, 288
-0.988161, 213, 65, 244, 192
-0.988211, 409, 241, 440, 368
-0.988213, 205, 161, 236, 288
-0.98826, 269, 65, 300, 192
-0.988262, 321, 49, 448, 112
-0.988312, 45, 113, 76, 176
-0.988357, 249, 201, 280, 264
-0.988365, 177, 201, 208, 264
-0.988475, 17, 137, 48, 200
-0.988477, 113, 225, 144, 288
-0.988551, 429, 49, 460, 176
-0.988567, 469, 113, 500, 240
-0.988629, 161, 233, 288, 296
-0.988644, 189, 9, 220, 72
-0.988673, 169, 145, 200, 208
-0.988692, 349, 17, 380, 80
-0.988692, 9, 49, 40, 112
-0.988778, 201, 209, 264, 336
-0.988786, 133, 81, 164, 144
-0.988805, 397, 1, 428, 128
-0.988829, 305, 137, 336, 200
-0.988833, 429, 177, 460, 240
-0.988863, 337, 1, 400, 375
-0.988883, 1, 113, 128, 176
-0.988903, 397, 225, 428, 352
-0.988931, 441, 193, 472, 320
-0.989028, 229, 73, 260, 136
-0.989046, 469, 9, 500, 72
-0.989046, 365, 249, 396, 312
-0.989069, 417, 33, 448, 96
-0.989078, 369, 33, 496, 96
-0.989106, 221, 137, 252, 200
-0.989124, 97, 153, 352, 216
-0.989132, 105, 225, 136, 352
-0.98914, 141, 257, 172, 320
-0.989182, 137, 137, 200, 168
-0.98919, 293, 241, 324, 304
-0.989241, 361, 1, 424, 256
-0.989255, 137, 149, 200, 180
-0.98926, 429, 225, 460, 352
-0.989264, 41, 97, 72, 224
-0.989318, 81, 169, 112, 232
-0.989326, 1, 17, 256, 80
-0.989365, 253, 137, 284, 200
-0.989391, 389, 265, 420, 328
-0.989446, 237, 1, 268, 64
-0.989463, 241, 113, 368, 176
-0.989481, 137, 121, 200, 152
-0.989483, 1, 177, 64, 304
-0.989562, 337, 185, 400, 216
-0.989563, 285, 209, 316, 336
-0.989573, 213, 1, 244, 128
-0.989577, 77, 233, 108, 296
-0.989625, 237, 209, 268, 272
-0.989645, 1, 89, 32, 152
-0.98974, 45, 161, 76, 224
-0.98977, 409, 193, 440, 320
-0.989825, 1, 81, 128, 144
-0.989837, 17, 281, 144, 344
-0.989849, 141, 17, 172, 144
-0.989854, 265, 141, 328, 172
-0.989856, 377, 129, 440, 256
-0.989859, 433, 185, 496, 216
-0.98986, 133, 193, 164, 256
-0.989865, 193, 137, 224, 200
-0.989911, 17, 157, 80, 188
-0.989945, 353, 145, 480, 208
-0.990009, 129, 65, 192, 96
-0.990016, 329, 265, 360, 328
-0.990027, 205, 209, 236, 272
-0.990029, 21, 81, 52, 208
-0.990033, 277, 145, 308, 208
-0.990035, 101, 153, 132, 216
-0.990044, 89, 233, 120, 296
-0.990056, 97, 129, 352, 192
-0.990075, 73, 29, 136, 60
-0.990116, 413, 273, 444, 336
-0.990165, 97, 69, 160, 100
-0.990168, 21, 169, 52, 232
-0.990173, 105, 137, 168, 168
-0.990212, 25, 241, 88, 272
-0.990224, 225, 1, 256, 64
-0.990236, 225, 185, 480, 248
-0.990236, 393, 13, 456, 44
-0.990241, 273, 129, 336, 160
-0.990242, 41, 9, 72, 72
-0.990264, 73, 49, 104, 176
-0.990268, 281, 229, 344, 260
-0.990342, 161, 137, 224, 168
-0.990377, 1, 145, 64, 176
-0.990377, 45, 233, 76, 296
-0.990385, 113, 161, 176, 192
-0.990391, 129, 225, 192, 256
-0.990393, 353, 49, 416, 176
-0.990404, 273, 317, 336, 348
-0.990412, 217, 209, 248, 272
-0.990445, 273, 329, 336, 360
-0.990447, 433, 1, 496, 375
-0.99045, 129, 49, 192, 80
-0.990455, 377, 241, 408, 368
-0.990481, 169, 209, 232, 240
-0.990501, 281, 265, 344, 296
-0.99051, 137, 261, 200, 292
-0.990518, 273, 241, 336, 272
-0.990523, 1, 145, 500, 208
-0.990531, 273, 305, 336, 336
-0.990571, 361, 189, 424, 220
-0.99059, 161, 125, 224, 156
-0.990595, 257, 37, 320, 68
-0.990601, 305, 281, 368, 312
-0.990606, 73, 157, 136, 188
-0.990607, 137, 209, 200, 240
-0.990646, 273, 341, 336, 372
-0.990666, 273, 289, 336, 320
-0.990678, 129, 33, 384, 96
-0.990696, 305, 269, 368, 300
-0.990707, 305, 209, 368, 240
-0.990707, 85, 225, 116, 352
-0.990726, 105, 229, 168, 260
-0.990728, 105, 113, 136, 240
-0.990743, 385, 49, 448, 80
-0.990752, 433, 161, 496, 192
-0.990758, 257, 161, 500, 224
-0.99076, 321, 37, 384, 68
-0.990761, 137, 285, 200, 316
-0.990799, 241, 149, 304, 180
-0.990801, 105, 149, 168, 180
-0.990813, 233, 205, 296, 236
-0.990819, 281, 37, 344, 68
-0.990838, 65, 225, 96, 352
-0.990852, 81, 41, 144, 72
-0.990876, 273, 277, 336, 308
-0.990887, 41, 141, 104, 172
-0.990891, 433, 173, 496, 204
-0.990893, 305, 297, 368, 328
-0.990911, 321, 253, 384, 284
-0.990913, 33, 13, 96, 44
-0.99093, 153, 301, 216, 332
-0.990939, 433, 41, 496, 72
-0.990957, 161, 153, 224, 184
-0.990962, 313, 189, 376, 220
-0.990979, 65, 141, 128, 172
-0.990987, 1, 297, 256, 360
-0.990989, 433, 197, 496, 228
-0.990993, 49, 157, 112, 188
-0.991001, 137, 109, 200, 140
-0.991001, 401, 189, 464, 220
-0.991011, 33, 25, 96, 56
-0.991043, 369, 265, 432, 296
-0.991048, 305, 221, 368, 252
-0.991048, 49, 121, 112, 152
-0.991053, 469, 1, 500, 128
-0.991055, 273, 57, 336, 88
-0.991067, 281, 181, 344, 212
-0.991079, 81, 237, 144, 268
-0.99109, 185, 137, 248, 168
-0.991091, 161, 61, 224, 92
-0.991094, 97, 81, 160, 112
-0.991119, 393, 201, 456, 232
-0.991121, 105, 125, 168, 156
-0.991121, 281, 253, 344, 284
-0.991128, 97, 9, 352, 72
-0.991146, 201, 117, 264, 148
-0.991159, 129, 77, 192, 108
-0.991213, 137, 273, 200, 304
-0.991215, 17, 177, 80, 208
-0.991232, 57, 13, 120, 44
-0.991251, 329, 269, 392, 300
-0.991251, 369, 145, 400, 272
-0.991252, 417, 5, 480, 36
-0.991253, 153, 313, 216, 344
-0.991264, 241, 137, 304, 168
-0.991281, 97, 209, 352, 272
-0.991292, 361, 225, 392, 352
-0.991297, 209, 17, 272, 48
-0.991297, 113, 293, 176, 324
-0.991308, 217, 153, 280, 184
-0.991329, 153, 325, 216, 356
-0.99134, 153, 249, 216, 280
-0.991366, 57, 241, 120, 272
-0.991376, 185, 1, 248, 32
-0.99138, 305, 233, 368, 264
-0.991392, 241, 121, 304, 152
-0.991406, 273, 193, 336, 224
-0.991409, 57, 177, 120, 208
-0.991415, 193, 213, 256, 244
-0.991417, 41, 1, 104, 32
-0.99143, 273, 153, 336, 184
-0.991432, 121, 37, 184, 68
-0.991437, 353, 17, 416, 48
-0.991442, 225, 29, 288, 60
-0.991447, 161, 49, 224, 80
-0.991448, 177, 29, 240, 60
-0.991469, 289, 73, 352, 104
-0.991471, 217, 137, 280, 168
-0.991474, 89, 169, 152, 200
-0.991479, 153, 337, 216, 368
-0.991502, 417, 253, 480, 284
-0.991503, 385, 145, 416, 272
-0.991518, 345, 229, 408, 260
-0.991521, 1, 233, 256, 296
-0.991561, 305, 137, 432, 200
-0.991567, 137, 197, 200, 228
-0.991576, 37, 1, 68, 128
-0.991577, 345, 253, 408, 284
-0.991587, 385, 37, 448, 68
-0.991612, 121, 89, 184, 120
-0.991614, 113, 257, 176, 288
-0.991622, 369, 1, 432, 32
-0.991623, 393, 1, 456, 375
-0.991627, 369, 201, 432, 232
-0.991629, 377, 213, 440, 244
-0.991652, 89, 5, 152, 36
-0.991671, 89, 53, 152, 84
-0.991674, 393, 177, 456, 208
-0.991676, 273, 217, 336, 248
-0.991691, 161, 105, 224, 136
-0.991696, 33, 305, 96, 336
-0.991701, 401, 61, 464, 92
-0.991701, 305, 177, 368, 208
-0.991704, 1, 41, 256, 104
-0.991711, 417, 77, 480, 108
-0.991725, 1, 109, 64, 140
-0.991744, 353, 213, 416, 244
-0.991762, 313, 57, 376, 88
-0.991766, 1, 9, 64, 40
-0.991778, 249, 193, 280, 320
-0.991867, 9, 161, 40, 288
-0.992109, 53, 225, 84, 352
-0.992175, 161, 265, 416, 328
-0.992278, 445, 177, 476, 208
-0.992314, 361, 1, 424, 375
-0.99232, 169, 97, 200, 224
-0.992326, 149, 113, 180, 144
-0.992331, 189, 193, 220, 320
-0.992365, 89, 177, 120, 304
-0.992366, 1, 209, 500, 272
-0.99244, 1, 145, 256, 208
-0.992443, 197, 65, 228, 192
-0.99245, 157, 269, 188, 300
-0.992457, 1, 185, 500, 248
-0.992465, 25, 225, 56, 352
-0.992469, 149, 137, 180, 168
-0.992514, 385, 193, 416, 224
-0.992526, 77, 177, 108, 304
-0.992544, 81, 1, 112, 32
-0.992544, 161, 281, 192, 312
-0.99255, 161, 257, 192, 288
-0.992551, 341, 185, 372, 216
-0.992601, 453, 97, 484, 224
-0.992634, 437, 5, 468, 36
-0.992642, 129, 113, 256, 144
-0.992661, 365, 185, 396, 216
-0.992664, 133, 165, 164, 196
-0.992667, 89, 25, 120, 56
-0.99269, 297, 153, 328, 184
-0.992702, 137, 221, 168, 252
-0.992706, 469, 181, 500, 212
-0.992723, 161, 293, 192, 324
-0.992734, 317, 281, 348, 312
-0.992745, 29, 237, 60, 268
-0.992749, 1, 257, 256, 320
-0.992751, 161, 309, 192, 340
-0.992758, 121, 61, 152, 92
-0.99277, 297, 141, 328, 172
-0.992771, 273, 37, 304, 68
-0.992775, 69, 121, 100, 152
-0.992779, 293, 225, 324, 256
-0.992783, 313, 81, 344, 208
-0.992786, 313, 37, 344, 68
-0.992789, 145, 157, 176, 188
-0.992789, 233, 117, 264, 148
-0.992807, 1, 153, 32, 184
-0.992824, 101, 33, 132, 64
-0.992843, 257, 225, 500, 288
-0.992855, 149, 125, 180, 156
-0.992872, 401, 197, 432, 228
-0.992875, 313, 265, 344, 296
-0.992877, 357, 129, 388, 256
-0.992879, 281, 141, 312, 172
-0.992888, 421, 53, 452, 84
-0.992892, 145, 93, 176, 124
-0.992894, 325, 265, 356, 296
-0.992903, 77, 157, 108, 188
-0.992906, 145, 73, 176, 104
-0.992912, 157, 245, 188, 276
-0.992915, 81, 13, 112, 44
-0.99292, 65, 157, 96, 188
-0.992921, 113, 49, 144, 80
-0.992926, 469, 201, 500, 232
-0.99293, 301, 61, 332, 92
-0.992931, 165, 325, 196, 356
-0.992945, 413, 13, 444, 44
-0.992959, 261, 37, 292, 68
-0.99296, 373, 209, 404, 240
-0.992961, 117, 233, 148, 264
-0.992973, 53, 121, 84, 152
-0.992975, 293, 129, 324, 160
-0.992977, 133, 153, 164, 184
-0.992977, 325, 193, 356, 224
-0.992977, 313, 229, 344, 260
-0.992982, 165, 337, 196, 368
-0.992985, 373, 257, 404, 288
-0.992986, 1, 113, 32, 144
-0.992989, 53, 157, 84, 188
-0.992992, 221, 121, 252, 152
-0.992992, 77, 29, 108, 60
-0.993003, 405, 37, 436, 68
-0.993008, 281, 125, 312, 156
-0.993019, 317, 69, 348, 100
-0.993021, 457, 161, 488, 192
-0.993021, 49, 141, 80, 172
-0.993023, 361, 253, 392, 284
-0.993024, 397, 273, 428, 304
-0.993025, 101, 237, 132, 268
-0.993034, 265, 149, 296, 180
-0.993037, 225, 137, 480, 200
-0.993038, 237, 209, 268, 240
-0.993046, 281, 81, 312, 112
-0.993047, 173, 45, 204, 76
-0.993047, 69, 137, 100, 168
-0.99305, 249, 137, 280, 168
-0.993051, 281, 229, 312, 260
-0.993058, 57, 241, 88, 272
-0.99306, 145, 173, 176, 204
-0.993062, 121, 165, 152, 196
-0.993063, 181, 209, 212, 240
-0.993064, 353, 185, 384, 216
-0.993065, 333, 45, 364, 76
-0.993069, 165, 153, 196, 184
-0.993072, 129, 129, 160, 160
-0.993072, 213, 109, 244, 140
-0.993077, 429, 65, 460, 96
-0.993077, 313, 241, 344, 272
-0.993082, 297, 81, 328, 112
-0.993084, 45, 241, 76, 272
-0.993085, 233, 153, 264, 184
-0.993089, 225, 289, 480, 352
-0.993089, 285, 241, 316, 272
-0.993092, 93, 81, 124, 112
-0.993094, 313, 213, 344, 244
-0.993099, 261, 201, 292, 232
-0.993101, 297, 241, 328, 272
-0.993106, 365, 229, 396, 260
-0.993114, 357, 217, 388, 248
-0.993115, 297, 109, 328, 140
-0.993117, 149, 257, 180, 288
-0.993122, 245, 153, 276, 184
-0.993123, 345, 253, 376, 284
-0.993126, 457, 197, 488, 228
-0.993127, 317, 49, 348, 80
-0.993128, 225, 213, 256, 244
-0.993131, 109, 157, 140, 188
-0.993134, 237, 137, 268, 168
-0.993136, 205, 121, 236, 152
-0.993138, 125, 73, 156, 104
-0.993138, 85, 237, 116, 268
-0.993138, 93, 173, 124, 204
-0.993143, 49, 177, 80, 208
-0.993143, 261, 129, 292, 160
-0.993144, 205, 213, 236, 244
-0.993145, 93, 13, 124, 44
-0.993146, 281, 93, 312, 124
-0.99315, 457, 1, 488, 32
-0.993151, 73, 241, 104, 272
-0.993151, 141, 285, 172, 316
-0.993153, 81, 133, 112, 164
-0.993154, 401, 9, 432, 40
-0.993154, 365, 197, 396, 228
-0.993156, 469, 209, 500, 336
-0.993162, 345, 217, 376, 248
-0.993164, 161, 141, 192, 172
-0.993165, 325, 205, 356, 236
-0.993165, 221, 157, 252, 188
-0.993166, 65, 9, 96, 40
-0.993166, 65, 177, 96, 208
-0.993168, 325, 253, 356, 284
-0.993172, 249, 33, 280, 64
-0.993174, 225, 9, 256, 40
-0.993277, 1, 233, 500, 296
-0.993284, 345, 225, 376, 352
-0.993316, 449, 1, 480, 128
-0.99338, 441, 241, 472, 368
-0.993395, 337, 81, 464, 144
-0.993427, 225, 17, 480, 80
-0.993499, 369, 305, 496, 368
-0.993504, 149, 241, 180, 368
-0.993509, 65, 113, 192, 144
-0.993608, 81, 137, 208, 168
-0.993631, 1, 169, 256, 232
-0.993636, 161, 233, 416, 296
-0.993665, 1, 33, 500, 96
-0.993786, 321, 189, 448, 220
-0.993845, 17, 33, 144, 64
-0.993888, 1, 113, 500, 176
-0.993975, 449, 161, 464, 224
-0.993982, 337, 129, 368, 256
-0.99401, 17, 17, 144, 48
-0.99405, 125, 17, 156, 144
-0.994083, 369, 197, 496, 228
-0.9941, 377, 17, 408, 144
-0.99417, 1, 265, 500, 328
-0.994223, 17, 5, 144, 36
-0.994247, 165, 193, 196, 320
-0.994271, 361, 1, 392, 128
-0.994291, 65, 125, 192, 156
-0.994297, 225, 149, 352, 180
-0.994323, 329, 241, 360, 368
-0.994386, 65, 105, 320, 168
-0.994388, 151, 105, 166, 168
-0.994448, 129, 185, 384, 248
-0.99445, 117, 113, 148, 240
-0.994469, 225, 313, 480, 375
-0.994478, 1, 289, 500, 352
-0.994503, 129, 125, 256, 156
-0.994565, 113, 65, 240, 96
-0.994606, 1, 1, 500, 64
-0.99466, 273, 225, 400, 256
-0.994716, 353, 177, 480, 208
-0.9948, 61, 49, 92, 176
-0.994827, 129, 157, 256, 188
-0.994863, 477, 177, 492, 240
-0.994883, 241, 201, 368, 232
-0.994931, 161, 17, 288, 48
-0.994937, 1, 153, 128, 184
-0.994973, 157, 89, 172, 152
-0.994973, 161, 249, 176, 312
-0.994985, 257, 273, 384, 304
-0.995018, 17, 241, 144, 272
-0.995032, 193, 113, 320, 144
-0.995035, 327, 33, 342, 96
-0.995069, 325, 145, 356, 272
-0.995077, 125, 33, 156, 288
-0.995091, 129, 145, 256, 176
-0.995116, 305, 269, 432, 300
-0.99515, 257, 285, 384, 316
-0.995154, 161, 29, 288, 60
-0.995189, 353, 9, 480, 40
-0.99524, 77, 1, 92, 64
-0.99525, 193, 213, 320, 244
-0.995252, 225, 137, 352, 168
-0.995277, 273, 237, 400, 268
-0.995295, 257, 305, 384, 336
-0.995304, 129, 213, 256, 244
-0.995316, 181, 241, 212, 368
-0.995337, 161, 5, 288, 36
-0.99534, 105, 25, 120, 88
-0.995342, 391, 185, 406, 248
-0.995375, 303, 129, 318, 192
-0.995391, 113, 49, 240, 80
-0.995411, 145, 101, 272, 132
-0.995412, 97, 289, 352, 352
-0.995416, 13, 209, 44, 336
-0.995426, 1, 121, 128, 152
-0.99543, 321, 201, 448, 232
-0.995431, 129, 49, 144, 112
-0.995436, 81, 233, 208, 264
-0.995456, 143, 161, 158, 224
-0.995457, 95, 1, 110, 64
-0.995458, 471, 177, 486, 240
-0.995461, 65, 65, 192, 96
-0.995483, 225, 113, 240, 176
-0.995492, 297, 121, 312, 184
-0.995498, 121, 41, 136, 104
-0.99552, 41, 1, 104, 375
-0.995528, 49, 153, 176, 184
-0.995543, 277, 33, 292, 96
-0.995549, 367, 225, 382, 288
-0.995558, 149, 81, 164, 144
-0.995559, 441, 49, 472, 176
-0.995581, 211, 113, 226, 176
-0.995582, 81, 1, 208, 32
-0.995593, 415, 9, 430, 72
-0.995622, 309, 145, 324, 208
-0.995623, 65, 81, 192, 112
-0.995631, 65, 165, 192, 196
-0.995648, 333, 41, 348, 104
-0.99565, 151, 137, 166, 200
-0.995662, 341, 185, 356, 248
-0.995667, 71, 129, 86, 192
-0.99567, 269, 33, 284, 96
-0.99568, 97, 37, 224, 68
-0.9957, 149, 217, 164, 280
-0.995705, 137, 129, 168, 375
-0.995709, 273, 185, 400, 216
-0.995714, 225, 113, 480, 176
-0.995717, 257, 253, 384, 284
-0.995718, 319, 33, 334, 96
-0.995725, 157, 129, 188, 375
-0.995726, 241, 37, 368, 68
-0.99573, 103, 137, 118, 200
-0.995738, 403, 193, 418, 256
-0.995746, 1, 209, 256, 272
-0.995752, 397, 185, 412, 248
-0.995757, 369, 57, 496, 120
-0.99576, 355, 185, 370, 248
-0.995771, 1, 89, 16, 152
-0.995776, 61, 137, 76, 200
-0.995792, 49, 49, 80, 176
-0.995793, 477, 153, 492, 216
-0.995834, 369, 253, 496, 284
-0.995841, 321, 225, 448, 256
-0.995844, 483, 177, 498, 240
-0.995847, 369, 185, 384, 248
-0.99585, 33, 141, 160, 172
-0.995865, 87, 129, 102, 192
-0.99588, 225, 41, 480, 104
-0.995885, 97, 25, 224, 56
-0.995916, 143, 137, 158, 200
-0.995918, 185, 97, 216, 224
-0.995929, 65, 53, 192, 84
-0.995948, 309, 113, 324, 176
-0.995949, 383, 185, 398, 248
-0.99595, 115, 33, 130, 96
-0.995962, 209, 101, 336, 132
-0.995972, 1, 65, 256, 128
-0.995976, 25, 1, 56, 256
-0.995982, 193, 125, 320, 156
-0.995997, 305, 285, 432, 316
-0.995998, 445, 57, 460, 120
-0.996002, 257, 1, 288, 256
-0.996007, 83, 153, 98, 216
-0.996012, 167, 65, 182, 128
-0.996021, 169, 33, 200, 288
-0.996029, 81, 297, 208, 328
-0.996033, 313, 33, 328, 96
-0.996054, 105, 1, 136, 256
-0.996077, 113, 77, 240, 108
-0.996085, 201, 1, 232, 128
-0.996088, 451, 1, 466, 64
-0.996106, 1, 57, 500, 120
-0.996112, 483, 201, 498, 264
-0.996113, 113, 137, 128, 200
-0.996116, 225, 65, 480, 128
-0.99612, 309, 217, 324, 280
-0.996148, 125, 129, 156, 375
-0.996165, 147, 193, 162, 256
-0.996172, 55, 153, 70, 216
-0.996179, 257, 345, 384, 375
-0.996186, 437, 49, 452, 112
-0.996194, 321, 213, 448, 244
-0.996201, 129, 313, 384, 375
-0.996206, 421, 9, 436, 72
-0.996207, 87, 17, 102, 80
-0.996219, 351, 217, 366, 280
-0.996226, 93, 137, 108, 200
-0.996261, 49, 129, 64, 192
-0.99627, 463, 153, 478, 216
-0.99628, 141, 73, 156, 136
-0.996282, 77, 153, 92, 216
-0.996291, 225, 61, 352, 92
-0.996302, 347, 185, 362, 248
-0.996303, 257, 325, 384, 356
-0.996305, 163, 273, 178, 336
-0.996309, 157, 33, 188, 288
-0.996309, 81, 13, 208, 44
-0.996315, 97, 57, 352, 120
-0.996322, 43, 153, 58, 216
-0.996324, 219, 113, 234, 176
-0.996326, 427, 9, 442, 72
-0.996328, 441, 1, 456, 64
-0.996336, 135, 57, 150, 120
-0.996347, 341, 265, 356, 328
-0.996354, 283, 129, 298, 192
-0.99636, 81, 129, 96, 192
-0.996368, 257, 265, 500, 328
-0.99637, 313, 1, 344, 256
-0.996375, 193, 201, 320, 232
-0.996382, 81, 221, 208, 252
-0.996386, 161, 57, 288, 88
-0.996386, 273, 213, 400, 244
-0.996392, 177, 345, 304, 375
-0.996393, 1, 45, 128, 76
-0.996397, 455, 153, 470, 216
-0.996402, 169, 257, 184, 320
-0.996403, 299, 89, 314, 152
-0.996406, 61, 113, 76, 176
-0.996429, 189, 17, 204, 80
-0.996431, 261, 129, 292, 375
-0.996442, 241, 33, 272, 288
-0.996443, 435, 9, 450, 72
-0.996449, 193, 229, 320, 260
-0.996456, 5, 121, 20, 184
-0.996462, 167, 105, 182, 168
-0.996469, 295, 33, 310, 96
-0.996481, 33, 233, 48, 296
-0.996497, 225, 89, 480, 152
-0.996499, 347, 265, 362, 328
-0.996503, 177, 153, 304, 184
-0.996505, 319, 257, 334, 320
-0.996508, 361, 249, 376, 312
-0.99651, 221, 89, 236, 152
-0.996513, 325, 57, 340, 120
-0.996516, 375, 185, 390, 248
-0.996518, 11, 129, 26, 192
-0.996523, 373, 225, 388, 288
-0.996543, 131, 161, 146, 224
-0.996551, 305, 33, 320, 96
-0.996557, 289, 33, 304, 96
-0.996559, 153, 177, 168, 240
-0.996565, 305, 29, 432, 60
-0.996567, 283, 33, 298, 96
-0.996568, 169, 41, 184, 104
-0.996585, 369, 209, 496, 240
-0.996604, 483, 153, 498, 216
-0.996607, 177, 329, 304, 360
-0.996609, 255, 33, 270, 96
-0.99661, 17, 165, 144, 196
-0.996612, 349, 241, 364, 304
-0.996615, 305, 1, 432, 32
-0.996617, 379, 209, 394, 272
-0.996617, 287, 233, 302, 296
-0.996622, 245, 113, 260, 176
-0.996631, 309, 241, 324, 304
-0.996643, 179, 33, 194, 96
-0.996645, 161, 113, 176, 176
-0.996646, 273, 137, 400, 168
-0.996647, 361, 217, 376, 280
-0.996651, 483, 9, 498, 72
-0.996651, 485, 33, 500, 96
-0.996672, 225, 73, 352, 104
-0.996683, 335, 241, 350, 304
-0.996686, 341, 209, 356, 272
-0.996686, 1, 77, 128, 108
-0.996688, 161, 69, 288, 100
-0.996691, 257, 173, 384, 204
-0.996701, 309, 89, 324, 152
-0.996705, 37, 137, 52, 200
-0.996713, 277, 145, 292, 208
-0.996715, 447, 185, 462, 248
-0.99672, 17, 305, 144, 336
-0.996739, 1, 313, 500, 375
-0.996744, 237, 145, 252, 208
-0.996745, 339, 17, 354, 80
-0.996746, 93, 1, 124, 256
-0.996748, 409, 1, 424, 64
-0.996751, 353, 265, 368, 328
-0.996755, 263, 33, 278, 96
-0.996758, 81, 261, 208, 292
-0.996766, 129, 305, 256, 336
-0.996768, 113, 89, 240, 120
-0.996769, 329, 249, 344, 312
-0.99677, 137, 33, 168, 288
-0.996786, 49, 153, 64, 216
-0.996793, 273, 61, 400, 92
-0.996793, 69, 97, 100, 352
-0.996794, 129, 321, 256, 352
-0.9968, 477, 201, 492, 264
-0.996803, 291, 129, 306, 192
-0.996804, 35, 25, 50, 88
-0.996808, 397, 209, 412, 272
-0.996809, 155, 257, 170, 320
-0.996812, 231, 121, 246, 184
-0.996818, 305, 309, 432, 340
-0.996826, 71, 153, 86, 216
-0.996827, 1, 177, 128, 208
-0.99683, 369, 281, 496, 312
-0.996835, 239, 113, 254, 176
-0.996838, 129, 289, 256, 320
-0.996839, 225, 97, 256, 352
-0.996848, 113, 129, 144, 375
-0.996851, 177, 317, 304, 348
-0.996857, 353, 165, 480, 196
-0.996871, 97, 333, 224, 364
-0.996875, 65, 101, 192, 132
-0.996879, 177, 137, 304, 168
-0.996889, 113, 169, 240, 200
-0.996892, 321, 257, 448, 288
-0.99691, 81, 285, 208, 316
-0.996916, 113, 201, 240, 232
-0.996929, 433, 49, 496, 176
-0.996969, 269, 1, 300, 256
-0.996975, 177, 129, 208, 375
-0.997023, 17, 221, 144, 252
-0.99704, 1, 65, 32, 320
-0.997062, 225, 17, 352, 48
-0.997062, 209, 165, 336, 196
-0.997064, 1, 61, 128, 92
-0.997067, 225, 241, 352, 272
-0.997083, 129, 261, 256, 292
-0.997101, 81, 309, 208, 340
-0.997125, 161, 45, 288, 76
-0.997126, 57, 97, 88, 352
-0.99715, 1, 89, 500, 152
-0.997153, 205, 97, 236, 352
-0.997184, 49, 177, 176, 208
-0.997186, 209, 301, 336, 332
-0.997197, 209, 1, 336, 32
-0.997214, 13, 33, 44, 288
-0.997226, 449, 129, 480, 375
-0.99723, 369, 37, 496, 68
-0.99726, 81, 321, 208, 352
-0.997295, 305, 45, 432, 76
-0.997298, 161, 249, 288, 280
-0.997305, 89, 129, 120, 375
-0.997321, 289, 153, 416, 184
-0.997329, 189, 97, 220, 352
-0.997332, 37, 129, 68, 375
-0.997351, 369, 241, 496, 272
-0.997366, 293, 1, 324, 256
-0.99737, 449, 173, 464, 204
-0.997371, 161, 189, 288, 220
-0.997391, 369, 293, 496, 324
-0.997395, 469, 129, 500, 375
-0.997411, 345, 1, 376, 256
-0.997415, 209, 261, 336, 292
-0.997416, 241, 129, 272, 375
-0.997444, 181, 1, 212, 256
-0.997458, 209, 285, 336, 316
-0.99747, 81, 273, 208, 304
-0.997484, 229, 1, 260, 256
-0.997532, 129, 225, 256, 256
-0.997534, 273, 77, 400, 108
-0.997556, 281, 1, 312, 256
-0.997588, 369, 269, 496, 300
-0.997589, 17, 289, 144, 320
-0.997599, 127, 49, 142, 80
-0.997602, 101, 129, 132, 375
-0.997611, 129, 277, 256, 308
-0.997617, 241, 113, 368, 144
-0.997618, 313, 129, 344, 375
-0.997623, 273, 97, 304, 352
-0.997624, 161, 257, 176, 288
-0.99763, 381, 129, 412, 375
-0.997633, 81, 249, 208, 280
-0.99766, 225, 185, 352, 216
-0.997675, 437, 53, 452, 84
-0.997698, 99, 21, 114, 52
-0.997702, 325, 33, 356, 288
-0.997708, 341, 129, 372, 375
-0.99773, 97, 345, 224, 375
-0.997738, 17, 317, 144, 348
-0.997746, 369, 185, 384, 216
-0.997748, 443, 65, 458, 96
-0.997748, 161, 269, 176, 300
-0.997764, 1, 113, 16, 144
-0.997803, 167, 257, 182, 288
-0.997809, 421, 1, 452, 256
-0.997836, 133, 61, 148, 92
-0.997837, 115, 37, 130, 68
-0.997838, 87, 25, 102, 56
-0.99785, 147, 217, 162, 248
-0.997864, 361, 129, 392, 375
-0.997895, 245, 137, 260, 168
-0.997899, 385, 253, 400, 284
-0.997907, 149, 113, 164, 144
-0.997916, 369, 121, 496, 184
-0.997919, 451, 1, 466, 32
-0.997921, 451, 161, 466, 192
-0.997923, 327, 37, 342, 68
-0.997926, 151, 137, 166, 168
-0.997931, 33, 237, 48, 268
-0.997945, 473, 181, 488, 212
-0.997965, 109, 33, 124, 64
-0.99798, 97, 81, 112, 112
-0.997986, 361, 229, 376, 260
-0.997994, 147, 93, 162, 124
-0.997995, 469, 1, 500, 256
-0.997999, 143, 157, 158, 188
-0.997999, 121, 41, 136, 72
-0.998, 399, 193, 414, 224
-0.998003, 353, 241, 368, 272
-0.998011, 345, 189, 360, 220
-0.998016, 379, 185, 394, 216
-0.998022, 297, 97, 328, 352
-0.998025, 81, 1, 112, 256
-0.998033, 93, 13, 108, 44
-0.998034, 151, 149, 166, 180
-0.998036, 121, 233, 136, 264
-0.998045, 307, 153, 322, 184
-0.998047, 241, 117, 256, 148
-0.998049, 319, 265, 334, 296
-0.99805, 71, 137, 86, 168
-0.998059, 239, 133, 254, 164
-0.99806, 407, 197, 422, 228
-0.998064, 229, 121, 244, 152
-0.998065, 473, 201, 488, 232
-0.99808, 303, 141, 318, 172
-0.998087, 415, 9, 430, 40
-0.998094, 335, 45, 350, 76
-0.998108, 327, 53, 342, 84
-0.998109, 279, 37, 294, 68
-0.998119, 61, 121, 76, 152
-0.998122, 239, 153, 254, 184
-0.998129, 367, 241, 382, 272
-0.998133, 77, 9, 92, 40
-0.998141, 309, 225, 324, 256
-0.998145, 331, 265, 346, 296
-0.998147, 379, 253, 394, 284
-0.998148, 457, 1, 488, 256
-0.998148, 441, 1, 456, 32
-0.99815, 57, 177, 72, 208
-0.998154, 259, 133, 274, 164
-0.998154, 309, 141, 324, 172
-0.998155, 223, 117, 238, 148
-0.998156, 17, 129, 48, 375
-0.998156, 355, 185, 370, 216
-0.998162, 233, 1, 248, 32
-0.998162, 299, 81, 314, 112
-0.998163, 113, 153, 128, 184
-0.998168, 137, 165, 152, 196
-0.998168, 265, 37, 280, 68
-0.998181, 115, 233, 130, 264
-0.998186, 133, 229, 148, 260
-0.998187, 69, 177, 84, 208
-0.998189, 93, 33, 108, 64
-0.998198, 65, 157, 80, 188
-0.998204, 323, 69, 338, 100
-0.998207, 161, 245, 176, 276
-0.998207, 211, 137, 226, 168
-0.998213, 447, 185, 462, 216
-0.998214, 233, 137, 248, 168
-0.998214, 153, 169, 168, 200
-0.998214, 137, 73, 152, 104
-0.998222, 479, 205, 494, 236
-0.998225, 51, 157, 66, 188
-0.998227, 455, 173, 470, 204
-0.998228, 337, 193, 352, 224
-0.99823, 1, 97, 16, 128
-0.998231, 109, 237, 124, 268
-0.998232, 407, 29, 422, 60
-0.998233, 273, 37, 288, 68
-0.998235, 97, 173, 112, 204
-0.998237, 73, 241, 88, 272
-0.998239, 215, 125, 230, 156
-0.998246, 423, 89, 438, 120
-0.99825, 71, 157, 86, 188
-0.998252, 175, 41, 190, 72
-0.998257, 387, 189, 402, 220
-0.998262, 309, 121, 324, 152
-0.998263, 225, 157, 240, 188
-0.998263, 157, 93, 172, 124
-0.998265, 143, 145, 158, 176
-0.99827, 141, 225, 156, 256
-0.998277, 63, 177, 78, 208
-0.998278, 63, 141, 78, 172
-0.99828, 427, 45, 442, 76
-0.99828, 273, 57, 288, 88
-0.998282, 295, 93, 310, 124
-0.998284, 485, 37, 500, 68
-0.998285, 59, 157, 74, 188
-0.998286, 61, 241, 76, 272
-0.998286, 369, 225, 384, 256
-0.998289, 309, 241, 324, 272
-0.99829, 247, 153, 262, 184
-0.998293, 147, 205, 162, 236
-0.998293, 121, 169, 136, 200
-0.998294, 145, 169, 160, 200
-0.9983, 403, 5, 418, 36
-0.998304, 281, 141, 296, 172
-0.998305, 227, 9, 242, 40
-0.998306, 99, 137, 114, 168
-0.998309, 11, 153, 26, 184
-0.998312, 53, 241, 68, 272
-0.998315, 67, 241, 82, 272
-0.998317, 359, 253, 374, 284
-0.99832, 203, 137, 218, 168
-0.998321, 287, 233, 302, 264
-0.998322, 127, 233, 142, 264
-0.998324, 81, 141, 96, 172
-0.998326, 485, 161, 500, 192
-0.998326, 101, 237, 116, 268
-0.998327, 173, 261, 188, 292
-0.998327, 91, 1, 106, 32
-0.998329, 297, 121, 312, 152
-0.998373, 421, 55, 452, 70
-0.998374, 313, 249, 344, 264
-0.998374, 81, 157, 112, 172
-0.998374, 385, 269, 416, 284
-0.998375, 109, 173, 140, 188
-0.998375, 297, 153, 328, 168
-0.998376, 129, 141, 160, 156
-0.998376, 317, 293, 348, 308
-0.998377, 293, 165, 324, 180
-0.998378, 437, 1, 468, 16
-0.998378, 81, 177, 112, 192
-0.998378, 309, 273, 340, 288
-0.998379, 221, 105, 252, 120
-0.998379, 237, 213, 268, 228
-0.99838, 345, 251, 376, 266
-0.99838, 97, 175, 128, 190
-0.998382, 313, 59, 344, 74
-0.998382, 425, 85, 456, 100
-0.998384, 401, 277, 432, 292
-0.998384, 353, 229, 384, 244
-0.998385, 165, 341, 196, 356
-0.998385, 61, 3, 92, 18
-0.998386, 65, 157, 96, 172
-0.998386, 469, 183, 500, 198
-0.998387, 53, 123, 84, 138
-0.998388, 129, 135, 160, 150
-0.998388, 329, 283, 360, 298
-0.998388, 213, 123, 244, 138
-0.998388, 365, 197, 396, 212
-0.998388, 249, 209, 280, 224
-0.998389, 265, 135, 296, 150
-0.998389, 245, 71, 276, 86
-0.99839, 73, 123, 104, 138
-0.99839, 177, 211, 208, 226
-0.998391, 313, 229, 344, 244
-0.998391, 313, 267, 344, 282
-0.998391, 37, 1, 68, 256
-0.998393, 145, 93, 176, 108
-0.998394, 261, 205, 292, 220
-0.998395, 89, 241, 120, 256
-0.998395, 469, 205, 500, 220
-0.998396, 253, 153, 284, 168
-0.998397, 129, 153, 160, 168
-0.998397, 401, 13, 432, 28
-0.998399, 357, 187, 388, 202
-0.998399, 121, 169, 152, 184
-0.9984, 41, 243, 72, 258
-0.998401, 73, 129, 104, 144
-0.998403, 61, 141, 92, 156
-0.998403, 141, 77, 172, 92
-0.998404, 73, 135, 104, 150
-0.998404, 325, 201, 356, 216
-0.998404, 301, 69, 332, 84
-0.998405, 165, 335, 196, 350
-0.998407, 297, 243, 328, 258
-0.998408, 397, 37, 428, 52
-0.998409, 113, 51, 144, 66
-0.99841, 273, 39, 304, 54
-0.99841, 405, 203, 436, 218
-0.99841, 93, 153, 124, 168
-0.998412, 445, 185, 476, 200
-0.998412, 121, 71, 152, 86
-0.998413, 241, 131, 272, 146
-0.998413, 165, 155, 196, 170
-0.998414, 1, 115, 32, 130
-0.998415, 105, 237, 136, 252
-0.998416, 285, 235, 316, 250
-0.998416, 85, 21, 116, 36
-0.998416, 417, 91, 448, 106
-0.998417, 77, 33, 108, 48
-0.998417, 145, 171, 176, 186
-0.998418, 93, 83, 124, 98
-0.998419, 313, 239, 344, 254
-0.99842, 429, 63, 460, 78
-0.99842, 53, 135, 84, 150
-0.998421, 1, 157, 32, 172
-0.998423, 161, 327, 192, 342
-0.998423, 361, 253, 392, 268
-0.998424, 313, 41, 344, 56
-0.998424, 153, 177, 184, 192
-0.998425, 213, 111, 244, 126
-0.998426, 117, 59, 148, 74
-0.998426, 437, 175, 468, 190
-0.998426, 161, 321, 192, 336
-0.99843, 285, 153, 316, 168
-0.998433, 145, 119, 176, 134
-0.998434, 137, 151, 200, 166
-0.998435, 225, 121, 256, 136
-0.998436, 161, 287, 192, 302
-0.998437, 281, 145, 312, 160
-0.998437, 49, 153, 80, 168
-0.998438, 149, 157, 180, 172
-0.99844, 285, 241, 316, 256
-0.998443, 117, 233, 148, 248
-0.998444, 369, 189, 400, 204
-0.998445, 129, 81, 384, 144
-0.998447, 145, 129, 176, 144
-0.998448, 225, 111, 256, 126
-0.998449, 141, 83, 172, 98
-0.998452, 317, 279, 348, 294
-0.998453, 325, 269, 356, 284
-0.998453, 265, 149, 296, 164
-0.998454, 273, 145, 336, 160
-0.998455, 161, 315, 192, 330
-0.998456, 161, 293, 192, 308
-0.998459, 337, 189, 400, 204
-0.998459, 137, 137, 200, 152
-0.99846, 297, 145, 328, 160
-0.99846, 105, 45, 136, 60
-0.998462, 81, 9, 112, 24
-0.998463, 121, 65, 152, 80
-0.998466, 145, 163, 176, 178
-0.998468, 213, 117, 244, 132
-0.998468, 29, 241, 60, 256
-0.998471, 161, 309, 192, 324
-0.998472, 161, 281, 192, 296
-0.998472, 161, 299, 192, 314
-0.998472, 297, 227, 328, 242
-0.998473, 157, 253, 188, 268
-0.998482, 149, 143, 180, 158
-0.998484, 437, 129, 468, 375
-0.998486, 433, 177, 496, 192
-0.998488, 137, 227, 168, 242
-0.998489, 297, 159, 328, 174
-0.99849, 157, 265, 188, 280
-0.998491, 161, 273, 192, 288
-0.998491, 149, 137, 180, 152
-0.998494, 389, 193, 420, 208
-0.998495, 341, 189, 372, 204
-0.9985, 97, 35, 128, 50
-0.998505, 437, 7, 468, 22
-0.998507, 97, 79, 160, 94
-0.998511, 137, 125, 200, 140
-0.998513, 25, 153, 88, 168
-0.998513, 85, 27, 116, 42
-0.998515, 129, 229, 192, 244
-0.998524, 129, 69, 192, 84
-0.998524, 105, 145, 168, 160
-0.998526, 281, 233, 344, 248
-0.998528, 145, 131, 208, 146
-0.998529, 129, 75, 192, 90
-0.998529, 153, 261, 216, 276
-0.998531, 73, 37, 136, 52
-0.998532, 73, 149, 136, 164
-0.998534, 273, 335, 336, 350
-0.998535, 129, 63, 192, 78
-0.998536, 137, 115, 200, 130
-0.998537, 149, 149, 180, 164
-0.998538, 305, 283, 368, 298
-0.998541, 281, 267, 344, 282
-0.998542, 145, 113, 176, 128
-0.998542, 105, 151, 168, 166
-0.998543, 273, 327, 336, 342
-0.998543, 97, 85, 160, 100
-0.998544, 49, 151, 112, 166
-0.998544, 81, 47, 144, 62
-0.998544, 145, 157, 208, 172
-0.998545, 129, 261, 192, 276
-0.998545, 133, 165, 164, 180
-0.998546, 1, 153, 64, 168
-0.998547, 161, 137, 224, 152
-0.998548, 361, 193, 424, 208
-0.998548, 273, 291, 336, 306
-0.998548, 273, 321, 336, 336
-0.998549, 129, 81, 192, 96
-0.99855, 169, 213, 232, 228
-0.99855, 137, 145, 200, 160
-0.998551, 433, 201, 496, 216
-0.998551, 273, 305, 336, 320
-0.998552, 305, 223, 368, 238
-0.998552, 393, 15, 456, 30
-0.998552, 161, 143, 224, 158
-0.998553, 113, 235, 176, 250
-0.998554, 273, 311, 336, 326
-0.998554, 273, 299, 336, 314
-0.998555, 281, 277, 344, 292
-0.998555, 305, 269, 368, 284
-0.998556, 25, 243, 88, 258
-0.998556, 129, 53, 192, 68
-0.998558, 433, 9, 496, 24
-0.998559, 265, 151, 328, 166
-0.99856, 137, 289, 200, 304
-0.998561, 241, 151, 304, 166
-0.998561, 273, 135, 336, 150
-0.998561, 449, 179, 480, 194
-0.998561, 273, 227, 336, 242
-0.998562, 401, 1, 464, 16
-0.998562, 201, 125, 264, 140
-0.998563, 273, 341, 336, 356
-0.998563, 161, 119, 224, 134
-0.998563, 137, 223, 200, 238
-0.998565, 113, 169, 176, 184
-0.998568, 273, 285, 336, 300
-0.998569, 273, 349, 336, 364
-0.99857, 137, 209, 200, 224
-0.99857, 433, 195, 496, 210
-0.99857, 9, 161, 72, 176
-0.998572, 153, 297, 216, 312
-0.998573, 73, 239, 136, 254
-0.998576, 233, 133, 296, 148
-0.998577, 41, 1, 104, 16
-0.998577, 393, 129, 424, 375
-0.998577, 401, 201, 464, 216
-0.998577, 433, 183, 496, 198
-0.99858, 153, 307, 216, 322
-0.998581, 105, 157, 168, 172
-0.998582, 81, 3, 112, 18
-0.998583, 153, 255, 216, 270
-0.998584, 201, 111, 264, 126
-0.998584, 273, 245, 336, 260
-0.998585, 161, 113, 224, 128
-0.998587, 65, 27, 128, 42
-0.998587, 281, 261, 344, 276
-0.998587, 105, 139, 168, 154
-0.998588, 121, 131, 184, 146
-0.998588, 129, 267, 192, 282
-0.998588, 305, 303, 368, 318
-0.998589, 129, 295, 192, 310
-0.99859, 161, 125, 224, 140
-0.99859, 233, 209, 296, 224
-0.99859, 57, 13, 120, 28
-0.99859, 409, 7, 472, 22
-0.998593, 33, 27, 96, 42
-0.998593, 145, 283, 208, 298
-0.998593, 185, 13, 248, 28
-0.998595, 329, 195, 392, 210
-0.998596, 157, 259, 188, 274
-0.998598, 153, 361, 216, 375
-0.998598, 153, 325, 216, 340
-0.998599, 121, 163, 184, 178
-0.9986, 273, 239, 336, 254
-0.9986, 153, 317, 216, 332
-0.998602, 33, 7, 96, 22
-0.998603, 33, 145, 96, 160
-0.998603, 153, 267, 216, 282
-0.998604, 153, 331, 216, 346
-0.998604, 433, 189, 496, 204
-0.998605, 273, 355, 336, 370
-0.998605, 121, 47, 184, 62
-0.998605, 393, 91, 456, 106
-0.998607, 305, 257, 368, 272
-0.998608, 201, 119, 264, 134
-0.998608, 353, 219, 416, 234
-0.998611, 281, 41, 344, 56
-0.998611, 401, 191, 464, 206
-0.998611, 73, 155, 136, 170
-0.998611, 153, 337, 216, 352
-0.998611, 201, 135, 264, 150
-0.998612, 297, 199, 360, 214
-0.998613, 213, 1, 244, 256
-0.998613, 433, 247, 496, 262
-0.998614, 73, 175, 136, 190
-0.998614, 305, 217, 368, 232
-0.998614, 97, 73, 160, 88
-0.998615, 321, 37, 384, 52
-0.998616, 137, 87, 200, 102
-0.998617, 233, 139, 296, 154
-0.998617, 313, 229, 376, 244
-0.998617, 65, 1, 128, 16
-0.998618, 209, 213, 272, 228
-0.998619, 249, 39, 312, 54
-0.99862, 305, 207, 368, 222
-0.99862, 33, 21, 96, 36
-0.99862, 177, 33, 240, 48
-0.998621, 369, 277, 432, 292
-0.998633, 143, 145, 158, 272
-0.998641, 357, 1, 388, 256
-0.998646, 57, 1, 88, 256
-0.998707, 479, 145, 494, 272
-0.99871, 285, 97, 316, 352
-0.998719, 69, 1, 100, 256
-0.998781, 393, 1, 424, 256
-0.998789, 485, 145, 500, 272
-0.998815, 193, 1, 224, 256
-0.998834, 329, 129, 360, 375
-0.998834, 243, 113, 258, 240
-0.998842, 139, 65, 154, 192
-0.998871, 473, 161, 488, 288
-0.998873, 437, 1, 452, 128
-0.998897, 127, 145, 142, 272
-0.998901, 237, 113, 252, 240
-0.998922, 227, 113, 242, 240
-0.998924, 97, 1, 112, 128
-0.998925, 149, 177, 164, 304
-0.998935, 249, 113, 264, 240
-0.998936, 133, 145, 148, 272
-0.998946, 167, 49, 182, 176
-0.998953, 423, 1, 438, 128
-0.998963, 409, 33, 440, 288
-0.998978, 213, 113, 228, 240
-0.998978, 261, 129, 276, 256
-0.99898, 229, 1, 244, 128
-0.99898, 431, 1, 446, 128
-0.998999, 63, 97, 78, 224
-0.998999, 151, 65, 166, 192
-0.999028, 449, 145, 464, 272
-0.999033, 371, 177, 386, 304
-0.999052, 149, 113, 164, 240
-0.999053, 445, 33, 476, 288
-0.999057, 467, 145, 482, 272
-0.99908, 275, 129, 290, 256
-0.999084, 81, 97, 96, 224
-0.999087, 385, 177, 400, 304
-0.999092, 159, 65, 174, 192
-0.999094, 75, 97, 90, 224
-0.999101, 275, 17, 290, 144
-0.999118, 117, 161, 132, 288
-0.999131, 87, 113, 102, 240
-0.999134, 479, 193, 494, 320
-0.999134, 339, 193, 354, 320
-0.999134, 9, 65, 24, 192
-0.999137, 401, 177, 416, 304
-0.999141, 309, 33, 324, 160
-0.999143, 175, 33, 190, 160
-0.999144, 189, 1, 204, 128
-0.999148, 391, 161, 406, 288
-0.999153, 219, 113, 234, 240
-0.999158, 93, 97, 108, 224
-0.999159, 361, 177, 376, 304
-0.999163, 207, 113, 222, 240
-0.99917, 3, 81, 18, 208
-0.999175, 255, 129, 270, 256
-0.999176, 197, 145, 212, 272
-0.99918, 309, 113, 324, 240
-0.999183, 111, 17, 126, 144
-0.999183, 99, 161, 114, 288
-0.999184, 285, 33, 300, 160
-0.999191, 69, 97, 84, 224
-0.999192, 233, 49, 248, 176
-0.999198, 269, 129, 284, 256
-0.999206, 355, 177, 370, 304
-0.999214, 485, 193, 500, 320
-0.999219, 221, 65, 236, 192
-0.999226, 245, 65, 260, 192
-0.999232, 69, 161, 84, 288
-0.999232, 349, 177, 364, 304
-0.999232, 319, 193, 334, 320
-0.999235, 191, 145, 206, 272
-0.999236, 267, 49, 282, 176
-0.999238, 119, 33, 134, 160
-0.99924, 255, 17, 270, 144
-0.999241, 51, 97, 66, 224
-0.999246, 159, 161, 174, 288
-0.999253, 109, 161, 124, 288
-0.999255, 177, 145, 192, 272
-0.999255, 31, 161, 46, 288
-0.999258, 283, 113, 298, 240
-0.999259, 33, 17, 48, 144
-0.999263, 183, 17, 198, 144
-0.999264, 381, 33, 412, 288
-0.999268, 145, 65, 160, 192
-0.999268, 85, 161, 100, 288
-0.999272, 45, 129, 60, 256
-0.999272, 133, 49, 148, 176
-0.999274, 379, 177, 394, 304
-0.999276, 125, 33, 140, 160
-0.999279, 321, 241, 336, 368
-0.99928, 443, 1, 458, 128
-0.999283, 285, 161, 300, 288
-0.999286, 425, 129, 456, 375
-0.999286, 155, 113, 170, 240
-0.999286, 331, 193, 346, 320
-0.999288, 41, 225, 56, 352
-0.999294, 277, 177, 292, 304
-0.999295, 93, 161, 108, 288
-0.999297, 309, 161, 324, 288
-0.999301, 123, 209, 138, 336
-0.999304, 1, 129, 16, 256
-0.999304, 415, 1, 430, 128
-0.999305, 169, 97, 184, 224
-0.999305, 409, 1, 424, 128
-0.999307, 239, 161, 254, 288
-0.999307, 217, 161, 232, 288
-0.999308, 79, 145, 94, 272
-0.999308, 455, 145, 470, 272
-0.999309, 183, 145, 198, 272
-0.999311, 443, 49, 458, 176
-0.999312, 19, 33, 34, 160
-0.999314, 251, 65, 266, 192
-0.999315, 57, 145, 72, 272
-0.999319, 155, 241, 170, 368
-0.999321, 165, 241, 180, 368
-0.999323, 461, 145, 476, 272
-0.999324, 309, 209, 324, 336
-0.999324, 105, 17, 120, 144
-0.999326, 13, 129, 28, 256
-0.999326, 81, 1, 96, 128
-0.999328, 245, 1, 260, 128
-0.999329, 299, 33, 314, 160
-0.999334, 57, 97, 72, 224
-0.999336, 291, 33, 306, 160
-0.99934, 179, 193, 194, 320
-0.999341, 261, 17, 276, 144
-0.999343, 235, 1, 250, 128
-0.999344, 21, 161, 36, 288
-0.999345, 209, 161, 224, 288
-0.999345, 239, 65, 254, 192
-0.999346, 473, 113, 488, 240
-0.999347, 247, 161, 262, 288
-0.999347, 223, 161, 238, 288
-0.999351, 395, 209, 410, 336
-0.999351, 293, 113, 308, 240
-0.999357, 89, 49, 104, 176
-0.999358, 51, 145, 66, 272
-0.999363, 223, 1, 238, 128
-0.999364, 443, 177, 458, 304
-0.999517, 409, 129, 440, 375
-0.999566, 369, 33, 400, 288
-0.999568, 103, 29, 118, 44
-0.999568, 343, 215, 358, 230
-0.999569, 429, 47, 444, 62
-0.999569, 239, 73, 254, 88
-0.999569, 161, 265, 176, 280
-0.99957, 439, 11, 454, 26
-0.99957, 415, 89, 430, 104
-0.99957, 309, 245, 324, 260
-0.99957, 411, 13, 426, 28
-0.999571, 227, 129, 242, 144
-0.999571, 273, 39, 288, 54
-0.999571, 227, 23, 242, 38
-0.999572, 319, 263, 334, 278
-0.999572, 219, 119, 234, 134
-0.999572, 387, 265, 402, 280
-0.999573, 109, 143, 124, 158
-0.999573, 95, 17, 110, 32
-0.999573, 223, 1, 238, 16
-0.999573, 219, 107, 234, 122
-0.999573, 273, 203, 288, 218
-0.999574, 151, 181, 166, 196
-0.999574, 137, 167, 152, 182
-0.999574, 345, 221, 360, 236
-0.999574, 115, 173, 130, 188
-0.999575, 297, 83, 312, 98
-0.999577, 61, 125, 76, 140
-0.999577, 107, 239, 122, 254
-0.999577, 323, 71, 338, 86
-0.999577, 71, 137, 86, 152
-0.999578, 485, 55, 500, 70
-0.999578, 151, 139, 166, 154
-0.999579, 233, 123, 248, 138
-0.999579, 153, 169, 168, 184
-0.99958, 169, 261, 184, 276
-0.99958, 369, 197, 384, 212
-0.99958, 51, 153, 66, 168
-0.999581, 201, 135, 216, 150
-0.999581, 287, 235, 302, 250
-0.999584, 275, 149, 290, 164
-0.999584, 143, 159, 158, 174
-0.999585, 383, 253, 398, 268
-0.999586, 3, 121, 18, 136
-0.999587, 407, 31, 422, 46
-0.999587, 149, 161, 164, 176
-0.999587, 307, 223, 322, 238
-0.999587, 159, 249, 174, 264
-0.999588, 115, 39, 130, 54
-0.999588, 307, 145, 322, 160
-0.99959, 337, 47, 352, 62
-0.99959, 309, 233, 324, 248
-0.99959, 345, 253, 360, 268
-0.99959, 441, 1, 456, 16
-0.999591, 291, 167, 306, 182
-0.999592, 271, 61, 286, 76
-0.999592, 355, 253, 370, 268
-0.999593, 125, 235, 140, 250
-0.999594, 39, 241, 54, 256
-0.999594, 39, 153, 54, 168
-0.999594, 133, 231, 148, 246
-0.999594, 233, 107, 248, 122
-0.999594, 71, 143, 86, 158
-0.999596, 361, 243, 376, 258
-0.999596, 153, 153, 168, 168
-0.999597, 121, 45, 136, 60
-0.999597, 87, 35, 102, 50
-0.999598, 75, 5, 90, 20
-0.999598, 97, 37, 112, 52
-0.999599, 117, 237, 132, 252
-0.999601, 231, 7, 246, 22
-0.999601, 91, 41, 106, 56
-0.999601, 281, 145, 296, 160
-0.999602, 141, 227, 156, 242
-0.999603, 377, 257, 392, 272
-0.999603, 215, 125, 230, 140
-0.999604, 223, 113, 238, 128
-0.999604, 373, 247, 388, 262
-0.999605, 83, 1, 98, 16
-0.999605, 299, 163, 314, 178
-0.999607, 335, 195, 350, 210
-0.999608, 411, 5, 426, 20
-0.999609, 91, 83, 106, 98
-0.99961, 327, 41, 342, 56
-0.99961, 389, 191, 404, 206
-0.999612, 435, 53, 450, 68
-0.999612, 133, 65, 148, 80
-0.999612, 369, 253, 384, 268
-0.999615, 237, 135, 252, 150
-0.999616, 73, 153, 88, 168
-0.999617, 83, 151, 98, 166
-0.999618, 379, 189, 394, 204
-0.999618, 97, 23, 112, 38
-0.99962, 411, 199, 426, 214
-0.999621, 151, 147, 166, 162
-0.999621, 471, 185, 486, 200
-0.999621, 433, 1, 464, 256
-0.999623, 369, 227, 384, 242
-0.999623, 31, 239, 46, 254
-0.999624, 149, 113, 164, 128
-0.999624, 451, 5, 466, 20
-0.999626, 213, 135, 228, 150
-0.999626, 111, 149, 126, 164
-0.999626, 223, 135, 238, 150
-0.999626, 225, 121, 240, 136
-0.999626, 61, 153, 76, 168
-0.999626, 147, 223, 162, 238
-0.999627, 161, 271, 176, 286
-0.999627, 127, 53, 142, 68
-0.999627, 455, 177, 470, 192
-0.999628, 307, 157, 322, 172
-0.999629, 319, 271, 334, 286
-0.999632, 251, 133, 266, 148
-0.999633, 443, 71, 458, 86
-0.999635, 401, 195, 416, 210
-0.99964, 327, 267, 342, 282
-0.999642, 243, 133, 258, 148
-0.999645, 423, 89, 438, 104
-0.999648, 101, 149, 116, 164
-0.999648, 449, 181, 464, 196
-0.999648, 233, 1, 248, 16
-0.999649, 91, 151, 106, 166
-0.999651, 343, 191, 358, 206
-0.999652, 247, 73, 262, 88
-0.999655, 161, 257, 176, 272
-0.999657, 367, 247, 382, 262
-0.999663, 441, 63, 456, 78
-0.999671, 143, 165, 158, 180
-0.999675, 3, 115, 18, 130
-0.999681, 129, 59, 144, 74
-0.999683, 97, 83, 112, 98
-0.999683, 89, 29, 104, 44
-0.999771, 449, 175, 464, 190
