1459
-0.41762, 1, 1, 320, 236
-0.539979, 1, 1, 256, 236
-0.836794, 113, 1, 240, 236
-0.844235, 1, 81, 320, 208
-0.846044, 1, 1, 128, 236
-0.862308, 65, 1, 192, 236
-0.88278, 1, 33, 320, 160
-0.885116, 1, 113, 256, 236
-0.899093, 193, 1, 320, 236
-0.905949, 1, 65, 256, 192
-0.911983, 33, 97, 160, 224
-0.912251, 1, 1, 256, 128
-0.920106, 161, 113, 288, 236
-0.921813, 57, 97, 120, 224
-0.922186, 17, 65, 80, 192
-0.923532, 1, 17, 64, 144
-0.923704, 1, 49, 128, 176
-0.927779, 49, 49, 176, 176
-0.929669, 169, 113, 232, 236
-0.930327, 33, 113, 96, 236
-0.930498, 113, 113, 240, 236
-0.932641, 241, 113, 304, 236
-0.932735, 113, 17, 240, 144
-0.933168, 201, 65, 264, 192
-0.934797, 113, 81, 176, 208
-0.93564, 97, 65, 224, 192
-0.936096, 89, 113, 152, 236
-0.936124, 81, 65, 144, 192
-0.937596, 41, 49, 104, 176
-0.938753, 1, 113, 64, 236
-0.940398, 145, 113, 208, 236
-0.941957, 177, 65, 304, 192
-0.945011, 17, 1, 144, 128
-0.945814, 121, 1, 184, 128
-0.948364, 17, 129, 80, 192
-0.948646, 209, 113, 272, 236
-0.949111, 49, 57, 112, 120
-0.949807, 113, 57, 176, 120
-0.950071, 89, 65, 152, 128
-0.950215, 17, 105, 80, 168
-0.951017, 169, 121, 232, 184
-0.951028, 73, 129, 136, 192
-0.952562, 9, 41, 72, 104
-0.952591, 145, 33, 208, 160
-0.952992, 9, 177, 72, 236
-0.953871, 89, 17, 152, 144
-0.955051, 17, 73, 80, 136
-0.955097, 145, 113, 208, 176
-0.95529, 65, 1, 192, 128
-0.955855, 241, 169, 304, 232
-0.956032, 97, 145, 160, 208
-0.956237, 49, 153, 112, 216
-0.95664, 129, 137, 192, 200
-0.956776, 57, 97, 120, 160
-0.957608, 41, 129, 104, 192
-0.957809, 41, 1, 104, 128
-0.958166, 225, 65, 288, 192
-0.958187, 1, 1, 64, 236
-0.958265, 201, 73, 264, 136
-0.958714, 169, 65, 232, 192
-0.959283, 89, 169, 152, 232
-0.959611, 97, 89, 160, 152
-0.960011, 249, 65, 312, 192
-0.96034, 121, 25, 184, 88
-0.961128, 57, 177, 120, 236
-0.961781, 241, 121, 304, 184
-0.961945, 201, 161, 264, 224
-0.962888, 25, 153, 88, 216
-0.963055, 209, 17, 272, 144
-0.963885, 89, 41, 152, 104
-0.964043, 85, 81, 116, 208
-0.965105, 97, 113, 160, 176
-0.965203, 169, 97, 232, 160
-0.965324, 61, 97, 92, 224
-0.965769, 137, 161, 200, 224
-0.966797, 169, 145, 232, 208
-0.966817, 41, 33, 72, 160
-0.966846, 21, 17, 52, 144
-0.967057, 33, 49, 160, 112
-0.967125, 117, 57, 148, 120
-0.967151, 257, 145, 320, 208
-0.967273, 169, 1, 232, 128
-0.967497, 161, 65, 224, 128
-0.967534, 129, 89, 192, 152
-0.967566, 33, 137, 160, 200
-0.968155, 129, 1, 192, 236
-0.968213, 41, 97, 72, 224
-0.968226, 117, 65, 148, 192
-0.96823, 113, 177, 176, 236
-0.968283, 177, 177, 240, 236
-0.968458, 1, 153, 64, 216
-0.96847, 113, 145, 240, 208
-0.968607, 201, 97, 264, 160
-0.968713, 65, 17, 128, 144
-0.96874, 33, 177, 96, 236
-0.968905, 9, 33, 40, 96
-0.969075, 225, 73, 288, 136
-0.969142, 173, 113, 204, 236
-0.969165, 97, 73, 224, 136
-0.969178, 233, 113, 264, 236
-0.96969, 85, 121, 116, 184
-0.969767, 33, 73, 160, 136
-0.969989, 1, 161, 128, 224
-0.970394, 121, 113, 184, 176
-0.970409, 49, 33, 112, 96
-0.970553, 1, 17, 32, 144
-0.970727, 149, 129, 180, 192
-0.970775, 225, 145, 288, 208
-0.970854, 161, 121, 192, 184
-0.970864, 37, 137, 68, 200
-0.970939, 201, 49, 264, 112
-0.971186, 201, 137, 264, 200
-0.971256, 97, 113, 128, 236
-0.971337, 241, 65, 272, 192
-0.971342, 41, 41, 72, 104
-0.971397, 17, 65, 48, 192
-0.971602, 249, 113, 280, 236
-0.971615, 9, 17, 72, 80
-0.971641, 137, 1, 168, 128
-0.971746, 177, 81, 304, 144
-0.971816, 61, 129, 92, 192
-0.971839, 189, 97, 220, 224
-0.972098, 13, 113, 44, 176
-0.972137, 145, 105, 272, 168
-0.972592, 33, 113, 160, 176
-0.972659, 89, 1, 152, 236
-0.972702, 229, 65, 260, 192
-0.972859, 81, 97, 208, 160
-0.97291, 213, 65, 244, 192
-0.973045, 97, 73, 128, 136
-0.973064, 53, 49, 84, 176
-0.973065, 105, 65, 136, 192
-0.973078, 109, 113, 140, 236
-0.973104, 37, 177, 68, 236
-0.973134, 113, 49, 240, 112
-0.973437, 193, 17, 320, 144
-0.973661, 285, 177, 316, 236
-0.973664, 269, 113, 300, 236
-0.973853, 149, 1, 180, 128
-0.973897, 109, 145, 140, 208
-0.974037, 97, 121, 224, 184
-0.974063, 213, 73, 244, 136
-0.974106, 133, 33, 164, 96
-0.974149, 25, 169, 56, 232
-0.97422, 129, 81, 160, 208
-0.974448, 241, 73, 272, 136
-0.974474, 33, 1, 96, 236
-0.974484, 21, 113, 52, 236
-0.97471, 177, 169, 304, 232
-0.974721, 57, 1, 120, 236
-0.974738, 137, 49, 200, 112
-0.974819, 77, 97, 108, 160
-0.974892, 149, 113, 180, 236
-0.974923, 177, 137, 304, 200
-0.975044, 153, 1, 216, 64
-0.975103, 45, 65, 76, 128
-0.975204, 1, 121, 32, 184
-0.975216, 61, 161, 92, 224
-0.975329, 25, 33, 56, 96
-0.975459, 1, 65, 32, 128
-0.975538, 97, 161, 128, 224
-0.975581, 1, 65, 32, 192
-0.975598, 29, 65, 60, 192
-0.975629, 97, 129, 128, 192
-0.975642, 181, 113, 212, 176
-0.975814, 49, 113, 80, 176
-0.975918, 289, 97, 320, 224
-0.976109, 49, 169, 176, 232
-0.976291, 1, 145, 32, 208
-0.976373, 193, 105, 224, 168
-0.976375, 201, 1, 264, 236
-0.976466, 161, 41, 224, 104
-0.976563, 13, 57, 44, 120
-0.976579, 113, 177, 240, 236
-0.976676, 85, 65, 116, 128
-0.976798, 241, 161, 272, 224
-0.976933, 249, 65, 312, 128
-0.976998, 113, 1, 176, 64
-0.977035, 29, 65, 60, 128
-0.97707, 5, 113, 36, 236
-0.977205, 249, 97, 312, 160
-0.977353, 241, 17, 304, 144
-0.977363, 137, 137, 168, 200
-0.977403, 113, 81, 144, 144
-0.977503, 225, 49, 288, 112
-0.977558, 121, 145, 152, 208
-0.977688, 265, 169, 296, 232
-0.977755, 89, 97, 120, 160
-0.977801, 221, 113, 252, 236
-0.978018, 81, 145, 112, 208
-0.978118, 181, 137, 212, 200
-0.978219, 233, 129, 264, 192
-0.978259, 125, 17, 156, 144
-0.978329, 13, 89, 44, 152
-0.978531, 37, 113, 68, 176
-0.978549, 149, 9, 180, 72
-0.978694, 73, 81, 104, 208
-0.978837, 25, 129, 56, 192
-0.978878, 145, 105, 176, 168
-0.978884, 49, 25, 176, 88
-0.979277, 161, 113, 192, 236
-0.979327, 105, 49, 136, 112
-0.979402, 81, 177, 112, 236
-0.979664, 253, 65, 284, 192
-0.979814, 201, 81, 232, 208
-0.979864, 1, 89, 32, 152
-0.980009, 229, 65, 260, 128
-0.980055, 133, 177, 164, 236
-0.980074, 213, 161, 244, 224
-0.980165, 49, 137, 80, 200
-0.980254, 13, 169, 44, 232
-0.980267, 1, 25, 128, 88
-0.98027, 229, 169, 260, 232
-0.980299, 193, 105, 320, 168
-0.980314, 61, 97, 92, 160
-0.980332, 61, 57, 92, 120
-0.980693, 161, 1, 224, 236
-0.981017, 129, 17, 256, 80
-0.981095, 93, 33, 124, 160
-0.981149, 29, 89, 60, 152
-0.981243, 241, 105, 272, 168
-0.981254, 65, 33, 96, 160
-0.98142, 225, 97, 288, 160
-0.981433, 253, 169, 284, 232
-0.981887, 181, 177, 212, 236
-0.981975, 161, 97, 192, 160
-0.981993, 49, 161, 80, 224
-0.982141, 113, 17, 144, 144
-0.982287, 133, 65, 164, 128
-0.982369, 109, 121, 140, 184
-0.982436, 289, 105, 320, 168
-0.982521, 161, 145, 192, 208
-0.982556, 73, 121, 104, 184
-0.982833, 81, 33, 112, 160
-0.98289, 253, 145, 284, 208
-0.982939, 289, 145, 320, 208
-0.982948, 13, 137, 44, 200
-0.98301, 189, 49, 220, 176
-0.983122, 253, 81, 284, 144
-0.983178, 109, 177, 140, 236
-0.983478, 145, 57, 176, 120
-0.983522, 193, 81, 224, 144
-0.983622, 141, 49, 172, 176
-0.983632, 193, 129, 224, 192
-0.983675, 81, 17, 144, 80
-0.983849, 233, 17, 264, 144
-0.983986, 209, 17, 240, 144
-0.984063, 193, 161, 224, 224
-0.984081, 269, 145, 300, 208
-0.984089, 125, 121, 156, 184
-0.98422, 193, 25, 256, 88
-0.984245, 249, 41, 312, 104
-0.984386, 41, 89, 72, 152
-0.984475, 101, 97, 132, 160
-0.984508, 213, 121, 244, 184
-0.984553, 253, 121, 284, 184
-0.984734, 233, 1, 296, 236
-0.984738, 121, 177, 152, 236
-0.984761, 157, 33, 188, 96
-0.984767, 165, 65, 196, 192
-0.985073, 49, 1, 112, 64
-0.985101, 241, 49, 272, 112
-0.98532, 161, 57, 288, 120
-0.985547, 153, 49, 184, 176
-0.985702, 169, 177, 200, 236
-0.985728, 229, 89, 260, 152
-0.985746, 117, 33, 148, 96
-0.985802, 73, 65, 104, 128
-0.986097, 1, 169, 32, 232
-0.986169, 265, 65, 296, 192
-0.98624, 149, 177, 180, 236
-0.986263, 133, 97, 164, 160
-0.986285, 1, 129, 256, 192
-0.986443, 33, 1, 160, 64
-0.986468, 225, 41, 256, 104
-0.98703, 213, 97, 244, 160
-0.987111, 253, 57, 284, 120
-0.987145, 181, 89, 212, 152
-0.987201, 133, 9, 164, 72
-0.987266, 33, 161, 288, 224
-0.987279, 273, 121, 304, 184
-0.987349, 41, 17, 72, 80
-0.987475, 5, 9, 36, 72
-0.987489, 225, 1, 288, 64
-0.987508, 257, 1, 320, 236
-0.987582, 241, 173, 304, 204
-0.987625, 201, 173, 264, 204
-0.987759, 161, 1, 192, 128
-0.987774, 97, 173, 160, 204
-0.987809, 221, 17, 252, 144
-0.987932, 129, 137, 192, 168
-0.988013, 193, 1, 320, 64
-0.988046, 177, 177, 240, 208
-0.988047, 21, 9, 52, 72
-0.988092, 57, 173, 120, 204
-0.988282, 137, 177, 200, 208
-0.988314, 33, 137, 96, 168
-0.988317, 17, 185, 80, 216
-0.988405, 121, 193, 184, 224
-0.988413, 17, 65, 80, 96
-0.988499, 265, 97, 296, 160
-0.988514, 1, 73, 256, 136
-0.988519, 9, 197, 72, 228
-0.988541, 33, 157, 96, 188
-0.988549, 17, 101, 80, 132
-0.98861, 49, 193, 112, 224
-0.988637, 17, 85, 80, 116
-0.988648, 17, 169, 80, 200
-0.988669, 129, 161, 192, 192
-0.988731, 57, 153, 120, 184
-0.988734, 93, 41, 124, 104
-0.988735, 81, 1, 208, 64
-0.988768, 53, 33, 84, 96
-0.988795, 145, 197, 208, 228
-0.988862, 209, 193, 272, 224
-0.988892, 89, 197, 152, 228
-0.988902, 9, 37, 72, 68
-0.98893, 161, 73, 192, 136
-0.988946, 57, 133, 120, 164
-0.988972, 161, 133, 224, 164
-0.988974, 33, 205, 96, 236
-0.989003, 185, 197, 248, 228
-0.989004, 257, 185, 320, 216
-0.989005, 257, 157, 320, 188
-0.989033, 89, 81, 152, 112
-0.989038, 213, 49, 244, 112
-0.989097, 169, 117, 232, 148
-0.989114, 113, 61, 176, 92
-0.989147, 73, 185, 136, 216
-0.989206, 289, 33, 320, 160
-0.989242, 97, 185, 160, 216
-0.989276, 113, 149, 176, 180
-0.989333, 233, 185, 296, 216
-0.989362, 53, 1, 84, 128
-0.989372, 177, 65, 208, 192
-0.9894, 89, 53, 152, 84
-0.98942, 49, 81, 112, 112
-0.98943, 97, 161, 160, 192
-0.989438, 17, 125, 80, 156
-0.989482, 57, 93, 120, 124
-0.9895, 201, 49, 232, 112
-0.989511, 89, 65, 152, 96
-0.989512, 137, 125, 200, 156
-0.989522, 33, 113, 96, 144
-0.989537, 225, 157, 288, 188
-0.98954, 1, 81, 320, 144
-0.989617, 177, 33, 304, 96
-0.989623, 97, 133, 160, 164
-0.989646, 277, 65, 308, 192
-0.989657, 1, 145, 64, 176
-0.989666, 57, 205, 120, 236
-0.989764, 57, 65, 120, 96
-0.989792, 137, 149, 200, 180
-0.989813, 49, 49, 112, 80
-0.989916, 89, 93, 152, 124
-0.989974, 1, 49, 320, 112
-0.989997, 257, 205, 320, 236
-0.990006, 201, 157, 264, 188
-0.990026, 129, 49, 192, 80
-0.990027, 121, 205, 184, 236
-0.990064, 193, 1, 256, 64
-0.990094, 233, 197, 296, 228
-0.990166, 169, 165, 232, 196
-0.990176, 169, 145, 232, 176
-0.990208, 65, 33, 96, 96
-0.99022, 17, 53, 80, 84
-0.990223, 201, 73, 264, 104
-0.990241, 113, 73, 176, 104
-0.990253, 57, 121, 120, 152
-0.990253, 257, 141, 320, 172
-0.990263, 65, 97, 320, 160
-0.990278, 113, 85, 176, 116
-0.990278, 105, 117, 168, 148
-0.990331, 209, 205, 272, 236
-0.990347, 149, 153, 180, 216
-0.990431, 129, 37, 192, 68
-0.990522, 201, 137, 264, 168
-0.990526, 241, 121, 304, 152
-0.990591, 105, 25, 136, 88
-0.990612, 9, 113, 72, 144
-0.990615, 1, 157, 64, 188
-0.990624, 169, 105, 232, 136
-0.99065, 1, 169, 320, 232
-0.990712, 233, 141, 296, 172
-0.990725, 161, 93, 224, 124
-0.990745, 129, 109, 192, 140
-0.9908, 89, 41, 152, 72
-0.99084, 201, 117, 264, 148
-0.990851, 89, 145, 152, 176
-0.990911, 193, 1, 224, 128
-0.990963, 169, 1, 200, 64
-0.990969, 77, 41, 108, 104
-0.990996, 113, 97, 176, 128
-0.991058, 1, 49, 256, 112
-0.991083, 185, 85, 248, 116
-0.991097, 245, 17, 276, 144
-0.991112, 145, 33, 176, 96
-0.991152, 161, 81, 224, 112
-0.991163, 209, 85, 272, 116
-0.991213, 249, 109, 312, 140
-0.99122, 193, 173, 320, 204
-0.991233, 153, 65, 216, 96
-0.991234, 57, 105, 120, 136
-0.991269, 1, 25, 64, 56
-0.991348, 145, 21, 208, 52
-0.991466, 225, 73, 288, 104
-0.991485, 129, 177, 256, 208
-0.991563, 209, 101, 272, 132
-0.991592, 1, 105, 320, 168
-0.991596, 289, 81, 320, 144
-0.991687, 81, 121, 144, 152
-0.991696, 181, 1, 212, 128
-0.991707, 249, 97, 312, 128
-0.991714, 121, 25, 184, 56
-0.99177, 81, 105, 144, 136
-0.991843, 145, 9, 208, 40
-0.991849, 1, 137, 320, 200
-0.991865, 213, 173, 244, 204
-0.991876, 49, 33, 112, 64
-0.991928, 265, 173, 296, 204
-0.991959, 137, 81, 200, 112
-0.992018, 49, 173, 176, 204
-0.992051, 277, 173, 308, 204
-0.992054, 137, 97, 200, 128
-0.992057, 25, 25, 88, 56
-0.992062, 233, 173, 264, 204
-0.992081, 249, 173, 280, 204
-0.992084, 37, 133, 68, 164
-0.992084, 61, 169, 92, 200
-0.992089, 129, 173, 160, 204
-0.992095, 105, 169, 136, 200
-0.99211, 129, 193, 160, 224
-0.992111, 289, 173, 320, 204
-0.992113, 21, 173, 52, 204
-0.992124, 249, 65, 312, 96
-0.992129, 161, 133, 192, 164
-0.992137, 197, 177, 228, 208
-0.99215, 61, 157, 92, 188
-0.992152, 41, 65, 72, 96
-0.992155, 193, 61, 256, 92
-0.992158, 117, 77, 148, 108
-0.992161, 61, 189, 92, 220
-0.992168, 285, 185, 316, 216
-0.992172, 229, 185, 260, 216
-0.992172, 137, 161, 168, 192
-0.992173, 169, 53, 232, 84
-0.992174, 185, 177, 216, 208
-0.992191, 117, 57, 148, 88
-0.992226, 85, 169, 116, 200
-0.992226, 145, 185, 176, 216
-0.992235, 149, 145, 180, 176
-0.992261, 113, 13, 176, 44
-0.992273, 149, 197, 180, 228
-0.992279, 289, 205, 320, 236
-0.992294, 25, 185, 56, 216
-0.992297, 165, 177, 196, 208
-0.9923, 41, 153, 72, 184
-0.992305, 41, 77, 72, 108
-0.992309, 1, 97, 32, 128
-0.992324, 13, 189, 44, 220
-0.992332, 45, 185, 76, 216
-0.992339, 105, 133, 136, 164
-0.99234, 141, 173, 172, 204
-0.992353, 217, 61, 280, 92
-0.992354, 21, 61, 52, 92
-0.992355, 117, 169, 148, 200
-0.992363, 85, 137, 116, 168
-0.992369, 89, 97, 120, 128
-0.992372, 217, 193, 248, 224
-0.992376, 61, 205, 92, 236
-0.992387, 13, 73, 44, 104
-0.992391, 153, 41, 216, 72
-0.992398, 185, 197, 216, 228
-0.992405, 37, 117, 68, 148
-0.99241, 149, 133, 180, 164
-0.99241, 97, 181, 128, 212
-0.992412, 285, 157, 316, 188
-0.992414, 181, 117, 212, 148
-0.992416, 173, 197, 204, 228
-0.992417, 201, 165, 232, 196
-0.992429, 105, 69, 136, 100
-0.992429, 57, 121, 88, 152
-0.992429, 205, 197, 236, 228
-0.992431, 37, 205, 68, 236
-0.992431, 41, 45, 72, 76
-0.992437, 161, 197, 192, 228
-0.99244, 85, 125, 116, 156
-0.992442, 97, 157, 128, 188
-0.992444, 21, 161, 52, 192
-0.992446, 129, 137, 160, 168
-0.992447, 97, 81, 128, 112
-0.992449, 49, 173, 80, 204
-0.99245, 77, 185, 108, 216
-0.992451, 21, 129, 52, 160
-0.992456, 1, 57, 32, 88
-0.992456, 213, 73, 244, 104
-0.992463, 49, 137, 176, 168
-0.992465, 5, 173, 36, 204
-0.99247, 169, 17, 232, 48
-0.99247, 9, 45, 40, 76
-0.992475, 229, 197, 260, 228
-0.992486, 5, 161, 36, 192
-0.992497, 1, 81, 32, 112
-0.992503, 61, 137, 92, 168
-0.992508, 189, 129, 220, 160
-0.992513, 97, 109, 128, 140
-0.992519, 153, 173, 184, 204
-0.99252, 109, 149, 140, 180
-0.992523, 5, 141, 36, 172
-0.992525, 273, 185, 304, 216
-0.992526, 25, 33, 56, 64
-0.992528, 233, 73, 264, 104
-0.992539, 249, 161, 280, 192
-0.992546, 149, 161, 180, 192
-0.992548, 81, 197, 112, 228
-0.992552, 113, 197, 144, 228
-0.992553, 113, 185, 144, 216
-0.992561, 49, 201, 80, 232
-0.992562, 241, 185, 272, 216
-0.992566, 17, 65, 144, 96
-0.992573, 137, 53, 168, 84
-0.992583, 13, 113, 44, 144
-0.992583, 193, 193, 320, 224
-0.992584, 257, 1, 320, 64
-0.992589, 17, 13, 80, 44
-0.992594, 241, 85, 272, 116
-0.992595, 261, 161, 292, 192
-0.992602, 21, 141, 52, 172
-0.992603, 213, 85, 244, 116
-0.992604, 1, 69, 32, 100
-0.992605, 73, 173, 104, 204
-0.992615, 1, 33, 32, 64
-0.992616, 53, 109, 84, 140
-0.992617, 13, 85, 44, 116
-0.992622, 13, 201, 44, 232
-0.992631, 233, 129, 264, 160
-0.992637, 49, 137, 80, 168
-0.992645, 173, 141, 204, 172
-0.992647, 97, 197, 128, 228
-0.992656, 233, 161, 264, 192
-0.99266, 133, 205, 164, 236
-0.992664, 25, 77, 56, 108
-0.992674, 177, 129, 208, 160
-0.992676, 277, 205, 308, 236
-0.992688, 37, 173, 68, 204
-0.99269, 41, 93, 72, 124
-0.992692, 53, 77, 84, 108
-0.992698, 133, 41, 164, 72
-0.992699, 161, 161, 192, 192
-0.99271, 169, 117, 200, 148
-0.992729, 193, 109, 224, 140
-0.992733, 53, 65, 84, 96
-0.992735, 217, 205, 248, 236
-0.992739, 77, 157, 108, 188
-0.992743, 149, 17, 180, 48
-0.992744, 213, 161, 244, 192
-0.992745, 85, 109, 116, 140
-0.992747, 85, 69, 116, 100
-0.992759, 197, 73, 228, 104
-0.992763, 73, 129, 104, 160
-0.992767, 133, 65, 164, 96
-0.992767, 61, 97, 92, 128
-0.992772, 153, 53, 184, 84
-0.992772, 249, 121, 280, 152
-0.992776, 1, 25, 256, 88
-0.992816, 209, 49, 272, 80
-0.992816, 113, 165, 240, 196
-0.992843, 217, 13, 280, 44
-0.992881, 97, 29, 160, 60
-0.992887, 127, 49, 142, 112
-0.992896, 49, 189, 176, 220
-0.992911, 249, 77, 312, 108
-0.992924, 105, 1, 168, 32
-0.99293, 257, 17, 288, 144
-0.992973, 49, 157, 176, 188
-0.993014, 249, 53, 312, 84
-0.993025, 217, 25, 280, 88
-0.993077, 201, 37, 264, 68
-0.993101, 201, 1, 264, 32
-0.993126, 33, 77, 160, 108
-0.993235, 129, 197, 256, 228
-0.993259, 177, 29, 240, 60
-0.993279, 121, 49, 136, 112
-0.993292, 1, 193, 128, 224
-0.993305, 49, 53, 176, 84
-0.993318, 109, 161, 124, 224
-0.993329, 169, 5, 232, 36
-0.993331, 265, 73, 296, 136
-0.993384, 73, 25, 136, 56
-0.993411, 225, 1, 288, 32
-0.993432, 257, 17, 320, 48
-0.993435, 33, 121, 160, 152
-0.993468, 41, 1, 104, 32
-0.993471, 1, 1, 64, 32
-0.993479, 241, 33, 304, 64
-0.993516, 49, 21, 112, 52
-0.993526, 17, 73, 32, 136
-0.993567, 257, 5, 320, 36
-0.993568, 1, 177, 128, 208
-0.993582, 201, 25, 264, 56
-0.993647, 79, 129, 94, 192
-0.993674, 165, 129, 180, 192
-0.993681, 89, 13, 152, 44
-0.993714, 145, 81, 176, 144
-0.993734, 81, 1, 144, 32
-0.993734, 55, 41, 70, 104
-0.993746, 193, 161, 320, 192
-0.993793, 177, 41, 240, 72
-0.993798, 17, 109, 144, 140
-0.993807, 97, 133, 224, 164
-0.993809, 193, 13, 256, 44
-0.993847, 121, 1, 152, 64
-0.993925, 7, 49, 22, 112
-0.99393, 15, 121, 30, 184
-0.993931, 33, 89, 160, 120
-0.993934, 23, 33, 38, 96
-0.993955, 33, 205, 160, 236
-0.993958, 129, 153, 256, 184
-0.99399, 161, 113, 288, 144
-0.994, 45, 137, 60, 200
-0.994007, 23, 105, 38, 168
-0.994021, 1, 165, 128, 196
-0.994069, 39, 145, 54, 208
-0.994096, 53, 105, 68, 168
-0.994107, 117, 73, 132, 136
-0.994129, 73, 129, 88, 192
-0.99417, 1, 89, 16, 152
-0.994194, 145, 129, 272, 160
-0.994233, 1, 137, 128, 168
-0.994236, 143, 137, 158, 200
-0.994244, 7, 81, 22, 144
-0.994274, 107, 65, 122, 128
-0.994282, 33, 169, 48, 232
-0.994315, 27, 129, 42, 192
-0.994337, 183, 105, 198, 168
-0.994338, 133, 57, 148, 120
-0.994358, 1, 45, 128, 76
-0.994381, 189, 49, 220, 112
-0.994385, 109, 121, 124, 184
-0.994416, 43, 33, 58, 96
-0.994423, 51, 137, 66, 200
-0.994436, 175, 129, 190, 192
-0.994444, 7, 105, 22, 168
-0.994448, 91, 97, 106, 160
-0.994477, 55, 65, 70, 128
-0.994485, 9, 161, 24, 224
-0.994492, 1, 113, 16, 176
-0.994496, 177, 141, 304, 172
-0.994502, 239, 161, 254, 224
-0.994523, 47, 65, 62, 128
-0.994557, 1, 149, 128, 180
-0.994558, 127, 73, 142, 136
-0.994569, 97, 77, 224, 108
-0.99458, 15, 33, 30, 96
-0.994589, 193, 205, 320, 236
-0.994613, 35, 121, 50, 184
-0.994676, 37, 33, 52, 96
-0.994677, 51, 177, 66, 236
-0.994741, 101, 121, 116, 184
-0.994759, 209, 25, 240, 88
-0.994763, 101, 89, 116, 152
-0.994769, 81, 205, 208, 236
-0.994777, 117, 145, 132, 208
-0.994801, 93, 65, 108, 128
-0.994826, 79, 153, 94, 216
-0.994836, 45, 177, 60, 236
-0.994848, 103, 161, 118, 224
-0.994874, 21, 1, 52, 236
-0.994879, 49, 41, 64, 104
-0.994898, 245, 161, 260, 224
-0.994904, 97, 121, 224, 152
-0.994922, 305, 161, 320, 224
-0.994957, 299, 177, 314, 236
-0.994978, 49, 41, 176, 72
-0.99498, 23, 161, 38, 224
-0.994983, 97, 57, 224, 88
-0.99499, 81, 101, 208, 132
-0.995016, 1, 49, 16, 112
-0.995059, 177, 101, 304, 132
-0.995083, 193, 129, 320, 160
-0.995105, 1, 145, 16, 208
-0.995111, 115, 41, 130, 104
-0.995136, 107, 89, 122, 152
-0.995195, 29, 33, 44, 96
-0.995202, 215, 65, 230, 128
-0.995212, 7, 137, 22, 200
-0.995225, 251, 161, 266, 224
-0.995255, 1, 33, 128, 64
-0.995258, 235, 65, 250, 128
-0.995288, 247, 73, 262, 136
-0.995295, 149, 17, 164, 80
-0.995299, 225, 65, 240, 128
-0.995318, 203, 81, 218, 144
-0.995327, 205, 105, 220, 168
-0.995343, 183, 137, 198, 200
-0.995355, 101, 65, 116, 128
-0.995368, 1, 1, 32, 236
-0.995375, 153, 129, 168, 192
-0.995375, 7, 25, 22, 88
-0.995382, 289, 177, 304, 236
-0.995401, 135, 177, 150, 236
-0.995409, 279, 169, 294, 232
-0.995412, 235, 121, 250, 184
-0.995426, 193, 105, 208, 168
-0.995431, 97, 89, 224, 120
-0.995438, 229, 161, 244, 224
-0.995449, 33, 1, 64, 236
-0.995459, 155, 9, 170, 72
-0.995465, 161, 17, 176, 80
-0.995466, 145, 77, 272, 108
-0.995504, 61, 121, 76, 184
-0.995524, 131, 145, 146, 208
-0.995526, 137, 89, 152, 152
-0.995534, 43, 113, 58, 176
-0.995534, 1, 17, 320, 80
-0.995535, 31, 73, 46, 136
-0.995551, 157, 57, 172, 120
-0.995571, 209, 65, 224, 128
-0.995587, 175, 105, 190, 168
-0.995601, 169, 33, 200, 96
-0.995627, 39, 177, 54, 236
-0.995627, 241, 65, 256, 128
-0.995652, 43, 89, 58, 152
-0.995655, 23, 57, 38, 120
-0.99566, 137, 129, 152, 192
-0.995696, 263, 161, 278, 224
-0.995712, 37, 57, 52, 120
-0.99572, 73, 161, 88, 224
-0.995727, 257, 81, 272, 144
-0.995728, 305, 137, 320, 200
-0.995743, 83, 65, 98, 128
-0.99575, 123, 145, 138, 208
-0.995753, 241, 129, 256, 192
-0.995816, 271, 169, 286, 232
-0.995818, 143, 73, 158, 136
-0.995826, 173, 57, 204, 120
-0.995829, 61, 161, 76, 224
-0.995838, 15, 145, 30, 208
-0.99584, 247, 49, 262, 112
-0.995856, 247, 121, 262, 184
-0.995878, 257, 169, 272, 232
-0.995885, 33, 145, 48, 208
-0.995912, 133, 1, 164, 236
-0.995912, 159, 129, 174, 192
-0.995914, 141, 177, 156, 236
-0.995942, 305, 105, 320, 168
-0.995951, 185, 177, 200, 236
-0.995971, 143, 113, 158, 176
-0.995989, 23, 81, 38, 144
-0.995991, 175, 161, 190, 224
-0.995998, 67, 137, 82, 200
-0.996028, 127, 25, 142, 88
-0.996034, 1, 25, 16, 88
-0.996055, 281, 1, 312, 64
-0.996076, 193, 177, 208, 236
-0.996098, 213, 1, 244, 64
-0.996104, 121, 1, 152, 236
-0.996113, 241, 89, 256, 152
-0.996133, 1, 1, 256, 64
-0.996145, 193, 89, 320, 120
-0.99616, 63, 97, 78, 160
-0.996174, 85, 129, 100, 192
-0.99619, 63, 57, 78, 120
-0.996191, 81, 97, 96, 160
-0.996201, 157, 105, 172, 168
-0.996203, 235, 97, 250, 160
-0.996207, 199, 105, 214, 168
-0.996214, 17, 97, 32, 160
-0.996227, 115, 169, 130, 232
-0.996245, 15, 169, 30, 232
-0.996252, 253, 33, 284, 96
-0.996263, 129, 101, 256, 132
-0.996274, 269, 145, 284, 208
-0.996302, 213, 1, 244, 236
-0.996371, 149, 1, 180, 236
-0.996394, 193, 73, 320, 104
-0.996441, 97, 45, 224, 76
-0.996483, 145, 89, 272, 120
-0.996493, 85, 1, 116, 236
-0.99656, 125, 57, 140, 88
-0.996586, 279, 173, 294, 204
-0.996641, 109, 1, 140, 236
-0.996657, 129, 17, 256, 48
-0.996663, 227, 173, 242, 204
-0.996666, 249, 1, 280, 64
-0.996715, 237, 173, 252, 204
-0.996752, 57, 9, 88, 72
-0.996768, 129, 33, 256, 64
-0.996774, 109, 165, 124, 196
-0.996805, 213, 169, 228, 200
-0.996834, 291, 173, 306, 204
-0.996843, 137, 177, 152, 208
-0.996861, 33, 21, 160, 52
-0.996864, 243, 173, 258, 204
-0.996878, 111, 137, 126, 168
-0.996891, 61, 169, 76, 200
-0.996901, 57, 1, 88, 236
-0.996918, 269, 17, 300, 144
-0.996918, 79, 169, 94, 200
-0.996926, 263, 169, 278, 200
-0.996934, 251, 173, 266, 204
-0.996937, 291, 185, 306, 216
-0.99694, 31, 137, 46, 168
-0.996943, 143, 165, 158, 196
-0.996944, 51, 193, 66, 224
-0.996951, 53, 65, 68, 96
-0.996958, 53, 105, 68, 136
-0.996978, 285, 173, 300, 204
-0.997002, 203, 173, 218, 204
-0.997015, 189, 185, 204, 216
-0.997035, 35, 57, 50, 88
-0.997049, 221, 177, 236, 208
-0.997052, 81, 29, 208, 60
-0.997054, 163, 133, 178, 164
-0.997056, 301, 173, 316, 204
-0.997061, 73, 169, 88, 200
-0.997063, 195, 177, 210, 208
-0.997063, 197, 17, 228, 80
-0.997065, 277, 89, 308, 152
-0.997068, 127, 45, 142, 76
-0.997068, 209, 185, 224, 216
-0.997073, 233, 185, 248, 216
-0.997076, 273, 173, 288, 204
-0.997086, 147, 185, 162, 216
-0.997087, 33, 125, 48, 156
-0.997089, 179, 177, 194, 208
-0.997091, 79, 157, 94, 188
-0.997094, 61, 189, 76, 220
-0.9971, 97, 1, 128, 236
-0.997107, 7, 201, 22, 232
-0.997111, 151, 197, 166, 228
-0.997118, 269, 1, 300, 64
-0.997136, 165, 185, 180, 216
-0.997148, 159, 185, 174, 216
-0.997149, 257, 165, 272, 196
-0.997162, 181, 133, 196, 164
-0.997167, 297, 185, 312, 216
-0.99717, 45, 121, 60, 152
-0.997172, 67, 165, 82, 196
-0.997187, 103, 169, 118, 200
-0.997191, 115, 169, 130, 200
-0.997199, 55, 45, 70, 76
-0.997202, 51, 129, 66, 160
-0.997211, 153, 185, 168, 216
-0.997211, 153, 141, 168, 172
-0.997215, 187, 197, 202, 228
-0.997215, 43, 69, 58, 100
-0.997221, 17, 97, 32, 128
-0.997221, 41, 133, 56, 164
-0.997231, 13, 197, 28, 228
-0.997235, 171, 185, 186, 216
-0.997237, 45, 57, 60, 88
-0.997238, 1, 193, 16, 224
-0.997245, 197, 197, 212, 228
-0.997245, 53, 117, 68, 148
-0.997245, 145, 57, 272, 88
-0.997247, 123, 169, 138, 200
-0.997263, 35, 201, 50, 232
-0.997276, 131, 169, 146, 200
-0.997277, 61, 205, 76, 236
-0.997279, 25, 181, 40, 212
-0.99728, 173, 141, 188, 172
-0.997282, 179, 197, 194, 228
-0.997286, 33, 149, 48, 180
-0.997286, 69, 185, 84, 216
-0.997289, 257, 177, 272, 208
-0.99729, 163, 197, 178, 228
-0.997293, 173, 197, 188, 228
-0.997293, 101, 129, 116, 160
-0.997294, 73, 157, 88, 188
-0.997294, 153, 161, 168, 192
-0.997297, 205, 109, 220, 140
-0.997301, 75, 185, 90, 216
-0.997312, 187, 173, 202, 204
-0.997314, 117, 77, 132, 108
-0.997318, 43, 189, 58, 220
-0.997323, 239, 185, 254, 216
-0.997326, 137, 197, 152, 228
-0.997326, 227, 185, 242, 216
-0.997331, 301, 205, 316, 236
-0.997331, 41, 205, 56, 236
-0.997333, 157, 197, 172, 228
-0.997338, 135, 69, 150, 100
-0.997341, 223, 197, 238, 228
-0.997341, 285, 185, 300, 216
-0.997349, 193, 1, 224, 236
-0.997359, 207, 197, 222, 228
-0.997369, 151, 173, 166, 204
-0.997372, 25, 65, 40, 96
-0.997373, 217, 197, 232, 228
-0.997385, 31, 161, 46, 192
-0.997386, 93, 93, 108, 124
-0.997388, 75, 205, 90, 236
-0.997388, 51, 177, 66, 208
-0.997397, 233, 1, 264, 236
-0.9974, 101, 117, 116, 148
-0.9974, 11, 69, 26, 100
-0.997401, 249, 161, 264, 192
-0.997402, 7, 57, 22, 88
-0.997402, 17, 73, 32, 104
-0.997404, 37, 173, 52, 204
-0.997405, 41, 153, 56, 184
-0.997405, 173, 173, 188, 204
-0.997408, 69, 197, 84, 228
-0.997408, 61, 157, 76, 188
-0.997413, 141, 153, 156, 184
-0.997419, 203, 185, 218, 216
-0.997424, 7, 85, 22, 116
-0.997425, 215, 185, 230, 216
-0.997436, 145, 45, 272, 76
-0.997443, 205, 81, 220, 112
-0.997456, 131, 185, 146, 216
-0.997474, 109, 177, 124, 208
-0.997478, 55, 85, 70, 116
-0.997479, 137, 165, 152, 196
-0.997479, 235, 161, 250, 192
-0.997481, 163, 173, 178, 204
-0.997483, 107, 81, 122, 112
-0.997508, 1, 89, 16, 120
-0.997513, 143, 197, 158, 228
-0.997515, 193, 61, 320, 92
-0.997522, 19, 205, 34, 236
-0.997525, 157, 173, 172, 204
-0.997526, 15, 57, 30, 88
-0.997534, 101, 89, 116, 120
-0.997539, 159, 149, 174, 180
-0.997542, 45, 1, 76, 236
-0.997552, 273, 157, 288, 188
-0.997676, 81, 17, 208, 48
-0.997926, 161, 1, 192, 236
-0.997927, 69, 1, 100, 236
-0.998106, 193, 21, 320, 52
-0.998274, 245, 1, 276, 236
-0.998336, 49, 5, 176, 36
-0.99834, 57, 177, 120, 192
-0.998342, 97, 173, 160, 188
-0.998344, 265, 1, 296, 236
-0.998368, 129, 1, 256, 32
-0.998388, 241, 183, 304, 198
-0.998394, 89, 187, 152, 202
-0.998398, 201, 187, 264, 202
-0.998407, 201, 173, 264, 188
-0.998412, 73, 91, 136, 106
-0.998414, 169, 179, 232, 194
-0.998414, 257, 177, 320, 192
-0.99842, 17, 113, 80, 128
-0.998422, 33, 207, 96, 222
-0.99843, 209, 181, 272, 196
-0.99843, 233, 173, 296, 188
-0.99843, 241, 189, 304, 204
-0.998431, 137, 189, 200, 204
-0.998432, 89, 207, 152, 222
-0.998433, 33, 187, 96, 202
-0.998437, 17, 135, 80, 150
-0.998439, 169, 139, 232, 154
-0.998441, 49, 95, 112, 110
-0.998443, 241, 207, 304, 222
-0.998445, 25, 141, 88, 156
-0.998445, 73, 171, 136, 186
-0.998447, 129, 173, 192, 188
-0.998447, 17, 177, 80, 192
-0.998448, 145, 135, 208, 150
-0.998449, 9, 191, 72, 206
-0.99845, 105, 181, 168, 196
-0.99845, 113, 59, 176, 74
-0.99845, 17, 69, 80, 84
-0.99845, 121, 209, 184, 224
-0.998452, 17, 107, 80, 122
-0.998452, 137, 151, 200, 166
-0.998455, 145, 207, 208, 222
-0.998456, 57, 153, 120, 168
-0.998457, 9, 89, 72, 104
-0.998461, 129, 141, 192, 156
-0.998462, 185, 207, 248, 222
-0.998462, 49, 195, 112, 210
-0.998462, 41, 171, 104, 186
-0.998466, 33, 147, 96, 162
-0.998467, 57, 187, 120, 202
-0.998468, 17, 171, 80, 186
-0.998472, 17, 79, 80, 94
-0.998472, 57, 143, 120, 158
-0.998473, 113, 191, 176, 206
-0.998475, 57, 211, 120, 226
-0.998476, 97, 89, 160, 104
-0.998478, 169, 113, 232, 128
-0.998483, 57, 165, 120, 180
-0.998484, 49, 87, 112, 102
-0.998485, 89, 61, 152, 76
-0.998485, 209, 209, 272, 224
-0.998486, 129, 65, 192, 80
-0.998487, 97, 149, 160, 164
-0.998488, 177, 173, 240, 188
-0.998488, 17, 121, 80, 136
-0.99849, 9, 171, 40, 186
-0.99849, 17, 99, 80, 114
-0.998491, 285, 167, 316, 182
-0.998491, 105, 139, 168, 154
-0.998492, 57, 137, 120, 152
-0.998492, 13, 187, 44, 202
-0.998492, 249, 207, 280, 222
-0.998493, 17, 59, 80, 74
-0.998494, 9, 201, 72, 216
-0.998494, 97, 165, 128, 180
-0.998494, 177, 187, 240, 202
-0.998494, 41, 147, 72, 162
-0.998494, 149, 133, 180, 148
-0.998495, 13, 141, 44, 156
-0.998495, 9, 43, 72, 58
-0.998496, 169, 133, 232, 148
-0.998497, 45, 83, 76, 98
-0.998497, 1, 81, 32, 96
-0.998498, 57, 197, 88, 212
-0.998498, 17, 161, 80, 176
-0.998499, 61, 141, 92, 156
-0.998499, 285, 215, 316, 230
-0.998499, 265, 187, 296, 202
-0.9985, 81, 93, 112, 108
-0.9985, 29, 211, 60, 226
-0.9985, 89, 67, 152, 82
-0.9985, 1, 35, 64, 50
-0.998501, 29, 151, 60, 166
-0.998502, 25, 127, 88, 142
-0.998502, 201, 79, 232, 94
-0.998503, 149, 145, 180, 160
-0.998503, 1, 91, 32, 106
-0.998503, 233, 131, 264, 146
-0.998503, 69, 151, 100, 166
-0.998503, 97, 167, 160, 182
-0.998504, 185, 127, 216, 142
-0.998504, 77, 187, 108, 202
-0.998505, 41, 159, 72, 174
-0.998505, 41, 127, 72, 142
-0.998506, 97, 109, 128, 124
-0.998506, 129, 73, 160, 88
-0.998507, 81, 137, 144, 152
-0.998508, 73, 97, 136, 112
-0.998508, 133, 51, 164, 66
-0.998508, 257, 181, 288, 196
-0.998509, 5, 165, 36, 180
-0.998509, 181, 1, 212, 236
-0.998509, 17, 153, 80, 168
-0.998509, 29, 179, 60, 194
-0.99851, 1, 73, 32, 88
-0.99851, 233, 79, 264, 94
-0.99851, 49, 137, 80, 152
-0.99851, 53, 95, 84, 110
-0.99851, 161, 145, 192, 160
-0.998511, 17, 215, 48, 230
-0.998512, 49, 81, 112, 96
-0.998512, 57, 159, 120, 174
-0.998512, 85, 143, 116, 158
-0.998513, 81, 211, 112, 226
-0.998513, 141, 173, 172, 188
-0.998514, 169, 147, 232, 162
-0.998514, 9, 221, 72, 236
-0.998514, 169, 177, 200, 192
-0.998514, 97, 181, 128, 196
-0.998516, 25, 213, 88, 228
-0.998516, 137, 183, 200, 198
-0.998517, 25, 59, 56, 74
-0.998518, 209, 193, 272, 208
-0.998519, 57, 63, 120, 78
-0.998519, 169, 119, 232, 134
-0.99852, 5, 195, 36, 210
-0.99852, 109, 183, 140, 198
-0.998521, 77, 171, 108, 186
-0.998521, 233, 85, 264, 100
-0.998522, 97, 75, 160, 90
-0.998522, 13, 75, 44, 90
-0.998523, 25, 157, 56, 172
-0.998523, 129, 173, 160, 188
-0.998523, 29, 221, 60, 236
-0.998524, 213, 79, 244, 94
-0.998524, 117, 85, 148, 100
-0.998524, 129, 183, 160, 198
-0.998525, 41, 61, 72, 76
-0.998525, 41, 195, 72, 210
-0.998525, 257, 167, 320, 182
-0.998525, 169, 133, 200, 148
-0.998525, 1, 111, 32, 126
-0.998526, 49, 187, 80, 202
-0.998526, 41, 171, 72, 186
-0.998527, 5, 177, 36, 192
-0.998527, 233, 175, 264, 190
-0.998528, 53, 113, 84, 128
-0.998528, 209, 79, 272, 94
-0.998529, 201, 187, 232, 202
-0.99853, 57, 115, 120, 130
-0.998531, 105, 97, 168, 112
-0.998531, 49, 207, 80, 222
-0.998531, 73, 85, 136, 100
-0.998532, 257, 197, 320, 212
-0.998534, 65, 131, 128, 146
-0.998534, 105, 133, 168, 148
-0.998535, 169, 125, 232, 140
-0.998535, 169, 107, 232, 122
-0.998536, 1, 141, 64, 156
-0.998536, 169, 153, 232, 168
-0.998537, 245, 181, 276, 196
-0.998537, 121, 67, 152, 82
-0.998537, 213, 85, 244, 100
-0.998538, 113, 157, 176, 172
-0.998539, 201, 135, 264, 150
-0.998539, 225, 167, 288, 182
-0.998539, 257, 213, 320, 228
-0.998539, 89, 55, 152, 70
-0.99854, 85, 127, 116, 142
-0.998541, 13, 87, 44, 102
-0.998544, 9, 207, 72, 222
-0.998545, 249, 173, 280, 188
-0.998545, 97, 187, 128, 202
-0.998546, 97, 87, 128, 102
-0.998546, 9, 59, 40, 74
-0.998546, 89, 193, 152, 208
-0.998546, 49, 57, 112, 72
-0.998546, 21, 173, 52, 188
-0.998547, 289, 205, 320, 220
-0.998547, 25, 187, 56, 202
-0.998547, 257, 161, 320, 176
-0.998548, 57, 153, 88, 168
-0.998549, 257, 145, 320, 160
-0.998549, 177, 119, 208, 134
-0.998549, 209, 207, 240, 222
-0.998549, 137, 119, 200, 134
-0.998549, 9, 185, 72, 200
-0.99855, 49, 101, 112, 116
-0.99855, 9, 67, 40, 82
-0.998552, 285, 187, 316, 202
-0.998553, 213, 173, 244, 188
-0.998554, 145, 129, 208, 144
-0.998554, 9, 147, 72, 162
-0.998554, 41, 77, 72, 92
-0.998555, 89, 99, 120, 114
-0.998555, 145, 189, 176, 204
-0.998555, 25, 37, 56, 52
-0.998557, 89, 213, 152, 228
-0.998557, 5, 35, 36, 50
-0.998558, 85, 137, 116, 152
-0.998558, 57, 69, 120, 84
-0.998559, 129, 113, 192, 128
-0.998559, 117, 173, 148, 188
-0.998559, 121, 215, 184, 230
-0.998559, 41, 181, 72, 196
-0.998559, 61, 161, 92, 176
-0.998559, 201, 167, 264, 182
-0.99856, 41, 67, 72, 82
-0.998561, 149, 207, 180, 222
-0.998562, 117, 79, 148, 94
-0.998562, 81, 181, 144, 196
-0.998562, 73, 79, 136, 94
-0.998562, 97, 83, 160, 98
-0.998565, 121, 53, 184, 68
-0.998566, 153, 173, 216, 188
-0.998566, 61, 207, 92, 222
-0.998567, 33, 201, 96, 216
-0.998567, 121, 197, 184, 212
-0.998567, 17, 221, 48, 236
-0.998568, 249, 187, 280, 202
-0.998568, 161, 83, 224, 98
-0.998571, 209, 85, 272, 100
-0.998571, 201, 151, 264, 166
-0.998575, 37, 137, 68, 152
-0.998575, 97, 131, 128, 146
-0.998577, 201, 73, 264, 88
-0.998577, 209, 141, 272, 156
-0.998577, 177, 9, 304, 40
-0.998578, 29, 199, 60, 214
-0.998578, 41, 153, 72, 168
-0.998578, 57, 121, 120, 136
-0.998579, 21, 69, 52, 84
-0.998581, 241, 131, 304, 146
-0.998582, 57, 217, 120, 232
-0.998583, 133, 139, 164, 154
-0.998583, 285, 173, 316, 188
-0.998584, 121, 57, 152, 72
-0.998584, 61, 171, 92, 186
-0.998585, 93, 93, 124, 108
-0.998586, 243, 65, 258, 192
-0.998586, 17, 193, 48, 208
-0.998588, 61, 181, 92, 196
-0.998588, 157, 151, 188, 166
-0.998591, 45, 49, 60, 176
-0.998593, 213, 189, 244, 204
-0.998595, 233, 189, 264, 204
-0.998595, 77, 97, 92, 224
-0.998597, 29, 131, 60, 146
-0.998598, 193, 181, 224, 196
-0.998599, 129, 189, 160, 204
-0.998601, 229, 207, 260, 222
-0.998607, 1, 1, 16, 128
-0.998613, 269, 181, 300, 196
-0.998615, 53, 33, 68, 160
-0.998616, 129, 209, 160, 224
-0.99862, 265, 173, 296, 188
-0.998624, 181, 177, 212, 192
-0.998629, 61, 187, 92, 202
-0.99863, 157, 139, 188, 154
-0.998644, 289, 1, 320, 236
-0.998645, 85, 177, 116, 192
-0.998646, 91, 49, 106, 176
-0.998647, 15, 17, 30, 144
-0.998649, 101, 171, 132, 186
-0.99866, 201, 173, 232, 188
-0.99866, 39, 65, 54, 192
-0.998666, 213, 183, 244, 198
-0.998669, 127, 49, 142, 176
-0.998671, 233, 183, 264, 198
-0.99869, 15, 113, 30, 236
-0.998692, 249, 113, 264, 236
-0.9987, 37, 113, 52, 236
-0.998703, 241, 113, 256, 236
-0.998705, 285, 179, 316, 194
-0.998705, 191, 113, 206, 236
-0.998714, 235, 113, 250, 236
-0.998716, 35, 17, 50, 144
-0.998717, 27, 17, 42, 144
-0.998719, 203, 81, 218, 208
-0.998742, 63, 97, 78, 224
-0.998746, 83, 81, 98, 208
-0.998747, 55, 97, 70, 224
-0.998747, 9, 113, 24, 236
-0.998748, 11, 65, 26, 192
-0.998752, 91, 97, 106, 224
-0.998756, 237, 65, 252, 192
-0.998762, 161, 1, 176, 128
-0.998765, 109, 97, 124, 224
-0.998767, 275, 113, 290, 236
-0.998767, 7, 17, 22, 144
-0.998769, 257, 97, 272, 224
-0.998772, 249, 65, 264, 192
-0.99878, 281, 113, 296, 236
-0.998794, 183, 97, 198, 224
-0.9988, 103, 65, 118, 192
-0.998804, 119, 65, 134, 192
-0.998816, 33, 65, 48, 192
-0.998817, 193, 33, 320, 64
-0.998828, 265, 97, 280, 224
-0.998831, 1, 49, 16, 176
-0.998831, 209, 81, 224, 208
-0.998835, 101, 113, 116, 236
-0.998844, 129, 113, 144, 236
-0.998856, 305, 97, 320, 224
-0.998865, 137, 113, 152, 236
-0.998876, 151, 1, 166, 128
-0.99888, 197, 113, 212, 236
-0.998884, 287, 113, 302, 236
-0.998891, 133, 33, 148, 160
-0.998891, 177, 113, 192, 236
-0.998892, 165, 113, 180, 236
-0.998894, 17, 65, 32, 192
-0.998902, 63, 49, 78, 176
-0.99891, 47, 113, 62, 236
-0.998916, 159, 113, 174, 236
-0.998922, 23, 65, 38, 192
-0.998925, 215, 81, 230, 208
-0.998958, 231, 65, 246, 192
-0.99897, 143, 113, 158, 236
-0.998982, 193, 49, 320, 80
-0.998983, 21, 17, 36, 144
-0.99899, 153, 113, 168, 236
-0.998998, 71, 113, 86, 236
-0.999001, 1, 5, 128, 36
-0.999006, 41, 1, 56, 128
-0.999007, 139, 65, 154, 192
-0.999021, 1, 113, 16, 236
-0.999046, 145, 1, 160, 128
-0.99905, 97, 33, 112, 160
-0.999055, 293, 97, 308, 224
-0.999064, 205, 33, 220, 160
-0.999073, 123, 113, 138, 236
-0.999075, 299, 113, 314, 236
-0.999088, 127, 1, 142, 128
-0.999096, 225, 65, 240, 192
-0.999101, 171, 113, 186, 236
-0.999104, 139, 17, 154, 144
-0.999112, 47, 1, 62, 128
-0.999128, 227, 113, 242, 236
-0.99913, 151, 65, 166, 192
-0.999133, 115, 113, 130, 236
-0.999139, 31, 113, 46, 236
-0.999186, 157, 49, 172, 176
-0.999195, 21, 113, 36, 236
-0.9992, 75, 49, 90, 176
-0.999213, 241, 17, 256, 144
-0.999218, 197, 65, 212, 192
-0.999227, 233, 17, 248, 144
-0.999229, 85, 33, 100, 160
-0.999232, 167, 1, 182, 128
-0.999234, 109, 49, 124, 176
-0.99927, 247, 17, 262, 144
-0.999281, 227, 17, 242, 144
-0.999298, 103, 17, 118, 144
-0.999301, 257, 33, 272, 160
-0.999307, 121, 1, 136, 128
-0.999312, 211, 17, 226, 144
-0.999319, 145, 65, 160, 192
-0.999319, 115, 17, 130, 144
-0.999324, 69, 49, 84, 176
-0.999335, 305, 49, 320, 176
-0.999352, 221, 1, 236, 128
-0.999353, 277, 65, 292, 192
-0.999353, 185, 49, 200, 176
-0.999359, 277, 1, 308, 236
-0.999376, 173, 49, 188, 176
-0.999397, 195, 17, 210, 144
-0.999398, 285, 65, 300, 192
-0.999407, 191, 65, 206, 192
-0.999408, 167, 65, 182, 192
-0.999414, 271, 65, 286, 192
-0.999418, 59, 1, 74, 128
-0.999473, 291, 33, 306, 160
-0.999476, 221, 113, 236, 236
-0.999494, 299, 65, 314, 192
-0.999504, 265, 49, 280, 176
-0.999524, 91, 1, 106, 128
-0.999535, 65, 1, 80, 128
-0.999636, 109, 1, 124, 128
-0.999639, 297, 17, 312, 144
-0.999644, 179, 49, 194, 176
-0.999663, 173, 1, 188, 128
-0.999668, 217, 189, 232, 204
-0.999669, 137, 207, 152, 222
-0.999669, 185, 177, 200, 192
-0.99967, 53, 187, 68, 202
-0.99967, 179, 177, 194, 192
-0.99967, 235, 131, 250, 146
-0.999671, 135, 71, 150, 86
-0.999671, 75, 207, 90, 222
-0.999671, 289, 205, 304, 220
-0.999671, 121, 73, 136, 88
-0.999671, 55, 75, 70, 90
-0.999672, 111, 81, 126, 96
-0.999672, 247, 131, 262, 146
-0.999672, 23, 189, 38, 204
-0.999672, 71, 187, 86, 202
-0.999672, 1, 107, 16, 122
-0.999673, 301, 215, 316, 230
-0.999673, 199, 121, 214, 136
-0.999674, 127, 75, 142, 90
-0.999674, 223, 189, 238, 204
-0.999675, 137, 189, 152, 204
-0.999675, 11, 97, 26, 112
-0.999675, 17, 97, 32, 112
-0.999676, 25, 67, 40, 82
-0.999676, 11, 87, 26, 102
-0.999676, 13, 71, 28, 86
-0.999676, 159, 53, 174, 68
-0.999677, 45, 125, 60, 140
-0.999678, 49, 59, 64, 74
-0.999678, 277, 183, 292, 198
-0.999679, 183, 117, 198, 132
-0.999679, 81, 153, 96, 168
-0.999679, 39, 205, 54, 220
-0.999679, 7, 67, 22, 82
-0.99968, 219, 173, 234, 188
-0.99968, 261, 175, 276, 190
-0.99968, 19, 219, 34, 234
-0.999681, 55, 109, 70, 124
-0.999681, 45, 65, 60, 80
-0.999681, 211, 189, 226, 204
-0.999682, 63, 171, 78, 186
-0.999683, 11, 81, 26, 96
-0.999684, 143, 137, 158, 152
-0.999684, 29, 169, 44, 184
-0.999684, 51, 195, 66, 210
-0.999685, 33, 199, 48, 214
-0.999685, 29, 157, 44, 172
-0.999685, 7, 203, 22, 218
-0.999686, 119, 79, 134, 94
-0.999688, 13, 59, 28, 74
-0.999688, 143, 173, 158, 188
-0.99969, 175, 147, 190, 162
-0.999692, 305, 171, 320, 186
-0.999692, 261, 181, 276, 196
-0.999692, 151, 207, 166, 222
-0.999692, 147, 189, 162, 204
-0.999693, 141, 167, 156, 182
-0.999694, 37, 179, 52, 194
-0.999694, 69, 181, 84, 196
-0.999694, 225, 173, 240, 188
-0.999695, 101, 91, 116, 106
-0.999695, 193, 177, 208, 192
-0.999695, 269, 173, 284, 188
-0.999696, 251, 189, 266, 204
-0.999697, 255, 173, 270, 188
-0.999698, 35, 69, 50, 84
-0.999699, 249, 175, 264, 190
-0.999699, 1, 71, 16, 86
-0.999699, 101, 135, 116, 150
-0.999699, 61, 163, 76, 178
-0.9997, 243, 175, 258, 190
-0.999701, 101, 181, 116, 196
-0.999701, 239, 189, 254, 204
-0.999701, 237, 207, 252, 222
-0.999701, 199, 115, 214, 130
-0.999702, 79, 179, 94, 194
-0.999703, 51, 201, 66, 216
-0.999703, 295, 177, 310, 192
-0.999703, 181, 123, 196, 138
-0.999703, 301, 221, 316, 236
-0.999703, 213, 173, 228, 188
-0.999703, 153, 143, 168, 158
-0.999705, 205, 111, 220, 126
-0.999706, 35, 189, 50, 204
-0.999706, 55, 97, 70, 112
-0.999706, 61, 187, 76, 202
-0.999708, 163, 135, 178, 150
-0.999709, 53, 135, 68, 150
-0.999709, 225, 207, 240, 222
-0.999709, 245, 181, 260, 196
-0.99971, 289, 187, 304, 202
-0.99971, 1, 89, 16, 104
-0.99971, 55, 65, 70, 80
-0.999711, 101, 171, 116, 186
-0.999711, 61, 207, 76, 222
-0.999712, 39, 199, 54, 214
-0.999712, 221, 181, 236, 196
-0.999713, 35, 153, 50, 168
-0.999714, 279, 173, 294, 188
-0.999714, 33, 135, 48, 150
-0.999716, 49, 207, 64, 222
-0.999717, 203, 173, 218, 188
-0.999717, 7, 103, 22, 118
-0.999718, 189, 117, 204, 132
-0.999718, 93, 95, 108, 110
-0.999719, 233, 173, 248, 188
-0.999722, 209, 183, 224, 198
-0.999724, 109, 171, 124, 186
-0.999725, 53, 115, 68, 130
-0.999727, 79, 1, 94, 128
-0.999729, 77, 187, 92, 202
-0.999729, 233, 183, 248, 198
-0.99973, 199, 179, 214, 194
-0.99973, 61, 181, 76, 196
-0.99973, 133, 173, 148, 188
-0.999732, 301, 179, 316, 194
-0.999734, 205, 81, 220, 96
-0.999734, 33, 127, 48, 142
-0.999734, 283, 179, 298, 194
-0.999735, 251, 183, 266, 198
-0.999735, 285, 17, 300, 144
-0.999735, 289, 177, 304, 192
-0.999736, 43, 191, 58, 206
-0.999739, 79, 171, 94, 186
-0.999742, 229, 189, 244, 204
-0.999745, 183, 1, 198, 128
-0.999748, 215, 181, 230, 196
-0.999763, 239, 183, 254, 198
-0.999764, 127, 57, 142, 72
-0.999766, 107, 87, 122, 102
-0.999769, 107, 131, 122, 146
-0.999771, 181, 139, 196, 154
-0.999775, 227, 183, 242, 198
-0.999793, 275, 17, 290, 144
-0.999798, 73, 1, 88, 128
-0.999833, 305, 1, 320, 128
-0.999841, 263, 1, 278, 128
-0.99985, 189, 1, 204, 128
-0.999852, 269, 1, 284, 128
