1887
-0.415267, 1, 1, 500, 333
-0.418873, 1, 65, 500, 320
-0.496848, 129, 1, 384, 333
-0.54845, 33, 1, 288, 333
-0.586703, 129, 33, 384, 288
-0.672421, 257, 1, 500, 333
-0.692838, 1, 65, 256, 320
-0.790389, 225, 33, 480, 288
-0.871336, 177, 1, 304, 333
-0.873151, 1, 65, 500, 192
-0.878152, 161, 33, 288, 288
-0.882497, 49, 65, 176, 320
-0.883123, 225, 1, 352, 333
-0.884827, 225, 33, 352, 288
-0.8888, 369, 1, 496, 333
-0.896251, 129, 1, 256, 333
-0.903675, 289, 65, 416, 320
-0.904436, 65, 1, 192, 333
-0.904818, 337, 33, 464, 288
-0.90708, 321, 1, 448, 333
-0.909141, 97, 65, 224, 320
-0.912373, 129, 49, 384, 176
-0.913667, 1, 65, 128, 320
-0.920618, 1, 113, 500, 240
-0.924095, 273, 1, 400, 333
-0.926476, 1, 113, 256, 240
-0.932606, 1, 1, 128, 333
-0.939794, 161, 49, 288, 176
-0.941314, 281, 49, 344, 176
-0.94182, 49, 97, 176, 224
-0.94347, 113, 81, 176, 208
-0.943985, 33, 65, 288, 192
-0.944065, 257, 49, 500, 176
-0.94681, 225, 49, 352, 176
-0.950717, 41, 113, 104, 240
-0.951457, 113, 49, 240, 176
-0.95319, 1, 17, 500, 144
-0.954338, 65, 97, 128, 224
-0.954434, 169, 49, 232, 176
-0.95487, 145, 65, 208, 192
-0.955105, 1, 145, 64, 272
-0.955574, 89, 81, 152, 208
-0.956472, 209, 49, 272, 176
-0.95921, 265, 49, 328, 112
-0.959256, 97, 89, 160, 152
-0.960466, 393, 33, 456, 160
-0.960552, 289, 89, 352, 152
-0.960655, 369, 49, 496, 176
-0.960802, 1, 177, 500, 304
-0.961004, 305, 65, 432, 192
-0.961264, 249, 49, 312, 176
-0.961574, 97, 97, 224, 224
-0.962333, 57, 113, 120, 176
-0.964532, 1, 113, 128, 240
-0.964732, 185, 49, 248, 112
-0.964784, 433, 33, 496, 160
-0.965085, 257, 1, 500, 128
-0.965591, 305, 81, 368, 208
-0.966395, 209, 49, 272, 112
-0.966412, 337, 65, 400, 192
-0.966722, 369, 65, 432, 192
-0.967653, 161, 1, 416, 128
-0.968042, 321, 81, 384, 144
-0.968055, 161, 97, 416, 224
-0.968354, 121, 81, 184, 144
-0.968993, 129, 193, 384, 320
-0.969635, 145, 65, 208, 128
-0.969639, 161, 49, 288, 112
-0.970271, 289, 65, 352, 128
-0.970432, 273, 17, 400, 144
-0.970448, 25, 129, 88, 192
-0.97087, 137, 113, 200, 240
-0.971007, 313, 65, 344, 128
-0.971948, 233, 49, 296, 112
-0.972198, 1, 145, 64, 208
-0.973391, 401, 49, 464, 112
-0.975269, 161, 1, 288, 128
-0.975333, 49, 97, 176, 160
-0.975701, 257, 97, 500, 224
-0.975858, 137, 121, 200, 184
-0.976245, 321, 17, 448, 144
-0.976507, 225, 49, 352, 112
-0.976541, 433, 41, 496, 104
-0.976576, 313, 33, 376, 160
-0.976612, 121, 81, 152, 208
-0.976673, 1, 161, 256, 288
-0.977141, 261, 49, 292, 112
-0.977166, 281, 33, 344, 288
-0.97717, 313, 49, 344, 176
-0.977288, 97, 81, 224, 144
-0.977561, 49, 49, 176, 176
-0.977575, 177, 33, 240, 288
-0.977595, 249, 1, 312, 128
-0.978001, 301, 49, 332, 176
-0.978013, 313, 105, 376, 168
-0.978174, 49, 113, 80, 240
-0.978212, 321, 57, 384, 120
-0.97829, 197, 49, 228, 112
-0.978453, 181, 57, 212, 120
-0.978494, 161, 97, 288, 224
-0.978514, 345, 81, 408, 144
-0.97861, 145, 89, 208, 152
-0.97864, 77, 97, 108, 160
-0.978655, 305, 73, 432, 136
-0.97867, 133, 81, 164, 208
-0.978702, 69, 97, 100, 224
-0.978806, 97, 145, 352, 272
-0.97882, 101, 97, 132, 224
-0.978835, 369, 73, 432, 136
-0.978916, 241, 49, 272, 112
-0.979119, 145, 161, 208, 288
-0.979383, 209, 1, 336, 128
-0.979462, 1, 17, 256, 144
-0.97953, 49, 121, 80, 184
-0.979552, 393, 1, 456, 256
-0.979576, 113, 129, 176, 256
-0.980467, 369, 1, 496, 128
-0.980511, 137, 81, 168, 144
-0.980605, 257, 97, 384, 224
-0.980758, 81, 145, 208, 272
-0.980794, 41, 65, 104, 192
-0.981103, 65, 65, 128, 320
-0.981206, 73, 89, 136, 152
-0.981429, 289, 49, 320, 176
-0.981482, 97, 105, 128, 168
-0.981587, 425, 73, 488, 136
-0.981695, 145, 81, 176, 208
-0.981783, 97, 65, 160, 320
-0.981869, 105, 33, 168, 160
-0.981899, 377, 49, 440, 112
-0.982, 1, 81, 64, 208
-0.982011, 65, 105, 96, 168
-0.982023, 273, 49, 304, 176
-0.982084, 417, 1, 480, 256
-0.982335, 241, 73, 368, 136
-0.982389, 297, 57, 328, 120
-0.982503, 17, 121, 144, 184
-0.982593, 185, 49, 216, 176
-0.982662, 185, 1, 248, 128
-0.982916, 113, 121, 176, 184
-0.983061, 121, 65, 184, 320
-0.983091, 145, 17, 208, 144
-0.983166, 89, 113, 152, 176
-0.983189, 217, 1, 280, 128
-0.983201, 225, 33, 288, 288
-0.983238, 157, 65, 188, 192
-0.983311, 353, 57, 480, 120
-0.983327, 41, 65, 104, 320
-0.983327, 113, 89, 144, 152
-0.98344, 241, 49, 272, 176
-0.983595, 317, 89, 348, 152
-0.983642, 393, 81, 456, 208
-0.983679, 197, 49, 228, 176
-0.983721, 145, 33, 208, 288
-0.983867, 329, 65, 392, 320
-0.983872, 113, 57, 240, 120
-0.983932, 169, 49, 200, 176
-0.983966, 201, 33, 264, 288
-0.984064, 1, 145, 32, 272
-0.984242, 185, 1, 248, 333
-0.98431, 25, 145, 56, 208
-0.984404, 129, 153, 192, 216
-0.984455, 165, 65, 196, 128
-0.984457, 345, 81, 376, 208
-0.984468, 281, 49, 312, 112
-0.984482, 257, 33, 320, 288
-0.984554, 65, 49, 128, 176
-0.984701, 337, 81, 368, 144
-0.984743, 413, 33, 444, 160
-0.984934, 161, 113, 224, 240
-0.984976, 225, 25, 288, 88
-0.984997, 377, 49, 408, 176
-0.985051, 153, 73, 184, 136
-0.985179, 229, 49, 260, 176
-0.985203, 369, 17, 432, 144
-0.985294, 169, 73, 232, 136
-0.985333, 405, 49, 436, 112
-0.985363, 213, 49, 244, 112
-0.985547, 357, 81, 388, 208
-0.985578, 273, 209, 336, 333
-0.985651, 425, 33, 456, 160
-0.985659, 9, 153, 40, 216
-0.985665, 33, 153, 96, 216
-0.98569, 25, 145, 56, 272
-0.985718, 249, 25, 312, 88
-0.985751, 353, 33, 416, 288
-0.985858, 325, 81, 356, 208
-0.985875, 201, 25, 264, 88
-0.986034, 261, 49, 292, 176
-0.98613, 89, 97, 120, 224
-0.986178, 265, 1, 328, 333
-0.986243, 337, 105, 400, 168
-0.986318, 397, 33, 428, 160
-0.986368, 229, 49, 260, 112
-0.986419, 337, 105, 368, 168
-0.986439, 145, 177, 272, 304
-0.986508, 305, 41, 432, 104
-0.986534, 209, 49, 240, 176
-0.986539, 273, 1, 336, 128
-0.986593, 353, 89, 384, 152
-0.986647, 393, 73, 456, 136
-0.986663, 37, 113, 68, 240
-0.986754, 209, 1, 272, 333
-0.986787, 425, 1, 488, 333
-0.9868, 161, 73, 288, 136
-0.986816, 465, 33, 496, 160
-0.986995, 241, 129, 304, 192
-0.987058, 49, 89, 112, 152
-0.987106, 97, 121, 224, 184
-0.987141, 89, 129, 152, 256
-0.987146, 65, 137, 128, 200
-0.987151, 37, 129, 68, 192
-0.987204, 265, 89, 328, 152
-0.987352, 125, 89, 156, 152
-0.987417, 401, 1, 464, 333
-0.987473, 305, 65, 368, 320
-0.987513, 273, 97, 400, 160
-0.987684, 13, 145, 44, 272
-0.987742, 289, 113, 352, 176
-0.987878, 145, 185, 208, 248
-0.987905, 161, 1, 224, 333
-0.98795, 321, 113, 448, 240
-0.987979, 385, 73, 416, 136
-0.987983, 409, 25, 472, 88
-0.988024, 225, 145, 480, 272
-0.988037, 241, 209, 368, 333
-0.988067, 241, 73, 304, 136
-0.98809, 329, 113, 392, 240
-0.98811, 1, 145, 128, 208
-0.988163, 153, 161, 216, 224
-0.988202, 281, 97, 344, 224
-0.98828, 77, 121, 108, 184
-0.988284, 201, 201, 264, 264
-0.98848, 137, 41, 200, 104
-0.988505, 161, 65, 416, 128
-0.988531, 89, 137, 152, 200
-0.988559, 297, 193, 360, 320
-0.988791, 265, 53, 328, 84
-0.98891, 373, 73, 404, 136
-0.98892, 289, 89, 352, 120
-0.988933, 1, 65, 128, 192
-0.988967, 353, 81, 480, 144
-0.989227, 289, 1, 352, 333
-0.989249, 113, 1, 176, 333
-0.989285, 161, 129, 224, 192
-0.989315, 33, 177, 160, 304
-0.989375, 361, 241, 424, 304
-0.989383, 97, 1, 224, 128
-0.989405, 449, 41, 480, 104
-0.989415, 113, 93, 176, 124
-0.989425, 33, 209, 288, 333
-0.989465, 241, 1, 304, 333
-0.989495, 1, 81, 500, 144
-0.989502, 185, 177, 248, 240
-0.989507, 81, 209, 208, 333
-0.989518, 417, 81, 480, 208
-0.989528, 453, 33, 484, 160
-0.989559, 209, 53, 272, 84
-0.989674, 33, 193, 96, 320
-0.989686, 337, 17, 400, 144
-0.989807, 165, 113, 196, 240
-0.989822, 397, 81, 428, 144
-0.989919, 49, 121, 112, 152
-0.98992, 145, 77, 208, 108
-0.989989, 321, 93, 384, 124
-0.990021, 369, 1, 432, 333
-0.990024, 333, 57, 364, 120
-0.990051, 441, 33, 472, 160
-0.990105, 105, 209, 168, 272
-0.990128, 301, 193, 332, 320
-0.990166, 73, 105, 136, 136
-0.990171, 425, 41, 456, 104
-0.99019, 177, 61, 240, 92
-0.990305, 173, 89, 204, 152
-0.990357, 405, 265, 436, 328
-0.990375, 81, 65, 144, 128
-0.990449, 261, 25, 292, 88
-0.99045, 177, 25, 240, 88
-0.990469, 321, 81, 384, 112
-0.990497, 465, 57, 496, 120
-0.990529, 289, 101, 352, 132
-0.990687, 97, 145, 224, 208
-0.99075, 193, 25, 320, 88
-0.990817, 33, 141, 96, 172
-0.990886, 385, 25, 448, 88
-0.990887, 465, 33, 496, 96
-0.990919, 393, 69, 456, 100
-0.990925, 9, 149, 72, 180
-0.990935, 333, 33, 364, 160
-0.991043, 273, 273, 400, 333
-0.991068, 293, 1, 324, 128
-0.991088, 1, 57, 500, 120
-0.991127, 329, 105, 392, 136
-0.991148, 249, 25, 280, 88
-0.991155, 289, 77, 352, 108
-0.991185, 337, 1, 400, 333
-0.99123, 369, 33, 496, 96
-0.991265, 241, 53, 304, 84
-0.991403, 281, 65, 344, 96
-0.991467, 297, 97, 328, 160
-0.991558, 145, 65, 208, 96
-0.991573, 401, 265, 464, 328
-0.991599, 369, 69, 432, 100
-0.991633, 49, 109, 112, 140
-0.991649, 121, 81, 184, 112
-0.991652, 69, 145, 100, 208
-0.991676, 345, 93, 408, 124
-0.991689, 161, 97, 288, 160
-0.991699, 425, 57, 488, 88
-0.991706, 145, 121, 208, 152
-0.991787, 225, 201, 288, 264
-0.991818, 305, 209, 432, 333
-0.991831, 321, 257, 448, 320
-0.991848, 97, 105, 160, 136
-0.99185, 265, 89, 328, 120
-0.991895, 433, 69, 496, 100
-0.991904, 369, 93, 432, 124
-0.991929, 185, 49, 248, 80
-0.991933, 153, 113, 184, 176
-0.991959, 133, 33, 164, 160
-0.991966, 81, 49, 112, 176
-0.991984, 1, 113, 256, 176
-0.991993, 401, 53, 464, 84
-0.992004, 137, 1, 200, 333
-0.992062, 221, 1, 252, 128
-0.99207, 325, 113, 356, 176
-0.992072, 145, 209, 208, 333
-0.992084, 1, 113, 500, 176
-0.992094, 129, 157, 192, 188
-0.992104, 417, 277, 480, 308
-0.992132, 49, 65, 80, 192
-0.992135, 361, 81, 424, 112
-0.992141, 105, 161, 168, 224
-0.992145, 145, 89, 208, 120
-0.992145, 329, 257, 392, 320
-0.992153, 401, 81, 464, 112
-0.992193, 377, 277, 440, 308
-0.9922, 137, 129, 168, 192
-0.992201, 305, 185, 368, 248
-0.99221, 169, 73, 232, 104
-0.992216, 89, 93, 152, 124
-0.992242, 249, 41, 312, 72
-0.992248, 441, 65, 472, 128
-0.992274, 201, 205, 264, 236
-0.992309, 17, 65, 80, 320
-0.992309, 225, 41, 288, 72
-0.992314, 9, 137, 72, 168
-0.992345, 389, 49, 420, 112
-0.992348, 377, 57, 440, 88
-0.99235, 161, 129, 288, 192
-0.992357, 181, 61, 212, 92
-0.992359, 193, 193, 256, 320
-0.992401, 185, 193, 248, 224
-0.992409, 101, 81, 132, 144
-0.992416, 89, 81, 120, 144
-0.99242, 233, 197, 296, 228
-0.992425, 113, 57, 176, 120
-0.992437, 153, 157, 216, 188
-0.992438, 125, 129, 156, 256
-0.992473, 377, 273, 440, 333
-0.992483, 113, 141, 176, 172
-0.99249, 1, 121, 64, 184
-0.99251, 181, 33, 212, 96
-0.99254, 261, 53, 292, 84
-0.992541, 433, 97, 496, 160
-0.992545, 321, 61, 384, 92
-0.992564, 313, 193, 344, 320
-0.992565, 145, 145, 208, 176
-0.992567, 145, 109, 208, 140
-0.992569, 241, 53, 272, 84
-0.992601, 33, 153, 96, 184
-0.992612, 329, 117, 392, 148
-0.992612, 337, 289, 400, 320
-0.992648, 69, 113, 100, 144
-0.99265, 433, 81, 496, 112
-0.992651, 193, 57, 224, 88
-0.992654, 453, 65, 484, 128
-0.992669, 333, 89, 364, 120
-0.992676, 121, 129, 184, 160
-0.992685, 137, 85, 168, 116
-0.992691, 169, 65, 200, 96
-0.992693, 101, 105, 132, 136
-0.992696, 305, 113, 368, 144
-0.992698, 393, 41, 456, 72
-0.992699, 249, 1, 280, 128
-0.992706, 81, 101, 112, 132
-0.992706, 417, 289, 480, 320
-0.992713, 353, 277, 416, 308
-0.99272, 121, 93, 152, 124
-0.992738, 317, 93, 348, 124
-0.992742, 241, 73, 304, 104
-0.992751, 205, 53, 236, 84
-0.992758, 105, 157, 168, 188
-0.992758, 393, 289, 456, 320
-0.992763, 81, 121, 144, 152
-0.992767, 401, 265, 464, 296
-0.992778, 73, 141, 136, 172
-0.992779, 153, 77, 184, 108
-0.992786, 393, 93, 456, 124
-0.992798, 273, 53, 304, 84
-0.992823, 65, 153, 128, 184
-0.992827, 233, 201, 264, 264
-0.992857, 261, 1, 292, 128
-0.992862, 289, 53, 320, 84
-0.992865, 317, 81, 348, 112
-0.992869, 145, 133, 208, 164
-0.992871, 369, 257, 432, 288
-0.992881, 333, 109, 364, 140
-0.992887, 89, 1, 152, 333
-0.992889, 277, 1, 308, 128
-0.992894, 293, 89, 324, 120
-0.992896, 169, 85, 232, 116
-0.992896, 433, 37, 496, 68
-0.992913, 125, 153, 156, 216
-0.992917, 393, 109, 456, 140
-0.992933, 305, 49, 368, 80
-0.992933, 65, 161, 128, 224
-0.992942, 121, 113, 184, 144
-0.992953, 49, 125, 80, 156
-0.992959, 305, 197, 368, 228
-0.992961, 145, 197, 208, 228
-0.992971, 361, 241, 424, 272
-0.992971, 349, 97, 380, 128
-0.992973, 169, 97, 232, 160
-0.992979, 297, 277, 360, 308
-0.992981, 21, 149, 52, 180
-0.992996, 301, 201, 332, 264
-0.993001, 401, 241, 464, 272
-0.993006, 229, 53, 260, 84
-0.993018, 181, 73, 212, 104
-0.993025, 33, 209, 160, 272
-0.993027, 153, 129, 184, 256
-0.99304, 169, 77, 200, 108
-0.993047, 105, 213, 168, 244
-0.993049, 313, 69, 344, 100
-0.993068, 1, 161, 64, 192
-0.993075, 37, 137, 68, 168
-0.993079, 9, 153, 40, 184
-0.993081, 121, 229, 184, 260
-0.993083, 257, 193, 320, 224
-0.993096, 353, 49, 416, 112
-0.993115, 153, 113, 184, 144
-0.993125, 313, 289, 376, 320
-0.993132, 217, 53, 248, 84
-0.993146, 317, 105, 348, 136
-0.993154, 417, 61, 448, 92
-0.993161, 441, 277, 472, 308
-0.993164, 433, 105, 496, 136
-0.993173, 441, 73, 472, 104
-0.993177, 153, 177, 216, 208
-0.993181, 301, 57, 332, 88
-0.993189, 233, 205, 264, 236
-0.993189, 9, 113, 72, 144
-0.993191, 289, 209, 352, 240
-0.993196, 109, 93, 140, 124
-0.9932, 369, 89, 400, 120
-0.9932, 433, 93, 496, 124
-0.993203, 33, 205, 96, 236
-0.993207, 453, 277, 484, 308
-0.993219, 249, 137, 312, 168
-0.99322, 153, 153, 184, 184
-0.993229, 329, 277, 392, 308
-0.993231, 461, 65, 492, 96
-0.993235, 141, 157, 172, 188
-0.993237, 241, 149, 304, 180
-0.993242, 125, 157, 156, 188
-0.993243, 9, 193, 72, 320
-0.993253, 65, 89, 128, 120
-0.993255, 273, 25, 304, 88
-0.993256, 305, 209, 336, 240
-0.993259, 241, 25, 368, 88
-0.993261, 85, 113, 116, 144
-0.993271, 397, 253, 428, 284
-0.993275, 257, 65, 288, 96
-0.993288, 353, 105, 416, 136
-0.993293, 401, 53, 432, 84
-0.993295, 157, 65, 188, 96
-0.993296, 413, 281, 444, 312
-0.993305, 313, 1, 344, 128
-0.993307, 437, 61, 468, 92
-0.993307, 401, 77, 432, 108
-0.993317, 405, 65, 436, 96
-0.993318, 249, 41, 280, 72
-0.99332, 41, 165, 104, 196
-0.993322, 417, 49, 448, 80
-0.993324, 461, 85, 492, 116
-0.993324, 389, 85, 420, 116
-0.993325, 221, 205, 252, 236
-0.993326, 69, 149, 100, 180
-0.993329, 181, 49, 212, 80
-0.993332, 405, 269, 436, 300
-0.99334, 49, 153, 80, 184
-0.993341, 337, 77, 368, 108
-0.993341, 425, 277, 456, 308
-0.993342, 425, 77, 456, 108
-0.993349, 161, 61, 288, 92
-0.993349, 169, 145, 232, 176
-0.993358, 161, 45, 224, 76
-0.993358, 153, 17, 184, 144
-0.993359, 457, 53, 488, 84
-0.99336, 465, 277, 496, 308
-0.993371, 17, 125, 80, 156
-0.993373, 157, 93, 188, 124
-0.993374, 393, 29, 456, 60
-0.993374, 81, 125, 112, 156
-0.993376, 377, 69, 408, 100
-0.993376, 61, 161, 92, 192
-0.993382, 57, 113, 88, 144
-0.993382, 217, 65, 280, 96
-0.993382, 169, 117, 232, 148
-0.993385, 297, 193, 328, 224
-0.993386, 349, 81, 380, 112
-0.993386, 93, 93, 124, 124
-0.993393, 33, 149, 64, 180
-0.993395, 137, 301, 200, 332
-0.993396, 389, 277, 420, 308
-0.9934, 97, 33, 224, 96
-0.993402, 317, 197, 348, 228
-0.993407, 269, 41, 300, 72
-0.993408, 313, 265, 376, 296
-0.993411, 33, 221, 96, 252
-0.993413, 265, 301, 328, 332
-0.993414, 233, 1, 264, 128
-0.993415, 401, 253, 464, 284
-0.993423, 469, 49, 500, 80
-0.993423, 441, 289, 472, 320
-0.993424, 305, 89, 336, 120
-0.993431, 453, 289, 484, 320
-0.993432, 49, 169, 80, 200
-0.993433, 173, 113, 204, 144
-0.993436, 401, 89, 432, 120
-0.993438, 65, 165, 128, 196
-0.99344, 369, 289, 432, 320
-0.993452, 429, 289, 460, 320
-0.993454, 417, 257, 448, 288
-0.993458, 245, 65, 276, 96
-0.99346, 137, 209, 200, 240
-0.993463, 25, 101, 88, 132
-0.993467, 153, 125, 184, 156
-0.993469, 129, 233, 192, 296
-0.993473, 445, 41, 476, 72
-0.993474, 237, 41, 268, 72
-0.993474, 165, 153, 196, 184
-0.993477, 69, 101, 100, 132
-0.99348, 89, 81, 152, 112
-0.993481, 301, 101, 332, 132
-0.993482, 221, 41, 252, 72
-0.993486, 345, 109, 376, 140
-0.993487, 33, 201, 96, 264
-0.993493, 125, 81, 156, 112
-0.993495, 397, 41, 428, 72
-0.993496, 465, 37, 496, 68
-0.993498, 465, 289, 496, 320
-0.993499, 305, 33, 368, 96
-0.993501, 333, 121, 364, 152
-0.993503, 185, 293, 248, 324
-0.993504, 57, 237, 88, 268
-0.993505, 305, 129, 368, 256
-0.993505, 173, 97, 204, 128
-0.993506, 385, 101, 416, 132
-0.993506, 369, 273, 496, 333
-0.993507, 97, 297, 160, 328
-0.993508, 133, 133, 164, 164
-0.993508, 345, 285, 376, 316
-0.993509, 137, 97, 168, 128
-0.993515, 289, 129, 352, 160
-0.993528, 145, 153, 176, 216
-0.993529, 133, 145, 164, 176
-0.993529, 25, 237, 88, 268
-0.99353, 305, 273, 368, 333
-0.993531, 173, 165, 204, 196
-0.993532, 429, 49, 460, 80
-0.993535, 241, 193, 272, 224
-0.993535, 133, 213, 164, 244
-0.99354, 449, 85, 480, 116
-0.993541, 209, 41, 240, 72
-0.993542, 137, 73, 168, 104
-0.993543, 433, 37, 464, 68
-0.993546, 333, 285, 364, 316
-0.993548, 281, 41, 312, 72
-0.99355, 397, 241, 428, 272
-0.993551, 389, 57, 420, 88
-0.99356, 65, 229, 128, 260
-0.993565, 33, 193, 96, 224
-0.993568, 165, 141, 196, 172
-0.993573, 249, 125, 312, 156
-0.993575, 169, 101, 232, 132
-0.993575, 145, 169, 176, 200
-0.993579, 357, 285, 388, 316
-0.993579, 113, 161, 144, 192
-0.99358, 469, 105, 500, 136
-0.993583, 41, 181, 104, 212
-0.993584, 421, 37, 452, 68
-0.993589, 333, 65, 364, 96
-0.993591, 393, 265, 424, 296
-0.993595, 193, 69, 224, 100
-0.993595, 129, 53, 192, 84
-0.993613, 225, 209, 288, 240
-0.993631, 273, 145, 400, 272
-0.99364, 361, 221, 424, 252
-0.993653, 289, 289, 352, 320
-0.993661, 401, 301, 464, 332
-0.993676, 169, 133, 232, 164
-0.993682, 97, 197, 160, 228
-0.993682, 281, 149, 344, 180
-0.993707, 1, 137, 256, 200
-0.993708, 17, 73, 144, 136
-0.99371, 161, 41, 416, 104
-0.993719, 225, 61, 352, 92
-0.993756, 169, 153, 200, 216
-0.993765, 57, 201, 120, 264
-0.993768, 105, 49, 136, 176
-0.993847, 9, 1, 72, 333
-0.993866, 225, 97, 352, 160
-0.993913, 209, 1, 240, 128
-0.993948, 257, 209, 500, 333
-0.994015, 41, 1, 104, 333
-0.99404, 293, 33, 324, 96
-0.994084, 225, 129, 352, 192
-0.994085, 433, 17, 496, 80
-0.9941, 129, 57, 160, 120
-0.994162, 257, 57, 500, 120
-0.994199, 21, 97, 52, 224
-0.994201, 319, 65, 334, 128
-0.994209, 181, 1, 212, 128
-0.994224, 137, 129, 168, 256
-0.994229, 389, 81, 420, 208
-0.994287, 165, 129, 196, 192
-0.994323, 257, 129, 320, 256
-0.994353, 229, 25, 260, 88
-0.994374, 437, 33, 468, 96
-0.994397, 201, 25, 232, 88
-0.994401, 329, 73, 344, 136
-0.994405, 233, 193, 296, 320
-0.994433, 269, 49, 284, 112
-0.994441, 5, 97, 36, 224
-0.9945, 49, 145, 176, 208
-0.994509, 1, 89, 256, 152
-0.994524, 65, 169, 192, 232
-0.994529, 393, 97, 456, 160
-0.99456, 305, 73, 432, 104
-0.994569, 257, 153, 320, 216
-0.994569, 365, 97, 396, 160
-0.994652, 401, 241, 464, 304
-0.994652, 257, 33, 500, 96
-0.994665, 193, 49, 320, 80
-0.994679, 57, 153, 88, 216
-0.994708, 413, 73, 444, 136
-0.994723, 25, 81, 88, 144
-0.994746, 49, 109, 176, 140
-0.994753, 113, 193, 240, 256
-0.994779, 233, 177, 296, 240
-0.994779, 145, 209, 208, 272
-0.994793, 81, 97, 208, 128
-0.994851, 253, 49, 268, 112
-0.994852, 177, 65, 192, 128
-0.994857, 357, 65, 388, 128
-0.99487, 67, 113, 82, 176
-0.994886, 65, 233, 192, 296
-0.994937, 313, 57, 328, 120
-0.994945, 65, 81, 96, 144
-0.994966, 193, 209, 320, 333
-0.994996, 193, 1, 224, 128
-0.994998, 187, 57, 202, 120
-0.995034, 121, 33, 152, 160
-0.995035, 313, 201, 344, 264
-0.995054, 253, 73, 284, 136
-0.995061, 149, 73, 164, 136
-0.995062, 445, 81, 476, 208
-0.995082, 103, 105, 118, 168
-0.995097, 313, 1, 376, 333
-0.995109, 369, 97, 400, 224
-0.995132, 273, 201, 336, 264
-0.995203, 221, 201, 252, 264
-0.995206, 65, 1, 128, 333
-0.995215, 321, 105, 448, 168
-0.995259, 201, 49, 216, 112
-0.995318, 49, 49, 176, 112
-0.99532, 365, 33, 396, 160
-0.99537, 113, 85, 240, 116
-0.995372, 249, 273, 312, 333
-0.995374, 263, 49, 278, 112
-0.99539, 113, 193, 176, 320
-0.99543, 257, 161, 384, 224
-0.995437, 393, 265, 424, 328
-0.99544, 225, 273, 352, 333
-0.995453, 305, 153, 432, 216
-0.995466, 353, 33, 384, 160
-0.995495, 305, 33, 336, 96
-0.995509, 65, 65, 320, 128
-0.995532, 173, 177, 204, 304
-0.995534, 53, 161, 84, 288
-0.995541, 301, 49, 316, 112
-0.995579, 301, 97, 332, 224
-0.995621, 79, 105, 94, 168
-0.995636, 185, 81, 216, 144
-0.995638, 291, 49, 306, 112
-0.995644, 273, 25, 336, 88
-0.995653, 217, 25, 248, 88
-0.995675, 195, 65, 210, 128
-0.995687, 153, 49, 184, 112
-0.995712, 91, 97, 106, 160
-0.995713, 429, 65, 460, 128
-0.995729, 337, 233, 464, 296
-0.995753, 217, 73, 280, 136
-0.995763, 183, 81, 198, 144
-0.995807, 97, 89, 352, 152
-0.99582, 117, 65, 148, 128
-0.995853, 289, 89, 416, 120
-0.995891, 35, 145, 50, 208
-0.995929, 353, 265, 416, 328
-0.995931, 177, 161, 304, 224
-0.995942, 215, 49, 230, 112
-0.995947, 307, 57, 322, 120
-0.995964, 185, 113, 216, 240
-0.995981, 405, 81, 436, 208
-0.99599, 61, 121, 76, 184
-0.995995, 321, 129, 448, 192
-0.996016, 279, 49, 294, 112
-0.996036, 437, 257, 468, 320
-0.99605, 113, 137, 144, 200
-0.996068, 433, 273, 496, 333
-0.996096, 47, 129, 62, 192
-0.996115, 13, 153, 28, 216
-0.996119, 233, 49, 248, 112
-0.996122, 1, 97, 128, 160
-0.996139, 113, 145, 144, 272
-0.996169, 185, 145, 248, 272
-0.996206, 125, 129, 156, 192
-0.996218, 137, 89, 152, 152
-0.996231, 243, 49, 258, 112
-0.996241, 5, 129, 36, 192
-0.996244, 33, 121, 160, 152
-0.996257, 339, 113, 354, 176
-0.996266, 53, 121, 68, 184
-0.996267, 161, 273, 288, 333
-0.996271, 225, 49, 240, 112
-0.996273, 17, 137, 144, 168
-0.996314, 113, 73, 240, 104
-0.996327, 121, 89, 136, 152
-0.996331, 233, 193, 264, 320
-0.996352, 33, 65, 64, 192
-0.996367, 353, 277, 480, 308
-0.996367, 131, 89, 146, 152
-0.996392, 285, 49, 300, 112
-0.996411, 273, 273, 336, 333
-0.996414, 73, 113, 88, 176
-0.996433, 241, 73, 368, 104
-0.996441, 111, 97, 126, 160
-0.996448, 97, 129, 352, 192
-0.99646, 145, 25, 272, 88
-0.9965, 257, 89, 500, 152
-0.9965, 21, 121, 52, 184
-0.996523, 411, 257, 426, 320
-0.99656, 133, 201, 164, 264
-0.996566, 377, 49, 408, 112
-0.99657, 143, 89, 158, 152
-0.996577, 305, 57, 432, 88
-0.996596, 317, 273, 348, 333
-0.996598, 97, 105, 112, 168
-0.996627, 353, 73, 480, 104
-0.99663, 165, 41, 196, 104
-0.996641, 113, 169, 240, 232
-0.996648, 177, 89, 192, 152
-0.99665, 353, 85, 480, 116
-0.996657, 41, 137, 56, 200
-0.996661, 329, 97, 344, 160
-0.996686, 71, 153, 86, 216
-0.996707, 61, 49, 92, 176
-0.996708, 41, 177, 104, 240
-0.996713, 237, 201, 252, 264
-0.996714, 339, 81, 354, 144
-0.996718, 1, 161, 16, 224
-0.996722, 17, 169, 144, 232
-0.996733, 321, 209, 384, 333
-0.996735, 415, 41, 430, 104
-0.996739, 337, 233, 400, 296
-0.996747, 361, 193, 424, 320
-0.996757, 309, 97, 324, 160
-0.996798, 181, 61, 196, 92
-0.996819, 1, 149, 128, 180
-0.996829, 479, 73, 494, 136
-0.996852, 233, 129, 296, 256
-0.996853, 289, 185, 416, 248
-0.996857, 297, 209, 360, 272
-0.996876, 19, 153, 34, 216
-0.996882, 57, 225, 120, 288
-0.996893, 53, 89, 84, 152
-0.996893, 305, 17, 432, 80
-0.996917, 317, 33, 348, 288
-0.996923, 315, 201, 330, 264
-0.996943, 169, 193, 232, 320
-0.996948, 317, 177, 348, 240
-0.99695, 29, 145, 44, 208
-0.996968, 209, 49, 224, 112
-0.996971, 369, 97, 432, 160
-0.996996, 7, 153, 22, 216
-0.997042, 217, 129, 280, 192
-0.997042, 33, 241, 96, 304
-0.997047, 159, 81, 174, 144
-0.997048, 161, 73, 288, 104
-0.997089, 337, 289, 464, 320
-0.997104, 85, 105, 100, 168
-0.997106, 353, 61, 480, 92
-0.997108, 249, 129, 280, 192
-0.997119, 261, 73, 276, 136
-0.997147, 185, 33, 216, 288
-0.997156, 465, 41, 480, 104
-0.99716, 257, 257, 500, 320
-0.997172, 257, 209, 384, 272
-0.997206, 417, 257, 432, 320
-0.997207, 65, 41, 320, 104
-0.99721, 421, 49, 436, 112
-0.997212, 401, 25, 432, 88
-0.997225, 427, 41, 442, 104
-0.997226, 187, 61, 202, 92
-0.99723, 33, 161, 288, 224
-0.997249, 171, 73, 186, 136
-0.997254, 321, 145, 352, 272
-0.997256, 157, 161, 188, 224
-0.99727, 89, 209, 152, 333
-0.997284, 345, 97, 360, 160
-0.997287, 289, 233, 416, 296
-0.997288, 473, 41, 488, 104
-0.997288, 483, 49, 498, 112
-0.997292, 241, 89, 368, 120
-0.997306, 305, 101, 432, 132
-0.997308, 337, 129, 368, 192
-0.997312, 409, 41, 424, 104
-0.997316, 399, 65, 414, 128
-0.997319, 381, 97, 412, 160
-0.997331, 263, 25, 278, 88
-0.997336, 77, 73, 108, 136
-0.997357, 241, 49, 368, 80
-0.997366, 193, 57, 208, 88
-0.997377, 187, 73, 202, 104
-0.997417, 97, 129, 224, 160
-0.997427, 473, 73, 488, 136
-0.997434, 69, 65, 100, 320
-0.997462, 93, 49, 124, 176
-0.997484, 449, 1, 480, 256
-0.997492, 113, 61, 240, 92
-0.997493, 253, 53, 268, 84
-0.997508, 387, 65, 402, 128
-0.997518, 289, 145, 352, 208
-0.997526, 145, 49, 272, 80
-0.99753, 113, 225, 240, 288
-0.997555, 149, 85, 164, 116
-0.99756, 185, 161, 216, 288
-0.997562, 193, 41, 208, 104
-0.997569, 433, 41, 448, 104
-0.997581, 467, 65, 482, 128
-0.997586, 315, 89, 330, 152
-0.997593, 303, 81, 318, 144
-0.997596, 459, 41, 474, 104
-0.9976, 355, 89, 370, 152
-0.997634, 77, 137, 92, 200
-0.997635, 81, 257, 208, 320
-0.997636, 161, 265, 224, 328
-0.997637, 177, 73, 192, 104
-0.997641, 157, 105, 172, 168
-0.997643, 49, 1, 176, 128
-0.997645, 327, 73, 342, 104
-0.997647, 271, 53, 286, 84
-0.99766, 173, 33, 204, 288
-0.997667, 401, 209, 432, 333
-0.997668, 261, 61, 276, 92
-0.997671, 221, 209, 252, 333
-0.997696, 289, 45, 416, 76
-0.997697, 205, 25, 220, 88
-0.997711, 421, 1, 452, 256
-0.997714, 137, 65, 168, 320
-0.997723, 337, 209, 464, 272
-0.997725, 217, 153, 280, 216
-0.997745, 439, 33, 454, 96
-0.997746, 413, 65, 428, 128
-0.997758, 173, 121, 188, 184
-0.997804, 79, 109, 94, 140
-0.99781, 157, 177, 188, 304
-0.997818, 229, 33, 260, 288
-0.997825, 141, 57, 156, 120
-0.997846, 45, 137, 60, 168
-0.997855, 341, 65, 372, 320
-0.997855, 307, 33, 322, 96
-0.997857, 257, 105, 384, 136
-0.997859, 405, 89, 420, 152
-0.997861, 361, 217, 424, 280
-0.997864, 297, 33, 328, 288
-0.997864, 375, 73, 390, 136
-0.997874, 273, 129, 400, 192
-0.997876, 313, 89, 328, 120
-0.997879, 307, 89, 322, 120
-0.997883, 105, 185, 168, 248
-0.997883, 129, 117, 256, 148
-0.997884, 161, 201, 288, 264
-0.997887, 89, 105, 104, 136
-0.99789, 211, 53, 226, 84
-0.997891, 441, 57, 456, 120
-0.997891, 101, 65, 132, 320
-0.997894, 405, 65, 420, 128
-0.997897, 75, 145, 90, 176
-0.997897, 105, 81, 120, 144
-0.997899, 253, 25, 268, 88
-0.997901, 409, 1, 440, 256
-0.997901, 279, 25, 294, 88
-0.997911, 369, 89, 384, 152
-0.997913, 1, 217, 256, 280
-0.997919, 89, 129, 120, 192
-0.99792, 289, 273, 416, 304
-0.997922, 123, 93, 138, 124
-0.997924, 199, 57, 214, 88
-0.997925, 405, 265, 420, 328
-0.997932, 269, 25, 284, 88
-0.997933, 393, 73, 408, 136
-0.997936, 157, 193, 188, 256
-0.997936, 165, 73, 180, 136
-0.997937, 445, 33, 460, 96
-0.997937, 381, 73, 396, 136
-0.99794, 485, 73, 500, 136
-0.997943, 281, 33, 312, 288
-0.997944, 285, 25, 300, 88
-0.99795, 103, 105, 118, 136
-0.997953, 149, 33, 180, 288
-0.997956, 201, 33, 232, 288
-0.99796, 293, 145, 324, 272
-0.997961, 177, 41, 192, 104
-0.997963, 137, 153, 152, 216
-0.997968, 245, 33, 276, 288
-0.997968, 259, 49, 274, 80
-0.997971, 241, 177, 272, 240
-0.997975, 397, 241, 428, 304
-0.997976, 51, 129, 66, 160
-0.997983, 1, 161, 16, 192
-0.997984, 329, 93, 344, 124
-0.997987, 235, 201, 250, 232
-0.997988, 315, 205, 330, 236
-0.997995, 361, 89, 376, 152
-0.997998, 179, 121, 194, 184
-0.997999, 257, 33, 288, 288
-0.998001, 167, 105, 182, 168
-0.998001, 451, 49, 466, 112
-0.998002, 289, 289, 416, 320
-0.998007, 81, 201, 144, 264
-0.998014, 139, 89, 154, 120
-0.998015, 365, 241, 396, 304
-0.998016, 135, 129, 150, 192
-0.998016, 217, 33, 248, 288
-0.998022, 1, 193, 256, 256
-0.998022, 469, 1, 500, 256
-0.998025, 157, 77, 172, 108
-0.998034, 113, 65, 144, 320
-0.998035, 265, 129, 328, 192
-0.998035, 187, 105, 202, 168
-0.998039, 325, 49, 340, 112
-0.998044, 479, 97, 494, 160
-0.998047, 361, 25, 424, 88
-0.99805, 131, 65, 146, 128
-0.998051, 337, 57, 352, 120
-0.998055, 97, 141, 224, 172
-0.998062, 427, 65, 442, 128
-0.998065, 245, 25, 260, 88
-0.998073, 337, 113, 352, 144
-0.998075, 35, 149, 50, 180
-0.998077, 245, 53, 260, 84
-0.998083, 373, 33, 404, 288
-0.998083, 447, 73, 462, 136
-0.998085, 349, 73, 364, 136
-0.998088, 359, 65, 374, 128
-0.99809, 483, 25, 498, 88
-0.998092, 187, 33, 202, 96
-0.998095, 225, 25, 240, 88
-0.998095, 237, 25, 252, 88
-0.998096, 269, 33, 300, 288
-0.998096, 295, 25, 310, 88
-0.998107, 221, 53, 236, 84
-0.99811, 125, 65, 156, 320
-0.998111, 167, 137, 182, 200
-0.998112, 57, 125, 72, 156
-0.998118, 11, 157, 26, 188
-0.998126, 299, 53, 314, 84
-0.998141, 389, 33, 420, 288
-0.998143, 417, 257, 448, 320
-0.998144, 147, 129, 162, 192
-0.998146, 161, 249, 288, 312
-0.998147, 283, 53, 298, 84
-0.998151, 293, 53, 308, 84
-0.998154, 231, 53, 246, 84
-0.998156, 129, 93, 144, 124
-0.998161, 269, 129, 284, 192
-0.998161, 1, 137, 500, 200
-0.998164, 69, 153, 84, 184
-0.998171, 395, 97, 410, 160
-0.998172, 231, 193, 246, 256
-0.998173, 49, 81, 176, 112
-0.998175, 125, 65, 140, 128
-0.998175, 129, 193, 384, 256
-0.998179, 157, 57, 172, 120
-0.998185, 23, 153, 38, 184
-0.998202, 237, 53, 252, 84
-0.998206, 417, 49, 432, 80
-0.998207, 171, 73, 186, 104
-0.998221, 193, 69, 208, 100
-0.998229, 305, 53, 320, 84
-0.998229, 423, 57, 438, 88
-0.99824, 115, 101, 130, 132
-0.998264, 205, 57, 220, 88
-0.998269, 413, 25, 444, 88
-0.99827, 415, 269, 430, 300
-0.998271, 277, 53, 292, 84
-0.998277, 339, 89, 354, 120
-0.998283, 343, 109, 358, 140
-0.998288, 45, 65, 76, 320
-0.998291, 143, 77, 158, 108
-0.998301, 453, 77, 484, 92
-0.998302, 157, 93, 188, 108
-0.998303, 365, 97, 396, 112
-0.998303, 385, 293, 416, 308
-0.998304, 409, 87, 440, 102
-0.998304, 369, 87, 400, 102
-0.998304, 401, 75, 432, 90
-0.998305, 165, 153, 196, 168
-0.998305, 53, 163, 84, 178
-0.998306, 309, 275, 340, 290
-0.998306, 221, 211, 252, 226
-0.998307, 137, 81, 168, 96
-0.998307, 341, 293, 372, 308
-0.998309, 409, 49, 440, 64
-0.998309, 433, 295, 464, 310
-0.99831, 437, 61, 468, 76
-0.99831, 289, 103, 320, 118
-0.99831, 301, 103, 332, 118
-0.99831, 133, 157, 164, 172
-0.998311, 369, 283, 400, 298
-0.998311, 157, 107, 188, 122
-0.998312, 173, 165, 204, 180
-0.998312, 421, 287, 452, 302
-0.998312, 65, 111, 96, 126
-0.998314, 421, 295, 452, 310
-0.998315, 173, 105, 204, 120
-0.998315, 405, 57, 436, 72
-0.998316, 165, 83, 196, 98
-0.998316, 177, 85, 208, 100
-0.998316, 397, 255, 428, 270
-0.998316, 57, 143, 88, 158
-0.998316, 249, 49, 280, 64
-0.998318, 81, 123, 112, 138
-0.998318, 417, 63, 448, 78
-0.998319, 97, 153, 224, 184
-0.998319, 409, 249, 424, 280
-0.99832, 345, 111, 376, 126
-0.998321, 373, 293, 404, 308
-0.998321, 173, 113, 204, 128
-0.998324, 377, 79, 408, 94
-0.998325, 277, 55, 308, 70
-0.998326, 153, 99, 184, 114
-0.998326, 293, 201, 324, 216
-0.998327, 461, 71, 492, 86
-0.998327, 161, 129, 288, 160
-0.998328, 101, 111, 132, 126
-0.998328, 389, 275, 420, 290
-0.998329, 349, 89, 380, 104
-0.99833, 63, 117, 78, 148
-0.998331, 317, 109, 348, 124
-0.998331, 393, 91, 424, 106
-0.998333, 417, 69, 448, 84
-0.998334, 311, 61, 326, 92
-0.998334, 153, 113, 184, 128
-0.998335, 425, 77, 456, 92
-0.998336, 433, 287, 464, 302
-0.998336, 345, 105, 376, 120
-0.998338, 145, 157, 176, 172
-0.998339, 305, 69, 336, 84
-0.998341, 469, 287, 500, 302
-0.998343, 413, 275, 444, 290
-0.998344, 113, 165, 144, 180
-0.998346, 89, 113, 120, 128
-0.998346, 57, 125, 88, 140
-0.998348, 313, 75, 344, 90
-0.998353, 65, 169, 96, 184
-0.998354, 145, 87, 176, 102
-0.998355, 29, 149, 60, 164
-0.998355, 449, 67, 480, 82
-0.998358, 261, 49, 292, 64
-0.998363, 197, 55, 228, 70
-0.998363, 221, 53, 252, 68
-0.998363, 41, 135, 72, 150
-0.998365, 181, 57, 212, 72
-0.998366, 301, 85, 316, 116
-0.99837, 333, 81, 364, 96
-0.998371, 453, 287, 484, 302
-0.998372, 269, 193, 300, 320
-0.998373, 393, 243, 424, 258
-0.998373, 353, 99, 384, 114
-0.998375, 301, 63, 332, 78
-0.998377, 393, 285, 424, 300
-0.99838, 437, 75, 468, 90
-0.998383, 113, 101, 144, 116
-0.998388, 137, 95, 168, 110
-0.998389, 69, 117, 84, 148
-0.998389, 453, 277, 468, 308
-0.99839, 57, 217, 88, 280
-0.998391, 125, 163, 156, 178
-0.998397, 413, 281, 444, 296
-0.998397, 65, 145, 128, 272
-0.998398, 17, 153, 48, 168
-0.998398, 401, 81, 432, 96
-0.998398, 381, 281, 412, 296
-0.998399, 333, 111, 364, 126
-0.9984, 249, 71, 280, 86
-0.9984, 265, 273, 296, 333
-0.998401, 97, 99, 128, 114
-0.998404, 389, 85, 420, 100
-0.998404, 161, 85, 288, 116
-0.998405, 1, 159, 32, 174
-0.998405, 331, 105, 346, 136
-0.998405, 301, 207, 332, 222
-0.998406, 333, 87, 364, 102
-0.99841, 149, 81, 180, 96
-0.99841, 177, 77, 208, 92
-0.998411, 449, 281, 480, 296
-0.998413, 193, 67, 224, 82
-0.998414, 297, 97, 328, 112
-0.998414, 261, 71, 292, 86
-0.998417, 433, 281, 464, 296
-0.998417, 157, 119, 188, 134
-0.998419, 333, 93, 364, 108
-0.998421, 253, 55, 284, 70
-0.998421, 313, 207, 344, 222
-0.998422, 89, 65, 120, 320
-0.998423, 221, 205, 252, 220
-0.998423, 461, 69, 476, 100
-0.998428, 151, 73, 166, 104
-0.998429, 401, 279, 432, 294
-0.99843, 161, 33, 192, 288
-0.998432, 261, 65, 292, 80
-0.998435, 209, 55, 272, 70
-0.998435, 175, 61, 190, 92
-0.998441, 289, 55, 320, 70
-0.998443, 265, 49, 280, 80
-0.998443, 317, 85, 348, 100
-0.998445, 461, 281, 492, 296
-0.998445, 233, 207, 264, 222
-0.998445, 297, 91, 328, 106
-0.998447, 133, 89, 164, 104
-0.998448, 317, 65, 332, 96
-0.998448, 257, 55, 320, 70
-0.998449, 281, 93, 344, 108
-0.998451, 333, 105, 364, 120
-0.998452, 437, 1, 468, 256
-0.998455, 29, 149, 44, 180
-0.998457, 41, 143, 72, 158
-0.998458, 49, 157, 176, 188
-0.998459, 403, 85, 418, 116
-0.998467, 177, 85, 192, 116
-0.998467, 413, 65, 428, 96
-0.998469, 265, 129, 296, 192
-0.99847, 113, 95, 176, 110
-0.998471, 249, 63, 280, 78
-0.998473, 121, 93, 152, 108
-0.998474, 69, 165, 84, 196
-0.998474, 333, 99, 364, 114
-0.998475, 209, 55, 240, 70
-0.998476, 93, 105, 124, 120
-0.998479, 309, 101, 324, 132
-0.998485, 161, 77, 192, 92
-0.998488, 317, 91, 348, 106
-0.99849, 317, 103, 348, 118
-0.99849, 57, 121, 120, 136
-0.998496, 65, 117, 96, 132
-0.998497, 305, 101, 368, 116
-0.998499, 411, 49, 426, 80
-0.998499, 17, 153, 32, 184
-0.9985, 255, 65, 270, 96
-0.998501, 313, 95, 376, 110
-0.998507, 169, 65, 232, 80
-0.998509, 241, 277, 368, 308
-0.998511, 77, 113, 108, 128
-0.998515, 241, 153, 368, 184
-0.998515, 177, 97, 192, 128
-0.998515, 57, 115, 120, 130
-0.998516, 109, 101, 124, 132
-0.998522, 193, 61, 224, 76
-0.998527, 73, 107, 136, 122
-0.998527, 319, 89, 334, 120
-0.998531, 317, 97, 348, 112
-0.998532, 181, 69, 212, 84
-0.998533, 337, 101, 352, 132
-0.998536, 241, 205, 256, 236
-0.998539, 369, 49, 496, 80
-0.99854, 145, 75, 208, 90
-0.99854, 57, 65, 88, 320
-0.998543, 289, 107, 352, 122
-0.998545, 241, 55, 272, 70
-0.998548, 265, 55, 296, 70
-0.998551, 145, 81, 208, 96
-0.998552, 49, 127, 112, 142
-0.998553, 141, 57, 172, 120
-0.998558, 385, 281, 448, 296
-0.998558, 281, 99, 344, 114
-0.998558, 185, 59, 248, 74
-0.998558, 113, 101, 176, 116
-0.998559, 317, 41, 348, 104
-0.998561, 321, 87, 384, 102
-0.998561, 261, 73, 276, 104
-0.998563, 423, 69, 438, 100
-0.998565, 265, 61, 328, 76
-0.998566, 95, 101, 110, 132
-0.99857, 329, 105, 392, 120
-0.998571, 459, 277, 474, 308
-0.998571, 257, 233, 500, 296
-0.998571, 9, 153, 72, 168
-0.998573, 353, 97, 368, 128
-0.998574, 163, 73, 178, 104
-0.998576, 477, 93, 492, 124
-0.998577, 293, 177, 324, 240
-0.998577, 169, 71, 200, 86
-0.998578, 41, 133, 104, 148
-0.998579, 417, 281, 480, 296
-0.998581, 33, 147, 96, 162
-0.998582, 113, 89, 176, 104
-0.998582, 361, 281, 424, 296
-0.998584, 33, 257, 160, 320
-0.998584, 441, 281, 456, 312
-0.998584, 409, 69, 472, 84
-0.998587, 439, 61, 454, 92
-0.998588, 417, 77, 432, 108
-0.998589, 381, 265, 412, 328
-0.99859, 353, 209, 480, 333
-0.998592, 409, 261, 424, 292
-0.998593, 447, 281, 462, 312
-0.998595, 137, 89, 200, 104
-0.998595, 281, 71, 344, 86
-0.998597, 333, 129, 364, 256
-0.998597, 289, 87, 352, 102
-0.998598, 329, 81, 392, 96
-0.998602, 63, 153, 78, 184
-0.998608, 145, 125, 208, 140
-0.998609, 169, 71, 232, 86
-0.998609, 129, 153, 384, 216
-0.998609, 1, 159, 64, 174
-0.99861, 485, 277, 500, 308
-0.99861, 169, 201, 232, 264
-0.998611, 145, 65, 208, 80
-0.998613, 377, 71, 440, 86
-0.998617, 201, 207, 264, 222
-0.998618, 377, 79, 440, 94
-0.998619, 367, 93, 382, 124
-0.99862, 177, 63, 208, 78
-0.998627, 445, 69, 460, 100
-0.998628, 401, 81, 464, 96
-0.99863, 129, 97, 256, 128
-0.998633, 309, 205, 324, 236
-0.998633, 289, 77, 352, 92
-0.998635, 329, 65, 360, 320
-0.998635, 409, 63, 472, 78
-0.998636, 153, 157, 168, 188
-0.998636, 97, 45, 224, 76
-0.998637, 233, 55, 296, 70
-0.998637, 433, 287, 496, 302
-0.998637, 225, 65, 288, 80
-0.998638, 397, 85, 412, 116
-0.998638, 89, 101, 152, 116
-0.99864, 145, 105, 208, 120
-0.99864, 467, 57, 482, 88
-0.998641, 249, 71, 312, 86
-0.998642, 435, 281, 450, 312
-0.998642, 145, 115, 208, 130
-0.998644, 433, 71, 496, 86
-0.998646, 225, 207, 288, 222
-0.998651, 401, 75, 464, 90
-0.998651, 321, 111, 384, 126
-0.998654, 369, 265, 496, 296
-0.998655, 233, 201, 296, 216
-0.998655, 81, 107, 112, 122
-0.998656, 137, 177, 168, 304
-0.998658, 153, 95, 216, 110
-0.998659, 433, 65, 496, 80
-0.998663, 337, 93, 400, 108
-0.998663, 41, 141, 104, 156
-0.998664, 337, 99, 400, 114
-0.998664, 321, 75, 384, 90
-0.998664, 297, 209, 360, 224
-0.998665, 361, 85, 424, 100
-0.998669, 161, 59, 224, 74
-0.998669, 97, 107, 160, 122
-0.998671, 225, 71, 288, 86
-0.998672, 235, 213, 250, 244
-0.998672, 483, 93, 498, 124
-0.998673, 377, 91, 440, 106
-0.998673, 455, 69, 470, 100
-0.998673, 297, 285, 360, 300
-0.998674, 401, 287, 464, 302
-0.998675, 337, 293, 400, 308
-0.998675, 49, 107, 112, 122
-0.998677, 9, 137, 72, 152
-0.998678, 185, 201, 248, 216
-0.998678, 389, 81, 404, 112
-0.998679, 417, 295, 480, 310
-0.998679, 401, 51, 464, 66
-0.99868, 169, 113, 232, 128
-0.998681, 177, 77, 240, 92
-0.998681, 361, 275, 424, 290
-0.998682, 129, 159, 192, 174
-0.998683, 393, 45, 456, 60
-0.998683, 305, 203, 368, 218
-0.998684, 81, 119, 144, 134
-0.998684, 393, 275, 456, 290
-0.998684, 137, 131, 200, 146
-0.998685, 361, 253, 424, 268
-0.998685, 33, 153, 96, 168
-0.998687, 225, 49, 288, 64
-0.998688, 433, 59, 496, 74
-0.998689, 185, 53, 248, 68
-0.99869, 81, 95, 144, 110
-0.998691, 337, 279, 400, 294
-0.998691, 409, 87, 472, 102
-0.998692, 81, 113, 144, 128
-0.998692, 265, 207, 328, 222
-0.998693, 321, 257, 448, 288
-0.998694, 257, 103, 320, 118
-0.998695, 73, 157, 136, 172
-0.998695, 433, 81, 496, 96
-0.998695, 33, 159, 96, 174
-0.998696, 249, 131, 312, 146
-0.998698, 329, 119, 392, 134
-0.998699, 433, 43, 496, 58
-0.998699, 385, 65, 448, 80
-0.998699, 289, 291, 352, 306
-0.9987, 249, 49, 312, 64
-0.998701, 153, 165, 216, 180
-0.998702, 401, 57, 464, 72
-0.998702, 393, 295, 456, 310
-0.998702, 257, 201, 320, 216
-0.998703, 337, 285, 400, 300
-0.998704, 257, 195, 320, 210
-0.998706, 33, 121, 96, 136
-0.998706, 313, 63, 376, 78
-0.998706, 49, 169, 112, 184
-0.998707, 145, 195, 208, 210
-0.998707, 289, 65, 352, 80
-0.998708, 313, 293, 376, 308
-0.998708, 369, 243, 432, 258
-0.998708, 305, 279, 368, 294
-0.998708, 353, 79, 416, 94
-0.998709, 193, 67, 256, 82
-0.998709, 353, 65, 384, 320
-0.998712, 305, 55, 368, 70
-0.998712, 201, 213, 264, 228
-0.998712, 377, 59, 440, 74
-0.998712, 121, 233, 184, 248
-0.998713, 153, 159, 216, 174
-0.998713, 401, 257, 464, 272
-0.998714, 453, 289, 468, 320
-0.998714, 321, 69, 384, 84
-0.998715, 393, 117, 456, 132
-0.998715, 377, 287, 440, 302
-0.998716, 121, 113, 184, 128
-0.998716, 169, 89, 232, 104
-0.998725, 161, 249, 416, 312
-0.998727, 429, 281, 444, 312
-0.998728, 407, 73, 422, 104
-0.99873, 361, 277, 376, 308
-0.998742, 187, 49, 202, 80
-0.998743, 421, 277, 436, 308
-0.998746, 133, 81, 148, 112
-0.998747, 161, 273, 416, 333
-0.998748, 177, 109, 192, 140
-0.998755, 405, 277, 420, 308
-0.998757, 269, 129, 300, 256
-0.998758, 431, 49, 446, 80
-0.998761, 33, 97, 160, 128
-0.998772, 477, 277, 492, 308
-0.998773, 269, 65, 284, 96
-0.998777, 127, 157, 142, 188
-0.998779, 429, 69, 444, 100
-0.998779, 321, 145, 448, 176
-0.998782, 413, 281, 428, 312
-0.998782, 371, 285, 386, 316
-0.998784, 347, 93, 362, 124
-0.998785, 193, 273, 256, 333
-0.998787, 315, 49, 330, 176
-0.998793, 333, 81, 348, 112
-0.998802, 65, 233, 192, 264
-0.998806, 179, 129, 194, 160
-0.998807, 435, 77, 450, 108
-0.998808, 377, 77, 392, 108
-0.99881, 345, 285, 360, 316
-0.998811, 449, 81, 464, 112
-0.998814, 415, 257, 430, 288
-0.998816, 117, 89, 132, 120
-0.998818, 353, 301, 480, 332
-0.998863, 97, 197, 224, 228
-0.998865, 97, 169, 224, 200
-0.998894, 305, 113, 432, 144
-0.998895, 303, 49, 318, 176
-0.998895, 49, 177, 80, 240
-0.998911, 241, 233, 368, 296
-0.998913, 65, 145, 96, 272
-0.998915, 241, 185, 368, 248
-0.998919, 329, 65, 344, 192
-0.998924, 401, 209, 464, 333
-0.998926, 145, 145, 272, 176
-0.998929, 49, 217, 176, 248
-0.99894, 281, 97, 312, 224
-0.998944, 177, 49, 192, 176
-0.998946, 123, 81, 138, 208
-0.998963, 145, 81, 160, 208
-0.998964, 97, 181, 224, 212
-0.998972, 75, 97, 90, 224
-0.998972, 165, 1, 196, 128
-0.998976, 57, 241, 88, 304
-0.998986, 281, 273, 312, 333
-0.998999, 185, 49, 200, 176
-0.999009, 137, 81, 152, 208
-0.999009, 33, 105, 64, 168
-0.999012, 1, 109, 128, 140
-0.999016, 113, 97, 128, 224
-0.999022, 145, 177, 176, 240
-0.999025, 33, 65, 64, 320
-0.999043, 129, 81, 144, 208
-0.999047, 305, 157, 432, 188
-0.99906, 177, 181, 304, 212
-0.999076, 291, 49, 306, 176
-0.999082, 193, 277, 320, 308
-0.999085, 269, 49, 284, 176
-0.999088, 105, 97, 120, 224
-0.999114, 321, 49, 336, 176
-0.999123, 145, 197, 272, 228
-0.99913, 33, 205, 160, 236
-0.999132, 241, 141, 368, 172
-0.999136, 337, 185, 464, 248
-0.999136, 197, 49, 212, 176
-0.999136, 253, 49, 268, 176
-0.999147, 151, 81, 166, 208
-0.999149, 283, 49, 298, 176
-0.999151, 309, 49, 324, 176
-0.999151, 1, 145, 16, 272
-0.999156, 43, 129, 58, 256
-0.999162, 53, 113, 68, 240
-0.999163, 397, 105, 428, 168
-0.999163, 63, 113, 78, 240
-0.999177, 1, 265, 256, 328
-0.999183, 65, 69, 192, 100
-0.999189, 275, 33, 290, 160
-0.999189, 353, 97, 480, 128
-0.999191, 247, 49, 262, 176
-0.999196, 213, 49, 228, 176
-0.999199, 235, 49, 250, 176
-0.999207, 177, 157, 304, 188
-0.999213, 241, 293, 368, 324
-0.999215, 389, 49, 404, 176
-0.999218, 99, 97, 114, 224
-0.999219, 337, 97, 352, 224
-0.999226, 241, 193, 368, 224
-0.999228, 289, 301, 416, 332
-0.99923, 35, 145, 50, 272
-0.999235, 157, 65, 172, 192
-0.999235, 81, 97, 96, 224
-0.999238, 209, 97, 336, 224
-0.999242, 225, 113, 480, 176
-0.999242, 315, 193, 330, 320
-0.999243, 69, 97, 84, 224
-0.999244, 419, 33, 434, 160
-0.999251, 203, 49, 218, 176
-0.999251, 321, 241, 448, 272
-0.999255, 297, 49, 312, 176
-0.999257, 433, 33, 448, 160
-0.999271, 141, 225, 172, 288
-0.999279, 257, 117, 384, 148
-0.999284, 413, 33, 428, 160
-0.999286, 65, 57, 192, 88
-0.999292, 229, 33, 244, 160
-0.999292, 15, 145, 30, 272
-0.999294, 225, 37, 352, 68
-0.999297, 21, 33, 52, 288
-0.9993, 457, 33, 472, 160
-0.999305, 241, 49, 256, 176
-0.999307, 219, 49, 234, 176
-0.999309, 9, 145, 24, 272
-0.999312, 21, 145, 36, 272
-0.999313, 471, 33, 486, 160
-0.999315, 427, 33, 442, 160
-0.999317, 353, 81, 368, 208
-0.99933, 145, 273, 272, 304
-0.999343, 465, 33, 480, 160
-0.999344, 17, 173, 144, 204
-0.999345, 1, 241, 256, 304
-0.999349, 27, 145, 42, 272
-0.999349, 193, 293, 320, 324
-0.999355, 163, 65, 178, 192
-0.999365, 369, 121, 496, 184
-0.999366, 383, 49, 398, 176
-0.999366, 359, 81, 374, 208
-0.999381, 177, 37, 304, 68
-0.999382, 443, 33, 458, 160
-0.999384, 477, 33, 492, 160
-0.999386, 171, 65, 186, 192
-0.999387, 485, 17, 500, 144
-0.999391, 343, 97, 358, 224
-0.999394, 367, 81, 382, 208
-0.999396, 259, 49, 274, 176
-0.999396, 225, 129, 352, 160
-0.999398, 137, 105, 168, 168
-0.999407, 407, 49, 422, 176
-0.999413, 373, 81, 388, 208
-0.999413, 321, 225, 448, 256
-0.999414, 191, 65, 206, 192
-0.999415, 1, 33, 500, 96
-0.999428, 305, 133, 432, 164
-0.999428, 81, 301, 208, 332
-0.999429, 147, 33, 162, 160
-0.999445, 177, 97, 192, 224
-0.999454, 5, 33, 36, 288
-0.99946, 433, 81, 464, 208
-0.999463, 307, 1, 322, 128
-0.999465, 45, 201, 76, 264
-0.999465, 193, 145, 320, 272
-0.999468, 451, 33, 466, 160
-0.999485, 9, 217, 72, 280
-0.999485, 161, 225, 416, 288
-0.999487, 401, 65, 416, 192
-0.999496, 293, 273, 324, 333
-0.9995, 339, 49, 354, 176
-0.999501, 87, 97, 102, 224
-0.999505, 281, 129, 312, 192
-0.999505, 113, 49, 128, 176
-0.999508, 241, 1, 256, 128
-0.999509, 313, 1, 328, 128
-0.999519, 327, 17, 342, 144
-0.999519, 165, 129, 180, 256
-0.999524, 395, 49, 410, 176
-0.999525, 133, 177, 164, 240
-0.999529, 309, 209, 324, 333
-0.999535, 321, 209, 336, 333
-0.999535, 113, 229, 240, 260
-0.999537, 269, 71, 284, 86
-0.999537, 267, 49, 282, 64
-0.999537, 401, 285, 416, 300
-0.999538, 431, 279, 446, 294
-0.999538, 185, 59, 200, 74
-0.999539, 303, 85, 318, 100
-0.999541, 73, 153, 88, 168
-0.999541, 413, 65, 428, 80
-0.999542, 177, 117, 304, 148
-0.999542, 137, 33, 152, 160
-0.999543, 149, 91, 164, 106
-0.999543, 237, 193, 252, 320
-0.999543, 55, 143, 70, 158
-0.999543, 183, 163, 198, 178
-0.999545, 127, 163, 142, 178
-0.999545, 485, 297, 500, 312
-0.999545, 187, 113, 202, 128
-0.999545, 43, 145, 58, 160
-0.999547, 425, 281, 440, 296
-0.999547, 337, 97, 352, 112
-0.999547, 63, 65, 78, 192
-0.999547, 419, 59, 434, 74
-0.999549, 413, 263, 428, 278
-0.999549, 401, 87, 416, 102
-0.99955, 421, 67, 436, 82
-0.999551, 329, 81, 344, 96
-0.999552, 231, 207, 246, 222
-0.999553, 105, 49, 120, 176
-0.999554, 109, 105, 124, 120
-0.999554, 177, 93, 192, 108
-0.999554, 395, 275, 410, 290
-0.999554, 143, 91, 158, 106
-0.999555, 383, 283, 398, 298
-0.999555, 141, 83, 156, 98
-0.999556, 257, 177, 320, 240
-0.999556, 289, 55, 304, 70
-0.999556, 93, 97, 108, 224
-0.999557, 479, 105, 494, 120
-0.999557, 173, 119, 188, 134
-0.999557, 77, 145, 92, 160
-0.999559, 337, 81, 352, 96
-0.999559, 247, 55, 262, 70
-0.99956, 283, 55, 298, 70
-0.999561, 227, 55, 242, 70
-0.999562, 203, 53, 218, 68
-0.999562, 251, 1, 266, 128
-0.999563, 191, 1, 206, 128
-0.999563, 441, 281, 456, 296
-0.999563, 409, 253, 424, 268
-0.999564, 313, 213, 328, 228
-0.999564, 237, 211, 252, 226
-0.999564, 337, 87, 352, 102
-0.999565, 407, 83, 422, 98
-0.999565, 319, 95, 334, 110
-0.999566, 299, 55, 314, 70
-0.999566, 257, 71, 272, 86
-0.999567, 289, 209, 320, 333
-0.999567, 309, 207, 324, 222
-0.999568, 253, 65, 268, 80
-0.999568, 221, 55, 236, 70
-0.999568, 21, 155, 36, 170
-0.999569, 241, 55, 256, 70
-0.999569, 61, 123, 76, 138
-0.999571, 55, 127, 70, 142
-0.999572, 313, 63, 328, 78
-0.999572, 319, 67, 334, 82
-0.999572, 309, 105, 324, 120
-0.999574, 403, 241, 418, 256
-0.999574, 223, 1, 238, 128
-0.999575, 339, 109, 354, 124
-0.999578, 27, 153, 42, 168
-0.999578, 261, 1, 276, 128
-0.999578, 195, 55, 210, 70
-0.999579, 419, 277, 434, 292
-0.999579, 269, 65, 284, 80
-0.99958, 1, 85, 128, 116
-0.99958, 329, 107, 344, 122
-0.999581, 285, 1, 300, 128
-0.999581, 9, 159, 24, 174
-0.999584, 389, 281, 404, 296
-0.999584, 209, 57, 224, 72
-0.999585, 69, 165, 84, 180
-0.999585, 305, 57, 320, 72
-0.999585, 3, 161, 18, 176
-0.999585, 447, 281, 462, 296
-0.999585, 317, 101, 332, 116
-0.999586, 309, 97, 324, 224
-0.999588, 161, 225, 288, 288
-0.999589, 233, 53, 248, 68
-0.99959, 37, 149, 52, 164
-0.99959, 299, 1, 314, 128
-0.99959, 411, 281, 426, 296
-0.999591, 161, 75, 176, 90
-0.999591, 49, 185, 176, 216
-0.999593, 51, 133, 66, 148
-0.999594, 329, 89, 344, 104
-0.999594, 101, 137, 132, 200
-0.999595, 15, 157, 30, 172
-0.999595, 115, 101, 130, 116
-0.999595, 93, 111, 108, 126
-0.999598, 43, 81, 58, 208
-0.999598, 57, 209, 120, 333
-0.999599, 41, 177, 72, 304
-0.999599, 339, 103, 354, 118
-0.9996, 235, 1, 250, 128
-0.999601, 71, 159, 86, 174
-0.999602, 179, 1, 194, 128
-0.999602, 327, 75, 342, 90
-0.999603, 405, 279, 420, 294
-0.999603, 481, 281, 496, 296
-0.999604, 157, 113, 172, 240
-0.999605, 5, 97, 20, 224
-0.999606, 455, 281, 470, 296
-0.999606, 211, 1, 226, 128
-0.99961, 103, 107, 118, 122
-0.999611, 183, 129, 198, 256
-0.999612, 81, 107, 96, 122
-0.999612, 67, 119, 82, 134
-0.999613, 475, 281, 490, 296
-0.999613, 33, 97, 48, 224
-0.999615, 121, 97, 136, 112
-0.999616, 329, 101, 344, 116
-0.999616, 69, 145, 84, 272
-0.999617, 137, 89, 152, 104
-0.999617, 467, 281, 482, 296
-0.999618, 275, 51, 290, 66
-0.999619, 307, 91, 322, 106
-0.999619, 177, 125, 192, 140
-0.99962, 311, 97, 326, 112
-0.999621, 203, 1, 218, 128
-0.999622, 337, 115, 352, 130
-0.999623, 303, 97, 318, 112
-0.999623, 291, 1, 306, 128
-0.999624, 215, 55, 230, 70
-0.999628, 395, 281, 410, 296
-0.999629, 11, 97, 26, 224
-0.99963, 347, 49, 362, 176
-0.999632, 461, 281, 476, 296
-0.999636, 129, 289, 256, 320
-0.999636, 169, 75, 184, 90
-0.999636, 313, 91, 328, 106
-0.999639, 57, 65, 72, 192
-0.999639, 185, 185, 216, 248
-0.99964, 171, 129, 186, 256
-0.99964, 21, 97, 36, 224
-0.999641, 263, 71, 278, 86
-0.999643, 273, 181, 400, 212
-0.999644, 217, 1, 232, 128
-0.999645, 131, 33, 146, 160
-0.999646, 361, 33, 376, 160
-0.999651, 155, 81, 170, 96
-0.999656, 47, 139, 62, 154
-0.999659, 27, 97, 42, 224
-0.999661, 447, 81, 462, 208
-0.999662, 371, 33, 386, 160
-0.999663, 401, 17, 416, 144
-0.999664, 137, 129, 152, 256
-0.999667, 183, 75, 198, 90
-0.999668, 95, 49, 110, 176
-0.99967, 175, 71, 190, 86
-0.999671, 121, 145, 136, 272
-0.999673, 203, 59, 218, 74
-0.999674, 329, 95, 344, 110
-0.999674, 267, 1, 282, 128
-0.999683, 33, 17, 288, 80
-0.999687, 127, 93, 142, 108
-0.999689, 179, 81, 194, 96
-0.99969, 77, 113, 92, 128
-0.999693, 321, 1, 336, 128
-0.999696, 147, 85, 162, 100
-0.999699, 121, 33, 136, 160
-0.999699, 75, 49, 90, 176
-0.999699, 87, 107, 102, 122
-0.9997, 253, 55, 268, 70
-0.9997, 195, 67, 210, 82
-0.999706, 69, 49, 84, 176
-0.999706, 261, 65, 276, 80
-0.999706, 315, 205, 330, 220
-0.999708, 229, 209, 244, 333
-0.999714, 261, 55, 276, 70
-0.999715, 177, 169, 304, 200
-0.999718, 241, 265, 368, 296
-0.999718, 225, 9, 480, 72
-0.999718, 127, 129, 142, 256
-0.999723, 145, 129, 160, 256
-0.999725, 269, 55, 284, 70
-0.999725, 337, 169, 464, 200
-0.999727, 377, 33, 392, 160
-0.999728, 85, 49, 100, 176
-0.999729, 185, 177, 200, 304
-0.999736, 197, 61, 212, 76
-0.999737, 189, 71, 204, 86
-0.999737, 369, 33, 496, 64
-0.999753, 93, 105, 108, 120
-0.999754, 97, 253, 224, 284
-0.999763, 209, 101, 336, 132
-0.999765, 237, 205, 252, 220
-0.999766, 191, 61, 206, 76
-0.999778, 17, 297, 144, 328
-0.999794, 369, 241, 496, 272
-0.999797, 181, 65, 196, 80
-0.999819, 241, 129, 272, 256
-0.999823, 97, 273, 224, 304
-0.999824, 257, 165, 384, 196
-0.99984, 113, 217, 240, 248
-0.99984, 61, 177, 92, 240
-0.999853, 113, 241, 240, 272
-0.999855, 161, 257, 288, 288
-0.999859, 173, 201, 204, 264
-0.999871, 241, 97, 304, 160
-0.999882, 209, 209, 336, 272
-0.999884, 345, 249, 376, 312
-0.999885, 417, 81, 448, 208
-0.999891, 369, 121, 496, 152
-0.999896, 185, 137, 248, 200
-0.999898, 333, 265, 364, 328
-0.999899, 81, 289, 208, 320
-0.999913, 413, 233, 444, 296
-0.999928, 321, 181, 448, 212
-0.999938, 273, 205, 400, 236
-0.999958, 1, 233, 128, 296
-0.999963, 17, 285, 144, 316
-0.999974, 33, 245, 160, 276
-0.999979, 369, 9, 496, 72
-0.999979, 217, 177, 248, 240
-0.999985, 305, 249, 368, 312
-0.999992, 305, 193, 432, 224
-0.999998, 1, 161, 128, 192
-0.999998, 369, 229, 496, 260
-0.999998, 121, 209, 152, 272
-1.00002, 305, 273, 336, 333
-1.00006, 337, 201, 400, 264
-1.00006, 369, 97, 496, 224
-1.00008, 1, 273, 500, 333
-1.0001, 257, 241, 384, 272
-1.0001, 401, 217, 464, 280
-1.0001, 129, 301, 256, 332
-1.00012, 17, 273, 144, 304
-1.00014, 321, 213, 448, 244
-1.00014, 17, 229, 144, 260
-1.00015, 209, 205, 336, 236
-1.00016, 161, 241, 288, 272
-1.00019, 193, 193, 320, 224
-1.00019, 369, 213, 496, 244
-1.00021, 1, 217, 128, 248
-1.00024, 225, 177, 352, 208
-1.00024, 369, 21, 496, 52
-1.00024, 369, 133, 496, 164
-1.00024, 49, 261, 176, 292
-1.00025, 1, 233, 500, 296
-1.00026, 1, 189, 128, 220
-1.00026, 369, 253, 496, 284
-1.00028, 257, 253, 384, 284
-1.00028, 321, 33, 448, 64
-1.00029, 193, 141, 320, 172
-1.0003, 113, 33, 240, 64
-1.00032, 369, 153, 496, 216
-1.00032, 161, 209, 288, 240
-1.00033, 1, 169, 500, 232
-1.00033, 137, 273, 200, 333
-1.00036, 273, 217, 400, 248
-1.00037, 353, 109, 480, 140
-1.00047, 225, 137, 480, 200
-1.00049, 433, 249, 496, 312
-1.0005, 257, 209, 500, 272
-1.00054, 57, 65, 120, 128
-1.00059, 225, 185, 480, 248
-1.00062, 461, 81, 492, 208
-1.00071, 17, 177, 80, 240
-1.00076, 101, 145, 132, 272
-1.00084, 337, 145, 400, 208
-1.00087, 337, 177, 400, 240
-1.00087, 381, 1, 412, 128
-1.00089, 361, 121, 424, 184
-1.00096, 381, 209, 412, 333
-1.00097, 225, 273, 288, 333
-1.00099, 1, 201, 500, 264
-1.00103, 257, 129, 288, 256
-1.00104, 353, 113, 416, 240
-1.00109, 337, 161, 464, 288
-1.00115, 281, 145, 312, 272
-1.00123, 153, 233, 216, 296
-1.00125, 245, 177, 276, 304
-1.00127, 161, 1, 288, 64
-1.00133, 313, 97, 344, 224
-1.00135, 257, 161, 500, 224
-1.00135, 73, 273, 136, 333
-1.00139, 129, 17, 384, 80
-1.00141, 185, 97, 248, 224
-1.00159, 413, 209, 444, 333
-1.00159, 257, 1, 384, 64
-1.0016, 341, 209, 372, 333
-1.00184, 65, 209, 96, 333
-1.00186, 57, 249, 120, 312
-1.00187, 53, 209, 84, 333
-1.0019, 25, 273, 88, 333
-1.002, 257, 177, 288, 304
-1.0021, 345, 129, 376, 256
-1.00213, 193, 73, 256, 136
-1.00215, 125, 177, 156, 304
-1.00221, 1, 9, 500, 72
-1.00228, 1, 97, 64, 160
-1.0023, 273, 249, 336, 312
-1.00232, 105, 233, 168, 296
-1.00234, 209, 97, 272, 160
-1.00236, 113, 273, 176, 333
-1.00251, 329, 209, 360, 333
-1.00253, 313, 129, 376, 192
-1.00262, 401, 121, 464, 184
-1.00264, 313, 153, 376, 216
-1.00264, 29, 193, 60, 320
-1.00265, 401, 161, 464, 288
-1.0028, 185, 249, 248, 312
-1.00284, 217, 145, 248, 272
-1.00287, 49, 25, 176, 88
-1.0029, 101, 209, 132, 333
-1.00291, 1, 1, 128, 64
-1.00291, 49, 1, 176, 64
-1.00291, 1, 25, 128, 88
-1.00299, 97, 9, 224, 72
-1.00314, 189, 209, 220, 333
-1.00317, 209, 1, 336, 64
-1.00331, 353, 209, 384, 333
-1.00342, 113, 193, 144, 320
-1.00369, 1, 17, 128, 144
-1.00377, 397, 161, 428, 288
-1.00396, 77, 193, 108, 320
-1.00401, 425, 209, 456, 333
-1.00445, 1, 49, 128, 112
-1.00457, 369, 193, 400, 320
-1.00458, 77, 145, 108, 272
-1.00505, 309, 145, 340, 272
-1.00513, 377, 129, 440, 256
-1.00517, 281, 145, 344, 272
-1.00517, 381, 145, 412, 272
-1.00534, 205, 145, 236, 272
-1.00535, 109, 1, 140, 128
-1.0054, 201, 209, 232, 333
-1.00547, 413, 161, 444, 288
-1.00564, 89, 177, 120, 304
-1.00573, 197, 97, 228, 224
-1.00574, 209, 129, 272, 256
-1.00592, 425, 161, 456, 288
-1.00616, 329, 161, 392, 288
-1.00627, 229, 129, 260, 256
-1.00708, 425, 129, 488, 256
-1.00712, 441, 129, 472, 256
-1.00714, 357, 129, 388, 256
-1.0073, 433, 193, 496, 320
-1.00801, 41, 17, 104, 144
-1.009, 17, 33, 80, 160
-1.00987, 81, 1, 144, 128
