1886
-0.288754, 1, 1, 500, 333
-0.335553, 1, 65, 500, 320
-0.518926, 225, 1, 480, 333
-0.586575, 1, 1, 256, 333
-0.612638, 97, 1, 352, 333
-0.706097, 193, 1, 448, 256
-0.72946, 1, 1, 256, 256
-0.758588, 97, 65, 352, 320
-0.86003, 1, 129, 500, 256
-0.865077, 337, 1, 464, 333
-0.865871, 81, 1, 208, 333
-0.88303, 241, 1, 368, 333
-0.885475, 1, 177, 500, 304
-0.885753, 289, 65, 416, 320
-0.887425, 369, 65, 496, 320
-0.891104, 81, 1, 208, 256
-0.89385, 1, 1, 128, 333
-0.89396, 289, 1, 416, 333
-0.90061, 1, 1, 128, 256
-0.90383, 129, 65, 256, 320
-0.906514, 1, 1, 500, 128
-0.90888, 1, 81, 500, 208
-0.910847, 257, 161, 500, 288
-0.911484, 193, 1, 320, 333
-0.912317, 225, 1, 352, 256
-0.922365, 177, 65, 304, 320
-0.925303, 33, 145, 288, 272
-0.926153, 321, 129, 448, 256
-0.928338, 129, 1, 256, 333
-0.930271, 129, 129, 384, 256
-0.934559, 321, 129, 384, 256
-0.935162, 1, 193, 256, 320
-0.935846, 377, 129, 440, 256
-0.935856, 345, 145, 408, 272
-0.935961, 417, 161, 480, 288
-0.936592, 49, 129, 176, 256
-0.939749, 369, 193, 496, 320
-0.939967, 273, 129, 400, 256
-0.940003, 73, 129, 136, 256
-0.943743, 225, 113, 480, 240
-0.943859, 321, 137, 384, 200
-0.944205, 393, 177, 456, 304
-0.946064, 305, 177, 432, 304
-0.947341, 33, 97, 288, 224
-0.948179, 97, 161, 160, 288
-0.948363, 97, 145, 224, 272
-0.950056, 369, 145, 496, 272
-0.951445, 145, 129, 272, 256
-0.951668, 129, 81, 384, 208
-0.952005, 73, 177, 136, 304
-0.952037, 361, 137, 424, 200
-0.952454, 1, 129, 128, 256
-0.95278, 97, 193, 352, 320
-0.95365, 193, 97, 256, 224
-0.953718, 257, 1, 500, 128
-0.95375, 433, 209, 496, 333
-0.954002, 297, 129, 360, 256
-0.954075, 321, 81, 384, 208
-0.95415, 241, 177, 368, 304
-0.954216, 425, 201, 488, 264
-0.954301, 225, 65, 480, 192
-0.954522, 89, 177, 152, 240
-0.95457, 49, 177, 176, 304
-0.954592, 1, 49, 256, 176
-0.955031, 129, 161, 192, 288
-0.955401, 401, 209, 464, 272
-0.955713, 257, 209, 500, 333
-0.955959, 313, 161, 376, 224
-0.956198, 377, 177, 440, 240
-0.956831, 209, 113, 336, 240
-0.957028, 65, 185, 128, 248
-0.957445, 361, 81, 424, 208
-0.95786, 105, 1, 168, 128
-0.957972, 121, 161, 184, 224
-0.958675, 257, 81, 384, 208
-0.958714, 337, 161, 400, 224
-0.958804, 401, 177, 464, 240
-0.958875, 385, 1, 448, 128
-0.959451, 97, 193, 224, 320
-0.959491, 49, 129, 112, 256
-0.960207, 1, 177, 128, 304
-0.960209, 41, 193, 104, 256
-0.960319, 321, 177, 384, 304
-0.960405, 369, 177, 432, 304
-0.961894, 169, 113, 232, 240
-0.962035, 369, 201, 432, 264
-0.962303, 385, 137, 448, 200
-0.962412, 281, 81, 344, 208
-0.962707, 49, 1, 176, 128
-0.96297, 97, 1, 352, 128
-0.96324, 153, 161, 216, 288
-0.96324, 369, 81, 496, 208
-0.963711, 145, 185, 208, 248
-0.963837, 105, 209, 168, 333
-0.964136, 25, 129, 88, 256
-0.964305, 185, 113, 248, 176
-0.964341, 345, 193, 408, 320
-0.964426, 433, 225, 496, 288
-0.964962, 97, 153, 160, 216
-0.965358, 369, 1, 496, 128
-0.965395, 65, 1, 128, 128
-0.965435, 321, 81, 448, 208
-0.965806, 321, 137, 448, 200
-0.966456, 97, 97, 224, 224
-0.966867, 105, 113, 168, 240
-0.967015, 65, 161, 128, 224
-0.967617, 305, 1, 432, 128
-0.967724, 329, 153, 360, 216
-0.967903, 121, 185, 184, 248
-0.968181, 349, 137, 380, 200
-0.968571, 169, 177, 232, 240
-0.969097, 193, 161, 320, 288
-0.969139, 57, 129, 120, 192
-0.969186, 345, 185, 408, 248
-0.969196, 97, 201, 160, 264
-0.969524, 417, 49, 480, 176
-0.969666, 49, 169, 176, 232
-0.969699, 417, 153, 480, 216
-0.969795, 113, 17, 176, 80
-0.970003, 321, 185, 384, 248
-0.970016, 297, 17, 360, 144
-0.970204, 369, 201, 496, 264
-0.970513, 321, 177, 448, 240
-0.970583, 297, 177, 360, 304
-0.971096, 297, 137, 360, 200
-0.971716, 361, 65, 424, 320
-0.971823, 65, 9, 128, 72
-0.971866, 297, 49, 360, 112
-0.971932, 1, 1, 256, 128
-0.97209, 1, 1, 128, 128
-0.972195, 409, 113, 472, 240
-0.972365, 357, 129, 388, 256
-0.972569, 385, 233, 448, 296
-0.972584, 281, 161, 344, 224
-0.972588, 413, 161, 444, 288
-0.972591, 409, 177, 440, 240
-0.972601, 361, 137, 392, 200
-0.972637, 105, 161, 136, 288
-0.972738, 193, 65, 320, 192
-0.973072, 409, 1, 472, 128
-0.973205, 345, 209, 408, 272
-0.973249, 49, 81, 176, 208
-0.973495, 97, 49, 224, 176
-0.973546, 453, 201, 484, 264
-0.973662, 145, 177, 272, 304
-0.973842, 145, 153, 208, 216
-0.974087, 129, 1, 192, 128
-0.974223, 289, 185, 352, 248
-0.974277, 49, 193, 176, 256
-0.974304, 49, 177, 112, 304
-0.974428, 385, 65, 448, 320
-0.974718, 89, 25, 152, 88
-0.974769, 325, 129, 356, 192
-0.974783, 117, 169, 148, 232
-0.975015, 145, 209, 208, 272
-0.975109, 273, 145, 336, 272
-0.975114, 73, 217, 136, 280
-0.97514, 429, 201, 460, 264
-0.975169, 429, 161, 460, 288
-0.975227, 381, 129, 412, 256
-0.975505, 193, 161, 256, 224
-0.975541, 345, 129, 376, 256
-0.975569, 201, 113, 232, 176
-0.97563, 401, 161, 432, 288
-0.975748, 97, 177, 224, 240
-0.97583, 329, 129, 360, 256
-0.976012, 25, 153, 88, 216
-0.976055, 337, 113, 400, 176
-0.976427, 329, 177, 360, 240
-0.976506, 97, 153, 224, 216
-0.976516, 377, 113, 440, 176
-0.976637, 89, 1, 152, 256
-0.976678, 121, 209, 184, 272
-0.976744, 409, 209, 440, 272
-0.976857, 9, 129, 72, 192
-0.976872, 241, 161, 304, 288
-0.976927, 373, 137, 404, 200
-0.976981, 337, 129, 368, 192
-0.976987, 441, 209, 472, 272
-0.977044, 369, 129, 400, 256
-0.977054, 321, 57, 384, 120
-0.977215, 385, 81, 448, 208
-0.977299, 41, 217, 104, 280
-0.977349, 241, 153, 368, 216
-0.977399, 105, 177, 136, 240
-0.977399, 273, 209, 336, 333
-0.977404, 313, 209, 376, 272
-0.977408, 97, 201, 224, 264
-0.977457, 369, 177, 496, 240
-0.977586, 417, 65, 480, 320
-0.977691, 305, 209, 432, 272
-0.977722, 409, 137, 440, 200
-0.977817, 317, 153, 348, 216
-0.978104, 469, 217, 500, 280
-0.978205, 389, 185, 420, 248
-0.978229, 177, 65, 240, 320
-0.97836, 169, 201, 232, 264
-0.978381, 49, 145, 176, 208
-0.978443, 453, 193, 484, 320
-0.978449, 153, 209, 216, 333
-0.978473, 57, 81, 120, 208
-0.978498, 129, 113, 192, 240
-0.978787, 409, 241, 472, 304
-0.978853, 257, 1, 384, 128
-0.978864, 129, 185, 160, 248
-0.978899, 413, 113, 444, 240
-0.978925, 209, 97, 272, 160
-0.979044, 1, 193, 128, 256
-0.979052, 433, 65, 496, 128
-0.97912, 201, 97, 232, 224
-0.979138, 353, 177, 384, 240
-0.97916, 1, 185, 64, 248
-0.97919, 321, 33, 384, 288
-0.97924, 161, 185, 192, 248
-0.979288, 369, 137, 496, 200
-0.979326, 57, 193, 88, 256
-0.979357, 173, 185, 204, 248
-0.979378, 125, 1, 156, 128
-0.979437, 409, 129, 472, 192
-0.979457, 441, 193, 472, 320
-0.979638, 469, 209, 500, 333
-0.979672, 429, 153, 460, 216
-0.97975, 17, 217, 144, 280
-0.979753, 373, 177, 404, 240
-0.97978, 69, 193, 100, 256
-0.979796, 53, 153, 84, 216
-0.979815, 169, 153, 232, 216
-0.979859, 97, 1, 224, 128
-0.979906, 249, 209, 312, 272
-0.979937, 425, 177, 488, 240
-0.979989, 353, 65, 480, 128
-0.98018, 393, 209, 424, 272
-0.980223, 77, 129, 108, 256
-0.980269, 409, 1, 440, 128
-0.980284, 145, 81, 272, 208
-0.980305, 49, 121, 176, 184
-0.980329, 49, 9, 176, 72
-0.980347, 49, 65, 112, 320
-0.980353, 369, 233, 496, 296
-0.98036, 161, 185, 288, 248
-0.980467, 201, 137, 264, 200
-0.98052, 233, 177, 296, 240
-0.980595, 273, 129, 400, 192
-0.980624, 273, 185, 400, 248
-0.980736, 121, 177, 152, 304
-0.980749, 17, 209, 80, 272
-0.980803, 25, 209, 88, 333
-0.980888, 393, 57, 456, 120
-0.9809, 161, 113, 224, 176
-0.980963, 381, 177, 412, 304
-0.980971, 121, 1, 184, 256
-0.981021, 81, 33, 208, 96
-0.981082, 105, 129, 168, 192
-0.981105, 105, 153, 136, 216
-0.981157, 297, 89, 360, 152
-0.981158, 453, 57, 484, 120
-0.981165, 53, 145, 84, 272
-0.981215, 149, 169, 180, 232
-0.981223, 337, 33, 400, 160
-0.981228, 329, 33, 392, 96
-0.981295, 225, 129, 352, 192
-0.981311, 273, 137, 336, 200
-0.981373, 93, 145, 124, 272
-0.981391, 361, 1, 424, 128
-0.98152, 133, 161, 164, 224
-0.981678, 153, 49, 216, 176
-0.981746, 341, 177, 372, 240
-0.981776, 337, 249, 400, 312
-0.981779, 325, 177, 356, 304
-0.981783, 369, 65, 432, 128
-0.982012, 133, 161, 164, 288
-0.982074, 289, 113, 352, 176
-0.982117, 165, 161, 196, 288
-0.982141, 169, 161, 200, 224
-0.982153, 129, 209, 192, 333
-0.982229, 121, 129, 152, 256
-0.982257, 241, 209, 368, 272
-0.982334, 65, 161, 96, 288
-0.982481, 225, 177, 352, 240
-0.982555, 345, 65, 408, 128
-0.98259, 125, 17, 156, 80
-0.9826, 89, 185, 120, 248
-0.982605, 137, 33, 200, 96
-0.98262, 193, 201, 256, 264
-0.982667, 313, 185, 344, 248
-0.982682, 1, 137, 128, 200
-0.982714, 81, 129, 144, 192
-0.982747, 101, 9, 132, 72
-0.982753, 41, 1, 104, 128
-0.982758, 249, 209, 312, 333
-0.982808, 1, 81, 128, 208
-0.98285, 385, 137, 416, 200
-0.982858, 361, 233, 424, 296
-0.982875, 353, 89, 416, 152
-0.98288, 305, 97, 432, 160
-0.982994, 289, 217, 352, 280
-0.983, 9, 81, 72, 208
-0.983035, 249, 113, 312, 240
-0.983037, 145, 1, 208, 256
-0.983171, 137, 1, 168, 128
-0.983182, 313, 129, 344, 192
-0.983198, 377, 9, 440, 72
-0.983217, 109, 201, 140, 264
-0.98325, 129, 113, 256, 176
-0.983264, 305, 41, 432, 104
-0.983277, 453, 49, 484, 176
-0.983294, 297, 17, 360, 80
-0.983367, 193, 145, 256, 272
-0.983375, 453, 225, 484, 288
-0.983522, 45, 185, 76, 248
-0.983562, 265, 185, 328, 248
-0.983628, 1, 193, 64, 320
-0.983677, 153, 161, 184, 288
-0.983733, 377, 1, 440, 333
-0.983766, 437, 177, 468, 240
-0.983804, 213, 113, 244, 176
-0.983818, 329, 89, 392, 152
-0.984128, 281, 1, 344, 256
-0.984141, 249, 145, 312, 208
-0.984241, 97, 49, 160, 176
-0.984299, 393, 1, 424, 128
-0.984343, 317, 129, 348, 256
-0.98435, 109, 113, 140, 240
-0.984374, 329, 81, 360, 208
-0.984399, 393, 113, 424, 240
-0.984472, 177, 113, 304, 176
-0.984533, 189, 177, 220, 240
-0.984651, 1, 33, 64, 96
-0.984706, 381, 209, 412, 272
-0.984715, 225, 201, 288, 264
-0.984785, 1, 169, 128, 232
-0.984787, 169, 89, 232, 152
-0.984793, 113, 41, 176, 104
-0.984845, 189, 113, 220, 240
-0.984882, 321, 233, 448, 296
-0.984994, 341, 81, 372, 208
-0.984995, 141, 201, 172, 264
-0.985033, 33, 209, 64, 272
-0.985221, 313, 1, 376, 333
-0.985273, 433, 97, 496, 224
-0.985282, 217, 129, 280, 256
-0.985285, 469, 57, 500, 120
-0.985381, 421, 225, 452, 288
-0.985422, 65, 161, 96, 224
-0.985569, 361, 81, 392, 208
-0.985625, 381, 81, 412, 208
-0.985662, 421, 177, 452, 240
-0.985664, 273, 65, 400, 128
-0.985731, 449, 145, 480, 272
-0.985739, 33, 129, 96, 192
-0.98577, 341, 201, 372, 264
-0.985787, 193, 209, 320, 333
-0.985805, 365, 177, 396, 304
-0.985819, 145, 145, 272, 208
-0.985887, 41, 9, 104, 72
-0.985893, 89, 1, 120, 128
-0.985905, 189, 105, 220, 168
-0.985995, 393, 233, 424, 296
-0.986015, 125, 209, 156, 272
-0.986048, 369, 41, 432, 104
-0.986052, 369, 1, 496, 64
-0.986157, 217, 177, 280, 304
-0.986166, 77, 1, 108, 128
-0.986292, 97, 209, 128, 272
-0.986295, 109, 209, 140, 333
-0.986297, 77, 9, 108, 72
-0.986405, 65, 113, 96, 240
-0.986452, 89, 1, 152, 333
-0.986465, 409, 41, 440, 104
-0.986497, 433, 89, 496, 152
-0.986546, 9, 233, 72, 296
-0.986601, 225, 145, 288, 208
-0.986614, 425, 209, 456, 333
-0.986667, 361, 113, 392, 176
-0.986728, 369, 41, 496, 104
-0.986739, 117, 145, 148, 208
-0.986757, 1, 9, 128, 72
-0.986826, 417, 1, 480, 333
-0.986846, 9, 273, 72, 333
-0.986852, 193, 153, 320, 216
-0.986947, 305, 97, 336, 224
-0.987053, 313, 241, 376, 304
-0.987082, 321, 57, 352, 120
-0.987082, 45, 209, 76, 272
-0.98709, 353, 1, 416, 64
-0.987146, 85, 137, 116, 200
-0.987148, 397, 137, 428, 200
-0.987168, 65, 33, 128, 96
-0.987182, 469, 81, 500, 144
-0.987204, 213, 97, 244, 224
-0.987206, 193, 193, 256, 320
-0.987337, 285, 1, 316, 128
-0.987414, 321, 1, 448, 64
-0.987445, 113, 1, 176, 333
-0.987484, 381, 105, 412, 168
-0.987487, 49, 105, 112, 168
-0.987498, 305, 161, 336, 224
-0.987507, 273, 73, 336, 136
-0.987514, 1, 33, 64, 160
-0.987518, 201, 89, 232, 152
-0.987606, 201, 65, 264, 320
-0.987629, 257, 177, 500, 240
-0.987673, 149, 25, 180, 88
-0.987716, 137, 17, 168, 80
-0.987733, 233, 121, 296, 184
-0.987746, 433, 129, 464, 192
-0.987845, 337, 177, 368, 304
-0.987853, 365, 209, 396, 272
-0.987859, 433, 113, 464, 240
-0.987865, 313, 177, 344, 304
-0.987865, 113, 89, 240, 152
-0.987871, 273, 33, 336, 160
-0.988003, 93, 193, 124, 320
-0.98801, 321, 157, 384, 188
-0.988083, 209, 89, 336, 152
-0.98819, 89, 105, 152, 168
-0.988231, 345, 1, 408, 333
-0.988314, 265, 113, 328, 176
-0.988394, 241, 65, 304, 192
-0.98841, 249, 233, 312, 296
-0.988413, 33, 33, 160, 96
-0.988414, 209, 225, 272, 288
-0.988484, 105, 1, 136, 128
-0.98852, 257, 105, 384, 168
-0.988549, 273, 17, 400, 80
-0.988568, 465, 65, 496, 192
-0.988596, 433, 241, 464, 304
-0.988651, 129, 129, 192, 192
-0.988667, 217, 89, 248, 152
-0.988676, 321, 177, 384, 208
-0.98868, 65, 1, 128, 333
-0.988707, 401, 33, 464, 96
-0.988716, 193, 49, 256, 176
-0.988725, 393, 41, 424, 104
-0.988769, 321, 145, 384, 176
-0.98877, 113, 241, 176, 304
-0.988793, 273, 49, 336, 112
-0.988914, 321, 133, 384, 164
-0.988934, 353, 201, 384, 264
-0.988949, 229, 153, 260, 216
-0.988953, 329, 201, 360, 264
-0.988969, 393, 49, 424, 176
-0.988972, 377, 133, 440, 164
-0.989004, 425, 221, 488, 252
-0.989057, 81, 177, 112, 304
-0.989129, 25, 209, 88, 240
-0.989277, 465, 161, 496, 288
-0.989311, 177, 233, 304, 296
-0.989335, 393, 181, 456, 212
-0.98937, 413, 1, 444, 64
-0.989372, 113, 9, 144, 72
-0.989442, 65, 201, 128, 232
-0.98945, 385, 217, 448, 248
-0.989502, 193, 153, 224, 216
-0.989521, 353, 137, 416, 168
-0.989552, 65, 129, 96, 192
-0.989583, 289, 1, 352, 333
-0.989595, 413, 113, 444, 176
-0.989626, 273, 249, 400, 312
-0.98966, 25, 1, 88, 256
-0.989709, 353, 177, 384, 304
-0.989717, 425, 205, 488, 236
-0.989721, 353, 113, 480, 176
-0.989723, 345, 177, 408, 208
-0.989746, 185, 113, 248, 144
-0.989747, 89, 1, 152, 64
-0.989781, 313, 113, 376, 176
-0.989793, 409, 233, 440, 296
-0.989809, 377, 65, 408, 128
-0.989888, 129, 189, 192, 220
-0.989897, 1, 113, 128, 176
-0.989917, 401, 197, 464, 228
-0.989944, 393, 9, 424, 72
-0.989957, 149, 1, 180, 128
-0.990024, 89, 189, 152, 220
-0.990027, 229, 113, 260, 240
-0.990057, 129, 137, 160, 200
-0.990062, 105, 157, 168, 188
-0.990132, 9, 105, 72, 168
-0.990163, 469, 193, 500, 256
-0.9902, 177, 145, 208, 272
-0.990203, 97, 9, 224, 72
-0.990214, 85, 217, 116, 280
-0.990219, 1, 65, 64, 320
-0.990219, 193, 209, 320, 272
-0.990235, 153, 189, 216, 220
-0.990252, 369, 89, 496, 152
-0.99027, 257, 137, 500, 200
-0.990287, 193, 125, 256, 156
-0.990322, 261, 177, 292, 304
-0.990377, 377, 205, 440, 236
-0.990391, 205, 177, 236, 240
-0.990395, 361, 165, 424, 196
-0.990412, 89, 17, 120, 80
-0.990416, 469, 17, 500, 144
-0.990418, 45, 129, 76, 192
-0.990426, 257, 41, 384, 104
-0.990437, 217, 169, 248, 232
-0.990442, 281, 165, 344, 196
-0.990456, 413, 209, 444, 333
-0.990459, 433, 233, 496, 264
-0.990465, 57, 137, 120, 168
-0.990471, 433, 41, 496, 104
-0.990475, 137, 41, 168, 104
-0.990489, 65, 173, 128, 204
-0.990516, 417, 149, 480, 180
-0.990533, 369, 181, 432, 212
-0.990554, 113, 21, 176, 52
-0.990559, 225, 65, 352, 128
-0.990563, 97, 37, 160, 68
-0.990591, 169, 177, 232, 208
-0.990603, 33, 193, 288, 256
-0.990612, 317, 49, 348, 176
-0.990629, 113, 121, 144, 184
-0.99065, 445, 153, 476, 216
-0.990687, 113, 209, 176, 240
-0.990705, 89, 49, 152, 112
-0.99071, 145, 209, 272, 272
-0.990718, 193, 17, 320, 144
-0.99072, 433, 249, 496, 312
-0.990737, 345, 213, 408, 244
-0.990745, 65, 189, 128, 220
-0.990748, 261, 209, 292, 272
-0.990774, 73, 217, 136, 248
-0.990778, 1, 129, 64, 256
-0.990807, 33, 1, 96, 333
-0.99081, 257, 201, 500, 264
-0.990818, 409, 105, 472, 168
-0.990825, 401, 229, 464, 260
-0.990829, 97, 169, 160, 200
-0.990834, 401, 1, 464, 64
-0.990887, 249, 185, 280, 248
-0.99089, 185, 189, 248, 220
-0.990895, 73, 217, 104, 280
-0.990897, 297, 177, 360, 208
-0.99093, 185, 225, 248, 288
-0.990931, 349, 113, 380, 176
-0.990976, 425, 193, 488, 224
-0.99103, 193, 173, 256, 204
-0.991034, 429, 1, 460, 128
-0.991065, 321, 209, 384, 240
-0.991084, 289, 241, 352, 304
-0.991086, 41, 197, 104, 228
-0.99109, 417, 161, 480, 192
-0.991147, 49, 213, 112, 244
-0.991186, 377, 145, 440, 176
-0.991197, 145, 205, 208, 236
-0.991205, 89, 201, 152, 232
-0.991218, 193, 101, 256, 132
-0.991218, 49, 125, 112, 156
-0.991227, 345, 149, 408, 180
-0.991231, 1, 177, 500, 240
-0.991236, 161, 169, 416, 232
-0.991255, 321, 225, 352, 288
-0.991265, 73, 33, 136, 64
-0.991288, 273, 25, 336, 88
-0.991303, 381, 41, 412, 104
-0.991305, 385, 169, 448, 200
-0.991312, 289, 49, 320, 112
-0.991322, 73, 161, 136, 192
-0.991352, 337, 1, 368, 128
-0.991353, 33, 185, 96, 216
-0.991366, 345, 197, 408, 228
-0.991398, 17, 133, 80, 164
-0.991416, 297, 133, 360, 164
-0.991419, 121, 33, 184, 64
-0.991426, 449, 177, 480, 240
-0.991427, 281, 153, 344, 184
-0.99144, 361, 225, 424, 256
-0.991449, 401, 137, 464, 168
-0.99145, 185, 149, 248, 180
-0.991456, 53, 97, 84, 224
-0.991476, 313, 1, 344, 128
-0.991508, 65, 9, 128, 40
-0.991524, 225, 233, 352, 296
-0.991532, 145, 1, 208, 333
-0.991532, 321, 193, 384, 224
-0.991539, 297, 205, 360, 236
-0.991545, 1, 201, 500, 264
-0.991565, 121, 173, 184, 204
-0.991565, 209, 113, 272, 144
-0.991573, 349, 225, 380, 288
-0.991574, 41, 113, 72, 240
-0.991578, 49, 157, 112, 188
-0.99158, 409, 65, 440, 192
-0.991597, 113, 49, 176, 80
-0.991614, 249, 1, 312, 333
-0.991641, 393, 209, 424, 333
-0.991648, 169, 201, 232, 232
-0.991655, 145, 169, 208, 200
-0.991659, 337, 17, 368, 80
-0.991661, 209, 185, 272, 216
-0.991662, 297, 193, 328, 320
-0.991666, 377, 193, 440, 224
-0.991689, 161, 109, 224, 140
-0.991691, 201, 201, 232, 264
-0.991693, 145, 113, 176, 240
-0.991706, 337, 121, 400, 152
-0.991719, 17, 145, 80, 176
-0.99172, 329, 89, 392, 120
-0.991725, 397, 161, 428, 224
-0.991731, 157, 209, 188, 333
-0.991744, 101, 129, 132, 192
-0.991749, 169, 161, 232, 192
-0.991783, 409, 241, 472, 272
-0.991784, 33, 273, 96, 333
-0.991793, 217, 81, 280, 208
-0.991829, 225, 9, 352, 72
-0.991843, 145, 145, 176, 208
-0.991844, 113, 241, 176, 272
-0.991852, 289, 265, 352, 328
-0.991853, 397, 65, 428, 128
-0.991869, 321, 221, 384, 252
-0.991869, 345, 77, 408, 108
-0.991881, 25, 221, 88, 252
-0.991903, 297, 53, 360, 84
-0.991925, 161, 33, 192, 96
-0.991943, 273, 189, 336, 220
-0.991953, 73, 149, 136, 180
-0.991968, 297, 65, 360, 96
-0.991972, 1, 201, 64, 232
-0.991976, 129, 157, 192, 188
-0.991988, 417, 173, 480, 204
-0.992002, 89, 17, 152, 48
-0.992031, 73, 45, 136, 76
-0.992039, 289, 77, 352, 108
-0.992043, 233, 181, 296, 212
-0.992054, 313, 77, 376, 108
-0.992054, 201, 137, 264, 168
-0.992059, 361, 133, 392, 164
-0.992064, 289, 17, 320, 80
-0.992073, 281, 117, 344, 148
-0.99208, 153, 229, 216, 260
-0.992081, 169, 125, 232, 156
-0.992098, 325, 173, 356, 204
-0.992098, 145, 57, 208, 120
-0.992107, 1, 213, 64, 244
-0.992115, 377, 237, 440, 268
-0.992121, 201, 109, 232, 140
-0.992137, 57, 21, 120, 52
-0.992137, 433, 73, 496, 104
-0.992139, 133, 209, 164, 333
-0.992139, 337, 65, 400, 96
-0.99214, 281, 209, 312, 272
-0.992172, 1, 121, 500, 184
-0.992181, 113, 253, 176, 284
-0.992188, 65, 1, 96, 128
-0.992208, 297, 221, 360, 252
-0.992222, 353, 93, 416, 124
-0.992223, 337, 53, 400, 84
-0.992224, 393, 5, 456, 36
-0.99223, 81, 137, 144, 168
-0.992241, 297, 193, 360, 224
-0.992247, 113, 225, 176, 256
-0.992252, 157, 209, 188, 272
-0.992267, 325, 153, 356, 184
-0.992267, 25, 157, 88, 188
-0.992272, 209, 161, 272, 192
-0.992276, 137, 45, 200, 76
-0.992278, 225, 201, 288, 232
-0.992279, 425, 137, 488, 168
-0.992288, 273, 213, 336, 244
-0.992289, 185, 221, 248, 252
-0.992294, 185, 201, 216, 264
-0.992302, 209, 233, 272, 264
-0.992302, 1, 37, 64, 68
-0.992342, 349, 145, 380, 176
-0.992343, 129, 193, 384, 256
-0.992352, 289, 273, 416, 333
-0.992382, 361, 177, 392, 208
-0.992387, 301, 49, 332, 112
-0.992389, 361, 121, 424, 152
-0.992392, 425, 221, 456, 252
-0.992402, 453, 209, 484, 240
-0.992406, 249, 125, 312, 156
-0.99243, 337, 273, 400, 333
-0.992432, 85, 113, 116, 176
-0.992438, 433, 85, 496, 116
-0.992439, 33, 173, 96, 204
-0.992441, 393, 69, 456, 100
-0.992442, 225, 257, 352, 320
-0.992443, 469, 221, 500, 252
-0.992447, 213, 137, 244, 200
-0.992462, 17, 121, 80, 152
-0.992464, 273, 141, 336, 172
-0.992471, 233, 157, 296, 188
-0.992517, 93, 161, 124, 224
-0.992527, 429, 205, 460, 236
-0.99253, 413, 221, 444, 252
-0.992541, 353, 157, 384, 188
-0.992542, 57, 205, 88, 236
-0.992546, 1, 153, 500, 216
-0.992556, 337, 141, 368, 172
-0.992559, 21, 209, 52, 272
-0.992563, 413, 177, 444, 208
-0.992584, 349, 177, 380, 208
-0.992597, 337, 177, 368, 208
-0.992603, 169, 189, 200, 220
-0.992626, 413, 205, 444, 236
-0.992626, 353, 257, 480, 320
-0.992632, 381, 133, 412, 164
-0.992649, 437, 225, 468, 256
-0.992649, 189, 161, 220, 288
-0.992649, 69, 209, 100, 333
-0.992653, 29, 213, 60, 244
-0.992657, 9, 33, 40, 160
-0.992658, 401, 217, 432, 248
-0.992659, 361, 145, 392, 176
-0.992669, 429, 149, 460, 180
-0.992681, 437, 193, 468, 224
-0.992686, 113, 157, 144, 188
-0.992688, 377, 181, 408, 212
-0.992688, 401, 181, 432, 212
-0.992689, 153, 189, 184, 220
-0.992707, 293, 129, 324, 256
-0.992712, 129, 193, 160, 224
-0.992714, 201, 121, 232, 152
-0.992716, 69, 201, 100, 232
-0.992719, 325, 137, 356, 168
-0.992721, 461, 233, 492, 264
-0.992735, 213, 113, 244, 144
-0.992744, 101, 181, 132, 212
-0.992754, 457, 221, 488, 252
-0.992757, 45, 213, 76, 244
-0.992763, 249, 177, 280, 304
-0.992771, 429, 161, 460, 192
-0.992773, 413, 137, 444, 168
-0.992775, 113, 185, 144, 216
-0.992784, 57, 153, 88, 184
-0.992795, 337, 157, 368, 188
-0.992795, 181, 189, 212, 220
-0.992798, 101, 197, 132, 228
-0.992819, 101, 169, 132, 200
-0.99283, 89, 197, 120, 228
-0.992835, 381, 1, 412, 128
-0.992838, 77, 161, 108, 224
-0.992838, 109, 213, 140, 244
-0.99284, 309, 181, 340, 212
-0.992851, 349, 129, 380, 160
-0.992853, 133, 113, 164, 240
-0.992866, 65, 189, 192, 220
-0.992877, 441, 205, 472, 236
-0.992886, 1, 57, 128, 120
-0.992886, 469, 209, 500, 240
-0.992895, 337, 129, 368, 160
-0.992899, 389, 185, 420, 216
-0.992903, 425, 173, 456, 204
-0.992908, 365, 165, 396, 196
-0.992909, 337, 137, 464, 168
-0.992913, 125, 33, 156, 64
-0.992922, 113, 197, 144, 228
-0.992928, 113, 169, 144, 200
-0.992944, 337, 209, 368, 240
-0.992944, 337, 225, 368, 288
-0.992944, 389, 213, 420, 244
-0.992946, 141, 21, 172, 52
-0.992947, 189, 109, 220, 140
-0.99295, 57, 181, 88, 212
-0.992955, 193, 177, 224, 208
-0.992958, 105, 25, 136, 56
-0.992962, 141, 193, 172, 224
-0.992974, 377, 209, 408, 240
-0.992977, 257, 225, 500, 288
-0.99298, 321, 185, 352, 216
-0.99298, 101, 37, 132, 68
-0.992984, 449, 233, 480, 264
-0.992986, 393, 197, 424, 228
-0.992989, 125, 205, 156, 236
-0.993008, 377, 273, 440, 333
-0.99301, 313, 169, 344, 200
-0.993016, 337, 49, 368, 112
-0.993021, 125, 157, 156, 188
-0.993024, 213, 169, 244, 200
-0.993028, 425, 233, 456, 264
-0.993031, 97, 213, 128, 244
-0.993037, 429, 137, 460, 168
-0.993039, 325, 105, 356, 168
-0.993039, 327, 153, 342, 216
-0.993043, 417, 189, 448, 220
-0.993048, 233, 185, 264, 216
-0.99306, 149, 41, 180, 72
-0.99306, 73, 185, 104, 216
-0.993067, 53, 169, 84, 200
-0.993071, 181, 173, 212, 204
-0.993075, 217, 125, 248, 156
-0.993076, 229, 129, 260, 192
-0.993086, 413, 165, 444, 196
-0.993088, 169, 201, 200, 232
-0.99309, 357, 213, 388, 244
-0.993091, 69, 217, 100, 248
-0.993094, 217, 181, 248, 212
-0.993101, 101, 157, 132, 188
-0.993104, 145, 205, 176, 236
-0.993105, 313, 153, 344, 184
-0.993108, 217, 101, 248, 132
-0.993117, 89, 141, 120, 172
-0.993122, 157, 201, 188, 232
-0.993125, 321, 77, 352, 108
-0.993134, 413, 233, 444, 264
-0.993137, 125, 17, 156, 48
-0.993143, 393, 45, 424, 76
-0.993146, 381, 169, 412, 200
-0.993152, 81, 209, 112, 240
-0.993167, 413, 41, 444, 72
-0.993176, 41, 133, 72, 164
-0.993182, 441, 149, 472, 180
-0.993208, 469, 85, 500, 116
-0.99321, 229, 165, 260, 196
-0.993219, 409, 57, 440, 88
-0.993222, 309, 205, 340, 236
-0.993222, 85, 185, 116, 216
-0.993224, 373, 81, 404, 112
-0.993228, 65, 137, 96, 168
-0.99323, 193, 165, 224, 196
-0.993232, 373, 145, 404, 176
-0.993233, 137, 249, 168, 280
-0.993238, 309, 193, 340, 224
-0.993238, 169, 177, 200, 208
-0.993239, 325, 209, 356, 240
-0.993243, 41, 201, 72, 232
-0.993244, 29, 185, 60, 248
-0.993246, 401, 129, 432, 160
-0.993247, 105, 13, 136, 44
-0.993247, 285, 49, 316, 176
-0.99325, 197, 189, 228, 220
-0.993251, 193, 153, 224, 184
-0.993256, 369, 197, 400, 228
-0.993259, 377, 225, 408, 256
-0.993262, 85, 129, 116, 160
-0.993274, 437, 181, 468, 212
-0.993279, 69, 9, 100, 40
-0.993288, 33, 161, 288, 224
-0.993393, 1, 241, 128, 304
-0.99341, 237, 161, 268, 288
-0.993476, 257, 1, 320, 256
-0.993492, 169, 1, 232, 333
-0.993541, 161, 121, 416, 184
-0.993551, 433, 201, 448, 264
-0.993581, 369, 217, 496, 248
-0.993583, 33, 33, 96, 96
-0.99359, 333, 153, 348, 216
-0.993595, 359, 137, 374, 200
-0.993602, 1, 81, 32, 208
-0.993614, 329, 129, 344, 192
-0.993623, 33, 121, 288, 184
-0.993628, 321, 9, 384, 72
-0.99364, 305, 49, 336, 176
-0.993652, 33, 81, 96, 208
-0.993666, 145, 89, 208, 152
-0.99367, 343, 137, 358, 200
-0.993702, 305, 177, 432, 208
-0.993712, 129, 33, 256, 96
-0.993716, 371, 137, 386, 200
-0.993717, 209, 33, 336, 96
-0.993795, 365, 145, 380, 208
-0.993815, 177, 81, 208, 208
-0.993831, 209, 105, 224, 168
-0.993883, 349, 137, 364, 200
-0.993925, 129, 145, 384, 208
-0.993944, 49, 201, 176, 232
-0.993972, 209, 249, 272, 312
-0.993994, 257, 57, 500, 120
-0.993997, 277, 113, 308, 240
-0.994052, 165, 113, 196, 240
-0.99419, 105, 49, 136, 176
-0.994222, 9, 1, 72, 333
-0.994229, 89, 265, 152, 328
-0.994239, 273, 177, 304, 304
-0.994246, 49, 161, 176, 192
-0.994267, 1, 217, 256, 280
-0.994284, 217, 49, 248, 176
-0.994298, 97, 65, 224, 128
-0.994303, 463, 201, 478, 264
-0.994328, 325, 1, 356, 128
-0.994342, 145, 209, 176, 333
-0.994344, 97, 97, 128, 224
-0.994377, 379, 137, 394, 200
-0.994451, 369, 201, 496, 232
-0.994456, 1, 89, 128, 152
-0.994487, 203, 105, 218, 168
-0.994502, 1, 265, 128, 328
-0.994514, 373, 161, 388, 224
-0.994534, 457, 209, 472, 272
-0.994539, 119, 177, 134, 240
-0.994565, 423, 137, 438, 200
-0.9946, 425, 209, 440, 272
-0.994684, 113, 189, 240, 220
-0.994699, 305, 153, 432, 184
-0.99475, 201, 161, 232, 288
-0.994762, 225, 165, 352, 196
-0.994786, 17, 217, 144, 248
-0.994794, 97, 241, 224, 304
-0.994796, 49, 177, 176, 208
-0.994835, 65, 265, 192, 328
-0.994839, 97, 205, 224, 236
-0.994847, 425, 177, 440, 240
-0.99485, 313, 273, 376, 333
-0.99486, 175, 185, 190, 248
-0.994866, 411, 177, 426, 240
-0.994878, 177, 193, 208, 320
-0.994895, 337, 129, 352, 192
-0.994923, 215, 113, 230, 176
-0.994938, 411, 209, 426, 272
-0.994947, 431, 169, 446, 232
-0.994952, 417, 217, 432, 280
-0.994958, 153, 233, 216, 296
-0.994979, 69, 201, 84, 264
-0.995017, 201, 49, 232, 176
-0.99503, 273, 129, 400, 160
-0.995032, 125, 177, 140, 240
-0.995062, 355, 177, 370, 240
-0.995066, 53, 193, 84, 320
-0.995078, 181, 177, 196, 240
-0.995081, 409, 81, 472, 144
-0.995091, 433, 129, 496, 192
-0.995103, 129, 173, 256, 204
-0.99514, 389, 177, 404, 240
-0.995147, 469, 209, 484, 272
-0.995149, 439, 201, 454, 264
-0.99516, 1, 201, 128, 232
-0.995171, 365, 177, 380, 240
-0.995191, 113, 177, 128, 240
-0.995219, 447, 209, 462, 272
-0.995224, 161, 197, 288, 228
-0.995243, 1, 177, 32, 304
-0.995285, 169, 185, 184, 248
-0.995296, 417, 177, 432, 240
-0.9953, 433, 145, 448, 208
-0.995306, 105, 185, 120, 248
-0.995308, 21, 33, 52, 160
-0.995324, 339, 161, 354, 224
-0.995324, 337, 229, 464, 260
-0.99534, 97, 157, 224, 188
-0.995353, 289, 165, 416, 196
-0.995378, 349, 177, 364, 240
-0.995386, 49, 97, 176, 160
-0.995392, 321, 161, 336, 224
-0.995398, 337, 165, 464, 196
-0.995409, 325, 185, 340, 248
-0.99541, 399, 185, 414, 248
-0.995429, 129, 25, 384, 88
-0.995449, 405, 177, 420, 240
-0.995459, 135, 153, 150, 216
-0.995469, 133, 185, 148, 248
-0.995504, 321, 213, 448, 244
-0.995512, 1, 129, 32, 256
-0.995525, 297, 1, 328, 128
-0.995555, 209, 1, 272, 333
-0.995594, 441, 49, 472, 176
-0.995605, 63, 201, 78, 264
-0.995614, 337, 189, 464, 220
-0.995617, 421, 49, 452, 176
-0.995636, 49, 17, 176, 48
-0.995643, 75, 193, 90, 256
-0.995666, 383, 177, 398, 240
-0.995667, 125, 153, 140, 216
-0.995674, 385, 137, 400, 200
-0.995689, 49, 137, 176, 168
-0.99571, 465, 233, 480, 296
-0.995715, 453, 97, 484, 224
-0.995719, 477, 217, 492, 280
-0.995729, 163, 185, 178, 248
-0.995732, 143, 169, 158, 232
-0.995734, 189, 185, 204, 248
-0.995764, 67, 161, 82, 224
-0.995781, 109, 153, 124, 216
-0.995782, 141, 193, 156, 256
-0.995799, 369, 77, 496, 108
-0.995802, 1, 17, 256, 80
-0.995807, 249, 1, 312, 128
-0.995831, 145, 9, 272, 72
-0.995837, 49, 29, 176, 60
-0.995886, 173, 161, 188, 224
-0.995933, 193, 181, 320, 212
-0.995933, 119, 201, 134, 264
-0.99601, 289, 193, 416, 224
-0.99602, 411, 137, 426, 200
-0.996046, 457, 1, 488, 128
-0.996055, 455, 57, 470, 120
-0.996069, 257, 177, 384, 208
-0.996076, 257, 1, 500, 64
-0.99609, 161, 217, 416, 280
-0.996092, 51, 201, 66, 264
-0.996106, 333, 177, 348, 240
-0.996126, 225, 137, 352, 168
-0.996127, 273, 141, 400, 172
-0.996128, 407, 41, 422, 104
-0.99617, 85, 193, 100, 256
-0.996186, 127, 201, 142, 264
-0.996207, 57, 185, 72, 248
-0.996244, 103, 9, 118, 72
-0.996246, 405, 201, 420, 264
-0.996246, 241, 193, 368, 224
-0.996249, 381, 65, 412, 320
-0.996265, 17, 97, 48, 224
-0.996275, 49, 149, 176, 180
-0.996303, 473, 65, 488, 128
-0.996304, 369, 177, 496, 208
-0.996315, 117, 153, 132, 216
-0.996345, 57, 137, 72, 200
-0.996351, 417, 137, 432, 200
-0.996365, 353, 149, 480, 180
-0.996385, 193, 249, 448, 312
-0.996386, 1, 181, 128, 212
-0.996391, 213, 145, 244, 272
-0.996392, 435, 225, 450, 288
-0.996409, 349, 33, 380, 160
-0.996425, 479, 57, 494, 120
-0.996426, 365, 121, 380, 184
-0.996442, 195, 169, 210, 232
-0.996442, 389, 209, 404, 272
-0.996458, 149, 17, 164, 80
-0.996458, 43, 209, 58, 272
-0.996469, 459, 233, 474, 296
-0.996475, 257, 33, 500, 96
-0.996482, 443, 177, 458, 240
-0.996487, 273, 77, 400, 108
-0.996492, 113, 201, 128, 264
-0.996505, 1, 225, 500, 288
-0.996511, 319, 185, 334, 248
-0.996523, 221, 97, 236, 160
-0.996536, 321, 125, 448, 156
-0.996548, 337, 57, 352, 120
-0.996549, 369, 241, 496, 272
-0.99655, 99, 193, 114, 256
-0.996563, 483, 217, 498, 280
-0.996564, 145, 121, 272, 152
-0.996567, 49, 41, 176, 72
-0.996573, 1, 145, 128, 176
-0.996587, 441, 225, 456, 288
-0.996591, 349, 201, 364, 264
-0.996592, 193, 97, 448, 160
-0.996599, 343, 185, 358, 248
-0.996609, 257, 153, 384, 184
-0.996615, 197, 105, 212, 168
-0.996617, 135, 209, 150, 272
-0.996633, 41, 161, 72, 288
-0.996636, 145, 149, 272, 180
-0.996637, 321, 57, 448, 88
-0.996642, 193, 109, 320, 140
-0.996644, 461, 57, 476, 120
-0.99666, 253, 129, 284, 256
-0.996674, 409, 65, 440, 320
-0.996675, 1, 133, 128, 164
-0.996675, 209, 153, 336, 184
-0.996706, 373, 113, 388, 176
-0.996706, 127, 9, 142, 72
-0.996706, 153, 185, 168, 248
-0.996709, 147, 201, 162, 264
-0.99671, 323, 129, 338, 192
-0.996714, 209, 109, 224, 140
-0.996714, 213, 193, 244, 320
-0.996751, 241, 209, 368, 240
-0.996752, 395, 209, 410, 272
-0.996756, 273, 57, 400, 88
-0.996768, 453, 177, 468, 240
-0.996782, 161, 89, 288, 152
-0.996793, 91, 193, 106, 256
-0.996806, 109, 9, 124, 72
-0.996807, 403, 137, 418, 200
-0.996819, 427, 233, 442, 296
-0.996822, 97, 97, 352, 160
-0.996858, 203, 109, 218, 140
-0.996859, 63, 121, 78, 184
-0.99686, 353, 89, 480, 120
-0.996862, 393, 65, 424, 320
-0.996866, 37, 209, 52, 272
-0.996867, 329, 153, 344, 184
-0.99688, 155, 17, 170, 80
-0.996884, 447, 241, 462, 304
-0.996904, 121, 49, 184, 176
-0.996912, 325, 173, 340, 204
-0.996917, 117, 49, 148, 176
-0.996917, 465, 205, 480, 236
-0.996922, 203, 129, 218, 192
-0.996932, 167, 161, 182, 224
-0.996958, 357, 201, 372, 264
-0.996969, 225, 121, 352, 152
-0.996976, 391, 41, 406, 104
-0.996976, 331, 201, 346, 264
-0.996981, 87, 217, 102, 280
-0.997004, 149, 161, 164, 224
-0.997012, 129, 109, 256, 140
-0.997029, 373, 137, 388, 168
-0.997066, 485, 81, 500, 144
-0.997067, 209, 81, 224, 144
-0.997069, 407, 233, 422, 296
-0.99707, 391, 97, 406, 160
-0.997078, 177, 257, 304, 320
-0.997083, 349, 177, 364, 208
-0.997092, 305, 1, 432, 32
-0.997096, 65, 217, 192, 248
-0.997096, 383, 97, 398, 160
-0.997098, 397, 137, 412, 200
-0.997099, 1, 97, 256, 160
-0.9971, 467, 57, 482, 120
-0.997107, 97, 137, 112, 200
-0.997108, 183, 201, 198, 264
-0.99711, 401, 57, 416, 120
-0.997119, 89, 49, 120, 176
-0.997143, 305, 89, 432, 120
-0.997146, 97, 241, 352, 304
-0.997156, 237, 209, 268, 333
-0.997181, 289, 41, 416, 72
-0.997188, 137, 49, 168, 176
-0.997198, 355, 177, 370, 208
-0.997198, 177, 65, 304, 128
-0.997209, 333, 173, 348, 204
-0.997215, 189, 49, 220, 176
-0.997239, 1, 49, 256, 112
-0.997261, 177, 169, 304, 200
-0.997269, 161, 57, 416, 120
-0.997278, 101, 65, 132, 320
-0.997284, 265, 129, 296, 256
-0.997297, 77, 65, 108, 320
-0.997305, 355, 145, 370, 176
-0.99731, 321, 69, 448, 100
-0.99732, 373, 165, 388, 196
-0.997366, 1, 33, 128, 64
-0.997374, 1, 121, 128, 152
-0.997379, 369, 49, 496, 80
-0.997393, 365, 177, 380, 208
-0.997408, 17, 209, 48, 333
-0.997409, 409, 177, 424, 208
-0.997412, 469, 225, 484, 256
-0.99742, 289, 253, 416, 284
-0.997448, 289, 225, 416, 256
-0.997461, 433, 209, 448, 240
-0.997468, 177, 229, 304, 260
-0.997487, 439, 225, 454, 256
-0.997491, 189, 209, 220, 333
-0.997513, 129, 237, 256, 268
-0.997543, 113, 265, 240, 328
-0.997547, 129, 1, 384, 64
-0.997548, 97, 145, 224, 176
-0.997552, 339, 173, 354, 204
-0.997556, 471, 209, 486, 240
-0.997559, 439, 193, 454, 224
-0.997564, 421, 221, 436, 252
-0.997572, 61, 65, 92, 320
-0.997579, 363, 137, 378, 168
-0.997581, 49, 241, 176, 304
-0.997588, 1, 57, 500, 120
-0.997602, 345, 157, 360, 188
-0.997603, 201, 65, 232, 320
-0.997609, 189, 189, 204, 220
-0.997609, 1, 17, 500, 80
-0.997613, 215, 109, 230, 140
-0.997618, 369, 1, 496, 32
-0.997623, 1, 97, 500, 160
-0.997634, 65, 205, 80, 236
-0.997639, 97, 21, 224, 52
-0.997646, 175, 189, 190, 220
-0.997651, 365, 157, 380, 188
-0.997665, 97, 41, 224, 72
-0.997669, 113, 249, 240, 280
-0.997672, 71, 201, 86, 232
-0.997676, 165, 189, 180, 220
-0.997686, 319, 161, 334, 192
-0.99769, 117, 157, 132, 188
-0.997693, 369, 65, 496, 96
-0.997702, 433, 225, 448, 256
-0.997707, 421, 65, 452, 320
-0.997724, 433, 65, 464, 320
-0.997744, 477, 217, 492, 248
-0.997747, 427, 221, 442, 252
-0.997753, 335, 153, 350, 184
-0.997755, 177, 241, 304, 272
-0.997774, 365, 33, 396, 288
-0.997778, 273, 49, 304, 176
-0.997779, 463, 221, 478, 252
-0.997781, 109, 185, 124, 216
-0.997784, 349, 141, 364, 172
-0.997788, 107, 169, 122, 200
-0.997788, 465, 65, 496, 320
-0.997799, 423, 137, 438, 168
-0.997801, 181, 189, 196, 220
-0.997801, 241, 221, 368, 252
-0.997809, 225, 65, 288, 320
-0.997812, 115, 197, 130, 228
-0.997814, 177, 133, 304, 164
-0.997819, 355, 129, 370, 160
-0.997826, 413, 217, 428, 248
-0.997828, 289, 269, 416, 300
-0.997829, 429, 177, 444, 208
-0.997829, 119, 181, 134, 212
-0.997832, 49, 125, 176, 156
-0.997837, 289, 241, 416, 272
-0.997845, 149, 193, 164, 224
-0.997852, 89, 65, 120, 320
-0.997856, 1, 157, 128, 188
-0.997859, 49, 57, 176, 120
-0.997864, 65, 53, 192, 84
-0.997871, 143, 193, 158, 224
-0.997875, 1, 21, 128, 52
-0.99788, 433, 197, 448, 228
-0.99789, 445, 225, 460, 256
-0.997894, 67, 157, 82, 188
-0.997896, 427, 209, 442, 240
-0.9979, 41, 213, 56, 244
-0.997901, 117, 169, 132, 200
-0.997905, 459, 201, 474, 232
-0.997907, 439, 205, 454, 236
-0.997913, 433, 149, 448, 180
-0.997917, 137, 193, 152, 224
-0.997926, 387, 181, 402, 212
-0.997929, 121, 201, 136, 232
-0.997931, 213, 121, 228, 152
-0.997932, 451, 193, 466, 224
-0.997937, 159, 193, 174, 224
-0.997943, 189, 169, 204, 200
-0.997948, 241, 233, 368, 264
-0.997958, 399, 185, 414, 216
-0.997959, 51, 213, 66, 244
-0.997968, 343, 137, 358, 168
-0.997971, 61, 153, 76, 184
-0.997975, 383, 133, 398, 164
-0.997976, 433, 137, 448, 168
-0.997981, 109, 157, 124, 188
-0.997982, 393, 185, 408, 216
-0.997988, 289, 101, 416, 132
-0.998023, 325, 185, 340, 216
-0.998031, 483, 221, 498, 252
-0.998033, 125, 157, 140, 188
-0.998037, 457, 217, 472, 248
-0.998039, 221, 105, 236, 136
-0.998044, 77, 201, 92, 232
-0.998048, 445, 65, 476, 320
-0.998048, 209, 97, 336, 128
-0.998056, 375, 149, 390, 180
-0.998058, 57, 213, 72, 244
-0.998063, 113, 213, 128, 244
-0.998067, 381, 169, 396, 200
-0.998079, 205, 121, 220, 152
-0.998082, 381, 181, 396, 212
-0.998083, 129, 201, 144, 232
-0.998088, 329, 33, 360, 288
-0.99809, 197, 177, 212, 208
-0.99809, 319, 181, 334, 212
-0.998091, 31, 213, 46, 244
-0.998093, 463, 233, 478, 264
-0.998096, 101, 197, 116, 228
-0.9981, 373, 177, 388, 208
-0.998102, 225, 273, 480, 333
-0.998103, 475, 229, 490, 260
-0.998111, 121, 1, 152, 256
-0.998127, 327, 133, 342, 164
-0.998127, 359, 157, 374, 188
-0.998131, 1, 241, 256, 304
-0.998133, 409, 49, 424, 80
-0.998133, 95, 197, 110, 228
-0.998136, 273, 21, 400, 52
-0.998147, 419, 181, 434, 212
-0.998151, 431, 165, 446, 196
-0.998164, 107, 197, 122, 228
-0.998165, 349, 129, 364, 160
-0.998171, 195, 189, 210, 220
-0.998183, 453, 229, 468, 260
-0.998194, 445, 185, 460, 216
-0.998196, 169, 201, 184, 232
-0.998199, 415, 201, 430, 232
-0.998216, 119, 213, 134, 244
-0.998221, 197, 109, 212, 140
-0.99823, 49, 5, 176, 36
-0.998233, 231, 169, 246, 200
-0.998234, 103, 21, 118, 52
-0.998246, 405, 213, 420, 244
-0.998246, 453, 205, 468, 236
-0.998247, 1, 169, 128, 200
-0.998249, 341, 65, 372, 320
-0.998254, 181, 177, 196, 208
-0.998254, 485, 81, 500, 112
-0.998255, 49, 113, 176, 144
-0.998256, 221, 173, 236, 204
-0.998259, 351, 157, 366, 188
-0.998288, 397, 213, 412, 244
-0.998297, 57, 141, 72, 172
-0.998298, 351, 209, 366, 240
-0.9983, 485, 41, 500, 72
-0.9983, 337, 137, 352, 168
-0.998303, 97, 125, 224, 156
-0.998303, 285, 177, 316, 304
-0.998305, 385, 209, 400, 240
-0.99831, 199, 125, 214, 156
-0.998317, 89, 197, 104, 228
-0.998318, 107, 213, 122, 244
-0.998319, 435, 237, 450, 268
-0.998323, 79, 217, 94, 248
-0.998332, 91, 133, 106, 164
-0.998338, 457, 149, 472, 180
-0.99834, 151, 45, 166, 76
-0.998343, 445, 197, 460, 228
-0.998374, 113, 197, 144, 212
-0.998375, 165, 191, 196, 206
-0.998376, 213, 191, 244, 206
-0.998376, 425, 189, 456, 204
-0.998377, 217, 111, 248, 126
-0.998378, 353, 129, 384, 144
-0.998378, 189, 163, 220, 178
-0.99838, 153, 195, 184, 210
-0.998381, 381, 207, 412, 222
-0.998383, 393, 179, 424, 194
-0.998383, 325, 191, 356, 206
-0.998383, 81, 219, 112, 234
-0.998384, 141, 31, 172, 46
-0.998384, 329, 127, 360, 142
-0.998385, 145, 251, 176, 266
-0.998387, 193, 209, 320, 240
-0.998388, 229, 161, 260, 176
-0.998388, 33, 253, 160, 284
-0.998388, 57, 195, 88, 210
-0.998389, 101, 39, 132, 54
-0.99839, 221, 171, 252, 186
-0.99839, 409, 175, 440, 190
-0.99839, 53, 173, 84, 188
-0.998391, 349, 159, 380, 174
-0.998394, 233, 169, 264, 184
-0.998395, 321, 93, 352, 108
-0.998396, 469, 215, 500, 230
-0.998396, 145, 47, 176, 62
-0.998397, 197, 189, 228, 204
-0.998398, 1, 49, 128, 80
-0.998398, 77, 197, 108, 212
-0.998398, 373, 213, 404, 228
-0.998399, 97, 209, 128, 224
-0.998401, 133, 193, 164, 208
-0.998402, 65, 269, 192, 300
-0.998403, 101, 27, 132, 42
-0.998403, 189, 169, 220, 184
-0.998404, 453, 225, 484, 240
-0.998404, 429, 145, 460, 160
-0.998404, 125, 203, 156, 218
-0.998405, 113, 173, 144, 188
-0.998407, 217, 153, 248, 168
-0.998408, 333, 185, 364, 200
-0.998408, 177, 191, 208, 206
-0.998408, 329, 139, 360, 154
-0.998409, 121, 157, 152, 172
-0.998409, 101, 197, 132, 212
-0.998411, 45, 215, 76, 230
-0.998411, 449, 71, 480, 86
-0.998412, 193, 151, 224, 166
-0.998413, 337, 151, 400, 166
-0.998414, 337, 157, 368, 172
-0.998414, 105, 47, 136, 62
-0.998415, 153, 205, 184, 220
-0.998415, 101, 179, 132, 194
-0.998415, 441, 235, 472, 250
-0.998416, 365, 183, 396, 198
-0.998416, 337, 133, 400, 148
-0.998416, 393, 215, 424, 230
-0.998418, 321, 157, 384, 172
-0.998419, 33, 241, 160, 272
-0.99842, 105, 167, 136, 182
-0.99842, 317, 133, 348, 148
-0.998421, 429, 161, 460, 176
-0.998421, 389, 135, 420, 150
-0.998423, 433, 199, 464, 214
-0.998423, 313, 191, 344, 206
-0.998425, 217, 159, 248, 174
-0.998427, 437, 187, 468, 202
-0.998428, 337, 151, 368, 166
-0.998429, 365, 131, 396, 146
-0.99843, 89, 141, 120, 156
-0.998431, 201, 169, 232, 184
-0.998431, 201, 161, 232, 176
-0.998432, 121, 209, 152, 224
-0.998434, 401, 135, 432, 150
-0.998436, 25, 217, 56, 232
-0.998436, 369, 37, 496, 68
-0.998436, 93, 215, 124, 230
-0.998437, 441, 151, 472, 166
-0.998438, 229, 153, 260, 168
-0.998439, 441, 211, 472, 226
-0.998439, 309, 185, 340, 200
-0.99844, 109, 215, 140, 230
-0.998442, 225, 61, 352, 92
-0.998443, 385, 185, 416, 200
-0.998443, 321, 185, 352, 200
-0.998443, 377, 139, 440, 154
-0.998444, 341, 129, 372, 144
-0.998445, 437, 193, 468, 208
-0.998446, 353, 171, 384, 186
-0.998446, 117, 191, 148, 206
-0.99845, 325, 167, 356, 182
-0.998451, 313, 135, 376, 150
-0.998452, 425, 177, 456, 192
-0.998453, 205, 151, 236, 166
-0.998454, 417, 183, 448, 198
-0.998455, 65, 203, 96, 218
-0.998455, 429, 151, 460, 166
-0.998456, 429, 227, 460, 242
-0.998459, 317, 175, 348, 190
-0.99846, 345, 187, 376, 202
-0.998461, 469, 229, 500, 244
-0.998463, 349, 145, 380, 160
-0.998464, 101, 185, 132, 200
-0.998465, 101, 173, 132, 188
-0.998467, 141, 207, 172, 222
-0.998468, 429, 211, 460, 226
-0.998471, 469, 221, 500, 236
-0.998472, 413, 209, 444, 224
-0.998472, 201, 125, 232, 140
-0.998473, 413, 219, 444, 234
-0.998478, 385, 183, 448, 198
-0.998478, 361, 161, 392, 176
-0.998478, 197, 117, 228, 132
-0.998479, 361, 155, 392, 170
-0.99848, 345, 179, 376, 194
-0.99848, 417, 215, 480, 230
-0.998481, 17, 217, 80, 232
-0.998481, 213, 123, 244, 138
-0.998481, 57, 157, 88, 172
-0.998481, 425, 223, 488, 238
-0.998482, 377, 135, 408, 150
-0.998482, 217, 117, 248, 132
-0.998483, 433, 205, 464, 220
-0.998484, 109, 159, 140, 174
-0.998486, 385, 219, 448, 234
-0.998486, 465, 235, 496, 250
-0.998489, 149, 1, 180, 256
-0.99849, 321, 145, 384, 160
-0.998491, 321, 177, 384, 192
-0.998494, 33, 265, 288, 328
-0.998494, 413, 137, 444, 152
-0.998494, 89, 133, 120, 148
-0.998495, 1, 9, 128, 40
-0.998499, 453, 207, 484, 222
-0.9985, 189, 65, 220, 320
-0.998501, 185, 113, 248, 128
-0.998502, 121, 207, 184, 222
-0.998508, 213, 65, 244, 320
-0.99851, 201, 159, 264, 174
-0.998511, 129, 97, 256, 128
-0.998512, 101, 191, 132, 206
-0.998513, 361, 149, 392, 164
-0.998515, 425, 217, 456, 232
-0.998519, 449, 219, 480, 234
-0.99852, 49, 135, 112, 150
-0.998521, 337, 139, 400, 154
-0.998522, 425, 209, 488, 224
-0.998522, 105, 191, 168, 206
-0.998523, 417, 203, 480, 218
-0.998526, 73, 191, 136, 206
-0.998527, 105, 159, 168, 174
-0.998527, 361, 133, 424, 148
-0.998528, 225, 249, 352, 280
-0.998531, 457, 213, 488, 228
-0.998533, 185, 121, 248, 136
-0.998535, 97, 213, 160, 228
-0.998535, 169, 169, 232, 184
-0.998536, 385, 209, 448, 224
-0.998538, 201, 169, 264, 184
-0.998538, 433, 235, 496, 250
-0.998541, 73, 197, 136, 212
-0.998541, 73, 217, 136, 232
-0.998542, 105, 201, 168, 216
-0.998543, 145, 201, 208, 216
-0.998546, 361, 143, 392, 158
-0.998548, 57, 141, 120, 156
-0.998549, 129, 193, 192, 208
-0.998549, 385, 201, 448, 216
-0.99855, 345, 181, 408, 196
-0.998553, 321, 167, 384, 182
-0.998556, 345, 145, 408, 160
-0.998558, 417, 161, 480, 176
-0.99856, 41, 211, 104, 226
-0.998561, 361, 177, 392, 192
-0.998565, 349, 151, 380, 166
-0.998566, 201, 153, 264, 168
-0.998566, 409, 233, 472, 248
-0.998566, 361, 213, 424, 228
-0.998568, 73, 185, 136, 200
-0.998571, 65, 205, 128, 220
-0.998575, 417, 149, 480, 164
-0.998576, 349, 135, 380, 150
-0.998576, 97, 49, 160, 64
-0.998576, 209, 121, 272, 136
-0.998577, 405, 181, 436, 196
-0.998577, 113, 31, 176, 46
-0.998577, 89, 175, 152, 190
-0.998578, 73, 165, 136, 180
-0.998579, 113, 185, 144, 200
-0.99858, 185, 191, 248, 206
-0.99858, 329, 177, 360, 192
-0.998581, 153, 189, 216, 204
-0.998582, 325, 157, 356, 172
-0.998583, 185, 127, 248, 142
-0.998585, 113, 185, 176, 200
-0.998585, 97, 169, 160, 184
-0.998586, 97, 43, 160, 58
-0.998589, 329, 133, 360, 148
-0.99859, 409, 177, 472, 192
-0.998592, 17, 131, 80, 146
-0.998592, 313, 185, 376, 200
-0.998592, 393, 189, 456, 204
-0.998593, 313, 151, 376, 166
-0.998593, 297, 51, 360, 66
-0.998594, 409, 197, 472, 212
-0.998597, 353, 175, 416, 190
-0.998601, 329, 93, 392, 108
-0.998601, 161, 153, 224, 168
-0.998602, 433, 229, 496, 244
-0.998602, 13, 161, 44, 288
-0.998602, 427, 161, 442, 288
-0.998604, 377, 145, 440, 160
-0.998604, 129, 221, 256, 252
-0.998604, 185, 199, 248, 214
-0.998605, 169, 163, 232, 178
-0.998607, 385, 195, 448, 210
-0.998607, 297, 175, 360, 190
-0.998608, 281, 155, 344, 170
-0.998609, 17, 137, 80, 152
-0.998609, 417, 155, 480, 170
-0.99861, 377, 151, 440, 166
-0.99861, 353, 93, 416, 108
-0.998612, 377, 177, 440, 192
-0.998613, 281, 165, 344, 180
-0.998613, 417, 241, 480, 256
-0.998616, 361, 137, 392, 152
-0.998617, 305, 211, 368, 226
-0.998618, 33, 203, 96, 218
-0.998618, 337, 213, 400, 228
-0.99862, 73, 51, 136, 66
-0.998622, 193, 133, 256, 148
-0.998624, 113, 25, 176, 40
-0.998626, 289, 185, 352, 200
-0.998626, 305, 193, 368, 208
-0.998626, 193, 145, 256, 160
-0.998627, 377, 229, 440, 244
-0.998627, 337, 221, 400, 236
-0.998627, 121, 37, 184, 52
-0.998627, 129, 161, 192, 176
-0.99863, 145, 207, 208, 222
-0.99863, 113, 253, 176, 268
-0.998632, 161, 1, 192, 256
-0.998633, 97, 55, 160, 70
-0.998633, 49, 221, 112, 236
-0.998633, 129, 171, 192, 186
-0.998633, 305, 91, 368, 106
-0.998634, 97, 37, 160, 52
-0.998634, 1, 209, 64, 224
-0.998634, 33, 191, 96, 206
-0.998635, 377, 163, 440, 178
-0.998636, 289, 133, 352, 148
-0.998636, 385, 9, 448, 24
-0.998636, 169, 175, 232, 190
-0.998637, 17, 153, 80, 168
-0.998638, 65, 155, 128, 170
-0.998639, 65, 171, 128, 186
-0.99864, 313, 129, 376, 144
-0.99864, 353, 187, 416, 202
-0.998641, 113, 239, 176, 254
-0.998641, 65, 179, 128, 194
-0.998641, 137, 57, 200, 72
-0.998642, 73, 35, 136, 50
-0.998642, 169, 183, 232, 198
-0.998643, 89, 207, 152, 222
-0.998645, 17, 147, 80, 162
-0.998645, 153, 195, 216, 210
-0.998646, 401, 227, 464, 242
-0.998646, 385, 235, 448, 250
-0.998646, 145, 235, 208, 250
-0.998646, 417, 143, 480, 158
-0.998646, 385, 133, 448, 148
-0.998648, 209, 115, 272, 130
-0.998651, 241, 163, 304, 178
-0.998651, 121, 213, 184, 228
-0.998651, 73, 45, 136, 60
-0.998655, 201, 111, 232, 126
-0.998657, 321, 29, 448, 60
-0.99867, 369, 125, 496, 156
-0.998672, 137, 1, 168, 256
-0.998696, 257, 5, 384, 36
-0.998709, 241, 269, 368, 300
-0.998712, 359, 129, 374, 256
-0.998714, 369, 13, 496, 44
-0.998719, 337, 289, 464, 320
-0.998719, 353, 301, 480, 332
-0.998734, 117, 161, 132, 288
-0.998779, 111, 177, 126, 304
-0.998788, 321, 113, 448, 144
-0.998789, 369, 257, 496, 288
-0.998808, 381, 129, 396, 256
-0.998809, 373, 129, 388, 256
-0.998811, 81, 237, 208, 268
-0.998816, 225, 81, 352, 112
-0.998819, 123, 161, 138, 288
-0.998824, 365, 129, 380, 256
-0.998832, 435, 193, 450, 320
-0.998833, 1, 73, 256, 136
-0.998843, 455, 193, 470, 320
-0.998848, 419, 129, 434, 256
-0.99886, 349, 129, 364, 256
-0.99889, 369, 269, 496, 300
-0.998902, 421, 177, 436, 304
-0.99891, 321, 13, 448, 44
-0.998918, 273, 117, 400, 148
-0.998921, 411, 129, 426, 256
-0.998924, 113, 9, 240, 40
-0.998929, 327, 129, 342, 256
-0.99893, 289, 281, 416, 312
-0.998931, 433, 145, 448, 272
-0.998933, 107, 129, 122, 256
-0.998935, 241, 37, 368, 68
-0.998937, 105, 177, 120, 304
-0.998938, 353, 33, 384, 288
-0.998944, 415, 177, 430, 304
-0.998949, 433, 1, 496, 128
-0.998959, 343, 129, 358, 256
-0.998961, 63, 145, 78, 272
-0.998975, 289, 1, 320, 256
-0.998976, 317, 65, 348, 320
-0.998982, 33, 229, 160, 260
-0.998987, 445, 193, 460, 320
-0.998998, 37, 65, 68, 320
-0.999004, 399, 129, 414, 256
-0.999018, 1, 269, 128, 300
-0.999019, 277, 33, 308, 288
-0.999021, 461, 193, 476, 320
-0.999021, 395, 177, 410, 304
-0.999029, 471, 193, 486, 320
-0.999036, 411, 1, 426, 128
-0.99904, 225, 49, 352, 80
-0.999041, 389, 129, 404, 256
-0.999043, 129, 161, 144, 288
-0.999043, 337, 129, 352, 256
-0.999049, 225, 17, 352, 48
-0.999057, 405, 145, 420, 272
-0.999082, 69, 161, 84, 288
-0.999094, 113, 261, 240, 292
-0.999095, 423, 1, 438, 128
-0.999098, 13, 1, 44, 256
-0.9991, 199, 113, 214, 240
-0.9991, 149, 1, 164, 128
-0.999108, 213, 97, 228, 224
-0.999111, 121, 209, 136, 333
-0.99912, 167, 161, 182, 288
-0.999132, 403, 1, 418, 128
-0.999132, 477, 209, 492, 333
-0.999133, 95, 129, 110, 256
-0.999144, 207, 97, 222, 224
-0.999147, 305, 33, 336, 288
-0.999159, 161, 253, 288, 284
-0.999162, 417, 1, 432, 128
-0.999164, 157, 161, 172, 288
-0.999166, 321, 129, 336, 256
-0.999167, 29, 193, 60, 320
-0.999167, 129, 1, 144, 128
-0.999169, 101, 129, 116, 256
-0.99917, 455, 49, 470, 176
-0.999181, 425, 113, 440, 240
-0.999184, 337, 49, 352, 176
-0.999186, 395, 1, 410, 128
-0.99919, 483, 17, 498, 144
-0.999192, 135, 161, 150, 288
-0.999195, 429, 209, 444, 333
-0.999208, 387, 177, 402, 304
-0.999208, 333, 177, 348, 304
-0.99921, 69, 113, 84, 240
-0.99921, 99, 177, 114, 304
-0.999213, 345, 177, 360, 304
-0.999218, 485, 209, 500, 333
-0.999223, 381, 177, 396, 304
-0.999225, 175, 161, 190, 288
-0.999225, 339, 177, 354, 304
-0.999227, 173, 33, 204, 288
-0.999231, 113, 113, 128, 240
-0.999235, 89, 1, 104, 128
-0.999238, 401, 193, 416, 320
-0.999239, 1, 1, 32, 256
-0.999245, 113, 53, 240, 84
-0.999245, 151, 161, 166, 288
-0.999251, 453, 145, 468, 272
-0.999253, 325, 177, 340, 304
-0.999255, 145, 209, 272, 240
-0.999258, 429, 1, 444, 128
-0.999266, 89, 129, 104, 256
-0.999272, 461, 49, 476, 176
-0.999284, 331, 81, 346, 208
-0.999285, 127, 209, 142, 333
-0.999289, 343, 49, 358, 176
-0.999289, 297, 1, 312, 128
-0.999297, 225, 193, 256, 320
-0.999299, 181, 161, 196, 288
-0.999308, 355, 81, 370, 208
-0.999312, 349, 81, 364, 208
-0.999318, 219, 97, 234, 224
-0.999319, 123, 113, 138, 240
-0.999319, 141, 1, 156, 128
-0.99932, 373, 81, 388, 208
-0.999322, 381, 81, 396, 208
-0.999325, 135, 1, 150, 128
-0.999327, 145, 193, 160, 320
-0.999327, 363, 81, 378, 208
-0.999334, 75, 177, 90, 304
-0.999335, 95, 1, 110, 128
-0.999338, 1, 93, 128, 124
-0.999338, 461, 145, 476, 272
-0.999341, 155, 1, 170, 128
-0.999347, 109, 1, 124, 128
-0.999347, 447, 145, 462, 272
-0.999349, 233, 113, 248, 240
-0.999358, 13, 17, 28, 144
-0.999359, 369, 25, 496, 56
-0.999363, 319, 81, 334, 208
-0.999367, 189, 161, 204, 288
-0.99937, 3, 49, 18, 176
-0.999372, 439, 145, 454, 272
-0.999372, 57, 129, 72, 256
-0.999374, 193, 113, 208, 240
-0.999374, 145, 25, 272, 56
-0.999377, 103, 1, 118, 128
-0.99938, 81, 129, 96, 256
-0.999395, 403, 49, 418, 176
-0.999401, 395, 81, 410, 208
-0.999408, 375, 177, 390, 304
-0.999412, 319, 177, 334, 304
-0.999423, 159, 209, 174, 333
-0.999423, 81, 65, 208, 96
-0.999429, 265, 177, 280, 304
-0.999432, 387, 49, 402, 176
-0.999434, 75, 129, 90, 256
-0.999441, 49, 65, 80, 320
-0.999442, 233, 65, 264, 320
-0.999444, 467, 145, 482, 272
-0.999444, 123, 1, 138, 128
-0.999445, 415, 81, 430, 208
-0.999448, 475, 65, 490, 192
-0.99945, 225, 97, 240, 224
-0.999453, 179, 113, 194, 240
-0.999456, 481, 161, 496, 288
-0.999463, 389, 1, 404, 128
-0.999463, 347, 1, 362, 128
-0.999465, 289, 33, 304, 160
-0.999468, 17, 65, 32, 192
-0.999472, 467, 49, 482, 176
-0.999473, 73, 1, 88, 128
-0.999479, 87, 209, 102, 333
-0.999481, 209, 49, 224, 176
-0.999481, 25, 1, 56, 256
-0.999482, 63, 97, 78, 224
-0.999484, 11, 65, 26, 192
-0.999488, 133, 209, 148, 333
-0.999488, 83, 1, 98, 128
-0.999532, 29, 113, 60, 240
-0.999582, 437, 223, 452, 238
-0.999582, 113, 209, 128, 224
-0.999583, 107, 215, 122, 230
-0.999583, 89, 213, 104, 228
-0.999584, 133, 157, 148, 172
-0.999584, 387, 183, 402, 198
-0.999585, 55, 215, 70, 230
-0.999585, 425, 211, 440, 226
-0.999586, 101, 141, 116, 156
-0.999587, 401, 135, 416, 150
-0.999587, 221, 117, 236, 132
-0.999587, 101, 135, 116, 150
-0.999588, 455, 203, 470, 218
-0.99959, 89, 133, 104, 148
-0.99959, 115, 173, 130, 188
-0.999591, 403, 213, 418, 228
-0.999591, 335, 157, 350, 172
-0.999591, 435, 143, 450, 158
-0.999591, 357, 189, 372, 204
-0.999591, 217, 163, 232, 178
-0.999591, 231, 153, 246, 168
-0.999592, 101, 193, 116, 208
-0.999592, 207, 169, 222, 184
-0.999592, 365, 151, 380, 166
-0.999594, 367, 173, 382, 188
-0.999595, 121, 209, 136, 224
-0.999596, 79, 201, 94, 216
-0.999598, 473, 227, 488, 242
-0.999598, 149, 47, 164, 62
-0.999599, 229, 125, 244, 140
-0.999599, 327, 161, 342, 176
-0.999599, 189, 169, 204, 184
-0.9996, 209, 121, 224, 136
-0.999601, 471, 209, 486, 224
-0.999602, 203, 127, 218, 142
-0.999603, 433, 149, 448, 164
-0.999603, 213, 169, 228, 184
-0.999603, 365, 93, 380, 108
-0.999604, 319, 169, 334, 184
-0.999605, 87, 139, 102, 154
-0.999605, 147, 203, 162, 218
-0.999606, 419, 135, 434, 150
-0.999607, 327, 167, 342, 182
-0.999608, 463, 237, 478, 252
-0.999608, 61, 155, 76, 170
-0.999608, 107, 167, 122, 182
-0.999609, 425, 181, 440, 196
-0.999609, 121, 189, 136, 204
-0.99961, 215, 153, 230, 168
-0.99961, 129, 203, 144, 218
-0.999611, 407, 135, 422, 150
-0.999611, 341, 157, 356, 172
-0.999612, 441, 207, 456, 222
-0.999613, 113, 215, 128, 230
-0.999614, 375, 145, 390, 160
-0.999615, 443, 197, 458, 212
-0.999615, 425, 217, 440, 232
-0.999617, 221, 171, 236, 186
-0.999617, 399, 185, 414, 200
-0.999617, 113, 197, 128, 212
-0.999618, 369, 131, 384, 146
-0.999618, 221, 125, 236, 140
-0.999618, 413, 135, 428, 150
-0.999619, 431, 189, 446, 204
-0.999619, 425, 141, 440, 156
-0.99962, 223, 153, 238, 168
-0.999621, 439, 217, 454, 232
-0.999621, 215, 123, 230, 138
-0.999622, 209, 163, 224, 178
-0.999623, 381, 183, 396, 198
-0.999625, 199, 149, 214, 164
-0.999625, 121, 179, 136, 194
-0.999628, 331, 175, 346, 190
-0.999628, 349, 185, 364, 200
-0.999629, 373, 179, 388, 194
-0.99963, 463, 215, 478, 230
-0.999631, 127, 185, 142, 200
-0.999631, 477, 221, 492, 236
-0.999632, 467, 225, 482, 240
-0.999633, 461, 203, 476, 218
-0.999633, 425, 135, 440, 150
-0.999635, 95, 139, 110, 154
-0.999635, 363, 131, 378, 146
-0.999636, 343, 177, 358, 192
-0.999641, 209, 153, 224, 168
-0.999641, 373, 163, 388, 178
-0.999642, 359, 179, 374, 194
-0.999642, 67, 157, 82, 172
-0.999643, 393, 185, 408, 200
-0.999644, 365, 181, 380, 196
-0.999644, 441, 191, 456, 206
-0.999647, 361, 143, 376, 158
-0.999647, 433, 155, 448, 170
-0.999649, 373, 153, 388, 168
-0.999649, 375, 139, 390, 154
-0.999649, 455, 211, 470, 226
-0.999657, 111, 159, 126, 174
-0.999658, 431, 217, 446, 232
-0.999658, 161, 33, 192, 160
-0.99966, 385, 137, 400, 152
-0.999661, 203, 111, 218, 126
-0.999661, 367, 161, 382, 176
-0.999662, 353, 151, 368, 166
-0.999662, 203, 119, 218, 134
-0.999662, 69, 205, 84, 220
-0.999662, 209, 127, 224, 142
-0.999664, 431, 211, 446, 226
-0.999667, 327, 133, 342, 148
-0.999668, 209, 111, 224, 126
-0.999672, 359, 151, 374, 166
-0.999675, 115, 187, 130, 202
-0.999677, 339, 133, 354, 148
-0.999679, 379, 133, 394, 148
-0.999682, 409, 181, 424, 196
-0.999683, 437, 197, 452, 212
-0.999687, 469, 215, 484, 230
-0.999688, 345, 133, 360, 148
-0.999691, 353, 179, 368, 194
-0.9997, 323, 183, 338, 198
-0.999702, 329, 155, 344, 170
-0.999702, 351, 133, 366, 148
-0.999708, 333, 131, 348, 146
-0.999709, 471, 233, 486, 248
-0.99971, 107, 191, 122, 206
-0.99971, 373, 173, 388, 188
-0.999711, 325, 175, 340, 190
-0.999715, 367, 137, 382, 152
-0.999716, 355, 143, 370, 158
-0.999716, 435, 203, 450, 218
-0.999749, 465, 209, 480, 224
-0.999769, 1, 249, 500, 312
-0.999802, 357, 135, 372, 150
-1.00014, 253, 65, 284, 320
-1.0002, 129, 273, 384, 333
-1.00037, 265, 65, 296, 320
-1.00146, 1, 273, 500, 333
-1.00155, 145, 1, 272, 128
-1.00514, 153, 1, 216, 128
-1.00585, 217, 33, 280, 160
-1.00745, 177, 1, 240, 128
