1843
-0.198867, 1, 1, 500, 300
-0.322639, 65, 1, 320, 300
-0.355037, 1, 1, 500, 256
-0.442467, 193, 1, 448, 300
-0.501803, 65, 1, 320, 256
-0.591892, 193, 33, 448, 288
-0.830173, 177, 1, 304, 256
-0.841507, 113, 1, 240, 300
-0.845029, 129, 1, 256, 256
-0.846908, 161, 1, 288, 300
-0.864462, 289, 1, 416, 300
-0.86705, 209, 1, 336, 300
-0.869745, 225, 1, 352, 256
-0.870213, 81, 1, 208, 256
-0.873444, 1, 33, 500, 160
-0.881104, 289, 1, 416, 256
-0.888548, 1, 161, 500, 288
-0.895145, 1, 81, 500, 208
-0.898823, 65, 1, 192, 300
-0.909388, 193, 161, 448, 288
-0.912459, 65, 33, 320, 160
-0.916336, 129, 113, 384, 240
-0.927442, 33, 113, 288, 240
-0.929557, 193, 49, 448, 176
-0.931042, 177, 97, 304, 224
-0.932383, 33, 1, 160, 256
-0.93407, 1, 1, 128, 300
-0.93418, 97, 49, 224, 176
-0.938311, 177, 33, 304, 160
-0.93921, 289, 161, 416, 288
-0.940216, 97, 113, 224, 240
-0.941732, 313, 145, 376, 272
-0.942326, 337, 1, 464, 256
-0.944737, 337, 1, 464, 300
-0.945085, 97, 177, 352, 300
-0.945832, 225, 97, 352, 224
-0.946581, 225, 113, 480, 240
-0.948247, 161, 97, 224, 224
-0.948317, 185, 97, 248, 224
-0.948778, 177, 145, 304, 272
-0.949259, 225, 49, 352, 176
-0.950176, 161, 33, 224, 160
-0.950279, 241, 65, 304, 192
-0.952085, 1, 177, 256, 300
-0.95274, 281, 113, 344, 240
-0.953054, 289, 33, 416, 160
-0.953239, 193, 49, 256, 176
-0.954065, 81, 49, 144, 176
-0.954133, 177, 97, 240, 160
-0.955334, 241, 145, 368, 272
-0.956701, 209, 113, 272, 240
-0.957587, 129, 177, 256, 300
-0.95781, 297, 41, 360, 104
-0.959022, 185, 145, 248, 272
-0.959055, 137, 33, 200, 160
-0.959059, 345, 161, 408, 288
-0.959578, 177, 121, 240, 184
-0.960577, 281, 153, 344, 216
-0.960758, 257, 145, 320, 272
-0.96116, 305, 145, 368, 208
-0.962328, 89, 177, 152, 300
-0.963012, 257, 145, 320, 208
-0.963112, 305, 97, 368, 224
-0.963306, 185, 209, 248, 272
-0.963823, 193, 1, 256, 256
-0.963955, 153, 105, 216, 168
-0.964184, 201, 113, 264, 176
-0.964261, 105, 33, 168, 160
-0.965175, 289, 97, 416, 224
-0.965188, 281, 65, 344, 192
-0.965193, 329, 161, 392, 224
-0.965198, 201, 145, 264, 208
-0.965428, 217, 33, 280, 160
-0.966305, 81, 97, 144, 224
-0.966376, 137, 81, 200, 144
-0.966384, 225, 1, 288, 256
-0.966518, 273, 41, 336, 104
-0.966632, 201, 89, 264, 152
-0.966834, 321, 33, 384, 160
-0.967362, 273, 113, 336, 176
-0.967727, 49, 49, 176, 176
-0.967946, 345, 41, 408, 104
-0.968204, 281, 161, 344, 288
-0.968442, 81, 97, 144, 160
-0.968728, 225, 41, 288, 104
-0.969118, 89, 49, 152, 112
-0.969124, 81, 73, 144, 136
-0.969245, 345, 217, 408, 280
-0.969335, 113, 97, 176, 160
-0.969554, 89, 209, 152, 272
-0.969554, 233, 129, 296, 256
-0.969592, 321, 41, 384, 104
-0.96975, 345, 33, 408, 160
-0.969862, 273, 17, 336, 144
-0.970398, 169, 41, 232, 104
-0.970463, 161, 217, 224, 280
-0.970712, 137, 81, 200, 208
-0.970786, 337, 129, 464, 256
-0.970868, 241, 17, 304, 144
-0.970937, 273, 1, 336, 256
-0.970973, 337, 97, 400, 224
-0.97102, 233, 129, 296, 192
-0.971228, 145, 1, 208, 256
-0.971422, 281, 65, 344, 128
-0.971916, 297, 89, 360, 152
-0.972034, 113, 81, 240, 144
-0.972145, 193, 41, 256, 104
-0.97223, 89, 1, 152, 256
-0.972531, 169, 1, 232, 256
-0.97262, 225, 81, 288, 144
-0.972797, 161, 145, 224, 272
-0.973174, 177, 105, 304, 168
-0.973234, 193, 121, 224, 184
-0.97332, 113, 41, 176, 104
-0.973366, 177, 145, 240, 208
-0.973548, 297, 1, 360, 256
-0.973737, 81, 177, 208, 300
-0.973863, 341, 145, 372, 272
-0.973984, 321, 233, 384, 296
-0.974073, 209, 209, 272, 272
-0.974339, 177, 65, 240, 128
-0.97437, 177, 185, 240, 248
-0.974491, 297, 17, 360, 144
-0.974577, 161, 1, 416, 128
-0.97484, 81, 105, 208, 168
-0.974918, 145, 41, 208, 104
-0.974955, 205, 113, 236, 176
-0.975065, 273, 153, 400, 216
-0.975101, 225, 153, 288, 216
-0.975148, 209, 161, 336, 224
-0.975293, 353, 161, 416, 224
-0.975314, 57, 33, 120, 160
-0.975583, 201, 65, 264, 128
-0.9759, 193, 129, 224, 256
-0.976044, 105, 97, 168, 224
-0.97605, 153, 129, 216, 192
-0.976392, 209, 161, 272, 288
-0.976615, 249, 41, 312, 104
-0.976681, 161, 81, 288, 144
-0.976726, 129, 105, 256, 168
-0.976763, 249, 1, 312, 256
-0.976917, 353, 241, 416, 300
-0.977106, 225, 105, 288, 168
-0.977148, 81, 121, 144, 184
-0.977198, 193, 97, 224, 160
-0.977315, 129, 49, 256, 112
-0.977389, 113, 1, 240, 128
-0.977445, 289, 41, 416, 104
-0.97748, 177, 49, 304, 112
-0.977488, 233, 177, 296, 300
-0.977494, 197, 185, 228, 248
-0.977768, 277, 153, 308, 216
-0.977902, 161, 145, 288, 208
-0.97795, 89, 33, 120, 160
-0.978154, 181, 113, 212, 240
-0.978334, 121, 1, 184, 256
-0.978458, 145, 209, 272, 272
-0.978555, 225, 113, 352, 176
-0.978575, 257, 65, 320, 128
-0.978699, 337, 65, 400, 128
-0.978759, 137, 225, 200, 288
-0.978804, 325, 129, 356, 256
-0.978827, 177, 105, 208, 168
-0.978942, 169, 33, 200, 160
-0.978994, 201, 81, 232, 208
-0.979027, 289, 177, 352, 240
-0.979066, 321, 1, 384, 256
-0.97908, 301, 41, 332, 104
-0.979153, 257, 89, 320, 152
-0.979265, 193, 33, 224, 160
-0.979468, 213, 81, 244, 144
-0.979474, 209, 81, 336, 144
-0.979495, 65, 81, 192, 144
-0.979532, 357, 161, 388, 288
-0.979533, 297, 121, 360, 184
-0.979535, 209, 209, 240, 272
-0.979654, 217, 233, 280, 296
-0.979725, 241, 233, 304, 296
-0.979807, 309, 153, 340, 216
-0.979844, 81, 241, 144, 300
-0.979882, 297, 233, 360, 296
-0.980025, 81, 41, 208, 104
-0.98005, 261, 33, 292, 160
-0.980059, 97, 217, 224, 280
-0.980146, 49, 97, 176, 224
-0.980147, 357, 169, 388, 232
-0.980156, 181, 33, 212, 160
-0.980203, 273, 97, 304, 224
-0.980266, 225, 49, 352, 112
-0.980452, 257, 169, 320, 232
-0.980462, 213, 113, 244, 240
-0.980501, 89, 41, 120, 104
-0.980526, 217, 113, 248, 176
-0.980537, 225, 137, 352, 200
-0.980568, 105, 73, 168, 136
-0.980586, 297, 145, 328, 208
-0.980754, 345, 1, 408, 256
-0.980761, 177, 185, 304, 248
-0.980898, 249, 33, 280, 160
-0.98107, 89, 185, 152, 248
-0.9812, 217, 177, 280, 240
-0.98124, 305, 97, 336, 224
-0.981249, 285, 113, 316, 240
-0.98134, 321, 137, 352, 200
-0.981626, 197, 41, 228, 104
-0.981686, 221, 41, 252, 104
-0.981889, 321, 121, 384, 184
-0.981921, 305, 241, 432, 300
-0.9822, 193, 217, 224, 280
-0.982204, 269, 113, 300, 176
-0.982226, 225, 1, 352, 128
-0.982233, 65, 49, 128, 112
-0.982248, 113, 217, 176, 280
-0.982289, 149, 41, 180, 104
-0.98233, 265, 241, 328, 300
-0.982344, 129, 185, 256, 248
-0.982428, 337, 177, 464, 300
-0.982454, 289, 217, 416, 280
-0.9826, 321, 41, 352, 104
-0.982667, 161, 1, 224, 300
-0.982721, 65, 177, 128, 300
-0.982722, 321, 89, 384, 152
-0.982734, 305, 65, 368, 128
-0.982749, 209, 177, 240, 240
-0.982753, 173, 41, 204, 104
-0.98277, 253, 41, 284, 104
-0.982883, 209, 137, 240, 200
-0.982914, 361, 113, 424, 240
-0.982916, 257, 81, 384, 144
-0.982945, 229, 73, 260, 136
-0.982976, 113, 241, 176, 300
-0.983098, 353, 137, 416, 200
-0.983189, 121, 33, 152, 160
-0.983211, 93, 209, 124, 272
-0.983214, 289, 169, 320, 232
-0.983246, 157, 81, 188, 144
-0.983342, 193, 233, 256, 296
-0.983349, 1, 153, 64, 216
-0.983449, 217, 1, 280, 300
-0.983621, 149, 33, 180, 160
-0.983757, 221, 33, 252, 160
-0.983758, 169, 241, 232, 300
-0.983818, 197, 177, 228, 300
-0.983875, 209, 209, 336, 272
-0.983894, 65, 169, 128, 232
-0.98396, 277, 161, 308, 288
-0.983966, 373, 41, 404, 104
-0.984088, 89, 1, 152, 300
-0.98415, 1, 65, 128, 192
-0.984154, 289, 177, 416, 240
-0.984161, 257, 241, 384, 300
-0.984261, 289, 113, 320, 176
-0.984307, 137, 33, 168, 160
-0.984327, 185, 1, 248, 300
-0.984356, 121, 97, 152, 160
-0.984407, 301, 113, 332, 176
-0.984436, 289, 121, 416, 184
-0.984492, 257, 97, 288, 224
-0.984498, 57, 97, 120, 224
-0.984509, 297, 145, 328, 272
-0.984623, 273, 217, 336, 280
-0.984672, 181, 129, 212, 192
-0.984697, 57, 89, 120, 152
-0.984702, 233, 33, 264, 160
-0.984706, 133, 89, 164, 152
-0.984752, 185, 73, 216, 136
-0.984761, 1, 193, 32, 256
-0.984787, 5, 169, 36, 232
-0.984799, 333, 41, 364, 104
-0.984813, 309, 145, 340, 272
-0.984831, 197, 153, 228, 216
-0.984898, 265, 145, 296, 208
-0.984932, 325, 81, 356, 208
-0.98495, 345, 153, 376, 216
-0.984963, 245, 97, 276, 224
-0.985008, 249, 129, 280, 192
-0.985105, 5, 129, 36, 192
-0.985125, 233, 41, 264, 104
-0.985219, 177, 233, 304, 296
-0.985327, 313, 209, 376, 272
-0.985344, 97, 177, 128, 300
-0.985357, 137, 177, 200, 300
-0.985391, 345, 1, 408, 300
-0.985437, 277, 49, 308, 176
-0.98552, 137, 1, 200, 300
-0.985524, 281, 49, 312, 112
-0.985546, 177, 209, 208, 272
-0.985571, 209, 33, 240, 160
-0.985623, 113, 177, 176, 300
-0.985623, 17, 177, 144, 300
-0.985721, 229, 81, 260, 208
-0.985812, 333, 145, 364, 208
-0.985884, 113, 129, 240, 192
-0.985934, 225, 145, 256, 208
-0.985948, 221, 209, 252, 272
-0.985983, 261, 177, 292, 300
-0.986008, 305, 89, 432, 152
-0.986054, 329, 185, 392, 248
-0.986101, 137, 65, 168, 128
-0.986215, 105, 121, 168, 184
-0.986254, 361, 41, 392, 104
-0.986307, 89, 185, 120, 248
-0.98637, 209, 161, 240, 288
-0.986382, 1, 1, 32, 64
-0.986384, 109, 49, 140, 176
-0.986422, 325, 33, 356, 160
-0.986446, 337, 81, 464, 208
-0.986493, 369, 209, 432, 272
-0.986501, 81, 241, 208, 300
-0.986503, 333, 233, 364, 296
-0.986533, 241, 209, 304, 272
-0.986545, 65, 1, 128, 256
-0.986597, 321, 89, 352, 152
-0.986663, 313, 113, 344, 176
-0.986712, 289, 1, 352, 300
-0.986824, 209, 25, 336, 88
-0.986843, 193, 1, 256, 128
-0.986874, 329, 177, 360, 300
-0.986883, 313, 33, 344, 160
-0.986939, 65, 209, 128, 272
-0.987126, 89, 25, 152, 88
-0.987151, 185, 177, 216, 300
-0.987219, 209, 41, 240, 104
-0.987244, 97, 161, 160, 224
-0.987269, 109, 97, 140, 160
-0.987346, 97, 153, 224, 216
-0.987405, 1, 185, 64, 248
-0.987444, 1, 209, 128, 272
-0.98746, 237, 153, 268, 216
-0.987505, 81, 1, 144, 128
-0.987569, 153, 193, 216, 256
-0.987716, 57, 241, 120, 300
-0.987783, 313, 65, 344, 128
-0.987851, 321, 1, 384, 300
-0.987853, 121, 41, 152, 104
-0.987952, 297, 33, 328, 160
-0.987955, 337, 217, 464, 280
-0.988022, 113, 1, 176, 300
-0.988079, 1, 1, 64, 64
-0.988118, 5, 225, 36, 288
-0.98818, 345, 41, 376, 104
-0.988185, 353, 225, 384, 288
-0.988211, 341, 33, 372, 160
-0.988267, 169, 81, 200, 144
-0.988294, 137, 41, 168, 104
-0.988302, 81, 185, 208, 248
-0.988344, 245, 105, 276, 168
-0.988381, 305, 65, 432, 128
-0.98839, 165, 225, 196, 288
-0.988391, 161, 41, 192, 104
-0.988398, 301, 65, 332, 128
-0.988407, 241, 185, 368, 248
-0.98841, 165, 105, 196, 168
-0.988412, 1, 241, 64, 300
-0.988578, 321, 165, 384, 196
-0.988636, 353, 113, 384, 240
-0.98864, 257, 1, 500, 128
-0.988653, 177, 109, 240, 140
-0.988679, 109, 73, 140, 136
-0.988713, 369, 49, 432, 112
-0.988738, 97, 105, 128, 168
-0.988758, 1, 129, 64, 192
-0.988853, 337, 97, 368, 224
-0.988873, 345, 113, 408, 176
-0.988962, 89, 241, 120, 300
-0.988963, 229, 113, 260, 176
-0.988983, 257, 1, 320, 300
-0.989084, 337, 169, 464, 232
-0.989124, 353, 185, 416, 248
-0.989141, 465, 1, 496, 64
-0.989142, 145, 89, 176, 152
-0.989175, 321, 241, 352, 300
-0.989287, 169, 81, 200, 208
-0.989332, 257, 233, 288, 296
-0.989341, 229, 129, 260, 256
-0.989357, 101, 185, 132, 248
-0.989359, 289, 153, 352, 184
-0.989373, 177, 97, 240, 128
-0.98938, 137, 81, 168, 208
-0.989394, 261, 81, 292, 144
-0.989446, 365, 33, 396, 160
-0.989491, 1, 41, 128, 104
-0.989571, 325, 113, 356, 176
-0.989635, 57, 113, 120, 176
-0.989699, 385, 49, 416, 112
-0.98973, 337, 33, 464, 160
-0.989754, 201, 117, 264, 148
-0.989773, 89, 97, 120, 224
-0.989843, 209, 153, 272, 184
-0.989846, 329, 65, 360, 128
-0.989849, 289, 165, 352, 196
-0.989857, 113, 121, 144, 184
-0.989872, 297, 45, 360, 76
-0.989875, 1, 105, 64, 168
-0.989893, 281, 61, 344, 92
-0.989923, 89, 161, 120, 224
-0.989947, 197, 73, 228, 136
-0.989955, 297, 17, 360, 80
-0.989977, 369, 177, 400, 300
-0.98998, 113, 97, 144, 224
-0.990007, 193, 137, 256, 168
-0.990013, 177, 121, 240, 152
-0.99004, 153, 121, 216, 152
-0.990074, 269, 233, 300, 296
-0.990119, 221, 233, 252, 296
-0.990156, 129, 241, 256, 300
-0.99019, 365, 217, 396, 280
-0.990209, 157, 81, 188, 208
-0.990227, 245, 233, 276, 296
-0.990233, 257, 161, 320, 192
-0.990237, 353, 17, 384, 144
-0.990258, 309, 233, 340, 296
-0.990365, 241, 73, 304, 104
-0.990422, 161, 25, 288, 88
-0.990446, 185, 189, 248, 220
-0.990454, 137, 101, 200, 132
-0.990493, 313, 153, 376, 184
-0.990503, 185, 17, 248, 80
-0.990507, 201, 89, 264, 120
-0.990526, 181, 185, 212, 248
-0.990551, 65, 1, 128, 300
-0.990585, 345, 165, 408, 196
-0.99059, 345, 45, 408, 76
-0.990606, 161, 133, 224, 164
-0.990624, 249, 149, 312, 180
-0.990626, 105, 217, 136, 280
-0.990679, 381, 209, 412, 272
-0.990684, 65, 209, 320, 272
-0.990689, 281, 141, 344, 172
-0.99072, 81, 117, 144, 148
-0.990763, 321, 45, 384, 76
-0.990769, 81, 45, 144, 76
-0.990815, 185, 201, 248, 232
-0.990821, 81, 105, 144, 136
-0.990844, 233, 57, 296, 88
-0.990862, 153, 225, 184, 288
-0.990873, 101, 97, 132, 224
-0.990886, 265, 73, 328, 104
-0.990897, 201, 105, 264, 136
-0.990934, 221, 177, 252, 300
-0.990938, 233, 233, 264, 296
-0.990954, 257, 17, 320, 80
-0.990957, 241, 81, 272, 144
-0.990957, 137, 89, 200, 120
-0.990975, 89, 81, 120, 144
-0.990996, 225, 137, 288, 168
-0.991009, 321, 161, 352, 224
-0.991035, 241, 45, 304, 76
-0.991062, 257, 17, 384, 80
-0.991075, 169, 81, 232, 112
-0.991094, 381, 241, 412, 300
-0.991126, 257, 105, 288, 168
-0.991162, 81, 57, 144, 88
-0.991174, 201, 65, 264, 96
-0.991183, 1, 105, 128, 168
-0.991204, 5, 105, 36, 168
-0.991212, 369, 169, 400, 232
-0.991216, 225, 105, 288, 136
-0.991263, 185, 217, 248, 248
-0.991275, 129, 113, 384, 176
-0.991285, 217, 165, 280, 196
-0.9913, 1, 25, 64, 88
-0.991315, 337, 61, 400, 92
-0.991317, 49, 217, 176, 280
-0.99134, 209, 201, 272, 232
-0.991355, 105, 101, 168, 132
-0.991362, 329, 177, 392, 208
-0.991363, 1, 1, 32, 128
-0.991391, 305, 141, 368, 172
-0.991403, 169, 145, 232, 176
-0.991418, 249, 117, 312, 148
-0.991428, 265, 173, 328, 204
-0.991434, 81, 89, 144, 120
-0.991436, 1, 41, 500, 104
-0.991445, 357, 145, 388, 208
-0.991446, 185, 41, 216, 104
-0.991446, 353, 145, 480, 208
-0.991449, 121, 113, 184, 144
-0.991464, 209, 233, 240, 296
-0.991522, 33, 105, 288, 168
-0.991525, 65, 41, 320, 104
-0.991527, 257, 61, 320, 92
-0.991534, 297, 73, 360, 104
-0.991542, 129, 121, 192, 184
-0.991554, 281, 117, 344, 148
-0.991562, 81, 69, 144, 100
-0.991568, 161, 153, 416, 216
-0.991577, 305, 181, 368, 212
-0.99159, 209, 185, 272, 216
-0.991597, 341, 73, 372, 136
-0.991615, 249, 133, 312, 164
-0.991636, 345, 153, 408, 184
-0.991655, 125, 81, 156, 208
-0.991662, 161, 201, 224, 232
-0.991669, 353, 89, 416, 152
-0.99167, 193, 177, 448, 240
-0.991682, 217, 233, 280, 264
-0.991692, 1, 113, 32, 240
-0.991692, 201, 45, 264, 76
-0.991761, 17, 241, 144, 300
-0.991766, 273, 45, 336, 76
-0.991786, 121, 217, 152, 280
-0.991797, 33, 81, 288, 144
-0.991854, 161, 213, 224, 244
-0.991861, 65, 129, 192, 192
-0.991897, 309, 89, 340, 152
-0.991897, 281, 233, 312, 296
-0.991907, 105, 41, 168, 72
-0.991908, 345, 233, 408, 264
-0.991913, 241, 233, 304, 264
-0.991923, 337, 41, 464, 104
-0.99193, 281, 89, 312, 152
-0.991931, 337, 17, 400, 80
-0.991934, 185, 173, 248, 204
-0.99195, 145, 45, 208, 76
-0.991956, 305, 61, 368, 92
-0.991959, 377, 33, 408, 160
-0.991959, 225, 85, 288, 116
-0.991971, 1, 269, 64, 300
-0.991979, 361, 57, 424, 88
-0.991986, 1, 65, 128, 128
-0.992012, 265, 233, 328, 264
-0.992013, 297, 105, 360, 136
-0.992016, 249, 153, 280, 216
-0.992025, 313, 233, 376, 264
-0.992038, 105, 53, 168, 84
-0.992044, 193, 233, 256, 264
-0.992059, 177, 157, 240, 188
-0.992076, 193, 41, 448, 104
-0.992078, 89, 233, 152, 264
-0.992081, 297, 85, 360, 116
-0.992091, 89, 197, 152, 228
-0.992108, 209, 213, 272, 244
-0.992128, 193, 65, 448, 128
-0.992163, 137, 77, 200, 108
-0.992179, 169, 41, 232, 72
-0.992179, 145, 65, 208, 96
-0.992191, 97, 129, 160, 160
-0.992202, 113, 65, 176, 96
-0.992208, 65, 189, 128, 220
-0.992213, 153, 153, 216, 216
-0.992216, 353, 181, 416, 212
-0.992216, 465, 1, 496, 128
-0.992228, 265, 185, 328, 216
-0.992228, 265, 193, 328, 256
-0.992229, 105, 89, 168, 120
-0.992235, 353, 165, 384, 196
-0.992266, 337, 85, 400, 116
-0.992276, 433, 1, 496, 64
-0.992278, 57, 45, 120, 76
-0.992283, 281, 129, 344, 160
-0.992284, 233, 177, 296, 208
-0.992311, 193, 77, 256, 108
-0.992322, 289, 233, 352, 264
-0.992323, 193, 105, 224, 136
-0.992335, 209, 185, 240, 216
-0.992339, 101, 129, 132, 192
-0.992339, 225, 117, 288, 148
-0.992341, 193, 193, 224, 224
-0.992342, 181, 117, 212, 148
-0.992382, 353, 249, 416, 280
-0.992396, 193, 125, 224, 156
-0.992397, 169, 229, 232, 260
-0.992398, 321, 125, 384, 156
-0.992403, 353, 221, 416, 252
-0.992438, 333, 209, 364, 272
-0.992441, 369, 1, 432, 256
-0.992444, 337, 73, 400, 104
-0.992452, 337, 165, 368, 196
-0.992457, 109, 49, 140, 112
-0.992458, 377, 241, 440, 300
-0.99246, 161, 185, 224, 216
-0.992466, 85, 177, 116, 300
-0.992482, 297, 153, 328, 184
-0.99249, 169, 69, 232, 100
-0.992494, 213, 113, 244, 144
-0.992516, 161, 17, 224, 80
-0.992521, 85, 121, 116, 184
-0.992525, 433, 5, 496, 36
-0.992527, 177, 249, 240, 280
-0.992543, 109, 177, 140, 300
-0.992552, 293, 89, 324, 152
-0.992564, 249, 101, 312, 132
-0.992584, 145, 249, 208, 280
-0.992586, 81, 209, 144, 240
-0.992602, 201, 249, 264, 280
-0.992604, 121, 125, 184, 156
-0.992605, 353, 241, 480, 300
-0.992625, 337, 113, 400, 144
-0.992625, 369, 33, 432, 160
-0.992626, 161, 113, 288, 144
-0.992637, 205, 97, 236, 128
-0.992644, 181, 129, 212, 160
-0.992645, 137, 137, 200, 168
-0.992649, 321, 249, 384, 280
-0.992653, 1, 1, 32, 32
-0.992658, 57, 65, 120, 96
-0.992669, 229, 149, 260, 180
-0.992673, 273, 105, 336, 136
-0.992681, 81, 249, 144, 280
-0.992685, 313, 153, 344, 184
-0.99269, 353, 205, 416, 236
-0.992711, 193, 205, 224, 236
-0.992722, 121, 249, 184, 280
-0.992724, 385, 49, 448, 80
-0.992726, 57, 101, 120, 132
-0.992727, 249, 249, 312, 280
-0.992728, 301, 45, 332, 76
-0.992742, 201, 141, 232, 172
-0.992742, 89, 185, 152, 216
-0.992747, 369, 169, 432, 200
-0.992748, 89, 45, 120, 76
-0.992771, 265, 85, 328, 116
-0.992772, 325, 153, 356, 184
-0.992775, 205, 125, 236, 156
-0.992778, 225, 105, 256, 136
-0.992782, 1, 1, 64, 128
-0.992786, 281, 69, 312, 100
-0.992788, 233, 17, 296, 80
-0.992789, 325, 165, 356, 196
-0.992796, 117, 117, 148, 148
-0.992801, 285, 161, 316, 192
-0.992813, 225, 249, 288, 280
-0.992817, 1, 1, 64, 300
-0.992827, 309, 165, 340, 196
-0.992832, 469, 5, 500, 36
-0.992833, 1, 29, 64, 60
-0.992834, 209, 17, 272, 80
-0.99284, 337, 153, 368, 184
-0.992849, 1, 217, 64, 280
-0.992849, 321, 101, 384, 132
-0.992851, 329, 141, 392, 172
-0.992862, 205, 217, 236, 248
-0.992863, 165, 101, 196, 132
-0.992865, 209, 205, 240, 236
-0.992868, 297, 165, 328, 196
-0.992876, 1, 185, 256, 248
-0.992888, 225, 137, 256, 168
-0.992896, 309, 141, 340, 172
-0.992901, 113, 105, 144, 136
-0.992903, 381, 45, 412, 76
-0.99291, 325, 45, 356, 76
-0.992912, 269, 69, 300, 100
-0.992913, 293, 65, 324, 96
-0.992916, 145, 77, 176, 108
-0.99292, 113, 185, 176, 248
-0.992928, 277, 149, 308, 180
-0.99293, 1, 225, 32, 256
-0.992935, 129, 109, 160, 140
-0.992935, 365, 165, 396, 196
-0.992961, 189, 241, 220, 300
-0.992978, 357, 177, 388, 208
-0.992979, 273, 117, 304, 148
-0.992984, 357, 49, 388, 80
-0.992984, 185, 141, 216, 172
-0.992985, 137, 129, 200, 256
-0.992987, 129, 89, 384, 152
-0.992996, 217, 89, 248, 120
-0.992996, 321, 133, 352, 164
-0.993, 281, 57, 312, 88
-0.993, 237, 85, 268, 116
-0.993008, 181, 105, 212, 136
-0.993009, 213, 145, 244, 176
-0.99301, 169, 113, 200, 144
-0.993011, 245, 45, 276, 76
-0.993017, 5, 253, 36, 284
-0.993018, 257, 137, 288, 168
-0.993026, 293, 233, 324, 296
-0.993029, 369, 45, 400, 76
-0.99303, 1, 193, 32, 224
-0.993039, 89, 57, 120, 88
-0.993044, 249, 105, 280, 136
-0.993049, 245, 137, 276, 168
-0.993057, 289, 141, 320, 172
-0.993061, 381, 57, 412, 88
-0.993061, 257, 69, 288, 100
-0.99307, 105, 117, 136, 148
-0.993075, 193, 181, 224, 212
-0.993076, 353, 153, 384, 184
-0.993076, 221, 185, 252, 248
-0.99308, 297, 177, 328, 208
-0.993081, 205, 157, 236, 188
-0.993093, 205, 173, 236, 204
-0.993103, 381, 177, 412, 300
-0.993104, 285, 173, 316, 204
-0.993104, 189, 93, 220, 124
-0.993111, 241, 149, 272, 180
-0.993119, 233, 45, 264, 76
-0.993119, 341, 177, 372, 208
-0.99312, 89, 233, 120, 264
-0.993121, 229, 69, 260, 100
-0.993124, 5, 129, 36, 160
-0.993125, 193, 221, 224, 252
-0.993126, 305, 61, 336, 92
-0.993133, 141, 225, 172, 288
-0.993142, 237, 57, 268, 88
-0.993143, 265, 149, 296, 180
-0.993151, 1, 265, 32, 296
-0.993155, 245, 117, 276, 148
-0.993163, 341, 49, 372, 80
-0.993165, 157, 85, 188, 116
-0.993166, 313, 49, 344, 80
-0.993167, 257, 49, 288, 80
-0.993168, 369, 61, 400, 92
-0.993169, 5, 33, 36, 64
-0.99317, 1, 165, 32, 196
-0.993175, 225, 117, 256, 148
-0.99318, 201, 73, 232, 104
-0.993185, 217, 169, 248, 200
-0.99319, 153, 65, 184, 96
-0.993194, 221, 45, 252, 76
-0.993202, 325, 177, 356, 208
-0.993204, 261, 117, 292, 148
-0.993205, 181, 205, 212, 236
-0.993206, 145, 89, 176, 120
-0.993211, 321, 121, 352, 152
-0.993222, 321, 101, 352, 132
-0.993223, 161, 45, 192, 76
-0.993226, 125, 97, 156, 128
-0.993227, 321, 233, 352, 264
-0.993227, 109, 53, 140, 84
-0.993228, 309, 121, 340, 152
-0.99323, 249, 233, 280, 264
-0.993231, 169, 85, 200, 116
-0.993238, 309, 177, 340, 208
-0.993238, 281, 129, 312, 160
-0.99324, 1, 69, 32, 100
-0.993249, 85, 197, 116, 228
-0.993253, 169, 133, 200, 164
-0.993254, 101, 105, 132, 136
-0.993256, 7, 169, 22, 232
-0.993256, 89, 117, 120, 148
-0.993257, 229, 233, 260, 264
-0.993259, 149, 45, 180, 76
-0.99326, 217, 65, 248, 96
-0.993264, 89, 105, 120, 136
-0.993266, 269, 57, 300, 88
-0.99328, 249, 161, 280, 192
-0.993284, 333, 141, 364, 172
-0.993286, 269, 233, 300, 264
-0.993287, 221, 201, 252, 232
-0.993292, 245, 73, 276, 104
-0.993295, 89, 69, 120, 100
-0.993297, 333, 121, 364, 152
-0.993303, 109, 241, 140, 300
-0.993349, 129, 241, 160, 300
-0.993349, 249, 161, 280, 288
-0.993372, 1, 49, 64, 112
-0.993373, 113, 17, 240, 80
-0.993378, 7, 193, 22, 256
-0.993409, 177, 241, 208, 300
-0.993434, 65, 145, 128, 208
-0.993472, 369, 113, 400, 240
-0.993483, 273, 161, 400, 192
-0.99349, 173, 161, 204, 288
-0.993502, 369, 241, 400, 300
-0.993536, 101, 161, 132, 224
-0.993538, 209, 121, 224, 184
-0.993543, 77, 49, 108, 176
-0.993547, 161, 233, 416, 296
-0.993551, 113, 109, 240, 140
-0.993584, 65, 145, 320, 208
-0.993599, 77, 41, 108, 104
-0.993605, 277, 185, 308, 248
-0.99362, 193, 209, 448, 272
-0.993713, 369, 1, 432, 300
-0.993716, 385, 25, 448, 88
-0.993754, 7, 1, 22, 64
-0.99387, 257, 153, 500, 216
-0.993907, 353, 65, 384, 192
-0.993925, 7, 129, 22, 192
-0.993993, 1, 121, 500, 184
-0.994098, 1, 17, 128, 144
-0.994153, 225, 109, 352, 140
-0.994176, 129, 17, 192, 80
-0.994185, 65, 1, 192, 128
-0.994313, 113, 97, 240, 128
-0.994347, 187, 105, 202, 168
-0.994355, 49, 25, 112, 88
-0.994513, 215, 113, 230, 176
-0.994523, 289, 45, 416, 76
-0.994582, 203, 121, 218, 184
-0.994615, 209, 153, 336, 184
-0.994618, 17, 185, 144, 248
-0.994687, 225, 89, 480, 152
-0.994712, 7, 225, 22, 288
-0.994731, 335, 41, 350, 104
-0.994741, 161, 93, 288, 124
-0.994804, 209, 185, 224, 248
-0.994867, 197, 185, 212, 248
-0.994869, 1, 89, 500, 152
-0.994903, 221, 97, 236, 160
-0.994921, 207, 97, 222, 160
-0.994937, 209, 45, 336, 76
-0.994942, 77, 97, 108, 224
-0.994977, 367, 161, 382, 224
-0.994987, 225, 1, 256, 256
-0.995038, 1, 225, 500, 288
-0.995061, 197, 1, 228, 256
-0.995076, 193, 209, 208, 272
-0.99512, 197, 121, 212, 184
-0.995139, 289, 173, 416, 204
-0.995147, 433, 1, 496, 128
-0.995154, 1, 65, 500, 128
-0.995157, 91, 41, 106, 104
-0.995158, 219, 209, 234, 272
-0.995161, 215, 81, 230, 144
-0.995177, 1, 161, 32, 288
-0.995187, 41, 65, 104, 128
-0.995212, 257, 241, 500, 300
-0.995218, 7, 105, 22, 168
-0.995226, 259, 41, 274, 104
-0.995232, 81, 81, 208, 112
-0.995259, 7, 33, 22, 96
-0.995261, 1, 201, 500, 264
-0.995284, 209, 141, 336, 172
-0.995297, 313, 41, 328, 104
-0.995308, 177, 181, 304, 212
-0.995329, 393, 209, 456, 272
-0.995331, 161, 125, 288, 156
-0.995357, 291, 153, 306, 216
-0.995363, 305, 41, 320, 104
-0.995417, 81, 125, 208, 156
-0.995445, 337, 193, 464, 256
-0.995493, 225, 113, 480, 176
-0.995549, 161, 149, 288, 180
-0.995554, 1, 177, 500, 240
-0.995555, 321, 153, 336, 216
-0.995579, 1, 153, 500, 216
-0.995589, 181, 97, 196, 160
-0.995604, 377, 145, 440, 208
-0.995616, 203, 209, 218, 272
-0.995618, 209, 165, 336, 196
-0.995621, 197, 97, 212, 160
-0.995633, 297, 145, 312, 208
-0.995636, 33, 241, 288, 300
-0.995639, 97, 185, 352, 248
-0.995645, 303, 153, 318, 216
-0.995659, 289, 57, 416, 88
-0.995659, 311, 145, 326, 208
-0.995675, 327, 145, 342, 208
-0.995677, 235, 41, 250, 104
-0.995694, 217, 145, 232, 208
-0.995706, 253, 1, 284, 256
-0.995708, 281, 145, 296, 208
-0.995724, 7, 65, 22, 128
-0.995727, 1, 1, 16, 64
-0.995732, 291, 129, 306, 192
-0.995755, 213, 209, 228, 272
-0.995761, 209, 73, 336, 104
-0.995776, 133, 89, 148, 152
-0.995785, 123, 97, 138, 160
-0.995826, 129, 137, 256, 168
-0.995904, 149, 177, 180, 300
-0.995938, 209, 161, 224, 224
-0.995944, 227, 105, 242, 168
-0.995951, 361, 169, 376, 232
-0.995951, 161, 41, 176, 104
-0.995952, 477, 1, 492, 64
-0.995962, 99, 41, 114, 104
-0.995972, 17, 129, 144, 192
-0.995972, 155, 41, 170, 104
-0.996011, 209, 57, 336, 88
-0.996019, 5, 49, 36, 176
-0.996019, 129, 45, 256, 76
-0.996019, 129, 201, 256, 232
-0.996022, 41, 217, 104, 280
-0.996024, 233, 73, 248, 136
-0.996033, 285, 121, 300, 184
-0.996058, 225, 97, 352, 128
-0.996064, 335, 145, 350, 208
-0.996067, 325, 121, 340, 184
-0.996073, 327, 89, 342, 152
-0.9961, 275, 113, 290, 176
-0.996101, 209, 85, 336, 116
-0.996123, 335, 65, 350, 128
-0.996125, 203, 185, 218, 248
-0.996126, 393, 41, 408, 104
-0.996132, 215, 169, 230, 232
-0.996148, 371, 41, 386, 104
-0.996149, 335, 89, 350, 152
-0.996156, 213, 1, 244, 256
-0.996157, 369, 177, 432, 300
-0.996158, 225, 209, 240, 272
-0.996164, 369, 17, 496, 80
-0.996173, 133, 177, 164, 300
-0.99618, 265, 137, 280, 200
-0.996203, 289, 149, 416, 180
-0.996238, 373, 169, 388, 232
-0.996239, 203, 153, 218, 216
-0.99626, 81, 65, 208, 96
-0.996281, 129, 81, 256, 112
-0.996288, 223, 41, 238, 104
-0.996306, 189, 41, 204, 104
-0.996328, 229, 41, 244, 104
-0.99633, 9, 129, 72, 256
-0.996331, 303, 113, 318, 176
-0.996336, 371, 217, 386, 280
-0.996367, 387, 41, 402, 104
-0.996373, 297, 1, 328, 256
-0.996389, 221, 121, 236, 184
-0.996398, 289, 233, 416, 264
-0.996401, 145, 65, 272, 96
-0.996413, 1, 137, 16, 200
-0.996417, 143, 41, 158, 104
-0.996436, 177, 201, 304, 232
-0.996463, 89, 1, 120, 256
-0.996466, 227, 81, 242, 144
-0.996476, 215, 41, 230, 104
-0.996486, 257, 105, 272, 168
-0.996487, 201, 41, 216, 104
-0.996491, 221, 177, 236, 240
-0.996492, 121, 177, 152, 300
-0.996493, 335, 113, 350, 176
-0.996495, 153, 65, 168, 128
-0.996504, 275, 145, 290, 208
-0.996511, 233, 177, 264, 300
-0.99652, 129, 213, 256, 244
-0.996533, 1, 201, 16, 264
-0.996534, 105, 209, 120, 272
-0.996543, 347, 241, 362, 300
-0.996543, 381, 41, 396, 104
-0.996556, 325, 41, 340, 104
-0.99656, 103, 185, 118, 248
-0.99657, 209, 233, 336, 264
-0.996571, 161, 1, 192, 256
-0.996575, 251, 81, 266, 144
-0.996579, 257, 69, 384, 100
-0.996588, 93, 217, 108, 280
-0.99659, 65, 109, 192, 140
-0.996591, 1, 169, 16, 232
-0.996594, 299, 41, 314, 104
-0.99661, 13, 129, 28, 192
-0.996614, 13, 233, 28, 296
-0.996616, 365, 41, 380, 104
-0.996617, 297, 113, 312, 176
-0.996628, 161, 161, 288, 192
-0.996628, 209, 121, 336, 152
-0.996643, 117, 105, 132, 168
-0.996643, 357, 233, 372, 296
-0.996646, 187, 209, 202, 272
-0.996677, 241, 41, 256, 104
-0.996696, 237, 1, 268, 256
-0.996709, 319, 41, 334, 104
-0.99671, 319, 65, 334, 128
-0.99671, 355, 161, 370, 224
-0.996714, 319, 113, 334, 176
-0.996715, 13, 1, 28, 64
-0.996719, 13, 193, 28, 256
-0.996728, 321, 1, 352, 256
-0.996735, 185, 1, 216, 256
-0.996751, 241, 145, 256, 208
-0.99676, 325, 65, 340, 128
-0.996794, 171, 41, 186, 104
-0.996795, 337, 233, 352, 296
-0.996805, 327, 241, 342, 300
-0.996807, 337, 113, 464, 176
-0.996811, 321, 161, 448, 192
-0.996812, 309, 1, 340, 256
-0.996818, 93, 169, 108, 232
-0.996819, 309, 65, 324, 128
-0.996837, 159, 81, 174, 144
-0.996851, 345, 41, 360, 104
-0.996852, 353, 65, 480, 128
-0.996852, 7, 1, 22, 32
-0.996856, 297, 169, 312, 232
-0.996857, 1, 177, 64, 300
-0.996858, 267, 113, 282, 176
-0.99686, 477, 1, 492, 32
-0.996864, 65, 93, 192, 124
-0.996867, 193, 73, 208, 136
-0.99687, 191, 129, 206, 192
-0.996877, 181, 225, 196, 288
-0.99688, 289, 185, 416, 216
-0.996901, 209, 41, 224, 104
-0.996901, 221, 73, 236, 136
-0.996912, 97, 189, 224, 220
-0.996912, 365, 225, 380, 288
-0.996913, 117, 1, 148, 256
-0.996917, 161, 233, 288, 264
-0.996922, 109, 185, 124, 248
-0.996944, 149, 89, 164, 152
-0.996948, 233, 113, 248, 176
-0.99695, 179, 41, 194, 104
-0.996957, 247, 41, 262, 104
-0.996968, 7, 225, 22, 256
-0.996986, 393, 217, 408, 280
-0.997014, 265, 1, 296, 256
-0.99705, 241, 177, 368, 208
-0.997051, 285, 1, 316, 128
-0.997051, 177, 217, 304, 248
-0.99707, 7, 189, 22, 220
-0.997071, 201, 193, 216, 224
-0.997073, 365, 165, 380, 196
-0.997089, 13, 161, 44, 288
-0.9971, 273, 1, 304, 128
-0.997122, 173, 1, 204, 256
-0.997144, 257, 81, 384, 112
-0.997156, 145, 1, 176, 256
-0.997174, 133, 1, 164, 256
-0.997181, 381, 129, 412, 256
-0.997184, 285, 1, 316, 256
-0.997198, 305, 121, 432, 152
-0.997228, 209, 121, 224, 152
-0.997239, 337, 173, 464, 204
-0.997253, 7, 125, 22, 156
-0.997266, 81, 45, 208, 76
-0.997268, 305, 245, 432, 276
-0.997281, 7, 253, 22, 284
-0.997315, 7, 33, 22, 64
-0.997348, 357, 165, 372, 196
-0.997353, 81, 233, 208, 264
-0.997358, 203, 205, 218, 236
-0.997372, 161, 177, 192, 300
-0.997386, 197, 129, 212, 160
-0.997392, 209, 205, 224, 236
-0.997403, 7, 161, 22, 192
-0.997408, 333, 1, 364, 256
-0.99741, 305, 109, 432, 140
-0.997415, 203, 125, 218, 156
-0.997436, 353, 89, 480, 152
-0.997488, 329, 153, 344, 184
-0.997508, 185, 113, 200, 144
-0.997511, 81, 213, 208, 244
-0.997531, 299, 153, 314, 184
-0.997531, 335, 45, 350, 76
-0.997532, 209, 193, 224, 224
-0.997537, 221, 113, 236, 144
-0.997545, 351, 165, 366, 196
-0.997564, 117, 113, 132, 144
-0.997578, 65, 17, 192, 80
-0.997582, 7, 65, 22, 96
-0.997588, 1, 221, 128, 252
-0.997592, 305, 221, 432, 252
-0.997597, 371, 165, 386, 196
-0.997621, 193, 17, 448, 80
-0.997627, 305, 17, 432, 80
-0.997639, 385, 81, 448, 144
-0.997673, 1, 233, 128, 264
-0.997695, 257, 249, 384, 280
-0.997701, 91, 45, 106, 76
-0.997737, 17, 161, 144, 224
-0.99775, 381, 1, 412, 256
-0.997754, 217, 101, 232, 132
-0.997771, 219, 189, 234, 220
-0.997775, 337, 49, 464, 80
-0.997792, 345, 165, 360, 196
-0.997798, 103, 189, 118, 220
-0.997803, 195, 193, 210, 224
-0.99781, 215, 113, 230, 144
-0.997818, 1, 69, 128, 100
-0.997819, 197, 109, 212, 140
-0.997822, 297, 65, 312, 96
-0.997832, 81, 249, 208, 280
-0.997836, 225, 185, 240, 216
-0.99784, 207, 109, 222, 140
-0.997843, 335, 165, 350, 196
-0.997845, 129, 249, 256, 280
-0.997853, 219, 173, 234, 204
-0.997861, 7, 265, 22, 296
-0.997873, 325, 125, 340, 156
-0.9979, 471, 5, 486, 36
-0.997902, 189, 125, 204, 156
-0.997907, 125, 117, 140, 148
-0.997908, 227, 109, 242, 140
-0.99791, 289, 133, 416, 164
-0.997932, 285, 69, 300, 100
-0.997951, 81, 137, 208, 168
-0.997955, 335, 145, 350, 176
-0.997973, 305, 97, 432, 128
-0.997974, 305, 69, 432, 100
-0.997975, 329, 165, 344, 196
-0.997976, 131, 113, 146, 144
-0.997978, 257, 121, 384, 152
-0.997981, 301, 165, 316, 196
-0.997991, 97, 177, 224, 208
-0.997998, 65, 17, 320, 80
-0.998015, 279, 69, 294, 100
-0.998019, 305, 153, 320, 184
-0.998024, 13, 1, 28, 32
-0.998025, 105, 1, 136, 256
-0.998033, 221, 201, 236, 232
-0.998034, 211, 177, 226, 208
-0.998035, 215, 209, 230, 240
-0.998037, 323, 153, 338, 184
-0.998037, 369, 45, 384, 76
-0.998037, 305, 81, 432, 112
-0.998038, 211, 97, 226, 128
-0.998042, 177, 249, 304, 280
-0.998044, 81, 201, 208, 232
-0.998045, 303, 65, 318, 96
-0.998052, 313, 45, 328, 76
-0.998054, 309, 165, 324, 196
-0.998062, 295, 141, 310, 172
-0.998062, 335, 121, 350, 152
-0.998066, 291, 57, 306, 88
-0.998071, 201, 221, 216, 252
-0.998071, 161, 33, 288, 64
-0.998081, 259, 45, 274, 76
-0.998087, 393, 45, 408, 76
-0.998088, 341, 153, 356, 184
-0.998093, 7, 213, 22, 244
-0.998103, 195, 209, 210, 240
-0.998104, 291, 165, 306, 196
-0.998111, 217, 141, 232, 172
-0.998115, 351, 153, 366, 184
-0.998115, 181, 101, 196, 132
-0.998118, 291, 69, 306, 100
-0.998123, 1, 1, 16, 32
-0.998142, 325, 53, 340, 84
-0.998147, 337, 233, 464, 264
-0.998148, 191, 113, 206, 144
-0.998149, 1, 125, 128, 156
-0.99815, 305, 209, 432, 240
-0.99815, 305, 141, 320, 172
-0.99815, 323, 165, 338, 196
-0.998152, 307, 45, 322, 76
-0.998156, 249, 81, 264, 112
-0.998162, 315, 165, 330, 196
-0.998165, 285, 121, 300, 152
-0.998167, 245, 149, 260, 180
-0.998169, 1, 229, 16, 260
-0.99817, 121, 97, 136, 128
-0.998174, 313, 153, 328, 184
-0.998193, 335, 89, 350, 120
-0.998194, 207, 137, 222, 168
-0.998205, 257, 33, 384, 64
-0.998206, 309, 61, 324, 92
-0.99821, 377, 173, 392, 204
-0.998216, 289, 149, 304, 180
-0.998217, 109, 197, 124, 228
-0.998224, 337, 149, 464, 180
-0.998228, 99, 45, 114, 76
-0.998232, 205, 97, 220, 128
-0.998234, 261, 109, 276, 140
-0.99824, 209, 217, 224, 248
-0.998242, 327, 101, 342, 132
-0.998245, 359, 177, 374, 208
-0.998258, 199, 181, 214, 212
-0.998265, 221, 89, 236, 120
-0.998266, 137, 109, 152, 140
-0.998268, 327, 141, 342, 172
-0.998285, 227, 89, 242, 120
-0.998288, 199, 141, 214, 172
-0.998292, 161, 81, 176, 112
-0.998294, 369, 1, 400, 256
-0.998301, 387, 53, 402, 84
-0.998301, 233, 105, 248, 136
-0.998309, 213, 165, 228, 196
-0.998315, 111, 109, 126, 140
-0.998324, 285, 57, 300, 88
-0.998325, 181, 125, 196, 156
-0.998331, 315, 61, 330, 92
-0.998332, 7, 177, 22, 208
-0.998336, 311, 177, 326, 208
-0.99834, 239, 45, 254, 76
-0.998341, 7, 113, 22, 144
-0.998343, 361, 153, 376, 184
-0.99835, 375, 41, 390, 72
-0.998352, 297, 53, 312, 84
-0.998359, 163, 45, 178, 76
-0.99836, 245, 45, 260, 76
-0.998361, 277, 117, 292, 148
-0.998362, 355, 49, 370, 80
-0.998362, 177, 111, 240, 126
-0.998363, 239, 149, 254, 180
-0.998365, 381, 41, 396, 72
-0.998369, 335, 133, 350, 164
-0.998372, 185, 217, 216, 232
-0.998373, 365, 177, 380, 208
-0.998374, 169, 133, 200, 148
-0.998375, 221, 89, 252, 104
-0.998375, 325, 175, 356, 190
-0.998376, 89, 65, 120, 80
-0.998376, 5, 67, 36, 82
-0.998377, 301, 63, 332, 78
-0.998377, 357, 45, 388, 60
-0.998379, 121, 107, 152, 122
-0.99838, 89, 51, 120, 66
-0.998381, 309, 133, 340, 148
-0.998381, 169, 45, 200, 60
-0.998381, 197, 75, 228, 90
-0.998382, 173, 113, 204, 128
-0.998383, 213, 141, 244, 156
-0.998384, 321, 139, 352, 154
-0.998388, 233, 57, 264, 72
-0.998388, 1, 135, 32, 150
-0.998388, 269, 119, 300, 134
-0.998389, 281, 59, 312, 74
-0.998389, 201, 101, 232, 116
-0.99839, 173, 285, 204, 300
-0.99839, 273, 125, 304, 140
-0.998391, 109, 111, 140, 126
-0.998391, 149, 75, 180, 90
-0.998392, 209, 217, 240, 232
-0.998393, 185, 203, 216, 218
-0.998393, 441, 285, 472, 300
-0.998396, 129, 113, 160, 128
-0.998396, 297, 45, 328, 60
-0.998397, 217, 209, 248, 224
-0.998398, 153, 285, 184, 300
-0.998401, 153, 45, 184, 60
-0.998403, 237, 147, 268, 162
-0.998403, 205, 95, 236, 110
-0.998404, 189, 143, 220, 158
-0.998404, 341, 179, 372, 194
-0.998405, 101, 123, 132, 138
-0.998405, 321, 133, 352, 148
-0.998405, 285, 135, 316, 150
-0.998406, 89, 59, 120, 74
-0.998406, 101, 285, 132, 300
-0.998407, 281, 163, 312, 178
-0.998408, 109, 65, 140, 80
-0.998409, 225, 155, 256, 170
-0.998409, 297, 179, 328, 194
-0.99841, 165, 85, 196, 100
-0.998411, 209, 201, 240, 216
-0.998412, 245, 45, 276, 60
-0.998413, 1, 201, 32, 216
-0.998413, 233, 117, 264, 132
-0.998413, 341, 171, 372, 186
-0.998414, 253, 135, 284, 150
-0.998414, 257, 81, 288, 96
-0.998415, 257, 213, 384, 244
-0.998416, 237, 155, 268, 170
-0.998417, 233, 285, 264, 300
-0.998417, 313, 179, 344, 194
-0.998417, 193, 125, 224, 140
-0.998419, 145, 87, 176, 102
-0.99842, 81, 285, 112, 300
-0.998422, 205, 111, 236, 126
-0.998422, 201, 195, 232, 210
-0.998422, 209, 285, 240, 300
-0.998422, 309, 45, 340, 60
-0.998424, 1, 231, 32, 246
-0.998424, 261, 159, 292, 174
-0.998428, 237, 85, 268, 100
-0.998428, 269, 133, 300, 148
-0.998429, 201, 181, 232, 196
-0.998429, 113, 123, 144, 138
-0.99843, 213, 147, 244, 162
-0.998431, 1, 57, 128, 88
-0.998431, 113, 149, 240, 180
-0.998432, 361, 165, 392, 180
-0.998433, 265, 75, 296, 90
-0.998434, 1, 263, 32, 278
-0.998435, 41, 285, 72, 300
-0.998435, 169, 105, 200, 120
-0.998438, 189, 101, 220, 116
-0.998439, 277, 71, 308, 86
-0.998439, 465, 285, 496, 300
-0.998441, 249, 109, 280, 124
-0.998443, 161, 77, 192, 92
-0.998447, 461, 1, 492, 16
-0.998448, 181, 137, 212, 152
-0.998449, 357, 1, 388, 256
-0.99845, 297, 165, 360, 180
-0.99845, 249, 151, 280, 166
-0.99845, 297, 157, 360, 172
-0.998451, 5, 35, 36, 50
-0.998451, 381, 57, 412, 72
-0.998454, 257, 157, 320, 172
-0.998455, 5, 1, 36, 16
-0.998456, 5, 129, 36, 144
-0.998456, 9, 285, 40, 300
-0.998456, 197, 217, 228, 232
-0.998457, 5, 163, 36, 178
-0.99846, 5, 193, 36, 208
-0.99846, 321, 149, 352, 164
-0.99846, 5, 225, 36, 240
-0.998462, 321, 165, 384, 180
-0.998464, 329, 165, 360, 180
-0.998465, 465, 9, 496, 24
-0.998465, 201, 223, 232, 238
-0.998467, 313, 165, 344, 180
-0.998473, 193, 137, 224, 152
-0.998474, 125, 119, 156, 134
-0.998476, 213, 105, 244, 120
-0.998477, 149, 81, 180, 96
-0.998477, 329, 171, 392, 186
-0.99848, 21, 285, 52, 300
-0.99848, 173, 119, 204, 134
-0.99848, 361, 177, 392, 192
-0.99848, 109, 117, 140, 132
-0.998483, 321, 159, 384, 174
-0.998483, 161, 117, 224, 132
-0.998484, 193, 145, 256, 160
-0.998485, 321, 45, 352, 60
-0.998488, 277, 157, 308, 172
-0.998492, 17, 109, 144, 140
-0.998493, 209, 187, 240, 202
-0.998494, 185, 119, 216, 134
-0.998496, 5, 257, 36, 272
-0.9985, 293, 163, 324, 178
-0.998501, 89, 45, 120, 60
-0.998502, 113, 161, 240, 192
-0.998504, 161, 123, 224, 138
-0.998505, 201, 143, 232, 158
-0.998506, 289, 157, 320, 172
-0.998507, 1, 9, 32, 24
-0.998507, 209, 155, 272, 170
-0.998508, 369, 37, 496, 68
-0.998513, 201, 119, 264, 134
-0.998515, 321, 157, 352, 172
-0.998517, 181, 129, 212, 144
-0.998518, 185, 105, 248, 120
-0.998523, 189, 197, 220, 212
-0.998524, 357, 171, 388, 186
-0.998525, 197, 211, 228, 226
-0.998528, 193, 109, 224, 124
-0.998531, 201, 111, 264, 126
-0.998532, 197, 205, 228, 220
-0.998532, 329, 177, 392, 192
-0.998532, 41, 169, 104, 232
-0.998532, 213, 119, 244, 134
-0.998537, 225, 149, 256, 164
-0.998539, 177, 195, 240, 210
-0.998539, 81, 117, 144, 132
-0.99854, 257, 163, 320, 178
-0.998541, 161, 133, 224, 148
-0.998545, 249, 133, 312, 148
-0.998545, 333, 157, 364, 172
-0.998545, 121, 117, 184, 132
-0.998546, 225, 189, 352, 220
-0.99855, 281, 63, 344, 78
-0.998551, 257, 171, 320, 186
-0.998551, 65, 269, 192, 300
-0.998558, 297, 45, 360, 60
-0.998561, 81, 51, 144, 66
-0.998562, 145, 107, 208, 122
-0.998563, 161, 101, 224, 116
-0.998564, 177, 203, 240, 218
-0.998564, 89, 45, 152, 60
-0.998564, 77, 1, 108, 256
-0.998568, 81, 57, 144, 72
-0.998569, 49, 285, 112, 300
-0.998569, 217, 149, 280, 164
-0.99857, 105, 285, 168, 300
-0.998571, 225, 137, 288, 152
-0.998571, 345, 165, 408, 180
-0.998572, 281, 179, 344, 194
-0.998572, 257, 79, 320, 94
-0.998573, 225, 115, 288, 130
-0.998574, 301, 157, 332, 172
-0.998576, 169, 285, 232, 300
-0.998577, 169, 215, 232, 230
-0.99858, 25, 285, 88, 300
-0.998582, 349, 161, 380, 176
-0.998584, 33, 81, 160, 112
-0.998585, 233, 285, 296, 300
-0.998586, 281, 69, 344, 84
-0.998588, 201, 191, 264, 206
-0.998589, 233, 155, 296, 170
-0.99859, 161, 139, 224, 154
-0.998591, 217, 85, 280, 100
-0.998592, 81, 123, 144, 138
-0.998593, 337, 63, 400, 78
-0.998593, 273, 45, 336, 60
-0.998594, 185, 139, 248, 154
-0.998595, 169, 87, 232, 102
-0.998596, 233, 79, 296, 94
-0.998596, 345, 55, 408, 70
-0.998597, 305, 173, 368, 188
-0.998597, 193, 215, 256, 230
-0.998599, 177, 185, 240, 200
-0.998599, 345, 45, 408, 60
-0.9986, 185, 125, 248, 140
-0.998601, 81, 63, 144, 78
-0.998601, 289, 149, 352, 164
-0.998601, 1, 269, 128, 300
-0.998601, 177, 223, 240, 238
-0.998602, 129, 129, 160, 256
-0.998603, 257, 71, 320, 86
-0.998603, 129, 285, 192, 300
-0.998604, 193, 209, 256, 224
-0.998604, 185, 81, 248, 96
-0.998605, 225, 109, 288, 124
-0.998605, 81, 111, 144, 126
-0.998606, 185, 131, 248, 146
-0.998607, 201, 95, 264, 110
-0.998607, 345, 245, 408, 260
-0.998607, 353, 171, 416, 186
-0.998608, 33, 245, 160, 276
-0.998609, 81, 69, 144, 84
-0.998609, 1, 285, 64, 300
-0.998611, 305, 179, 368, 194
-0.998612, 249, 59, 312, 74
-0.998613, 229, 111, 260, 126
-0.998613, 297, 79, 360, 94
-0.998614, 433, 1, 496, 16
-0.998615, 153, 93, 216, 108
-0.998618, 297, 131, 360, 146
-0.998619, 305, 63, 368, 78
-0.99862, 217, 113, 248, 128
-0.99862, 225, 181, 288, 196
-0.998621, 185, 151, 248, 166
-0.998622, 297, 51, 360, 66
-0.998622, 193, 285, 256, 300
-0.998623, 241, 149, 304, 164
-0.998623, 209, 161, 272, 176
-0.998623, 129, 83, 192, 98
-0.998624, 145, 77, 208, 92
-0.998625, 161, 45, 224, 60
-0.998625, 425, 285, 488, 300
-0.998625, 257, 139, 320, 154
-0.998627, 321, 45, 384, 60
-0.998629, 105, 123, 168, 138
-0.998631, 281, 139, 344, 154
-0.998632, 81, 103, 144, 118
-0.998632, 89, 91, 152, 106
-0.998632, 193, 45, 256, 60
-0.998632, 81, 75, 144, 90
-0.998634, 109, 1, 140, 128
-0.998636, 137, 123, 200, 138
-0.998636, 233, 65, 296, 80
-0.998636, 201, 203, 264, 218
-0.998638, 225, 143, 288, 158
-0.998638, 81, 129, 144, 144
-0.998638, 81, 81, 144, 96
-0.998639, 105, 101, 168, 116
-0.99864, 281, 171, 344, 186
-0.998641, 249, 125, 312, 140
-0.998641, 273, 285, 336, 300
-0.998642, 281, 115, 344, 130
-0.998642, 249, 109, 312, 124
-0.998644, 353, 177, 416, 192
-0.998645, 81, 285, 144, 300
-0.998645, 129, 97, 192, 112
-0.998646, 265, 149, 328, 164
-0.998647, 321, 53, 384, 68
-0.998647, 201, 185, 264, 200
-0.998647, 169, 145, 232, 160
-0.998648, 81, 97, 144, 112
-0.998648, 257, 177, 320, 192
-0.998648, 345, 159, 408, 174
-0.99865, 217, 175, 280, 190
-0.99865, 249, 117, 312, 132
-0.99865, 281, 85, 344, 100
-0.998652, 89, 191, 152, 206
-0.998652, 105, 71, 168, 86
-0.998653, 225, 59, 288, 74
-0.998654, 273, 131, 336, 146
-0.998655, 297, 57, 360, 72
-0.998655, 105, 111, 168, 126
-0.998709, 369, 161, 496, 192
-0.998712, 1, 93, 128, 124
-0.998716, 177, 269, 304, 300
-0.998784, 209, 33, 336, 64
-0.998787, 351, 145, 366, 272
-0.998789, 305, 197, 432, 228
-0.998802, 33, 45, 160, 76
-0.998808, 129, 269, 256, 300
-0.998834, 209, 129, 224, 256
-0.998835, 215, 113, 230, 240
-0.998847, 353, 269, 480, 300
-0.998855, 345, 1, 376, 256
-0.998857, 257, 269, 384, 300
-0.998861, 261, 33, 276, 160
-0.998865, 199, 129, 214, 256
-0.998869, 203, 81, 218, 208
-0.998873, 5, 1, 36, 256
-0.998884, 7, 1, 22, 128
-0.998904, 209, 1, 336, 64
-0.99891, 7, 113, 22, 240
-0.998931, 191, 97, 206, 224
-0.998931, 327, 113, 342, 240
-0.998942, 337, 185, 464, 216
-0.998951, 193, 33, 208, 160
-0.998959, 91, 33, 106, 160
-0.99896, 97, 33, 224, 64
-0.998994, 345, 145, 360, 272
-0.999003, 369, 61, 496, 92
-0.999024, 221, 129, 236, 256
-0.999028, 335, 97, 350, 224
-0.999043, 353, 217, 480, 248
-0.999045, 181, 33, 196, 160
-0.999054, 285, 97, 300, 224
-0.999066, 207, 33, 222, 160
-0.999067, 335, 33, 350, 160
-0.999068, 321, 129, 336, 256
-0.999074, 143, 33, 158, 160
-0.999074, 357, 145, 372, 272
-0.999083, 381, 81, 412, 208
-0.999085, 7, 177, 22, 300
-0.999096, 289, 145, 304, 272
-0.999096, 295, 129, 310, 256
-0.9991, 369, 161, 384, 288
-0.999108, 197, 81, 212, 208
-0.999112, 305, 269, 432, 300
-0.99912, 213, 33, 228, 160
-0.999133, 99, 33, 114, 160
-0.999139, 353, 245, 480, 276
-0.999147, 277, 97, 292, 224
-0.999156, 345, 97, 360, 224
-0.999158, 275, 33, 290, 160
-0.99916, 385, 113, 448, 176
-0.999169, 223, 33, 238, 160
-0.999172, 197, 177, 212, 300
-0.999179, 363, 145, 378, 272
-0.999179, 209, 81, 224, 208
-0.999182, 169, 33, 184, 160
-0.999183, 185, 113, 200, 240
-0.999184, 253, 49, 268, 176
-0.999197, 339, 145, 354, 272
-0.999201, 281, 49, 296, 176
-0.999203, 187, 33, 202, 160
-0.999204, 93, 177, 108, 300
-0.99921, 17, 193, 144, 224
-0.999212, 277, 145, 292, 272
-0.999216, 283, 145, 298, 272
-0.999219, 259, 97, 274, 224
-0.999219, 149, 33, 164, 160
-0.999224, 257, 201, 384, 232
-0.999225, 131, 33, 146, 160
-0.999225, 327, 33, 342, 160
-0.999227, 247, 33, 262, 160
-0.99923, 301, 113, 316, 240
-0.999232, 137, 33, 152, 160
-0.999234, 317, 177, 332, 300
-0.999239, 109, 49, 124, 176
-0.999241, 175, 33, 190, 160
-0.999245, 99, 177, 114, 300
-0.999246, 121, 33, 136, 160
-0.999246, 239, 33, 254, 160
-0.999247, 221, 81, 236, 208
-0.999248, 201, 33, 216, 160
-0.999248, 305, 177, 320, 300
-0.999254, 111, 177, 126, 300
-0.99926, 267, 97, 282, 224
-0.999265, 311, 177, 326, 300
-0.999268, 91, 97, 106, 224
-0.99927, 475, 1, 490, 128
-0.999273, 271, 177, 286, 300
-0.999281, 351, 97, 366, 224
-0.999283, 267, 33, 282, 160
-0.999289, 139, 81, 154, 208
-0.999291, 353, 205, 480, 236
-0.9993, 229, 97, 244, 224
-0.999301, 323, 177, 338, 300
-0.999305, 215, 161, 230, 288
-0.999306, 247, 97, 262, 224
-0.999307, 313, 97, 328, 224
-0.999312, 191, 177, 206, 300
-0.999316, 1, 209, 128, 240
-0.999318, 161, 33, 176, 160
-0.999323, 329, 177, 344, 300
-0.999326, 345, 33, 360, 160
-0.999345, 103, 113, 118, 240
-0.999345, 7, 49, 22, 176
-0.999347, 299, 177, 314, 300
-0.999364, 287, 49, 302, 176
-0.999366, 233, 33, 248, 160
-0.999368, 313, 33, 328, 160
-0.999373, 223, 177, 238, 300
-0.999375, 307, 113, 322, 240
-0.999381, 265, 177, 280, 300
-0.999382, 321, 81, 336, 208
-0.999385, 209, 177, 224, 300
-0.999386, 357, 17, 372, 144
-0.999388, 367, 17, 382, 144
-0.9994, 1, 181, 128, 212
-0.999406, 321, 33, 336, 160
-0.99941, 105, 177, 120, 300
-0.999417, 133, 81, 148, 208
-0.999421, 115, 49, 130, 176
-0.999438, 359, 97, 374, 224
-0.999442, 353, 73, 480, 104
-0.999448, 65, 153, 192, 184
-0.999453, 155, 33, 170, 160
-0.999459, 253, 113, 268, 240
-0.999461, 375, 177, 390, 300
-0.999465, 377, 17, 392, 144
-0.999467, 241, 81, 256, 208
-0.999473, 1, 129, 16, 256
-0.999474, 121, 81, 136, 208
-0.999475, 229, 177, 244, 300
-0.999475, 295, 81, 310, 208
-0.999476, 351, 17, 366, 144
-0.999491, 167, 81, 182, 208
-0.999506, 113, 97, 128, 224
-0.99952, 161, 81, 176, 208
-0.999521, 393, 177, 408, 300
-0.999524, 13, 145, 28, 272
-0.999533, 203, 177, 218, 300
-0.999539, 1, 1, 16, 128
-0.999543, 13, 113, 44, 240
-0.999545, 13, 1, 28, 128
-0.999554, 173, 81, 188, 208
-0.999557, 235, 177, 250, 300
-0.99956, 307, 33, 322, 160
-0.999584, 375, 113, 390, 240
-0.999594, 293, 33, 308, 160
-0.999599, 305, 33, 432, 64
-0.999601, 313, 45, 328, 60
-0.999601, 209, 221, 224, 236
-0.999601, 275, 75, 290, 90
-0.999601, 235, 81, 250, 208
-0.999601, 167, 45, 182, 60
-0.999602, 215, 215, 230, 230
-0.999602, 105, 285, 120, 300
-0.999602, 169, 85, 184, 100
-0.999603, 213, 141, 228, 156
-0.999603, 127, 81, 142, 208
-0.999604, 163, 87, 178, 102
-0.999604, 107, 201, 122, 216
-0.999606, 99, 45, 114, 60
-0.999606, 201, 101, 216, 116
-0.999606, 355, 171, 370, 186
-0.999606, 471, 1, 486, 16
-0.999606, 289, 127, 304, 142
-0.999606, 7, 141, 22, 156
-0.999608, 225, 285, 240, 300
-0.999609, 311, 179, 326, 194
-0.99961, 203, 223, 218, 238
-0.99961, 107, 1, 122, 128
-0.99961, 335, 95, 350, 110
-0.999611, 267, 135, 282, 150
-0.999611, 259, 177, 274, 300
-0.999611, 241, 111, 256, 126
-0.999611, 227, 119, 242, 134
-0.999613, 39, 285, 54, 300
-0.999613, 215, 223, 230, 238
-0.999613, 333, 127, 348, 142
-0.999613, 171, 285, 186, 300
-0.999613, 13, 195, 28, 210
-0.999613, 269, 77, 284, 92
-0.999614, 381, 177, 396, 300
-0.999614, 393, 57, 408, 72
-0.999615, 131, 119, 146, 134
-0.999615, 223, 105, 238, 120
-0.999615, 211, 185, 226, 200
-0.999617, 223, 147, 238, 162
-0.999617, 209, 195, 224, 210
-0.999617, 1, 73, 64, 136
-0.999618, 11, 285, 26, 300
-0.999618, 283, 155, 298, 170
-0.999618, 325, 131, 340, 146
-0.999618, 97, 285, 112, 300
-0.999619, 221, 203, 236, 218
-0.999619, 325, 165, 340, 180
-0.99962, 151, 81, 166, 96
-0.99962, 181, 127, 196, 142
-0.99962, 117, 177, 132, 300
-0.999622, 203, 135, 218, 150
-0.999623, 309, 165, 324, 180
-0.999623, 207, 99, 222, 114
-0.999623, 187, 109, 202, 124
-0.999625, 337, 165, 352, 180
-0.999625, 471, 285, 486, 300
-0.999626, 5, 285, 20, 300
-0.999626, 251, 83, 266, 98
-0.999627, 111, 285, 126, 300
-0.999627, 153, 81, 168, 208
-0.999627, 45, 285, 60, 300
-0.999628, 251, 45, 266, 60
-0.99963, 161, 1, 288, 64
-0.99963, 159, 79, 174, 94
-0.999631, 159, 285, 174, 300
-0.999631, 191, 129, 206, 144
-0.999632, 209, 109, 224, 124
-0.999633, 5, 13, 20, 28
-0.999633, 257, 45, 272, 60
-0.999636, 471, 7, 486, 22
-0.999636, 1, 235, 16, 250
-0.999638, 239, 129, 254, 256
-0.999638, 347, 159, 362, 174
-0.999639, 355, 161, 370, 176
-0.999641, 341, 157, 356, 172
-0.999642, 197, 131, 212, 146
-0.999644, 233, 149, 248, 164
-0.999644, 331, 165, 346, 180
-0.999645, 27, 285, 42, 300
-0.999646, 207, 143, 222, 158
-0.999647, 225, 187, 240, 202
-0.999648, 217, 187, 232, 202
-0.999648, 469, 1, 500, 256
-0.999649, 323, 159, 338, 174
-0.999649, 103, 195, 118, 210
-0.999649, 209, 123, 224, 138
-0.99965, 209, 209, 224, 224
-0.999654, 7, 231, 22, 246
-0.999656, 289, 157, 304, 172
-0.999656, 7, 169, 22, 184
-0.999657, 247, 153, 262, 168
-0.999657, 297, 133, 312, 148
-0.999657, 199, 209, 214, 224
-0.999658, 329, 159, 344, 174
-0.999658, 7, 73, 22, 88
-0.999659, 197, 137, 212, 152
-0.999659, 369, 113, 384, 240
-0.99966, 203, 195, 218, 210
-0.999661, 151, 177, 166, 300
-0.999662, 335, 45, 350, 60
-0.999663, 41, 145, 104, 272
-0.999664, 365, 167, 380, 182
-0.999664, 217, 209, 232, 224
-0.999665, 219, 179, 234, 194
-0.999668, 193, 109, 208, 124
-0.999668, 305, 157, 320, 172
-0.999669, 235, 109, 250, 124
-0.999669, 299, 157, 314, 172
-0.999669, 229, 113, 244, 128
-0.999669, 335, 157, 350, 172
-0.99967, 217, 117, 232, 132
-0.999675, 373, 177, 388, 192
-0.999676, 299, 163, 314, 178
-0.999676, 91, 45, 106, 60
-0.999677, 363, 161, 378, 176
-0.999678, 185, 119, 200, 134
-0.999679, 33, 285, 48, 300
-0.99968, 209, 215, 224, 230
-0.99968, 371, 167, 386, 182
-0.999684, 209, 203, 224, 218
-0.999685, 11, 7, 26, 22
-0.999685, 363, 173, 378, 188
-0.999686, 239, 151, 254, 166
-0.999687, 197, 199, 212, 214
-0.999688, 203, 203, 218, 218
-0.999691, 7, 41, 22, 56
-0.999693, 315, 157, 330, 172
-0.999702, 477, 9, 492, 24
-0.999703, 217, 111, 232, 126
-0.999704, 117, 119, 132, 134
-0.999706, 7, 67, 22, 82
-0.999708, 7, 267, 22, 282
-0.999725, 49, 33, 176, 64
-0.999728, 5, 7, 20, 22
-0.999741, 7, 135, 22, 150
-0.999743, 7, 199, 22, 214
-0.99976, 369, 85, 496, 116
-0.999761, 223, 113, 238, 128
-0.999787, 7, 35, 22, 50
-0.999789, 7, 163, 22, 178
-0.999817, 7, 225, 22, 240
-0.999836, 1, 1, 128, 32
-0.999843, 369, 97, 496, 128
-0.999852, 7, 257, 22, 272
-0.999854, 7, 129, 22, 144
-0.99986, 477, 1, 492, 16
-0.999868, 7, 193, 22, 208
-0.999872, 33, 137, 160, 168
-0.999887, 7, 1, 22, 16
-0.999898, 69, 145, 100, 272
-0.999924, 385, 129, 448, 256
-0.999957, 377, 177, 440, 240
-0.99997, 369, 133, 496, 164
-0.999976, 369, 109, 496, 140
-1.00001, 369, 1, 496, 32
-1.00006, 13, 1, 44, 128
-1.00007, 49, 181, 176, 212
-1.00009, 369, 121, 496, 152
-1.00011, 1, 17, 500, 80
-1.00015, 65, 165, 192, 196
-1.00017, 1, 153, 128, 184
-1.00018, 1, 169, 128, 200
-1.00024, 361, 17, 424, 80
-1.00031, 69, 1, 100, 128
-1.00032, 1, 13, 128, 44
-1.00037, 393, 1, 424, 256
-1.00038, 17, 17, 144, 80
-1.00042, 433, 1, 496, 300
-1.00042, 121, 153, 184, 216
-1.00045, 157, 129, 188, 256
-1.00047, 369, 25, 496, 56
-1.0005, 1, 33, 128, 64
-1.00053, 369, 13, 496, 44
-1.00059, 17, 1, 48, 256
-1.00066, 113, 21, 240, 52
-1.00066, 401, 177, 432, 300
-1.00067, 225, 21, 352, 52
-1.00074, 457, 1, 488, 256
-1.00078, 305, 21, 432, 52
-1.00079, 161, 21, 288, 52
-1.00096, 141, 129, 172, 256
-1.00111, 1, 113, 128, 240
-1.00118, 389, 33, 420, 160
-1.00123, 41, 137, 104, 200
-1.00136, 65, 33, 96, 288
-1.00154, 405, 33, 436, 288
-1.00156, 41, 1, 104, 300
-1.00183, 1, 65, 64, 192
-1.00184, 29, 33, 60, 288
-1.00184, 41, 33, 72, 288
-1.00184, 53, 33, 84, 288
-1.00184, 417, 33, 448, 288
-1.00184, 429, 33, 460, 288
-1.00184, 441, 33, 472, 288
-1.00219, 393, 1, 456, 300
-1.00271, 97, 1, 160, 64
-1.00287, 393, 49, 456, 112
-1.00295, 401, 49, 432, 176
-1.00307, 393, 113, 424, 240
-1.00412, 385, 81, 448, 208
-1.00417, 401, 1, 432, 128
-1.00417, 393, 177, 456, 300
-1.00426, 65, 81, 96, 208
-1.00447, 41, 193, 104, 256
-1.00474, 1, 1, 64, 256
-1.00498, 433, 1, 496, 256
-1.0056, 41, 1, 104, 256
-1.00568, 17, 65, 48, 192
-1.00591, 57, 1, 120, 64
-1.00678, 393, 17, 456, 144
-1.00704, 453, 1, 484, 128
-1.00776, 405, 97, 436, 224
-1.00805, 393, 33, 456, 288
-1.00956, 33, 1, 64, 128
-1.00956, 45, 1, 76, 128
-1.00956, 57, 1, 88, 128
-1.00956, 417, 1, 448, 128
-1.00956, 429, 1, 460, 128
-1.00956, 441, 1, 472, 128
-1.00956, 29, 49, 60, 176
-1.00956, 41, 49, 72, 176
-1.00956, 53, 49, 84, 176
-1.00956, 421, 49, 452, 176
-1.00956, 433, 49, 464, 176
-1.00956, 445, 49, 476, 176
-1.00956, 457, 49, 488, 176
-1.00956, 469, 49, 500, 176
-1.00956, 29, 97, 60, 224
-1.00956, 41, 97, 72, 224
-1.00956, 53, 97, 84, 224
-1.00956, 421, 97, 452, 224
-1.00956, 433, 97, 464, 224
-1.00956, 445, 97, 476, 224
-1.00956, 457, 97, 488, 224
-1.00956, 469, 97, 500, 224
-1.00956, 33, 145, 64, 272
-1.00956, 45, 145, 76, 272
-1.00956, 57, 145, 88, 272
-1.00956, 421, 145, 452, 272
-1.00956, 433, 145, 464, 272
-1.00956, 445, 145, 476, 272
-1.00956, 457, 145, 488, 272
-1.00956, 469, 145, 500, 272
-1.01142, 33, 33, 96, 160
-1.01324, 33, 81, 96, 208
-1.01478, 433, 49, 496, 176
-1.01478, 409, 81, 472, 208
-1.01478, 433, 97, 496, 224
-1.01478, 409, 129, 472, 256
-1.01478, 433, 145, 496, 272
