1911
-0.446592, 1, 1, 334, 500
-0.507386, 1, 97, 334, 352
-0.514957, 65, 1, 320, 500
-0.535893, 1, 193, 334, 448
-0.718716, 1, 1, 334, 256
-0.724736, 65, 33, 320, 288
-0.796571, 33, 129, 288, 384
-0.870343, 1, 225, 256, 480
-0.876512, 145, 1, 272, 500
-0.879894, 193, 1, 320, 500
-0.896226, 97, 1, 224, 500
-0.897615, 193, 1, 320, 256
-0.898069, 33, 161, 160, 416
-0.899683, 81, 97, 208, 352
-0.902762, 145, 33, 272, 288
-0.91785, 1, 193, 334, 320
-0.918493, 1, 321, 334, 448
-0.924324, 1, 257, 128, 500
-0.926973, 1, 369, 334, 496
-0.9314, 1, 145, 334, 272
-0.934228, 1, 257, 334, 384
-0.935123, 49, 1, 176, 500
-0.940861, 81, 257, 208, 500
-0.942361, 65, 145, 320, 272
-0.944761, 1, 65, 128, 320
-0.946787, 1, 1, 128, 500
-0.949018, 209, 193, 334, 448
-0.950129, 1, 33, 334, 160
-0.953791, 193, 33, 320, 160
-0.954181, 33, 193, 288, 320
-0.954464, 49, 209, 112, 336
-0.954483, 1, 97, 334, 224
-0.955615, 1, 289, 256, 416
-0.955914, 145, 49, 272, 176
-0.956078, 1, 337, 256, 464
-0.95649, 161, 257, 288, 500
-0.960079, 1, 225, 64, 352
-0.960213, 193, 97, 320, 352
-0.960282, 1, 225, 128, 352
-0.960813, 65, 97, 320, 224
-0.962852, 89, 161, 152, 288
-0.963062, 153, 65, 216, 192
-0.963239, 97, 1, 224, 256
-0.963432, 177, 321, 304, 448
-0.963885, 65, 177, 192, 304
-0.964681, 201, 33, 264, 160
-0.965126, 1, 369, 128, 496
-0.966559, 97, 129, 224, 256
-0.966596, 65, 49, 320, 176
-0.966648, 265, 33, 328, 160
-0.96714, 25, 241, 88, 368
-0.968316, 177, 49, 240, 176
-0.968978, 49, 1, 176, 256
-0.969067, 81, 369, 208, 496
-0.969451, 129, 337, 256, 464
-0.969517, 241, 33, 304, 160
-0.969613, 145, 273, 272, 400
-0.969763, 17, 177, 144, 304
-0.96983, 185, 337, 248, 464
-0.970065, 129, 97, 192, 224
-0.970133, 201, 41, 264, 104
-0.970991, 233, 305, 296, 432
-0.971093, 209, 273, 334, 400
-0.97164, 41, 353, 104, 480
-0.97274, 161, 73, 224, 136
-0.972869, 129, 113, 192, 176
-0.972872, 41, 425, 104, 488
-0.973364, 105, 113, 168, 240
-0.973654, 89, 185, 152, 248
-0.973948, 225, 33, 288, 96
-0.973994, 41, 233, 104, 296
-0.974, 65, 289, 192, 416
-0.974687, 129, 321, 192, 448
-0.974739, 129, 129, 256, 384
-0.974879, 249, 41, 312, 104
-0.975361, 209, 321, 272, 448
-0.97554, 233, 353, 296, 480
-0.975614, 49, 225, 176, 352
-0.975864, 177, 49, 240, 112
-0.976092, 249, 1, 312, 256
-0.976728, 9, 321, 72, 448
-0.976854, 113, 145, 176, 208
-0.976862, 97, 81, 224, 208
-0.977154, 73, 401, 136, 464
-0.977181, 209, 41, 334, 104
-0.977228, 65, 209, 128, 272
-0.977255, 161, 305, 224, 432
-0.977301, 1, 241, 256, 368
-0.977754, 225, 1, 288, 256
-0.977837, 17, 321, 144, 448
-0.977978, 73, 209, 136, 336
-0.978017, 9, 241, 72, 304
-0.97813, 209, 273, 272, 400
-0.978326, 81, 337, 144, 464
-0.978424, 185, 417, 248, 480
-0.97851, 73, 425, 136, 488
-0.979292, 193, 369, 320, 496
-0.979674, 73, 209, 104, 336
-0.980094, 1, 225, 64, 480
-0.980119, 145, 369, 208, 496
-0.980231, 233, 257, 296, 384
-0.980255, 273, 49, 334, 112
-0.980313, 17, 417, 80, 480
-0.980336, 41, 289, 104, 416
-0.981009, 281, 41, 312, 104
-0.981185, 257, 321, 320, 448
-0.981634, 41, 281, 104, 344
-0.981778, 105, 369, 168, 496
-0.981798, 241, 337, 304, 400
-0.98183, 193, 1, 256, 256
-0.981831, 97, 417, 160, 480
-0.981905, 137, 89, 200, 152
-0.981955, 249, 201, 312, 264
-0.982144, 97, 177, 128, 304
-0.982151, 161, 257, 224, 384
-0.982172, 53, 225, 84, 352
-0.982222, 65, 193, 128, 448
-0.982226, 209, 369, 272, 496
-0.982347, 9, 369, 72, 496
-0.982412, 173, 73, 204, 136
-0.982555, 121, 417, 184, 480
-0.982734, 209, 321, 272, 384
-0.982751, 113, 145, 144, 272
-0.982785, 49, 425, 176, 488
-0.982984, 89, 161, 152, 224
-0.983023, 129, 121, 160, 184
-0.983045, 49, 417, 80, 480
-0.983343, 41, 225, 104, 480
-0.983409, 33, 225, 64, 352
-0.983425, 113, 97, 176, 352
-0.983433, 81, 185, 208, 248
-0.983558, 185, 273, 248, 400
-0.983575, 161, 57, 288, 120
-0.983578, 89, 161, 152, 416
-0.983619, 105, 273, 168, 400
-0.983624, 1, 377, 64, 440
-0.983627, 97, 393, 160, 456
-0.98369, 17, 273, 144, 400
-0.983722, 97, 161, 224, 224
-0.983765, 97, 177, 128, 240
-0.983835, 161, 65, 192, 192
-0.98386, 217, 353, 248, 480
-0.983894, 73, 281, 136, 344
-0.98392, 113, 409, 240, 472
-0.983993, 261, 33, 292, 160
-0.984131, 17, 225, 48, 352
-0.984194, 245, 33, 276, 96
-0.984313, 129, 113, 160, 240
-0.984328, 97, 225, 224, 352
-0.984367, 161, 33, 224, 288
-0.98439, 285, 33, 316, 160
-0.984536, 273, 305, 334, 368
-0.984687, 153, 393, 216, 456
-0.984697, 145, 81, 272, 144
-0.984894, 109, 161, 140, 224
-0.984938, 33, 225, 160, 288
-0.985015, 169, 297, 232, 360
-0.985043, 41, 401, 104, 464
-0.985066, 149, 97, 180, 160
-0.985271, 161, 1, 224, 500
-0.985317, 17, 177, 80, 304
-0.985438, 161, 417, 288, 480
-0.985461, 169, 337, 232, 400
-0.985597, 1, 129, 128, 256
-0.985682, 261, 41, 292, 104
-0.985747, 49, 401, 176, 464
-0.985758, 1, 425, 128, 488
-0.98576, 193, 49, 224, 112
-0.985776, 57, 257, 120, 320
-0.98579, 197, 337, 228, 464
-0.985908, 273, 25, 334, 88
-0.985993, 9, 305, 72, 368
-0.986004, 145, 417, 208, 480
-0.986035, 193, 329, 320, 392
-0.986083, 193, 49, 224, 176
-0.986131, 65, 225, 96, 288
-0.986138, 245, 17, 276, 144
-0.986175, 257, 369, 320, 496
-0.986188, 113, 113, 240, 176
-0.98627, 221, 41, 252, 104
-0.986309, 217, 1, 280, 500
-0.986378, 1, 273, 64, 400
-0.986397, 205, 49, 236, 112
-0.98647, 49, 129, 176, 256
-0.986667, 33, 81, 160, 208
-0.986711, 197, 409, 228, 472
-0.986725, 273, 33, 334, 288
-0.986889, 97, 297, 160, 360
-0.986989, 85, 401, 116, 464
-0.987023, 273, 33, 304, 160
-0.987068, 257, 1, 320, 500
-0.9871, 5, 225, 36, 352
-0.987127, 65, 33, 192, 160
-0.987213, 141, 97, 172, 224
-0.987244, 97, 137, 224, 200
-0.987257, 249, 17, 312, 80
-0.9873, 85, 177, 116, 304
-0.987325, 217, 385, 280, 448
-0.987388, 213, 33, 244, 160
-0.987423, 1, 1, 256, 128
-0.987471, 1, 201, 128, 264
-0.987529, 25, 209, 88, 272
-0.987569, 225, 177, 288, 240
-0.987696, 301, 49, 332, 176
-0.987704, 209, 193, 334, 320
-0.987718, 233, 409, 296, 472
-0.98778, 257, 273, 320, 400
-0.987797, 81, 209, 112, 272
-0.987851, 49, 281, 176, 344
-0.987869, 305, 49, 334, 112
-0.987933, 193, 1, 256, 500
-0.987958, 161, 289, 288, 352
-0.987969, 13, 233, 44, 296
-0.987984, 33, 241, 64, 304
-0.987997, 65, 257, 128, 384
-0.988203, 225, 33, 256, 160
-0.988256, 105, 121, 168, 184
-0.988279, 105, 321, 168, 448
-0.988361, 1, 217, 64, 280
-0.988403, 113, 161, 176, 288
-0.988527, 161, 81, 192, 144
-0.988541, 233, 417, 264, 480
-0.988571, 249, 273, 312, 336
-0.988604, 113, 305, 240, 368
-0.988685, 33, 305, 96, 368
-0.988721, 105, 409, 136, 472
-0.988726, 233, 369, 264, 496
-0.988779, 1, 297, 128, 360
-0.988785, 145, 97, 272, 224
-0.988792, 97, 385, 224, 448
-0.988796, 9, 345, 72, 408
-0.988811, 57, 369, 120, 432
-0.988889, 1, 393, 128, 456
-0.988894, 253, 321, 284, 448
-0.988912, 125, 417, 156, 480
-0.98896, 121, 321, 184, 384
-0.988978, 181, 49, 212, 176
-0.988984, 137, 65, 200, 320
-0.98905, 273, 185, 334, 248
-0.989075, 201, 273, 264, 336
-0.989093, 137, 369, 200, 432
-0.989182, 161, 1, 224, 128
-0.989201, 1, 249, 128, 312
-0.989202, 53, 225, 84, 288
-0.989237, 209, 321, 240, 384
-0.989266, 145, 225, 272, 352
-0.989386, 49, 249, 80, 312
-0.989421, 217, 209, 280, 272
-0.989471, 233, 305, 296, 368
-0.989539, 273, 129, 334, 256
-0.989557, 113, 353, 176, 416
-0.989585, 293, 41, 324, 104
-0.989635, 273, 177, 334, 304
-0.989649, 13, 417, 44, 480
-0.989695, 69, 401, 100, 464
-0.989695, 209, 97, 334, 224
-0.989772, 37, 433, 68, 496
-0.989819, 177, 409, 208, 472
-0.989857, 33, 377, 96, 440
-0.989857, 185, 377, 248, 440
-0.989925, 129, 1, 192, 500
-0.990107, 209, 409, 272, 472
-0.99011, 17, 281, 80, 344
-0.990272, 217, 41, 280, 72
-0.990287, 129, 337, 256, 400
-0.990299, 57, 305, 120, 368
-0.990346, 209, 305, 334, 368
-0.990395, 45, 369, 76, 496
-0.99047, 121, 145, 152, 208
-0.990549, 65, 233, 128, 296
-0.990559, 201, 345, 264, 408
-0.990571, 61, 281, 92, 344
-0.990624, 257, 401, 320, 464
-0.990633, 209, 409, 240, 472
-0.990659, 241, 41, 304, 72
-0.990673, 93, 201, 124, 264
-0.990731, 1, 329, 128, 392
-0.990749, 177, 393, 304, 456
-0.990781, 201, 17, 264, 80
-0.990788, 233, 41, 264, 104
-0.990802, 273, 45, 334, 76
-0.990803, 145, 289, 208, 352
-0.990856, 65, 185, 128, 248
-0.990965, 265, 329, 296, 392
-0.990986, 49, 329, 176, 392
-0.991016, 265, 369, 328, 432
-0.99103, 261, 193, 292, 256
-0.991042, 25, 425, 56, 488
-0.991059, 257, 409, 288, 472
-0.991092, 233, 337, 296, 368
-0.991106, 241, 105, 304, 168
-0.991106, 273, 209, 334, 272
-0.991179, 133, 305, 164, 368
-0.9912, 209, 305, 240, 432
-0.99123, 25, 433, 88, 464
-0.991231, 65, 429, 128, 460
-0.99125, 49, 129, 176, 192
-0.991275, 157, 337, 188, 464
-0.991282, 45, 385, 76, 448
-0.991292, 121, 297, 184, 360
-0.991328, 129, 265, 256, 328
-0.991354, 185, 417, 248, 448
-0.991393, 57, 229, 120, 260
-0.991456, 73, 289, 104, 352
-0.991467, 1, 369, 128, 432
-0.991497, 129, 129, 192, 160
-0.991506, 129, 429, 192, 460
-0.991518, 33, 241, 96, 272
-0.991534, 9, 241, 72, 272
-0.99156, 97, 181, 160, 212
-0.991563, 249, 249, 312, 312
-0.991567, 113, 73, 176, 136
-0.991583, 113, 433, 240, 496
-0.991591, 169, 77, 232, 108
-0.991594, 185, 61, 248, 92
-0.991603, 209, 297, 272, 360
-0.991635, 201, 333, 264, 364
-0.99164, 153, 341, 216, 372
-0.991679, 153, 417, 216, 448
-0.991699, 193, 45, 256, 76
-0.9917, 81, 217, 144, 248
-0.991709, 225, 233, 288, 296
-0.991711, 89, 201, 152, 232
-0.991721, 97, 257, 160, 320
-0.991724, 137, 117, 200, 148
-0.99173, 153, 97, 216, 128
-0.991757, 161, 177, 288, 304
-0.99176, 113, 165, 176, 196
-0.991764, 161, 33, 288, 96
-0.99181, 65, 441, 128, 472
-0.991832, 41, 161, 104, 288
-0.991841, 33, 153, 160, 216
-0.991846, 9, 377, 72, 408
-0.99185, 193, 349, 256, 380
-0.991861, 73, 409, 136, 440
-0.991865, 41, 297, 72, 360
-0.991866, 97, 429, 160, 460
-0.991866, 41, 417, 104, 448
-0.991869, 129, 349, 192, 380
-0.991879, 69, 321, 100, 384
-0.991889, 49, 377, 176, 440
-0.991893, 209, 273, 334, 336
-0.991893, 1, 369, 32, 496
-0.991897, 169, 337, 200, 464
-0.992016, 221, 417, 252, 480
-0.99203, 221, 329, 252, 392
-0.992076, 61, 425, 92, 488
-0.992077, 185, 201, 248, 264
-0.992077, 161, 329, 224, 360
-0.992142, 1, 273, 128, 336
-0.992148, 97, 441, 160, 472
-0.992164, 121, 149, 184, 180
-0.992176, 1, 233, 32, 296
-0.99219, 193, 257, 256, 500
-0.992221, 57, 281, 120, 312
-0.992228, 49, 305, 176, 368
-0.99223, 257, 369, 288, 496
-0.992237, 33, 449, 96, 480
-0.992239, 25, 401, 56, 464
-0.992279, 253, 329, 284, 392
-0.992279, 145, 405, 208, 436
-0.992294, 153, 429, 216, 460
-0.992303, 209, 153, 334, 216
-0.992307, 1, 433, 64, 464
-0.992327, 25, 229, 88, 260
-0.992352, 273, 273, 334, 336
-0.992353, 33, 389, 96, 420
-0.992355, 265, 345, 328, 408
-0.992367, 249, 177, 312, 240
-0.992416, 85, 305, 116, 368
-0.992418, 149, 289, 180, 416
-0.992431, 237, 305, 268, 432
-0.992441, 89, 209, 152, 272
-0.992449, 113, 1, 240, 128
-0.992457, 73, 265, 104, 328
-0.992457, 193, 385, 224, 448
-0.99248, 21, 305, 52, 368
-0.992483, 105, 417, 168, 448
-0.992497, 285, 45, 316, 76
-0.99251, 129, 361, 192, 392
-0.99254, 241, 53, 304, 84
-0.992541, 41, 293, 104, 324
-0.992551, 57, 377, 120, 408
-0.99256, 233, 421, 296, 452
-0.992595, 113, 389, 176, 420
-0.992617, 185, 285, 248, 316
-0.992629, 217, 385, 248, 448
-0.992633, 5, 321, 36, 384
-0.992648, 17, 281, 80, 312
-0.992648, 257, 285, 320, 316
-0.99265, 277, 185, 308, 248
-0.992674, 161, 369, 288, 432
-0.992676, 209, 417, 334, 480
-0.992677, 1, 425, 32, 488
-0.992679, 37, 273, 68, 400
-0.992681, 177, 429, 240, 460
-0.992682, 113, 337, 176, 368
-0.992695, 145, 85, 208, 116
-0.992695, 81, 229, 144, 260
-0.992697, 41, 269, 104, 300
-0.992718, 57, 393, 120, 424
-0.992723, 265, 325, 328, 356
-0.992724, 101, 433, 132, 496
-0.992731, 65, 453, 128, 484
-0.992737, 277, 17, 308, 80
-0.992741, 97, 257, 128, 384
-0.992746, 245, 369, 276, 496
-0.992746, 97, 405, 160, 436
-0.992747, 137, 385, 200, 416
-0.992759, 9, 449, 72, 480
-0.99277, 137, 337, 168, 400
-0.99277, 153, 337, 184, 400
-0.992785, 69, 425, 100, 456
-0.992795, 233, 421, 264, 452
-0.992797, 17, 421, 80, 452
-0.992801, 17, 409, 80, 440
-0.992806, 241, 217, 304, 248
-0.992808, 257, 29, 320, 60
-0.992818, 97, 293, 160, 324
-0.99282, 249, 113, 312, 144
-0.992825, 209, 417, 272, 448
-0.992827, 33, 369, 96, 400
-0.99283, 221, 305, 252, 432
-0.992846, 89, 141, 152, 172
-0.992854, 49, 205, 112, 236
-0.992867, 241, 229, 304, 260
-0.992872, 273, 57, 334, 88
-0.992877, 1, 309, 64, 340
-0.992885, 137, 441, 200, 472
-0.992894, 233, 325, 296, 356
-0.992898, 81, 385, 144, 416
-0.9929, 217, 253, 280, 284
-0.992905, 249, 37, 280, 68
-0.992905, 65, 145, 128, 208
-0.992906, 241, 273, 304, 304
-0.992912, 89, 97, 152, 160
-0.992916, 241, 205, 304, 236
-0.992917, 49, 433, 80, 464
-0.992922, 197, 421, 228, 452
-0.992924, 97, 357, 160, 388
-0.992927, 177, 365, 240, 396
-0.992936, 221, 41, 252, 72
-0.992938, 193, 57, 224, 88
-0.992947, 9, 389, 72, 420
-0.992948, 261, 41, 292, 72
-0.992948, 233, 29, 296, 60
-0.99295, 73, 357, 136, 388
-0.992957, 209, 201, 334, 264
-0.992961, 165, 81, 196, 112
-0.992967, 49, 237, 80, 268
-0.992973, 1, 293, 64, 324
-0.992978, 273, 193, 334, 224
-0.992982, 65, 353, 192, 416
-0.992984, 113, 165, 144, 196
-0.992991, 21, 369, 52, 496
-0.992996, 101, 181, 132, 212
-0.992999, 57, 241, 120, 272
-0.993001, 113, 117, 176, 148
-0.993005, 97, 457, 160, 488
-0.993006, 77, 425, 108, 488
-0.99301, 217, 237, 280, 268
-0.99301, 257, 349, 320, 380
-0.993011, 73, 441, 104, 472
-0.993012, 57, 337, 120, 368
-0.99302, 137, 121, 168, 152
-0.993028, 257, 417, 320, 448
-0.993035, 185, 405, 248, 436
-0.993037, 89, 169, 152, 200
-0.993041, 161, 65, 224, 96
-0.993042, 257, 333, 288, 364
-0.993051, 265, 213, 328, 244
-0.993057, 145, 373, 208, 404
-0.993059, 233, 41, 264, 72
-0.99307, 9, 237, 40, 268
-0.993073, 225, 433, 288, 464
-0.993074, 209, 49, 240, 80
-0.993076, 105, 469, 168, 500
-0.993079, 49, 273, 80, 336
-0.993079, 101, 377, 132, 440
-0.99308, 301, 45, 332, 76
-0.99308, 113, 57, 240, 120
-0.99308, 41, 357, 104, 388
-0.99308, 129, 105, 192, 136
-0.993081, 61, 445, 92, 476
-0.993082, 129, 325, 192, 356
-0.993085, 145, 337, 176, 368
-0.993088, 169, 297, 232, 328
-0.99309, 249, 101, 312, 132
-0.993093, 201, 273, 264, 304
-0.993103, 153, 105, 184, 136
-0.993103, 177, 429, 208, 460
-0.993107, 101, 437, 132, 468
-0.993111, 129, 289, 192, 320
-0.993115, 93, 197, 124, 228
-0.993115, 1, 365, 64, 396
-0.993117, 25, 245, 56, 276
-0.993125, 257, 337, 320, 368
-0.993125, 193, 441, 256, 472
-0.993127, 89, 325, 152, 356
-0.993131, 201, 321, 264, 352
-0.993132, 81, 281, 144, 312
-0.993133, 73, 185, 136, 216
-0.993134, 209, 421, 240, 452
-0.993134, 241, 209, 304, 336
-0.993136, 41, 405, 104, 436
-0.993138, 177, 73, 208, 104
-0.99314, 217, 349, 280, 380
-0.993147, 209, 329, 240, 360
-0.99315, 265, 225, 328, 256
-0.993161, 89, 437, 120, 468
-0.993162, 85, 217, 116, 248
-0.993171, 129, 141, 160, 172
-0.993171, 49, 445, 80, 476
-0.993173, 177, 417, 208, 448
-0.993174, 209, 221, 272, 252
-0.993177, 129, 305, 192, 336
-0.993177, 137, 425, 168, 456
-0.99318, 69, 225, 100, 256
-0.993182, 225, 289, 288, 320
-0.993187, 41, 253, 104, 284
-0.993188, 129, 417, 192, 448
-0.993189, 57, 413, 88, 444
-0.993195, 201, 225, 264, 352
-0.993199, 121, 373, 184, 404
-0.993204, 61, 237, 92, 268
-0.993208, 17, 261, 80, 292
-0.993208, 149, 349, 180, 380
-0.993223, 41, 345, 104, 408
-0.993227, 37, 245, 68, 276
-0.993228, 117, 433, 148, 464
-0.993236, 193, 233, 256, 264
-0.993236, 169, 353, 232, 384
-0.993239, 169, 313, 232, 344
-0.99324, 201, 345, 232, 376
-0.993244, 93, 425, 124, 456
-0.993245, 245, 333, 276, 364
-0.993246, 89, 345, 152, 376
-0.993263, 105, 1, 168, 500
-0.993269, 197, 433, 228, 464
-0.99327, 273, 53, 304, 84
-0.99327, 145, 321, 208, 384
-0.993271, 45, 421, 76, 452
-0.993278, 161, 341, 192, 372
-0.993282, 305, 57, 334, 88
-0.993287, 273, 41, 304, 72
-0.993289, 217, 409, 248, 440
-0.99329, 161, 93, 192, 124
-0.993292, 241, 257, 304, 500
-0.993294, 305, 177, 334, 304
-0.993313, 257, 417, 288, 448
-0.993322, 221, 421, 252, 452
-0.993323, 133, 341, 164, 372
-0.993331, 85, 413, 116, 444
-0.993331, 125, 153, 156, 184
-0.993333, 57, 249, 88, 280
-0.993334, 213, 349, 244, 380
-0.993353, 261, 109, 292, 140
-0.993354, 241, 105, 272, 136
-0.993358, 73, 413, 104, 444
-0.993362, 133, 301, 164, 332
-0.993368, 285, 57, 316, 88
-0.993372, 233, 333, 264, 364
-0.993372, 121, 417, 152, 448
-0.993377, 125, 129, 156, 160
-0.993385, 245, 421, 276, 452
-0.993388, 65, 369, 96, 496
-0.993397, 61, 457, 92, 488
-0.993398, 189, 69, 220, 100
-0.993416, 13, 381, 44, 412
-0.993418, 85, 277, 116, 308
-0.993421, 105, 421, 136, 452
-0.993423, 81, 425, 112, 456
-0.993425, 101, 449, 132, 480
-0.993432, 141, 109, 172, 140
-0.993433, 189, 409, 220, 440
-0.993435, 1, 385, 32, 416
-0.993435, 221, 333, 252, 364
-0.993441, 9, 369, 40, 400
-0.99345, 133, 437, 164, 468
-0.993453, 245, 409, 276, 440
-0.993453, 45, 285, 76, 316
-0.993453, 113, 177, 144, 208
-0.993458, 113, 293, 144, 324
-0.993459, 73, 285, 104, 316
-0.993459, 17, 313, 48, 344
-0.993466, 153, 425, 184, 456
-0.993469, 249, 117, 280, 148
-0.99347, 93, 289, 124, 320
-0.993476, 265, 321, 296, 352
-0.993477, 41, 177, 104, 240
-0.993478, 93, 393, 124, 424
-0.993482, 73, 241, 104, 272
-0.993482, 37, 233, 68, 264
-0.993483, 129, 357, 160, 388
-0.993492, 21, 369, 52, 400
-0.993495, 17, 429, 48, 460
-0.993496, 269, 341, 300, 372
-0.993496, 229, 29, 260, 60
-0.993499, 117, 389, 148, 420
-0.9935, 29, 433, 60, 464
-0.9935, 85, 453, 116, 484
-0.993502, 141, 325, 172, 356
-0.993503, 169, 405, 200, 436
-0.993507, 225, 345, 256, 376
-0.99351, 173, 377, 204, 440
-0.993515, 269, 409, 300, 440
-0.993516, 281, 329, 312, 360
-0.993516, 241, 241, 272, 272
-0.99352, 121, 393, 184, 456
-0.993522, 65, 401, 96, 432
-0.993528, 37, 313, 68, 344
-0.993529, 73, 297, 104, 328
-0.993532, 101, 409, 132, 440
-0.993534, 105, 397, 136, 428
-0.993536, 37, 409, 68, 472
-0.993537, 241, 253, 272, 284
-0.993543, 37, 409, 68, 440
-0.993545, 229, 237, 260, 268
-0.993546, 149, 365, 180, 396
-0.993551, 33, 397, 64, 428
-0.993551, 165, 425, 196, 456
-0.993551, 261, 201, 292, 232
-0.993555, 109, 349, 140, 380
-0.993555, 197, 329, 228, 360
-0.993556, 205, 273, 236, 304
-0.993558, 129, 329, 160, 360
-0.993561, 81, 81, 208, 144
-0.993563, 173, 369, 204, 400
-0.993565, 129, 369, 160, 400
-0.993569, 81, 229, 112, 260
-0.993572, 57, 293, 88, 324
-0.993572, 117, 321, 148, 352
-0.993634, 33, 361, 64, 424
-0.993655, 161, 201, 288, 264
-0.993663, 65, 161, 320, 224
-0.993669, 241, 361, 304, 424
-0.993708, 65, 57, 192, 120
-0.993708, 25, 129, 88, 384
-0.993712, 97, 33, 224, 96
-0.993712, 65, 161, 128, 288
-0.993737, 81, 321, 144, 384
-0.993757, 81, 81, 144, 208
-0.993798, 65, 105, 192, 168
-0.993831, 65, 377, 96, 440
-0.993923, 53, 273, 84, 400
-0.993944, 65, 345, 128, 408
-0.993985, 77, 273, 108, 400
-0.994038, 1, 297, 32, 360
-0.994043, 141, 425, 172, 488
-0.994048, 193, 249, 320, 312
-0.99405, 1, 129, 64, 384
-0.994136, 269, 409, 300, 472
-0.994148, 33, 177, 160, 240
-0.994152, 277, 305, 308, 368
-0.994175, 185, 369, 216, 496
-0.994194, 113, 169, 176, 232
-0.994204, 209, 145, 334, 272
-0.994232, 13, 393, 44, 456
-0.994252, 209, 353, 334, 416
-0.994257, 209, 45, 334, 76
-0.994287, 13, 361, 44, 424
-0.994331, 53, 177, 84, 304
-0.994337, 197, 337, 228, 400
-0.994345, 33, 185, 288, 248
-0.994383, 145, 345, 208, 408
-0.994395, 133, 305, 164, 432
-0.994412, 145, 337, 176, 464
-0.994445, 81, 121, 144, 184
-0.994466, 105, 33, 168, 160
-0.994476, 161, 417, 192, 480
-0.994488, 85, 281, 116, 344
-0.99449, 241, 265, 272, 328
-0.994515, 297, 1, 328, 128
-0.994519, 161, 25, 224, 88
-0.994531, 273, 161, 334, 224
-0.99457, 265, 321, 296, 448
-0.994572, 129, 49, 192, 112
-0.994583, 1, 409, 256, 472
-0.99459, 225, 9, 288, 72
-0.994627, 245, 401, 276, 464
-0.994677, 201, 249, 264, 312
-0.994696, 209, 177, 334, 240
-0.994708, 217, 73, 280, 136
-0.994709, 33, 321, 64, 448
-0.994711, 233, 433, 296, 496
-0.994718, 129, 273, 192, 400
-0.994726, 177, 265, 240, 328
-0.994729, 209, 17, 334, 80
-0.994739, 225, 17, 256, 80
-0.994753, 161, 169, 288, 232
-0.994763, 141, 385, 172, 448
-0.994813, 265, 225, 328, 352
-0.994886, 33, 369, 64, 496
-0.994892, 241, 329, 272, 392
-0.994906, 197, 313, 228, 376
-0.994952, 53, 361, 84, 424
-0.994958, 89, 345, 152, 408
-0.994993, 241, 81, 304, 208
-0.995, 33, 217, 64, 280
-0.995043, 289, 305, 320, 368
-0.995053, 85, 377, 116, 440
-0.995149, 97, 225, 160, 352
-0.995166, 41, 1, 104, 500
-0.995169, 201, 129, 264, 192
-0.995184, 241, 305, 272, 368
-0.99519, 301, 17, 332, 80
-0.995205, 161, 369, 224, 432
-0.995214, 93, 353, 124, 480
-0.99524, 161, 225, 224, 288
-0.995261, 257, 17, 288, 80
-0.995263, 269, 369, 300, 496
-0.995296, 9, 1, 72, 500
-0.995322, 193, 273, 224, 400
-0.995337, 181, 297, 212, 360
-0.995378, 121, 393, 152, 456
-0.995389, 117, 273, 148, 400
-0.995391, 281, 369, 312, 496
-0.9954, 97, 281, 128, 344
-0.995406, 169, 257, 232, 500
-0.995419, 249, 225, 312, 288
-0.995443, 117, 313, 148, 376
-0.995445, 1, 433, 256, 496
-0.995457, 161, 377, 192, 440
-0.995459, 65, 337, 320, 400
-0.995462, 125, 353, 156, 416
-0.995464, 89, 425, 120, 488
-0.995483, 201, 169, 264, 232
-0.995516, 81, 209, 208, 272
-0.99553, 129, 369, 160, 496
-0.995561, 265, 81, 328, 144
-0.995582, 225, 305, 256, 368
-0.995607, 121, 209, 184, 336
-0.995665, 233, 241, 264, 304
-0.995665, 185, 433, 216, 496
-0.995669, 65, 1, 128, 500
-0.995673, 65, 137, 320, 200
-0.9957, 265, 425, 328, 488
-0.995706, 57, 313, 88, 376
-0.995719, 129, 265, 192, 328
-0.995743, 161, 129, 288, 192
-0.995762, 49, 257, 176, 320
-0.995771, 33, 225, 288, 288
-0.995799, 137, 49, 168, 176
-0.995799, 65, 113, 320, 176
-0.995818, 95, 193, 110, 256
-0.995851, 89, 233, 152, 296
-0.995858, 41, 177, 72, 304
-0.995865, 13, 177, 44, 304
-0.995876, 1, 361, 32, 424
-0.995884, 217, 257, 280, 500
-0.995905, 81, 345, 112, 408
-0.995905, 213, 257, 244, 384
-0.995967, 249, 233, 280, 296
-0.995975, 225, 257, 288, 320
-0.995976, 277, 273, 308, 400
-0.995993, 193, 225, 320, 288
-0.996, 201, 281, 232, 344
-0.996006, 97, 113, 128, 240
-0.996019, 21, 329, 52, 392
-0.996021, 253, 265, 284, 328
-0.996022, 265, 113, 328, 176
-0.996028, 169, 17, 200, 144
-0.99606, 131, 129, 146, 192
-0.996113, 193, 89, 320, 152
-0.996115, 121, 193, 184, 256
-0.996164, 261, 297, 292, 360
-0.996166, 209, 65, 334, 128
-0.996173, 177, 333, 304, 364
-0.996174, 77, 369, 108, 496
-0.996175, 145, 313, 176, 376
-0.996177, 1, 297, 256, 360
-0.996194, 119, 161, 134, 224
-0.996199, 293, 41, 308, 104
-0.996202, 253, 33, 268, 96
-0.996211, 61, 249, 92, 312
-0.99622, 201, 25, 232, 88
-0.99622, 289, 273, 320, 336
-0.996228, 169, 289, 200, 416
-0.996252, 105, 177, 120, 240
-0.996263, 93, 305, 124, 432
-0.996275, 109, 353, 140, 480
-0.996275, 87, 209, 102, 272
-0.996282, 273, 209, 304, 272
-0.996318, 153, 257, 216, 320
-0.99634, 193, 57, 208, 120
-0.996341, 41, 433, 56, 496
-0.996386, 53, 321, 84, 448
-0.996405, 273, 249, 334, 312
-0.996423, 117, 225, 148, 352
-0.996426, 113, 361, 240, 424
-0.996436, 269, 385, 300, 448
-0.996455, 185, 73, 216, 136
-0.996465, 257, 169, 288, 232
-0.996477, 69, 353, 100, 416
-0.996482, 217, 105, 280, 168
-0.996488, 1, 225, 16, 288
-0.99649, 211, 41, 226, 104
-0.996494, 129, 345, 256, 376
-0.996504, 185, 225, 248, 288
-0.996516, 265, 41, 280, 104
-0.996516, 155, 97, 170, 160
-0.996525, 173, 73, 188, 136
-0.996541, 1, 433, 128, 464
-0.996547, 161, 9, 288, 72
-0.99658, 121, 257, 184, 500
-0.996582, 287, 41, 302, 104
-0.996592, 113, 129, 240, 160
-0.996611, 81, 189, 208, 220
-0.996612, 293, 65, 324, 128
-0.996614, 1, 225, 128, 256
-0.996622, 101, 345, 132, 408
-0.996625, 165, 81, 180, 144
-0.996649, 17, 233, 32, 296
-0.996664, 313, 49, 328, 112
-0.996666, 161, 81, 288, 112
-0.996679, 27, 233, 42, 296
-0.996681, 145, 101, 272, 132
-0.996682, 97, 257, 160, 500
-0.996723, 1, 385, 256, 448
-0.996739, 17, 289, 48, 416
-0.996741, 49, 425, 176, 456
-0.996741, 137, 257, 168, 384
-0.996745, 97, 161, 224, 192
-0.996759, 221, 41, 236, 104
-0.996771, 261, 273, 292, 400
-0.996781, 65, 49, 320, 112
-0.996782, 177, 57, 304, 88
-0.996804, 65, 193, 96, 256
-0.996807, 113, 169, 128, 232
-0.996813, 203, 49, 218, 112
-0.996829, 145, 185, 208, 248
-0.996832, 61, 425, 76, 488
-0.996838, 185, 337, 216, 400
-0.996848, 49, 233, 176, 264
-0.99685, 113, 1, 176, 256
-0.996862, 139, 121, 154, 184
-0.99687, 49, 445, 176, 476
-0.996872, 189, 1, 220, 128
-0.996875, 105, 401, 120, 464
-0.996877, 81, 225, 96, 288
-0.996878, 69, 161, 100, 288
-0.996905, 1, 185, 334, 248
-0.996911, 243, 41, 258, 104
-0.996926, 125, 145, 140, 208
-0.996929, 181, 49, 212, 112
-0.996933, 277, 337, 308, 400
-0.996934, 47, 241, 62, 304
-0.996945, 221, 249, 252, 312
-0.996949, 209, 345, 334, 376
-0.996954, 235, 41, 250, 104
-0.996975, 177, 421, 304, 452
-0.996997, 271, 33, 286, 96
-0.99701, 293, 193, 324, 320
-0.997011, 37, 241, 52, 304
-0.997015, 85, 225, 116, 352
-0.997028, 129, 113, 256, 144
-0.997034, 209, 409, 224, 472
-0.997036, 169, 49, 200, 112
-0.997062, 117, 409, 132, 472
-0.997069, 145, 113, 160, 176
-0.997076, 113, 429, 240, 460
-0.997077, 59, 233, 74, 296
-0.997077, 57, 97, 120, 352
-0.997078, 1, 425, 334, 488
-0.997082, 51, 417, 66, 480
-0.997084, 5, 209, 36, 272
-0.997088, 9, 233, 24, 296
-0.997088, 65, 209, 192, 240
-0.997092, 271, 193, 286, 256
-0.997098, 67, 225, 82, 288
-0.997098, 185, 409, 200, 472
-0.997105, 319, 49, 334, 112
-0.99711, 227, 33, 242, 96
-0.997115, 183, 73, 198, 136
-0.997139, 97, 149, 224, 180
-0.997151, 299, 41, 314, 104
-0.997166, 1, 241, 128, 272
-0.997178, 65, 221, 192, 252
-0.99718, 161, 69, 288, 100
-0.997182, 145, 225, 208, 480
-0.997197, 191, 425, 206, 488
-0.997202, 89, 401, 104, 464
-0.997207, 279, 41, 294, 104
-0.997235, 157, 305, 188, 368
-0.997236, 225, 1, 256, 256
-0.997237, 77, 233, 108, 296
-0.997266, 143, 417, 158, 480
-0.997267, 249, 273, 280, 400
-0.997275, 75, 225, 90, 288
-0.997277, 307, 49, 322, 112
-0.99728, 19, 401, 34, 464
-0.997284, 131, 425, 146, 488
-0.997287, 215, 409, 230, 472
-0.997289, 161, 129, 224, 192
-0.997296, 15, 313, 30, 376
-0.997298, 9, 225, 40, 480
-0.997299, 181, 289, 212, 416
-0.997301, 97, 401, 112, 464
-0.99731, 97, 241, 224, 304
-0.997326, 201, 177, 264, 304
-0.997327, 259, 41, 274, 104
-0.997328, 49, 457, 176, 488
-0.997341, 281, 1, 312, 256
-0.997356, 97, 177, 224, 208
-0.997365, 265, 193, 296, 320
-0.997415, 217, 321, 232, 384
-0.99742, 1, 453, 128, 484
-0.99742, 103, 425, 118, 488
-0.997423, 305, 129, 334, 256
-0.997425, 169, 161, 232, 224
-0.997431, 133, 401, 148, 464
-0.99744, 233, 153, 296, 216
-0.99746, 145, 297, 160, 360
-0.997468, 95, 377, 110, 440
-0.997468, 245, 409, 260, 472
-0.99749, 129, 333, 256, 364
-0.997502, 13, 401, 28, 464
-0.997504, 53, 233, 68, 296
-0.997505, 1, 289, 334, 352
-0.997508, 3, 425, 18, 488
-0.997522, 1, 309, 128, 340
-0.997534, 39, 409, 54, 472
-0.997546, 257, 329, 272, 392
-0.99756, 77, 401, 92, 464
-0.997561, 267, 409, 282, 472
-0.997563, 33, 425, 48, 488
-0.997575, 125, 417, 140, 480
-0.997582, 49, 345, 176, 376
-0.997594, 67, 425, 82, 488
-0.997603, 85, 305, 100, 368
-0.997604, 253, 1, 284, 256
-0.997607, 51, 393, 66, 456
-0.997611, 257, 137, 320, 200
-0.997611, 175, 369, 190, 432
-0.997627, 109, 433, 124, 496
-0.997649, 273, 161, 334, 416
-0.997658, 113, 417, 240, 448
-0.99766, 97, 425, 112, 488
-0.99766, 61, 393, 76, 456
-0.997682, 209, 433, 272, 496
-0.997687, 1, 321, 334, 384
-0.997697, 27, 417, 42, 480
-0.997701, 65, 301, 192, 332
-0.997707, 29, 225, 60, 480
-0.99771, 65, 89, 320, 152
-0.997714, 109, 97, 140, 224
-0.997714, 289, 41, 304, 72
-0.997714, 1, 213, 128, 244
-0.997739, 27, 377, 42, 440
-0.997746, 65, 289, 80, 352
-0.997752, 233, 417, 248, 480
-0.997758, 207, 313, 222, 376
-0.997764, 239, 417, 254, 480
-0.997766, 129, 321, 256, 352
-0.99777, 151, 337, 166, 400
-0.997773, 33, 289, 160, 320
-0.997785, 157, 417, 172, 480
-0.997786, 41, 225, 72, 480
-0.997787, 1, 209, 334, 272
-0.997789, 301, 65, 316, 128
-0.99779, 33, 257, 96, 320
-0.997806, 9, 425, 24, 488
-0.997808, 5, 305, 36, 432
-0.997808, 251, 37, 266, 68
-0.99781, 285, 129, 316, 256
-0.997814, 117, 385, 132, 448
-0.997827, 93, 161, 124, 416
-0.99783, 159, 305, 174, 368
-0.997833, 111, 385, 126, 448
-0.99784, 1, 249, 334, 312
-0.997853, 113, 129, 144, 384
-0.997858, 281, 305, 296, 368
-0.997871, 157, 337, 172, 368
-0.997879, 283, 201, 298, 264
-0.997882, 275, 337, 290, 400
-0.997892, 145, 153, 208, 216
-0.997893, 1, 177, 32, 304
-0.997894, 305, 25, 320, 88
-0.997898, 49, 413, 176, 444
-0.997905, 103, 377, 118, 440
-0.99791, 9, 313, 24, 376
-0.997913, 233, 321, 248, 384
-0.997913, 19, 425, 34, 488
-0.997915, 115, 433, 130, 496
-0.997922, 301, 33, 332, 288
-0.997923, 201, 1, 232, 128
-0.997932, 97, 445, 224, 476
-0.997937, 131, 297, 146, 360
-0.997942, 89, 425, 104, 488
-0.997948, 33, 401, 48, 464
-0.997949, 97, 197, 112, 228
-0.997951, 67, 401, 82, 464
-0.997953, 305, 241, 334, 368
-0.997958, 209, 281, 334, 312
-0.997962, 241, 1, 272, 256
-0.997971, 203, 337, 218, 400
-0.997981, 143, 121, 158, 152
-0.997981, 53, 225, 84, 480
-0.997982, 93, 297, 108, 360
-0.997991, 265, 185, 280, 248
-0.997997, 263, 321, 278, 384
-0.998003, 133, 97, 164, 352
-0.998007, 111, 409, 126, 472
-0.998025, 209, 317, 334, 348
-0.998028, 33, 137, 160, 168
-0.998029, 79, 329, 94, 392
-0.998033, 17, 369, 32, 432
-0.998035, 261, 17, 276, 80
-0.99804, 47, 281, 62, 344
-0.998052, 1, 321, 128, 352
-0.998056, 91, 329, 106, 392
-0.99806, 15, 337, 30, 400
-0.998065, 169, 401, 184, 464
-0.998065, 149, 65, 180, 320
-0.998067, 201, 409, 216, 472
-0.99807, 73, 193, 104, 448
-0.998076, 277, 17, 292, 80
-0.998081, 281, 345, 296, 408
-0.998081, 239, 17, 254, 80
-0.998095, 129, 281, 256, 312
-0.998101, 81, 333, 208, 364
-0.998103, 209, 129, 334, 192
-0.998106, 103, 185, 118, 216
-0.998108, 1, 233, 16, 264
-0.99811, 155, 105, 170, 136
-0.998113, 277, 193, 308, 320
-0.998116, 117, 165, 132, 196
-0.998121, 27, 241, 42, 272
-0.998122, 263, 225, 278, 288
-0.998126, 165, 337, 180, 400
-0.998126, 229, 225, 260, 352
-0.998126, 1, 337, 128, 368
-0.998129, 269, 1, 300, 256
-0.99813, 17, 169, 144, 200
-0.998137, 9, 369, 24, 432
-0.998138, 189, 33, 220, 288
-0.99814, 65, 249, 80, 312
-0.998143, 193, 61, 208, 92
-0.998145, 1, 465, 128, 496
-0.998147, 133, 133, 148, 164
-0.99815, 195, 313, 210, 376
-0.998154, 297, 45, 312, 76
-0.998166, 317, 177, 332, 240
-0.998168, 149, 409, 164, 472
-0.998169, 231, 41, 246, 72
-0.998171, 73, 289, 88, 352
-0.998174, 135, 329, 150, 392
-0.998184, 81, 361, 208, 392
-0.998187, 63, 237, 78, 268
-0.998207, 123, 161, 138, 192
-0.998212, 237, 113, 268, 240
-0.99823, 39, 437, 54, 468
-0.998235, 81, 321, 112, 448
-0.998235, 129, 225, 192, 288
-0.998239, 271, 37, 286, 68
-0.99824, 65, 273, 320, 336
-0.998261, 33, 153, 160, 184
-0.998262, 281, 41, 296, 72
-0.998267, 121, 321, 152, 448
-0.998291, 149, 439, 180, 454
-0.998291, 1, 389, 32, 404
-0.998292, 69, 227, 100, 242
-0.998292, 269, 413, 300, 428
-0.998293, 173, 81, 188, 112
-0.998293, 149, 445, 180, 460
-0.998293, 101, 409, 132, 424
-0.998293, 269, 421, 300, 436
-0.998294, 65, 463, 96, 478
-0.998295, 149, 423, 180, 438
-0.998296, 277, 59, 308, 74
-0.998296, 11, 237, 26, 268
-0.998296, 209, 275, 240, 290
-0.998297, 141, 425, 156, 456
-0.998297, 89, 425, 120, 440
-0.998297, 77, 445, 108, 460
-0.998298, 37, 449, 68, 464
-0.998298, 1, 41, 334, 104
-0.998298, 65, 239, 96, 254
-0.998298, 77, 359, 108, 374
-0.998299, 81, 459, 112, 474
-0.9983, 109, 447, 140, 462
-0.998301, 21, 249, 52, 264
-0.998301, 101, 355, 132, 370
-0.998301, 53, 417, 84, 432
-0.998301, 21, 405, 52, 420
-0.998302, 169, 343, 200, 358
-0.998302, 221, 421, 252, 436
-0.998302, 225, 345, 256, 360
-0.998305, 209, 55, 240, 70
-0.998306, 253, 193, 284, 320
-0.998308, 241, 115, 272, 130
-0.998308, 49, 303, 80, 318
-0.998308, 17, 319, 48, 334
-0.998309, 97, 291, 128, 306
-0.998309, 33, 323, 64, 338
-0.998309, 1, 405, 128, 436
-0.99831, 301, 47, 332, 62
-0.998311, 145, 351, 176, 366
-0.998311, 133, 345, 164, 360
-0.998312, 81, 433, 112, 448
-0.998314, 113, 179, 144, 194
-0.998314, 117, 381, 148, 396
-0.998315, 157, 351, 188, 366
-0.998315, 245, 425, 276, 440
-0.998316, 65, 247, 96, 262
-0.998317, 113, 441, 144, 456
-0.998318, 249, 415, 280, 430
-0.998321, 5, 325, 36, 340
-0.998322, 161, 97, 176, 128
-0.998322, 165, 93, 196, 108
-0.998323, 61, 451, 92, 466
-0.998323, 189, 73, 220, 88
-0.998323, 157, 429, 188, 444
-0.998324, 73, 413, 104, 428
-0.998324, 93, 445, 124, 460
-0.998324, 193, 357, 320, 388
-0.998324, 9, 381, 40, 396
-0.998325, 97, 453, 128, 468
-0.998325, 137, 427, 168, 442
-0.998328, 89, 215, 120, 230
-0.998329, 233, 39, 264, 54
-0.99833, 49, 451, 80, 466
-0.99833, 85, 227, 116, 242
-0.998331, 101, 191, 132, 206
-0.998333, 53, 253, 84, 268
-0.998333, 261, 111, 292, 126
-0.998333, 129, 433, 160, 448
-0.998337, 65, 105, 192, 136
-0.998338, 233, 431, 264, 446
-0.998338, 53, 297, 84, 312
-0.99834, 177, 435, 208, 450
-0.998341, 17, 105, 144, 168
-0.998341, 259, 41, 274, 72
-0.998342, 209, 343, 240, 358
-0.998342, 113, 173, 144, 188
-0.998343, 93, 207, 124, 222
-0.998343, 129, 151, 160, 166
-0.998344, 81, 33, 144, 288
-0.998345, 177, 421, 208, 436
-0.998346, 177, 77, 208, 92
-0.998347, 129, 141, 160, 156
-0.998347, 193, 65, 224, 80
-0.99835, 77, 451, 108, 466
-0.998351, 61, 425, 92, 440
-0.998351, 201, 349, 232, 364
-0.998352, 141, 123, 172, 138
-0.998352, 1, 373, 128, 404
-0.998352, 89, 439, 120, 454
-0.998352, 197, 433, 228, 448
-0.998354, 117, 431, 148, 446
-0.998354, 153, 113, 184, 128
-0.998356, 49, 287, 80, 302
-0.998356, 97, 65, 224, 96
-0.998356, 125, 161, 156, 176
-0.998356, 71, 421, 86, 452
-0.99836, 257, 335, 288, 350
-0.99836, 233, 45, 264, 60
-0.998361, 133, 131, 164, 146
-0.998361, 221, 45, 236, 76
-0.998362, 269, 53, 300, 68
-0.998364, 85, 221, 116, 236
-0.998365, 93, 431, 124, 446
-0.998366, 117, 167, 148, 182
-0.998368, 209, 49, 240, 64
-0.998369, 109, 181, 124, 212
-0.998369, 57, 457, 88, 472
-0.998371, 41, 243, 72, 258
-0.998371, 157, 103, 188, 118
-0.998372, 1, 201, 128, 232
-0.998372, 191, 421, 206, 452
-0.998374, 153, 345, 184, 360
-0.998374, 169, 83, 200, 98
-0.998378, 245, 335, 276, 350
-0.998379, 213, 349, 244, 364
-0.99838, 257, 45, 288, 60
-0.998381, 209, 421, 224, 452
-0.998381, 167, 85, 182, 116
-0.998382, 5, 239, 36, 254
-0.998383, 53, 443, 84, 458
-0.998384, 239, 421, 254, 452
-0.998385, 301, 59, 332, 74
-0.998386, 149, 339, 180, 354
-0.998387, 269, 47, 300, 62
-0.998387, 197, 59, 228, 74
-0.998388, 213, 49, 228, 80
-0.998389, 269, 41, 300, 56
-0.998391, 217, 427, 248, 442
-0.998392, 105, 435, 136, 450
-0.998392, 197, 427, 228, 442
-0.998392, 65, 445, 96, 460
-0.998393, 65, 233, 96, 248
-0.998396, 69, 431, 100, 446
-0.998397, 35, 245, 50, 276
-0.998397, 49, 433, 80, 448
-0.9984, 53, 247, 84, 262
-0.9984, 17, 243, 48, 258
-0.9984, 105, 185, 136, 200
-0.998402, 257, 421, 288, 436
-0.998403, 63, 433, 78, 464
-0.998403, 163, 345, 178, 376
-0.998404, 181, 77, 196, 108
-0.998406, 37, 249, 68, 264
-0.998408, 89, 369, 152, 432
-0.998411, 209, 421, 240, 436
-0.998414, 161, 377, 288, 408
-0.998414, 279, 53, 294, 84
-0.998415, 209, 181, 334, 212
-0.998418, 1, 421, 128, 452
-0.998422, 177, 429, 208, 444
-0.998424, 257, 39, 288, 54
-0.998425, 93, 201, 124, 216
-0.998425, 149, 241, 180, 368
-0.99843, 309, 53, 324, 84
-0.998431, 289, 59, 320, 74
-0.998432, 17, 389, 144, 420
-0.998432, 87, 217, 102, 248
-0.998435, 97, 397, 224, 428
-0.998443, 69, 439, 100, 454
-0.998444, 69, 445, 84, 476
-0.998448, 203, 57, 218, 88
-0.998459, 53, 241, 84, 256
-0.99846, 285, 53, 316, 68
-0.99846, 201, 345, 216, 376
-0.998463, 197, 421, 228, 436
-0.998468, 317, 57, 332, 88
-0.998471, 149, 113, 164, 144
-0.998473, 233, 421, 248, 452
-0.998474, 221, 45, 252, 60
-0.998482, 213, 329, 228, 360
-0.998486, 169, 65, 200, 320
-0.998491, 145, 405, 272, 436
-0.998496, 57, 237, 72, 268
-0.998496, 33, 181, 160, 212
-0.998497, 241, 41, 304, 56
-0.9985, 257, 333, 272, 364
-0.9985, 45, 245, 60, 276
-0.998501, 81, 429, 96, 460
-0.998503, 133, 437, 148, 468
-0.998509, 193, 33, 320, 64
-0.99851, 225, 97, 288, 352
-0.998511, 245, 41, 276, 56
-0.998512, 261, 109, 276, 140
-0.998512, 245, 421, 260, 452
-0.998513, 145, 233, 272, 296
-0.998516, 233, 423, 264, 438
-0.99852, 151, 337, 166, 368
-0.99852, 1, 377, 334, 440
-0.998522, 145, 441, 272, 472
-0.998524, 1, 349, 128, 380
-0.998525, 73, 433, 88, 464
-0.998528, 301, 289, 332, 416
-0.998534, 301, 53, 332, 68
-0.998535, 193, 97, 256, 160
-0.998537, 79, 229, 94, 260
-0.998543, 217, 45, 280, 60
-0.998545, 213, 33, 244, 288
-0.998546, 17, 237, 32, 268
-0.998548, 243, 45, 258, 76
-0.998548, 33, 429, 48, 460
-0.998548, 281, 47, 312, 62
-0.998552, 93, 433, 108, 464
-0.998554, 65, 89, 192, 120
-0.998561, 199, 417, 214, 448
-0.998566, 187, 69, 202, 100
-0.998573, 1, 253, 128, 284
-0.998575, 69, 229, 84, 260
-0.998576, 273, 53, 334, 68
-0.998579, 97, 381, 224, 412
-0.998579, 1, 25, 256, 88
-0.99858, 257, 47, 320, 62
-0.99858, 201, 33, 232, 288
-0.998584, 161, 45, 288, 76
-0.998586, 51, 245, 66, 276
-0.998589, 107, 437, 122, 468
-0.998591, 33, 239, 96, 254
-0.998593, 273, 257, 334, 500
-0.998595, 161, 343, 224, 358
-0.998597, 9, 245, 72, 260
-0.998604, 185, 413, 200, 444
-0.998605, 209, 51, 272, 66
-0.998605, 201, 423, 264, 438
-0.998609, 41, 433, 104, 448
-0.998609, 193, 269, 320, 300
-0.998611, 135, 301, 150, 332
-0.998618, 33, 443, 96, 458
-0.998618, 225, 335, 288, 350
-0.99862, 49, 125, 176, 156
-0.998621, 177, 237, 304, 268
-0.998621, 303, 49, 318, 80
-0.998623, 73, 443, 136, 458
-0.998627, 129, 139, 192, 154
-0.998629, 185, 349, 248, 364
-0.998631, 231, 333, 246, 364
-0.998632, 65, 321, 192, 352
-0.998632, 161, 85, 224, 100
-0.998633, 73, 229, 136, 244
-0.998638, 97, 187, 160, 202
-0.998639, 193, 59, 256, 74
-0.998641, 81, 221, 144, 236
-0.998642, 121, 439, 184, 454
-0.998642, 153, 101, 216, 116
-0.998642, 33, 245, 96, 260
-0.998644, 105, 181, 168, 196
-0.998644, 89, 201, 152, 216
-0.998645, 137, 117, 200, 132
-0.998645, 113, 165, 176, 180
-0.998645, 129, 131, 192, 146
-0.998647, 129, 125, 192, 140
-0.998647, 177, 75, 240, 90
-0.998647, 17, 251, 80, 266
-0.998647, 185, 69, 248, 84
-0.998653, 57, 429, 72, 460
-0.998654, 35, 317, 50, 348
-0.998654, 121, 159, 184, 174
-0.998655, 153, 95, 216, 110
-0.998656, 153, 419, 216, 434
-0.998657, 65, 287, 128, 302
-0.998657, 153, 429, 216, 444
-0.998658, 121, 153, 184, 168
-0.998662, 65, 429, 128, 444
-0.998662, 121, 145, 184, 160
-0.998663, 129, 345, 192, 360
-0.998664, 129, 149, 144, 180
-0.998664, 177, 221, 304, 252
-0.998664, 17, 385, 80, 400
-0.998664, 65, 437, 128, 452
-0.998665, 233, 341, 296, 356
-0.998665, 113, 427, 176, 442
-0.998668, 145, 435, 208, 450
-0.998668, 157, 325, 172, 356
-0.99867, 1, 449, 64, 464
-0.99867, 33, 449, 96, 464
-0.998671, 41, 419, 104, 434
-0.998672, 1, 321, 64, 336
-0.998672, 113, 355, 176, 370
-0.998672, 185, 431, 248, 446
-0.998674, 105, 433, 168, 448
-0.998675, 219, 349, 234, 380
-0.998675, 57, 239, 120, 254
-0.998676, 105, 175, 168, 190
-0.998676, 25, 427, 88, 442
-0.998677, 65, 449, 128, 464
-0.998677, 1, 379, 64, 394
-0.998677, 201, 343, 264, 358
-0.998678, 249, 115, 312, 130
-0.998678, 81, 211, 144, 226
-0.998679, 273, 81, 334, 208
-0.998679, 145, 111, 208, 126
-0.998679, 163, 329, 178, 360
-0.998679, 105, 445, 168, 460
-0.99868, 17, 361, 144, 392
-0.998681, 177, 421, 240, 436
-0.998681, 65, 305, 96, 432
-0.998682, 233, 423, 296, 438
-0.998683, 137, 361, 200, 376
-0.998684, 157, 349, 172, 380
-0.998684, 89, 195, 152, 210
-0.998684, 265, 41, 328, 56
-0.998684, 221, 329, 236, 360
-0.998684, 41, 287, 104, 302
-0.998685, 237, 45, 252, 76
-0.998686, 33, 411, 96, 426
-0.998687, 1, 459, 64, 474
-0.998689, 57, 279, 120, 294
-0.998691, 49, 231, 112, 246
-0.998691, 73, 413, 136, 428
-0.998693, 73, 421, 136, 436
-0.998695, 209, 39, 272, 54
-0.998695, 193, 333, 256, 348
-0.998695, 91, 205, 106, 236
-0.998696, 113, 105, 176, 120
-0.998696, 273, 59, 334, 74
-0.998697, 257, 331, 320, 346
-0.998697, 73, 407, 136, 422
-0.998698, 121, 339, 184, 354
-0.998699, 17, 433, 80, 448
-0.998699, 161, 349, 224, 364
-0.998699, 41, 307, 104, 322
-0.9987, 129, 357, 256, 388
-0.9987, 89, 299, 152, 314
-0.9987, 127, 433, 142, 464
-0.9987, 241, 221, 304, 236
-0.998701, 57, 191, 120, 206
-0.998702, 145, 441, 208, 456
-0.998702, 153, 355, 216, 370
-0.998703, 225, 329, 288, 344
-0.998703, 121, 333, 184, 348
-0.998704, 99, 425, 114, 456
-0.998704, 99, 449, 114, 480
-0.998705, 33, 455, 96, 470
-0.998706, 73, 171, 136, 186
-0.998706, 185, 295, 248, 310
-0.998707, 1, 315, 64, 330
-0.998708, 89, 359, 152, 374
-0.998708, 81, 399, 144, 414
-0.998709, 41, 293, 104, 308
-0.998709, 121, 89, 184, 104
-0.99871, 57, 245, 120, 260
-0.99871, 57, 381, 120, 396
-0.99871, 257, 421, 320, 436
-0.998711, 1, 391, 64, 406
-0.998711, 233, 417, 296, 432
-0.998713, 41, 251, 104, 266
-0.998713, 89, 427, 152, 442
-0.998713, 225, 255, 288, 270
-0.998713, 145, 409, 208, 424
-0.998714, 25, 233, 88, 248
-0.998714, 153, 337, 216, 352
-0.998714, 49, 215, 112, 230
-0.998714, 113, 365, 176, 380
-0.998714, 57, 353, 120, 368
-0.998715, 169, 439, 232, 454
-0.998715, 97, 439, 160, 454
-0.998715, 1, 409, 64, 424
-0.998715, 241, 347, 304, 362
-0.998715, 89, 143, 152, 158
-0.998715, 217, 349, 280, 364
-0.998716, 89, 389, 152, 404
-0.998716, 225, 429, 288, 444
-0.998716, 17, 369, 80, 384
-0.998716, 233, 51, 296, 66
-0.998717, 89, 311, 152, 326
-0.998718, 25, 177, 56, 304
-0.998719, 41, 403, 104, 418
-0.998719, 89, 133, 152, 148
-0.998719, 153, 79, 216, 94
-0.998719, 265, 337, 328, 352
-0.99872, 209, 345, 224, 376
-0.99872, 49, 387, 112, 402
-0.998723, 173, 373, 188, 404
-0.998724, 157, 433, 172, 464
-0.998727, 303, 61, 318, 92
-0.998733, 113, 81, 240, 112
-0.998734, 241, 29, 256, 60
-0.998739, 265, 41, 280, 72
-0.998749, 33, 361, 288, 424
-0.998753, 137, 121, 152, 152
-0.998753, 129, 17, 192, 144
-0.998767, 41, 449, 56, 480
-0.998767, 87, 429, 102, 460
-0.998769, 115, 429, 130, 460
-0.99877, 97, 457, 224, 488
-0.998773, 271, 409, 286, 440
-0.998779, 25, 381, 40, 412
-0.998783, 207, 329, 222, 360
-0.998785, 55, 413, 70, 444
-0.998785, 113, 293, 240, 324
-0.998796, 111, 169, 126, 200
-0.998803, 73, 241, 88, 272
-0.998804, 1, 249, 256, 312
-0.998809, 251, 333, 266, 364
-0.998814, 65, 417, 80, 448
-0.998819, 47, 445, 62, 476
-0.998823, 169, 329, 184, 360
-0.998826, 113, 309, 240, 340
-0.998826, 237, 333, 252, 364
-0.998828, 117, 441, 132, 472
-0.998829, 229, 177, 260, 304
-0.99883, 129, 269, 256, 300
-0.998832, 129, 421, 144, 452
-0.998834, 319, 185, 334, 216
-0.998839, 279, 345, 294, 376
-0.998841, 225, 349, 240, 380
-0.998842, 101, 437, 116, 468
-0.998852, 1, 401, 334, 464
-0.998853, 263, 333, 278, 364
-0.998855, 85, 229, 100, 260
-0.998858, 149, 349, 164, 380
-0.998859, 191, 437, 206, 468
-0.998862, 63, 445, 78, 476
-0.998865, 33, 441, 48, 472
-0.998865, 113, 41, 240, 72
-0.998866, 147, 425, 162, 456
-0.998866, 107, 449, 122, 480
-0.998876, 137, 453, 152, 484
-0.998876, 261, 29, 276, 60
-0.998877, 1, 345, 334, 408
-0.998878, 147, 437, 162, 468
-0.998878, 271, 49, 286, 80
-0.998879, 79, 417, 94, 448
-0.99889, 145, 329, 160, 360
-0.998892, 285, 213, 300, 244
-0.998896, 285, 53, 300, 84
-0.998901, 135, 425, 150, 456
-0.998905, 245, 329, 260, 360
-0.998906, 129, 297, 144, 328
-0.998917, 111, 397, 126, 428
-0.998919, 79, 441, 94, 472
-0.998939, 193, 113, 320, 144
-0.99898, 161, 205, 288, 236
-0.998986, 193, 433, 320, 464
-0.998992, 61, 225, 76, 352
-0.998995, 49, 469, 176, 500
-0.999012, 51, 225, 66, 352
-0.999052, 209, 257, 334, 288
-0.999065, 177, 293, 304, 324
-0.999068, 289, 241, 320, 368
-0.999069, 209, 69, 334, 100
-0.999072, 145, 453, 272, 484
-0.9991, 125, 65, 156, 192
-0.999117, 209, 209, 334, 240
-0.99912, 1, 161, 334, 224
-0.99912, 193, 449, 320, 480
-0.999123, 45, 225, 60, 352
-0.999126, 177, 393, 304, 424
-0.999139, 287, 33, 302, 160
-0.99915, 193, 405, 320, 436
-0.999165, 97, 177, 112, 304
-0.999183, 91, 193, 106, 320
-0.999188, 81, 277, 208, 308
-0.999192, 1, 277, 128, 308
-0.999202, 13, 225, 28, 352
-0.999202, 77, 209, 92, 336
-0.999209, 275, 33, 290, 160
-0.999214, 251, 17, 266, 144
-0.999216, 245, 65, 276, 192
-0.999217, 65, 77, 192, 108
-0.999228, 1, 225, 16, 352
-0.99923, 295, 33, 310, 160
-0.999234, 177, 193, 304, 224
-0.999234, 113, 161, 128, 288
-0.999236, 67, 225, 82, 352
-0.999239, 27, 225, 42, 352
-0.999253, 33, 225, 48, 352
-0.999255, 151, 97, 166, 224
-0.999257, 121, 145, 136, 272
-0.999271, 131, 113, 146, 240
-0.999282, 113, 249, 240, 280
-0.999282, 311, 33, 326, 160
-0.999295, 163, 305, 178, 432
-0.999303, 167, 65, 182, 192
-0.999304, 33, 81, 160, 144
-0.999305, 157, 81, 172, 208
-0.999305, 85, 209, 100, 336
-0.999307, 137, 113, 152, 240
-0.999312, 7, 225, 22, 352
-0.999316, 189, 49, 204, 176
-0.999319, 193, 305, 320, 336
-0.99932, 209, 369, 334, 400
-0.999321, 39, 225, 54, 352
-0.999321, 21, 225, 36, 352
-0.999333, 49, 377, 176, 408
-0.999337, 107, 177, 122, 304
-0.99934, 257, 33, 272, 160
-0.999345, 215, 33, 230, 160
-0.999354, 223, 33, 238, 160
-0.999354, 269, 17, 284, 144
-0.999356, 153, 257, 184, 500
-0.999361, 49, 401, 176, 432
-0.999362, 145, 181, 272, 212
-0.999368, 229, 33, 244, 160
-0.999369, 243, 33, 258, 160
-0.999376, 301, 49, 316, 176
-0.999387, 237, 33, 252, 160
-0.999396, 219, 353, 234, 480
-0.999398, 59, 369, 74, 496
-0.9994, 173, 65, 188, 192
-0.999409, 193, 93, 320, 124
-0.99941, 205, 49, 220, 176
-0.99941, 213, 305, 228, 432
-0.999418, 225, 305, 240, 432
-0.999424, 265, 257, 296, 500
-0.999425, 129, 229, 256, 260
-0.999425, 181, 65, 196, 192
-0.999428, 259, 321, 274, 448
-0.999438, 263, 33, 278, 160
-0.999439, 281, 33, 296, 160
-0.999442, 195, 49, 210, 176
-0.999444, 49, 249, 176, 280
-0.999451, 319, 177, 334, 304
-0.999453, 143, 113, 158, 240
-0.999454, 245, 321, 260, 448
-0.999454, 161, 133, 288, 164
-0.999461, 231, 321, 246, 448
-0.999463, 65, 265, 192, 296
-0.999472, 1, 265, 128, 296
-0.999474, 159, 353, 174, 480
-0.999475, 155, 305, 170, 432
-0.999494, 113, 53, 240, 84
-0.999499, 317, 49, 332, 176
-0.999499, 145, 169, 272, 200
-0.9995, 253, 321, 268, 448
-0.999502, 219, 305, 234, 432
-0.999505, 239, 305, 254, 432
-0.999508, 95, 205, 110, 220
-0.999508, 153, 429, 168, 444
-0.999508, 127, 433, 142, 448
-0.999509, 147, 117, 162, 132
-0.999509, 45, 289, 60, 304
-0.99951, 29, 319, 44, 334
-0.99951, 57, 429, 72, 444
-0.99951, 153, 351, 168, 366
-0.999511, 103, 431, 118, 446
-0.999511, 307, 61, 322, 76
-0.999512, 117, 439, 132, 454
-0.999512, 271, 321, 286, 448
-0.999512, 123, 147, 138, 162
-0.999512, 247, 329, 262, 344
-0.999512, 155, 345, 170, 360
-0.999513, 257, 117, 272, 132
-0.999513, 213, 349, 228, 364
-0.999514, 185, 419, 200, 434
-0.999514, 131, 147, 146, 162
-0.999514, 15, 381, 30, 396
-0.999514, 129, 159, 144, 174
-0.999515, 89, 447, 104, 462
-0.999515, 31, 245, 46, 260
-0.999515, 35, 321, 50, 336
-0.999515, 53, 369, 68, 496
-0.999516, 271, 341, 286, 356
-0.999516, 87, 225, 102, 240
-0.999517, 57, 239, 72, 254
-0.999517, 279, 347, 294, 362
-0.999517, 97, 447, 112, 462
-0.999517, 73, 417, 88, 432
-0.999517, 113, 181, 128, 196
-0.999517, 11, 323, 26, 338
-0.999518, 77, 443, 92, 458
-0.999518, 193, 161, 256, 416
-0.999519, 319, 55, 334, 70
-0.999519, 65, 427, 80, 442
-0.99952, 77, 237, 92, 252
-0.999522, 37, 249, 52, 264
-0.999524, 191, 69, 206, 84
-0.999525, 173, 377, 188, 392
-0.999526, 265, 337, 280, 352
-0.999526, 37, 445, 52, 460
-0.999526, 99, 193, 114, 208
-0.999527, 165, 93, 180, 108
-0.999528, 47, 451, 62, 466
-0.999528, 269, 413, 284, 428
-0.999528, 79, 433, 94, 448
-0.999528, 119, 433, 134, 448
-0.999529, 281, 59, 296, 74
-0.99953, 91, 219, 106, 234
-0.99953, 207, 305, 222, 432
-0.99953, 161, 257, 288, 288
-0.99953, 149, 305, 164, 432
-0.99953, 237, 353, 252, 480
-0.999531, 167, 85, 182, 100
-0.999531, 199, 425, 214, 440
-0.999531, 241, 49, 256, 64
-0.999532, 97, 439, 112, 454
-0.999532, 209, 169, 334, 200
-0.999533, 55, 251, 70, 266
-0.999533, 25, 383, 40, 398
-0.999534, 71, 243, 86, 258
-0.999534, 25, 241, 40, 256
-0.999534, 51, 273, 66, 400
-0.999536, 43, 437, 58, 452
-0.999537, 71, 427, 86, 442
-0.999537, 251, 335, 266, 350
-0.999539, 41, 453, 56, 468
-0.999539, 243, 41, 258, 56
-0.99954, 69, 439, 84, 454
-0.999541, 229, 349, 244, 364
-0.999542, 197, 337, 212, 464
-0.999543, 5, 239, 20, 254
-0.999544, 219, 349, 234, 364
-0.999544, 159, 333, 174, 348
-0.999545, 277, 53, 292, 68
-0.999545, 37, 305, 52, 432
-0.999546, 213, 51, 228, 66
-0.999546, 169, 337, 184, 464
-0.999548, 131, 153, 146, 168
-0.999549, 263, 111, 278, 126
-0.999549, 257, 107, 272, 122
-0.99955, 269, 421, 284, 436
-0.99955, 77, 231, 92, 246
-0.99955, 191, 429, 206, 444
-0.999551, 131, 137, 146, 152
-0.999551, 61, 435, 76, 450
-0.999552, 129, 439, 144, 454
-0.999552, 203, 347, 218, 362
-0.999552, 297, 59, 312, 74
-0.999553, 287, 53, 302, 68
-0.999553, 133, 433, 148, 448
-0.999554, 65, 233, 80, 248
-0.999554, 225, 353, 240, 480
-0.999555, 139, 427, 154, 442
-0.999556, 23, 369, 38, 496
-0.999556, 69, 445, 84, 460
-0.999556, 117, 169, 132, 184
-0.999557, 267, 45, 282, 60
-0.999558, 43, 305, 58, 432
-0.999559, 43, 443, 58, 458
-0.999559, 113, 205, 240, 236
-0.999559, 71, 433, 86, 448
-0.999559, 169, 345, 184, 360
-0.999561, 245, 369, 260, 496
-0.999561, 87, 431, 102, 446
-0.999562, 81, 353, 96, 480
-0.999562, 57, 245, 72, 260
-0.999562, 161, 145, 288, 176
-0.999562, 249, 45, 264, 60
-0.999563, 161, 349, 176, 364
-0.999563, 183, 77, 198, 92
-0.999564, 219, 49, 234, 64
-0.999564, 57, 273, 72, 400
-0.999566, 15, 239, 30, 254
-0.999566, 173, 83, 188, 98
-0.999569, 37, 437, 52, 452
-0.999569, 163, 257, 178, 384
-0.999571, 277, 41, 292, 56
-0.999573, 69, 369, 84, 496
-0.999578, 319, 1, 334, 128
-0.999578, 243, 423, 258, 438
-0.999579, 195, 63, 210, 78
-0.999579, 53, 321, 68, 448
-0.99958, 233, 423, 248, 438
-0.999581, 123, 161, 138, 176
-0.999582, 209, 353, 224, 480
-0.999582, 137, 129, 152, 144
-0.999582, 311, 53, 326, 68
-0.999584, 143, 369, 158, 496
-0.999584, 155, 339, 170, 354
-0.999585, 153, 113, 168, 128
-0.999585, 203, 57, 218, 72
-0.999587, 1, 233, 16, 248
-0.999588, 265, 305, 280, 432
-0.999588, 301, 49, 316, 64
-0.99959, 45, 249, 60, 264
-0.999591, 161, 341, 176, 356
-0.999592, 11, 353, 26, 480
-0.999593, 97, 469, 224, 500
-0.999594, 107, 185, 122, 200
-0.999595, 257, 335, 272, 350
-0.999595, 209, 133, 334, 164
-0.999596, 259, 369, 274, 496
-0.999598, 231, 43, 246, 58
-0.999599, 159, 103, 174, 118
-0.999599, 129, 369, 144, 496
-0.9996, 271, 39, 286, 54
-0.999601, 97, 199, 112, 214
-0.999601, 71, 231, 86, 246
-0.999601, 205, 257, 220, 384
-0.999602, 93, 257, 124, 500
-0.999604, 281, 47, 296, 62
-0.999605, 313, 59, 328, 74
-0.999606, 51, 245, 66, 260
-0.999608, 91, 369, 106, 496
-0.999608, 153, 353, 168, 480
-0.999612, 47, 369, 62, 496
-0.999612, 209, 421, 224, 436
-0.999615, 295, 47, 310, 62
-0.999618, 1, 129, 32, 384
-0.999619, 309, 177, 324, 304
-0.999619, 3, 177, 18, 304
-0.999622, 149, 49, 180, 176
-0.999624, 241, 257, 272, 500
-0.999626, 293, 353, 324, 480
-0.999626, 313, 225, 328, 352
-0.999628, 9, 177, 24, 304
-0.999631, 289, 45, 304, 60
-0.999632, 63, 239, 78, 254
-0.999632, 143, 123, 158, 138
-0.999634, 305, 1, 320, 128
-0.999642, 209, 149, 334, 180
-0.999647, 259, 43, 274, 58
-0.999649, 1, 369, 16, 496
-0.999651, 251, 273, 266, 400
-0.999651, 119, 353, 134, 480
-0.999653, 303, 55, 318, 70
-0.999653, 37, 353, 52, 480
-0.999655, 121, 225, 152, 480
-0.999656, 111, 113, 126, 240
-0.999657, 285, 193, 300, 320
-0.999659, 1, 113, 334, 176
-0.999661, 69, 289, 84, 416
-0.999665, 221, 257, 236, 384
-0.999667, 231, 369, 246, 496
-0.999668, 145, 465, 272, 496
-0.99967, 181, 17, 196, 144
-0.999671, 203, 353, 218, 480
-0.999671, 121, 97, 136, 224
-0.999672, 141, 65, 156, 192
-0.999674, 203, 1, 218, 128
-0.999675, 185, 337, 200, 464
-0.999677, 69, 177, 84, 304
-0.999677, 75, 273, 90, 400
-0.999678, 233, 273, 248, 400
-0.999679, 105, 353, 120, 480
-0.99968, 101, 129, 116, 256
-0.999681, 87, 145, 102, 272
-0.999681, 271, 369, 286, 496
-0.999682, 285, 369, 300, 496
-0.999682, 41, 129, 72, 384
-0.999689, 253, 369, 268, 496
-0.99969, 31, 337, 46, 464
-0.99969, 17, 369, 32, 496
-0.999691, 1, 289, 16, 416
-0.999691, 175, 353, 190, 480
-0.999693, 101, 257, 116, 384
-0.999696, 101, 65, 132, 320
-0.999697, 95, 273, 110, 400
-0.999698, 211, 257, 226, 384
-0.999699, 259, 273, 274, 400
-0.999701, 53, 177, 68, 304
-0.999702, 17, 321, 32, 448
-0.999704, 155, 33, 170, 160
-0.999705, 81, 161, 96, 288
-0.999706, 275, 209, 290, 336
-0.999714, 73, 97, 104, 352
-0.999718, 251, 39, 266, 54
-0.999725, 133, 1, 164, 256
-0.999727, 29, 129, 60, 384
-0.999733, 225, 161, 288, 288
-0.999756, 113, 9, 240, 72
-0.999763, 209, 461, 334, 492
-0.999766, 253, 257, 284, 500
-0.999778, 13, 129, 44, 384
-0.99979, 281, 225, 312, 480
-0.999816, 53, 129, 84, 384
-0.999853, 241, 161, 272, 288
-0.999867, 121, 33, 152, 288
-0.999874, 209, 381, 334, 412
-0.999885, 265, 81, 296, 208
-0.999889, 137, 257, 168, 500
-0.999892, 241, 65, 304, 128
-0.999896, 129, 217, 256, 248
-0.999899, 193, 257, 224, 500
-0.9999, 257, 129, 288, 256
-0.999919, 209, 81, 334, 112
-0.999925, 65, 257, 96, 384
-0.999942, 161, 241, 192, 368
-0.999968, 293, 161, 324, 416
-0.99999, 1, 73, 334, 136
-1.00005, 301, 257, 332, 500
-1.00006, 213, 257, 244, 500
-1.00007, 169, 257, 200, 500
-1.00008, 57, 113, 120, 240
-1.00009, 129, 29, 256, 60
-1.00013, 161, 157, 288, 188
-1.00013, 105, 257, 136, 500
-1.00014, 89, 65, 120, 320
-1.00015, 233, 97, 264, 352
-1.00015, 249, 129, 280, 384
-1.00016, 161, 177, 224, 304
-1.00016, 129, 193, 256, 224
-1.00017, 225, 257, 256, 500
-1.0002, 213, 161, 244, 288
-1.0002, 269, 129, 300, 384
-1.00026, 305, 129, 334, 384
-1.00028, 181, 257, 212, 500
-1.0004, 157, 161, 188, 416
-1.00043, 81, 129, 112, 256
-1.00043, 281, 129, 312, 384
-1.00046, 177, 113, 208, 240
-1.00052, 201, 177, 232, 304
-1.00053, 105, 305, 136, 432
-1.00054, 241, 225, 272, 352
-1.00054, 177, 21, 304, 52
-1.00059, 277, 321, 308, 448
-1.00061, 205, 161, 236, 416
-1.00061, 173, 161, 204, 416
-1.00062, 185, 161, 216, 416
-1.00068, 289, 81, 320, 208
-1.00072, 145, 161, 176, 416
-1.00074, 249, 161, 312, 288
-1.00084, 221, 129, 252, 384
-1.00084, 289, 305, 320, 432
-1.00087, 17, 113, 144, 144
-1.00092, 1, 137, 334, 200
-1.001, 129, 17, 256, 48
-1.00102, 209, 9, 334, 40
-1.00103, 305, 353, 334, 480
-1.00103, 1, 129, 128, 192
-1.00106, 1, 17, 334, 80
-1.00107, 185, 97, 248, 224
-1.00107, 1, 101, 128, 132
-1.00109, 125, 177, 156, 304
-1.00127, 221, 81, 252, 208
-1.0013, 201, 225, 232, 352
-1.0013, 1, 1, 256, 64
-1.0014, 165, 161, 196, 288
-1.00144, 77, 1, 108, 256
-1.00155, 61, 33, 92, 288
-1.0017, 277, 81, 308, 208
-1.00174, 49, 33, 80, 288
-1.00181, 137, 209, 168, 336
-1.0019, 249, 97, 312, 352
-1.00191, 153, 113, 184, 240
-1.00191, 1, 33, 32, 288
-1.00194, 225, 129, 256, 256
-1.00194, 177, 161, 208, 288
-1.00194, 209, 97, 272, 224
-1.00196, 177, 209, 208, 336
-1.00202, 137, 161, 168, 288
-1.00203, 21, 33, 52, 288
-1.00204, 37, 33, 68, 288
-1.00206, 213, 209, 244, 336
-1.00208, 269, 145, 300, 272
-1.00243, 189, 225, 220, 352
-1.00245, 161, 129, 224, 384
-1.00291, 1, 9, 128, 72
-1.00291, 49, 9, 176, 72
-1.00291, 17, 33, 144, 96
-1.00291, 17, 57, 144, 120
-1.00455, 113, 177, 240, 304
-1.00515, 137, 161, 200, 288
-1.00529, 161, 129, 224, 256
-1.00923, 57, 1, 120, 256
-1.00962, 33, 33, 96, 288
-1.01038, 1, 1, 128, 128
-1.01117, 1, 33, 64, 288
-1.01478, 17, 1, 80, 128
-1.01478, 41, 33, 104, 160
-1.01478, 65, 33, 128, 160
-1.01478, 9, 49, 72, 176
-1.01478, 33, 81, 96, 208
-1.01478, 9, 97, 72, 224
