1965
-0.379486, 1, 1, 500, 375
-0.464074, 1, 1, 500, 256
-0.471141, 1, 129, 500, 375
-0.503072, 161, 1, 416, 375
-0.56934, 1, 1, 256, 375
-0.569746, 97, 129, 352, 375
-0.610576, 257, 1, 500, 375
-0.629924, 129, 1, 384, 256
-0.657322, 1, 33, 256, 288
-0.679852, 193, 129, 448, 375
-0.715593, 225, 1, 480, 256
-0.718219, 1, 129, 256, 375
-0.847817, 193, 1, 320, 256
-0.855085, 49, 1, 176, 375
-0.855841, 49, 65, 176, 320
-0.859264, 129, 129, 256, 375
-0.868934, 1, 1, 128, 375
-0.86907, 1, 1, 128, 256
-0.872048, 193, 97, 320, 352
-0.878672, 177, 1, 304, 375
-0.881117, 129, 1, 256, 256
-0.881294, 273, 1, 400, 375
-0.891015, 225, 1, 352, 375
-0.893888, 1, 241, 500, 368
-0.894402, 1, 1, 500, 128
-0.900429, 273, 1, 400, 256
-0.904042, 1, 129, 128, 375
-0.907496, 129, 1, 256, 375
-0.908197, 257, 129, 384, 375
-0.911881, 1, 49, 500, 176
-0.915613, 1, 193, 500, 320
-0.917816, 97, 193, 352, 320
-0.920663, 97, 145, 352, 272
-0.922851, 129, 1, 384, 128
-0.923732, 1, 113, 500, 240
-0.92438, 1, 241, 256, 368
-0.927457, 1, 129, 256, 256
-0.930425, 129, 129, 256, 256
-0.931867, 193, 209, 448, 336
-0.933563, 65, 81, 192, 208
-0.93488, 225, 129, 480, 256
-0.936853, 1, 65, 256, 192
-0.939612, 337, 1, 464, 375
-0.940371, 193, 1, 320, 128
-0.942725, 33, 1, 288, 128
-0.943246, 161, 49, 416, 176
-0.944166, 97, 241, 352, 368
-0.944169, 225, 1, 480, 128
-0.944555, 1, 177, 256, 304
-0.944904, 129, 97, 384, 224
-0.945044, 49, 129, 176, 256
-0.945876, 1, 33, 128, 160
-0.9475, 305, 97, 432, 352
-0.9508, 209, 97, 336, 224
-0.950826, 369, 129, 496, 375
-0.950906, 145, 1, 272, 128
-0.951295, 49, 193, 176, 320
-0.951335, 209, 177, 336, 304
-0.951405, 241, 1, 368, 128
-0.951917, 257, 129, 320, 256
-0.952017, 169, 129, 232, 256
-0.952463, 65, 17, 192, 144
-0.954629, 49, 241, 176, 368
-0.955304, 145, 49, 208, 176
-0.955586, 57, 241, 120, 368
-0.956505, 233, 161, 296, 288
-0.956679, 145, 49, 272, 176
-0.957038, 129, 209, 256, 336
-0.95717, 145, 113, 208, 240
-0.957385, 121, 129, 184, 256
-0.957747, 353, 297, 416, 360
-0.958129, 49, 49, 112, 176
-0.958413, 177, 1, 240, 128
-0.9585, 209, 177, 272, 304
-0.959713, 225, 113, 288, 240
-0.96, 57, 193, 120, 320
-0.9602, 241, 209, 304, 336
-0.960216, 225, 225, 352, 352
-0.960328, 337, 1, 464, 256
-0.960495, 177, 225, 304, 352
-0.960712, 129, 25, 192, 88
-0.960853, 49, 113, 112, 240
-0.961221, 233, 121, 296, 184
-0.961476, 89, 65, 152, 192
-0.96223, 273, 1, 336, 128
-0.962507, 241, 1, 304, 128
-0.962731, 17, 113, 80, 240
-0.962733, 257, 49, 384, 176
-0.963502, 273, 225, 400, 352
-0.963513, 281, 113, 344, 240
-0.963529, 145, 121, 208, 184
-0.963627, 1, 113, 128, 240
-0.963725, 353, 241, 480, 368
-0.963748, 129, 1, 192, 64
-0.964023, 193, 49, 320, 176
-0.964185, 273, 129, 400, 256
-0.964192, 81, 241, 144, 368
-0.965064, 17, 49, 80, 176
-0.965243, 1, 241, 128, 368
-0.9653, 193, 129, 256, 192
-0.965468, 265, 209, 328, 336
-0.965533, 145, 1, 208, 128
-0.965537, 25, 297, 88, 360
-0.965589, 89, 177, 152, 304
-0.965658, 257, 49, 500, 176
-0.965698, 121, 65, 184, 192
-0.966167, 57, 33, 120, 96
-0.966198, 49, 313, 112, 375
-0.966578, 105, 241, 168, 368
-0.966954, 233, 25, 296, 88
-0.967331, 201, 1, 264, 128
-0.967656, 257, 233, 320, 296
-0.967697, 1, 193, 128, 320
-0.96773, 257, 81, 320, 208
-0.967814, 257, 177, 384, 304
-0.967861, 361, 225, 424, 352
-0.967974, 89, 65, 152, 128
-0.968018, 153, 1, 216, 64
-0.968268, 273, 129, 336, 192
-0.968311, 57, 257, 120, 320
-0.968831, 89, 1, 152, 128
-0.968834, 233, 169, 296, 232
-0.968911, 121, 1, 184, 128
-0.969257, 49, 113, 112, 176
-0.969335, 153, 145, 216, 208
-0.969542, 193, 25, 256, 88
-0.969706, 193, 113, 256, 240
-0.969921, 289, 177, 352, 304
-0.969937, 89, 113, 152, 240
-0.970153, 225, 145, 288, 208
-0.970272, 49, 1, 112, 256
-0.970309, 153, 33, 216, 96
-0.970523, 185, 153, 248, 216
-0.970856, 49, 137, 112, 200
-0.970973, 305, 17, 368, 80
-0.9713, 257, 97, 320, 352
-0.971449, 121, 121, 184, 184
-0.971538, 241, 1, 304, 64
-0.971676, 217, 313, 280, 375
-0.971941, 169, 121, 232, 184
-0.972244, 409, 241, 472, 368
-0.972309, 129, 145, 192, 208
-0.972592, 25, 241, 88, 368
-0.97267, 65, 281, 128, 344
-0.972788, 265, 1, 328, 64
-0.972932, 305, 1, 432, 128
-0.972998, 257, 153, 320, 216
-0.973107, 305, 49, 368, 176
-0.973259, 49, 1, 112, 128
-0.973517, 89, 41, 152, 104
-0.973564, 305, 1, 368, 128
-0.973578, 185, 313, 248, 375
-0.973595, 97, 313, 160, 375
-0.973666, 81, 209, 144, 272
-0.973885, 329, 297, 392, 360
-0.974037, 57, 177, 120, 240
-0.974113, 1, 1, 64, 128
-0.974164, 89, 249, 152, 312
-0.974284, 209, 201, 272, 264
-0.974344, 337, 145, 400, 272
-0.974392, 145, 153, 272, 216
-0.974426, 89, 121, 152, 184
-0.974495, 305, 129, 368, 256
-0.974574, 209, 121, 336, 184
-0.974597, 273, 33, 336, 96
-0.974695, 145, 1, 208, 256
-0.974756, 265, 105, 328, 168
-0.974787, 185, 177, 248, 304
-0.974983, 129, 193, 192, 320
-0.975039, 281, 49, 344, 176
-0.975318, 233, 241, 296, 304
-0.975376, 65, 233, 128, 296
-0.97549, 393, 313, 456, 375
-0.975505, 73, 313, 136, 375
-0.975518, 129, 49, 192, 112
-0.975531, 17, 121, 80, 184
-0.975573, 65, 113, 192, 176
-0.975606, 153, 313, 216, 375
-0.975617, 145, 1, 272, 64
-0.975713, 433, 241, 496, 368
-0.975732, 185, 65, 248, 192
-0.975776, 361, 289, 392, 352
-0.975826, 361, 273, 424, 336
-0.975845, 129, 129, 192, 375
-0.976074, 65, 25, 192, 88
-0.976297, 81, 177, 144, 240
-0.976312, 201, 1, 264, 64
-0.976454, 57, 201, 120, 264
-0.976543, 249, 1, 312, 256
-0.976722, 73, 313, 104, 375
-0.976796, 65, 313, 192, 375
-0.97684, 1, 1, 64, 256
-0.977192, 169, 241, 232, 368
-0.9772, 49, 185, 176, 248
-0.977257, 193, 233, 320, 296
-0.977278, 225, 49, 288, 112
-0.977289, 105, 145, 168, 208
-0.977306, 337, 241, 400, 368
-0.977388, 145, 129, 272, 192
-0.977604, 89, 273, 152, 336
-0.977611, 145, 25, 272, 88
-0.977675, 65, 137, 192, 200
-0.977908, 57, 313, 88, 375
-0.977928, 65, 89, 192, 152
-0.978006, 209, 1, 336, 64
-0.978121, 305, 169, 368, 232
-0.978158, 169, 217, 232, 280
-0.978173, 225, 129, 288, 375
-0.978176, 201, 225, 264, 352
-0.978239, 201, 233, 264, 296
-0.978263, 337, 305, 464, 368
-0.978372, 233, 65, 296, 192
-0.97855, 305, 289, 368, 352
-0.978556, 161, 97, 224, 352
-0.978572, 225, 33, 352, 96
-0.978652, 265, 121, 296, 184
-0.978761, 81, 153, 144, 216
-0.979055, 225, 169, 352, 232
-0.979124, 149, 17, 180, 144
-0.979143, 237, 129, 268, 192
-0.979251, 145, 313, 272, 375
-0.979279, 153, 25, 184, 88
-0.979296, 209, 65, 272, 192
-0.979336, 385, 289, 448, 352
-0.979375, 49, 161, 176, 224
-0.979475, 121, 313, 184, 375
-0.979501, 257, 313, 320, 375
-0.979515, 225, 1, 288, 256
-0.97965, 17, 289, 144, 352
-0.979793, 281, 129, 344, 375
-0.979994, 49, 225, 176, 288
-0.980033, 225, 121, 256, 184
-0.980046, 237, 33, 268, 96
-0.980075, 233, 201, 296, 264
-0.980146, 89, 89, 152, 152
-0.980239, 329, 273, 392, 336
-0.98025, 1, 313, 64, 375
-0.980257, 73, 17, 104, 144
-0.980293, 257, 9, 384, 72
-0.980317, 17, 97, 80, 352
-0.980471, 121, 201, 184, 264
-0.980549, 385, 241, 448, 368
-0.980553, 265, 201, 328, 264
-0.980586, 185, 129, 248, 375
-0.980646, 161, 145, 192, 272
-0.980652, 17, 313, 144, 375
-0.980668, 121, 33, 184, 288
-0.980754, 273, 1, 336, 256
-0.980796, 137, 241, 200, 368
-0.98088, 313, 209, 376, 336
-0.980956, 409, 265, 472, 328
-0.981003, 257, 313, 384, 375
-0.981053, 1, 41, 128, 104
-0.98106, 89, 9, 152, 72
-0.981088, 81, 49, 208, 112
-0.981281, 17, 177, 80, 304
-0.981355, 277, 209, 308, 336
-0.981383, 253, 145, 284, 272
-0.981392, 149, 1, 180, 64
-0.981415, 49, 257, 176, 320
-0.981678, 129, 65, 160, 192
-0.98172, 305, 137, 368, 200
-0.98177, 89, 1, 152, 256
-0.981866, 377, 297, 408, 360
-0.981879, 145, 233, 272, 296
-0.981942, 129, 225, 192, 288
-0.982088, 289, 241, 352, 304
-0.982221, 289, 225, 352, 352
-0.9824, 49, 97, 112, 352
-0.982406, 49, 89, 112, 152
-0.98249, 345, 305, 376, 368
-0.982512, 193, 193, 320, 256
-0.982579, 49, 1, 112, 375
-0.9826, 305, 313, 368, 375
-0.982612, 45, 313, 76, 375
-0.982668, 357, 313, 388, 375
-0.982703, 249, 129, 280, 192
-0.982818, 129, 49, 256, 112
-0.982842, 149, 121, 180, 184
-0.982851, 297, 33, 360, 288
-0.982885, 209, 177, 272, 240
-0.982898, 241, 233, 368, 296
-0.982913, 249, 169, 280, 232
-0.982961, 193, 1, 224, 128
-0.982984, 289, 129, 320, 256
-0.983012, 297, 209, 360, 272
-0.983014, 193, 129, 224, 256
-0.983034, 385, 265, 448, 328
-0.983068, 209, 145, 336, 208
-0.983083, 161, 249, 224, 312
-0.983199, 97, 257, 224, 320
-0.983231, 121, 97, 184, 160
-0.983307, 277, 1, 308, 128
-0.983395, 289, 289, 416, 352
-0.98341, 193, 1, 256, 256
-0.983501, 1, 121, 128, 184
-0.983566, 121, 169, 184, 232
-0.983572, 201, 49, 264, 112
-0.983604, 313, 49, 376, 112
-0.983763, 289, 145, 416, 208
-0.983776, 149, 65, 180, 192
-0.983795, 17, 1, 80, 375
-0.983846, 177, 1, 240, 64
-0.983864, 29, 305, 60, 368
-0.983899, 205, 1, 236, 128
-0.983929, 345, 1, 408, 128
-0.983978, 93, 281, 124, 344
-0.98398, 129, 209, 256, 272
-0.983994, 273, 257, 400, 320
-0.984181, 169, 225, 200, 288
-0.984255, 49, 57, 112, 120
-0.984282, 225, 25, 256, 88
-0.984335, 85, 33, 116, 96
-0.984347, 237, 153, 268, 216
-0.984416, 241, 273, 304, 336
-0.984435, 265, 161, 296, 288
-0.984435, 89, 97, 152, 352
-0.984462, 117, 241, 148, 368
-0.984539, 213, 129, 244, 256
-0.984557, 41, 121, 72, 184
-0.984567, 129, 41, 160, 104
-0.98461, 237, 177, 268, 304
-0.984629, 1, 17, 64, 80
-0.984651, 113, 105, 240, 168
-0.984687, 129, 1, 160, 128
-0.984691, 281, 161, 344, 224
-0.984693, 213, 313, 244, 375
-0.984706, 201, 121, 232, 184
-0.984722, 345, 177, 408, 240
-0.984734, 213, 129, 244, 192
-0.984774, 361, 249, 424, 312
-0.984783, 25, 17, 88, 80
-0.984817, 241, 97, 304, 160
-0.984823, 337, 281, 464, 344
-0.984823, 129, 97, 160, 160
-0.98484, 249, 49, 312, 112
-0.98484, 209, 313, 336, 375
-0.984865, 97, 1, 224, 64
-0.984923, 297, 113, 360, 176
-0.984941, 49, 289, 80, 352
-0.984964, 161, 1, 192, 64
-0.984977, 73, 33, 104, 96
-0.985053, 25, 49, 88, 112
-0.985058, 337, 145, 400, 208
-0.985079, 93, 57, 124, 120
-0.985089, 1, 1, 32, 128
-0.985101, 173, 121, 204, 184
-0.985141, 141, 25, 172, 88
-0.985156, 269, 313, 300, 375
-0.985229, 1, 153, 128, 216
-0.985229, 273, 57, 336, 120
-0.985254, 41, 113, 72, 240
-0.985346, 177, 49, 304, 112
-0.985347, 285, 129, 316, 192
-0.985363, 1, 9, 128, 72
-0.985366, 265, 9, 296, 72
-0.985378, 321, 1, 384, 256
-0.985397, 181, 1, 212, 128
-0.985407, 1, 265, 128, 328
-0.985433, 337, 201, 400, 264
-0.985482, 85, 313, 116, 375
-0.98552, 305, 49, 432, 176
-0.985577, 25, 1, 88, 256
-0.985602, 53, 49, 84, 176
-0.985607, 321, 193, 448, 320
-0.985609, 1, 89, 128, 152
-0.985684, 177, 129, 208, 256
-0.985725, 149, 49, 180, 112
-0.985748, 265, 1, 296, 128
-0.985784, 145, 177, 272, 240
-0.985788, 281, 313, 344, 375
-0.985799, 161, 129, 192, 192
-0.985814, 229, 1, 260, 64
-0.985834, 245, 1, 276, 128
-0.985974, 29, 49, 60, 176
-0.985998, 1, 201, 128, 264
-0.986101, 129, 73, 192, 136
-0.986142, 89, 49, 120, 176
-0.986147, 165, 313, 196, 375
-0.986174, 301, 177, 332, 304
-0.986183, 129, 121, 160, 184
-0.986194, 273, 49, 400, 112
-0.986232, 65, 289, 192, 352
-0.986295, 273, 209, 400, 272
-0.986339, 1, 177, 128, 240
-0.986379, 433, 297, 496, 360
-0.986426, 249, 225, 280, 352
-0.986429, 245, 1, 276, 64
-0.986498, 129, 65, 160, 128
-0.986533, 277, 97, 308, 224
-0.986589, 281, 233, 312, 296
-0.986613, 297, 1, 360, 375
-0.986629, 233, 129, 264, 256
-0.986649, 141, 113, 172, 240
-0.986657, 177, 49, 240, 112
-0.986687, 193, 313, 224, 375
-0.986715, 297, 113, 328, 176
-0.986755, 49, 241, 80, 368
-0.986839, 17, 33, 48, 160
-0.986848, 169, 1, 232, 256
-0.986881, 261, 225, 292, 352
-0.986904, 433, 257, 496, 320
-0.986931, 257, 33, 288, 96
-0.987003, 185, 121, 216, 184
-0.987028, 329, 17, 392, 80
-0.987034, 129, 17, 160, 80
-0.987043, 165, 33, 196, 96
-0.987093, 17, 185, 80, 248
-0.987115, 41, 233, 104, 296
-0.987268, 233, 1, 296, 375
-0.987283, 1, 9, 32, 72
-0.987288, 161, 97, 192, 224
-0.987391, 217, 289, 280, 352
-0.987393, 265, 273, 328, 336
-0.987407, 217, 1, 248, 64
-0.987497, 113, 257, 176, 320
-0.987515, 285, 1, 316, 64
-0.987559, 41, 49, 72, 176
-0.987573, 257, 121, 384, 184
-0.98761, 209, 97, 336, 160
-0.987622, 185, 257, 248, 320
-0.987639, 209, 273, 336, 336
-0.987646, 61, 241, 92, 368
-0.987682, 337, 1, 368, 128
-0.987687, 233, 1, 264, 128
-0.987714, 289, 265, 352, 328
-0.987733, 409, 289, 472, 352
-0.987829, 121, 1, 184, 375
-0.987918, 25, 273, 88, 336
-0.987953, 25, 209, 88, 272
-0.987974, 17, 145, 80, 208
-0.987999, 17, 97, 80, 160
-0.988007, 321, 249, 448, 312
-0.988037, 185, 241, 216, 368
-0.988039, 153, 57, 216, 120
-0.988156, 181, 313, 212, 375
-0.988172, 161, 33, 192, 160
-0.988189, 361, 241, 392, 368
-0.98819, 321, 1, 384, 375
-0.988217, 249, 105, 280, 168
-0.988218, 185, 145, 216, 208
-0.988271, 393, 297, 424, 360
-0.988274, 213, 25, 244, 88
-0.988317, 233, 177, 264, 240
-0.988386, 193, 65, 224, 192
-0.988398, 269, 33, 300, 96
-0.988443, 1, 65, 128, 128
-0.988448, 301, 129, 332, 256
-0.988465, 129, 289, 192, 352
-0.988503, 265, 233, 296, 296
-0.988518, 217, 153, 248, 216
-0.988541, 409, 273, 440, 336
-0.988584, 201, 25, 232, 88
-0.988702, 113, 265, 144, 328
-0.988747, 257, 1, 320, 375
-0.988768, 145, 97, 208, 160
-0.988801, 161, 289, 224, 352
-0.988843, 277, 161, 308, 288
-0.988845, 93, 193, 124, 320
-0.988916, 209, 105, 272, 168
-0.988933, 177, 333, 240, 364
-0.988954, 129, 289, 256, 352
-0.989046, 89, 129, 120, 192
-0.989058, 305, 9, 432, 72
-0.989073, 281, 105, 312, 168
-0.989075, 241, 345, 304, 375
-0.989085, 177, 345, 240, 375
-0.989093, 249, 313, 280, 375
-0.989104, 289, 177, 320, 304
-0.989146, 1, 41, 64, 104
-0.989155, 61, 289, 92, 352
-0.98916, 145, 265, 272, 328
-0.98925, 329, 249, 392, 312
-0.989281, 49, 333, 112, 364
-0.989284, 373, 273, 404, 336
-0.989321, 97, 233, 224, 296
-0.989326, 225, 177, 256, 304
-0.989541, 49, 345, 112, 375
-0.989551, 337, 193, 400, 320
-0.989561, 369, 145, 400, 208
-0.989598, 97, 161, 224, 224
-0.989601, 173, 49, 204, 176
-0.989613, 137, 341, 200, 372
-0.989622, 257, 137, 320, 168
-0.989645, 345, 9, 376, 72
-0.989649, 1, 233, 128, 296
-0.989664, 161, 153, 192, 216
-0.989705, 153, 305, 184, 368
-0.989711, 345, 293, 408, 324
-0.98973, 193, 73, 320, 136
-0.989822, 225, 125, 288, 156
-0.989835, 265, 113, 296, 240
-0.98985, 273, 81, 336, 144
-0.989865, 333, 17, 364, 80
-0.9899, 177, 41, 208, 104
-0.989938, 417, 241, 448, 368
-0.989954, 305, 129, 368, 375
-0.989972, 325, 1, 356, 128
-0.989993, 253, 97, 284, 224
-0.989997, 201, 345, 264, 375
-0.990033, 317, 17, 348, 80
-0.990045, 97, 233, 128, 296
-0.990046, 321, 225, 384, 288
-0.990064, 241, 73, 304, 136
-0.990073, 353, 1, 480, 128
-0.990073, 33, 321, 96, 352
-0.99009, 289, 169, 416, 232
-0.990092, 145, 169, 208, 232
-0.990106, 1, 305, 256, 368
-0.990108, 213, 209, 244, 336
-0.99014, 177, 141, 240, 172
-0.990157, 129, 29, 192, 60
-0.990175, 297, 1, 328, 128
-0.990184, 89, 1, 152, 375
-0.990188, 145, 149, 208, 180
-0.990238, 93, 209, 124, 272
-0.99024, 149, 145, 180, 208
-0.990254, 465, 313, 496, 375
-0.990255, 269, 161, 300, 224
-0.99029, 233, 141, 296, 172
-0.990296, 129, 17, 384, 80
-0.990298, 57, 53, 120, 84
-0.990301, 93, 145, 124, 272
-0.990303, 89, 97, 120, 224
-0.990319, 345, 305, 408, 336
-0.990377, 141, 313, 172, 375
-0.990406, 309, 169, 340, 232
-0.990418, 353, 145, 480, 272
-0.99043, 153, 193, 216, 320
-0.990442, 349, 281, 380, 344
-0.990443, 85, 241, 116, 368
-0.990496, 369, 177, 432, 304
-0.9905, 25, 1, 88, 128
-0.990502, 237, 105, 268, 168
-0.990534, 197, 241, 228, 368
-0.990552, 173, 1, 204, 64
-0.990563, 173, 145, 204, 208
-0.990694, 25, 113, 56, 176
-0.990697, 257, 233, 320, 264
-0.990699, 73, 321, 136, 352
-0.9907, 369, 257, 496, 320
-0.990706, 153, 53, 216, 84
-0.990724, 349, 1, 380, 128
-0.990736, 145, 137, 208, 168
-0.990749, 25, 309, 88, 340
-0.990752, 337, 129, 400, 375
-0.990755, 337, 333, 400, 364
-0.990763, 249, 121, 312, 152
-0.990789, 89, 69, 152, 100
-0.99079, 209, 141, 272, 172
-0.99079, 201, 333, 264, 364
-0.990801, 369, 289, 432, 320
-0.990802, 25, 341, 88, 372
-0.990833, 225, 333, 288, 364
-0.990835, 17, 97, 48, 224
-0.990839, 313, 113, 344, 240
-0.990851, 129, 233, 384, 296
-0.990869, 117, 193, 148, 320
-0.990872, 245, 209, 276, 272
-0.990886, 201, 129, 264, 160
-0.990917, 129, 53, 192, 84
-0.990918, 57, 41, 120, 72
-0.990921, 121, 137, 184, 168
-0.990926, 313, 37, 376, 68
-0.990937, 49, 141, 112, 172
-0.990956, 65, 281, 128, 312
-0.990963, 233, 201, 264, 264
-0.990964, 225, 321, 288, 352
-0.990978, 233, 29, 296, 60
-0.990981, 265, 9, 328, 40
-0.991009, 129, 41, 192, 72
-0.991009, 281, 33, 312, 96
-0.991014, 221, 1, 252, 128
-0.991015, 49, 169, 112, 200
-0.99102, 209, 153, 272, 184
-0.991059, 253, 241, 284, 304
-0.991078, 105, 241, 136, 368
-0.991083, 365, 129, 396, 256
-0.991087, 73, 337, 136, 368
-0.991092, 225, 49, 256, 112
-0.991098, 233, 169, 296, 200
-0.991101, 153, 33, 216, 64
-0.99112, 49, 129, 112, 160
-0.991152, 217, 57, 280, 88
-0.991192, 241, 13, 304, 44
-0.9912, 89, 41, 152, 72
-0.991225, 233, 1, 296, 32
-0.991249, 353, 345, 416, 375
-0.99125, 121, 149, 184, 180
-0.991253, 265, 65, 296, 192
-0.991257, 57, 205, 120, 236
-0.991259, 17, 313, 48, 375
-0.991262, 49, 157, 112, 188
-0.991269, 353, 321, 416, 352
-0.99128, 89, 57, 152, 88
-0.99128, 265, 345, 328, 375
-0.991315, 281, 49, 312, 176
-0.991332, 277, 273, 308, 336
-0.991342, 129, 125, 192, 156
-0.991353, 65, 245, 128, 276
-0.991364, 81, 185, 144, 216
-0.991371, 57, 265, 120, 296
-0.991378, 145, 1, 208, 32
-0.991384, 177, 221, 240, 252
-0.991386, 17, 121, 80, 152
-0.991396, 185, 157, 248, 188
-0.991415, 133, 145, 164, 208
-0.991424, 273, 157, 336, 188
-0.991428, 321, 345, 384, 375
-0.99144, 49, 181, 112, 212
-0.991464, 121, 161, 184, 192
-0.991466, 233, 153, 296, 184
-0.991466, 89, 253, 152, 284
-0.991495, 73, 9, 104, 72
-0.991499, 65, 305, 128, 336
-0.991502, 49, 113, 112, 144
-0.991521, 61, 129, 92, 192
-0.991521, 273, 49, 336, 80
-0.991521, 89, 217, 152, 248
-0.991523, 289, 1, 352, 32
-0.991554, 281, 141, 344, 172
-0.991562, 257, 329, 320, 360
-0.991566, 9, 329, 72, 360
-0.991572, 89, 81, 152, 112
-0.991595, 273, 125, 336, 156
-0.991599, 305, 17, 368, 48
-0.991599, 373, 241, 404, 368
-0.991602, 257, 97, 384, 160
-0.991603, 385, 273, 416, 336
-0.991614, 129, 313, 160, 375
-0.99162, 105, 117, 168, 148
-0.991623, 145, 1, 208, 375
-0.991626, 129, 17, 192, 48
-0.99165, 81, 173, 144, 204
-0.991657, 177, 129, 240, 160
-0.991666, 177, 49, 240, 80
-0.991666, 65, 217, 128, 248
-0.991674, 81, 197, 144, 228
-0.991686, 429, 257, 460, 320
-0.991703, 49, 193, 112, 224
-0.991708, 81, 157, 144, 188
-0.991714, 89, 137, 152, 168
-0.991717, 1, 345, 64, 375
-0.991718, 97, 305, 160, 336
-0.991721, 137, 329, 200, 360
-0.99173, 273, 37, 336, 68
-0.991734, 313, 137, 344, 200
-0.991753, 89, 273, 152, 304
-0.991765, 81, 233, 144, 264
-0.99177, 321, 293, 384, 324
-0.991777, 89, 101, 152, 132
-0.991779, 249, 53, 312, 84
-0.991789, 41, 297, 104, 328
-0.991798, 105, 289, 136, 352
-0.991805, 209, 21, 272, 52
-0.991809, 57, 233, 120, 264
-0.991825, 393, 345, 456, 375
-0.991838, 161, 105, 288, 168
-0.991846, 369, 301, 432, 332
-0.991849, 401, 269, 464, 300
-0.991865, 177, 1, 240, 32
-0.99187, 361, 277, 424, 308
-0.991873, 73, 193, 104, 320
-0.991878, 97, 153, 352, 216
-0.991879, 1, 217, 256, 280
-0.991884, 233, 189, 296, 220
-0.991887, 93, 161, 124, 224
-0.991891, 281, 333, 344, 364
-0.991915, 113, 81, 240, 144
-0.991921, 209, 1, 272, 32
-0.991945, 297, 345, 360, 375
-0.99195, 121, 1, 184, 32
-0.991954, 281, 201, 312, 264
-0.991978, 225, 225, 288, 256
-0.991989, 313, 49, 344, 176
-0.991993, 81, 125, 144, 156
-0.991999, 121, 213, 184, 244
-0.992001, 265, 209, 296, 272
-0.992007, 269, 97, 300, 160
-0.992024, 129, 65, 192, 96
-0.992029, 185, 33, 248, 64
-0.992032, 257, 109, 320, 140
-0.992035, 313, 309, 376, 340
-0.992036, 165, 209, 196, 336
-0.992055, 113, 241, 144, 304
-0.992074, 397, 273, 428, 336
-0.992084, 89, 29, 152, 60
-0.992089, 229, 313, 260, 375
-0.992095, 221, 65, 252, 192
-0.992095, 65, 113, 96, 240
-0.992127, 129, 225, 192, 256
-0.992133, 129, 129, 384, 192
-0.992135, 433, 261, 496, 292
-0.992145, 189, 33, 220, 96
-0.992148, 297, 129, 360, 160
-0.992157, 81, 113, 144, 144
-0.992166, 401, 281, 464, 312
-0.992183, 313, 53, 376, 84
-0.992193, 257, 169, 320, 200
-0.992231, 69, 341, 100, 372
-0.992234, 445, 257, 476, 320
-0.992287, 97, 313, 128, 375
-0.992303, 449, 313, 480, 375
-0.99232, 97, 209, 352, 272
-0.992325, 337, 33, 464, 96
-0.992339, 269, 345, 300, 375
-0.992346, 61, 33, 92, 96
-0.99236, 73, 329, 104, 360
-0.992364, 53, 321, 84, 352
-0.992368, 113, 193, 144, 256
-0.992368, 293, 233, 324, 296
-0.992379, 185, 341, 216, 372
-0.992401, 353, 9, 480, 72
-0.992412, 353, 225, 480, 288
-0.992443, 65, 49, 320, 112
-0.992444, 57, 337, 88, 368
-0.992445, 293, 193, 324, 256
-0.992479, 1, 249, 256, 312
-0.992511, 297, 17, 328, 80
-0.992516, 357, 293, 388, 324
-0.992516, 225, 345, 256, 375
-0.992598, 165, 341, 196, 372
-0.992599, 373, 289, 404, 320
-0.992606, 209, 333, 240, 364
-0.992628, 205, 65, 236, 192
-0.992631, 185, 141, 216, 172
-0.992681, 97, 177, 352, 240
-0.992683, 289, 225, 320, 352
-0.992695, 237, 345, 268, 375
-0.992696, 197, 145, 228, 208
-0.992706, 361, 325, 392, 356
-0.992718, 249, 121, 280, 152
-0.99272, 269, 333, 300, 364
-0.992721, 285, 137, 316, 168
-0.992721, 349, 329, 380, 360
-0.992738, 69, 37, 100, 68
-0.992739, 221, 193, 252, 256
-0.992741, 205, 345, 236, 375
-0.992753, 173, 141, 204, 172
-0.992758, 181, 249, 212, 312
-0.992762, 73, 317, 104, 348
-0.992769, 249, 345, 280, 375
-0.992778, 237, 125, 268, 156
-0.992783, 357, 309, 388, 340
-0.992784, 89, 105, 120, 168
-0.992788, 97, 185, 224, 248
-0.992803, 365, 345, 396, 375
-0.992805, 297, 145, 328, 208
-0.992818, 237, 225, 268, 352
-0.992829, 85, 53, 116, 84
-0.992831, 369, 301, 400, 332
-0.992832, 1, 49, 32, 176
-0.992835, 157, 37, 188, 68
-0.992841, 377, 329, 408, 360
-0.992848, 265, 133, 296, 164
-0.992866, 193, 177, 448, 240
-0.992867, 225, 145, 256, 176
-0.992888, 45, 333, 76, 364
-0.992891, 157, 49, 188, 80
-0.992892, 253, 169, 284, 200
-0.992892, 309, 113, 340, 176
-0.992895, 181, 329, 212, 360
-0.992896, 261, 121, 292, 152
-0.992898, 29, 309, 60, 340
-0.992899, 217, 133, 248, 164
-0.9929, 85, 37, 116, 68
-0.992914, 377, 341, 408, 372
-0.992925, 205, 141, 236, 172
-0.99294, 1, 281, 256, 344
-0.99295, 445, 241, 476, 368
-0.992959, 429, 241, 460, 368
-0.99297, 181, 49, 212, 80
-0.992975, 81, 345, 112, 375
-0.992978, 241, 157, 272, 188
-0.992978, 245, 137, 276, 168
-0.992978, 61, 309, 92, 340
-0.992981, 41, 125, 72, 156
-0.992984, 265, 149, 296, 180
-0.992986, 25, 333, 56, 364
-0.992988, 85, 325, 116, 356
-0.992991, 353, 345, 384, 375
-0.993, 141, 17, 172, 48
-0.993016, 93, 185, 124, 248
-0.993023, 389, 297, 420, 328
-0.99304, 145, 49, 176, 80
-0.993052, 145, 29, 176, 60
-0.993057, 301, 129, 332, 160
-0.993058, 13, 9, 44, 72
-0.993068, 149, 149, 180, 180
-0.993069, 333, 337, 364, 368
-0.993071, 345, 309, 376, 340
-0.993077, 149, 137, 180, 168
-0.993078, 149, 1, 180, 32
-0.993079, 317, 37, 348, 68
-0.993083, 277, 321, 308, 352
-0.993087, 245, 29, 276, 60
-0.993087, 129, 77, 160, 108
-0.993087, 165, 129, 196, 160
-0.993088, 381, 317, 412, 348
-0.993092, 273, 13, 304, 44
-0.9931, 197, 329, 228, 360
-0.993101, 129, 53, 160, 84
-0.993102, 257, 29, 288, 60
-0.993106, 129, 93, 160, 124
-0.993106, 257, 49, 288, 80
-0.993112, 129, 65, 160, 96
-0.993112, 169, 49, 200, 80
-0.993112, 129, 141, 160, 172
-0.993115, 185, 153, 216, 184
-0.993115, 129, 117, 160, 148
-0.993115, 49, 297, 80, 328
-0.993118, 165, 225, 196, 256
-0.993119, 193, 129, 224, 160
-0.99312, 229, 1, 260, 32
-0.993128, 161, 329, 192, 360
-0.993129, 281, 125, 312, 156
-0.993132, 29, 345, 60, 375
-0.993134, 245, 17, 276, 48
-0.99314, 225, 121, 256, 152
-0.993143, 161, 141, 192, 172
-0.993144, 277, 233, 308, 264
-0.993147, 221, 333, 252, 364
-0.993151, 229, 25, 260, 56
-0.993155, 129, 105, 160, 136
-0.993156, 197, 153, 228, 184
-0.993156, 417, 261, 448, 292
-0.993159, 237, 177, 268, 208
-0.993161, 257, 317, 288, 348
-0.993162, 129, 33, 160, 64
-0.993166, 93, 345, 124, 375
-0.993166, 93, 285, 124, 316
-0.993171, 149, 125, 180, 156
-0.993174, 269, 37, 300, 68
-0.993181, 217, 161, 248, 192
-0.993184, 389, 341, 420, 372
-0.993185, 237, 53, 268, 84
-0.993186, 133, 153, 164, 184
-0.993188, 29, 97, 60, 224
-0.99319, 129, 13, 160, 44
-0.993196, 273, 1, 304, 32
-0.993197, 133, 129, 164, 160
-0.993199, 225, 41, 480, 104
-0.993202, 269, 53, 300, 84
-0.993203, 297, 1, 328, 32
-0.993207, 309, 177, 340, 208
-0.99321, 233, 41, 264, 72
-0.99322, 253, 229, 284, 260
-0.993225, 149, 61, 180, 92
-0.993232, 281, 345, 312, 375
-0.993234, 445, 329, 476, 360
-0.993235, 177, 125, 208, 156
-0.993243, 45, 345, 76, 375
-0.993243, 161, 153, 192, 184
-0.993245, 49, 1, 176, 64
-0.993246, 313, 25, 344, 56
-0.993247, 5, 345, 36, 375
-0.993247, 249, 329, 280, 360
-0.993254, 233, 189, 264, 220
-0.99327, 257, 9, 288, 40
-0.993272, 129, 1, 160, 32
-0.993275, 101, 305, 132, 336
-0.993281, 93, 217, 124, 248
-0.993284, 41, 313, 72, 344
-0.993287, 241, 5, 272, 36
-0.993302, 129, 337, 256, 368
-0.99334, 1, 97, 32, 224
-0.993381, 161, 313, 416, 375
-0.993393, 61, 1, 92, 128
-0.99341, 141, 161, 172, 288
-0.993469, 293, 65, 324, 192
-0.993499, 245, 49, 276, 176
-0.993514, 49, 193, 80, 320
-0.993535, 33, 25, 288, 88
-0.993594, 1, 129, 256, 192
-0.993603, 1, 241, 64, 368
-0.993636, 457, 241, 488, 368
-0.993647, 1, 313, 500, 375
-0.993664, 129, 241, 160, 368
-0.993683, 1, 169, 256, 232
-0.993692, 129, 113, 160, 240
-0.993698, 361, 129, 424, 375
-0.993743, 201, 1, 264, 375
-0.993782, 97, 257, 352, 320
-0.993816, 225, 137, 480, 200
-0.99392, 353, 97, 480, 224
-0.993976, 257, 297, 500, 360
-0.993986, 193, 201, 448, 264
-0.994032, 313, 161, 344, 288
-0.99404, 1, 193, 256, 256
-0.994082, 233, 81, 264, 208
-0.994104, 177, 1, 240, 375
-0.994134, 225, 225, 256, 352
-0.994205, 257, 73, 384, 136
-0.99421, 469, 241, 500, 368
-0.994262, 225, 17, 480, 80
-0.994292, 349, 241, 380, 368
-0.994319, 145, 241, 176, 368
-0.994333, 405, 241, 436, 368
-0.994354, 1, 105, 256, 168
-0.994356, 1, 341, 128, 372
-0.9944, 209, 345, 336, 375
-0.994422, 353, 153, 480, 216
-0.994446, 313, 1, 344, 128
-0.994477, 71, 313, 86, 375
-0.994511, 257, 265, 500, 328
-0.994573, 145, 125, 272, 156
-0.994674, 65, 133, 192, 164
-0.994715, 81, 345, 208, 375
-0.994802, 95, 33, 110, 96
-0.994898, 237, 121, 252, 184
-0.994908, 337, 129, 368, 256
-0.994918, 201, 193, 232, 320
-0.994951, 49, 173, 176, 204
-0.994954, 225, 241, 480, 304
-0.994959, 77, 81, 108, 208
-0.994974, 49, 201, 176, 232
-0.994984, 65, 117, 192, 148
-0.99499, 209, 133, 336, 164
-0.994996, 169, 25, 184, 88
-0.994999, 363, 297, 378, 360
-0.995009, 329, 97, 392, 224
-0.995014, 129, 289, 384, 352
-0.99502, 145, 161, 272, 192
-0.995024, 49, 153, 176, 184
-0.995072, 227, 129, 242, 192
-0.995111, 273, 341, 400, 372
-0.995142, 49, 321, 176, 352
-0.995142, 49, 185, 176, 216
-0.995166, 1, 37, 128, 68
-0.995168, 385, 241, 416, 368
-0.995179, 209, 13, 336, 44
-0.995182, 129, 225, 256, 256
-0.9952, 129, 105, 384, 168
-0.995234, 81, 53, 208, 84
-0.995261, 337, 49, 368, 176
-0.995269, 61, 313, 76, 375
-0.995272, 171, 1, 186, 64
-0.995288, 1, 273, 500, 336
-0.995296, 49, 213, 176, 244
-0.995299, 157, 17, 172, 80
-0.995312, 1, 1, 256, 64
-0.995318, 161, 41, 288, 72
-0.995335, 209, 121, 336, 152
-0.99536, 257, 37, 384, 68
-0.995377, 263, 129, 278, 192
-0.995378, 65, 37, 192, 68
-0.995378, 145, 137, 272, 168
-0.995403, 273, 1, 400, 32
-0.995442, 225, 113, 480, 176
-0.995463, 163, 1, 178, 64
-0.995468, 65, 105, 192, 136
-0.995504, 241, 33, 256, 96
-0.995571, 371, 297, 386, 360
-0.995573, 225, 49, 352, 80
-0.995579, 129, 5, 256, 36
-0.99558, 225, 173, 352, 204
-0.995582, 49, 333, 176, 364
-0.9956, 209, 333, 336, 364
-0.995618, 1, 9, 500, 72
-0.99564, 177, 221, 304, 252
-0.995656, 77, 305, 92, 368
-0.995682, 65, 93, 192, 124
-0.995691, 177, 29, 304, 60
-0.995693, 305, 305, 432, 336
-0.995708, 65, 77, 192, 108
-0.995709, 393, 313, 408, 375
-0.995718, 113, 145, 144, 272
-0.995749, 269, 121, 284, 184
-0.995763, 409, 193, 472, 320
-0.995785, 353, 305, 368, 368
-0.995796, 243, 145, 258, 208
-0.99584, 207, 121, 222, 184
-0.995845, 73, 241, 104, 368
-0.995863, 209, 161, 336, 192
-0.995863, 247, 113, 262, 176
-0.995869, 49, 257, 176, 288
-0.995893, 325, 129, 356, 256
-0.995895, 349, 129, 380, 256
-0.995909, 145, 149, 272, 180
-0.995915, 1, 329, 128, 360
-0.995924, 49, 225, 176, 256
-0.995948, 383, 281, 398, 344
-0.995954, 337, 177, 464, 240
-0.995958, 151, 1, 166, 64
-0.995961, 153, 129, 168, 192
-0.99601, 85, 313, 100, 375
-0.996022, 209, 149, 336, 180
-0.996035, 337, 293, 464, 324
-0.996038, 253, 129, 268, 192
-0.996048, 161, 325, 288, 356
-0.996072, 65, 25, 192, 56
-0.996074, 1, 49, 128, 80
-0.996102, 1, 33, 500, 96
-0.996107, 247, 1, 262, 64
-0.996119, 237, 153, 252, 216
-0.99613, 1, 65, 500, 128
-0.996161, 353, 345, 480, 375
-0.996163, 389, 289, 404, 352
-0.996169, 49, 237, 176, 268
-0.996185, 329, 49, 392, 176
-0.996188, 383, 305, 398, 368
-0.996211, 255, 161, 270, 224
-0.996219, 257, 21, 384, 52
-0.996235, 281, 9, 296, 72
-0.996242, 279, 313, 294, 375
-0.996245, 241, 237, 368, 268
-0.996264, 1, 233, 500, 296
-0.996274, 167, 129, 182, 192
-0.996275, 17, 305, 144, 336
-0.996285, 65, 289, 80, 352
-0.996289, 129, 29, 256, 60
-0.996293, 49, 285, 176, 316
-0.996299, 151, 41, 166, 104
-0.996309, 65, 73, 320, 136
-0.996309, 129, 57, 256, 88
-0.99631, 1, 121, 128, 152
-0.996315, 105, 281, 120, 344
-0.996315, 49, 273, 176, 304
-0.996324, 247, 33, 262, 96
-0.996327, 197, 129, 212, 192
-0.996378, 31, 305, 46, 368
-0.996401, 337, 241, 368, 368
-0.996405, 291, 9, 306, 72
-0.99641, 97, 149, 224, 180
-0.996416, 433, 193, 496, 320
-0.996422, 363, 273, 378, 336
-0.996425, 1, 89, 500, 152
-0.996429, 161, 237, 288, 268
-0.996429, 163, 25, 178, 88
-0.996434, 221, 313, 236, 375
-0.996441, 257, 325, 384, 356
-0.996464, 185, 129, 200, 192
-0.99648, 337, 317, 464, 348
-0.996487, 265, 1, 296, 256
-0.996495, 185, 193, 216, 320
-0.996499, 99, 281, 114, 344
-0.996508, 353, 129, 480, 192
-0.996518, 377, 281, 392, 344
-0.996523, 129, 197, 256, 228
-0.996526, 209, 1, 336, 32
-0.996538, 81, 65, 208, 96
-0.99655, 209, 185, 336, 216
-0.996551, 215, 121, 230, 184
-0.996558, 235, 33, 250, 96
-0.996566, 259, 25, 274, 88
-0.996577, 345, 1, 408, 256
-0.996582, 361, 129, 424, 256
-0.996595, 1, 129, 500, 192
-0.996606, 55, 121, 70, 184
-0.996613, 129, 173, 256, 204
-0.996641, 173, 121, 188, 184
-0.996642, 177, 53, 304, 84
-0.996661, 95, 65, 110, 128
-0.996661, 129, 17, 256, 48
-0.996668, 261, 153, 276, 216
-0.996677, 253, 33, 268, 96
-0.996686, 1, 101, 128, 132
-0.99669, 289, 153, 416, 184
-0.996697, 235, 177, 250, 240
-0.996714, 55, 313, 70, 375
-0.996717, 231, 1, 246, 64
-0.996721, 179, 33, 194, 96
-0.996722, 105, 193, 136, 320
-0.99674, 173, 225, 188, 288
-0.996741, 101, 49, 116, 112
-0.996741, 49, 297, 64, 360
-0.996743, 275, 121, 290, 184
-0.99675, 413, 273, 428, 336
-0.99675, 89, 25, 104, 88
-0.99676, 365, 193, 396, 320
-0.996772, 129, 185, 256, 216
-0.996779, 17, 9, 32, 72
-0.996782, 321, 201, 448, 264
-0.99681, 277, 41, 292, 104
-0.99681, 289, 293, 416, 324
-0.996814, 95, 313, 110, 375
-0.996829, 1, 185, 128, 216
-0.996832, 177, 1, 192, 64
-0.996833, 3, 9, 18, 72
-0.996833, 307, 113, 322, 176
-0.996834, 283, 33, 298, 96
-0.996848, 89, 1, 120, 128
-0.99686, 1, 157, 128, 188
-0.996861, 193, 313, 208, 375
-0.996863, 167, 313, 182, 375
-0.996873, 159, 305, 174, 368
-0.996877, 161, 137, 176, 200
-0.996879, 259, 105, 274, 168
-0.996883, 143, 41, 158, 104
-0.9969, 111, 273, 126, 336
-0.996904, 113, 269, 240, 300
-0.996909, 149, 1, 180, 256
-0.99691, 257, 141, 384, 172
-0.996912, 71, 329, 86, 360
-0.996914, 227, 33, 242, 96
-0.996921, 1, 169, 128, 200
-0.996922, 129, 209, 256, 240
-0.996937, 353, 305, 480, 336
-0.996937, 37, 313, 52, 375
-0.996938, 193, 209, 320, 240
-0.996947, 353, 333, 480, 364
-0.996953, 191, 145, 206, 208
-0.996953, 183, 313, 198, 375
-0.996955, 249, 169, 264, 232
-0.996959, 1, 141, 128, 172
-0.99696, 277, 233, 292, 296
-0.996966, 179, 121, 194, 184
-0.996991, 1, 205, 128, 236
-0.996993, 275, 9, 290, 72
-0.996994, 145, 113, 272, 144
-0.997001, 269, 241, 284, 304
-0.997008, 113, 97, 144, 224
-0.997021, 225, 89, 480, 152
-0.997021, 325, 241, 356, 368
-0.997023, 273, 313, 288, 375
-0.997028, 325, 49, 356, 176
-0.997029, 261, 241, 276, 304
-0.997053, 209, 197, 336, 228
-0.997053, 369, 273, 384, 336
-0.997055, 433, 257, 448, 320
-0.997065, 261, 129, 292, 375
-0.997078, 173, 145, 188, 208
-0.997079, 237, 1, 252, 64
-0.997081, 89, 49, 104, 112
-0.997083, 61, 1, 92, 256
-0.997083, 191, 121, 206, 184
-0.997091, 163, 161, 178, 224
-0.997104, 295, 233, 310, 296
-0.997107, 1, 273, 128, 304
-0.997109, 209, 313, 224, 375
-0.997137, 313, 113, 328, 176
-0.997152, 403, 297, 418, 360
-0.997152, 5, 1, 36, 256
-0.997154, 301, 225, 332, 352
-0.997156, 77, 129, 108, 256
-0.997171, 281, 113, 296, 176
-0.997176, 287, 225, 302, 288
-0.997176, 79, 329, 94, 360
-0.997181, 167, 225, 182, 288
-0.997185, 173, 49, 188, 112
-0.9972, 263, 313, 278, 375
-0.997206, 273, 225, 400, 256
-0.997212, 157, 41, 172, 104
-0.997213, 11, 9, 26, 72
-0.997214, 357, 281, 372, 344
-0.997228, 241, 177, 256, 240
-0.997229, 225, 1, 240, 64
-0.997233, 427, 281, 442, 344
-0.997235, 59, 289, 74, 352
-0.997238, 1, 285, 128, 316
-0.997238, 299, 113, 314, 176
-0.99724, 145, 121, 160, 184
-0.997241, 231, 153, 246, 216
-0.997245, 151, 65, 166, 128
-0.997251, 129, 257, 256, 288
-0.997257, 305, 121, 432, 184
-0.997259, 255, 209, 270, 272
-0.997275, 313, 169, 328, 232
-0.997275, 377, 305, 392, 368
-0.997292, 131, 265, 146, 328
-0.997305, 75, 9, 90, 72
-0.997314, 271, 33, 286, 96
-0.997322, 215, 313, 230, 375
-0.99733, 203, 313, 218, 375
-0.997332, 145, 313, 160, 375
-0.997346, 243, 345, 258, 375
-0.99735, 423, 257, 438, 320
-0.99735, 255, 241, 270, 304
-0.997351, 305, 329, 432, 360
-0.997358, 245, 1, 276, 256
-0.99738, 247, 201, 262, 264
-0.997382, 1, 61, 128, 92
-0.997391, 383, 145, 398, 208
-0.997393, 85, 333, 100, 364
-0.997393, 97, 317, 224, 348
-0.997401, 65, 325, 80, 356
-0.997406, 305, 97, 432, 160
-0.997409, 257, 313, 384, 344
-0.997409, 281, 1, 312, 256
-0.997413, 177, 249, 304, 280
-0.997423, 143, 17, 158, 80
-0.99743, 41, 33, 72, 288
-0.99744, 193, 277, 320, 308
-0.997444, 259, 121, 274, 152
-0.997449, 17, 1, 48, 256
-0.99745, 345, 1, 408, 375
-0.997457, 185, 141, 200, 172
-0.997462, 1, 217, 128, 248
-0.997469, 75, 317, 90, 348
-0.99747, 365, 289, 380, 320
-0.997475, 97, 49, 112, 80
-0.997486, 1, 209, 500, 272
-0.9975, 197, 341, 212, 372
-0.997514, 95, 37, 110, 68
-0.997532, 305, 49, 432, 80
-0.997537, 289, 165, 416, 196
-0.997554, 259, 133, 274, 164
-0.997562, 285, 97, 316, 352
-0.997564, 209, 317, 336, 348
-0.997578, 185, 337, 200, 368
-0.997588, 241, 209, 368, 240
-0.997602, 357, 297, 372, 328
-0.997604, 233, 145, 248, 176
-0.997614, 79, 345, 94, 375
-0.997621, 237, 345, 252, 375
-0.997621, 363, 301, 378, 332
-0.997627, 177, 65, 304, 96
-0.997645, 1, 317, 128, 348
-0.997647, 205, 97, 236, 352
-0.997654, 257, 65, 500, 128
-0.997657, 1, 21, 128, 52
-0.997662, 273, 257, 400, 288
-0.997662, 29, 1, 60, 256
-0.99767, 73, 341, 88, 372
-0.997679, 257, 125, 384, 156
-0.997683, 81, 297, 208, 328
-0.997687, 225, 109, 352, 140
-0.997691, 249, 129, 280, 375
-0.997691, 59, 325, 74, 356
-0.997693, 113, 41, 240, 72
-0.997701, 273, 97, 304, 352
-0.997706, 193, 97, 224, 352
-0.997708, 227, 345, 242, 375
-0.997708, 97, 281, 224, 312
-0.997721, 213, 1, 244, 256
-0.997733, 353, 281, 480, 312
-0.997733, 237, 129, 252, 160
-0.997744, 371, 289, 386, 320
-0.997744, 377, 1, 440, 375
-0.997746, 49, 1, 80, 128
-0.997747, 81, 1, 112, 256
-0.997751, 205, 345, 220, 375
-0.997768, 113, 245, 240, 276
-0.997769, 169, 33, 184, 64
-0.997781, 165, 149, 180, 180
-0.99779, 227, 145, 242, 176
-0.997793, 273, 197, 400, 228
-0.997794, 179, 345, 194, 375
-0.9978, 1, 177, 500, 240
-0.997801, 161, 33, 192, 288
-0.997803, 1, 229, 128, 260
-0.997805, 29, 1, 60, 128
-0.997819, 265, 117, 280, 148
-0.997825, 173, 129, 204, 375
-0.997834, 273, 185, 400, 216
-0.997856, 305, 25, 432, 56
-0.997858, 281, 329, 296, 360
-0.997865, 387, 293, 402, 324
-0.997871, 1, 261, 128, 292
-0.997889, 219, 145, 234, 176
-0.997894, 305, 37, 432, 68
-0.997895, 191, 141, 206, 172
-0.997903, 225, 225, 352, 256
-0.997912, 249, 137, 264, 168
-0.997912, 93, 1, 124, 256
-0.997926, 65, 13, 192, 44
-0.99793, 275, 325, 290, 356
-0.997931, 199, 149, 214, 180
-0.997939, 241, 169, 256, 200
-0.99794, 269, 345, 284, 375
-0.997943, 133, 1, 164, 256
-0.99795, 177, 261, 304, 292
-0.997953, 253, 125, 268, 156
-0.99796, 153, 145, 168, 176
-0.997976, 369, 193, 496, 320
-0.997978, 349, 193, 380, 320
-0.99798, 161, 129, 192, 375
-0.997981, 149, 97, 180, 352
-0.997982, 227, 133, 242, 164
-0.997988, 217, 333, 232, 364
-0.997988, 65, 309, 80, 340
-0.99799, 129, 69, 256, 100
-0.997991, 37, 241, 68, 368
-0.997999, 151, 1, 166, 32
-0.998006, 85, 345, 100, 375
-0.998012, 67, 341, 82, 372
-0.998021, 61, 337, 76, 368
-0.998023, 337, 269, 464, 300
-0.998033, 391, 333, 406, 364
-0.998045, 241, 61, 368, 92
-0.998047, 1, 241, 128, 272
-0.998047, 129, 305, 256, 336
-0.99805, 273, 269, 400, 300
-0.998059, 233, 97, 264, 352
-0.998061, 203, 333, 218, 364
-0.998063, 321, 253, 448, 284
-0.998069, 47, 337, 62, 368
-0.998071, 157, 25, 172, 56
-0.998079, 171, 45, 186, 76
-0.998083, 377, 145, 408, 272
-0.998084, 209, 141, 224, 172
-0.998084, 201, 1, 232, 256
-0.998085, 241, 145, 256, 176
-0.998087, 45, 129, 76, 375
-0.998092, 281, 29, 296, 60
-0.998095, 305, 13, 432, 44
-0.998097, 357, 309, 372, 340
-0.998105, 65, 1, 192, 32
-0.998107, 17, 73, 144, 104
-0.998118, 181, 45, 196, 76
-0.99812, 159, 141, 174, 172
-0.998122, 31, 309, 46, 340
-0.998125, 257, 145, 272, 176
-0.99814, 379, 289, 394, 320
-0.998154, 151, 21, 166, 52
-0.998155, 371, 305, 386, 336
-0.998156, 173, 337, 188, 368
-0.998159, 167, 333, 182, 364
-0.998171, 379, 329, 394, 360
-0.998178, 275, 337, 290, 368
-0.998179, 1, 153, 500, 216
-0.998183, 221, 129, 252, 375
-0.998183, 191, 345, 206, 375
-0.998185, 357, 325, 372, 356
-0.998187, 223, 333, 238, 364
-0.998188, 291, 345, 306, 375
-0.998198, 283, 345, 298, 375
-0.998204, 193, 129, 208, 160
-0.998205, 283, 317, 298, 348
-0.99821, 237, 1, 252, 32
-0.998211, 221, 345, 236, 375
-0.998214, 265, 137, 280, 168
-0.998219, 85, 317, 100, 348
-0.998227, 293, 137, 308, 168
-0.998227, 193, 49, 208, 80
-0.998228, 169, 225, 184, 256
-0.998229, 101, 37, 116, 68
-0.998232, 339, 337, 354, 368
-0.998238, 179, 333, 194, 364
-0.998241, 377, 305, 392, 336
-0.998243, 103, 57, 118, 88
-0.998244, 379, 345, 394, 375
-0.998245, 337, 21, 352, 52
-0.998253, 253, 345, 268, 375
-0.998255, 259, 157, 274, 188
-0.998259, 197, 329, 212, 360
-0.998263, 287, 129, 302, 160
-0.998267, 181, 129, 196, 160
-0.998269, 247, 121, 262, 152
-0.99828, 225, 1, 256, 256
-0.998284, 179, 141, 194, 172
-0.998295, 157, 41, 172, 72
-0.998297, 385, 329, 400, 360
-0.998299, 87, 37, 102, 68
-0.998308, 167, 129, 182, 160
-0.99831, 153, 129, 168, 160
-0.998311, 189, 153, 204, 184
-0.99832, 367, 345, 382, 375
-0.998321, 363, 325, 378, 356
-0.998323, 247, 21, 262, 52
-0.998323, 313, 33, 344, 288
-0.998328, 53, 125, 68, 156
-0.998329, 151, 53, 166, 84
-0.998332, 281, 13, 296, 44
-0.998339, 301, 129, 332, 375
-0.998341, 243, 133, 258, 164
-0.99835, 61, 161, 92, 288
-0.998351, 163, 29, 178, 60
-0.998351, 269, 29, 284, 60
-0.998357, 73, 13, 88, 44
-0.998357, 241, 181, 256, 212
-0.998362, 161, 337, 176, 368
-0.998378, 171, 149, 186, 180
-0.998381, 129, 127, 160, 142
-0.998381, 129, 47, 160, 62
-0.998382, 25, 311, 56, 326
-0.998383, 285, 141, 316, 156
-0.998384, 361, 341, 392, 356
-0.998385, 213, 63, 244, 78
-0.998385, 153, 335, 184, 350
-0.998385, 261, 131, 292, 146
-0.998386, 129, 77, 160, 92
-0.998387, 149, 159, 180, 174
-0.998389, 189, 333, 220, 348
-0.998389, 209, 147, 240, 162
-0.99839, 73, 317, 104, 332
-0.99839, 149, 1, 180, 16
-0.99839, 311, 173, 326, 204
-0.998391, 217, 157, 248, 172
-0.998391, 85, 343, 116, 358
-0.998391, 91, 57, 106, 88
-0.998391, 161, 33, 192, 48
-0.998391, 245, 33, 276, 48
-0.998391, 349, 345, 380, 360
-0.998391, 33, 349, 64, 364
-0.998392, 249, 239, 280, 254
-0.998393, 243, 37, 258, 68
-0.998393, 185, 357, 248, 372
-0.998393, 95, 73, 110, 104
-0.998394, 261, 167, 292, 182
-0.998394, 369, 307, 400, 322
-0.998394, 291, 9, 306, 40
-0.998395, 33, 355, 64, 370
-0.998396, 89, 353, 120, 368
-0.998396, 217, 131, 248, 146
-0.998396, 249, 141, 280, 156
-0.998397, 69, 53, 100, 68
-0.998399, 257, 33, 288, 48
-0.998399, 129, 53, 160, 68
-0.998399, 361, 329, 392, 344
-0.998399, 377, 351, 408, 366
-0.9984, 237, 167, 268, 182
-0.998401, 209, 333, 224, 364
-0.998401, 169, 227, 200, 242
-0.998402, 189, 341, 220, 356
-0.998402, 205, 155, 236, 170
-0.998403, 281, 355, 312, 370
-0.998403, 269, 339, 300, 354
-0.998404, 281, 235, 312, 250
-0.998404, 225, 1, 256, 16
-0.998405, 193, 353, 224, 368
-0.998405, 237, 143, 268, 158
-0.998406, 249, 59, 280, 74
-0.998407, 249, 133, 280, 148
-0.998407, 233, 179, 264, 194
-0.998408, 169, 59, 200, 74
-0.998409, 177, 49, 208, 64
-0.998409, 141, 21, 172, 36
-0.998409, 273, 5, 304, 20
-0.998409, 41, 125, 72, 140
-0.998409, 257, 325, 288, 340
-0.99841, 445, 357, 476, 372
-0.998411, 201, 335, 232, 350
-0.998412, 245, 121, 276, 136
-0.998414, 377, 301, 408, 316
-0.998414, 165, 333, 196, 348
-0.998414, 89, 51, 120, 66
-0.998415, 229, 57, 260, 72
-0.998415, 191, 333, 206, 364
-0.998416, 45, 343, 76, 358
-0.998418, 269, 353, 300, 368
-0.998419, 103, 285, 118, 316
-0.99842, 373, 333, 388, 364
-0.998421, 267, 49, 282, 80
-0.998422, 229, 135, 260, 150
-0.998423, 169, 347, 200, 362
-0.998423, 221, 145, 252, 160
-0.998425, 261, 359, 292, 374
-0.998426, 201, 351, 264, 366
-0.998427, 345, 337, 376, 352
-0.998428, 249, 37, 264, 68
-0.998429, 361, 323, 392, 338
-0.998429, 307, 133, 322, 164
-0.99843, 85, 39, 116, 54
-0.99843, 361, 347, 392, 362
-0.998431, 253, 173, 284, 188
-0.998431, 73, 33, 88, 64
-0.998433, 149, 153, 180, 168
-0.998434, 237, 151, 268, 166
-0.998435, 133, 129, 164, 375
-0.998437, 73, 35, 104, 50
-0.998438, 365, 301, 396, 316
-0.99844, 229, 129, 260, 144
-0.99844, 349, 331, 380, 346
-0.998441, 251, 157, 266, 188
-0.998441, 177, 141, 208, 156
-0.998442, 257, 57, 272, 88
-0.998443, 45, 337, 76, 352
-0.998446, 361, 293, 392, 308
-0.998447, 89, 57, 120, 72
-0.998448, 149, 47, 180, 62
-0.998449, 241, 355, 304, 370
-0.99845, 185, 55, 216, 70
-0.99845, 289, 127, 320, 142
-0.99845, 173, 147, 204, 162
-0.998451, 353, 309, 384, 324
-0.998452, 269, 333, 300, 348
-0.998457, 189, 155, 220, 170
-0.998458, 261, 137, 292, 152
-0.998461, 257, 135, 320, 150
-0.998464, 49, 347, 112, 362
-0.998464, 241, 351, 272, 366
-0.998469, 149, 31, 180, 46
-0.99847, 381, 345, 412, 360
-0.998471, 149, 39, 180, 54
-0.998473, 185, 147, 216, 162
-0.998473, 221, 151, 252, 166
-0.998475, 177, 157, 208, 172
-0.998475, 297, 133, 328, 148
-0.998477, 241, 349, 304, 364
-0.998477, 229, 347, 260, 362
-0.998479, 217, 361, 280, 375
-0.99848, 169, 361, 200, 375
-0.998484, 77, 353, 108, 368
-0.998485, 177, 345, 240, 360
-0.998485, 73, 323, 104, 338
-0.998485, 145, 153, 208, 168
-0.998486, 269, 347, 300, 362
-0.998488, 177, 335, 240, 350
-0.998489, 129, 193, 160, 320
-0.998492, 49, 341, 112, 356
-0.998493, 209, 349, 240, 364
-0.998496, 281, 135, 312, 150
-0.998499, 165, 155, 196, 170
-0.998499, 373, 291, 404, 306
-0.9985, 273, 129, 304, 144
-0.998505, 273, 361, 304, 375
-0.998509, 249, 361, 312, 375
-0.998509, 249, 125, 312, 140
-0.99851, 293, 359, 324, 374
-0.99851, 261, 123, 292, 138
-0.998512, 225, 361, 256, 375
-0.998513, 33, 333, 96, 348
-0.998519, 161, 361, 224, 375
-0.998521, 57, 327, 88, 342
-0.998522, 225, 125, 288, 140
-0.998522, 213, 357, 244, 372
-0.998525, 157, 53, 188, 68
-0.998528, 73, 329, 104, 344
-0.998528, 53, 349, 84, 364
-0.998529, 361, 295, 424, 310
-0.998529, 161, 341, 192, 356
-0.998531, 145, 339, 208, 354
-0.998532, 65, 337, 96, 352
-0.998532, 181, 355, 212, 370
-0.998534, 345, 301, 408, 316
-0.998535, 177, 151, 240, 166
-0.998535, 129, 55, 192, 70
-0.998538, 161, 355, 224, 370
-0.998538, 249, 127, 280, 142
-0.998539, 289, 361, 352, 375
-0.998546, 41, 357, 104, 372
-0.998549, 353, 299, 384, 314
-0.998549, 353, 307, 416, 322
-0.998551, 201, 345, 264, 360
-0.998555, 325, 193, 356, 320
-0.998557, 361, 289, 424, 304
-0.998559, 273, 129, 336, 144
-0.998559, 225, 131, 288, 146
-0.998561, 137, 345, 200, 360
-0.998561, 225, 343, 288, 358
-0.998562, 189, 1, 220, 256
-0.998563, 257, 141, 320, 156
-0.998564, 129, 45, 192, 60
-0.998564, 129, 33, 192, 48
-0.998566, 121, 153, 184, 168
-0.998566, 73, 343, 104, 358
-0.998567, 229, 353, 260, 368
-0.998567, 189, 347, 220, 362
-0.998568, 201, 359, 232, 374
-0.998568, 49, 147, 112, 162
-0.998569, 201, 57, 264, 72
-0.99857, 181, 361, 212, 375
-0.998571, 233, 141, 296, 156
-0.998572, 265, 7, 328, 22
-0.998572, 57, 343, 88, 358
-0.998575, 33, 325, 96, 340
-0.998575, 313, 209, 344, 336
-0.998576, 57, 55, 120, 70
-0.998576, 353, 351, 416, 366
-0.998577, 153, 53, 216, 68
-0.99858, 129, 147, 192, 162
-0.99858, 61, 321, 92, 336
-0.998581, 137, 361, 200, 375
-0.998582, 89, 71, 152, 86
-0.998582, 49, 153, 112, 168
-0.998584, 129, 131, 192, 146
-0.998586, 89, 77, 152, 92
-0.998586, 257, 239, 320, 254
-0.998587, 241, 119, 304, 134
-0.998588, 65, 287, 128, 302
-0.998588, 233, 169, 296, 184
-0.998589, 65, 321, 128, 336
-0.998589, 329, 343, 392, 358
-0.998591, 193, 145, 256, 160
-0.998592, 201, 153, 264, 168
-0.998592, 233, 31, 296, 46
-0.998592, 177, 339, 208, 354
-0.998593, 81, 351, 144, 366
-0.998593, 145, 1, 208, 16
-0.998595, 49, 159, 112, 174
-0.998595, 273, 163, 336, 178
-0.998596, 233, 147, 296, 162
-0.998597, 49, 179, 112, 194
-0.998597, 25, 341, 88, 356
-0.998598, 353, 327, 416, 342
-0.998598, 153, 33, 216, 48
-0.998598, 49, 167, 112, 182
-0.998598, 337, 333, 400, 348
-0.998598, 177, 139, 240, 154
-0.998599, 161, 61, 224, 76
-0.998599, 73, 359, 104, 374
-0.9986, 193, 63, 256, 78
-0.9986, 129, 159, 192, 174
-0.998601, 49, 121, 112, 136
-0.998601, 129, 141, 192, 156
-0.998602, 81, 361, 144, 375
-0.998603, 169, 225, 232, 240
-0.998603, 9, 357, 72, 372
-0.998604, 65, 249, 128, 264
-0.998604, 425, 361, 488, 375
-0.998605, 105, 59, 168, 74
-0.998605, 57, 279, 120, 294
-0.998605, 313, 45, 376, 60
-0.998606, 129, 27, 192, 42
-0.998606, 97, 65, 160, 80
-0.998606, 153, 47, 216, 62
-0.998607, 241, 59, 304, 74
-0.998607, 237, 361, 268, 375
-0.998608, 137, 351, 200, 366
-0.998608, 25, 351, 88, 366
-0.998609, 49, 129, 112, 144
-0.99861, 81, 255, 144, 270
-0.998611, 49, 185, 112, 200
-0.998612, 129, 39, 192, 54
-0.998612, 169, 157, 232, 172
-0.998612, 225, 333, 288, 348
-0.998613, 57, 219, 120, 234
-0.998613, 65, 273, 128, 288
-0.998614, 49, 173, 112, 188
-0.998614, 57, 213, 120, 228
-0.998615, 369, 301, 432, 316
-0.998615, 241, 3, 304, 18
-0.998615, 49, 195, 112, 210
-0.998615, 265, 1, 328, 16
-0.998616, 57, 49, 120, 64
-0.998616, 337, 293, 400, 308
-0.998616, 73, 339, 136, 354
-0.998616, 49, 139, 112, 154
-0.998617, 65, 267, 128, 282
-0.998617, 81, 185, 144, 200
-0.99862, 89, 277, 152, 292
-0.998621, 177, 55, 240, 70
-0.998621, 161, 65, 416, 128
-0.998622, 89, 217, 152, 232
-0.998622, 73, 129, 104, 375
-0.998622, 65, 331, 128, 346
-0.998622, 193, 31, 256, 46
-0.998624, 329, 307, 392, 322
-0.998624, 313, 357, 376, 372
-0.998625, 193, 159, 256, 174
-0.998626, 401, 351, 464, 366
-0.998626, 57, 255, 120, 270
-0.998626, 25, 317, 88, 332
-0.998626, 345, 313, 408, 328
-0.998627, 65, 261, 128, 276
-0.998627, 129, 61, 192, 76
-0.998627, 233, 11, 296, 26
-0.998627, 273, 53, 336, 68
-0.998628, 89, 51, 152, 66
-0.998628, 89, 153, 152, 168
-0.998629, 281, 145, 344, 160
-0.998629, 321, 299, 384, 314
-0.99863, 201, 129, 264, 144
-0.998658, 249, 357, 280, 372
-0.998666, 337, 193, 368, 320
-0.998718, 333, 1, 364, 256
-0.998722, 297, 33, 328, 288
-0.998784, 369, 129, 400, 375
-0.998785, 93, 97, 124, 352
-0.998792, 113, 129, 144, 375
-0.998834, 173, 33, 204, 288
-0.998928, 53, 113, 84, 240
-0.998945, 361, 1, 392, 128
-0.999, 345, 1, 376, 256
-0.999036, 101, 1, 132, 128
-0.999052, 207, 1, 222, 128
-0.999057, 283, 209, 298, 336
-0.999085, 17, 97, 48, 352
-0.999087, 321, 57, 448, 120
-0.999109, 97, 33, 112, 160
-0.999114, 163, 145, 178, 272
-0.999129, 289, 1, 304, 128
-0.999133, 73, 1, 88, 128
-0.999135, 151, 1, 166, 128
-0.999139, 251, 177, 266, 304
-0.999148, 263, 145, 278, 272
-0.999151, 153, 49, 168, 176
-0.999153, 275, 225, 290, 352
-0.999157, 201, 1, 216, 128
-0.999174, 269, 161, 284, 288
-0.999183, 63, 241, 78, 368
-0.999186, 195, 1, 210, 128
-0.9992, 299, 129, 314, 256
-0.999206, 249, 1, 264, 128
-0.999214, 177, 129, 192, 256
-0.999216, 171, 129, 186, 256
-0.999217, 275, 161, 290, 288
-0.999218, 353, 105, 480, 168
-0.999221, 153, 113, 168, 240
-0.999225, 31, 49, 46, 176
-0.999232, 357, 33, 388, 288
-0.999234, 223, 129, 238, 256
-0.999237, 85, 33, 100, 160
-0.999251, 217, 129, 232, 256
-0.999255, 257, 129, 272, 256
-0.999258, 279, 1, 294, 128
-0.999259, 55, 113, 70, 240
-0.99926, 39, 49, 54, 176
-0.999268, 199, 241, 214, 368
-0.999275, 269, 225, 284, 352
-0.999276, 349, 1, 364, 128
-0.999279, 187, 129, 202, 256
-0.999282, 213, 1, 228, 128
-0.999289, 69, 241, 84, 368
-0.999289, 313, 129, 344, 375
-0.999292, 195, 129, 210, 256
-0.999292, 255, 1, 270, 128
-0.999297, 15, 1, 30, 128
-0.9993, 25, 33, 40, 160
-0.999304, 209, 129, 224, 256
-0.999306, 289, 209, 304, 336
-0.999315, 45, 49, 60, 176
-0.999316, 275, 113, 290, 240
-0.999319, 311, 129, 326, 256
-0.999322, 117, 241, 132, 368
-0.999323, 171, 17, 186, 144
-0.999324, 207, 241, 222, 368
-0.999328, 59, 49, 74, 176
-0.999331, 293, 129, 308, 256
-0.999332, 9, 1, 24, 128
-0.999336, 159, 17, 174, 144
-0.999343, 281, 161, 296, 288
-0.999343, 125, 241, 140, 368
-0.999356, 343, 1, 358, 128
-0.999357, 229, 113, 244, 240
-0.999364, 305, 129, 320, 256
-0.999367, 145, 65, 160, 192
-0.999369, 51, 49, 66, 176
-0.99937, 201, 113, 216, 240
-0.999371, 163, 97, 178, 224
-0.999375, 243, 17, 258, 144
-0.99938, 263, 97, 278, 224
-0.999387, 237, 1, 252, 128
-0.999389, 29, 97, 60, 352
-0.999389, 257, 177, 272, 304
-0.999389, 245, 177, 260, 304
-0.999405, 93, 81, 108, 208
-0.999407, 379, 129, 394, 256
-0.999408, 281, 97, 296, 224
-0.99941, 111, 241, 126, 368
-0.999411, 131, 209, 146, 336
-0.999412, 317, 97, 332, 224
-0.999413, 273, 1, 288, 128
-0.999422, 239, 161, 254, 288
-0.999422, 295, 177, 310, 304
-0.999424, 175, 65, 190, 192
-0.999424, 177, 17, 192, 144
-0.999426, 169, 65, 184, 192
-0.999426, 261, 1, 276, 128
-0.999427, 251, 113, 266, 240
-0.999429, 365, 241, 380, 368
-0.999429, 375, 241, 390, 368
-0.999431, 91, 33, 106, 160
-0.999435, 165, 1, 180, 128
-0.999435, 241, 113, 256, 240
-0.999436, 143, 1, 158, 128
-0.999437, 261, 225, 276, 352
-0.999437, 3, 1, 18, 128
-0.999439, 163, 241, 178, 368
-0.999439, 93, 241, 108, 368
-0.999441, 31, 97, 46, 224
-0.999443, 65, 33, 80, 160
-0.999447, 317, 49, 332, 176
-0.99945, 249, 225, 264, 352
-0.999451, 195, 65, 210, 192
-0.999451, 233, 177, 248, 304
-0.999453, 1, 97, 32, 352
-0.999456, 181, 65, 196, 192
-0.999456, 257, 81, 272, 208
-0.999459, 147, 113, 162, 240
-0.999459, 79, 1, 94, 128
-0.99946, 269, 113, 284, 240
-0.999463, 255, 225, 270, 352
-0.999467, 301, 177, 316, 304
-0.999472, 203, 49, 218, 176
-0.999476, 209, 65, 224, 192
-0.999478, 187, 81, 202, 208
-0.99948, 287, 129, 302, 256
-0.99948, 129, 161, 144, 288
-0.999482, 381, 225, 396, 352
-0.999483, 421, 241, 436, 368
-0.999484, 217, 209, 232, 336
-0.999484, 135, 65, 150, 192
-0.999485, 139, 241, 154, 368
-0.999486, 17, 49, 32, 176
-0.999491, 231, 1, 246, 128
-0.999492, 415, 241, 430, 368
-0.999496, 267, 33, 282, 160
-0.999498, 189, 1, 204, 128
-0.999501, 243, 225, 258, 352
-0.999501, 283, 49, 298, 176
-0.999502, 117, 193, 132, 320
-0.999513, 479, 241, 494, 368
-0.999514, 215, 65, 230, 192
-0.999519, 87, 177, 102, 304
-0.999521, 11, 49, 26, 176
-0.999525, 61, 193, 76, 320
-0.999526, 219, 1, 234, 128
-0.999532, 49, 113, 64, 240
-0.999532, 41, 113, 56, 240
-0.999534, 3, 49, 18, 176
-0.999536, 21, 97, 36, 224
-0.999564, 357, 129, 388, 375
-0.999586, 189, 335, 204, 350
-0.999588, 381, 345, 396, 360
-0.999588, 247, 137, 262, 152
-0.999588, 355, 301, 370, 316
-0.999588, 209, 129, 224, 144
-0.999588, 75, 315, 90, 330
-0.999589, 339, 341, 354, 356
-0.999589, 151, 57, 166, 72
-0.99959, 163, 31, 178, 46
-0.99959, 153, 153, 168, 168
-0.99959, 283, 127, 298, 142
-0.999591, 243, 187, 258, 202
-0.999592, 359, 309, 374, 324
-0.999593, 277, 359, 292, 374
-0.999593, 267, 361, 282, 375
-0.999593, 373, 305, 388, 320
-0.999594, 217, 139, 232, 154
-0.999596, 31, 311, 46, 326
-0.999596, 181, 51, 196, 66
-0.999597, 159, 335, 174, 350
-0.999598, 239, 151, 254, 166
-0.9996, 193, 341, 208, 356
-0.999601, 365, 307, 380, 322
-0.999602, 263, 141, 278, 156
-0.999602, 297, 139, 312, 154
-0.999603, 231, 131, 246, 146
-0.999603, 251, 125, 266, 140
-0.999603, 235, 185, 250, 200
-0.999604, 199, 149, 214, 164
-0.999605, 153, 145, 168, 160
-0.999605, 81, 325, 96, 340
-0.999606, 241, 171, 256, 186
-0.999606, 65, 349, 80, 364
-0.999607, 305, 135, 320, 150
-0.999607, 239, 125, 254, 140
-0.999607, 205, 347, 220, 362
-0.999607, 293, 129, 308, 144
-0.999607, 157, 31, 172, 46
-0.999607, 85, 359, 100, 374
-0.999608, 89, 335, 104, 350
-0.999608, 275, 335, 290, 350
-0.999609, 261, 127, 276, 142
-0.99961, 247, 131, 262, 146
-0.999611, 265, 355, 280, 370
-0.999611, 59, 339, 74, 354
-0.999612, 211, 349, 226, 364
-0.999612, 275, 121, 290, 136
-0.999613, 361, 301, 376, 316
-0.999615, 165, 151, 180, 166
-0.999615, 151, 21, 166, 36
-0.999615, 237, 141, 252, 156
-0.999615, 221, 151, 236, 166
-0.999616, 165, 141, 180, 156
-0.999616, 299, 133, 314, 148
-0.999616, 253, 353, 268, 368
-0.999617, 217, 357, 232, 372
-0.999618, 373, 297, 388, 312
-0.999618, 177, 361, 192, 375
-0.99962, 257, 143, 272, 158
-0.999621, 193, 143, 208, 158
-0.999621, 229, 341, 244, 356
-0.999622, 171, 39, 186, 54
-0.999622, 385, 301, 400, 316
-0.999624, 261, 169, 276, 184
-0.999624, 193, 351, 208, 366
-0.999624, 227, 347, 242, 362
-0.999625, 65, 333, 80, 348
-0.999625, 87, 329, 102, 344
-0.999628, 267, 135, 282, 150
-0.999629, 71, 359, 86, 374
-0.999629, 165, 339, 180, 354
-0.99963, 169, 45, 184, 60
-0.999631, 289, 355, 304, 370
-0.999636, 175, 155, 190, 170
-0.999639, 193, 151, 208, 166
-0.999639, 281, 331, 296, 346
-0.999641, 57, 347, 72, 362
-0.999641, 227, 151, 242, 166
-0.999642, 221, 349, 236, 364
-0.999642, 237, 345, 252, 360
-0.999643, 267, 123, 282, 138
-0.999647, 257, 137, 272, 152
-0.999648, 179, 347, 194, 362
-0.999648, 199, 345, 214, 360
-0.999648, 287, 133, 302, 148
-0.999649, 169, 33, 184, 48
-0.99965, 203, 357, 218, 372
-0.999652, 183, 155, 198, 170
-0.999652, 187, 341, 202, 356
-0.999653, 261, 121, 276, 136
-0.999654, 243, 181, 258, 196
-0.999655, 65, 343, 80, 358
-0.999659, 227, 357, 242, 372
-0.999659, 365, 291, 380, 306
-0.99966, 59, 325, 74, 340
-0.999661, 289, 361, 304, 375
-0.999664, 183, 141, 198, 156
-0.999665, 233, 151, 248, 166
-0.999666, 101, 57, 116, 72
-0.999666, 259, 359, 274, 374
-0.999667, 95, 39, 110, 54
-0.999668, 171, 339, 186, 354
-0.999669, 237, 355, 252, 370
-0.999669, 297, 359, 312, 374
-0.999673, 187, 349, 202, 364
-0.999674, 189, 157, 204, 172
-0.999678, 247, 353, 262, 368
-0.999684, 237, 179, 252, 194
-0.999686, 367, 301, 382, 316
-0.999686, 181, 339, 196, 354
-0.999688, 83, 337, 98, 352
-0.999689, 79, 347, 94, 362
-0.999697, 65, 325, 80, 340
-0.999703, 183, 361, 198, 375
-0.999706, 183, 147, 198, 162
-0.999708, 85, 343, 100, 358
-0.999709, 193, 357, 208, 372
-0.99971, 345, 129, 376, 375
-0.999711, 249, 359, 264, 374
-0.999711, 95, 51, 110, 66
-0.999715, 71, 343, 86, 358
-0.999718, 65, 319, 80, 334
-0.999722, 75, 321, 90, 336
-0.999722, 187, 355, 202, 370
-0.999733, 81, 331, 96, 346
-0.999733, 237, 361, 252, 375
-0.999735, 71, 333, 86, 348
-0.999739, 57, 129, 88, 375
-0.99974, 243, 361, 258, 375
-0.999741, 227, 145, 242, 160
-0.999742, 71, 327, 86, 342
-0.999772, 117, 33, 148, 288
-0.999777, 77, 337, 92, 352
-0.999894, 353, 81, 480, 144
-0.999941, 389, 129, 420, 375
-1.00005, 333, 129, 364, 375
-1.00016, 369, 57, 496, 120
-1.00035, 433, 129, 464, 375
-1.00059, 433, 129, 496, 375
-1.00064, 469, 129, 500, 375
-1.00067, 457, 129, 488, 375
-1.00068, 445, 129, 476, 375
-1.00074, 381, 33, 412, 288
-1.00078, 401, 1, 464, 375
-1.00079, 413, 129, 444, 375
-1.00089, 369, 33, 400, 288
-1.00129, 105, 1, 136, 256
-1.00134, 401, 129, 432, 375
-1.00135, 433, 1, 496, 375
-1.00146, 429, 1, 460, 256
-1.00147, 445, 1, 476, 256
-1.00155, 393, 33, 424, 288
-1.00158, 369, 81, 432, 208
-1.00179, 405, 33, 436, 288
-1.00182, 465, 33, 496, 288
-1.00185, 417, 1, 448, 256
-1.0023, 369, 201, 496, 264
-1.00251, 385, 129, 448, 375
-1.00399, 409, 129, 472, 375
-1.00433, 369, 49, 496, 176
-1.00498, 377, 33, 440, 288
-1.00595, 433, 1, 496, 128
-1.00599, 385, 129, 448, 256
-1.00624, 401, 17, 464, 144
-1.00685, 401, 65, 464, 192
-1.00732, 401, 1, 464, 256
-1.00741, 433, 1, 496, 256
-1.00916, 433, 65, 496, 192
-1.00942, 433, 113, 496, 240
-1.01013, 369, 1, 432, 128
-1.01114, 409, 113, 472, 240
