1912
-0.332561, 1, 1, 333, 500
-0.388662, 65, 1, 320, 500
-0.455929, 1, 65, 333, 320
-0.522462, 1, 161, 333, 416
-0.606727, 1, 257, 333, 500
-0.671348, 65, 65, 320, 320
-0.785906, 33, 161, 288, 416
-0.854779, 97, 1, 224, 500
-0.858933, 97, 65, 224, 320
-0.876385, 145, 1, 272, 500
-0.878333, 209, 1, 333, 500
-0.890358, 49, 1, 176, 500
-0.890835, 49, 65, 176, 320
-0.90447, 209, 1, 333, 256
-0.904677, 145, 33, 272, 288
-0.904818, 49, 161, 176, 416
-0.913447, 1, 113, 333, 240
-0.913885, 1, 161, 333, 288
-0.913931, 65, 257, 320, 500
-0.916005, 1, 193, 128, 448
-0.923323, 65, 97, 320, 224
-0.929216, 1, 1, 128, 500
-0.929278, 1, 33, 128, 288
-0.930794, 1, 65, 333, 192
-0.933154, 1, 161, 256, 288
-0.933239, 209, 97, 333, 352
-0.935076, 1, 321, 333, 448
-0.935726, 65, 49, 320, 176
-0.937162, 113, 65, 176, 192
-0.939744, 1, 369, 333, 496
-0.940387, 97, 65, 224, 192
-0.940795, 161, 161, 288, 416
-0.945471, 209, 193, 333, 448
-0.948723, 97, 113, 160, 240
-0.949056, 1, 225, 333, 352
-0.950415, 81, 129, 208, 256
-0.951602, 97, 161, 224, 416
-0.954415, 1, 273, 333, 400
-0.955855, 1, 369, 256, 496
-0.95655, 121, 73, 184, 136
-0.959115, 129, 257, 256, 500
-0.959214, 33, 145, 160, 272
-0.959759, 49, 257, 176, 500
-0.961472, 33, 321, 288, 448
-0.961546, 265, 33, 328, 160
-0.961581, 161, 49, 224, 176
-0.963641, 81, 161, 144, 288
-0.964093, 121, 113, 184, 240
-0.964295, 145, 33, 272, 160
-0.964776, 209, 33, 333, 160
-0.967719, 137, 65, 200, 192
-0.968195, 273, 49, 333, 112
-0.968246, 121, 97, 184, 160
-0.968445, 1, 353, 128, 480
-0.968869, 41, 161, 104, 288
-0.968889, 125, 57, 156, 120
-0.969116, 241, 305, 304, 432
-0.969124, 33, 209, 288, 336
-0.969137, 121, 17, 184, 144
-0.969699, 97, 369, 160, 496
-0.969703, 113, 33, 176, 288
-0.970059, 49, 65, 176, 192
-0.970653, 9, 161, 72, 288
-0.971049, 209, 321, 333, 448
-0.971495, 89, 65, 152, 192
-0.971661, 1, 17, 333, 144
-0.972332, 177, 193, 304, 320
-0.972832, 133, 65, 164, 192
-0.97315, 97, 65, 160, 128
-0.973291, 49, 193, 176, 320
-0.973471, 97, 65, 224, 128
-0.973482, 121, 49, 184, 112
-0.973491, 209, 129, 333, 256
-0.973957, 1, 209, 128, 336
-0.974087, 25, 353, 88, 480
-0.974253, 49, 369, 176, 496
-0.97476, 97, 369, 224, 496
-0.97498, 89, 121, 152, 184
-0.975215, 249, 305, 312, 368
-0.976378, 153, 65, 216, 128
-0.976436, 97, 161, 160, 224
-0.976697, 273, 33, 333, 288
-0.977091, 89, 97, 152, 352
-0.97731, 65, 1, 320, 128
-0.977339, 105, 161, 168, 288
-0.977417, 121, 49, 152, 176
-0.977721, 145, 129, 208, 256
-0.977837, 129, 113, 256, 240
-0.97801, 97, 89, 224, 152
-0.978243, 145, 369, 272, 496
-0.978351, 129, 161, 256, 288
-0.978364, 65, 257, 320, 384
-0.978601, 1, 353, 64, 480
-0.978727, 201, 33, 264, 160
-0.978939, 273, 353, 333, 480
-0.978943, 293, 49, 324, 112
-0.979114, 241, 353, 304, 480
-0.979157, 249, 281, 312, 344
-0.9792, 249, 257, 312, 384
-0.979342, 97, 385, 160, 448
-0.979401, 265, 113, 328, 240
-0.979527, 273, 273, 333, 400
-0.980121, 41, 169, 104, 232
-0.980131, 113, 137, 176, 200
-0.980271, 273, 161, 333, 288
-0.980313, 81, 185, 144, 248
-0.980346, 209, 161, 272, 288
-0.980891, 241, 329, 304, 392
-0.980953, 289, 33, 320, 160
-0.980981, 89, 97, 152, 160
-0.981333, 73, 113, 136, 240
-0.981395, 209, 185, 272, 248
-0.981593, 81, 177, 208, 240
-0.981722, 49, 353, 112, 480
-0.981771, 97, 17, 224, 144
-0.981992, 273, 345, 333, 408
-0.982032, 161, 241, 288, 368
-0.982048, 233, 385, 296, 448
-0.982051, 1, 161, 128, 224
-0.982144, 169, 161, 232, 288
-0.98227, 265, 233, 328, 296
-0.982415, 41, 209, 104, 336
-0.982623, 73, 417, 136, 480
-0.982736, 145, 33, 208, 288
-0.983032, 121, 1, 184, 500
-0.983198, 25, 361, 88, 424
-0.983297, 73, 369, 136, 496
-0.983319, 169, 193, 232, 256
-0.983332, 65, 153, 192, 216
-0.983455, 17, 209, 80, 336
-0.983475, 209, 41, 333, 104
-0.983534, 233, 409, 296, 472
-0.983663, 145, 65, 176, 192
-0.983862, 109, 97, 140, 224
-0.984311, 137, 169, 200, 232
-0.984447, 145, 177, 208, 304
-0.9846, 141, 81, 172, 144
-0.984635, 33, 17, 160, 144
-0.984657, 209, 1, 272, 500
-0.984662, 265, 25, 328, 88
-0.984724, 241, 33, 304, 160
-0.984743, 97, 113, 224, 176
-0.984753, 209, 369, 333, 496
-0.984765, 225, 433, 288, 496
-0.98482, 257, 209, 320, 336
-0.984955, 233, 193, 296, 320
-0.985068, 57, 145, 120, 208
-0.985093, 153, 105, 216, 168
-0.985133, 1, 97, 128, 224
-0.985219, 49, 401, 112, 464
-0.985268, 121, 369, 184, 496
-0.985296, 125, 113, 156, 240
-0.985323, 49, 161, 112, 416
-0.985522, 273, 201, 333, 264
-0.985552, 145, 57, 272, 120
-0.985632, 161, 1, 224, 500
-0.985696, 113, 425, 176, 488
-0.98585, 265, 417, 328, 480
-0.985875, 73, 385, 136, 448
-0.985879, 157, 65, 188, 192
-0.985951, 65, 377, 192, 440
-0.985961, 209, 81, 333, 208
-0.98597, 97, 1, 160, 500
-0.986115, 177, 209, 240, 336
-0.98616, 49, 209, 112, 272
-0.986183, 273, 305, 333, 368
-0.986252, 49, 65, 176, 128
-0.986283, 1, 361, 64, 424
-0.986488, 65, 201, 192, 264
-0.986561, 161, 289, 288, 416
-0.986601, 137, 129, 200, 192
-0.98664, 25, 161, 88, 416
-0.986823, 257, 257, 320, 320
-0.986828, 193, 209, 256, 272
-0.98684, 177, 49, 240, 112
-0.986892, 129, 177, 256, 240
-0.986918, 17, 185, 144, 248
-0.986926, 273, 369, 333, 432
-0.986952, 85, 145, 116, 272
-0.987101, 209, 209, 272, 336
-0.987178, 1, 369, 128, 432
-0.987262, 177, 209, 304, 272
-0.987303, 241, 353, 304, 416
-0.987363, 145, 1, 208, 128
-0.987365, 49, 377, 112, 440
-0.987432, 49, 401, 176, 464
-0.987436, 65, 353, 128, 416
-0.987482, 1, 161, 64, 416
-0.987489, 217, 305, 280, 432
-0.987492, 177, 433, 240, 496
-0.987528, 33, 97, 160, 160
-0.987572, 49, 433, 112, 496
-0.987575, 1, 169, 64, 232
-0.987644, 209, 393, 333, 456
-0.987822, 61, 161, 92, 288
-0.987876, 145, 417, 272, 480
-0.987936, 33, 305, 160, 432
-0.988026, 145, 41, 208, 104
-0.988083, 129, 81, 160, 144
-0.988103, 209, 433, 333, 496
-0.988106, 249, 1, 312, 500
-0.98818, 177, 33, 240, 288
-0.988196, 225, 281, 288, 344
-0.988215, 209, 273, 333, 400
-0.988236, 109, 49, 140, 176
-0.988253, 233, 209, 296, 272
-0.988292, 97, 129, 128, 256
-0.988339, 145, 113, 176, 240
-0.98853, 1, 409, 128, 472
-0.988596, 273, 161, 333, 224
-0.988613, 109, 89, 140, 152
-0.988617, 45, 161, 76, 288
-0.988664, 185, 161, 248, 224
-0.988725, 233, 249, 296, 312
-0.988734, 185, 1, 248, 500
-0.988893, 49, 113, 112, 240
-0.988899, 25, 209, 88, 272
-0.988946, 113, 137, 240, 200
-0.989078, 81, 321, 208, 448
-0.989168, 113, 201, 240, 264
-0.989189, 273, 129, 333, 192
-0.989215, 301, 65, 332, 192
-0.989237, 33, 353, 64, 480
-0.989249, 73, 145, 104, 272
-0.989256, 81, 425, 208, 488
-0.989282, 177, 185, 304, 248
-0.989318, 29, 161, 60, 288
-0.989328, 9, 417, 72, 480
-0.989379, 49, 129, 176, 192
-0.989546, 105, 377, 136, 440
-0.989561, 113, 57, 144, 120
-0.989619, 113, 69, 176, 100
-0.989728, 169, 49, 200, 176
-0.989728, 273, 1, 333, 500
-0.989741, 209, 353, 333, 416
-0.989834, 261, 241, 292, 304
-0.989842, 1, 193, 64, 256
-0.989859, 121, 89, 184, 120
-0.989863, 217, 329, 280, 392
-0.990022, 121, 369, 152, 496
-0.990057, 233, 145, 296, 272
-0.990114, 249, 297, 280, 360
-0.990223, 273, 53, 333, 84
-0.990248, 125, 129, 156, 192
-0.99045, 1, 209, 128, 272
-0.990483, 277, 49, 308, 176
-0.990485, 113, 145, 144, 272
-0.990491, 301, 289, 332, 416
-0.990494, 209, 65, 333, 128
-0.990531, 265, 73, 328, 136
-0.990575, 73, 321, 136, 448
-0.990577, 193, 313, 320, 376
-0.990607, 153, 65, 184, 128
-0.990624, 153, 433, 216, 496
-0.990625, 81, 1, 144, 256
-0.990671, 105, 369, 136, 496
-0.990692, 209, 129, 333, 192
-0.990763, 217, 305, 280, 368
-0.990823, 113, 129, 176, 384
-0.990827, 197, 193, 228, 256
-0.990853, 121, 101, 184, 132
-0.990866, 209, 89, 333, 152
-0.990873, 233, 33, 296, 288
-0.990887, 81, 17, 144, 144
-0.990955, 5, 161, 36, 288
-0.990992, 145, 193, 208, 256
-0.991009, 145, 393, 272, 456
-0.991152, 13, 353, 44, 480
-0.991162, 49, 65, 112, 320
-0.991239, 145, 105, 272, 168
-0.991254, 153, 461, 216, 492
-0.991267, 209, 33, 272, 96
-0.991267, 209, 161, 333, 224
-0.991273, 253, 289, 284, 416
-0.991275, 145, 81, 272, 144
-0.991315, 273, 193, 333, 448
-0.991333, 121, 57, 184, 88
-0.991402, 265, 41, 328, 72
-0.991446, 277, 337, 308, 464
-0.991491, 89, 61, 152, 92
-0.991516, 49, 361, 80, 424
-0.991563, 65, 105, 320, 168
-0.991575, 121, 113, 184, 144
-0.991577, 177, 457, 240, 488
-0.991606, 201, 113, 264, 240
-0.991615, 185, 49, 216, 176
-0.991631, 129, 1, 160, 128
-0.991641, 17, 161, 48, 288
-0.991703, 97, 401, 128, 464
-0.991722, 273, 65, 333, 96
-0.991726, 233, 449, 296, 480
-0.991752, 185, 81, 248, 144
-0.991807, 145, 69, 208, 100
-0.991838, 113, 125, 176, 156
-0.991842, 121, 377, 152, 440
-0.991877, 89, 121, 152, 152
-0.991929, 257, 281, 320, 312
-0.991932, 249, 305, 312, 336
-0.991955, 193, 233, 320, 296
-0.991958, 81, 81, 144, 112
-0.991963, 265, 237, 328, 268
-0.99198, 25, 1, 88, 500
-0.992021, 81, 41, 144, 104
-0.992026, 89, 109, 152, 140
-0.992027, 209, 289, 333, 352
-0.992033, 25, 369, 88, 400
-0.992044, 121, 457, 184, 488
-0.992067, 81, 201, 144, 232
-0.992074, 193, 209, 256, 240
-0.992079, 169, 213, 232, 244
-0.992081, 65, 209, 96, 336
-0.99209, 113, 121, 144, 184
-0.992093, 273, 313, 304, 376
-0.992112, 121, 61, 152, 92
-0.992132, 97, 41, 224, 104
-0.992133, 105, 169, 168, 200
-0.992136, 89, 93, 152, 124
-0.992163, 289, 25, 320, 88
-0.992169, 97, 389, 160, 420
-0.992182, 293, 45, 324, 76
-0.992186, 141, 169, 172, 232
-0.992206, 81, 153, 144, 184
-0.992216, 97, 405, 160, 436
-0.992224, 241, 317, 304, 348
-0.992238, 145, 449, 208, 480
-0.992241, 81, 189, 144, 220
-0.992253, 25, 393, 88, 456
-0.992284, 241, 41, 304, 104
-0.99229, 301, 129, 332, 256
-0.992315, 57, 421, 120, 452
-0.992322, 165, 65, 196, 128
-0.992324, 49, 353, 176, 416
-0.99237, 245, 321, 276, 384
-0.992371, 241, 357, 304, 388
-0.992381, 125, 73, 156, 104
-0.992385, 97, 401, 224, 464
-0.99239, 105, 157, 168, 188
-0.992392, 113, 445, 176, 476
-0.992397, 121, 137, 184, 168
-0.992401, 161, 361, 288, 424
-0.992403, 273, 365, 333, 396
-0.992406, 217, 209, 280, 240
-0.992408, 137, 181, 200, 212
-0.992432, 73, 409, 136, 440
-0.992445, 145, 145, 176, 208
-0.992459, 217, 461, 280, 492
-0.992467, 73, 1, 136, 500
-0.992473, 257, 293, 320, 324
-0.992481, 265, 253, 328, 284
-0.992484, 233, 425, 296, 456
-0.992505, 73, 433, 136, 464
-0.992507, 89, 133, 152, 164
-0.992522, 41, 201, 104, 232
-0.992525, 233, 437, 296, 468
-0.992549, 1, 137, 128, 200
-0.992552, 133, 425, 164, 488
-0.99257, 241, 369, 304, 400
-0.992581, 73, 453, 136, 484
-0.992591, 177, 469, 240, 500
-0.992596, 285, 289, 316, 416
-0.992613, 65, 73, 320, 136
-0.992621, 213, 201, 244, 264
-0.992632, 57, 397, 120, 428
-0.99265, 105, 433, 168, 464
-0.992652, 169, 201, 232, 232
-0.992655, 137, 161, 200, 192
-0.992663, 257, 437, 320, 468
-0.99267, 185, 445, 248, 476
-0.99267, 257, 393, 320, 456
-0.992675, 241, 345, 304, 376
-0.992679, 273, 345, 304, 408
-0.992686, 233, 413, 296, 444
-0.992703, 273, 193, 333, 224
-0.992703, 1, 209, 64, 240
-0.992704, 141, 17, 172, 144
-0.992709, 129, 197, 192, 228
-0.992721, 49, 213, 112, 244
-0.992729, 89, 421, 152, 452
-0.99273, 193, 225, 256, 256
-0.992734, 65, 377, 128, 408
-0.992734, 73, 169, 136, 200
-0.992751, 273, 349, 333, 380
-0.992765, 1, 369, 64, 400
-0.992768, 293, 57, 324, 88
-0.992785, 265, 265, 328, 296
-0.99279, 113, 369, 240, 432
-0.992808, 53, 353, 84, 480
-0.99282, 197, 33, 228, 160
-0.992829, 65, 145, 320, 208
-0.992843, 161, 89, 224, 120
-0.992847, 161, 289, 288, 352
-0.99286, 193, 17, 320, 80
-0.992869, 33, 413, 96, 444
-0.99288, 33, 433, 96, 464
-0.99288, 169, 457, 200, 488
-0.99289, 141, 57, 172, 120
-0.992895, 273, 305, 333, 336
-0.992911, 265, 93, 328, 124
-0.992912, 241, 353, 272, 480
-0.992916, 265, 317, 328, 348
-0.99292, 193, 409, 256, 472
-0.992921, 273, 453, 333, 484
-0.992921, 153, 101, 216, 132
-0.992924, 121, 377, 184, 440
-0.992932, 1, 449, 64, 480
-0.992953, 25, 217, 88, 248
-0.992955, 33, 445, 96, 476
-0.992958, 273, 421, 333, 452
-0.992958, 73, 209, 136, 272
-0.992958, 241, 217, 304, 248
-0.992978, 265, 77, 328, 108
-0.992986, 249, 329, 312, 360
-0.992997, 145, 149, 208, 180
-0.993, 77, 193, 108, 320
-0.993004, 25, 381, 88, 412
-0.993025, 233, 265, 296, 296
-0.993028, 105, 181, 168, 212
-0.993031, 257, 273, 288, 336
-0.993033, 153, 113, 216, 144
-0.993035, 209, 197, 272, 228
-0.993056, 233, 401, 296, 432
-0.993064, 117, 433, 148, 496
-0.993067, 97, 457, 160, 488
-0.993074, 197, 209, 228, 240
-0.993087, 301, 353, 332, 480
-0.993103, 129, 85, 160, 116
-0.993104, 157, 457, 188, 488
-0.993113, 193, 257, 320, 320
-0.993127, 181, 461, 212, 492
-0.993127, 121, 421, 184, 452
-0.993132, 109, 105, 140, 136
-0.993134, 257, 241, 288, 368
-0.993135, 73, 213, 136, 244
-0.993142, 233, 285, 296, 316
-0.993144, 137, 437, 200, 468
-0.993147, 265, 173, 328, 204
-0.99315, 161, 189, 224, 220
-0.993152, 201, 217, 232, 280
-0.993155, 145, 125, 208, 156
-0.993156, 233, 385, 296, 416
-0.993156, 289, 113, 320, 240
-0.993158, 49, 173, 112, 204
-0.993167, 127, 57, 142, 120
-0.993171, 1, 465, 64, 496
-0.993174, 273, 381, 333, 412
-0.993174, 257, 121, 320, 152
-0.993177, 1, 393, 64, 456
-0.993195, 33, 401, 96, 432
-0.993204, 273, 329, 333, 360
-0.993214, 161, 57, 224, 88
-0.993216, 281, 53, 312, 84
-0.993217, 105, 73, 136, 104
-0.993217, 269, 241, 300, 368
-0.993223, 225, 297, 288, 328
-0.993224, 217, 133, 280, 164
-0.993231, 33, 461, 96, 492
-0.993234, 257, 385, 288, 448
-0.993236, 265, 417, 296, 480
-0.993238, 265, 225, 328, 256
-0.993245, 145, 69, 176, 100
-0.993252, 185, 185, 248, 216
-0.993255, 217, 361, 280, 424
-0.993256, 161, 145, 288, 208
-0.99326, 9, 429, 72, 460
-0.993264, 109, 93, 140, 124
-0.993264, 97, 377, 160, 408
-0.993277, 1, 197, 64, 228
-0.993279, 169, 445, 200, 476
-0.993283, 273, 393, 333, 424
-0.993285, 145, 137, 208, 168
-0.993292, 137, 57, 168, 88
-0.993294, 57, 157, 120, 188
-0.993295, 125, 201, 156, 232
-0.993313, 281, 49, 312, 112
-0.993316, 161, 169, 224, 232
-0.993328, 169, 225, 232, 256
-0.99333, 225, 233, 288, 264
-0.993332, 57, 393, 88, 456
-0.993334, 105, 393, 136, 424
-0.993335, 241, 465, 304, 496
-0.993336, 185, 145, 248, 176
-0.993337, 49, 185, 112, 216
-0.993341, 201, 433, 264, 496
-0.993346, 9, 361, 40, 424
-0.993346, 265, 241, 296, 272
-0.993347, 9, 369, 40, 400
-0.993353, 141, 85, 172, 116
-0.993354, 213, 217, 244, 248
-0.993355, 145, 181, 176, 212
-0.993356, 241, 45, 304, 76
-0.993357, 105, 201, 168, 232
-0.993358, 303, 41, 318, 104
-0.99336, 273, 209, 333, 240
-0.993362, 273, 465, 333, 496
-0.993365, 225, 81, 288, 208
-0.993368, 141, 465, 172, 496
-0.993369, 249, 225, 312, 480
-0.993371, 217, 193, 280, 448
-0.993381, 97, 409, 128, 440
-0.993389, 121, 125, 152, 156
-0.993395, 169, 113, 232, 240
-0.993395, 157, 433, 188, 496
-0.993395, 141, 445, 172, 476
-0.993396, 109, 57, 140, 88
-0.993398, 293, 69, 324, 100
-0.993404, 113, 381, 144, 412
-0.993405, 209, 465, 240, 496
-0.99341, 281, 277, 312, 308
-0.993413, 253, 297, 284, 328
-0.993415, 245, 329, 276, 360
-0.993416, 225, 457, 256, 488
-0.993423, 181, 449, 212, 480
-0.993425, 201, 221, 232, 252
-0.993429, 301, 297, 332, 328
-0.993433, 125, 409, 156, 440
-0.993435, 249, 309, 280, 340
-0.993442, 257, 253, 288, 284
-0.993443, 109, 433, 140, 464
-0.993444, 181, 197, 212, 228
-0.993445, 137, 193, 168, 224
-0.993448, 77, 401, 108, 432
-0.993454, 277, 349, 308, 380
-0.993455, 233, 169, 296, 232
-0.993461, 105, 457, 136, 488
-0.993463, 157, 445, 188, 476
-0.99348, 121, 401, 184, 464
-0.993482, 157, 117, 188, 148
-0.993487, 109, 117, 140, 148
-0.993488, 209, 1, 272, 256
-0.993489, 241, 437, 272, 468
-0.993489, 261, 281, 292, 312
-0.99349, 157, 77, 188, 108
-0.99349, 185, 221, 216, 252
-0.993493, 197, 197, 228, 228
-0.993493, 129, 449, 160, 480
-0.993494, 125, 97, 156, 128
-0.993505, 121, 437, 152, 468
-0.993508, 25, 369, 56, 400
-0.99351, 133, 113, 164, 144
-0.993516, 77, 417, 108, 448
-0.993516, 125, 397, 156, 428
-0.993517, 301, 281, 332, 312
-0.993519, 53, 373, 84, 404
-0.993522, 281, 293, 312, 324
-0.993522, 161, 469, 192, 500
-0.993524, 141, 369, 172, 496
-0.993527, 1, 177, 256, 240
-0.993528, 129, 225, 256, 288
-0.993531, 129, 461, 160, 492
-0.993534, 49, 1, 112, 500
-0.993535, 129, 425, 160, 456
-0.993541, 129, 141, 160, 172
-0.993541, 65, 217, 96, 248
-0.993542, 237, 413, 268, 444
-0.993545, 209, 205, 240, 236
-0.993551, 281, 33, 312, 64
-0.993554, 129, 165, 160, 196
-0.993557, 61, 413, 92, 444
-0.993558, 121, 109, 152, 140
-0.993559, 253, 229, 284, 260
-0.993559, 277, 281, 308, 344
-0.99356, 141, 97, 172, 128
-0.993562, 277, 229, 308, 260
-0.993562, 89, 433, 120, 464
-0.993566, 285, 445, 316, 476
-0.993567, 161, 101, 192, 132
-0.993569, 153, 129, 184, 160
-0.993571, 93, 421, 124, 452
-0.993572, 9, 65, 72, 320
-0.993573, 37, 369, 68, 400
-0.993576, 205, 125, 236, 156
-0.993579, 149, 153, 180, 184
-0.993581, 173, 181, 204, 212
-0.993581, 197, 469, 228, 500
-0.993582, 301, 373, 332, 404
-0.993583, 93, 449, 124, 480
-0.993584, 125, 377, 156, 408
-0.993589, 301, 165, 332, 196
-0.993593, 141, 389, 172, 420
-0.993595, 165, 89, 196, 120
-0.993596, 85, 205, 116, 236
-0.9936, 261, 377, 292, 408
-0.993603, 177, 209, 208, 240
-0.993603, 261, 265, 292, 296
-0.993605, 57, 385, 88, 416
-0.993607, 221, 205, 252, 236
-0.993607, 241, 425, 272, 456
-0.993611, 57, 457, 88, 488
-0.993612, 265, 365, 296, 396
-0.993613, 161, 189, 192, 220
-0.993613, 109, 469, 140, 500
-0.993615, 209, 93, 240, 124
-0.993616, 133, 129, 164, 160
-0.993617, 109, 417, 140, 448
-0.993617, 189, 97, 220, 128
-0.993624, 41, 461, 72, 492
-0.993624, 201, 161, 232, 288
-0.993625, 193, 457, 224, 488
-0.993629, 69, 205, 100, 236
-0.99363, 241, 389, 272, 420
-0.99363, 77, 429, 108, 460
-0.993638, 233, 197, 264, 228
-0.993639, 301, 357, 332, 388
-0.99364, 281, 321, 312, 352
-0.993641, 281, 65, 312, 96
-0.993641, 185, 57, 216, 88
-0.993641, 193, 81, 224, 112
-0.993645, 117, 453, 148, 484
-0.993645, 265, 425, 296, 456
-0.993646, 89, 193, 120, 224
-0.993647, 89, 461, 120, 492
-0.993652, 217, 129, 248, 160
-0.993653, 145, 169, 176, 200
-0.993655, 89, 177, 120, 208
-0.993658, 45, 209, 76, 336
-0.993658, 285, 97, 316, 128
-0.99366, 285, 85, 316, 116
-0.993665, 121, 153, 152, 216
-0.993665, 241, 401, 272, 464
-0.993687, 177, 137, 240, 200
-0.993698, 85, 145, 116, 208
-0.993731, 1, 353, 32, 480
-0.993796, 185, 49, 216, 112
-0.99381, 213, 145, 244, 272
-0.993852, 125, 401, 156, 464
-0.993913, 97, 321, 160, 448
-0.993954, 33, 433, 160, 496
-0.993984, 177, 433, 208, 496
-0.994055, 157, 97, 188, 160
-0.994111, 241, 289, 272, 416
-0.994121, 193, 369, 256, 496
-0.994145, 145, 161, 176, 288
-0.99416, 157, 113, 188, 240
-0.99421, 153, 121, 184, 184
-0.994215, 85, 193, 116, 256
-0.994262, 1, 1, 64, 500
-0.994296, 33, 41, 160, 104
-0.994318, 181, 185, 212, 248
-0.994328, 169, 225, 232, 288
-0.994335, 289, 337, 320, 464
-0.994358, 265, 97, 328, 160
-0.994376, 69, 169, 100, 232
-0.994384, 129, 161, 160, 288
-0.994391, 217, 369, 280, 496
-0.994413, 261, 313, 292, 376
-0.994419, 73, 209, 136, 336
-0.994593, 5, 161, 36, 224
-0.994637, 105, 185, 168, 248
-0.994658, 233, 425, 264, 488
-0.99466, 225, 161, 256, 288
-0.994692, 137, 321, 200, 448
-0.994715, 237, 193, 268, 320
-0.994716, 257, 361, 288, 424
-0.994739, 29, 361, 60, 424
-0.994739, 189, 177, 220, 304
-0.994814, 221, 33, 252, 160
-0.994844, 301, 137, 332, 200
-0.994852, 129, 105, 160, 168
-0.994876, 97, 85, 224, 116
-0.994891, 97, 69, 224, 100
-0.994921, 301, 25, 332, 88
-0.994985, 153, 17, 184, 144
-0.994989, 209, 33, 240, 160
-0.995021, 121, 25, 184, 88
-0.995083, 97, 97, 224, 128
-0.995093, 93, 369, 124, 496
-0.995124, 201, 209, 232, 336
-0.99516, 161, 337, 288, 400
-0.995215, 221, 177, 252, 240
-0.995227, 65, 417, 320, 480
-0.99523, 93, 169, 124, 232
-0.995258, 217, 113, 280, 176
-0.995276, 177, 113, 240, 176
-0.99531, 25, 305, 88, 432
-0.995313, 65, 49, 320, 112
-0.995316, 97, 361, 160, 424
-0.995332, 125, 33, 156, 288
-0.995361, 301, 161, 332, 224
-0.995366, 1, 113, 64, 240
-0.995399, 249, 193, 280, 320
-0.9954, 69, 401, 100, 464
-0.995401, 25, 113, 88, 240
-0.995412, 261, 337, 292, 464
-0.995474, 101, 137, 132, 200
-0.995487, 113, 209, 240, 336
-0.995493, 185, 209, 216, 272
-0.995524, 105, 433, 136, 496
-0.995555, 85, 409, 116, 472
-0.995559, 73, 193, 136, 448
-0.995587, 113, 109, 240, 140
-0.995601, 113, 409, 144, 472
-0.995613, 157, 161, 188, 288
-0.995627, 245, 345, 276, 408
-0.995637, 65, 209, 320, 272
-0.995638, 73, 65, 136, 128
-0.995698, 297, 41, 312, 104
-0.995742, 285, 345, 316, 408
-0.995748, 209, 97, 272, 352
-0.995756, 1, 105, 333, 168
-0.99583, 237, 369, 268, 432
-0.995866, 249, 249, 280, 312
-0.995866, 277, 409, 308, 472
-0.995902, 145, 33, 272, 96
-0.995916, 1, 385, 256, 448
-0.995923, 1, 177, 333, 240
-0.995925, 1, 129, 333, 192
-0.995946, 1, 345, 128, 408
-0.995953, 257, 209, 288, 272
-0.995957, 197, 41, 228, 104
-0.995964, 61, 217, 92, 280
-0.995975, 153, 129, 216, 384
-0.995993, 73, 209, 104, 272
-0.99602, 133, 65, 148, 128
-0.996048, 285, 433, 316, 496
-0.996065, 17, 169, 48, 232
-0.99607, 145, 313, 272, 376
-0.996086, 121, 353, 184, 416
-0.99609, 209, 81, 272, 144
-0.996139, 269, 289, 300, 416
-0.996299, 109, 161, 140, 224
-0.996315, 225, 145, 288, 208
-0.996319, 65, 205, 192, 236
-0.99633, 81, 189, 208, 220
-0.996336, 201, 169, 232, 232
-0.996354, 97, 461, 224, 492
-0.996361, 241, 33, 272, 160
-0.996366, 33, 209, 64, 336
-0.996407, 1, 197, 128, 228
-0.996458, 1, 337, 64, 400
-0.996485, 81, 173, 208, 204
-0.996498, 49, 209, 80, 272
-0.996521, 125, 97, 140, 160
-0.996526, 49, 65, 176, 96
-0.996543, 141, 121, 172, 184
-0.996545, 65, 161, 192, 192
-0.996577, 165, 169, 196, 232
-0.996617, 1, 305, 64, 432
-0.996618, 251, 305, 266, 368
-0.99668, 1, 417, 333, 480
-0.996682, 97, 57, 224, 88
-0.996697, 169, 129, 200, 256
-0.996701, 127, 61, 142, 92
-0.996704, 273, 233, 304, 296
-0.996705, 49, 405, 176, 436
-0.996759, 49, 417, 80, 480
-0.996759, 201, 201, 216, 264
-0.996767, 301, 17, 332, 144
-0.99678, 125, 185, 156, 248
-0.996789, 125, 33, 156, 96
-0.996792, 145, 385, 176, 448
-0.996797, 33, 101, 160, 132
-0.996805, 237, 129, 268, 256
-0.996807, 293, 33, 324, 288
-0.996812, 121, 73, 136, 136
-0.996814, 97, 17, 224, 80
-0.996823, 309, 41, 324, 104
-0.996846, 303, 45, 318, 76
-0.996847, 25, 337, 88, 400
-0.996854, 139, 73, 154, 136
-0.996914, 113, 121, 240, 152
-0.996927, 273, 281, 333, 344
-0.99693, 177, 465, 304, 496
-0.996933, 281, 81, 312, 144
-0.99695, 233, 313, 264, 376
-0.996991, 133, 377, 164, 440
-0.996997, 129, 201, 256, 232
-0.997026, 303, 17, 318, 80
-0.997032, 209, 45, 333, 76
-0.997058, 293, 409, 324, 472
-0.997063, 153, 73, 168, 136
-0.997068, 177, 213, 304, 244
-0.997099, 37, 169, 68, 232
-0.997117, 33, 345, 288, 408
-0.997149, 33, 201, 64, 264
-0.997173, 145, 65, 160, 128
-0.997174, 49, 393, 176, 424
-0.997177, 145, 265, 272, 328
-0.997192, 95, 409, 110, 472
-0.997192, 77, 377, 108, 440
-0.997204, 209, 257, 272, 384
-0.997205, 1, 369, 333, 432
-0.997209, 289, 129, 320, 192
-0.997221, 221, 425, 252, 488
-0.997222, 33, 89, 160, 120
-0.997223, 289, 321, 320, 384
-0.997225, 81, 137, 208, 168
-0.997246, 201, 137, 264, 200
-0.997247, 265, 249, 280, 312
-0.997256, 159, 65, 174, 128
-0.997257, 1, 153, 333, 216
-0.997261, 17, 417, 144, 448
-0.997272, 1, 185, 128, 216
-0.997272, 1, 393, 333, 456
-0.997301, 207, 193, 222, 256
-0.997302, 37, 409, 68, 472
-0.997308, 49, 381, 176, 412
-0.997319, 277, 25, 308, 88
-0.997325, 177, 225, 304, 256
-0.997332, 33, 113, 160, 144
-0.997362, 1, 81, 333, 144
-0.997388, 209, 445, 333, 476
-0.997391, 229, 369, 260, 496
-0.997418, 211, 217, 226, 280
-0.997421, 177, 1, 240, 128
-0.997431, 81, 149, 208, 180
-0.997442, 271, 233, 286, 296
-0.997445, 17, 165, 144, 196
-0.997474, 61, 193, 92, 256
-0.997489, 269, 193, 300, 320
-0.997518, 159, 97, 174, 160
-0.997522, 145, 97, 272, 128
-0.99753, 81, 169, 112, 232
-0.997541, 259, 289, 274, 352
-0.997548, 149, 65, 180, 320
-0.997555, 305, 65, 320, 128
-0.997559, 1, 397, 128, 428
-0.997561, 97, 113, 128, 176
-0.997578, 125, 433, 140, 496
-0.997579, 113, 33, 144, 288
-0.997583, 271, 377, 286, 440
-0.997584, 117, 417, 132, 480
-0.997593, 85, 129, 116, 384
-0.997604, 285, 385, 316, 448
-0.997611, 65, 441, 192, 472
-0.997636, 287, 313, 302, 376
-0.997646, 177, 169, 192, 232
-0.997651, 151, 137, 166, 200
-0.997652, 293, 297, 324, 360
-0.997653, 137, 33, 168, 288
-0.997658, 29, 361, 44, 424
-0.997682, 249, 129, 312, 384
-0.997689, 33, 77, 160, 108
-0.997702, 145, 77, 272, 108
-0.997704, 217, 97, 248, 160
-0.997714, 209, 297, 333, 328
-0.997718, 301, 105, 332, 168
-0.997723, 65, 125, 192, 156
-0.997725, 17, 453, 144, 484
-0.997725, 145, 453, 272, 484
-0.997742, 103, 393, 118, 456
-0.997747, 209, 189, 333, 220
-0.997749, 209, 85, 333, 116
-0.997753, 49, 225, 176, 288
-0.997754, 125, 377, 140, 440
-0.997766, 209, 313, 333, 344
-0.997772, 217, 57, 280, 120
-0.997775, 65, 289, 320, 352
-0.997776, 127, 121, 142, 184
-0.997782, 283, 281, 298, 344
-0.997793, 137, 385, 152, 448
-0.997798, 137, 193, 152, 256
-0.997801, 97, 385, 224, 416
-0.997807, 179, 433, 194, 496
-0.997818, 139, 41, 154, 104
-0.997827, 103, 417, 118, 480
-0.997833, 65, 297, 192, 360
-0.997835, 165, 57, 180, 120
-0.997846, 147, 433, 162, 496
-0.997846, 145, 409, 208, 472
-0.997851, 313, 153, 328, 216
-0.997851, 131, 433, 146, 496
-0.997855, 67, 369, 82, 432
-0.997863, 153, 369, 184, 496
-0.997864, 269, 353, 284, 416
-0.997869, 209, 417, 333, 448
-0.997877, 209, 369, 333, 400
-0.997881, 297, 49, 312, 80
-0.997884, 185, 161, 216, 224
-0.997885, 273, 417, 288, 480
-0.997888, 269, 385, 300, 448
-0.99789, 111, 425, 126, 488
-0.997896, 129, 189, 256, 220
-0.997905, 49, 465, 176, 496
-0.997914, 127, 33, 142, 96
-0.997925, 279, 353, 294, 416
-0.997927, 185, 57, 200, 120
-0.997928, 185, 433, 200, 496
-0.997931, 119, 137, 134, 200
-0.997932, 145, 409, 176, 472
-0.997938, 1, 193, 32, 256
-0.99794, 265, 49, 296, 176
-0.997941, 1, 385, 128, 416
-0.997941, 151, 49, 166, 112
-0.997943, 101, 177, 132, 304
-0.997948, 245, 433, 276, 496
-0.997957, 145, 369, 208, 432
-0.997957, 129, 397, 256, 428
-0.99796, 97, 345, 224, 408
-0.997966, 1, 217, 128, 248
-0.99797, 109, 385, 124, 448
-0.99798, 1, 201, 333, 264
-0.997981, 245, 217, 276, 280
-0.997983, 209, 397, 333, 428
-0.997985, 291, 49, 306, 112
-0.997996, 125, 409, 140, 472
-0.998003, 143, 169, 158, 232
-0.998007, 209, 381, 333, 412
-0.998013, 269, 209, 300, 272
-0.998019, 213, 193, 244, 320
-0.998025, 161, 33, 192, 288
-0.998028, 133, 121, 148, 184
-0.998031, 287, 345, 302, 408
-0.998048, 65, 233, 320, 296
-0.99805, 129, 173, 256, 204
-0.998052, 89, 177, 104, 240
-0.998066, 229, 321, 260, 448
-0.998073, 157, 433, 172, 496
-0.998077, 301, 201, 332, 264
-0.998078, 301, 129, 332, 384
-0.99808, 269, 209, 284, 272
-0.99808, 317, 385, 332, 448
-0.998084, 81, 417, 208, 448
-0.998095, 245, 313, 260, 376
-0.998103, 113, 209, 176, 272
-0.998113, 285, 393, 300, 456
-0.998116, 259, 257, 274, 320
-0.998118, 289, 273, 320, 336
-0.998119, 279, 425, 294, 488
-0.998121, 181, 449, 196, 480
-0.998121, 209, 57, 333, 88
-0.998121, 297, 17, 312, 80
-0.998122, 65, 257, 320, 320
-0.998123, 229, 289, 260, 352
-0.998125, 143, 409, 158, 472
-0.998128, 55, 361, 70, 424
-0.998131, 179, 57, 194, 120
-0.998132, 117, 377, 132, 440
-0.998133, 277, 257, 308, 320
-0.998138, 49, 429, 176, 460
-0.998155, 293, 265, 308, 328
-0.998156, 133, 65, 148, 96
-0.998159, 17, 369, 144, 400
-0.998165, 281, 313, 296, 376
-0.998169, 177, 145, 192, 208
-0.998173, 219, 177, 234, 240
-0.998179, 97, 97, 128, 352
-0.998183, 3, 161, 18, 224
-0.998183, 189, 113, 220, 240
-0.998186, 249, 121, 312, 184
-0.998191, 13, 161, 28, 224
-0.998192, 17, 153, 144, 184
-0.998195, 209, 433, 333, 464
-0.998195, 261, 337, 292, 400
-0.998196, 129, 417, 256, 448
-0.998207, 157, 121, 172, 184
-0.99821, 177, 201, 304, 232
-0.998212, 133, 33, 148, 96
-0.998218, 193, 125, 320, 156
-0.998219, 61, 361, 76, 424
-0.998223, 65, 217, 192, 248
-0.998225, 95, 433, 110, 496
-0.998226, 43, 361, 58, 424
-0.998227, 201, 225, 216, 288
-0.998227, 313, 17, 328, 80
-0.998231, 209, 105, 333, 136
-0.998235, 279, 393, 294, 456
-0.998235, 69, 161, 100, 416
-0.998235, 193, 361, 256, 424
-0.998242, 129, 217, 256, 248
-0.998243, 307, 409, 322, 472
-0.998246, 93, 145, 108, 208
-0.998246, 75, 177, 90, 240
-0.998247, 299, 65, 314, 128
-0.998249, 263, 209, 278, 272
-0.99825, 65, 209, 80, 272
-0.998253, 133, 131, 164, 146
-0.998253, 161, 115, 192, 130
-0.998254, 293, 321, 308, 384
-0.998254, 33, 137, 160, 168
-0.998255, 137, 33, 168, 96
-0.998255, 261, 269, 292, 284
-0.998256, 145, 453, 176, 468
-0.998256, 61, 421, 92, 436
-0.998256, 131, 377, 146, 440
-0.998256, 173, 185, 204, 200
-0.998256, 73, 449, 104, 464
-0.998257, 281, 49, 312, 64
-0.998257, 177, 195, 208, 210
-0.998257, 165, 477, 196, 492
-0.998257, 301, 385, 332, 400
-0.998259, 149, 169, 164, 232
-0.998259, 129, 121, 160, 136
-0.99826, 1, 171, 32, 186
-0.99826, 181, 221, 212, 236
-0.99826, 261, 295, 292, 310
-0.998262, 265, 289, 296, 304
-0.998262, 101, 413, 132, 428
-0.998262, 181, 453, 212, 468
-0.998262, 253, 305, 284, 320
-0.998262, 185, 203, 216, 218
-0.998263, 133, 467, 164, 482
-0.998263, 105, 463, 136, 478
-0.998263, 301, 393, 332, 408
-0.998264, 121, 135, 152, 150
-0.998264, 281, 283, 312, 298
-0.998264, 241, 427, 272, 442
-0.998265, 181, 95, 212, 110
-0.998265, 105, 455, 136, 470
-0.998265, 29, 161, 60, 416
-0.998265, 245, 441, 276, 456
-0.998265, 293, 293, 324, 308
-0.998266, 277, 359, 308, 374
-0.998266, 193, 467, 224, 482
-0.998267, 77, 421, 108, 436
-0.998267, 145, 175, 176, 190
-0.998267, 201, 205, 232, 220
-0.998267, 187, 145, 202, 208
-0.998269, 89, 435, 120, 450
-0.99827, 105, 401, 136, 416
-0.998271, 137, 85, 168, 100
-0.998271, 129, 111, 160, 126
-0.998272, 157, 453, 188, 468
-0.998272, 125, 435, 156, 450
-0.998272, 189, 481, 220, 496
-0.998273, 113, 389, 144, 404
-0.998273, 77, 429, 108, 444
-0.998273, 281, 41, 312, 56
-0.998274, 201, 227, 232, 242
-0.998274, 149, 81, 180, 96
-0.998274, 233, 457, 264, 472
-0.998274, 53, 383, 84, 398
-0.998275, 217, 209, 248, 224
-0.998275, 77, 413, 108, 428
-0.998275, 239, 425, 254, 488
-0.998275, 121, 129, 152, 144
-0.998275, 245, 331, 276, 346
-0.998276, 241, 433, 272, 448
-0.998276, 65, 215, 96, 230
-0.998276, 301, 373, 332, 388
-0.998277, 189, 227, 220, 242
-0.998277, 83, 193, 98, 256
-0.998278, 117, 459, 148, 474
-0.998278, 265, 247, 296, 262
-0.998278, 249, 311, 280, 326
-0.998278, 133, 139, 164, 154
-0.99828, 117, 383, 148, 398
-0.998281, 245, 325, 276, 340
-0.998282, 209, 471, 240, 486
-0.998283, 137, 439, 168, 454
-0.998285, 165, 103, 196, 118
-0.998285, 125, 449, 156, 464
-0.998285, 5, 371, 36, 386
-0.998285, 133, 147, 164, 162
-0.998285, 129, 457, 160, 472
-0.998285, 57, 413, 88, 428
-0.998286, 249, 317, 280, 332
-0.998286, 317, 345, 332, 408
-0.998287, 245, 343, 276, 358
-0.998287, 93, 421, 124, 436
-0.998287, 129, 409, 160, 424
-0.998287, 257, 263, 288, 278
-0.998287, 113, 123, 144, 138
-0.998288, 177, 477, 208, 492
-0.998288, 113, 437, 144, 452
-0.998291, 245, 337, 276, 352
-0.998292, 193, 49, 208, 112
-0.998292, 281, 61, 312, 76
-0.998292, 241, 385, 256, 448
-0.998292, 125, 105, 156, 120
-0.998293, 19, 361, 34, 424
-0.998293, 181, 459, 212, 474
-0.998296, 133, 61, 164, 76
-0.998296, 125, 429, 156, 444
-0.998296, 139, 73, 154, 104
-0.998297, 293, 41, 324, 56
-0.998299, 201, 95, 232, 110
-0.9983, 75, 217, 90, 280
-0.998302, 221, 465, 252, 480
-0.998302, 161, 471, 192, 486
-0.998303, 181, 471, 212, 486
-0.998303, 145, 185, 176, 200
-0.998303, 269, 241, 300, 256
-0.998305, 109, 431, 140, 446
-0.998308, 77, 353, 108, 480
-0.998314, 113, 145, 128, 208
-0.998316, 217, 215, 248, 230
-0.998318, 161, 301, 288, 332
-0.998319, 297, 299, 328, 314
-0.99832, 265, 253, 296, 268
-0.998321, 145, 61, 272, 92
-0.998323, 277, 55, 308, 70
-0.998323, 109, 115, 140, 130
-0.998323, 285, 425, 300, 488
-0.998325, 295, 345, 310, 408
-0.998326, 71, 393, 86, 456
-0.998326, 125, 99, 156, 114
-0.998326, 169, 177, 184, 240
-0.998328, 213, 221, 244, 236
-0.998329, 233, 417, 248, 480
-0.99833, 293, 71, 324, 86
-0.998331, 105, 85, 136, 100
-0.998331, 109, 95, 140, 110
-0.998334, 89, 433, 120, 496
-0.998334, 133, 203, 164, 218
-0.998335, 171, 457, 186, 488
-0.998335, 253, 33, 284, 160
-0.998336, 145, 461, 176, 476
-0.998338, 105, 79, 136, 94
-0.998339, 137, 67, 168, 82
-0.99834, 121, 93, 136, 124
-0.998341, 209, 69, 333, 100
-0.998344, 41, 161, 72, 416
-0.998347, 105, 69, 136, 84
-0.998347, 125, 93, 156, 108
-0.998349, 307, 361, 322, 424
-0.998351, 145, 75, 176, 90
-0.998352, 129, 157, 256, 188
-0.998352, 161, 453, 176, 484
-0.998352, 25, 425, 56, 488
-0.998355, 109, 101, 140, 116
-0.998356, 197, 221, 228, 236
-0.998357, 145, 81, 160, 112
-0.998358, 109, 61, 140, 76
-0.99836, 209, 165, 333, 196
-0.998361, 197, 211, 228, 226
-0.998362, 109, 109, 140, 124
-0.998362, 135, 201, 150, 232
-0.998371, 185, 461, 200, 492
-0.998371, 305, 61, 320, 92
-0.998372, 121, 209, 152, 224
-0.998379, 137, 417, 152, 480
-0.998383, 295, 385, 310, 448
-0.998383, 209, 41, 240, 104
-0.998386, 277, 217, 292, 280
-0.99839, 157, 459, 188, 474
-0.998391, 169, 453, 200, 468
-0.998394, 123, 105, 138, 136
-0.998396, 145, 433, 176, 496
-0.998398, 167, 81, 182, 144
-0.998403, 177, 465, 208, 480
-0.998405, 49, 361, 64, 424
-0.998405, 165, 465, 196, 480
-0.998405, 189, 185, 204, 248
-0.998408, 37, 361, 52, 424
-0.99841, 125, 85, 156, 100
-0.998413, 145, 133, 272, 164
-0.998414, 247, 337, 262, 400
-0.998422, 253, 281, 268, 344
-0.998426, 213, 193, 228, 256
-0.998429, 25, 169, 40, 232
-0.998436, 263, 353, 278, 416
-0.998437, 1, 337, 333, 400
-0.998449, 269, 241, 284, 272
-0.998449, 169, 459, 200, 474
-0.99845, 317, 129, 332, 192
-0.998456, 293, 65, 324, 80
-0.998457, 97, 177, 112, 240
-0.998458, 301, 361, 332, 424
-0.998459, 265, 273, 280, 336
-0.99846, 13, 193, 44, 256
-0.998464, 145, 433, 272, 464
-0.998468, 261, 377, 276, 440
-0.998469, 207, 41, 222, 104
-0.998469, 113, 69, 176, 84
-0.998473, 113, 77, 176, 92
-0.998475, 103, 169, 118, 232
-0.998484, 39, 201, 54, 264
-0.99849, 313, 53, 328, 84
-0.998491, 307, 161, 322, 224
-0.998491, 145, 41, 160, 104
-0.998494, 203, 213, 218, 244
-0.998496, 153, 185, 184, 248
-0.998497, 121, 61, 152, 76
-0.998506, 273, 53, 333, 68
-0.998515, 177, 237, 304, 268
-0.998523, 121, 99, 184, 114
-0.998527, 293, 59, 324, 74
-0.998544, 121, 93, 184, 108
-0.998545, 119, 81, 134, 112
-0.998547, 99, 409, 114, 440
-0.998548, 191, 461, 206, 492
-0.99855, 255, 297, 270, 328
-0.99855, 273, 59, 333, 74
-0.998551, 125, 79, 156, 94
-0.998552, 113, 83, 176, 98
-0.998552, 113, 63, 176, 78
-0.998552, 209, 153, 333, 184
-0.998557, 57, 161, 88, 416
-0.998561, 209, 177, 333, 208
-0.998563, 117, 69, 132, 100
-0.998564, 121, 109, 184, 124
-0.998566, 37, 385, 68, 448
-0.998569, 293, 47, 324, 62
-0.99857, 9, 161, 40, 416
-0.998571, 127, 49, 142, 80
-0.998579, 291, 53, 306, 84
-0.998582, 273, 45, 333, 60
-0.998585, 161, 313, 288, 344
-0.998595, 121, 67, 152, 82
-0.998597, 127, 117, 142, 148
-0.998597, 121, 119, 184, 134
-0.998598, 275, 233, 290, 264
-0.998601, 65, 369, 96, 432
-0.998602, 297, 193, 328, 320
-0.998607, 227, 461, 242, 492
-0.99861, 121, 73, 152, 88
-0.998615, 89, 67, 152, 82
-0.99862, 153, 459, 216, 474
-0.99863, 137, 71, 200, 86
-0.998634, 177, 461, 240, 476
-0.998635, 193, 221, 256, 236
-0.998635, 121, 129, 184, 144
-0.998635, 193, 33, 224, 288
-0.998637, 173, 33, 204, 288
-0.998637, 193, 215, 256, 230
-0.998639, 273, 65, 333, 80
-0.998641, 211, 225, 226, 256
-0.998641, 293, 53, 324, 68
-0.998641, 41, 213, 104, 228
-0.998643, 177, 467, 240, 482
-0.998647, 201, 129, 232, 192
-0.998648, 81, 85, 144, 100
-0.998651, 89, 61, 152, 76
-0.998652, 81, 73, 144, 88
-0.998653, 137, 465, 200, 480
-0.998654, 249, 313, 312, 328
-0.998654, 129, 49, 144, 176
-0.998656, 233, 453, 296, 468
-0.998663, 89, 121, 152, 136
-0.998663, 89, 127, 152, 142
-0.998663, 65, 273, 192, 336
-0.998665, 89, 433, 152, 448
-0.998666, 81, 79, 144, 94
-0.998666, 89, 107, 152, 122
-0.998666, 121, 135, 184, 150
-0.998666, 89, 95, 152, 110
-0.998667, 57, 413, 120, 428
-0.998668, 97, 405, 160, 420
-0.99867, 89, 205, 152, 220
-0.998671, 161, 103, 224, 118
-0.998676, 81, 199, 144, 214
-0.998676, 169, 221, 232, 236
-0.998676, 89, 101, 152, 116
-0.998677, 241, 369, 304, 384
-0.998678, 137, 77, 200, 92
-0.998679, 97, 399, 160, 414
-0.998679, 89, 113, 152, 128
-0.99868, 249, 319, 312, 334
-0.998681, 217, 219, 280, 234
-0.998682, 129, 203, 192, 218
-0.998683, 249, 307, 312, 322
-0.998683, 97, 179, 160, 194
-0.998685, 25, 369, 40, 400
-0.998685, 89, 421, 152, 436
-0.998686, 265, 291, 328, 306
-0.998686, 121, 459, 184, 474
-0.998688, 217, 465, 280, 480
-0.998688, 137, 65, 200, 80
-0.998689, 97, 393, 160, 408
-0.99869, 41, 207, 104, 222
-0.99869, 121, 147, 184, 162
-0.99869, 185, 455, 248, 470
-0.998691, 179, 461, 194, 492
-0.998691, 201, 209, 264, 224
-0.998692, 249, 325, 312, 340
-0.998693, 169, 215, 232, 230
-0.998693, 89, 139, 152, 154
-0.998694, 137, 453, 200, 468
-0.998694, 225, 459, 288, 474
-0.998694, 233, 433, 296, 448
-0.998694, 233, 169, 264, 232
-0.998695, 233, 439, 296, 454
-0.998695, 105, 173, 168, 188
-0.998696, 145, 83, 208, 98
-0.998696, 81, 169, 144, 184
-0.998696, 153, 471, 216, 486
-0.998697, 177, 73, 208, 136
-0.998697, 177, 473, 240, 488
-0.998697, 161, 97, 224, 112
-0.998698, 81, 211, 144, 226
-0.998699, 249, 53, 312, 68
-0.998699, 17, 371, 80, 386
-0.998699, 113, 451, 176, 466
-0.998699, 251, 317, 266, 348
-0.998699, 249, 331, 312, 346
-0.998699, 233, 447, 296, 462
-0.998699, 241, 377, 304, 392
-0.9987, 257, 297, 320, 312
-0.998701, 105, 167, 168, 182
-0.998701, 265, 253, 328, 268
-0.998701, 81, 157, 144, 172
-0.998702, 89, 427, 152, 442
-0.998702, 33, 419, 96, 434
-0.998703, 89, 133, 152, 148
-0.998703, 121, 57, 136, 88
-0.998704, 273, 371, 333, 386
-0.998705, 265, 243, 328, 258
-0.998705, 127, 77, 142, 108
-0.998705, 49, 425, 112, 440
-0.998705, 57, 173, 120, 188
-0.998706, 193, 227, 256, 242
-0.998707, 145, 179, 208, 194
-0.998707, 113, 465, 176, 480
-0.998708, 177, 207, 240, 222
-0.998708, 155, 461, 170, 492
-0.998708, 241, 363, 304, 378
-0.998709, 221, 401, 252, 464
-0.998709, 145, 373, 272, 404
-0.998709, 265, 265, 328, 280
-0.99871, 241, 343, 304, 358
-0.99871, 273, 79, 333, 94
-0.99871, 97, 457, 160, 472
-0.99871, 209, 471, 272, 486
-0.998711, 153, 91, 216, 106
-0.998711, 233, 415, 296, 430
-0.998712, 265, 279, 328, 294
-0.998712, 9, 465, 72, 480
-0.998712, 57, 407, 120, 422
-0.998712, 81, 445, 144, 460
-0.998713, 273, 303, 333, 318
-0.998713, 265, 377, 328, 392
-0.998714, 121, 141, 184, 156
-0.998714, 121, 429, 136, 460
-0.998714, 49, 431, 112, 446
-0.998714, 241, 383, 304, 398
-0.998714, 49, 439, 112, 454
-0.998715, 193, 33, 320, 64
-0.998716, 81, 151, 144, 166
-0.998716, 257, 259, 320, 274
-0.998716, 65, 395, 128, 410
-0.998717, 97, 187, 160, 202
-0.998717, 233, 403, 296, 418
-0.998718, 145, 477, 208, 492
-0.998718, 209, 325, 333, 356
-0.998718, 65, 369, 96, 496
-0.998718, 145, 167, 208, 182
-0.998718, 65, 387, 128, 402
-0.998719, 233, 357, 296, 372
-0.99872, 169, 227, 232, 242
-0.99872, 137, 185, 200, 200
-0.998721, 121, 429, 184, 444
-0.998721, 25, 145, 88, 208
-0.998721, 273, 71, 333, 86
-0.998722, 33, 413, 96, 428
-0.998723, 1, 209, 64, 224
-0.998723, 105, 387, 168, 402
-0.998723, 9, 215, 72, 230
-0.998735, 225, 81, 256, 208
-0.998741, 129, 201, 144, 232
-0.998745, 1, 113, 32, 240
-0.998749, 123, 449, 138, 480
-0.998762, 141, 193, 156, 224
-0.998773, 131, 425, 146, 456
-0.998774, 157, 73, 172, 104
-0.998774, 95, 421, 110, 452
-0.998778, 209, 201, 224, 232
-0.99878, 155, 93, 170, 124
-0.998781, 287, 281, 302, 312
-0.998784, 31, 369, 46, 400
-0.998787, 149, 461, 164, 492
-0.99879, 103, 397, 118, 428
-0.99879, 303, 33, 318, 64
-0.998791, 297, 293, 312, 324
-0.998805, 165, 469, 180, 500
-0.998807, 309, 41, 324, 72
-0.998816, 129, 45, 256, 76
-0.998825, 217, 217, 232, 248
-0.998827, 151, 73, 166, 104
-0.998827, 213, 469, 228, 500
-0.998836, 145, 145, 272, 176
-0.998841, 129, 441, 144, 472
-0.998843, 145, 69, 160, 100
-0.998846, 139, 61, 154, 92
-0.998857, 49, 53, 176, 84
-0.998859, 151, 445, 166, 476
-0.998864, 113, 129, 144, 384
-0.998865, 161, 325, 288, 356
-0.998866, 299, 65, 314, 96
-0.998866, 221, 465, 236, 496
-0.998871, 177, 177, 192, 208
-0.998878, 257, 145, 288, 272
-0.99888, 209, 281, 333, 312
-0.99888, 201, 225, 216, 256
-0.998886, 1, 429, 128, 460
-0.998891, 201, 81, 232, 208
-0.998892, 237, 453, 252, 484
-0.998894, 177, 257, 304, 288
-0.998905, 141, 433, 156, 464
-0.99891, 103, 429, 118, 460
-0.998912, 137, 409, 152, 440
-0.998916, 305, 73, 320, 104
-0.99892, 265, 253, 280, 284
-0.998921, 133, 453, 148, 484
-0.998923, 261, 293, 276, 324
-0.998924, 149, 173, 164, 204
-0.998925, 185, 25, 248, 88
-0.998928, 293, 281, 308, 312
-0.998932, 129, 89, 144, 120
-0.998933, 113, 449, 128, 480
-0.99894, 177, 193, 240, 448
-0.99894, 125, 377, 140, 408
-0.998941, 221, 205, 236, 236
-0.998942, 161, 345, 288, 376
-0.998942, 97, 433, 112, 464
-0.998943, 273, 365, 288, 396
-0.998948, 113, 437, 128, 468
-0.998948, 107, 457, 122, 488
-0.998948, 161, 281, 288, 312
-0.998951, 109, 393, 124, 424
-0.998958, 305, 281, 320, 312
-0.998958, 301, 33, 316, 160
-0.998962, 37, 369, 52, 400
-0.998964, 177, 269, 304, 300
-0.998966, 313, 65, 328, 96
-0.998967, 147, 189, 162, 220
-0.998967, 11, 369, 26, 400
-0.998968, 139, 397, 154, 428
-0.998968, 187, 449, 202, 480
-0.99897, 177, 165, 192, 196
-0.998974, 281, 349, 296, 380
-0.998976, 85, 97, 116, 224
-0.998982, 129, 469, 144, 500
-0.998983, 123, 65, 138, 192
-0.998985, 13, 113, 44, 240
-0.998986, 303, 297, 318, 328
-0.99899, 149, 65, 164, 192
-0.998991, 75, 221, 90, 252
-0.998992, 281, 229, 296, 260
-0.998993, 265, 265, 280, 296
-0.999, 219, 125, 234, 156
-0.999002, 65, 25, 320, 88
-0.999002, 33, 305, 64, 432
-0.999004, 143, 65, 158, 192
-0.999011, 317, 373, 332, 404
-0.999012, 143, 449, 158, 480
-0.999013, 117, 381, 132, 412
-0.99902, 315, 41, 330, 72
-0.999022, 265, 281, 280, 312
-0.999026, 161, 109, 176, 140
-0.999036, 183, 189, 198, 220
-0.999037, 125, 413, 140, 444
-0.999038, 85, 209, 100, 240
-0.999041, 307, 373, 322, 404
-0.999045, 243, 445, 258, 476
-0.999045, 123, 201, 138, 232
-0.999046, 249, 329, 264, 360
-0.999049, 149, 149, 164, 180
-0.999054, 63, 369, 78, 400
-0.999055, 145, 385, 272, 416
-0.999055, 1, 465, 128, 496
-0.999057, 157, 65, 172, 192
-0.999059, 5, 369, 20, 400
-0.999059, 97, 453, 112, 484
-0.999063, 115, 469, 130, 500
-0.999066, 277, 445, 292, 476
-0.999067, 141, 205, 156, 236
-0.999067, 233, 81, 296, 144
-0.999068, 275, 273, 290, 304
-0.999071, 141, 165, 156, 196
-0.999071, 65, 217, 80, 248
-0.999073, 159, 441, 174, 472
-0.999075, 123, 461, 138, 492
-0.999076, 171, 185, 186, 216
-0.999077, 257, 193, 288, 448
-0.999077, 17, 369, 32, 400
-0.999078, 119, 417, 134, 448
-0.999084, 209, 341, 333, 372
-0.999085, 129, 229, 256, 260
-0.999085, 281, 277, 296, 308
-0.999087, 209, 137, 333, 168
-0.999089, 195, 197, 210, 228
-0.999094, 315, 145, 330, 176
-0.9991, 195, 217, 210, 248
-0.999102, 139, 465, 154, 496
-0.999102, 205, 33, 236, 288
-0.999102, 153, 137, 168, 168
-0.999104, 1, 225, 333, 288
-0.999117, 135, 65, 150, 192
-0.99912, 101, 1, 132, 256
-0.99913, 307, 49, 322, 176
-0.99915, 173, 1, 204, 128
-0.999178, 201, 385, 264, 448
-0.999181, 229, 161, 260, 416
-0.999198, 73, 65, 104, 320
-0.999223, 65, 321, 320, 384
-0.999246, 81, 249, 208, 312
-0.999255, 161, 109, 288, 140
-0.999258, 1, 441, 128, 472
-0.999271, 97, 429, 224, 460
-0.999277, 49, 329, 176, 392
-0.999283, 97, 321, 224, 384
-0.999285, 65, 369, 192, 400
-0.99929, 163, 65, 178, 192
-0.999292, 245, 193, 276, 448
-0.999316, 117, 321, 148, 448
-0.999318, 281, 241, 312, 368
-0.99932, 295, 33, 310, 160
-0.999325, 17, 125, 144, 156
-0.999326, 1, 233, 128, 296
-0.999326, 87, 161, 102, 288
-0.999329, 145, 361, 272, 392
-0.999344, 315, 129, 330, 256
-0.999344, 75, 161, 90, 288
-0.999351, 209, 357, 333, 388
-0.999373, 129, 97, 144, 224
-0.999382, 245, 241, 276, 368
-0.999386, 129, 369, 144, 496
-0.999387, 195, 49, 210, 176
-0.999388, 37, 353, 52, 480
-0.999393, 263, 241, 278, 368
-0.9994, 97, 129, 112, 256
-0.999401, 1, 249, 333, 312
-0.999401, 53, 161, 68, 288
-0.999401, 283, 337, 298, 464
-0.999414, 253, 289, 268, 416
-0.999417, 41, 161, 56, 288
-0.999421, 273, 1, 304, 128
-0.999423, 301, 97, 316, 224
-0.999423, 47, 161, 62, 288
-0.999425, 151, 129, 166, 256
-0.999428, 13, 65, 44, 320
-0.999432, 61, 65, 92, 320
-0.999435, 309, 129, 324, 256
-0.999442, 111, 129, 126, 256
-0.999442, 249, 1, 280, 256
-0.999444, 3, 161, 18, 288
-0.999448, 69, 161, 84, 288
-0.999449, 47, 353, 62, 480
-0.999452, 217, 1, 248, 256
-0.999453, 205, 177, 220, 304
-0.999455, 81, 161, 96, 288
-0.999457, 27, 161, 42, 288
-0.999462, 29, 353, 44, 480
-0.999464, 237, 1, 268, 256
-0.999466, 187, 49, 202, 176
-0.999466, 9, 161, 24, 288
-0.999467, 129, 1, 144, 128
-0.99947, 103, 113, 118, 240
-0.999473, 59, 161, 74, 288
-0.999474, 121, 129, 136, 256
-0.999476, 193, 95, 208, 110
-0.999477, 115, 453, 130, 468
-0.999477, 35, 161, 50, 288
-0.999479, 263, 273, 278, 288
-0.999479, 153, 91, 168, 106
-0.999479, 297, 299, 312, 314
-0.999479, 299, 291, 314, 306
-0.999479, 211, 473, 226, 488
-0.99948, 141, 451, 156, 466
-0.99948, 227, 215, 242, 230
-0.99948, 101, 431, 116, 446
-0.99948, 255, 311, 270, 326
-0.999481, 317, 299, 332, 314
-0.999481, 219, 127, 234, 142
-0.999481, 249, 335, 264, 350
-0.999481, 305, 39, 320, 54
-0.999481, 151, 79, 166, 94
-0.999481, 317, 373, 332, 388
-0.999481, 131, 107, 146, 122
-0.999482, 147, 191, 162, 206
-0.999482, 305, 73, 320, 88
-0.999483, 281, 33, 312, 288
-0.999483, 213, 95, 228, 110
-0.999485, 165, 475, 180, 490
-0.999485, 105, 401, 120, 416
-0.999485, 175, 453, 190, 468
-0.999486, 115, 463, 130, 478
-0.999486, 305, 297, 320, 312
-0.999487, 31, 369, 46, 384
-0.999488, 129, 101, 144, 116
-0.999488, 161, 113, 176, 240
-0.999488, 153, 443, 168, 458
-0.999488, 141, 199, 156, 214
-0.999489, 153, 17, 168, 144
-0.999489, 269, 249, 284, 264
-0.99949, 263, 293, 278, 308
-0.99949, 117, 429, 132, 444
-0.99949, 75, 221, 90, 236
-0.999491, 311, 387, 326, 402
-0.999491, 125, 381, 140, 396
-0.999492, 193, 465, 208, 480
-0.999492, 137, 211, 152, 226
-0.999492, 203, 223, 218, 238
-0.999493, 177, 179, 192, 194
-0.999494, 127, 437, 142, 452
-0.999494, 183, 187, 198, 202
-0.999495, 145, 457, 160, 472
-0.999495, 125, 459, 140, 474
-0.999495, 105, 471, 120, 486
-0.999496, 159, 457, 174, 472
-0.999496, 307, 373, 322, 388
-0.999496, 249, 341, 264, 356
-0.999497, 277, 337, 292, 464
-0.999497, 103, 409, 118, 424
-0.999497, 157, 471, 172, 486
-0.999498, 169, 49, 184, 176
-0.999498, 281, 231, 296, 246
-0.999499, 105, 463, 120, 478
-0.999499, 165, 469, 180, 484
-0.999499, 133, 431, 148, 446
-0.9995, 145, 73, 160, 88
-0.9995, 115, 469, 130, 484
-0.999501, 177, 49, 192, 176
-0.999501, 167, 109, 182, 124
-0.999501, 137, 405, 152, 420
-0.999501, 117, 385, 132, 400
-0.999502, 201, 231, 216, 246
-0.999502, 139, 205, 154, 220
-0.999502, 235, 457, 250, 472
-0.999502, 107, 431, 122, 446
-0.999503, 137, 61, 152, 76
-0.999504, 163, 463, 178, 478
-0.999504, 159, 477, 174, 492
-0.999505, 211, 227, 226, 242
-0.999506, 195, 479, 210, 494
-0.999506, 313, 41, 328, 56
-0.999506, 21, 161, 36, 288
-0.999507, 125, 453, 140, 468
-0.999507, 101, 417, 116, 432
-0.999508, 141, 67, 156, 82
-0.999508, 107, 369, 122, 496
-0.999509, 127, 125, 142, 140
-0.999509, 247, 305, 262, 432
-0.999511, 33, 65, 64, 320
-0.999512, 133, 449, 148, 464
-0.999512, 149, 463, 164, 478
-0.999513, 217, 469, 232, 484
-0.999513, 111, 439, 126, 454
-0.999514, 121, 105, 136, 120
-0.999514, 267, 263, 282, 278
-0.999514, 117, 369, 132, 496
-0.999515, 313, 51, 328, 66
-0.999515, 187, 469, 202, 484
-0.999516, 273, 241, 288, 256
-0.999516, 129, 93, 144, 108
-0.999516, 251, 319, 266, 334
-0.999517, 161, 119, 176, 134
-0.999517, 135, 457, 150, 472
-0.999517, 121, 59, 136, 74
-0.999517, 117, 81, 132, 208
-0.999519, 119, 435, 134, 450
-0.99952, 15, 161, 30, 288
-0.999521, 313, 63, 328, 78
-0.999522, 289, 59, 304, 74
-0.999524, 125, 431, 140, 446
-0.999524, 123, 111, 138, 126
-0.999525, 207, 33, 222, 160
-0.999525, 127, 87, 142, 102
-0.999525, 147, 87, 162, 102
-0.999526, 311, 297, 326, 312
-0.999526, 223, 209, 238, 224
-0.999526, 217, 221, 232, 236
-0.999528, 227, 463, 242, 478
-0.999528, 125, 117, 140, 132
-0.99953, 157, 463, 172, 478
-0.999532, 199, 177, 214, 304
-0.999532, 143, 81, 158, 96
-0.999533, 127, 75, 142, 90
-0.999535, 177, 463, 192, 478
-0.999536, 305, 67, 320, 82
-0.999536, 117, 73, 132, 88
-0.999537, 165, 457, 180, 472
-0.999537, 117, 67, 132, 82
-0.999538, 135, 17, 150, 144
-0.999539, 295, 61, 310, 76
-0.999539, 211, 193, 226, 320
-0.99954, 127, 207, 142, 222
-0.999542, 119, 83, 134, 98
-0.999542, 171, 465, 186, 480
-0.999544, 97, 423, 112, 438
-0.999545, 153, 477, 168, 492
-0.999546, 313, 57, 328, 72
-0.99955, 201, 49, 216, 176
-0.999551, 127, 81, 142, 96
-0.999552, 1, 65, 32, 320
-0.999554, 121, 99, 136, 114
-0.999554, 119, 89, 134, 104
-0.999554, 171, 459, 186, 474
-0.999555, 263, 193, 278, 320
-0.999555, 91, 113, 106, 240
-0.999556, 137, 75, 152, 90
-0.999557, 5, 353, 20, 480
-0.999558, 187, 459, 202, 474
-0.999561, 79, 209, 94, 336
-0.999561, 285, 289, 300, 416
-0.999562, 267, 289, 282, 416
-0.999564, 93, 177, 108, 304
-0.999565, 133, 69, 148, 84
-0.999566, 139, 369, 154, 496
-0.999567, 9, 305, 40, 432
-0.999569, 61, 353, 76, 480
-0.999569, 255, 209, 270, 336
-0.999574, 143, 17, 158, 144
-0.999575, 305, 55, 320, 70
-0.999576, 61, 209, 76, 336
-0.999576, 23, 353, 38, 480
-0.999577, 275, 257, 290, 384
-0.999579, 299, 49, 314, 64
-0.999585, 217, 145, 232, 272
-0.999587, 85, 33, 116, 288
-0.999591, 241, 337, 256, 464
-0.999594, 69, 209, 84, 336
-0.999596, 297, 55, 312, 70
-0.999599, 181, 453, 196, 468
-0.999606, 289, 49, 304, 176
-0.999606, 293, 289, 308, 416
-0.999608, 133, 205, 148, 220
-0.99961, 273, 209, 288, 336
-0.999617, 55, 353, 70, 480
-0.999617, 305, 61, 320, 76
-0.999623, 211, 145, 226, 272
-0.999626, 265, 33, 296, 288
-0.99963, 47, 209, 62, 336
-0.999631, 313, 65, 328, 192
-0.999631, 193, 177, 208, 304
-0.999632, 55, 209, 70, 336
-0.999633, 69, 369, 84, 496
-0.999637, 235, 145, 250, 272
-0.999637, 203, 225, 218, 352
-0.999637, 303, 145, 318, 272
-0.999638, 123, 369, 138, 496
-0.999646, 237, 33, 252, 160
-0.999648, 33, 357, 160, 388
-0.999656, 259, 289, 274, 416
-0.999659, 227, 129, 242, 256
-0.99966, 15, 353, 30, 480
-0.99966, 289, 337, 304, 464
-0.999662, 221, 33, 236, 160
-0.999667, 313, 17, 328, 144
-0.999667, 241, 161, 256, 288
-0.99967, 283, 49, 298, 176
-0.999671, 157, 161, 172, 288
-0.999672, 103, 161, 118, 288
-0.999674, 201, 129, 216, 256
-0.999676, 49, 65, 80, 320
-0.999686, 303, 369, 318, 496
-0.999688, 127, 67, 142, 82
-0.999692, 317, 353, 332, 480
-0.999696, 127, 145, 142, 272
-0.9997, 309, 193, 324, 320
-0.999701, 309, 305, 324, 432
-0.999704, 163, 17, 178, 144
-0.999704, 195, 97, 210, 224
-0.999709, 171, 145, 186, 272
-0.999709, 109, 81, 124, 208
-0.999709, 85, 209, 100, 336
-0.99971, 247, 209, 262, 336
-0.999712, 97, 369, 112, 496
-0.999712, 213, 33, 228, 160
-0.999714, 303, 289, 318, 416
-0.999716, 161, 369, 176, 496
-0.999718, 231, 33, 246, 160
-0.999718, 143, 161, 158, 288
-0.999723, 135, 113, 150, 240
-0.999726, 235, 369, 250, 496
-0.999726, 249, 33, 264, 160
-0.999728, 1, 145, 64, 208
-0.999733, 137, 321, 168, 448
-0.999734, 311, 369, 326, 496
-0.999741, 117, 33, 132, 160
-0.999743, 285, 241, 300, 368
-0.999744, 263, 145, 278, 272
-0.999745, 277, 225, 308, 480
-0.999746, 123, 17, 138, 144
-0.999747, 151, 369, 166, 496
-0.999748, 145, 369, 160, 496
-0.999749, 265, 33, 280, 160
-0.999749, 317, 209, 332, 336
-0.99975, 213, 97, 244, 224
-0.999769, 113, 225, 176, 480
-0.999802, 129, 253, 256, 284
-0.999805, 97, 81, 128, 208
-0.999808, 127, 61, 142, 76
-0.99981, 305, 45, 320, 60
-0.999811, 213, 129, 244, 384
-0.999812, 301, 241, 332, 368
-0.999816, 301, 225, 332, 480
-0.999832, 185, 129, 216, 384
-0.999878, 105, 321, 136, 448
-0.9999, 173, 177, 204, 304
-0.999902, 89, 193, 120, 320
-0.999905, 145, 161, 176, 416
-0.999925, 65, 229, 192, 260
-0.999983, 49, 257, 80, 500
-0.999991, 245, 97, 276, 352
-0.999992, 65, 245, 192, 276
-0.999992, 65, 309, 192, 340
-1.00001, 289, 129, 320, 384
-1.00001, 201, 193, 232, 448
-1.00001, 237, 81, 268, 208
-1.00001, 1, 273, 333, 336
-1.00005, 225, 273, 256, 400
-1.00006, 129, 241, 256, 272
-1.00007, 129, 265, 256, 296
-1.00009, 105, 1, 136, 128
-1.0001, 17, 229, 144, 260
-1.00012, 29, 257, 60, 500
-1.00014, 145, 369, 208, 496
-1.00014, 133, 129, 164, 384
-1.00015, 97, 257, 128, 500
-1.0002, 145, 249, 208, 312
-1.0002, 157, 161, 188, 416
-1.00023, 289, 257, 320, 500
-1.00023, 1, 25, 333, 88
-1.00023, 65, 289, 192, 320
-1.00026, 113, 29, 240, 60
-1.00027, 17, 257, 80, 500
-1.00029, 125, 257, 156, 500
-1.00029, 97, 337, 224, 368
-1.00029, 113, 281, 240, 312
-1.0003, 65, 321, 192, 352
-1.00032, 217, 369, 248, 496
-1.00032, 17, 241, 144, 272
-1.00033, 1, 297, 333, 360
-1.00033, 113, 289, 240, 352
-1.00036, 49, 265, 176, 296
-1.00039, 97, 357, 224, 388
-1.0004, 277, 129, 308, 384
-1.0004, 1, 253, 128, 284
-1.00043, 81, 41, 208, 72
-1.00044, 113, 325, 240, 356
-1.00044, 173, 193, 204, 448
-1.00045, 145, 257, 176, 500
-1.00046, 113, 297, 240, 328
-1.00046, 77, 257, 108, 500
-1.0005, 17, 257, 48, 500
-1.0005, 1, 281, 128, 344
-1.00051, 1, 257, 32, 500
-1.00051, 17, 41, 144, 72
-1.00052, 185, 1, 216, 128
-1.00055, 65, 241, 192, 368
-1.00056, 1, 49, 333, 112
-1.00056, 193, 305, 256, 368
-1.00057, 49, 277, 176, 308
-1.00061, 17, 209, 48, 336
-1.00061, 25, 113, 56, 240
-1.00063, 17, 345, 144, 376
-1.00065, 1, 57, 128, 88
-1.00065, 17, 325, 144, 356
-1.00065, 113, 309, 240, 340
-1.00067, 1, 289, 128, 320
-1.00068, 1, 305, 128, 336
-1.0007, 189, 225, 220, 480
-1.00073, 153, 345, 216, 408
-1.00073, 49, 305, 112, 432
-1.00074, 113, 257, 144, 500
-1.00076, 45, 305, 76, 432
-1.00077, 65, 257, 96, 500
-1.0008, 233, 257, 264, 500
-1.0008, 189, 225, 220, 352
-1.00085, 57, 121, 120, 184
-1.00087, 1, 257, 128, 320
-1.00088, 137, 225, 200, 480
-1.00089, 137, 225, 200, 288
-1.00094, 113, 209, 176, 336
-1.00095, 277, 97, 308, 224
-1.00099, 61, 113, 92, 240
-1.00103, 221, 257, 252, 500
-1.00105, 1, 321, 128, 384
-1.00107, 161, 257, 192, 500
-1.00116, 249, 145, 312, 208
-1.00117, 145, 273, 208, 336
-1.0012, 285, 177, 316, 304
-1.00122, 193, 233, 256, 296
-1.00127, 21, 305, 52, 432
-1.00135, 49, 329, 112, 392
-1.00138, 165, 369, 196, 496
-1.0014, 1, 73, 128, 136
-1.00143, 169, 369, 232, 496
-1.00145, 1, 217, 64, 280
-1.00147, 153, 321, 216, 384
-1.0015, 73, 97, 104, 224
-1.00159, 145, 1, 272, 64
-1.00166, 1, 1, 256, 64
-1.00166, 45, 113, 76, 240
-1.00175, 17, 17, 144, 80
-1.00181, 265, 1, 328, 64
-1.0019, 241, 17, 304, 80
-1.002, 145, 297, 208, 360
-1.0021, 253, 81, 284, 208
-1.00211, 217, 9, 280, 72
-1.00211, 177, 329, 240, 392
-1.00233, 125, 209, 156, 336
-1.00248, 265, 97, 296, 224
-1.00253, 105, 249, 168, 312
-1.00256, 201, 281, 264, 344
-1.00265, 49, 257, 112, 500
-1.00267, 217, 321, 248, 448
-1.00272, 9, 241, 72, 304
-1.00274, 193, 305, 256, 432
-1.00279, 273, 145, 304, 272
-1.00285, 113, 209, 144, 336
-1.00288, 93, 321, 124, 448
-1.00297, 33, 233, 96, 296
-1.00299, 73, 305, 104, 432
-1.00304, 149, 305, 180, 432
-1.00314, 137, 209, 168, 336
-1.00323, 129, 329, 192, 392
-1.00328, 97, 337, 160, 400
-1.00328, 117, 1, 148, 128
-1.00338, 177, 265, 240, 328
-1.00342, 149, 209, 180, 336
-1.00347, 153, 225, 216, 352
-1.00353, 209, 257, 272, 320
-1.00353, 161, 17, 224, 80
-1.00363, 57, 305, 88, 432
-1.00364, 1, 1, 333, 64
-1.00387, 113, 257, 240, 384
-1.00402, 113, 257, 176, 384
-1.00652, 185, 257, 248, 384
-1.00673, 57, 65, 120, 192
-1.00694, 161, 321, 224, 448
-1.00717, 137, 273, 200, 400
-1.00853, 1, 257, 128, 384
-1.00927, 49, 257, 112, 384
-1.00977, 161, 273, 224, 400
-1.01193, 9, 257, 72, 384
-1.01203, 73, 273, 136, 400
-1.01478, 1, 17, 64, 144
-1.01478, 25, 33, 88, 160
-1.01578, 49, 1, 112, 128
-1.017, 1, 65, 64, 192
