1991
-0.349995, 1, 225, 375, 480
-0.463049, 1, 129, 375, 384
-0.570851, 129, 193, 375, 448
-0.586471, 97, 1, 352, 500
-0.593268, 1, 1, 375, 500
-0.600075, 33, 257, 288, 500
-0.640358, 1, 33, 375, 288
-0.682228, 1, 1, 256, 500
-0.68757, 97, 97, 352, 352
-0.812047, 193, 129, 320, 384
-0.856493, 1, 161, 256, 416
-0.858844, 193, 1, 320, 500
-0.863084, 129, 225, 256, 480
-0.876396, 1, 241, 375, 368
-0.882502, 241, 257, 368, 500
-0.886296, 65, 257, 192, 500
-0.887818, 177, 225, 304, 480
-0.890023, 1, 289, 375, 416
-0.89308, 1, 353, 375, 480
-0.901669, 1, 257, 128, 500
-0.904939, 1, 193, 375, 320
-0.905796, 129, 225, 375, 352
-0.909739, 1, 129, 375, 256
-0.913565, 241, 161, 368, 416
-0.913924, 241, 1, 368, 500
-0.915468, 193, 145, 320, 272
-0.917909, 113, 1, 240, 500
-0.924347, 65, 337, 320, 464
-0.925067, 33, 257, 288, 384
-0.92791, 1, 65, 256, 320
-0.929, 145, 129, 272, 384
-0.929069, 129, 177, 375, 304
-0.931819, 193, 33, 320, 288
-0.932611, 65, 1, 192, 500
-0.933236, 241, 97, 304, 224
-0.935755, 1, 1, 128, 500
-0.936826, 97, 129, 352, 256
-0.937861, 161, 353, 288, 480
-0.938907, 193, 193, 320, 320
-0.94019, 169, 369, 232, 496
-0.941165, 193, 321, 256, 448
-0.94168, 1, 81, 375, 208
-0.941704, 97, 129, 224, 384
-0.944664, 1, 305, 128, 432
-0.945387, 241, 1, 368, 256
-0.945649, 209, 97, 336, 224
-0.945704, 129, 273, 375, 400
-0.945797, 225, 337, 352, 464
-0.946586, 217, 129, 280, 256
-0.947514, 33, 353, 160, 480
-0.947734, 145, 1, 272, 256
-0.948236, 233, 305, 296, 432
-0.948263, 97, 1, 352, 256
-0.94879, 113, 369, 240, 496
-0.949287, 17, 161, 144, 416
-0.949662, 49, 273, 176, 400
-0.950113, 113, 257, 240, 384
-0.951828, 177, 305, 304, 432
-0.952409, 81, 353, 144, 480
-0.952553, 177, 225, 240, 352
-0.952922, 25, 289, 88, 416
-0.953223, 1, 305, 64, 432
-0.955225, 137, 353, 200, 480
-0.955343, 33, 369, 96, 496
-0.955447, 137, 393, 200, 456
-0.955568, 233, 121, 296, 184
-0.955665, 281, 241, 344, 368
-0.955799, 33, 177, 288, 304
-0.956174, 225, 353, 288, 480
-0.956229, 265, 369, 328, 432
-0.956587, 265, 369, 328, 496
-0.956787, 49, 273, 112, 400
-0.95754, 81, 321, 208, 448
-0.957667, 177, 249, 240, 312
-0.958574, 113, 209, 240, 336
-0.959215, 253, 89, 284, 152
-0.959274, 225, 353, 288, 416
-0.959291, 253, 81, 284, 208
-0.959332, 289, 353, 352, 416
-0.959701, 273, 193, 336, 320
-0.959932, 241, 97, 304, 160
-0.959964, 241, 377, 304, 440
-0.960226, 57, 353, 120, 480
-0.960522, 313, 353, 375, 480
-0.960524, 137, 425, 200, 488
-0.960531, 209, 177, 272, 304
-0.960607, 73, 385, 136, 448
-0.960838, 169, 417, 232, 480
-0.96087, 201, 273, 264, 400
-0.961129, 257, 145, 320, 272
-0.961141, 97, 81, 352, 208
-0.961357, 97, 393, 160, 456
-0.961417, 177, 241, 304, 368
-0.961581, 241, 225, 368, 352
-0.962093, 177, 393, 240, 456
-0.962288, 201, 337, 264, 400
-0.963024, 1, 257, 128, 384
-0.963261, 257, 273, 320, 400
-0.963317, 105, 353, 168, 480
-0.963387, 1, 369, 64, 496
-0.963511, 273, 217, 336, 280
-0.963701, 57, 417, 120, 480
-0.963719, 285, 217, 316, 280
-0.963769, 177, 177, 240, 304
-0.963862, 249, 425, 312, 488
-0.963961, 193, 369, 256, 496
-0.9648, 161, 273, 224, 400
-0.965012, 289, 241, 352, 304
-0.965193, 289, 393, 352, 456
-0.965269, 225, 425, 288, 488
-0.965393, 201, 225, 264, 352
-0.965785, 193, 145, 320, 208
-0.965789, 17, 297, 80, 360
-0.966079, 209, 385, 272, 448
-0.966119, 169, 361, 232, 424
-0.96619, 25, 353, 88, 416
-0.966338, 289, 337, 352, 464
-0.966594, 209, 313, 272, 376
-0.966664, 201, 209, 264, 272
-0.966926, 65, 353, 128, 416
-0.966955, 225, 289, 352, 416
-0.967271, 241, 65, 304, 320
-0.967652, 249, 345, 312, 408
-0.967692, 285, 193, 316, 320
-0.967797, 201, 433, 264, 496
-0.967865, 49, 377, 112, 440
-0.968304, 113, 361, 176, 424
-0.968983, 1, 257, 64, 384
-0.969022, 129, 305, 256, 432
-0.969067, 161, 321, 224, 448
-0.969128, 217, 81, 280, 208
-0.969317, 217, 129, 280, 384
-0.969439, 113, 417, 176, 480
-0.969714, 89, 417, 152, 480
-0.969724, 49, 281, 112, 344
-0.970032, 1, 273, 64, 336
-0.970236, 201, 409, 264, 472
-0.970324, 217, 145, 280, 208
-0.970517, 205, 225, 236, 352
-0.970614, 17, 417, 80, 480
-0.970639, 177, 329, 240, 392
-0.970668, 177, 225, 240, 480
-0.970673, 221, 129, 252, 256
-0.970695, 81, 273, 144, 400
-0.970771, 17, 385, 80, 448
-0.971323, 137, 369, 200, 432
-0.971331, 201, 361, 264, 424
-0.971698, 193, 185, 320, 248
-0.971892, 313, 257, 375, 384
-0.971944, 177, 193, 240, 256
-0.972158, 121, 257, 184, 384
-0.972406, 281, 145, 312, 272
-0.972431, 97, 433, 224, 496
-0.972556, 313, 377, 375, 440
-0.972624, 265, 393, 328, 456
-0.972955, 89, 265, 152, 328
-0.973013, 209, 289, 272, 352
-0.973149, 313, 353, 375, 416
-0.973246, 213, 209, 244, 272
-0.973357, 213, 177, 244, 304
-0.973634, 89, 361, 152, 424
-0.97378, 257, 193, 320, 256
-0.973833, 225, 137, 256, 200
-0.973851, 297, 193, 360, 320
-0.974366, 193, 217, 320, 280
-0.974515, 49, 289, 80, 416
-0.974554, 257, 145, 320, 208
-0.974609, 273, 225, 336, 480
-0.974647, 153, 257, 216, 320
-0.97465, 161, 393, 288, 456
-0.974668, 201, 185, 264, 248
-0.974683, 265, 241, 328, 304
-0.974784, 233, 313, 296, 376
-0.97482, 265, 321, 328, 448
-0.974821, 285, 185, 316, 248
-0.97491, 161, 393, 192, 456
-0.975043, 249, 193, 312, 320
-0.975065, 161, 417, 288, 480
-0.975125, 161, 345, 288, 408
-0.975212, 273, 417, 336, 480
-0.975258, 1, 321, 64, 384
-0.975604, 281, 193, 344, 256
-0.975653, 173, 353, 204, 480
-0.975692, 285, 241, 316, 304
-0.975711, 141, 401, 172, 464
-0.976043, 249, 369, 280, 496
-0.976147, 229, 353, 260, 480
-0.976168, 241, 353, 368, 416
-0.976352, 233, 401, 296, 464
-0.97644, 97, 409, 224, 472
-0.976835, 201, 361, 232, 424
-0.976984, 253, 353, 284, 416
-0.976987, 209, 177, 240, 240
-0.976995, 205, 249, 236, 312
-0.977031, 241, 385, 368, 448
-0.977051, 233, 425, 264, 488
-0.977108, 313, 257, 375, 500
-0.977212, 213, 345, 244, 408
-0.977221, 265, 281, 328, 344
-0.977265, 197, 353, 228, 480
-0.977274, 281, 369, 312, 496
-0.977276, 265, 321, 328, 384
-0.977279, 177, 225, 240, 288
-0.97734, 9, 305, 40, 432
-0.977413, 81, 425, 112, 488
-0.977434, 217, 97, 280, 160
-0.977468, 25, 329, 88, 392
-0.977644, 297, 329, 360, 392
-0.977692, 97, 289, 160, 352
-0.977843, 113, 257, 176, 320
-0.977954, 93, 385, 124, 448
-0.97809, 109, 369, 140, 496
-0.978187, 161, 369, 192, 496
-0.978352, 249, 121, 280, 184
-0.978396, 313, 257, 375, 320
-0.97841, 129, 257, 256, 320
-0.97848, 165, 417, 196, 480
-0.978533, 289, 129, 352, 256
-0.978741, 145, 257, 208, 500
-0.978766, 145, 129, 272, 256
-0.978789, 269, 129, 300, 256
-0.978835, 193, 241, 320, 304
-0.978897, 209, 425, 336, 488
-0.979032, 289, 393, 320, 456
-0.979039, 49, 257, 112, 500
-0.979051, 1, 353, 128, 416
-0.979069, 1, 353, 64, 416
-0.979072, 225, 257, 288, 384
-0.979095, 265, 105, 328, 168
-0.979233, 105, 257, 168, 500
-0.979327, 97, 369, 128, 496
-0.979346, 289, 353, 320, 416
-0.979399, 201, 233, 264, 296
-0.979442, 65, 385, 192, 448
-0.979475, 261, 305, 292, 432
-0.979585, 233, 129, 264, 256
-0.979588, 265, 65, 328, 192
-0.979737, 261, 369, 292, 496
-0.979752, 1, 33, 375, 160
-0.979788, 233, 353, 264, 416
-0.979828, 257, 169, 320, 232
-0.979902, 1, 353, 32, 480
-0.97992, 277, 369, 308, 432
-0.979952, 137, 425, 168, 488
-0.979998, 193, 313, 320, 376
-0.980091, 241, 81, 272, 208
-0.980155, 209, 257, 272, 500
-0.980188, 1, 281, 128, 344
-0.980229, 137, 345, 200, 408
-0.980239, 161, 369, 288, 432
-0.980278, 81, 361, 208, 424
-0.980284, 205, 385, 236, 448
-0.980329, 137, 369, 168, 496
-0.980438, 241, 321, 272, 448
-0.98055, 249, 393, 280, 456
-0.980584, 105, 305, 168, 432
-0.980714, 25, 241, 88, 368
-0.980721, 301, 249, 332, 312
-0.980756, 281, 153, 312, 216
-0.980758, 185, 401, 216, 464
-0.980782, 313, 433, 375, 496
-0.980834, 281, 241, 312, 368
-0.980906, 289, 161, 352, 224
-0.980948, 1, 129, 256, 256
-0.981004, 193, 121, 320, 184
-0.981021, 73, 257, 136, 500
-0.981139, 233, 393, 264, 456
-0.981141, 209, 369, 240, 496
-0.981178, 201, 177, 232, 304
-0.981182, 161, 81, 288, 208
-0.981184, 125, 401, 156, 464
-0.98123, 245, 313, 276, 376
-0.981345, 237, 113, 268, 176
-0.98135, 49, 433, 176, 496
-0.981364, 177, 289, 304, 352
-0.981395, 173, 377, 204, 440
-0.981541, 93, 425, 124, 488
-0.981665, 253, 417, 284, 480
-0.981729, 25, 257, 88, 500
-0.98175, 313, 401, 375, 464
-0.981781, 241, 257, 368, 320
-0.981821, 9, 321, 40, 384
-0.981891, 149, 369, 180, 496
-0.98201, 177, 169, 240, 232
-0.982047, 213, 321, 244, 448
-0.982153, 225, 1, 288, 500
-0.982212, 269, 409, 300, 472
-0.982217, 273, 217, 304, 280
-0.98226, 109, 385, 140, 448
-0.982264, 33, 409, 160, 472
-0.982306, 69, 393, 100, 456
-0.982325, 273, 129, 336, 384
-0.98234, 69, 337, 100, 464
-0.982345, 221, 409, 252, 472
-0.982598, 297, 225, 328, 288
-0.982604, 225, 225, 256, 352
-0.982618, 1, 257, 64, 500
-0.982644, 113, 321, 240, 384
-0.982662, 225, 97, 352, 160
-0.982678, 297, 193, 328, 320
-0.982903, 241, 329, 368, 392
-0.982911, 25, 305, 56, 432
-0.982944, 5, 361, 36, 424
-0.982948, 85, 353, 116, 416
-0.983013, 1, 305, 128, 368
-0.983024, 49, 225, 176, 352
-0.983033, 241, 177, 368, 304
-0.98307, 185, 281, 248, 344
-0.983125, 337, 353, 368, 480
-0.983135, 61, 273, 92, 400
-0.983167, 309, 353, 340, 480
-0.98317, 113, 385, 240, 448
-0.983227, 265, 361, 296, 424
-0.983237, 241, 49, 368, 176
-0.98328, 89, 321, 120, 448
-0.983369, 137, 305, 200, 432
-0.983388, 25, 273, 88, 336
-0.983469, 249, 217, 312, 280
-0.983493, 113, 281, 240, 344
-0.983575, 249, 257, 312, 500
-0.983644, 161, 369, 192, 432
-0.9838, 301, 241, 332, 368
-0.983863, 177, 97, 304, 160
-0.983868, 185, 369, 216, 496
-0.983868, 205, 321, 236, 384
-0.98387, 5, 289, 36, 352
-0.983876, 69, 353, 100, 416
-0.98402, 57, 353, 88, 480
-0.98406, 217, 385, 248, 448
-0.984139, 249, 289, 280, 352
-0.984154, 145, 377, 176, 440
-0.984176, 17, 385, 144, 448
-0.98422, 305, 369, 336, 432
-0.984231, 121, 353, 152, 480
-0.984247, 125, 361, 156, 424
-0.984274, 221, 185, 252, 248
-0.98429, 149, 425, 180, 488
-0.98431, 97, 337, 160, 400
-0.984338, 189, 425, 220, 488
-0.984374, 201, 225, 232, 288
-0.984428, 221, 433, 252, 496
-0.984438, 325, 353, 356, 416
-0.984508, 109, 361, 140, 424
-0.984537, 177, 433, 208, 496
-0.984541, 105, 417, 136, 480
-0.984564, 45, 281, 76, 344
-0.984566, 169, 305, 232, 368
-0.984609, 49, 289, 176, 352
-0.984642, 129, 233, 256, 296
-0.984755, 193, 129, 256, 256
-0.984764, 37, 305, 68, 432
-0.984804, 345, 417, 375, 480
-0.984894, 261, 113, 292, 176
-0.984924, 33, 353, 64, 480
-0.985085, 177, 265, 304, 328
-0.985136, 205, 297, 236, 360
-0.985144, 17, 369, 48, 496
-0.985219, 265, 337, 296, 400
-0.985294, 289, 289, 352, 416
-0.985337, 193, 129, 256, 384
-0.985356, 329, 257, 360, 384
-0.985386, 73, 289, 136, 352
-0.985443, 125, 425, 156, 488
-0.985518, 345, 273, 375, 400
-0.985557, 109, 265, 140, 328
-0.985573, 189, 353, 220, 416
-0.985603, 189, 305, 220, 432
-0.985612, 209, 121, 272, 184
-0.985676, 41, 305, 104, 368
-0.985685, 205, 417, 236, 480
-0.985817, 45, 353, 76, 480
-0.985847, 57, 281, 88, 344
-0.985881, 313, 305, 375, 432
-0.986022, 269, 193, 300, 320
-0.98603, 81, 385, 112, 448
-0.986034, 269, 137, 300, 200
-0.986034, 213, 153, 244, 216
-0.986125, 289, 265, 352, 328
-0.986149, 49, 265, 176, 328
-0.98618, 205, 273, 236, 400
-0.986216, 217, 321, 248, 384
-0.986245, 69, 425, 100, 488
-0.986276, 1, 257, 32, 384
-0.986289, 237, 137, 268, 200
-0.9863, 97, 361, 128, 424
-0.986437, 273, 289, 304, 416
-0.986562, 257, 1, 320, 500
-0.98657, 49, 353, 80, 416
-0.986589, 121, 257, 152, 320
-0.986611, 233, 289, 296, 352
-0.986672, 65, 257, 128, 320
-0.98668, 289, 417, 320, 480
-0.986684, 65, 329, 128, 392
-0.986684, 245, 273, 276, 400
-0.986688, 113, 201, 240, 264
-0.98673, 297, 217, 360, 280
-0.9868, 193, 249, 224, 312
-0.986908, 129, 153, 256, 216
-0.986957, 145, 225, 208, 352
-0.986987, 217, 265, 280, 328
-0.987039, 73, 273, 104, 400
-0.987054, 293, 337, 324, 464
-0.98707, 1, 329, 128, 392
-0.987291, 273, 105, 304, 168
-0.98736, 37, 257, 68, 384
-0.98737, 57, 225, 120, 352
-0.987374, 41, 425, 72, 488
-0.98751, 269, 81, 300, 208
-0.987597, 21, 281, 52, 344
-0.987695, 17, 361, 48, 424
-0.987729, 177, 145, 240, 208
-0.987832, 201, 273, 232, 336
-0.987847, 217, 33, 280, 288
-0.987915, 37, 393, 68, 456
-0.98795, 193, 225, 224, 352
-0.988031, 81, 281, 112, 344
-0.988068, 225, 289, 256, 352
-0.988109, 217, 33, 280, 160
-0.988161, 57, 409, 88, 472
-0.988204, 317, 257, 348, 320
-0.988408, 49, 385, 80, 448
-0.988412, 45, 305, 76, 368
-0.988457, 177, 353, 208, 416
-0.988465, 249, 73, 312, 136
-0.988497, 265, 385, 296, 448
-0.988621, 317, 305, 348, 432
-0.988623, 201, 201, 232, 264
-0.988623, 313, 433, 344, 496
-0.988751, 97, 225, 160, 352
-0.988812, 233, 137, 296, 168
-0.988812, 21, 329, 52, 392
-0.988884, 193, 321, 224, 384
-0.988978, 317, 257, 348, 384
-0.988994, 217, 273, 248, 400
-0.989078, 13, 257, 44, 384
-0.989079, 313, 345, 344, 408
-0.98911, 85, 273, 116, 400
-0.98913, 181, 257, 212, 320
-0.989167, 249, 161, 312, 416
-0.989203, 129, 177, 256, 240
-0.989218, 49, 337, 176, 400
-0.989245, 25, 417, 56, 480
-0.989263, 137, 433, 200, 464
-0.98932, 29, 353, 60, 416
-0.989326, 105, 305, 136, 432
-0.989347, 161, 433, 224, 464
-0.989353, 29, 305, 60, 368
-0.98938, 221, 265, 252, 328
-0.989408, 233, 185, 296, 248
-0.98944, 1, 81, 256, 208
-0.989446, 269, 433, 300, 496
-0.989468, 301, 393, 332, 456
-0.989475, 137, 417, 200, 448
-0.989495, 189, 377, 220, 440
-0.989554, 81, 369, 112, 496
-0.989557, 177, 257, 240, 288
-0.989606, 345, 361, 375, 424
-0.989616, 157, 321, 188, 448
-0.989653, 97, 241, 352, 304
-0.989662, 161, 421, 224, 452
-0.989668, 233, 321, 264, 384
-0.989676, 57, 305, 88, 368
-0.989696, 233, 101, 296, 132
-0.98975, 97, 33, 224, 288
-0.989776, 241, 281, 368, 344
-0.989817, 225, 361, 288, 392
-0.989821, 249, 393, 312, 424
-0.989847, 241, 125, 304, 156
-0.989851, 201, 389, 264, 420
-0.989907, 149, 353, 180, 416
-0.989933, 273, 241, 336, 272
-0.989936, 201, 1, 264, 500
-0.989972, 273, 409, 336, 440
-0.990006, 121, 281, 184, 344
-0.990008, 277, 281, 308, 344
-0.990025, 165, 249, 196, 312
-0.990048, 193, 361, 256, 392
-0.990049, 233, 113, 296, 144
-0.990072, 241, 233, 368, 296
-0.990074, 89, 397, 152, 428
-0.990121, 161, 241, 192, 368
-0.99015, 301, 185, 332, 248
-0.990183, 225, 177, 256, 304
-0.990184, 201, 461, 264, 492
-0.990195, 69, 281, 100, 344
-0.990226, 281, 381, 344, 412
-0.990244, 201, 349, 264, 380
-0.990266, 161, 377, 224, 408
-0.990275, 113, 437, 176, 468
-0.99029, 329, 265, 360, 328
-0.990291, 57, 401, 120, 432
-0.990311, 273, 393, 336, 424
-0.990321, 289, 129, 352, 192
-0.990354, 257, 449, 320, 480
-0.990358, 89, 453, 152, 484
-0.990361, 161, 393, 224, 424
-0.990383, 297, 261, 360, 292
-0.990408, 201, 441, 264, 472
-0.990438, 73, 385, 136, 416
-0.990442, 265, 365, 328, 396
-0.990453, 113, 417, 176, 448
-0.990457, 1, 305, 64, 336
-0.990458, 265, 225, 328, 256
-0.990462, 161, 461, 224, 492
-0.990473, 177, 245, 240, 276
-0.990483, 209, 317, 272, 348
-0.990517, 177, 405, 240, 436
-0.990532, 241, 433, 304, 464
-0.990532, 193, 425, 256, 456
-0.990544, 89, 425, 152, 456
-0.990559, 57, 285, 120, 316
-0.99058, 145, 265, 176, 328
-0.990591, 165, 345, 196, 408
-0.990617, 169, 129, 232, 256
-0.990623, 225, 345, 288, 376
-0.990637, 89, 465, 152, 496
-0.990718, 233, 409, 296, 440
-0.990721, 133, 265, 164, 328
-0.990722, 281, 1, 344, 500
-0.990741, 333, 433, 364, 496
-0.990758, 149, 257, 180, 384
-0.990793, 225, 217, 256, 280
-0.990811, 121, 397, 184, 428
-0.99084, 89, 369, 152, 400
-0.990862, 297, 97, 360, 352
-0.990893, 177, 449, 240, 480
-0.990896, 177, 209, 240, 240
-0.9909, 201, 213, 264, 244
-0.99092, 1, 433, 128, 496
-0.990923, 9, 285, 72, 316
-0.99093, 317, 377, 348, 440
-0.990937, 125, 273, 156, 400
-0.990949, 313, 361, 375, 392
-0.990954, 325, 329, 356, 392
-0.99097, 209, 189, 272, 220
-0.990978, 137, 445, 200, 476
-0.99099, 89, 413, 152, 444
-0.991024, 209, 401, 272, 432
-0.991039, 289, 225, 352, 256
-0.991048, 225, 453, 288, 484
-0.991052, 49, 389, 112, 420
-0.991054, 201, 229, 264, 260
-0.991071, 273, 253, 336, 284
-0.991073, 57, 357, 120, 388
-0.991103, 217, 305, 280, 336
-0.991114, 5, 417, 36, 480
-0.991115, 49, 297, 112, 328
-0.991123, 289, 369, 352, 400
-0.99113, 217, 149, 280, 180
-0.991145, 65, 457, 128, 488
-0.991168, 97, 161, 224, 288
-0.991181, 93, 273, 124, 336
-0.991183, 273, 205, 336, 236
-0.991189, 297, 401, 360, 432
-0.991197, 233, 373, 296, 404
-0.991201, 121, 381, 184, 412
-0.991224, 201, 201, 264, 232
-0.991232, 209, 129, 240, 256
-0.991236, 181, 241, 212, 368
-0.99124, 137, 369, 200, 400
-0.991252, 49, 421, 112, 452
-0.991277, 289, 357, 352, 388
-0.991284, 293, 145, 324, 272
-0.991294, 17, 461, 80, 492
-0.991296, 273, 437, 336, 468
-0.991296, 193, 329, 256, 360
-0.991296, 33, 281, 64, 344
-0.991309, 249, 349, 312, 380
-0.991313, 109, 257, 140, 384
-0.991313, 185, 373, 248, 404
-0.99132, 321, 353, 352, 480
-0.991322, 257, 381, 320, 412
-0.991324, 113, 449, 176, 480
-0.991333, 257, 181, 320, 212
-0.991336, 229, 305, 260, 432
-0.991368, 257, 421, 320, 452
-0.991373, 137, 461, 200, 492
-0.991378, 97, 269, 160, 300
-0.991385, 177, 305, 208, 432
-0.991386, 297, 273, 360, 304
-0.991399, 129, 361, 375, 424
-0.991399, 65, 373, 128, 404
-0.991403, 17, 317, 80, 348
-0.991426, 73, 441, 136, 472
-0.991433, 225, 389, 288, 420
-0.991436, 233, 421, 296, 452
-0.991452, 265, 125, 328, 156
-0.991464, 161, 357, 224, 388
-0.991472, 153, 405, 216, 436
-0.991474, 153, 265, 216, 296
-0.991484, 121, 265, 184, 296
-0.991498, 305, 389, 368, 420
-0.991523, 281, 425, 344, 456
-0.991527, 169, 345, 232, 376
-0.991583, 1, 353, 375, 416
-0.991583, 177, 269, 240, 300
-0.991595, 209, 177, 272, 208
-0.991598, 25, 305, 88, 336
-0.991604, 201, 241, 264, 272
-0.991611, 265, 101, 328, 132
-0.991616, 33, 285, 96, 316
-0.991617, 249, 153, 312, 184
-0.991622, 113, 469, 176, 500
-0.991637, 285, 229, 316, 260
-0.99164, 217, 329, 280, 360
-0.991644, 249, 465, 312, 496
-0.991645, 209, 377, 272, 408
-0.991655, 329, 305, 360, 432
-0.991662, 97, 385, 160, 416
-0.991662, 253, 97, 284, 128
-0.991678, 289, 185, 352, 216
-0.991682, 177, 177, 240, 208
-0.991684, 209, 165, 272, 196
-0.991687, 201, 413, 264, 444
-0.9917, 33, 409, 96, 440
-0.991709, 313, 281, 375, 344
-0.991716, 257, 169, 320, 200
-0.991749, 33, 369, 96, 400
-0.991764, 65, 469, 128, 500
-0.991807, 289, 165, 352, 196
-0.991835, 297, 449, 360, 480
-0.991841, 233, 317, 296, 348
-0.991842, 41, 457, 104, 488
-0.991849, 97, 33, 352, 160
-0.991853, 49, 445, 112, 476
-0.991855, 113, 369, 176, 400
-0.991858, 129, 161, 375, 224
-0.991881, 121, 233, 184, 296
-0.991881, 153, 233, 216, 296
-0.991892, 209, 117, 272, 148
-0.991892, 177, 197, 240, 228
-0.991904, 177, 1, 240, 500
-0.991909, 285, 217, 316, 248
-0.99193, 25, 381, 88, 412
-0.991931, 209, 73, 272, 136
-0.991952, 265, 113, 328, 144
-0.991958, 129, 401, 375, 464
-0.991962, 305, 237, 368, 268
-0.991989, 1, 257, 128, 320
-0.992001, 97, 257, 128, 384
-0.992018, 137, 257, 168, 384
-0.992025, 1, 433, 256, 496
-0.992074, 241, 185, 368, 248
-0.992091, 285, 241, 316, 272
-0.992154, 193, 81, 256, 208
-0.992167, 229, 65, 260, 192
-0.992172, 213, 193, 244, 224
-0.992172, 253, 129, 284, 160
-0.992177, 241, 305, 368, 368
-0.992213, 145, 121, 272, 184
-0.992233, 65, 265, 320, 328
-0.992264, 205, 393, 236, 424
-0.992268, 121, 209, 184, 336
-0.992278, 113, 81, 240, 208
-0.992291, 285, 201, 316, 232
-0.992293, 161, 421, 192, 452
-0.992294, 213, 217, 244, 248
-0.992299, 297, 401, 328, 432
-0.992306, 219, 169, 234, 232
-0.992309, 185, 121, 248, 184
-0.99234, 253, 113, 284, 144
-0.992349, 289, 289, 320, 416
-0.992384, 129, 185, 375, 248
-0.992388, 193, 405, 224, 436
-0.992389, 213, 345, 244, 376
-0.992402, 205, 249, 236, 280
-0.992409, 25, 257, 56, 384
-0.992412, 193, 149, 320, 180
-0.99242, 241, 257, 304, 320
-0.992426, 145, 73, 272, 136
-0.99244, 145, 33, 272, 160
-0.99246, 273, 81, 336, 144
-0.992469, 141, 321, 172, 448
-0.992471, 225, 145, 256, 176
-0.99248, 253, 361, 284, 392
-0.992485, 113, 433, 144, 464
-0.992489, 209, 205, 240, 236
-0.992516, 145, 429, 176, 460
-0.992522, 161, 433, 192, 464
-0.992535, 209, 357, 240, 388
-0.992537, 129, 425, 375, 488
-0.992542, 49, 241, 80, 368
-0.992552, 193, 161, 320, 192
-0.992568, 109, 445, 140, 476
-0.992585, 233, 357, 264, 388
-0.992602, 177, 429, 208, 460
-0.992602, 193, 361, 224, 392
-0.992627, 265, 369, 296, 400
-0.992637, 209, 181, 240, 212
-0.992642, 1, 297, 256, 360
-0.992654, 277, 413, 308, 444
-0.992655, 241, 161, 368, 224
-0.992657, 125, 421, 156, 452
-0.992665, 153, 1, 216, 500
-0.992667, 121, 321, 184, 384
-0.992667, 177, 401, 208, 432
-0.992667, 129, 437, 160, 468
-0.99268, 305, 385, 336, 416
-0.99268, 185, 417, 216, 448
-0.992695, 217, 425, 248, 456
-0.9927, 201, 233, 232, 264
-0.992702, 237, 137, 268, 168
-0.992705, 289, 381, 320, 412
-0.99271, 93, 397, 124, 428
-0.992711, 45, 293, 76, 324
-0.992717, 1, 257, 375, 320
-0.992723, 297, 245, 328, 276
-0.992732, 209, 405, 240, 436
-0.992758, 277, 401, 308, 432
-0.992765, 189, 393, 220, 424
-0.992774, 81, 421, 112, 452
-0.992775, 101, 429, 132, 460
-0.992778, 297, 421, 328, 452
-0.99278, 309, 373, 340, 404
-0.992783, 185, 381, 216, 412
-0.992791, 173, 417, 204, 448
-0.992791, 145, 409, 176, 440
-0.992794, 237, 461, 268, 492
-0.992795, 285, 365, 316, 396
-0.992799, 1, 249, 64, 312
-0.9928, 69, 461, 100, 492
-0.992801, 1, 457, 32, 488
-0.992803, 133, 397, 164, 428
-0.992809, 249, 393, 280, 424
-0.992813, 317, 393, 348, 424
-0.992817, 197, 421, 228, 452
-0.992825, 285, 257, 316, 288
-0.992829, 157, 445, 188, 476
-0.99283, 221, 229, 252, 260
-0.992833, 97, 337, 352, 400
-0.992844, 237, 433, 268, 464
-0.992847, 201, 217, 232, 248
-0.992849, 173, 441, 204, 472
-0.992852, 153, 369, 184, 400
-0.992854, 105, 413, 136, 444
-0.992856, 9, 369, 40, 400
-0.992857, 205, 381, 236, 412
-0.992857, 121, 405, 152, 436
-0.992858, 237, 405, 268, 436
-0.992859, 225, 193, 256, 224
-0.992865, 225, 385, 256, 416
-0.992869, 121, 365, 152, 396
-0.992876, 253, 129, 284, 256
-0.992878, 285, 189, 316, 220
-0.992889, 185, 469, 216, 500
-0.992891, 273, 229, 304, 260
-0.992898, 113, 385, 144, 416
-0.992901, 57, 297, 88, 328
-0.99292, 273, 217, 304, 248
-0.992922, 273, 357, 304, 388
-0.992926, 269, 381, 300, 412
-0.992927, 69, 421, 100, 452
-0.992932, 193, 457, 224, 488
-0.992934, 253, 413, 284, 444
-0.992935, 253, 349, 284, 380
-0.992939, 89, 433, 120, 464
-0.992942, 301, 257, 332, 288
-0.992945, 253, 301, 284, 332
-0.992946, 81, 241, 208, 304
-0.992949, 229, 445, 260, 476
-0.99295, 81, 465, 112, 496
-0.992962, 33, 361, 288, 424
-0.992971, 125, 449, 156, 480
-0.992982, 49, 281, 80, 312
-0.992986, 189, 445, 220, 476
-0.992989, 21, 369, 52, 400
-0.992989, 57, 373, 88, 404
-0.992994, 173, 369, 204, 400
-0.992998, 321, 369, 352, 400
-0.992998, 297, 365, 328, 396
-0.992999, 281, 173, 312, 204
-0.993001, 77, 357, 108, 388
-0.993002, 205, 301, 236, 332
-0.993002, 1, 321, 32, 352
-0.993003, 169, 461, 200, 492
-0.993004, 97, 373, 128, 404
-0.993006, 205, 453, 236, 484
-0.993007, 253, 33, 284, 160
-0.993012, 97, 453, 128, 484
-0.993015, 93, 417, 124, 448
-0.993019, 205, 269, 236, 300
-0.99302, 81, 369, 112, 400
-0.993021, 69, 381, 100, 412
-0.993025, 225, 205, 256, 236
-0.993025, 277, 153, 308, 184
-0.993026, 133, 409, 164, 440
-0.993029, 253, 445, 284, 476
-0.993031, 217, 449, 248, 480
-0.993032, 253, 313, 284, 344
-0.993032, 309, 405, 340, 436
-0.993034, 249, 381, 280, 412
-0.993036, 241, 345, 272, 376
-0.993036, 221, 157, 252, 188
-0.993037, 193, 341, 224, 372
-0.993037, 45, 429, 76, 460
-0.993042, 241, 125, 272, 156
-0.993043, 249, 461, 280, 492
-0.993045, 153, 177, 216, 304
-0.993047, 297, 233, 328, 264
-0.99305, 145, 397, 176, 428
-0.993051, 285, 445, 316, 476
-0.993054, 189, 257, 220, 288
-0.993055, 301, 185, 332, 216
-0.993146, 215, 217, 230, 280
-0.993169, 33, 385, 288, 448
-0.99321, 65, 313, 192, 376
-0.993275, 269, 241, 300, 368
-0.993277, 241, 121, 368, 184
-0.993292, 193, 197, 320, 228
-0.993305, 1, 209, 128, 336
-0.993354, 287, 217, 302, 280
-0.993358, 241, 209, 368, 272
-0.993368, 89, 241, 152, 304
-0.993435, 129, 217, 375, 280
-0.99347, 1, 321, 256, 384
-0.993483, 129, 137, 375, 200
-0.993492, 169, 129, 232, 384
-0.993522, 255, 89, 270, 152
-0.993697, 267, 97, 282, 160
-0.993698, 161, 361, 288, 392
-0.993772, 209, 173, 336, 204
-0.993776, 97, 289, 352, 352
-0.993797, 175, 417, 190, 480
-0.993823, 297, 209, 312, 272
-0.993902, 1, 393, 375, 456
-0.993926, 215, 193, 230, 256
-0.993934, 193, 209, 320, 240
-0.993946, 1, 233, 375, 296
-0.99398, 305, 1, 368, 500
-0.994022, 121, 1, 184, 500
-0.994032, 193, 185, 320, 216
-0.994068, 33, 201, 288, 264
-0.994092, 225, 145, 240, 208
-0.994191, 193, 221, 320, 252
-0.994196, 193, 241, 320, 272
-0.9942, 179, 393, 194, 456
-0.994207, 249, 113, 264, 176
-0.994214, 185, 417, 200, 480
-0.994241, 97, 1, 160, 500
-0.994313, 257, 353, 272, 416
-0.994324, 289, 305, 352, 368
-0.994325, 285, 369, 300, 432
-0.994326, 225, 73, 352, 136
-0.994409, 241, 397, 368, 428
-0.994421, 129, 425, 256, 456
-0.994421, 165, 417, 180, 480
-0.994428, 159, 385, 174, 448
-0.994465, 305, 305, 336, 432
-0.994482, 1, 209, 375, 272
-0.994505, 1, 297, 375, 360
-0.994532, 219, 321, 234, 384
-0.994547, 97, 97, 352, 160
-0.994595, 33, 409, 288, 472
-0.994648, 263, 353, 278, 416
-0.994672, 295, 185, 310, 248
-0.994676, 219, 297, 234, 360
-0.994705, 289, 241, 304, 304
-0.994723, 137, 409, 152, 472
-0.994724, 217, 249, 232, 312
-0.994725, 1, 417, 375, 480
-0.994753, 215, 345, 230, 408
-0.994767, 117, 369, 132, 432
-0.99478, 177, 349, 304, 380
-0.994794, 145, 281, 208, 344
-0.994812, 241, 361, 368, 392
-0.994818, 297, 377, 312, 440
-0.994842, 275, 105, 290, 168
-0.994847, 177, 425, 304, 456
-0.994858, 297, 353, 312, 416
-0.994861, 255, 409, 270, 472
-0.994869, 113, 437, 240, 468
-0.994879, 189, 393, 204, 456
-0.994886, 225, 193, 240, 256
-0.994923, 267, 377, 282, 440
-0.994936, 193, 137, 320, 168
-0.994955, 221, 129, 252, 384
-0.994955, 247, 329, 262, 392
-0.994962, 169, 393, 184, 456
-0.994973, 209, 409, 336, 440
-0.994982, 149, 393, 164, 456
-0.994984, 277, 129, 308, 384
-0.994999, 177, 457, 304, 488
-0.995001, 205, 361, 220, 424
-0.995023, 215, 377, 230, 440
-0.995061, 33, 161, 288, 224
-0.995078, 291, 361, 306, 424
-0.995109, 261, 89, 276, 152
-0.995111, 127, 417, 142, 480
-0.995119, 129, 413, 256, 444
-0.995132, 1, 177, 375, 240
-0.995144, 231, 137, 246, 200
-0.995174, 313, 305, 375, 368
-0.995176, 159, 409, 174, 472
-0.995198, 49, 369, 176, 400
-0.995211, 287, 145, 302, 208
-0.995226, 241, 385, 368, 416
-0.995229, 241, 49, 304, 176
-0.995229, 159, 433, 174, 496
-0.995243, 277, 401, 292, 464
-0.995243, 129, 265, 256, 296
-0.995252, 265, 1, 328, 256
-0.995285, 269, 353, 284, 416
-0.995288, 245, 433, 260, 496
-0.995293, 85, 425, 100, 488
-0.995295, 209, 253, 336, 284
-0.995299, 305, 361, 320, 424
-0.995305, 305, 241, 320, 304
-0.99531, 81, 413, 208, 444
-0.995316, 259, 377, 274, 440
-0.995318, 339, 369, 354, 432
-0.995343, 205, 393, 220, 456
-0.995344, 249, 353, 264, 416
-0.995344, 41, 1, 104, 500
-0.99536, 253, 65, 284, 320
-0.995366, 221, 217, 236, 280
-0.995378, 225, 421, 352, 452
-0.995404, 135, 385, 150, 448
-0.995406, 193, 389, 320, 420
-0.995406, 179, 361, 194, 424
-0.995412, 81, 361, 96, 424
-0.995418, 1, 313, 128, 344
-0.995434, 233, 425, 248, 488
-0.995439, 109, 385, 124, 448
-0.995471, 129, 377, 256, 408
-0.995473, 97, 457, 224, 488
-0.995479, 153, 433, 168, 496
-0.995484, 1, 137, 375, 200
-0.995488, 289, 193, 304, 256
-0.995489, 211, 241, 226, 304
-0.995493, 193, 373, 320, 404
-0.995505, 17, 321, 32, 384
-0.995513, 253, 377, 268, 440
-0.995528, 145, 401, 272, 432
-0.995534, 17, 433, 144, 464
-0.995537, 113, 365, 240, 396
-0.995552, 177, 469, 304, 500
-0.99558, 269, 409, 284, 472
-0.99559, 33, 421, 160, 452
-0.995592, 81, 425, 208, 456
-0.995606, 225, 209, 288, 272
-0.995607, 269, 121, 284, 184
-0.995612, 177, 445, 304, 476
-0.995614, 327, 353, 342, 416
-0.995617, 281, 81, 312, 208
-0.995626, 227, 401, 242, 464
-0.995626, 129, 389, 256, 420
-0.995637, 211, 425, 226, 488
-0.995642, 53, 281, 68, 344
-0.995647, 297, 233, 312, 296
-0.99565, 209, 321, 224, 384
-0.995696, 17, 1, 80, 500
-0.995703, 177, 113, 304, 144
-0.99572, 293, 153, 308, 216
-0.995736, 315, 361, 330, 424
-0.995738, 103, 361, 118, 424
-0.99574, 87, 385, 102, 448
-0.995764, 257, 225, 288, 352
-0.995784, 91, 425, 106, 488
-0.995785, 65, 393, 192, 424
-0.995795, 177, 325, 304, 356
-0.9958, 361, 417, 375, 480
-0.995806, 243, 105, 258, 168
-0.995817, 11, 281, 26, 344
-0.995822, 65, 1, 128, 500
-0.995823, 129, 349, 256, 380
-0.995826, 241, 345, 256, 408
-0.995832, 239, 393, 254, 456
-0.995838, 89, 313, 152, 376
-0.995847, 1, 329, 375, 392
-0.995852, 275, 377, 290, 440
-0.99587, 129, 313, 375, 376
-0.995873, 251, 281, 266, 344
-0.995874, 17, 161, 80, 416
-0.995882, 201, 193, 232, 448
-0.995898, 197, 393, 212, 456
-0.995918, 1, 369, 128, 400
-0.995921, 135, 433, 150, 496
-0.995926, 255, 113, 270, 176
-0.995946, 249, 409, 264, 472
-0.995958, 241, 449, 368, 480
-0.99597, 239, 137, 254, 200
-0.995973, 75, 369, 90, 432
-0.995979, 221, 345, 236, 408
-0.99598, 1, 381, 128, 412
-0.995991, 81, 393, 96, 456
-0.995995, 63, 281, 78, 344
-0.995998, 129, 253, 256, 284
-0.996006, 225, 105, 352, 136
-0.996034, 251, 433, 266, 496
-0.99604, 115, 425, 130, 488
-0.99606, 169, 369, 184, 432
-0.996077, 17, 301, 144, 332
-0.996084, 193, 269, 320, 300
-0.996093, 187, 369, 202, 432
-0.996097, 145, 369, 160, 432
-0.996112, 209, 209, 224, 272
-0.996121, 263, 329, 278, 392
-0.99614, 177, 313, 304, 344
-0.996142, 221, 385, 236, 448
-0.996147, 321, 369, 336, 432
-0.996149, 241, 349, 368, 380
-0.996161, 143, 409, 158, 472
-0.996165, 17, 357, 144, 388
-0.996179, 287, 401, 302, 464
-0.996184, 281, 201, 296, 264
-0.996191, 253, 321, 268, 384
-0.996198, 231, 377, 246, 440
-0.996201, 1, 465, 128, 496
-0.996206, 197, 361, 212, 424
-0.996213, 241, 265, 368, 296
-0.996219, 189, 177, 220, 304
-0.996221, 91, 353, 106, 416
-0.996234, 239, 433, 254, 496
-0.996242, 49, 465, 176, 496
-0.996245, 205, 425, 220, 488
-0.996246, 151, 369, 166, 432
-0.996247, 221, 417, 236, 480
-0.996248, 109, 433, 124, 496
-0.99625, 295, 433, 310, 496
-0.996264, 303, 385, 318, 448
-0.996273, 75, 345, 90, 408
-0.996292, 81, 381, 208, 412
-0.996298, 5, 281, 20, 344
-0.996298, 97, 433, 112, 496
-0.996302, 5, 361, 20, 424
-0.996306, 163, 361, 178, 424
-0.996311, 275, 137, 290, 200
-0.996316, 65, 357, 192, 388
-0.996328, 311, 385, 326, 448
-0.996341, 47, 289, 62, 352
-0.996354, 281, 145, 296, 208
-0.996367, 65, 445, 192, 476
-0.996369, 223, 265, 238, 328
-0.99638, 35, 401, 50, 464
-0.996386, 101, 385, 116, 448
-0.996386, 313, 209, 344, 336
-0.996389, 17, 361, 32, 424
-0.9964, 225, 437, 352, 468
-0.996415, 137, 161, 200, 416
-0.996449, 1, 393, 128, 424
-0.996451, 289, 193, 320, 448
-0.996463, 33, 129, 288, 192
-0.996489, 241, 373, 368, 404
-0.996511, 177, 97, 304, 128
-0.996512, 49, 285, 176, 316
-0.996536, 241, 65, 272, 320
-0.996552, 265, 97, 296, 352
-0.996666, 129, 277, 256, 308
-0.996692, 217, 213, 232, 244
-0.996706, 225, 465, 352, 496
-0.996717, 193, 337, 320, 368
-0.996719, 41, 249, 104, 312
-0.996733, 193, 289, 320, 320
-0.996736, 81, 273, 208, 304
-0.996787, 289, 225, 304, 256
-0.996796, 225, 125, 352, 156
-0.996838, 113, 205, 240, 236
-0.99684, 241, 277, 368, 308
-0.996879, 113, 229, 240, 260
-0.996902, 171, 417, 186, 448
-0.996907, 177, 421, 192, 452
-0.996911, 129, 161, 256, 192
-0.996912, 219, 181, 234, 212
-0.996926, 73, 161, 136, 416
-0.996933, 1, 289, 128, 320
-0.996934, 17, 405, 144, 436
-0.996947, 213, 225, 228, 256
-0.996972, 163, 421, 178, 452
-0.996976, 277, 225, 308, 480
-0.996994, 197, 129, 228, 256
-0.997006, 301, 225, 332, 480
-0.997017, 297, 233, 312, 264
-0.997019, 215, 237, 230, 268
-0.997066, 1, 241, 256, 304
-0.997072, 253, 97, 268, 128
-0.99709, 97, 469, 224, 500
-0.997101, 1, 257, 32, 500
-0.997107, 193, 301, 320, 332
-0.997121, 129, 173, 256, 204
-0.997135, 213, 257, 244, 500
-0.997149, 113, 289, 240, 320
-0.997169, 269, 101, 284, 132
-0.997184, 219, 197, 234, 228
-0.997216, 113, 329, 240, 360
-0.997222, 169, 429, 184, 460
-0.997237, 345, 257, 375, 500
-0.997242, 129, 241, 256, 272
-0.997271, 225, 93, 352, 124
-0.997292, 1, 113, 375, 176
-0.997299, 257, 357, 272, 388
-0.9973, 289, 241, 304, 272
-0.997309, 17, 445, 144, 476
-0.99731, 231, 145, 246, 176
-0.997321, 113, 217, 240, 248
-0.997351, 305, 193, 368, 256
-0.997351, 225, 225, 256, 480
-0.997359, 261, 93, 276, 124
-0.997359, 177, 125, 304, 156
-0.997363, 163, 433, 178, 464
-0.997369, 213, 349, 228, 380
-0.997379, 297, 213, 312, 244
-0.997388, 113, 317, 240, 348
-0.99739, 81, 261, 208, 292
-0.997401, 129, 149, 256, 180
-0.997402, 313, 401, 328, 432
-0.997423, 69, 257, 100, 500
-0.997424, 145, 321, 208, 384
-0.997454, 207, 361, 222, 392
-0.997458, 129, 185, 256, 216
-0.997458, 183, 417, 198, 448
-0.997468, 267, 365, 282, 396
-0.997487, 109, 437, 124, 468
-0.997494, 119, 385, 134, 416
-0.997498, 307, 405, 322, 436
-0.997504, 237, 209, 268, 336
-0.997507, 123, 373, 138, 404
-0.997533, 219, 225, 234, 256
-0.997537, 203, 401, 218, 432
-0.997539, 295, 201, 310, 232
-0.997546, 113, 373, 128, 404
-0.997549, 175, 441, 190, 472
-0.997557, 197, 469, 212, 500
-0.997562, 245, 457, 260, 488
-0.997567, 217, 325, 232, 356
-0.997591, 189, 225, 220, 480
-0.9976, 113, 301, 240, 332
-0.997603, 217, 249, 232, 280
-0.997629, 289, 429, 304, 460
-0.997634, 217, 337, 232, 368
-0.997636, 289, 213, 304, 244
-0.997647, 129, 433, 144, 464
-0.997656, 249, 133, 264, 164
-0.997658, 241, 353, 256, 384
-0.99766, 129, 97, 256, 160
-0.997662, 103, 445, 118, 476
-0.997663, 215, 301, 230, 332
-0.997676, 185, 437, 200, 468
-0.99769, 261, 397, 276, 428
-0.997701, 221, 293, 236, 324
-0.997701, 233, 365, 248, 396
-0.997705, 13, 257, 44, 500
-0.997705, 219, 393, 234, 424
-0.997709, 227, 201, 242, 232
-0.997709, 255, 445, 270, 476
-0.997711, 71, 421, 86, 452
-0.997715, 293, 369, 308, 400
-0.997733, 65, 297, 192, 328
-0.997734, 177, 257, 208, 500
-0.997734, 321, 225, 352, 480
-0.997738, 223, 213, 238, 244
-0.997743, 89, 257, 120, 500
-0.997744, 303, 385, 318, 416
-0.997747, 255, 129, 270, 160
-0.997756, 247, 121, 262, 152
-0.997764, 289, 97, 320, 352
-0.997765, 241, 333, 368, 364
-0.997767, 223, 353, 238, 384
-0.997769, 239, 457, 254, 488
-0.997769, 193, 365, 208, 396
-0.997782, 205, 425, 220, 456
-0.997788, 283, 213, 298, 244
-0.997788, 293, 389, 308, 420
-0.997794, 125, 397, 140, 428
-0.997803, 33, 273, 160, 304
-0.997806, 221, 161, 236, 192
-0.997815, 181, 369, 196, 400
-0.997825, 213, 385, 228, 416
-0.99783, 117, 257, 148, 500
-0.997831, 239, 141, 254, 172
-0.997836, 213, 441, 228, 472
-0.997837, 307, 249, 322, 280
-0.997845, 135, 397, 150, 428
-0.997846, 249, 397, 264, 428
-0.997847, 115, 429, 130, 460
-0.997847, 135, 369, 150, 400
-0.997847, 153, 429, 168, 460
-0.997848, 309, 381, 324, 412
-0.997848, 213, 201, 228, 232
-0.997851, 95, 409, 110, 440
-0.997852, 289, 441, 304, 472
-0.99786, 323, 393, 338, 424
-0.99786, 267, 353, 282, 384
-0.997862, 129, 453, 144, 484
-0.997869, 131, 409, 146, 440
-0.997871, 251, 109, 266, 140
-0.997873, 27, 365, 42, 396
-0.997875, 275, 369, 290, 400
-0.997879, 113, 389, 128, 420
-0.99788, 285, 373, 300, 404
-0.997881, 265, 257, 296, 500
-0.997882, 267, 389, 282, 420
-0.99789, 299, 429, 314, 460
-0.997896, 199, 389, 214, 420
-0.997897, 61, 225, 92, 352
-0.997906, 157, 413, 172, 444
-0.99791, 229, 397, 244, 428
-0.997912, 227, 369, 242, 400
-0.997915, 95, 397, 110, 428
-0.997922, 247, 357, 262, 388
-0.997924, 165, 257, 196, 500
-0.997928, 159, 397, 174, 428
-0.997929, 113, 449, 128, 480
-0.997929, 121, 421, 136, 452
-0.997933, 213, 361, 228, 392
-0.997934, 211, 405, 226, 436
-0.997939, 203, 453, 218, 484
-0.997943, 141, 429, 156, 460
-0.997947, 197, 401, 212, 432
-0.997951, 85, 461, 100, 492
-0.997956, 303, 185, 318, 216
-0.99796, 299, 373, 314, 404
-0.997963, 217, 313, 232, 344
-0.997963, 239, 469, 254, 500
-0.997967, 209, 237, 224, 268
-0.997968, 123, 437, 138, 468
-0.997968, 287, 257, 302, 288
-0.997977, 1, 1, 128, 256
-0.997979, 289, 153, 304, 184
-0.997984, 211, 249, 226, 280
-0.997987, 81, 421, 96, 452
-0.997992, 151, 413, 166, 444
-0.997999, 1, 325, 128, 356
-0.998, 289, 401, 304, 432
-0.998004, 61, 369, 76, 400
-0.998013, 257, 377, 272, 408
-0.998015, 139, 417, 154, 448
-0.998015, 307, 369, 322, 400
-0.998018, 295, 177, 310, 208
-0.998023, 235, 353, 250, 384
-0.998024, 193, 413, 208, 444
-0.998034, 181, 469, 196, 500
-0.998035, 189, 457, 204, 488
-0.998039, 247, 329, 262, 360
-0.998042, 329, 393, 344, 424
-0.998043, 55, 293, 70, 324
-0.998069, 129, 209, 160, 336
-0.99808, 241, 189, 368, 220
-0.998093, 33, 257, 64, 500
-0.998102, 129, 257, 160, 500
-0.998134, 333, 257, 364, 500
-0.998173, 49, 257, 80, 500
-0.99818, 145, 137, 272, 168
-0.998183, 105, 257, 136, 500
-0.998192, 145, 257, 176, 500
-0.998196, 273, 33, 304, 160
-0.99824, 305, 145, 336, 272
-0.998242, 325, 209, 356, 336
-0.998311, 291, 145, 306, 272
-0.998312, 33, 73, 288, 136
-0.998317, 17, 337, 144, 368
-0.998323, 141, 209, 172, 336
-0.998354, 241, 257, 272, 500
-0.998377, 215, 177, 230, 304
-0.998385, 225, 363, 288, 378
-0.998392, 241, 205, 368, 236
-0.998395, 73, 225, 104, 352
-0.998403, 137, 427, 200, 442
-0.998407, 137, 437, 200, 452
-0.998413, 233, 143, 296, 158
-0.998423, 185, 371, 248, 386
-0.998427, 161, 433, 224, 448
-0.998438, 113, 405, 144, 420
-0.998439, 305, 383, 336, 398
-0.99844, 257, 375, 288, 390
-0.99844, 309, 389, 340, 404
-0.998441, 237, 453, 268, 468
-0.998441, 309, 403, 340, 418
-0.998441, 161, 391, 192, 406
-0.998442, 145, 373, 208, 388
-0.998443, 93, 433, 124, 448
-0.998443, 41, 301, 72, 316
-0.998445, 225, 369, 288, 384
-0.998445, 89, 391, 120, 406
-0.998445, 301, 257, 332, 272
-0.998447, 101, 441, 132, 456
-0.998447, 237, 371, 268, 386
-0.998447, 217, 369, 248, 384
-0.998447, 281, 367, 312, 382
-0.998447, 297, 371, 328, 386
-0.998448, 13, 373, 44, 388
-0.998448, 113, 371, 144, 386
-0.998448, 25, 367, 56, 382
-0.998449, 213, 245, 244, 260
-0.99845, 169, 369, 200, 384
-0.99845, 113, 455, 144, 470
-0.99845, 201, 385, 232, 400
-0.99845, 129, 443, 192, 458
-0.998451, 57, 425, 88, 440
-0.998451, 89, 439, 120, 454
-0.998451, 149, 433, 180, 448
-0.998451, 185, 419, 216, 434
-0.998452, 153, 399, 184, 414
-0.998452, 213, 351, 244, 366
-0.998453, 89, 461, 120, 476
-0.998454, 217, 425, 248, 440
-0.998454, 205, 257, 236, 272
-0.998454, 293, 387, 324, 402
-0.998455, 261, 395, 292, 410
-0.998455, 93, 379, 124, 394
-0.998456, 289, 399, 320, 414
-0.998456, 257, 401, 288, 416
-0.998456, 93, 373, 124, 388
-0.998456, 129, 371, 160, 386
-0.998457, 177, 383, 208, 398
-0.998457, 273, 1, 304, 256
-0.99846, 269, 373, 300, 388
-0.998461, 277, 427, 308, 442
-0.998461, 197, 373, 228, 388
-0.998462, 297, 409, 328, 424
-0.998464, 101, 395, 132, 410
-0.998464, 249, 409, 280, 424
-0.998467, 77, 371, 108, 386
-0.998467, 241, 137, 304, 152
-0.998469, 169, 485, 200, 500
-0.998469, 109, 377, 140, 392
-0.998469, 293, 365, 324, 380
-0.998471, 49, 1, 176, 256
-0.998471, 281, 199, 312, 214
-0.998471, 221, 209, 252, 224
-0.998472, 189, 395, 220, 410
-0.998473, 121, 427, 152, 442
-0.998474, 209, 465, 240, 480
-0.998474, 65, 461, 96, 476
-0.998474, 145, 421, 208, 436
-0.998474, 133, 425, 164, 440
-0.998475, 249, 395, 280, 410
-0.998476, 125, 439, 156, 454
-0.998477, 277, 383, 308, 398
-0.99848, 201, 245, 232, 260
-0.998482, 201, 361, 264, 376
-0.998482, 109, 435, 140, 450
-0.998482, 257, 369, 288, 384
-0.998483, 213, 185, 244, 200
-0.998483, 213, 229, 244, 244
-0.998483, 137, 477, 168, 492
-0.998485, 193, 403, 224, 418
-0.998485, 249, 365, 312, 380
-0.998486, 201, 389, 264, 404
-0.998491, 233, 107, 296, 122
-0.998492, 209, 363, 240, 378
-0.998493, 241, 113, 304, 128
-0.998493, 277, 393, 308, 408
-0.998493, 233, 359, 264, 374
-0.998494, 221, 389, 252, 404
-0.998495, 137, 409, 168, 424
-0.998496, 185, 477, 216, 492
-0.998497, 173, 375, 204, 390
-0.998497, 241, 221, 368, 252
-0.998499, 105, 383, 136, 398
-0.998499, 73, 421, 136, 436
-0.9985, 113, 429, 176, 444
-0.9985, 77, 469, 108, 484
-0.9985, 81, 423, 112, 438
-0.998502, 337, 365, 368, 380
-0.998502, 77, 429, 108, 444
-0.998502, 297, 161, 312, 288
-0.998505, 201, 391, 232, 406
-0.998505, 141, 441, 172, 456
-0.998506, 269, 367, 300, 382
-0.998507, 289, 387, 352, 402
-0.998507, 105, 371, 168, 386
-0.998508, 149, 421, 180, 436
-0.998508, 137, 435, 168, 450
-0.998509, 205, 251, 236, 266
-0.998509, 241, 101, 304, 116
-0.998509, 161, 391, 224, 406
-0.998509, 201, 469, 264, 484
-0.99851, 233, 365, 264, 380
-0.998511, 113, 447, 144, 462
-0.998511, 153, 445, 216, 460
-0.998512, 281, 407, 344, 422
-0.998512, 241, 389, 304, 404
-0.998513, 173, 443, 204, 458
-0.998514, 1, 89, 375, 152
-0.998515, 205, 403, 236, 418
-0.998516, 281, 421, 312, 436
-0.998516, 289, 381, 320, 396
-0.998517, 177, 255, 240, 270
-0.998517, 201, 451, 264, 466
-0.998518, 125, 399, 156, 414
-0.998518, 41, 429, 104, 444
-0.998518, 237, 141, 268, 156
-0.998519, 233, 119, 296, 134
-0.998519, 105, 417, 168, 432
-0.998519, 161, 443, 192, 458
-0.99852, 169, 461, 232, 476
-0.99852, 241, 129, 304, 144
-0.998521, 265, 397, 328, 412
-0.998523, 177, 439, 240, 454
-0.998524, 105, 451, 168, 466
-0.998524, 153, 371, 184, 386
-0.998524, 113, 437, 176, 452
-0.998524, 201, 203, 264, 218
-0.998527, 293, 251, 324, 266
-0.998527, 265, 371, 328, 386
-0.998529, 149, 411, 180, 426
-0.99853, 253, 141, 284, 156
-0.998531, 141, 401, 172, 416
-0.998532, 265, 387, 328, 402
-0.998536, 181, 433, 212, 448
-0.998537, 289, 415, 352, 430
-0.998537, 273, 253, 336, 268
-0.998539, 209, 357, 240, 372
-0.99854, 273, 245, 336, 260
-0.99854, 185, 485, 216, 500
-0.998543, 209, 319, 272, 334
-0.998543, 81, 345, 208, 376
-0.998545, 137, 413, 200, 428
-0.998548, 285, 205, 316, 220
-0.998548, 289, 365, 352, 380
-0.998549, 213, 223, 244, 238
-0.998549, 249, 405, 312, 420
-0.998549, 33, 467, 96, 482
-0.99855, 213, 199, 244, 214
-0.99855, 113, 423, 176, 438
-0.998551, 241, 241, 368, 272
-0.998551, 233, 377, 296, 392
-0.998552, 241, 451, 304, 466
-0.998553, 161, 427, 224, 442
-0.998553, 193, 367, 224, 382
-0.998554, 121, 433, 152, 448
-0.998556, 65, 373, 128, 388
-0.998557, 165, 419, 196, 434
-0.998557, 265, 231, 328, 246
-0.998558, 97, 399, 160, 414
-0.998558, 209, 215, 240, 230
-0.99856, 137, 473, 200, 488
-0.99856, 161, 453, 224, 468
-0.998561, 149, 427, 180, 442
-0.998561, 201, 211, 264, 226
-0.998563, 73, 427, 136, 442
-0.998564, 81, 391, 144, 406
-0.998565, 177, 381, 240, 396
-0.998566, 193, 475, 256, 490
-0.998567, 313, 365, 375, 380
-0.998567, 229, 147, 260, 162
-0.998567, 177, 397, 240, 412
-0.998568, 209, 457, 272, 472
-0.998568, 209, 325, 272, 340
-0.998569, 273, 381, 336, 396
-0.998572, 41, 423, 104, 438
-0.998573, 169, 365, 232, 380
-0.998574, 177, 469, 240, 484
-0.998574, 217, 403, 280, 418
-0.998575, 145, 401, 208, 416
-0.998576, 289, 261, 352, 276
-0.998576, 1, 313, 64, 328
-0.998576, 161, 481, 224, 496
-0.998576, 73, 379, 136, 394
-0.998577, 273, 217, 336, 232
-0.998578, 237, 467, 268, 482
-0.998579, 185, 433, 248, 448
-0.99858, 169, 475, 232, 490
-0.99858, 289, 393, 352, 408
-0.998581, 249, 359, 312, 374
-0.998581, 105, 411, 168, 426
-0.998582, 229, 33, 260, 288
-0.998582, 185, 263, 248, 278
-0.998582, 205, 397, 236, 412
-0.998582, 241, 435, 304, 450
-0.998583, 201, 355, 264, 370
-0.998583, 209, 209, 240, 224
-0.998584, 265, 225, 328, 240
-0.998586, 153, 407, 216, 422
-0.998587, 217, 347, 280, 362
-0.998587, 113, 393, 176, 408
-0.998588, 217, 441, 280, 456
-0.998588, 217, 463, 280, 478
-0.998589, 297, 271, 360, 286
-0.998589, 49, 313, 176, 344
-0.998589, 257, 107, 288, 122
-0.998589, 217, 313, 280, 328
-0.998589, 65, 463, 128, 478
-0.998589, 221, 161, 236, 288
-0.99859, 313, 419, 375, 434
-0.99859, 241, 397, 304, 412
-0.99859, 193, 403, 256, 418
-0.99859, 225, 475, 288, 490
-0.99859, 241, 383, 304, 398
-0.998591, 201, 197, 264, 212
-0.998591, 105, 405, 168, 420
-0.998592, 185, 269, 248, 284
-0.998592, 57, 469, 120, 484
-0.998593, 273, 209, 336, 224
-0.998594, 177, 421, 240, 436
-0.998594, 249, 363, 280, 378
-0.998594, 201, 229, 264, 244
-0.998595, 65, 485, 128, 500
-0.998595, 217, 149, 280, 164
-0.998595, 89, 279, 152, 294
-0.998596, 25, 367, 88, 382
-0.998597, 241, 445, 304, 460
-0.998597, 9, 291, 72, 306
-0.998598, 209, 383, 272, 398
-0.998599, 89, 445, 152, 460
-0.998599, 255, 81, 270, 208
-0.998599, 177, 447, 240, 462
-0.998599, 297, 371, 360, 386
-0.9986, 49, 397, 112, 412
-0.998601, 81, 405, 144, 420
-0.998601, 257, 413, 320, 428
-0.998602, 225, 353, 288, 368
-0.998602, 145, 263, 208, 278
-0.998602, 265, 419, 328, 434
-0.998602, 217, 395, 280, 410
-0.998603, 89, 457, 152, 472
-0.998603, 57, 299, 120, 314
-0.998603, 257, 197, 320, 212
-0.998603, 81, 469, 144, 484
-0.998603, 281, 449, 344, 464
-0.998604, 161, 433, 192, 448
-0.998605, 193, 331, 256, 346
-0.998606, 209, 307, 272, 322
-0.998616, 241, 289, 368, 320
-0.99862, 213, 191, 244, 206
-0.998622, 253, 119, 284, 134
-0.998625, 261, 353, 276, 480
-0.998626, 253, 113, 284, 128
-0.998628, 285, 211, 316, 226
-0.998633, 241, 321, 368, 352
-0.998641, 253, 129, 284, 144
-0.998651, 165, 427, 196, 442
-0.998653, 253, 135, 284, 150
-0.998672, 285, 219, 316, 234
-0.998681, 13, 305, 28, 432
-0.998682, 265, 81, 280, 208
-0.998683, 285, 237, 316, 252
-0.998696, 285, 243, 316, 258
-0.998704, 241, 137, 368, 168
-0.998706, 285, 225, 316, 240
-0.998721, 285, 193, 300, 320
-0.998721, 253, 99, 284, 114
-0.998735, 231, 129, 246, 256
-0.998753, 219, 289, 234, 416
-0.998777, 291, 209, 306, 336
-0.998798, 285, 231, 316, 246
-0.998834, 279, 129, 294, 256
-0.998835, 209, 97, 240, 352
-0.998836, 209, 353, 224, 480
-0.998841, 179, 369, 194, 496
-0.998845, 217, 241, 232, 368
-0.998853, 271, 81, 286, 208
-0.998853, 189, 353, 204, 480
-0.998913, 301, 97, 332, 352
-0.998924, 117, 353, 132, 480
-0.998928, 7, 289, 22, 416
-0.998928, 245, 161, 276, 416
-0.998932, 251, 353, 266, 480
-0.998933, 213, 81, 244, 208
-0.998944, 215, 337, 230, 464
-0.998957, 13, 353, 28, 480
-0.998976, 313, 353, 328, 480
-0.998982, 171, 369, 186, 496
-0.998982, 1, 305, 16, 432
-0.998986, 297, 209, 312, 336
-0.999001, 211, 225, 226, 352
-0.999002, 23, 289, 38, 416
-0.999007, 199, 369, 214, 496
-0.999011, 49, 161, 112, 416
-0.999012, 53, 289, 68, 416
-0.999016, 65, 289, 80, 416
-0.999018, 239, 129, 254, 256
-0.999039, 285, 145, 300, 272
-0.999043, 241, 153, 368, 184
-0.999046, 249, 81, 264, 208
-0.999054, 105, 161, 168, 416
-0.999064, 149, 369, 164, 496
-0.999064, 59, 289, 74, 416
-0.999067, 307, 353, 322, 480
-0.999067, 223, 209, 238, 336
-0.999068, 71, 289, 86, 416
-0.999069, 145, 85, 272, 116
-0.999083, 129, 353, 144, 480
-0.999083, 117, 209, 148, 336
-0.999087, 301, 353, 316, 480
-0.999091, 237, 337, 252, 464
-0.999102, 123, 353, 138, 480
-0.999107, 267, 353, 282, 480
-0.999112, 71, 337, 86, 464
-0.999116, 155, 369, 170, 496
-0.999118, 81, 337, 96, 464
-0.999119, 109, 369, 124, 496
-0.999131, 285, 241, 300, 368
-0.999133, 3, 353, 18, 480
-0.999138, 1, 257, 16, 384
-0.999141, 41, 305, 56, 432
-0.999153, 163, 369, 178, 496
-0.99916, 245, 129, 260, 256
-0.999164, 331, 369, 346, 496
-0.99917, 341, 353, 356, 480
-0.999172, 269, 305, 284, 432
-0.999175, 277, 369, 292, 496
-0.999176, 323, 353, 338, 480
-0.999186, 31, 369, 46, 496
-0.999188, 243, 337, 258, 464
-0.999199, 285, 369, 300, 496
-0.999201, 223, 337, 238, 464
-0.999203, 25, 337, 40, 464
-0.999206, 245, 289, 260, 416
-0.999206, 303, 225, 318, 352
-0.999208, 251, 273, 266, 400
-0.999209, 89, 353, 104, 480
-0.999229, 275, 273, 290, 400
-0.999236, 197, 321, 212, 448
-0.999239, 35, 305, 50, 432
-0.99924, 19, 353, 34, 480
-0.999241, 329, 321, 344, 448
-0.999241, 293, 369, 308, 496
-0.999242, 41, 369, 56, 496
-0.999251, 221, 113, 236, 240
-0.999272, 349, 273, 364, 400
-0.999284, 107, 305, 122, 432
-0.999287, 341, 257, 356, 384
-0.999287, 65, 337, 80, 464
-0.99929, 231, 369, 246, 496
-0.999294, 361, 273, 375, 400
-0.999297, 141, 353, 156, 480
-0.999297, 47, 305, 62, 432
-0.999307, 103, 353, 118, 480
-0.999309, 225, 257, 240, 384
-0.999309, 273, 129, 288, 256
-0.99931, 333, 257, 348, 384
-0.999311, 263, 305, 278, 432
-0.999311, 135, 353, 150, 480
-0.999313, 213, 289, 228, 416
-0.999318, 359, 353, 374, 480
-0.999325, 277, 65, 292, 192
-0.999328, 47, 369, 62, 496
-0.999338, 29, 289, 44, 416
-0.999338, 335, 305, 350, 432
-0.999349, 81, 289, 96, 416
-0.999365, 171, 321, 186, 448
-0.999366, 183, 305, 198, 432
-0.999366, 325, 257, 340, 384
-0.999369, 355, 273, 370, 400
-0.999375, 243, 81, 258, 208
-0.999385, 251, 129, 266, 256
-0.999389, 349, 353, 364, 480
-0.99939, 15, 257, 30, 384
-0.999399, 207, 289, 222, 416
-0.999402, 153, 257, 168, 384
-0.999407, 89, 273, 104, 400
-0.999412, 319, 305, 334, 432
-0.999413, 257, 305, 272, 432
-0.999423, 209, 177, 224, 304
-0.999424, 287, 97, 302, 224
-0.999426, 47, 257, 62, 384
-0.999431, 229, 177, 244, 304
-0.999431, 117, 305, 132, 432
-0.999434, 279, 209, 294, 336
-0.999435, 205, 225, 220, 352
-0.999439, 315, 241, 330, 368
-0.999441, 265, 33, 280, 160
-0.999449, 161, 241, 176, 368
-0.999451, 293, 289, 308, 416
-0.999453, 145, 257, 160, 384
-0.999453, 97, 321, 112, 448
-0.999459, 309, 241, 324, 368
-0.999461, 307, 305, 322, 432
-0.999466, 193, 97, 224, 352
-0.999466, 259, 33, 274, 160
-0.999472, 283, 321, 298, 448
-0.999474, 97, 257, 112, 384
-0.999475, 7, 241, 22, 368
-0.999478, 241, 305, 368, 336
-0.999494, 1, 261, 128, 292
-0.999514, 253, 257, 284, 500
-0.999525, 33, 233, 160, 296
-0.999545, 157, 193, 188, 320
-0.999587, 333, 161, 364, 416
-0.999638, 157, 399, 172, 414
-0.999638, 249, 119, 264, 134
-0.999639, 283, 429, 298, 444
-0.999639, 293, 393, 308, 408
-0.999639, 225, 213, 240, 228
-0.999642, 153, 431, 168, 446
-0.999642, 171, 443, 186, 458
-0.999642, 321, 485, 336, 500
-0.999643, 285, 153, 300, 168
-0.999644, 295, 383, 310, 398
-0.999644, 265, 397, 280, 412
-0.999645, 149, 421, 164, 436
-0.999646, 215, 301, 230, 316
-0.999647, 291, 365, 306, 380
-0.999647, 147, 427, 162, 442
-0.999647, 261, 377, 276, 392
-0.999647, 255, 135, 270, 150
-0.999647, 307, 251, 322, 266
-0.999647, 299, 245, 314, 260
-0.999648, 283, 383, 298, 398
-0.999648, 111, 441, 126, 456
-0.999648, 215, 315, 230, 330
-0.999648, 357, 369, 372, 384
-0.999649, 215, 309, 230, 324
-0.999649, 117, 439, 132, 454
-0.99965, 127, 375, 142, 390
-0.999651, 297, 371, 312, 386
-0.999651, 215, 461, 230, 476
-0.999652, 117, 369, 132, 384
-0.999652, 195, 475, 210, 490
-0.999652, 143, 437, 158, 452
-0.999652, 185, 445, 200, 460
-0.999653, 103, 373, 118, 388
-0.999653, 253, 103, 268, 118
-0.999656, 79, 435, 94, 450
-0.999656, 107, 453, 122, 468
-0.999657, 233, 371, 248, 386
-0.999658, 137, 443, 152, 458
-0.999658, 217, 321, 232, 336
-0.999659, 337, 369, 352, 384
-0.999659, 71, 427, 86, 442
-0.99966, 213, 213, 228, 228
-0.99966, 159, 411, 174, 426
-0.99966, 241, 141, 256, 156
-0.99966, 303, 381, 318, 396
-0.999661, 141, 373, 156, 388
-0.999661, 307, 405, 322, 420
-0.999661, 149, 415, 164, 430
-0.999662, 245, 207, 260, 222
-0.999663, 299, 389, 314, 404
-0.999664, 25, 369, 40, 384
-0.999664, 93, 439, 108, 454
-0.999664, 69, 433, 84, 448
-0.999664, 297, 219, 312, 234
-0.999665, 245, 463, 260, 478
-0.999668, 149, 405, 164, 420
-0.999668, 219, 231, 234, 246
-0.999668, 283, 215, 298, 230
-0.99967, 219, 197, 234, 212
-0.999672, 219, 347, 234, 362
-0.999672, 159, 431, 174, 446
-0.999672, 211, 391, 226, 406
-0.999673, 187, 477, 202, 492
-0.999673, 217, 255, 232, 270
-0.999673, 239, 457, 254, 472
-0.999674, 85, 431, 100, 446
-0.999676, 79, 429, 94, 444
-0.999677, 269, 107, 284, 122
-0.999677, 285, 373, 300, 388
-0.999677, 213, 357, 228, 372
-0.999678, 219, 185, 234, 200
-0.999678, 183, 371, 198, 386
-0.999678, 181, 481, 196, 496
-0.999679, 137, 427, 152, 442
-0.999679, 269, 365, 284, 380
-0.999679, 217, 327, 232, 342
-0.99968, 31, 469, 46, 484
-0.99968, 203, 367, 218, 382
-0.999683, 223, 223, 238, 238
-0.999684, 245, 457, 260, 472
-0.999686, 251, 371, 266, 386
-0.999686, 155, 421, 170, 436
-0.999686, 187, 485, 202, 500
-0.999686, 181, 423, 196, 438
-0.999687, 127, 437, 142, 452
-0.999687, 129, 125, 256, 156
-0.999688, 255, 395, 270, 410
-0.999691, 307, 387, 322, 402
-0.999692, 13, 161, 44, 416
-0.999693, 143, 403, 158, 418
-0.999693, 251, 363, 266, 378
-0.999694, 275, 413, 290, 428
-0.999696, 169, 371, 184, 386
-0.999696, 193, 371, 208, 386
-0.999696, 137, 437, 152, 452
-0.999697, 113, 377, 128, 392
-0.999699, 299, 233, 314, 248
-0.9997, 221, 401, 236, 416
-0.999702, 289, 381, 304, 396
-0.999702, 199, 485, 214, 500
-0.999702, 247, 139, 262, 154
-0.999703, 167, 419, 182, 434
-0.999704, 215, 237, 230, 252
-0.999705, 163, 437, 178, 452
-0.999706, 221, 191, 236, 206
-0.999706, 169, 431, 184, 446
-0.999707, 201, 395, 216, 410
-0.999708, 265, 97, 280, 112
-0.999708, 289, 221, 304, 236
-0.999711, 65, 249, 192, 280
-0.999713, 185, 431, 200, 446
-0.999713, 217, 207, 232, 222
-0.999713, 255, 97, 270, 112
-0.999714, 289, 243, 304, 258
-0.999715, 235, 145, 250, 160
-0.999715, 297, 225, 312, 240
-0.999716, 265, 391, 280, 406
-0.999718, 217, 249, 232, 264
-0.99972, 211, 363, 226, 378
-0.999729, 179, 429, 194, 444
-0.99973, 169, 425, 184, 440
-0.999735, 161, 425, 176, 440
-0.999741, 173, 161, 204, 416
-0.999741, 289, 233, 304, 248
-0.999743, 251, 111, 266, 126
-0.999747, 173, 419, 188, 434
-0.999749, 219, 213, 234, 228
-0.999749, 289, 227, 304, 242
-0.999757, 297, 239, 312, 254
-0.999758, 293, 97, 324, 224
-0.999759, 225, 81, 352, 112
-0.99976, 177, 441, 192, 456
-0.999766, 259, 363, 274, 378
-0.999785, 215, 243, 230, 258
-0.999812, 213, 227, 228, 242
-0.999835, 217, 219, 232, 234
-0.999844, 193, 1, 256, 256
-0.999861, 157, 161, 188, 416
-0.999873, 1, 161, 32, 416
-0.999954, 61, 161, 92, 416
-1, 141, 161, 172, 416
-1.00006, 65, 333, 192, 364
-1.00012, 97, 209, 128, 336
-1.00012, 169, 193, 200, 320
-1.00013, 25, 161, 56, 416
-1.00014, 121, 161, 152, 416
-1.00014, 345, 161, 375, 416
-1.0002, 105, 161, 136, 416
-1.00021, 217, 1, 248, 256
-1.00022, 225, 233, 288, 296
-1.00022, 313, 129, 344, 384
-1.00025, 41, 161, 72, 416
-1.00026, 73, 161, 104, 416
-1.00036, 85, 161, 116, 416
-1.00038, 285, 1, 316, 256
-1.00039, 341, 225, 372, 352
-1.00047, 129, 97, 256, 128
-1.00049, 205, 1, 236, 256
-1.00059, 129, 113, 256, 144
-1.00074, 177, 73, 304, 104
-1.00084, 97, 137, 224, 168
-1.00086, 81, 189, 208, 220
-1.00089, 17, 249, 144, 280
-1.00095, 225, 69, 352, 100
-1.00095, 297, 1, 328, 256
-1.00099, 1, 209, 64, 336
-1.00101, 65, 237, 192, 268
-1.00103, 241, 33, 272, 160
-1.00106, 65, 225, 192, 256
-1.00106, 17, 233, 144, 264
-1.00107, 65, 173, 192, 204
-1.00107, 33, 185, 160, 216
-1.00107, 17, 197, 144, 228
-1.00107, 65, 201, 192, 232
-1.00107, 17, 209, 144, 240
-1.00107, 65, 213, 192, 244
-1.00107, 17, 221, 144, 252
-1.00107, 225, 49, 352, 112
-1.00117, 193, 97, 256, 160
-1.00129, 181, 65, 212, 320
-1.00134, 157, 65, 188, 320
-1.00134, 97, 129, 224, 192
-1.00138, 325, 65, 356, 320
-1.0014, 169, 65, 200, 320
-1.00147, 1, 105, 256, 168
-1.00148, 145, 65, 176, 320
-1.0015, 129, 57, 375, 120
-1.00152, 177, 49, 304, 112
-1.00156, 33, 49, 288, 112
-1.00159, 345, 1, 375, 256
-1.00163, 81, 177, 208, 240
-1.00168, 193, 1, 224, 256
-1.00172, 53, 1, 84, 256
-1.00175, 133, 65, 164, 320
-1.00177, 65, 1, 96, 256
-1.00178, 25, 1, 56, 256
-1.00179, 1, 1, 32, 256
-1.0018, 121, 65, 152, 320
-1.00181, 81, 1, 112, 256
-1.00182, 41, 1, 72, 256
-1.00184, 13, 1, 44, 256
-1.00184, 109, 1, 140, 256
-1.00185, 85, 225, 116, 352
-1.00185, 93, 1, 124, 256
-1.00196, 129, 33, 375, 96
-1.00197, 313, 1, 344, 256
-1.00198, 1, 65, 375, 128
-1.00202, 265, 17, 328, 144
-1.00212, 33, 1, 288, 64
-1.00212, 129, 9, 375, 72
-1.00212, 33, 25, 288, 88
-1.00215, 65, 209, 192, 272
-1.00246, 5, 209, 36, 336
-1.00269, 169, 33, 232, 288
-1.00291, 1, 1, 128, 64
-1.00291, 49, 1, 176, 64
-1.00291, 97, 1, 224, 64
-1.00291, 145, 1, 272, 64
-1.00291, 193, 1, 320, 64
-1.00291, 241, 1, 368, 64
-1.00291, 1, 25, 128, 88
-1.00291, 49, 25, 176, 88
-1.00291, 97, 25, 224, 88
-1.00291, 145, 25, 272, 88
-1.00291, 193, 25, 320, 88
-1.00291, 241, 25, 368, 88
-1.00291, 1, 49, 128, 112
-1.00291, 49, 49, 176, 112
-1.00291, 97, 49, 224, 112
-1.00291, 1, 73, 128, 136
-1.00291, 49, 73, 176, 136
-1.00291, 97, 73, 224, 136
-1.00291, 33, 97, 160, 160
-1.00291, 81, 97, 208, 160
-1.00291, 1, 121, 128, 184
-1.00291, 49, 121, 176, 184
-1.00291, 1, 145, 128, 208
-1.00291, 49, 145, 176, 208
-1.00291, 33, 169, 160, 232
-1.00291, 17, 193, 144, 256
-1.00312, 37, 209, 68, 336
-1.00313, 65, 233, 128, 296
-1.00355, 289, 81, 352, 208
-1.00361, 1, 41, 375, 104
-1.00381, 209, 49, 272, 112
-1.00387, 1, 17, 375, 80
-1.00418, 201, 81, 232, 208
-1.00433, 289, 1, 352, 256
-1.0047, 249, 49, 312, 112
-1.00519, 153, 209, 216, 272
-1.00529, 225, 1, 352, 128
-1.0058, 17, 209, 48, 336
-1.00615, 49, 193, 80, 320
-1.00639, 249, 177, 280, 304
-1.00673, 97, 177, 160, 304
-1.00679, 345, 177, 375, 304
-1.00741, 289, 105, 352, 168
-1.00741, 229, 17, 260, 144
-1.00752, 321, 161, 352, 288
-1.00758, 305, 97, 336, 224
-1.00769, 153, 177, 216, 240
-1.00787, 49, 177, 176, 304
-1.00808, 89, 217, 152, 280
-1.00825, 273, 57, 336, 120
-1.00839, 313, 145, 375, 208
-1.0089, 33, 193, 96, 320
-1.00903, 313, 89, 375, 152
-1.00904, 81, 177, 112, 304
-1.00906, 185, 73, 248, 136
-1.00906, 33, 217, 96, 280
-1.00909, 129, 161, 160, 288
-1.00924, 313, 65, 375, 128
-1.00924, 9, 209, 72, 272
-1.00925, 333, 161, 364, 288
-1.00926, 145, 161, 176, 288
-1.00934, 41, 145, 72, 272
-1.00936, 345, 129, 375, 256
-1.0094, 113, 129, 144, 256
-1.00947, 345, 81, 375, 208
-1.00953, 345, 33, 375, 160
-1.0098, 145, 65, 208, 320
-1.01005, 25, 1, 88, 256
-1.01016, 57, 1, 120, 256
-1.01025, 17, 129, 144, 256
-1.01038, 97, 17, 224, 144
-1.01038, 17, 33, 144, 160
-1.01038, 65, 65, 192, 192
-1.01038, 17, 81, 144, 208
-1.01038, 65, 113, 192, 240
-1.01052, 97, 1, 160, 256
-1.01069, 169, 81, 232, 208
-1.01084, 1, 33, 64, 288
-1.01125, 121, 1, 184, 256
-1.01128, 241, 1, 304, 128
-1.01287, 1, 33, 256, 160
-1.01297, 313, 1, 375, 256
-1.01316, 313, 145, 375, 272
-1.01348, 73, 177, 136, 304
-1.01429, 313, 33, 375, 160
-1.01442, 289, 1, 352, 128
-1.01452, 313, 81, 375, 208
-1.01452, 97, 129, 160, 256
-1.01452, 25, 145, 88, 272
-1.01468, 129, 161, 192, 288
-1.01474, 193, 33, 256, 160
-1.01478, 49, 1, 112, 128
-1.01478, 161, 17, 224, 144
-1.01478, 17, 33, 80, 160
-1.01478, 73, 33, 136, 160
-1.01478, 97, 33, 160, 160
-1.01478, 121, 33, 184, 160
-1.01478, 41, 49, 104, 176
-1.01478, 145, 65, 208, 192
-1.01478, 9, 81, 72, 208
-1.01478, 65, 81, 128, 208
-1.01478, 89, 81, 152, 208
-1.01478, 113, 81, 176, 208
-1.01478, 33, 97, 96, 224
-1.01478, 137, 113, 200, 240
-1.01478, 1, 129, 64, 256
-1.01478, 57, 129, 120, 256
