1963
-0.321291, 1, 1, 500, 375
-0.358652, 1, 1, 500, 256
-0.440456, 33, 1, 288, 375
-0.451277, 1, 97, 500, 352
-0.507634, 161, 1, 416, 375
-0.55102, 257, 1, 500, 375
-0.574534, 193, 1, 448, 256
-0.594487, 65, 129, 320, 375
-0.647586, 257, 129, 500, 375
-0.673463, 161, 129, 416, 375
-0.745409, 97, 1, 352, 256
-0.78706, 1, 1, 256, 256
-0.840756, 113, 1, 240, 375
-0.849882, 81, 129, 208, 375
-0.859736, 337, 1, 464, 256
-0.862048, 161, 129, 288, 375
-0.874064, 353, 1, 480, 375
-0.878015, 1, 161, 500, 288
-0.878888, 65, 1, 192, 375
-0.882173, 1, 81, 500, 208
-0.883936, 353, 97, 480, 352
-0.885608, 1, 1, 500, 128
-0.892734, 177, 1, 304, 375
-0.893633, 65, 177, 320, 304
-0.895458, 209, 129, 336, 375
-0.898329, 129, 1, 256, 256
-0.902536, 1, 225, 500, 352
-0.903393, 273, 65, 400, 320
-0.905894, 161, 177, 416, 304
-0.905974, 81, 33, 208, 288
-0.906163, 17, 1, 144, 375
-0.911474, 177, 1, 304, 256
-0.912923, 225, 1, 352, 375
-0.91647, 273, 1, 400, 375
-0.9175, 81, 177, 208, 304
-0.918118, 33, 129, 160, 375
-0.920957, 97, 241, 352, 368
-0.921012, 97, 129, 352, 256
-0.92306, 257, 113, 500, 240
-0.923098, 225, 1, 352, 256
-0.925834, 145, 193, 272, 320
-0.926875, 257, 193, 500, 320
-0.928405, 33, 1, 160, 256
-0.930951, 193, 65, 448, 192
-0.931043, 193, 1, 448, 128
-0.93122, 145, 225, 208, 352
-0.932744, 361, 65, 424, 192
-0.934321, 353, 129, 480, 256
-0.934409, 97, 161, 160, 288
-0.934653, 193, 241, 448, 368
-0.936585, 337, 81, 464, 208
-0.937632, 1, 225, 256, 352
-0.93764, 145, 177, 208, 304
-0.940777, 193, 193, 320, 320
-0.942393, 129, 241, 256, 368
-0.943208, 225, 209, 288, 336
-0.944375, 409, 1, 472, 128
-0.944462, 241, 177, 368, 304
-0.944701, 185, 193, 248, 320
-0.945746, 145, 233, 208, 296
-0.945812, 393, 81, 456, 208
-0.94624, 81, 225, 208, 352
-0.948772, 97, 1, 352, 128
-0.948849, 305, 177, 368, 304
-0.949267, 353, 113, 416, 240
-0.949288, 249, 177, 312, 304
-0.949402, 145, 145, 272, 272
-0.951907, 177, 241, 304, 368
-0.953484, 121, 161, 184, 288
-0.954061, 97, 129, 224, 256
-0.954954, 145, 129, 208, 256
-0.955269, 185, 145, 248, 272
-0.956026, 305, 1, 432, 128
-0.956697, 33, 81, 288, 208
-0.957014, 361, 1, 424, 128
-0.957319, 273, 177, 336, 304
-0.957586, 393, 113, 456, 176
-0.957713, 273, 225, 400, 352
-0.95798, 193, 241, 256, 368
-0.958924, 353, 33, 480, 160
-0.959296, 105, 169, 168, 232
-0.95963, 1, 129, 256, 256
-0.960331, 353, 73, 416, 136
-0.960902, 105, 241, 168, 368
-0.962003, 329, 97, 392, 224
-0.962334, 273, 113, 400, 240
-0.963214, 33, 177, 160, 304
-0.96339, 289, 177, 416, 304
-0.963764, 361, 129, 424, 192
-0.963914, 281, 225, 344, 352
-0.964286, 321, 177, 384, 240
-0.96509, 225, 233, 288, 296
-0.965162, 209, 129, 272, 256
-0.96614, 145, 201, 208, 264
-0.966162, 377, 81, 440, 144
-0.966584, 1, 33, 256, 160
-0.966982, 345, 161, 408, 224
-0.967108, 249, 193, 312, 256
-0.967267, 129, 1, 256, 128
-0.967449, 273, 257, 336, 320
-0.967537, 113, 81, 240, 208
-0.967643, 185, 201, 248, 264
-0.967688, 353, 161, 416, 288
-0.967885, 209, 201, 272, 264
-0.968285, 57, 209, 120, 336
-0.968445, 185, 273, 248, 336
-0.968487, 193, 145, 320, 272
-0.96903, 97, 129, 160, 375
-0.969345, 113, 97, 176, 224
-0.969442, 49, 97, 176, 224
-0.969496, 145, 257, 208, 320
-0.969606, 385, 33, 448, 160
-0.969608, 417, 129, 480, 256
-0.969678, 105, 273, 168, 336
-0.969735, 365, 65, 396, 192
-0.969755, 257, 225, 320, 352
-0.969911, 225, 241, 352, 368
-0.969967, 329, 161, 392, 288
-0.970349, 337, 89, 464, 152
-0.97037, 145, 201, 272, 264
-0.970437, 321, 249, 384, 312
-0.970572, 17, 225, 144, 352
-0.970599, 313, 201, 376, 264
-0.970645, 409, 9, 472, 72
-0.970864, 145, 97, 208, 352
-0.970914, 129, 177, 192, 240
-0.971085, 81, 233, 208, 296
-0.971362, 321, 225, 384, 352
-0.971471, 337, 121, 400, 184
-0.971474, 169, 241, 232, 368
-0.971566, 409, 1, 472, 256
-0.971734, 185, 241, 248, 304
-0.97175, 81, 209, 144, 336
-0.971838, 81, 177, 208, 240
-0.971842, 249, 217, 312, 280
-0.971866, 201, 153, 264, 216
-0.971992, 385, 1, 448, 256
-0.972276, 353, 145, 480, 208
-0.972365, 401, 137, 464, 200
-0.972684, 185, 129, 248, 375
-0.972811, 129, 241, 256, 304
-0.972822, 225, 257, 288, 320
-0.972871, 145, 145, 208, 208
-0.972897, 177, 1, 304, 128
-0.973023, 349, 169, 380, 232
-0.973063, 281, 233, 344, 296
-0.973204, 353, 113, 384, 240
-0.973674, 121, 129, 184, 375
-0.973923, 381, 65, 412, 192
-0.974208, 153, 313, 216, 375
-0.974485, 49, 17, 176, 144
-0.974492, 361, 1, 424, 256
-0.974507, 149, 177, 180, 304
-0.97499, 257, 193, 384, 256
-0.97507, 241, 193, 272, 320
-0.975133, 289, 65, 416, 192
-0.975154, 397, 65, 428, 192
-0.975293, 137, 161, 168, 288
-0.975304, 353, 97, 416, 160
-0.975412, 209, 233, 336, 296
-0.97549, 289, 201, 352, 264
-0.975505, 417, 1, 448, 128
-0.97559, 373, 113, 404, 240
-0.975647, 89, 201, 152, 264
-0.975661, 345, 193, 376, 256
-0.975849, 149, 225, 180, 352
-0.975867, 369, 177, 496, 304
-0.97587, 105, 145, 168, 208
-0.976127, 149, 233, 180, 296
-0.976247, 169, 225, 200, 288
-0.97634, 145, 289, 208, 352
-0.976603, 241, 281, 304, 344
-0.976812, 173, 225, 204, 352
-0.976837, 337, 1, 400, 128
-0.976858, 73, 161, 136, 288
-0.976864, 81, 273, 144, 336
-0.976871, 1, 129, 128, 256
-0.976893, 161, 169, 224, 232
-0.976972, 81, 209, 208, 272
-0.977008, 129, 17, 192, 144
-0.977117, 369, 153, 432, 216
-0.977155, 129, 265, 256, 328
-0.977243, 433, 1, 496, 128
-0.977354, 385, 129, 416, 192
-0.977368, 161, 97, 288, 224
-0.977457, 257, 1, 384, 128
-0.977467, 137, 169, 168, 232
-0.977533, 189, 193, 220, 320
-0.977728, 361, 89, 392, 152
-0.97779, 81, 233, 144, 296
-0.977795, 245, 209, 276, 272
-0.977904, 113, 233, 176, 296
-0.977945, 169, 97, 232, 224
-0.978025, 81, 177, 144, 240
-0.978032, 49, 241, 112, 304
-0.978173, 165, 145, 196, 272
-0.978374, 433, 177, 496, 304
-0.978507, 353, 121, 480, 184
-0.978529, 421, 105, 452, 168
-0.978543, 101, 177, 132, 240
-0.978696, 377, 129, 440, 256
-0.978965, 169, 137, 232, 200
-0.979076, 129, 145, 256, 208
-0.979178, 401, 49, 464, 112
-0.979182, 201, 177, 264, 240
-0.979235, 377, 1, 440, 64
-0.979313, 165, 201, 196, 264
-0.979471, 409, 81, 440, 208
-0.979501, 433, 241, 496, 368
-0.979578, 341, 177, 372, 304
-0.979768, 225, 129, 288, 375
-0.979931, 241, 129, 304, 256
-0.98011, 49, 145, 112, 272
-0.980219, 433, 1, 496, 256
-0.9803, 313, 225, 376, 288
-0.980313, 145, 81, 208, 208
-0.980319, 257, 217, 384, 280
-0.98036, 193, 1, 256, 128
-0.980391, 93, 177, 124, 304
-0.980432, 177, 177, 208, 304
-0.9805, 233, 169, 296, 232
-0.980638, 361, 129, 392, 192
-0.980654, 321, 65, 384, 320
-0.980683, 237, 233, 268, 296
-0.980748, 393, 1, 424, 128
-0.980809, 373, 121, 404, 184
-0.98101, 209, 209, 336, 272
-0.98105, 225, 145, 256, 272
-0.981105, 433, 217, 496, 280
-0.981215, 153, 201, 184, 264
-0.981362, 217, 193, 248, 320
-0.981743, 113, 1, 176, 256
-0.981755, 229, 193, 260, 320
-0.981909, 161, 193, 192, 320
-0.981982, 297, 177, 328, 304
-0.982033, 129, 169, 256, 232
-0.982208, 137, 1, 200, 375
-0.982209, 137, 225, 168, 352
-0.982231, 329, 177, 360, 304
-0.982255, 289, 121, 416, 184
-0.982263, 377, 57, 440, 120
-0.982341, 249, 241, 312, 304
-0.982384, 385, 113, 416, 240
-0.982473, 277, 193, 308, 320
-0.982505, 209, 265, 336, 328
-0.982522, 313, 1, 376, 128
-0.982538, 397, 73, 428, 136
-0.9826, 177, 177, 304, 240
-0.982716, 353, 209, 416, 272
-0.982777, 337, 169, 368, 232
-0.982777, 425, 129, 488, 375
-0.982779, 257, 209, 288, 336
-0.9828, 89, 113, 152, 240
-0.982835, 297, 177, 360, 240
-0.982874, 65, 97, 128, 224
-0.982884, 129, 273, 160, 336
-0.982903, 329, 249, 360, 312
-0.982904, 233, 201, 264, 264
-0.98305, 161, 1, 224, 375
-0.98309, 249, 129, 312, 375
-0.983198, 273, 249, 400, 312
-0.983227, 149, 129, 180, 256
-0.983227, 81, 257, 208, 320
-0.983229, 105, 1, 168, 375
-0.983362, 237, 241, 268, 368
-0.983383, 329, 89, 392, 152
-0.983637, 417, 161, 480, 224
-0.983783, 105, 1, 168, 64
-0.983808, 213, 129, 244, 256
-0.983911, 205, 193, 236, 320
-0.98392, 117, 161, 148, 288
-0.983945, 117, 169, 148, 232
-0.98404, 185, 201, 216, 264
-0.984044, 149, 153, 180, 216
-0.984076, 57, 265, 120, 328
-0.984091, 185, 305, 248, 368
-0.984113, 273, 169, 400, 232
-0.98417, 137, 1, 200, 256
-0.984205, 81, 209, 112, 336
-0.984206, 105, 161, 136, 288
-0.984332, 153, 1, 216, 128
-0.984416, 121, 201, 184, 264
-0.984438, 81, 153, 208, 216
-0.984525, 345, 129, 408, 375
-0.984533, 185, 1, 248, 375
-0.984569, 377, 153, 408, 216
-0.984639, 381, 73, 412, 136
-0.984689, 97, 1, 160, 128
-0.984718, 265, 201, 296, 264
-0.984773, 345, 209, 408, 336
-0.984792, 337, 65, 464, 128
-0.984841, 337, 169, 464, 232
-0.984923, 453, 161, 484, 288
-0.98511, 113, 81, 240, 144
-0.985111, 73, 153, 136, 216
-0.985178, 417, 9, 448, 72
-0.985185, 317, 177, 348, 304
-0.985188, 161, 153, 192, 216
-0.985221, 149, 177, 180, 240
-0.985231, 137, 145, 168, 208
-0.985243, 421, 97, 452, 224
-0.985251, 177, 313, 208, 375
-0.985381, 213, 145, 244, 208
-0.985392, 361, 169, 392, 232
-0.985569, 57, 193, 120, 256
-0.985583, 369, 1, 496, 64
-0.985593, 177, 289, 304, 352
-0.985751, 405, 1, 436, 128
-0.985754, 89, 217, 120, 280
-0.985859, 113, 121, 176, 184
-0.9859, 105, 297, 168, 360
-0.986033, 321, 1, 448, 64
-0.986086, 189, 145, 220, 272
-0.986178, 129, 17, 192, 80
-0.986264, 277, 193, 308, 256
-0.98627, 193, 273, 224, 336
-0.986288, 117, 113, 148, 240
-0.986289, 433, 9, 496, 72
-0.986307, 33, 241, 160, 304
-0.986326, 181, 233, 212, 296
-0.986345, 281, 1, 344, 128
-0.986347, 49, 97, 112, 352
-0.986349, 245, 145, 276, 272
-0.986367, 73, 129, 136, 375
-0.986428, 217, 241, 248, 368
-0.98644, 129, 89, 192, 152
-0.986461, 281, 265, 312, 328
-0.986485, 353, 193, 384, 320
-0.9865, 433, 289, 496, 352
-0.986545, 321, 225, 448, 352
-0.986787, 393, 1, 456, 375
-0.9868, 425, 185, 488, 248
-0.986815, 81, 1, 144, 256
-0.986815, 193, 1, 256, 256
-0.986933, 89, 273, 120, 336
-0.986939, 433, 265, 496, 328
-0.986971, 81, 305, 208, 368
-0.987028, 57, 217, 120, 280
-0.987037, 113, 17, 240, 80
-0.987042, 113, 121, 240, 184
-0.987053, 297, 257, 360, 320
-0.987071, 265, 161, 296, 288
-0.987154, 193, 129, 256, 192
-0.987156, 17, 185, 144, 248
-0.987161, 153, 81, 216, 144
-0.987206, 225, 169, 256, 232
-0.987345, 157, 297, 188, 360
-0.987355, 405, 97, 436, 160
-0.987439, 49, 1, 176, 64
-0.987443, 177, 153, 304, 216
-0.987447, 193, 241, 224, 368
-0.98745, 397, 137, 428, 200
-0.987455, 161, 1, 224, 256
-0.987476, 361, 25, 424, 88
-0.987485, 365, 161, 396, 288
-0.987491, 145, 121, 208, 184
-0.987536, 81, 281, 208, 344
-0.987545, 33, 153, 160, 216
-0.987589, 429, 1, 460, 128
-0.987596, 221, 201, 252, 264
-0.987615, 309, 257, 340, 320
-0.987652, 117, 145, 148, 208
-0.987689, 73, 233, 104, 296
-0.987691, 401, 97, 464, 352
-0.987752, 225, 257, 256, 320
-0.987779, 373, 1, 404, 128
-0.987858, 201, 129, 232, 256
-0.987904, 257, 1, 320, 128
-0.987957, 81, 1, 144, 375
-0.98796, 297, 193, 328, 256
-0.987979, 257, 273, 384, 336
-0.987979, 137, 113, 168, 240
-0.988, 353, 1, 416, 375
-0.988023, 289, 241, 320, 368
-0.988055, 145, 313, 272, 375
-0.988092, 129, 313, 192, 375
-0.988201, 441, 145, 472, 208
-0.988304, 49, 169, 112, 232
-0.988335, 321, 25, 448, 88
-0.988368, 245, 185, 276, 248
-0.988426, 1, 1, 128, 128
-0.988429, 145, 237, 208, 268
-0.988465, 225, 169, 352, 232
-0.988522, 177, 129, 208, 256
-0.988574, 193, 1, 256, 64
-0.988602, 441, 129, 472, 256
-0.988659, 337, 209, 464, 272
-0.988741, 113, 57, 240, 120
-0.988749, 261, 281, 292, 344
-0.988776, 193, 313, 320, 375
-0.988783, 341, 217, 372, 280
-0.988847, 273, 97, 400, 160
-0.988895, 457, 1, 488, 128
-0.98891, 109, 273, 140, 336
-0.988914, 321, 233, 448, 296
-0.988917, 353, 65, 384, 192
-0.988941, 333, 225, 364, 352
-0.988968, 317, 233, 348, 296
-0.988997, 169, 113, 232, 176
-0.989003, 345, 185, 408, 248
-0.989033, 149, 129, 180, 192
-0.989063, 33, 273, 160, 336
-0.989141, 361, 81, 424, 112
-0.989174, 433, 241, 496, 304
-0.989217, 417, 113, 480, 176
-0.98926, 169, 177, 200, 240
-0.989301, 201, 161, 232, 224
-0.989325, 469, 1, 500, 128
-0.989327, 313, 193, 376, 224
-0.989366, 345, 97, 376, 160
-0.989408, 129, 225, 160, 288
-0.98941, 125, 209, 156, 336
-0.989412, 97, 181, 160, 212
-0.989441, 145, 257, 208, 288
-0.989463, 281, 217, 312, 280
-0.989508, 461, 209, 492, 336
-0.989553, 273, 129, 336, 375
-0.989557, 241, 305, 304, 368
-0.989561, 65, 193, 320, 256
-0.989656, 429, 129, 460, 192
-0.989656, 461, 217, 492, 280
-0.989686, 389, 105, 420, 168
-0.989688, 413, 41, 444, 104
-0.989733, 401, 145, 464, 176
-0.98979, 309, 225, 340, 352
-0.98985, 141, 257, 172, 320
-0.989918, 177, 1, 304, 64
-0.989923, 397, 49, 428, 112
-0.98994, 249, 205, 312, 236
-0.989994, 65, 241, 320, 304
-0.989994, 449, 169, 480, 232
-0.990018, 137, 193, 168, 256
-0.990035, 1, 217, 128, 280
-0.990041, 213, 273, 244, 336
-0.990045, 233, 1, 296, 128
-0.990067, 97, 65, 160, 128
-0.990074, 169, 1, 232, 64
-0.990078, 241, 1, 304, 256
-0.990108, 393, 125, 456, 156
-0.990113, 289, 129, 352, 256
-0.990146, 129, 197, 192, 228
-0.990278, 273, 265, 336, 296
-0.990286, 409, 121, 440, 184
-0.990295, 433, 49, 496, 176
-0.990295, 225, 237, 288, 268
-0.990299, 105, 97, 168, 160
-0.9903, 365, 201, 396, 264
-0.990312, 1, 201, 500, 264
-0.990329, 361, 157, 424, 188
-0.990333, 337, 169, 400, 200
-0.990339, 361, 133, 424, 164
-0.990373, 185, 253, 248, 284
-0.990374, 161, 241, 192, 368
-0.990409, 161, 217, 416, 280
-0.990413, 129, 65, 192, 128
-0.990418, 397, 9, 428, 72
-0.990418, 409, 65, 440, 128
-0.990427, 313, 253, 376, 284
-0.990471, 357, 1, 388, 128
-0.990488, 93, 225, 124, 352
-0.990503, 101, 153, 132, 216
-0.990504, 305, 145, 432, 208
-0.990578, 329, 1, 392, 375
-0.990592, 33, 217, 96, 280
-0.990604, 273, 177, 336, 240
-0.99063, 345, 233, 408, 296
-0.990631, 1, 81, 128, 208
-0.990641, 69, 177, 100, 304
-0.990643, 121, 181, 184, 212
-0.990649, 89, 25, 152, 88
-0.990685, 137, 17, 168, 144
-0.990696, 105, 49, 168, 176
-0.990722, 401, 89, 464, 152
-0.990757, 193, 153, 256, 184
-0.990774, 181, 265, 212, 328
-0.990785, 145, 225, 208, 256
-0.990799, 425, 89, 488, 152
-0.990803, 153, 317, 216, 348
-0.990821, 341, 249, 372, 312
-0.990824, 105, 169, 168, 200
-0.990824, 273, 193, 336, 224
-0.990843, 225, 213, 288, 244
-0.990851, 305, 233, 336, 296
-0.990904, 129, 169, 192, 200
-0.99091, 137, 213, 200, 244
-0.99092, 237, 257, 268, 320
-0.990929, 441, 1, 472, 128
-0.990949, 145, 305, 208, 336
-0.990951, 77, 257, 108, 320
-0.991003, 65, 217, 320, 280
-0.991051, 225, 269, 288, 300
-0.991062, 161, 205, 224, 236
-0.991062, 1, 1, 64, 128
-0.99107, 161, 193, 224, 224
-0.991079, 185, 277, 248, 308
-0.991081, 201, 205, 264, 236
-0.991098, 105, 113, 136, 240
-0.991098, 257, 217, 320, 248
-0.991105, 177, 49, 304, 176
-0.991163, 393, 113, 456, 144
-0.991191, 185, 241, 248, 272
-0.991194, 161, 177, 416, 240
-0.991195, 337, 49, 400, 176
-0.991282, 189, 169, 220, 232
-0.991315, 289, 205, 352, 236
-0.99134, 89, 205, 152, 236
-0.99134, 361, 145, 424, 176
-0.991356, 225, 1, 288, 375
-0.991408, 305, 153, 368, 216
-0.991422, 49, 81, 176, 144
-0.991429, 105, 273, 168, 304
-0.99145, 313, 229, 376, 260
-0.99146, 353, 97, 416, 128
-0.991461, 233, 193, 296, 224
-0.991463, 49, 25, 176, 88
-0.991491, 233, 225, 296, 256
-0.991512, 305, 181, 368, 212
-0.991515, 141, 313, 172, 375
-0.991518, 201, 265, 264, 296
-0.991526, 205, 241, 236, 368
-0.991535, 321, 205, 384, 236
-0.991547, 333, 193, 364, 256
-0.991551, 409, 17, 472, 48
-0.991559, 257, 193, 500, 256
-0.991574, 89, 193, 152, 224
-0.991604, 353, 121, 416, 152
-0.991626, 89, 217, 152, 248
-0.991626, 193, 241, 224, 304
-0.991638, 233, 281, 296, 312
-0.991651, 253, 233, 284, 296
-0.991674, 161, 97, 192, 224
-0.991677, 397, 129, 428, 256
-0.991698, 129, 317, 192, 348
-0.991703, 89, 185, 120, 248
-0.991721, 161, 181, 224, 212
-0.991724, 121, 237, 184, 268
-0.991762, 385, 97, 448, 128
-0.991774, 49, 261, 112, 292
-0.991782, 309, 193, 340, 256
-0.991784, 225, 249, 288, 280
-0.991784, 213, 169, 244, 232
-0.991786, 153, 113, 216, 144
-0.991793, 353, 109, 416, 140
-0.991794, 185, 193, 248, 224
-0.991836, 297, 1, 360, 256
-0.991873, 273, 277, 336, 308
-0.991876, 129, 101, 192, 132
-0.991884, 49, 105, 176, 168
-0.991885, 169, 137, 232, 168
-0.991891, 321, 217, 384, 248
-0.991909, 201, 165, 264, 196
-0.991912, 89, 261, 152, 292
-0.991914, 57, 193, 120, 224
-0.991917, 129, 153, 384, 216
-0.991918, 169, 153, 232, 184
-0.991921, 81, 277, 144, 308
-0.991927, 185, 229, 248, 260
-0.991931, 201, 201, 232, 264
-0.991951, 377, 9, 440, 40
-0.99196, 293, 233, 324, 296
-0.991969, 257, 229, 320, 260
-0.991974, 225, 145, 256, 208
-0.991988, 209, 193, 272, 224
-0.992028, 329, 225, 360, 288
-0.992046, 105, 241, 136, 368
-0.992049, 289, 253, 352, 284
-0.992078, 401, 69, 464, 100
-0.99208, 105, 249, 168, 280
-0.992119, 193, 113, 448, 176
-0.99212, 81, 233, 144, 264
-0.992121, 369, 69, 432, 100
-0.992135, 193, 341, 256, 372
-0.992163, 97, 265, 352, 328
-0.992171, 177, 265, 240, 296
-0.992172, 225, 345, 288, 375
-0.992185, 233, 293, 296, 324
-0.992202, 273, 241, 336, 272
-0.992207, 145, 129, 208, 160
-0.992221, 41, 245, 104, 276
-0.992232, 433, 305, 496, 336
-0.992238, 129, 1, 160, 64
-0.992239, 433, 225, 496, 256
-0.99226, 213, 241, 244, 304
-0.992263, 105, 305, 168, 336
-0.992264, 129, 89, 192, 120
-0.992267, 1, 177, 500, 240
-0.992269, 297, 257, 328, 320
-0.992276, 417, 165, 480, 196
-0.992295, 313, 109, 376, 140
-0.992299, 57, 205, 120, 236
-0.992319, 153, 169, 216, 200
-0.992321, 145, 157, 208, 188
-0.992324, 313, 269, 376, 300
-0.992329, 33, 209, 96, 336
-0.992351, 169, 233, 200, 264
-0.992367, 417, 177, 480, 208
-0.992374, 113, 125, 176, 156
-0.992382, 153, 89, 216, 120
-0.992397, 329, 181, 392, 212
-0.992411, 345, 197, 408, 228
-0.992415, 185, 309, 248, 340
-0.992419, 105, 157, 168, 188
-0.992423, 1, 33, 64, 96
-0.992437, 129, 113, 192, 144
-0.992445, 49, 129, 176, 192
-0.992447, 181, 137, 212, 200
-0.992448, 329, 125, 392, 156
-0.992452, 49, 225, 112, 256
-0.992471, 113, 261, 176, 292
-0.992477, 185, 321, 248, 352
-0.992488, 349, 197, 380, 228
-0.992497, 353, 209, 416, 240
-0.992508, 353, 233, 416, 264
-0.992514, 409, 5, 472, 36
-0.99252, 49, 57, 176, 120
-0.992521, 193, 129, 224, 192
-0.992525, 385, 85, 448, 116
-0.992535, 369, 97, 432, 352
-0.99254, 149, 237, 180, 268
-0.992554, 121, 225, 184, 256
-0.992566, 377, 157, 408, 188
-0.992589, 153, 293, 216, 324
-0.992593, 433, 133, 496, 164
-0.992598, 177, 317, 208, 348
-0.992617, 169, 5, 232, 36
-0.992617, 257, 145, 384, 208
-0.992626, 353, 225, 384, 288
-0.992627, 137, 269, 200, 300
-0.992627, 57, 169, 120, 200
-0.992637, 257, 145, 500, 208
-0.992643, 137, 181, 168, 212
-0.992644, 145, 145, 208, 176
-0.992661, 177, 165, 240, 196
-0.992663, 113, 293, 176, 324
-0.992664, 1, 225, 500, 288
-0.992665, 349, 169, 380, 200
-0.992672, 193, 9, 256, 40
-0.992676, 281, 217, 344, 248
-0.992689, 329, 145, 392, 176
-0.992694, 73, 245, 136, 276
-0.992696, 397, 81, 428, 112
-0.992698, 389, 137, 420, 168
-0.992703, 337, 245, 400, 276
-0.992706, 1, 145, 500, 208
-0.992713, 369, 21, 432, 52
-0.992716, 193, 241, 448, 304
-0.992723, 369, 41, 496, 104
-0.992724, 57, 273, 120, 304
-0.992726, 105, 5, 168, 36
-0.992729, 161, 101, 224, 132
-0.992732, 425, 209, 488, 240
-0.992733, 245, 221, 276, 252
-0.992749, 249, 245, 312, 276
-0.99275, 273, 313, 400, 375
-0.992755, 125, 177, 156, 208
-0.992757, 157, 313, 188, 344
-0.992776, 349, 129, 380, 192
-0.992805, 281, 241, 312, 304
-0.99281, 297, 197, 328, 228
-0.992819, 217, 153, 248, 184
-0.99282, 109, 177, 140, 208
-0.992828, 89, 241, 120, 304
-0.992828, 261, 205, 292, 236
-0.992829, 161, 221, 192, 252
-0.992834, 301, 261, 332, 292
-0.992842, 277, 201, 308, 232
-0.992842, 369, 125, 400, 156
-0.992849, 101, 249, 132, 312
-0.992852, 417, 105, 448, 136
-0.992853, 377, 77, 408, 108
-0.992866, 297, 129, 360, 375
-0.992867, 261, 285, 292, 316
-0.992868, 337, 101, 464, 132
-0.992885, 169, 189, 200, 220
-0.992902, 237, 237, 268, 268
-0.992916, 149, 169, 180, 200
-0.992933, 217, 1, 280, 256
-0.992935, 149, 185, 180, 216
-0.992938, 225, 233, 256, 296
-0.99295, 321, 257, 352, 288
-0.992953, 329, 181, 360, 212
-0.992957, 189, 269, 220, 300
-0.992989, 321, 193, 352, 224
-0.992996, 137, 169, 168, 200
-0.992996, 245, 201, 276, 232
-0.992998, 385, 25, 448, 88
-0.993006, 333, 253, 364, 284
-0.99301, 225, 201, 256, 232
-0.993014, 353, 153, 480, 184
-0.993023, 81, 161, 112, 224
-0.993024, 369, 65, 400, 128
-0.993033, 177, 201, 208, 232
-0.993051, 125, 277, 156, 308
-0.993059, 165, 201, 196, 232
-0.993063, 317, 269, 348, 300
-0.993089, 345, 1, 376, 128
-0.993093, 153, 197, 184, 228
-0.993107, 357, 93, 388, 124
-0.993108, 249, 237, 280, 268
-0.993113, 149, 301, 180, 332
-0.993113, 101, 189, 132, 220
-0.993115, 365, 81, 396, 112
-0.993115, 265, 229, 296, 260
-0.993119, 181, 233, 212, 264
-0.993122, 265, 233, 296, 296
-0.993123, 337, 193, 368, 224
-0.993125, 233, 345, 264, 375
-0.993128, 381, 125, 412, 156
-0.993128, 417, 13, 448, 44
-0.993129, 357, 345, 388, 375
-0.993131, 401, 149, 432, 180
-0.993132, 345, 217, 376, 248
-0.993133, 421, 121, 452, 152
-0.993138, 401, 93, 432, 124
-0.993142, 81, 197, 112, 228
-0.993152, 433, 145, 464, 176
-0.993154, 57, 1, 120, 256
-0.993159, 189, 245, 220, 276
-0.993165, 137, 193, 168, 224
-0.993165, 25, 9, 88, 72
-0.993169, 173, 305, 204, 336
-0.993178, 425, 133, 456, 164
-0.993185, 309, 205, 340, 236
-0.993189, 109, 165, 140, 196
-0.993201, 89, 225, 120, 256
-0.993205, 137, 309, 168, 340
-0.993207, 169, 245, 200, 276
-0.993212, 97, 177, 128, 208
-0.993213, 161, 177, 192, 208
-0.993213, 217, 265, 248, 296
-0.993214, 69, 241, 100, 272
-0.993218, 389, 157, 420, 188
-0.993219, 213, 201, 244, 232
-0.99323, 273, 217, 304, 248
-0.993232, 121, 1, 152, 128
-0.993239, 265, 1, 328, 256
-0.993243, 357, 105, 388, 136
-0.993243, 221, 277, 252, 308
-0.993245, 81, 269, 112, 300
-0.993247, 281, 269, 312, 300
-0.993249, 249, 277, 280, 308
-0.993254, 205, 153, 236, 184
-0.993255, 397, 69, 428, 100
-0.993258, 129, 289, 256, 352
-0.993259, 177, 329, 208, 360
-0.993261, 229, 261, 260, 292
-0.993263, 201, 277, 232, 308
-0.993264, 145, 157, 176, 188
-0.993269, 277, 189, 308, 220
-0.993271, 177, 261, 208, 292
-0.993272, 353, 125, 384, 156
-0.993272, 453, 193, 484, 256
-0.993273, 93, 209, 124, 240
-0.99329, 261, 217, 292, 248
-0.993291, 137, 269, 168, 300
-0.993294, 365, 161, 396, 192
-0.993294, 285, 217, 316, 248
-0.993296, 1, 81, 500, 144
-0.993301, 241, 189, 272, 220
-0.993302, 233, 213, 264, 244
-0.993304, 33, 1, 96, 128
-0.993304, 361, 149, 392, 180
-0.993305, 213, 189, 244, 220
-0.993307, 125, 165, 156, 196
-0.993307, 137, 233, 168, 264
-0.993309, 173, 221, 204, 252
-0.993312, 189, 201, 220, 232
-0.993314, 401, 125, 432, 156
-0.993317, 341, 109, 372, 140
-0.993319, 141, 101, 172, 132
-0.99332, 73, 257, 104, 288
-0.993321, 409, 69, 440, 100
-0.99333, 93, 281, 124, 312
-0.993333, 345, 233, 376, 264
-0.993333, 161, 301, 192, 332
-0.993343, 349, 185, 380, 216
-0.993348, 149, 225, 180, 256
-0.993351, 105, 277, 136, 308
-0.993353, 409, 137, 440, 168
-0.993353, 133, 245, 164, 276
-0.993363, 121, 249, 152, 312
-0.993363, 309, 193, 340, 224
-0.993364, 177, 133, 208, 164
-0.993369, 405, 9, 436, 40
-0.993373, 445, 169, 476, 200
-0.993374, 213, 337, 244, 368
-0.993375, 365, 205, 396, 236
-0.993383, 417, 1, 448, 32
-0.993384, 441, 157, 472, 188
-0.993385, 201, 193, 232, 224
-0.993393, 197, 141, 228, 172
-0.993398, 89, 237, 120, 268
-0.993406, 229, 157, 260, 188
-0.993407, 361, 233, 392, 264
-0.99341, 277, 241, 308, 368
-0.99341, 345, 249, 376, 280
-0.993411, 101, 265, 132, 296
-0.993412, 189, 257, 220, 288
-0.993416, 313, 113, 376, 176
-0.993472, 57, 1, 120, 375
-0.993485, 177, 289, 208, 352
-0.993495, 169, 129, 200, 192
-0.993536, 81, 129, 112, 256
-0.993536, 177, 113, 304, 176
-0.993542, 81, 193, 208, 224
-0.993589, 149, 81, 180, 208
-0.993601, 81, 241, 208, 272
-0.993613, 129, 261, 256, 292
-0.993636, 189, 97, 220, 224
-0.993652, 69, 225, 100, 352
-0.993693, 225, 81, 480, 144
-0.99374, 313, 65, 376, 128
-0.993768, 425, 1, 488, 375
-0.993776, 129, 65, 160, 192
-0.993797, 81, 181, 208, 212
-0.993827, 217, 129, 280, 192
-0.993829, 113, 1, 144, 64
-0.993856, 461, 273, 492, 336
-0.993908, 257, 169, 500, 232
-0.993933, 441, 9, 472, 72
-0.993933, 461, 297, 492, 360
-0.993948, 257, 177, 288, 240
-0.993957, 377, 97, 408, 160
-0.993962, 1, 1, 64, 256
-0.993967, 237, 161, 268, 224
-0.994006, 1, 121, 500, 184
-0.994053, 1, 265, 256, 328
-0.994094, 321, 185, 352, 248
-0.99413, 177, 89, 304, 152
-0.994148, 425, 137, 488, 200
-0.994155, 209, 281, 272, 344
-0.994165, 249, 273, 280, 336
-0.994182, 1, 17, 500, 80
-0.994196, 237, 305, 268, 368
-0.99422, 257, 65, 384, 128
-0.99426, 1, 9, 128, 72
-0.994276, 289, 281, 352, 344
-0.994314, 137, 81, 168, 144
-0.994346, 305, 1, 368, 375
-0.994353, 129, 245, 256, 276
-0.994355, 353, 1, 416, 64
-0.994361, 261, 257, 292, 320
-0.994361, 81, 253, 208, 284
-0.99437, 353, 137, 480, 168
-0.994411, 369, 313, 496, 375
-0.994419, 361, 169, 376, 232
-0.994449, 321, 241, 352, 368
-0.994463, 337, 89, 464, 120
-0.994522, 433, 313, 496, 375
-0.994538, 167, 201, 182, 264
-0.994542, 345, 241, 376, 368
-0.994574, 129, 113, 160, 176
-0.994604, 321, 273, 352, 336
-0.99461, 33, 169, 288, 232
-0.994611, 355, 169, 370, 232
-0.994621, 183, 225, 198, 288
-0.994629, 469, 9, 500, 72
-0.994631, 337, 113, 464, 144
-0.994687, 77, 193, 108, 256
-0.994689, 241, 9, 368, 72
-0.994694, 161, 205, 288, 236
-0.994716, 65, 229, 192, 260
-0.994719, 281, 1, 344, 375
-0.99474, 363, 89, 378, 152
-0.994751, 379, 121, 394, 184
-0.994813, 169, 249, 200, 312
-0.994861, 453, 9, 484, 72
-0.994862, 257, 193, 384, 224
-0.994869, 81, 1, 144, 64
-0.994874, 169, 49, 232, 176
-0.994896, 349, 169, 364, 232
-0.994903, 257, 217, 500, 280
-0.994911, 273, 205, 400, 236
-0.994915, 329, 9, 392, 72
-0.99493, 245, 209, 260, 272
-0.994938, 359, 193, 374, 256
-0.994952, 141, 289, 172, 352
-0.994959, 353, 125, 480, 156
-0.994987, 173, 209, 188, 272
-0.995011, 153, 233, 168, 296
-0.995019, 177, 257, 304, 288
-0.995022, 257, 229, 384, 260
-0.995061, 369, 273, 496, 336
-0.995073, 81, 213, 208, 244
-0.995084, 73, 17, 136, 144
-0.995115, 421, 49, 452, 176
-0.995117, 129, 233, 256, 264
-0.995155, 33, 145, 288, 208
-0.995156, 225, 261, 352, 292
-0.995161, 369, 241, 496, 368
-0.995165, 81, 97, 144, 160
-0.995173, 329, 1, 360, 128
-0.995208, 129, 41, 192, 104
-0.995225, 17, 1, 80, 375
-0.995292, 259, 209, 274, 272
-0.995321, 369, 233, 496, 296
-0.995353, 139, 169, 154, 232
-0.995373, 225, 9, 480, 72
-0.995374, 161, 221, 288, 252
-0.995403, 97, 9, 352, 72
-0.995408, 1, 57, 500, 120
-0.995442, 251, 209, 266, 272
-0.995449, 161, 193, 176, 256
-0.99546, 257, 217, 384, 248
-0.995494, 399, 129, 414, 192
-0.995501, 441, 97, 472, 160
-0.995501, 341, 81, 372, 208
-0.995507, 81, 265, 208, 296
-0.995518, 177, 65, 304, 128
-0.995537, 1, 249, 500, 312
-0.995545, 107, 169, 122, 232
-0.995614, 369, 129, 384, 192
-0.995638, 389, 121, 404, 184
-0.995659, 353, 49, 416, 112
-0.995662, 181, 201, 196, 264
-0.995675, 209, 245, 336, 276
-0.995676, 161, 161, 176, 224
-0.995697, 1, 81, 64, 144
-0.995707, 177, 277, 304, 308
-0.99571, 325, 249, 340, 312
-0.995718, 441, 81, 472, 208
-0.995754, 265, 129, 328, 256
-0.995764, 129, 153, 256, 184
-0.99578, 309, 1, 340, 128
-0.995794, 129, 129, 160, 375
-0.995794, 411, 65, 426, 128
-0.995808, 257, 1, 320, 375
-0.99586, 435, 113, 450, 176
-0.995868, 265, 9, 328, 72
-0.995868, 209, 313, 272, 375
-0.995884, 335, 249, 350, 312
-0.995894, 149, 153, 164, 216
-0.995915, 1, 81, 128, 144
-0.995937, 239, 201, 254, 264
-0.99594, 147, 265, 162, 328
-0.99595, 193, 65, 256, 192
-0.995951, 153, 305, 168, 368
-0.995959, 475, 217, 490, 280
-0.995966, 209, 221, 336, 252
-0.995974, 91, 225, 106, 288
-0.995981, 369, 81, 384, 144
-0.995981, 151, 177, 166, 240
-0.995988, 217, 1, 248, 128
-0.995994, 363, 129, 378, 192
-0.996013, 129, 273, 256, 304
-0.996025, 297, 9, 360, 72
-0.996031, 177, 233, 304, 264
-0.996032, 143, 225, 158, 288
-0.996037, 343, 169, 358, 232
-0.996052, 285, 1, 316, 128
-0.996054, 177, 233, 192, 296
-0.996058, 367, 169, 382, 232
-0.996092, 197, 265, 212, 328
-0.996098, 129, 169, 144, 232
-0.996101, 241, 233, 256, 296
-0.996114, 397, 73, 412, 136
-0.99612, 225, 205, 352, 236
-0.996164, 17, 49, 80, 176
-0.996197, 413, 1, 444, 256
-0.996201, 321, 169, 448, 200
-0.996202, 209, 97, 336, 224
-0.996206, 421, 97, 436, 160
-0.996207, 225, 57, 480, 120
-0.996228, 33, 177, 160, 208
-0.996251, 193, 129, 224, 375
-0.996279, 161, 25, 224, 88
-0.99628, 181, 17, 212, 144
-0.996307, 241, 9, 304, 72
-0.996308, 233, 201, 248, 264
-0.996338, 297, 1, 328, 128
-0.996347, 281, 313, 344, 375
-0.996356, 191, 201, 206, 264
-0.996383, 33, 121, 288, 184
-0.996388, 465, 177, 480, 240
-0.996389, 155, 153, 170, 216
-0.996412, 257, 181, 384, 212
-0.996418, 1, 65, 256, 128
-0.996426, 421, 1, 436, 64
-0.996433, 101, 185, 116, 248
-0.996461, 177, 81, 240, 144
-0.996467, 373, 169, 388, 232
-0.996474, 305, 133, 432, 164
-0.996479, 441, 1, 472, 256
-0.9965, 367, 201, 382, 264
-0.996505, 209, 193, 336, 224
-0.996532, 353, 193, 368, 256
-0.996574, 353, 77, 480, 108
-0.996582, 129, 169, 256, 200
-0.996603, 57, 105, 120, 168
-0.996621, 99, 273, 114, 336
-0.996622, 145, 189, 272, 220
-0.996625, 81, 169, 208, 200
-0.996626, 93, 129, 124, 375
-0.996628, 115, 273, 130, 336
-0.996631, 189, 305, 204, 368
-0.996648, 271, 201, 286, 264
-0.99665, 113, 169, 128, 232
-0.996655, 149, 129, 180, 375
-0.996656, 159, 233, 174, 296
-0.996676, 1, 201, 128, 232
-0.996678, 425, 1, 456, 256
-0.996688, 191, 265, 206, 328
-0.996704, 289, 253, 416, 284
-0.996707, 417, 41, 432, 104
-0.996713, 233, 257, 248, 320
-0.996721, 273, 1, 304, 128
-0.996723, 145, 177, 160, 240
-0.996725, 33, 89, 288, 152
-0.99673, 257, 273, 384, 304
-0.996734, 429, 105, 444, 168
-0.996746, 85, 233, 100, 296
-0.996758, 1, 57, 128, 120
-0.996761, 317, 193, 332, 256
-0.99678, 145, 317, 272, 348
-0.996782, 17, 161, 80, 288
-0.996789, 165, 129, 196, 375
-0.996793, 201, 1, 232, 128
-0.996803, 1, 273, 500, 336
-0.996803, 291, 193, 306, 256
-0.996814, 129, 141, 256, 172
-0.996817, 357, 97, 372, 160
-0.996819, 141, 273, 156, 336
-0.99682, 167, 169, 182, 232
-0.996824, 241, 169, 256, 232
-0.996838, 183, 233, 198, 264
-0.996839, 291, 225, 306, 288
-0.996846, 117, 145, 132, 208
-0.996847, 401, 1, 432, 256
-0.996849, 283, 265, 298, 328
-0.996854, 457, 161, 472, 224
-0.996857, 299, 193, 314, 256
-0.996872, 327, 273, 342, 336
-0.996879, 347, 193, 362, 256
-0.996883, 479, 297, 494, 360
-0.996885, 91, 265, 106, 328
-0.996887, 49, 277, 176, 308
-0.99689, 247, 185, 262, 248
-0.996894, 445, 145, 460, 208
-0.996905, 155, 201, 170, 264
-0.996917, 369, 165, 496, 196
-0.996925, 93, 129, 124, 256
-0.996926, 257, 313, 500, 375
-0.996928, 257, 265, 500, 328
-0.99695, 265, 217, 280, 280
-0.996958, 285, 185, 300, 248
-0.99696, 121, 169, 136, 232
-0.996966, 375, 81, 390, 144
-0.996981, 1, 33, 128, 96
-0.99699, 305, 145, 432, 176
-0.996993, 405, 145, 420, 208
-0.996998, 379, 153, 394, 216
-0.997007, 321, 9, 448, 40
-0.997019, 73, 129, 136, 192
-0.997027, 389, 153, 404, 216
-0.997042, 381, 73, 396, 136
-0.997047, 353, 217, 368, 280
-0.997055, 403, 73, 418, 136
-0.997057, 123, 273, 138, 336
-0.997062, 171, 233, 186, 296
-0.997073, 113, 105, 240, 136
-0.997091, 181, 97, 212, 352
-0.997094, 33, 261, 160, 292
-0.997098, 81, 313, 208, 344
-0.997109, 391, 73, 406, 136
-0.997122, 297, 129, 328, 256
-0.997122, 137, 145, 152, 208
-0.997123, 415, 89, 430, 152
-0.997134, 191, 233, 206, 296
-0.997145, 217, 145, 232, 208
-0.997148, 117, 97, 148, 352
-0.997155, 143, 145, 158, 208
-0.997155, 97, 297, 352, 360
-0.997159, 113, 89, 240, 120
-0.997162, 257, 241, 384, 272
-0.997164, 225, 33, 480, 96
-0.99717, 451, 153, 466, 216
-0.997173, 173, 177, 188, 240
-0.997174, 179, 313, 194, 375
-0.997176, 131, 145, 146, 208
-0.997177, 373, 33, 404, 288
-0.997189, 165, 233, 180, 296
-0.997196, 109, 273, 124, 336
-0.997245, 105, 129, 136, 375
-0.997256, 369, 189, 496, 220
-0.99726, 325, 129, 356, 256
-0.997265, 157, 1, 188, 128
-0.997268, 9, 57, 72, 120
-0.997269, 1, 25, 256, 88
-0.997278, 257, 1, 288, 128
-0.997281, 361, 1, 392, 256
-0.997291, 213, 201, 228, 264
-0.997299, 319, 233, 334, 296
-0.997303, 253, 185, 268, 248
-0.997304, 411, 9, 426, 72
-0.997305, 277, 201, 292, 264
-0.997307, 321, 257, 448, 320
-0.99731, 153, 281, 168, 344
-0.997312, 177, 65, 208, 192
-0.997312, 1, 237, 128, 268
-0.997323, 227, 169, 242, 232
-0.997325, 273, 345, 400, 375
-0.997326, 41, 65, 104, 192
-0.997326, 177, 305, 304, 336
-0.997331, 385, 1, 416, 256
-0.997333, 265, 193, 280, 256
-0.997335, 161, 297, 176, 360
-0.997345, 153, 305, 168, 336
-0.997348, 129, 273, 144, 336
-0.997361, 1, 9, 64, 72
-0.997363, 277, 281, 292, 344
-0.997369, 93, 81, 124, 208
-0.997369, 167, 145, 182, 208
-0.997372, 193, 345, 320, 375
-0.997375, 349, 97, 380, 352
-0.99738, 347, 217, 362, 280
-0.997384, 225, 129, 256, 375
-0.997385, 33, 189, 160, 220
-0.997405, 1, 221, 128, 252
-0.997423, 327, 269, 342, 300
-0.997427, 257, 109, 384, 140
-0.997427, 441, 121, 456, 184
-0.997428, 259, 233, 274, 296
-0.997451, 95, 193, 110, 256
-0.997452, 297, 233, 312, 296
-0.997453, 205, 273, 220, 336
-0.997453, 129, 21, 256, 52
-0.997454, 237, 1, 268, 128
-0.997454, 1, 289, 256, 352
-0.997459, 227, 145, 242, 208
-0.997482, 217, 9, 280, 72
-0.997483, 207, 161, 222, 224
-0.9975, 395, 153, 410, 216
-0.997502, 145, 1, 176, 256
-0.997503, 201, 161, 216, 224
-0.997528, 97, 129, 224, 160
-0.997533, 361, 197, 376, 228
-0.997534, 319, 257, 334, 320
-0.997554, 113, 117, 240, 148
-0.997555, 357, 241, 372, 304
-0.997559, 277, 145, 308, 272
-0.997561, 153, 57, 216, 120
-0.99758, 177, 9, 304, 40
-0.997591, 369, 9, 496, 40
-0.997599, 113, 73, 240, 104
-0.997613, 305, 77, 432, 108
-0.997628, 97, 325, 224, 356
-0.997634, 147, 181, 162, 212
-0.997637, 153, 233, 168, 264
-0.997652, 117, 1, 148, 256
-0.997665, 305, 193, 432, 224
-0.997671, 97, 33, 352, 96
-0.997672, 1, 113, 128, 176
-0.997675, 273, 121, 400, 152
-0.997681, 97, 57, 352, 120
-0.997693, 1, 249, 128, 280
-0.997695, 457, 1, 488, 256
-0.997721, 213, 129, 244, 375
-0.997734, 137, 173, 152, 204
-0.997766, 1, 313, 256, 375
-0.997776, 157, 185, 172, 216
-0.99778, 351, 173, 366, 204
-0.997816, 327, 257, 342, 288
-0.997827, 361, 93, 376, 124
-0.997831, 365, 129, 396, 375
-0.997832, 321, 21, 448, 52
-0.997841, 1, 1, 256, 64
-0.997859, 73, 81, 104, 208
-0.997868, 337, 217, 464, 248
-0.99787, 131, 177, 146, 208
-0.997881, 81, 157, 208, 188
-0.997892, 111, 177, 126, 208
-0.997893, 177, 173, 304, 204
-0.9979, 245, 129, 276, 375
-0.997912, 103, 185, 118, 216
-0.997917, 33, 65, 96, 128
-0.997926, 113, 61, 240, 92
-0.997934, 469, 1, 500, 256
-0.997941, 351, 193, 366, 224
-0.997946, 145, 329, 272, 360
-0.997954, 173, 221, 188, 252
-0.997955, 181, 313, 196, 344
-0.997965, 193, 105, 256, 168
-0.997966, 413, 89, 428, 120
-0.997973, 321, 181, 448, 212
-0.997974, 177, 153, 304, 184
-0.997974, 97, 9, 224, 40
-0.997983, 401, 137, 416, 168
-0.997988, 171, 205, 186, 236
-0.997989, 429, 105, 444, 136
-0.997993, 317, 193, 332, 224
-0.997994, 409, 77, 424, 108
-0.997994, 125, 177, 140, 208
-0.997997, 377, 125, 392, 156
-0.998001, 177, 41, 304, 104
-0.998004, 255, 205, 270, 236
-0.998009, 337, 237, 464, 268
-0.998011, 193, 333, 320, 364
-0.998032, 369, 345, 384, 375
-0.998033, 155, 173, 170, 204
-0.998035, 173, 317, 188, 348
-0.998048, 179, 221, 194, 252
-0.99805, 257, 221, 272, 252
-0.99807, 225, 289, 352, 320
-0.998079, 353, 345, 480, 375
-0.998079, 189, 317, 204, 348
-0.998084, 165, 201, 180, 232
-0.998085, 399, 81, 414, 112
-0.998086, 177, 233, 192, 264
-0.998087, 147, 169, 162, 200
-0.99809, 379, 157, 394, 188
-0.998091, 291, 201, 306, 232
-0.998109, 321, 257, 336, 288
-0.998113, 343, 177, 358, 208
-0.99812, 249, 217, 264, 248
-0.998126, 49, 9, 176, 40
-0.998131, 371, 129, 386, 160
-0.998132, 129, 305, 256, 336
-0.998146, 237, 345, 252, 375
-0.998154, 241, 233, 256, 264
-0.998161, 313, 49, 376, 176
-0.998177, 65, 97, 192, 128
-0.998183, 241, 169, 368, 200
-0.998201, 193, 269, 208, 300
-0.99821, 335, 253, 350, 284
-0.998228, 343, 189, 358, 220
-0.998233, 163, 301, 178, 332
-0.998238, 367, 85, 382, 116
-0.99824, 237, 261, 252, 292
-0.998242, 141, 273, 156, 304
-0.998244, 191, 253, 206, 284
-0.998246, 445, 145, 460, 176
-0.99825, 179, 197, 194, 228
-0.99825, 305, 89, 368, 152
-0.998251, 479, 321, 494, 352
-0.998254, 129, 89, 384, 152
-0.998258, 49, 29, 176, 60
-0.998262, 385, 77, 400, 108
-0.998267, 113, 49, 240, 80
-0.998267, 91, 225, 106, 256
-0.998267, 435, 121, 450, 152
-0.998283, 145, 245, 160, 276
-0.998284, 373, 81, 388, 112
-0.998285, 129, 1, 160, 256
-0.998288, 267, 233, 282, 264
-0.998288, 81, 297, 144, 360
-0.998293, 285, 201, 300, 232
-0.998293, 269, 205, 284, 236
-0.998298, 1, 305, 500, 368
-0.998302, 321, 65, 448, 96
-0.998308, 99, 205, 114, 236
-0.99831, 337, 205, 464, 236
-0.998313, 475, 221, 490, 252
-0.998313, 457, 165, 472, 196
-0.998313, 81, 301, 208, 332
-0.998321, 273, 281, 288, 312
-0.998328, 273, 89, 400, 120
-0.998329, 237, 345, 268, 360
-0.998329, 433, 153, 464, 168
-0.998329, 365, 133, 396, 148
-0.99833, 149, 267, 180, 282
-0.998331, 389, 143, 420, 158
-0.998332, 149, 233, 180, 248
-0.998332, 147, 233, 162, 264
-0.998334, 265, 249, 296, 264
-0.998335, 89, 231, 120, 246
-0.998335, 405, 15, 436, 30
-0.998337, 225, 277, 256, 292
-0.998338, 353, 127, 384, 142
-0.998338, 237, 245, 268, 260
-0.998338, 261, 239, 292, 254
-0.998339, 221, 343, 252, 358
-0.998339, 169, 213, 200, 228
-0.99834, 409, 79, 440, 94
-0.99834, 169, 259, 200, 274
-0.998341, 201, 277, 232, 292
-0.998342, 369, 87, 400, 102
-0.998343, 137, 309, 168, 324
-0.998344, 189, 255, 220, 270
-0.998344, 425, 131, 456, 146
-0.998344, 197, 199, 228, 214
-0.998345, 213, 281, 244, 296
-0.998345, 121, 183, 152, 198
-0.998345, 389, 157, 404, 188
-0.998346, 97, 181, 128, 196
-0.998347, 141, 105, 172, 120
-0.998348, 365, 165, 396, 180
-0.998348, 313, 277, 344, 292
-0.998349, 397, 77, 428, 92
-0.998349, 325, 257, 356, 272
-0.998349, 373, 359, 404, 374
-0.998349, 233, 267, 264, 282
-0.99835, 101, 187, 132, 202
-0.99835, 189, 235, 220, 250
-0.99835, 361, 121, 392, 136
-0.998351, 357, 105, 388, 120
-0.998351, 101, 193, 132, 208
-0.998352, 341, 253, 372, 268
-0.998352, 269, 199, 300, 214
-0.998352, 229, 211, 260, 226
-0.998354, 429, 147, 460, 162
-0.998354, 297, 263, 328, 278
-0.998354, 401, 93, 432, 108
-0.998354, 349, 215, 380, 230
-0.998355, 145, 273, 176, 288
-0.998355, 149, 161, 180, 176
-0.998355, 249, 241, 280, 256
-0.998355, 247, 201, 262, 232
-0.998356, 365, 129, 380, 160
-0.998356, 169, 247, 200, 262
-0.998356, 265, 207, 296, 222
-0.998357, 349, 203, 380, 218
-0.998357, 181, 267, 212, 282
-0.998357, 409, 151, 440, 166
-0.99836, 97, 217, 112, 248
-0.998361, 409, 143, 440, 158
-0.998362, 241, 217, 272, 232
-0.998364, 397, 157, 428, 172
-0.998365, 153, 245, 184, 260
-0.998365, 177, 137, 208, 152
-0.998365, 169, 193, 200, 208
-0.998367, 261, 289, 292, 304
-0.998369, 173, 1, 204, 256
-0.998371, 349, 1, 380, 256
-0.998371, 425, 141, 456, 156
-0.998371, 69, 243, 100, 258
-0.998372, 285, 221, 316, 236
-0.998372, 345, 227, 376, 242
-0.998373, 161, 313, 192, 328
-0.998374, 389, 135, 420, 150
-0.998374, 65, 85, 192, 116
-0.998375, 109, 175, 140, 190
-0.998377, 161, 185, 192, 200
-0.998377, 147, 265, 162, 296
-0.998379, 165, 205, 196, 220
-0.998379, 69, 251, 100, 266
-0.99838, 297, 197, 312, 228
-0.99838, 417, 17, 448, 32
-0.998382, 293, 205, 324, 220
-0.998383, 237, 239, 268, 254
-0.998383, 149, 199, 180, 214
-0.998384, 289, 211, 320, 226
-0.998385, 405, 99, 436, 114
-0.998387, 177, 325, 208, 340
-0.998387, 379, 77, 394, 108
-0.998388, 185, 205, 216, 220
-0.998389, 145, 173, 176, 188
-0.99839, 313, 261, 328, 292
-0.998391, 261, 217, 292, 232
-0.998391, 241, 203, 272, 218
-0.998391, 389, 149, 420, 164
-0.998391, 233, 351, 264, 366
-0.998392, 157, 191, 188, 206
-0.998392, 149, 317, 180, 332
-0.998392, 421, 125, 452, 140
-0.998393, 257, 201, 288, 216
-0.998396, 409, 149, 424, 180
-0.998397, 317, 203, 348, 218
-0.998397, 141, 193, 172, 208
-0.998397, 329, 201, 360, 216
-0.998402, 359, 121, 374, 152
-0.998402, 451, 153, 466, 184
-0.998404, 133, 183, 164, 198
-0.998404, 125, 279, 156, 294
-0.998406, 417, 109, 448, 124
-0.998409, 273, 213, 304, 228
-0.99841, 177, 125, 304, 156
-0.99841, 189, 273, 220, 288
-0.998414, 1, 313, 128, 375
-0.998415, 365, 127, 396, 142
-0.998415, 261, 283, 292, 298
-0.998415, 177, 313, 208, 328
-0.998416, 249, 209, 280, 224
-0.998417, 93, 197, 108, 228
-0.998421, 177, 289, 304, 320
-0.998422, 213, 153, 228, 184
-0.998422, 137, 241, 200, 256
-0.998424, 385, 155, 416, 170
-0.998425, 277, 197, 292, 228
-0.998426, 169, 199, 200, 214
-0.998427, 293, 199, 324, 214
-0.99843, 403, 157, 418, 188
-0.99843, 163, 189, 178, 220
-0.998433, 161, 233, 192, 248
-0.998434, 213, 271, 244, 286
-0.998434, 393, 83, 424, 98
-0.998435, 369, 83, 432, 98
-0.998437, 243, 213, 258, 244
-0.998438, 309, 261, 340, 276
-0.998439, 221, 205, 252, 220
-0.998441, 305, 203, 336, 218
-0.998442, 179, 329, 194, 360
-0.998443, 193, 317, 320, 348
-0.998444, 321, 271, 352, 286
-0.998445, 305, 195, 336, 210
-0.998449, 377, 129, 408, 144
-0.998449, 149, 311, 180, 326
-0.99845, 391, 129, 406, 160
-0.998451, 391, 77, 406, 108
-0.998453, 321, 201, 384, 216
-0.998454, 145, 185, 176, 200
-0.998457, 17, 165, 144, 196
-0.99846, 231, 265, 246, 296
-0.998462, 419, 97, 434, 128
-0.998464, 173, 235, 204, 250
-0.998467, 213, 153, 244, 168
-0.99847, 131, 161, 146, 192
-0.998471, 97, 285, 224, 316
-0.998473, 333, 191, 364, 206
-0.998474, 1, 273, 128, 304
-0.998474, 219, 149, 234, 180
-0.998476, 265, 281, 280, 312
-0.998477, 133, 277, 148, 308
-0.998478, 401, 149, 464, 164
-0.99848, 277, 205, 308, 220
-0.99848, 165, 229, 180, 260
-0.998484, 171, 185, 186, 216
-0.998484, 283, 273, 298, 304
-0.998486, 263, 221, 278, 252
-0.998488, 241, 209, 304, 224
-0.998489, 317, 197, 348, 212
-0.998492, 377, 81, 408, 96
-0.998493, 171, 241, 186, 272
-0.998495, 77, 97, 108, 352
-0.998497, 159, 313, 174, 344
-0.998498, 199, 273, 214, 304
-0.998498, 145, 261, 208, 276
-0.9985, 401, 143, 464, 158
-0.9985, 281, 201, 344, 216
-0.998501, 349, 173, 380, 188
-0.998501, 187, 265, 202, 296
-0.998502, 161, 173, 176, 204
-0.998503, 357, 359, 388, 374
-0.998503, 383, 125, 398, 156
-0.998505, 109, 181, 140, 196
-0.998507, 237, 201, 252, 232
-0.998508, 161, 319, 192, 334
-0.998516, 321, 37, 448, 68
-0.998516, 155, 161, 170, 192
-0.998519, 145, 317, 208, 332
-0.99852, 393, 137, 456, 152
-0.998521, 145, 255, 208, 270
-0.998522, 185, 263, 248, 278
-0.998523, 255, 237, 270, 268
-0.998526, 145, 247, 208, 262
-0.998527, 373, 65, 388, 192
-0.998528, 469, 129, 500, 256
-0.998532, 453, 129, 484, 375
-0.998534, 129, 177, 160, 192
-0.998534, 393, 129, 456, 144
-0.998534, 349, 197, 380, 212
-0.998535, 145, 267, 208, 282
-0.998535, 149, 239, 180, 254
-0.998535, 291, 217, 306, 248
-0.998536, 369, 65, 496, 96
-0.998536, 185, 249, 200, 280
-0.998536, 233, 203, 296, 218
-0.998537, 125, 277, 140, 308
-0.99854, 145, 235, 208, 250
-0.998541, 321, 49, 448, 80
-0.998544, 225, 239, 288, 254
-0.998545, 313, 195, 376, 210
-0.998545, 97, 179, 160, 194
-0.998547, 421, 13, 436, 44
-0.998548, 227, 153, 242, 184
-0.998549, 185, 257, 248, 272
-0.998551, 465, 185, 480, 216
-0.998552, 369, 153, 384, 184
-0.998553, 209, 277, 224, 308
-0.998554, 337, 173, 400, 188
-0.998556, 141, 161, 156, 192
-0.998556, 249, 215, 312, 230
-0.998558, 193, 207, 256, 222
-0.99856, 57, 289, 120, 352
-0.998562, 377, 161, 408, 176
-0.998563, 369, 163, 432, 178
-0.998565, 475, 301, 490, 332
-0.998568, 189, 201, 204, 232
-0.998571, 225, 279, 288, 294
-0.998571, 261, 237, 276, 268
-0.998572, 247, 237, 262, 268
-0.998573, 117, 277, 132, 308
-0.998575, 177, 319, 208, 334
-0.998575, 193, 155, 256, 170
-0.998576, 369, 21, 496, 52
-0.998576, 401, 155, 464, 170
-0.998578, 165, 241, 180, 272
-0.99858, 173, 241, 204, 256
-0.99858, 123, 165, 138, 196
-0.99858, 219, 193, 234, 224
-0.998581, 357, 353, 388, 368
-0.998582, 101, 1, 132, 256
-0.998583, 185, 271, 248, 286
-0.998583, 361, 147, 424, 162
-0.998584, 91, 269, 106, 300
-0.998584, 263, 201, 278, 232
-0.998585, 281, 207, 344, 222
-0.998585, 273, 265, 336, 280
-0.998586, 273, 273, 336, 288
-0.998587, 321, 207, 384, 222
-0.998588, 345, 361, 408, 375
-0.998588, 303, 197, 318, 228
-0.998589, 361, 105, 376, 136
-0.99859, 53, 161, 84, 288
-0.998592, 185, 237, 248, 252
-0.998593, 369, 157, 432, 172
-0.998593, 353, 109, 368, 140
-0.998593, 273, 157, 400, 188
-0.998594, 119, 177, 134, 208
-0.998595, 361, 133, 424, 148
-0.998595, 145, 191, 208, 206
-0.998596, 105, 185, 168, 200
-0.998598, 97, 279, 160, 294
-0.998598, 185, 247, 248, 262
-0.998598, 225, 245, 288, 260
-0.998599, 89, 221, 152, 236
-0.9986, 89, 191, 152, 206
-0.9986, 361, 89, 424, 104
-0.998603, 121, 195, 184, 210
-0.998604, 169, 319, 232, 334
-0.998606, 321, 233, 384, 248
-0.998606, 361, 141, 424, 156
-0.998607, 161, 197, 224, 212
-0.998607, 257, 201, 320, 216
-0.998608, 265, 231, 328, 246
-0.998608, 409, 17, 472, 32
-0.998609, 225, 253, 288, 268
-0.99861, 305, 257, 368, 272
-0.998614, 129, 203, 192, 218
-0.998614, 145, 323, 208, 338
-0.998614, 329, 355, 392, 370
-0.998614, 353, 353, 416, 368
-0.998615, 393, 109, 456, 124
-0.998616, 209, 273, 272, 288
-0.998616, 353, 127, 416, 142
-0.998616, 353, 97, 416, 112
-0.998617, 89, 199, 152, 214
-0.998618, 321, 227, 384, 242
-0.998618, 161, 203, 224, 218
-0.998619, 153, 311, 216, 326
-0.998621, 129, 341, 256, 372
-0.998623, 393, 123, 456, 138
-0.998623, 177, 97, 304, 128
-0.998625, 185, 277, 248, 292
-0.998628, 89, 215, 152, 230
-0.998628, 369, 77, 432, 92
-0.998628, 145, 181, 208, 196
-0.998629, 153, 137, 216, 152
-0.99863, 257, 221, 320, 236
-0.998632, 313, 271, 376, 286
-0.998633, 145, 229, 208, 244
-0.998633, 353, 119, 416, 134
-0.998633, 281, 195, 344, 210
-0.998634, 233, 285, 296, 300
-0.998634, 89, 205, 152, 220
-0.998635, 129, 107, 192, 122
-0.998637, 305, 189, 368, 204
-0.998637, 169, 147, 232, 162
-0.998639, 137, 275, 200, 290
-0.998639, 377, 15, 440, 30
-0.99864, 377, 99, 440, 114
-0.99864, 161, 273, 224, 288
-0.998641, 393, 115, 456, 130
-0.998645, 97, 269, 160, 284
-0.998648, 193, 161, 256, 176
-0.998649, 121, 235, 184, 250
-0.998649, 201, 65, 232, 192
-0.998649, 345, 111, 408, 126
-0.998652, 121, 179, 184, 194
-0.998652, 113, 33, 240, 64
-0.998652, 257, 195, 320, 210
-0.998653, 137, 223, 200, 238
-0.998653, 161, 241, 224, 256
-0.998653, 209, 199, 272, 214
-0.998654, 273, 279, 336, 294
-0.998655, 105, 173, 168, 188
-0.998656, 401, 79, 464, 94
-0.998656, 185, 199, 248, 214
-0.998656, 213, 1, 244, 256
-0.998656, 137, 217, 200, 232
-0.998657, 225, 221, 288, 236
-0.998659, 345, 103, 408, 118
-0.998659, 225, 233, 288, 248
-0.99866, 145, 175, 208, 190
-0.99866, 369, 177, 496, 208
-0.998661, 105, 255, 168, 270
-0.998661, 81, 237, 144, 252
-0.998662, 321, 219, 384, 234
-0.998662, 201, 345, 264, 360
-0.998664, 73, 275, 136, 290
-0.998665, 57, 203, 120, 218
-0.998665, 321, 213, 384, 228
-0.998666, 225, 267, 288, 282
-0.998666, 121, 129, 184, 144
-0.998667, 329, 253, 392, 268
-0.998667, 65, 117, 192, 148
-0.998667, 281, 215, 344, 230
-0.998667, 321, 361, 384, 375
-0.998668, 233, 197, 296, 212
-0.998669, 209, 213, 272, 228
-0.998671, 153, 109, 216, 124
-0.998672, 361, 203, 424, 218
-0.998672, 145, 129, 208, 144
-0.998672, 49, 241, 112, 256
-0.998672, 129, 209, 192, 224
-0.998674, 81, 141, 208, 172
-0.998674, 353, 245, 416, 260
-0.998676, 409, 161, 472, 176
-0.998676, 57, 181, 120, 196
-0.998676, 129, 113, 192, 128
-0.99868, 367, 65, 382, 192
-0.998694, 265, 129, 296, 375
-0.998701, 153, 161, 168, 288
-0.998712, 257, 13, 384, 44
-0.998739, 25, 1, 88, 256
-0.998741, 153, 225, 168, 352
-0.998742, 363, 113, 378, 240
-0.998764, 421, 97, 452, 352
-0.998764, 379, 65, 394, 192
-0.998784, 441, 129, 472, 375
-0.998794, 385, 65, 400, 192
-0.998799, 5, 17, 36, 144
-0.998818, 225, 305, 352, 336
-0.998821, 49, 41, 176, 72
-0.998827, 163, 145, 178, 272
-0.998831, 395, 65, 410, 192
-0.998841, 285, 129, 316, 375
-0.998858, 257, 77, 384, 108
-0.998868, 143, 161, 158, 288
-0.998878, 305, 129, 336, 375
-0.998892, 185, 1, 216, 256
-0.998893, 25, 113, 88, 240
-0.998894, 161, 1, 192, 256
-0.998897, 409, 65, 424, 192
-0.9989, 49, 73, 176, 104
-0.9989, 233, 1, 264, 256
-0.998904, 379, 113, 394, 240
-0.998926, 93, 209, 108, 336
-0.998927, 401, 65, 416, 192
-0.998931, 419, 1, 434, 128
-0.998933, 177, 21, 304, 52
-0.998947, 195, 193, 210, 320
-0.998951, 101, 177, 116, 304
-0.998952, 373, 113, 388, 240
-0.998955, 171, 193, 186, 320
-0.998964, 255, 193, 270, 320
-0.998971, 369, 305, 496, 336
-0.998972, 109, 1, 140, 128
-0.998987, 257, 1, 288, 256
-0.998993, 241, 193, 256, 320
-0.998995, 247, 193, 262, 320
-0.998997, 257, 333, 384, 364
-0.998999, 183, 177, 198, 304
-0.999032, 409, 1, 424, 128
-0.999049, 193, 141, 320, 172
-0.999051, 285, 1, 316, 256
-0.999052, 291, 177, 306, 304
-0.999054, 173, 145, 188, 272
-0.999059, 329, 129, 360, 375
-0.99906, 321, 1, 352, 256
-0.999061, 297, 1, 328, 256
-0.999073, 89, 1, 120, 256
-0.999073, 81, 33, 112, 160
-0.99908, 163, 225, 178, 352
-0.999084, 161, 113, 288, 144
-0.999086, 235, 177, 250, 304
-0.999089, 369, 333, 496, 364
-0.999091, 343, 177, 358, 304
-0.999092, 299, 177, 314, 304
-0.999092, 317, 177, 332, 304
-0.999094, 147, 225, 162, 352
-0.999096, 245, 1, 276, 256
-0.999096, 361, 65, 376, 192
-0.999097, 425, 1, 440, 128
-0.999099, 369, 317, 496, 348
-0.999103, 399, 113, 414, 240
-0.999104, 285, 177, 300, 304
-0.999105, 229, 193, 244, 320
-0.999119, 33, 149, 160, 180
-0.999121, 199, 241, 214, 368
-0.999123, 177, 209, 192, 336
-0.999125, 137, 161, 152, 288
-0.999127, 49, 53, 176, 84
-0.999127, 189, 177, 204, 304
-0.999134, 385, 113, 400, 240
-0.999137, 351, 161, 366, 288
-0.999137, 221, 193, 236, 320
-0.999147, 333, 1, 364, 256
-0.99915, 1, 97, 64, 224
-0.999153, 261, 209, 276, 336
-0.999163, 415, 49, 430, 176
-0.999165, 201, 193, 216, 320
-0.999166, 357, 113, 372, 240
-0.999168, 109, 161, 124, 288
-0.999178, 369, 261, 496, 292
-0.999182, 183, 225, 198, 352
-0.999184, 65, 17, 96, 144
-0.999192, 215, 193, 230, 320
-0.999194, 369, 289, 496, 320
-0.999197, 61, 81, 92, 208
-0.9992, 131, 161, 146, 288
-0.999204, 327, 193, 342, 320
-0.999206, 369, 161, 384, 288
-0.999208, 207, 193, 222, 320
-0.999212, 201, 1, 232, 256
-0.999219, 403, 1, 418, 128
-0.99922, 357, 161, 372, 288
-0.999228, 393, 113, 408, 240
-0.999239, 139, 209, 154, 336
-0.99924, 245, 145, 260, 272
-0.999244, 235, 225, 250, 352
-0.999245, 189, 225, 204, 352
-0.999246, 467, 177, 482, 304
-0.999253, 267, 209, 282, 336
-0.999255, 433, 97, 448, 224
-0.999258, 229, 145, 244, 272
-0.999267, 219, 129, 234, 256
-0.999269, 87, 209, 102, 336
-0.999285, 363, 193, 378, 320
-0.999288, 169, 1, 200, 128
-0.9993, 129, 113, 144, 240
-0.999323, 473, 193, 488, 320
-0.999328, 443, 129, 458, 256
-0.99933, 311, 177, 326, 304
-0.99933, 393, 1, 408, 128
-0.999335, 477, 241, 492, 368
-0.999339, 337, 241, 352, 368
-0.999339, 255, 241, 270, 368
-0.99935, 381, 1, 396, 128
-0.999352, 137, 97, 152, 224
-0.999353, 115, 161, 130, 288
-0.999355, 123, 161, 138, 288
-0.999359, 213, 129, 228, 256
-0.999366, 269, 1, 300, 256
-0.999368, 437, 1, 452, 128
-0.999371, 337, 193, 352, 320
-0.999375, 375, 1, 390, 128
-0.999379, 295, 241, 310, 368
-0.999379, 473, 1, 488, 128
-0.99938, 455, 1, 470, 128
-0.99938, 387, 1, 402, 128
-0.999381, 461, 1, 476, 128
-0.999384, 421, 81, 436, 208
-0.999386, 467, 1, 482, 128
-0.999387, 453, 145, 468, 272
-0.999392, 195, 129, 210, 256
-0.9994, 461, 161, 476, 288
-0.999401, 151, 97, 166, 224
-0.999401, 449, 1, 464, 128
-0.999404, 99, 241, 114, 368
-0.999407, 479, 1, 494, 128
-0.999414, 189, 129, 204, 256
-0.999418, 119, 113, 134, 240
-0.999418, 143, 113, 158, 240
-0.999419, 305, 177, 320, 304
-0.999428, 13, 1, 44, 256
-0.999434, 237, 129, 252, 256
-0.999435, 485, 1, 500, 128
-0.999436, 361, 1, 376, 128
-0.999441, 431, 1, 446, 128
-0.999449, 279, 177, 294, 304
-0.999456, 241, 241, 256, 368
-0.999457, 105, 241, 120, 368
-0.999462, 483, 241, 498, 368
-0.999464, 443, 1, 458, 128
-0.999467, 229, 241, 244, 368
-0.999468, 207, 145, 222, 272
-0.99947, 367, 1, 382, 128
-0.999471, 261, 161, 276, 288
-0.999471, 193, 289, 448, 352
-0.999473, 427, 97, 442, 224
-0.999476, 255, 145, 270, 272
-0.999476, 163, 97, 178, 224
-0.999479, 289, 225, 304, 352
-0.999479, 91, 145, 106, 272
-0.999481, 205, 241, 220, 368
-0.999486, 111, 241, 126, 368
-0.999487, 405, 129, 420, 256
-0.999489, 103, 129, 118, 256
-0.999489, 317, 97, 348, 352
-0.999491, 181, 129, 196, 256
-0.999494, 321, 225, 336, 352
-0.999502, 273, 209, 288, 336
-0.999507, 113, 113, 128, 240
-0.999514, 141, 1, 156, 128
-0.999518, 77, 1, 108, 256
-0.999541, 213, 281, 228, 296
-0.999541, 259, 241, 274, 256
-0.999541, 327, 283, 342, 298
-0.999541, 213, 153, 228, 168
-0.999541, 177, 233, 192, 248
-0.999542, 251, 207, 266, 222
-0.999542, 347, 255, 362, 270
-0.999542, 177, 313, 192, 328
-0.999542, 105, 183, 120, 198
-0.999543, 169, 235, 184, 250
-0.999543, 475, 223, 490, 238
-0.999543, 401, 137, 416, 152
-0.999543, 181, 199, 196, 214
-0.999543, 165, 311, 180, 326
-0.999544, 399, 153, 414, 168
-0.999544, 177, 227, 192, 242
-0.999544, 359, 103, 374, 118
-0.999545, 361, 173, 376, 188
-0.999545, 307, 205, 322, 220
-0.999545, 411, 151, 426, 166
-0.999546, 317, 261, 332, 276
-0.999547, 127, 279, 142, 294
-0.999547, 145, 127, 160, 142
-0.999548, 369, 173, 384, 188
-0.999549, 421, 15, 436, 30
-0.999549, 191, 255, 206, 270
-0.999549, 191, 205, 206, 220
-0.999549, 171, 205, 186, 220
-0.99955, 151, 179, 166, 194
-0.999551, 135, 183, 150, 198
-0.999552, 171, 195, 186, 210
-0.999552, 95, 207, 110, 222
-0.999552, 323, 259, 338, 274
-0.999552, 407, 79, 422, 94
-0.999553, 207, 277, 222, 292
-0.999553, 373, 359, 388, 374
-0.999553, 147, 271, 162, 286
-0.999554, 185, 137, 200, 152
-0.999554, 117, 173, 132, 188
-0.999555, 101, 195, 116, 210
-0.999555, 93, 231, 108, 246
-0.999556, 401, 159, 416, 174
-0.999558, 151, 195, 166, 210
-0.999559, 237, 265, 252, 280
-0.999559, 255, 221, 270, 236
-0.999561, 439, 141, 454, 156
-0.999562, 401, 83, 416, 98
-0.999563, 277, 207, 292, 222
-0.999564, 103, 189, 118, 204
-0.999564, 145, 233, 160, 248
-0.999565, 265, 281, 280, 296
-0.999565, 241, 237, 256, 252
-0.999566, 293, 217, 308, 232
-0.999566, 165, 243, 180, 258
-0.999567, 99, 219, 114, 234
-0.999568, 395, 81, 410, 96
-0.999568, 445, 149, 460, 164
-0.999568, 235, 205, 250, 220
-0.999568, 339, 183, 354, 198
-0.999569, 265, 201, 280, 216
-0.99957, 335, 199, 350, 214
-0.99957, 145, 179, 160, 194
-0.99957, 199, 273, 214, 288
-0.999571, 365, 93, 380, 108
-0.999572, 171, 241, 186, 256
-0.999572, 417, 99, 432, 114
-0.999573, 161, 305, 176, 320
-0.999573, 183, 243, 198, 258
-0.999574, 171, 211, 186, 226
-0.999575, 379, 157, 394, 172
-0.999575, 139, 277, 154, 292
-0.999575, 435, 125, 450, 140
-0.999576, 327, 277, 342, 292
-0.999577, 173, 325, 188, 340
-0.999578, 133, 177, 148, 192
-0.99958, 143, 189, 158, 204
-0.99958, 241, 211, 256, 226
-0.999581, 427, 107, 442, 122
-0.999581, 361, 359, 376, 374
-0.999581, 189, 321, 204, 336
-0.999582, 287, 219, 302, 234
-0.999584, 247, 215, 262, 230
-0.999584, 367, 127, 382, 142
-0.999588, 389, 159, 404, 174
-0.999591, 269, 207, 284, 222
-0.999591, 403, 147, 418, 162
-0.999595, 375, 83, 390, 98
-0.999597, 169, 317, 184, 332
-0.999598, 271, 283, 286, 298
-0.999598, 345, 193, 360, 208
-0.9996, 413, 93, 428, 108
-0.9996, 191, 269, 206, 284
-0.999602, 279, 201, 294, 216
-0.999602, 291, 211, 306, 226
-0.999602, 237, 351, 252, 366
-0.999604, 391, 131, 406, 146
-0.999604, 155, 315, 170, 330
-0.999604, 381, 81, 396, 96
-0.999604, 165, 203, 180, 218
-0.999606, 283, 209, 298, 224
-0.999608, 369, 87, 384, 102
-0.999608, 237, 345, 252, 360
-0.999613, 189, 315, 204, 330
-0.999616, 161, 197, 176, 212
-0.99962, 297, 199, 312, 214
-0.999626, 407, 85, 422, 100
-0.999627, 177, 241, 192, 256
-0.999627, 353, 197, 368, 212
-0.999632, 317, 195, 332, 210
-0.999639, 149, 185, 164, 200
-0.99964, 351, 173, 366, 188
-0.999646, 363, 353, 378, 368
-0.999647, 285, 203, 300, 218
-0.99965, 379, 129, 394, 144
-0.999651, 363, 199, 378, 214
-0.999655, 291, 205, 306, 220
-0.999657, 317, 203, 332, 218
-0.999658, 183, 231, 198, 246
-0.999663, 151, 235, 166, 250
-0.999665, 327, 197, 342, 212
-0.999666, 127, 179, 142, 194
-0.999669, 379, 163, 394, 178
-0.99968, 365, 209, 396, 336
-0.999682, 111, 179, 126, 194
-0.999685, 151, 309, 166, 324
-0.999693, 139, 177, 154, 192
-0.999695, 325, 269, 340, 284
-0.999696, 155, 187, 170, 202
-0.999699, 179, 319, 194, 334
-0.999719, 183, 237, 198, 252
-0.99974, 369, 353, 384, 368
-0.99982, 401, 97, 432, 352
-0.999824, 389, 97, 420, 352
-0.999851, 309, 1, 340, 256
-0.999853, 53, 209, 84, 336
-0.999854, 65, 97, 96, 352
-0.999862, 225, 121, 352, 184
-0.99992, 25, 1, 56, 256
-1, 1, 1, 32, 256
-1.00001, 273, 41, 400, 104
-1.00005, 61, 1, 92, 256
-1.00022, 377, 129, 408, 375
-1.00022, 53, 97, 84, 352
-1.0003, 237, 97, 268, 224
-1.00036, 41, 33, 72, 288
-1.00037, 17, 33, 48, 160
-1.00037, 321, 313, 448, 375
-1.0004, 41, 129, 72, 375
-1.00044, 53, 1, 84, 128
-1.00046, 469, 97, 500, 352
-1.00048, 21, 97, 52, 352
-1.00057, 5, 97, 36, 352
-1.0006, 305, 281, 432, 344
-1.00066, 453, 113, 484, 240
-1.0008, 117, 65, 148, 192
-1.00081, 1, 97, 64, 352
-1.00089, 69, 129, 100, 256
-1.00097, 257, 113, 288, 240
-1.00105, 37, 1, 68, 128
-1.00124, 1, 97, 32, 224
-1.00128, 165, 49, 196, 176
-1.00134, 341, 129, 372, 256
-1.00135, 225, 97, 256, 224
-1.00145, 25, 129, 88, 375
-1.00149, 41, 161, 72, 288
-1.00177, 217, 81, 280, 208
-1.0018, 377, 161, 408, 288
-1.00191, 41, 113, 72, 240
-1.002, 241, 49, 368, 176
-1.00203, 49, 49, 80, 176
-1.00224, 225, 89, 352, 152
-1.00281, 225, 41, 352, 104
-1.00571, 1, 209, 64, 336
-1.01368, 249, 81, 312, 208
-1.0141, 289, 81, 352, 208
-1.01416, 377, 209, 440, 336
-1.01442, 401, 177, 464, 304
-1.01491, 401, 225, 464, 352
