1991
-0.591961, 1, 129, 500, 384
-0.66885, 1, 33, 500, 288
-0.771309, 1, 1, 500, 400
-0.799642, 1, 1, 256, 400
-0.803943, 161, 1, 416, 400
-0.822303, 161, 97, 416, 352
-0.866467, 257, 129, 500, 384
-0.883758, 257, 1, 500, 400
-0.904646, 241, 129, 368, 384
-0.90574, 289, 129, 416, 384
-0.926496, 289, 1, 416, 400
-0.931231, 17, 1, 144, 400
-0.933032, 337, 129, 464, 384
-0.936108, 65, 1, 320, 256
-0.941491, 337, 1, 464, 400
-0.945862, 209, 1, 336, 400
-0.945958, 225, 225, 480, 352
-0.94746, 273, 33, 400, 288
-0.947887, 1, 225, 500, 352
-0.948845, 193, 65, 320, 320
-0.950098, 17, 65, 144, 320
-0.954881, 1, 177, 500, 304
-0.957153, 65, 1, 192, 400
-0.958665, 161, 129, 416, 256
-0.959074, 273, 161, 400, 288
-0.959566, 361, 241, 424, 368
-0.960345, 297, 129, 360, 256
-0.961153, 257, 145, 500, 272
-0.961867, 1, 113, 500, 240
-0.962582, 337, 33, 464, 288
-0.962882, 257, 33, 500, 288
-0.963481, 321, 225, 448, 352
-0.96412, 145, 1, 272, 400
-0.966411, 65, 65, 192, 320
-0.966734, 161, 177, 416, 304
-0.967324, 145, 129, 272, 384
-0.96845, 369, 273, 496, 400
-0.969409, 273, 241, 400, 368
-0.969965, 57, 49, 120, 176
-0.970657, 257, 273, 500, 400
-0.971139, 1, 273, 500, 400
-0.971356, 369, 273, 432, 336
-0.971948, 401, 281, 464, 344
-0.973403, 385, 273, 448, 400
-0.973681, 329, 193, 392, 320
-0.974015, 145, 33, 272, 288
-0.974854, 57, 57, 120, 120
-0.975112, 1, 65, 500, 192
-0.975897, 329, 241, 392, 368
-0.976512, 321, 273, 448, 400
-0.976671, 425, 273, 488, 336
-0.97677, 289, 113, 416, 240
-0.977001, 361, 249, 424, 312
-0.977803, 361, 297, 424, 360
-0.978382, 353, 193, 416, 320
-0.978603, 321, 281, 384, 344
-0.97861, 305, 153, 368, 216
-0.979759, 337, 177, 464, 304
-0.979993, 409, 257, 472, 384
-0.980149, 297, 121, 360, 184
-0.980378, 257, 97, 500, 224
-0.980411, 297, 177, 360, 304
-0.980752, 353, 201, 416, 264
-0.980809, 241, 113, 368, 240
-0.980897, 161, 1, 416, 256
-0.981376, 353, 273, 480, 336
-0.981408, 1, 49, 256, 176
-0.981632, 273, 185, 400, 248
-0.982142, 33, 65, 160, 192
-0.982335, 297, 129, 360, 384
-0.982669, 257, 137, 320, 200
-0.982855, 209, 193, 336, 320
-0.982974, 161, 273, 416, 400
-0.982999, 393, 257, 456, 320
-0.983409, 161, 81, 416, 208
-0.983859, 65, 97, 320, 352
-0.983879, 273, 209, 400, 272
-0.983905, 1, 1, 500, 128
-0.983994, 273, 225, 336, 352
-0.983995, 405, 273, 436, 400
-0.984125, 305, 257, 368, 384
-0.984268, 393, 273, 424, 336
-0.984333, 329, 305, 392, 368
-0.984394, 297, 177, 360, 240
-0.984604, 33, 1, 288, 128
-0.984957, 81, 65, 144, 128
-0.985386, 329, 217, 392, 280
-0.985743, 417, 305, 480, 368
-0.985832, 385, 305, 448, 368
-0.986259, 405, 273, 436, 336
-0.986395, 441, 273, 472, 336
-0.986731, 129, 225, 384, 352
-0.986808, 321, 129, 384, 384
-0.986829, 337, 129, 464, 256
-0.986922, 337, 305, 464, 368
-0.986954, 353, 225, 416, 288
-0.986989, 65, 49, 96, 112
-0.987112, 309, 113, 340, 240
-0.987253, 385, 225, 448, 352
-0.987389, 65, 1, 192, 128
-0.987431, 289, 137, 320, 200
-0.987437, 265, 177, 328, 304
-0.987699, 49, 81, 112, 144
-0.987725, 369, 225, 496, 352
-0.987738, 289, 145, 416, 208
-0.987797, 361, 297, 392, 360
-0.987836, 337, 145, 400, 272
-0.987915, 421, 273, 452, 336
-0.988002, 241, 145, 368, 208
-0.988051, 393, 233, 456, 296
-0.988107, 321, 97, 384, 224
-0.988311, 337, 257, 400, 320
-0.988422, 393, 257, 424, 384
-0.988473, 81, 65, 144, 192
-0.989155, 1, 73, 128, 136
-0.989187, 305, 233, 432, 296
-0.989229, 417, 249, 480, 312
-0.9893, 89, 65, 120, 128
-0.989362, 49, 57, 176, 120
-0.989443, 33, 49, 96, 176
-0.989471, 361, 241, 392, 368
-0.989536, 289, 297, 416, 360
-0.989587, 353, 209, 480, 272
-0.989703, 33, 57, 96, 120
-0.989741, 305, 273, 432, 336
-0.989959, 345, 129, 408, 384
-0.989971, 417, 281, 480, 312
-0.989971, 345, 177, 408, 240
-0.990216, 281, 145, 344, 208
-0.99043, 289, 121, 416, 184
-0.990458, 405, 305, 436, 368
-0.990555, 381, 241, 412, 368
-0.99068, 393, 297, 456, 328
-0.990692, 321, 177, 384, 240
-0.990878, 61, 33, 92, 160
-0.990897, 57, 1, 120, 128
-0.990931, 353, 241, 480, 304
-0.990938, 297, 129, 360, 160
-0.990969, 345, 301, 408, 332
-0.991066, 297, 289, 360, 352
-0.991081, 377, 193, 408, 320
-0.991135, 193, 129, 320, 256
-0.991317, 385, 281, 448, 312
-0.991372, 49, 69, 112, 100
-0.991624, 417, 293, 480, 324
-0.991628, 297, 161, 328, 288
-0.991771, 73, 77, 136, 108
-0.991777, 321, 129, 384, 192
-0.991814, 297, 149, 360, 180
-0.991824, 417, 305, 480, 336
-0.991856, 309, 121, 340, 184
-0.991856, 49, 57, 112, 88
-0.991873, 289, 201, 352, 264
-0.991887, 305, 1, 368, 400
-0.991907, 345, 317, 408, 348
-0.991913, 33, 177, 288, 304
-0.991949, 337, 185, 464, 248
-0.991952, 369, 317, 432, 348
-0.991991, 265, 145, 328, 176
-0.992025, 369, 301, 432, 332
-0.992066, 373, 297, 404, 360
-0.992178, 297, 161, 360, 192
-0.992219, 457, 281, 488, 344
-0.992229, 257, 129, 320, 256
-0.992231, 1, 49, 128, 112
-0.992265, 361, 265, 424, 296
-0.992299, 353, 217, 416, 248
-0.992309, 297, 177, 360, 208
-0.992309, 393, 269, 456, 300
-0.992313, 361, 281, 424, 312
-0.992315, 409, 209, 472, 336
-0.992354, 353, 233, 416, 264
-0.992357, 49, 81, 112, 112
-0.992375, 209, 217, 336, 280
-0.992403, 353, 193, 384, 320
-0.992404, 393, 309, 456, 340
-0.992408, 81, 65, 144, 96
-0.992447, 321, 285, 384, 316
-0.992448, 313, 309, 376, 340
-0.992451, 241, 121, 368, 184
-0.992465, 337, 161, 464, 224
-0.992525, 313, 297, 376, 328
-0.992536, 345, 197, 408, 228
-0.992578, 353, 245, 416, 276
-0.992621, 1, 225, 256, 352
-0.992646, 345, 97, 408, 224
-0.992727, 381, 225, 412, 288
-0.992738, 377, 209, 440, 272
-0.992761, 209, 169, 336, 232
-0.992791, 393, 297, 424, 360
-0.992828, 405, 281, 436, 312
-0.992837, 57, 1, 120, 400
-0.992851, 273, 125, 336, 156
-0.992868, 417, 269, 480, 300
-0.992871, 313, 257, 376, 320
-0.992894, 365, 301, 396, 332
-0.992899, 421, 257, 452, 384
-0.992942, 313, 113, 376, 144
-0.992943, 433, 273, 496, 400
-0.992958, 309, 129, 340, 160
-0.992964, 337, 141, 400, 172
-0.992979, 289, 189, 352, 220
-0.992982, 265, 161, 328, 192
-0.992997, 417, 297, 448, 328
-0.993018, 321, 177, 384, 208
-0.993065, 405, 297, 436, 328
-0.99307, 73, 89, 136, 120
-0.99309, 377, 233, 440, 264
-0.993096, 329, 233, 392, 264
-0.993123, 393, 257, 456, 288
-0.993126, 289, 141, 320, 172
-0.993141, 429, 281, 460, 312
-0.993148, 249, 213, 312, 244
-0.993161, 273, 129, 336, 384
-0.993165, 93, 69, 124, 100
-0.993193, 49, 93, 112, 124
-0.9932, 377, 245, 440, 276
-0.993209, 345, 181, 408, 212
-0.993213, 449, 277, 480, 308
-0.993221, 337, 161, 400, 192
-0.993223, 329, 245, 392, 276
-0.993235, 313, 321, 376, 352
-0.993239, 65, 53, 96, 84
-0.993247, 321, 189, 384, 220
-0.993254, 353, 305, 384, 336
-0.993255, 289, 249, 352, 312
-0.993268, 417, 285, 448, 316
-0.993268, 429, 297, 460, 328
-0.99327, 337, 129, 400, 160
-0.993287, 325, 125, 356, 156
-0.993294, 57, 65, 88, 96
-0.993298, 209, 65, 336, 192
-0.993301, 109, 89, 140, 120
-0.993317, 257, 177, 320, 208
-0.993324, 353, 317, 384, 348
-0.99333, 257, 197, 320, 228
-0.993331, 421, 309, 452, 340
-0.993335, 305, 117, 336, 148
-0.993356, 329, 221, 392, 252
-0.993362, 289, 201, 352, 232
-0.993365, 73, 49, 136, 80
-0.99337, 365, 321, 396, 352
-0.993372, 257, 209, 320, 272
-0.993373, 293, 129, 324, 160
-0.993375, 297, 33, 360, 288
-0.993379, 393, 269, 424, 300
-0.993381, 97, 81, 128, 112
-0.993383, 385, 317, 416, 348
-0.993384, 273, 113, 336, 144
-0.993392, 381, 253, 412, 284
-0.993405, 73, 65, 104, 96
-0.993409, 17, 81, 80, 112
-0.993414, 381, 233, 412, 264
-0.993418, 465, 285, 496, 316
-0.99342, 405, 313, 436, 344
-0.993427, 85, 49, 116, 176
-0.993442, 105, 81, 168, 112
-0.993443, 85, 81, 116, 112
-0.993452, 77, 57, 108, 120
-0.993461, 385, 305, 416, 336
-0.993466, 373, 201, 404, 264
-0.993473, 337, 265, 400, 296
-0.993484, 313, 141, 344, 172
-0.993497, 77, 53, 108, 84
-0.993518, 321, 205, 384, 236
-0.993519, 433, 269, 464, 300
-0.993525, 25, 53, 88, 84
-0.993528, 353, 289, 384, 320
-0.993541, 25, 69, 88, 100
-0.993541, 413, 269, 444, 300
-0.993544, 313, 153, 344, 184
-0.993545, 393, 281, 424, 312
-0.993552, 53, 53, 84, 84
-0.993555, 325, 137, 356, 168
-0.993558, 449, 301, 480, 332
-0.993559, 257, 229, 320, 260
-0.993565, 97, 93, 160, 124
-0.993573, 369, 197, 400, 228
-0.993577, 109, 73, 140, 104
-0.993588, 433, 309, 464, 340
-0.99359, 97, 97, 128, 128
-0.993601, 105, 61, 168, 92
-0.993608, 365, 289, 396, 320
-0.993609, 277, 145, 308, 176
-0.99361, 297, 97, 360, 160
-0.993615, 349, 185, 380, 216
-0.993626, 101, 65, 132, 128
-0.993628, 325, 113, 356, 144
-0.993628, 393, 293, 424, 324
-0.993633, 65, 77, 96, 108
-0.993633, 233, 309, 296, 340
-0.99364, 381, 285, 412, 316
-0.99364, 301, 189, 332, 220
-0.993642, 297, 277, 360, 308
-0.993647, 341, 313, 372, 344
-0.993651, 361, 233, 392, 264
-0.993654, 73, 49, 104, 176
-0.99366, 337, 177, 368, 208
-0.993662, 81, 209, 208, 336
-0.993663, 449, 261, 480, 292
-0.993668, 345, 161, 376, 192
-0.993671, 89, 57, 120, 88
-0.993674, 41, 73, 72, 104
-0.993679, 357, 197, 388, 228
-0.993685, 293, 153, 324, 184
-0.993686, 377, 217, 408, 248
-0.993686, 305, 177, 336, 208
-0.993692, 385, 213, 448, 244
-0.993692, 441, 289, 472, 320
-0.993692, 309, 165, 340, 196
-0.993692, 461, 297, 492, 328
-0.993699, 369, 249, 400, 280
-0.993702, 49, 89, 80, 120
-0.993706, 329, 161, 360, 192
-0.993718, 121, 85, 152, 116
-0.993732, 65, 89, 96, 120
-0.993732, 341, 149, 372, 180
-0.993738, 325, 149, 356, 180
-0.993741, 341, 133, 372, 164
-0.993741, 325, 281, 356, 312
-0.993741, 397, 229, 428, 260
-0.993743, 461, 269, 492, 300
-0.993744, 401, 253, 432, 284
-0.993746, 69, 41, 100, 72
-0.993748, 57, 325, 120, 356
-0.993748, 297, 201, 328, 232
-0.993759, 53, 77, 84, 108
-0.99376, 85, 93, 116, 124
-0.99376, 289, 289, 352, 320
-0.993763, 401, 129, 464, 384
-0.993764, 333, 301, 364, 332
-0.993767, 281, 181, 312, 212
-0.99377, 281, 201, 312, 232
-0.993773, 289, 217, 352, 248
-0.99378, 289, 113, 320, 144
-0.993781, 385, 197, 448, 228
-0.993781, 361, 217, 392, 248
-0.993781, 349, 225, 380, 256
-0.993786, 401, 241, 432, 272
-0.993787, 349, 173, 380, 204
-0.993792, 301, 141, 332, 172
-0.993799, 293, 173, 324, 204
-0.993799, 361, 185, 392, 216
-0.993805, 269, 129, 300, 160
-0.993807, 337, 269, 368, 300
-0.993808, 341, 289, 372, 320
-0.99381, 49, 45, 112, 76
-0.993813, 261, 305, 292, 336
-0.993816, 313, 281, 344, 312
-0.993824, 285, 213, 316, 244
-0.993824, 37, 85, 68, 116
-0.993827, 341, 177, 372, 304
-0.993828, 225, 205, 288, 236
-0.993831, 381, 265, 412, 296
-0.993833, 329, 313, 360, 344
-0.993835, 249, 305, 280, 336
-0.993839, 113, 61, 144, 92
-0.993847, 221, 297, 252, 328
-0.993848, 337, 325, 368, 356
-0.99385, 273, 217, 304, 248
-0.993852, 345, 197, 376, 228
-0.993856, 465, 257, 496, 288
-0.99386, 49, 41, 80, 72
-0.993861, 397, 217, 428, 248
-0.993863, 393, 197, 424, 228
-0.993866, 357, 245, 388, 276
-0.993868, 369, 261, 400, 292
-0.993872, 37, 61, 68, 92
-0.993873, 241, 293, 272, 324
-0.993873, 369, 185, 432, 216
-0.993875, 337, 121, 368, 152
-0.993876, 285, 229, 316, 260
-0.993877, 357, 277, 388, 308
-0.993877, 257, 297, 320, 328
-0.993879, 249, 125, 312, 156
-0.99388, 289, 301, 352, 332
-0.993885, 241, 137, 304, 168
-0.993885, 357, 265, 388, 296
-0.993888, 345, 329, 408, 360
-0.993892, 289, 245, 320, 276
-0.993895, 349, 209, 380, 240
-0.993898, 257, 241, 320, 272
-0.993899, 381, 205, 412, 236
-0.993902, 121, 73, 152, 104
-0.993904, 97, 369, 128, 400
-0.993908, 289, 253, 352, 284
-0.993918, 37, 289, 68, 320
-0.993919, 41, 297, 104, 328
-0.993919, 101, 109, 132, 140
-0.99392, 353, 145, 384, 176
-0.993922, 97, 17, 160, 144
-0.993924, 281, 265, 344, 296
-0.993924, 309, 265, 340, 296
-0.993934, 337, 113, 400, 144
-0.993934, 1, 225, 64, 256
-0.993935, 41, 313, 104, 344
-0.993968, 321, 113, 352, 240
-0.993973, 25, 41, 88, 72
-0.993984, 73, 101, 136, 132
-0.993986, 365, 273, 396, 336
-0.993994, 265, 309, 328, 340
-0.993997, 289, 233, 352, 264
-0.994015, 201, 209, 264, 240
-0.994018, 289, 313, 352, 344
-0.994023, 257, 273, 384, 336
-0.994026, 153, 217, 216, 248
-0.994028, 217, 297, 280, 328
-0.994031, 353, 369, 416, 400
-0.994037, 105, 73, 168, 136
-0.994047, 241, 149, 304, 180
-0.994047, 209, 313, 272, 344
-0.994054, 25, 93, 88, 124
-0.994062, 257, 233, 384, 296
-0.994064, 333, 241, 364, 368
-0.994065, 425, 329, 488, 360
-0.99408, 65, 277, 128, 308
-0.994085, 201, 257, 264, 288
-0.994088, 225, 217, 288, 248
-0.994088, 97, 325, 160, 356
-0.99409, 349, 297, 380, 360
-0.9941, 313, 261, 376, 292
-0.994101, 321, 333, 384, 364
-0.994106, 81, 313, 144, 344
-0.994109, 433, 317, 496, 348
-0.994111, 17, 81, 80, 144
-0.994116, 169, 313, 232, 344
-0.99412, 201, 277, 264, 308
-0.994122, 41, 233, 104, 264
-0.994134, 1, 61, 64, 92
-0.994137, 433, 173, 496, 204
-0.994138, 161, 205, 224, 236
-0.994143, 1, 237, 64, 268
-0.994144, 209, 193, 336, 256
-0.994146, 393, 321, 456, 352
-0.994146, 425, 257, 488, 288
-0.994148, 201, 197, 264, 228
-0.994153, 33, 245, 96, 276
-0.994159, 113, 121, 176, 152
-0.994161, 41, 261, 104, 292
-0.994166, 25, 281, 88, 312
-0.994169, 321, 65, 448, 192
-0.994169, 137, 305, 200, 336
-0.994175, 381, 249, 412, 312
-0.994185, 65, 289, 128, 320
-0.994185, 57, 337, 120, 368
-0.994187, 409, 157, 472, 188
-0.99419, 113, 233, 176, 264
-0.99419, 1, 265, 64, 296
-0.994192, 161, 261, 224, 292
-0.994192, 145, 317, 208, 348
-0.99439, 81, 89, 144, 152
-0.994441, 345, 153, 408, 216
-0.99445, 209, 241, 336, 368
-0.994569, 65, 81, 192, 144
-0.994604, 441, 305, 472, 368
-0.994658, 421, 297, 452, 360
-0.994681, 33, 97, 288, 224
-0.99473, 257, 161, 320, 224
-0.994736, 361, 321, 424, 384
-0.994773, 405, 209, 436, 336
-0.994823, 273, 81, 336, 208
-0.994847, 305, 313, 368, 376
-0.994874, 257, 49, 500, 176
-0.994912, 9, 49, 72, 112
-0.994932, 193, 137, 320, 200
-0.994983, 257, 185, 320, 248
-0.994999, 129, 33, 384, 160
-0.995, 309, 145, 340, 208
-0.995026, 49, 33, 176, 96
-0.995073, 97, 65, 128, 192
-0.995079, 265, 233, 328, 296
-0.995114, 369, 129, 432, 384
-0.995135, 297, 81, 360, 208
-0.995213, 393, 249, 424, 312
-0.995266, 381, 273, 412, 336
-0.995273, 53, 49, 84, 112
-0.995359, 57, 33, 120, 96
-0.995456, 369, 281, 496, 312
-0.99548, 81, 41, 144, 104
-0.995484, 289, 97, 416, 160
-0.995491, 77, 33, 108, 96
-0.995506, 209, 241, 336, 304
-0.995513, 81, 49, 208, 176
-0.995705, 349, 113, 380, 240
-0.995719, 17, 225, 144, 352
-0.995833, 357, 225, 388, 288
-0.995842, 17, 1, 80, 128
-0.995843, 407, 273, 422, 336
-0.995849, 345, 273, 376, 336
-0.995862, 33, 1, 96, 400
-0.995904, 385, 185, 448, 248
-0.99593, 349, 193, 380, 256
-0.996001, 1, 273, 256, 400
-0.996019, 361, 145, 424, 272
-0.996028, 285, 193, 316, 320
-0.996036, 297, 193, 328, 256
-0.996043, 273, 113, 336, 176
-0.996059, 329, 1, 392, 400
-0.996081, 337, 137, 464, 200
-0.996088, 337, 313, 464, 344
-0.996107, 337, 293, 464, 324
-0.996109, 413, 273, 428, 336
-0.996129, 289, 321, 416, 384
-0.996171, 385, 177, 448, 304
-0.996183, 289, 225, 352, 288
-0.99621, 65, 33, 128, 288
-0.996226, 257, 273, 500, 336
-0.996269, 225, 209, 480, 272
-0.9963, 273, 213, 400, 244
-0.996403, 257, 233, 500, 296
-0.996442, 273, 197, 400, 228
-0.996448, 321, 105, 384, 168
-0.996455, 193, 105, 320, 168
-0.9965, 297, 113, 328, 240
-0.996551, 65, 305, 192, 368
-0.996554, 257, 305, 500, 368
-0.996608, 57, 73, 88, 136
-0.99664, 105, 49, 168, 112
-0.996683, 345, 129, 408, 192
-0.996692, 349, 241, 380, 368
-0.996719, 359, 297, 374, 360
-0.996728, 365, 297, 380, 360
-0.996736, 71, 49, 86, 112
-0.996793, 161, 185, 416, 248
-0.996802, 273, 133, 400, 164
-0.996802, 409, 249, 440, 312
-0.996826, 145, 161, 272, 288
-0.996841, 273, 225, 400, 256
-0.996884, 257, 145, 500, 208
-0.996922, 1, 17, 128, 144
-0.996935, 17, 97, 144, 160
-0.996947, 97, 329, 224, 392
-0.996949, 333, 113, 364, 240
-0.996961, 273, 185, 400, 216
-0.996995, 241, 297, 368, 360
-0.997064, 145, 305, 272, 368
-0.997066, 437, 257, 468, 384
-0.997075, 411, 297, 426, 360
-0.997097, 401, 273, 416, 336
-0.997119, 1, 201, 128, 264
-0.997129, 443, 273, 458, 336
-0.997153, 337, 153, 368, 216
-0.997162, 161, 145, 416, 208
-0.997178, 77, 57, 92, 120
-0.99719, 257, 1, 320, 400
-0.997215, 365, 177, 396, 304
-0.997233, 89, 41, 120, 104
-0.997236, 373, 297, 388, 360
-0.997245, 257, 169, 500, 232
-0.997246, 1, 177, 128, 304
-0.997251, 321, 49, 384, 176
-0.997254, 369, 241, 400, 304
-0.997272, 453, 273, 468, 336
-0.997273, 113, 81, 144, 144
-0.997284, 33, 61, 160, 92
-0.997317, 433, 273, 448, 336
-0.99733, 65, 233, 192, 296
-0.997334, 241, 149, 368, 180
-0.997337, 241, 89, 368, 152
-0.997359, 281, 1, 344, 400
-0.997366, 257, 121, 500, 184
-0.997379, 61, 65, 76, 128
-0.997379, 33, 73, 160, 104
-0.997381, 145, 249, 272, 312
-0.997382, 405, 297, 420, 360
-0.997391, 105, 65, 120, 128
-0.997468, 249, 113, 312, 176
-0.997472, 325, 113, 356, 176
-0.997489, 77, 1, 108, 128
-0.9975, 49, 329, 112, 392
-0.997502, 257, 57, 384, 120
-0.997541, 1, 321, 128, 384
-0.997545, 465, 273, 480, 336
-0.99756, 273, 237, 400, 268
-0.997562, 365, 273, 380, 336
-0.997567, 419, 273, 434, 336
-0.997589, 41, 289, 104, 352
-0.997591, 303, 137, 318, 200
-0.997615, 383, 297, 398, 360
-0.997633, 209, 273, 336, 336
-0.997644, 297, 169, 328, 232
-0.997676, 99, 57, 114, 120
-0.997679, 309, 161, 340, 288
-0.997706, 161, 273, 416, 336
-0.997715, 427, 273, 442, 336
-0.997716, 309, 121, 324, 184
-0.99772, 361, 193, 392, 256
-0.997721, 315, 121, 330, 184
-0.997749, 337, 121, 368, 184
-0.997753, 359, 273, 374, 336
-0.997753, 49, 177, 176, 240
-0.997754, 321, 273, 448, 304
-0.997773, 289, 145, 416, 176
-0.997781, 333, 281, 364, 344
-0.997784, 17, 85, 144, 116
-0.997799, 305, 241, 336, 368
-0.997808, 289, 301, 416, 332
-0.997816, 297, 193, 312, 256
-0.997837, 307, 161, 322, 224
-0.997843, 459, 273, 474, 336
-0.997843, 49, 329, 176, 392
-0.997849, 1, 73, 256, 136
-0.997857, 353, 233, 480, 264
-0.997861, 49, 49, 80, 176
-0.997878, 89, 1, 152, 400
-0.997884, 353, 1, 416, 400
-0.997892, 233, 305, 296, 368
-0.997896, 145, 281, 272, 344
-0.997897, 337, 217, 464, 248
-0.997903, 225, 137, 352, 168
-0.997938, 161, 241, 416, 304
-0.997949, 249, 225, 312, 352
-0.997964, 145, 329, 272, 392
-0.997969, 129, 225, 256, 352
-0.997969, 337, 177, 368, 240
-0.997971, 249, 65, 312, 320
-0.997974, 289, 161, 416, 192
-0.997981, 393, 1, 456, 400
-0.997987, 427, 293, 442, 324
-0.997994, 289, 121, 416, 152
-0.998001, 83, 57, 98, 120
-0.998015, 337, 97, 464, 160
-0.998019, 337, 201, 464, 232
-0.998029, 17, 145, 144, 208
-0.998029, 33, 281, 160, 344
-0.998036, 33, 49, 288, 112
-0.998048, 77, 81, 108, 144
-0.998056, 427, 281, 442, 312
-0.998066, 443, 305, 458, 368
-0.998078, 65, 41, 80, 104
-0.998081, 97, 41, 224, 104
-0.998104, 397, 249, 412, 312
-0.998117, 289, 285, 416, 316
-0.998123, 273, 173, 400, 204
-0.998129, 365, 321, 396, 384
-0.998148, 97, 209, 224, 272
-0.998148, 411, 281, 426, 312
-0.998173, 289, 313, 416, 344
-0.998182, 417, 297, 432, 360
-0.99819, 433, 297, 448, 328
-0.998201, 145, 217, 272, 280
-0.998206, 341, 135, 372, 150
-0.998206, 349, 327, 380, 342
-0.998207, 337, 127, 368, 142
-0.998207, 357, 289, 388, 304
-0.998208, 321, 115, 352, 130
-0.998208, 325, 157, 356, 172
-0.998208, 401, 259, 432, 274
-0.998208, 65, 49, 192, 80
-0.998209, 285, 191, 316, 206
-0.998209, 297, 201, 328, 216
-0.99821, 361, 239, 392, 254
-0.99821, 349, 177, 380, 192
-0.998211, 353, 197, 384, 212
-0.998211, 285, 181, 316, 196
-0.998211, 373, 211, 404, 226
-0.998212, 371, 273, 386, 336
-0.998214, 393, 281, 408, 344
-0.998214, 337, 177, 368, 192
-0.998215, 309, 169, 340, 184
-0.998216, 49, 339, 80, 354
-0.998216, 277, 209, 308, 224
-0.998216, 345, 189, 376, 204
-0.998216, 305, 181, 336, 196
-0.998217, 365, 313, 396, 328
-0.998217, 317, 139, 348, 154
-0.998217, 41, 87, 72, 102
-0.998218, 61, 91, 92, 106
-0.998219, 45, 59, 76, 74
-0.998219, 129, 209, 384, 272
-0.99822, 341, 141, 372, 156
-0.99822, 373, 205, 404, 220
-0.998221, 345, 167, 376, 182
-0.998222, 289, 169, 320, 184
-0.998222, 337, 319, 368, 334
-0.998222, 381, 267, 412, 282
-0.998222, 337, 183, 368, 198
-0.998222, 361, 247, 392, 262
-0.998224, 397, 239, 428, 254
-0.998225, 437, 291, 468, 306
-0.998226, 301, 195, 332, 210
-0.998226, 313, 121, 344, 136
-0.998226, 389, 201, 404, 264
-0.998226, 297, 113, 328, 176
-0.998226, 461, 303, 492, 318
-0.998228, 397, 233, 428, 248
-0.998229, 269, 143, 300, 158
-0.99823, 341, 313, 372, 328
-0.99823, 365, 301, 380, 332
-0.99823, 453, 305, 468, 368
-0.998231, 469, 275, 500, 290
-0.998231, 421, 315, 452, 330
-0.998232, 305, 187, 336, 202
-0.998232, 449, 275, 480, 290
-0.998232, 297, 127, 328, 142
-0.998234, 345, 161, 376, 176
-0.998235, 357, 191, 388, 206
-0.998235, 345, 285, 376, 300
-0.998238, 93, 95, 124, 110
-0.998238, 345, 299, 376, 314
-0.998239, 449, 299, 480, 314
-0.998239, 337, 325, 368, 340
-0.99824, 293, 161, 324, 176
-0.99824, 293, 153, 324, 168
-0.99824, 77, 83, 108, 98
-0.99824, 381, 293, 412, 308
-0.998241, 253, 309, 284, 324
-0.998241, 309, 163, 340, 178
-0.998242, 381, 231, 412, 246
-0.998244, 365, 199, 396, 214
-0.998245, 313, 157, 344, 172
-0.998245, 437, 309, 468, 324
-0.998245, 65, 49, 96, 64
-0.998246, 433, 275, 464, 290
-0.998247, 81, 95, 112, 110
-0.99825, 81, 89, 112, 104
-0.99825, 405, 269, 436, 284
-0.998252, 361, 295, 392, 310
-0.998252, 313, 145, 344, 160
-0.998252, 353, 245, 480, 276
-0.998254, 145, 193, 272, 256
-0.998255, 353, 305, 384, 320
-0.998258, 77, 73, 108, 88
-0.99826, 441, 281, 472, 296
-0.99826, 241, 161, 368, 192
-0.99826, 125, 85, 156, 100
-0.99826, 313, 151, 344, 166
-0.998261, 449, 307, 480, 322
-0.998261, 349, 169, 380, 232
-0.998263, 381, 239, 412, 254
-0.998263, 401, 291, 432, 306
-0.998263, 381, 259, 412, 274
-0.998266, 389, 309, 420, 324
-0.998267, 437, 299, 468, 314
-0.998267, 113, 81, 144, 96
-0.998269, 325, 127, 356, 142
-0.998269, 57, 73, 88, 88
-0.99827, 73, 67, 104, 82
-0.99827, 369, 269, 496, 300
-0.998273, 281, 147, 312, 162
-0.998274, 469, 273, 500, 336
-0.998276, 397, 319, 428, 334
-0.998276, 77, 55, 108, 70
-0.998277, 389, 273, 420, 288
-0.998277, 381, 253, 412, 268
-0.998279, 53, 53, 84, 68
-0.998283, 393, 297, 424, 312
-0.998284, 289, 135, 320, 150
-0.998287, 57, 61, 88, 76
-0.998288, 305, 139, 336, 154
-0.998289, 353, 313, 384, 328
-0.99829, 417, 277, 448, 292
-0.998291, 85, 63, 116, 78
-0.998293, 111, 73, 126, 136
-0.998293, 193, 297, 320, 360
-0.998297, 381, 245, 412, 260
-0.998297, 465, 293, 496, 308
-0.998298, 97, 83, 128, 98
-0.998299, 365, 321, 396, 336
-0.998302, 405, 277, 420, 308
-0.998302, 105, 95, 136, 110
-0.998303, 93, 69, 124, 84
-0.998306, 409, 315, 440, 330
-0.998307, 177, 57, 304, 120
-0.998309, 425, 283, 456, 298
-0.998311, 471, 281, 486, 344
-0.998313, 117, 91, 148, 106
-0.998314, 425, 301, 456, 316
-0.998316, 61, 67, 92, 82
-0.998317, 453, 257, 484, 320
-0.998319, 309, 127, 340, 142
-0.998322, 359, 305, 374, 336
-0.998325, 425, 309, 456, 324
-0.998326, 321, 133, 352, 148
-0.998326, 401, 309, 432, 324
-0.998328, 345, 89, 408, 152
-0.998329, 389, 193, 420, 320
-0.998329, 421, 289, 436, 320
-0.99833, 353, 321, 384, 336
-0.998331, 293, 147, 324, 162
-0.99834, 69, 61, 100, 76
-0.99834, 209, 193, 336, 224
-0.99834, 273, 249, 400, 280
-0.998341, 425, 293, 456, 308
-0.998343, 69, 53, 84, 84
-0.998344, 393, 225, 408, 288
-0.998346, 365, 301, 396, 316
-0.998347, 41, 33, 104, 288
-0.998349, 93, 89, 124, 104
-0.998349, 397, 279, 428, 294
-0.998353, 337, 129, 368, 384
-0.998358, 405, 285, 436, 300
-0.998358, 65, 55, 96, 70
-0.998361, 209, 337, 336, 400
-0.998361, 453, 281, 484, 296
-0.998364, 105, 89, 136, 104
-0.998367, 405, 241, 420, 304
-0.998369, 93, 75, 124, 90
-0.998371, 1, 25, 128, 88
-0.998372, 409, 301, 440, 316
-0.998373, 65, 257, 192, 320
-0.99838, 435, 297, 450, 360
-0.99839, 385, 317, 416, 332
-0.99839, 423, 305, 438, 368
-0.9984, 289, 141, 320, 156
-0.998404, 321, 173, 448, 204
-0.998408, 347, 161, 362, 224
-0.99841, 413, 249, 428, 312
-0.998423, 325, 129, 340, 160
-0.998427, 65, 85, 192, 116
-0.998427, 305, 133, 336, 148
-0.998431, 225, 121, 352, 152
-0.998437, 193, 81, 320, 144
-0.99845, 435, 281, 450, 312
-0.998451, 321, 241, 352, 368
-0.998474, 413, 295, 444, 310
-0.998488, 49, 9, 176, 72
-0.99849, 303, 185, 318, 248
-0.998499, 315, 121, 330, 152
-0.998501, 63, 57, 78, 88
-0.998505, 357, 317, 372, 348
-0.998508, 353, 153, 368, 216
-0.998508, 97, 153, 224, 216
-0.998511, 225, 1, 480, 128
-0.998516, 353, 329, 480, 392
-0.998524, 75, 53, 90, 84
-0.998531, 117, 85, 132, 116
-0.998547, 93, 57, 108, 120
-0.99857, 297, 135, 360, 150
-0.998579, 353, 313, 368, 376
-0.998587, 67, 73, 82, 136
-0.998588, 209, 181, 336, 212
-0.998597, 433, 225, 496, 352
-0.998602, 417, 297, 480, 312
-0.998603, 49, 73, 112, 88
-0.998604, 377, 273, 392, 336
-0.99861, 1, 241, 128, 304
-0.998612, 425, 281, 488, 296
-0.998612, 117, 81, 132, 144
-0.998618, 385, 295, 448, 310
-0.998619, 305, 141, 320, 172
-0.998623, 389, 305, 404, 368
-0.998624, 305, 41, 432, 104
-0.998624, 129, 81, 256, 144
-0.998624, 65, 105, 192, 168
-0.998627, 399, 297, 414, 360
-0.998635, 297, 143, 360, 158
-0.998639, 313, 145, 328, 208
-0.998642, 369, 233, 384, 296
-0.998643, 427, 305, 442, 336
-0.998644, 369, 319, 432, 334
-0.998644, 73, 87, 136, 102
-0.998645, 377, 301, 392, 332
-0.998648, 393, 301, 456, 316
-0.99865, 265, 281, 328, 344
-0.998651, 361, 185, 376, 248
-0.998652, 371, 301, 386, 332
-0.998653, 305, 151, 368, 166
-0.998655, 49, 79, 112, 94
-0.998656, 113, 113, 240, 240
-0.998657, 441, 249, 472, 312
-0.998657, 345, 319, 408, 334
-0.998661, 345, 309, 408, 324
-0.998661, 297, 159, 360, 174
-0.998662, 417, 309, 480, 324
-0.998663, 81, 79, 144, 94
-0.998665, 49, 61, 112, 76
-0.998667, 161, 121, 416, 184
-0.998669, 49, 67, 112, 82
-0.998673, 297, 179, 360, 194
-0.998673, 297, 165, 360, 180
-0.998674, 49, 85, 112, 100
-0.998674, 337, 185, 464, 216
-0.998674, 265, 147, 328, 162
-0.998675, 385, 287, 448, 302
-0.998678, 209, 213, 336, 244
-0.998679, 353, 303, 416, 318
-0.99868, 297, 129, 360, 144
-0.99868, 305, 261, 432, 292
-0.998682, 361, 295, 424, 310
-0.998683, 385, 281, 448, 296
-0.998684, 313, 299, 376, 314
-0.998684, 297, 173, 360, 188
-0.998686, 49, 161, 176, 288
-0.998686, 17, 273, 144, 400
-0.998686, 353, 233, 416, 248
-0.998689, 467, 281, 482, 312
-0.998689, 353, 223, 416, 238
-0.99869, 393, 313, 456, 328
-0.998691, 273, 139, 336, 154
-0.998692, 313, 317, 376, 332
-0.998693, 401, 275, 464, 290
-0.998693, 353, 177, 368, 240
-0.998695, 361, 277, 424, 292
-0.998696, 319, 133, 334, 164
-0.998697, 369, 309, 432, 324
-0.998697, 297, 185, 360, 200
-0.998697, 313, 311, 376, 326
-0.998698, 425, 291, 488, 306
-0.998702, 321, 73, 448, 136
-0.998703, 363, 317, 378, 348
-0.998703, 81, 67, 144, 82
-0.998704, 353, 239, 416, 254
-0.998707, 329, 293, 392, 308
-0.998708, 353, 211, 416, 226
-0.998708, 81, 73, 144, 88
-0.99871, 273, 125, 336, 140
-0.998711, 353, 245, 416, 260
-0.998712, 337, 199, 400, 214
-0.998712, 459, 297, 474, 360
-0.998714, 265, 165, 328, 180
-0.998715, 321, 129, 384, 144
-0.998717, 361, 271, 424, 286
-0.998719, 369, 251, 432, 266
-0.998719, 81, 95, 144, 110
-0.99872, 297, 123, 360, 138
-0.998721, 57, 93, 120, 108
-0.998721, 313, 97, 344, 352
-0.998721, 361, 287, 424, 302
-0.998722, 313, 305, 376, 320
-0.998723, 273, 131, 336, 146
-0.998723, 81, 73, 208, 104
-0.998724, 321, 285, 384, 300
-0.998724, 353, 217, 416, 232
-0.998726, 297, 191, 360, 206
-0.998727, 361, 265, 424, 280
-0.998728, 417, 303, 480, 318
-0.998729, 111, 77, 126, 108
-0.998729, 265, 153, 328, 168
-0.998732, 313, 325, 376, 340
-0.998734, 265, 159, 328, 174
-0.998734, 353, 259, 416, 274
-0.998735, 413, 297, 428, 328
-0.998736, 249, 213, 312, 228
-0.998737, 309, 125, 324, 156
-0.998737, 337, 141, 400, 156
-0.998737, 345, 205, 408, 220
-0.998737, 57, 97, 120, 224
-0.998737, 289, 197, 352, 212
-0.998742, 257, 207, 320, 222
-0.998743, 337, 149, 400, 164
-0.998744, 49, 55, 112, 70
-0.998744, 337, 325, 400, 340
-0.998744, 385, 233, 448, 248
-0.998745, 337, 177, 400, 192
-0.998745, 425, 275, 488, 290
-0.998745, 289, 203, 352, 218
-0.998745, 73, 61, 136, 76
-0.998746, 329, 233, 392, 248
-0.998746, 337, 159, 400, 174
-0.998747, 393, 265, 456, 280
-0.998747, 105, 85, 168, 100
-0.998748, 257, 197, 320, 212
-0.998749, 105, 91, 168, 106
-0.998749, 249, 221, 312, 236
-0.998749, 265, 171, 328, 186
-0.998752, 325, 289, 340, 352
-0.998752, 349, 137, 380, 200
-0.998754, 17, 85, 80, 100
-0.998755, 329, 193, 392, 208
-0.998756, 321, 183, 384, 198
-0.998757, 249, 141, 312, 156
-0.998757, 329, 243, 392, 258
-0.998757, 337, 251, 400, 266
-0.998758, 321, 279, 384, 294
-0.998758, 257, 189, 320, 204
-0.998759, 377, 259, 440, 274
-0.998759, 377, 245, 440, 260
-0.99876, 105, 75, 168, 90
-0.998763, 233, 309, 296, 324
-0.998763, 265, 183, 328, 198
-0.998763, 305, 117, 368, 132
-0.998765, 33, 91, 96, 106
-0.998765, 337, 167, 400, 182
-0.998766, 17, 77, 80, 92
-0.998766, 265, 177, 328, 192
-0.998766, 249, 227, 312, 242
-0.998767, 393, 307, 456, 322
-0.998768, 329, 227, 392, 242
-0.99877, 321, 135, 384, 150
-0.99877, 385, 239, 448, 254
-0.998772, 345, 183, 408, 198
-0.998772, 321, 205, 384, 220
-0.998772, 375, 193, 390, 256
-0.998773, 377, 203, 440, 218
-0.998773, 281, 219, 344, 234
-0.998773, 305, 331, 368, 346
-0.998773, 9, 69, 72, 84
-0.998774, 351, 317, 366, 348
-0.998775, 105, 69, 168, 84
-0.998775, 257, 247, 320, 262
-0.998776, 353, 191, 416, 206
-0.998776, 293, 141, 308, 172
-0.998776, 25, 61, 88, 76
-0.998776, 321, 273, 384, 288
-0.998779, 25, 55, 88, 70
-0.998779, 281, 209, 344, 224
-0.998779, 73, 51, 136, 66
-0.998779, 257, 305, 320, 320
-0.998779, 313, 199, 376, 214
-0.998779, 257, 237, 320, 252
-0.99878, 393, 251, 456, 266
-0.99878, 393, 319, 456, 334
-0.998785, 387, 313, 402, 344
-0.998796, 353, 129, 384, 384
-0.998798, 421, 301, 436, 332
-0.998798, 353, 273, 368, 336
-0.9988, 327, 117, 342, 148
-0.998801, 61, 69, 76, 100
-0.998803, 469, 293, 484, 324
-0.998807, 55, 65, 70, 128
-0.998808, 209, 225, 336, 256
-0.99881, 335, 265, 350, 328
-0.99881, 367, 289, 382, 320
-0.998814, 419, 313, 434, 344
-0.998835, 461, 277, 476, 308
-0.998842, 117, 73, 132, 104
-0.998843, 105, 69, 120, 100
-0.998854, 379, 317, 394, 348
-0.998855, 405, 305, 420, 336
-0.998856, 387, 273, 402, 336
-0.998866, 369, 317, 384, 348
-0.998875, 287, 145, 302, 176
-0.998875, 443, 249, 458, 312
-0.998876, 209, 25, 336, 88
-0.998877, 451, 305, 466, 336
-0.99888, 109, 89, 124, 120
-0.998882, 439, 297, 454, 328
-0.998902, 347, 121, 362, 184
-0.998906, 441, 281, 456, 312
-0.998907, 359, 321, 374, 384
-0.99891, 449, 273, 480, 400
-0.998914, 401, 317, 416, 348
-0.998927, 325, 97, 356, 352
-0.998937, 77, 25, 92, 88
-0.998945, 399, 265, 414, 296
-0.998951, 71, 25, 86, 88
-0.998958, 297, 129, 328, 384
-0.998959, 359, 285, 374, 316
-0.998961, 375, 233, 390, 296
-0.998973, 241, 301, 368, 332
-0.998973, 297, 161, 312, 224
-0.998974, 85, 81, 100, 144
-0.998975, 99, 61, 114, 92
-0.998977, 287, 137, 302, 200
-0.99898, 395, 305, 410, 336
-0.99898, 209, 245, 336, 276
-0.998989, 91, 81, 106, 144
-0.998991, 363, 225, 378, 288
-0.999002, 329, 65, 360, 192
-0.999003, 433, 309, 448, 340
-0.999004, 123, 81, 138, 144
-0.999006, 81, 53, 96, 84
-0.999009, 161, 25, 288, 88
-0.99901, 429, 305, 444, 368
-0.999011, 383, 301, 398, 332
-0.999012, 1, 281, 500, 344
-0.999012, 299, 137, 314, 168
-0.999013, 307, 177, 322, 208
-0.999013, 413, 313, 428, 344
-0.999024, 25, 257, 88, 384
-0.999027, 341, 137, 356, 200
-0.999028, 33, 97, 160, 128
-0.999031, 353, 257, 480, 288
-0.999031, 321, 117, 336, 148
-0.999032, 1, 249, 500, 312
-0.999048, 395, 253, 410, 284
-0.999051, 467, 249, 482, 312
-0.999054, 353, 129, 368, 192
-0.999058, 329, 257, 344, 320
-0.999059, 407, 317, 422, 348
-0.999059, 69, 65, 84, 96
-0.999061, 457, 249, 472, 312
-0.999064, 395, 317, 410, 348
-0.999064, 323, 257, 338, 320
-0.999066, 123, 89, 138, 120
-0.999072, 403, 293, 418, 324
-0.999073, 79, 81, 94, 144
-0.999075, 103, 97, 118, 128
-0.999079, 299, 193, 314, 224
-0.999082, 475, 285, 490, 316
-0.999085, 417, 277, 432, 308
-0.999085, 411, 265, 426, 296
-0.999087, 401, 233, 416, 264
-0.999089, 87, 69, 102, 100
-0.999093, 435, 269, 450, 300
-0.999098, 349, 177, 364, 208
-0.9991, 423, 249, 438, 312
-0.999101, 331, 297, 346, 360
-0.999102, 461, 297, 476, 328
-0.999108, 445, 269, 460, 300
-0.999111, 105, 89, 120, 152
-0.999114, 349, 133, 364, 164
-0.999115, 285, 193, 316, 256
-0.999116, 297, 113, 312, 176
-0.999117, 365, 321, 380, 384
-0.999117, 59, 41, 74, 104
-0.999118, 313, 153, 328, 184
-0.999118, 117, 57, 132, 120
-0.99912, 347, 145, 362, 176
-0.999122, 255, 305, 270, 368
-0.999128, 209, 1, 336, 64
-0.999129, 161, 297, 416, 360
-0.99913, 353, 321, 384, 384
-0.999132, 377, 161, 440, 224
-0.999137, 327, 113, 342, 176
-0.999137, 295, 225, 310, 288
-0.999139, 455, 277, 470, 308
-0.999143, 367, 193, 382, 256
-0.999145, 331, 281, 346, 312
-0.999145, 441, 309, 456, 340
-0.999147, 61, 89, 76, 152
-0.99915, 87, 57, 102, 88
-0.999152, 73, 81, 88, 144
-0.999155, 381, 193, 396, 256
-0.999156, 465, 297, 480, 360
-0.999156, 331, 129, 346, 160
-0.999157, 373, 197, 388, 228
-0.999157, 305, 189, 320, 220
-0.999159, 337, 33, 400, 288
-0.999165, 341, 249, 356, 312
-0.999172, 377, 321, 392, 384
-0.999172, 97, 77, 112, 108
-0.999179, 401, 201, 416, 264
-0.999181, 383, 321, 398, 384
-0.999183, 55, 73, 70, 104
-0.999184, 447, 281, 462, 312
-0.999187, 389, 301, 404, 332
-0.999188, 89, 33, 104, 96
-0.999191, 81, 61, 208, 92
-0.999195, 347, 161, 362, 192
-0.999196, 397, 285, 412, 316
-0.999202, 91, 81, 106, 112
-0.999205, 71, 41, 86, 72
-0.999207, 381, 129, 412, 384
-0.999212, 333, 117, 348, 148
-0.999218, 49, 209, 176, 272
-0.999218, 353, 305, 368, 336
-0.999218, 297, 137, 312, 200
-0.999219, 429, 249, 444, 312
-0.99922, 323, 277, 338, 308
-0.999223, 63, 89, 78, 120
-0.999224, 311, 165, 326, 196
-0.999225, 417, 273, 432, 400
-0.999228, 309, 97, 324, 160
-0.999229, 389, 205, 404, 236
-0.99923, 463, 261, 478, 292
-0.999231, 337, 145, 464, 176
-0.999233, 477, 273, 492, 304
-0.999233, 373, 289, 388, 320
-0.999236, 193, 169, 320, 200
-0.999237, 93, 57, 108, 88
-0.99924, 321, 133, 448, 164
-0.999242, 297, 125, 312, 156
-0.999246, 145, 121, 272, 184
-0.99925, 115, 97, 130, 128
-0.999252, 437, 249, 452, 312
-0.999253, 225, 273, 288, 336
-0.999254, 337, 313, 368, 376
-0.999256, 97, 89, 112, 120
-0.999257, 97, 281, 224, 344
-0.999268, 57, 89, 72, 120
-0.999269, 451, 261, 466, 292
-0.999273, 363, 193, 378, 224
-0.999277, 257, 301, 272, 332
-0.999277, 317, 249, 332, 312
-0.999278, 409, 273, 424, 400
-0.999285, 1, 49, 128, 80
-0.999286, 381, 225, 396, 288
-0.999288, 473, 249, 488, 312
-0.99929, 257, 97, 500, 160
-0.999294, 449, 233, 464, 296
-0.999295, 355, 181, 370, 212
-0.999297, 369, 57, 496, 120
-0.999299, 341, 141, 356, 172
-0.999299, 391, 217, 406, 248
-0.9993, 453, 305, 484, 368
-0.999301, 377, 249, 392, 280
-0.999302, 335, 113, 350, 176
-0.999303, 297, 177, 312, 208
-0.999306, 353, 157, 368, 188
-0.999307, 393, 241, 408, 272
-0.999311, 321, 113, 336, 176
-0.999311, 307, 225, 322, 288
-0.999311, 241, 265, 368, 296
-0.999317, 405, 265, 420, 296
-0.999317, 301, 157, 316, 188
-0.999319, 403, 257, 418, 384
-0.999321, 337, 129, 352, 160
-0.999322, 347, 289, 362, 352
-0.999323, 103, 85, 118, 116
-0.999324, 321, 137, 336, 200
-0.999326, 81, 65, 96, 96
-0.999326, 267, 301, 282, 332
-0.99933, 59, 337, 74, 400
-0.99933, 75, 65, 90, 96
-0.999332, 225, 109, 352, 140
-0.999337, 425, 269, 440, 300
-0.999338, 289, 17, 416, 80
-0.999338, 383, 253, 398, 284
-0.999341, 325, 289, 340, 320
-0.999342, 305, 113, 320, 144
-0.999343, 85, 89, 100, 120
-0.999345, 347, 305, 362, 336
-0.999345, 217, 233, 280, 296
-0.999353, 249, 305, 264, 368
-0.999355, 83, 33, 98, 96
-0.999357, 393, 185, 424, 248
-0.999361, 357, 249, 372, 312
-0.99937, 273, 305, 336, 368
-0.999378, 479, 257, 494, 320
-0.999383, 335, 137, 350, 200
-0.999384, 405, 321, 420, 384
-0.999394, 363, 249, 378, 312
-0.999398, 347, 265, 362, 328
-0.999411, 331, 321, 346, 384
-0.999415, 305, 109, 432, 140
-0.999416, 381, 249, 396, 312
-0.999416, 97, 257, 224, 288
-0.999417, 337, 329, 464, 360
-0.999419, 335, 241, 350, 304
-0.999431, 317, 65, 348, 192
-0.999433, 397, 241, 412, 368
-0.999434, 329, 161, 360, 288
-0.99944, 337, 161, 464, 192
-0.999441, 351, 181, 366, 196
-0.999442, 309, 179, 324, 194
-0.999442, 389, 309, 404, 324
-0.999442, 87, 93, 102, 108
-0.999443, 315, 157, 330, 172
-0.999444, 389, 207, 404, 222
-0.999444, 395, 265, 410, 280
-0.999444, 345, 157, 360, 172
-0.999445, 367, 291, 382, 306
-0.999445, 93, 95, 108, 110
-0.999446, 405, 289, 420, 304
-0.999446, 89, 73, 104, 88
-0.999447, 407, 267, 422, 282
-0.999447, 297, 147, 312, 162
-0.999447, 373, 199, 388, 214
-0.999448, 477, 289, 492, 304
-0.999448, 63, 339, 78, 354
-0.999448, 439, 309, 454, 324
-0.999449, 313, 141, 328, 156
-0.999449, 367, 241, 382, 368
-0.99945, 345, 163, 360, 178
-0.99945, 351, 137, 366, 152
-0.99945, 351, 159, 366, 174
-0.999451, 441, 281, 456, 296
-0.999451, 447, 275, 462, 290
-0.999451, 361, 191, 376, 206
-0.999451, 377, 299, 392, 314
-0.999451, 401, 233, 416, 248
-0.999453, 349, 319, 364, 334
-0.999453, 453, 275, 468, 290
-0.999454, 305, 193, 320, 208
-0.999454, 457, 307, 472, 322
-0.999455, 323, 125, 338, 140
-0.999456, 77, 49, 92, 64
-0.999456, 401, 239, 416, 254
-0.999457, 397, 271, 412, 286
-0.999457, 353, 287, 368, 302
-0.999457, 93, 89, 108, 104
-0.999458, 83, 61, 98, 76
-0.999458, 109, 99, 124, 114
-0.999459, 375, 315, 390, 330
-0.99946, 465, 303, 480, 318
-0.99946, 117, 77, 132, 92
-0.999461, 371, 301, 386, 316
-0.999461, 415, 293, 430, 308
-0.999462, 303, 177, 318, 304
-0.999462, 329, 279, 344, 294
-0.999463, 67, 69, 82, 84
-0.999463, 411, 311, 426, 326
-0.999463, 329, 129, 344, 144
-0.999463, 265, 311, 280, 326
-0.999464, 355, 301, 370, 316
-0.999465, 257, 309, 272, 324
-0.999465, 403, 295, 418, 310
-0.999466, 95, 63, 110, 78
-0.999467, 447, 281, 462, 296
-0.999467, 89, 61, 104, 76
-0.999467, 291, 149, 306, 164
-0.999468, 451, 307, 466, 322
-0.999468, 357, 327, 372, 342
-0.999469, 405, 319, 420, 334
-0.99947, 41, 65, 72, 128
-0.99947, 285, 143, 300, 158
-0.999471, 453, 281, 468, 296
-0.999472, 373, 293, 388, 308
-0.999472, 107, 75, 122, 90
-0.999472, 307, 187, 322, 202
-0.999473, 423, 279, 438, 294
-0.999473, 361, 295, 376, 310
-0.999474, 59, 59, 74, 74
-0.999474, 125, 89, 140, 104
-0.999474, 77, 63, 92, 78
-0.999474, 119, 95, 134, 110
-0.999474, 359, 285, 374, 300
-0.999475, 69, 33, 84, 160
-0.999475, 145, 1, 272, 128
-0.999475, 399, 277, 414, 292
-0.999476, 315, 121, 330, 136
-0.999476, 393, 317, 408, 332
-0.999477, 463, 279, 478, 294
-0.999477, 349, 313, 364, 328
-0.99948, 433, 309, 448, 324
-0.99948, 307, 149, 322, 164
-0.99948, 101, 65, 116, 80
-0.999481, 305, 141, 320, 156
-0.999483, 395, 309, 410, 324
-0.999483, 1, 249, 128, 280
-0.999483, 359, 307, 374, 322
-0.999486, 99, 89, 114, 104
-0.999486, 97, 333, 224, 364
-0.999488, 377, 321, 392, 336
-0.99949, 371, 321, 386, 336
-0.99949, 459, 299, 474, 314
-0.999492, 469, 283, 484, 298
-0.999494, 409, 297, 424, 312
-0.999494, 405, 309, 420, 324
-0.999496, 361, 315, 376, 330
-0.999498, 321, 137, 352, 200
-0.9995, 313, 113, 328, 240
-0.9995, 427, 311, 442, 326
-0.9995, 399, 317, 414, 332
-0.999501, 435, 283, 450, 298
-0.999505, 177, 129, 304, 160
-0.999507, 309, 133, 324, 148
-0.999508, 415, 317, 430, 332
-0.999511, 329, 135, 344, 150
-0.999515, 421, 313, 436, 328
-0.999516, 469, 295, 484, 310
-0.999517, 405, 279, 420, 294
-0.999517, 415, 299, 430, 314
-0.999518, 427, 285, 442, 300
-0.999518, 299, 139, 314, 154
-0.99952, 77, 55, 92, 70
-0.999521, 433, 295, 448, 310
-0.999523, 65, 37, 192, 68
-0.999524, 421, 301, 436, 316
-0.999526, 107, 89, 122, 104
-0.999526, 365, 321, 380, 336
-0.999527, 323, 137, 338, 152
-0.999527, 63, 49, 78, 176
-0.999527, 417, 287, 432, 302
-0.999528, 61, 69, 76, 84
-0.99953, 291, 143, 306, 158
-0.999531, 365, 303, 380, 318
-0.999531, 313, 127, 328, 142
-0.999531, 65, 257, 192, 384
-0.999531, 435, 301, 450, 316
-0.999533, 357, 273, 372, 400
-0.999534, 351, 325, 366, 340
-0.999534, 317, 133, 332, 148
-0.999536, 113, 91, 128, 106
-0.999538, 115, 83, 130, 98
-0.999543, 421, 293, 436, 308
-0.999546, 355, 313, 370, 328
-0.999547, 161, 241, 288, 272
-0.999547, 145, 145, 272, 208
-0.999547, 387, 317, 402, 332
-0.999555, 369, 129, 400, 384
-0.999557, 429, 303, 444, 318
-0.999559, 71, 63, 86, 78
-0.999561, 373, 241, 388, 368
-0.999561, 193, 153, 320, 184
-0.999563, 49, 333, 176, 364
-0.999563, 319, 129, 334, 256
-0.999563, 369, 1, 496, 64
-0.999564, 413, 225, 428, 352
-0.999566, 75, 49, 90, 176
-0.999567, 357, 321, 372, 336
-0.999569, 411, 281, 426, 296
-0.999569, 1, 297, 128, 328
-0.999571, 351, 177, 366, 304
-0.999574, 323, 131, 338, 146
-0.999574, 101, 49, 116, 176
-0.999575, 69, 53, 84, 68
-0.999577, 401, 129, 432, 384
-0.99958, 381, 241, 396, 368
-0.999581, 423, 273, 438, 400
-0.999583, 65, 63, 80, 78
-0.999588, 137, 1, 200, 400
-0.99959, 119, 89, 134, 104
-0.999591, 65, 197, 192, 228
-0.999594, 49, 241, 176, 272
-0.999608, 313, 257, 344, 320
-0.999616, 129, 229, 256, 260
-0.99962, 161, 305, 288, 336
-0.999625, 297, 177, 312, 304
-0.999629, 81, 97, 208, 128
-0.999633, 289, 325, 416, 356
-0.999636, 81, 361, 208, 392
-0.999637, 325, 113, 340, 240
-0.999641, 351, 129, 366, 256
-0.999645, 121, 113, 184, 176
-0.999647, 389, 193, 404, 320
-0.999649, 145, 205, 272, 236
-0.99965, 309, 161, 324, 288
-0.999654, 285, 225, 316, 288
-0.999663, 427, 293, 442, 308
-0.999668, 377, 193, 392, 320
-0.999671, 345, 241, 360, 368
-0.999671, 333, 241, 348, 368
-0.999683, 371, 177, 386, 304
-0.999686, 33, 249, 288, 312
-0.999687, 193, 281, 320, 312
-0.999689, 401, 329, 464, 392
-0.999691, 65, 25, 320, 88
-0.999692, 81, 317, 208, 348
-0.999693, 81, 49, 96, 176
-0.999696, 209, 313, 336, 344
-0.999703, 145, 257, 272, 288
-0.999703, 107, 65, 122, 192
-0.999708, 345, 177, 360, 304
-0.999708, 355, 225, 370, 352
-0.999709, 97, 173, 224, 204
-0.999711, 361, 193, 376, 320
-0.999712, 61, 81, 92, 208
-0.999714, 383, 193, 398, 320
-0.999715, 285, 129, 316, 384
-0.999716, 455, 257, 470, 384
-0.999719, 1, 1, 128, 64
-0.999719, 1, 169, 128, 232
-0.999719, 97, 185, 224, 216
-0.999719, 331, 97, 346, 224
-0.99972, 425, 1, 488, 400
-0.999721, 439, 257, 454, 384
-0.999722, 33, 277, 160, 308
-0.999727, 387, 273, 402, 400
-0.999728, 97, 217, 224, 248
-0.999729, 95, 49, 110, 176
-0.999731, 49, 293, 176, 324
-0.999731, 447, 257, 462, 384
-0.999737, 303, 113, 318, 240
-0.999744, 289, 349, 416, 380
-0.999747, 429, 273, 444, 400
-0.999751, 57, 65, 72, 192
-0.999752, 319, 81, 334, 208
-0.999757, 323, 225, 338, 352
-0.999763, 113, 85, 240, 116
-0.999764, 357, 129, 372, 256
-0.999769, 97, 97, 352, 160
-0.999772, 403, 193, 418, 320
-0.999772, 421, 225, 436, 352
-0.999774, 65, 129, 192, 192
-0.999774, 75, 1, 90, 128
-0.999777, 89, 33, 152, 288
-0.999777, 345, 113, 360, 240
-0.999779, 17, 109, 144, 140
-0.999779, 317, 225, 332, 352
-0.999779, 339, 241, 354, 368
-0.999783, 339, 113, 354, 240
-0.999785, 145, 189, 272, 220
-0.999791, 427, 225, 442, 352
-0.999793, 305, 225, 320, 352
-0.999797, 87, 49, 102, 176
-0.999814, 97, 289, 224, 320
-0.999815, 421, 249, 452, 312
-0.999815, 325, 65, 340, 192
-0.999824, 1, 313, 128, 344
-0.999824, 81, 109, 208, 140
-0.999826, 299, 225, 314, 352
-0.999827, 49, 345, 176, 376
-0.999829, 1, 177, 500, 240
-0.999829, 99, 1, 114, 128
-0.999831, 395, 193, 410, 320
-0.999831, 293, 33, 324, 288
-0.999834, 81, 1, 96, 128
-0.999838, 217, 241, 280, 368
-0.999839, 305, 361, 432, 392
-0.999844, 313, 65, 328, 192
-0.999846, 17, 369, 144, 400
-0.999849, 193, 257, 320, 288
-0.999849, 1, 265, 128, 296
-0.99985, 325, 273, 340, 400
-0.99985, 401, 217, 432, 280
-0.999855, 69, 81, 84, 208
-0.999858, 145, 165, 272, 196
-0.999862, 311, 241, 326, 368
-0.999865, 1, 205, 128, 236
-0.999867, 465, 225, 480, 352
-0.999867, 363, 129, 378, 256
-0.999874, 193, 257, 256, 320
-0.999878, 337, 121, 464, 152
-0.999881, 87, 1, 102, 128
-0.999881, 145, 325, 272, 356
-0.999887, 145, 149, 272, 180
-0.99989, 461, 273, 476, 400
-0.999892, 1, 297, 256, 360
-0.999892, 107, 17, 122, 144
-0.999898, 59, 1, 74, 128
-0.999901, 297, 129, 312, 256
-0.999902, 289, 97, 416, 128
-0.999903, 241, 277, 368, 308
-0.999905, 335, 193, 350, 320
-0.999906, 417, 209, 448, 336
-0.999906, 347, 65, 362, 192
-0.99991, 209, 361, 336, 392
-0.999917, 113, 49, 128, 176
-0.999919, 291, 145, 306, 272
-0.999919, 145, 277, 272, 308
-0.999919, 17, 121, 144, 184
-0.999919, 97, 185, 224, 248
-0.99992, 225, 349, 352, 380
-0.999923, 49, 121, 176, 152
-0.999923, 351, 273, 366, 400
-0.999927, 325, 249, 356, 312
-0.999927, 357, 81, 372, 208
-0.999929, 17, 157, 144, 188
-0.999932, 381, 145, 396, 272
-0.999932, 53, 17, 68, 144
-0.999933, 389, 145, 404, 272
-0.999933, 223, 177, 238, 304
-0.999934, 331, 49, 346, 176
-0.999934, 161, 293, 288, 324
-0.999935, 93, 1, 108, 128
-0.999937, 401, 145, 416, 272
-0.999938, 329, 193, 344, 320
-0.999943, 57, 273, 72, 400
-0.999945, 81, 305, 208, 336
-0.999946, 281, 161, 312, 224
-0.999947, 1, 173, 128, 204
-0.999947, 227, 129, 242, 256
-0.99995, 439, 209, 454, 336
-0.99995, 291, 209, 306, 336
-0.99995, 99, 97, 114, 224
-0.999955, 53, 209, 68, 336
-0.999957, 451, 209, 466, 336
-0.999958, 63, 97, 78, 224
-0.99996, 193, 269, 320, 300
-0.99996, 33, 185, 160, 216
-0.99996, 49, 257, 64, 384
-0.999963, 319, 273, 334, 400
-0.999964, 17, 25, 80, 88
-0.999964, 65, 157, 192, 188
-0.999966, 433, 225, 448, 352
-0.999967, 267, 257, 282, 384
-0.99997, 17, 229, 144, 260
-0.99997, 289, 337, 416, 368
-0.99997, 145, 121, 208, 184
-0.999971, 233, 241, 248, 368
-0.999972, 303, 65, 318, 192
-0.999974, 285, 113, 316, 240
-0.999979, 145, 177, 272, 208
-0.999981, 37, 209, 52, 336
-0.999982, 341, 65, 356, 192
-0.999988, 9, 273, 72, 336
-0.999988, 67, 241, 82, 368
-0.999989, 81, 229, 208, 260
-0.99999, 457, 209, 472, 336
-0.999992, 377, 97, 440, 160
-0.999992, 99, 225, 114, 352
-0.999994, 323, 177, 338, 304
-0.999994, 425, 145, 440, 272
-0.999995, 61, 209, 76, 336
-0.999995, 241, 325, 368, 356
-0.999996, 257, 225, 272, 352
-0.999996, 169, 225, 184, 352
-0.999996, 43, 241, 58, 368
-0.999997, 445, 209, 460, 336
-0.999999, 1, 325, 128, 356
-0.999999, 471, 241, 486, 368
-1, 217, 177, 232, 304
-1, 293, 241, 324, 368
-1, 227, 273, 242, 400
-1.00001, 331, 145, 346, 272
-1.00001, 461, 145, 476, 272
-1.00001, 163, 257, 178, 384
-1.00001, 195, 257, 210, 384
-1.00001, 473, 145, 488, 272
-1.00001, 369, 129, 384, 256
-1.00001, 177, 117, 304, 148
-1.00001, 7, 209, 22, 336
-1.00001, 261, 273, 276, 400
-1.00001, 145, 217, 272, 248
-1.00001, 97, 245, 224, 276
-1.00002, 245, 1, 260, 128
-1.00002, 163, 209, 178, 336
-1.00002, 33, 161, 48, 288
-1.00002, 157, 257, 172, 384
-1.00002, 315, 177, 330, 304
-1.00002, 161, 77, 288, 108
-1.00002, 431, 145, 446, 272
-1.00002, 445, 145, 460, 272
-1.00003, 1, 225, 500, 288
-1.00003, 13, 193, 28, 320
-1.00004, 369, 173, 496, 204
-1.00004, 137, 321, 200, 384
-1.00004, 369, 133, 496, 164
-1.00005, 209, 1, 272, 400
-1.00006, 1, 341, 128, 372
-1.00006, 65, 337, 320, 400
-1.00006, 97, 33, 128, 288
-1.00007, 185, 1, 248, 400
-1.00007, 321, 85, 448, 116
-1.00008, 161, 349, 288, 380
-1.00009, 241, 97, 368, 128
-1.00009, 305, 29, 432, 60
-1.00009, 1, 1, 64, 400
-1.0001, 49, 217, 176, 248
-1.0001, 57, 1, 88, 256
-1.0001, 1, 121, 128, 152
-1.0001, 49, 257, 176, 288
-1.0001, 65, 145, 320, 208
-1.00012, 113, 1, 240, 64
-1.00016, 469, 249, 500, 312
-1.00016, 225, 329, 480, 392
-1.00018, 353, 33, 480, 96
-1.00019, 281, 273, 344, 400
-1.00019, 85, 65, 116, 320
-1.00019, 97, 73, 352, 136
-1.0002, 113, 1, 176, 400
-1.0002, 345, 249, 376, 312
-1.00021, 313, 297, 344, 360
-1.00021, 309, 1, 340, 256
-1.00023, 309, 169, 340, 232
-1.00025, 17, 313, 80, 376
-1.00026, 145, 169, 272, 232
-1.00026, 1, 145, 500, 208
-1.00028, 33, 273, 288, 336
-1.00031, 377, 321, 408, 384
-1.00031, 209, 297, 272, 360
-1.00032, 233, 1, 296, 400
-1.00034, 337, 33, 368, 288
-1.00034, 73, 1, 104, 256
-1.00035, 113, 49, 144, 112
-1.00035, 449, 225, 480, 352
-1.00036, 161, 73, 224, 136
-1.00038, 273, 97, 304, 352
-1.00038, 257, 49, 384, 176
-1.00038, 321, 1, 352, 256
-1.0004, 1, 97, 256, 160
-1.00041, 449, 129, 480, 384
-1.00042, 33, 217, 288, 280
-1.00043, 253, 129, 284, 384
-1.00044, 129, 49, 384, 112
-1.00044, 109, 17, 140, 144
-1.00044, 101, 89, 132, 152
-1.00047, 41, 1, 72, 128
-1.00048, 413, 129, 444, 384
-1.0005, 357, 33, 388, 288
-1.0005, 65, 121, 320, 184
-1.00051, 273, 137, 304, 200
-1.00051, 393, 321, 424, 384
-1.00052, 361, 169, 392, 232
-1.00052, 129, 257, 192, 320
-1.00054, 265, 89, 328, 152
-1.00054, 465, 225, 496, 352
-1.00055, 437, 129, 468, 384
-1.00055, 269, 1, 300, 256
-1.00056, 65, 177, 320, 240
-1.00056, 225, 57, 480, 120
-1.00057, 297, 249, 328, 312
-1.00058, 465, 129, 496, 384
-1.00058, 285, 105, 316, 168
-1.00058, 233, 129, 264, 384
-1.00059, 65, 305, 128, 368
-1.0006, 257, 33, 500, 96
-1.00061, 57, 209, 120, 336
-1.00061, 113, 209, 176, 272
-1.00062, 1, 305, 500, 368
-1.00062, 113, 1, 144, 256
-1.00063, 369, 129, 400, 256
-1.00063, 41, 65, 72, 320
-1.00064, 161, 241, 224, 304
-1.00064, 313, 337, 376, 400
-1.00066, 17, 209, 80, 272
-1.00067, 1, 201, 500, 264
-1.00069, 305, 49, 336, 176
-1.00071, 33, 97, 96, 224
-1.00073, 409, 169, 472, 232
-1.00073, 185, 49, 248, 112
-1.00077, 425, 129, 456, 384
-1.00077, 273, 1, 336, 256
-1.00077, 161, 1, 224, 400
-1.00078, 145, 49, 272, 176
-1.00079, 321, 81, 384, 144
-1.00079, 1, 57, 500, 120
-1.0008, 153, 193, 216, 256
-1.00084, 89, 1, 120, 128
-1.00084, 209, 1, 336, 128
-1.00084, 389, 1, 420, 256
-1.00084, 161, 17, 416, 80
-1.00084, 253, 1, 284, 256
-1.00085, 61, 97, 92, 352
-1.00085, 53, 25, 84, 88
-1.00086, 245, 305, 276, 368
-1.00087, 17, 113, 144, 240
-1.00087, 25, 337, 88, 400
-1.00088, 157, 97, 188, 352
-1.00088, 169, 33, 200, 288
-1.00089, 373, 33, 404, 288
-1.0009, 297, 225, 328, 288
-1.00091, 137, 89, 200, 152
-1.00093, 193, 233, 256, 296
-1.00094, 9, 193, 72, 320
-1.00095, 221, 129, 252, 384
-1.00096, 181, 97, 212, 352
-1.00098, 281, 1, 312, 256
-1.00098, 393, 137, 456, 200
-1.00098, 73, 209, 136, 272
-1.001, 433, 33, 464, 288
-1.001, 97, 129, 128, 384
-1.00101, 241, 33, 272, 288
-1.00103, 133, 1, 164, 256
-1.00104, 5, 129, 36, 384
-1.00104, 229, 1, 260, 256
-1.00104, 29, 129, 60, 384
-1.00105, 145, 97, 176, 352
-1.00105, 49, 265, 112, 328
-1.00106, 205, 33, 236, 288
-1.00108, 209, 129, 240, 384
-1.00108, 153, 1, 184, 256
-1.00109, 193, 97, 224, 352
-1.0011, 129, 273, 256, 400
-1.0011, 249, 1, 312, 128
-1.00111, 169, 129, 200, 384
-1.00112, 185, 305, 248, 368
-1.00113, 189, 1, 220, 256
-1.00114, 73, 97, 104, 352
-1.00116, 1, 1, 32, 256
-1.00117, 65, 113, 192, 240
-1.00117, 177, 257, 240, 384
-1.00117, 401, 33, 432, 288
-1.00118, 109, 97, 140, 352
-1.00121, 461, 33, 492, 288
-1.00123, 45, 329, 76, 392
-1.00124, 209, 73, 272, 136
-1.00124, 13, 1, 44, 256
-1.00125, 417, 1, 448, 256
-1.00125, 121, 129, 152, 384
-1.00125, 17, 97, 48, 352
-1.00125, 1, 121, 500, 184
-1.00126, 89, 177, 152, 240
-1.00126, 133, 97, 164, 352
-1.00128, 217, 1, 248, 256
-1.00131, 97, 297, 160, 360
-1.00132, 445, 1, 476, 256
-1.00133, 293, 65, 324, 192
-1.00134, 257, 1, 500, 64
-1.00134, 89, 89, 120, 152
-1.00135, 1, 89, 500, 152
-1.00136, 121, 209, 184, 336
-1.0014, 97, 161, 224, 288
-1.0014, 345, 225, 376, 288
-1.00141, 29, 33, 60, 288
-1.00142, 1, 1, 256, 64
-1.00144, 309, 97, 340, 160
-1.00144, 25, 249, 88, 312
-1.00144, 105, 329, 168, 392
-1.00151, 153, 153, 216, 216
-1.00152, 125, 73, 156, 136
-1.00154, 49, 177, 112, 240
-1.00154, 81, 233, 144, 296
-1.00156, 161, 1, 288, 64
-1.00156, 153, 273, 216, 400
-1.00156, 153, 217, 216, 280
-1.00158, 25, 177, 88, 240
-1.00161, 357, 249, 388, 312
-1.00167, 265, 257, 328, 320
-1.00171, 61, 297, 92, 360
-1.00172, 113, 137, 176, 200
-1.00172, 1, 329, 500, 392
-1.00174, 437, 209, 468, 336
-1.00174, 233, 1, 296, 64
-1.00175, 53, 273, 84, 400
-1.00177, 9, 113, 72, 176
-1.00177, 297, 1, 360, 64
-1.00181, 1, 33, 500, 96
-1.00181, 265, 25, 328, 88
-1.00184, 241, 177, 304, 304
-1.00185, 33, 209, 96, 336
-1.00185, 57, 329, 88, 392
-1.00186, 193, 201, 256, 264
-1.00186, 145, 281, 208, 344
-1.00186, 209, 337, 272, 400
-1.00188, 153, 209, 216, 336
-1.00188, 1, 161, 64, 224
-1.00191, 113, 233, 176, 296
-1.00191, 309, 233, 340, 296
-1.00194, 401, 161, 432, 288
-1.00196, 1, 1, 500, 64
-1.00199, 233, 305, 264, 368
-1.00199, 241, 233, 304, 296
-1.002, 97, 113, 160, 176
-1.002, 433, 145, 496, 208
-1.00201, 337, 97, 368, 160
-1.00204, 161, 97, 224, 160
-1.00204, 281, 329, 344, 392
-1.00205, 305, 41, 368, 104
-1.00206, 37, 41, 68, 104
-1.00207, 253, 273, 284, 336
-1.00207, 129, 65, 192, 128
-1.00208, 241, 273, 304, 400
-1.00216, 433, 169, 496, 232
-1.00216, 129, 177, 192, 240
-1.00217, 401, 209, 464, 272
-1.00224, 217, 129, 280, 256
-1.00224, 169, 97, 232, 224
-1.00227, 453, 233, 484, 296
-1.00227, 185, 105, 248, 168
-1.0023, 357, 113, 388, 176
-1.0023, 65, 25, 96, 88
-1.00232, 341, 65, 372, 192
-1.00233, 105, 65, 168, 192
-1.00233, 101, 41, 132, 104
-1.00236, 233, 281, 264, 344
-1.00241, 269, 113, 300, 176
-1.00241, 409, 105, 472, 168
-1.00241, 81, 137, 144, 200
-1.00241, 185, 169, 248, 232
-1.00244, 41, 257, 72, 384
-1.00247, 97, 257, 160, 384
-1.0025, 317, 321, 348, 384
-1.00251, 41, 129, 104, 192
-1.00251, 217, 201, 280, 264
-1.00252, 289, 65, 352, 128
-1.00257, 373, 169, 404, 232
-1.00262, 17, 65, 80, 320
-1.00272, 129, 257, 192, 384
-1.00274, 49, 209, 80, 336
-1.00274, 161, 97, 224, 352
-1.00275, 109, 65, 140, 192
-1.00276, 217, 193, 280, 320
-1.00278, 237, 177, 268, 304
-1.00283, 257, 1, 384, 128
-1.00284, 325, 169, 356, 232
-1.00287, 321, 89, 352, 152
-1.00288, 33, 209, 64, 336
-1.0029, 241, 257, 272, 384
-1.00291, 85, 337, 116, 400
-1.00293, 149, 313, 180, 376
-1.00293, 13, 161, 44, 288
-1.00294, 253, 209, 284, 336
-1.00296, 153, 257, 184, 384
-1.00299, 17, 145, 80, 272
-1.00299, 305, 17, 432, 144
-1.00305, 185, 209, 248, 336
-1.00307, 281, 33, 344, 160
-1.00313, 201, 129, 264, 384
-1.00313, 353, 89, 384, 152
-1.00317, 225, 113, 256, 240
-1.00318, 209, 177, 240, 304
-1.00319, 49, 97, 80, 224
-1.00319, 417, 145, 448, 272
-1.0032, 461, 273, 492, 400
-1.0032, 393, 129, 456, 256
-1.00321, 381, 145, 412, 272
-1.00321, 65, 161, 128, 288
-1.00321, 465, 321, 496, 384
-1.00328, 173, 209, 204, 336
-1.00328, 181, 257, 212, 384
-1.00333, 273, 193, 304, 256
-1.00333, 429, 113, 460, 240
-1.00339, 221, 193, 252, 320
-1.0034, 113, 1, 176, 256
-1.00341, 321, 225, 352, 288
-1.00342, 273, 145, 304, 272
-1.00342, 369, 17, 496, 144
-1.00346, 257, 297, 288, 360
-1.00347, 193, 241, 224, 368
-1.00349, 5, 209, 36, 336
-1.0035, 425, 129, 488, 384
-1.00352, 221, 289, 252, 352
-1.00352, 5, 89, 36, 152
-1.00353, 133, 297, 164, 360
-1.00353, 73, 329, 104, 392
-1.00354, 145, 113, 208, 240
-1.00358, 405, 105, 436, 168
-1.0036, 49, 273, 112, 400
-1.0036, 433, 129, 496, 256
-1.00361, 145, 337, 176, 400
-1.00363, 161, 121, 192, 184
-1.00363, 73, 257, 136, 384
-1.00365, 73, 305, 104, 368
-1.00367, 213, 265, 244, 328
-1.0037, 61, 97, 92, 160
-1.00378, 57, 161, 88, 224
-1.00378, 45, 89, 76, 152
-1.00379, 21, 209, 52, 336
-1.0038, 177, 145, 240, 272
-1.00381, 49, 289, 80, 352
-1.00381, 273, 217, 304, 280
-1.00381, 245, 233, 276, 296
-1.00383, 233, 249, 264, 312
-1.00389, 73, 273, 104, 400
-1.00389, 445, 145, 476, 272
-1.00391, 413, 185, 444, 248
-1.00391, 269, 281, 300, 344
-1.00393, 265, 273, 296, 400
-1.00395, 261, 1, 292, 128
-1.00401, 53, 265, 84, 328
-1.00403, 133, 321, 164, 384
-1.00403, 45, 177, 76, 240
-1.00404, 465, 177, 496, 304
-1.00409, 221, 257, 252, 384
-1.00409, 125, 81, 156, 208
-1.00411, 265, 209, 296, 336
-1.00413, 281, 241, 312, 368
-1.00419, 29, 257, 60, 384
-1.00419, 81, 97, 112, 224
-1.00421, 9, 49, 72, 176
-1.00422, 165, 97, 196, 224
-1.00425, 209, 33, 272, 160
-1.00428, 209, 225, 240, 352
-1.00436, 41, 129, 104, 384
-1.00436, 153, 129, 184, 256
-1.00439, 253, 97, 284, 224
-1.00445, 265, 49, 296, 176
-1.00446, 161, 209, 192, 336
-1.00448, 1, 241, 64, 368
-1.00449, 121, 1, 152, 128
-1.00449, 205, 113, 236, 240
-1.00452, 145, 17, 176, 144
-1.00452, 93, 209, 124, 336
-1.00455, 429, 65, 460, 192
-1.0046, 237, 129, 268, 256
-1.00461, 121, 97, 184, 352
-1.00462, 61, 209, 92, 336
-1.00462, 193, 97, 224, 224
-1.00464, 237, 1, 268, 128
-1.00472, 201, 1, 264, 256
-1.00473, 41, 161, 72, 288
-1.00475, 101, 161, 132, 288
-1.00476, 105, 209, 136, 336
-1.00478, 385, 33, 448, 288
-1.0048, 165, 257, 196, 384
-1.0048, 241, 49, 304, 176
-1.00482, 169, 1, 232, 256
-1.00483, 177, 145, 208, 272
-1.00484, 25, 161, 56, 288
-1.00486, 193, 177, 224, 304
-1.00486, 273, 1, 304, 128
-1.00489, 441, 81, 472, 208
-1.0049, 97, 145, 160, 272
-1.00494, 149, 209, 180, 336
-1.00497, 393, 81, 456, 208
-1.00497, 245, 49, 276, 176
-1.00499, 177, 49, 208, 176
-1.005, 5, 81, 36, 208
-1.005, 113, 257, 144, 384
-1.00502, 145, 1, 208, 256
-1.00502, 345, 49, 408, 176
-1.00505, 261, 161, 292, 288
-1.00506, 225, 1, 288, 256
-1.00506, 37, 49, 68, 176
-1.00507, 121, 145, 184, 272
-1.00511, 109, 113, 140, 240
-1.00511, 85, 161, 116, 288
-1.00512, 397, 1, 428, 128
-1.00513, 41, 161, 104, 288
-1.00516, 177, 97, 208, 224
-1.0052, 65, 129, 128, 384
-1.00524, 137, 65, 168, 192
-1.00526, 129, 177, 160, 304
-1.00527, 249, 161, 280, 288
-1.00529, 217, 81, 280, 208
-1.00534, 369, 81, 496, 208
-1.00536, 121, 17, 184, 144
-1.00536, 433, 1, 496, 256
-1.00537, 253, 273, 284, 400
-1.0054, 361, 81, 392, 208
-1.00542, 73, 225, 104, 352
-1.00547, 17, 17, 48, 144
-1.00547, 153, 65, 184, 192
-1.00553, 205, 65, 236, 192
-1.00553, 205, 273, 236, 400
-1.00554, 453, 97, 484, 224
-1.00555, 129, 65, 192, 192
-1.00579, 97, 129, 160, 384
-1.0061, 97, 209, 160, 336
-1.00619, 361, 1, 424, 256
-1.0062, 433, 81, 496, 208
-1.0062, 185, 49, 248, 176
-1.00632, 369, 97, 432, 224
-1.00636, 305, 1, 368, 128
-1.00646, 193, 97, 256, 224
-1.0065, 225, 129, 288, 384
-1.00656, 369, 1, 432, 128
-1.00753, 153, 17, 216, 144
-1.00753, 369, 49, 432, 176
-1.00772, 329, 1, 392, 128
-1.00774, 433, 177, 496, 304
-1.00785, 153, 161, 216, 288
-1.00874, 177, 1, 240, 128
-1.00896, 393, 1, 456, 128
-1.00916, 417, 1, 480, 128
-1.00951, 409, 33, 472, 288
-1.01, 1, 97, 64, 224
