1953
-0.710975, 1, 1, 500, 256
-0.746102, 1, 97, 500, 352
-0.817215, 1, 1, 500, 375
-0.877534, 33, 1, 288, 375
-0.918596, 225, 1, 480, 375
-0.92835, 129, 1, 384, 375
-0.9401, 65, 1, 192, 375
-0.949863, 33, 97, 288, 352
-0.952732, 33, 1, 160, 256
-0.953012, 17, 1, 144, 375
-0.954403, 97, 65, 224, 320
-0.96401, 225, 1, 352, 375
-0.964033, 49, 97, 176, 352
-0.965949, 145, 1, 272, 375
-0.968576, 145, 1, 272, 256
-0.969613, 369, 97, 496, 352
-0.970383, 273, 1, 400, 375
-0.970548, 337, 1, 464, 375
-0.971335, 1, 241, 500, 368
-0.971505, 273, 97, 400, 352
-0.972272, 121, 97, 184, 160
-0.972842, 1, 65, 500, 192
-0.978007, 321, 1, 448, 256
-0.978206, 225, 129, 352, 375
-0.978382, 1, 129, 500, 256
-0.979853, 89, 89, 152, 152
-0.980777, 113, 73, 176, 136
-0.981168, 33, 209, 288, 336
-0.983234, 137, 73, 168, 136
-0.984093, 113, 81, 240, 208
-0.984157, 321, 129, 448, 375
-0.984416, 129, 81, 192, 208
-0.984452, 1, 97, 128, 352
-0.98496, 105, 81, 168, 208
-0.985445, 129, 97, 160, 160
-0.985564, 241, 1, 368, 256
-0.986141, 129, 33, 256, 160
-0.986424, 1, 17, 500, 144
-0.987223, 49, 65, 176, 192
-0.98739, 129, 209, 384, 336
-0.987835, 193, 33, 320, 288
-0.988046, 49, 145, 176, 272
-0.988546, 137, 73, 200, 136
-0.989257, 1, 193, 500, 320
-0.989381, 113, 129, 240, 256
-0.989442, 33, 17, 160, 144
-0.989458, 65, 89, 192, 152
-0.989477, 33, 97, 288, 224
-0.989656, 97, 113, 160, 176
-0.989671, 133, 65, 164, 192
-0.989808, 1, 145, 256, 272
-0.990589, 121, 105, 184, 136
-0.990814, 141, 97, 172, 160
-0.990831, 117, 89, 148, 152
-0.990981, 369, 1, 496, 256
-0.991127, 105, 89, 168, 120
-0.991598, 145, 97, 272, 352
-0.991634, 337, 241, 464, 304
-0.991743, 65, 113, 192, 176
-0.99191, 89, 121, 152, 152
-0.991952, 25, 197, 88, 228
-0.992001, 73, 209, 136, 240
-0.992019, 33, 161, 160, 224
-0.992072, 113, 89, 240, 152
-0.992148, 57, 193, 120, 256
-0.992301, 49, 205, 112, 236
-0.99235, 361, 281, 424, 312
-0.992433, 89, 105, 152, 136
-0.992532, 105, 217, 168, 248
-0.992542, 329, 273, 392, 304
-0.992599, 129, 81, 192, 112
-0.992663, 113, 65, 240, 128
-0.992683, 393, 289, 456, 320
-0.992694, 305, 269, 368, 300
-0.992698, 113, 117, 176, 148
-0.992725, 129, 93, 192, 124
-0.992782, 105, 77, 168, 108
-0.992796, 129, 89, 160, 120
-0.992821, 89, 33, 152, 160
-0.992868, 1, 193, 64, 224
-0.992896, 281, 257, 344, 288
-0.992951, 417, 293, 480, 324
-0.992987, 117, 117, 148, 148
-0.992993, 129, 225, 192, 256
-0.993, 81, 93, 144, 124
-0.993026, 145, 161, 208, 288
-0.993033, 141, 101, 172, 132
-0.993045, 257, 257, 320, 288
-0.993101, 385, 249, 448, 312
-0.993126, 161, 233, 224, 264
-0.993151, 193, 241, 256, 272
-0.99316, 241, 169, 304, 200
-0.99316, 329, 193, 392, 224
-0.993179, 129, 105, 160, 136
-0.993188, 265, 169, 328, 200
-0.993189, 73, 197, 136, 228
-0.993204, 225, 249, 288, 280
-0.993205, 369, 209, 496, 272
-0.993213, 49, 209, 176, 272
-0.993238, 129, 77, 160, 108
-0.99324, 353, 241, 416, 304
-0.993248, 113, 133, 176, 164
-0.993256, 129, 181, 192, 212
-0.993262, 141, 81, 172, 112
-0.993276, 25, 185, 88, 248
-0.993286, 353, 193, 416, 224
-0.993293, 17, 1, 80, 32
-0.993298, 49, 193, 112, 224
-0.993303, 97, 205, 160, 236
-0.993317, 113, 225, 240, 288
-0.993331, 217, 161, 280, 192
-0.993345, 117, 89, 148, 120
-0.993348, 117, 105, 148, 136
-0.993357, 161, 189, 224, 220
-0.993363, 377, 205, 440, 236
-0.993368, 289, 181, 352, 212
-0.993379, 25, 185, 88, 216
-0.993381, 25, 153, 88, 184
-0.993393, 433, 253, 496, 284
-0.993396, 321, 225, 384, 256
-0.993404, 281, 221, 344, 252
-0.993405, 353, 269, 416, 300
-0.993406, 129, 117, 160, 148
-0.993422, 401, 205, 464, 236
-0.993436, 25, 109, 88, 140
-0.993442, 137, 213, 200, 244
-0.993446, 345, 237, 408, 268
-0.99346, 385, 277, 448, 308
-0.993464, 57, 117, 120, 148
-0.993466, 113, 213, 144, 244
-0.993469, 105, 173, 168, 204
-0.993477, 1, 181, 64, 212
-0.993479, 113, 129, 176, 256
-0.993479, 49, 153, 112, 184
-0.993491, 33, 193, 64, 224
-0.993491, 21, 189, 52, 220
-0.993492, 133, 217, 164, 248
-0.993493, 121, 129, 152, 160
-0.993498, 65, 201, 96, 232
-0.993508, 1, 185, 32, 216
-0.993509, 377, 245, 440, 276
-0.993513, 153, 97, 216, 128
-0.99352, 49, 197, 80, 228
-0.993522, 305, 257, 368, 288
-0.993523, 85, 205, 116, 236
-0.993525, 101, 209, 132, 240
-0.993526, 253, 249, 284, 280
-0.99353, 341, 269, 372, 300
-0.993532, 153, 145, 216, 176
-0.993544, 189, 233, 220, 264
-0.993545, 409, 253, 472, 284
-0.993549, 277, 253, 308, 284
-0.993556, 321, 265, 352, 296
-0.993557, 309, 261, 340, 292
-0.993557, 429, 289, 460, 320
-0.993559, 145, 221, 176, 252
-0.993559, 161, 225, 192, 256
-0.993565, 205, 237, 236, 268
-0.993569, 329, 261, 392, 292
-0.993572, 173, 229, 204, 260
-0.993573, 1, 145, 64, 176
-0.993575, 353, 273, 384, 304
-0.993577, 225, 241, 256, 272
-0.993578, 237, 245, 268, 276
-0.993579, 289, 257, 320, 288
-0.993579, 105, 121, 136, 152
-0.99358, 413, 285, 444, 316
-0.993581, 1, 101, 64, 132
-0.993583, 305, 273, 432, 336
-0.993583, 461, 297, 492, 328
-0.993584, 305, 77, 368, 108
-0.993585, 385, 281, 416, 312
-0.993585, 153, 109, 184, 140
-0.993599, 41, 9, 104, 40
-0.9936, 385, 97, 448, 128
-0.9936, 209, 201, 272, 232
-0.993604, 185, 189, 248, 220
-0.993607, 445, 293, 476, 324
-0.99361, 29, 1, 60, 32
-0.993613, 105, 25, 168, 56
-0.993613, 73, 165, 136, 196
-0.993617, 153, 97, 184, 128
-0.993618, 73, 17, 136, 48
-0.993619, 373, 277, 404, 308
-0.993628, 397, 281, 428, 312
-0.993631, 353, 89, 416, 120
-0.993633, 353, 201, 416, 264
-0.993638, 225, 197, 256, 228
-0.993646, 273, 69, 336, 100
-0.993652, 105, 89, 136, 120
-0.993663, 137, 69, 200, 100
-0.993671, 265, 249, 296, 280
-0.993675, 105, 101, 136, 132
-0.99369, 329, 77, 392, 108
-0.993692, 149, 69, 180, 100
-0.993695, 269, 169, 300, 200
-0.993701, 241, 201, 272, 232
-0.993718, 417, 281, 480, 312
-0.993719, 33, 161, 96, 224
-0.99372, 293, 173, 324, 204
-0.993722, 137, 33, 200, 64
-0.993724, 433, 213, 496, 244
-0.993724, 145, 41, 272, 104
-0.993727, 225, 57, 288, 88
-0.993729, 253, 165, 284, 196
-0.99373, 377, 265, 440, 296
-0.993732, 141, 177, 172, 208
-0.993732, 417, 105, 480, 136
-0.993732, 185, 153, 248, 184
-0.993733, 13, 177, 44, 208
-0.993736, 61, 153, 92, 184
-0.993736, 89, 161, 120, 192
-0.993741, 137, 133, 168, 164
-0.993741, 217, 153, 248, 184
-0.993742, 273, 209, 304, 240
-0.993742, 65, 113, 96, 144
-0.993743, 389, 201, 420, 232
-0.993744, 157, 181, 188, 212
-0.993747, 321, 233, 384, 296
-0.993747, 105, 165, 136, 196
-0.993749, 329, 185, 360, 216
-0.99375, 413, 205, 444, 236
-0.993751, 161, 221, 224, 252
-0.993751, 257, 245, 320, 276
-0.993755, 365, 233, 396, 264
-0.993756, 37, 105, 68, 136
-0.993758, 233, 157, 264, 188
-0.993759, 153, 85, 216, 116
-0.993759, 77, 157, 108, 188
-0.993761, 1, 137, 32, 168
-0.993763, 373, 197, 404, 228
-0.993763, 93, 121, 124, 152
-0.993764, 309, 177, 340, 208
-0.993764, 45, 1, 76, 32
-0.993765, 305, 257, 368, 320
-0.993766, 37, 149, 68, 180
-0.993767, 461, 217, 492, 248
-0.993773, 45, 185, 76, 216
-0.993774, 125, 173, 156, 204
-0.993775, 349, 229, 380, 260
-0.993776, 209, 193, 240, 224
-0.993777, 193, 149, 224, 180
-0.99378, 21, 145, 52, 176
-0.99378, 257, 205, 288, 236
-0.993781, 397, 241, 428, 272
-0.993781, 413, 245, 444, 276
-0.993781, 233, 209, 296, 240
-0.993783, 353, 189, 384, 220
-0.993784, 381, 237, 412, 268
-0.993785, 81, 117, 112, 148
-0.993786, 181, 145, 212, 176
-0.993787, 313, 181, 376, 212
-0.993787, 289, 213, 320, 244
-0.993788, 1, 93, 32, 124
-0.993788, 281, 173, 312, 204
-0.99379, 121, 201, 184, 232
-0.993792, 461, 257, 492, 288
-0.993793, 429, 249, 460, 280
-0.993794, 61, 189, 92, 220
-0.993794, 53, 109, 84, 140
-0.993794, 257, 209, 320, 240
-0.993798, 97, 17, 128, 48
-0.9938, 305, 221, 336, 252
-0.993801, 117, 201, 148, 232
-0.993801, 429, 209, 460, 240
-0.993801, 333, 225, 364, 256
-0.993802, 169, 33, 200, 64
-0.993803, 205, 149, 236, 180
-0.993804, 249, 57, 312, 88
-0.993805, 181, 185, 212, 216
-0.993805, 197, 189, 228, 220
-0.993805, 121, 21, 152, 52
-0.993805, 445, 253, 476, 284
-0.993806, 341, 189, 372, 220
-0.993806, 153, 81, 184, 112
-0.993807, 25, 177, 56, 208
-0.993807, 101, 197, 132, 228
-0.993808, 77, 193, 108, 224
-0.993811, 153, 29, 184, 60
-0.993812, 81, 13, 112, 44
-0.993813, 321, 221, 352, 252
-0.993813, 201, 41, 232, 72
-0.99382, 185, 221, 216, 252
-0.99382, 389, 89, 420, 120
-0.993822, 225, 237, 288, 268
-0.993823, 201, 225, 232, 256
-0.993825, 445, 213, 476, 244
-0.993826, 249, 237, 280, 268
-0.993828, 129, 205, 160, 236
-0.993829, 249, 153, 280, 184
-0.993833, 145, 209, 176, 240
-0.993835, 377, 265, 408, 296
-0.993836, 437, 101, 468, 132
-0.993837, 169, 185, 200, 216
-0.993837, 17, 97, 48, 128
-0.993837, 369, 185, 400, 216
-0.993865, 185, 45, 248, 76
-0.993866, 49, 65, 176, 128
-0.993884, 129, 145, 256, 208
-0.993886, 417, 257, 480, 320
-0.993898, 369, 289, 496, 352
-0.993923, 193, 229, 256, 260
-0.993936, 241, 157, 304, 188
-0.993955, 161, 145, 288, 272
-0.993965, 129, 169, 192, 200
-0.993981, 25, 141, 88, 172
-0.993985, 161, 33, 224, 64
-0.993991, 105, 65, 168, 96
-0.994005, 137, 133, 200, 164
-0.994028, 377, 185, 440, 216
-0.99403, 345, 225, 408, 256
-0.994043, 281, 209, 344, 240
-0.994048, 289, 245, 352, 276
-0.99405, 81, 81, 144, 112
-0.994083, 153, 173, 216, 204
-0.994085, 409, 241, 472, 272
-0.994088, 289, 169, 352, 200
-0.994093, 305, 213, 368, 244
-0.994095, 377, 233, 440, 264
-0.994104, 273, 157, 336, 188
-0.99411, 209, 45, 272, 76
-0.994114, 273, 57, 336, 88
-0.994121, 97, 161, 160, 192
-0.994121, 233, 197, 296, 228
-0.994122, 145, 109, 208, 140
-0.994123, 137, 33, 200, 160
-0.994124, 305, 65, 368, 96
-0.994177, 409, 89, 472, 120
-0.994179, 73, 5, 136, 36
-0.994183, 1, 169, 64, 200
-0.994188, 49, 181, 112, 212
-0.994189, 409, 193, 472, 224
-0.994193, 97, 193, 160, 224
-0.994208, 137, 21, 200, 52
-0.99421, 137, 121, 200, 152
-0.994218, 385, 85, 448, 116
-0.994226, 57, 141, 120, 172
-0.994236, 185, 141, 248, 172
-0.994239, 353, 77, 416, 108
-0.994247, 209, 189, 272, 220
-0.994247, 1, 85, 64, 116
-0.994252, 161, 129, 224, 160
-0.994319, 161, 209, 288, 336
-0.994345, 137, 97, 200, 352
-0.994423, 281, 209, 344, 272
-0.994509, 193, 161, 448, 288
-0.994526, 377, 273, 440, 336
-0.994556, 129, 1, 384, 256
-0.994599, 209, 249, 336, 312
-0.994708, 89, 201, 152, 264
-0.994739, 1, 129, 128, 256
-0.994754, 89, 177, 152, 240
-0.99478, 97, 177, 224, 240
-0.994782, 1, 193, 128, 256
-0.994792, 273, 225, 400, 288
-0.994797, 257, 161, 320, 224
-0.994806, 97, 17, 224, 80
-0.994807, 353, 273, 416, 336
-0.99482, 161, 225, 288, 288
-0.9949, 97, 177, 224, 304
-0.994922, 321, 193, 384, 256
-0.994967, 193, 161, 256, 288
-0.994978, 257, 249, 384, 312
-0.994986, 281, 233, 344, 296
-0.995034, 81, 1, 144, 375
-0.995044, 125, 65, 156, 128
-0.995107, 385, 209, 448, 272
-0.99516, 133, 89, 148, 152
-0.995172, 121, 185, 184, 248
-0.995174, 113, 121, 144, 184
-0.995259, 57, 113, 120, 240
-0.99532, 113, 33, 176, 288
-0.995355, 97, 145, 352, 272
-0.995385, 153, 97, 184, 160
-0.995522, 241, 193, 368, 320
-0.995525, 425, 209, 488, 336
-0.995629, 57, 169, 120, 232
-0.995653, 49, 17, 176, 80
-0.995681, 257, 177, 320, 304
-0.995719, 169, 137, 232, 200
-0.995746, 353, 193, 416, 320
-0.995765, 127, 89, 142, 152
-0.995789, 139, 81, 154, 144
-0.9958, 233, 169, 296, 232
-0.995906, 1, 1, 128, 64
-0.995957, 409, 281, 472, 344
-0.996048, 17, 105, 144, 168
-0.996136, 1, 153, 64, 216
-0.996174, 145, 65, 160, 128
-0.9963, 409, 209, 472, 272
-0.996334, 393, 225, 456, 352
-0.996338, 321, 193, 448, 256
-0.996368, 145, 105, 208, 168
-0.996369, 17, 129, 80, 256
-0.996418, 113, 209, 176, 272
-0.996419, 105, 89, 136, 152
-0.996446, 145, 145, 208, 208
-0.996464, 289, 185, 352, 248
-0.996467, 369, 209, 496, 336
-0.996533, 49, 185, 176, 248
-0.996537, 113, 1, 176, 128
-0.996545, 369, 265, 496, 328
-0.996596, 73, 161, 136, 288
-0.996652, 105, 49, 168, 112
-0.996696, 241, 241, 304, 304
-0.996788, 225, 225, 352, 288
-0.996789, 257, 217, 320, 280
-0.996827, 161, 249, 416, 312
-0.996835, 149, 65, 180, 128
-0.99687, 193, 41, 320, 104
-0.996876, 113, 201, 240, 264
-0.996882, 177, 153, 304, 216
-0.997011, 209, 153, 272, 216
-0.997101, 151, 73, 166, 136
-0.997109, 121, 81, 152, 208
-0.99711, 209, 233, 272, 296
-0.997117, 257, 209, 500, 336
-0.997153, 145, 185, 208, 248
-0.997228, 281, 257, 344, 320
-0.997263, 193, 65, 448, 128
-0.997277, 49, 93, 176, 124
-0.997333, 145, 65, 176, 192
-0.997346, 131, 113, 146, 176
-0.997352, 33, 193, 160, 320
-0.997408, 81, 1, 208, 128
-0.997447, 177, 201, 304, 264
-0.997459, 113, 121, 240, 184
-0.997483, 81, 65, 144, 128
-0.997493, 57, 113, 120, 176
-0.997505, 25, 1, 88, 128
-0.997542, 145, 97, 160, 160
-0.997545, 161, 241, 288, 272
-0.997557, 97, 85, 224, 116
-0.997617, 177, 225, 240, 288
-0.997651, 145, 49, 208, 112
-0.997657, 257, 89, 500, 152
-0.997692, 1, 97, 256, 160
-0.997732, 161, 209, 224, 336
-0.997732, 241, 177, 368, 208
-0.997776, 65, 225, 320, 288
-0.997778, 185, 201, 248, 264
-0.997786, 121, 105, 136, 168
-0.997788, 169, 129, 232, 256
-0.997825, 113, 229, 240, 260
-0.997836, 157, 97, 172, 160
-0.997868, 385, 177, 448, 240
-0.997871, 1, 17, 256, 80
-0.997877, 33, 1, 96, 64
-0.997883, 217, 193, 280, 256
-0.997949, 233, 145, 296, 272
-0.997985, 97, 101, 224, 132
-0.997996, 97, 49, 352, 112
-0.998007, 209, 253, 336, 284
-0.998031, 265, 1, 328, 375
-0.998068, 145, 1, 272, 64
-0.998081, 117, 1, 148, 128
-0.998083, 161, 197, 288, 228
-0.998093, 133, 65, 148, 128
-0.998094, 131, 113, 146, 144
-0.998133, 135, 89, 150, 120
-0.998145, 139, 105, 154, 168
-0.998167, 9, 105, 72, 168
-0.998192, 151, 97, 166, 160
-0.998203, 49, 125, 176, 156
-0.998212, 97, 73, 352, 136
-0.998216, 173, 161, 204, 288
-0.998226, 97, 49, 352, 176
-0.998275, 133, 127, 164, 142
-0.998276, 217, 51, 248, 66
-0.998278, 233, 55, 264, 70
-0.998278, 77, 15, 108, 30
-0.998278, 93, 19, 124, 34
-0.998278, 409, 247, 440, 262
-0.99828, 381, 243, 412, 258
-0.99828, 349, 235, 380, 250
-0.99828, 133, 29, 164, 44
-0.998281, 141, 77, 172, 92
-0.998283, 189, 231, 220, 246
-0.998284, 65, 199, 96, 214
-0.998284, 165, 225, 196, 240
-0.998285, 261, 249, 292, 264
-0.998286, 57, 159, 88, 174
-0.998286, 41, 193, 72, 208
-0.998286, 365, 239, 396, 254
-0.998287, 141, 89, 172, 104
-0.998288, 449, 257, 480, 272
-0.998288, 89, 205, 120, 220
-0.998289, 109, 129, 140, 144
-0.998291, 393, 243, 424, 258
-0.998292, 469, 265, 500, 280
-0.998293, 213, 197, 244, 212
-0.998293, 337, 231, 368, 246
-0.998294, 401, 205, 432, 220
-0.998295, 313, 225, 344, 240
-0.998297, 453, 295, 484, 310
-0.998297, 153, 141, 184, 156
-0.998298, 461, 223, 492, 238
-0.998299, 237, 203, 268, 218
-0.9983, 21, 105, 52, 120
-0.9983, 201, 155, 232, 170
-0.9983, 57, 115, 88, 130
-0.998302, 325, 229, 356, 244
-0.998303, 109, 99, 140, 114
-0.998303, 89, 167, 120, 182
-0.998303, 141, 181, 172, 196
-0.998305, 249, 209, 280, 224
-0.998305, 129, 111, 160, 126
-0.998305, 201, 197, 232, 212
-0.998305, 213, 155, 244, 170
-0.998306, 297, 221, 328, 236
-0.998306, 153, 109, 184, 124
-0.998306, 413, 211, 444, 226
-0.998307, 145, 85, 160, 116
-0.998307, 9, 101, 40, 116
-0.998307, 425, 211, 456, 226
-0.998307, 125, 215, 156, 230
-0.998308, 85, 123, 116, 138
-0.998308, 281, 217, 312, 232
-0.998309, 33, 149, 64, 164
-0.998309, 225, 203, 256, 218
-0.998309, 141, 83, 172, 98
-0.998312, 37, 109, 68, 124
-0.998312, 1, 143, 32, 158
-0.998312, 225, 161, 256, 176
-0.998312, 381, 203, 412, 218
-0.998313, 69, 161, 100, 176
-0.998313, 309, 183, 340, 198
-0.998314, 173, 147, 204, 162
-0.998314, 45, 155, 76, 170
-0.998314, 369, 185, 496, 248
-0.998314, 97, 123, 128, 138
-0.998314, 265, 213, 296, 228
-0.998314, 437, 217, 468, 232
-0.998315, 321, 187, 352, 202
-0.998315, 21, 149, 52, 164
-0.998316, 117, 117, 148, 132
-0.998316, 137, 137, 168, 152
-0.998316, 189, 151, 220, 166
-0.998316, 253, 169, 284, 184
-0.998316, 193, 173, 320, 204
-0.998318, 157, 185, 188, 200
-0.998319, 105, 171, 136, 186
-0.998319, 265, 169, 296, 184
-0.998319, 1, 169, 256, 232
-0.99832, 257, 189, 384, 220
-0.998321, 73, 119, 104, 134
-0.998321, 121, 175, 152, 190
-0.998321, 129, 85, 160, 100
-0.998324, 21, 1, 52, 16
-0.998326, 337, 191, 368, 206
-0.99833, 241, 165, 272, 180
-0.998331, 293, 179, 324, 194
-0.998332, 225, 241, 352, 368
-0.998333, 369, 199, 400, 214
-0.998335, 173, 189, 204, 204
-0.998336, 113, 93, 144, 108
-0.998336, 121, 81, 136, 144
-0.998337, 1, 183, 32, 198
-0.998338, 189, 193, 220, 208
-0.998339, 1, 201, 256, 264
-0.998339, 137, 95, 168, 110
-0.998341, 353, 195, 384, 210
-0.998345, 453, 301, 484, 316
-0.998346, 131, 101, 146, 132
-0.998346, 277, 175, 308, 190
-0.998351, 293, 261, 324, 276
-0.998352, 393, 285, 424, 300
-0.998353, 429, 293, 460, 308
-0.998359, 147, 97, 162, 128
-0.998359, 349, 275, 380, 290
-0.998366, 165, 231, 196, 246
-0.998367, 417, 289, 448, 304
-0.998368, 337, 271, 368, 286
-0.998371, 125, 221, 156, 236
-0.998376, 405, 287, 436, 302
-0.998378, 141, 107, 172, 122
-0.998378, 121, 129, 152, 144
-0.998378, 365, 277, 396, 292
-0.998381, 261, 255, 292, 270
-0.998384, 29, 193, 60, 208
-0.998385, 153, 225, 184, 240
-0.998385, 233, 245, 264, 260
-0.998385, 123, 129, 138, 192
-0.998386, 153, 93, 168, 124
-0.998387, 381, 281, 412, 296
-0.998387, 441, 295, 472, 310
-0.998388, 465, 301, 496, 316
-0.998389, 41, 199, 72, 214
-0.998392, 201, 237, 232, 252
-0.998392, 217, 241, 248, 256
-0.998393, 281, 257, 312, 272
-0.998395, 137, 221, 168, 236
-0.998395, 321, 267, 352, 282
-0.998395, 17, 189, 48, 204
-0.998396, 249, 249, 280, 264
-0.998396, 121, 121, 184, 184
-0.998396, 189, 237, 220, 252
-0.998397, 53, 199, 84, 214
-0.998397, 65, 205, 96, 220
-0.998398, 89, 211, 120, 226
-0.998398, 101, 211, 132, 226
-0.998398, 305, 263, 336, 278
-0.9984, 129, 103, 160, 118
-0.998407, 77, 205, 108, 220
-0.998407, 177, 231, 208, 246
-0.998408, 113, 217, 144, 232
-0.998416, 5, 189, 36, 204
-0.998419, 37, 1, 52, 64
-0.99842, 125, 91, 156, 106
-0.998424, 169, 161, 232, 224
-0.998427, 113, 123, 144, 138
-0.998429, 97, 117, 224, 148
-0.99843, 145, 73, 160, 104
-0.998433, 193, 209, 320, 240
-0.998441, 141, 101, 172, 116
-0.998448, 125, 113, 140, 144
-0.998476, 281, 193, 344, 320
-0.998507, 313, 169, 376, 232
-0.998527, 129, 89, 144, 120
-0.998527, 185, 241, 248, 256
-0.998541, 145, 231, 208, 246
-0.998542, 257, 259, 320, 274
-0.998547, 209, 247, 272, 262
-0.998549, 281, 263, 344, 278
-0.998552, 169, 235, 232, 250
-0.998555, 129, 225, 192, 240
-0.998557, 241, 253, 304, 268
-0.998569, 145, 177, 272, 240
-0.998576, 417, 297, 480, 312
-0.998579, 123, 89, 138, 120
-0.99858, 105, 221, 168, 236
-0.998587, 121, 101, 184, 116
-0.998588, 1, 193, 64, 208
-0.998589, 369, 289, 496, 320
-0.99859, 305, 269, 368, 284
-0.998601, 121, 107, 184, 122
-0.998601, 393, 291, 456, 306
-0.998611, 225, 225, 288, 352
-0.998614, 89, 215, 152, 230
-0.998622, 105, 91, 168, 106
-0.998624, 369, 101, 496, 132
-0.998628, 353, 169, 416, 232
-0.998629, 329, 275, 392, 290
-0.998632, 97, 99, 160, 114
-0.998633, 369, 285, 432, 300
-0.998633, 65, 217, 192, 248
-0.998635, 25, 199, 88, 214
-0.998635, 433, 303, 496, 318
-0.998658, 105, 1, 136, 128
-0.99866, 139, 109, 154, 140
-0.998661, 273, 179, 336, 194
-0.998661, 49, 205, 112, 220
-0.998664, 1, 187, 64, 202
-0.998665, 257, 57, 384, 120
-0.998666, 105, 177, 136, 240
-0.99867, 201, 201, 264, 216
-0.998672, 105, 1, 168, 375
-0.998674, 417, 217, 480, 232
-0.998674, 177, 195, 240, 210
-0.998675, 89, 123, 152, 138
-0.998677, 345, 281, 408, 296
-0.998677, 225, 207, 288, 222
-0.998678, 73, 167, 136, 182
-0.998679, 89, 117, 152, 132
-0.99868, 297, 185, 360, 200
-0.998681, 137, 33, 168, 288
-0.998683, 233, 247, 296, 262
-0.998684, 65, 211, 128, 226
-0.998685, 185, 155, 248, 170
-0.998686, 209, 241, 272, 256
-0.99869, 281, 253, 344, 268
-0.998691, 1, 181, 64, 196
-0.998692, 169, 225, 232, 240
-0.998694, 393, 211, 456, 226
-0.998694, 159, 101, 174, 132
-0.998695, 145, 219, 208, 234
-0.998697, 81, 93, 144, 108
-0.998697, 225, 225, 480, 288
-0.998698, 201, 233, 264, 248
-0.998699, 129, 95, 192, 110
-0.998699, 249, 213, 312, 228
-0.998702, 25, 193, 88, 208
-0.998703, 89, 129, 152, 144
-0.998703, 137, 35, 200, 50
-0.998703, 433, 223, 496, 238
-0.998706, 153, 189, 216, 204
-0.998707, 97, 173, 160, 188
-0.998708, 49, 117, 112, 132
-0.998709, 233, 241, 296, 256
-0.998709, 417, 291, 480, 306
-0.998709, 49, 161, 112, 176
-0.99871, 161, 149, 224, 164
-0.99871, 113, 119, 176, 134
-0.998712, 257, 247, 320, 262
-0.998712, 161, 41, 224, 56
-0.998712, 209, 161, 272, 176
-0.998712, 113, 29, 176, 44
-0.998713, 113, 135, 176, 150
-0.998713, 305, 259, 368, 274
-0.998717, 329, 265, 392, 280
-0.998717, 113, 125, 176, 140
-0.998718, 81, 21, 144, 36
-0.998719, 1, 103, 64, 118
-0.998719, 25, 111, 88, 126
-0.998719, 249, 173, 312, 188
-0.998721, 57, 15, 120, 30
-0.998722, 25, 187, 88, 202
-0.998724, 321, 191, 384, 206
-0.998724, 369, 245, 432, 260
-0.998725, 409, 255, 472, 270
-0.998725, 193, 49, 256, 64
-0.998728, 121, 213, 184, 228
-0.998729, 393, 285, 456, 300
-0.99873, 433, 111, 496, 126
-0.99873, 217, 253, 280, 268
-0.99873, 455, 257, 470, 320
-0.998731, 273, 219, 336, 234
-0.998734, 97, 105, 160, 120
-0.998734, 153, 103, 216, 118
-0.998735, 433, 261, 496, 276
-0.998735, 105, 85, 168, 100
-0.998735, 1, 147, 64, 162
-0.998736, 353, 271, 416, 286
-0.998736, 129, 113, 192, 128
-0.998736, 289, 173, 352, 188
-0.998737, 129, 83, 192, 98
-0.998738, 81, 111, 144, 126
-0.998738, 129, 89, 192, 104
-0.998738, 417, 285, 480, 300
-0.998739, 369, 205, 432, 220
-0.99874, 297, 225, 360, 240
-0.99874, 137, 141, 200, 156
-0.99874, 401, 103, 464, 118
-0.99874, 377, 97, 440, 112
-0.998743, 313, 231, 376, 246
-0.998744, 281, 269, 344, 284
-0.998744, 233, 59, 296, 74
-0.998744, 65, 199, 128, 214
-0.998745, 25, 7, 88, 22
-0.998746, 235, 201, 250, 264
-0.998746, 25, 155, 88, 170
-0.998747, 425, 209, 488, 224
-0.998747, 41, 1, 104, 375
-0.998747, 313, 179, 376, 194
-0.998748, 345, 239, 408, 254
-0.998749, 369, 279, 432, 294
-0.998749, 129, 183, 192, 198
-0.998749, 193, 227, 256, 242
-0.998749, 249, 203, 312, 218
-0.998749, 305, 79, 368, 94
-0.99875, 225, 201, 288, 216
-0.998751, 337, 87, 400, 102
-0.998752, 201, 191, 264, 206
-0.998753, 1, 1, 64, 16
-0.998753, 105, 165, 168, 180
-0.998753, 281, 71, 344, 86
-0.998754, 393, 249, 456, 264
-0.998755, 209, 151, 272, 166
-0.998755, 1, 137, 64, 152
-0.998755, 69, 1, 84, 64
-0.998756, 137, 77, 200, 92
-0.998757, 225, 167, 288, 182
-0.998757, 257, 65, 320, 80
-0.998757, 345, 199, 408, 214
-0.998759, 225, 235, 288, 250
-0.99876, 97, 207, 160, 222
-0.998763, 273, 209, 336, 224
-0.998764, 209, 55, 272, 70
-0.998776, 113, 185, 240, 216
-0.99878, 257, 265, 384, 296
-0.998785, 329, 185, 344, 248
-0.998802, 321, 209, 384, 336
-0.998804, 257, 245, 384, 276
-0.998813, 361, 193, 376, 256
-0.998815, 131, 125, 146, 156
-0.998815, 423, 249, 438, 312
-0.998824, 153, 81, 168, 112
-0.99883, 119, 121, 134, 152
-0.998836, 389, 241, 404, 304
-0.998843, 223, 225, 238, 288
-0.998846, 33, 137, 160, 200
-0.998846, 271, 169, 286, 232
-0.998849, 115, 105, 130, 168
-0.998849, 35, 177, 50, 240
-0.998853, 127, 65, 142, 128
-0.998855, 117, 129, 132, 192
-0.998858, 241, 161, 256, 224
-0.998867, 159, 217, 174, 280
-0.998868, 321, 249, 336, 312
-0.998884, 305, 173, 432, 204
-0.998885, 191, 225, 206, 288
-0.998885, 457, 289, 472, 352
-0.998892, 127, 201, 142, 264
-0.998903, 33, 177, 96, 304
-0.998904, 301, 177, 316, 240
-0.998904, 329, 225, 344, 288
-0.99891, 145, 217, 208, 280
-0.998914, 49, 81, 176, 112
-0.998921, 137, 125, 152, 156
-0.998921, 121, 101, 136, 132
-0.998922, 257, 273, 500, 336
-0.998922, 391, 201, 406, 264
-0.998925, 139, 77, 154, 108
-0.998928, 255, 241, 270, 304
-0.998928, 329, 265, 392, 328
-0.998931, 211, 153, 226, 216
-0.998943, 193, 229, 320, 260
-0.998946, 67, 193, 82, 256
-0.998949, 97, 201, 112, 264
-0.998958, 359, 233, 374, 296
-0.998961, 145, 85, 272, 116
-0.998965, 5, 169, 20, 232
-0.998971, 1, 177, 64, 240
-0.998974, 133, 113, 164, 240
-0.998984, 385, 177, 448, 304
-0.998989, 209, 197, 336, 228
-0.998989, 97, 41, 224, 104
-0.99899, 141, 97, 156, 128
-0.998994, 113, 225, 240, 352
-0.999007, 193, 9, 320, 72
-0.999009, 425, 201, 440, 264
-0.999012, 97, 193, 352, 256
-0.999013, 181, 145, 196, 208
-0.999021, 209, 121, 336, 184
-0.999023, 287, 241, 302, 304
-0.999027, 49, 105, 176, 136
-0.99903, 1, 85, 128, 116
-0.999043, 29, 1, 44, 32
-0.99905, 389, 265, 404, 328
-0.999053, 297, 217, 312, 280
-0.999053, 353, 257, 368, 320
-0.999057, 139, 57, 154, 120
-0.999063, 453, 217, 468, 280
-0.999063, 165, 105, 180, 136
-0.99907, 485, 217, 500, 280
-0.99907, 157, 73, 172, 136
-0.999073, 423, 281, 438, 344
-0.999074, 81, 145, 208, 208
-0.999076, 225, 169, 352, 232
-0.999077, 151, 137, 166, 200
-0.99908, 203, 193, 218, 256
-0.999085, 241, 201, 368, 264
-0.999085, 305, 209, 432, 336
-0.999085, 111, 209, 126, 240
-0.999088, 125, 125, 140, 156
-0.999094, 145, 209, 272, 240
-0.999095, 57, 1, 120, 64
-0.9991, 117, 89, 132, 120
-0.999101, 3, 181, 18, 212
-0.999102, 81, 201, 96, 232
-0.999104, 49, 193, 64, 224
-0.999106, 321, 217, 448, 280
-0.999113, 137, 213, 152, 244
-0.999117, 321, 89, 448, 120
-0.99912, 97, 205, 112, 236
-0.999126, 209, 241, 336, 272
-0.999129, 143, 217, 158, 248
-0.999135, 265, 209, 280, 272
-0.999137, 65, 197, 80, 228
-0.999137, 189, 229, 204, 260
-0.99914, 127, 213, 142, 244
-0.999145, 29, 189, 44, 220
-0.999149, 353, 233, 368, 296
-0.999154, 19, 185, 34, 216
-0.999162, 255, 245, 270, 276
-0.999173, 97, 73, 224, 104
-0.999174, 43, 189, 58, 220
-0.999175, 241, 213, 368, 244
-0.999175, 81, 137, 208, 168
-0.999176, 75, 197, 90, 228
-0.999177, 237, 241, 252, 272
-0.99918, 57, 145, 72, 208
-0.99918, 105, 205, 120, 236
-0.999184, 59, 193, 74, 224
-0.999189, 269, 249, 284, 280
-0.999192, 321, 225, 336, 288
-0.999192, 13, 181, 28, 212
-0.999193, 313, 257, 328, 288
-0.999197, 35, 189, 50, 220
-0.999197, 431, 289, 446, 320
-0.999197, 153, 69, 168, 100
-0.999199, 205, 233, 220, 264
-0.999202, 121, 213, 136, 244
-0.999205, 91, 205, 106, 236
-0.99921, 369, 81, 432, 144
-0.999211, 319, 261, 334, 292
-0.999211, 45, 1, 60, 32
-0.999214, 285, 253, 300, 284
-0.999215, 257, 201, 384, 232
-0.999216, 221, 237, 236, 268
-0.999219, 247, 241, 262, 272
-0.999222, 159, 221, 174, 252
-0.999222, 337, 265, 352, 296
-0.999228, 161, 17, 416, 80
-0.999228, 279, 249, 294, 280
-0.999232, 173, 225, 188, 256
-0.999233, 295, 253, 310, 284
-0.999234, 273, 169, 400, 232
-0.999237, 483, 301, 498, 332
-0.999241, 153, 217, 168, 248
-0.999241, 327, 261, 342, 292
-0.999242, 111, 89, 126, 120
-0.999242, 183, 225, 198, 256
-0.999244, 131, 77, 146, 108
-0.999245, 421, 285, 436, 316
-0.999245, 167, 221, 182, 252
-0.999248, 257, 41, 500, 104
-0.999249, 301, 257, 316, 288
-0.99925, 1, 177, 128, 208
-0.999256, 437, 289, 452, 320
-0.999258, 347, 269, 362, 300
-0.999258, 113, 125, 128, 156
-0.999262, 199, 229, 214, 260
-0.999263, 39, 97, 54, 160
-0.999264, 231, 237, 246, 268
-0.999265, 25, 137, 40, 200
-0.999265, 175, 177, 190, 240
-0.999266, 265, 165, 280, 196
-0.999266, 141, 177, 156, 240
-0.999275, 451, 281, 466, 344
-0.999277, 381, 277, 396, 308
-0.999278, 93, 121, 108, 184
-0.999278, 365, 273, 380, 304
-0.999281, 389, 277, 404, 308
-0.999281, 263, 245, 278, 276
-0.999285, 453, 293, 468, 324
-0.999287, 193, 185, 320, 216
-0.999287, 189, 225, 220, 288
-0.999289, 153, 105, 168, 136
-0.999292, 355, 269, 370, 300
-0.999292, 229, 201, 244, 264
-0.999292, 121, 25, 184, 88
-0.999296, 245, 201, 260, 232
-0.999296, 395, 277, 410, 308
-0.999297, 221, 153, 236, 184
-0.999301, 413, 281, 428, 312
-0.999301, 447, 289, 462, 320
-0.999304, 471, 297, 486, 328
-0.999312, 161, 89, 176, 120
-0.999317, 89, 193, 104, 224
-0.99932, 215, 237, 230, 268
-0.999321, 289, 1, 352, 375
-0.999321, 403, 281, 418, 312
-0.999321, 355, 189, 370, 220
-0.999323, 229, 197, 244, 228
-0.999324, 401, 89, 464, 152
-0.999324, 461, 293, 476, 324
-0.99933, 307, 177, 322, 208
-0.999331, 229, 209, 260, 272
-0.999333, 281, 169, 296, 200
-0.999334, 119, 201, 134, 232
-0.999337, 109, 109, 124, 140
-0.999337, 273, 209, 288, 240
-0.999338, 241, 25, 368, 88
-0.999342, 237, 157, 252, 188
-0.999344, 133, 17, 148, 80
-0.999346, 339, 185, 354, 216
-0.999347, 371, 193, 386, 224
-0.999348, 101, 9, 116, 72
-0.999348, 265, 169, 280, 232
-0.999349, 371, 273, 386, 304
-0.999353, 107, 165, 122, 196
-0.999353, 325, 181, 340, 212
-0.999354, 295, 173, 310, 204
-0.999358, 169, 181, 184, 212
-0.999359, 401, 201, 416, 232
-0.99936, 45, 153, 76, 216
-0.999368, 185, 185, 200, 216
-0.999371, 103, 121, 118, 152
-0.999372, 251, 161, 266, 192
-0.999375, 479, 221, 494, 252
-0.999376, 419, 201, 434, 264
-0.999378, 485, 273, 500, 336
-0.999378, 387, 197, 402, 228
-0.999381, 93, 161, 108, 192
-0.999381, 481, 261, 496, 292
-0.999384, 307, 217, 322, 248
-0.999384, 83, 161, 98, 224
-0.999386, 259, 205, 274, 236
-0.999387, 143, 65, 158, 192
-0.999389, 401, 241, 416, 272
-0.99939, 163, 25, 178, 88
-0.99939, 123, 169, 138, 200
-0.999391, 321, 277, 448, 308
-0.999394, 139, 173, 154, 204
-0.999394, 235, 189, 250, 220
-0.999395, 353, 229, 368, 260
-0.999397, 151, 177, 166, 208
-0.999398, 147, 133, 162, 164
-0.999398, 477, 297, 492, 328
-0.999402, 199, 189, 214, 220
-0.999402, 307, 257, 322, 288
-0.999406, 79, 157, 94, 188
-0.999406, 3, 137, 18, 168
-0.99941, 291, 217, 306, 280
-0.999411, 69, 105, 84, 168
-0.999427, 315, 249, 330, 312
-0.999428, 335, 177, 350, 240
-0.999432, 1, 129, 128, 160
-0.999441, 49, 129, 80, 256
-0.999442, 111, 169, 126, 232
-0.999442, 383, 265, 398, 328
-0.999445, 305, 193, 432, 224
-0.999448, 359, 265, 374, 328
-0.999453, 395, 233, 410, 296
-0.999456, 235, 161, 250, 224
-0.99946, 433, 281, 496, 344
-0.99946, 217, 225, 232, 288
-0.999462, 97, 97, 352, 160
-0.999466, 417, 89, 432, 152
-0.999469, 295, 177, 310, 240
-0.999478, 257, 161, 384, 192
-0.999478, 185, 217, 200, 280
-0.999485, 153, 49, 168, 112
-0.99949, 479, 105, 494, 168
-0.999492, 115, 81, 130, 144
-0.999493, 29, 177, 44, 240
-0.999498, 149, 65, 164, 192
-0.9995, 9, 129, 72, 192
-0.999502, 51, 109, 66, 124
-0.999502, 195, 149, 210, 164
-0.999502, 89, 163, 104, 178
-0.999502, 201, 193, 216, 208
-0.999502, 143, 135, 158, 150
-0.999502, 43, 151, 58, 166
-0.999502, 211, 195, 226, 210
-0.999502, 165, 183, 180, 198
-0.999502, 351, 73, 366, 136
-0.999503, 5, 141, 20, 156
-0.999503, 149, 179, 164, 194
-0.999503, 171, 185, 186, 200
-0.999503, 177, 187, 192, 202
-0.999503, 137, 117, 152, 132
-0.999503, 119, 171, 134, 186
-0.999504, 57, 155, 72, 170
-0.999504, 277, 171, 292, 186
-0.999504, 269, 211, 284, 226
-0.999504, 93, 121, 108, 136
-0.999504, 247, 205, 262, 220
-0.999505, 29, 147, 44, 162
-0.999505, 357, 193, 372, 208
-0.999505, 429, 211, 444, 226
-0.999505, 105, 167, 120, 182
-0.999506, 91, 193, 106, 256
-0.999507, 395, 203, 410, 218
-0.999507, 107, 125, 122, 140
-0.999507, 337, 187, 352, 202
-0.999507, 381, 199, 396, 214
-0.999508, 233, 201, 248, 216
-0.999508, 167, 109, 182, 124
-0.999508, 21, 145, 36, 160
-0.999508, 133, 91, 148, 106
-0.999509, 85, 119, 100, 134
-0.999509, 321, 183, 336, 198
-0.999509, 255, 165, 270, 180
-0.999509, 267, 169, 282, 184
-0.999509, 35, 149, 50, 164
-0.99951, 373, 197, 388, 212
-0.99951, 343, 189, 358, 204
-0.99951, 185, 189, 200, 204
-0.999511, 215, 155, 230, 170
-0.999511, 305, 179, 320, 194
-0.999511, 313, 181, 328, 196
-0.999512, 417, 273, 432, 336
-0.999512, 161, 249, 288, 312
-0.999512, 141, 177, 156, 192
-0.999513, 79, 117, 94, 132
-0.999514, 261, 167, 276, 182
-0.999514, 195, 191, 210, 206
-0.999515, 329, 185, 344, 200
-0.999515, 197, 225, 212, 288
-0.999515, 289, 175, 304, 190
-0.999516, 115, 93, 130, 108
-0.999516, 297, 177, 312, 192
-0.999516, 125, 101, 140, 116
-0.999517, 131, 105, 146, 120
-0.999517, 163, 97, 178, 160
-0.999518, 349, 191, 364, 206
-0.999518, 137, 65, 152, 192
-0.99952, 9, 89, 24, 152
-0.999522, 143, 81, 158, 96
-0.999522, 155, 103, 170, 118
-0.999523, 129, 111, 144, 126
-0.999523, 205, 153, 220, 216
-0.999523, 147, 169, 162, 232
-0.999525, 1, 197, 128, 228
-0.999526, 115, 121, 130, 136
-0.999526, 117, 161, 132, 224
-0.999527, 385, 81, 400, 144
-0.999527, 121, 93, 136, 108
-0.999536, 11, 177, 26, 240
-0.999536, 191, 201, 206, 264
-0.999539, 485, 305, 500, 320
-0.99954, 121, 123, 136, 138
-0.999544, 479, 303, 494, 318
-0.999545, 63, 113, 78, 176
-0.999545, 159, 193, 174, 256
-0.999545, 403, 285, 418, 300
-0.999545, 471, 301, 486, 316
-0.999546, 137, 127, 152, 142
-0.999548, 351, 273, 366, 288
-0.999548, 449, 97, 464, 160
-0.999551, 161, 73, 288, 136
-0.999551, 413, 287, 428, 302
-0.999552, 147, 75, 162, 90
-0.999552, 309, 263, 324, 278
-0.999552, 145, 41, 160, 104
-0.999554, 377, 279, 392, 294
-0.999554, 341, 271, 356, 286
-0.999554, 229, 233, 244, 296
-0.999554, 361, 275, 376, 290
-0.999554, 395, 283, 410, 298
-0.999555, 461, 299, 476, 314
-0.999556, 445, 295, 460, 310
-0.999557, 453, 297, 468, 312
-0.999558, 437, 293, 452, 308
-0.999559, 45, 1, 76, 128
-0.999559, 385, 281, 400, 296
-0.999559, 213, 239, 228, 254
-0.99956, 417, 249, 432, 312
-0.999561, 269, 253, 284, 268
-0.999561, 429, 291, 444, 306
-0.999562, 335, 269, 350, 284
-0.999562, 369, 277, 384, 292
-0.999563, 63, 201, 78, 216
-0.999563, 145, 103, 160, 118
-0.999563, 327, 267, 342, 282
-0.999563, 273, 77, 400, 108
-0.999563, 285, 217, 316, 280
-0.999563, 259, 251, 274, 266
-0.999563, 421, 289, 436, 304
-0.999564, 253, 249, 268, 264
-0.999565, 319, 265, 334, 280
-0.999566, 301, 261, 316, 276
-0.999566, 141, 91, 156, 106
-0.999566, 281, 241, 296, 304
-0.999568, 165, 227, 180, 242
-0.999568, 277, 255, 292, 270
-0.999568, 293, 259, 308, 274
-0.999568, 177, 161, 304, 192
-0.999569, 175, 145, 190, 208
-0.999569, 485, 297, 500, 360
-0.99957, 127, 217, 142, 232
-0.99957, 221, 241, 236, 256
-0.999571, 245, 247, 260, 262
-0.999571, 55, 199, 70, 214
-0.999571, 227, 243, 242, 258
-0.999572, 161, 105, 176, 120
-0.999572, 157, 225, 172, 240
-0.999572, 81, 205, 96, 220
-0.999572, 141, 221, 156, 236
-0.999572, 187, 233, 202, 248
-0.999573, 197, 235, 212, 250
-0.999573, 285, 257, 300, 272
-0.999574, 87, 207, 102, 222
-0.999574, 237, 245, 252, 260
-0.999575, 203, 237, 218, 252
-0.999575, 71, 203, 86, 218
-0.999575, 195, 33, 210, 96
-0.999575, 41, 185, 56, 248
-0.999575, 173, 229, 188, 244
-0.999576, 133, 219, 148, 234
-0.999576, 181, 231, 196, 246
-0.999577, 27, 191, 42, 206
-0.999579, 149, 223, 164, 238
-0.99958, 111, 213, 126, 228
-0.99958, 119, 215, 134, 230
-0.999581, 133, 209, 148, 272
-0.999581, 293, 249, 308, 312
-0.999583, 197, 193, 212, 256
-0.999584, 95, 209, 110, 224
-0.999584, 33, 193, 48, 208
-0.999584, 51, 145, 66, 208
-0.999584, 97, 177, 112, 240
-0.999584, 3, 185, 18, 200
-0.999585, 41, 195, 56, 210
-0.999585, 103, 211, 118, 226
-0.999587, 49, 197, 64, 212
-0.999588, 19, 189, 34, 204
-0.999591, 305, 257, 432, 288
-0.999593, 151, 97, 166, 112
-0.999594, 347, 257, 362, 320
-0.999597, 11, 187, 26, 202
-0.999598, 131, 127, 146, 142
-0.999599, 127, 91, 142, 106
-0.9996, 227, 41, 242, 104
-0.999603, 319, 65, 334, 128
-0.999605, 67, 169, 82, 232
-0.999609, 127, 121, 142, 136
-0.999611, 461, 257, 476, 320
-0.999611, 135, 99, 150, 114
-0.999614, 17, 145, 32, 208
-0.999618, 109, 145, 140, 272
-0.999618, 61, 185, 76, 248
-0.999621, 355, 193, 370, 256
-0.999621, 119, 1, 134, 128
-0.999624, 433, 97, 496, 160
-0.999625, 1, 177, 32, 240
-0.999627, 289, 57, 304, 120
-0.999631, 1, 161, 32, 288
-0.999633, 259, 49, 274, 112
-0.999633, 165, 217, 180, 280
-0.999662, 53, 1, 68, 128
-0.999665, 193, 209, 224, 336
-0.999666, 257, 233, 384, 264
-0.999668, 149, 97, 180, 352
-0.999672, 131, 65, 146, 192
-0.999687, 317, 225, 348, 288
-0.999688, 1, 65, 128, 128
-0.999695, 337, 73, 400, 136
-0.999713, 145, 129, 272, 160
-0.999716, 165, 193, 196, 256
-0.999726, 329, 177, 344, 304
-0.999733, 297, 177, 328, 240
-0.999736, 113, 197, 240, 228
-0.999739, 1, 73, 256, 136
-0.999747, 13, 153, 44, 216
-0.999768, 305, 161, 432, 192
-0.999784, 131, 113, 146, 240
-0.999784, 369, 81, 496, 112
-0.999786, 225, 145, 352, 208
-0.999794, 1, 105, 128, 136
-0.999794, 135, 17, 150, 144
-0.999795, 17, 145, 144, 176
-0.999803, 327, 225, 342, 352
-0.999803, 261, 225, 276, 352
-0.999804, 195, 209, 210, 336
-0.999805, 397, 241, 412, 368
-0.999811, 33, 41, 160, 104
-0.999814, 157, 81, 172, 208
-0.999825, 133, 193, 148, 320
-0.999827, 69, 177, 84, 304
-0.99983, 5, 145, 20, 272
-0.999833, 289, 217, 416, 248
-0.999837, 17, 213, 144, 244
-0.99984, 125, 65, 140, 192
-0.999841, 393, 177, 408, 304
-0.999842, 145, 101, 272, 132
-0.999842, 269, 161, 284, 288
-0.999844, 175, 161, 190, 288
-0.999852, 125, 17, 140, 144
-0.999854, 365, 209, 380, 336
-0.999855, 305, 81, 432, 144
-0.999855, 257, 273, 384, 336
-0.999856, 353, 185, 480, 216
-0.999859, 233, 161, 264, 224
-0.999864, 55, 129, 70, 256
-0.999869, 457, 225, 472, 352
-0.999872, 153, 113, 184, 240
-0.999874, 141, 113, 156, 240
-0.999874, 125, 209, 156, 272
-0.999875, 93, 97, 108, 224
-0.999877, 151, 17, 166, 144
-0.999882, 129, 141, 256, 172
-0.999884, 305, 205, 432, 236
-0.999886, 237, 177, 252, 304
-0.999888, 149, 129, 164, 256
-0.999893, 209, 129, 224, 256
-0.999893, 429, 225, 444, 352
-0.9999, 141, 17, 156, 144
-0.999903, 73, 169, 104, 232
-0.999907, 33, 81, 48, 208
-0.999907, 113, 1, 128, 128
-0.999907, 377, 65, 392, 192
-0.999908, 183, 17, 198, 144
-0.999909, 399, 193, 414, 320
-0.999911, 113, 145, 128, 272
-0.999911, 63, 161, 78, 288
-0.999914, 335, 161, 350, 288
-0.999914, 301, 193, 316, 320
-0.999914, 127, 177, 142, 304
-0.999915, 59, 1, 74, 128
-0.999916, 121, 113, 136, 240
-0.999919, 65, 181, 192, 212
-0.999922, 463, 209, 478, 336
-0.999924, 89, 9, 152, 72
-0.999926, 313, 49, 328, 176
-0.999926, 255, 209, 270, 336
-0.999928, 305, 245, 432, 276
-0.999929, 1, 1, 128, 32
-0.999931, 189, 193, 204, 320
-0.999935, 201, 209, 216, 336
-0.999936, 33, 185, 64, 248
-0.999941, 391, 241, 406, 368
-0.999944, 245, 33, 260, 160
-0.999945, 321, 225, 336, 352
-0.99995, 195, 161, 210, 288
-0.999951, 263, 161, 278, 288
-0.999956, 161, 105, 288, 168
-0.999959, 49, 69, 176, 100
-0.999959, 323, 177, 338, 304
-0.99996, 387, 193, 402, 320
-0.999961, 11, 161, 26, 288
-0.999964, 49, 129, 64, 256
-0.999965, 333, 225, 348, 352
-0.999967, 317, 257, 348, 320
-0.99997, 439, 81, 454, 208
-0.999972, 119, 161, 134, 288
-0.999973, 97, 193, 160, 320
-0.999973, 9, 1, 72, 64
-0.999974, 169, 145, 184, 272
-0.999974, 75, 161, 90, 288
-0.999979, 403, 241, 418, 368
-0.999979, 203, 145, 218, 272
-0.999982, 267, 209, 282, 336
-0.999984, 177, 1, 192, 128
-0.999984, 87, 81, 102, 208
-0.999987, 181, 177, 196, 304
-0.999988, 457, 177, 472, 304
-0.999991, 139, 177, 154, 304
-0.999991, 257, 249, 500, 312
-0.999992, 371, 65, 386, 192
-0.999992, 359, 193, 374, 320
-0.999995, 69, 129, 84, 256
-0.999995, 193, 201, 448, 264
-0.999999, 47, 1, 62, 128
-1, 231, 161, 246, 288
-1, 423, 209, 438, 336
-1, 305, 33, 320, 160
-1.00001, 451, 177, 466, 304
-1.00001, 189, 1, 204, 128
-1.00001, 1, 145, 256, 208
-1.00001, 261, 217, 292, 280
-1.00001, 1, 165, 128, 196
-1.00001, 275, 145, 290, 272
-1.00001, 27, 65, 42, 192
-1.00002, 215, 113, 230, 240
-1.00002, 295, 177, 310, 304
-1.00002, 315, 1, 330, 128
-1.00002, 469, 225, 484, 352
-1.00003, 5, 97, 20, 224
-1.00003, 371, 193, 386, 320
-1.00003, 475, 225, 490, 352
-1.00003, 307, 177, 322, 304
-1.00003, 251, 33, 266, 160
-1.00003, 337, 113, 352, 240
-1.00004, 39, 65, 54, 192
-1.00004, 107, 129, 122, 256
-1.00004, 5, 193, 20, 320
-1.00004, 165, 97, 180, 224
-1.00004, 321, 69, 448, 100
-1.00004, 59, 81, 74, 208
-1.00004, 325, 113, 340, 240
-1.00004, 305, 65, 368, 128
-1.00004, 243, 161, 258, 288
-1.00004, 203, 81, 218, 208
-1.00005, 179, 113, 194, 240
-1.00005, 435, 209, 450, 336
-1.00005, 15, 113, 30, 240
-1.00006, 233, 1, 296, 375
-1.00006, 163, 33, 178, 160
-1.00006, 381, 17, 396, 144
-1.00006, 97, 49, 112, 176
-1.00007, 463, 145, 478, 272
-1.00007, 249, 177, 264, 304
-1.00007, 265, 97, 280, 224
-1.00007, 157, 17, 172, 144
-1.00007, 305, 229, 432, 260
-1.00007, 433, 1, 496, 375
-1.00007, 445, 65, 460, 192
-1.00007, 239, 17, 254, 144
-1.00007, 275, 97, 290, 224
-1.00008, 369, 17, 384, 144
-1.00008, 127, 225, 142, 352
-1.00008, 399, 129, 414, 256
-1.00008, 155, 129, 170, 256
-1.00008, 161, 1, 224, 256
-1.00008, 119, 49, 134, 176
-1.00008, 409, 241, 424, 368
-1.00009, 433, 65, 448, 192
-1.00009, 45, 81, 60, 208
-1.00009, 207, 193, 222, 320
-1.00009, 63, 209, 78, 336
-1.00009, 187, 145, 202, 272
-1.00009, 385, 129, 400, 256
-1.00009, 91, 33, 106, 160
-1.0001, 299, 129, 314, 256
-1.0001, 257, 161, 272, 288
-1.0001, 451, 225, 466, 352
-1.00012, 73, 1, 104, 256
-1.00012, 197, 201, 228, 264
-1.00013, 209, 233, 240, 296
-1.00015, 225, 65, 352, 96
-1.00015, 161, 253, 288, 284
-1.00015, 57, 1, 120, 256
-1.00016, 65, 205, 192, 236
-1.00016, 17, 65, 80, 320
-1.00016, 113, 241, 240, 272
-1.00018, 145, 73, 272, 104
-1.00019, 145, 173, 272, 204
-1.0002, 65, 229, 192, 260
-1.00021, 369, 269, 496, 300
-1.00021, 273, 277, 400, 308
-1.00021, 385, 241, 416, 304
-1.00022, 125, 65, 156, 320
-1.00023, 161, 65, 192, 320
-1.00026, 145, 137, 176, 200
-1.00026, 93, 201, 124, 264
-1.00029, 41, 65, 72, 320
-1.00029, 209, 65, 336, 128
-1.0003, 145, 117, 272, 148
-1.0003, 257, 149, 384, 180
-1.00033, 273, 65, 400, 96
-1.00034, 49, 169, 176, 200
-1.00035, 97, 169, 352, 232
-1.00036, 369, 69, 496, 100
-1.00036, 97, 169, 224, 200
-1.00036, 125, 121, 156, 184
-1.00037, 193, 265, 320, 296
-1.00037, 129, 1, 192, 375
-1.00039, 33, 13, 160, 44
-1.00039, 97, 1, 352, 128
-1.0004, 209, 149, 336, 180
-1.0004, 237, 177, 268, 304
-1.00041, 417, 185, 480, 248
-1.00043, 353, 257, 480, 288
-1.00043, 193, 1, 224, 256
-1.00044, 369, 245, 496, 276
-1.00044, 353, 113, 480, 144
-1.00045, 353, 173, 480, 204
-1.00046, 337, 217, 464, 248
-1.00047, 369, 197, 496, 228
-1.00047, 25, 1, 56, 64
-1.00048, 157, 217, 188, 280
-1.00048, 285, 249, 316, 312
-1.00049, 129, 97, 384, 224
-1.00049, 205, 1, 236, 256
-1.00049, 257, 53, 384, 84
-1.00051, 81, 17, 208, 48
-1.00052, 133, 185, 164, 248
-1.00052, 65, 1, 192, 32
-1.00052, 221, 233, 252, 296
-1.00052, 369, 301, 496, 332
-1.00053, 113, 57, 240, 88
-1.00053, 113, 1, 144, 256
-1.00054, 33, 57, 160, 88
-1.00054, 321, 169, 448, 232
-1.00054, 385, 273, 416, 336
-1.00055, 97, 137, 160, 200
-1.00055, 305, 289, 432, 320
-1.00055, 205, 153, 236, 216
-1.00055, 161, 33, 224, 160
-1.00055, 193, 53, 320, 84
-1.00057, 113, 33, 240, 64
-1.00057, 257, 225, 288, 352
-1.00057, 305, 101, 432, 132
-1.00058, 173, 145, 204, 208
-1.00058, 17, 345, 144, 375
-1.00059, 353, 81, 480, 144
-1.0006, 129, 157, 256, 188
-1.0006, 321, 125, 448, 156
-1.0006, 321, 177, 352, 304
-1.00062, 253, 241, 284, 304
-1.00063, 57, 113, 88, 176
-1.00064, 445, 209, 476, 336
-1.00064, 65, 177, 96, 304
-1.00064, 369, 161, 496, 224
-1.00065, 49, 193, 176, 224
-1.00065, 305, 53, 432, 84
-1.00065, 149, 1, 180, 256
-1.00066, 265, 137, 328, 200
-1.00066, 33, 33, 160, 64
-1.00066, 209, 121, 336, 152
-1.00067, 1, 117, 128, 148
-1.00068, 161, 17, 288, 48
-1.00068, 225, 81, 352, 112
-1.00068, 273, 133, 400, 164
-1.00068, 81, 149, 208, 180
-1.00069, 349, 265, 380, 328
-1.00069, 417, 281, 448, 344
-1.00069, 193, 133, 320, 164
-1.0007, 321, 13, 448, 44
-1.0007, 97, 257, 224, 288
-1.0007, 113, 1, 240, 32
-1.0007, 161, 37, 288, 68
-1.00071, 273, 89, 400, 120
-1.00072, 325, 241, 356, 368
-1.00074, 113, 97, 144, 352
-1.00074, 225, 37, 352, 68
-1.00074, 129, 273, 384, 336
-1.00074, 97, 273, 224, 304
-1.00075, 337, 137, 464, 168
-1.00075, 441, 97, 472, 352
-1.00076, 353, 317, 480, 348
-1.00076, 353, 233, 480, 264
-1.00076, 209, 5, 336, 36
-1.00076, 201, 145, 232, 272
-1.00076, 257, 161, 288, 288
-1.00077, 353, 57, 480, 88
-1.00077, 29, 65, 60, 320
-1.00078, 49, 241, 176, 272
-1.00078, 17, 273, 144, 304
-1.00078, 161, 289, 288, 320
-1.00078, 261, 129, 292, 375
-1.00078, 401, 1, 464, 375
-1.00078, 89, 97, 120, 224
-1.00079, 257, 1, 384, 32
-1.00079, 193, 109, 320, 140
-1.00079, 353, 157, 480, 188
-1.0008, 129, 193, 160, 320
-1.0008, 257, 109, 384, 140
-1.0008, 257, 121, 384, 152
-1.00081, 317, 65, 348, 320
-1.00082, 265, 169, 296, 232
-1.00083, 449, 289, 480, 352
-1.00083, 321, 41, 448, 104
-1.00084, 65, 121, 320, 184
-1.00087, 193, 177, 448, 240
-1.00087, 1, 1, 32, 256
-1.0009, 273, 145, 400, 208
-1.0009, 85, 1, 116, 256
-1.0009, 65, 249, 320, 312
-1.00092, 237, 129, 268, 375
-1.00093, 193, 97, 224, 352
-1.00093, 101, 129, 132, 375
-1.00093, 1, 81, 128, 208
-1.00093, 453, 65, 484, 320
-1.00094, 177, 225, 208, 288
-1.00095, 257, 17, 500, 80
-1.00096, 141, 17, 172, 144
-1.00097, 381, 193, 412, 256
-1.00098, 233, 137, 296, 200
-1.00098, 25, 105, 56, 168
-1.001, 289, 129, 320, 375
-1.001, 449, 257, 480, 320
-1.001, 29, 81, 60, 208
-1.00101, 177, 113, 240, 176
-1.00101, 65, 129, 96, 375
-1.00101, 129, 1, 192, 64
-1.00102, 333, 65, 364, 320
-1.00104, 277, 97, 308, 352
-1.00105, 1, 73, 500, 136
-1.00106, 369, 57, 496, 120
-1.00106, 97, 33, 128, 288
-1.00108, 53, 129, 84, 375
-1.00108, 209, 1, 272, 375
-1.00108, 381, 193, 412, 320
-1.00109, 393, 65, 424, 320
-1.00111, 361, 97, 392, 352
-1.00111, 249, 33, 280, 288
-1.00112, 429, 273, 460, 336
-1.00112, 53, 33, 84, 288
-1.00115, 217, 129, 248, 375
-1.00116, 241, 145, 368, 272
-1.00117, 301, 129, 332, 375
-1.00117, 41, 89, 104, 152
-1.00117, 277, 1, 308, 256
-1.00118, 373, 129, 404, 375
-1.00118, 149, 33, 180, 96
-1.00118, 1, 121, 500, 184
-1.00119, 61, 193, 92, 256
-1.0012, 353, 233, 384, 296
-1.0012, 437, 1, 468, 256
-1.00122, 465, 129, 496, 375
-1.00124, 273, 49, 400, 176
-1.00124, 257, 121, 384, 184
-1.00124, 173, 97, 204, 352
-1.00125, 1, 97, 32, 352
-1.00127, 49, 241, 176, 304
-1.00128, 249, 33, 312, 96
-1.0013, 373, 33, 404, 288
-1.00131, 237, 33, 268, 288
-1.00132, 337, 105, 464, 168
-1.00133, 421, 129, 452, 375
-1.00133, 257, 81, 384, 144
-1.00134, 289, 241, 352, 368
-1.00135, 349, 185, 380, 248
-1.00137, 153, 81, 216, 208
-1.00137, 433, 217, 496, 280
-1.00137, 257, 153, 500, 216
-1.00138, 273, 57, 336, 120
-1.00139, 1, 225, 128, 288
-1.0014, 77, 97, 108, 352
-1.0014, 257, 1, 384, 64
-1.0014, 181, 209, 212, 336
-1.0014, 329, 233, 360, 296
-1.0014, 97, 273, 224, 336
-1.00142, 241, 241, 272, 304
-1.00142, 249, 129, 280, 375
-1.00143, 369, 1, 432, 375
-1.00144, 257, 193, 320, 256
-1.00145, 17, 1, 48, 256
-1.00145, 265, 1, 296, 256
-1.00145, 1, 49, 256, 112
-1.00145, 225, 49, 288, 112
-1.00146, 305, 1, 336, 256
-1.00147, 209, 65, 336, 192
-1.00147, 345, 33, 376, 288
-1.00147, 173, 1, 204, 256
-1.00147, 137, 129, 168, 375
-1.00149, 129, 145, 384, 208
-1.00149, 33, 297, 288, 360
-1.0015, 221, 1, 252, 256
-1.0015, 465, 1, 496, 256
-1.00151, 297, 225, 328, 288
-1.00152, 425, 1, 456, 256
-1.00153, 205, 97, 236, 352
-1.00153, 337, 65, 464, 192
-1.00155, 409, 241, 440, 304
-1.00156, 17, 273, 144, 336
-1.00156, 345, 129, 376, 375
-1.00158, 361, 1, 392, 256
-1.00159, 313, 161, 376, 288
-1.00159, 185, 209, 248, 336
-1.00161, 409, 209, 440, 272
-1.00161, 293, 33, 324, 288
-1.00161, 225, 297, 480, 360
-1.00161, 405, 97, 436, 352
-1.00162, 161, 121, 416, 184
-1.00163, 409, 1, 440, 256
-1.00164, 129, 41, 160, 104
-1.00165, 313, 241, 344, 368
-1.00167, 353, 137, 480, 200
-1.00168, 13, 97, 44, 352
-1.00169, 33, 113, 96, 176
-1.00169, 161, 273, 288, 336
-1.00169, 249, 225, 312, 352
-1.00171, 421, 201, 452, 264
-1.00171, 129, 1, 160, 128
-1.00172, 17, 313, 144, 375
-1.00172, 33, 273, 288, 336
-1.00173, 209, 177, 240, 240
-1.00174, 89, 129, 120, 375
-1.00175, 257, 129, 500, 192
-1.00175, 245, 225, 276, 352
-1.00175, 1, 97, 32, 160
-1.00176, 145, 217, 176, 280
-1.00176, 265, 129, 328, 375
-1.00177, 117, 193, 148, 320
-1.0018, 321, 17, 448, 80
-1.00181, 185, 97, 248, 352
-1.00183, 129, 297, 384, 360
-1.00185, 89, 129, 120, 192
-1.00185, 1, 97, 500, 160
-1.00186, 177, 1, 240, 375
-1.00187, 325, 185, 356, 248
-1.00187, 281, 161, 344, 224
-1.00188, 441, 217, 472, 280
-1.00189, 97, 313, 224, 375
-1.0019, 145, 297, 272, 360
-1.00191, 161, 161, 192, 288
-1.00193, 305, 65, 368, 320
-1.00195, 57, 137, 120, 200
-1.00195, 249, 201, 280, 264
-1.00195, 209, 97, 336, 160
-1.00196, 297, 193, 328, 320
-1.00197, 149, 161, 180, 224
-1.00199, 1, 153, 500, 216
-1.002, 249, 65, 312, 128
-1.00203, 113, 161, 176, 224
-1.00204, 65, 89, 128, 152
-1.00206, 101, 121, 132, 184
-1.00207, 21, 185, 52, 248
-1.00207, 233, 217, 296, 280
-1.0021, 273, 249, 304, 312
-1.0021, 53, 177, 84, 304
-1.00211, 1, 81, 64, 208
-1.00211, 305, 257, 336, 320
-1.00212, 161, 33, 192, 160
-1.00213, 17, 1, 80, 375
-1.00214, 225, 305, 352, 368
-1.00216, 309, 153, 340, 216
-1.00217, 153, 1, 216, 375
-1.00218, 185, 1, 248, 128
-1.00222, 361, 257, 392, 320
-1.00227, 145, 25, 208, 88
-1.00228, 77, 113, 108, 240
-1.00228, 221, 129, 252, 192
-1.00229, 409, 233, 472, 296
-1.00233, 97, 249, 224, 312
-1.00234, 361, 185, 392, 248
-1.00235, 57, 1, 88, 64
-1.00235, 113, 65, 144, 128
-1.00236, 421, 241, 452, 304
-1.00236, 225, 177, 256, 304
-1.00236, 245, 177, 276, 240
-1.00236, 353, 313, 480, 375
-1.00237, 289, 65, 352, 192
-1.00238, 369, 33, 496, 96
-1.00238, 65, 97, 128, 352
-1.00239, 373, 273, 404, 336
-1.0024, 305, 305, 432, 368
-1.00241, 177, 1, 304, 128
-1.00241, 225, 1, 352, 128
-1.00241, 309, 177, 340, 304
-1.00242, 313, 1, 376, 375
-1.00242, 129, 97, 384, 352
-1.00243, 1, 249, 128, 312
-1.00244, 177, 33, 240, 96
-1.00244, 369, 1, 496, 64
-1.00245, 1, 49, 500, 112
-1.00245, 193, 177, 256, 240
-1.00246, 281, 33, 344, 96
-1.00248, 105, 201, 136, 264
-1.0025, 461, 281, 492, 344
-1.00251, 209, 281, 336, 344
-1.00252, 405, 209, 436, 336
-1.00253, 157, 121, 188, 184
-1.00254, 29, 129, 60, 192
-1.00254, 57, 137, 88, 200
-1.00255, 217, 25, 280, 88
-1.00255, 409, 65, 472, 128
-1.00255, 433, 97, 496, 352
-1.00257, 285, 169, 316, 232
-1.00258, 337, 257, 368, 320
-1.0026, 1, 273, 500, 336
-1.00262, 193, 49, 448, 176
-1.00267, 213, 113, 244, 240
-1.00269, 81, 1, 144, 256
-1.00269, 97, 9, 128, 72
-1.00269, 1, 193, 500, 256
-1.00271, 45, 177, 76, 240
-1.00276, 313, 41, 376, 104
-1.00278, 233, 129, 296, 375
-1.0028, 393, 177, 424, 304
-1.00281, 397, 185, 428, 248
-1.00282, 453, 209, 484, 272
-1.00284, 345, 1, 408, 375
-1.00285, 433, 209, 464, 336
-1.00285, 377, 57, 440, 120
-1.00285, 181, 17, 212, 144
-1.00287, 469, 217, 500, 280
-1.00289, 281, 145, 312, 208
-1.0029, 313, 177, 344, 240
-1.0029, 13, 73, 44, 136
-1.00291, 409, 97, 440, 160
-1.00291, 1, 217, 500, 280
-1.00295, 397, 265, 428, 328
-1.00295, 361, 209, 392, 336
-1.00295, 121, 177, 184, 304
-1.00298, 117, 153, 148, 216
-1.00298, 177, 169, 208, 232
-1.00299, 345, 49, 408, 112
-1.003, 417, 225, 448, 352
-1.00302, 1, 25, 500, 88
-1.00305, 273, 193, 304, 256
-1.00306, 249, 137, 280, 200
-1.00306, 185, 9, 248, 72
-1.00309, 381, 241, 412, 368
-1.0031, 1, 249, 500, 312
-1.0032, 305, 129, 432, 256
-1.0032, 1, 1, 500, 64
-1.00322, 217, 201, 248, 264
-1.00325, 1, 1, 256, 128
-1.00325, 269, 161, 300, 288
-1.00325, 17, 97, 48, 224
-1.00325, 1, 121, 32, 184
-1.00327, 333, 193, 364, 320
-1.00337, 221, 161, 252, 224
-1.00338, 37, 129, 68, 256
-1.00338, 433, 73, 496, 136
-1.00338, 161, 25, 192, 88
-1.0034, 141, 1, 172, 64
-1.00341, 81, 193, 112, 256
-1.00341, 69, 1, 100, 64
-1.00344, 129, 17, 160, 80
-1.0035, 41, 89, 72, 152
-1.0035, 189, 121, 220, 184
-1.00352, 201, 129, 264, 192
-1.00355, 97, 145, 128, 272
-1.00356, 153, 185, 184, 248
-1.00357, 461, 257, 492, 320
-1.00358, 385, 153, 448, 216
-1.00358, 469, 225, 500, 352
-1.0036, 341, 161, 372, 224
-1.00362, 37, 1, 68, 64
-1.00363, 73, 89, 104, 152
-1.00363, 313, 145, 376, 208
-1.00365, 233, 33, 264, 160
-1.00366, 161, 1, 224, 64
-1.00367, 301, 65, 332, 192
-1.00368, 365, 233, 396, 296
-1.00371, 309, 65, 340, 128
-1.00372, 1, 313, 500, 375
-1.00373, 81, 97, 144, 224
-1.00374, 173, 9, 204, 72
-1.00374, 397, 241, 428, 304
-1.00374, 417, 161, 480, 224
-1.00375, 109, 49, 140, 176
-1.00378, 117, 17, 148, 80
-1.00379, 353, 241, 416, 368
-1.00383, 349, 209, 380, 336
-1.00384, 161, 65, 192, 128
-1.00384, 93, 169, 124, 232
-1.00384, 393, 209, 424, 272
-1.00387, 393, 241, 424, 368
-1.00387, 33, 153, 64, 216
-1.00388, 189, 145, 220, 272
-1.00389, 365, 161, 396, 224
-1.0039, 365, 65, 396, 192
-1.00391, 193, 33, 224, 96
-1.00391, 457, 193, 488, 320
-1.00391, 393, 129, 456, 375
-1.00393, 121, 129, 152, 256
-1.00397, 433, 185, 464, 248
-1.00402, 285, 193, 316, 320
-1.00417, 109, 97, 140, 224
-1.00419, 17, 81, 80, 144
-1.00422, 273, 113, 336, 240
-1.00426, 161, 73, 224, 136
-1.00432, 249, 1, 280, 128
-1.00434, 273, 1, 400, 128
-1.00434, 337, 1, 464, 128
-1.00444, 33, 1, 64, 128
-1.00445, 409, 81, 472, 208
-1.00446, 353, 145, 416, 208
-1.00451, 41, 65, 104, 192
-1.00453, 13, 145, 44, 272
-1.00456, 433, 97, 464, 224
-1.00456, 201, 49, 264, 112
-1.00458, 113, 129, 176, 375
-1.00461, 377, 33, 408, 160
-1.00462, 33, 57, 96, 120
-1.00468, 333, 145, 364, 272
-1.00473, 369, 161, 400, 288
-1.00473, 13, 33, 44, 160
-1.00476, 33, 137, 96, 200
-1.00478, 241, 129, 272, 256
-1.00479, 193, 1, 448, 128
-1.00487, 233, 113, 296, 176
-1.0049, 209, 33, 272, 160
-1.00492, 281, 145, 312, 272
-1.00508, 1, 97, 32, 224
-1.00508, 461, 145, 492, 272
-1.00509, 433, 161, 464, 288
-1.0051, 49, 1, 112, 128
-1.00513, 305, 129, 336, 256
-1.00513, 289, 129, 352, 192
-1.00513, 337, 81, 400, 208
-1.00514, 25, 209, 88, 272
-1.00514, 173, 113, 204, 240
-1.00515, 249, 9, 312, 72
-1.00516, 353, 145, 480, 272
-1.00517, 249, 17, 312, 144
-1.00524, 397, 129, 428, 256
-1.00524, 189, 81, 220, 208
-1.00529, 345, 97, 408, 352
-1.00529, 317, 1, 348, 128
-1.00531, 353, 17, 384, 144
-1.00532, 61, 113, 92, 240
-1.00539, 253, 113, 284, 240
-1.00541, 57, 217, 120, 280
-1.00543, 233, 33, 296, 288
-1.00544, 401, 113, 464, 176
-1.00552, 9, 57, 72, 120
-1.00562, 269, 209, 300, 336
-1.00565, 193, 1, 256, 256
-1.00568, 1, 49, 256, 176
-1.00569, 433, 305, 496, 368
-1.00585, 445, 33, 476, 160
-1.00585, 313, 33, 376, 160
-1.00586, 89, 129, 152, 375
-1.00586, 421, 65, 452, 192
-1.00587, 137, 1, 200, 256
-1.00588, 213, 161, 244, 288
-1.00588, 69, 49, 100, 176
-1.0059, 293, 1, 324, 128
-1.0059, 217, 257, 280, 320
-1.00591, 257, 113, 320, 176
-1.00593, 273, 1, 336, 256
-1.00594, 1, 201, 64, 264
-1.00599, 273, 97, 304, 224
-1.00601, 433, 49, 496, 176
-1.00601, 89, 225, 152, 288
-1.00604, 433, 121, 496, 184
-1.00604, 77, 161, 108, 288
-1.0061, 97, 49, 128, 176
-1.00615, 313, 49, 344, 176
-1.00618, 409, 305, 472, 368
-1.00618, 349, 161, 380, 288
-1.0062, 329, 97, 360, 224
-1.0062, 161, 81, 288, 208
-1.00624, 217, 1, 280, 64
-1.00627, 41, 49, 72, 176
-1.00629, 33, 297, 96, 360
-1.0063, 377, 49, 440, 176
-1.00631, 209, 105, 272, 168
-1.00633, 273, 9, 336, 72
-1.00633, 417, 161, 480, 288
-1.00636, 153, 241, 216, 304
-1.00638, 249, 265, 312, 328
-1.00645, 141, 161, 172, 288
-1.00647, 329, 1, 392, 256
-1.00652, 385, 129, 448, 256
-1.00656, 209, 65, 240, 192
-1.00664, 245, 49, 276, 176
-1.00673, 289, 65, 320, 192
-1.00673, 385, 1, 448, 256
-1.00674, 457, 241, 488, 368
-1.00674, 57, 1, 88, 128
-1.00675, 317, 113, 348, 240
-1.00682, 381, 81, 412, 208
-1.00684, 193, 1, 224, 128
-1.00684, 445, 97, 476, 224
-1.00684, 409, 1, 472, 256
-1.00689, 353, 81, 384, 208
-1.00691, 41, 129, 104, 375
-1.00691, 421, 17, 452, 144
-1.00691, 57, 65, 88, 192
-1.00695, 337, 129, 400, 256
-1.00718, 225, 97, 480, 224
-1.00722, 221, 1, 252, 128
-1.00725, 369, 113, 400, 240
-1.00733, 225, 113, 256, 240
-1.00736, 205, 1, 236, 128
-1.00742, 413, 161, 444, 288
-1.00745, 81, 17, 112, 144
-1.00753, 293, 129, 324, 256
-1.00756, 225, 97, 288, 224
-1.00772, 161, 97, 224, 352
-1.00775, 405, 1, 436, 128
-1.00779, 233, 225, 264, 352
-1.00779, 301, 241, 332, 368
-1.00784, 41, 177, 72, 304
-1.00786, 201, 81, 264, 208
-1.00787, 205, 209, 236, 336
-1.00789, 265, 65, 328, 192
-1.00792, 45, 241, 76, 368
-1.00794, 389, 33, 420, 160
-1.00798, 57, 225, 88, 352
-1.00799, 445, 145, 476, 272
-1.008, 105, 193, 136, 320
-1.00802, 393, 1, 456, 128
-1.00802, 209, 129, 272, 375
-1.00805, 221, 49, 252, 176
-1.00805, 305, 1, 336, 128
-1.00806, 69, 1, 100, 128
-1.00815, 273, 1, 336, 128
-1.00819, 57, 209, 120, 336
-1.00832, 65, 241, 192, 368
-1.00832, 353, 1, 416, 256
-1.00836, 257, 97, 384, 224
-1.0086, 9, 177, 72, 304
-1.00868, 433, 1, 496, 256
-1.00923, 369, 129, 432, 375
-1.0093, 1, 241, 128, 368
-1.00968, 361, 1, 424, 128
-1.00983, 433, 1, 496, 128
-1.00991, 33, 225, 96, 352
-1.00991, 121, 225, 184, 352
-1.01, 337, 1, 400, 128
-1.01055, 433, 97, 496, 224
-1.01071, 361, 145, 424, 272
-1.01119, 1, 1, 64, 128
-1.01126, 361, 97, 424, 224
-1.01195, 313, 113, 376, 240
-1.01201, 1, 225, 64, 352
-1.0127, 65, 49, 128, 176
-1.01387, 89, 241, 152, 368
-1.01474, 177, 81, 240, 208
-1.02527, 257, 129, 500, 375
-1.04, 33, 1, 288, 256
-1.07481, 257, 1, 500, 256
