1949
-0.331221, 1, 1, 500, 375
-0.454918, 1, 1, 500, 256
-0.508158, 1, 1, 256, 375
-0.531809, 97, 1, 352, 375
-0.559612, 1, 129, 500, 375
-0.625032, 225, 1, 480, 375
-0.638058, 1, 1, 256, 256
-0.731317, 97, 33, 352, 288
-0.745329, 257, 1, 500, 256
-0.764946, 1, 97, 256, 352
-0.79585, 257, 129, 500, 375
-0.808901, 97, 129, 352, 375
-0.86952, 113, 1, 240, 256
-0.87762, 193, 1, 320, 375
-0.881302, 33, 1, 160, 256
-0.883985, 49, 1, 176, 375
-0.887167, 113, 1, 240, 375
-0.887405, 273, 1, 400, 375
-0.888576, 1, 1, 128, 375
-0.892851, 241, 1, 368, 256
-0.893332, 81, 129, 208, 375
-0.894174, 337, 1, 464, 256
-0.895308, 129, 129, 256, 375
-0.897385, 161, 33, 288, 288
-0.89758, 353, 1, 480, 375
-0.902048, 33, 129, 160, 375
-0.909961, 289, 1, 416, 256
-0.912899, 273, 129, 400, 375
-0.915271, 1, 17, 500, 144
-0.922494, 1, 241, 500, 368
-0.926067, 321, 129, 448, 375
-0.926604, 1, 193, 500, 320
-0.928166, 209, 97, 336, 352
-0.932291, 369, 129, 496, 375
-0.933571, 1, 113, 256, 240
-0.936103, 1, 241, 256, 368
-0.939624, 1, 145, 500, 272
-0.94009, 97, 225, 352, 352
-0.941042, 1, 97, 500, 224
-0.943115, 1, 33, 256, 160
-0.947519, 257, 161, 500, 288
-0.947889, 97, 177, 352, 304
-0.951645, 49, 225, 176, 352
-0.952207, 129, 113, 384, 240
-0.953593, 257, 17, 500, 144
-0.954047, 1, 209, 128, 336
-0.954742, 105, 241, 168, 368
-0.95535, 145, 225, 208, 352
-0.955463, 17, 241, 80, 368
-0.956017, 97, 33, 352, 160
-0.956198, 25, 313, 88, 375
-0.956526, 57, 193, 120, 320
-0.956655, 1, 305, 64, 368
-0.956972, 369, 177, 496, 304
-0.958563, 73, 241, 136, 368
-0.958579, 289, 161, 416, 288
-0.960434, 145, 193, 272, 320
-0.960448, 97, 225, 224, 352
-0.960457, 169, 209, 232, 336
-0.960733, 193, 225, 448, 352
-0.96115, 1, 177, 256, 304
-0.961376, 73, 145, 136, 272
-0.961431, 65, 145, 192, 272
-0.961677, 241, 129, 368, 256
-0.962122, 41, 241, 104, 368
-0.962146, 49, 289, 112, 352
-0.962596, 1, 281, 64, 344
-0.962986, 425, 193, 488, 320
-0.963122, 161, 145, 288, 272
-0.96327, 17, 161, 144, 288
-0.963385, 113, 33, 240, 160
-0.963865, 161, 113, 224, 240
-0.964334, 25, 289, 88, 352
-0.964674, 225, 97, 480, 224
-0.964859, 49, 33, 112, 160
-0.965424, 113, 97, 240, 224
-0.965659, 289, 177, 352, 304
-0.965752, 49, 17, 176, 144
-0.966177, 257, 209, 320, 336
-0.966387, 9, 33, 72, 160
-0.966699, 49, 145, 112, 272
-0.966733, 113, 145, 240, 272
-0.966811, 49, 313, 112, 375
-0.967282, 273, 129, 336, 256
-0.96756, 113, 145, 176, 272
-0.967835, 25, 145, 88, 272
-0.967896, 17, 113, 144, 240
-0.96801, 385, 193, 448, 320
-0.968705, 161, 161, 224, 288
-0.968778, 57, 169, 120, 232
-0.968796, 81, 97, 144, 224
-0.968862, 33, 193, 96, 320
-0.969102, 153, 33, 216, 160
-0.969167, 89, 233, 152, 296
-0.969401, 1, 193, 64, 320
-0.969411, 1, 33, 128, 160
-0.969424, 281, 193, 344, 256
-0.969529, 33, 153, 96, 216
-0.969578, 17, 297, 144, 360
-0.969746, 193, 241, 256, 368
-0.969875, 145, 161, 208, 224
-0.969882, 121, 257, 184, 320
-0.969888, 145, 241, 272, 368
-0.970037, 1, 145, 64, 272
-0.970085, 265, 313, 328, 375
-0.970114, 393, 201, 456, 264
-0.970143, 225, 209, 352, 336
-0.970163, 353, 177, 416, 240
-0.970236, 73, 297, 136, 360
-0.970296, 337, 129, 464, 256
-0.970397, 353, 241, 480, 368
-0.970425, 201, 113, 264, 240
-0.97051, 129, 137, 192, 200
-0.970528, 161, 33, 288, 160
-0.97056, 305, 225, 368, 352
-0.970813, 121, 105, 184, 168
-0.970816, 313, 177, 376, 304
-0.970924, 9, 137, 72, 200
-0.970973, 417, 145, 480, 272
-0.971053, 81, 153, 144, 216
-0.971093, 1, 177, 64, 240
-0.971395, 89, 193, 152, 320
-0.9715, 337, 241, 400, 368
-0.971545, 313, 153, 376, 216
-0.971653, 9, 297, 40, 360
-0.971666, 289, 113, 416, 240
-0.971675, 241, 17, 368, 144
-0.971696, 49, 97, 112, 224
-0.971731, 153, 209, 216, 272
-0.971869, 25, 97, 88, 224
-0.971881, 169, 169, 232, 232
-0.972395, 49, 193, 112, 256
-0.972405, 177, 33, 240, 160
-0.972454, 233, 177, 296, 304
-0.972481, 425, 201, 488, 264
-0.972541, 289, 225, 416, 352
-0.972615, 113, 97, 176, 224
-0.972862, 177, 201, 240, 264
-0.972867, 401, 241, 464, 368
-0.972963, 121, 297, 184, 360
-0.973009, 217, 241, 280, 368
-0.973019, 369, 17, 496, 144
-0.973128, 73, 17, 136, 144
-0.973205, 225, 297, 288, 360
-0.97328, 137, 113, 200, 240
-0.973305, 417, 225, 480, 288
-0.973341, 41, 105, 104, 168
-0.973359, 433, 249, 496, 312
-0.973417, 1, 257, 64, 320
-0.973474, 321, 17, 448, 144
-0.973511, 353, 177, 416, 304
-0.973527, 241, 193, 304, 256
-0.973573, 433, 177, 496, 240
-0.973762, 393, 249, 456, 312
-0.974034, 161, 241, 224, 304
-0.974219, 289, 161, 352, 224
-0.97443, 193, 177, 256, 240
-0.974456, 97, 17, 160, 144
-0.974512, 113, 193, 176, 320
-0.974567, 161, 97, 288, 224
-0.974569, 289, 297, 352, 360
-0.974687, 425, 241, 488, 368
-0.974744, 33, 265, 96, 328
-0.97488, 161, 313, 224, 375
-0.974952, 289, 17, 352, 144
-0.974986, 313, 185, 376, 248
-0.974991, 153, 265, 216, 328
-0.975008, 201, 193, 264, 320
-0.975128, 53, 313, 84, 375
-0.975162, 41, 217, 104, 280
-0.975233, 297, 249, 360, 312
-0.975256, 137, 177, 200, 304
-0.975265, 201, 33, 264, 160
-0.97534, 233, 129, 296, 256
-0.975527, 153, 129, 216, 192
-0.975598, 9, 217, 72, 280
-0.975687, 305, 129, 368, 192
-0.975758, 49, 129, 112, 192
-0.975762, 433, 273, 496, 336
-0.975861, 209, 153, 272, 216
-0.975984, 89, 129, 152, 192
-0.97602, 33, 169, 160, 232
-0.9761, 281, 225, 344, 352
-0.976179, 369, 241, 432, 368
-0.976265, 105, 209, 168, 272
-0.976333, 265, 145, 328, 208
-0.976458, 393, 169, 456, 232
-0.976479, 129, 217, 192, 280
-0.976565, 25, 177, 88, 240
-0.976569, 329, 273, 392, 336
-0.976623, 57, 1, 120, 256
-0.976708, 17, 1, 80, 256
-0.976807, 201, 209, 264, 272
-0.976863, 313, 129, 376, 256
-0.976928, 129, 33, 192, 160
-0.976958, 249, 273, 312, 336
-0.976965, 361, 201, 424, 264
-0.97697, 97, 297, 160, 360
-0.977144, 337, 313, 400, 375
-0.977433, 289, 169, 416, 232
-0.977793, 145, 105, 208, 168
-0.977818, 305, 273, 368, 336
-0.977843, 177, 145, 240, 208
-0.978043, 241, 217, 304, 280
-0.978089, 21, 297, 52, 360
-0.978126, 65, 81, 192, 208
-0.978164, 1, 113, 64, 176
-0.978247, 65, 265, 128, 328
-0.978318, 113, 169, 176, 232
-0.978343, 145, 289, 208, 352
-0.978416, 109, 297, 140, 360
-0.978592, 241, 33, 304, 160
-0.978618, 73, 193, 136, 256
-0.978622, 353, 153, 416, 216
-0.978724, 369, 249, 432, 312
-0.978762, 169, 1, 232, 256
-0.978792, 409, 17, 472, 144
-0.978931, 65, 297, 192, 360
-0.979153, 337, 249, 400, 312
-0.9792, 65, 233, 128, 296
-0.979239, 33, 129, 96, 375
-0.979275, 337, 17, 400, 144
-0.979276, 121, 1, 184, 256
-0.979326, 249, 81, 312, 208
-0.979357, 337, 225, 400, 288
-0.979361, 65, 297, 96, 360
-0.979385, 137, 185, 200, 248
-0.979402, 49, 289, 80, 352
-0.979414, 89, 273, 152, 336
-0.979589, 225, 273, 288, 336
-0.97966, 361, 273, 424, 336
-0.979743, 81, 1, 144, 256
-0.979814, 225, 313, 352, 375
-0.979868, 201, 233, 264, 296
-0.979878, 13, 241, 44, 368
-0.97992, 241, 81, 368, 208
-0.979935, 185, 273, 248, 336
-0.980138, 85, 281, 116, 344
-0.980147, 465, 201, 496, 264
-0.980184, 65, 273, 192, 336
-0.98027, 33, 313, 64, 375
-0.980363, 401, 273, 464, 336
-0.980395, 369, 193, 496, 256
-0.980447, 89, 129, 152, 375
-0.980494, 81, 225, 112, 352
-0.980495, 313, 305, 376, 368
-0.980563, 393, 129, 456, 256
-0.980724, 265, 225, 328, 288
-0.980798, 65, 145, 192, 208
-0.980859, 273, 313, 400, 375
-0.980861, 113, 169, 240, 232
-0.980925, 185, 121, 248, 184
-0.980941, 465, 177, 496, 304
-0.98096, 17, 273, 144, 336
-0.980989, 273, 273, 336, 336
-0.98099, 81, 161, 112, 224
-0.981038, 465, 177, 496, 240
-0.981095, 385, 225, 448, 288
-0.981225, 313, 1, 376, 256
-0.981295, 113, 129, 240, 192
-0.981307, 201, 313, 264, 375
-0.981336, 105, 241, 136, 368
-0.981418, 61, 153, 92, 216
-0.981418, 445, 185, 476, 248
-0.981463, 25, 33, 88, 96
-0.981509, 361, 225, 424, 288
-0.981521, 433, 33, 496, 160
-0.981864, 369, 129, 432, 256
-0.981957, 273, 1, 336, 256
-0.981965, 265, 17, 328, 144
-0.982017, 133, 241, 164, 368
-0.982038, 97, 297, 128, 360
-0.982059, 453, 193, 484, 320
-0.982066, 301, 289, 332, 352
-0.982131, 73, 129, 104, 192
-0.982146, 217, 177, 280, 240
-0.982244, 149, 273, 180, 336
-0.982304, 293, 313, 324, 375
-0.982329, 1, 81, 64, 208
-0.982335, 265, 121, 328, 184
-0.982379, 113, 225, 240, 288
-0.982414, 249, 169, 312, 232
-0.982427, 241, 137, 304, 200
-0.982427, 225, 249, 288, 312
-0.982465, 337, 153, 464, 216
-0.982601, 129, 129, 192, 375
-0.982669, 273, 137, 400, 200
-0.982679, 53, 225, 84, 352
-0.982724, 281, 305, 312, 368
-0.982772, 29, 129, 60, 192
-0.982777, 17, 81, 80, 144
-0.982784, 57, 81, 120, 144
-0.982813, 185, 97, 248, 160
-0.98282, 241, 113, 304, 176
-0.982831, 353, 305, 480, 368
-0.983, 321, 193, 448, 256
-0.983029, 117, 225, 148, 352
-0.983059, 209, 161, 336, 224
-0.98313, 33, 121, 160, 184
-0.98314, 49, 249, 176, 312
-0.983151, 1, 41, 64, 104
-0.983172, 97, 249, 224, 312
-0.983279, 121, 297, 152, 360
-0.983307, 249, 1, 312, 256
-0.983342, 157, 313, 188, 375
-0.983406, 17, 145, 144, 208
-0.983418, 121, 97, 152, 224
-0.983441, 97, 105, 160, 168
-0.983498, 81, 33, 144, 96
-0.983503, 289, 217, 352, 280
-0.983522, 425, 201, 456, 264
-0.983525, 361, 1, 424, 256
-0.983558, 313, 17, 376, 144
-0.983563, 369, 17, 432, 144
-0.983571, 41, 113, 72, 240
-0.983579, 305, 81, 368, 208
-0.983611, 153, 241, 184, 368
-0.983618, 65, 129, 96, 256
-0.983665, 1, 129, 64, 375
-0.983705, 453, 225, 484, 288
-0.983712, 273, 289, 400, 352
-0.983766, 405, 161, 436, 288
-0.983817, 129, 305, 256, 368
-0.983956, 141, 113, 172, 240
-0.983967, 209, 65, 272, 320
-0.983992, 33, 225, 160, 288
-0.984037, 33, 289, 64, 352
-0.984054, 49, 33, 112, 96
-0.984079, 361, 161, 392, 224
-0.984097, 177, 41, 240, 104
-0.984106, 337, 201, 400, 264
-0.98414, 1, 273, 32, 336
-0.984215, 369, 65, 496, 192
-0.984238, 401, 1, 464, 256
-0.984276, 265, 249, 328, 312
-0.984295, 209, 289, 336, 352
-0.984311, 97, 1, 160, 375
-0.984342, 141, 305, 172, 368
-0.984362, 125, 145, 156, 272
-0.984388, 17, 169, 48, 232
-0.984507, 173, 185, 204, 248
-0.984511, 337, 1, 400, 256
-0.984512, 93, 225, 124, 352
-0.984523, 329, 129, 392, 192
-0.984601, 437, 209, 468, 272
-0.984617, 57, 129, 120, 375
-0.984659, 309, 145, 340, 272
-0.984692, 189, 153, 220, 216
-0.984695, 161, 193, 288, 256
-0.984793, 145, 1, 208, 256
-0.9848, 161, 137, 288, 200
-0.984804, 433, 1, 496, 256
-0.984836, 281, 81, 344, 208
-0.984851, 29, 241, 60, 368
-0.984852, 109, 241, 140, 304
-0.984854, 353, 305, 384, 368
-0.984959, 369, 217, 496, 280
-0.985009, 69, 241, 100, 368
-0.985025, 417, 33, 480, 96
-0.98508, 169, 113, 200, 176
-0.98513, 41, 241, 72, 368
-0.985141, 377, 305, 440, 368
-0.985145, 313, 225, 376, 288
-0.985163, 45, 105, 76, 168
-0.985166, 145, 281, 272, 344
-0.98517, 373, 265, 404, 328
-0.985254, 385, 25, 448, 88
-0.9853, 265, 33, 328, 96
-0.985324, 137, 81, 200, 144
-0.98536, 53, 177, 84, 240
-0.985371, 161, 1, 224, 375
-0.985373, 337, 97, 400, 224
-0.985457, 1, 1, 64, 375
-0.985467, 137, 193, 168, 320
-0.985491, 213, 177, 244, 240
-0.985505, 97, 241, 128, 304
-0.985543, 193, 113, 224, 240
-0.98555, 425, 193, 456, 320
-0.985564, 433, 153, 496, 216
-0.985742, 1, 241, 32, 368
-0.9858, 121, 1, 184, 375
-0.985802, 1, 169, 32, 232
-0.985822, 93, 153, 124, 216
-0.985847, 425, 225, 456, 288
-0.985864, 337, 129, 464, 192
-0.985901, 153, 129, 216, 375
-0.985905, 217, 129, 280, 192
-0.985972, 201, 193, 232, 256
-0.985992, 257, 193, 384, 256
-0.98606, 129, 97, 160, 160
-0.986075, 101, 273, 132, 336
-0.986172, 129, 33, 192, 96
-0.986199, 65, 193, 192, 256
-0.986199, 341, 161, 372, 224
-0.986207, 177, 313, 304, 375
-0.986211, 393, 1, 456, 375
-0.986214, 173, 161, 204, 224
-0.986277, 209, 137, 336, 200
-0.98632, 321, 65, 448, 192
-0.986338, 89, 145, 120, 272
-0.986362, 193, 1, 256, 375
-0.986366, 353, 1, 416, 375
-0.98637, 289, 129, 352, 375
-0.986396, 133, 249, 164, 312
-0.986412, 41, 177, 72, 240
-0.986497, 201, 41, 264, 104
-0.9865, 305, 25, 368, 88
-0.986501, 453, 145, 484, 272
-0.986525, 413, 177, 444, 240
-0.98653, 353, 281, 480, 344
-0.986571, 129, 105, 256, 168
-0.986606, 145, 257, 272, 320
-0.98661, 1, 201, 128, 264
-0.986631, 33, 97, 160, 160
-0.986684, 25, 241, 88, 304
-0.986698, 157, 33, 188, 160
-0.986712, 73, 105, 136, 168
-0.98675, 213, 313, 244, 375
-0.986775, 373, 241, 404, 368
-0.986779, 61, 265, 92, 328
-0.986792, 193, 241, 320, 304
-0.986802, 121, 129, 152, 192
-0.986841, 361, 265, 392, 328
-0.986842, 237, 241, 268, 368
-0.986879, 41, 153, 72, 216
-0.986913, 441, 177, 472, 304
-0.986914, 241, 41, 304, 104
-0.986916, 181, 209, 212, 272
-0.98695, 29, 129, 60, 256
-0.986953, 73, 273, 104, 336
-0.986978, 17, 145, 48, 208
-0.987128, 65, 177, 96, 240
-0.987133, 173, 241, 204, 368
-0.987138, 361, 209, 392, 336
-0.987142, 393, 185, 424, 248
-0.987156, 41, 1, 104, 375
-0.987213, 65, 1, 128, 375
-0.987223, 21, 33, 52, 160
-0.987234, 185, 193, 216, 320
-0.987269, 209, 193, 336, 256
-0.9873, 5, 121, 36, 184
-0.987302, 433, 1, 496, 375
-0.987311, 25, 193, 56, 320
-0.987322, 381, 145, 412, 208
-0.987446, 357, 137, 388, 200
-0.987502, 161, 161, 288, 224
-0.98751, 161, 217, 288, 280
-0.987522, 381, 193, 412, 320
-0.987535, 105, 33, 168, 96
-0.987575, 129, 273, 160, 336
-0.987599, 113, 273, 144, 336
-0.987603, 1, 33, 128, 96
-0.987633, 81, 305, 112, 368
-0.987648, 53, 129, 84, 256
-0.987686, 409, 297, 472, 360
-0.987712, 113, 209, 144, 272
-0.987726, 149, 97, 180, 160
-0.987732, 157, 145, 188, 272
-0.987759, 165, 281, 196, 344
-0.987762, 33, 33, 64, 160
-0.987795, 377, 129, 440, 375
-0.987809, 113, 193, 240, 256
-0.987824, 185, 129, 216, 192
-0.987871, 109, 129, 140, 256
-0.987888, 341, 185, 372, 248
-0.98789, 201, 249, 232, 312
-0.987898, 217, 137, 248, 200
-0.987937, 85, 17, 116, 144
-0.98794, 369, 249, 496, 312
-0.987942, 133, 121, 164, 184
-0.987946, 81, 81, 144, 144
-0.987952, 237, 313, 268, 375
-0.987954, 321, 177, 352, 304
-0.98801, 313, 1, 376, 375
-0.988026, 465, 129, 496, 256
-0.988056, 393, 161, 424, 224
-0.988064, 169, 137, 200, 200
-0.988103, 145, 249, 176, 312
-0.988137, 281, 225, 312, 352
-0.988145, 81, 33, 208, 96
-0.988183, 305, 105, 368, 168
-0.988188, 269, 305, 300, 368
-0.988196, 425, 129, 456, 256
-0.988238, 305, 145, 336, 208
-0.98824, 217, 105, 280, 168
-0.988246, 17, 113, 48, 176
-0.98829, 13, 113, 44, 240
-0.988293, 337, 25, 464, 88
-0.988294, 93, 129, 124, 192
-0.988319, 197, 241, 228, 368
-0.988352, 257, 1, 320, 375
-0.988379, 109, 121, 140, 184
-0.988381, 329, 161, 360, 224
-0.988401, 265, 177, 296, 304
-0.988426, 113, 177, 144, 304
-0.988435, 1, 249, 128, 312
-0.988494, 273, 113, 400, 176
-0.988503, 405, 209, 436, 272
-0.988514, 201, 193, 232, 320
-0.98855, 13, 273, 44, 336
-0.988551, 129, 153, 160, 216
-0.988552, 53, 81, 84, 208
-0.988568, 381, 193, 412, 256
-0.988571, 57, 17, 88, 144
-0.988587, 373, 289, 404, 352
-0.988652, 161, 257, 192, 320
-0.988657, 157, 153, 188, 216
-0.988657, 313, 281, 344, 344
-0.988672, 269, 129, 300, 256
-0.988685, 221, 225, 252, 352
-0.9887, 101, 177, 132, 304
-0.988717, 89, 201, 120, 264
-0.988763, 209, 217, 336, 280
-0.988771, 293, 145, 324, 272
-0.988774, 209, 265, 336, 328
-0.988796, 225, 33, 352, 96
-0.98883, 177, 33, 208, 160
-0.988873, 145, 41, 272, 104
-0.988875, 1, 329, 64, 360
-0.988944, 29, 177, 60, 240
-0.988984, 373, 169, 404, 232
-0.988986, 365, 161, 396, 288
-0.989001, 289, 241, 416, 304
-0.989016, 137, 17, 168, 144
-0.98902, 217, 1, 280, 375
-0.989046, 237, 193, 268, 256
-0.989059, 393, 161, 424, 288
-0.989061, 333, 305, 364, 368
-0.989122, 65, 193, 96, 320
-0.989184, 1, 177, 32, 304
-0.989185, 465, 249, 496, 312
-0.989215, 209, 33, 240, 160
-0.989229, 313, 169, 344, 232
-0.98923, 281, 1, 344, 375
-0.989234, 193, 33, 224, 160
-0.989236, 341, 241, 372, 368
-0.98924, 165, 193, 196, 320
-0.989245, 101, 217, 132, 280
-0.989265, 25, 321, 88, 352
-0.989272, 173, 129, 204, 256
-0.989276, 217, 249, 248, 312
-0.989292, 1, 33, 32, 160
-0.989367, 105, 177, 136, 240
-0.989379, 177, 113, 304, 176
-0.989388, 25, 333, 88, 364
-0.98939, 425, 81, 488, 208
-0.989395, 321, 217, 448, 280
-0.989399, 177, 97, 240, 352
-0.989415, 185, 177, 216, 240
-0.989442, 129, 225, 160, 288
-0.989446, 113, 301, 176, 332
-0.989498, 277, 217, 308, 280
-0.98955, 1, 313, 64, 344
-0.989562, 329, 137, 360, 200
-0.989591, 297, 225, 328, 352
-0.989597, 385, 233, 416, 296
-0.989632, 277, 177, 308, 304
-0.989649, 17, 193, 48, 256
-0.989659, 77, 145, 108, 272
-0.989674, 257, 297, 288, 360
-0.989687, 25, 305, 88, 336
-0.989739, 41, 289, 104, 320
-0.989759, 273, 25, 400, 88
-0.989769, 205, 273, 236, 336
-0.989796, 1, 301, 64, 332
-0.989874, 241, 241, 368, 304
-0.989874, 433, 225, 496, 256
-0.989878, 321, 173, 384, 204
-0.989931, 341, 161, 372, 288
-0.989952, 205, 225, 236, 288
-0.989956, 345, 273, 376, 336
-0.98999, 433, 177, 464, 240
-0.990012, 281, 281, 312, 344
-0.990012, 465, 241, 496, 368
-0.990014, 57, 129, 88, 192
-0.990027, 93, 97, 124, 224
-0.990033, 29, 201, 60, 264
-0.99004, 305, 265, 432, 328
-0.990046, 65, 169, 128, 200
-0.990073, 49, 137, 112, 168
-0.990078, 21, 233, 52, 296
-0.990088, 65, 309, 128, 340
-0.99009, 33, 345, 96, 375
-0.990098, 49, 189, 112, 220
-0.990131, 269, 241, 300, 368
-0.990136, 313, 313, 344, 375
-0.990138, 425, 129, 488, 375
-0.990171, 189, 233, 220, 296
-0.990177, 185, 313, 216, 375
-0.990184, 145, 289, 208, 320
-0.990212, 257, 265, 384, 328
-0.990227, 65, 297, 128, 328
-0.990247, 209, 145, 240, 272
-0.990256, 49, 321, 112, 352
-0.990312, 1, 289, 64, 320
-0.99033, 105, 289, 168, 320
-0.990344, 161, 217, 192, 280
-0.990387, 201, 169, 232, 232
-0.990387, 353, 97, 416, 352
-0.99039, 89, 313, 152, 344
-0.990391, 65, 345, 128, 375
-0.990405, 425, 205, 488, 236
-0.990409, 329, 257, 392, 288
-0.990409, 221, 177, 252, 304
-0.990413, 9, 197, 72, 228
-0.990422, 101, 17, 132, 144
-0.990437, 129, 185, 160, 248
-0.990451, 149, 129, 180, 192
-0.990473, 137, 301, 200, 332
-0.990497, 89, 249, 152, 280
-0.9905, 9, 345, 72, 375
-0.990501, 297, 173, 360, 204
-0.990507, 41, 201, 104, 232
-0.990511, 229, 153, 260, 216
-0.990523, 69, 33, 100, 160
-0.990523, 145, 217, 176, 280
-0.990523, 353, 241, 384, 304
-0.990546, 25, 137, 88, 168
-0.99057, 237, 129, 268, 256
-0.990584, 409, 189, 472, 220
-0.990585, 377, 201, 440, 232
-0.990588, 365, 313, 396, 375
-0.9906, 345, 149, 408, 180
-0.990621, 341, 137, 372, 200
-0.990671, 257, 97, 320, 352
-0.990718, 73, 181, 136, 212
-0.990745, 41, 161, 72, 288
-0.990752, 281, 201, 344, 232
-0.990762, 89, 161, 152, 192
-0.99077, 257, 225, 288, 352
-0.990791, 89, 301, 152, 332
-0.990798, 25, 125, 88, 156
-0.990806, 105, 177, 168, 208
-0.990811, 49, 333, 112, 364
-0.990822, 193, 341, 256, 372
-0.990854, 237, 193, 268, 320
-0.990868, 25, 277, 88, 308
-0.990882, 305, 157, 368, 188
-0.990892, 121, 313, 184, 344
-0.990918, 233, 129, 296, 375
-0.990936, 345, 169, 408, 200
-0.990945, 257, 217, 384, 280
-0.990963, 257, 345, 320, 375
-0.99097, 121, 265, 184, 296
-0.990971, 149, 193, 180, 320
-0.990999, 161, 197, 224, 228
-0.991023, 305, 189, 368, 220
-0.991024, 145, 337, 208, 368
-0.991039, 41, 177, 104, 208
-0.991045, 73, 333, 136, 364
-0.991048, 65, 285, 128, 316
-0.991059, 97, 341, 160, 372
-0.99107, 1, 185, 64, 216
-0.991074, 1, 305, 256, 368
-0.991101, 337, 185, 400, 216
-0.991101, 185, 321, 248, 352
-0.991136, 337, 105, 464, 168
-0.991148, 281, 185, 344, 216
-0.991189, 437, 129, 468, 256
-0.991218, 185, 145, 248, 176
-0.99125, 129, 237, 192, 268
-0.991253, 433, 237, 496, 268
-0.991274, 25, 113, 88, 144
-0.991274, 121, 277, 184, 308
-0.991278, 169, 301, 232, 332
-0.99128, 113, 153, 176, 184
-0.991291, 273, 313, 336, 344
-0.991301, 145, 249, 208, 280
-0.991308, 153, 141, 216, 172
-0.991309, 113, 133, 176, 164
-0.991318, 81, 97, 208, 160
-0.991323, 161, 225, 224, 256
-0.991328, 257, 217, 320, 248
-0.991335, 337, 269, 400, 300
-0.99134, 89, 237, 152, 268
-0.991345, 57, 265, 120, 296
-0.991348, 161, 101, 224, 132
-0.991362, 145, 213, 208, 244
-0.991365, 113, 17, 144, 144
-0.991375, 73, 149, 136, 180
-0.991403, 361, 181, 424, 212
-0.991413, 409, 221, 472, 252
-0.991415, 145, 277, 208, 308
-0.991419, 305, 273, 368, 304
-0.991426, 385, 185, 448, 216
-0.991429, 165, 81, 196, 208
-0.991456, 153, 313, 216, 344
-0.991458, 45, 33, 76, 160
-0.991461, 309, 225, 340, 352
-0.991481, 49, 105, 112, 136
-0.991483, 49, 117, 112, 148
-0.991487, 161, 153, 224, 184
-0.991493, 433, 185, 496, 216
-0.991501, 233, 341, 296, 372
-0.991522, 305, 245, 368, 276
-0.991522, 65, 217, 128, 248
-0.991528, 137, 121, 200, 152
-0.991531, 185, 197, 248, 228
-0.991533, 369, 265, 432, 296
-0.991535, 257, 325, 320, 356
-0.991543, 249, 193, 312, 224
-0.991543, 145, 181, 208, 212
-0.991545, 129, 81, 256, 144
-0.991552, 1, 209, 64, 240
-0.99156, 1, 277, 64, 308
-0.991562, 65, 241, 128, 272
-0.991578, 257, 145, 320, 176
-0.99158, 81, 121, 144, 152
-0.991587, 209, 97, 240, 224
-0.991595, 113, 249, 176, 280
-0.991611, 193, 129, 256, 160
-0.991616, 233, 325, 296, 356
-0.991618, 129, 105, 192, 136
-0.991629, 225, 105, 352, 168
-0.991632, 209, 177, 272, 208
-0.991632, 105, 197, 168, 228
-0.991638, 273, 169, 336, 200
-0.991642, 97, 101, 160, 132
-0.991652, 73, 193, 136, 224
-0.991655, 169, 289, 232, 320
-0.991656, 281, 217, 344, 248
-0.991657, 49, 93, 112, 124
-0.991661, 13, 177, 44, 304
-0.991674, 185, 113, 248, 144
-0.991686, 113, 329, 176, 360
-0.991689, 25, 149, 88, 180
-0.991694, 41, 213, 104, 244
-0.9917, 73, 81, 104, 208
-0.99171, 177, 209, 240, 240
-0.99171, 169, 333, 232, 364
-0.99171, 433, 281, 496, 312
-0.991712, 401, 201, 464, 232
-0.991725, 281, 157, 344, 188
-0.991728, 105, 65, 136, 192
-0.991729, 305, 261, 368, 292
-0.991733, 1, 125, 64, 156
-0.991741, 169, 185, 232, 216
-0.991754, 413, 209, 444, 336
-0.991765, 129, 169, 192, 200
-0.991769, 269, 33, 300, 160
-0.991778, 161, 113, 224, 144
-0.991779, 381, 113, 412, 240
-0.99179, 33, 165, 96, 196
-0.991818, 89, 133, 152, 164
-0.991898, 321, 97, 384, 352
-0.991907, 321, 113, 352, 240
-0.99196, 17, 65, 144, 128
-0.991986, 233, 33, 264, 160
-0.992073, 97, 313, 352, 375
-0.99213, 177, 81, 208, 208
-0.992169, 17, 325, 48, 356
-0.99217, 53, 177, 84, 304
-0.992177, 257, 113, 288, 240
-0.992251, 137, 297, 168, 328
-0.992286, 5, 329, 36, 360
-0.992298, 1, 113, 32, 240
-0.992322, 405, 113, 436, 240
-0.992478, 185, 345, 216, 375
-0.992492, 29, 325, 60, 356
-0.992523, 57, 313, 88, 344
-0.99253, 105, 297, 136, 328
-0.992532, 17, 337, 48, 368
-0.992574, 77, 341, 108, 372
-0.992576, 309, 97, 340, 224
-0.992584, 69, 301, 100, 332
-0.992594, 241, 81, 368, 144
-0.992608, 365, 113, 396, 240
-0.992615, 105, 309, 136, 340
-0.992616, 97, 341, 128, 372
-0.992623, 453, 205, 484, 236
-0.99263, 149, 301, 180, 332
-0.992632, 41, 321, 72, 352
-0.992653, 1, 289, 32, 320
-0.99267, 49, 301, 80, 332
-0.992678, 85, 293, 116, 324
-0.99268, 465, 197, 496, 228
-0.99268, 5, 341, 36, 372
-0.992681, 341, 173, 372, 204
-0.992696, 81, 177, 112, 208
-0.992714, 5, 309, 36, 340
-0.992715, 133, 65, 164, 192
-0.992721, 117, 301, 148, 332
-0.992722, 113, 245, 144, 276
-0.992726, 281, 317, 312, 348
-0.992739, 57, 289, 88, 320
-0.992761, 193, 197, 224, 228
-0.992764, 157, 289, 188, 320
-0.992765, 433, 205, 464, 236
-0.992771, 169, 145, 200, 176
-0.992774, 441, 193, 472, 224
-0.992793, 121, 125, 152, 156
-0.992799, 97, 321, 128, 352
-0.992806, 37, 125, 68, 156
-0.992814, 113, 169, 144, 200
-0.992818, 61, 341, 92, 372
-0.992818, 93, 237, 124, 268
-0.992824, 25, 313, 56, 344
-0.992825, 69, 313, 100, 344
-0.992829, 25, 289, 56, 320
-0.99284, 133, 257, 164, 288
-0.992842, 377, 65, 440, 192
-0.992845, 37, 289, 68, 320
-0.992853, 453, 189, 484, 220
-0.992863, 117, 289, 148, 320
-0.992874, 109, 337, 140, 368
-0.992874, 213, 321, 244, 352
-0.992882, 445, 241, 476, 368
-0.992888, 57, 133, 88, 164
-0.992894, 333, 161, 364, 192
-0.992895, 321, 189, 352, 220
-0.992899, 37, 309, 68, 340
-0.992901, 41, 333, 72, 364
-0.992904, 33, 345, 64, 375
-0.992905, 53, 121, 84, 152
-0.992906, 5, 205, 36, 236
-0.992907, 113, 153, 144, 184
-0.99291, 157, 341, 188, 372
-0.992914, 345, 161, 376, 192
-0.992918, 177, 333, 208, 364
-0.992921, 361, 173, 392, 204
-0.992925, 289, 89, 416, 152
-0.992927, 389, 241, 420, 368
-0.992927, 85, 329, 116, 360
-0.99293, 65, 165, 96, 196
-0.992942, 125, 137, 156, 168
-0.99295, 197, 345, 228, 375
-0.992952, 125, 177, 156, 208
-0.992954, 349, 149, 380, 180
-0.992955, 269, 213, 300, 244
-0.992956, 429, 241, 460, 368
-0.992965, 93, 305, 124, 336
-0.992966, 193, 109, 224, 140
-0.992968, 233, 329, 264, 360
-0.992985, 29, 141, 60, 172
-0.992985, 413, 209, 444, 240
-0.992988, 109, 233, 140, 264
-0.99299, 85, 317, 116, 348
-0.992993, 185, 133, 216, 164
-0.992998, 193, 185, 224, 216
-0.992998, 25, 301, 56, 332
-0.993006, 329, 261, 360, 292
-0.993009, 213, 177, 244, 208
-0.99301, 401, 97, 464, 352
-0.993015, 81, 305, 112, 336
-0.993021, 469, 217, 500, 248
-0.993023, 297, 313, 328, 344
-0.993026, 125, 245, 156, 276
-0.993027, 221, 33, 252, 160
-0.993029, 149, 269, 180, 300
-0.993029, 17, 189, 48, 220
-0.993036, 73, 329, 104, 360
-0.993036, 269, 341, 300, 372
-0.993036, 93, 185, 124, 216
-0.993037, 69, 289, 100, 320
-0.993039, 129, 149, 160, 180
-0.99304, 321, 169, 352, 200
-0.993041, 353, 305, 384, 336
-0.993041, 85, 153, 116, 184
-0.993045, 145, 137, 176, 168
-0.993046, 113, 325, 144, 356
-0.993047, 421, 197, 452, 228
-0.993055, 129, 345, 160, 375
-0.993056, 129, 313, 160, 344
-0.993056, 261, 329, 292, 360
-0.993059, 49, 345, 80, 375
-0.993059, 129, 285, 160, 316
-0.99306, 117, 313, 148, 344
-0.99306, 297, 329, 328, 360
-0.993063, 221, 301, 252, 332
-0.993064, 197, 145, 228, 176
-0.993066, 137, 333, 168, 364
-0.993068, 65, 189, 96, 220
-0.993069, 453, 217, 484, 248
-0.993069, 85, 281, 116, 312
-0.99307, 61, 325, 92, 356
-0.993073, 169, 193, 200, 224
-0.993073, 41, 141, 72, 172
-0.993075, 457, 229, 488, 260
-0.993076, 361, 153, 392, 184
-0.993083, 129, 101, 160, 132
-0.993094, 401, 193, 432, 224
-0.993095, 53, 109, 84, 140
-0.993095, 385, 257, 416, 288
-0.993099, 185, 145, 216, 176
-0.9931, 153, 105, 184, 136
-0.993103, 149, 253, 180, 284
-0.993104, 373, 269, 404, 300
-0.993104, 113, 181, 144, 212
-0.993105, 17, 157, 48, 188
-0.993105, 433, 217, 464, 248
-0.993111, 61, 177, 92, 208
-0.993112, 273, 305, 304, 336
-0.993114, 85, 141, 116, 172
-0.993115, 25, 125, 56, 156
-0.993119, 377, 153, 408, 184
-0.99319, 225, 81, 288, 208
-0.993224, 177, 89, 304, 152
-0.993252, 341, 17, 372, 144
-0.993341, 253, 177, 284, 304
-0.993342, 33, 193, 288, 256
-0.993408, 253, 33, 284, 160
-0.993448, 125, 17, 156, 144
-0.99349, 65, 73, 192, 136
-0.993537, 161, 161, 416, 224
-0.993538, 289, 17, 320, 144
-0.993544, 1, 129, 256, 192
-0.993588, 1, 257, 256, 320
-0.993634, 305, 17, 336, 144
-0.993668, 33, 169, 288, 232
-0.99368, 337, 65, 464, 128
-0.993699, 97, 217, 352, 280
-0.993702, 153, 97, 184, 224
-0.993717, 1, 281, 256, 344
-0.993743, 317, 17, 348, 144
-0.993751, 209, 241, 240, 368
-0.993761, 177, 17, 304, 80
-0.993786, 353, 145, 384, 272
-0.993803, 1, 233, 256, 296
-0.993842, 449, 33, 480, 160
-0.993897, 185, 241, 216, 368
-0.993948, 401, 65, 464, 192
-0.993953, 393, 113, 424, 240
-0.993957, 421, 17, 452, 144
-0.994054, 97, 265, 352, 328
-0.994083, 369, 17, 400, 144
-0.994098, 357, 17, 388, 144
-0.994158, 325, 225, 356, 352
-0.99421, 25, 81, 56, 208
-0.994237, 59, 305, 74, 368
-0.994241, 193, 313, 448, 375
-0.994301, 225, 97, 256, 224
-0.994338, 1, 293, 128, 324
-0.994376, 33, 317, 160, 348
-0.994418, 209, 57, 336, 120
-0.994443, 1, 289, 16, 352
-0.994526, 177, 341, 304, 372
-0.994676, 15, 297, 30, 360
-0.994706, 65, 285, 192, 316
-0.994709, 1, 333, 128, 364
-0.994715, 97, 289, 352, 352
-0.994807, 1, 313, 16, 375
-0.994846, 53, 313, 68, 375
-0.994878, 289, 65, 416, 128
-0.99488, 65, 289, 80, 352
-0.994895, 1, 185, 500, 248
-0.994967, 1, 305, 128, 336
-0.994971, 49, 297, 176, 328
-0.994978, 129, 17, 256, 80
-0.994994, 257, 25, 500, 88
-0.995027, 31, 313, 46, 375
-0.995041, 23, 297, 38, 360
-0.995145, 1, 33, 256, 96
-0.995151, 257, 209, 500, 272
-0.9952, 97, 309, 224, 340
-0.995269, 37, 305, 52, 368
-0.995277, 81, 341, 208, 372
-0.995278, 183, 169, 198, 232
-0.995316, 45, 313, 60, 375
-0.995332, 97, 241, 352, 304
-0.995346, 7, 305, 22, 368
-0.995377, 1, 145, 500, 208
-0.9954, 129, 137, 384, 200
-0.995405, 1, 345, 128, 375
-0.995405, 225, 185, 480, 248
-0.995471, 145, 193, 272, 224
-0.995505, 97, 297, 224, 328
-0.995541, 83, 153, 98, 216
-0.995541, 459, 185, 474, 248
-0.995579, 17, 177, 144, 208
-0.995608, 157, 265, 172, 328
-0.995622, 273, 317, 400, 348
-0.995648, 433, 201, 448, 264
-0.995651, 37, 121, 52, 184
-0.99566, 377, 265, 392, 328
-0.995674, 1, 281, 500, 344
-0.995696, 81, 273, 208, 304
-0.995696, 161, 305, 176, 368
-0.995722, 51, 289, 66, 352
-0.995739, 155, 305, 170, 368
-0.995774, 129, 285, 256, 316
-0.995779, 65, 169, 192, 200
-0.995784, 355, 161, 370, 224
-0.995796, 81, 9, 208, 72
-0.99581, 33, 105, 288, 168
-0.995837, 135, 121, 150, 184
-0.995843, 145, 329, 272, 360
-0.995849, 369, 313, 384, 375
-0.995854, 467, 193, 482, 256
-0.995862, 17, 9, 144, 72
-0.995869, 111, 297, 126, 360
-0.995881, 177, 169, 192, 232
-0.995891, 49, 253, 176, 284
-0.995904, 33, 193, 160, 224
-0.99592, 65, 181, 192, 212
-0.995923, 1, 281, 128, 312
-0.99593, 311, 305, 326, 368
-0.995933, 477, 201, 492, 264
-0.995954, 207, 193, 222, 256
-0.995956, 125, 121, 140, 184
-0.99597, 85, 129, 100, 192
-0.995971, 97, 41, 352, 104
-0.99599, 293, 305, 308, 368
-0.995997, 289, 177, 416, 208
-0.996015, 31, 281, 46, 344
-0.99604, 369, 201, 496, 232
-0.996055, 485, 209, 500, 272
-0.996057, 69, 313, 84, 375
-0.996072, 257, 161, 500, 224
-0.996084, 89, 273, 104, 336
-0.996101, 165, 273, 180, 336
-0.996102, 289, 193, 416, 224
-0.99611, 217, 169, 232, 232
-0.996113, 73, 161, 88, 224
-0.996125, 427, 193, 442, 256
-0.996128, 91, 161, 106, 224
-0.996129, 283, 193, 298, 256
-0.996131, 287, 313, 302, 375
-0.996145, 145, 297, 272, 328
-0.996149, 129, 245, 256, 276
-0.996168, 65, 157, 192, 188
-0.996171, 67, 161, 82, 224
-0.996172, 113, 169, 240, 200
-0.996179, 25, 153, 40, 216
-0.996186, 9, 281, 24, 344
-0.996197, 345, 265, 360, 328
-0.996204, 377, 161, 392, 224
-0.996209, 81, 177, 96, 240
-0.996225, 61, 185, 76, 248
-0.996228, 209, 169, 224, 232
-0.996244, 477, 225, 492, 288
-0.996251, 225, 289, 480, 352
-0.996267, 169, 169, 184, 232
-0.996271, 387, 249, 402, 312
-0.996273, 33, 133, 160, 164
-0.996277, 57, 281, 72, 344
-0.996277, 129, 185, 384, 248
-0.996278, 177, 313, 304, 344
-0.996286, 447, 185, 462, 248
-0.996319, 33, 145, 48, 208
-0.996328, 195, 185, 210, 248
-0.996331, 129, 117, 256, 148
-0.996336, 19, 129, 34, 192
-0.996341, 379, 289, 394, 352
-0.996346, 129, 273, 256, 304
-0.996383, 363, 161, 378, 224
-0.996385, 467, 225, 482, 288
-0.996386, 79, 289, 94, 352
-0.996398, 281, 305, 296, 368
-0.996401, 439, 209, 454, 272
-0.996423, 345, 161, 360, 224
-0.996437, 189, 121, 204, 184
-0.996444, 143, 249, 158, 312
-0.996446, 127, 241, 142, 304
-0.99645, 223, 289, 238, 352
-0.996451, 337, 297, 464, 328
-0.996453, 313, 281, 328, 344
-0.996456, 13, 169, 28, 232
-0.996462, 457, 209, 472, 272
-0.996463, 45, 289, 60, 352
-0.99647, 191, 153, 206, 216
-0.996475, 305, 313, 320, 375
-0.996476, 61, 129, 76, 192
-0.996478, 67, 193, 82, 256
-0.99648, 337, 165, 464, 196
-0.996483, 179, 137, 194, 200
-0.996485, 45, 129, 60, 192
-0.996489, 149, 297, 164, 360
-0.996493, 189, 177, 204, 240
-0.996495, 383, 169, 398, 232
-0.996496, 51, 153, 66, 216
-0.996505, 133, 145, 148, 208
-0.996516, 29, 113, 44, 176
-0.996527, 133, 249, 148, 312
-0.996538, 59, 105, 74, 168
-0.99654, 225, 325, 352, 356
-0.996541, 49, 101, 176, 132
-0.996542, 337, 185, 464, 216
-0.996558, 189, 1, 220, 256
-0.99656, 35, 193, 50, 256
-0.996562, 151, 265, 166, 328
-0.996563, 41, 177, 56, 240
-0.996565, 353, 1, 480, 64
-0.996586, 101, 313, 116, 375
-0.996588, 73, 193, 88, 256
-0.996604, 45, 105, 60, 168
-0.996621, 407, 193, 422, 256
-0.996625, 193, 249, 448, 312
-0.996628, 133, 305, 148, 368
-0.996645, 179, 193, 194, 256
-0.996647, 51, 97, 66, 160
-0.996655, 107, 233, 122, 296
-0.996666, 209, 129, 224, 192
-0.996669, 141, 105, 156, 168
-0.99667, 49, 329, 176, 360
-0.996673, 205, 233, 220, 296
-0.996673, 427, 217, 442, 280
-0.996674, 113, 153, 240, 184
-0.99668, 103, 193, 118, 256
-0.996682, 289, 1, 416, 64
-0.996687, 371, 153, 386, 216
-0.996689, 97, 329, 224, 360
-0.996698, 299, 305, 314, 368
-0.996703, 229, 289, 244, 352
-0.996713, 61, 153, 76, 216
-0.996718, 161, 113, 416, 176
-0.996731, 113, 133, 240, 164
-0.996732, 391, 193, 406, 256
-0.996738, 225, 345, 352, 375
-0.996738, 235, 169, 250, 232
-0.996742, 257, 161, 384, 192
-0.996742, 113, 181, 240, 212
-0.996749, 433, 177, 448, 240
-0.996751, 139, 313, 154, 375
-0.996754, 331, 161, 346, 224
-0.996756, 65, 97, 80, 160
-0.996757, 67, 137, 82, 200
-0.996759, 167, 297, 182, 360
-0.996778, 369, 273, 384, 336
-0.996785, 33, 241, 160, 272
-0.996786, 93, 297, 108, 360
-0.996798, 17, 149, 144, 180
-0.9968, 353, 309, 480, 340
-0.996806, 215, 289, 230, 352
-0.996814, 97, 105, 224, 136
-0.996816, 397, 177, 412, 240
-0.996816, 471, 249, 486, 312
-0.996825, 227, 177, 242, 240
-0.996833, 213, 193, 228, 256
-0.99684, 225, 189, 352, 220
-0.996841, 99, 161, 114, 224
-0.996842, 377, 313, 392, 375
-0.996848, 337, 185, 352, 248
-0.996849, 97, 261, 224, 292
-0.99686, 3, 169, 18, 232
-0.996862, 49, 113, 176, 144
-0.996863, 131, 97, 146, 160
-0.996864, 309, 137, 324, 200
-0.996891, 1, 257, 128, 288
-0.996891, 177, 285, 304, 316
-0.996893, 129, 341, 256, 372
-0.996911, 45, 1, 76, 256
-0.996914, 337, 253, 464, 284
-0.99692, 145, 261, 272, 292
-0.996946, 5, 329, 20, 360
-0.996974, 17, 325, 32, 356
-0.996982, 1, 305, 500, 368
-0.996991, 257, 301, 384, 332
-0.997003, 225, 213, 352, 244
-0.997004, 193, 201, 320, 232
-0.997024, 193, 149, 320, 180
-0.997034, 169, 1, 200, 256
-0.997037, 321, 153, 448, 184
-0.997042, 33, 1, 64, 256
-0.997047, 177, 241, 304, 272
-0.997095, 321, 209, 448, 240
-0.997116, 31, 325, 46, 356
-0.997122, 49, 205, 176, 236
-0.997125, 369, 225, 496, 256
-0.997128, 21, 1, 52, 256
-0.997139, 177, 181, 304, 212
-0.997149, 63, 301, 78, 332
-0.997164, 97, 197, 224, 228
-0.997175, 81, 37, 208, 68
-0.997184, 209, 33, 240, 288
-0.997186, 1, 209, 500, 272
-0.9972, 257, 281, 384, 312
-0.997214, 193, 301, 320, 332
-0.997218, 353, 285, 480, 316
-0.997223, 273, 245, 400, 276
-0.997248, 97, 233, 224, 264
-0.997251, 161, 225, 288, 256
-0.997289, 241, 145, 368, 176
-0.997294, 129, 1, 160, 256
-0.997296, 25, 325, 40, 356
-0.997296, 145, 205, 272, 236
-0.997303, 11, 329, 26, 360
-0.997311, 225, 313, 352, 344
-0.997339, 37, 321, 52, 352
-0.997344, 1, 33, 500, 96
-0.997384, 9, 1, 40, 256
-0.997399, 177, 129, 304, 160
-0.997408, 1, 37, 128, 68
-0.997436, 21, 337, 36, 368
-0.997438, 369, 337, 496, 368
-0.99744, 369, 33, 496, 64
-0.997444, 89, 341, 104, 372
-0.997469, 17, 89, 144, 120
-0.997475, 161, 165, 288, 196
-0.997479, 73, 1, 104, 256
-0.997504, 1, 229, 128, 260
-0.997507, 57, 1, 88, 256
-0.997509, 241, 257, 368, 288
-0.997524, 273, 329, 400, 360
-0.997528, 1, 205, 128, 236
-0.99753, 97, 209, 224, 240
-0.997538, 257, 105, 384, 136
-0.99755, 153, 297, 168, 328
-0.997551, 9, 341, 24, 372
-0.997554, 27, 341, 42, 372
-0.997557, 105, 1, 136, 256
-0.99756, 1, 241, 500, 304
-0.997562, 33, 81, 288, 144
-0.997566, 53, 321, 68, 352
-0.997568, 57, 309, 72, 340
-0.997572, 241, 229, 368, 260
-0.997591, 305, 345, 432, 375
-0.997594, 209, 161, 336, 192
-0.997601, 273, 269, 400, 300
-0.997609, 177, 273, 304, 304
-0.997626, 51, 301, 66, 332
-0.997634, 53, 289, 68, 320
-0.997635, 1, 121, 128, 152
-0.997638, 369, 241, 496, 272
-0.997646, 83, 341, 98, 372
-0.99766, 273, 33, 400, 64
-0.997669, 369, 213, 496, 244
-0.997672, 33, 269, 160, 300
-0.997673, 17, 165, 144, 196
-0.997686, 321, 141, 448, 172
-0.997689, 257, 105, 500, 168
-0.997694, 129, 81, 384, 144
-0.997696, 193, 253, 320, 284
-0.9977, 321, 321, 448, 352
-0.997704, 139, 297, 154, 328
-0.997704, 1, 317, 16, 348
-0.997716, 29, 301, 44, 332
-0.997717, 147, 301, 162, 332
-0.997721, 67, 181, 82, 212
-0.997726, 473, 201, 488, 232
-0.997728, 33, 217, 160, 248
-0.997738, 77, 301, 92, 332
-0.997738, 177, 45, 304, 76
-0.997739, 25, 313, 40, 344
-0.997746, 43, 321, 58, 352
-0.997749, 183, 345, 198, 375
-0.997752, 1, 297, 16, 328
-0.997756, 73, 185, 88, 216
-0.99776, 69, 345, 84, 375
-0.997763, 113, 297, 128, 328
-0.997773, 289, 257, 416, 288
-0.997775, 81, 221, 208, 252
-0.997777, 197, 345, 212, 375
-0.997781, 153, 1, 184, 256
-0.997791, 265, 1, 296, 256
-0.997807, 321, 273, 448, 304
-0.997817, 455, 205, 470, 236
-0.997822, 321, 29, 448, 60
-0.997826, 459, 189, 474, 220
-0.997834, 41, 125, 56, 156
-0.997842, 95, 341, 110, 372
-0.997849, 437, 205, 452, 236
-0.997852, 83, 173, 98, 204
-0.997853, 117, 129, 148, 375
-0.997859, 273, 205, 400, 236
-0.997859, 59, 321, 74, 352
-0.997863, 241, 173, 368, 204
-0.997868, 225, 9, 352, 72
-0.997869, 75, 341, 90, 372
-0.997871, 185, 97, 216, 352
-0.997888, 467, 189, 482, 220
-0.997898, 41, 309, 56, 340
-0.997901, 63, 289, 78, 320
-0.99791, 193, 113, 320, 144
-0.997912, 1, 341, 16, 372
-0.997915, 367, 177, 382, 208
-0.997915, 375, 165, 390, 196
-0.997923, 225, 37, 352, 68
-0.997925, 23, 293, 38, 324
-0.99793, 159, 289, 174, 320
-0.99794, 73, 169, 88, 200
-0.99794, 9, 317, 24, 348
-0.99795, 409, 193, 424, 224
-0.997956, 93, 1, 124, 256
-0.997959, 285, 321, 300, 352
-0.997962, 107, 309, 122, 340
-0.997964, 427, 205, 442, 236
-0.997964, 379, 269, 394, 300
-0.997966, 67, 313, 82, 344
-0.997973, 431, 217, 446, 248
-0.997973, 129, 41, 256, 72
-0.997975, 31, 289, 46, 320
-0.997979, 205, 345, 220, 375
-0.997981, 477, 217, 492, 248
-0.997981, 107, 177, 122, 208
-0.997982, 345, 1, 376, 256
-0.997989, 359, 165, 374, 196
-0.997989, 117, 1, 148, 256
-0.99799, 329, 1, 360, 256
-0.997991, 41, 293, 56, 324
-0.997991, 127, 169, 142, 200
-0.997991, 431, 193, 446, 224
-0.997999, 397, 1, 428, 256
-0.998001, 15, 341, 30, 372
-0.998001, 13, 289, 28, 320
-0.998002, 29, 129, 60, 375
-0.998005, 257, 137, 500, 200
-0.998011, 349, 169, 364, 200
-0.998013, 121, 301, 136, 332
-0.998019, 59, 133, 74, 164
-0.99802, 145, 101, 272, 132
-0.998027, 51, 133, 66, 164
-0.998027, 129, 301, 144, 332
-0.998028, 225, 241, 352, 272
-0.998045, 7, 285, 22, 316
-0.998046, 1, 285, 16, 316
-0.998049, 89, 321, 104, 352
-0.998054, 483, 229, 498, 260
-0.998055, 229, 33, 260, 288
-0.998056, 107, 201, 122, 232
-0.998058, 317, 1, 348, 256
-0.998059, 165, 301, 180, 332
-0.998061, 119, 289, 134, 320
-0.998067, 467, 201, 482, 232
-0.99807, 295, 317, 310, 348
-0.998071, 107, 337, 122, 368
-0.99808, 1, 109, 128, 140
-0.998084, 321, 237, 448, 268
-0.998086, 209, 129, 224, 160
-0.998091, 221, 129, 236, 160
-0.998092, 63, 341, 78, 372
-0.998097, 135, 129, 150, 160
-0.998102, 153, 333, 168, 364
-0.998107, 301, 1, 332, 256
-0.998109, 161, 337, 176, 368
-0.99811, 145, 285, 160, 316
-0.998113, 127, 245, 142, 276
-0.998114, 41, 333, 56, 364
-0.998117, 51, 145, 66, 176
-0.998118, 165, 289, 180, 320
-0.998124, 79, 329, 94, 360
-0.998125, 61, 185, 76, 216
-0.998125, 41, 97, 72, 352
-0.998126, 193, 157, 208, 188
-0.998127, 155, 253, 170, 284
-0.998127, 31, 313, 46, 344
-0.99813, 35, 341, 50, 372
-0.998131, 289, 1, 320, 256
-0.998131, 107, 237, 122, 268
-0.998133, 115, 309, 130, 340
-0.998133, 87, 297, 102, 328
-0.998134, 101, 173, 116, 204
-0.998137, 457, 1, 488, 256
-0.998137, 103, 293, 118, 324
-0.998138, 293, 341, 308, 372
-0.998138, 69, 301, 84, 332
-0.998139, 381, 1, 412, 256
-0.998147, 85, 129, 116, 375
-0.998152, 327, 173, 342, 204
-0.998152, 193, 109, 208, 140
-0.998152, 305, 113, 432, 144
-0.998157, 369, 1, 400, 256
-0.998159, 201, 201, 216, 232
-0.99816, 65, 89, 192, 120
-0.998166, 207, 197, 222, 228
-0.998168, 449, 201, 464, 232
-0.99817, 191, 341, 206, 372
-0.998172, 75, 289, 90, 320
-0.998173, 379, 149, 394, 180
-0.998175, 111, 321, 126, 352
-0.998175, 139, 257, 154, 288
-0.998176, 125, 117, 140, 148
-0.998177, 33, 117, 48, 148
-0.998184, 83, 157, 98, 188
-0.998184, 197, 189, 212, 220
-0.998186, 19, 313, 34, 344
-0.998188, 89, 173, 104, 204
-0.998189, 353, 153, 368, 184
-0.998193, 183, 145, 198, 176
-0.998203, 339, 173, 354, 204
-0.998205, 477, 233, 492, 264
-0.998209, 461, 205, 476, 236
-0.998211, 53, 97, 84, 352
-0.998216, 81, 313, 96, 344
-0.998216, 277, 321, 292, 352
-0.998221, 49, 197, 64, 228
-0.998238, 441, 1, 472, 256
-0.998255, 241, 133, 368, 164
-0.998256, 421, 1, 452, 256
-0.998287, 409, 1, 440, 256
-0.998294, 277, 1, 308, 256
-0.998307, 129, 89, 256, 120
-0.998309, 1, 121, 500, 184
-0.998319, 305, 285, 432, 316
-0.998322, 369, 265, 496, 296
-0.998345, 141, 1, 172, 256
-0.99838, 149, 129, 180, 375
-0.99839, 169, 97, 200, 352
-0.998398, 5, 121, 36, 136
-0.998398, 17, 129, 48, 375
-0.998398, 365, 171, 396, 186
-0.998398, 89, 173, 120, 188
-0.998399, 373, 273, 404, 288
-0.998399, 77, 321, 108, 336
-0.9984, 453, 229, 484, 244
-0.998401, 65, 195, 96, 210
-0.998401, 421, 201, 452, 216
-0.998402, 25, 349, 56, 364
-0.998403, 37, 305, 68, 320
-0.998404, 201, 351, 232, 366
-0.998404, 61, 355, 92, 370
-0.998405, 373, 283, 404, 298
-0.998405, 81, 301, 112, 316
-0.998406, 157, 313, 188, 328
-0.998406, 61, 361, 92, 375
-0.998407, 21, 341, 52, 356
-0.998408, 53, 111, 84, 126
-0.998409, 149, 257, 180, 272
-0.998409, 337, 157, 368, 172
-0.99841, 213, 173, 244, 188
-0.99841, 145, 139, 176, 154
-0.99841, 405, 211, 436, 226
-0.99841, 37, 129, 68, 144
-0.998411, 157, 359, 188, 374
-0.998413, 9, 203, 40, 218
-0.998414, 5, 309, 36, 324
-0.998414, 349, 173, 380, 188
-0.998414, 1, 291, 32, 306
-0.998414, 97, 307, 128, 322
-0.998414, 469, 195, 500, 210
-0.998414, 329, 173, 360, 188
-0.998415, 193, 201, 224, 216
-0.998415, 185, 343, 216, 358
-0.998416, 177, 29, 304, 60
-0.998416, 145, 267, 176, 282
-0.998417, 121, 315, 152, 330
-0.998418, 33, 185, 64, 200
-0.998419, 97, 323, 128, 338
-0.998419, 113, 245, 144, 260
-0.99842, 29, 179, 60, 194
-0.998421, 109, 301, 140, 316
-0.998422, 97, 243, 128, 258
-0.998423, 109, 291, 140, 306
-0.998424, 77, 315, 108, 330
-0.998424, 65, 177, 96, 192
-0.998425, 101, 177, 132, 192
-0.998425, 341, 185, 372, 200
-0.998427, 193, 113, 224, 128
-0.998428, 329, 163, 360, 178
-0.998428, 453, 197, 484, 212
-0.998431, 77, 179, 108, 194
-0.998432, 121, 129, 152, 144
-0.998432, 49, 137, 80, 152
-0.998434, 369, 149, 496, 180
-0.998435, 49, 303, 80, 318
-0.998435, 45, 193, 76, 208
-0.998436, 101, 347, 132, 362
-0.998436, 137, 293, 168, 308
-0.998436, 29, 173, 60, 188
-0.998437, 165, 113, 196, 128
-0.998437, 77, 165, 108, 180
-0.998437, 61, 327, 92, 342
-0.998438, 169, 361, 200, 375
-0.998438, 361, 179, 392, 194
-0.998438, 65, 315, 96, 330
-0.998439, 109, 341, 140, 356
-0.99844, 65, 295, 128, 310
-0.998442, 421, 207, 452, 222
-0.998442, 365, 161, 396, 176
-0.998442, 25, 297, 88, 312
-0.998443, 9, 345, 40, 360
-0.998444, 437, 221, 468, 236
-0.998446, 149, 293, 180, 308
-0.998446, 149, 307, 180, 322
-0.998448, 65, 9, 320, 72
-0.998448, 89, 313, 120, 328
-0.998448, 337, 101, 464, 132
-0.998448, 85, 147, 116, 162
-0.998454, 21, 335, 52, 350
-0.998455, 461, 221, 492, 236
-0.998455, 41, 331, 72, 346
-0.998455, 461, 203, 492, 218
-0.998456, 97, 301, 128, 316
-0.998457, 301, 321, 332, 336
-0.99846, 1, 299, 64, 314
-0.99846, 65, 167, 96, 182
-0.998462, 173, 195, 204, 210
-0.998462, 25, 325, 88, 340
-0.998463, 293, 315, 324, 330
-0.998464, 77, 351, 108, 366
-0.998465, 125, 293, 156, 308
-0.998466, 9, 323, 40, 338
-0.998466, 109, 309, 140, 324
-0.998466, 17, 291, 80, 306
-0.998466, 5, 303, 36, 318
-0.998467, 137, 309, 168, 324
-0.998469, 65, 185, 96, 200
-0.998469, 53, 345, 84, 360
-0.99847, 353, 129, 384, 375
-0.998471, 157, 301, 188, 316
-0.998471, 65, 289, 96, 304
-0.998472, 421, 217, 452, 232
-0.998473, 73, 307, 104, 322
-0.998473, 89, 183, 120, 198
-0.998475, 61, 321, 92, 336
-0.998475, 321, 225, 448, 256
-0.998475, 81, 295, 112, 310
-0.998479, 1, 329, 32, 344
-0.998479, 441, 199, 472, 214
-0.99848, 125, 299, 156, 314
-0.99848, 65, 315, 128, 330
-0.99848, 109, 315, 140, 330
-0.998481, 57, 345, 120, 360
-0.998483, 193, 57, 448, 120
-0.998483, 77, 173, 108, 188
-0.998485, 281, 321, 312, 336
-0.998487, 33, 347, 96, 362
-0.99849, 349, 163, 380, 178
-0.99849, 61, 301, 92, 316
-0.998493, 29, 299, 60, 314
-0.998493, 21, 355, 52, 370
-0.998493, 5, 359, 36, 374
-0.998495, 253, 33, 284, 288
-0.998497, 1, 327, 64, 342
-0.998497, 5, 337, 36, 352
-0.998498, 17, 337, 80, 352
-0.998498, 433, 207, 464, 222
-0.998501, 57, 181, 120, 196
-0.998503, 77, 345, 108, 360
-0.998506, 65, 345, 96, 360
-0.998507, 321, 191, 352, 206
-0.99851, 37, 349, 68, 364
-0.998515, 49, 179, 80, 194
-0.998516, 197, 359, 228, 374
-0.998521, 17, 295, 48, 310
-0.998522, 29, 293, 60, 308
-0.998523, 417, 207, 480, 222
-0.998523, 193, 101, 320, 132
-0.998528, 13, 329, 44, 344
-0.998529, 25, 313, 88, 328
-0.998531, 57, 351, 120, 366
-0.998535, 137, 305, 200, 320
-0.998537, 89, 343, 120, 358
-0.998537, 1, 319, 64, 334
-0.998538, 41, 291, 104, 306
-0.99854, 41, 307, 104, 322
-0.998541, 49, 321, 112, 336
-0.998542, 129, 313, 192, 328
-0.998542, 73, 173, 136, 188
-0.998542, 105, 309, 168, 324
-0.998542, 49, 175, 112, 190
-0.998543, 125, 309, 156, 324
-0.998545, 17, 353, 80, 368
-0.998545, 273, 321, 336, 336
-0.998545, 1, 305, 64, 320
-0.998547, 25, 319, 88, 334
-0.998555, 81, 347, 144, 362
-0.998557, 169, 357, 232, 372
-0.998557, 469, 1, 500, 256
-0.998565, 329, 163, 392, 178
-0.998566, 49, 291, 80, 306
-0.998566, 69, 295, 100, 310
-0.998567, 97, 293, 160, 308
-0.998567, 1, 343, 64, 358
-0.998568, 65, 301, 128, 316
-0.99857, 97, 299, 160, 314
-0.998571, 25, 327, 56, 342
-0.998572, 25, 139, 88, 154
-0.998573, 129, 175, 192, 190
-0.998575, 137, 299, 200, 314
-0.998576, 81, 327, 144, 342
-0.998577, 81, 307, 144, 322
-0.998577, 145, 355, 208, 370
-0.998578, 393, 209, 456, 224
-0.998579, 289, 191, 352, 206
-0.998579, 41, 325, 72, 340
-0.998579, 49, 331, 112, 346
-0.99858, 329, 269, 392, 284
-0.99858, 185, 351, 248, 366
-0.998582, 25, 159, 88, 174
-0.998583, 1, 313, 64, 328
-0.998584, 41, 145, 104, 160
-0.998584, 49, 111, 112, 126
-0.998584, 49, 191, 112, 206
-0.998584, 1, 297, 32, 312
-0.998585, 33, 181, 96, 196
-0.998588, 305, 161, 368, 176
-0.998588, 57, 153, 120, 168
-0.998588, 137, 303, 168, 318
-0.998589, 9, 201, 72, 216
-0.99859, 89, 315, 152, 330
-0.99859, 209, 129, 240, 375
-0.998591, 193, 357, 256, 372
-0.998591, 181, 359, 212, 374
-0.998591, 137, 293, 200, 308
-0.998592, 409, 223, 472, 238
-0.998593, 433, 237, 496, 252
-0.998593, 353, 163, 416, 178
-0.998594, 81, 341, 144, 356
-0.998594, 161, 303, 224, 318
-0.998594, 89, 249, 152, 264
-0.998595, 337, 169, 400, 184
-0.998596, 113, 137, 176, 152
-0.998597, 305, 263, 368, 278
-0.998598, 265, 315, 328, 330
-0.998598, 433, 277, 496, 292
-0.998598, 225, 319, 288, 334
-0.998599, 1, 359, 64, 374
-0.9986, 25, 153, 88, 168
-0.9986, 313, 173, 376, 188
-0.998601, 153, 349, 216, 364
-0.998601, 417, 215, 480, 230
-0.998601, 169, 171, 232, 186
-0.998602, 257, 343, 320, 358
-0.998602, 433, 201, 496, 216
-0.998602, 121, 267, 184, 282
-0.998603, 353, 157, 416, 172
-0.998603, 337, 193, 400, 208
-0.998603, 65, 245, 128, 260
-0.998604, 297, 319, 360, 334
-0.998606, 161, 109, 224, 124
-0.998606, 89, 241, 152, 256
-0.998607, 329, 359, 392, 374
-0.998607, 9, 285, 72, 300
-0.998608, 113, 183, 176, 198
-0.998608, 73, 191, 136, 206
-0.998608, 257, 353, 320, 368
-0.99861, 25, 331, 88, 346
-0.998611, 289, 183, 352, 198
-0.998611, 121, 275, 184, 290
-0.998611, 89, 361, 152, 375
-0.998611, 129, 169, 192, 184
-0.998612, 97, 287, 160, 302
-0.998613, 177, 203, 240, 218
-0.998613, 249, 323, 312, 338
-0.998613, 201, 241, 264, 256
-0.998613, 97, 177, 160, 192
-0.998614, 41, 119, 104, 134
-0.998614, 401, 201, 464, 216
-0.998614, 57, 285, 120, 300
-0.998614, 313, 193, 376, 208
-0.998615, 9, 127, 72, 142
-0.998616, 193, 147, 256, 162
-0.998616, 81, 153, 144, 168
-0.998616, 121, 111, 184, 126
-0.998617, 9, 193, 72, 208
-0.998617, 185, 211, 248, 226
-0.998617, 161, 143, 224, 158
-0.998617, 329, 181, 392, 196
-0.998617, 113, 343, 176, 358
-0.998617, 17, 223, 80, 238
-0.998618, 153, 311, 216, 326
-0.998619, 73, 321, 136, 336
-0.998619, 153, 201, 216, 216
-0.99862, 249, 183, 312, 198
-0.99862, 369, 245, 432, 260
-0.998621, 417, 229, 480, 244
-0.998622, 81, 113, 144, 128
-0.998622, 169, 195, 232, 210
-0.998622, 369, 209, 432, 224
-0.998622, 433, 251, 496, 266
-0.998623, 129, 211, 192, 226
-0.998623, 297, 167, 360, 182
-0.998623, 41, 207, 104, 222
-0.998624, 289, 173, 352, 188
-0.998624, 169, 321, 232, 336
-0.998624, 233, 343, 296, 358
-0.998624, 57, 213, 120, 228
-0.998624, 49, 297, 80, 312
-0.998629, 357, 1, 388, 256
-0.998644, 189, 353, 220, 368
-0.998684, 317, 129, 348, 375
-0.998729, 289, 129, 320, 375
-0.998734, 69, 129, 100, 375
-0.998752, 105, 129, 136, 375
-0.998762, 161, 17, 416, 80
-0.998799, 365, 129, 396, 375
-0.9988, 129, 129, 160, 375
-0.998804, 197, 129, 228, 375
-0.998816, 269, 129, 300, 375
-0.998865, 5, 129, 36, 375
-0.99887, 329, 129, 360, 375
-0.998896, 241, 33, 272, 288
-0.99893, 257, 1, 500, 64
-0.998973, 465, 129, 496, 375
-0.99902, 401, 129, 432, 375
-0.999036, 471, 177, 486, 304
-0.99906, 155, 241, 170, 368
-0.999082, 1, 89, 500, 152
-0.999093, 111, 161, 126, 288
-0.999096, 107, 209, 122, 336
-0.999101, 19, 241, 34, 368
-0.999103, 41, 113, 56, 240
-0.999104, 141, 241, 156, 368
-0.999104, 13, 241, 28, 368
-0.999106, 105, 161, 120, 288
-0.999117, 385, 129, 416, 375
-0.999147, 149, 225, 164, 352
-0.999174, 141, 193, 156, 320
-0.999176, 83, 225, 98, 352
-0.999184, 379, 241, 394, 368
-0.999198, 321, 145, 336, 272
-0.999202, 1, 225, 16, 352
-0.99921, 453, 129, 484, 375
-0.999211, 53, 241, 68, 368
-0.999212, 43, 33, 58, 160
-0.999213, 329, 161, 344, 288
-0.999215, 53, 145, 68, 272
-0.999216, 101, 209, 116, 336
-0.999224, 479, 177, 494, 304
-0.999235, 429, 177, 444, 304
-0.999238, 129, 225, 144, 352
-0.99924, 121, 97, 136, 224
-0.999241, 115, 225, 130, 352
-0.999241, 137, 145, 152, 272
-0.999243, 63, 225, 78, 352
-0.999249, 33, 49, 48, 176
-0.99925, 27, 241, 42, 368
-0.999252, 207, 193, 222, 320
-0.999259, 135, 97, 150, 224
-0.999262, 73, 225, 88, 352
-0.999263, 183, 33, 198, 160
-0.999267, 101, 113, 116, 240
-0.99929, 45, 241, 60, 368
-0.999292, 33, 113, 48, 240
-0.999292, 129, 97, 144, 224
-0.999296, 385, 177, 400, 304
-0.999298, 49, 193, 64, 320
-0.999303, 3, 33, 18, 160
-0.999303, 213, 33, 228, 160
-0.999305, 197, 33, 212, 160
-0.999311, 287, 241, 302, 368
-0.999312, 481, 225, 496, 352
-0.999317, 257, 81, 500, 144
-0.999318, 67, 129, 82, 256
-0.999318, 457, 177, 472, 304
-0.999322, 445, 177, 460, 304
-0.999332, 203, 33, 218, 160
-0.999335, 169, 145, 184, 272
-0.999335, 163, 209, 178, 336
-0.999337, 143, 113, 158, 240
-0.999337, 95, 145, 110, 272
-0.999338, 95, 225, 110, 352
-0.999338, 173, 33, 188, 160
-0.999344, 53, 97, 68, 224
-0.999346, 131, 145, 146, 272
-0.999346, 73, 33, 88, 160
-0.999348, 59, 161, 74, 288
-0.999348, 25, 97, 40, 224
-0.999349, 73, 145, 88, 272
-0.999351, 59, 17, 74, 144
-0.999351, 341, 97, 372, 352
-0.999353, 99, 33, 114, 160
-0.999354, 313, 129, 328, 256
-0.999357, 107, 17, 122, 144
-0.999359, 285, 177, 300, 304
-0.999363, 49, 33, 64, 160
-0.999368, 213, 193, 228, 320
-0.999373, 463, 177, 478, 304
-0.999375, 149, 97, 164, 224
-0.999378, 135, 241, 150, 368
-0.999378, 439, 193, 454, 320
-0.999378, 79, 145, 94, 272
-0.999379, 361, 161, 376, 288
-0.999387, 121, 225, 136, 352
-0.999388, 13, 193, 28, 320
-0.99939, 229, 129, 260, 375
-0.999391, 451, 225, 466, 352
-0.999393, 473, 129, 488, 256
-0.999398, 21, 33, 36, 160
-0.999401, 219, 33, 234, 160
-0.999402, 39, 241, 54, 368
-0.999403, 343, 225, 358, 352
-0.999403, 187, 97, 202, 224
-0.999403, 205, 113, 220, 240
-0.999403, 89, 241, 104, 368
-0.999406, 227, 33, 242, 160
-0.999412, 475, 225, 490, 352
-0.999413, 163, 97, 178, 224
-0.999416, 235, 241, 250, 368
-0.999421, 375, 193, 390, 320
-0.999422, 79, 33, 94, 160
-0.999425, 245, 225, 260, 352
-0.999426, 123, 145, 138, 272
-0.999426, 313, 193, 328, 320
-0.999428, 21, 193, 36, 320
-0.999428, 107, 97, 122, 224
-0.999429, 417, 145, 432, 272
-0.999429, 15, 33, 30, 160
-0.99943, 159, 145, 174, 272
-0.999431, 193, 97, 208, 224
-0.999431, 5, 129, 20, 256
-0.999431, 257, 209, 272, 336
-0.999432, 13, 145, 28, 272
-0.999433, 257, 161, 272, 288
-0.999433, 181, 129, 196, 256
-0.999435, 193, 177, 208, 304
-0.999437, 301, 241, 316, 368
-0.999438, 199, 225, 214, 352
-0.999443, 93, 17, 108, 144
-0.999443, 121, 17, 136, 144
-0.999444, 353, 145, 368, 272
-0.999446, 239, 33, 254, 160
-0.999447, 385, 225, 400, 352
-0.999448, 291, 193, 306, 320
-0.999448, 223, 241, 238, 368
-0.999449, 33, 241, 48, 368
-0.999449, 301, 129, 332, 375
-0.999452, 37, 161, 52, 288
-0.999452, 149, 177, 164, 304
-0.999454, 115, 17, 130, 144
-0.999455, 279, 209, 294, 336
-0.999456, 267, 193, 282, 320
-0.999457, 145, 17, 160, 144
-0.999458, 47, 97, 62, 224
-0.999458, 185, 241, 200, 368
-0.99946, 485, 177, 500, 304
-0.999462, 7, 241, 22, 368
-0.999464, 219, 113, 234, 240
-0.999465, 135, 17, 150, 144
-0.999465, 155, 193, 170, 320
-0.999465, 75, 97, 90, 224
-0.999466, 321, 97, 336, 224
-0.99947, 441, 97, 472, 352
-0.999492, 421, 129, 452, 375
-0.999561, 245, 129, 276, 375
-0.999603, 31, 307, 46, 322
-0.999603, 3, 287, 18, 302
-0.999603, 101, 177, 116, 192
-0.999604, 97, 339, 112, 354
-0.999605, 71, 191, 86, 206
-0.999605, 87, 295, 102, 310
-0.999605, 391, 165, 406, 180
-0.999605, 381, 161, 396, 176
-0.999605, 287, 215, 302, 230
-0.999606, 469, 229, 484, 244
-0.999606, 89, 351, 104, 366
-0.999606, 161, 141, 176, 156
-0.999606, 15, 305, 30, 320
-0.999607, 313, 321, 328, 336
-0.999608, 485, 237, 500, 252
-0.999608, 353, 181, 368, 196
-0.999609, 189, 161, 204, 176
-0.999609, 81, 305, 96, 320
-0.999609, 425, 217, 440, 232
-0.999609, 87, 339, 102, 354
-0.99961, 191, 349, 206, 364
-0.999611, 167, 303, 182, 318
-0.999611, 131, 309, 146, 324
-0.999611, 41, 349, 56, 364
-0.999612, 349, 165, 364, 180
-0.999613, 183, 353, 198, 368
-0.999613, 347, 173, 362, 188
-0.999613, 81, 175, 96, 190
-0.999614, 53, 307, 68, 322
-0.999614, 379, 271, 394, 286
-0.999614, 283, 321, 298, 336
-0.999614, 199, 345, 214, 360
-0.999615, 31, 349, 46, 364
-0.999615, 205, 361, 220, 375
-0.999616, 103, 311, 118, 326
-0.999616, 483, 231, 498, 246
-0.999617, 431, 197, 446, 212
-0.999617, 15, 357, 30, 372
-0.999618, 157, 267, 172, 282
-0.999618, 83, 185, 98, 200
-0.999618, 57, 345, 72, 360
-0.999619, 103, 323, 118, 338
-0.999619, 9, 297, 24, 312
-0.99962, 31, 361, 46, 375
-0.99962, 71, 325, 86, 340
-0.99962, 1, 307, 16, 322
-0.99962, 47, 347, 62, 362
-0.999621, 91, 311, 106, 326
-0.999621, 63, 351, 78, 366
-0.999622, 67, 179, 82, 194
-0.999622, 19, 159, 34, 174
-0.999624, 95, 183, 110, 198
-0.999624, 107, 341, 122, 356
-0.999624, 55, 287, 70, 302
-0.999624, 67, 319, 82, 334
-0.999624, 361, 163, 376, 178
-0.999626, 79, 169, 94, 184
-0.999626, 9, 359, 24, 374
-0.999626, 9, 203, 24, 218
-0.999627, 207, 199, 222, 214
-0.999627, 41, 137, 56, 152
-0.999627, 467, 201, 482, 216
-0.999627, 159, 301, 174, 316
-0.999628, 431, 207, 446, 222
-0.99963, 51, 137, 66, 152
-0.999631, 3, 325, 18, 340
-0.999631, 425, 205, 440, 220
-0.999632, 209, 355, 224, 370
-0.999634, 5, 341, 20, 356
-0.999635, 43, 291, 58, 306
-0.999636, 21, 355, 36, 370
-0.999637, 3, 297, 18, 312
-0.999638, 419, 209, 434, 224
-0.999638, 27, 335, 42, 350
-0.999639, 113, 345, 128, 360
-0.999641, 93, 173, 108, 188
-0.999642, 35, 299, 50, 314
-0.999642, 75, 303, 90, 318
-0.999643, 97, 345, 112, 360
-0.999643, 437, 205, 452, 220
-0.999647, 5, 331, 20, 346
-0.999648, 63, 307, 78, 322
-0.999648, 19, 299, 34, 314
-0.999649, 11, 339, 26, 354
-0.999649, 465, 223, 480, 238
-0.999655, 141, 293, 156, 308
-0.999657, 341, 163, 356, 178
-0.99966, 17, 337, 32, 352
-0.999662, 43, 299, 58, 314
-0.999663, 355, 163, 370, 178
-0.999666, 191, 361, 206, 375
-0.999667, 197, 357, 212, 372
-0.999667, 353, 157, 368, 172
-0.999668, 39, 325, 54, 340
-0.999668, 63, 325, 78, 340
-0.999669, 25, 327, 40, 342
-0.99967, 69, 185, 84, 200
-0.99967, 47, 325, 62, 340
-0.999671, 143, 299, 158, 314
-0.999671, 29, 293, 44, 308
-0.999674, 73, 295, 88, 310
-0.999674, 49, 295, 64, 310
-0.999674, 57, 323, 72, 338
-0.999674, 107, 187, 122, 202
-0.999677, 25, 299, 40, 314
-0.999681, 139, 305, 154, 320
-0.999682, 73, 175, 88, 190
-0.999683, 75, 345, 90, 360
-0.999683, 149, 295, 164, 310
-0.999685, 1, 361, 16, 375
-0.999686, 149, 301, 164, 316
-0.999687, 61, 291, 76, 306
-0.999689, 53, 301, 68, 316
-0.999689, 177, 361, 192, 375
-0.999689, 15, 293, 30, 308
-0.999689, 19, 329, 34, 344
-0.99969, 23, 293, 38, 308
-0.99969, 67, 291, 82, 306
-0.999693, 61, 301, 76, 316
-0.999697, 27, 355, 42, 370
-0.999701, 81, 343, 96, 358
-0.999706, 55, 295, 70, 310
-0.999708, 69, 345, 84, 360
-0.999711, 31, 327, 46, 342
-0.999712, 87, 345, 102, 360
-0.999716, 13, 329, 28, 344
-0.999728, 67, 297, 82, 312
-0.999732, 183, 359, 198, 374
-0.999733, 201, 351, 216, 366
-0.999755, 191, 355, 206, 370
-0.999951, 1, 57, 256, 120
-1.00001, 257, 129, 288, 375
-1.00001, 1, 9, 500, 72
-1.0006, 1, 65, 500, 128
