1659
-0.260024, 1, 1, 268, 400
-0.261401, 1, 1, 268, 256
-0.409057, 1, 97, 268, 352
-0.42607, 1, 1, 256, 400
-0.478072, 1, 1, 256, 256
-0.653414, 1, 97, 256, 352
-0.826441, 1, 33, 128, 288
-0.82918, 49, 1, 176, 256
-0.848625, 129, 1, 256, 256
-0.855802, 33, 1, 160, 400
-0.861472, 1, 81, 268, 208
-0.870446, 49, 97, 176, 352
-0.875457, 1, 33, 268, 160
-0.876797, 81, 1, 208, 400
-0.881727, 1, 129, 268, 256
-0.881787, 1, 129, 128, 384
-0.895559, 97, 129, 224, 384
-0.895657, 145, 1, 268, 400
-0.898117, 145, 97, 268, 352
-0.904938, 1, 81, 256, 208
-0.910603, 1, 177, 268, 304
-0.915606, 1, 33, 256, 160
-0.92039, 1, 129, 256, 256
-0.928351, 161, 97, 224, 224
-0.929116, 145, 49, 268, 176
-0.930359, 113, 97, 240, 224
-0.931993, 113, 81, 176, 208
-0.93309, 65, 65, 192, 192
-0.933213, 73, 65, 136, 192
-0.934888, 65, 113, 128, 240
-0.935585, 1, 17, 128, 144
-0.938041, 17, 129, 144, 256
-0.939029, 97, 17, 224, 144
-0.939602, 49, 65, 112, 192
-0.941279, 89, 161, 152, 288
-0.941469, 81, 161, 208, 288
-0.941827, 33, 129, 96, 256
-0.941856, 145, 17, 208, 144
-0.942289, 105, 33, 168, 160
-0.942419, 1, 177, 256, 304
-0.943307, 193, 33, 256, 160
-0.943357, 145, 1, 268, 128
-0.943859, 49, 17, 112, 144
-0.944879, 193, 81, 256, 208
-0.944961, 17, 81, 144, 208
-0.945009, 9, 17, 72, 144
-0.945796, 81, 1, 144, 128
-0.945815, 145, 145, 268, 272
-0.946305, 177, 33, 240, 96
-0.946789, 49, 17, 176, 144
-0.946885, 201, 129, 264, 256
-0.948247, 17, 65, 80, 192
-0.949143, 209, 9, 268, 72
-0.950957, 17, 65, 80, 128
-0.951063, 137, 81, 200, 208
-0.951378, 113, 129, 176, 256
-0.951474, 25, 105, 88, 168
-0.952491, 1, 225, 268, 352
-0.95301, 65, 113, 192, 240
-0.953288, 49, 57, 112, 120
-0.953369, 9, 41, 72, 104
-0.953657, 169, 1, 232, 128
-0.953659, 105, 57, 168, 120
-0.953913, 49, 89, 112, 152
-0.953981, 129, 49, 192, 112
-0.954006, 73, 65, 136, 128
-0.954009, 153, 57, 216, 120
-0.954136, 41, 129, 104, 192
-0.955066, 105, 137, 168, 200
-0.955634, 33, 33, 96, 96
-0.955735, 41, 193, 104, 320
-0.955833, 25, 161, 88, 224
-0.955861, 177, 145, 240, 272
-0.95608, 1, 105, 64, 168
-0.956096, 41, 193, 104, 256
-0.956139, 137, 145, 200, 272
-0.956794, 153, 1, 216, 64
-0.957351, 113, 81, 176, 144
-0.957667, 89, 113, 152, 240
-0.957744, 169, 49, 232, 176
-0.958961, 33, 193, 160, 320
-0.959347, 65, 33, 128, 96
-0.95953, 185, 9, 248, 72
-0.959919, 25, 33, 88, 288
-0.960888, 9, 129, 72, 192
-0.961061, 65, 113, 128, 176
-0.961495, 193, 89, 256, 152
-0.961788, 65, 1, 128, 256
-0.963359, 129, 105, 192, 168
-0.963448, 1, 161, 64, 224
-0.963455, 153, 81, 216, 144
-0.963574, 145, 25, 208, 88
-0.963967, 105, 113, 168, 176
-0.964001, 209, 57, 268, 120
-0.964023, 9, 145, 72, 272
-0.964929, 105, 161, 168, 224
-0.965211, 73, 65, 104, 128
-0.965213, 65, 137, 128, 200
-0.965408, 1, 1, 64, 256
-0.965612, 73, 177, 136, 240
-0.966099, 73, 89, 136, 152
-0.966351, 89, 65, 152, 320
-0.966671, 193, 17, 224, 80
-0.966702, 169, 1, 232, 256
-0.966914, 65, 193, 128, 320
-0.967032, 161, 105, 224, 168
-0.96726, 53, 81, 84, 208
-0.967275, 77, 65, 108, 192
-0.967717, 177, 1, 208, 128
-0.967743, 209, 113, 268, 176
-0.968583, 177, 57, 240, 120
-0.968592, 53, 97, 84, 160
-0.968682, 97, 1, 160, 64
-0.968697, 1, 9, 64, 72
-0.968966, 113, 33, 176, 288
-0.969, 177, 49, 208, 176
-0.969096, 209, 33, 268, 96
-0.969493, 193, 1, 256, 256
-0.969563, 73, 201, 136, 264
-0.969582, 129, 137, 192, 200
-0.969582, 113, 177, 176, 304
-0.969851, 129, 41, 256, 104
-0.969872, 49, 57, 176, 120
-0.970122, 49, 97, 112, 352
-0.970191, 129, 169, 192, 232
-0.970196, 17, 185, 80, 248
-0.970379, 101, 129, 132, 256
-0.970592, 73, 9, 136, 72
-0.970668, 33, 17, 64, 144
-0.970856, 165, 33, 196, 160
-0.970983, 33, 217, 96, 280
-0.970995, 185, 41, 216, 104
-0.971007, 93, 49, 124, 176
-0.971019, 129, 49, 160, 112
-0.971027, 17, 33, 144, 96
-0.971206, 145, 81, 268, 144
-0.971222, 165, 65, 196, 128
-0.971302, 17, 193, 80, 320
-0.971623, 45, 129, 76, 256
-0.971671, 49, 121, 80, 184
-0.971734, 65, 81, 192, 144
-0.971805, 89, 33, 152, 96
-0.972778, 41, 81, 72, 208
-0.973035, 17, 89, 144, 152
-0.97323, 97, 185, 160, 248
-0.973238, 137, 1, 200, 256
-0.973243, 49, 129, 176, 192
-0.973292, 85, 65, 116, 128
-0.973464, 201, 177, 264, 304
-0.973488, 53, 41, 84, 104
-0.973538, 105, 137, 136, 200
-0.973617, 177, 97, 208, 224
-0.973701, 237, 97, 268, 224
-0.973822, 37, 81, 68, 144
-0.973899, 73, 225, 136, 288
-0.973987, 169, 145, 232, 208
-0.974025, 97, 1, 224, 64
-0.974072, 57, 33, 88, 160
-0.974374, 1, 225, 256, 352
-0.974553, 57, 65, 88, 128
-0.974646, 121, 97, 152, 224
-0.974669, 189, 97, 220, 224
-0.974698, 29, 65, 60, 192
-0.974843, 237, 17, 268, 80
-0.974856, 189, 49, 220, 176
-0.974869, 65, 97, 96, 160
-0.974903, 73, 17, 104, 144
-0.97497, 177, 65, 208, 128
-0.975034, 217, 65, 248, 192
-0.975101, 29, 41, 60, 104
-0.975167, 17, 161, 144, 224
-0.975308, 221, 1, 252, 128
-0.975412, 61, 193, 92, 256
-0.975542, 49, 145, 80, 208
-0.975648, 209, 129, 240, 256
-0.975652, 217, 9, 248, 72
-0.975665, 1, 65, 128, 128
-0.975702, 65, 41, 96, 104
-0.97572, 17, 65, 48, 192
-0.975731, 117, 49, 148, 112
-0.976007, 221, 113, 252, 240
-0.976037, 129, 105, 256, 168
-0.976104, 33, 105, 64, 168
-0.97622, 121, 73, 152, 136
-0.976226, 141, 81, 172, 144
-0.976368, 1, 113, 128, 176
-0.976369, 201, 49, 232, 176
-0.976435, 121, 129, 152, 192
-0.976465, 65, 25, 192, 88
-0.976553, 57, 129, 88, 256
-0.976608, 81, 209, 208, 336
-0.976662, 33, 129, 64, 256
-0.976688, 49, 161, 112, 224
-0.976739, 181, 17, 212, 80
-0.976768, 133, 33, 164, 160
-0.976807, 1, 97, 64, 352
-0.976833, 193, 1, 224, 128
-0.97684, 145, 193, 268, 320
-0.976904, 129, 129, 192, 384
-0.977159, 41, 1, 104, 64
-0.977206, 153, 81, 184, 144
-0.977216, 189, 81, 220, 144
-0.977224, 141, 57, 172, 120
-0.977225, 149, 97, 180, 224
-0.977262, 85, 113, 116, 240
-0.977435, 41, 33, 72, 96
-0.977465, 29, 169, 60, 232
-0.977553, 1, 49, 32, 176
-0.977612, 77, 33, 108, 96
-0.977801, 197, 41, 228, 104
-0.977944, 33, 129, 64, 192
-0.977979, 221, 81, 252, 144
-0.978081, 161, 97, 192, 224
-0.978174, 101, 161, 132, 224
-0.978184, 1, 33, 32, 96
-0.978337, 81, 105, 208, 168
-0.97838, 109, 65, 140, 192
-0.978419, 97, 1, 128, 128
-0.97843, 165, 41, 196, 104
-0.978437, 21, 73, 52, 136
-0.978496, 9, 209, 72, 272
-0.978597, 205, 1, 236, 128
-0.978639, 21, 17, 52, 144
-0.978709, 41, 201, 72, 264
-0.978772, 97, 57, 128, 120
-0.97882, 237, 57, 268, 120
-0.978924, 13, 105, 44, 168
-0.978975, 129, 153, 256, 216
-0.9792, 201, 153, 264, 216
-0.979249, 129, 97, 160, 160
-0.979427, 221, 33, 252, 96
-0.979575, 229, 113, 260, 176
-0.979622, 205, 9, 236, 72
-0.979667, 209, 33, 240, 96
-0.979741, 1, 9, 128, 72
-0.97986, 193, 145, 224, 272
-0.980194, 61, 121, 92, 184
-0.980263, 85, 1, 116, 128
-0.980286, 177, 105, 208, 168
-0.980302, 73, 1, 136, 400
-0.980306, 49, 169, 80, 232
-0.980346, 221, 57, 252, 120
-0.98037, 25, 1, 88, 400
-0.980382, 1, 273, 268, 400
-0.980406, 185, 121, 248, 184
-0.980633, 49, 1, 112, 400
-0.980706, 145, 17, 268, 80
-0.980716, 1, 73, 32, 136
-0.980741, 133, 145, 164, 208
-0.980769, 233, 1, 264, 128
-0.980776, 73, 129, 104, 256
-0.980902, 1, 1, 32, 128
-0.980943, 65, 241, 128, 368
-0.980959, 65, 177, 192, 240
-0.981047, 109, 1, 140, 128
-0.981055, 161, 193, 224, 256
-0.981115, 17, 201, 144, 264
-0.981122, 101, 105, 132, 168
-0.981143, 161, 97, 224, 352
-0.981171, 45, 33, 76, 160
-0.981172, 85, 121, 116, 184
-0.981226, 81, 217, 112, 280
-0.98123, 89, 209, 152, 336
-0.981235, 97, 129, 224, 192
-0.981485, 205, 97, 236, 160
-0.981518, 149, 161, 180, 288
-0.981524, 169, 1, 200, 64
-0.981725, 97, 81, 128, 144
-0.98177, 145, 49, 176, 176
-0.981831, 81, 89, 112, 152
-0.981864, 113, 25, 176, 88
-0.981923, 65, 81, 96, 208
-0.981965, 169, 193, 232, 320
-0.981978, 145, 145, 176, 208
-0.982043, 25, 129, 88, 384
-0.98208, 69, 193, 100, 320
-0.982141, 41, 57, 72, 120
-0.982144, 169, 169, 232, 232
-0.982245, 169, 177, 200, 304
-0.982291, 157, 105, 188, 168
-0.982328, 121, 33, 152, 160
-0.982328, 113, 145, 144, 272
-0.982361, 109, 73, 140, 136
-0.982386, 237, 81, 268, 144
-0.982471, 65, 153, 192, 216
-0.982565, 1, 137, 128, 200
-0.982757, 1, 97, 32, 224
-0.982878, 73, 121, 104, 184
-0.982904, 117, 1, 148, 64
-0.983033, 237, 161, 268, 288
-0.98311, 93, 177, 124, 304
-0.983412, 149, 1, 180, 128
-0.983473, 201, 177, 264, 240
-0.983584, 1, 105, 32, 168
-0.9836, 57, 249, 120, 312
-0.983645, 145, 129, 268, 192
-0.983663, 9, 161, 40, 224
-0.98374, 137, 97, 168, 224
-0.983884, 209, 97, 268, 352
-0.983994, 13, 33, 44, 96
-0.983997, 97, 1, 160, 400
-0.984028, 33, 241, 160, 368
-0.984046, 145, 17, 176, 80
-0.984079, 209, 57, 240, 120
-0.984185, 81, 209, 112, 336
-0.984335, 117, 169, 148, 232
-0.98456, 129, 1, 192, 64
-0.98461, 205, 121, 236, 184
-0.984778, 217, 121, 248, 184
-0.985009, 237, 49, 268, 176
-0.985048, 1, 1, 64, 400
-0.985121, 93, 33, 124, 96
-0.985246, 93, 193, 124, 256
-0.985386, 153, 41, 184, 104
-0.985396, 193, 233, 256, 296
-0.98549, 181, 161, 212, 288
-0.985563, 137, 145, 168, 272
-0.985582, 49, 1, 176, 64
-0.985925, 113, 97, 144, 160
-0.986008, 73, 185, 104, 248
-0.986031, 57, 193, 88, 320
-0.986061, 225, 161, 256, 288
-0.98611, 161, 1, 224, 400
-0.986154, 25, 193, 56, 256
-0.986197, 85, 169, 116, 232
-0.986256, 41, 177, 72, 304
-0.986257, 13, 9, 44, 72
-0.986315, 21, 145, 52, 272
-0.986568, 137, 193, 200, 256
-0.986623, 97, 209, 160, 272
-0.986651, 113, 185, 240, 248
-0.986671, 145, 241, 268, 368
-0.986719, 129, 1, 192, 400
-0.987095, 65, 209, 192, 272
-0.987171, 145, 105, 176, 168
-0.987247, 225, 145, 256, 208
-0.987517, 57, 217, 88, 280
-0.987548, 153, 177, 184, 240
-0.987678, 13, 129, 44, 192
-0.987838, 201, 1, 264, 400
-0.98789, 237, 161, 268, 224
-0.987989, 157, 129, 188, 192
-0.988055, 17, 81, 80, 112
-0.988096, 1, 145, 256, 208
-0.988099, 105, 33, 136, 96
-0.9881, 1, 89, 256, 152
-0.988116, 145, 209, 208, 336
-0.988326, 193, 121, 224, 184
-0.988422, 61, 169, 92, 232
-0.988445, 57, 85, 120, 116
-0.988539, 1, 69, 64, 100
-0.988668, 97, 137, 160, 168
-0.988681, 61, 145, 92, 208
-0.98876, 25, 189, 88, 220
-0.988777, 185, 29, 248, 60
-0.988798, 1, 37, 64, 68
-0.988831, 97, 77, 160, 108
-0.988851, 209, 17, 268, 48
-0.988854, 97, 97, 160, 128
-0.988887, 129, 85, 192, 116
-0.988898, 41, 101, 104, 132
-0.98895, 89, 57, 152, 88
-0.988955, 177, 49, 240, 80
-0.98896, 185, 17, 248, 48
-0.988972, 49, 65, 112, 96
-0.988992, 1, 137, 32, 200
-0.989036, 73, 125, 136, 156
-0.989073, 65, 141, 128, 172
-0.989106, 133, 169, 164, 232
-0.989123, 1, 41, 256, 104
-0.989148, 129, 25, 160, 88
-0.98917, 25, 69, 88, 100
-0.989218, 65, 113, 128, 144
-0.989224, 1, 145, 268, 208
-0.989228, 1, 89, 268, 152
-0.989281, 25, 205, 88, 236
-0.989311, 137, 61, 200, 92
-0.989346, 1, 65, 256, 128
-0.989354, 193, 97, 256, 128
-0.989356, 97, 233, 160, 296
-0.989358, 209, 65, 268, 96
-0.989394, 9, 125, 72, 156
-0.989444, 237, 137, 268, 200
-0.989483, 41, 37, 104, 68
-0.989498, 185, 97, 248, 352
-0.989531, 161, 85, 224, 116
-0.989533, 85, 145, 116, 208
-0.989567, 33, 113, 96, 144
-0.989573, 49, 233, 176, 296
-0.989608, 17, 149, 80, 180
-0.989616, 145, 233, 208, 296
-0.989636, 17, 93, 80, 124
-0.989644, 49, 197, 112, 228
-0.989664, 41, 141, 104, 172
-0.989724, 213, 145, 244, 208
-0.989726, 13, 185, 44, 248
-0.989755, 197, 145, 228, 208
-0.989767, 145, 41, 208, 72
-0.989804, 65, 101, 128, 132
-0.98981, 1, 113, 64, 144
-0.989813, 209, 81, 268, 112
-0.989816, 25, 209, 56, 336
-0.989829, 113, 61, 176, 92
-0.989868, 33, 125, 96, 156
-0.989891, 105, 177, 168, 208
-0.989922, 105, 157, 168, 188
-0.989925, 73, 69, 136, 100
-0.989953, 29, 217, 60, 280
-0.989963, 121, 49, 184, 80
-0.989993, 105, 125, 168, 156
-0.989999, 129, 173, 192, 204
-0.990015, 1, 201, 64, 232
-0.990017, 177, 73, 240, 104
-0.99003, 25, 53, 88, 84
-0.990043, 153, 73, 216, 104
-0.990113, 65, 37, 128, 68
-0.990169, 209, 37, 268, 68
-0.990184, 49, 209, 112, 240
-0.990227, 1, 121, 256, 184
-0.990256, 73, 237, 136, 268
-0.990263, 201, 173, 264, 204
-0.990277, 65, 53, 128, 84
-0.990298, 1, 41, 268, 104
-0.990311, 113, 113, 176, 144
-0.990322, 33, 9, 64, 72
-0.990413, 161, 29, 224, 60
-0.990433, 145, 97, 208, 128
-0.990437, 1, 25, 64, 56
-0.990452, 169, 181, 232, 212
-0.990471, 145, 241, 268, 304
-0.990485, 129, 73, 192, 104
-0.990507, 185, 61, 248, 92
-0.990514, 193, 257, 256, 384
-0.990531, 1, 65, 268, 128
-0.990566, 65, 181, 128, 212
-0.990567, 1, 225, 128, 288
-0.990611, 65, 153, 128, 184
-0.990632, 17, 137, 80, 168
-0.990646, 133, 1, 164, 64
-0.990703, 33, 221, 96, 252
-0.990706, 133, 121, 164, 184
-0.99071, 73, 9, 104, 72
-0.990741, 153, 5, 216, 36
-0.990755, 177, 137, 240, 168
-0.990762, 201, 129, 264, 160
-0.990774, 25, 177, 88, 208
-0.990808, 69, 217, 100, 280
-0.990812, 145, 145, 208, 176
-0.990823, 41, 153, 104, 184
-0.990831, 193, 5, 256, 36
-0.990847, 85, 9, 116, 72
-0.990851, 169, 153, 200, 216
-0.990858, 77, 241, 108, 304
-0.990861, 121, 141, 184, 172
-0.990895, 89, 109, 152, 140
-0.990938, 113, 1, 176, 32
-0.990952, 1, 49, 64, 80
-0.990975, 121, 101, 184, 132
-0.990988, 129, 125, 192, 156
-0.991028, 125, 177, 156, 304
-0.991042, 57, 225, 120, 256
-0.991083, 97, 45, 160, 76
-0.991083, 105, 1, 136, 64
-0.991105, 73, 193, 136, 224
-0.99114, 169, 165, 232, 196
-0.991199, 1, 169, 64, 200
-0.991204, 129, 185, 192, 216
-0.991228, 5, 145, 36, 272
-0.99128, 1, 1, 256, 64
-0.991284, 25, 165, 88, 196
-0.991292, 65, 169, 128, 200
-0.991304, 73, 25, 136, 56
-0.991326, 201, 185, 264, 216
-0.991341, 185, 85, 248, 116
-0.991364, 209, 53, 268, 84
-0.991385, 169, 101, 232, 132
-0.991439, 161, 17, 224, 48
-0.991444, 1, 189, 64, 220
-0.99145, 1, 121, 268, 184
-0.99146, 185, 149, 248, 180
-0.991486, 41, 25, 104, 56
-0.991519, 201, 161, 264, 192
-0.991552, 33, 249, 96, 312
-0.991566, 105, 185, 136, 248
-0.99164, 161, 61, 224, 92
-0.991659, 105, 189, 168, 220
-0.991716, 65, 249, 128, 280
-0.991748, 89, 249, 152, 280
-0.991766, 1, 213, 64, 244
-0.991784, 169, 233, 232, 296
-0.991792, 137, 157, 200, 188
-0.991809, 73, 213, 136, 244
-0.991892, 97, 233, 160, 264
-0.991893, 209, 117, 268, 148
-0.991895, 105, 13, 168, 44
-0.991902, 169, 125, 232, 156
-0.991924, 41, 245, 104, 276
-0.991928, 209, 141, 268, 172
-0.991929, 145, 109, 208, 140
-0.991944, 73, 313, 136, 376
-0.991968, 45, 9, 76, 72
-0.991993, 161, 193, 224, 224
-0.992018, 93, 225, 124, 288
-0.992031, 129, 245, 192, 276
-0.992059, 81, 5, 144, 36
-0.992085, 49, 85, 80, 116
-0.992092, 129, 49, 160, 80
-0.992097, 189, 29, 220, 60
-0.992124, 45, 205, 76, 236
-0.992137, 1, 5, 64, 36
-0.992141, 185, 241, 248, 272
-0.992144, 33, 1, 96, 32
-0.992146, 61, 81, 92, 112
-0.992158, 197, 45, 228, 76
-0.992169, 21, 77, 52, 108
-0.99217, 37, 77, 68, 108
-0.992177, 109, 129, 140, 160
-0.992185, 53, 121, 84, 152
-0.992197, 1, 77, 32, 108
-0.992231, 97, 57, 128, 88
-0.992245, 53, 101, 84, 132
-0.992265, 205, 177, 236, 304
-0.99227, 77, 65, 108, 96
-0.992323, 153, 241, 216, 272
-0.992327, 197, 17, 228, 48
-0.992334, 41, 109, 72, 140
-0.992336, 117, 25, 148, 88
-0.992339, 217, 25, 248, 56
-0.992362, 53, 141, 84, 172
-0.992363, 121, 141, 152, 172
-0.992363, 37, 37, 68, 68
-0.992366, 205, 129, 236, 160
-0.992382, 45, 65, 76, 96
-0.992382, 21, 97, 52, 128
-0.992384, 97, 129, 128, 160
-0.992388, 209, 241, 268, 272
-0.992393, 185, 17, 216, 48
-0.992395, 117, 65, 148, 96
-0.9924, 29, 65, 60, 96
-0.992404, 233, 17, 264, 48
-0.992406, 165, 193, 196, 256
-0.992411, 5, 89, 36, 120
-0.992411, 229, 73, 260, 104
-0.992416, 73, 101, 104, 132
-0.992428, 1, 77, 128, 108
-0.99243, 185, 45, 216, 76
-0.992434, 85, 113, 116, 144
-0.992458, 101, 141, 132, 172
-0.992466, 145, 93, 176, 124
-0.992472, 41, 97, 72, 128
-0.992481, 145, 81, 268, 112
-0.992487, 199, 9, 214, 72
-0.992494, 49, 37, 80, 68
-0.992499, 205, 169, 236, 232
-0.992502, 169, 69, 200, 100
-0.992503, 21, 113, 52, 144
-0.992507, 37, 49, 68, 80
-0.992512, 105, 29, 168, 60
-0.992512, 137, 29, 200, 60
-0.992516, 65, 197, 96, 228
-0.992522, 217, 13, 248, 44
-0.99253, 1, 105, 32, 136
-0.992531, 33, 233, 96, 264
-0.992541, 105, 161, 136, 192
-0.992541, 1, 149, 32, 180
-0.992546, 73, 89, 104, 120
-0.99255, 1, 1, 268, 64
-0.992566, 181, 65, 212, 96
-0.992571, 1, 117, 32, 148
-0.992573, 105, 173, 136, 204
-0.992576, 213, 65, 244, 96
-0.992587, 133, 85, 164, 116
-0.992594, 1, 65, 32, 96
-0.9926, 169, 113, 232, 144
-0.992609, 213, 173, 244, 204
-0.992612, 97, 85, 128, 116
-0.992613, 49, 193, 80, 224
-0.992617, 65, 69, 96, 100
-0.992621, 105, 105, 136, 136
-0.992621, 33, 13, 96, 44
-0.992624, 117, 53, 148, 84
-0.992625, 233, 29, 264, 60
-0.992629, 237, 89, 268, 120
-0.992633, 113, 81, 144, 112
-0.992641, 177, 81, 208, 112
-0.992648, 117, 173, 148, 204
-0.992649, 73, 121, 104, 152
-0.99265, 237, 173, 268, 204
-0.99265, 225, 169, 256, 232
-0.992651, 37, 125, 68, 156
-0.992656, 221, 93, 252, 124
-0.992667, 121, 97, 152, 128
-0.992667, 137, 17, 200, 48
-0.992683, 201, 33, 232, 64
-0.992691, 197, 85, 228, 116
-0.992693, 105, 117, 136, 148
-0.992695, 209, 81, 240, 112
-0.992699, 149, 173, 180, 204
-0.992703, 237, 61, 268, 92
-0.992705, 29, 193, 60, 224
-0.99271, 9, 133, 40, 164
-0.99272, 233, 5, 264, 36
-0.992723, 61, 209, 92, 240
-0.992723, 49, 153, 80, 184
-0.992726, 57, 57, 88, 88
-0.99274, 161, 81, 192, 112
-0.992753, 85, 89, 116, 120
-0.992759, 129, 61, 160, 92
-0.992772, 201, 65, 232, 96
-0.992775, 173, 9, 204, 40
-0.992778, 65, 37, 96, 68
-0.992781, 65, 141, 96, 172
-0.992784, 217, 37, 248, 68
-0.992785, 225, 61, 256, 92
-0.992787, 1, 37, 32, 68
-0.992787, 121, 129, 152, 160
-0.992787, 225, 173, 256, 204
-0.992788, 77, 233, 108, 264
-0.992799, 25, 149, 56, 180
-0.992802, 197, 153, 228, 184
-0.992803, 221, 129, 252, 160
-0.992804, 193, 97, 224, 128
-0.992818, 177, 29, 208, 60
-0.992823, 85, 101, 116, 132
-0.992824, 77, 77, 108, 108
-0.992824, 25, 205, 56, 236
-0.992838, 165, 49, 196, 80
-0.992839, 149, 141, 180, 172
-0.992843, 25, 37, 56, 68
-0.992852, 185, 5, 216, 36
-0.992855, 141, 61, 172, 92
-0.992857, 201, 181, 232, 212
-0.992866, 125, 161, 156, 192
-0.992868, 221, 157, 252, 188
-0.992868, 161, 105, 192, 136
-0.992875, 37, 217, 68, 248
-0.992876, 237, 101, 268, 132
-0.992877, 21, 125, 52, 156
-0.992877, 17, 65, 48, 96
-0.992881, 81, 213, 112, 244
-0.992899, 33, 37, 160, 68
-0.992905, 93, 161, 124, 192
-0.992908, 61, 185, 92, 216
-0.992916, 113, 185, 144, 216
-0.992917, 89, 149, 120, 180
-0.992917, 41, 141, 72, 172
-0.992935, 233, 121, 264, 152
-0.992944, 105, 45, 136, 76
-0.992946, 13, 29, 44, 60
-0.992951, 209, 161, 240, 192
-0.992954, 133, 97, 164, 128
-0.992954, 213, 53, 244, 84
-0.992956, 97, 233, 224, 296
-0.992957, 157, 93, 188, 124
-0.992961, 41, 257, 104, 288
-0.992966, 13, 149, 44, 180
-0.992967, 129, 173, 160, 204
-0.992971, 165, 21, 196, 52
-0.993023, 57, 1, 120, 32
-0.993103, 77, 57, 92, 120
-0.99312, 169, 253, 232, 284
-0.993136, 61, 121, 76, 184
-0.993166, 97, 205, 160, 236
-0.993224, 61, 241, 92, 304
-0.993265, 189, 25, 204, 88
-0.993266, 205, 17, 220, 80
-0.993277, 17, 113, 144, 144
-0.993302, 209, 349, 268, 380
-0.993311, 65, 61, 192, 92
-0.993316, 121, 233, 184, 264
-0.993329, 113, 49, 240, 80
-0.993329, 121, 233, 184, 296
-0.993436, 1, 169, 256, 232
-0.993483, 85, 65, 100, 128
-0.993557, 69, 33, 84, 96
-0.993579, 49, 257, 176, 320
-0.993581, 183, 41, 198, 104
-0.993581, 143, 57, 158, 120
-0.993587, 57, 17, 88, 80
-0.993589, 145, 93, 268, 124
-0.993612, 113, 209, 240, 272
-0.993638, 181, 193, 212, 256
-0.993672, 107, 153, 122, 216
-0.993687, 65, 81, 192, 112
-0.993689, 181, 65, 196, 128
-0.993722, 53, 97, 68, 160
-0.993743, 33, 129, 160, 160
-0.993787, 17, 97, 144, 128
-0.993829, 13, 193, 44, 320
-0.993896, 1, 249, 128, 312
-0.993904, 191, 1, 206, 64
-0.993913, 49, 337, 112, 400
-0.993921, 69, 97, 84, 160
-0.994, 93, 225, 124, 352
-0.99412, 159, 81, 174, 144
-0.99412, 47, 121, 62, 184
-0.994138, 41, 41, 56, 104
-0.994164, 113, 121, 128, 184
-0.994178, 49, 141, 176, 172
-0.994183, 73, 145, 104, 208
-0.994192, 151, 89, 166, 152
-0.994196, 193, 169, 224, 232
-0.994219, 91, 73, 106, 136
-0.994222, 33, 337, 160, 400
-0.994233, 75, 89, 90, 152
-0.994261, 81, 97, 208, 128
-0.994264, 175, 65, 190, 128
-0.994269, 63, 185, 78, 248
-0.9943, 59, 97, 74, 160
-0.994319, 135, 49, 150, 112
-0.994341, 1, 49, 16, 112
-0.994347, 55, 121, 70, 184
-0.994347, 37, 33, 68, 288
-0.994353, 213, 233, 244, 296
-0.99443, 33, 49, 160, 80
-0.994441, 35, 41, 50, 104
-0.994443, 253, 17, 268, 80
-0.99448, 113, 145, 128, 208
-0.994517, 191, 49, 206, 112
-0.994564, 199, 33, 214, 96
-0.994578, 167, 65, 182, 128
-0.994582, 1, 9, 32, 72
-0.994642, 187, 73, 202, 136
-0.994661, 211, 9, 226, 72
-0.994664, 25, 1, 56, 256
-0.994672, 57, 41, 72, 104
-0.994676, 135, 73, 150, 136
-0.994683, 97, 321, 160, 384
-0.994686, 145, 145, 160, 208
-0.99469, 145, 69, 268, 100
-0.994704, 51, 65, 66, 128
-0.994707, 79, 33, 94, 96
-0.994708, 59, 65, 74, 128
-0.994723, 107, 129, 122, 192
-0.994761, 169, 129, 200, 192
-0.994803, 1, 169, 268, 232
-0.994805, 129, 13, 256, 44
-0.994816, 235, 57, 250, 120
-0.994819, 53, 1, 84, 256
-0.994821, 241, 81, 256, 144
-0.994863, 235, 25, 250, 88
-0.994897, 67, 57, 82, 120
-0.994913, 97, 73, 112, 136
-0.994928, 43, 65, 58, 128
-0.994933, 235, 81, 250, 144
-0.994941, 15, 81, 30, 144
-0.994951, 241, 49, 256, 112
-0.994974, 129, 105, 256, 136
-0.994986, 35, 105, 50, 168
-0.994991, 5, 25, 20, 88
-0.994997, 97, 257, 224, 384
-0.995, 213, 49, 228, 112
-0.995054, 169, 241, 232, 368
-0.995055, 1, 65, 128, 96
-0.995057, 71, 121, 86, 184
-0.995138, 113, 81, 128, 144
-0.995158, 145, 173, 268, 204
-0.995179, 193, 193, 224, 320
-0.995186, 129, 29, 256, 60
-0.995186, 41, 129, 56, 192
-0.995214, 129, 153, 256, 184
-0.99523, 105, 57, 120, 120
-0.995231, 37, 169, 52, 232
-0.995244, 141, 33, 156, 96
-0.995246, 241, 113, 256, 176
-0.99525, 25, 81, 40, 144
-0.995252, 31, 73, 46, 136
-0.995282, 181, 209, 212, 336
-0.995287, 11, 105, 26, 168
-0.995306, 85, 33, 100, 96
-0.995306, 121, 129, 136, 192
-0.995321, 1, 149, 128, 180
-0.995332, 27, 105, 42, 168
-0.995335, 87, 209, 102, 272
-0.995353, 231, 1, 246, 64
-0.995354, 69, 153, 84, 216
-0.995354, 165, 97, 180, 160
-0.995366, 17, 177, 144, 208
-0.995371, 53, 145, 68, 208
-0.995373, 7, 65, 22, 128
-0.995377, 199, 89, 214, 152
-0.995381, 77, 121, 92, 184
-0.995407, 1, 193, 256, 256
-0.995418, 139, 153, 154, 216
-0.99542, 75, 193, 90, 256
-0.995447, 97, 185, 224, 216
-0.995448, 145, 129, 268, 160
-0.995466, 225, 233, 256, 296
-0.99549, 141, 81, 156, 144
-0.995504, 65, 65, 96, 320
-0.995517, 77, 65, 108, 320
-0.995522, 251, 81, 266, 144
-0.995523, 137, 105, 152, 168
-0.99553, 47, 89, 62, 152
-0.995533, 167, 41, 182, 104
-0.995557, 145, 305, 268, 368
-0.995573, 1, 73, 16, 136
-0.995575, 65, 109, 192, 140
-0.995584, 45, 161, 60, 224
-0.995586, 121, 105, 136, 168
-0.995591, 241, 25, 256, 88
-0.9956, 97, 257, 224, 320
-0.995615, 17, 209, 144, 240
-0.995647, 145, 329, 268, 392
-0.99565, 37, 81, 52, 144
-0.995652, 1, 273, 256, 400
-0.995659, 45, 201, 60, 264
-0.995691, 87, 105, 102, 168
-0.995692, 207, 121, 222, 184
-0.9957, 129, 1, 256, 32
-0.995719, 181, 105, 196, 168
-0.995724, 21, 105, 36, 168
-0.995727, 193, 73, 208, 136
-0.995739, 69, 177, 84, 240
-0.995746, 247, 113, 262, 176
-0.995757, 209, 89, 224, 152
-0.99577, 175, 105, 190, 168
-0.995771, 1, 17, 128, 48
-0.995787, 35, 129, 50, 192
-0.995796, 31, 169, 46, 232
-0.995799, 185, 1, 200, 64
-0.995816, 181, 1, 212, 256
-0.995821, 1, 305, 128, 368
-0.995846, 165, 1, 196, 256
-0.995847, 151, 137, 166, 200
-0.995859, 63, 33, 78, 96
-0.995861, 129, 313, 192, 376
-0.995864, 13, 209, 44, 272
-0.995889, 99, 25, 114, 88
-0.995892, 53, 201, 68, 264
-0.995894, 223, 17, 238, 80
-0.995899, 157, 57, 172, 120
-0.995918, 41, 105, 56, 168
-0.995918, 127, 121, 142, 184
-0.995929, 247, 33, 262, 96
-0.995932, 1, 105, 16, 168
-0.995996, 129, 65, 144, 128
-0.995998, 9, 145, 24, 208
-0.996001, 63, 161, 78, 224
-0.996003, 17, 197, 144, 228
-0.996004, 137, 257, 200, 320
-0.996004, 51, 33, 66, 96
-0.996022, 97, 141, 224, 172
-0.996022, 91, 49, 106, 112
-0.996035, 101, 129, 116, 192
-0.996037, 185, 201, 248, 264
-0.996061, 81, 29, 208, 60
-0.996063, 97, 65, 128, 320
-0.996072, 103, 97, 118, 160
-0.996099, 207, 41, 222, 104
-0.996113, 121, 153, 136, 216
-0.996123, 13, 65, 44, 320
-0.996135, 217, 1, 248, 256
-0.996136, 1, 137, 16, 200
-0.996136, 81, 17, 208, 48
-0.996155, 197, 1, 228, 256
-0.99616, 217, 89, 232, 152
-0.996168, 151, 65, 166, 128
-0.996179, 101, 161, 116, 224
-0.996216, 237, 209, 268, 336
-0.996222, 109, 33, 124, 96
-0.996224, 25, 57, 40, 120
-0.996227, 127, 97, 142, 160
-0.996233, 49, 165, 176, 196
-0.996233, 217, 9, 232, 72
-0.996243, 253, 49, 268, 112
-0.996245, 157, 105, 172, 168
-0.996251, 229, 41, 244, 104
-0.996261, 97, 129, 224, 160
-0.996308, 153, 1, 184, 256
-0.99632, 49, 153, 176, 184
-0.996424, 65, 197, 192, 228
-0.996477, 145, 193, 268, 224
-0.996486, 1, 165, 128, 196
-0.996499, 113, 117, 240, 148
-0.996504, 185, 321, 248, 384
-0.996542, 1, 1, 128, 32
-0.996706, 97, 297, 224, 360
-0.996727, 49, 237, 176, 268
-0.996748, 1, 1, 32, 256
-0.996752, 189, 29, 204, 60
-0.996803, 65, 89, 80, 120
-0.996804, 9, 337, 72, 400
-0.996813, 53, 37, 68, 68
-0.996813, 149, 97, 180, 352
-0.996831, 129, 65, 160, 320
-0.996845, 17, 85, 32, 116
-0.996861, 1, 193, 268, 256
-0.996864, 27, 81, 42, 112
-0.996872, 77, 257, 108, 384
-0.996923, 41, 37, 56, 68
-0.996928, 201, 257, 264, 320
-0.996963, 9, 81, 24, 112
-0.996966, 73, 121, 88, 152
-0.996974, 41, 257, 104, 384
-0.996989, 97, 173, 224, 204
-0.997011, 145, 141, 268, 172
-0.997029, 67, 129, 82, 160
-0.997032, 65, 77, 80, 108
-0.997034, 221, 209, 252, 336
-0.997035, 81, 1, 208, 32
-0.997037, 131, 53, 146, 84
-0.997041, 35, 77, 50, 108
-0.997043, 183, 69, 198, 100
-0.99705, 49, 97, 80, 352
-0.997052, 113, 65, 144, 320
-0.997071, 75, 65, 90, 96
-0.997104, 253, 25, 268, 56
-0.997108, 1, 85, 16, 116
-0.997113, 59, 81, 74, 112
-0.997119, 245, 93, 260, 124
-0.997122, 61, 205, 76, 236
-0.997129, 7, 69, 22, 100
-0.997131, 119, 173, 134, 204
-0.997137, 43, 77, 58, 108
-0.997142, 25, 97, 56, 352
-0.99716, 51, 77, 66, 108
-0.997166, 129, 241, 256, 272
-0.997171, 49, 49, 64, 80
-0.997182, 111, 137, 126, 168
-0.997182, 187, 9, 202, 40
-0.997208, 3, 141, 18, 172
-0.997209, 109, 161, 124, 192
-0.99724, 1, 69, 16, 100
-0.997249, 145, 89, 160, 120
-0.997251, 81, 249, 208, 280
-0.997269, 109, 125, 124, 156
-0.997274, 55, 141, 70, 172
-0.997289, 35, 113, 50, 144
-0.997291, 97, 273, 160, 400
-0.997295, 89, 65, 104, 96
-0.997297, 53, 89, 68, 120
-0.99731, 209, 33, 224, 64
-0.997313, 39, 89, 54, 120
-0.997317, 253, 93, 268, 124
-0.997338, 141, 45, 156, 76
-0.997338, 49, 65, 64, 96
-0.997345, 199, 17, 214, 48
-0.997346, 101, 113, 116, 144
-0.997355, 141, 1, 172, 256
-0.997362, 47, 89, 62, 120
-0.997365, 135, 77, 150, 108
-0.997367, 75, 81, 90, 112
-0.997371, 7, 113, 22, 144
-0.997371, 41, 49, 56, 80
-0.997379, 201, 29, 216, 60
-0.997387, 67, 141, 82, 172
-0.997393, 33, 281, 160, 344
-0.997394, 159, 93, 174, 124
-0.997399, 203, 45, 218, 76
-0.997419, 1, 113, 16, 144
-0.997429, 117, 129, 132, 160
-0.997436, 103, 129, 118, 160
-0.997439, 177, 65, 192, 96
-0.997446, 1, 97, 16, 128
-0.997462, 151, 93, 166, 124
-0.997464, 121, 61, 136, 92
-0.997468, 99, 57, 114, 88
-0.997473, 207, 129, 222, 160
-0.997474, 75, 133, 90, 164
-0.997476, 135, 89, 150, 120
-0.997477, 65, 65, 80, 96
-0.997478, 161, 257, 224, 320
-0.997481, 65, 101, 80, 132
-0.997485, 85, 101, 100, 132
-0.997487, 203, 85, 218, 116
-0.997492, 189, 53, 204, 84
-0.9975, 23, 69, 38, 100
-0.997501, 79, 101, 94, 132
-0.997508, 55, 125, 70, 156
-0.997521, 1, 153, 16, 184
-0.997523, 47, 37, 62, 68
-0.997526, 193, 17, 208, 48
-0.997528, 103, 149, 118, 180
-0.99753, 1, 49, 16, 80
-0.997533, 141, 77, 156, 108
-0.997534, 229, 17, 244, 48
-0.997534, 59, 57, 74, 88
-0.997539, 67, 117, 82, 148
-0.99754, 165, 97, 196, 352
-0.997547, 241, 73, 256, 104
-0.997547, 5, 125, 20, 156
-0.99755, 43, 65, 58, 96
-0.997552, 9, 241, 72, 368
-0.997556, 197, 45, 212, 76
-0.997557, 195, 29, 210, 60
-0.997558, 213, 173, 228, 204
-0.997573, 235, 25, 250, 56
-0.997576, 43, 109, 58, 140
-0.997576, 43, 209, 58, 240
-0.997577, 135, 65, 150, 96
-0.997584, 33, 65, 48, 96
-0.997585, 83, 85, 98, 116
-0.997589, 241, 173, 256, 204
-0.997589, 73, 97, 88, 128
-0.997592, 209, 49, 224, 80
-0.997606, 67, 37, 82, 68
-0.997619, 73, 197, 88, 228
-0.997621, 221, 25, 236, 56
-0.997624, 115, 153, 130, 184
-0.997624, 17, 113, 32, 144
-0.997629, 49, 313, 176, 376
-0.997631, 229, 1, 260, 256
-0.997632, 23, 113, 38, 144
-0.997633, 253, 57, 268, 88
-0.997637, 65, 193, 80, 224
-0.997649, 75, 145, 90, 176
-0.997658, 213, 81, 228, 112
-0.997658, 61, 145, 76, 176
-0.997662, 3, 37, 18, 68
-0.997663, 19, 97, 34, 128
-0.997668, 95, 101, 110, 132
-0.997668, 29, 113, 44, 144
-0.997669, 49, 205, 64, 236
-0.997677, 205, 17, 220, 48
-0.99768, 167, 61, 182, 92
-0.997686, 227, 29, 242, 60
-0.997688, 99, 85, 114, 116
-0.997688, 47, 153, 62, 184
-0.997689, 247, 73, 262, 104
-0.99769, 127, 129, 142, 160
-0.99769, 17, 73, 32, 104
-0.997696, 213, 17, 228, 48
-0.997698, 243, 57, 258, 88
-0.997698, 217, 145, 232, 176
-0.99771, 29, 93, 44, 124
-0.99771, 81, 257, 144, 320
-0.99771, 247, 173, 262, 204
-0.997722, 209, 201, 268, 264
-0.997733, 59, 109, 74, 140
-0.997741, 49, 125, 64, 156
-0.99775, 241, 17, 256, 48
-0.997755, 233, 61, 248, 92
-0.997758, 183, 49, 198, 80
-0.997762, 219, 81, 234, 112
-0.997762, 145, 177, 160, 208
-0.997827, 1, 225, 128, 256
-0.997827, 81, 337, 208, 400
-0.997829, 157, 209, 188, 336
-0.997873, 1, 241, 256, 304
-0.997972, 105, 193, 136, 320
-0.998063, 65, 213, 192, 244
-0.998093, 129, 289, 192, 352
-0.998096, 17, 253, 144, 284
-0.998136, 1, 237, 128, 268
-0.998144, 1, 97, 32, 352
-0.998152, 205, 97, 236, 352
-0.998179, 37, 129, 68, 384
-0.998201, 145, 265, 268, 328
-0.998209, 65, 241, 96, 368
-0.998211, 73, 289, 136, 352
-0.998272, 49, 225, 176, 256
-0.998299, 193, 97, 224, 352
-0.998303, 97, 297, 160, 360
-0.998335, 129, 253, 256, 284
-0.998361, 221, 97, 252, 352
-0.998422, 33, 105, 96, 120
-0.998428, 49, 91, 112, 106
-0.998429, 177, 33, 240, 48
-0.99843, 89, 89, 152, 104
-0.99844, 105, 145, 168, 160
-0.998446, 25, 207, 88, 222
-0.998448, 57, 111, 120, 126
-0.998454, 17, 95, 80, 110
-0.998455, 65, 125, 128, 140
-0.998457, 1, 105, 64, 120
-0.998459, 25, 89, 88, 104
-0.99846, 25, 113, 88, 128
-0.998462, 217, 41, 248, 56
-0.998462, 105, 83, 168, 98
-0.998463, 197, 87, 228, 102
-0.998463, 221, 139, 252, 154
-0.998464, 65, 79, 96, 94
-0.998465, 69, 135, 100, 150
-0.998465, 177, 65, 208, 80
-0.998466, 233, 63, 264, 78
-0.998466, 173, 1, 204, 16
-0.998466, 205, 179, 236, 194
-0.998466, 49, 85, 112, 100
-0.998466, 73, 135, 136, 150
-0.998467, 5, 115, 36, 130
-0.998468, 1, 145, 32, 160
-0.998468, 185, 19, 248, 34
-0.998469, 49, 159, 80, 174
-0.998469, 37, 219, 68, 234
-0.99847, 105, 183, 168, 198
-0.99847, 197, 33, 228, 48
-0.998471, 129, 91, 192, 106
-0.998471, 129, 63, 160, 78
-0.998472, 233, 111, 264, 126
-0.998472, 177, 53, 208, 68
-0.998473, 1, 87, 64, 102
-0.998475, 65, 119, 96, 134
-0.998475, 113, 179, 144, 194
-0.998475, 173, 45, 204, 60
-0.998475, 237, 91, 268, 106
-0.998476, 105, 139, 168, 154
-0.998477, 105, 53, 136, 68
-0.998477, 129, 81, 192, 96
-0.998478, 65, 119, 128, 134
-0.998478, 121, 55, 184, 70
-0.99848, 29, 205, 60, 220
-0.99848, 93, 127, 124, 142
-0.998481, 209, 95, 268, 110
-0.998482, 25, 125, 88, 140
-0.998482, 229, 123, 260, 138
-0.998482, 125, 179, 156, 194
-0.998483, 185, 25, 248, 40
-0.998483, 25, 131, 88, 146
-0.998484, 221, 169, 252, 184
-0.998484, 1, 71, 64, 86
-0.998484, 237, 169, 268, 184
-0.998485, 221, 35, 252, 50
-0.998485, 17, 81, 80, 96
-0.998485, 217, 63, 248, 78
-0.998485, 193, 101, 256, 116
-0.998486, 161, 73, 192, 88
-0.998486, 141, 105, 172, 120
-0.998486, 17, 69, 48, 84
-0.998487, 97, 73, 128, 88
-0.998487, 113, 189, 144, 204
-0.99849, 29, 95, 60, 110
-0.99849, 1, 39, 64, 54
-0.998491, 237, 177, 268, 192
-0.998491, 25, 215, 56, 230
-0.998492, 41, 99, 104, 114
-0.998492, 181, 77, 212, 92
-0.998492, 1, 45, 64, 60
-0.998492, 73, 97, 136, 112
-0.998492, 101, 133, 132, 148
-0.998493, 113, 63, 176, 78
-0.998493, 97, 75, 160, 90
-0.998494, 209, 29, 240, 44
-0.998495, 25, 39, 88, 54
-0.998496, 187, 1, 202, 128
-0.998496, 197, 101, 228, 116
-0.998497, 57, 69, 120, 84
-0.998498, 25, 193, 88, 208
-0.998499, 129, 175, 192, 190
-0.998499, 105, 177, 168, 192
-0.9985, 205, 141, 236, 156
-0.9985, 33, 213, 96, 228
-0.9985, 73, 99, 104, 114
-0.9985, 53, 61, 84, 76
-0.9985, 165, 81, 196, 96
-0.9985, 53, 151, 84, 166
-0.998501, 45, 69, 76, 84
-0.998502, 37, 49, 68, 64
-0.998502, 97, 53, 160, 68
-0.998503, 97, 113, 160, 128
-0.998504, 229, 83, 260, 98
-0.998504, 101, 157, 132, 172
-0.998504, 117, 59, 148, 74
-0.998505, 17, 109, 48, 124
-0.998505, 185, 23, 216, 38
-0.998506, 57, 75, 120, 90
-0.998506, 85, 91, 116, 106
-0.998506, 153, 85, 216, 100
-0.998507, 205, 131, 236, 146
-0.998508, 81, 59, 144, 74
-0.998508, 33, 65, 96, 80
-0.998508, 5, 85, 36, 100
-0.998508, 197, 95, 228, 110
-0.998509, 209, 25, 268, 40
-0.998511, 153, 87, 184, 102
-0.998512, 149, 97, 180, 112
-0.998512, 25, 149, 88, 164
-0.998512, 89, 103, 152, 118
-0.998514, 65, 127, 96, 142
-0.998514, 49, 145, 80, 160
-0.998515, 21, 81, 52, 96
-0.998515, 181, 85, 212, 100
-0.998515, 57, 137, 88, 152
-0.998516, 65, 149, 128, 164
-0.998516, 57, 69, 88, 84
-0.998517, 121, 143, 152, 158
-0.998517, 65, 63, 96, 78
-0.998517, 49, 143, 112, 158
-0.998518, 105, 151, 168, 166
-0.998518, 113, 97, 176, 112
-0.99852, 117, 101, 148, 116
-0.998521, 57, 105, 120, 120
-0.998522, 149, 179, 180, 194
-0.998522, 193, 83, 256, 98
-0.998522, 1, 71, 32, 86
-0.998522, 209, 17, 268, 32
-0.998522, 17, 95, 48, 110
-0.998523, 65, 159, 128, 174
-0.998523, 5, 95, 36, 110
-0.998524, 177, 97, 208, 112
-0.998524, 213, 149, 244, 164
-0.998524, 73, 107, 104, 122
-0.998525, 201, 179, 264, 194
-0.998525, 85, 109, 116, 124
-0.998525, 137, 103, 200, 118
-0.998525, 185, 47, 248, 62
-0.998527, 73, 247, 136, 262
-0.998527, 89, 65, 152, 80
-0.998527, 145, 45, 208, 60
-0.998528, 53, 81, 68, 208
-0.998528, 45, 213, 76, 228
-0.998528, 145, 57, 208, 72
-0.998528, 49, 131, 112, 146
-0.998529, 165, 65, 196, 80
-0.998529, 57, 91, 88, 106
-0.99853, 129, 181, 192, 196
-0.99853, 41, 89, 72, 104
-0.99853, 169, 145, 232, 160
-0.99853, 41, 125, 72, 140
-0.998531, 213, 19, 244, 34
-0.998531, 101, 151, 132, 166
-0.998531, 97, 67, 128, 82
-0.998531, 105, 173, 136, 188
-0.998534, 97, 157, 160, 172
-0.998537, 69, 113, 100, 128
-0.998537, 109, 143, 140, 158
-0.998537, 85, 117, 116, 132
-0.998539, 117, 73, 148, 88
-0.998539, 185, 17, 216, 32
-0.998539, 129, 97, 160, 112
-0.998542, 129, 191, 192, 206
-0.998543, 61, 97, 92, 112
-0.998544, 233, 75, 264, 90
-0.998544, 53, 207, 84, 222
-0.998544, 73, 81, 136, 96
-0.998545, 129, 141, 192, 156
-0.998545, 33, 163, 96, 178
-0.998546, 113, 137, 144, 152
-0.998546, 65, 203, 128, 218
-0.998548, 237, 99, 268, 114
-0.998549, 209, 167, 268, 182
-0.998549, 169, 93, 232, 108
-0.998549, 209, 131, 268, 146
-0.998549, 185, 31, 216, 46
-0.99855, 105, 61, 136, 76
-0.99855, 1, 159, 64, 174
-0.99855, 29, 69, 60, 84
-0.99855, 209, 75, 268, 90
-0.998551, 137, 91, 168, 106
-0.998551, 25, 187, 88, 202
-0.998551, 145, 1, 208, 16
-0.998551, 221, 91, 252, 106
-0.998552, 25, 45, 88, 60
-0.998553, 89, 129, 152, 144
-0.998553, 81, 141, 144, 156
-0.998553, 33, 219, 96, 234
-0.998553, 53, 119, 84, 134
-0.998555, 137, 63, 200, 78
-0.998555, 117, 65, 148, 80
-0.998557, 185, 47, 216, 62
-0.998557, 65, 39, 128, 54
-0.998559, 1, 125, 64, 140
-0.998559, 209, 89, 268, 104
-0.99856, 37, 79, 68, 94
-0.998561, 177, 39, 240, 54
-0.998562, 1, 79, 32, 94
-0.998562, 29, 87, 60, 102
-0.998563, 25, 201, 88, 216
-0.998563, 65, 191, 128, 206
-0.998564, 25, 75, 88, 90
-0.998564, 61, 105, 92, 120
-0.998564, 161, 183, 224, 198
-0.998565, 33, 225, 96, 240
-0.998565, 57, 53, 120, 68
-0.998565, 9, 141, 72, 156
-0.998567, 69, 91, 100, 106
-0.998568, 73, 69, 104, 84
-0.998569, 209, 67, 268, 82
-0.998569, 185, 61, 248, 76
-0.998569, 57, 221, 120, 236
-0.998569, 33, 137, 96, 152
-0.998569, 129, 75, 192, 90
-0.998569, 41, 119, 104, 134
-0.99857, 41, 95, 72, 110
-0.99857, 33, 157, 96, 172
-0.99857, 113, 103, 176, 118
-0.998571, 25, 51, 88, 66
-0.998572, 49, 47, 112, 62
-0.998572, 177, 97, 208, 352
-0.998572, 201, 149, 264, 164
-0.998573, 1, 205, 64, 220
-0.998576, 185, 11, 248, 26
-0.998576, 41, 109, 72, 124
-0.998576, 209, 31, 268, 46
-0.998577, 233, 31, 264, 46
-0.998577, 129, 135, 192, 150
-0.998577, 185, 71, 248, 86
-0.998578, 65, 85, 96, 100
-0.998578, 1, 115, 64, 130
-0.998578, 5, 101, 36, 116
-0.998579, 209, 41, 268, 56
-0.998579, 65, 197, 128, 212
-0.998582, 1, 233, 64, 296
-0.998582, 53, 77, 84, 92
-0.998582, 1, 149, 64, 164
-0.998583, 105, 127, 136, 142
-0.998584, 1, 131, 64, 146
-0.998586, 129, 53, 160, 68
-0.998587, 17, 87, 48, 102
-0.998588, 65, 211, 128, 226
-0.998589, 97, 171, 160, 186
-0.99859, 33, 59, 96, 74
-0.99859, 237, 97, 268, 352
-0.99859, 233, 23, 264, 38
-0.998592, 121, 49, 184, 64
-0.998592, 97, 123, 160, 138
-0.998592, 169, 99, 232, 114
-0.998593, 49, 103, 80, 118
-0.998594, 161, 175, 224, 190
-0.998594, 9, 63, 72, 78
-0.998594, 137, 69, 200, 84
-0.998597, 201, 143, 264, 158
-0.998598, 1, 313, 256, 376
-0.9986, 169, 139, 232, 154
-0.998605, 53, 131, 84, 146
-0.998606, 57, 113, 88, 128
-0.998613, 37, 39, 68, 54
-0.998613, 53, 85, 84, 100
-0.998624, 221, 29, 252, 44
-0.998625, 197, 47, 228, 62
-0.998626, 21, 103, 52, 118
-0.998628, 33, 297, 96, 360
-0.998628, 1, 107, 32, 122
-0.998634, 77, 65, 92, 192
-0.998636, 193, 1, 208, 128
-0.99865, 209, 313, 268, 376
-0.998654, 129, 229, 256, 260
-0.998683, 95, 65, 110, 192
-0.998698, 107, 129, 122, 256
-0.998704, 53, 33, 68, 160
-0.998717, 59, 65, 74, 192
-0.998718, 199, 65, 214, 192
-0.998724, 45, 129, 60, 256
-0.998728, 213, 81, 228, 208
-0.998734, 89, 49, 104, 176
-0.998738, 47, 65, 62, 192
-0.998748, 177, 97, 192, 224
-0.998749, 101, 49, 116, 176
-0.998756, 181, 33, 196, 160
-0.99877, 1, 217, 256, 280
-0.998783, 129, 357, 256, 388
-0.998786, 235, 113, 250, 240
-0.998791, 241, 81, 256, 208
-0.998814, 145, 209, 176, 336
-0.998815, 137, 17, 152, 144
-0.998818, 69, 113, 84, 240
-0.998818, 229, 113, 244, 240
-0.998821, 223, 1, 238, 128
-0.998828, 165, 97, 180, 224
-0.998833, 35, 33, 50, 160
-0.998843, 193, 49, 208, 176
-0.998844, 41, 33, 56, 160
-0.998849, 143, 33, 158, 160
-0.99885, 1, 289, 256, 352
-0.998858, 51, 129, 66, 256
-0.998864, 131, 49, 146, 176
-0.998866, 113, 97, 128, 224
-0.998874, 81, 17, 96, 144
-0.998879, 169, 33, 184, 160
-0.998881, 81, 365, 208, 396
-0.998888, 37, 145, 52, 272
-0.998896, 59, 129, 74, 256
-0.998904, 101, 145, 116, 272
-0.998906, 83, 65, 98, 192
-0.998906, 113, 257, 176, 320
-0.99891, 171, 129, 186, 256
-0.99893, 47, 17, 62, 144
-0.998931, 67, 17, 82, 144
-0.998935, 1, 369, 128, 400
-0.998936, 101, 1, 116, 128
-0.998938, 159, 81, 174, 208
-0.998939, 253, 1, 268, 128
-0.998943, 1, 49, 16, 176
-0.998948, 171, 81, 186, 208
-0.998959, 187, 49, 202, 176
-0.998961, 209, 1, 224, 128
-0.998964, 223, 129, 238, 256
-0.998968, 199, 1, 214, 128
-0.998969, 193, 97, 208, 224
-0.99897, 65, 65, 80, 192
-0.998975, 15, 49, 30, 176
-0.998979, 207, 129, 222, 256
-0.998982, 123, 97, 138, 224
-0.998984, 75, 113, 90, 240
-0.998987, 29, 33, 44, 160
-0.998992, 219, 65, 234, 192
-0.998993, 177, 297, 240, 360
-0.999024, 207, 49, 222, 176
-0.999025, 23, 49, 38, 176
-0.999029, 183, 97, 198, 224
-0.999032, 95, 17, 110, 144
-0.999045, 87, 193, 102, 320
-0.999045, 213, 129, 228, 256
-0.999051, 1, 337, 256, 400
-0.999059, 61, 17, 76, 144
-0.999069, 231, 1, 246, 128
-0.999075, 1, 333, 128, 364
-0.999077, 71, 65, 86, 192
-0.999078, 141, 97, 156, 224
-0.999087, 1, 353, 128, 384
-0.999089, 137, 337, 200, 400
-0.999091, 153, 129, 168, 256
-0.999093, 39, 81, 54, 208
-0.999095, 241, 129, 256, 256
-0.999098, 233, 65, 248, 192
-0.999102, 161, 161, 176, 288
-0.999104, 107, 49, 122, 176
-0.999118, 111, 1, 126, 128
-0.999118, 95, 113, 110, 240
-0.999119, 247, 113, 262, 240
-0.999121, 75, 17, 90, 144
-0.999126, 33, 81, 48, 208
-0.999132, 117, 145, 132, 272
-0.999136, 227, 65, 242, 192
-0.999148, 145, 369, 268, 400
-0.999148, 31, 145, 46, 272
-0.999149, 163, 33, 178, 160
-0.999155, 183, 177, 198, 304
-0.999166, 135, 97, 150, 224
-0.999171, 1, 293, 128, 324
-0.999171, 79, 193, 94, 320
-0.999171, 81, 305, 208, 336
-0.999178, 89, 1, 104, 128
-0.999179, 101, 97, 116, 224
-0.999184, 217, 1, 232, 128
-0.999184, 9, 49, 24, 176
-0.999186, 171, 177, 186, 304
-0.99919, 177, 145, 192, 272
-0.999192, 201, 129, 216, 256
-0.999202, 1, 317, 128, 348
-0.999214, 99, 193, 114, 320
-0.999221, 129, 345, 256, 376
-0.999221, 153, 81, 168, 208
-0.999223, 5, 1, 20, 128
-0.999224, 189, 177, 204, 304
-0.999239, 147, 145, 162, 272
-0.999242, 5, 97, 20, 224
-0.999242, 247, 17, 262, 144
-0.999246, 253, 81, 268, 208
-0.999246, 253, 161, 268, 288
-0.999256, 129, 113, 144, 240
-0.999256, 43, 177, 58, 304
-0.999256, 81, 353, 208, 384
-0.99926, 237, 1, 252, 128
-0.999272, 203, 177, 218, 304
-0.999275, 151, 17, 166, 144
-0.999287, 69, 177, 84, 304
-0.999288, 17, 305, 144, 336
-0.99929, 233, 161, 248, 288
-0.9993, 119, 49, 134, 176
-0.999302, 93, 209, 108, 336
-0.999318, 175, 33, 190, 160
-0.999319, 247, 65, 262, 192
-0.999324, 63, 177, 78, 304
-0.999325, 123, 145, 138, 272
-0.999336, 157, 1, 172, 128
-0.999337, 145, 305, 268, 336
-0.999349, 197, 177, 212, 304
-0.999364, 51, 177, 66, 304
-0.999365, 97, 293, 224, 324
-0.999368, 147, 97, 162, 224
-0.999373, 19, 1, 34, 128
-0.999383, 89, 97, 104, 224
-0.999384, 247, 161, 262, 288
-0.999388, 27, 97, 42, 224
-0.999391, 87, 241, 102, 368
-0.999397, 37, 193, 52, 320
-0.999411, 141, 177, 156, 304
-0.999412, 81, 129, 96, 256
-0.999413, 11, 97, 26, 224
-0.99942, 93, 161, 108, 288
-0.999425, 73, 337, 136, 400
-0.999426, 125, 49, 140, 176
-0.999432, 113, 205, 240, 236
-0.999437, 113, 49, 128, 176
-0.999438, 1, 241, 268, 304
-0.999439, 81, 329, 208, 360
-0.999442, 65, 261, 192, 292
-0.999457, 239, 177, 254, 304
-0.999468, 209, 257, 240, 384
-0.999572, 145, 317, 268, 348
-0.999587, 49, 341, 176, 372
-0.999658, 145, 281, 268, 312
-0.999662, 57, 81, 72, 96
-0.999663, 69, 211, 84, 226
-0.999663, 195, 23, 210, 38
-0.999663, 9, 95, 24, 110
-0.999663, 15, 115, 30, 130
-0.999664, 41, 47, 56, 62
-0.999665, 97, 317, 224, 348
-0.999665, 73, 99, 88, 114
-0.999665, 241, 75, 256, 90
-0.999667, 25, 69, 40, 84
-0.999667, 229, 83, 244, 98
-0.999668, 73, 127, 88, 142
-0.999668, 133, 73, 148, 88
-0.999669, 141, 105, 156, 120
-0.999669, 241, 171, 256, 186
-0.999669, 135, 65, 150, 80
-0.999669, 145, 87, 160, 102
-0.999669, 33, 95, 48, 110
-0.999671, 49, 79, 64, 94
-0.999672, 193, 85, 208, 100
-0.999673, 57, 45, 72, 60
-0.999673, 1, 79, 16, 94
-0.999673, 5, 145, 20, 160
-0.999674, 217, 87, 232, 102
-0.999674, 33, 281, 160, 312
-0.999675, 217, 149, 232, 164
-0.999675, 75, 83, 90, 98
-0.999675, 107, 173, 122, 188
-0.999676, 251, 91, 266, 106
-0.999676, 103, 53, 118, 68
-0.999676, 97, 117, 112, 132
-0.999677, 69, 63, 84, 78
-0.999677, 67, 71, 82, 86
-0.999678, 187, 55, 202, 70
-0.999678, 145, 155, 160, 170
-0.999679, 109, 157, 124, 172
-0.999679, 251, 111, 266, 126
-0.999679, 141, 99, 156, 114
-0.999679, 135, 89, 150, 104
-0.99968, 223, 35, 238, 50
-0.999683, 113, 139, 128, 154
-0.999684, 233, 31, 248, 46
-0.999684, 55, 75, 70, 90
-0.999685, 185, 21, 200, 36
-0.999685, 23, 89, 38, 104
-0.999685, 167, 73, 182, 88
-0.999685, 43, 153, 58, 168
-0.999685, 201, 99, 216, 114
-0.999685, 251, 31, 266, 46
-0.999686, 43, 81, 58, 96
-0.999686, 63, 207, 78, 222
-0.999686, 75, 89, 90, 104
-0.999686, 17, 95, 32, 110
-0.999687, 209, 93, 224, 108
-0.999687, 33, 81, 48, 96
-0.999688, 105, 149, 120, 164
-0.999688, 51, 85, 66, 100
-0.999688, 103, 163, 118, 178
-0.999689, 209, 129, 224, 144
-0.999689, 123, 65, 138, 80
-0.999689, 27, 101, 42, 116
-0.99969, 13, 109, 28, 124
-0.99969, 163, 179, 178, 194
-0.999691, 91, 91, 106, 106
-0.999691, 1, 87, 16, 102
-0.999692, 39, 159, 54, 174
-0.999692, 73, 135, 88, 150
-0.999692, 245, 105, 260, 120
-0.999692, 59, 113, 74, 128
-0.999694, 135, 79, 150, 94
-0.999694, 49, 91, 64, 106
-0.999694, 85, 95, 100, 110
-0.999696, 187, 1, 202, 16
-0.999696, 67, 131, 82, 146
-0.999697, 183, 75, 198, 90
-0.999697, 31, 107, 46, 122
-0.999699, 149, 179, 164, 194
-0.999699, 1, 115, 16, 130
-0.9997, 57, 87, 72, 102
-0.9997, 59, 93, 74, 108
-0.9997, 65, 77, 80, 92
-0.999702, 157, 95, 172, 110
-0.999702, 245, 111, 260, 126
-0.999702, 61, 137, 76, 152
-0.999703, 41, 103, 56, 118
-0.999703, 65, 105, 80, 120
-0.999704, 187, 11, 202, 26
-0.999705, 145, 329, 268, 360
-0.999705, 71, 113, 86, 128
-0.999705, 95, 111, 110, 126
-0.999707, 129, 57, 144, 72
-0.999709, 53, 99, 68, 114
-0.99971, 109, 127, 124, 142
-0.999711, 1, 105, 16, 120
-0.999712, 241, 31, 256, 46
-0.999713, 135, 97, 150, 112
-0.999713, 149, 99, 164, 114
-0.999714, 253, 25, 268, 40
-0.999714, 43, 89, 58, 104
-0.999721, 7, 89, 22, 104
-0.999721, 49, 49, 64, 64
-0.999721, 69, 89, 84, 104
-0.999721, 5, 69, 20, 84
-0.999722, 119, 175, 134, 190
-0.999723, 103, 127, 118, 142
-0.999725, 15, 101, 30, 116
-0.999727, 227, 29, 242, 44
-0.999728, 57, 131, 72, 146
-0.999728, 33, 87, 48, 102
-0.999732, 89, 69, 104, 84
-0.999732, 111, 167, 126, 182
-0.999733, 67, 141, 82, 156
-0.999733, 1, 93, 16, 108
-0.999733, 83, 89, 98, 104
-0.999733, 245, 93, 260, 108
-0.999734, 75, 65, 90, 80
-0.999737, 181, 65, 196, 80
-0.999737, 65, 97, 80, 112
-0.999737, 53, 39, 68, 54
-0.999739, 17, 87, 32, 102
-0.999741, 189, 31, 204, 46
-0.999744, 21, 105, 36, 120
-0.999745, 7, 105, 22, 120
-0.999748, 65, 113, 80, 128
-0.999749, 245, 99, 260, 114
-0.999751, 41, 39, 56, 54
-0.999752, 109, 133, 124, 148
-0.999755, 199, 47, 214, 62
-0.999757, 233, 25, 248, 40
-0.999774, 141, 49, 156, 64
-0.999779, 153, 89, 168, 104
-0.999782, 17, 265, 144, 296
-0.999793, 251, 101, 266, 116
-0.999794, 145, 93, 160, 108
-0.999909, 97, 281, 224, 312
-0.999934, 181, 257, 212, 384
-0.999941, 145, 293, 268, 324
-1.00001, 129, 269, 256, 300
-1.00015, 9, 281, 72, 344
-1.00017, 201, 281, 264, 344
-1.0002, 1, 313, 268, 376
-1.0002, 49, 317, 176, 348
-1.00025, 237, 257, 268, 384
-1.00026, 129, 217, 256, 248
-1.00029, 145, 257, 208, 384
-1.00038, 1, 217, 268, 280
-1.00038, 1, 265, 256, 328
-1.00046, 1, 289, 268, 352
-1.00046, 49, 293, 176, 324
-1.00063, 161, 337, 224, 400
-1.00066, 153, 313, 216, 376
-1.00067, 1, 337, 268, 400
-1.00067, 9, 313, 72, 376
-1.00074, 197, 257, 228, 384
-1.00083, 221, 257, 252, 384
-1.00113, 121, 225, 184, 352
-1.00116, 1, 241, 32, 368
-1.00119, 141, 257, 172, 384
-1.00119, 45, 225, 76, 352
-1.00122, 161, 257, 192, 384
-1.0013, 93, 273, 124, 400
-1.00135, 105, 257, 136, 384
-1.00148, 209, 337, 268, 400
-1.00159, 1, 193, 32, 320
-1.00165, 129, 273, 160, 400
-1.00167, 49, 273, 112, 336
-1.00199, 153, 281, 216, 344
-1.00205, 1, 265, 268, 328
-1.00274, 117, 225, 148, 352
-1.00307, 21, 257, 52, 384
-1.00331, 129, 225, 160, 352
-1.00363, 9, 257, 72, 320
-1.00461, 117, 273, 148, 400
-1.00476, 121, 273, 184, 400
-1.005, 45, 273, 76, 400
-1.00528, 33, 273, 64, 400
