1949
-0.310778, 1, 1, 375, 500
-0.402261, 1, 65, 375, 320
-0.433098, 33, 1, 288, 500
-0.464479, 1, 193, 375, 448
-0.481379, 129, 1, 375, 500
-0.512948, 33, 33, 288, 288
-0.573701, 65, 129, 320, 384
-0.707106, 97, 225, 352, 480
-0.727779, 1, 257, 256, 500
-0.799486, 129, 1, 375, 256
-0.852401, 33, 65, 160, 320
-0.858501, 97, 1, 224, 256
-0.865277, 129, 1, 256, 500
-0.865561, 17, 1, 144, 500
-0.866031, 33, 257, 160, 500
-0.870971, 145, 65, 272, 320
-0.882499, 1, 129, 375, 256
-0.882674, 33, 161, 160, 416
-0.884855, 33, 81, 288, 208
-0.885427, 65, 1, 192, 500
-0.886272, 241, 1, 368, 500
-0.88895, 1, 369, 375, 496
-0.894346, 81, 193, 208, 448
-0.904356, 1, 1, 375, 128
-0.906453, 1, 81, 375, 208
-0.906627, 81, 97, 208, 352
-0.906803, 209, 129, 336, 384
-0.910217, 209, 1, 336, 256
-0.910257, 209, 225, 336, 480
-0.910374, 1, 321, 375, 448
-0.911274, 1, 209, 375, 336
-0.914124, 177, 1, 304, 500
-0.914734, 129, 193, 256, 448
-0.918553, 1, 257, 375, 384
-0.918689, 1, 17, 256, 144
-0.920761, 129, 369, 375, 496
-0.927807, 65, 129, 320, 256
-0.929578, 129, 1, 375, 128
-0.932204, 97, 209, 352, 336
-0.932229, 129, 49, 256, 176
-0.932452, 153, 1, 216, 128
-0.933693, 17, 241, 80, 368
-0.934049, 1, 273, 256, 400
-0.934356, 1, 241, 128, 368
-0.936268, 33, 353, 288, 480
-0.937197, 81, 289, 208, 416
-0.937836, 1, 161, 64, 288
-0.938046, 81, 241, 208, 368
-0.939973, 145, 49, 208, 176
-0.94081, 129, 321, 375, 448
-0.941223, 33, 289, 96, 416
-0.942322, 65, 17, 192, 144
-0.942376, 97, 241, 160, 368
-0.942519, 17, 1, 144, 128
-0.942677, 73, 241, 136, 368
-0.942894, 41, 161, 104, 288
-0.942973, 49, 241, 112, 368
-0.94384, 1, 289, 128, 416
-0.944496, 121, 241, 184, 368
-0.944781, 145, 1, 272, 128
-0.945938, 113, 65, 176, 192
-0.946535, 129, 81, 375, 208
-0.946692, 145, 25, 208, 88
-0.947356, 201, 1, 264, 128
-0.947648, 49, 17, 112, 144
-0.947807, 129, 97, 256, 224
-0.948161, 177, 1, 240, 128
-0.948345, 241, 369, 304, 496
-0.948358, 17, 97, 144, 224
-0.94846, 1, 17, 64, 144
-0.948586, 17, 369, 144, 496
-0.948637, 17, 49, 144, 176
-0.94897, 89, 289, 152, 416
-0.949036, 33, 161, 160, 288
-0.949248, 33, 113, 96, 240
-0.949672, 145, 289, 208, 416
-0.949789, 145, 369, 272, 496
-0.949798, 33, 353, 96, 480
-0.949805, 9, 81, 72, 208
-0.950107, 145, 49, 208, 112
-0.95017, 113, 73, 176, 136
-0.950586, 97, 209, 160, 272
-0.95111, 129, 273, 375, 400
-0.951741, 233, 1, 296, 64
-0.951907, 9, 289, 72, 416
-0.952402, 265, 369, 328, 496
-0.952897, 65, 65, 192, 192
-0.953126, 41, 177, 104, 240
-0.95354, 65, 113, 192, 240
-0.95375, 57, 305, 120, 432
-0.953759, 9, 353, 72, 480
-0.953862, 25, 1, 88, 128
-0.954023, 113, 17, 176, 144
-0.954251, 49, 17, 112, 80
-0.954284, 145, 1, 208, 64
-0.954378, 265, 161, 328, 288
-0.954715, 41, 209, 104, 272
-0.954779, 1, 185, 64, 248
-0.955278, 73, 65, 136, 192
-0.955565, 9, 65, 72, 128
-0.955879, 209, 1, 336, 128
-0.955942, 89, 65, 152, 128
-0.956004, 73, 353, 136, 480
-0.956258, 233, 129, 296, 256
-0.956268, 241, 161, 368, 288
-0.956363, 1, 193, 256, 320
-0.956393, 89, 17, 152, 144
-0.956554, 33, 289, 96, 352
-0.9566, 105, 17, 168, 80
-0.956655, 9, 41, 72, 104
-0.956925, 217, 33, 280, 96
-0.956998, 81, 353, 208, 480
-0.957493, 17, 153, 80, 216
-0.957694, 193, 1, 256, 64
-0.957776, 177, 49, 240, 176
-0.957776, 177, 289, 240, 416
-0.957877, 65, 177, 128, 304
-0.958118, 177, 25, 240, 88
-0.958224, 161, 369, 224, 496
-0.958355, 233, 321, 296, 448
-0.958451, 97, 129, 160, 256
-0.95852, 41, 153, 104, 216
-0.958649, 177, 129, 304, 256
-0.958696, 177, 65, 240, 128
-0.958978, 217, 369, 280, 496
-0.959108, 129, 113, 192, 240
-0.95936, 121, 289, 184, 416
-0.959621, 49, 41, 112, 104
-0.960408, 161, 241, 288, 368
-0.960482, 169, 1, 232, 64
-0.960727, 113, 177, 240, 304
-0.96088, 81, 185, 144, 248
-0.960974, 1, 393, 64, 456
-0.960978, 209, 369, 336, 496
-0.961133, 129, 305, 192, 368
-0.961183, 1, 209, 64, 272
-0.961269, 89, 305, 152, 368
-0.96142, 105, 41, 168, 104
-0.961445, 161, 289, 288, 416
-0.961528, 41, 249, 104, 312
-0.961647, 113, 105, 176, 168
-0.961868, 225, 1, 288, 128
-0.961874, 25, 9, 88, 72
-0.962116, 97, 153, 160, 216
-0.962212, 49, 65, 112, 128
-0.962248, 81, 377, 144, 440
-0.962966, 9, 297, 72, 360
-0.963007, 1, 1, 64, 256
-0.963021, 145, 73, 208, 136
-0.963423, 73, 41, 136, 104
-0.963664, 129, 369, 192, 496
-0.963884, 33, 121, 96, 184
-0.963998, 289, 161, 352, 288
-0.964268, 249, 177, 312, 240
-0.964397, 65, 249, 128, 312
-0.96453, 81, 1, 144, 64
-0.964821, 89, 193, 152, 320
-0.964933, 217, 57, 280, 120
-0.964933, 121, 417, 184, 480
-0.964987, 97, 249, 160, 312
-0.965093, 9, 97, 72, 160
-0.965222, 73, 281, 136, 344
-0.965269, 1, 233, 64, 296
-0.965275, 65, 209, 128, 272
-0.9653, 113, 377, 176, 440
-0.965393, 81, 401, 144, 464
-0.965439, 145, 329, 208, 392
-0.965566, 33, 377, 96, 440
-0.965754, 57, 113, 120, 240
-0.965779, 97, 353, 160, 416
-0.965801, 89, 89, 152, 152
-0.965806, 137, 193, 200, 320
-0.965912, 25, 425, 88, 488
-0.965937, 73, 145, 136, 208
-0.966183, 105, 185, 168, 248
-0.966236, 49, 433, 112, 496
-0.966312, 305, 337, 368, 464
-0.96646, 33, 313, 96, 376
-0.966644, 9, 369, 72, 432
-0.966727, 1, 1, 64, 64
-0.966734, 217, 49, 280, 176
-0.966739, 145, 241, 208, 368
-0.966768, 233, 361, 296, 424
-0.966796, 241, 209, 368, 336
-0.966869, 209, 289, 272, 416
-0.966991, 161, 193, 288, 320
-0.96704, 97, 433, 160, 496
-0.967147, 97, 353, 160, 480
-0.967285, 201, 385, 264, 448
-0.967375, 161, 305, 224, 368
-0.967474, 73, 121, 136, 184
-0.967775, 313, 161, 375, 288
-0.967957, 185, 337, 248, 464
-0.967958, 297, 377, 360, 440
-0.968031, 9, 97, 72, 352
-0.968042, 153, 97, 216, 160
-0.968051, 97, 241, 128, 368
-0.968086, 169, 409, 232, 472
-0.968118, 49, 65, 112, 192
-0.968155, 49, 129, 112, 384
-0.968221, 73, 337, 136, 400
-0.968397, 209, 113, 272, 240
-0.968488, 121, 209, 184, 272
-0.968504, 241, 321, 368, 448
-0.968509, 169, 241, 232, 368
-0.968628, 249, 209, 312, 336
-0.968675, 281, 321, 344, 448
-0.968849, 257, 1, 320, 64
-0.968959, 1, 417, 64, 480
-0.969171, 121, 249, 184, 312
-0.969193, 265, 113, 328, 240
-0.969242, 185, 89, 248, 152
-0.969393, 137, 385, 200, 448
-0.969665, 145, 409, 208, 472
-0.969766, 129, 81, 256, 144
-0.969771, 201, 409, 264, 472
-0.969791, 181, 1, 212, 128
-0.969807, 265, 153, 328, 216
-0.970003, 297, 417, 360, 480
-0.970068, 89, 33, 152, 288
-0.970166, 1, 1, 128, 64
-0.970213, 281, 9, 344, 72
-0.970503, 49, 89, 112, 152
-0.970589, 209, 257, 336, 384
-0.970786, 33, 33, 96, 288
-0.970843, 113, 281, 176, 344
-0.970896, 65, 1, 192, 64
-0.970937, 25, 1, 56, 128
-0.971124, 129, 129, 192, 192
-0.971131, 137, 185, 200, 248
-0.971186, 69, 241, 100, 368
-0.971336, 113, 1, 176, 256
-0.971396, 97, 129, 160, 192
-0.971409, 57, 377, 120, 440
-0.971427, 257, 385, 320, 448
-0.971564, 97, 57, 224, 120
-0.971681, 33, 337, 96, 400
-0.971752, 249, 25, 312, 88
-0.971774, 113, 329, 176, 392
-0.971775, 1, 225, 32, 352
-0.97183, 145, 361, 208, 424
-0.971869, 241, 1, 272, 64
-0.972024, 81, 25, 208, 88
-0.972135, 225, 121, 288, 184
-0.972173, 125, 241, 156, 368
-0.972284, 153, 97, 216, 224
-0.972393, 33, 369, 64, 496
-0.972405, 145, 33, 272, 96
-0.972512, 65, 89, 192, 152
-0.972548, 145, 1, 272, 64
-0.972558, 53, 353, 84, 480
-0.97257, 33, 257, 96, 500
-0.972574, 233, 393, 296, 456
-0.972624, 273, 209, 336, 336
-0.97266, 153, 49, 184, 112
-0.972854, 257, 433, 320, 496
-0.972882, 41, 273, 72, 400
-0.972901, 93, 289, 124, 416
-0.972933, 289, 177, 352, 240
-0.972944, 125, 209, 156, 272
-0.973096, 29, 161, 60, 288
-0.973177, 145, 281, 208, 344
-0.973262, 233, 145, 296, 208
-0.973356, 177, 385, 240, 448
-0.973363, 145, 209, 208, 272
-0.973441, 57, 305, 120, 368
-0.973441, 1, 57, 32, 120
-0.97347, 177, 81, 304, 208
-0.973523, 97, 225, 160, 480
-0.97355, 121, 289, 152, 416
-0.973584, 169, 17, 200, 80
-0.973649, 9, 129, 72, 192
-0.973734, 9, 265, 72, 328
-0.973891, 201, 433, 264, 496
-0.973914, 65, 113, 192, 176
-0.973965, 33, 209, 160, 272
-0.974009, 117, 185, 148, 248
-0.974042, 121, 353, 184, 416
-0.974101, 113, 193, 176, 320
-0.974194, 221, 1, 252, 64
-0.9742, 121, 121, 152, 184
-0.974302, 1, 249, 128, 312
-0.974333, 49, 209, 80, 336
-0.974388, 101, 377, 132, 440
-0.974392, 233, 89, 296, 152
-0.974419, 25, 225, 56, 352
-0.974483, 265, 209, 328, 272
-0.974513, 109, 241, 140, 368
-0.974527, 333, 9, 364, 72
-0.974603, 121, 297, 152, 360
-0.97462, 129, 89, 160, 152
-0.974633, 209, 1, 336, 64
-0.974804, 57, 225, 120, 480
-0.974836, 73, 1, 104, 64
-0.974904, 17, 89, 144, 152
-0.974911, 81, 305, 208, 368
-0.974943, 45, 209, 76, 272
-0.975043, 233, 129, 296, 384
-0.975098, 313, 25, 344, 88
-0.975099, 185, 1, 248, 256
-0.975115, 133, 9, 164, 72
-0.975129, 273, 369, 304, 496
-0.975131, 149, 289, 180, 416
-0.975143, 97, 209, 128, 272
-0.975161, 29, 169, 60, 232
-0.975242, 21, 25, 52, 88
-0.975288, 81, 241, 112, 368
-0.975365, 297, 81, 360, 208
-0.975445, 221, 1, 252, 128
-0.975569, 53, 9, 84, 72
-0.975622, 257, 321, 320, 448
-0.975645, 1, 49, 32, 176
-0.975651, 177, 265, 240, 328
-0.975675, 89, 25, 120, 88
-0.975676, 313, 57, 375, 120
-0.975734, 49, 409, 112, 472
-0.975989, 77, 1, 108, 128
-0.976012, 145, 113, 272, 176
-0.976024, 17, 49, 48, 176
-0.976035, 157, 1, 188, 64
-0.976067, 5, 273, 36, 400
-0.976174, 17, 121, 144, 184
-0.976182, 9, 257, 72, 500
-0.976201, 89, 1, 120, 64
-0.976238, 217, 1, 280, 256
-0.976242, 57, 17, 88, 144
-0.976268, 5, 161, 36, 288
-0.97628, 209, 241, 272, 368
-0.976309, 9, 337, 72, 400
-0.97631, 137, 241, 168, 368
-0.976356, 49, 401, 176, 464
-0.976388, 101, 145, 132, 208
-0.9764, 121, 145, 152, 208
-0.976441, 25, 401, 88, 464
-0.976489, 17, 97, 48, 224
-0.976577, 333, 33, 364, 96
-0.976643, 225, 177, 288, 240
-0.976663, 53, 33, 84, 96
-0.976726, 177, 329, 240, 392
-0.976749, 313, 145, 375, 208
-0.976753, 17, 97, 48, 160
-0.976775, 49, 57, 176, 120
-0.976799, 13, 153, 44, 216
-0.9768, 153, 33, 184, 160
-0.976839, 65, 1, 128, 256
-0.976891, 17, 25, 144, 88
-0.976935, 49, 185, 176, 248
-0.976968, 209, 265, 272, 328
-0.976972, 253, 1, 284, 64
-0.977004, 185, 289, 248, 352
-0.977061, 121, 97, 152, 224
-0.977076, 313, 89, 375, 152
-0.977097, 273, 361, 336, 424
-0.977107, 241, 25, 368, 88
-0.977206, 69, 209, 100, 272
-0.977291, 9, 17, 40, 80
-0.977304, 1, 169, 128, 232
-0.977333, 129, 417, 256, 480
-0.977339, 305, 33, 368, 96
-0.977357, 37, 49, 68, 112
-0.977374, 113, 1, 144, 64
-0.977427, 49, 425, 80, 488
-0.977446, 73, 129, 136, 384
-0.977493, 241, 57, 304, 120
-0.977534, 49, 81, 80, 144
-0.977551, 273, 257, 336, 384
-0.977555, 189, 65, 220, 128
-0.97758, 249, 129, 280, 256
-0.9777, 201, 361, 264, 424
-0.977738, 193, 393, 320, 456
-0.977756, 297, 17, 360, 144
-0.977761, 33, 113, 64, 240
-0.977765, 189, 17, 220, 80
-0.977824, 137, 1, 200, 256
-0.977834, 241, 417, 368, 480
-0.977854, 249, 121, 312, 184
-0.977872, 249, 33, 280, 96
-0.977896, 201, 57, 232, 120
-0.97796, 41, 321, 72, 448
-0.977994, 313, 353, 375, 416
-0.978008, 249, 73, 280, 136
-0.978033, 113, 25, 144, 88
-0.978039, 149, 297, 180, 360
-0.978069, 29, 49, 60, 176
-0.978074, 65, 289, 96, 416
-0.978086, 145, 433, 208, 496
-0.978099, 185, 97, 248, 224
-0.978118, 225, 433, 288, 496
-0.978125, 177, 193, 240, 320
-0.978189, 193, 1, 224, 128
-0.978217, 61, 401, 92, 464
-0.978276, 49, 425, 176, 488
-0.978282, 249, 233, 312, 296
-0.978331, 57, 169, 88, 232
-0.978365, 313, 177, 375, 240
-0.97841, 81, 377, 208, 440
-0.978525, 81, 249, 208, 312
-0.978538, 1, 337, 128, 400
-0.978547, 117, 361, 148, 424
-0.978552, 153, 81, 184, 144
-0.978558, 137, 337, 168, 400
-0.978568, 81, 49, 112, 112
-0.978628, 241, 209, 304, 272
-0.978727, 249, 1, 312, 128
-0.978747, 169, 33, 200, 160
-0.978769, 69, 249, 100, 312
-0.978777, 45, 185, 76, 248
-0.978781, 345, 393, 375, 456
-0.978808, 249, 257, 312, 384
-0.978846, 45, 161, 76, 288
-0.978884, 161, 1, 224, 256
-0.978902, 17, 361, 144, 424
-0.978934, 81, 329, 208, 392
-0.979007, 49, 145, 176, 208
-0.979059, 97, 249, 128, 312
-0.9791, 177, 65, 208, 128
-0.979246, 49, 97, 80, 224
-0.97925, 17, 121, 48, 184
-0.97927, 221, 49, 252, 112
-0.979293, 125, 249, 156, 312
-0.979331, 25, 1, 88, 500
-0.979386, 133, 41, 164, 104
-0.979386, 129, 169, 160, 232
-0.979451, 5, 1, 36, 128
-0.97948, 105, 185, 136, 248
-0.979502, 61, 433, 92, 496
-0.979506, 169, 289, 200, 352
-0.979564, 133, 49, 164, 176
-0.979573, 105, 49, 136, 112
-0.979639, 57, 161, 88, 288
-0.979714, 169, 289, 200, 416
-0.979743, 145, 57, 272, 120
-0.979748, 121, 177, 152, 304
-0.979844, 57, 249, 88, 312
-0.979953, 1, 281, 128, 344
-0.979979, 105, 1, 136, 128
-0.980016, 141, 425, 172, 488
-0.980028, 9, 193, 40, 256
-0.980093, 21, 209, 52, 272
-0.980097, 249, 105, 280, 168
-0.980135, 129, 361, 256, 424
-0.98014, 37, 297, 68, 360
-0.980174, 101, 121, 132, 184
-0.98021, 169, 329, 200, 392
-0.980236, 21, 49, 52, 112
-0.980316, 97, 129, 160, 384
-0.980361, 97, 129, 128, 256
-0.980387, 229, 81, 260, 144
-0.980426, 261, 25, 292, 88
-0.980443, 1, 97, 32, 224
-0.980476, 85, 249, 116, 312
-0.980485, 113, 401, 144, 464
-0.980501, 321, 393, 352, 456
-0.980507, 81, 353, 112, 480
-0.980511, 193, 425, 320, 488
-0.980563, 173, 89, 204, 152
-0.980589, 73, 177, 104, 304
-0.980621, 257, 145, 288, 208
-0.980664, 85, 385, 116, 448
-0.980689, 221, 369, 252, 496
-0.980696, 109, 337, 140, 400
-0.98072, 17, 145, 48, 272
-0.980753, 249, 1, 280, 128
-0.980768, 145, 1, 176, 64
-0.980803, 37, 1, 68, 128
-0.980843, 273, 1, 304, 64
-0.980843, 89, 185, 120, 248
-0.980847, 341, 65, 372, 128
-0.980901, 129, 377, 160, 440
-0.980914, 129, 209, 256, 272
-0.980928, 41, 337, 72, 400
-0.980984, 81, 353, 208, 416
-0.980995, 153, 25, 184, 88
-0.980997, 109, 289, 140, 416
-0.980998, 21, 1, 52, 64
-0.981077, 1, 145, 128, 208
-0.981082, 233, 81, 264, 208
-0.981108, 5, 233, 36, 296
-0.981297, 233, 225, 296, 480
-0.981346, 41, 9, 72, 72
-0.981371, 1, 393, 32, 456
-0.981375, 45, 153, 76, 216
-0.981383, 265, 129, 328, 384
-0.981401, 77, 89, 108, 152
-0.981425, 41, 249, 72, 312
-0.981454, 125, 337, 156, 400
-0.981455, 209, 97, 272, 352
-0.981458, 101, 1, 132, 64
-0.981492, 241, 81, 368, 208
-0.981505, 1, 1, 64, 500
-0.981505, 209, 369, 240, 496
-0.981536, 193, 57, 320, 120
-0.981549, 309, 1, 340, 128
-0.98156, 105, 49, 136, 176
-0.981616, 113, 177, 240, 240
-0.981624, 205, 409, 236, 472
-0.981626, 129, 433, 160, 496
-0.981648, 97, 289, 128, 352
-0.981682, 33, 129, 64, 192
-0.981701, 221, 25, 252, 88
-0.98172, 81, 281, 208, 344
-0.981776, 345, 33, 375, 96
-0.981802, 321, 1, 352, 64
-0.98188, 145, 97, 208, 352
-0.98192, 213, 385, 244, 448
-0.981949, 25, 233, 56, 296
-0.981975, 177, 89, 304, 152
-0.981977, 225, 177, 352, 240
-0.982059, 285, 369, 316, 496
-0.982064, 229, 113, 260, 176
-0.982086, 241, 393, 368, 456
-0.982196, 113, 249, 144, 312
-0.982208, 221, 425, 252, 488
-0.982241, 73, 377, 104, 440
-0.982303, 177, 169, 304, 232
-0.982317, 161, 145, 288, 208
-0.982324, 169, 41, 200, 104
-0.982341, 329, 417, 360, 480
-0.982432, 141, 89, 172, 152
-0.982476, 85, 297, 116, 360
-0.982494, 81, 225, 208, 288
-0.982569, 225, 193, 288, 320
-0.982569, 145, 377, 176, 440
-0.982569, 141, 129, 172, 256
-0.982606, 77, 129, 108, 192
-0.982612, 125, 65, 156, 128
-0.982678, 241, 369, 368, 432
-0.982688, 77, 97, 108, 224
-0.982701, 89, 337, 120, 400
-0.982718, 37, 81, 68, 144
-0.982749, 65, 297, 96, 360
-0.982772, 241, 425, 272, 488
-0.982788, 41, 369, 72, 432
-0.982791, 241, 369, 272, 496
-0.982816, 69, 49, 100, 112
-0.982828, 333, 1, 364, 128
-0.982838, 89, 1, 152, 500
-0.982908, 137, 369, 168, 496
-0.98291, 129, 289, 256, 352
-0.982912, 201, 25, 232, 88
-0.982952, 49, 121, 80, 184
-0.982985, 313, 65, 375, 320
-0.982992, 161, 265, 288, 328
-0.983005, 1, 113, 32, 176
-0.983015, 289, 1, 352, 500
-0.983048, 149, 273, 180, 336
-0.983075, 261, 129, 292, 256
-0.983119, 261, 49, 292, 112
-0.983128, 141, 193, 172, 320
-0.983137, 121, 225, 184, 480
-0.983205, 257, 177, 288, 240
-0.983238, 137, 1, 200, 500
-0.98326, 1, 49, 128, 112
-0.983262, 333, 89, 364, 152
-0.983275, 185, 65, 216, 192
-0.983392, 153, 241, 184, 368
-0.98345, 33, 305, 160, 368
-0.983483, 241, 49, 368, 112
-0.98355, 205, 17, 236, 144
-0.983615, 145, 393, 272, 456
-0.983735, 105, 193, 136, 320
-0.983749, 65, 353, 96, 480
-0.983798, 165, 337, 196, 464
-0.983946, 301, 161, 332, 288
-0.983992, 145, 313, 272, 376
-0.984011, 257, 225, 320, 480
-0.984041, 169, 145, 232, 272
-0.984048, 253, 193, 284, 320
-0.984092, 253, 337, 284, 464
-0.984105, 37, 209, 68, 336
-0.984166, 301, 369, 332, 496
-0.984261, 17, 273, 48, 400
-0.984275, 221, 49, 252, 176
-0.984432, 85, 177, 116, 304
-0.984518, 49, 1, 112, 500
-0.984561, 101, 353, 132, 480
-0.984623, 273, 161, 304, 288
-0.984639, 177, 257, 240, 500
-0.98467, 317, 369, 348, 496
-0.984788, 225, 89, 352, 152
-0.984907, 217, 1, 280, 500
-0.984936, 13, 225, 44, 352
-0.984966, 165, 209, 196, 336
-0.985104, 1, 433, 128, 496
-0.985294, 21, 321, 52, 448
-0.985344, 53, 257, 84, 384
-0.98538, 257, 81, 288, 208
-0.985391, 305, 209, 368, 336
-0.985409, 321, 17, 352, 144
-0.98542, 81, 289, 112, 416
-0.985559, 313, 1, 375, 500
-0.985638, 333, 129, 364, 256
-0.985708, 149, 81, 180, 208
-0.985717, 145, 337, 272, 400
-0.98579, 253, 241, 284, 368
-0.985825, 81, 49, 112, 176
-0.98586, 1, 409, 128, 472
-0.985871, 221, 97, 252, 224
-0.98588, 289, 129, 352, 384
-0.98594, 261, 1, 292, 128
-0.985977, 241, 81, 304, 208
-0.986118, 281, 321, 312, 448
-0.986339, 249, 33, 312, 288
-0.986397, 241, 209, 272, 336
-0.986412, 41, 49, 72, 176
-0.98645, 321, 161, 352, 288
-0.986506, 161, 1, 224, 500
-0.986574, 89, 1, 120, 128
-0.986621, 289, 161, 320, 288
-0.986633, 241, 153, 368, 216
-0.986644, 201, 161, 264, 288
-0.986657, 133, 1, 164, 128
-0.986706, 213, 289, 244, 416
-0.986912, 33, 81, 288, 144
-0.986924, 193, 241, 320, 304
-0.987009, 181, 257, 212, 384
-0.987065, 237, 129, 268, 256
-0.987217, 121, 129, 184, 384
-0.987226, 113, 145, 240, 208
-0.987258, 241, 201, 368, 264
-0.987338, 177, 193, 304, 256
-0.987377, 193, 33, 320, 96
-0.987411, 265, 1, 328, 500
-0.987428, 109, 97, 140, 224
-0.987451, 345, 1, 375, 128
-0.987508, 193, 1, 256, 500
-0.987587, 241, 129, 368, 192
-0.987659, 305, 225, 368, 480
-0.987875, 337, 321, 368, 448
-0.987932, 313, 321, 344, 448
-0.987948, 265, 209, 296, 336
-0.98796, 33, 113, 288, 176
-0.988099, 105, 13, 168, 44
-0.988122, 57, 1, 120, 32
-0.988202, 313, 257, 375, 384
-0.988238, 113, 1, 176, 500
-0.988334, 9, 321, 40, 448
-0.988408, 137, 289, 168, 416
-0.988435, 273, 257, 304, 384
-0.988456, 89, 69, 152, 100
-0.988529, 289, 1, 320, 128
-0.988539, 53, 305, 84, 432
-0.988586, 129, 233, 256, 296
-0.988649, 273, 1, 304, 128
-0.988738, 145, 5, 208, 36
-0.988763, 65, 1, 320, 64
-0.988819, 289, 1, 352, 256
-0.988823, 177, 369, 304, 432
-0.988827, 209, 265, 336, 328
-0.988833, 145, 37, 208, 68
-0.988837, 81, 1, 144, 32
-0.988904, 17, 197, 80, 228
-0.988922, 301, 321, 332, 448
-0.988933, 233, 1, 264, 128
-0.988986, 49, 45, 112, 76
-0.989008, 81, 221, 144, 252
-0.989024, 41, 197, 104, 228
-0.989041, 1, 221, 64, 252
-0.989045, 193, 121, 320, 184
-0.989046, 1, 369, 32, 496
-0.989114, 113, 81, 176, 112
-0.989125, 65, 17, 128, 48
-0.989129, 105, 53, 168, 84
-0.989141, 325, 321, 356, 448
-0.989166, 177, 49, 240, 80
-0.989221, 177, 33, 240, 64
-0.989235, 9, 77, 72, 108
-0.989248, 153, 49, 216, 80
-0.989281, 209, 81, 240, 208
-0.989285, 57, 393, 120, 424
-0.989287, 97, 197, 160, 228
-0.989287, 41, 177, 104, 208
-0.989304, 269, 305, 300, 432
-0.989324, 17, 5, 80, 36
-0.989369, 105, 41, 168, 72
-0.989412, 1, 405, 64, 436
-0.989414, 9, 89, 72, 120
-0.989422, 41, 209, 104, 240
-0.989431, 33, 17, 96, 48
-0.989461, 301, 113, 332, 240
-0.989467, 113, 113, 176, 144
-0.989469, 33, 133, 96, 164
-0.989501, 9, 105, 72, 136
-0.989532, 105, 1, 168, 32
-0.989539, 113, 69, 176, 100
-0.989548, 145, 61, 208, 92
-0.989562, 145, 257, 208, 500
-0.989564, 113, 101, 176, 132
-0.989568, 1, 33, 64, 64
-0.989573, 25, 409, 88, 440
-0.989601, 113, 397, 176, 428
-0.989608, 33, 389, 96, 420
-0.989631, 145, 97, 208, 128
-0.989631, 105, 237, 168, 268
-0.989633, 97, 173, 160, 204
-0.989645, 177, 61, 240, 92
-0.98966, 177, 1, 240, 32
-0.989662, 49, 57, 112, 88
-0.989678, 17, 177, 80, 208
-0.989688, 105, 225, 168, 256
-0.989707, 49, 81, 112, 112
-0.989709, 209, 45, 272, 76
-0.989713, 9, 305, 72, 336
-0.989756, 33, 325, 96, 356
-0.989762, 265, 405, 328, 436
-0.989763, 33, 309, 96, 340
-0.989764, 117, 337, 148, 464
-0.989765, 89, 101, 152, 132
-0.989768, 225, 1, 288, 32
-0.989773, 189, 369, 220, 496
-0.989775, 9, 61, 72, 92
-0.989815, 33, 297, 96, 328
-0.989842, 89, 329, 152, 360
-0.989843, 41, 165, 104, 196
-0.989855, 193, 21, 256, 52
-0.989856, 145, 81, 208, 112
-0.989859, 297, 409, 360, 440
-0.989878, 89, 85, 152, 116
-0.98989, 193, 217, 320, 280
-0.989911, 49, 29, 112, 60
-0.989914, 217, 21, 280, 52
-0.989927, 129, 317, 192, 348
-0.989933, 281, 225, 344, 480
-0.989957, 137, 401, 200, 432
-0.989958, 73, 381, 136, 412
-0.989959, 185, 97, 248, 352
-0.98999, 249, 1, 312, 32
-0.989993, 289, 113, 320, 240
-0.990012, 297, 393, 360, 424
-0.99002, 113, 133, 176, 164
-0.990032, 161, 21, 224, 52
-0.990043, 33, 145, 96, 176
-0.990043, 89, 317, 152, 348
-0.990043, 1, 245, 64, 276
-0.990051, 273, 393, 336, 424
-0.990059, 97, 209, 160, 240
-0.990066, 301, 49, 332, 176
-0.990067, 333, 369, 364, 496
-0.990079, 161, 309, 224, 340
-0.990094, 81, 445, 144, 476
-0.990098, 81, 393, 144, 424
-0.990115, 1, 209, 64, 240
-0.990122, 73, 345, 136, 376
-0.99013, 25, 45, 88, 76
-0.990152, 241, 233, 368, 296
-0.99017, 1, 417, 64, 448
-0.990171, 65, 257, 128, 288
-0.990185, 17, 165, 80, 196
-0.990185, 97, 381, 160, 412
-0.990198, 137, 417, 200, 448
-0.990229, 313, 25, 375, 56
-0.990235, 233, 425, 296, 456
-0.990269, 9, 17, 72, 48
-0.990272, 193, 305, 320, 368
-0.990279, 73, 137, 136, 168
-0.990285, 185, 85, 248, 116
-0.990291, 81, 237, 144, 268
-0.990292, 1, 385, 128, 448
-0.990297, 97, 161, 160, 192
-0.990309, 129, 329, 192, 360
-0.990318, 249, 129, 312, 160
-0.990329, 201, 193, 264, 448
-0.990331, 81, 413, 144, 444
-0.99035, 33, 345, 96, 376
-0.990356, 1, 233, 64, 264
-0.990361, 209, 345, 336, 408
-0.990365, 197, 113, 228, 240
-0.990382, 9, 133, 72, 164
-0.990391, 73, 197, 136, 228
-0.990392, 233, 33, 296, 64
-0.990414, 89, 301, 152, 332
-0.990423, 265, 165, 328, 196
-0.990456, 209, 33, 272, 64
-0.990464, 137, 449, 200, 480
-0.990464, 105, 449, 168, 480
-0.990471, 233, 413, 296, 444
-0.9905, 137, 133, 200, 164
-0.990507, 49, 445, 112, 476
-0.990513, 137, 429, 200, 460
-0.990518, 9, 385, 72, 416
-0.99052, 169, 413, 232, 444
-0.990525, 233, 153, 296, 184
-0.990525, 81, 41, 144, 72
-0.990534, 233, 357, 296, 388
-0.990537, 25, 441, 88, 472
-0.990541, 73, 165, 136, 196
-0.990542, 281, 25, 344, 56
-0.990542, 221, 241, 252, 368
-0.990544, 41, 225, 104, 256
-0.990548, 201, 1, 264, 32
-0.990561, 9, 293, 72, 324
-0.990567, 305, 421, 368, 452
-0.990568, 217, 73, 280, 104
-0.990576, 113, 349, 176, 380
-0.990577, 273, 417, 336, 448
-0.99058, 41, 253, 104, 284
-0.990589, 137, 385, 200, 416
-0.990593, 233, 389, 296, 420
-0.990595, 9, 465, 72, 496
-0.99067, 1, 57, 256, 120
-0.990743, 241, 1, 304, 500
-0.99098, 65, 361, 320, 424
-0.991131, 65, 417, 320, 480
-0.991198, 1, 1, 375, 64
-0.991269, 97, 169, 352, 232
-0.991584, 17, 1, 144, 32
-0.991587, 65, 385, 320, 448
-0.991627, 65, 145, 320, 208
-0.991855, 33, 33, 288, 96
-0.991909, 1, 417, 375, 480
-0.991914, 129, 89, 375, 152
-0.992241, 133, 81, 164, 112
-0.992252, 1, 161, 375, 224
-0.992271, 169, 33, 200, 64
-0.992284, 93, 1, 124, 32
-0.992284, 21, 49, 52, 80
-0.992305, 33, 209, 288, 272
-0.992323, 221, 69, 252, 100
-0.992334, 325, 21, 356, 52
-0.992337, 125, 9, 156, 40
-0.992379, 133, 69, 164, 100
-0.992384, 101, 173, 132, 204
-0.992384, 21, 1, 52, 32
-0.992387, 133, 45, 164, 76
-0.992389, 169, 5, 200, 36
-0.992393, 105, 13, 136, 44
-0.992402, 313, 33, 344, 64
-0.992404, 81, 1, 112, 32
-0.992419, 81, 17, 112, 48
-0.99242, 1, 25, 32, 56
-0.99243, 189, 13, 220, 44
-0.992437, 21, 61, 52, 92
-0.992438, 121, 161, 152, 192
-0.99244, 149, 5, 180, 36
-0.992442, 21, 13, 52, 44
-0.99245, 117, 197, 148, 228
-0.992462, 41, 17, 72, 48
-0.992467, 113, 1, 144, 32
-0.992471, 121, 133, 152, 164
-0.992478, 33, 133, 64, 164
-0.992478, 305, 21, 336, 52
-0.992481, 53, 29, 84, 60
-0.992482, 61, 1, 92, 32
-0.992484, 73, 197, 104, 228
-0.992484, 93, 381, 124, 412
-0.992501, 125, 233, 156, 264
-0.992513, 37, 325, 68, 356
-0.992514, 37, 69, 68, 100
-0.992516, 93, 13, 124, 44
-0.992516, 253, 1, 284, 32
-0.992525, 129, 57, 375, 120
-0.992529, 345, 25, 375, 56
-0.992529, 141, 405, 172, 436
-0.992532, 1, 9, 32, 40
-0.992534, 85, 393, 116, 424
-0.992535, 57, 421, 88, 452
-0.992539, 313, 57, 344, 88
-0.992548, 129, 113, 160, 144
-0.992548, 329, 409, 360, 440
-0.992549, 13, 165, 44, 196
-0.99255, 185, 1, 216, 32
-0.99255, 97, 233, 128, 264
-0.992551, 21, 25, 52, 56
-0.992558, 81, 445, 112, 476
-0.992558, 105, 105, 136, 136
-0.992559, 49, 117, 80, 148
-0.992559, 113, 397, 144, 428
-0.99256, 45, 197, 76, 228
-0.99256, 17, 109, 48, 140
-0.992561, 221, 33, 252, 64
-0.992561, 37, 389, 68, 420
-0.992561, 189, 41, 220, 72
-0.992564, 229, 93, 260, 124
-0.992567, 105, 85, 136, 116
-0.992567, 53, 53, 84, 84
-0.992572, 13, 177, 44, 208
-0.992573, 153, 29, 184, 60
-0.992575, 61, 349, 92, 380
-0.992578, 37, 49, 68, 80
-0.992579, 77, 85, 108, 116
-0.99258, 105, 385, 136, 416
-0.992583, 49, 145, 80, 176
-0.992584, 61, 17, 92, 48
-0.992587, 5, 57, 36, 88
-0.992592, 121, 177, 152, 208
-0.992593, 17, 137, 48, 168
-0.992595, 221, 45, 252, 76
-0.992597, 49, 209, 80, 240
-0.992599, 137, 393, 168, 424
-0.992601, 101, 145, 132, 176
-0.992604, 101, 161, 132, 192
-0.992609, 5, 293, 36, 324
-0.992614, 105, 73, 136, 104
-0.992616, 37, 409, 68, 440
-0.992617, 29, 193, 60, 224
-0.992624, 273, 405, 304, 436
-0.99263, 9, 213, 40, 244
-0.992635, 21, 77, 52, 108
-0.992638, 73, 381, 104, 412
-0.992646, 205, 33, 236, 64
-0.992651, 61, 197, 92, 228
-0.992651, 105, 53, 136, 84
-0.992658, 41, 233, 72, 264
-0.99266, 77, 117, 108, 148
-0.99266, 137, 5, 168, 36
-0.992666, 181, 25, 212, 56
-0.992671, 153, 397, 184, 428
-0.992672, 45, 177, 76, 208
-0.992672, 9, 233, 40, 264
-0.992675, 33, 105, 64, 136
-0.992682, 345, 409, 375, 440
-0.992682, 5, 249, 36, 280
-0.992682, 69, 233, 100, 264
-0.992684, 29, 165, 60, 196
-0.992684, 57, 393, 88, 424
-0.992687, 21, 89, 52, 120
-0.992688, 33, 1, 64, 32
-0.992688, 201, 57, 232, 88
-0.992689, 121, 297, 152, 328
-0.99269, 257, 153, 288, 184
-0.99269, 13, 193, 44, 224
-0.99269, 273, 25, 304, 56
-0.992692, 77, 105, 108, 136
-0.992695, 89, 329, 120, 360
-0.992699, 89, 197, 120, 228
-0.9927, 153, 49, 184, 80
-0.992701, 221, 9, 252, 40
-0.992704, 65, 297, 96, 328
-0.992704, 25, 241, 56, 272
-0.992704, 257, 129, 288, 160
-0.992706, 241, 29, 272, 60
-0.992711, 289, 405, 320, 436
-0.992711, 169, 17, 200, 48
-0.992713, 229, 105, 260, 136
-0.992715, 73, 45, 104, 76
-0.992715, 113, 425, 144, 456
-0.992717, 125, 393, 156, 424
-0.992718, 133, 101, 164, 132
-0.992723, 17, 121, 48, 152
-0.992726, 161, 417, 192, 448
-0.992727, 325, 9, 356, 40
-0.992728, 133, 21, 164, 52
-0.992729, 41, 345, 72, 376
-0.992729, 45, 1, 76, 32
-0.993023, 1, 289, 256, 352
-0.993063, 49, 49, 176, 80
-0.99308, 129, 61, 256, 92
-0.993107, 65, 17, 192, 48
-0.99332, 1, 33, 375, 96
-0.993342, 33, 249, 288, 312
-0.993342, 129, 93, 256, 124
-0.993355, 97, 5, 224, 36
-0.993413, 65, 77, 192, 108
-0.993456, 1, 329, 256, 392
-0.993477, 159, 25, 174, 88
-0.993494, 143, 337, 158, 400
-0.993554, 1, 137, 375, 200
-0.993559, 95, 169, 110, 232
-0.993605, 129, 337, 375, 400
-0.993614, 33, 197, 160, 228
-0.993652, 1, 13, 128, 44
-0.993663, 49, 393, 176, 424
-0.993734, 121, 185, 136, 248
-0.993768, 145, 305, 160, 368
-0.993809, 245, 49, 260, 112
-0.993835, 245, 81, 260, 144
-0.993851, 1, 393, 375, 456
-0.993854, 65, 113, 192, 144
-0.993878, 129, 33, 375, 96
-0.993879, 337, 9, 352, 72
-0.993946, 129, 73, 256, 104
-0.993955, 67, 185, 82, 248
-0.993956, 183, 25, 198, 88
-0.99397, 129, 73, 144, 136
-0.99403, 109, 361, 124, 424
-0.994031, 275, 17, 290, 80
-0.994032, 103, 33, 118, 96
-0.994038, 129, 113, 375, 176
-0.994068, 17, 153, 32, 216
-0.994112, 267, 129, 282, 192
-0.994115, 17, 101, 144, 132
-0.994118, 129, 113, 256, 144
-0.994136, 175, 289, 190, 352
-0.994146, 1, 113, 375, 176
-0.994268, 165, 17, 180, 80
-0.994298, 127, 1, 142, 64
-0.994305, 127, 105, 142, 168
-0.994317, 251, 1, 266, 64
-0.994318, 17, 117, 144, 148
-0.994327, 81, 377, 96, 440
-0.994337, 161, 5, 288, 36
-0.994363, 1, 89, 375, 152
-0.994364, 1, 57, 375, 120
-0.994376, 99, 121, 114, 184
-0.994384, 267, 1, 282, 64
-0.99439, 97, 25, 112, 88
-0.994392, 53, 409, 68, 472
-0.994394, 209, 33, 336, 64
-0.9944, 65, 101, 192, 132
-0.994437, 133, 433, 148, 496
-0.994457, 137, 361, 152, 424
-0.994478, 129, 41, 256, 72
-0.994482, 49, 405, 176, 436
-0.9945, 33, 381, 160, 412
-0.994503, 1, 169, 256, 232
-0.994518, 235, 1, 250, 64
-0.994521, 17, 73, 144, 104
-0.994538, 33, 145, 160, 176
-0.994543, 19, 41, 34, 104
-0.994556, 131, 129, 146, 192
-0.994557, 241, 409, 368, 440
-0.994561, 273, 1, 336, 128
-0.994577, 337, 41, 352, 104
-0.994592, 65, 65, 192, 96
-0.994599, 193, 65, 208, 128
-0.9946, 193, 413, 320, 444
-0.994618, 1, 349, 128, 380
-0.994634, 91, 233, 106, 296
-0.994638, 121, 225, 136, 288
-0.994641, 129, 209, 375, 272
-0.994641, 49, 421, 176, 452
-0.994674, 173, 1, 188, 64
-0.994683, 345, 33, 360, 96
-0.994694, 151, 1, 166, 64
-0.994696, 147, 233, 162, 296
-0.994705, 63, 233, 78, 296
-0.994707, 71, 153, 86, 216
-0.994717, 241, 305, 368, 368
-0.994718, 33, 209, 160, 240
-0.994721, 131, 33, 146, 96
-0.994737, 73, 401, 88, 464
-0.994739, 181, 289, 196, 352
-0.994742, 75, 49, 90, 112
-0.994746, 209, 1, 336, 32
-0.994774, 65, 89, 192, 120
-0.994775, 73, 121, 88, 184
-0.994778, 25, 41, 40, 104
-0.994781, 137, 297, 152, 360
-0.994785, 343, 57, 358, 120
-0.994811, 175, 321, 190, 384
-0.994815, 1, 209, 375, 272
-0.994821, 61, 185, 76, 248
-0.994821, 1, 353, 375, 416
-0.994832, 21, 209, 36, 272
-0.994842, 273, 81, 288, 144
-0.994853, 1, 1, 32, 256
-0.994855, 71, 433, 86, 496
-0.994858, 125, 153, 140, 216
-0.994863, 265, 153, 280, 216
-0.994873, 69, 1, 84, 64
-0.994878, 115, 209, 130, 272
-0.99489, 239, 97, 254, 160
-0.994892, 71, 249, 86, 312
-0.994892, 245, 1, 260, 64
-0.994894, 15, 185, 30, 248
-0.994894, 129, 29, 256, 60
-0.994894, 179, 1, 194, 64
-0.994903, 169, 337, 184, 400
-0.994903, 359, 393, 374, 456
-0.994905, 17, 449, 144, 480
-0.994909, 65, 125, 192, 156
-0.994922, 13, 217, 28, 280
-0.994923, 245, 25, 260, 88
-0.994928, 97, 57, 112, 120
-0.994933, 99, 145, 114, 208
-0.994947, 21, 97, 36, 160
-0.994966, 129, 305, 375, 368
-0.994967, 113, 337, 128, 400
-0.994973, 139, 417, 154, 480
-0.994973, 23, 169, 38, 232
-0.994983, 7, 1, 22, 64
-0.994989, 169, 297, 184, 360
-0.994991, 141, 161, 156, 224
-0.994994, 1, 25, 128, 56
-0.995003, 131, 377, 146, 440
-0.995013, 209, 61, 336, 92
-0.995014, 129, 273, 375, 336
-0.995017, 81, 1, 96, 64
-0.995018, 257, 145, 272, 208
-0.995023, 129, 401, 256, 432
-0.995033, 1, 297, 128, 328
-0.995043, 21, 17, 36, 80
-0.995048, 121, 121, 136, 184
-0.99506, 145, 125, 272, 156
-0.99506, 183, 65, 198, 128
-0.995069, 261, 1, 276, 64
-0.995085, 103, 1, 118, 64
-0.995088, 127, 209, 142, 272
-0.995112, 61, 209, 76, 272
-0.995119, 1, 237, 128, 268
-0.995139, 241, 429, 368, 460
-0.99514, 99, 209, 114, 272
-0.995141, 147, 89, 162, 152
-0.995142, 159, 1, 174, 64
-0.995158, 5, 57, 20, 120
-0.995165, 233, 409, 248, 472
-0.99517, 57, 345, 72, 408
-0.99517, 33, 221, 160, 252
-0.995174, 81, 381, 208, 412
-0.995174, 1, 393, 128, 424
-0.995179, 79, 249, 94, 312
-0.99518, 81, 349, 208, 380
-0.995185, 115, 185, 130, 248
-0.995189, 49, 185, 64, 248
-0.995192, 93, 1, 108, 64
-0.995193, 61, 1, 76, 64
-0.995195, 3, 369, 18, 432
-0.995205, 273, 145, 288, 208
-0.995206, 71, 209, 86, 272
-0.995208, 61, 305, 76, 368
-0.995217, 193, 401, 320, 432
-0.995217, 81, 297, 208, 328
-0.995242, 87, 209, 102, 272
-0.995249, 49, 209, 64, 272
-0.995251, 5, 233, 20, 296
-0.995256, 193, 425, 320, 456
-0.995258, 1, 185, 375, 248
-0.995259, 93, 121, 108, 184
-0.995262, 117, 361, 132, 424
-0.995268, 59, 409, 74, 472
-0.995269, 193, 41, 208, 104
-0.995273, 137, 337, 152, 400
-0.995277, 53, 249, 68, 312
-0.995285, 81, 361, 208, 392
-0.995287, 69, 65, 84, 128
-0.99529, 47, 249, 62, 312
-0.995296, 89, 305, 104, 368
-0.9953, 143, 209, 158, 272
-0.995306, 157, 49, 172, 112
-0.995308, 309, 17, 324, 80
-0.995312, 107, 425, 122, 488
-0.995315, 123, 377, 138, 440
-0.995319, 193, 97, 320, 128
-0.99532, 99, 249, 114, 312
-0.99533, 119, 145, 134, 208
-0.995339, 271, 49, 286, 112
-0.995345, 227, 1, 242, 64
-0.995359, 33, 1, 48, 64
-0.995362, 1, 53, 128, 84
-0.995376, 103, 65, 118, 128
-0.995377, 323, 433, 338, 496
-0.995392, 121, 289, 136, 352
-0.995393, 89, 185, 104, 248
-0.995397, 135, 185, 150, 248
-0.995397, 151, 297, 166, 360
-0.995406, 117, 249, 132, 312
-0.99544, 17, 133, 144, 164
-0.995449, 1, 161, 128, 192
-0.99547, 1, 253, 128, 284
-0.995485, 193, 461, 320, 492
-0.995576, 177, 153, 304, 184
-0.995614, 49, 165, 176, 196
-0.995629, 129, 17, 256, 48
-0.99563, 129, 413, 256, 444
-0.995633, 129, 389, 256, 420
-0.995656, 81, 329, 208, 360
-0.995667, 17, 89, 144, 120
-0.995703, 113, 197, 240, 228
-0.995718, 161, 213, 288, 244
-0.99574, 1, 285, 128, 316
-0.99574, 49, 129, 80, 384
-0.995742, 241, 125, 368, 156
-0.995759, 241, 393, 368, 424
-0.995781, 77, 129, 108, 384
-0.995807, 81, 37, 208, 68
-0.995848, 81, 309, 208, 340
-0.995864, 241, 21, 368, 52
-0.995921, 37, 33, 68, 288
-0.99593, 209, 189, 336, 220
-0.995941, 129, 233, 375, 296
-0.995949, 85, 257, 116, 500
-0.995977, 41, 225, 72, 480
-0.995984, 1, 37, 128, 68
-0.996001, 1, 365, 128, 396
-0.996002, 61, 193, 92, 448
-0.996035, 161, 449, 288, 480
-0.996084, 33, 309, 160, 340
-0.99609, 17, 1, 48, 256
-0.996123, 193, 81, 320, 112
-0.996125, 177, 49, 304, 80
-0.996145, 49, 233, 176, 264
-0.996157, 105, 97, 136, 352
-0.996163, 81, 257, 208, 288
-0.996173, 109, 1, 140, 256
-0.99619, 57, 1, 88, 256
-0.996198, 129, 429, 256, 460
-0.9962, 113, 453, 240, 484
-0.996239, 1, 405, 128, 436
-0.996272, 65, 469, 192, 500
-0.996279, 1, 185, 128, 216
-0.996315, 133, 1, 164, 256
-0.996332, 113, 153, 240, 184
-0.996349, 21, 97, 52, 352
-0.99638, 81, 285, 208, 316
-0.996381, 113, 209, 240, 240
-0.996404, 241, 465, 368, 496
-0.99642, 81, 245, 208, 276
-0.99643, 49, 433, 176, 464
-0.996439, 161, 349, 288, 380
-0.996498, 65, 185, 192, 216
-0.996508, 69, 33, 100, 288
-0.996521, 161, 201, 288, 232
-0.996531, 1, 337, 128, 368
-0.996543, 17, 469, 144, 500
-0.996543, 5, 161, 36, 416
-0.996555, 129, 141, 256, 172
-0.996584, 1, 249, 375, 312
-0.996587, 177, 113, 304, 144
-0.996608, 177, 17, 304, 48
-0.99662, 177, 389, 304, 420
-0.996625, 241, 93, 368, 124
-0.996643, 129, 373, 256, 404
-0.996654, 97, 193, 128, 448
-0.996678, 177, 169, 304, 200
-0.99671, 145, 317, 272, 348
-0.996732, 129, 465, 256, 496
-0.996743, 113, 185, 240, 216
-0.99677, 1, 329, 375, 392
-0.996772, 113, 221, 240, 252
-0.996777, 117, 257, 148, 500
-0.996779, 5, 257, 36, 500
-0.996822, 209, 205, 336, 236
-0.996845, 209, 445, 336, 476
-0.996877, 241, 157, 368, 188
-0.996885, 89, 33, 120, 288
-0.996906, 1, 321, 128, 352
-0.996923, 123, 161, 138, 192
-0.996938, 159, 29, 174, 60
-0.996978, 249, 129, 280, 384
-0.997018, 127, 33, 142, 64
-0.997033, 131, 9, 146, 40
-0.997035, 161, 269, 288, 300
-0.99705, 261, 65, 292, 320
-0.997052, 65, 449, 192, 480
-0.997064, 1, 437, 128, 468
-0.997068, 121, 1, 152, 256
-0.997072, 183, 25, 198, 56
-0.997089, 17, 193, 48, 448
-0.99709, 1, 173, 128, 204
-0.99711, 127, 101, 142, 132
-0.997111, 81, 5, 96, 36
-0.997121, 241, 61, 256, 92
-0.997127, 221, 97, 252, 352
-0.997135, 225, 137, 352, 168
-0.99714, 233, 33, 264, 288
-0.99714, 181, 1, 196, 32
-0.99715, 107, 1, 122, 32
-0.997153, 275, 57, 290, 88
-0.997155, 9, 241, 24, 272
-0.997157, 245, 29, 260, 60
-0.997183, 27, 21, 42, 52
-0.997187, 145, 337, 272, 368
-0.997189, 119, 189, 134, 220
-0.99719, 141, 257, 172, 500
-0.997195, 121, 161, 152, 416
-0.9972, 25, 49, 40, 80
-0.997203, 105, 13, 120, 44
-0.997204, 97, 1, 112, 32
-0.997214, 35, 1, 50, 32
-0.997216, 77, 45, 92, 76
-0.997217, 129, 253, 256, 284
-0.99722, 147, 249, 162, 280
-0.997225, 159, 5, 174, 36
-0.99723, 113, 441, 240, 472
-0.99723, 1, 25, 16, 56
-0.997236, 193, 257, 320, 288
-0.997242, 107, 381, 122, 412
-0.997243, 153, 5, 168, 36
-0.997246, 305, 1, 336, 256
-0.99725, 101, 73, 116, 104
-0.997251, 113, 1, 128, 32
-0.997255, 141, 381, 156, 412
-0.997259, 129, 173, 144, 204
-0.997261, 21, 13, 36, 44
-0.997262, 1, 273, 128, 304
-0.99727, 143, 349, 158, 380
-0.997276, 335, 21, 350, 52
-0.997286, 71, 133, 86, 164
-0.997288, 125, 9, 140, 40
-0.997293, 187, 5, 202, 36
-0.997315, 193, 125, 320, 156
-0.997324, 75, 433, 90, 464
-0.997333, 117, 221, 132, 252
-0.99734, 333, 1, 364, 256
-0.997343, 57, 345, 72, 376
-0.997362, 129, 257, 160, 500
-0.997364, 125, 125, 140, 156
-0.997366, 7, 13, 22, 44
-0.997367, 241, 85, 256, 116
-0.99737, 209, 1, 240, 256
-0.997371, 67, 189, 82, 220
-0.997373, 169, 397, 184, 428
-0.997386, 209, 365, 336, 396
-0.997396, 131, 445, 146, 476
-0.9974, 125, 61, 140, 92
-0.9974, 91, 249, 106, 280
-0.997401, 93, 189, 108, 220
-0.997402, 113, 233, 240, 264
-0.997404, 277, 25, 292, 56
-0.997409, 97, 161, 112, 192
-0.997414, 15, 189, 30, 220
-0.997414, 145, 317, 160, 348
-0.997422, 87, 5, 102, 36
-0.997425, 35, 13, 50, 44
-0.997433, 87, 197, 102, 228
-0.99744, 139, 393, 154, 424
-0.997443, 57, 377, 72, 408
-0.997444, 175, 5, 190, 36
-0.997446, 33, 129, 64, 384
-0.99745, 99, 133, 114, 164
-0.997456, 119, 1, 134, 32
-0.997456, 19, 233, 34, 264
-0.997461, 113, 165, 240, 196
-0.997467, 141, 9, 156, 40
-0.997471, 271, 89, 286, 120
-0.997473, 17, 25, 32, 56
-0.997477, 181, 33, 212, 288
-0.997478, 339, 409, 354, 440
-0.997478, 95, 221, 110, 252
-0.997479, 351, 409, 366, 440
-0.99748, 177, 141, 304, 172
-0.997482, 269, 153, 284, 184
-0.997491, 79, 17, 94, 48
-0.997492, 335, 9, 350, 40
-0.997495, 225, 109, 352, 140
-0.997495, 109, 413, 124, 444
-0.997496, 267, 1, 282, 32
-0.997497, 345, 1, 375, 256
-0.997499, 15, 13, 30, 44
-0.997503, 101, 101, 116, 132
-0.997505, 99, 13, 114, 44
-0.997506, 307, 53, 322, 84
-0.997507, 23, 69, 38, 100
-0.997514, 19, 137, 34, 168
-0.997514, 165, 417, 180, 448
-0.997517, 121, 101, 136, 132
-0.997518, 67, 221, 82, 252
-0.997522, 265, 137, 280, 168
-0.997523, 153, 257, 184, 500
-0.997526, 1, 5, 16, 36
-0.997527, 295, 405, 310, 436
-0.997529, 3, 249, 18, 280
-0.99753, 17, 165, 32, 196
-0.997531, 119, 245, 134, 276
-0.997534, 17, 1, 32, 32
-0.997535, 235, 105, 250, 136
-0.997535, 273, 121, 288, 152
-0.997536, 83, 389, 98, 420
-0.997542, 161, 185, 288, 216
-0.997544, 71, 45, 86, 76
-0.997546, 75, 465, 90, 496
-0.997556, 209, 377, 336, 408
-0.997557, 129, 161, 144, 192
-0.997559, 81, 345, 96, 376
-0.99756, 61, 1, 76, 32
-0.997561, 75, 73, 90, 104
-0.997562, 241, 173, 368, 204
-0.997566, 15, 221, 30, 252
-0.997576, 79, 409, 94, 440
-0.997577, 7, 25, 22, 56
-0.997578, 127, 113, 142, 144
-0.997579, 73, 105, 88, 136
-0.997579, 303, 81, 318, 112
-0.997586, 53, 197, 68, 228
-0.997586, 161, 397, 176, 428
-0.997587, 123, 73, 138, 104
-0.997591, 345, 409, 360, 440
-0.997594, 111, 13, 126, 44
-0.997597, 147, 5, 162, 36
-0.997599, 129, 361, 256, 392
-0.997599, 25, 1, 40, 32
-0.9976, 59, 197, 74, 228
-0.99761, 157, 49, 172, 80
-0.997611, 85, 369, 100, 400
-0.997613, 175, 309, 190, 340
-0.997614, 293, 65, 324, 320
-0.997616, 21, 197, 36, 228
-0.997619, 63, 245, 78, 276
-0.997619, 345, 25, 360, 56
-0.997629, 103, 45, 118, 76
-0.997631, 309, 21, 324, 52
-0.997632, 123, 177, 138, 208
-0.997635, 155, 81, 170, 112
-0.997638, 227, 457, 242, 488
-0.997638, 125, 149, 140, 180
-0.997641, 333, 409, 348, 440
-0.997642, 285, 405, 300, 436
-0.997644, 181, 37, 196, 68
-0.997649, 69, 1, 84, 32
-0.997652, 259, 157, 274, 188
-0.997659, 73, 197, 88, 228
-0.997662, 145, 393, 160, 424
-0.997662, 21, 105, 36, 136
-0.997666, 1, 289, 375, 352
-0.99778, 73, 257, 104, 500
-0.997858, 29, 257, 60, 500
-0.997905, 261, 193, 292, 448
-0.997922, 281, 161, 312, 416
-0.99797, 233, 129, 264, 384
-0.997986, 169, 33, 200, 288
-0.998014, 149, 129, 180, 384
-0.998106, 221, 1, 252, 256
-0.998108, 157, 1, 188, 256
-0.998109, 245, 1, 276, 256
-0.998111, 325, 129, 356, 384
-0.99825, 273, 65, 304, 320
-0.998292, 213, 257, 244, 500
-0.99831, 145, 1, 176, 256
-0.998317, 321, 1, 352, 256
-0.998336, 273, 257, 304, 500
-0.998339, 193, 1, 224, 256
-0.998349, 293, 161, 324, 416
-0.998369, 105, 49, 168, 64
-0.998394, 89, 75, 152, 90
-0.998399, 41, 383, 104, 398
-0.998403, 145, 43, 208, 58
-0.998404, 81, 227, 144, 242
-0.998411, 193, 37, 256, 52
-0.998412, 49, 83, 112, 98
-0.998421, 73, 385, 136, 400
-0.998425, 65, 47, 128, 62
-0.998425, 113, 105, 176, 120
-0.998426, 105, 81, 168, 96
-0.998431, 113, 75, 176, 90
-0.998435, 89, 15, 152, 30
-0.998435, 89, 105, 152, 120
-0.998436, 41, 229, 104, 244
-0.998438, 145, 7, 208, 22
-0.998442, 81, 419, 144, 434
-0.998442, 1, 411, 64, 426
-0.998444, 97, 233, 160, 248
-0.998445, 9, 81, 72, 96
-0.998445, 73, 139, 136, 154
-0.998446, 1, 223, 64, 238
-0.998446, 17, 139, 80, 154
-0.998448, 65, 17, 128, 32
-0.99845, 273, 397, 336, 412
-0.998452, 217, 29, 280, 44
-0.998453, 49, 481, 112, 496
-0.998454, 305, 399, 368, 414
-0.998456, 73, 353, 136, 368
-0.998458, 49, 53, 112, 68
-0.998459, 97, 387, 160, 402
-0.998461, 177, 47, 240, 62
-0.998462, 105, 137, 168, 152
-0.998464, 57, 167, 120, 182
-0.998464, 33, 1, 96, 16
-0.998464, 17, 167, 80, 182
-0.998465, 193, 31, 256, 46
-0.998466, 177, 57, 240, 72
-0.998466, 41, 19, 104, 34
-0.998468, 177, 67, 240, 82
-0.998468, 145, 89, 208, 104
-0.998468, 201, 1, 264, 16
-0.99847, 105, 87, 168, 102
-0.99847, 145, 99, 208, 114
-0.998471, 33, 319, 96, 334
-0.998471, 25, 51, 88, 66
-0.998471, 73, 319, 136, 334
-0.998472, 33, 351, 96, 366
-0.998472, 105, 485, 168, 500
-0.998472, 113, 421, 176, 436
-0.998474, 41, 175, 104, 190
-0.998475, 233, 35, 296, 50
-0.998475, 81, 451, 144, 466
-0.998475, 105, 93, 168, 108
-0.998477, 145, 61, 208, 76
-0.998478, 33, 309, 96, 324
-0.998481, 145, 37, 208, 52
-0.998482, 9, 89, 72, 104
-0.998482, 105, 453, 168, 468
-0.998482, 9, 109, 72, 124
-0.998482, 113, 111, 176, 126
-0.998482, 145, 55, 208, 70
-0.998483, 121, 9, 184, 24
-0.998484, 33, 325, 96, 340
-0.998485, 25, 445, 88, 460
-0.998486, 53, 353, 68, 480
-0.998487, 41, 415, 104, 430
-0.998487, 169, 421, 232, 436
-0.998489, 305, 435, 368, 450
-0.998489, 297, 25, 360, 40
-0.998491, 73, 81, 136, 96
-0.998491, 209, 43, 272, 58
-0.998492, 1, 9, 64, 24
-0.998493, 49, 41, 112, 56
-0.998494, 129, 389, 192, 404
-0.998494, 177, 5, 240, 20
-0.998496, 81, 481, 144, 496
-0.998496, 9, 61, 72, 76
-0.998496, 281, 31, 344, 46
-0.998496, 1, 403, 64, 418
-0.998497, 89, 327, 152, 342
-0.998497, 185, 257, 216, 500
-0.998497, 137, 427, 200, 442
-0.998497, 113, 355, 176, 370
-0.998498, 113, 123, 176, 138
-0.9985, 145, 29, 208, 44
-0.9985, 129, 135, 192, 150
-0.998503, 145, 49, 208, 64
-0.998505, 249, 65, 312, 80
-0.998506, 1, 1, 64, 16
-0.998508, 1, 27, 64, 42
-0.998509, 9, 309, 72, 324
-0.998509, 129, 321, 192, 336
-0.99851, 41, 181, 104, 196
-0.99851, 9, 225, 24, 352
-0.998511, 9, 103, 72, 118
-0.998511, 145, 69, 208, 84
-0.998511, 89, 69, 152, 84
-0.998512, 1, 195, 64, 210
-0.998513, 97, 167, 160, 182
-0.998515, 113, 397, 176, 412
-0.998515, 57, 393, 120, 408
-0.998516, 201, 461, 264, 476
-0.998516, 1, 417, 64, 432
-0.998516, 33, 145, 96, 160
-0.998517, 105, 227, 168, 242
-0.998517, 137, 459, 200, 474
-0.998517, 25, 479, 88, 494
-0.998517, 97, 173, 160, 188
-0.998517, 41, 189, 104, 204
-0.998518, 109, 137, 140, 152
-0.998518, 209, 65, 272, 80
-0.998518, 33, 109, 96, 124
-0.998518, 25, 25, 56, 40
-0.998518, 229, 97, 260, 112
-0.998519, 129, 143, 160, 158
-0.998519, 77, 227, 108, 242
-0.998519, 29, 193, 60, 208
-0.998519, 9, 75, 72, 90
-0.99852, 73, 321, 104, 336
-0.998521, 89, 99, 152, 114
-0.998521, 29, 167, 60, 182
-0.998521, 113, 117, 176, 132
-0.998521, 49, 111, 80, 126
-0.998521, 5, 111, 36, 126
-0.998522, 177, 33, 208, 48
-0.998522, 269, 93, 300, 108
-0.998522, 281, 63, 344, 78
-0.998522, 117, 191, 148, 206
-0.998522, 85, 79, 116, 94
-0.998523, 333, 471, 364, 486
-0.998523, 25, 227, 56, 242
-0.998523, 153, 43, 184, 58
-0.998523, 85, 417, 116, 432
-0.998523, 37, 325, 68, 340
-0.998523, 49, 59, 112, 74
-0.998523, 233, 425, 296, 440
-0.998524, 185, 45, 216, 60
-0.998524, 57, 139, 88, 154
-0.998524, 117, 13, 148, 28
-0.998524, 217, 59, 280, 74
-0.998524, 313, 91, 375, 106
-0.998525, 177, 93, 240, 108
-0.998525, 49, 137, 112, 152
-0.998525, 153, 419, 184, 434
-0.998526, 81, 55, 112, 70
-0.998526, 281, 95, 344, 110
-0.998526, 253, 37, 284, 52
-0.998526, 305, 469, 368, 484
-0.998527, 45, 169, 76, 184
-0.998527, 57, 415, 88, 430
-0.998527, 177, 5, 208, 20
-0.998528, 249, 133, 312, 148
-0.998528, 9, 55, 40, 70
-0.998529, 113, 99, 176, 114
-0.99853, 129, 483, 160, 498
-0.998531, 17, 381, 80, 396
-0.998531, 281, 159, 344, 174
-0.998532, 305, 155, 368, 170
-0.998532, 41, 219, 104, 234
-0.998532, 273, 431, 336, 446
-0.998532, 57, 1, 88, 16
-0.998532, 9, 117, 72, 132
-0.998533, 13, 175, 44, 190
-0.998533, 73, 111, 136, 126
-0.998535, 9, 233, 40, 248
-0.998535, 29, 417, 60, 432
-0.998536, 77, 85, 108, 100
-0.998536, 141, 421, 172, 436
-0.998537, 121, 449, 152, 464
-0.998537, 109, 451, 140, 466
-0.998537, 313, 29, 344, 44
-0.998538, 333, 403, 364, 418
-0.998539, 149, 323, 180, 338
-0.998541, 1, 169, 32, 184
-0.998541, 89, 479, 120, 494
-0.998541, 17, 141, 48, 156
-0.998541, 41, 233, 72, 248
-0.998541, 301, 91, 332, 106
-0.998542, 133, 97, 164, 112
-0.998543, 205, 37, 236, 52
-0.998545, 89, 353, 120, 368
-0.998545, 121, 323, 152, 338
-0.998546, 169, 39, 200, 54
-0.998547, 57, 319, 88, 334
-0.998547, 21, 83, 52, 98
-0.998547, 149, 485, 180, 500
-0.998547, 9, 227, 40, 242
-0.998548, 133, 387, 164, 402
-0.998548, 77, 139, 108, 154
-0.998548, 113, 45, 144, 60
-0.998548, 33, 109, 64, 124
-0.998549, 249, 131, 280, 146
-0.99855, 1, 9, 32, 24
-0.998551, 5, 27, 36, 42
-0.998551, 77, 481, 108, 496
-0.998552, 137, 97, 168, 352
-0.998552, 81, 449, 112, 464
-0.998552, 61, 79, 92, 94
-0.998553, 269, 61, 300, 76
-0.998553, 61, 351, 92, 366
-0.998555, 37, 319, 68, 334
-0.998556, 293, 27, 324, 42
-0.998557, 21, 61, 52, 76
-0.998558, 109, 485, 140, 500
-0.998558, 45, 19, 76, 34
-0.998558, 49, 145, 80, 160
-0.998559, 97, 229, 128, 244
-0.99856, 105, 109, 136, 124
-0.998562, 89, 47, 120, 62
-0.998562, 37, 79, 68, 94
-0.998562, 13, 5, 44, 20
-0.998562, 77, 115, 108, 130
-0.998562, 121, 105, 152, 120
-0.998563, 69, 233, 100, 248
-0.998563, 121, 167, 152, 182
-0.998564, 61, 227, 92, 242
-0.998567, 105, 77, 136, 92
-0.998568, 73, 49, 104, 64
-0.998569, 229, 65, 260, 80
-0.998569, 73, 19, 104, 34
-0.99857, 125, 229, 156, 244
-0.998571, 281, 31, 312, 46
-0.998571, 101, 143, 132, 158
-0.998573, 105, 385, 136, 400
-0.998574, 1, 1, 32, 16
-0.998577, 221, 39, 252, 54
-0.99858, 133, 81, 164, 96
-0.998581, 37, 51, 68, 66
-0.998581, 53, 53, 84, 68
-0.998581, 53, 445, 84, 460
-0.998582, 281, 63, 312, 78
-0.998584, 33, 139, 64, 154
-0.998585, 313, 61, 344, 76
-0.998586, 325, 23, 356, 38
-0.998586, 157, 7, 188, 22
-0.998587, 13, 169, 44, 184
-0.99859, 249, 67, 280, 82
-0.998591, 17, 113, 48, 128
-0.998591, 145, 389, 176, 404
-0.998591, 261, 31, 292, 46
-0.998592, 101, 167, 132, 182
-0.998594, 117, 355, 148, 370
-0.998595, 69, 383, 100, 398
-0.998595, 117, 387, 148, 402
-0.998595, 249, 99, 280, 114
-0.998597, 129, 11, 160, 26
-0.998597, 77, 109, 108, 124
-0.998597, 221, 73, 252, 88
-0.998597, 105, 83, 136, 98
-0.998601, 101, 15, 132, 30
-0.998602, 73, 169, 104, 184
-0.998607, 101, 173, 132, 188
-0.998607, 133, 107, 164, 122
-0.998607, 193, 1, 208, 128
-0.998608, 241, 33, 272, 48
-0.998609, 113, 419, 144, 434
-0.998612, 93, 385, 124, 400
-0.998613, 89, 225, 104, 352
-0.998614, 41, 381, 72, 396
-0.99862, 21, 55, 52, 70
-0.998622, 241, 225, 272, 480
-0.998624, 293, 59, 324, 74
-0.998626, 127, 97, 142, 224
-0.998628, 345, 25, 375, 40
-0.998638, 133, 75, 164, 90
-0.998642, 129, 137, 160, 152
-0.998644, 313, 161, 344, 416
-0.998664, 133, 47, 164, 62
-0.998667, 83, 241, 98, 368
-0.998676, 169, 225, 200, 480
-0.998676, 111, 241, 126, 368
-0.998683, 59, 321, 74, 448
-0.998685, 85, 353, 100, 480
-0.998698, 169, 129, 200, 384
-0.998698, 15, 225, 30, 352
-0.998698, 3, 241, 18, 368
-0.998699, 63, 225, 78, 352
-0.998708, 139, 241, 154, 368
-0.998717, 145, 209, 160, 336
-0.998719, 67, 161, 82, 288
-0.998722, 15, 161, 30, 288
-0.998726, 117, 225, 132, 352
-0.998749, 157, 33, 172, 160
-0.998762, 33, 1, 48, 128
-0.998769, 23, 97, 38, 224
-0.998796, 25, 49, 40, 176
-0.998804, 133, 241, 148, 368
-0.998807, 175, 289, 190, 416
-0.998809, 99, 97, 114, 224
-0.998823, 125, 241, 140, 368
-0.998829, 95, 241, 110, 368
-0.99883, 47, 209, 62, 336
-0.998833, 77, 273, 92, 400
-0.998836, 337, 225, 368, 480
-0.998841, 27, 1, 42, 128
-0.998842, 55, 241, 70, 368
-0.998849, 269, 129, 284, 256
-0.998851, 63, 273, 78, 400
-0.998858, 89, 289, 104, 416
-0.998859, 293, 369, 308, 496
-0.998859, 241, 81, 256, 208
-0.998867, 181, 1, 196, 128
-0.998871, 73, 97, 88, 224
-0.998873, 145, 289, 160, 416
-0.998886, 129, 49, 144, 176
-0.998891, 143, 337, 158, 464
-0.998897, 39, 353, 54, 480
-0.998908, 305, 129, 320, 256
-0.998909, 287, 369, 302, 496
-0.99891, 103, 49, 118, 176
-0.998915, 9, 273, 24, 400
-0.998922, 189, 129, 220, 384
-0.998926, 117, 289, 132, 416
-0.99893, 93, 161, 108, 288
-0.998933, 49, 273, 64, 400
-0.998933, 199, 1, 214, 128
-0.998934, 71, 241, 86, 368
-0.998936, 145, 129, 160, 256
-0.998945, 75, 353, 90, 480
-0.998948, 105, 241, 120, 368
-0.99895, 151, 241, 166, 368
-0.998955, 135, 289, 150, 416
-0.998957, 71, 1, 86, 128
-0.998964, 263, 161, 278, 288
-0.998969, 239, 1, 254, 128
-0.998972, 61, 177, 76, 304
-0.998975, 15, 273, 30, 400
-0.998983, 275, 369, 290, 496
-0.998989, 107, 369, 122, 496
-0.99899, 7, 177, 22, 304
-0.998993, 21, 241, 36, 368
-0.998996, 125, 145, 140, 272
-0.999004, 1, 193, 16, 320
-0.999008, 47, 353, 62, 480
-0.999008, 17, 49, 32, 176
-0.999014, 275, 81, 290, 208
-0.999015, 271, 1, 286, 128
-0.999018, 267, 81, 282, 208
-0.999019, 187, 1, 202, 128
-0.99902, 97, 1, 112, 128
-0.999021, 99, 145, 114, 272
-0.999024, 99, 193, 114, 320
-0.999028, 257, 129, 272, 256
-0.999031, 77, 225, 92, 352
-0.999031, 21, 177, 36, 304
-0.999033, 169, 337, 184, 464
-0.999039, 335, 129, 350, 256
-0.999039, 337, 17, 352, 144
-0.999041, 309, 17, 324, 144
-0.999042, 191, 65, 206, 192
-0.999043, 307, 81, 322, 208
-0.999047, 229, 257, 260, 500
-0.999048, 47, 161, 62, 288
-0.999051, 277, 17, 292, 144
-0.999051, 1, 1, 16, 128
-0.999056, 53, 177, 68, 304
-0.999069, 79, 1, 94, 128
-0.999072, 65, 321, 80, 448
-0.999075, 7, 1, 22, 128
-0.999081, 119, 177, 134, 304
-0.999085, 251, 129, 266, 256
-0.999085, 323, 369, 338, 496
-0.999089, 77, 49, 92, 176
-0.999089, 17, 113, 32, 240
-0.99909, 123, 17, 138, 144
-0.99909, 265, 337, 280, 464
-0.999091, 171, 33, 186, 160
-0.999102, 41, 1, 56, 128
-0.999102, 137, 369, 152, 496
-0.999104, 41, 81, 56, 208
-0.999105, 59, 1, 74, 128
-0.999107, 361, 1, 375, 128
-0.999116, 337, 81, 352, 208
-0.999117, 165, 33, 180, 160
-0.999117, 223, 369, 238, 496
-0.999117, 245, 17, 260, 144
-0.999119, 163, 273, 178, 400
-0.999123, 169, 257, 184, 384
-0.999124, 267, 209, 282, 336
-0.999129, 73, 177, 88, 304
-0.999133, 233, 369, 248, 496
-0.999133, 281, 369, 296, 496
-0.999135, 67, 49, 82, 176
-0.999136, 121, 65, 136, 192
-0.99915, 153, 81, 168, 208
-0.99915, 181, 273, 196, 400
-0.999152, 111, 321, 126, 448
-0.999154, 303, 1, 318, 128
-0.999157, 197, 65, 212, 192
-0.999157, 301, 369, 316, 496
-0.999158, 1, 49, 16, 176
-0.999159, 139, 145, 154, 272
-0.999161, 125, 193, 140, 320
-0.999162, 41, 225, 56, 352
-0.999165, 65, 1, 80, 128
-0.999169, 325, 225, 356, 480
-0.999171, 19, 1, 34, 128
-0.999174, 105, 321, 120, 448
-0.999175, 155, 193, 170, 320
-0.999247, 313, 257, 344, 500
-0.999289, 337, 129, 368, 384
-0.999394, 209, 97, 240, 352
-0.9994, 201, 257, 232, 500
-0.999589, 285, 257, 316, 500
-0.999691, 27, 5, 42, 20
-0.999692, 125, 387, 140, 402
-0.999692, 323, 467, 338, 482
-0.999692, 335, 57, 350, 72
-0.999692, 7, 57, 22, 72
-0.999692, 293, 429, 308, 444
-0.999692, 83, 447, 98, 462
-0.999693, 19, 9, 34, 24
-0.999693, 113, 353, 128, 368
-0.999693, 61, 21, 76, 36
-0.999693, 105, 449, 120, 464
-0.999694, 1, 7, 16, 22
-0.999694, 265, 129, 280, 144
-0.999694, 111, 229, 126, 244
-0.999694, 89, 253, 104, 268
-0.999695, 161, 33, 176, 48
-0.999695, 337, 89, 352, 104
-0.999695, 133, 107, 148, 122
-0.999695, 243, 97, 258, 112
-0.999695, 67, 81, 82, 96
-0.999696, 299, 61, 314, 76
-0.999696, 9, 245, 24, 260
-0.999697, 79, 411, 94, 426
-0.999697, 149, 45, 164, 60
-0.999698, 281, 63, 296, 78
-0.999698, 145, 387, 160, 402
-0.999699, 299, 29, 314, 44
-0.999701, 29, 113, 44, 128
-0.999701, 13, 227, 28, 242
-0.999701, 145, 75, 160, 90
-0.999702, 15, 85, 30, 100
-0.999702, 1, 439, 16, 454
-0.999702, 145, 105, 160, 120
-0.999702, 123, 13, 138, 28
-0.999702, 301, 257, 332, 500
-0.999702, 247, 65, 262, 80
-0.999702, 47, 255, 62, 270
-0.999702, 3, 1, 18, 16
-0.999703, 121, 107, 136, 122
-0.999703, 9, 1, 24, 16
-0.999704, 269, 159, 284, 174
-0.999704, 63, 383, 78, 398
-0.999705, 183, 5, 198, 20
-0.999705, 141, 11, 156, 26
-0.999706, 137, 381, 152, 396
-0.999706, 75, 477, 90, 492
-0.999707, 149, 251, 164, 266
-0.999708, 267, 33, 282, 48
-0.999708, 147, 11, 162, 26
-0.999709, 165, 389, 180, 404
-0.999709, 105, 413, 120, 428
-0.999709, 93, 385, 108, 400
-0.99971, 79, 19, 94, 34
-0.999711, 107, 379, 122, 394
-0.999712, 115, 15, 130, 30
-0.999712, 69, 167, 84, 182
-0.999713, 117, 387, 132, 402
-0.999713, 71, 51, 86, 66
-0.999713, 103, 47, 118, 62
-0.999714, 73, 383, 88, 398
-0.999715, 69, 135, 84, 150
-0.999715, 121, 47, 136, 62
-0.999716, 267, 65, 282, 80
-0.999716, 5, 409, 20, 424
-0.999717, 333, 123, 348, 138
-0.999717, 273, 127, 288, 142
-0.999717, 45, 381, 60, 396
-0.999718, 23, 25, 38, 40
-0.999718, 85, 351, 100, 366
-0.99972, 157, 9, 172, 24
-0.99972, 139, 137, 154, 152
-0.999721, 55, 381, 70, 396
-0.999721, 107, 483, 122, 498
-0.999722, 61, 251, 76, 266
-0.999722, 57, 349, 72, 364
-0.999722, 163, 417, 178, 432
-0.999722, 131, 169, 146, 184
-0.999722, 303, 91, 318, 106
-0.999723, 17, 137, 32, 152
-0.999723, 139, 387, 154, 402
-0.999723, 87, 317, 102, 332
-0.999725, 99, 385, 114, 400
-0.999726, 143, 321, 158, 336
-0.999727, 69, 1, 84, 16
-0.999727, 305, 25, 320, 40
-0.999727, 23, 83, 38, 98
-0.999728, 131, 387, 146, 402
-0.999728, 361, 23, 375, 38
-0.99973, 161, 485, 176, 500
-0.999731, 93, 227, 108, 242
-0.999732, 161, 27, 176, 42
-0.999733, 183, 25, 198, 40
-0.999735, 17, 169, 32, 184
-0.999737, 223, 455, 238, 470
-0.999739, 99, 479, 114, 494
-0.999739, 273, 29, 288, 44
-0.99974, 99, 137, 114, 152
-0.99974, 271, 93, 286, 108
-0.999741, 3, 27, 18, 42
-0.999742, 339, 23, 354, 38
-0.999743, 79, 383, 94, 398
-0.999743, 237, 37, 252, 52
-0.999743, 125, 135, 140, 150
-0.999746, 129, 45, 144, 60
-0.999746, 63, 227, 78, 242
-0.999746, 305, 57, 320, 72
-0.999746, 19, 61, 34, 76
-0.999747, 77, 445, 92, 460
-0.999748, 131, 451, 146, 466
-0.999749, 101, 77, 116, 92
-0.999749, 73, 109, 88, 124
-0.999749, 141, 353, 156, 368
-0.99975, 21, 111, 36, 126
-0.999751, 275, 63, 290, 78
-0.999752, 21, 55, 36, 70
-0.999752, 35, 1, 50, 16
-0.999752, 105, 15, 120, 30
-0.999752, 131, 11, 146, 26
-0.999755, 245, 33, 260, 48
-0.999755, 109, 385, 124, 400
-0.999763, 183, 31, 198, 46
-0.999765, 129, 481, 144, 496
-0.999771, 97, 107, 112, 122
-0.999772, 117, 227, 132, 242
-0.999777, 125, 75, 140, 90
-0.999779, 121, 163, 136, 178
-0.999781, 127, 105, 142, 120
-0.999783, 97, 167, 112, 182
-0.999785, 241, 65, 256, 80
-0.999788, 77, 49, 92, 64
-0.999794, 75, 79, 90, 94
-0.999992, 265, 65, 328, 192
