1966
-0.41851, 1, 97, 500, 352
-0.453259, 1, 1, 500, 256
-0.490416, 257, 1, 500, 400
-0.518718, 1, 1, 500, 400
-0.534641, 97, 1, 352, 400
-0.629154, 257, 1, 500, 256
-0.658228, 1, 1, 256, 400
-0.680573, 161, 1, 416, 256
-0.726738, 97, 97, 352, 352
-0.743888, 193, 97, 448, 352
-0.801343, 65, 1, 320, 256
-0.82405, 1, 129, 256, 384
-0.85675, 225, 97, 352, 352
-0.863711, 225, 1, 352, 256
-0.864997, 369, 1, 496, 400
-0.86548, 209, 1, 336, 400
-0.866772, 177, 129, 304, 384
-0.86834, 289, 1, 416, 400
-0.871752, 273, 1, 400, 256
-0.873186, 113, 1, 240, 400
-0.877548, 161, 1, 288, 400
-0.877663, 353, 1, 480, 256
-0.878828, 177, 1, 304, 256
-0.890697, 1, 1, 128, 400
-0.892873, 81, 97, 208, 352
-0.893803, 1, 193, 500, 320
-0.897611, 289, 129, 416, 384
-0.899053, 129, 65, 256, 320
-0.89997, 49, 1, 176, 256
-0.901008, 49, 1, 176, 400
-0.901311, 1, 1, 500, 128
-0.907698, 1, 1, 128, 256
-0.909856, 1, 113, 500, 240
-0.910081, 337, 129, 464, 384
-0.910596, 17, 97, 144, 352
-0.923687, 1, 49, 500, 176
-0.924129, 1, 257, 500, 384
-0.925907, 257, 17, 500, 144
-0.932437, 225, 65, 480, 192
-0.932695, 129, 1, 384, 128
-0.934245, 193, 225, 448, 352
-0.93469, 1, 1, 256, 128
-0.935424, 233, 145, 296, 272
-0.935986, 353, 1, 416, 128
-0.937476, 1, 49, 256, 176
-0.939296, 33, 209, 288, 336
-0.940493, 289, 1, 416, 128
-0.940736, 97, 257, 352, 384
-0.941482, 417, 209, 480, 336
-0.941576, 97, 97, 352, 224
-0.94244, 257, 177, 500, 304
-0.942576, 305, 1, 368, 128
-0.942719, 97, 145, 352, 272
-0.943416, 353, 1, 480, 128
-0.943683, 241, 1, 368, 128
-0.944265, 233, 209, 296, 336
-0.944401, 289, 257, 416, 384
-0.944422, 273, 193, 336, 320
-0.944573, 377, 257, 440, 384
-0.945189, 193, 129, 320, 256
-0.946998, 225, 273, 480, 400
-0.947192, 273, 49, 400, 176
-0.947546, 1, 161, 256, 288
-0.947929, 241, 113, 368, 240
-0.948478, 201, 161, 264, 288
-0.948509, 273, 17, 336, 144
-0.948665, 329, 241, 392, 368
-0.948983, 193, 129, 448, 256
-0.949206, 249, 1, 312, 128
-0.949666, 273, 129, 336, 256
-0.950319, 401, 1, 464, 128
-0.950746, 273, 209, 400, 336
-0.951178, 209, 209, 336, 336
-0.951207, 409, 81, 472, 208
-0.951225, 321, 49, 448, 176
-0.95123, 129, 49, 384, 176
-0.951312, 273, 65, 336, 192
-0.951825, 337, 273, 464, 400
-0.951877, 233, 97, 296, 224
-0.952175, 17, 1, 144, 128
-0.952339, 369, 193, 432, 320
-0.952535, 313, 49, 376, 176
-0.952548, 209, 257, 336, 384
-0.9527, 297, 209, 360, 336
-0.952928, 1, 97, 256, 224
-0.953231, 1, 273, 256, 400
-0.953279, 209, 209, 272, 336
-0.953375, 377, 1, 440, 128
-0.953993, 393, 193, 456, 320
-0.954126, 289, 161, 416, 288
-0.954131, 65, 33, 192, 160
-0.954485, 353, 209, 480, 336
-0.954798, 241, 217, 304, 280
-0.955259, 425, 161, 488, 288
-0.955546, 129, 1, 256, 128
-0.955882, 201, 113, 264, 240
-0.95627, 417, 257, 480, 384
-0.956309, 361, 49, 424, 176
-0.95659, 265, 201, 328, 264
-0.957189, 289, 257, 352, 384
-0.957223, 145, 209, 272, 336
-0.957249, 329, 1, 392, 128
-0.957379, 433, 1, 496, 64
-0.957592, 305, 161, 368, 288
-0.957821, 321, 113, 448, 240
-0.958777, 17, 17, 80, 144
-0.95913, 49, 161, 176, 288
-0.959286, 225, 161, 288, 224
-0.959318, 177, 81, 304, 208
-0.9594, 225, 1, 288, 128
-0.959528, 393, 145, 456, 208
-0.959888, 233, 257, 296, 384
-0.959944, 193, 257, 256, 384
-0.960051, 393, 129, 456, 256
-0.96014, 385, 49, 448, 176
-0.96014, 369, 113, 432, 240
-0.96027, 353, 241, 416, 368
-0.960387, 177, 177, 240, 304
-0.96041, 25, 209, 88, 336
-0.960466, 129, 1, 192, 128
-0.960539, 385, 1, 448, 64
-0.960833, 49, 257, 176, 384
-0.960894, 1, 49, 128, 176
-0.960979, 169, 1, 232, 128
-0.961101, 177, 113, 240, 240
-0.961645, 425, 89, 488, 152
-0.961775, 289, 81, 352, 144
-0.961966, 113, 49, 240, 176
-0.962168, 353, 161, 480, 288
-0.962687, 145, 225, 208, 288
-0.962708, 337, 65, 400, 192
-0.96288, 345, 9, 408, 72
-0.962908, 129, 81, 192, 208
-0.96291, 209, 209, 272, 272
-0.962991, 401, 41, 464, 104
-0.96303, 425, 1, 488, 128
-0.963038, 65, 81, 192, 208
-0.963165, 257, 241, 320, 368
-0.963195, 113, 273, 176, 400
-0.963203, 377, 321, 440, 384
-0.96338, 161, 257, 288, 384
-0.963503, 329, 161, 392, 288
-0.963522, 73, 225, 136, 352
-0.963744, 433, 49, 496, 176
-0.964137, 249, 137, 312, 200
-0.964261, 161, 49, 224, 176
-0.964333, 225, 49, 352, 176
-0.964422, 297, 1, 360, 64
-0.964544, 177, 1, 304, 128
-0.964597, 201, 33, 264, 160
-0.964644, 1, 97, 64, 224
-0.964656, 337, 89, 400, 152
-0.964663, 153, 257, 216, 384
-0.9651, 113, 129, 240, 256
-0.965226, 337, 265, 400, 328
-0.965234, 225, 121, 288, 184
-0.965319, 257, 57, 320, 120
-0.96533, 297, 49, 360, 112
-0.965352, 409, 1, 472, 64
-0.96539, 297, 129, 360, 192
-0.965393, 1, 241, 128, 368
-0.965533, 97, 161, 160, 288
-0.96555, 369, 113, 496, 240
-0.965575, 265, 225, 328, 288
-0.965705, 297, 225, 360, 288
-0.965915, 361, 281, 424, 344
-0.966137, 345, 241, 408, 304
-0.96615, 129, 193, 192, 256
-0.966212, 113, 249, 176, 312
-0.966276, 417, 337, 480, 400
-0.966338, 233, 193, 296, 256
-0.966394, 153, 97, 216, 224
-0.966522, 105, 209, 168, 336
-0.96674, 425, 249, 488, 312
-0.966807, 233, 49, 296, 176
-0.967105, 321, 217, 384, 280
-0.967253, 241, 161, 368, 288
-0.967265, 393, 105, 456, 168
-0.967501, 273, 313, 336, 376
-0.967633, 185, 177, 248, 240
-0.967897, 369, 129, 432, 192
-0.967996, 313, 25, 376, 88
-0.968011, 369, 49, 496, 176
-0.968046, 201, 249, 264, 312
-0.968057, 297, 97, 360, 224
-0.968093, 1, 177, 128, 304
-0.968177, 97, 241, 224, 368
-0.968265, 177, 97, 240, 160
-0.968311, 241, 9, 304, 72
-0.9684, 145, 113, 208, 176
-0.968435, 417, 193, 480, 256
-0.968447, 385, 65, 448, 128
-0.96845, 321, 129, 384, 192
-0.968453, 169, 9, 232, 72
-0.968518, 233, 241, 296, 304
-0.968544, 57, 161, 120, 288
-0.968635, 9, 145, 72, 272
-0.968697, 153, 185, 216, 248
-0.968707, 1, 1, 64, 64
-0.968843, 289, 193, 352, 256
-0.968929, 369, 153, 432, 216
-0.968936, 433, 25, 496, 88
-0.969015, 177, 153, 240, 216
-0.969022, 345, 329, 408, 392
-0.969047, 377, 201, 440, 264
-0.969061, 417, 313, 480, 376
-0.969179, 73, 129, 136, 192
-0.969239, 417, 145, 480, 208
-0.969539, 145, 1, 208, 64
-0.96956, 169, 297, 232, 360
-0.969656, 257, 249, 320, 312
-0.969662, 401, 1, 432, 64
-0.969665, 265, 81, 328, 144
-0.969671, 289, 105, 352, 168
-0.969825, 201, 1, 264, 64
-0.970246, 185, 217, 248, 280
-0.970259, 401, 217, 464, 280
-0.970392, 161, 33, 224, 96
-0.97042, 137, 273, 200, 336
-0.970495, 329, 113, 392, 240
-0.970599, 177, 1, 240, 256
-0.970632, 249, 113, 312, 176
-0.970639, 425, 273, 488, 336
-0.970756, 169, 65, 232, 128
-0.97076, 321, 321, 384, 384
-0.970778, 433, 169, 496, 232
-0.970807, 433, 97, 496, 224
-0.970914, 369, 41, 432, 104
-0.97101, 185, 273, 248, 336
-0.971049, 17, 97, 144, 224
-0.971142, 345, 129, 408, 192
-0.971446, 377, 225, 440, 288
-0.971449, 49, 209, 112, 336
-0.971542, 289, 153, 352, 216
-0.971573, 313, 97, 376, 160
-0.971647, 357, 1, 388, 128
-0.971857, 393, 169, 456, 232
-0.972006, 129, 161, 192, 224
-0.972138, 417, 65, 480, 128
-0.97216, 337, 65, 400, 128
-0.972293, 89, 273, 152, 400
-0.972342, 385, 297, 448, 360
-0.972373, 129, 89, 192, 152
-0.972385, 401, 273, 464, 336
-0.97247, 305, 25, 432, 88
-0.972513, 169, 249, 232, 312
-0.972548, 369, 17, 496, 80
-0.972559, 129, 129, 192, 256
-0.972664, 193, 121, 256, 184
-0.97267, 33, 209, 96, 272
-0.972877, 209, 153, 336, 216
-0.972917, 433, 121, 496, 184
-0.972932, 1, 241, 64, 368
-0.973101, 97, 193, 224, 320
-0.973242, 265, 1, 328, 64
-0.973378, 9, 25, 72, 88
-0.973474, 289, 25, 352, 88
-0.97353, 225, 265, 288, 328
-0.973605, 129, 305, 192, 368
-0.973847, 41, 257, 104, 384
-0.973873, 209, 41, 272, 104
-0.973944, 97, 273, 160, 336
-0.974105, 193, 129, 256, 384
-0.974191, 9, 65, 72, 128
-0.974219, 129, 49, 192, 112
-0.974219, 81, 169, 144, 232
-0.974229, 257, 273, 320, 336
-0.974309, 33, 121, 96, 184
-0.974395, 361, 177, 424, 240
-0.974404, 33, 161, 96, 288
-0.974466, 97, 129, 160, 192
-0.974488, 57, 185, 120, 248
-0.974521, 129, 225, 192, 352
-0.974645, 417, 1, 480, 256
-0.974649, 233, 129, 296, 384
-0.974708, 25, 1, 88, 64
-0.974711, 273, 337, 336, 400
-0.97473, 241, 297, 304, 360
-0.974837, 153, 145, 216, 208
-0.974967, 361, 65, 424, 128
-0.974976, 177, 129, 304, 192
-0.974998, 273, 129, 336, 192
-0.975094, 73, 249, 136, 312
-0.975104, 41, 81, 104, 208
-0.975165, 81, 225, 144, 288
-0.975202, 321, 177, 384, 240
-0.975223, 257, 161, 320, 224
-0.97527, 345, 201, 408, 264
-0.975309, 73, 1, 136, 128
-0.97537, 145, 177, 208, 304
-0.975417, 265, 33, 328, 288
-0.975449, 257, 33, 320, 96
-0.975449, 225, 49, 352, 112
-0.975502, 369, 257, 432, 320
-0.975533, 313, 73, 376, 136
-0.975533, 297, 249, 360, 312
-0.975598, 121, 225, 184, 288
-0.975639, 9, 17, 40, 80
-0.975783, 57, 73, 120, 136
-0.97583, 41, 161, 104, 224
-0.975855, 89, 193, 152, 256
-0.975873, 129, 25, 192, 88
-0.975888, 65, 273, 128, 400
-0.975931, 369, 337, 496, 400
-0.976022, 393, 1, 456, 256
-0.976062, 105, 169, 168, 232
-0.976096, 33, 233, 96, 296
-0.976204, 425, 217, 488, 280
-0.976241, 1, 201, 64, 264
-0.976276, 381, 17, 412, 80
-0.976327, 401, 249, 464, 312
-0.976493, 129, 65, 192, 320
-0.976602, 41, 1, 104, 128
-0.976605, 421, 1, 452, 128
-0.976625, 49, 209, 176, 336
-0.976634, 297, 1, 360, 256
-0.976637, 249, 225, 280, 352
-0.976726, 233, 145, 264, 272
-0.976751, 169, 121, 232, 184
-0.976758, 73, 113, 136, 240
-0.976814, 261, 225, 292, 288
-0.976846, 273, 241, 400, 304
-0.976985, 433, 1, 464, 128
-0.976993, 241, 1, 304, 256
-0.977074, 241, 121, 368, 184
-0.977261, 9, 129, 72, 384
-0.977335, 305, 49, 432, 112
-0.977471, 365, 241, 396, 368
-0.977556, 261, 137, 292, 200
-0.977786, 253, 145, 284, 272
-0.977844, 309, 225, 340, 352
-0.977846, 281, 153, 312, 216
-0.977852, 469, 337, 500, 400
-0.977967, 49, 209, 176, 272
-0.977972, 269, 209, 300, 336
-0.97799, 353, 1, 416, 256
-0.978078, 329, 1, 392, 256
-0.978207, 1, 193, 64, 320
-0.978281, 249, 217, 280, 280
-0.978289, 257, 65, 288, 192
-0.978322, 393, 97, 456, 352
-0.978372, 393, 17, 424, 144
-0.978523, 161, 153, 288, 216
-0.978534, 217, 33, 280, 288
-0.978575, 341, 1, 372, 128
-0.978583, 177, 1, 304, 64
-0.978714, 225, 153, 256, 216
-0.97874, 209, 217, 336, 280
-0.978748, 193, 241, 320, 304
-0.978764, 425, 1, 456, 64
-0.978851, 437, 313, 468, 376
-0.978882, 49, 65, 112, 320
-0.978887, 365, 9, 396, 72
-0.978961, 129, 185, 256, 248
-0.978962, 305, 1, 432, 64
-0.978982, 273, 129, 336, 384
-0.979042, 225, 1, 352, 64
-0.97906, 337, 217, 464, 280
-0.979141, 161, 97, 288, 160
-0.979231, 365, 193, 396, 320
-0.97927, 257, 145, 384, 208
-0.979282, 193, 265, 320, 328
-0.979288, 225, 25, 352, 88
-0.979317, 209, 177, 336, 240
-0.979413, 233, 25, 264, 88
-0.979487, 257, 217, 384, 280
-0.979584, 401, 273, 432, 400
-0.979628, 249, 241, 280, 304
-0.979633, 345, 17, 376, 80
-0.979744, 393, 329, 424, 392
-0.979764, 301, 17, 332, 144
-0.979781, 273, 177, 400, 240
-0.979864, 353, 97, 416, 352
-0.979892, 289, 97, 416, 160
-0.9799, 225, 1, 288, 400
-0.979914, 105, 65, 168, 192
-0.979922, 353, 241, 480, 304
-0.979935, 145, 49, 272, 112
-0.97998, 273, 217, 304, 280
-0.979993, 413, 9, 444, 72
-0.980029, 337, 73, 464, 136
-0.980034, 161, 25, 288, 88
-0.980038, 253, 1, 284, 128
-0.980057, 81, 169, 208, 232
-0.980066, 285, 49, 316, 112
-0.980069, 249, 193, 280, 256
-0.980076, 365, 201, 396, 264
-0.98008, 369, 185, 496, 248
-0.980127, 245, 97, 276, 224
-0.980217, 353, 153, 480, 216
-0.980255, 373, 17, 404, 144
-0.980342, 353, 209, 384, 336
-0.980381, 105, 1, 168, 256
-0.980396, 225, 193, 256, 320
-0.980438, 145, 217, 272, 280
-0.980464, 353, 49, 480, 112
-0.980475, 377, 193, 408, 320
-0.980477, 265, 145, 296, 272
-0.980517, 1, 1, 64, 256
-0.980552, 409, 273, 440, 336
-0.980597, 205, 113, 236, 240
-0.980708, 429, 337, 460, 400
-0.980741, 301, 129, 332, 192
-0.980766, 405, 1, 436, 128
-0.980806, 153, 1, 216, 256
-0.980877, 353, 105, 480, 168
-0.98088, 453, 1, 484, 64
-0.980901, 229, 225, 260, 288
-0.980906, 429, 49, 460, 176
-0.980944, 209, 153, 240, 216
-0.980985, 421, 177, 452, 240
-0.981023, 217, 1, 248, 64
-0.981043, 281, 97, 312, 224
-0.98105, 237, 153, 268, 216
-0.98116, 97, 1, 160, 128
-0.981166, 273, 289, 400, 352
-0.981253, 417, 249, 448, 312
-0.981267, 313, 233, 344, 296
-0.981353, 245, 49, 276, 112
-0.981404, 269, 161, 300, 224
-0.981432, 417, 209, 448, 336
-0.981433, 469, 1, 500, 64
-0.981445, 449, 257, 480, 384
-0.981481, 289, 9, 320, 72
-0.981502, 209, 177, 240, 240
-0.981655, 249, 137, 280, 200
-0.981656, 289, 321, 416, 384
-0.981661, 381, 161, 412, 224
-0.981717, 161, 97, 224, 352
-0.981771, 193, 145, 224, 208
-0.981866, 245, 1, 276, 64
-0.981872, 457, 193, 488, 320
-0.981885, 241, 265, 368, 328
-0.981941, 269, 81, 300, 208
-0.981964, 353, 241, 384, 304
-0.982012, 113, 97, 240, 160
-0.982049, 397, 225, 428, 352
-0.982094, 413, 321, 444, 384
-0.982101, 353, 257, 384, 384
-0.982105, 169, 33, 200, 160
-0.982121, 269, 281, 300, 344
-0.982131, 217, 97, 248, 224
-0.982138, 181, 177, 212, 240
-0.98214, 193, 73, 320, 136
-0.982185, 393, 129, 424, 256
-0.982219, 289, 73, 416, 136
-0.982268, 213, 161, 244, 288
-0.982271, 305, 153, 432, 216
-0.982287, 297, 225, 328, 352
-0.982295, 369, 313, 496, 376
-0.982311, 33, 185, 160, 248
-0.982329, 113, 25, 240, 88
-0.982385, 301, 249, 332, 312
-0.982392, 277, 193, 308, 256
-0.982426, 453, 289, 484, 352
-0.982498, 281, 129, 312, 192
-0.98252, 273, 1, 304, 128
-0.982529, 233, 1, 264, 64
-0.98255, 449, 137, 480, 200
-0.982598, 233, 249, 264, 312
-0.982622, 97, 1, 224, 64
-0.982624, 261, 113, 292, 176
-0.982632, 1, 57, 128, 120
-0.982634, 97, 113, 160, 240
-0.98267, 437, 273, 468, 336
-0.982706, 369, 265, 496, 328
-0.982708, 349, 81, 380, 144
-0.982718, 25, 1, 56, 64
-0.982768, 401, 185, 432, 248
-0.98278, 449, 1, 480, 128
-0.982788, 393, 241, 424, 304
-0.982813, 433, 161, 464, 224
-0.982838, 233, 33, 264, 160
-0.982845, 81, 233, 208, 296
-0.982848, 241, 97, 368, 160
-0.982853, 321, 129, 384, 384
-0.98286, 193, 177, 224, 304
-0.982933, 421, 97, 452, 160
-0.982977, 449, 337, 480, 400
-0.98299, 429, 257, 460, 384
-0.982998, 437, 1, 468, 64
-0.983023, 1, 217, 128, 280
-0.983032, 289, 121, 416, 184
-0.98307, 129, 241, 256, 304
-0.983103, 237, 121, 268, 184
-0.983113, 273, 1, 336, 400
-0.983125, 325, 1, 356, 128
-0.983155, 285, 49, 316, 176
-0.983186, 129, 129, 256, 192
-0.983194, 361, 1, 424, 400
-0.983213, 49, 161, 80, 288
-0.983227, 49, 105, 80, 168
-0.983261, 1, 49, 32, 176
-0.983266, 341, 49, 372, 176
-0.983287, 237, 257, 268, 384
-0.983293, 321, 241, 352, 368
-0.983342, 445, 81, 476, 208
-0.983374, 277, 161, 308, 288
-0.983394, 237, 209, 268, 336
-0.9834, 297, 225, 328, 288
-0.983404, 321, 177, 448, 240
-0.983404, 465, 273, 496, 400
-0.983426, 173, 97, 204, 224
-0.983437, 9, 49, 40, 112
-0.983457, 397, 121, 428, 184
-0.98346, 393, 153, 424, 216
-0.983468, 337, 145, 368, 272
-0.983468, 381, 289, 412, 352
-0.983493, 441, 97, 472, 160
-0.983505, 377, 241, 408, 368
-0.983507, 433, 73, 464, 136
-0.983507, 301, 161, 332, 224
-0.98351, 125, 265, 156, 328
-0.983606, 221, 1, 252, 128
-0.983625, 393, 281, 424, 344
-0.983633, 205, 1, 236, 128
-0.983675, 65, 41, 192, 104
-0.983683, 381, 241, 412, 304
-0.983715, 217, 241, 248, 368
-0.983725, 157, 201, 188, 264
-0.983725, 341, 265, 372, 328
-0.983773, 377, 265, 408, 328
-0.983792, 81, 121, 208, 184
-0.983796, 33, 97, 160, 160
-0.983814, 229, 177, 260, 240
-0.983835, 333, 1, 364, 64
-0.983909, 405, 145, 436, 208
-0.983943, 453, 185, 484, 248
-0.983957, 273, 49, 304, 112
-0.983969, 5, 1, 36, 128
-0.983969, 437, 201, 468, 264
-0.984023, 85, 1, 116, 128
-0.984027, 265, 193, 296, 256
-0.984038, 297, 49, 328, 112
-0.984039, 365, 145, 396, 272
-0.984043, 81, 65, 208, 128
-0.98407, 417, 1, 480, 400
-0.984109, 353, 289, 480, 352
-0.984196, 465, 1, 496, 128
-0.984201, 393, 25, 424, 88
-0.984225, 129, 121, 160, 184
-0.984231, 65, 265, 192, 328
-0.984254, 145, 217, 176, 280
-0.984307, 385, 81, 416, 144
-0.984354, 153, 97, 184, 224
-0.984371, 1, 137, 128, 200
-0.984388, 297, 97, 360, 352
-0.9844, 421, 273, 452, 336
-0.984405, 173, 145, 204, 272
-0.984411, 449, 65, 480, 128
-0.984426, 321, 265, 448, 328
-0.984446, 469, 233, 500, 296
-0.984458, 437, 193, 468, 320
-0.984467, 285, 1, 316, 128
-0.984469, 145, 49, 176, 112
-0.984469, 361, 273, 392, 336
-0.984486, 133, 1, 164, 64
-0.984522, 289, 273, 320, 400
-0.984552, 17, 249, 144, 312
-0.984558, 437, 41, 468, 104
-0.984564, 433, 97, 496, 352
-0.984587, 181, 105, 212, 168
-0.984622, 261, 257, 292, 320
-0.984632, 417, 57, 448, 120
-0.984636, 185, 1, 248, 400
-0.984656, 465, 257, 496, 320
-0.984661, 397, 89, 428, 152
-0.984663, 225, 129, 256, 192
-0.98467, 261, 257, 292, 384
-0.984687, 249, 1, 312, 400
-0.98469, 353, 129, 480, 192
-0.984693, 193, 97, 224, 224
-0.984699, 409, 81, 440, 208
-0.984699, 69, 145, 100, 272
-0.984763, 169, 113, 200, 176
-0.984769, 469, 225, 500, 352
-0.984778, 341, 241, 372, 304
-0.984783, 425, 305, 456, 368
-0.984864, 469, 89, 500, 152
-0.98487, 157, 17, 188, 144
-0.984895, 305, 73, 336, 136
-0.984913, 81, 145, 208, 208
-0.984917, 245, 25, 276, 88
-0.984955, 65, 49, 128, 176
-0.984986, 17, 33, 48, 160
-0.984986, 297, 177, 328, 304
-0.984988, 313, 81, 344, 208
-0.984989, 361, 65, 392, 128
-0.985036, 277, 257, 308, 320
-0.985053, 405, 209, 436, 272
-0.985058, 173, 201, 204, 264
-0.985101, 169, 305, 200, 368
-0.985131, 457, 81, 488, 208
-0.985137, 401, 177, 432, 304
-0.985206, 317, 121, 348, 184
-0.98521, 325, 193, 356, 320
-0.985213, 333, 25, 364, 88
-0.985218, 33, 1, 160, 64
-0.985225, 193, 297, 320, 360
-0.985269, 433, 233, 464, 296
-0.985281, 417, 145, 448, 208
-0.985312, 109, 241, 140, 304
-0.985316, 445, 249, 476, 312
-0.985362, 389, 201, 420, 264
-0.985413, 465, 313, 496, 376
-0.985435, 353, 49, 384, 176
-0.985513, 221, 49, 252, 112
-0.985539, 309, 145, 340, 272
-0.985567, 305, 329, 336, 392
-0.98559, 221, 25, 252, 88
-0.98562, 305, 273, 336, 400
-0.985635, 365, 169, 396, 232
-0.985639, 377, 217, 408, 280
-0.98564, 445, 129, 476, 256
-0.985655, 337, 193, 368, 320
-0.985675, 181, 153, 212, 216
-0.985687, 329, 1, 392, 400
-0.985708, 145, 73, 272, 136
-0.985753, 113, 161, 144, 288
-0.985785, 297, 113, 328, 240
-0.985789, 385, 1, 448, 400
-0.9858, 241, 73, 368, 136
-0.985819, 313, 1, 344, 128
-0.985838, 277, 313, 308, 376
-0.985855, 405, 249, 436, 312
-0.985877, 433, 113, 464, 240
-0.985919, 341, 241, 372, 368
-0.986003, 349, 161, 380, 288
-0.986279, 413, 273, 444, 400
-0.986334, 17, 281, 144, 344
-0.986611, 25, 1, 88, 400
-0.986644, 297, 1, 360, 400
-0.986688, 113, 273, 240, 336
-0.98674, 405, 129, 436, 256
-0.986774, 129, 1, 192, 400
-0.986839, 77, 225, 108, 352
-0.986866, 469, 145, 500, 272
-0.986959, 113, 297, 240, 360
-0.986992, 393, 81, 424, 208
-0.987059, 373, 97, 404, 224
-0.987068, 73, 1, 136, 256
-0.987088, 297, 65, 328, 192
-0.98709, 65, 321, 192, 384
-0.987125, 125, 257, 156, 384
-0.987139, 241, 313, 368, 376
-0.987155, 145, 1, 176, 128
-0.987174, 53, 65, 84, 192
-0.987204, 133, 113, 164, 240
-0.987252, 97, 209, 224, 272
-0.987253, 65, 33, 96, 160
-0.987306, 457, 145, 488, 272
-0.987341, 89, 129, 152, 384
-0.987392, 281, 209, 312, 336
-0.987419, 25, 1, 88, 256
-0.987488, 381, 145, 412, 272
-0.987505, 353, 97, 384, 224
-0.987522, 185, 225, 216, 352
-0.987617, 33, 161, 160, 224
-0.987629, 325, 145, 356, 272
-0.98763, 65, 297, 192, 360
-0.987764, 145, 241, 176, 368
-0.987798, 249, 273, 280, 400
-0.987851, 469, 49, 500, 176
-0.987858, 205, 241, 236, 368
-0.987875, 41, 81, 72, 208
-0.98799, 185, 49, 216, 176
-0.988082, 89, 49, 120, 176
-0.988144, 125, 33, 156, 160
-0.988268, 233, 97, 264, 224
-0.98828, 145, 329, 272, 392
-0.988302, 425, 161, 456, 288
-0.988418, 41, 33, 72, 160
-0.988529, 165, 257, 196, 384
-0.988534, 101, 225, 132, 352
-0.988554, 189, 1, 220, 128
-0.988577, 241, 337, 368, 400
-0.988655, 1, 25, 128, 88
-0.988781, 185, 273, 216, 400
-0.988796, 305, 33, 368, 64
-0.988837, 57, 225, 88, 352
-0.988944, 193, 337, 320, 400
-0.988956, 353, 261, 416, 292
-0.989066, 161, 1, 224, 400
-0.989098, 401, 301, 464, 332
-0.989149, 125, 209, 156, 336
-0.989208, 245, 49, 276, 176
-0.989208, 57, 113, 88, 240
-0.989287, 421, 97, 452, 224
-0.989341, 113, 273, 144, 400
-0.989395, 417, 177, 480, 208
-0.989484, 49, 1, 112, 400
-0.989492, 369, 1, 432, 32
-0.989555, 1, 313, 128, 376
-0.989556, 393, 345, 456, 376
-0.989568, 185, 173, 248, 204
-0.989573, 409, 325, 472, 356
-0.989629, 393, 113, 456, 144
-0.989631, 241, 161, 304, 192
-0.989659, 401, 33, 464, 64
-0.989689, 425, 1, 488, 32
-0.989696, 289, 9, 352, 40
-0.989709, 377, 249, 440, 280
-0.989743, 393, 5, 456, 36
-0.989779, 361, 341, 424, 372
-0.989784, 209, 257, 272, 288
-0.989795, 257, 141, 320, 172
-0.9898, 377, 329, 440, 360
-0.989811, 385, 317, 448, 348
-0.989845, 185, 161, 248, 192
-0.989861, 249, 229, 312, 260
-0.989888, 225, 141, 288, 172
-0.98989, 177, 245, 240, 276
-0.989899, 161, 9, 224, 40
-0.989905, 409, 233, 472, 264
-0.989908, 273, 173, 336, 204
-0.989914, 361, 213, 424, 244
-0.989928, 177, 193, 240, 224
-0.989962, 89, 1, 152, 400
-0.990022, 409, 361, 472, 392
-0.990028, 129, 189, 192, 220
-0.990048, 217, 165, 280, 196
-0.990051, 369, 229, 432, 260
-0.990063, 281, 153, 344, 184
-0.990088, 329, 21, 392, 52
-0.990095, 241, 217, 304, 248
-0.990098, 297, 105, 360, 136
-0.990103, 297, 21, 360, 52
-0.990158, 329, 273, 392, 304
-0.990177, 153, 181, 216, 212
-0.990182, 329, 5, 392, 36
-0.990192, 401, 21, 464, 52
-0.990192, 225, 245, 288, 276
-0.990194, 417, 337, 480, 368
-0.990228, 265, 241, 328, 272
-0.990252, 417, 257, 480, 288
-0.990252, 369, 113, 432, 144
-0.990257, 425, 13, 488, 44
-0.990302, 393, 269, 456, 300
-0.990316, 401, 45, 464, 76
-0.990316, 145, 165, 208, 196
-0.99032, 433, 41, 496, 72
-0.99037, 289, 193, 352, 224
-0.990375, 329, 261, 392, 292
-0.990381, 257, 1, 320, 32
-0.990387, 273, 69, 336, 100
-0.990398, 273, 37, 336, 68
-0.990402, 401, 193, 464, 224
-0.990413, 233, 49, 296, 80
-0.990426, 305, 229, 368, 260
-0.990431, 201, 1, 264, 32
-0.990436, 297, 45, 360, 76
-0.990471, 369, 17, 432, 48
-0.990485, 1, 29, 64, 60
-0.990485, 273, 229, 336, 260
-0.990485, 393, 157, 456, 188
-0.990494, 337, 125, 400, 156
-0.990496, 369, 169, 432, 200
-0.990497, 433, 349, 496, 380
-0.990503, 257, 261, 320, 292
-0.990518, 209, 209, 272, 240
-0.990553, 409, 313, 472, 344
-0.990554, 273, 57, 336, 88
-0.990554, 289, 241, 352, 272
-0.990558, 433, 97, 496, 128
-0.990564, 225, 233, 288, 264
-0.99057, 393, 101, 456, 132
-0.990574, 433, 125, 496, 156
-0.990582, 353, 277, 416, 308
-0.99059, 353, 365, 416, 396
-0.990595, 305, 253, 368, 284
-0.990599, 209, 45, 272, 76
-0.990601, 305, 317, 368, 348
-0.990615, 433, 25, 496, 56
-0.990625, 233, 261, 296, 292
-0.990639, 393, 209, 456, 240
-0.990668, 345, 229, 408, 260
-0.990669, 401, 289, 464, 320
-0.990671, 265, 25, 328, 56
-0.990684, 233, 69, 296, 100
-0.990708, 353, 249, 416, 280
-0.990714, 361, 93, 424, 124
-0.990718, 65, 129, 320, 192
-0.990725, 433, 113, 496, 144
-0.990725, 321, 241, 384, 272
-0.990728, 377, 357, 440, 388
-0.990728, 273, 109, 336, 140
-0.990754, 345, 309, 408, 340
-0.990763, 145, 201, 208, 232
-0.990768, 353, 325, 416, 356
-0.99077, 329, 353, 392, 384
-0.990772, 313, 57, 376, 88
-0.990777, 433, 369, 496, 400
-0.990785, 321, 165, 384, 196
-0.990793, 265, 305, 328, 336
-0.990793, 137, 117, 200, 148
-0.990799, 329, 33, 392, 64
-0.99084, 297, 133, 360, 164
-0.99085, 361, 201, 424, 232
-0.990851, 9, 1, 72, 32
-0.990872, 137, 129, 200, 160
-0.990876, 265, 97, 328, 128
-0.990889, 297, 93, 360, 124
-0.990891, 409, 221, 472, 252
-0.990894, 137, 153, 200, 184
-0.990895, 377, 137, 440, 168
-0.990899, 265, 129, 328, 160
-0.990899, 329, 105, 392, 136
-0.990899, 377, 281, 440, 312
-0.990901, 433, 269, 496, 300
-0.990904, 393, 181, 456, 212
-0.990905, 433, 69, 496, 100
-0.990906, 289, 297, 352, 328
-0.990909, 185, 149, 248, 180
-0.990909, 17, 213, 80, 244
-0.990921, 289, 265, 352, 296
-0.990922, 201, 237, 264, 268
-0.990931, 113, 169, 176, 200
-0.990939, 425, 165, 488, 196
-0.990941, 425, 141, 488, 172
-0.990942, 241, 105, 304, 136
-0.991425, 225, 105, 480, 168
-0.991597, 225, 225, 480, 288
-0.991826, 225, 257, 480, 320
-0.991976, 65, 105, 320, 168
-0.992087, 257, 25, 500, 88
-0.99214, 17, 337, 144, 400
-0.992199, 405, 1, 436, 32
-0.992209, 249, 245, 280, 276
-0.992281, 257, 145, 288, 176
-0.99232, 249, 257, 280, 288
-0.992448, 373, 13, 404, 44
-0.992522, 261, 261, 292, 292
-0.992529, 249, 229, 280, 260
-0.992532, 369, 341, 400, 372
-0.992545, 377, 229, 408, 260
-0.992548, 365, 257, 396, 288
-0.992557, 1, 1, 500, 64
-0.992561, 97, 81, 352, 144
-0.992571, 421, 297, 452, 328
-0.992572, 389, 361, 420, 392
-0.992579, 393, 249, 424, 280
-0.99258, 393, 213, 424, 244
-0.992584, 341, 21, 372, 52
-0.992584, 5, 33, 36, 64
-0.992587, 385, 5, 416, 36
-0.992589, 1, 1, 64, 400
-0.992611, 229, 165, 260, 196
-0.992613, 465, 365, 496, 396
-0.992614, 269, 153, 300, 184
-0.99262, 377, 165, 408, 196
-0.992624, 433, 309, 464, 340
-0.992624, 269, 249, 300, 280
-0.992643, 333, 229, 364, 260
-0.992653, 401, 17, 432, 48
-0.992663, 445, 161, 476, 192
-0.992671, 349, 245, 380, 276
-0.992672, 449, 69, 480, 100
-0.992673, 365, 269, 396, 300
-0.992678, 65, 241, 320, 304
-0.992681, 389, 33, 420, 64
-0.992693, 453, 305, 484, 336
-0.992695, 429, 69, 460, 100
-0.9927, 13, 21, 44, 52
-0.992703, 281, 153, 312, 184
-0.992728, 401, 97, 432, 128
-0.992728, 397, 177, 428, 208
-0.992731, 373, 329, 404, 360
-0.992733, 389, 349, 420, 380
-0.992736, 441, 137, 472, 168
-0.99274, 377, 353, 408, 384
-0.992742, 441, 121, 472, 152
-0.992743, 329, 9, 360, 40
-0.992747, 441, 321, 472, 352
-0.992747, 461, 349, 492, 380
-0.992757, 413, 313, 444, 344
-0.992761, 237, 33, 268, 64
-0.992762, 229, 153, 260, 184
-0.992764, 309, 185, 340, 216
-0.992765, 469, 1, 500, 32
-0.992769, 433, 229, 464, 260
-0.99277, 385, 261, 416, 292
-0.992772, 281, 305, 312, 336
-0.992772, 253, 213, 284, 244
-0.992773, 337, 37, 368, 68
-0.992775, 261, 225, 292, 256
-0.992775, 257, 281, 500, 344
-0.992777, 297, 153, 328, 184
-0.992779, 417, 1, 448, 32
-0.99278, 293, 193, 324, 224
-0.992781, 317, 125, 348, 156
-0.992782, 429, 53, 460, 84
-0.992782, 413, 237, 444, 268
-0.992784, 409, 45, 440, 76
-0.992789, 273, 141, 304, 172
-0.992792, 229, 249, 260, 280
-0.992794, 441, 357, 472, 388
-0.992794, 465, 17, 496, 48
-0.992795, 433, 341, 464, 372
-0.992802, 289, 169, 320, 200
-0.992806, 317, 153, 348, 184
-0.992809, 365, 213, 396, 244
-0.992809, 409, 197, 440, 228
-0.99281, 217, 281, 248, 312
-0.992814, 449, 85, 480, 116
-0.992814, 341, 305, 372, 336
-0.992817, 409, 109, 440, 140
-0.992818, 225, 81, 480, 144
-0.992819, 453, 117, 484, 148
-0.992819, 317, 233, 348, 264
-0.99282, 413, 357, 444, 388
-0.99282, 349, 265, 380, 296
-0.992821, 233, 1, 264, 32
-0.992822, 429, 329, 460, 360
-0.992823, 245, 49, 276, 80
-0.992825, 257, 1, 500, 64
-0.992827, 437, 281, 468, 312
-0.992832, 413, 325, 444, 356
-0.992833, 409, 341, 440, 372
-0.992836, 297, 21, 328, 52
-0.992836, 429, 157, 460, 188
-0.99284, 409, 217, 440, 248
-0.992841, 265, 301, 296, 332
-0.992842, 401, 297, 432, 328
-0.992845, 361, 329, 392, 360
-0.992845, 469, 29, 500, 60
-0.992847, 437, 297, 468, 328
-0.99285, 245, 157, 276, 188
-0.992851, 409, 369, 440, 400
-0.992853, 233, 261, 264, 292
-0.992859, 233, 237, 264, 268
-0.992859, 457, 5, 488, 36
-0.992859, 269, 165, 300, 196
-0.99286, 361, 17, 392, 48
-0.992862, 5, 45, 36, 76
-0.992864, 225, 33, 256, 64
-0.992865, 249, 269, 280, 300
-0.992868, 233, 17, 264, 48
-0.992868, 345, 49, 376, 80
-0.992868, 329, 145, 360, 176
-0.992868, 305, 245, 336, 276
-0.992869, 309, 165, 340, 196
-0.99287, 449, 337, 480, 368
-0.99287, 321, 245, 352, 276
-0.992873, 373, 193, 404, 224
-0.992875, 273, 233, 304, 264
-0.992876, 229, 273, 260, 304
-0.992877, 361, 177, 392, 208
-0.992877, 401, 353, 432, 384
-0.992879, 421, 261, 452, 292
-0.99288, 465, 325, 496, 356
-0.992886, 209, 157, 240, 188
-0.992886, 273, 53, 304, 84
-0.992887, 137, 157, 168, 188
-0.992887, 305, 137, 336, 168
-0.992887, 317, 1, 348, 32
-0.992888, 381, 217, 412, 248
-0.992888, 353, 217, 384, 248
-0.992889, 469, 241, 500, 272
-0.992889, 25, 17, 56, 48
-0.992891, 1, 65, 32, 96
-0.992891, 377, 177, 408, 208
-0.992894, 369, 241, 400, 272
-0.992894, 181, 173, 212, 204
-0.993079, 97, 41, 352, 104
-0.993171, 369, 325, 496, 356
-0.993173, 193, 145, 448, 208
-0.993218, 257, 321, 500, 384
-0.993291, 65, 153, 320, 216
-0.993316, 1, 177, 256, 240
-0.993321, 129, 185, 384, 248
-0.993338, 1, 129, 500, 192
-0.993551, 161, 1, 416, 64
-0.993674, 321, 101, 448, 132
-0.993706, 65, 217, 320, 280
-0.993961, 379, 1, 394, 64
-0.994031, 225, 169, 480, 232
-0.994043, 257, 57, 500, 120
-0.994057, 1, 257, 500, 320
-0.994067, 353, 21, 480, 52
-0.994107, 1, 217, 500, 280
-0.994115, 289, 21, 416, 52
-0.994174, 273, 137, 288, 200
-0.994198, 337, 309, 464, 340
-0.994256, 177, 249, 304, 280
-0.994281, 1, 169, 500, 232
-0.994305, 97, 265, 352, 328
-0.994314, 11, 1, 26, 64
-0.994372, 475, 1, 490, 64
-0.994385, 369, 9, 496, 40
-0.994391, 1, 89, 500, 152
-0.994545, 321, 1, 448, 32
-0.994548, 245, 249, 260, 312
-0.994586, 427, 1, 442, 64
-0.994586, 369, 345, 496, 376
-0.994592, 273, 185, 400, 216
-0.994608, 97, 289, 352, 352
-0.994614, 209, 261, 336, 292
-0.994631, 337, 297, 464, 328
-0.994706, 209, 153, 336, 184
-0.994732, 33, 1, 288, 64
-0.994745, 209, 189, 336, 220
-0.994764, 1, 33, 256, 96
-0.994788, 393, 9, 408, 72
-0.994799, 273, 173, 400, 204
-0.994801, 225, 201, 480, 264
-0.99482, 337, 261, 464, 292
-0.994832, 1, 57, 256, 120
-0.994833, 225, 45, 352, 76
-0.99484, 395, 129, 410, 192
-0.994906, 277, 49, 292, 112
-0.994918, 417, 1, 432, 64
-0.994953, 333, 225, 348, 288
-0.994982, 247, 25, 262, 88
-0.99499, 305, 41, 432, 72
-0.994996, 385, 9, 400, 72
-0.995001, 273, 197, 400, 228
-0.995005, 473, 329, 488, 392
-0.995036, 447, 177, 462, 240
-0.995037, 247, 1, 262, 64
-0.995039, 345, 1, 360, 64
-0.995058, 341, 89, 356, 152
-0.995086, 267, 113, 282, 176
-0.995088, 161, 145, 288, 176
-0.995095, 469, 1, 484, 64
-0.995133, 283, 41, 298, 104
-0.995159, 197, 177, 212, 240
-0.995199, 237, 1, 252, 64
-0.9952, 225, 29, 352, 60
-0.995201, 185, 161, 200, 224
-0.995205, 353, 361, 480, 392
-0.995215, 397, 153, 412, 216
-0.995218, 311, 129, 326, 192
-0.995228, 353, 89, 480, 120
-0.995236, 241, 245, 368, 276
-0.995237, 345, 33, 360, 96
-0.995239, 321, 113, 448, 144
-0.995241, 397, 281, 412, 344
-0.995248, 301, 9, 316, 72
-0.99525, 407, 297, 422, 360
-0.995254, 485, 9, 500, 72
-0.995264, 387, 137, 402, 200
-0.995268, 257, 133, 384, 164
-0.995272, 437, 1, 452, 64
-0.995277, 411, 1, 426, 64
-0.995295, 459, 57, 474, 120
-0.9953, 405, 1, 420, 64
-0.995315, 251, 225, 266, 288
-0.995317, 279, 113, 294, 176
-0.99532, 399, 1, 414, 64
-0.995325, 161, 281, 288, 312
-0.995327, 273, 105, 400, 136
-0.99534, 379, 185, 394, 248
-0.995347, 365, 9, 380, 72
-0.995362, 1, 33, 500, 96
-0.995363, 465, 329, 480, 392
-0.995368, 273, 217, 288, 280
-0.995374, 235, 153, 250, 216
-0.995388, 13, 25, 28, 88
-0.995395, 435, 281, 450, 344
-0.995404, 373, 17, 388, 80
-0.995415, 353, 233, 368, 296
-0.995428, 369, 245, 496, 276
-0.995429, 161, 45, 288, 76
-0.995441, 453, 185, 468, 248
-0.995453, 189, 137, 204, 200
-0.995454, 459, 337, 474, 400
-0.995483, 19, 33, 34, 96
-0.995483, 189, 105, 204, 168
-0.995487, 249, 49, 264, 112
-0.995498, 353, 169, 480, 200
-0.995499, 353, 185, 480, 216
-0.995506, 373, 321, 388, 384
-0.995516, 273, 157, 400, 188
-0.995519, 483, 321, 498, 384
-0.99552, 351, 25, 366, 88
-0.99552, 277, 281, 292, 344
-0.995524, 273, 145, 400, 176
-0.995524, 113, 153, 240, 184
-0.995526, 363, 241, 378, 304
-0.995532, 353, 277, 480, 308
-0.99556, 451, 81, 466, 144
-0.99556, 429, 257, 444, 320
-0.995572, 365, 217, 380, 280
-0.995576, 129, 265, 256, 296
-0.995584, 209, 173, 336, 204
-0.995585, 321, 321, 448, 352
-0.995602, 263, 137, 278, 200
-0.995603, 235, 241, 250, 304
-0.995609, 439, 153, 454, 216
-0.995614, 29, 1, 44, 64
-0.995615, 3, 1, 18, 64
-0.995616, 321, 113, 336, 176
-0.995621, 195, 137, 210, 200
-0.995624, 417, 321, 432, 384
-0.995624, 257, 57, 384, 88
-0.995626, 11, 57, 26, 120
-0.995627, 49, 73, 176, 104
-0.995628, 129, 237, 256, 268
-0.995629, 353, 33, 480, 64
-0.995629, 1, 81, 256, 144
-0.995633, 381, 233, 396, 296
-0.995649, 129, 189, 256, 220
-0.99566, 471, 233, 486, 296
-0.995668, 309, 49, 324, 112
-0.995668, 353, 213, 480, 244
-0.995672, 453, 145, 468, 208
-0.995677, 417, 217, 432, 280
-0.995692, 263, 225, 278, 288
-0.995696, 289, 305, 416, 336
-0.995698, 427, 313, 442, 376
-0.9957, 469, 97, 484, 160
-0.995702, 113, 169, 240, 200
-0.995702, 19, 1, 34, 64
-0.995708, 309, 241, 324, 304
-0.995714, 181, 137, 196, 200
-0.995717, 287, 273, 302, 336
-0.99572, 245, 225, 260, 288
-0.995729, 301, 217, 316, 280
-0.995733, 175, 169, 190, 232
-0.995734, 423, 25, 438, 88
-0.995735, 385, 33, 400, 96
-0.995736, 435, 177, 450, 240
-0.995744, 133, 121, 148, 184
-0.995749, 209, 205, 336, 236
-0.995751, 353, 45, 480, 76
-0.995753, 451, 1, 466, 64
-0.995764, 305, 345, 432, 376
-0.995769, 355, 1, 370, 64
-0.995769, 285, 137, 300, 200
-0.995776, 93, 193, 108, 256
-0.995789, 319, 161, 334, 224
-0.995789, 433, 337, 448, 400
-0.99581, 279, 305, 294, 368
-0.995814, 273, 321, 400, 352
-0.995819, 241, 1, 368, 32
-0.995822, 397, 1, 428, 256
-0.995824, 137, 89, 152, 152
-0.995826, 453, 49, 468, 112
-0.995834, 121, 233, 136, 296
-0.995838, 343, 113, 358, 176
-0.995839, 301, 41, 316, 104
-0.995842, 65, 329, 320, 392
-0.995843, 333, 129, 348, 192
-0.995847, 309, 1, 324, 64
-0.995848, 447, 121, 462, 184
-0.995853, 305, 89, 432, 120
-0.995855, 463, 1, 478, 64
-0.995862, 235, 121, 250, 184
-0.995867, 301, 145, 316, 208
-0.995874, 161, 133, 288, 164
-0.995878, 253, 201, 268, 264
-0.995878, 177, 109, 304, 140
-0.99588, 247, 81, 262, 144
-0.995888, 5, 33, 20, 96
-0.995895, 209, 125, 336, 156
-0.995895, 105, 225, 120, 288
-0.9959, 391, 249, 406, 312
-0.995906, 405, 137, 420, 200
-0.995915, 219, 153, 234, 216
-0.995936, 113, 65, 240, 96
-0.995941, 369, 61, 496, 92
-0.995943, 217, 249, 232, 312
-0.995945, 79, 209, 94, 272
-0.995946, 459, 169, 474, 232
-0.995948, 273, 257, 400, 288
-0.995951, 181, 105, 196, 168
-0.995953, 293, 41, 308, 104
-0.995958, 231, 9, 246, 72
-0.995965, 83, 1, 98, 64
-0.995971, 181, 193, 196, 256
-0.995973, 371, 297, 386, 360
-0.995977, 385, 337, 400, 400
-0.995985, 357, 257, 372, 320
-0.995989, 191, 161, 206, 224
-0.995994, 463, 249, 478, 312
-0.996, 113, 209, 128, 272
-0.996007, 33, 169, 160, 200
-0.996012, 385, 105, 400, 168
-0.996062, 321, 153, 448, 184
-0.996062, 209, 273, 336, 304
-0.99608, 65, 105, 192, 136
-0.996084, 353, 125, 480, 156
-0.996085, 161, 165, 288, 196
-0.996096, 209, 97, 336, 128
-0.996099, 353, 197, 480, 228
-0.996113, 245, 1, 276, 256
-0.996129, 321, 249, 448, 280
-0.996136, 1, 85, 128, 116
-0.996142, 17, 249, 144, 280
-0.996148, 209, 233, 336, 264
-0.996149, 257, 285, 384, 316
-0.996181, 65, 237, 192, 268
-0.996208, 97, 249, 224, 280
-0.996222, 17, 261, 144, 292
-0.996228, 1, 193, 500, 256
-0.996235, 65, 181, 192, 212
-0.996243, 289, 333, 416, 364
-0.996257, 305, 53, 432, 84
-0.996257, 289, 269, 416, 300
-0.996257, 241, 301, 368, 332
-0.996259, 241, 13, 368, 44
-0.996272, 81, 45, 208, 76
-0.996278, 1, 37, 128, 68
-0.996278, 209, 137, 336, 168
-0.996282, 305, 365, 432, 396
-0.996318, 65, 89, 192, 120
-0.99633, 145, 217, 272, 248
-0.996331, 193, 57, 320, 88
-0.996337, 81, 13, 208, 44
-0.996345, 161, 25, 288, 56
-0.996403, 305, 281, 432, 312
-0.996443, 113, 1, 240, 32
-0.996471, 1, 265, 256, 328
-0.996483, 113, 125, 240, 156
-0.996492, 113, 109, 240, 140
-0.996499, 321, 237, 448, 268
-0.996502, 17, 21, 144, 52
-0.996525, 261, 97, 292, 352
-0.996526, 369, 157, 496, 188
-0.99655, 97, 205, 224, 236
-0.996557, 369, 113, 496, 144
-0.996569, 233, 65, 264, 320
-0.996584, 353, 141, 480, 172
-0.996594, 65, 149, 192, 180
-0.996595, 273, 209, 400, 240
-0.996596, 257, 121, 384, 152
-0.996597, 1, 121, 128, 152
-0.996597, 97, 137, 224, 168
-0.996597, 161, 313, 416, 376
-0.996598, 17, 233, 144, 264
-0.996602, 209, 221, 336, 252
-0.996608, 65, 273, 192, 304
-0.996637, 257, 93, 384, 124
-0.996638, 369, 233, 496, 264
-0.99664, 145, 97, 272, 128
-0.996666, 17, 189, 144, 220
-0.996673, 361, 1, 392, 256
-0.996682, 421, 1, 452, 256
-0.996683, 273, 229, 400, 260
-0.996701, 193, 293, 320, 324
-0.996708, 257, 1, 288, 256
-0.996715, 369, 77, 496, 108
-0.996745, 161, 337, 288, 368
-0.996753, 273, 1, 304, 256
-0.996762, 273, 77, 400, 108
-0.996778, 81, 33, 208, 64
-0.996785, 373, 129, 404, 384
-0.996798, 329, 97, 360, 352
-0.996817, 369, 101, 496, 132
-0.99682, 321, 77, 448, 108
-0.996829, 245, 97, 276, 352
-0.996834, 129, 321, 256, 352
-0.996852, 1, 9, 128, 40
-0.996901, 377, 1, 408, 256
-0.99692, 65, 117, 192, 148
-0.996929, 1, 305, 500, 368
-0.996931, 225, 109, 352, 140
-0.996941, 1, 337, 500, 400
-0.996957, 337, 1, 368, 256
-0.996958, 1, 201, 128, 232
-0.99696, 161, 9, 288, 40
-0.996965, 1, 65, 128, 96
-0.996972, 161, 121, 288, 152
-0.996989, 17, 313, 144, 344
-0.996991, 449, 1, 480, 256
-0.996993, 65, 325, 192, 356
-0.997009, 409, 129, 440, 384
-0.997029, 265, 137, 280, 168
-0.997046, 383, 13, 398, 44
-0.997081, 429, 97, 460, 352
-0.997085, 409, 1, 424, 32
-0.997097, 213, 1, 244, 256
-0.997097, 397, 5, 412, 36
-0.997132, 263, 249, 278, 280
-0.997155, 409, 1, 440, 256
-0.997211, 273, 245, 288, 276
-0.997214, 433, 1, 464, 256
-0.997214, 273, 149, 288, 180
-0.99722, 313, 97, 344, 352
-0.997235, 341, 13, 356, 44
-0.997284, 285, 1, 316, 256
-0.997284, 375, 17, 390, 48
-0.997292, 361, 269, 376, 300
-0.997341, 217, 129, 248, 384
-0.997347, 1, 289, 256, 352
-0.997369, 393, 97, 424, 352
-0.997375, 13, 29, 28, 60
-0.997377, 381, 349, 396, 380
-0.99738, 1, 57, 500, 120
-0.997388, 349, 33, 380, 288
-0.997394, 453, 49, 468, 80
-0.997408, 373, 173, 388, 204
-0.997419, 461, 1, 492, 256
-0.99742, 375, 1, 390, 32
-0.997422, 343, 37, 358, 68
-0.997426, 397, 249, 412, 280
-0.997437, 407, 213, 422, 244
-0.997454, 391, 341, 406, 372
-0.997475, 441, 313, 456, 344
-0.997476, 419, 237, 434, 268
-0.997479, 419, 1, 434, 32
-0.997482, 337, 133, 352, 164
-0.997491, 249, 21, 264, 52
-0.997491, 377, 265, 392, 296
-0.997498, 449, 97, 480, 352
-0.997508, 365, 257, 380, 288
-0.997513, 415, 213, 430, 244
-0.997514, 447, 81, 462, 112
-0.997514, 351, 25, 366, 56
-0.997523, 281, 305, 296, 336
-0.997529, 391, 261, 406, 292
-0.99753, 377, 277, 392, 308
-0.997539, 153, 1, 184, 256
-0.997541, 239, 157, 254, 188
-0.997559, 391, 361, 406, 392
-0.997576, 481, 361, 496, 392
-0.997585, 361, 21, 376, 52
-0.997587, 293, 129, 324, 384
-0.9976, 477, 1, 492, 32
-0.997602, 447, 69, 462, 100
-0.997602, 207, 161, 222, 192
-0.997608, 249, 53, 264, 84
-0.99761, 383, 225, 398, 256
-0.997616, 473, 337, 488, 368
-0.997617, 417, 201, 432, 232
-0.997618, 385, 337, 400, 368
-0.997618, 371, 261, 386, 292
-0.997622, 273, 97, 304, 352
-0.997625, 431, 317, 446, 348
-0.997631, 465, 321, 480, 352
-0.997633, 463, 169, 478, 200
-0.997653, 427, 297, 442, 328
-0.997653, 461, 345, 476, 376
-0.997655, 221, 261, 236, 292
-0.997662, 477, 13, 492, 44
-0.997664, 471, 5, 486, 36
-0.997664, 401, 213, 416, 244
-0.997667, 485, 277, 500, 308
-0.997667, 411, 237, 426, 268
-0.997669, 441, 169, 456, 200
-0.99767, 383, 1, 398, 32
-0.997671, 453, 69, 468, 100
-0.997672, 375, 329, 390, 360
-0.997674, 243, 49, 258, 80
-0.997681, 201, 1, 232, 256
-0.997687, 391, 25, 406, 56
-0.997687, 467, 361, 482, 392
-0.997688, 403, 5, 418, 36
-0.99769, 313, 241, 328, 272
-0.997697, 481, 345, 496, 376
-0.997698, 407, 201, 422, 232
-0.997701, 483, 33, 498, 64
-0.99771, 19, 17, 34, 48
-0.997715, 161, 337, 416, 400
-0.997716, 411, 225, 426, 256
-0.997717, 455, 313, 470, 344
-0.997717, 351, 13, 366, 44
-0.997717, 451, 157, 466, 188
-0.99772, 221, 161, 236, 192
-0.99772, 475, 361, 490, 392
-0.997721, 409, 169, 424, 200
-0.997721, 271, 257, 286, 288
-0.997732, 45, 129, 76, 384
-0.997735, 341, 225, 356, 256
-0.997738, 431, 329, 446, 360
-0.997741, 485, 1, 500, 32
-0.997741, 447, 121, 462, 152
-0.997745, 383, 281, 398, 312
-0.997746, 455, 113, 470, 144
-0.997747, 361, 97, 392, 352
-0.997747, 353, 273, 368, 304
-0.997749, 283, 53, 298, 84
-0.997752, 283, 157, 298, 188
-0.997757, 451, 5, 466, 36
-0.997757, 23, 37, 38, 68
-0.997759, 379, 213, 394, 244
-0.99776, 229, 153, 244, 184
-0.99776, 343, 305, 358, 336
-0.997769, 399, 165, 414, 196
-0.997772, 209, 117, 224, 148
-0.997772, 441, 157, 456, 188
-0.997773, 137, 1, 168, 256
-0.997775, 399, 353, 414, 384
-0.997777, 449, 313, 464, 344
-0.997777, 335, 113, 350, 144
-0.997777, 355, 257, 370, 288
-0.997779, 369, 273, 384, 304
-0.997785, 273, 137, 288, 168
-0.997786, 57, 73, 72, 104
-0.997795, 299, 157, 314, 188
-0.997798, 377, 289, 392, 320
-0.997798, 1, 89, 16, 120
-0.997801, 373, 221, 388, 252
-0.997803, 109, 97, 140, 352
-0.997803, 283, 169, 298, 200
-0.997804, 343, 125, 358, 156
-0.997806, 57, 97, 88, 352
-0.997808, 421, 217, 436, 248
-0.997809, 445, 53, 460, 84
-0.99781, 373, 341, 388, 372
-0.997811, 343, 25, 358, 56
-0.997811, 415, 293, 430, 324
-0.997812, 9, 1, 40, 256
-0.997813, 303, 21, 318, 52
-0.997813, 331, 145, 346, 176
-0.997814, 265, 261, 280, 292
-0.997815, 289, 309, 304, 340
-0.997815, 189, 149, 204, 180
-0.997816, 255, 249, 270, 280
-0.997817, 289, 181, 304, 212
-0.997825, 311, 45, 326, 76
-0.997827, 383, 257, 398, 288
-0.997829, 65, 1, 96, 256
-0.99783, 17, 1, 32, 32
-0.997832, 415, 97, 430, 128
-0.997836, 389, 209, 404, 240
-0.997841, 331, 229, 346, 260
-0.997842, 277, 213, 292, 244
-0.997843, 249, 33, 264, 64
-0.997844, 391, 5, 406, 36
-0.997844, 277, 125, 292, 156
-0.997848, 243, 29, 258, 60
-0.99788, 201, 129, 232, 384
-0.997954, 93, 65, 124, 320
-0.99799, 177, 65, 208, 320
-0.997998, 125, 65, 156, 320
-0.998004, 325, 1, 356, 256
-0.998018, 345, 129, 376, 384
-0.998047, 21, 1, 52, 256
-0.998064, 25, 129, 56, 384
-0.998076, 461, 129, 492, 384
-0.998113, 1, 281, 500, 344
-0.998268, 149, 129, 180, 384
-0.998324, 41, 33, 72, 288
-0.998351, 189, 1, 220, 256
-0.998353, 309, 1, 340, 256
-0.998365, 137, 97, 168, 352
-0.998439, 81, 1, 112, 256
-0.998457, 277, 225, 308, 240
-0.998457, 357, 249, 388, 264
-0.998457, 413, 265, 444, 280
-0.998457, 333, 13, 364, 28
-0.998457, 417, 7, 448, 22
-0.998457, 385, 263, 416, 278
-0.998459, 397, 359, 428, 374
-0.998459, 349, 21, 380, 36
-0.99846, 441, 317, 472, 332
-0.99846, 385, 3, 416, 18
-0.99846, 281, 173, 312, 188
-0.998461, 401, 321, 432, 336
-0.998461, 253, 237, 284, 252
-0.998461, 397, 287, 428, 302
-0.998461, 309, 245, 340, 260
-0.998461, 309, 177, 340, 192
-0.998461, 421, 213, 452, 228
-0.998462, 261, 153, 292, 168
-0.998462, 189, 129, 220, 384
-0.998463, 441, 327, 472, 342
-0.998463, 437, 57, 468, 72
-0.998463, 409, 315, 440, 330
-0.998463, 373, 281, 404, 296
-0.998464, 405, 97, 436, 112
-0.998464, 377, 23, 408, 38
-0.998465, 441, 375, 472, 390
-0.998465, 189, 163, 220, 178
-0.998465, 225, 167, 288, 182
-0.998465, 261, 263, 292, 278
-0.998465, 373, 255, 404, 270
-0.998465, 45, 93, 76, 108
-0.998467, 9, 15, 40, 30
-0.998467, 245, 223, 276, 238
-0.998468, 293, 55, 324, 70
-0.998468, 469, 353, 500, 368
-0.998468, 417, 259, 448, 274
-0.998468, 409, 275, 440, 290
-0.998468, 361, 341, 424, 356
-0.998469, 389, 25, 420, 40
-0.998469, 401, 119, 432, 134
-0.998469, 321, 149, 352, 164
-0.99847, 349, 231, 380, 246
-0.99847, 297, 251, 328, 266
-0.99847, 369, 215, 400, 230
-0.998472, 285, 319, 316, 334
-0.998472, 405, 23, 436, 38
-0.998472, 421, 101, 452, 116
-0.998472, 453, 27, 484, 42
-0.998473, 401, 211, 432, 226
-0.998473, 429, 303, 460, 318
-0.998473, 421, 117, 452, 132
-0.998473, 229, 169, 260, 184
-0.998474, 357, 335, 388, 350
-0.998474, 381, 339, 412, 354
-0.998476, 393, 345, 424, 360
-0.998476, 237, 157, 268, 172
-0.998479, 361, 263, 424, 278
-0.99848, 241, 47, 272, 62
-0.99848, 377, 363, 440, 378
-0.998482, 369, 273, 432, 288
-0.998482, 77, 97, 108, 352
-0.998482, 373, 347, 404, 362
-0.998482, 413, 343, 444, 358
-0.998483, 5, 37, 36, 52
-0.998483, 357, 317, 388, 332
-0.998483, 337, 29, 368, 44
-0.998483, 469, 33, 500, 48
-0.998483, 341, 319, 372, 334
-0.998483, 233, 21, 264, 36
-0.998484, 413, 327, 444, 342
-0.998484, 429, 275, 460, 290
-0.998485, 429, 329, 460, 344
-0.998486, 269, 163, 300, 178
-0.998486, 405, 109, 436, 124
-0.998487, 401, 45, 464, 60
-0.998487, 373, 275, 404, 290
-0.998487, 417, 295, 448, 310
-0.998488, 353, 25, 416, 40
-0.998488, 393, 19, 456, 34
-0.998489, 249, 243, 280, 258
-0.998489, 417, 1, 480, 16
-0.998489, 217, 259, 280, 274
-0.99849, 389, 371, 420, 386
-0.99849, 369, 333, 400, 348
-0.99849, 337, 21, 368, 36
-0.99849, 181, 143, 212, 158
-0.998491, 365, 287, 396, 302
-0.998491, 433, 113, 464, 128
-0.998493, 229, 265, 260, 280
-0.998493, 361, 237, 392, 252
-0.998493, 453, 315, 484, 330
-0.998495, 353, 265, 384, 280
-0.998495, 429, 317, 460, 332
-0.998495, 385, 349, 448, 364
-0.998495, 305, 35, 368, 50
-0.998496, 273, 193, 336, 208
-0.998496, 209, 1, 240, 16
-0.998497, 397, 263, 428, 278
-0.998497, 377, 163, 408, 178
-0.998498, 373, 269, 404, 284
-0.998498, 377, 233, 408, 248
-0.998499, 369, 223, 432, 238
-0.9985, 337, 275, 400, 290
-0.9985, 421, 107, 452, 122
-0.9985, 5, 29, 36, 44
-0.998502, 165, 1, 196, 256
-0.998503, 413, 1, 444, 16
-0.998503, 273, 245, 336, 260
-0.998503, 109, 1, 140, 256
-0.998503, 401, 109, 464, 124
-0.998504, 445, 169, 476, 184
-0.998504, 249, 267, 280, 282
-0.998505, 377, 173, 408, 188
-0.998505, 229, 259, 260, 274
-0.998505, 241, 223, 304, 238
-0.998506, 341, 301, 372, 316
-0.998506, 413, 281, 444, 296
-0.998507, 177, 173, 208, 188
-0.998508, 365, 27, 396, 42
-0.998509, 385, 7, 448, 22
-0.998509, 369, 19, 432, 34
-0.99851, 237, 163, 268, 178
-0.99851, 385, 11, 416, 26
-0.998511, 429, 17, 460, 32
-0.998511, 225, 143, 288, 158
-0.998511, 193, 163, 256, 178
-0.998511, 413, 17, 444, 32
-0.998511, 257, 301, 320, 316
-0.998512, 453, 321, 484, 336
-0.998512, 273, 151, 304, 166
-0.998512, 461, 371, 492, 386
-0.998513, 393, 271, 456, 286
-0.998513, 389, 365, 420, 380
-0.998514, 273, 311, 304, 326
-0.998515, 361, 231, 392, 246
-0.998515, 329, 25, 392, 40
-0.998515, 361, 349, 424, 364
-0.998516, 377, 257, 440, 272
-0.998516, 185, 179, 248, 194
-0.998516, 273, 157, 304, 172
-0.998517, 401, 11, 432, 26
-0.998518, 185, 171, 248, 186
-0.998519, 425, 27, 488, 42
-0.998519, 289, 9, 352, 24
-0.998519, 265, 69, 328, 84
-0.998519, 357, 271, 388, 286
-0.99852, 305, 43, 368, 58
-0.998521, 393, 223, 456, 238
-0.998521, 409, 215, 472, 230
-0.998522, 329, 269, 392, 284
-0.998522, 241, 267, 304, 282
-0.998522, 425, 91, 488, 106
-0.998524, 397, 279, 428, 294
-0.998524, 297, 109, 360, 124
-0.998524, 257, 139, 320, 154
-0.998525, 281, 171, 344, 186
-0.998525, 369, 279, 432, 294
-0.998525, 413, 353, 444, 368
-0.998526, 249, 231, 312, 246
-0.998527, 313, 243, 376, 258
-0.998527, 277, 301, 308, 316
-0.998528, 265, 63, 328, 78
-0.998529, 409, 335, 472, 350
-0.998529, 417, 19, 480, 34
-0.99853, 393, 1, 456, 16
-0.99853, 417, 325, 480, 340
-0.99853, 401, 301, 464, 316
-0.998531, 17, 211, 80, 226
-0.998531, 225, 163, 256, 178
-0.998532, 361, 215, 424, 230
-0.998532, 177, 185, 240, 200
-0.998533, 369, 261, 400, 276
-0.998534, 385, 331, 448, 346
-0.998535, 337, 263, 400, 278
-0.998535, 417, 155, 480, 170
-0.998535, 249, 253, 280, 268
-0.998535, 233, 155, 296, 170
-0.998535, 265, 237, 328, 252
-0.998536, 385, 281, 416, 296
-0.998536, 425, 97, 488, 112
-0.998536, 409, 13, 472, 28
-0.998536, 305, 321, 368, 336
-0.998536, 393, 177, 456, 192
-0.998537, 225, 253, 288, 268
-0.998537, 1, 31, 64, 46
-0.998538, 217, 173, 280, 188
-0.99854, 265, 263, 328, 278
-0.99854, 377, 45, 440, 60
-0.99854, 161, 173, 224, 188
-0.99854, 393, 143, 456, 158
-0.99854, 393, 133, 456, 148
-0.998541, 409, 7, 472, 22
-0.998541, 409, 363, 472, 378
-0.998541, 153, 125, 216, 140
-0.998542, 329, 229, 392, 244
-0.998542, 217, 267, 280, 282
-0.998543, 433, 257, 496, 272
-0.998543, 393, 159, 456, 174
-0.998543, 393, 281, 456, 296
-0.998543, 177, 81, 240, 96
-0.998544, 433, 139, 496, 154
-0.998544, 201, 155, 264, 170
-0.998545, 281, 39, 344, 54
-0.998545, 385, 343, 448, 358
-0.998547, 393, 353, 424, 368
-0.998548, 121, 193, 184, 208
-0.998549, 369, 135, 432, 150
-0.998549, 305, 1, 368, 16
-0.998549, 353, 303, 416, 318
-0.998549, 353, 231, 416, 246
-0.998549, 401, 317, 464, 332
-0.99855, 249, 251, 312, 266
-0.998551, 377, 107, 440, 122
-0.998551, 417, 129, 480, 144
-0.998551, 417, 355, 480, 370
-0.998551, 417, 341, 480, 356
-0.998551, 281, 117, 344, 132
-0.998552, 265, 141, 296, 156
-0.998553, 185, 199, 248, 214
-0.998553, 409, 189, 472, 204
-0.998553, 265, 301, 296, 316
-0.998554, 385, 265, 448, 280
-0.998554, 281, 101, 344, 116
-0.998555, 401, 63, 464, 78
-0.998555, 329, 223, 392, 238
-0.998556, 281, 53, 344, 68
-0.998556, 385, 27, 448, 42
-0.998556, 233, 295, 296, 310
-0.998556, 9, 3, 72, 18
-0.998556, 409, 265, 472, 280
-0.998557, 329, 317, 392, 332
-0.998557, 297, 25, 360, 40
-0.998557, 329, 13, 392, 28
-0.998557, 393, 95, 456, 110
-0.998557, 225, 161, 288, 176
-0.998557, 393, 115, 456, 130
-0.998557, 305, 235, 368, 250
-0.998557, 249, 307, 312, 322
-0.998558, 217, 227, 280, 242
-0.998558, 401, 37, 464, 52
-0.998558, 225, 157, 256, 172
-0.998558, 265, 145, 328, 160
-0.998558, 433, 11, 496, 26
-0.998558, 241, 17, 304, 32
-0.998559, 393, 71, 456, 86
-0.998559, 297, 137, 360, 152
-0.998559, 329, 175, 392, 190
-0.998559, 361, 21, 392, 36
-0.998559, 185, 191, 248, 206
-0.99856, 17, 39, 80, 54
-0.99856, 265, 317, 328, 332
-0.99856, 337, 19, 400, 34
-0.99856, 225, 245, 288, 260
-0.99856, 257, 169, 320, 184
-0.99856, 377, 355, 440, 370
-0.998561, 409, 307, 472, 322
-0.998563, 369, 341, 400, 356
-0.998563, 257, 147, 288, 162
-0.998567, 401, 17, 432, 32
-0.998569, 349, 27, 380, 42
-0.99857, 401, 5, 432, 20
-0.998571, 337, 41, 368, 56
-0.998581, 9, 129, 40, 384
-0.998581, 379, 1, 394, 128
-0.998584, 249, 261, 280, 276
-0.998644, 165, 97, 196, 352
-0.998659, 381, 17, 412, 32
-0.998707, 297, 33, 328, 288
-0.9988, 355, 1, 370, 128
-0.998845, 369, 1, 384, 128
-0.998862, 345, 1, 360, 128
-0.998869, 267, 225, 282, 352
-0.998893, 455, 1, 470, 128
-0.998899, 207, 113, 222, 240
-0.9989, 27, 1, 42, 128
-0.9989, 277, 129, 292, 256
-0.998904, 237, 145, 252, 272
-0.998909, 449, 1, 464, 128
-0.998923, 367, 241, 382, 368
-0.998925, 455, 65, 470, 192
-0.998941, 479, 1, 494, 128
-0.998948, 425, 193, 440, 320
-0.99895, 87, 1, 102, 128
-0.998952, 11, 1, 26, 128
-0.998956, 389, 1, 404, 128
-0.998962, 403, 33, 418, 160
-0.998971, 15, 65, 30, 192
-0.998976, 443, 33, 458, 160
-0.998979, 249, 1, 264, 128
-0.998979, 251, 209, 266, 336
-0.998982, 271, 145, 286, 272
-0.998992, 415, 1, 430, 128
-0.998996, 363, 33, 378, 160
-0.998996, 17, 1, 32, 128
-0.998999, 243, 1, 258, 128
-0.999007, 363, 193, 378, 320
-0.999012, 405, 129, 420, 256
-0.999013, 449, 81, 464, 208
-0.999029, 419, 177, 434, 304
-0.999029, 5, 1, 20, 128
-0.999041, 277, 81, 292, 208
-0.999044, 53, 1, 84, 256
-0.999044, 399, 257, 414, 384
-0.999047, 175, 49, 190, 176
-0.999053, 467, 1, 482, 128
-0.999055, 417, 273, 432, 400
-0.999058, 471, 257, 486, 384
-0.999059, 423, 1, 438, 128
-0.999063, 355, 49, 370, 176
-0.999065, 123, 257, 138, 384
-0.999065, 273, 209, 288, 336
-0.999066, 463, 81, 478, 208
-0.999068, 207, 177, 222, 304
-0.999071, 197, 145, 212, 272
-0.999074, 443, 97, 458, 224
-0.999075, 241, 257, 256, 384
-0.999081, 485, 1, 500, 128
-0.999081, 407, 225, 422, 352
-0.999089, 287, 161, 302, 288
-0.999095, 3, 97, 18, 224
-0.999095, 405, 81, 420, 208
-0.999098, 297, 1, 312, 128
-0.999098, 411, 113, 426, 240
-0.999099, 243, 145, 258, 272
-0.999099, 483, 49, 498, 176
-0.9991, 465, 273, 480, 400
-0.9991, 287, 1, 302, 128
-0.999101, 415, 49, 430, 176
-0.999102, 435, 1, 450, 128
-0.999104, 433, 273, 448, 400
-0.999106, 373, 49, 388, 176
-0.999108, 251, 97, 266, 224
-0.99911, 427, 257, 442, 384
-0.999111, 373, 241, 388, 368
-0.999111, 451, 241, 466, 368
-0.999118, 233, 1, 248, 128
-0.999118, 227, 241, 242, 368
-0.999119, 287, 81, 302, 208
-0.999119, 479, 225, 494, 352
-0.999121, 357, 193, 372, 320
-0.999127, 191, 161, 206, 288
-0.999128, 259, 241, 274, 368
-0.999132, 235, 209, 250, 336
-0.999132, 261, 145, 276, 272
-0.999134, 183, 129, 198, 256
-0.999135, 213, 113, 228, 240
-0.999135, 397, 1, 412, 128
-0.999136, 161, 49, 176, 176
-0.99914, 413, 225, 428, 352
-0.999141, 459, 209, 474, 336
-0.999145, 227, 1, 242, 128
-0.999147, 267, 65, 282, 192
-0.99915, 387, 209, 402, 336
-0.999153, 183, 193, 198, 320
-0.999154, 321, 225, 336, 352
-0.999154, 237, 81, 252, 208
-0.999156, 359, 257, 374, 384
-0.999158, 315, 257, 330, 384
-0.99916, 201, 97, 216, 224
-0.999163, 409, 1, 424, 128
-0.999163, 201, 241, 216, 368
-0.999164, 379, 49, 394, 176
-0.999166, 309, 241, 324, 368
-0.999166, 231, 113, 246, 240
-0.999168, 407, 177, 422, 304
-0.999168, 349, 49, 364, 176
-0.999174, 145, 225, 160, 352
-0.999181, 401, 177, 416, 304
-0.999182, 135, 129, 150, 256
-0.999182, 381, 209, 396, 336
-0.999185, 453, 129, 468, 256
-0.999185, 457, 257, 472, 384
-0.999185, 345, 97, 360, 224
-0.999185, 443, 257, 458, 384
-0.999186, 191, 113, 206, 240
-0.999187, 225, 65, 240, 192
-0.999187, 389, 257, 404, 384
-0.999188, 303, 129, 318, 256
-0.999188, 295, 49, 310, 176
-0.99919, 163, 1, 178, 128
-0.999195, 281, 33, 296, 160
-0.999195, 281, 241, 296, 368
-0.999196, 313, 33, 328, 160
-0.999197, 9, 65, 24, 192
-0.999197, 371, 193, 386, 320
-0.999197, 325, 65, 340, 192
-0.999197, 335, 97, 350, 224
-0.999197, 175, 113, 190, 240
-0.9992, 353, 145, 368, 272
-0.9992, 329, 145, 344, 272
-0.999201, 217, 65, 232, 192
-0.999201, 485, 257, 500, 384
-0.999203, 251, 257, 266, 384
-0.999204, 191, 225, 206, 352
-0.999207, 381, 273, 396, 400
-0.999208, 419, 225, 434, 352
-0.999208, 253, 49, 268, 176
-0.999209, 169, 97, 184, 224
-0.999646, 411, 97, 426, 112
-0.999646, 329, 313, 344, 328
-0.999646, 371, 345, 386, 360
-0.999646, 365, 19, 380, 34
-0.999647, 191, 207, 206, 222
-0.999647, 313, 127, 328, 142
-0.999648, 383, 357, 398, 372
-0.999648, 469, 173, 484, 188
-0.999649, 485, 359, 500, 374
-0.999649, 383, 363, 398, 378
-0.999649, 1, 89, 16, 104
-0.999649, 373, 191, 388, 206
-0.999649, 245, 265, 260, 280
-0.999649, 9, 1, 24, 16
-0.99965, 349, 13, 364, 28
-0.99965, 351, 27, 366, 42
-0.99965, 405, 281, 420, 296
-0.999651, 453, 55, 468, 70
-0.999651, 473, 357, 488, 372
-0.999651, 343, 313, 358, 328
-0.999651, 447, 71, 462, 86
-0.999652, 287, 311, 302, 326
-0.999652, 413, 223, 428, 238
-0.999652, 343, 43, 358, 58
-0.999652, 427, 255, 442, 270
-0.999653, 311, 1, 326, 16
-0.999653, 481, 353, 496, 368
-0.999653, 437, 107, 452, 122
-0.999653, 347, 269, 362, 284
-0.999653, 275, 143, 290, 158
-0.999653, 361, 31, 376, 46
-0.999654, 189, 181, 204, 196
-0.999654, 383, 1, 398, 16
-0.999654, 429, 99, 444, 114
-0.999654, 463, 173, 478, 188
-0.999656, 479, 27, 494, 42
-0.999656, 187, 201, 202, 216
-0.999656, 403, 7, 418, 22
-0.999656, 443, 177, 458, 192
-0.999656, 297, 253, 312, 268
-0.999656, 445, 129, 460, 144
-0.999657, 425, 237, 440, 252
-0.999657, 421, 255, 436, 270
-0.999658, 199, 163, 214, 178
-0.999658, 307, 45, 322, 60
-0.999658, 407, 215, 422, 230
-0.999658, 11, 33, 26, 48
-0.999658, 413, 213, 428, 228
-0.999659, 341, 13, 356, 28
-0.999659, 311, 241, 326, 256
-0.999659, 407, 177, 422, 192
-0.999659, 215, 109, 230, 124
-0.999659, 123, 167, 138, 182
-0.99966, 413, 357, 428, 372
-0.99966, 9, 85, 24, 100
-0.99966, 369, 315, 384, 330
-0.99966, 479, 15, 494, 30
-0.99966, 447, 85, 462, 100
-0.999661, 411, 239, 426, 254
-0.999661, 385, 267, 400, 282
-0.999662, 389, 225, 404, 240
-0.999662, 189, 143, 204, 158
-0.999664, 389, 85, 404, 100
-0.999665, 271, 299, 286, 314
-0.999665, 343, 29, 358, 44
-0.999665, 1, 95, 16, 110
-0.999666, 387, 259, 402, 274
-0.999666, 423, 303, 438, 318
-0.999667, 353, 39, 368, 54
-0.999667, 211, 243, 226, 258
-0.999667, 419, 7, 434, 22
-0.999668, 381, 229, 396, 244
-0.999668, 293, 35, 308, 50
-0.999669, 339, 307, 354, 322
-0.99967, 417, 1, 432, 16
-0.999671, 375, 5, 390, 20
-0.999671, 311, 55, 326, 70
-0.999672, 397, 13, 412, 28
-0.999673, 363, 267, 378, 282
-0.999674, 387, 19, 402, 34
-0.999675, 441, 327, 456, 342
-0.999676, 423, 315, 438, 330
-0.999677, 377, 271, 392, 286
-0.999677, 367, 29, 382, 44
-0.999678, 423, 1, 438, 16
-0.999678, 441, 113, 456, 128
-0.999679, 453, 15, 468, 30
-0.99968, 477, 1, 492, 16
-0.999681, 397, 7, 412, 22
-0.999682, 291, 59, 306, 74
-0.999682, 383, 215, 398, 230
-0.999682, 411, 17, 426, 32
-0.999683, 247, 71, 262, 86
-0.999684, 389, 213, 404, 228
-0.999684, 411, 247, 426, 262
-0.999685, 337, 313, 352, 328
-0.999685, 357, 81, 372, 96
-0.999686, 453, 223, 468, 238
-0.999687, 263, 251, 278, 266
-0.999687, 449, 323, 464, 338
-0.999688, 393, 363, 408, 378
-0.999688, 409, 315, 424, 330
-0.999689, 275, 239, 290, 254
-0.99969, 341, 37, 356, 52
-0.999692, 341, 129, 356, 144
-0.999693, 343, 19, 358, 34
-0.999694, 245, 159, 260, 174
-0.999696, 465, 369, 480, 384
-0.999697, 373, 339, 388, 354
-0.999698, 473, 7, 488, 22
-0.999699, 405, 345, 420, 360
-0.9997, 279, 301, 294, 316
-0.999701, 347, 37, 362, 52
-0.999701, 357, 267, 372, 282
-0.999701, 265, 257, 280, 272
-0.999702, 253, 255, 268, 270
-0.999703, 423, 17, 438, 32
-0.999704, 387, 9, 402, 24
-0.999705, 371, 267, 386, 282
-0.999709, 427, 261, 442, 276
-0.999713, 263, 145, 278, 160
-0.999716, 269, 141, 284, 156
-0.999718, 381, 17, 396, 32
-0.999721, 237, 163, 252, 178
-0.999728, 421, 217, 436, 232
-0.999742, 365, 273, 380, 288
-0.999742, 247, 25, 262, 40
-0.999748, 377, 23, 392, 38
-0.999749, 409, 3, 424, 18
-0.999766, 235, 157, 250, 172
