1968
-0.341693, 1, 1, 500, 375
-0.37873, 1, 129, 500, 375
-0.424497, 225, 1, 480, 375
-0.458842, 1, 1, 500, 256
-0.467255, 97, 1, 352, 375
-0.630548, 97, 33, 352, 288
-0.638142, 1, 1, 256, 375
-0.639724, 65, 129, 320, 375
-0.656489, 193, 129, 448, 375
-0.716458, 257, 33, 500, 288
-0.850115, 65, 129, 192, 375
-0.855395, 65, 1, 192, 375
-0.857517, 1, 33, 256, 288
-0.857628, 209, 129, 336, 375
-0.859901, 289, 1, 416, 375
-0.862162, 257, 1, 384, 256
-0.867068, 273, 97, 400, 352
-0.867946, 337, 1, 464, 375
-0.877857, 65, 33, 192, 288
-0.878617, 209, 1, 336, 375
-0.881382, 1, 161, 500, 288
-0.881418, 1, 225, 500, 352
-0.887721, 113, 129, 240, 375
-0.889728, 337, 97, 464, 352
-0.891968, 305, 1, 432, 256
-0.900435, 113, 1, 240, 375
-0.901101, 17, 1, 144, 375
-0.904705, 161, 177, 416, 304
-0.905334, 369, 1, 496, 256
-0.906325, 1, 49, 500, 176
-0.913861, 17, 65, 144, 320
-0.914139, 209, 1, 336, 256
-0.915364, 97, 225, 352, 352
-0.917465, 1, 97, 500, 224
-0.919943, 97, 113, 352, 240
-0.920761, 33, 161, 288, 288
-0.922116, 97, 65, 352, 192
-0.925202, 1, 1, 500, 128
-0.926468, 113, 209, 240, 336
-0.926914, 161, 129, 288, 375
-0.927078, 161, 1, 288, 375
-0.927399, 113, 33, 240, 288
-0.929465, 257, 49, 500, 176
-0.930971, 65, 145, 192, 272
-0.933182, 1, 225, 256, 352
-0.934906, 89, 145, 152, 272
-0.935725, 81, 33, 144, 160
-0.936041, 65, 225, 192, 352
-0.937575, 273, 113, 336, 240
-0.939106, 97, 17, 352, 144
-0.940645, 257, 97, 500, 224
-0.941174, 89, 225, 152, 352
-0.941926, 193, 225, 448, 352
-0.941967, 145, 225, 208, 352
-0.942306, 273, 1, 336, 128
-0.943611, 257, 1, 500, 128
-0.943617, 209, 193, 336, 320
-0.945462, 113, 225, 176, 352
-0.945609, 33, 65, 160, 192
-0.946254, 257, 1, 384, 128
-0.946694, 257, 161, 500, 288
-0.947925, 201, 209, 264, 336
-0.948393, 257, 145, 384, 272
-0.949508, 129, 161, 256, 288
-0.950018, 281, 65, 344, 192
-0.950253, 305, 49, 432, 176
-0.950556, 1, 113, 256, 240
-0.95086, 305, 161, 368, 288
-0.951173, 33, 17, 160, 144
-0.952069, 273, 97, 400, 224
-0.952362, 257, 177, 320, 304
-0.9529, 161, 33, 288, 288
-0.953563, 97, 97, 160, 224
-0.953788, 185, 161, 248, 288
-0.953885, 225, 209, 288, 336
-0.954249, 65, 225, 128, 352
-0.954718, 257, 49, 384, 176
-0.955269, 161, 209, 288, 336
-0.955395, 169, 225, 232, 352
-0.955821, 81, 57, 144, 120
-0.956111, 297, 169, 360, 232
-0.956179, 281, 145, 344, 208
-0.956928, 185, 265, 248, 328
-0.958411, 153, 233, 216, 296
-0.958714, 113, 265, 176, 328
-0.959061, 89, 265, 152, 328
-0.959517, 305, 17, 368, 144
-0.959778, 89, 161, 152, 224
-0.960562, 129, 161, 192, 288
-0.960828, 353, 65, 480, 192
-0.961024, 73, 81, 136, 208
-0.961138, 209, 145, 336, 272
-0.961142, 273, 169, 336, 232
-0.961768, 377, 209, 440, 336
-0.962238, 289, 209, 416, 336
-0.962295, 273, 25, 336, 88
-0.962299, 369, 225, 496, 352
-0.962372, 297, 113, 360, 240
-0.962592, 305, 161, 432, 288
-0.962734, 257, 65, 320, 192
-0.963033, 81, 81, 208, 208
-0.963176, 129, 241, 192, 304
-0.96334, 281, 177, 344, 304
-0.963589, 305, 1, 432, 128
-0.963955, 273, 89, 336, 152
-0.964334, 89, 233, 152, 296
-0.964347, 225, 97, 352, 224
-0.964448, 369, 17, 496, 144
-0.964781, 1, 209, 128, 336
-0.964938, 265, 97, 328, 352
-0.96504, 65, 281, 128, 344
-0.965183, 97, 129, 160, 192
-0.965423, 209, 241, 272, 304
-0.965559, 81, 33, 144, 288
-0.965589, 249, 129, 312, 256
-0.965656, 353, 145, 480, 272
-0.965792, 81, 1, 208, 128
-0.966172, 129, 201, 192, 264
-0.966247, 353, 225, 416, 352
-0.966641, 209, 17, 336, 144
-0.967, 161, 257, 224, 320
-0.967212, 273, 121, 336, 184
-0.967226, 249, 185, 312, 248
-0.967448, 49, 177, 112, 304
-0.967564, 249, 209, 312, 272
-0.967825, 273, 65, 336, 128
-0.968241, 73, 137, 136, 200
-0.968747, 81, 33, 144, 96
-0.968932, 137, 265, 200, 328
-0.969032, 337, 161, 400, 288
-0.969252, 273, 193, 336, 256
-0.969434, 217, 273, 280, 336
-0.969434, 161, 289, 224, 352
-0.969436, 161, 177, 224, 304
-0.96965, 321, 169, 384, 232
-0.969706, 193, 209, 256, 272
-0.96983, 377, 17, 440, 144
-0.969946, 393, 65, 456, 192
-0.969981, 361, 65, 424, 192
-0.970147, 353, 17, 416, 144
-0.970185, 313, 1, 376, 64
-0.970302, 129, 249, 256, 312
-0.970366, 17, 145, 144, 272
-0.970447, 185, 241, 248, 304
-0.970466, 297, 129, 360, 375
-0.970534, 369, 73, 432, 136
-0.970599, 305, 1, 368, 256
-0.970664, 81, 9, 144, 72
-0.970775, 89, 209, 152, 272
-0.970852, 369, 257, 432, 320
-0.971115, 225, 161, 288, 288
-0.971187, 393, 161, 456, 288
-0.971313, 353, 49, 416, 112
-0.971602, 113, 225, 240, 288
-0.971684, 257, 169, 384, 232
-0.971842, 169, 209, 232, 272
-0.9721, 213, 249, 244, 312
-0.972217, 209, 241, 336, 368
-0.972284, 89, 289, 152, 352
-0.972538, 81, 265, 208, 328
-0.972594, 185, 289, 248, 352
-0.972907, 401, 225, 464, 352
-0.97292, 65, 241, 128, 304
-0.972953, 305, 65, 368, 192
-0.972962, 289, 1, 352, 64
-0.973162, 313, 49, 376, 112
-0.973194, 49, 129, 112, 256
-0.973229, 433, 1, 496, 128
-0.973251, 97, 129, 160, 375
-0.97331, 81, 81, 144, 144
-0.973394, 97, 1, 128, 128
-0.973522, 57, 305, 120, 368
-0.973623, 353, 25, 416, 88
-0.973745, 281, 81, 312, 208
-0.973865, 281, 1, 344, 256
-0.973907, 401, 17, 464, 144
-0.974019, 1, 1, 256, 128
-0.974231, 305, 129, 368, 192
-0.974244, 313, 105, 376, 168
-0.974534, 225, 185, 288, 248
-0.974624, 81, 209, 112, 336
-0.974791, 377, 49, 440, 112
-0.974852, 257, 145, 320, 208
-0.974869, 217, 209, 280, 272
-0.974894, 257, 1, 320, 64
-0.974894, 305, 209, 368, 272
-0.975001, 289, 105, 320, 168
-0.97521, 129, 113, 256, 240
-0.975223, 73, 113, 136, 176
-0.975364, 129, 273, 256, 336
-0.97546, 273, 145, 400, 208
-0.975554, 65, 161, 192, 224
-0.975601, 305, 209, 368, 336
-0.975612, 65, 241, 192, 304
-0.975793, 149, 225, 180, 352
-0.975818, 257, 17, 384, 80
-0.975858, 57, 1, 120, 128
-0.976184, 321, 113, 384, 240
-0.976217, 293, 137, 324, 200
-0.976219, 329, 1, 392, 128
-0.976226, 393, 73, 456, 136
-0.976245, 417, 81, 480, 208
-0.976331, 301, 113, 332, 240
-0.976371, 113, 289, 176, 352
-0.976474, 129, 113, 192, 240
-0.976512, 81, 1, 144, 375
-0.976559, 289, 17, 320, 144
-0.976646, 249, 225, 312, 352
-0.976765, 233, 193, 264, 320
-0.976771, 289, 169, 320, 232
-0.976822, 273, 89, 400, 152
-0.976837, 49, 81, 112, 208
-0.976846, 81, 201, 208, 264
-0.976907, 433, 177, 496, 304
-0.976918, 233, 233, 296, 296
-0.976996, 293, 65, 324, 192
-0.977044, 125, 97, 156, 224
-0.977193, 393, 25, 456, 88
-0.977195, 177, 249, 304, 312
-0.9772, 345, 257, 408, 320
-0.977203, 377, 289, 440, 352
-0.97732, 249, 17, 312, 144
-0.9774, 137, 169, 200, 232
-0.977462, 89, 185, 152, 248
-0.977511, 209, 185, 336, 248
-0.977553, 265, 265, 328, 328
-0.977572, 361, 161, 424, 288
-0.977579, 193, 257, 224, 320
-0.977614, 297, 65, 328, 128
-0.977693, 93, 265, 124, 328
-0.977709, 77, 265, 108, 328
-0.97775, 345, 177, 408, 240
-0.977996, 129, 225, 160, 352
-0.978025, 149, 241, 180, 304
-0.978051, 137, 241, 168, 304
-0.978116, 49, 121, 176, 184
-0.978229, 321, 25, 384, 88
-0.978281, 81, 233, 112, 296
-0.97837, 305, 89, 336, 152
-0.978436, 97, 105, 160, 168
-0.978478, 73, 129, 136, 375
-0.978529, 193, 185, 256, 248
-0.978588, 113, 257, 144, 320
-0.9786, 369, 161, 432, 224
-0.978644, 205, 273, 236, 336
-0.978687, 257, 1, 320, 256
-0.978966, 273, 65, 400, 128
-0.97903, 309, 185, 340, 248
-0.979064, 209, 225, 336, 288
-0.979112, 213, 225, 244, 352
-0.979117, 385, 97, 448, 160
-0.979118, 305, 1, 336, 128
-0.979385, 137, 145, 200, 208
-0.979441, 309, 65, 340, 192
-0.979442, 277, 169, 308, 232
-0.979485, 285, 73, 316, 136
-0.979518, 97, 9, 128, 72
-0.97952, 185, 129, 248, 375
-0.979522, 329, 209, 392, 336
-0.979522, 41, 225, 104, 352
-0.97954, 325, 161, 356, 224
-0.979562, 33, 73, 160, 136
-0.979577, 49, 97, 176, 160
-0.979588, 281, 129, 312, 256
-0.979627, 409, 241, 472, 304
-0.979639, 377, 233, 440, 296
-0.979683, 161, 201, 288, 264
-0.979728, 249, 33, 312, 96
-0.9798, 345, 73, 408, 136
-0.979848, 305, 81, 368, 144
-0.979966, 85, 81, 116, 208
-0.980054, 289, 1, 320, 64
-0.980056, 41, 281, 104, 344
-0.980072, 89, 161, 120, 224
-0.980089, 125, 137, 156, 200
-0.980283, 225, 113, 288, 240
-0.980291, 389, 57, 420, 120
-0.980349, 93, 209, 124, 336
-0.980403, 353, 97, 416, 160
-0.980431, 49, 137, 112, 200
-0.980521, 209, 161, 336, 224
-0.980719, 81, 137, 112, 200
-0.980894, 397, 81, 428, 144
-0.98092, 353, 57, 480, 120
-0.980923, 57, 161, 120, 224
-0.980999, 249, 57, 312, 120
-0.981019, 305, 41, 432, 104
-0.981027, 93, 241, 124, 304
-0.981042, 345, 209, 408, 272
-0.981064, 369, 113, 432, 240
-0.981076, 305, 169, 432, 232
-0.981077, 177, 273, 304, 336
-0.9811, 281, 145, 312, 208
-0.981143, 309, 129, 340, 192
-0.981223, 129, 129, 192, 375
-0.981349, 225, 257, 256, 320
-0.981423, 353, 97, 480, 160
-0.981435, 49, 289, 176, 352
-0.981447, 277, 1, 308, 128
-0.981452, 201, 225, 232, 352
-0.981543, 173, 209, 204, 336
-0.98158, 225, 137, 352, 200
-0.981586, 233, 153, 296, 216
-0.981606, 393, 161, 456, 224
-0.981627, 49, 201, 112, 264
-0.981648, 33, 49, 160, 112
-0.981664, 337, 233, 400, 296
-0.981785, 113, 65, 144, 192
-0.981873, 261, 177, 292, 304
-0.981885, 277, 105, 308, 168
-0.981899, 401, 313, 464, 375
-0.981902, 417, 73, 480, 136
-0.98191, 293, 193, 324, 256
-0.981924, 205, 225, 236, 288
-0.98193, 353, 289, 416, 352
-0.981978, 273, 121, 400, 184
-0.982038, 121, 233, 152, 296
-0.982041, 137, 289, 200, 352
-0.982057, 149, 265, 180, 328
-0.982069, 117, 209, 148, 336
-0.982104, 257, 193, 384, 256
-0.982146, 401, 49, 464, 112
-0.982205, 265, 33, 296, 96
-0.982418, 193, 281, 224, 344
-0.982501, 345, 97, 408, 352
-0.982519, 233, 225, 264, 288
-0.982519, 125, 265, 156, 328
-0.98254, 385, 257, 416, 320
-0.982591, 389, 65, 420, 192
-0.982644, 69, 241, 100, 368
-0.982719, 33, 305, 96, 368
-0.982805, 345, 1, 408, 375
-0.982835, 433, 49, 496, 112
-0.982841, 325, 145, 356, 272
-0.983002, 297, 233, 360, 296
-0.983034, 225, 129, 288, 375
-0.983091, 337, 65, 400, 192
-0.983095, 361, 1, 424, 256
-0.983098, 305, 265, 368, 328
-0.983127, 225, 65, 352, 128
-0.983157, 33, 17, 160, 80
-0.983246, 169, 185, 232, 248
-0.983252, 393, 65, 456, 320
-0.983252, 49, 129, 112, 375
-0.98327, 309, 1, 340, 64
-0.983362, 273, 225, 336, 352
-0.983384, 1, 65, 256, 192
-0.983411, 93, 145, 124, 272
-0.983505, 361, 169, 392, 232
-0.983514, 261, 185, 292, 248
-0.983584, 425, 225, 488, 352
-0.983602, 433, 25, 496, 88
-0.983633, 137, 177, 168, 304
-0.983662, 49, 33, 112, 96
-0.983708, 105, 241, 136, 368
-0.983794, 129, 177, 256, 240
-0.983815, 285, 177, 316, 304
-0.983828, 117, 145, 148, 272
-0.983854, 345, 113, 408, 240
-0.983874, 329, 145, 392, 208
-0.983937, 113, 153, 176, 216
-0.983945, 221, 177, 252, 304
-0.983953, 245, 193, 276, 256
-0.983957, 161, 233, 192, 296
-0.984028, 137, 281, 168, 344
-0.984118, 145, 297, 272, 360
-0.98421, 85, 289, 116, 352
-0.984289, 109, 17, 140, 144
-0.984342, 297, 161, 328, 288
-0.984371, 309, 153, 340, 216
-0.984379, 409, 97, 472, 160
-0.984384, 409, 265, 472, 328
-0.984501, 161, 225, 192, 352
-0.984527, 393, 1, 456, 64
-0.984662, 369, 201, 432, 264
-0.984706, 257, 41, 384, 104
-0.984711, 277, 17, 308, 80
-0.984731, 385, 209, 416, 336
-0.984767, 353, 1, 416, 64
-0.984867, 301, 25, 332, 88
-0.984871, 321, 129, 384, 375
-0.984901, 433, 217, 496, 280
-0.984902, 69, 145, 100, 272
-0.984957, 289, 249, 416, 312
-0.985, 97, 297, 224, 360
-0.985005, 385, 81, 416, 144
-0.98502, 369, 193, 400, 320
-0.985079, 61, 297, 92, 360
-0.985128, 105, 49, 168, 176
-0.985188, 225, 265, 352, 328
-0.985221, 193, 233, 224, 296
-0.985271, 425, 1, 488, 256
-0.985285, 369, 249, 400, 312
-0.985296, 269, 129, 300, 256
-0.985297, 89, 313, 152, 375
-0.985423, 297, 265, 328, 328
-0.985489, 353, 169, 480, 232
-0.985552, 33, 185, 160, 248
-0.985565, 365, 209, 396, 272
-0.985587, 313, 177, 344, 304
-0.985599, 337, 241, 464, 304
-0.985669, 113, 137, 240, 200
-0.985684, 1, 313, 128, 375
-0.985692, 177, 209, 208, 272
-0.985711, 113, 33, 176, 96
-0.985739, 313, 57, 344, 120
-0.985745, 409, 65, 440, 192
-0.985787, 73, 297, 104, 360
-0.985815, 409, 209, 440, 336
-0.985854, 41, 89, 104, 152
-0.985875, 225, 41, 288, 104
-0.985905, 285, 41, 316, 104
-0.985922, 137, 201, 168, 264
-0.985924, 109, 49, 140, 112
-0.985934, 81, 161, 112, 288
-0.985964, 329, 1, 392, 256
-0.985974, 257, 209, 288, 272
-0.98599, 113, 281, 144, 344
-0.986057, 209, 33, 336, 96
-0.986084, 397, 257, 428, 320
-0.986093, 33, 265, 160, 328
-0.986121, 265, 33, 296, 160
-0.986148, 105, 1, 168, 375
-0.986152, 121, 1, 184, 128
-0.986307, 305, 17, 432, 80
-0.986307, 17, 241, 144, 304
-0.986357, 409, 185, 472, 248
-0.98636, 177, 65, 304, 192
-0.986367, 377, 49, 408, 112
-0.986383, 409, 65, 440, 128
-0.986389, 337, 281, 464, 344
-0.986441, 225, 201, 256, 264
-0.986441, 417, 17, 448, 144
-0.986444, 241, 257, 304, 320
-0.986475, 281, 289, 344, 352
-0.986481, 273, 65, 304, 128
-0.986505, 209, 105, 336, 168
-0.986507, 1, 137, 128, 200
-0.986528, 369, 129, 432, 375
-0.986565, 233, 1, 296, 64
-0.986578, 225, 241, 256, 368
-0.986606, 245, 225, 276, 352
-0.986616, 249, 177, 280, 304
-0.98662, 89, 49, 120, 112
-0.98662, 337, 313, 464, 375
-0.986636, 185, 313, 248, 375
-0.986728, 305, 201, 432, 264
-0.986733, 369, 1, 432, 375
-0.986736, 273, 1, 336, 375
-0.986947, 297, 25, 360, 88
-0.98695, 189, 225, 220, 352
-0.987001, 393, 113, 456, 240
-0.98703, 373, 73, 404, 136
-0.987041, 181, 161, 212, 288
-0.987047, 121, 121, 184, 184
-0.987149, 117, 161, 148, 224
-0.987167, 201, 177, 232, 304
-0.987199, 245, 233, 276, 296
-0.987223, 105, 33, 168, 288
-0.987271, 233, 1, 296, 256
-0.987273, 361, 49, 392, 176
-0.987273, 409, 89, 440, 152
-0.987315, 257, 233, 320, 296
-0.987348, 289, 225, 416, 288
-0.987365, 401, 217, 464, 280
-0.987396, 85, 1, 116, 128
-0.987428, 81, 17, 208, 80
-0.987475, 233, 65, 296, 192
-0.987511, 361, 25, 392, 88
-0.987526, 433, 1, 496, 64
-0.987554, 41, 113, 104, 176
-0.987575, 377, 209, 408, 272
-0.987583, 125, 113, 156, 176
-0.987614, 353, 145, 480, 208
-0.987624, 81, 41, 208, 104
-0.987637, 33, 209, 160, 272
-0.987681, 81, 209, 112, 272
-0.987695, 361, 49, 392, 112
-0.987749, 377, 65, 408, 192
-0.987751, 273, 273, 400, 336
-0.987807, 97, 289, 128, 352
-0.987822, 65, 273, 96, 336
-0.987859, 113, 73, 144, 136
-0.987868, 41, 249, 104, 312
-0.987959, 425, 225, 456, 352
-0.98806, 161, 129, 224, 375
-0.988106, 373, 273, 404, 336
-0.988117, 377, 17, 408, 144
-0.988156, 57, 33, 120, 288
-0.988184, 17, 161, 144, 224
-0.988193, 421, 65, 452, 192
-0.988195, 353, 17, 480, 80
-0.9882, 249, 105, 312, 168
-0.988216, 361, 81, 392, 144
-0.988276, 49, 313, 176, 375
-0.988301, 81, 73, 208, 136
-0.988307, 389, 113, 420, 176
-0.988313, 261, 57, 292, 120
-0.988336, 129, 89, 192, 152
-0.988341, 389, 1, 420, 128
-0.98841, 121, 313, 184, 375
-0.988432, 49, 9, 112, 72
-0.98856, 321, 1, 384, 375
-0.988593, 1, 289, 128, 352
-0.988594, 169, 265, 200, 328
-0.988671, 181, 233, 212, 296
-0.9888, 281, 161, 344, 192
-0.988832, 425, 145, 456, 272
-0.988851, 81, 113, 112, 176
-0.988911, 385, 233, 416, 296
-0.988935, 249, 81, 312, 144
-0.98894, 161, 225, 288, 288
-0.988954, 381, 161, 412, 288
-0.989082, 401, 1, 464, 375
-0.989099, 397, 225, 428, 352
-0.989121, 129, 65, 256, 192
-0.989146, 209, 297, 272, 360
-0.989279, 341, 177, 372, 240
-0.989312, 69, 169, 100, 232
-0.989353, 329, 281, 392, 344
-0.989356, 361, 145, 392, 272
-0.98936, 57, 65, 120, 128
-0.989398, 137, 129, 168, 256
-0.989415, 273, 193, 304, 256
-0.989425, 365, 241, 396, 368
-0.989433, 265, 129, 328, 160
-0.989494, 185, 289, 248, 320
-0.989537, 381, 177, 412, 240
-0.989542, 241, 169, 272, 232
-0.98957, 81, 57, 144, 88
-0.989581, 57, 1, 120, 375
-0.989585, 265, 177, 328, 208
-0.989626, 201, 249, 264, 280
-0.989648, 297, 1, 360, 375
-0.989695, 265, 141, 328, 172
-0.989747, 369, 253, 432, 284
-0.98979, 113, 273, 176, 304
-0.989796, 113, 97, 240, 160
-0.989822, 401, 17, 432, 144
-0.989829, 269, 145, 300, 208
-0.989837, 313, 113, 344, 240
-0.989845, 81, 269, 144, 300
-0.989873, 129, 65, 192, 192
-0.98995, 273, 109, 336, 140
-0.989955, 153, 237, 216, 268
-0.98996, 81, 69, 144, 100
-0.989978, 305, 181, 368, 212
-0.989984, 89, 225, 152, 256
-0.990005, 289, 129, 352, 160
-0.990026, 97, 217, 128, 280
-0.990029, 353, 217, 480, 280
-0.990035, 137, 1, 200, 375
-0.99004, 65, 289, 128, 320
-0.990048, 417, 129, 480, 256
-0.990065, 89, 237, 152, 268
-0.990073, 137, 33, 200, 288
-0.990085, 405, 281, 436, 344
-0.99009, 297, 217, 328, 280
-0.990119, 405, 25, 436, 88
-0.990124, 69, 241, 100, 304
-0.990138, 409, 161, 440, 288
-0.990161, 217, 177, 248, 240
-0.990166, 433, 49, 464, 176
-0.990175, 65, 97, 96, 224
-0.990207, 85, 89, 116, 152
-0.99021, 129, 217, 192, 248
-0.99021, 313, 169, 376, 200
-0.990265, 185, 269, 248, 300
-0.990288, 273, 77, 336, 108
-0.99029, 397, 113, 428, 240
-0.990296, 57, 301, 120, 332
-0.990313, 257, 189, 320, 220
-0.990378, 73, 149, 136, 180
-0.990401, 425, 129, 488, 375
-0.990416, 209, 1, 336, 64
-0.990416, 233, 205, 296, 236
-0.990423, 89, 281, 152, 312
-0.990426, 289, 145, 352, 176
-0.990449, 129, 241, 192, 272
-0.990462, 353, 97, 416, 128
-0.990472, 181, 289, 212, 352
-0.990562, 145, 277, 208, 308
-0.990593, 257, 41, 320, 72
-0.990604, 401, 241, 464, 272
-0.990604, 357, 249, 388, 312
-0.990608, 265, 89, 328, 120
-0.990617, 273, 177, 304, 304
-0.990619, 249, 1, 312, 375
-0.990621, 249, 217, 312, 248
-0.990629, 65, 265, 320, 328
-0.990641, 337, 161, 368, 288
-0.99068, 81, 257, 144, 288
-0.990681, 345, 249, 408, 280
-0.990694, 153, 301, 216, 332
-0.990707, 369, 265, 432, 296
-0.990718, 81, 45, 144, 76
-0.990719, 321, 1, 352, 64
-0.990731, 405, 121, 436, 184
-0.990735, 209, 297, 336, 360
-0.990757, 97, 149, 160, 180
-0.990757, 89, 201, 152, 232
-0.990777, 357, 289, 388, 352
-0.990779, 97, 233, 352, 296
-0.990811, 105, 257, 168, 288
-0.990846, 81, 29, 144, 60
-0.990849, 353, 121, 480, 184
-0.990855, 353, 57, 416, 88
-0.99086, 469, 33, 500, 96
-0.990895, 161, 257, 224, 288
-0.990899, 429, 49, 460, 112
-0.9909, 81, 81, 144, 112
-0.990901, 429, 1, 460, 128
-0.990907, 97, 165, 160, 196
-0.991005, 233, 193, 296, 224
-0.991006, 313, 33, 344, 96
-0.99101, 305, 1, 368, 32
-0.991013, 341, 17, 372, 80
-0.991022, 161, 185, 416, 248
-0.991034, 73, 165, 136, 196
-0.991077, 209, 237, 272, 268
-0.991081, 405, 233, 436, 296
-0.991089, 353, 85, 416, 116
-0.991104, 273, 25, 336, 56
-0.991123, 321, 33, 352, 160
-0.991136, 89, 213, 152, 244
-0.991142, 257, 157, 320, 188
-0.991148, 217, 269, 280, 300
-0.99115, 289, 93, 352, 124
-0.991176, 433, 1, 496, 375
-0.99118, 237, 145, 268, 272
-0.991184, 161, 289, 224, 320
-0.991207, 417, 41, 448, 104
-0.991217, 273, 65, 336, 96
-0.991233, 309, 265, 340, 328
-0.991242, 81, 13, 144, 44
-0.991246, 329, 157, 392, 188
-0.991262, 313, 77, 376, 108
-0.991273, 89, 293, 152, 324
-0.991298, 313, 93, 376, 124
-0.991344, 97, 121, 352, 184
-0.991358, 57, 245, 120, 276
-0.991368, 65, 169, 320, 232
-0.991375, 121, 285, 184, 316
-0.991379, 257, 297, 384, 360
-0.991386, 129, 205, 192, 236
-0.99139, 97, 133, 160, 164
-0.991411, 105, 153, 136, 216
-0.991413, 125, 289, 156, 352
-0.991413, 377, 241, 440, 272
-0.991419, 289, 37, 352, 68
-0.991421, 377, 77, 440, 108
-0.991437, 193, 209, 224, 272
-0.991443, 353, 157, 416, 188
-0.99145, 217, 285, 280, 316
-0.99145, 385, 25, 416, 88
-0.991463, 185, 237, 248, 268
-0.991478, 113, 297, 176, 328
-0.991525, 209, 217, 272, 248
-0.991547, 401, 253, 464, 284
-0.991562, 321, 41, 384, 72
-0.991585, 257, 205, 320, 236
-0.991585, 137, 261, 200, 292
-0.991587, 57, 277, 120, 308
-0.991593, 409, 89, 472, 120
-0.991641, 309, 225, 340, 288
-0.991646, 305, 157, 368, 188
-0.991647, 217, 281, 248, 344
-0.991655, 169, 217, 232, 248
-0.991666, 377, 297, 440, 328
-0.991677, 89, 305, 152, 336
-0.991684, 137, 173, 200, 204
-0.991687, 337, 261, 400, 292
-0.99169, 425, 241, 488, 272
-0.991692, 313, 105, 376, 136
-0.991692, 73, 137, 136, 168
-0.991692, 313, 53, 376, 84
-0.991698, 265, 285, 328, 316
-0.991699, 313, 145, 376, 176
-0.991707, 425, 81, 456, 144
-0.991708, 1, 113, 128, 176
-0.991717, 361, 277, 424, 308
-0.991731, 249, 229, 312, 260
-0.991733, 313, 21, 376, 52
-0.991739, 445, 97, 476, 224
-0.991741, 289, 193, 352, 224
-0.991744, 353, 113, 416, 144
-0.99175, 349, 41, 380, 104
-0.991771, 417, 21, 480, 52
-0.991782, 425, 253, 488, 284
-0.991782, 345, 145, 376, 208
-0.991809, 137, 193, 200, 224
-0.99181, 185, 301, 248, 332
-0.991822, 209, 201, 272, 232
-0.991825, 429, 313, 460, 375
-0.991826, 81, 93, 144, 124
-0.991841, 257, 65, 500, 128
-0.99185, 305, 277, 368, 308
-0.991865, 377, 97, 440, 128
-0.991867, 337, 169, 400, 200
-0.991895, 369, 173, 432, 204
-0.9919, 353, 69, 416, 100
-0.991909, 225, 249, 288, 280
-0.991913, 73, 125, 136, 156
-0.991925, 281, 1, 344, 32
-0.991927, 97, 121, 160, 152
-0.991934, 289, 205, 352, 236
-0.991952, 265, 273, 328, 304
-0.99196, 97, 89, 352, 152
-0.99196, 329, 237, 392, 268
-0.99199, 385, 309, 448, 340
-0.991991, 265, 53, 328, 84
-0.991997, 1, 289, 500, 352
-0.991998, 305, 65, 368, 96
-0.991999, 241, 65, 304, 96
-0.991999, 257, 233, 288, 296
-0.992008, 169, 205, 232, 236
-0.992016, 57, 217, 120, 248
-0.992021, 349, 161, 380, 288
-0.992031, 409, 101, 472, 132
-0.992035, 433, 73, 496, 104
-0.992039, 57, 313, 120, 344
-0.992044, 89, 189, 152, 220
-0.992054, 353, 293, 416, 324
-0.992059, 401, 77, 464, 108
-0.992061, 397, 153, 428, 216
-0.992064, 353, 193, 480, 256
-0.992076, 433, 25, 464, 88
-0.9921, 105, 145, 136, 272
-0.992186, 409, 113, 440, 240
-0.992294, 65, 145, 96, 208
-0.992301, 265, 9, 296, 72
-0.992301, 285, 217, 316, 280
-0.99239, 293, 113, 324, 144
-0.99243, 293, 169, 324, 200
-0.992452, 257, 113, 500, 176
-0.992453, 129, 269, 160, 300
-0.992484, 325, 165, 356, 196
-0.992505, 285, 73, 316, 104
-0.99251, 269, 81, 300, 208
-0.992519, 97, 145, 352, 208
-0.992521, 73, 285, 104, 316
-0.992533, 161, 209, 416, 272
-0.992542, 193, 289, 224, 320
-0.992547, 289, 125, 320, 156
-0.992549, 305, 177, 336, 208
-0.992571, 213, 249, 244, 280
-0.992594, 289, 157, 320, 188
-0.992615, 293, 85, 324, 116
-0.992617, 65, 201, 320, 264
-0.992633, 305, 97, 336, 128
-0.992636, 393, 249, 424, 280
-0.992636, 81, 245, 112, 276
-0.992644, 309, 153, 340, 184
-0.992673, 289, 141, 320, 172
-0.992719, 309, 165, 340, 196
-0.992724, 293, 97, 324, 128
-0.992731, 381, 249, 412, 280
-0.992743, 213, 269, 244, 300
-0.992749, 85, 297, 116, 328
-0.992752, 409, 245, 440, 276
-0.992753, 233, 253, 264, 284
-0.99277, 141, 269, 172, 300
-0.992773, 213, 281, 244, 312
-0.992776, 297, 69, 328, 100
-0.992785, 93, 285, 124, 316
-0.992785, 161, 257, 416, 320
-0.992788, 281, 105, 312, 136
-0.992795, 301, 137, 332, 168
-0.992805, 301, 125, 332, 156
-0.992807, 233, 237, 264, 268
-0.992807, 97, 9, 128, 40
-0.992808, 281, 177, 312, 208
-0.992822, 93, 269, 124, 300
-0.992828, 277, 129, 308, 160
-0.992829, 389, 265, 420, 296
-0.992833, 1, 233, 256, 296
-0.992849, 257, 205, 288, 236
-0.992856, 77, 273, 108, 304
-0.992856, 117, 277, 148, 308
-0.992865, 297, 261, 328, 292
-0.99287, 193, 269, 224, 300
-0.992873, 293, 209, 324, 240
-0.992879, 281, 85, 312, 116
-0.992879, 389, 81, 420, 112
-0.99288, 289, 9, 320, 40
-0.992882, 305, 85, 336, 116
-0.992882, 77, 257, 108, 288
-0.992884, 465, 17, 496, 144
-0.992888, 201, 249, 232, 280
-0.992899, 381, 113, 412, 240
-0.992904, 369, 249, 400, 280
-0.992912, 377, 265, 408, 296
-0.992917, 309, 113, 340, 144
-0.992922, 277, 209, 308, 240
-0.992926, 201, 237, 232, 268
-0.992927, 445, 1, 476, 128
-0.992933, 297, 277, 328, 308
-0.992935, 149, 245, 180, 276
-0.992937, 361, 97, 392, 128
-0.992946, 105, 269, 136, 300
-0.992948, 261, 189, 292, 220
-0.992963, 225, 269, 256, 300
-0.992974, 325, 177, 356, 208
-0.992983, 129, 145, 160, 176
-0.992998, 429, 241, 460, 272
-0.993001, 257, 221, 288, 252
-0.993003, 429, 85, 460, 116
-0.993008, 301, 25, 332, 56
-0.993009, 173, 233, 204, 264
-0.993016, 101, 301, 132, 332
-0.993021, 245, 225, 276, 256
-0.99303, 401, 81, 432, 112
-0.993032, 401, 261, 432, 292
-0.99304, 265, 37, 296, 68
-0.993041, 61, 305, 92, 336
-0.993045, 277, 29, 308, 60
-0.993049, 109, 289, 140, 320
-0.99305, 137, 281, 168, 312
-0.993064, 225, 17, 288, 144
-0.993065, 289, 21, 320, 52
-0.99307, 245, 205, 276, 236
-0.993072, 309, 189, 340, 220
-0.993084, 173, 293, 204, 324
-0.993092, 293, 197, 324, 228
-0.993095, 81, 153, 112, 184
-0.9931, 153, 277, 184, 308
-0.993101, 393, 57, 424, 88
-0.993103, 125, 161, 156, 192
-0.993105, 361, 157, 392, 188
-0.993105, 277, 117, 308, 148
-0.99311, 377, 77, 408, 108
-0.993118, 397, 93, 428, 124
-0.993121, 73, 305, 104, 336
-0.993121, 129, 257, 160, 288
-0.993126, 109, 257, 140, 288
-0.993127, 269, 65, 300, 96
-0.993131, 341, 161, 372, 192
-0.993133, 361, 261, 392, 292
-0.993137, 413, 77, 444, 108
-0.993138, 397, 113, 428, 144
-0.993139, 105, 53, 136, 84
-0.993141, 81, 165, 112, 196
-0.993151, 381, 289, 412, 320
-0.993154, 245, 237, 276, 268
-0.993156, 349, 113, 380, 240
-0.993158, 357, 249, 388, 280
-0.99316, 357, 37, 388, 68
-0.993165, 305, 1, 336, 32
-0.993169, 433, 73, 464, 104
-0.993169, 213, 237, 244, 268
-0.993176, 281, 221, 312, 252
-0.993177, 113, 73, 144, 104
-0.993178, 89, 57, 120, 88
-0.993179, 273, 197, 304, 228
-0.993179, 125, 125, 156, 156
-0.993183, 181, 249, 212, 280
-0.993184, 285, 61, 316, 92
-0.993186, 389, 157, 420, 188
-0.993192, 277, 157, 308, 188
-0.993199, 309, 61, 340, 92
-0.993201, 409, 97, 440, 128
-0.993201, 309, 277, 340, 308
-0.993202, 89, 257, 120, 288
-0.993204, 397, 69, 428, 100
-0.993204, 341, 185, 372, 216
-0.993204, 373, 237, 404, 268
-0.993208, 313, 33, 344, 64
-0.993209, 125, 245, 156, 276
-0.99321, 361, 285, 392, 316
-0.993212, 401, 273, 432, 304
-0.993223, 257, 233, 288, 264
-0.993227, 157, 257, 188, 288
-0.993228, 1, 265, 500, 328
-0.993228, 401, 289, 432, 320
-0.993229, 137, 229, 168, 260
-0.993237, 445, 145, 476, 272
-0.993248, 225, 41, 480, 104
-0.993284, 333, 1, 364, 128
-0.99335, 301, 121, 316, 184
-0.993363, 1, 241, 500, 304
-0.993518, 177, 57, 304, 120
-0.993553, 101, 81, 132, 208
-0.993568, 301, 209, 332, 336
-0.993572, 129, 253, 256, 284
-0.99366, 297, 145, 312, 208
-0.993665, 311, 89, 326, 152
-0.99368, 97, 41, 352, 104
-0.993739, 257, 89, 500, 152
-0.99376, 193, 233, 448, 296
-0.99378, 257, 153, 500, 216
-0.993819, 81, 237, 208, 268
-0.993855, 257, 185, 500, 248
-0.993941, 185, 1, 248, 375
-0.993963, 33, 289, 288, 352
-0.994027, 257, 225, 288, 352
-0.994149, 365, 1, 396, 128
-0.994185, 81, 273, 208, 304
-0.994187, 177, 137, 304, 200
-0.994195, 311, 153, 326, 216
-0.994222, 217, 249, 232, 312
-0.994249, 307, 129, 322, 192
-0.994264, 81, 225, 208, 256
-0.994295, 1, 217, 500, 280
-0.9943, 295, 121, 310, 184
-0.994362, 257, 209, 500, 272
-0.994366, 289, 253, 416, 284
-0.99439, 157, 177, 188, 304
-0.994427, 361, 97, 392, 224
-0.994452, 393, 161, 424, 288
-0.994454, 225, 1, 288, 375
-0.994465, 97, 65, 352, 128
-0.994475, 81, 213, 208, 244
-0.99451, 129, 269, 256, 300
-0.99454, 353, 225, 384, 352
-0.994555, 151, 241, 166, 304
-0.994569, 303, 169, 318, 232
-0.994574, 49, 153, 176, 184
-0.994618, 291, 97, 306, 160
-0.994638, 209, 253, 336, 284
-0.994654, 303, 73, 318, 136
-0.994654, 1, 161, 500, 224
-0.994688, 225, 1, 480, 64
-0.994692, 49, 165, 176, 196
-0.994701, 129, 241, 256, 272
-0.994733, 453, 49, 484, 176
-0.994746, 291, 73, 306, 136
-0.994758, 287, 145, 302, 208
-0.994766, 273, 101, 400, 132
-0.994767, 399, 73, 414, 136
-0.994771, 257, 189, 384, 220
-0.99479, 341, 209, 372, 336
-0.994813, 207, 257, 222, 320
-0.994879, 1, 49, 500, 112
-0.994887, 257, 265, 500, 328
-0.994902, 1, 145, 256, 208
-0.994921, 301, 97, 316, 160
-0.994941, 49, 261, 176, 292
-0.994946, 273, 77, 400, 108
-0.994952, 305, 157, 432, 188
-0.99498, 141, 249, 156, 312
-0.994989, 349, 17, 380, 144
-0.995029, 129, 289, 256, 320
-0.99505, 267, 185, 282, 248
-0.995065, 281, 65, 296, 128
-0.995118, 225, 249, 240, 312
-0.995157, 317, 105, 332, 168
-0.995161, 305, 57, 432, 88
-0.995169, 209, 241, 336, 272
-0.995176, 273, 113, 400, 144
-0.995181, 97, 17, 352, 80
-0.995182, 1, 185, 500, 248
-0.995207, 297, 169, 312, 232
-0.99521, 161, 205, 288, 236
-0.995229, 353, 245, 480, 276
-0.99523, 81, 197, 208, 228
-0.995255, 161, 281, 416, 344
-0.995255, 1, 73, 500, 136
-0.995262, 225, 169, 352, 200
-0.995276, 49, 141, 176, 172
-0.995277, 305, 169, 432, 200
-0.995295, 93, 265, 108, 328
-0.995306, 1, 313, 256, 375
-0.995308, 465, 81, 496, 208
-0.995333, 325, 97, 356, 224
-0.995341, 129, 229, 256, 260
-0.995342, 313, 129, 328, 192
-0.995359, 49, 125, 176, 156
-0.995377, 57, 209, 88, 336
-0.995396, 135, 241, 150, 304
-0.995413, 79, 265, 94, 328
-0.995435, 323, 153, 338, 216
-0.995442, 139, 129, 154, 192
-0.995443, 199, 249, 214, 312
-0.995445, 207, 233, 222, 296
-0.995446, 289, 225, 320, 352
-0.995494, 313, 65, 328, 128
-0.995507, 337, 265, 464, 296
-0.995525, 129, 73, 256, 136
-0.995547, 257, 37, 384, 68
-0.995551, 317, 161, 332, 224
-0.995558, 303, 193, 318, 256
-0.995562, 193, 113, 256, 240
-0.995574, 291, 169, 306, 232
-0.995646, 313, 185, 328, 248
-0.995646, 49, 109, 176, 140
-0.995655, 273, 265, 400, 296
-0.995659, 83, 241, 98, 304
-0.995665, 161, 1, 288, 128
-0.995678, 115, 265, 130, 328
-0.995689, 319, 129, 334, 192
-0.995697, 209, 197, 336, 228
-0.995705, 273, 137, 400, 168
-0.995723, 33, 33, 96, 160
-0.995726, 163, 233, 178, 296
-0.995736, 33, 81, 160, 112
-0.995737, 177, 81, 304, 144
-0.995741, 257, 9, 384, 40
-0.995761, 261, 193, 276, 256
-0.995772, 391, 65, 406, 128
-0.995775, 379, 209, 394, 272
-0.995777, 209, 209, 336, 240
-0.995787, 257, 21, 384, 52
-0.995792, 105, 257, 120, 320
-0.995796, 127, 265, 142, 328
-0.995797, 379, 249, 394, 312
-0.995837, 209, 265, 336, 296
-0.995854, 1, 137, 500, 200
-0.995855, 83, 129, 98, 192
-0.995857, 297, 73, 312, 136
-0.995867, 225, 157, 352, 188
-0.99588, 93, 289, 108, 352
-0.995884, 93, 241, 108, 304
-0.995909, 353, 97, 480, 128
-0.995913, 413, 73, 428, 136
-0.995943, 133, 265, 148, 328
-0.995958, 403, 49, 418, 112
-0.995964, 81, 285, 208, 316
-0.995988, 291, 1, 306, 64
-0.995988, 213, 273, 228, 336
-0.995996, 161, 185, 288, 216
-0.995998, 337, 285, 464, 316
-0.996009, 65, 177, 192, 208
-0.996023, 33, 69, 160, 100
-0.996037, 201, 281, 216, 344
-0.996042, 309, 65, 340, 320
-0.99605, 193, 221, 320, 252
-0.996061, 93, 209, 108, 272
-0.996089, 1, 313, 500, 375
-0.996113, 33, 57, 160, 88
-0.996114, 65, 93, 192, 124
-0.996117, 353, 81, 480, 112
-0.996121, 273, 185, 288, 248
-0.99613, 321, 69, 448, 100
-0.996138, 403, 97, 418, 160
-0.996139, 285, 97, 300, 160
-0.996144, 87, 281, 102, 344
-0.996151, 81, 297, 208, 328
-0.996163, 397, 49, 412, 112
-0.996173, 319, 57, 334, 120
-0.996177, 177, 293, 304, 324
-0.996196, 207, 281, 222, 344
-0.996203, 273, 125, 400, 156
-0.996203, 289, 121, 304, 184
-0.996204, 361, 25, 376, 88
-0.99621, 145, 217, 272, 248
-0.996216, 329, 161, 344, 224
-0.996223, 71, 281, 86, 344
-0.996232, 285, 33, 316, 288
-0.996243, 99, 233, 114, 296
-0.996246, 283, 121, 298, 184
-0.99625, 257, 313, 500, 375
-0.996257, 65, 249, 192, 280
-0.99626, 93, 161, 108, 224
-0.996271, 113, 9, 128, 72
-0.996273, 129, 301, 256, 332
-0.996288, 1, 113, 256, 176
-0.99631, 257, 65, 384, 96
-0.996314, 297, 1, 328, 256
-0.99632, 161, 273, 176, 336
-0.996339, 297, 49, 312, 112
-0.996345, 121, 49, 136, 112
-0.996353, 219, 273, 234, 336
-0.996363, 257, 209, 384, 240
-0.996366, 289, 129, 320, 375
-0.996372, 157, 241, 172, 304
-0.996373, 49, 309, 176, 340
-0.99639, 269, 33, 284, 96
-0.996405, 225, 113, 352, 144
-0.996438, 153, 265, 168, 328
-0.996459, 99, 273, 114, 336
-0.996461, 319, 81, 334, 144
-0.996465, 277, 225, 308, 352
-0.996481, 225, 273, 240, 336
-0.996509, 249, 241, 264, 304
-0.996516, 399, 249, 414, 312
-0.996517, 33, 45, 160, 76
-0.996532, 381, 73, 396, 136
-0.996542, 341, 65, 372, 192
-0.996549, 319, 185, 334, 248
-0.996571, 257, 53, 384, 84
-0.996571, 33, 13, 160, 44
-0.996578, 195, 281, 210, 344
-0.996593, 281, 9, 296, 72
-0.996595, 33, 1, 96, 375
-0.996604, 217, 129, 248, 256
-0.996609, 409, 97, 424, 160
-0.99661, 113, 185, 240, 216
-0.996611, 121, 97, 152, 352
-0.996615, 303, 1, 318, 64
-0.996623, 81, 129, 112, 375
-0.996627, 241, 221, 368, 252
-0.996632, 281, 33, 296, 96
-0.996635, 309, 257, 324, 320
-0.996666, 257, 289, 500, 352
-0.996669, 171, 233, 186, 296
-0.99667, 97, 9, 112, 72
-0.996675, 369, 61, 496, 92
-0.996696, 127, 65, 142, 128
-0.996707, 181, 209, 196, 272
-0.99671, 387, 89, 402, 152
-0.996714, 83, 177, 98, 240
-0.996715, 161, 1, 224, 375
-0.99673, 225, 133, 352, 164
-0.996739, 115, 153, 130, 216
-0.996743, 121, 257, 136, 320
-0.996761, 131, 97, 146, 160
-0.996772, 367, 49, 382, 112
-0.996776, 301, 125, 316, 156
-0.996784, 385, 177, 400, 240
-0.996786, 225, 225, 240, 288
-0.996789, 215, 225, 230, 288
-0.996792, 115, 241, 130, 304
-0.996793, 91, 49, 106, 112
-0.996804, 323, 1, 338, 64
-0.996806, 143, 273, 158, 336
-0.996815, 387, 265, 402, 328
-0.996817, 379, 169, 394, 232
-0.996818, 275, 33, 290, 96
-0.996821, 289, 277, 416, 308
-0.996822, 33, 33, 160, 64
-0.996823, 383, 49, 398, 112
-0.996824, 361, 49, 376, 112
-0.996825, 363, 265, 378, 328
-0.996832, 405, 73, 420, 136
-0.996839, 231, 249, 246, 312
-0.996848, 377, 49, 392, 112
-0.996849, 321, 33, 336, 96
-0.99685, 277, 209, 292, 272
-0.996852, 139, 201, 154, 264
-0.996862, 107, 281, 122, 344
-0.996869, 289, 89, 416, 120
-0.996873, 265, 1, 296, 256
-0.996877, 177, 277, 304, 308
-0.996887, 353, 113, 480, 144
-0.996889, 89, 81, 104, 144
-0.99689, 237, 201, 252, 264
-0.996897, 33, 229, 160, 260
-0.996905, 389, 41, 404, 104
-0.996905, 311, 1, 326, 64
-0.996916, 143, 169, 158, 232
-0.996921, 273, 241, 400, 272
-0.996922, 257, 225, 272, 288
-0.996926, 133, 161, 148, 224
-0.996953, 353, 157, 480, 188
-0.996961, 373, 177, 388, 240
-0.996976, 375, 73, 390, 136
-0.996982, 33, 217, 160, 248
-0.99702, 337, 309, 464, 340
-0.997022, 33, 1, 96, 256
-0.997025, 297, 145, 312, 176
-0.99703, 209, 61, 336, 92
-0.99707, 293, 105, 308, 136
-0.997082, 305, 181, 432, 212
-0.997099, 241, 89, 368, 120
-0.99714, 113, 1, 144, 256
-0.997157, 177, 305, 304, 336
-0.997184, 305, 193, 432, 224
-0.99719, 33, 189, 160, 220
-0.997207, 161, 17, 288, 80
-0.99721, 337, 17, 464, 48
-0.997238, 69, 193, 100, 320
-0.997244, 353, 185, 480, 216
-0.997245, 225, 277, 352, 308
-0.99725, 1, 25, 500, 88
-0.997264, 85, 33, 116, 288
-0.99727, 289, 125, 304, 156
-0.997297, 437, 193, 468, 320
-0.997308, 277, 129, 308, 375
-0.99731, 33, 285, 160, 316
-0.997313, 303, 157, 318, 188
-0.99732, 33, 273, 160, 304
-0.997326, 209, 185, 336, 216
-0.997329, 81, 61, 208, 92
-0.997336, 305, 37, 432, 68
-0.997344, 1, 249, 128, 280
-0.997372, 369, 233, 496, 264
-0.997376, 141, 65, 172, 192
-0.997376, 305, 261, 320, 292
-0.997384, 33, 297, 160, 328
-0.997384, 225, 145, 352, 176
-0.997384, 33, 201, 160, 232
-0.997394, 81, 81, 208, 112
-0.997404, 1, 153, 128, 184
-0.997421, 315, 125, 330, 156
-0.997426, 209, 73, 336, 104
-0.997433, 303, 137, 318, 168
-0.997435, 289, 289, 416, 320
-0.997438, 129, 305, 384, 368
-0.997444, 113, 161, 240, 192
-0.997467, 289, 137, 304, 168
-0.997467, 129, 1, 160, 128
-0.997502, 73, 49, 104, 176
-0.99751, 311, 137, 326, 168
-0.997513, 1, 105, 500, 168
-0.997519, 69, 1, 100, 128
-0.997528, 1, 313, 128, 344
-0.997537, 309, 109, 324, 140
-0.99754, 147, 269, 162, 300
-0.997555, 139, 269, 154, 300
-0.997557, 295, 125, 310, 156
-0.997573, 289, 81, 304, 112
-0.997578, 81, 49, 208, 80
-0.997589, 319, 169, 334, 200
-0.997593, 325, 129, 356, 375
-0.997596, 101, 129, 132, 375
-0.997599, 311, 169, 326, 200
-0.997629, 407, 249, 422, 280
-0.997632, 305, 169, 320, 200
-0.997632, 299, 97, 314, 128
-0.997644, 1, 1, 500, 64
-0.997648, 337, 297, 464, 328
-0.99765, 307, 97, 322, 128
-0.997663, 299, 109, 314, 140
-0.997668, 207, 273, 222, 304
-0.997668, 83, 245, 98, 276
-0.99767, 287, 109, 302, 140
-0.997674, 297, 157, 312, 188
-0.997683, 125, 49, 156, 176
-0.997702, 113, 145, 240, 176
-0.997706, 273, 209, 288, 240
-0.997713, 133, 129, 164, 375
-0.997725, 293, 169, 308, 200
-0.997725, 445, 1, 476, 256
-0.997734, 113, 173, 240, 204
-0.997745, 311, 85, 326, 116
-0.997746, 381, 249, 396, 280
-0.997747, 353, 169, 480, 200
-0.997757, 289, 93, 304, 124
-0.997763, 297, 85, 312, 116
-0.997765, 321, 1, 352, 256
-0.997771, 213, 129, 244, 375
-0.997774, 369, 49, 496, 80
-0.997784, 227, 249, 242, 280
-0.997794, 337, 221, 464, 252
-0.997795, 391, 249, 406, 280
-0.9978, 375, 249, 390, 280
-0.997801, 95, 293, 110, 324
-0.997806, 129, 313, 256, 344
-0.997807, 113, 133, 240, 164
-0.99782, 225, 289, 352, 320
-0.997823, 81, 37, 208, 68
-0.997823, 293, 209, 308, 240
-0.997826, 291, 157, 306, 188
-0.997861, 311, 149, 326, 180
-0.997861, 69, 129, 100, 375
-0.997866, 321, 157, 336, 188
-0.99787, 383, 265, 398, 296
-0.997875, 281, 69, 296, 100
-0.997885, 113, 97, 240, 128
-0.997888, 113, 109, 240, 140
-0.997896, 119, 269, 134, 300
-0.997897, 209, 345, 336, 375
-0.997913, 1, 165, 128, 196
-0.997914, 169, 161, 200, 288
-0.997915, 317, 89, 332, 120
-0.99792, 309, 125, 324, 156
-0.997922, 311, 181, 326, 212
-0.997926, 217, 273, 232, 304
-0.997928, 81, 269, 96, 300
-0.99793, 49, 321, 176, 352
-0.997932, 1, 329, 128, 360
-0.997937, 265, 189, 280, 220
-0.997939, 311, 277, 326, 308
-0.997945, 261, 129, 292, 375
-0.997949, 153, 269, 168, 300
-0.997951, 329, 209, 360, 336
-0.997966, 317, 137, 332, 168
-0.997979, 401, 245, 416, 276
-0.997986, 321, 1, 448, 32
-0.997987, 301, 73, 316, 104
-0.997989, 209, 49, 336, 80
-0.997992, 93, 273, 108, 304
-0.997996, 299, 169, 314, 200
-0.998001, 321, 345, 448, 375
-0.998007, 133, 269, 148, 300
-0.998007, 1, 341, 128, 372
-0.99801, 195, 289, 210, 320
-0.998015, 89, 245, 104, 276
-0.998016, 303, 25, 318, 56
-0.998017, 267, 41, 282, 72
-0.998024, 289, 221, 416, 252
-0.998025, 185, 33, 248, 288
-0.998029, 207, 253, 222, 284
-0.998034, 81, 17, 208, 48
-0.998034, 141, 253, 156, 284
-0.998035, 369, 37, 496, 68
-0.998037, 299, 13, 314, 44
-0.998038, 95, 241, 110, 272
-0.998038, 1, 177, 128, 208
-0.99804, 103, 269, 118, 300
-0.998052, 293, 5, 308, 36
-0.998054, 233, 129, 264, 375
-0.998056, 403, 77, 418, 108
-0.998057, 289, 305, 416, 336
-0.99806, 353, 201, 480, 232
-0.998066, 285, 177, 300, 208
-0.998079, 313, 225, 344, 352
-0.998081, 363, 237, 378, 268
-0.998086, 369, 1, 400, 256
-0.998127, 331, 165, 346, 196
-0.998128, 315, 65, 330, 96
-0.99813, 101, 1, 132, 256
-0.998132, 283, 157, 298, 188
-0.998133, 283, 93, 298, 124
-0.998134, 311, 257, 326, 288
-0.998141, 227, 269, 242, 300
-0.998156, 363, 293, 378, 324
-0.998161, 127, 273, 142, 304
-0.998168, 421, 249, 436, 280
-0.998169, 319, 101, 334, 132
-0.998174, 321, 181, 336, 212
-0.998176, 375, 261, 390, 292
-0.998185, 439, 241, 454, 272
-0.998189, 299, 209, 314, 240
-0.998192, 357, 97, 388, 352
-0.998197, 87, 285, 102, 316
-0.998207, 113, 257, 128, 288
-0.998209, 409, 65, 440, 320
-0.99821, 289, 65, 304, 96
-0.998216, 223, 285, 238, 316
-0.998216, 301, 189, 316, 220
-0.998217, 421, 33, 452, 288
-0.998218, 61, 49, 92, 176
-0.998226, 261, 205, 276, 236
-0.998232, 395, 77, 410, 108
-0.998234, 379, 77, 394, 108
-0.998238, 89, 257, 104, 288
-0.998238, 297, 37, 312, 68
-0.998238, 97, 257, 112, 288
-0.99824, 399, 57, 414, 88
-0.99824, 149, 249, 164, 280
-0.998252, 361, 25, 376, 56
-0.998257, 363, 97, 378, 128
-0.99826, 201, 269, 216, 300
-0.998263, 369, 249, 384, 280
-0.998271, 207, 237, 222, 268
-0.998271, 303, 85, 318, 116
-0.99828, 281, 109, 296, 140
-0.998284, 193, 129, 224, 375
-0.998287, 121, 57, 136, 88
-0.998288, 1, 65, 256, 128
-0.998293, 433, 241, 448, 272
-0.998297, 93, 225, 108, 256
-0.998297, 291, 25, 306, 56
-0.998301, 103, 257, 118, 288
-0.998303, 249, 249, 264, 280
-0.998308, 207, 289, 222, 320
-0.99831, 303, 277, 318, 308
-0.998314, 375, 285, 390, 316
-0.998328, 139, 145, 154, 176
-0.998329, 389, 81, 404, 112
-0.998329, 103, 281, 118, 312
-0.998333, 283, 121, 298, 152
-0.998333, 279, 81, 294, 112
-0.998334, 73, 289, 88, 320
-0.998342, 87, 273, 102, 304
-0.998346, 267, 205, 282, 236
-0.998347, 337, 165, 352, 196
-0.998351, 221, 249, 236, 280
-0.998352, 403, 113, 418, 144
-0.998353, 87, 305, 102, 336
-0.998358, 413, 253, 428, 284
-0.998359, 403, 97, 418, 128
-0.998361, 107, 301, 122, 332
-0.998361, 381, 93, 396, 124
-0.998364, 389, 69, 404, 100
-0.998382, 309, 289, 340, 304
-0.998384, 289, 13, 320, 28
-0.998385, 313, 1, 344, 16
-0.998388, 233, 241, 264, 256
-0.998389, 217, 273, 248, 288
-0.99839, 429, 89, 460, 104
-0.998391, 293, 223, 324, 238
-0.998393, 309, 111, 340, 126
-0.998394, 141, 245, 172, 260
-0.998395, 405, 299, 436, 314
-0.998395, 149, 273, 180, 288
-0.998396, 245, 229, 276, 244
-0.998397, 381, 129, 412, 375
-0.998397, 313, 137, 344, 152
-0.998397, 265, 191, 296, 206
-0.998398, 405, 273, 436, 288
-0.998398, 285, 63, 316, 78
-0.998398, 293, 211, 324, 226
-0.998399, 289, 25, 320, 40
-0.9984, 389, 83, 420, 98
-0.9984, 341, 165, 372, 180
-0.9984, 389, 89, 420, 104
-0.998401, 125, 167, 156, 182
-0.998401, 277, 37, 308, 52
-0.998401, 289, 175, 320, 190
-0.998401, 361, 301, 392, 316
-0.998403, 281, 1, 312, 16
-0.998404, 329, 1, 360, 16
-0.998405, 281, 181, 312, 196
-0.998405, 313, 187, 344, 202
-0.998405, 173, 237, 204, 252
-0.998406, 93, 295, 124, 310
-0.998407, 233, 269, 264, 284
-0.998407, 317, 157, 348, 172
-0.998409, 281, 155, 312, 170
-0.998409, 457, 253, 488, 268
-0.99841, 297, 271, 328, 286
-0.99841, 93, 281, 124, 296
-0.998412, 305, 263, 336, 278
-0.998414, 377, 301, 408, 316
-0.998417, 433, 97, 464, 224
-0.998418, 365, 265, 396, 280
-0.998419, 77, 275, 108, 290
-0.99842, 309, 181, 340, 196
-0.998421, 325, 173, 356, 188
-0.998423, 393, 293, 424, 308
-0.998425, 305, 169, 336, 184
-0.998427, 293, 1, 324, 16
-0.998428, 109, 269, 140, 284
-0.998429, 73, 289, 104, 304
-0.99843, 277, 105, 308, 120
-0.998431, 257, 213, 288, 228
-0.998432, 373, 283, 404, 298
-0.998435, 393, 299, 424, 314
-0.998435, 93, 287, 124, 302
-0.998436, 297, 163, 328, 178
-0.998437, 277, 89, 308, 104
-0.998438, 201, 253, 232, 268
-0.998439, 409, 247, 440, 262
-0.998439, 297, 277, 328, 292
-0.99844, 401, 287, 432, 302
-0.998442, 277, 141, 308, 156
-0.998443, 125, 281, 156, 296
-0.998445, 285, 7, 316, 22
-0.998446, 369, 259, 400, 274
-0.998446, 297, 111, 328, 126
-0.998446, 285, 69, 316, 84
-0.998447, 281, 189, 312, 204
-0.998448, 233, 255, 264, 270
-0.998448, 109, 275, 140, 290
-0.998448, 293, 217, 324, 232
-0.99845, 257, 113, 288, 240
-0.99845, 381, 253, 412, 268
-0.99845, 281, 117, 312, 132
-0.998452, 273, 175, 336, 190
-0.998455, 105, 193, 136, 320
-0.998455, 213, 285, 244, 300
-0.998455, 77, 281, 108, 296
-0.998456, 149, 279, 180, 294
-0.998457, 325, 179, 356, 194
-0.998457, 105, 273, 168, 288
-0.998459, 305, 97, 336, 112
-0.998459, 293, 181, 324, 196
-0.998461, 301, 189, 332, 204
-0.998461, 393, 275, 424, 290
-0.998462, 401, 267, 432, 282
-0.998463, 309, 117, 340, 132
-0.998464, 77, 247, 108, 262
-0.998464, 257, 207, 288, 222
-0.998465, 277, 133, 308, 148
-0.998467, 273, 215, 304, 230
-0.998467, 385, 287, 416, 302
-0.998469, 213, 251, 244, 266
-0.99847, 281, 99, 312, 114
-0.998471, 93, 273, 124, 288
-0.998471, 337, 1, 368, 256
-0.998472, 233, 263, 264, 278
-0.998473, 301, 87, 332, 102
-0.998474, 281, 111, 312, 126
-0.998475, 297, 79, 328, 94
-0.998478, 93, 301, 124, 316
-0.99848, 405, 293, 436, 308
-0.99848, 325, 167, 356, 182
-0.998481, 461, 161, 492, 288
-0.998482, 1, 89, 256, 152
-0.998483, 401, 257, 432, 272
-0.998484, 233, 247, 264, 262
-0.998484, 193, 291, 224, 306
-0.998485, 97, 11, 128, 26
-0.998485, 281, 149, 312, 164
-0.998487, 281, 161, 344, 176
-0.998487, 281, 165, 312, 180
-0.998488, 301, 123, 332, 138
-0.998493, 377, 275, 408, 290
-0.998494, 305, 175, 336, 190
-0.998495, 297, 69, 328, 84
-0.998496, 377, 269, 408, 284
-0.9985, 81, 279, 144, 294
-0.998501, 305, 173, 368, 188
-0.998502, 309, 163, 340, 178
-0.998502, 281, 143, 344, 158
-0.998502, 361, 251, 424, 266
-0.998503, 181, 129, 212, 375
-0.998505, 397, 281, 428, 296
-0.998509, 233, 211, 296, 226
-0.998509, 277, 81, 308, 96
-0.998509, 273, 109, 336, 124
-0.998511, 297, 157, 328, 172
-0.998512, 289, 133, 320, 148
-0.998512, 369, 267, 432, 282
-0.998512, 273, 89, 336, 104
-0.998513, 281, 151, 344, 166
-0.998516, 89, 239, 152, 254
-0.998516, 369, 259, 432, 274
-0.998517, 293, 105, 324, 120
-0.998517, 277, 123, 308, 138
-0.998518, 289, 167, 352, 182
-0.998519, 293, 169, 324, 184
-0.99852, 81, 57, 144, 72
-0.99852, 81, 67, 144, 82
-0.99852, 81, 273, 144, 288
-0.998521, 369, 251, 400, 266
-0.998526, 289, 181, 352, 196
-0.998526, 257, 191, 320, 206
-0.998526, 125, 273, 156, 288
-0.998532, 293, 97, 324, 112
-0.998533, 273, 127, 336, 142
-0.998535, 257, 41, 320, 56
-0.998537, 265, 137, 328, 152
-0.998537, 305, 189, 368, 204
-0.99854, 185, 289, 248, 304
-0.998543, 305, 1, 368, 16
-0.998544, 289, 89, 320, 104
-0.998545, 81, 51, 144, 66
-0.998545, 273, 99, 336, 114
-0.998547, 393, 251, 424, 266
-0.998548, 381, 1, 412, 256
-0.998548, 185, 253, 248, 268
-0.998549, 57, 305, 120, 320
-0.998551, 145, 239, 208, 254
-0.998552, 185, 295, 248, 310
-0.998552, 301, 149, 332, 164
-0.998553, 389, 267, 420, 282
-0.998554, 313, 183, 376, 198
-0.998557, 397, 97, 428, 352
-0.998558, 397, 1, 428, 256
-0.998559, 385, 253, 448, 268
-0.998559, 233, 217, 296, 232
-0.99856, 89, 225, 152, 240
-0.998561, 301, 129, 332, 144
-0.998564, 265, 1, 328, 16
-0.998566, 137, 273, 168, 288
-0.998566, 313, 167, 376, 182
-0.998566, 105, 281, 168, 296
-0.998568, 89, 233, 152, 248
-0.998568, 273, 79, 336, 94
-0.998569, 273, 121, 336, 136
-0.998569, 81, 73, 144, 88
-0.998571, 273, 71, 336, 86
-0.998572, 89, 219, 152, 234
-0.998572, 89, 213, 152, 228
-0.998574, 129, 231, 192, 246
-0.998574, 89, 287, 152, 302
-0.998574, 209, 249, 272, 264
-0.998574, 369, 275, 432, 290
-0.998575, 233, 205, 296, 220
-0.998576, 81, 79, 144, 94
-0.998577, 97, 167, 160, 182
-0.998577, 249, 129, 280, 375
-0.998578, 345, 97, 376, 352
-0.998578, 305, 153, 368, 168
-0.998579, 201, 271, 264, 286
-0.99858, 313, 105, 376, 120
-0.99858, 81, 299, 144, 314
-0.998581, 369, 301, 432, 316
-0.998581, 385, 247, 448, 262
-0.998582, 89, 293, 152, 308
-0.998582, 273, 115, 336, 130
-0.998582, 129, 273, 192, 288
-0.998582, 185, 301, 248, 316
-0.998584, 305, 135, 368, 150
-0.998586, 409, 253, 472, 268
-0.998586, 129, 217, 192, 232
-0.998586, 233, 223, 296, 238
-0.998587, 65, 285, 128, 300
-0.998587, 265, 217, 328, 232
-0.998588, 345, 257, 408, 272
-0.998588, 81, 85, 144, 100
-0.998589, 73, 257, 136, 272
-0.998591, 345, 301, 408, 316
-0.998592, 73, 161, 136, 176
-0.998593, 357, 1, 388, 256
-0.998593, 289, 39, 352, 54
-0.998594, 65, 293, 128, 308
-0.998595, 273, 31, 336, 46
-0.998595, 169, 237, 232, 252
-0.998596, 381, 261, 412, 276
-0.998597, 345, 269, 408, 284
-0.998598, 281, 187, 344, 202
-0.998598, 161, 291, 224, 306
-0.998598, 297, 99, 360, 114
-0.998599, 73, 151, 136, 166
-0.998599, 81, 33, 144, 48
-0.9986, 73, 249, 136, 264
-0.998601, 305, 143, 368, 158
-0.998601, 305, 129, 368, 144
-0.998601, 301, 135, 332, 150
-0.998602, 137, 279, 200, 294
-0.998602, 193, 259, 256, 274
-0.998603, 81, 39, 144, 54
-0.998604, 209, 233, 272, 248
-0.998604, 305, 159, 368, 174
-0.998605, 161, 269, 224, 284
-0.998605, 153, 303, 216, 318
-0.998606, 257, 211, 320, 226
-0.998607, 369, 281, 432, 296
-0.998608, 81, 45, 144, 60
-0.998609, 377, 295, 440, 310
-0.998609, 73, 169, 136, 184
-0.998609, 1, 1, 256, 64
-0.99861, 97, 161, 160, 176
-0.99861, 353, 57, 416, 72
-0.99861, 257, 197, 320, 212
-0.99861, 129, 245, 192, 260
-0.998611, 301, 143, 332, 158
-0.998611, 201, 265, 264, 280
-0.998614, 265, 181, 328, 196
-0.998616, 89, 207, 152, 222
-0.998616, 129, 211, 192, 226
-0.998617, 81, 91, 144, 106
-0.998618, 105, 151, 168, 166
-0.998618, 129, 297, 192, 312
-0.998618, 153, 309, 216, 324
-0.998619, 81, 27, 144, 42
-0.998619, 265, 167, 328, 182
-0.998619, 337, 251, 400, 266
-0.998619, 337, 173, 400, 188
-0.998619, 313, 113, 376, 128
-0.99862, 209, 243, 272, 258
-0.99862, 265, 57, 328, 72
-0.998622, 89, 311, 152, 326
-0.998622, 161, 257, 224, 272
-0.998622, 273, 63, 336, 78
-0.998622, 49, 279, 112, 294
-0.998624, 169, 231, 232, 246
-0.998624, 353, 91, 416, 106
-0.998624, 401, 95, 464, 110
-0.998624, 297, 117, 328, 132
-0.998627, 89, 13, 152, 28
-0.998627, 313, 91, 376, 106
-0.998629, 81, 97, 144, 112
-0.998631, 113, 255, 176, 270
-0.998632, 393, 259, 456, 274
-0.998638, 289, 143, 320, 158
-0.998641, 289, 125, 320, 140
-0.998644, 293, 81, 308, 208
-0.998724, 307, 65, 322, 192
-0.998725, 429, 129, 460, 375
-0.998803, 137, 97, 152, 224
-0.998806, 91, 193, 106, 320
-0.998811, 237, 193, 252, 320
-0.998815, 305, 113, 320, 240
-0.998823, 317, 97, 332, 224
-0.998848, 299, 97, 314, 224
-0.998853, 299, 49, 314, 176
-0.998864, 97, 1, 112, 128
-0.998879, 457, 1, 488, 256
-0.998898, 1, 41, 256, 104
-0.998905, 305, 1, 320, 128
-0.998908, 81, 225, 96, 352
-0.998918, 141, 161, 156, 288
-0.998921, 73, 33, 104, 288
-0.998933, 135, 225, 150, 352
-0.998935, 283, 113, 298, 240
-0.998946, 129, 65, 144, 192
-0.99895, 287, 65, 302, 192
-0.998951, 369, 97, 400, 352
-0.998962, 151, 225, 166, 352
-0.998964, 85, 177, 100, 304
-0.998979, 311, 113, 326, 240
-0.998986, 227, 225, 242, 352
-0.998989, 315, 33, 330, 160
-0.998989, 379, 193, 394, 320
-0.998995, 87, 81, 102, 208
-0.999, 111, 1, 126, 128
-0.999023, 97, 209, 112, 336
-0.999045, 159, 225, 174, 352
-0.999052, 281, 49, 296, 176
-0.999069, 143, 225, 158, 352
-0.999078, 403, 65, 418, 192
-0.999083, 281, 1, 296, 128
-0.999091, 145, 129, 176, 375
-0.999106, 289, 129, 304, 256
-0.999111, 97, 145, 112, 272
-0.999121, 225, 177, 240, 304
-0.99914, 117, 241, 132, 368
-0.999148, 103, 1, 118, 128
-0.999165, 325, 113, 340, 240
-0.999168, 299, 1, 314, 128
-0.999172, 291, 17, 306, 144
-0.999176, 219, 225, 234, 352
-0.999182, 165, 225, 180, 352
-0.999182, 433, 33, 464, 288
-0.999184, 117, 1, 132, 128
-0.999189, 91, 241, 106, 368
-0.999195, 91, 1, 106, 128
-0.999196, 209, 193, 224, 320
-0.999198, 103, 225, 118, 352
-0.999207, 171, 225, 186, 352
-0.99922, 261, 177, 276, 304
-0.999235, 319, 161, 334, 288
-0.999243, 313, 161, 328, 288
-0.999247, 323, 17, 338, 144
-0.999247, 391, 65, 406, 192
-0.999248, 123, 33, 138, 160
-0.999258, 293, 177, 308, 304
-0.999262, 305, 161, 320, 288
-0.999268, 361, 33, 376, 160
-0.999275, 181, 193, 196, 320
-0.999276, 111, 241, 126, 368
-0.999284, 83, 129, 98, 256
-0.999286, 299, 177, 314, 304
-0.999292, 469, 1, 500, 256
-0.999292, 393, 209, 408, 336
-0.999292, 405, 225, 420, 352
-0.999293, 91, 129, 106, 256
-0.999297, 409, 65, 424, 192
-0.9993, 331, 145, 346, 272
-0.999304, 75, 241, 90, 368
-0.999307, 383, 241, 398, 368
-0.999307, 193, 225, 208, 352
-0.999312, 277, 177, 292, 304
-0.999314, 387, 17, 402, 144
-0.999317, 429, 225, 444, 352
-0.99932, 123, 241, 138, 368
-0.999326, 217, 177, 232, 304
-0.999332, 267, 177, 282, 304
-0.999333, 249, 177, 264, 304
-0.999339, 393, 1, 408, 128
-0.99934, 337, 145, 352, 272
-0.999344, 445, 97, 476, 352
-0.999348, 253, 1, 284, 256
-0.999348, 275, 33, 290, 160
-0.999353, 369, 17, 384, 144
-0.999356, 283, 161, 298, 288
-0.999364, 243, 209, 258, 336
-0.999367, 203, 225, 218, 352
-0.999369, 385, 65, 400, 192
-0.99937, 437, 145, 452, 272
-0.999372, 385, 193, 400, 320
-0.999378, 231, 161, 246, 288
-0.99938, 323, 65, 338, 192
-0.999383, 413, 17, 428, 144
-0.999383, 373, 65, 388, 192
-0.999384, 253, 225, 268, 352
-0.999393, 17, 225, 80, 352
-0.999394, 131, 145, 146, 272
-0.999396, 129, 209, 144, 336
-0.9994, 93, 49, 108, 176
-0.9994, 345, 161, 360, 288
-0.9994, 421, 65, 436, 192
-0.999402, 397, 65, 412, 192
-0.999404, 417, 209, 432, 336
-0.999405, 369, 225, 384, 352
-0.999405, 363, 81, 378, 208
-0.999408, 325, 161, 340, 288
-0.999411, 485, 1, 500, 128
-0.999413, 363, 225, 378, 352
-0.999435, 353, 177, 368, 304
-0.999446, 277, 129, 292, 256
-0.999448, 425, 17, 440, 144
-0.999451, 401, 17, 416, 144
-0.999456, 377, 241, 392, 368
-0.999456, 381, 17, 396, 144
-0.999458, 211, 241, 226, 368
-0.99946, 433, 1, 448, 128
-0.999468, 379, 65, 394, 192
-0.999469, 329, 33, 344, 160
-0.999472, 187, 177, 202, 304
-0.999473, 373, 161, 388, 288
-0.999474, 117, 113, 132, 240
-0.999474, 413, 113, 428, 240
-0.999474, 169, 129, 200, 375
-0.999478, 197, 161, 212, 288
-0.999483, 203, 177, 218, 304
-0.999484, 303, 225, 318, 352
-0.999489, 443, 49, 458, 176
-0.999491, 483, 49, 498, 176
-0.999497, 399, 241, 414, 368
-0.999497, 445, 161, 460, 288
-0.999497, 77, 129, 92, 256
-0.999505, 103, 145, 118, 272
-0.999507, 81, 81, 96, 208
-0.999508, 387, 145, 402, 272
-0.999513, 143, 113, 158, 240
-0.999513, 419, 1, 434, 128
-0.999516, 435, 225, 450, 352
-0.999527, 141, 33, 172, 288
-0.999579, 157, 129, 188, 375
-0.999593, 413, 295, 428, 310
-0.999593, 317, 181, 332, 196
-0.999594, 307, 93, 322, 108
-0.999595, 97, 289, 112, 304
-0.999595, 307, 105, 322, 120
-0.999595, 117, 277, 132, 292
-0.999595, 153, 279, 168, 294
-0.999596, 375, 279, 390, 294
-0.999597, 285, 181, 300, 196
-0.999597, 97, 271, 112, 286
-0.999598, 315, 273, 330, 288
-0.999598, 313, 287, 328, 302
-0.999599, 371, 257, 386, 272
-0.999599, 271, 207, 286, 222
-0.9996, 411, 287, 426, 302
-0.9996, 315, 123, 330, 138
-0.999601, 393, 275, 408, 290
-0.999601, 401, 283, 416, 298
-0.999601, 281, 105, 296, 120
-0.999601, 281, 123, 296, 138
-0.999602, 217, 281, 232, 296
-0.999603, 295, 157, 310, 172
-0.999604, 283, 139, 298, 154
-0.999604, 205, 291, 220, 306
-0.999605, 301, 183, 316, 198
-0.999606, 303, 217, 318, 232
-0.999606, 401, 297, 416, 312
-0.999606, 299, 41, 314, 56
-0.999606, 405, 259, 420, 274
-0.999607, 369, 249, 384, 264
-0.999608, 297, 79, 312, 94
-0.999609, 363, 295, 378, 310
-0.99961, 293, 11, 308, 26
-0.999611, 321, 167, 336, 182
-0.999611, 281, 93, 296, 108
-0.999612, 205, 253, 220, 268
-0.999613, 303, 167, 318, 182
-0.999613, 413, 271, 428, 286
-0.999613, 363, 249, 378, 264
-0.999615, 403, 291, 418, 306
-0.999616, 391, 285, 406, 300
-0.999616, 403, 265, 418, 280
-0.999618, 319, 143, 334, 158
-0.999619, 313, 89, 328, 104
-0.999619, 309, 263, 324, 278
-0.999621, 119, 271, 134, 286
-0.999622, 315, 107, 330, 122
-0.999623, 105, 273, 120, 288
-0.999623, 395, 267, 410, 282
-0.999624, 309, 123, 324, 138
-0.999624, 409, 253, 424, 268
-0.999624, 289, 155, 304, 170
-0.999624, 113, 161, 128, 176
-0.999624, 379, 265, 394, 280
-0.999624, 193, 291, 208, 306
-0.999625, 139, 273, 154, 288
-0.999627, 311, 177, 326, 192
-0.999627, 93, 283, 108, 298
-0.999628, 317, 101, 332, 116
-0.999631, 227, 251, 242, 266
-0.999632, 83, 247, 98, 262
-0.999634, 381, 271, 396, 286
-0.999635, 297, 93, 312, 108
-0.999636, 287, 119, 302, 134
-0.999637, 281, 81, 296, 96
-0.999641, 81, 279, 96, 294
-0.999641, 387, 269, 402, 284
-0.999642, 321, 137, 336, 152
-0.999642, 293, 113, 308, 128
-0.999643, 299, 87, 314, 102
-0.999644, 273, 213, 288, 228
-0.999645, 61, 1, 92, 256
-0.999645, 385, 261, 400, 276
-0.999646, 315, 129, 330, 144
-0.999648, 309, 111, 324, 126
-0.999648, 307, 275, 322, 290
-0.999648, 311, 165, 326, 180
-0.999649, 319, 161, 334, 176
-0.999651, 381, 251, 396, 266
-0.999653, 283, 151, 298, 166
-0.999653, 133, 273, 148, 288
-0.999654, 397, 251, 412, 266
-0.999654, 291, 179, 306, 194
-0.999655, 145, 273, 160, 288
-0.999656, 319, 151, 334, 166
-0.999656, 289, 81, 304, 96
-0.999657, 127, 273, 142, 288
-0.999657, 321, 175, 336, 190
-0.999661, 395, 259, 410, 274
-0.999661, 293, 213, 308, 228
-0.999662, 291, 93, 306, 108
-0.999663, 297, 99, 312, 114
-0.999664, 297, 189, 312, 204
-0.999666, 311, 189, 326, 204
-0.999666, 307, 99, 322, 114
-0.999667, 301, 157, 316, 172
-0.999669, 283, 145, 298, 160
-0.999669, 287, 111, 302, 126
-0.999673, 309, 117, 324, 132
-0.999677, 295, 151, 310, 166
-0.999677, 289, 161, 304, 176
-0.99968, 291, 127, 306, 142
-0.999684, 301, 149, 316, 164
-0.999685, 303, 173, 318, 188
-0.999691, 311, 147, 326, 162
-0.999695, 297, 163, 312, 178
-0.999695, 151, 273, 166, 288
-0.999695, 305, 131, 320, 146
-0.999697, 287, 101, 302, 116
-0.999698, 293, 173, 308, 188
-0.9997, 315, 135, 330, 150
-0.999701, 301, 107, 316, 122
-0.999704, 375, 251, 390, 266
-0.999708, 301, 121, 316, 136
-0.999711, 289, 145, 304, 160
-0.999712, 311, 171, 326, 186
-0.999713, 125, 1, 156, 256
-0.999715, 391, 253, 406, 268
-0.999715, 403, 251, 418, 266
-0.999717, 289, 133, 304, 148
-0.999717, 311, 155, 326, 170
-0.999721, 295, 135, 310, 150
-0.999726, 301, 143, 316, 158
-0.999728, 313, 141, 328, 156
-0.999735, 289, 139, 304, 154
-0.999735, 305, 137, 320, 152
-0.999739, 299, 113, 314, 128
-0.999741, 291, 87, 306, 102
-0.999744, 293, 107, 308, 122
-0.999745, 293, 121, 308, 136
-0.999754, 295, 145, 310, 160
-0.999762, 299, 127, 314, 142
-0.999784, 337, 113, 368, 240
-0.999802, 457, 97, 488, 352
-0.999854, 241, 33, 272, 288
-1.00013, 437, 241, 468, 368
-1.00024, 217, 33, 248, 288
-1.00024, 469, 97, 500, 352
-1.00027, 57, 129, 88, 375
-1.00047, 193, 33, 224, 288
-1.00063, 469, 209, 500, 336
-1.00065, 193, 129, 224, 256
-1.00071, 129, 49, 256, 112
-1.00084, 253, 49, 284, 176
-1.00088, 45, 129, 76, 375
-1.00094, 165, 33, 196, 288
-1.00095, 9, 1, 72, 375
-1.00096, 205, 33, 236, 288
-1.001, 229, 33, 260, 288
-1.00117, 181, 33, 212, 288
-1.00117, 45, 1, 76, 256
-1.00122, 205, 129, 236, 256
-1.00139, 241, 97, 272, 224
-1.00144, 1, 1, 32, 256
-1.00147, 13, 1, 44, 256
-1.00148, 25, 1, 56, 256
-1.00158, 161, 105, 288, 168
-1.00171, 153, 33, 184, 288
-1.00172, 17, 129, 48, 375
-1.00174, 33, 129, 64, 375
-1.00191, 5, 129, 36, 375
-1.00242, 25, 81, 88, 208
-1.00243, 209, 33, 272, 288
-1.00261, 153, 113, 216, 240
-1.00318, 241, 1, 272, 128
-1.00324, 149, 113, 180, 240
-1.0034, 253, 1, 284, 128
-1.00341, 45, 225, 76, 352
-1.0039, 449, 193, 480, 320
-1.00574, 25, 177, 88, 304
-1.00577, 25, 129, 88, 375
-1.00613, 161, 33, 224, 288
-1.00702, 9, 1, 72, 256
-1.00769, 9, 1, 72, 128
-1.00871, 1, 129, 64, 375
-1.00912, 17, 129, 80, 256
-1.00971, 201, 1, 264, 128
-1.01067, 193, 65, 256, 192
-1.01179, 177, 1, 240, 128
-1.01351, 153, 1, 216, 128
-1.01362, 153, 65, 216, 192
-1.01403, 1, 49, 64, 176
-1.01552, 1, 177, 64, 304
