1912
-0.369803, 1, 161, 333, 416
-0.43318, 1, 1, 333, 500
-0.49699, 1, 257, 333, 500
-0.550254, 1, 65, 333, 320
-0.561648, 1, 1, 256, 500
-0.626704, 33, 97, 288, 352
-0.690084, 1, 193, 256, 448
-0.777852, 33, 1, 288, 256
-0.833159, 65, 97, 192, 352
-0.85427, 65, 1, 192, 500
-0.872018, 1, 161, 333, 288
-0.879495, 145, 1, 272, 500
-0.887072, 97, 193, 224, 448
-0.892405, 161, 129, 288, 384
-0.896199, 209, 193, 333, 448
-0.899714, 113, 97, 240, 352
-0.900217, 17, 193, 144, 448
-0.909552, 65, 1, 192, 256
-0.911417, 17, 1, 144, 500
-0.912939, 161, 33, 288, 288
-0.915255, 1, 241, 333, 368
-0.92016, 33, 161, 288, 288
-0.921263, 17, 97, 144, 352
-0.924655, 209, 1, 333, 500
-0.924818, 49, 177, 176, 304
-0.924889, 113, 1, 240, 256
-0.925076, 81, 129, 208, 256
-0.926917, 1, 97, 333, 224
-0.927292, 33, 113, 288, 240
-0.931483, 17, 1, 144, 256
-0.93388, 65, 161, 128, 288
-0.935149, 1, 353, 333, 480
-0.935956, 65, 225, 320, 352
-0.937346, 145, 257, 272, 500
-0.938396, 209, 97, 333, 352
-0.93946, 265, 209, 328, 336
-0.940113, 41, 209, 104, 336
-0.946497, 1, 289, 333, 416
-0.947195, 137, 129, 200, 256
-0.948301, 137, 209, 200, 336
-0.949024, 161, 161, 288, 288
-0.949177, 1, 353, 256, 480
-0.949191, 137, 217, 200, 280
-0.949733, 113, 193, 240, 320
-0.951982, 65, 113, 128, 240
-0.953228, 65, 81, 192, 208
-0.953343, 209, 209, 333, 336
-0.953467, 81, 241, 208, 368
-0.953734, 65, 177, 128, 240
-0.955205, 121, 185, 184, 248
-0.955523, 1, 273, 256, 400
-0.956944, 89, 97, 152, 224
-0.957611, 169, 161, 232, 288
-0.957942, 65, 65, 320, 192
-0.958689, 1, 1, 333, 128
-0.960035, 1, 49, 333, 176
-0.960093, 129, 137, 192, 200
-0.960136, 33, 225, 160, 352
-0.960566, 129, 97, 256, 224
-0.961768, 137, 353, 200, 480
-0.9619, 193, 305, 320, 432
-0.962013, 97, 193, 160, 320
-0.962482, 33, 353, 160, 480
-0.962664, 105, 145, 168, 272
-0.962709, 73, 153, 136, 216
-0.962892, 105, 241, 168, 368
-0.963756, 129, 49, 256, 176
-0.964033, 265, 201, 328, 264
-0.96419, 129, 289, 256, 416
-0.964218, 73, 209, 136, 272
-0.964474, 209, 1, 333, 256
-0.964574, 17, 129, 144, 256
-0.96459, 49, 209, 112, 272
-0.964593, 161, 305, 224, 432
-0.964707, 97, 153, 160, 216
-0.964812, 145, 161, 208, 224
-0.964943, 273, 161, 333, 288
-0.965463, 121, 81, 184, 208
-0.965678, 97, 217, 160, 280
-0.965803, 41, 273, 104, 400
-0.965816, 129, 241, 192, 304
-0.965962, 41, 161, 104, 288
-0.966079, 97, 113, 160, 176
-0.966508, 273, 257, 333, 384
-0.966916, 65, 353, 128, 480
-0.967156, 161, 281, 224, 344
-0.967186, 41, 241, 104, 304
-0.967236, 225, 161, 288, 288
-0.967527, 241, 241, 304, 368
-0.967817, 89, 49, 152, 176
-0.967829, 169, 249, 232, 312
-0.968039, 97, 177, 160, 240
-0.968081, 129, 337, 256, 464
-0.968339, 153, 337, 216, 400
-0.968405, 49, 289, 176, 416
-0.968553, 209, 145, 333, 272
-0.968759, 177, 257, 304, 384
-0.968902, 113, 97, 176, 352
-0.968902, 49, 193, 112, 448
-0.968917, 257, 241, 320, 304
-0.969078, 41, 305, 104, 368
-0.969881, 185, 273, 248, 400
-0.969946, 17, 257, 80, 384
-0.970058, 33, 209, 160, 272
-0.970178, 1, 305, 128, 432
-0.970423, 81, 129, 112, 256
-0.970621, 105, 353, 168, 480
-0.970786, 41, 337, 104, 464
-0.971342, 277, 209, 308, 336
-0.971561, 161, 65, 224, 192
-0.97161, 145, 193, 208, 256
-0.971717, 97, 433, 160, 496
-0.971827, 105, 241, 168, 304
-0.971996, 41, 433, 104, 496
-0.972006, 169, 177, 232, 240
-0.972441, 177, 329, 240, 392
-0.97276, 57, 281, 120, 344
-0.972943, 65, 137, 192, 200
-0.973329, 105, 289, 168, 416
-0.973777, 177, 113, 240, 240
-0.973961, 161, 353, 224, 480
-0.974138, 1, 1, 256, 128
-0.974255, 137, 273, 200, 400
-0.974268, 157, 145, 188, 272
-0.97449, 1, 177, 128, 304
-0.974552, 57, 97, 120, 352
-0.97456, 65, 225, 128, 352
-0.974595, 17, 305, 80, 432
-0.974633, 145, 97, 208, 352
-0.974692, 41, 185, 104, 248
-0.974749, 49, 177, 176, 240
-0.975116, 129, 313, 192, 376
-0.975123, 65, 273, 128, 400
-0.975201, 49, 225, 80, 352
-0.97529, 137, 265, 200, 328
-0.975331, 53, 193, 84, 256
-0.975473, 273, 321, 333, 448
-0.975654, 17, 273, 80, 336
-0.975679, 81, 353, 208, 480
-0.97577, 45, 313, 76, 376
-0.975824, 273, 209, 304, 272
-0.975911, 121, 353, 184, 416
-0.976, 145, 369, 208, 432
-0.976053, 41, 153, 104, 216
-0.976053, 161, 209, 224, 336
-0.976077, 105, 89, 168, 152
-0.976267, 165, 193, 196, 320
-0.976331, 129, 209, 160, 272
-0.976396, 273, 369, 333, 496
-0.976469, 93, 129, 124, 256
-0.976528, 209, 353, 333, 480
-0.976579, 85, 177, 116, 240
-0.976701, 73, 129, 136, 192
-0.976792, 265, 289, 328, 352
-0.97689, 17, 209, 80, 272
-0.976928, 53, 177, 84, 304
-0.97694, 41, 329, 104, 392
-0.97697, 145, 129, 176, 256
-0.977019, 65, 433, 128, 496
-0.977044, 41, 265, 72, 328
-0.977116, 169, 129, 232, 192
-0.977117, 65, 113, 192, 176
-0.977194, 265, 193, 328, 448
-0.977227, 173, 273, 204, 400
-0.977391, 273, 369, 333, 432
-0.977467, 17, 209, 80, 336
-0.977549, 129, 241, 256, 368
-0.977772, 169, 249, 200, 312
-0.977812, 1, 65, 128, 192
-0.977905, 129, 241, 160, 304
-0.978012, 49, 241, 176, 304
-0.978139, 241, 217, 304, 280
-0.978204, 81, 321, 144, 384
-0.97833, 297, 241, 328, 368
-0.97834, 157, 217, 188, 280
-0.978444, 97, 161, 224, 224
-0.978458, 73, 145, 104, 208
-0.978525, 137, 113, 200, 176
-0.978535, 249, 265, 312, 328
-0.978554, 105, 409, 168, 472
-0.978819, 69, 145, 100, 272
-0.978822, 169, 201, 232, 264
-0.978928, 17, 313, 80, 376
-0.979131, 113, 201, 240, 264
-0.979371, 301, 361, 332, 424
-0.9795, 289, 193, 320, 320
-0.979588, 153, 177, 184, 240
-0.979591, 113, 337, 240, 400
-0.979679, 273, 153, 333, 216
-0.979738, 45, 241, 76, 304
-0.979806, 169, 369, 232, 432
-0.979867, 249, 289, 312, 416
-0.979908, 165, 161, 196, 224
-0.97996, 173, 337, 204, 400
-0.980096, 81, 33, 144, 288
-0.980111, 285, 233, 316, 296
-0.980114, 153, 273, 184, 336
-0.980167, 273, 265, 333, 328
-0.980307, 17, 249, 80, 312
-0.980308, 61, 169, 92, 232
-0.980315, 49, 33, 176, 160
-0.980376, 185, 225, 248, 352
-0.980397, 173, 281, 204, 344
-0.980451, 201, 321, 264, 448
-0.980478, 109, 177, 140, 240
-0.980516, 101, 153, 132, 216
-0.980553, 9, 369, 72, 496
-0.980582, 169, 153, 232, 216
-0.980582, 149, 209, 180, 336
-0.980688, 209, 281, 272, 344
-0.980723, 161, 281, 288, 344
-0.980791, 265, 209, 296, 336
-0.980797, 133, 177, 164, 240
-0.98085, 57, 65, 120, 192
-0.98088, 249, 145, 312, 272
-0.980916, 25, 409, 88, 472
-0.980923, 113, 297, 240, 360
-0.981069, 33, 329, 64, 392
-0.981153, 117, 209, 148, 272
-0.981195, 273, 409, 333, 472
-0.981274, 97, 345, 160, 408
-0.981359, 145, 217, 176, 280
-0.981422, 129, 353, 160, 480
-0.981437, 141, 241, 172, 304
-0.981456, 177, 305, 240, 368
-0.981471, 85, 177, 116, 304
-0.981571, 161, 177, 288, 240
-0.981591, 49, 345, 176, 408
-0.981609, 57, 305, 88, 368
-0.981655, 49, 297, 176, 360
-0.981657, 145, 129, 176, 192
-0.981711, 113, 1, 176, 500
-0.981753, 125, 305, 156, 432
-0.981785, 85, 433, 116, 496
-0.981802, 129, 225, 256, 288
-0.981805, 113, 361, 240, 424
-0.981809, 105, 281, 168, 344
-0.981825, 141, 353, 172, 416
-0.981865, 209, 225, 333, 288
-0.981904, 209, 257, 272, 384
-0.981939, 65, 321, 192, 384
-0.981952, 169, 33, 232, 288
-0.981982, 145, 137, 272, 200
-0.982026, 125, 177, 156, 304
-0.982028, 57, 409, 120, 472
-0.982104, 97, 249, 224, 312
-0.98212, 73, 193, 136, 448
-0.98225, 169, 193, 200, 256
-0.982311, 129, 193, 192, 448
-0.982388, 241, 297, 304, 360
-0.982439, 133, 113, 164, 240
-0.982689, 145, 89, 208, 152
-0.982716, 85, 137, 116, 200
-0.982816, 41, 113, 104, 240
-0.982851, 193, 353, 224, 416
-0.982881, 113, 161, 144, 288
-0.982882, 161, 257, 224, 384
-0.9829, 65, 193, 96, 320
-0.982919, 45, 217, 76, 280
-0.98308, 177, 97, 304, 224
-0.983094, 161, 201, 288, 264
-0.983109, 25, 225, 88, 480
-0.983136, 261, 209, 292, 272
-0.983216, 17, 361, 80, 424
-0.983216, 169, 257, 232, 500
-0.983241, 89, 65, 152, 128
-0.983256, 273, 329, 333, 392
-0.983334, 233, 169, 296, 232
-0.983342, 17, 433, 144, 496
-0.983396, 137, 257, 168, 384
-0.983561, 81, 1, 144, 500
-0.983589, 129, 1, 256, 128
-0.983625, 117, 241, 148, 368
-0.983658, 73, 345, 136, 408
-0.983721, 33, 289, 64, 352
-0.983755, 241, 161, 304, 416
-0.983781, 149, 337, 180, 464
-0.983798, 145, 393, 208, 456
-0.983806, 301, 369, 332, 496
-0.983812, 105, 377, 168, 440
-0.983862, 17, 337, 80, 400
-0.983968, 17, 409, 144, 472
-0.984019, 157, 137, 188, 200
-0.984091, 177, 225, 240, 288
-0.984118, 269, 145, 300, 272
-0.984146, 137, 177, 168, 304
-0.98416, 121, 153, 152, 216
-0.984179, 265, 241, 296, 304
-0.984208, 201, 329, 264, 392
-0.984223, 9, 433, 72, 496
-0.984231, 129, 97, 256, 160
-0.984423, 105, 433, 136, 496
-0.984591, 81, 409, 144, 472
-0.984755, 201, 305, 264, 368
-0.984811, 145, 81, 176, 208
-0.984835, 273, 177, 333, 240
-0.984845, 137, 289, 200, 352
-0.984904, 297, 257, 328, 320
-0.985035, 169, 145, 200, 272
-0.985056, 93, 81, 124, 208
-0.985143, 161, 345, 288, 408
-0.985148, 49, 105, 112, 168
-0.985163, 17, 145, 80, 272
-0.98517, 37, 257, 68, 384
-0.98517, 177, 1, 304, 128
-0.985227, 189, 321, 220, 384
-0.985244, 301, 417, 332, 480
-0.985272, 57, 1, 120, 500
-0.985319, 185, 281, 248, 344
-0.985323, 169, 161, 232, 416
-0.985397, 185, 281, 216, 344
-0.985627, 149, 289, 180, 416
-0.985632, 129, 385, 160, 448
-0.985716, 285, 145, 316, 272
-0.985752, 105, 209, 136, 272
-0.985757, 293, 209, 324, 272
-0.985844, 17, 385, 80, 448
-0.985868, 65, 433, 192, 496
-0.985869, 65, 233, 128, 296
-0.985982, 61, 281, 92, 344
-0.985988, 209, 249, 333, 312
-0.986, 301, 321, 332, 448
-0.986075, 105, 1, 168, 256
-0.986107, 193, 153, 256, 216
-0.986187, 81, 297, 144, 360
-0.986192, 17, 321, 144, 384
-0.986195, 121, 161, 184, 224
-0.986215, 121, 81, 152, 208
-0.986249, 105, 209, 136, 336
-0.986305, 177, 321, 304, 384
-0.986311, 65, 217, 96, 280
-0.986331, 121, 177, 152, 240
-0.986369, 117, 233, 148, 296
-0.986402, 297, 153, 328, 216
-0.986426, 137, 1, 200, 500
-0.986446, 129, 345, 160, 408
-0.986691, 129, 73, 256, 136
-0.986719, 193, 353, 256, 416
-0.986762, 49, 273, 80, 400
-0.986811, 49, 361, 112, 424
-0.986826, 113, 385, 240, 448
-0.986925, 209, 153, 333, 216
-0.986935, 161, 1, 224, 500
-0.986953, 17, 369, 144, 432
-0.986957, 1, 409, 64, 472
-0.987176, 105, 321, 168, 384
-0.987244, 153, 313, 216, 376
-0.987285, 169, 393, 232, 456
-0.987289, 81, 89, 208, 152
-0.987306, 105, 97, 136, 224
-0.987321, 301, 193, 332, 320
-0.987401, 241, 257, 304, 500
-0.987424, 161, 329, 192, 392
-0.987448, 185, 305, 216, 432
-0.987478, 137, 305, 168, 432
-0.987489, 201, 161, 264, 288
-0.987528, 225, 305, 288, 432
-0.987588, 181, 241, 212, 304
-0.987608, 113, 409, 144, 472
-0.987655, 65, 369, 192, 432
-0.987667, 193, 369, 320, 432
-0.987688, 17, 273, 144, 336
-0.987695, 173, 305, 204, 368
-0.987812, 81, 273, 208, 336
-0.987825, 193, 257, 256, 320
-0.987843, 161, 289, 192, 416
-0.987845, 173, 321, 204, 448
-0.987925, 129, 417, 192, 480
-0.987994, 209, 329, 240, 392
-0.987999, 193, 257, 224, 384
-0.988054, 161, 257, 288, 320
-0.98806, 33, 241, 64, 304
-0.988073, 105, 193, 168, 448
-0.988112, 37, 209, 68, 336
-0.988127, 65, 409, 192, 472
-0.98816, 1, 185, 128, 248
-0.988315, 145, 1, 208, 256
-0.988364, 233, 321, 296, 384
-0.988382, 249, 145, 312, 208
-0.988389, 193, 177, 256, 240
-0.988443, 133, 113, 164, 176
-0.988484, 253, 225, 284, 352
-0.988514, 277, 257, 308, 384
-0.988518, 285, 177, 316, 240
-0.988578, 105, 289, 136, 416
-0.988606, 297, 145, 328, 272
-0.988663, 181, 177, 212, 304
-0.988668, 93, 369, 124, 496
-0.988741, 69, 433, 100, 496
-0.988781, 273, 433, 333, 496
-0.988937, 133, 65, 164, 192
-0.988962, 1, 145, 128, 208
-0.98898, 129, 89, 160, 152
-0.98905, 217, 193, 280, 256
-0.989096, 209, 297, 333, 360
-0.989104, 117, 369, 148, 496
-0.989119, 1, 233, 128, 296
-0.989151, 253, 161, 284, 288
-0.989185, 301, 385, 332, 448
-0.989188, 209, 345, 333, 408
-0.989215, 289, 369, 320, 496
-0.989245, 153, 353, 184, 416
-0.989289, 45, 433, 76, 496
-0.989301, 161, 297, 192, 360
-0.989349, 77, 81, 108, 208
-0.989386, 273, 97, 333, 352
-0.98942, 157, 81, 188, 208
-0.989464, 89, 1, 152, 128
-0.989502, 209, 177, 333, 240
-0.989514, 193, 377, 256, 440
-0.989535, 225, 257, 288, 320
-0.989539, 129, 241, 192, 272
-0.989568, 89, 289, 120, 416
-0.98958, 65, 181, 128, 212
-0.989621, 101, 313, 132, 376
-0.989625, 57, 193, 120, 224
-0.989663, 81, 65, 208, 128
-0.989693, 265, 221, 328, 252
-0.989724, 269, 265, 300, 328
-0.989834, 61, 241, 92, 304
-0.989837, 45, 289, 76, 352
-0.989884, 25, 369, 56, 496
-0.989894, 181, 177, 212, 240
-0.989906, 113, 65, 176, 128
-0.989978, 193, 161, 256, 416
-0.989983, 177, 129, 208, 192
-0.989985, 153, 89, 184, 152
-0.990032, 137, 225, 200, 256
-0.990047, 141, 297, 172, 360
-0.990066, 1, 153, 256, 216
-0.990071, 297, 233, 328, 296
-0.99008, 73, 205, 136, 236
-0.990139, 145, 289, 208, 320
-0.990157, 281, 257, 312, 320
-0.990161, 73, 353, 104, 480
-0.990164, 105, 189, 168, 220
-0.990192, 253, 289, 284, 352
-0.990205, 93, 113, 124, 176
-0.990275, 97, 237, 160, 268
-0.990327, 41, 237, 104, 268
-0.990335, 73, 153, 136, 184
-0.990377, 25, 409, 56, 472
-0.990398, 129, 145, 192, 176
-0.990418, 185, 1, 248, 128
-0.990464, 49, 213, 112, 244
-0.990484, 129, 193, 192, 224
-0.990498, 113, 205, 176, 236
-0.990499, 145, 181, 208, 212
-0.990507, 161, 349, 224, 380
-0.990534, 81, 193, 144, 224
-0.990578, 41, 321, 104, 352
-0.990593, 97, 225, 160, 256
-0.990601, 65, 461, 128, 492
-0.990604, 73, 193, 104, 256
-0.990619, 61, 241, 92, 368
-0.990623, 273, 245, 333, 276
-0.990637, 73, 217, 136, 248
-0.990641, 1, 17, 128, 144
-0.990685, 97, 129, 160, 160
-0.990726, 137, 33, 200, 160
-0.990728, 137, 361, 200, 392
-0.990745, 209, 113, 272, 240
-0.990758, 133, 137, 164, 200
-0.99077, 41, 225, 104, 256
-0.990773, 1, 345, 128, 408
-0.990781, 253, 233, 284, 296
-0.990809, 169, 65, 232, 128
-0.990812, 137, 209, 200, 240
-0.990822, 169, 337, 232, 368
-0.990867, 265, 233, 328, 264
-0.990899, 137, 57, 200, 120
-0.990901, 113, 305, 144, 368
-0.990914, 1, 305, 256, 368
-0.990933, 17, 245, 80, 276
-0.99094, 269, 185, 300, 248
-0.990946, 257, 273, 320, 304
-0.990953, 21, 305, 52, 368
-0.99098, 61, 337, 92, 400
-0.990996, 273, 261, 333, 292
-0.991002, 129, 409, 256, 472
-0.991015, 169, 281, 232, 312
-0.99104, 113, 253, 176, 284
-0.991043, 105, 113, 168, 144
-0.991046, 209, 273, 333, 336
-0.99105, 137, 277, 200, 308
-0.991059, 65, 449, 128, 480
-0.991066, 289, 393, 320, 456
-0.991078, 41, 369, 72, 496
-0.991085, 17, 105, 144, 168
-0.991109, 81, 41, 144, 104
-0.991136, 105, 353, 136, 480
-0.991153, 29, 305, 60, 432
-0.991163, 161, 261, 224, 292
-0.991179, 81, 141, 144, 172
-0.991182, 121, 133, 184, 164
-0.991184, 169, 377, 232, 408
-0.991261, 273, 365, 333, 396
-0.991325, 109, 113, 140, 176
-0.991333, 265, 209, 328, 240
-0.991342, 33, 201, 96, 232
-0.991349, 145, 381, 208, 412
-0.991367, 105, 441, 168, 472
-0.991409, 105, 49, 136, 176
-0.991442, 241, 285, 304, 316
-0.991463, 289, 289, 320, 416
-0.991481, 169, 209, 232, 240
-0.991493, 169, 293, 232, 324
-0.991516, 117, 353, 148, 416
-0.991517, 81, 369, 144, 432
-0.99152, 33, 273, 96, 304
-0.991533, 65, 237, 128, 268
-0.991541, 153, 193, 216, 224
-0.991542, 113, 305, 176, 336
-0.991546, 89, 457, 152, 488
-0.991554, 41, 449, 104, 480
-0.991559, 137, 341, 200, 372
-0.991574, 97, 289, 128, 352
-0.991581, 57, 357, 120, 388
-0.991597, 293, 281, 324, 344
-0.991607, 97, 65, 128, 128
-0.991611, 129, 157, 192, 188
-0.991627, 113, 361, 176, 392
-0.991628, 17, 317, 80, 348
-0.991634, 185, 1, 248, 500
-0.99164, 169, 153, 232, 184
-0.991642, 65, 437, 128, 468
-0.991653, 41, 257, 104, 288
-0.991657, 113, 41, 240, 104
-0.991669, 1, 297, 128, 360
-0.991698, 193, 249, 224, 312
-0.9917, 25, 257, 56, 384
-0.991701, 197, 289, 228, 352
-0.991704, 193, 285, 256, 316
-0.991725, 145, 169, 208, 200
-0.991725, 137, 253, 200, 284
-0.991727, 65, 81, 128, 144
-0.991755, 97, 349, 160, 380
-0.991757, 57, 309, 120, 340
-0.991758, 33, 365, 96, 396
-0.991763, 265, 297, 328, 328
-0.991785, 33, 337, 96, 368
-0.991803, 57, 289, 120, 320
-0.991813, 77, 289, 108, 416
-0.991817, 125, 417, 156, 480
-0.99182, 193, 333, 256, 364
-0.991825, 37, 393, 68, 456
-0.991826, 17, 233, 80, 264
-0.991837, 41, 181, 104, 212
-0.991846, 205, 361, 236, 424
-0.99185, 105, 101, 168, 132
-0.991882, 65, 169, 128, 200
-0.991886, 185, 169, 248, 200
-0.991892, 33, 369, 64, 432
-0.991912, 33, 49, 160, 112
-0.991928, 73, 105, 136, 168
-0.991934, 17, 153, 80, 216
-0.991935, 81, 113, 112, 176
-0.991952, 161, 137, 224, 168
-0.991963, 41, 469, 104, 500
-0.991973, 241, 233, 304, 264
-0.99198, 21, 369, 52, 432
-0.991992, 249, 245, 312, 276
-0.992005, 241, 265, 272, 328
-0.99201, 33, 297, 96, 328
-0.992012, 25, 213, 88, 244
-0.99203, 89, 89, 152, 120
-0.992031, 9, 277, 72, 308
-0.99205, 273, 389, 333, 420
-0.99206, 185, 185, 248, 216
-0.992061, 97, 185, 128, 248
-0.992073, 257, 161, 320, 192
-0.992077, 273, 433, 333, 464
-0.992079, 205, 353, 236, 480
-0.992093, 65, 17, 128, 144
-0.992094, 105, 417, 168, 448
-0.99211, 217, 209, 280, 336
-0.992114, 89, 177, 152, 208
-0.992121, 161, 361, 224, 392
-0.992123, 129, 241, 160, 272
-0.992137, 97, 161, 160, 192
-0.992156, 9, 301, 72, 332
-0.992158, 265, 285, 328, 316
-0.992164, 41, 169, 104, 200
-0.992175, 17, 257, 80, 288
-0.992186, 265, 257, 296, 384
-0.992202, 161, 241, 192, 368
-0.992216, 201, 345, 264, 376
-0.992226, 181, 129, 212, 256
-0.992232, 57, 141, 120, 172
-0.992232, 209, 393, 333, 456
-0.992236, 185, 365, 248, 396
-0.99224, 145, 117, 208, 148
-0.992248, 241, 305, 272, 368
-0.992252, 153, 237, 216, 268
-0.992252, 145, 393, 208, 424
-0.992252, 121, 401, 184, 432
-0.992264, 169, 97, 200, 224
-0.992279, 225, 289, 256, 352
-0.992291, 161, 221, 224, 252
-0.992299, 149, 321, 180, 384
-0.992309, 241, 301, 304, 332
-0.992309, 41, 321, 72, 448
-0.992314, 273, 417, 333, 448
-0.992317, 33, 177, 288, 240
-0.992323, 89, 469, 152, 500
-0.992326, 9, 333, 72, 364
-0.992337, 197, 305, 228, 432
-0.992348, 25, 417, 88, 448
-0.992386, 45, 325, 76, 356
-0.99239, 301, 177, 332, 240
-0.992394, 273, 173, 333, 204
-0.992405, 177, 249, 240, 280
-0.992408, 113, 89, 176, 120
-0.992408, 33, 129, 288, 192
-0.992416, 53, 353, 84, 480
-0.992432, 273, 377, 333, 408
-0.992433, 57, 433, 88, 496
-0.992435, 281, 289, 312, 352
-0.992437, 145, 301, 208, 332
-0.992454, 273, 401, 333, 432
-0.992457, 217, 273, 280, 304
-0.992468, 297, 265, 328, 296
-0.992469, 85, 185, 116, 216
-0.992475, 269, 217, 300, 248
-0.992476, 121, 113, 152, 176
-0.992494, 145, 133, 176, 164
-0.992495, 89, 249, 152, 280
-0.992508, 17, 25, 144, 88
-0.99251, 273, 197, 333, 228
-0.992522, 315, 361, 330, 424
-0.992525, 209, 313, 272, 344
-0.992527, 41, 437, 104, 468
-0.992531, 97, 405, 160, 436
-0.992537, 241, 221, 304, 252
-0.992555, 89, 429, 152, 460
-0.992574, 81, 361, 144, 392
-0.992574, 173, 341, 204, 372
-0.992575, 89, 77, 152, 108
-0.992578, 61, 289, 92, 416
-0.992589, 233, 325, 296, 356
-0.992596, 169, 293, 200, 324
-0.9926, 105, 289, 168, 320
-0.992609, 281, 245, 312, 276
-0.992615, 213, 289, 244, 416
-0.992616, 169, 281, 200, 312
-0.992617, 17, 377, 80, 408
-0.99264, 37, 277, 68, 308
-0.992641, 137, 321, 168, 384
-0.992668, 185, 285, 216, 316
-0.99267, 53, 209, 84, 240
-0.992673, 301, 373, 332, 404
-0.992681, 73, 337, 104, 400
-0.992683, 293, 253, 324, 284
-0.992684, 125, 229, 156, 260
-0.992684, 149, 361, 180, 392
-0.992688, 209, 417, 333, 480
-0.992688, 85, 141, 116, 172
-0.992691, 129, 289, 160, 352
-0.992701, 249, 417, 312, 480
-0.992703, 157, 249, 188, 312
-0.992709, 149, 273, 180, 304
-0.992713, 65, 201, 320, 264
-0.992718, 61, 193, 92, 224
-0.992725, 209, 129, 333, 192
-0.992745, 301, 397, 332, 428
-0.992752, 109, 189, 140, 220
-0.992755, 49, 237, 80, 268
-0.992758, 141, 245, 172, 276
-0.992761, 117, 241, 148, 272
-0.992775, 133, 185, 164, 216
-0.992795, 293, 277, 324, 308
-0.992795, 149, 197, 180, 228
-0.992795, 65, 181, 96, 212
-0.992795, 137, 357, 168, 388
-0.9928, 277, 233, 308, 264
-0.992805, 49, 225, 80, 256
-0.992806, 217, 137, 280, 200
-0.992809, 169, 205, 200, 236
-0.992815, 33, 81, 160, 144
-0.992826, 33, 337, 64, 368
-0.992838, 161, 249, 192, 280
-0.992841, 53, 313, 84, 344
-0.992847, 69, 169, 100, 200
-0.992852, 113, 225, 144, 256
-0.992865, 153, 221, 184, 252
-0.992866, 217, 161, 280, 416
-0.992867, 145, 257, 176, 288
-0.992873, 117, 205, 148, 236
-0.992889, 77, 465, 108, 496
-0.992899, 137, 221, 168, 252
-0.992905, 301, 385, 332, 416
-0.992907, 37, 301, 68, 332
-0.992912, 93, 457, 124, 488
-0.992925, 169, 177, 200, 208
-0.992926, 301, 437, 332, 468
-0.992944, 117, 305, 148, 336
-0.992948, 137, 309, 168, 340
-0.99295, 41, 313, 72, 344
-0.992951, 157, 285, 188, 316
-0.992952, 89, 441, 120, 472
-0.992956, 165, 377, 196, 408
-0.992957, 45, 253, 76, 284
-0.992962, 165, 261, 196, 292
-0.992985, 169, 361, 200, 424
-0.992988, 1, 337, 256, 400
-0.992991, 33, 33, 96, 288
-0.992997, 161, 349, 192, 380
-0.993005, 293, 217, 324, 248
-0.993018, 197, 285, 228, 316
-0.993021, 269, 245, 300, 276
-0.993023, 293, 425, 324, 456
-0.993029, 181, 297, 212, 328
-0.993032, 145, 233, 176, 264
-0.993037, 85, 409, 116, 472
-0.993041, 113, 33, 176, 160
-0.993041, 277, 257, 308, 288
-0.993041, 57, 465, 88, 496
-0.993064, 193, 353, 224, 480
-0.993066, 117, 317, 148, 348
-0.993069, 49, 57, 112, 120
-0.993073, 185, 345, 216, 376
-0.993077, 1, 137, 333, 200
-0.993078, 129, 253, 160, 284
-0.993095, 129, 397, 160, 428
-0.993102, 49, 293, 80, 324
-0.993108, 293, 241, 324, 272
-0.993109, 157, 209, 188, 240
-0.993117, 81, 453, 112, 484
-0.993118, 29, 313, 60, 344
-0.99312, 109, 437, 140, 468
-0.993123, 41, 265, 72, 296
-0.993124, 121, 185, 152, 216
-0.993126, 141, 393, 172, 456
-0.993132, 161, 189, 192, 220
-0.993132, 209, 345, 240, 376
-0.993134, 301, 361, 332, 392
-0.993143, 165, 221, 196, 252
-0.993143, 97, 129, 128, 160
-0.993146, 25, 325, 56, 356
-0.99315, 69, 453, 100, 484
-0.993151, 133, 121, 164, 152
-0.993155, 25, 285, 56, 316
-0.993157, 277, 273, 308, 304
-0.993157, 101, 301, 132, 332
-0.993161, 285, 289, 316, 320
-0.993162, 297, 293, 328, 324
-0.993163, 189, 325, 220, 356
-0.993165, 193, 365, 224, 396
-0.993168, 65, 241, 96, 272
-0.99317, 169, 105, 232, 168
-0.993175, 89, 469, 120, 500
-0.993184, 301, 201, 332, 232
-0.993189, 181, 249, 212, 280
-0.993196, 93, 429, 124, 460
-0.993198, 297, 161, 328, 192
-0.993199, 133, 205, 164, 236
-0.993201, 257, 237, 288, 268
-0.993203, 249, 225, 280, 256
-0.993206, 181, 189, 212, 220
-0.993206, 125, 349, 156, 380
-0.99321, 181, 381, 212, 412
-0.993211, 101, 221, 132, 252
-0.993214, 289, 229, 320, 260
-0.993224, 161, 165, 192, 196
-0.99323, 33, 1, 96, 500
-0.993234, 157, 153, 188, 184
-0.993235, 125, 369, 156, 400
-0.993238, 209, 201, 333, 264
-0.993239, 249, 309, 280, 340
-0.993239, 277, 205, 308, 236
-0.993243, 97, 189, 128, 220
-0.993244, 85, 197, 116, 228
-0.993248, 73, 149, 104, 180
-0.993254, 169, 137, 200, 168
-0.993257, 105, 313, 136, 344
-0.993259, 125, 313, 156, 376
-0.99326, 105, 205, 136, 236
-0.993262, 21, 337, 52, 368
-0.993264, 161, 237, 192, 268
-0.993265, 265, 269, 296, 300
-0.993267, 145, 373, 176, 404
-0.993276, 145, 181, 176, 212
-0.99328, 145, 209, 176, 240
-0.993284, 169, 305, 200, 336
-0.993285, 77, 441, 108, 472
-0.993287, 73, 357, 104, 388
-0.993288, 109, 449, 140, 480
-0.993293, 237, 313, 268, 344
-0.993305, 25, 385, 56, 416
-0.99331, 301, 229, 332, 260
-0.993315, 1, 241, 256, 304
-0.993357, 137, 217, 152, 280
-0.993412, 249, 209, 280, 272
-0.993418, 309, 377, 324, 440
-0.993455, 9, 177, 72, 240
-0.993459, 161, 353, 192, 480
-0.99348, 25, 129, 88, 192
-0.993498, 57, 129, 88, 256
-0.993505, 301, 321, 332, 384
-0.993513, 49, 185, 176, 216
-0.993551, 73, 17, 136, 80
-0.99356, 241, 193, 304, 256
-0.993591, 77, 281, 108, 344
-0.993605, 181, 369, 212, 432
-0.993638, 289, 337, 320, 400
-0.993698, 5, 369, 36, 496
-0.993782, 49, 241, 176, 272
-0.993796, 185, 369, 248, 496
-0.993837, 113, 433, 240, 496
-0.993849, 1, 289, 333, 352
-0.993878, 273, 129, 333, 192
-0.993892, 249, 353, 312, 480
-0.994001, 1, 185, 333, 248
-0.994019, 269, 153, 300, 216
-0.994019, 117, 281, 148, 344
-0.994059, 157, 377, 188, 440
-0.994079, 85, 313, 116, 376
-0.994117, 217, 225, 280, 288
-0.994158, 117, 81, 148, 144
-0.994194, 193, 49, 320, 176
-0.994209, 253, 273, 284, 400
-0.994231, 65, 137, 192, 168
-0.994235, 49, 313, 64, 376
-0.994379, 33, 225, 160, 256
-0.9944, 55, 305, 70, 368
-0.99443, 33, 25, 96, 88
-0.994473, 85, 353, 116, 416
-0.994476, 315, 385, 330, 448
-0.994503, 277, 209, 292, 272
-0.994527, 181, 217, 212, 280
-0.994534, 41, 385, 104, 448
-0.994675, 177, 17, 304, 80
-0.994727, 97, 201, 224, 232
-0.99477, 65, 149, 192, 180
-0.994774, 113, 17, 240, 80
-0.99482, 179, 169, 194, 232
-0.994832, 65, 361, 320, 424
-0.994833, 265, 1, 328, 500
-0.994846, 225, 65, 288, 320
-0.994846, 165, 273, 180, 336
-0.99485, 113, 241, 240, 272
-0.994852, 167, 217, 182, 280
-0.994856, 43, 329, 58, 392
-0.994864, 143, 217, 158, 280
-0.994921, 217, 1, 280, 500
-0.994932, 33, 209, 160, 240
-0.99499, 1, 281, 256, 344
-0.994997, 177, 201, 192, 264
-0.995017, 33, 197, 160, 228
-0.995038, 93, 225, 124, 352
-0.995079, 55, 209, 70, 272
-0.995121, 177, 41, 304, 104
-0.995159, 151, 217, 166, 280
-0.995195, 47, 241, 62, 304
-0.995197, 1, 257, 64, 500
-0.995199, 217, 337, 248, 464
-0.995218, 131, 225, 146, 288
-0.995286, 25, 129, 88, 384
-0.995295, 139, 241, 154, 304
-0.99532, 131, 201, 146, 264
-0.995329, 271, 209, 286, 272
-0.995329, 185, 17, 248, 80
-0.995355, 177, 249, 192, 312
-0.995362, 183, 273, 198, 336
-0.995431, 65, 125, 192, 156
-0.995436, 77, 153, 92, 216
-0.995471, 173, 161, 188, 224
-0.995479, 141, 177, 156, 240
-0.99548, 161, 177, 176, 240
-0.995493, 17, 321, 48, 448
-0.99553, 83, 145, 98, 208
-0.99553, 1, 1, 64, 500
-0.995551, 241, 1, 304, 500
-0.995574, 43, 297, 58, 360
-0.995583, 161, 153, 288, 184
-0.995584, 33, 1, 160, 64
-0.995627, 97, 185, 224, 216
-0.995633, 171, 273, 186, 336
-0.995639, 65, 161, 192, 192
-0.99565, 285, 225, 300, 288
-0.995651, 213, 241, 244, 368
-0.99566, 61, 193, 76, 256
-0.99566, 113, 353, 240, 384
-0.995698, 143, 345, 158, 408
-0.995702, 113, 177, 128, 240
-0.995705, 61, 297, 76, 360
-0.995711, 167, 185, 182, 248
-0.995728, 175, 337, 190, 400
-0.995731, 97, 229, 224, 260
-0.995742, 67, 177, 82, 240
-0.995755, 61, 161, 92, 416
-0.995786, 309, 417, 324, 480
-0.995789, 125, 217, 140, 280
-0.995792, 161, 209, 288, 240
-0.995807, 193, 105, 320, 168
-0.99581, 315, 249, 330, 312
-0.99581, 315, 433, 330, 496
-0.995835, 193, 65, 320, 128
-0.995838, 289, 201, 304, 264
-0.995843, 97, 173, 224, 204
-0.995858, 193, 281, 208, 344
-0.995861, 181, 225, 212, 352
-0.995887, 145, 97, 176, 352
-0.995895, 97, 213, 224, 244
-0.995903, 201, 257, 264, 500
-0.995909, 65, 385, 320, 448
-0.99593, 173, 297, 188, 360
-0.995936, 151, 185, 166, 248
-0.995941, 65, 253, 192, 284
-0.995976, 65, 409, 320, 472
-0.995981, 1, 161, 333, 224
-0.996, 157, 129, 188, 384
-0.996009, 49, 129, 112, 192
-0.996034, 89, 177, 104, 240
-0.996035, 113, 365, 240, 396
-0.996036, 209, 361, 224, 424
-0.99606, 65, 25, 192, 88
-0.996061, 169, 49, 200, 176
-0.996103, 103, 145, 118, 208
-0.996106, 77, 201, 92, 264
-0.996108, 177, 41, 240, 104
-0.996135, 1, 249, 333, 312
-0.996139, 277, 249, 292, 312
-0.996155, 317, 193, 332, 256
-0.996159, 41, 1, 104, 128
-0.996172, 59, 249, 74, 312
-0.996187, 97, 433, 112, 496
-0.9962, 133, 177, 148, 240
-0.996205, 233, 305, 264, 432
-0.996209, 145, 293, 272, 324
-0.996217, 171, 241, 186, 304
-0.996221, 193, 209, 224, 336
-0.996225, 161, 181, 288, 212
-0.996244, 129, 393, 144, 456
-0.996245, 49, 353, 176, 384
-0.996255, 71, 217, 86, 280
-0.996256, 265, 217, 280, 280
-0.996258, 95, 137, 110, 200
-0.996258, 49, 217, 64, 280
-0.996264, 113, 305, 240, 336
-0.996287, 53, 273, 68, 336
-0.996299, 129, 341, 256, 372
-0.996312, 89, 137, 104, 200
-0.996313, 133, 153, 148, 216
-0.996318, 133, 249, 148, 312
-0.996322, 291, 225, 306, 288
-0.996326, 97, 289, 224, 320
-0.996332, 65, 233, 80, 296
-0.996343, 217, 361, 280, 424
-0.996361, 127, 177, 142, 240
-0.996363, 145, 241, 160, 304
-0.99638, 119, 177, 134, 240
-0.996384, 177, 281, 304, 312
-0.996385, 137, 329, 152, 392
-0.996389, 83, 185, 98, 248
-0.996391, 317, 337, 332, 400
-0.996399, 209, 269, 333, 300
-0.996409, 81, 97, 112, 352
-0.99642, 209, 225, 333, 256
-0.996425, 39, 273, 54, 336
-0.996428, 163, 137, 178, 200
-0.996444, 179, 305, 194, 368
-0.996448, 313, 369, 328, 400
-0.996454, 83, 433, 98, 496
-0.99646, 271, 241, 286, 304
-0.99647, 161, 169, 288, 200
-0.996483, 159, 257, 174, 320
-0.996498, 183, 249, 198, 312
-0.996503, 129, 117, 256, 148
-0.996508, 149, 345, 164, 408
-0.996513, 113, 393, 240, 424
-0.996528, 145, 141, 272, 172
-0.996537, 99, 185, 114, 248
-0.996539, 233, 161, 264, 288
-0.996578, 177, 273, 192, 336
-0.996585, 17, 445, 144, 476
-0.996594, 49, 173, 176, 204
-0.996616, 111, 433, 126, 496
-0.996622, 33, 105, 288, 168
-0.996626, 145, 113, 160, 176
-0.996631, 33, 305, 48, 368
-0.996643, 193, 145, 224, 272
-0.996646, 37, 329, 52, 392
-0.996647, 113, 253, 240, 284
-0.99665, 129, 105, 256, 136
-0.996664, 109, 153, 124, 216
-0.996679, 213, 177, 244, 304
-0.996693, 293, 249, 308, 312
-0.996718, 283, 201, 298, 264
-0.996721, 123, 305, 138, 368
-0.996725, 285, 265, 300, 328
-0.996735, 33, 325, 160, 356
-0.996745, 147, 369, 162, 432
-0.996776, 157, 129, 172, 192
-0.996777, 185, 177, 200, 240
-0.996778, 183, 329, 198, 392
-0.996788, 123, 401, 138, 464
-0.996788, 173, 369, 204, 496
-0.996793, 129, 93, 256, 124
-0.996794, 303, 385, 318, 448
-0.996807, 201, 41, 264, 104
-0.996817, 209, 349, 333, 380
-0.996819, 249, 377, 312, 440
-0.996819, 161, 217, 176, 280
-0.996823, 233, 257, 264, 384
-0.996831, 135, 393, 150, 456
-0.996837, 141, 385, 156, 448
-0.996839, 155, 353, 170, 416
-0.996856, 133, 237, 148, 268
-0.996858, 1, 433, 256, 496
-0.99686, 313, 225, 328, 288
-0.996868, 209, 237, 333, 268
-0.996885, 213, 337, 228, 400
-0.996889, 33, 309, 160, 340
-0.996891, 1, 313, 333, 376
-0.996892, 173, 257, 204, 500
-0.9969, 155, 97, 170, 160
-0.996916, 105, 185, 120, 248
-0.996916, 97, 113, 112, 176
-0.99692, 127, 153, 142, 216
-0.996921, 189, 1, 220, 128
-0.996922, 317, 357, 332, 388
-0.996922, 199, 321, 214, 384
-0.996923, 17, 457, 144, 488
-0.996924, 309, 353, 324, 416
-0.996931, 133, 97, 164, 352
-0.996931, 97, 1, 128, 128
-0.996939, 209, 161, 333, 192
-0.996953, 1, 209, 333, 272
-0.996957, 1, 113, 333, 176
-0.99696, 315, 409, 330, 472
-0.99696, 141, 241, 156, 272
-0.996962, 113, 153, 240, 184
-0.996989, 121, 33, 152, 160
-0.997005, 103, 425, 118, 488
-0.997009, 297, 177, 312, 240
-0.997012, 65, 457, 192, 488
-0.997014, 53, 249, 68, 312
-0.997022, 41, 249, 56, 312
-0.997027, 65, 81, 320, 144
-0.997029, 113, 405, 240, 436
-0.997037, 33, 401, 160, 432
-0.997039, 193, 105, 256, 168
-0.997042, 187, 297, 202, 360
-0.997046, 161, 221, 288, 252
-0.997046, 47, 273, 62, 336
-0.997068, 167, 221, 182, 252
-0.997075, 193, 97, 224, 224
-0.997086, 1, 469, 128, 500
-0.997094, 91, 433, 106, 496
-0.997098, 151, 129, 166, 192
-0.9971, 41, 1, 104, 64
-0.997101, 161, 305, 288, 336
-0.997109, 209, 149, 333, 180
-0.997117, 169, 137, 184, 200
-0.997117, 169, 161, 200, 416
-0.997118, 309, 389, 324, 420
-0.997123, 165, 345, 180, 408
-0.997123, 17, 429, 144, 460
-0.997138, 55, 313, 70, 344
-0.997151, 33, 297, 160, 328
-0.997164, 115, 153, 130, 216
-0.997173, 125, 353, 140, 416
-0.997174, 145, 129, 272, 160
-0.997179, 297, 257, 328, 500
-0.997182, 297, 209, 312, 272
-0.997188, 129, 81, 256, 112
-0.997189, 255, 281, 270, 344
-0.997199, 81, 341, 208, 372
-0.997204, 1, 417, 333, 480
-0.997208, 57, 1, 120, 256
-0.997214, 107, 297, 122, 360
-0.997219, 161, 353, 288, 384
-0.997221, 201, 1, 264, 256
-0.997224, 193, 293, 320, 324
-0.997229, 65, 373, 192, 404
-0.99723, 317, 169, 332, 232
-0.997246, 65, 57, 320, 120
-0.997246, 177, 281, 192, 312
-0.997247, 49, 193, 80, 448
-0.997253, 189, 321, 204, 384
-0.997253, 79, 337, 94, 400
-0.997266, 139, 137, 154, 200
-0.99727, 141, 297, 156, 360
-0.997272, 101, 33, 132, 288
-0.997286, 47, 321, 62, 352
-0.997295, 113, 377, 240, 408
-0.997298, 1, 237, 128, 268
-0.997314, 9, 25, 72, 88
-0.997317, 49, 413, 176, 444
-0.997363, 1, 361, 333, 424
-0.997367, 163, 273, 178, 304
-0.997369, 1, 373, 128, 404
-0.997389, 81, 113, 208, 144
-0.997393, 277, 161, 308, 416
-0.997418, 187, 293, 202, 324
-0.997428, 145, 193, 272, 224
-0.997445, 65, 441, 192, 472
-0.997458, 209, 309, 333, 340
-0.997493, 33, 337, 160, 368
-0.997494, 43, 333, 58, 364
-0.997509, 81, 101, 208, 132
-0.99751, 65, 469, 192, 500
-0.997554, 209, 257, 333, 288
-0.997574, 313, 401, 328, 432
-0.99758, 81, 277, 208, 308
-0.997584, 177, 337, 304, 368
-0.997588, 91, 181, 106, 212
-0.997594, 121, 33, 152, 288
-0.997613, 193, 389, 320, 420
-0.997614, 101, 193, 132, 448
-0.997617, 177, 417, 240, 480
-0.997626, 209, 173, 333, 204
-0.997662, 193, 289, 208, 320
-0.997665, 1, 173, 128, 204
-0.997675, 1, 17, 256, 80
-0.997685, 53, 325, 68, 356
-0.997693, 291, 233, 306, 264
-0.997694, 33, 161, 64, 288
-0.997697, 139, 225, 154, 256
-0.9977, 265, 161, 296, 416
-0.997713, 93, 137, 108, 168
-0.997717, 177, 205, 192, 236
-0.997735, 169, 269, 184, 300
-0.99775, 315, 381, 330, 412
-0.997776, 151, 357, 166, 388
-0.997793, 145, 357, 160, 388
-0.997795, 5, 321, 36, 448
-0.9978, 209, 213, 333, 244
-0.997804, 183, 277, 198, 308
-0.997812, 311, 261, 326, 292
-0.997814, 167, 209, 182, 240
-0.997826, 93, 465, 108, 496
-0.997828, 17, 145, 144, 176
-0.997834, 285, 245, 300, 276
-0.997847, 169, 289, 184, 320
-0.997862, 169, 33, 200, 288
-0.997867, 311, 433, 326, 464
-0.997874, 307, 421, 322, 452
-0.997875, 81, 73, 208, 104
-0.99788, 299, 257, 314, 288
-0.997881, 101, 445, 116, 476
-0.997908, 185, 257, 216, 500
-0.997919, 97, 317, 224, 348
-0.997929, 285, 257, 316, 500
-0.99793, 207, 353, 222, 384
-0.997933, 139, 309, 154, 340
-0.997939, 305, 261, 320, 292
-0.997944, 17, 273, 144, 304
-0.997953, 305, 249, 320, 280
-0.997955, 157, 357, 172, 388
-0.997957, 49, 89, 176, 120
-0.997958, 177, 365, 304, 396
-0.997958, 77, 193, 108, 448
-0.997959, 181, 177, 196, 208
-0.99796, 283, 213, 298, 244
-0.99796, 185, 65, 248, 192
-0.997968, 157, 261, 172, 292
-0.997971, 113, 129, 144, 384
-0.997983, 317, 253, 332, 284
-0.997991, 125, 225, 140, 256
-0.997996, 271, 221, 286, 252
-0.998, 127, 241, 142, 272
-0.998003, 161, 233, 288, 264
-0.998003, 17, 253, 144, 284
-0.99801, 175, 337, 190, 368
-0.998031, 157, 33, 188, 288
-0.998044, 81, 149, 96, 180
-0.998047, 317, 209, 332, 240
-0.998057, 37, 273, 52, 304
-0.998062, 273, 245, 288, 276
-0.998076, 295, 245, 310, 276
-0.99808, 95, 453, 110, 484
-0.998081, 317, 437, 332, 468
-0.998084, 181, 293, 196, 324
-0.998088, 97, 417, 224, 448
-0.998089, 45, 281, 60, 312
-0.99809, 139, 253, 154, 284
-0.99809, 209, 377, 333, 408
-0.998093, 291, 221, 306, 252
-0.998096, 145, 229, 160, 260
-0.998106, 177, 377, 192, 408
-0.998107, 173, 229, 188, 260
-0.998115, 171, 373, 186, 404
-0.998126, 299, 285, 314, 316
-0.998132, 143, 185, 158, 216
-0.998138, 183, 377, 198, 408
-0.998145, 49, 385, 176, 416
-0.998145, 213, 129, 244, 256
-0.998146, 109, 205, 124, 236
-0.998146, 131, 225, 146, 256
-0.998148, 65, 429, 192, 460
-0.998155, 1, 285, 128, 316
-0.998161, 175, 269, 190, 300
-0.998163, 293, 273, 308, 304
-0.998168, 183, 337, 198, 368
-0.998172, 63, 309, 78, 340
-0.998174, 287, 201, 302, 232
-0.998176, 1, 417, 128, 448
-0.998178, 57, 209, 72, 240
-0.998182, 145, 193, 176, 448
-0.998187, 309, 273, 324, 304
-0.998188, 129, 329, 256, 360
-0.998192, 305, 373, 320, 404
-0.998195, 209, 401, 333, 432
-0.998197, 301, 161, 332, 416
-0.998203, 37, 225, 68, 480
-0.998208, 159, 137, 174, 168
-0.998208, 87, 141, 102, 172
-0.998208, 145, 265, 272, 296
-0.998208, 145, 317, 272, 348
-0.998209, 75, 161, 90, 192
-0.998217, 293, 285, 308, 316
-0.998225, 109, 185, 124, 216
-0.998228, 157, 33, 188, 160
-0.99823, 153, 133, 168, 164
-0.998235, 209, 325, 333, 356
-0.998239, 115, 221, 130, 252
-0.99824, 35, 333, 50, 364
-0.998242, 81, 329, 208, 360
-0.998245, 51, 237, 66, 268
-0.998245, 173, 241, 188, 272
-0.998247, 181, 81, 212, 208
-0.998249, 17, 1, 80, 128
-0.998258, 151, 241, 166, 272
-0.998262, 147, 129, 162, 160
-0.998266, 289, 161, 320, 416
-0.998267, 1, 337, 333, 400
-0.998277, 253, 161, 284, 416
-0.998289, 129, 69, 256, 100
-0.998289, 261, 305, 276, 336
-0.998292, 103, 469, 118, 500
-0.998294, 101, 193, 116, 224
-0.998294, 135, 389, 150, 420
-0.998308, 85, 469, 100, 500
-0.998309, 209, 201, 333, 232
-0.99831, 115, 305, 130, 336
-0.99831, 183, 249, 198, 280
-0.998312, 313, 413, 328, 444
-0.998314, 131, 253, 146, 284
-0.998317, 47, 253, 62, 284
-0.998332, 159, 225, 174, 256
-0.998337, 85, 189, 100, 220
-0.998339, 279, 253, 294, 284
-0.998341, 145, 345, 160, 376
-0.998342, 171, 193, 186, 224
-0.998344, 151, 229, 166, 260
-0.998345, 149, 189, 164, 220
-0.998345, 55, 301, 70, 332
-0.998347, 267, 237, 282, 268
-0.998349, 147, 205, 162, 236
-0.998354, 1, 353, 128, 384
-0.998357, 75, 221, 90, 252
-0.998359, 141, 213, 156, 244
-0.99836, 123, 309, 138, 340
-0.99836, 209, 365, 224, 396
-0.998361, 139, 349, 154, 380
-0.998362, 129, 401, 144, 432
-0.998362, 165, 145, 180, 176
-0.998369, 153, 361, 184, 376
-0.998369, 301, 409, 332, 424
-0.99837, 169, 191, 200, 206
-0.99837, 61, 311, 92, 326
-0.998371, 69, 477, 100, 492
-0.998371, 65, 189, 80, 220
-0.998371, 255, 309, 270, 340
-0.998371, 165, 275, 196, 290
-0.998372, 113, 441, 128, 472
-0.998374, 69, 237, 84, 268
-0.998375, 137, 303, 168, 318
-0.998375, 53, 485, 84, 500
-0.998376, 281, 299, 312, 314
-0.998376, 117, 429, 132, 460
-0.998376, 181, 337, 212, 352
-0.998376, 77, 461, 108, 476
-0.998376, 17, 133, 144, 164
-0.998377, 37, 277, 68, 292
-0.998378, 293, 217, 324, 232
-0.998379, 97, 135, 128, 150
-0.99838, 297, 279, 328, 294
-0.99838, 149, 207, 180, 222
-0.99838, 137, 221, 168, 236
-0.998381, 59, 257, 74, 288
-0.998381, 317, 265, 332, 296
-0.998381, 133, 129, 164, 144
-0.998381, 129, 207, 160, 222
-0.998381, 189, 299, 220, 314
-0.998382, 101, 187, 132, 202
-0.998382, 301, 271, 332, 286
-0.998382, 285, 171, 316, 186
-0.998382, 165, 221, 196, 236
-0.998382, 81, 293, 112, 308
-0.998383, 161, 353, 192, 368
-0.998384, 169, 209, 200, 224
-0.998384, 113, 155, 144, 170
-0.998384, 109, 197, 140, 212
-0.998385, 145, 141, 176, 156
-0.998386, 269, 235, 300, 250
-0.998386, 83, 449, 98, 480
-0.998387, 117, 237, 148, 252
-0.998387, 53, 225, 68, 256
-0.998387, 199, 249, 214, 280
-0.998387, 157, 259, 188, 274
-0.998388, 185, 287, 216, 302
-0.998388, 183, 197, 198, 228
-0.998389, 33, 323, 64, 338
-0.998389, 117, 251, 148, 266
-0.99839, 199, 285, 214, 316
-0.99839, 149, 271, 180, 286
-0.998392, 261, 307, 292, 322
-0.998393, 109, 217, 124, 248
-0.998394, 33, 311, 64, 326
-0.998394, 285, 237, 316, 252
-0.998395, 29, 251, 60, 266
-0.998395, 295, 209, 310, 240
-0.998395, 89, 141, 120, 156
-0.998396, 217, 337, 248, 352
-0.998396, 93, 299, 124, 314
-0.998396, 57, 473, 88, 488
-0.998396, 41, 341, 72, 356
-0.998398, 125, 185, 156, 200
-0.998398, 157, 199, 188, 214
-0.998398, 169, 185, 200, 200
-0.998399, 93, 451, 124, 466
-0.998399, 297, 249, 328, 264
-0.998399, 73, 485, 104, 500
-0.998399, 193, 357, 224, 372
-0.9984, 129, 363, 160, 378
-0.9984, 311, 201, 326, 232
-0.9984, 53, 479, 84, 494
-0.9984, 105, 315, 136, 330
-0.998402, 61, 321, 76, 352
-0.998403, 149, 369, 180, 384
-0.998406, 101, 307, 132, 322
-0.998406, 265, 247, 296, 262
-0.998406, 33, 283, 64, 298
-0.998407, 293, 285, 324, 300
-0.998407, 105, 225, 136, 240
-0.998407, 301, 159, 332, 174
-0.99841, 45, 257, 76, 272
-0.998415, 29, 329, 60, 344
-0.998416, 153, 221, 184, 236
-0.998416, 285, 263, 316, 278
-0.998418, 117, 245, 148, 260
-0.998418, 121, 305, 152, 320
-0.998419, 113, 205, 144, 220
-0.998419, 125, 313, 156, 328
-0.998421, 293, 297, 324, 312
-0.998425, 165, 281, 196, 296
-0.998425, 157, 287, 188, 302
-0.998428, 157, 225, 188, 480
-0.998428, 265, 227, 296, 242
-0.998431, 53, 217, 84, 232
-0.998432, 89, 461, 120, 476
-0.998434, 85, 195, 116, 210
-0.998436, 301, 395, 332, 410
-0.998437, 293, 223, 324, 238
-0.998439, 253, 313, 284, 328
-0.99844, 89, 183, 120, 198
-0.998441, 49, 229, 80, 244
-0.998442, 57, 293, 88, 308
-0.998444, 289, 273, 320, 288
-0.998446, 301, 379, 332, 394
-0.998449, 17, 161, 144, 192
-0.998449, 277, 243, 308, 258
-0.998451, 17, 117, 144, 148
-0.998455, 301, 373, 332, 388
-0.998457, 29, 341, 60, 356
-0.998457, 297, 257, 328, 272
-0.99846, 165, 253, 196, 268
-0.998462, 301, 403, 332, 418
-0.998462, 137, 309, 168, 324
-0.998464, 69, 179, 100, 194
-0.998465, 81, 477, 112, 492
-0.998466, 85, 147, 116, 162
-0.998472, 285, 255, 316, 270
-0.998475, 85, 471, 116, 486
-0.998479, 53, 317, 84, 332
-0.99848, 301, 385, 332, 400
-0.998481, 69, 185, 100, 200
-0.998482, 141, 135, 172, 150
-0.998482, 153, 277, 184, 292
-0.998485, 177, 253, 208, 268
-0.998486, 173, 343, 204, 358
-0.998491, 41, 317, 72, 332
-0.998491, 53, 223, 84, 238
-0.998491, 141, 253, 172, 268
-0.998491, 105, 245, 168, 260
-0.998492, 1, 161, 64, 416
-0.998492, 49, 235, 80, 250
-0.998493, 45, 243, 76, 258
-0.998493, 65, 193, 96, 208
-0.998494, 57, 183, 120, 198
-0.998496, 157, 227, 188, 242
-0.998499, 85, 189, 116, 204
-0.9985, 57, 211, 88, 226
-0.998501, 277, 249, 308, 264
-0.998505, 25, 335, 56, 350
-0.998505, 169, 379, 200, 394
-0.998506, 173, 301, 204, 316
-0.998506, 273, 217, 304, 232
-0.998507, 61, 201, 92, 216
-0.998511, 129, 247, 192, 262
-0.998514, 49, 325, 80, 340
-0.998514, 209, 433, 333, 464
-0.998516, 57, 193, 120, 208
-0.998517, 185, 293, 216, 308
-0.998518, 57, 201, 120, 216
-0.998522, 45, 249, 76, 264
-0.998522, 129, 221, 192, 236
-0.998525, 73, 157, 136, 172
-0.998525, 141, 361, 172, 376
-0.998526, 145, 293, 208, 308
-0.998531, 73, 217, 136, 232
-0.998532, 169, 287, 200, 302
-0.998539, 265, 241, 328, 256
-0.99854, 73, 207, 136, 222
-0.998543, 41, 243, 104, 258
-0.998544, 273, 265, 333, 280
-0.998545, 161, 287, 224, 302
-0.998546, 181, 129, 212, 384
-0.998546, 49, 217, 112, 232
-0.998547, 137, 253, 200, 268
-0.998547, 81, 189, 144, 204
-0.998548, 137, 241, 200, 256
-0.99855, 49, 485, 112, 500
-0.998551, 17, 253, 80, 268
-0.998554, 57, 469, 120, 484
-0.998555, 65, 451, 128, 466
-0.998555, 265, 223, 328, 238
-0.998556, 1, 185, 128, 216
-0.998559, 105, 251, 168, 266
-0.998559, 265, 229, 328, 244
-0.998561, 169, 295, 200, 310
-0.998561, 313, 353, 328, 480
-0.998562, 49, 211, 112, 226
-0.998565, 273, 249, 333, 264
-0.998565, 265, 235, 328, 250
-0.998568, 145, 189, 208, 204
-0.998569, 297, 265, 328, 280
-0.998569, 169, 341, 232, 356
-0.99857, 145, 299, 208, 314
-0.998571, 49, 293, 112, 308
-0.998571, 65, 463, 128, 478
-0.998571, 129, 155, 192, 170
-0.998574, 81, 195, 144, 210
-0.998575, 41, 237, 104, 252
-0.998577, 105, 197, 168, 212
-0.998577, 49, 477, 112, 492
-0.998578, 145, 183, 208, 198
-0.998579, 17, 321, 80, 336
-0.99858, 129, 203, 192, 218
-0.998581, 73, 151, 136, 166
-0.998581, 97, 239, 160, 254
-0.998583, 105, 117, 168, 132
-0.998583, 137, 215, 200, 230
-0.998586, 41, 231, 104, 246
-0.998587, 41, 335, 72, 350
-0.998588, 41, 223, 104, 238
-0.99859, 41, 249, 104, 264
-0.998591, 113, 363, 176, 378
-0.998592, 273, 217, 333, 232
-0.998593, 169, 379, 232, 394
-0.998596, 105, 221, 168, 236
-0.998596, 121, 135, 184, 150
-0.998597, 169, 293, 232, 308
-0.998598, 41, 319, 104, 334
-0.998598, 129, 249, 160, 264
-0.998604, 137, 363, 200, 378
-0.998605, 145, 197, 208, 212
-0.998605, 105, 129, 168, 144
-0.998606, 105, 207, 168, 222
-0.998608, 145, 379, 208, 394
-0.998608, 81, 183, 144, 198
-0.998609, 105, 215, 168, 230
-0.998609, 161, 253, 288, 284
-0.998611, 65, 457, 128, 472
-0.998612, 89, 457, 152, 472
-0.998612, 41, 327, 104, 342
-0.998613, 273, 375, 333, 390
-0.998613, 273, 271, 333, 286
-0.998614, 137, 287, 200, 302
-0.998615, 17, 247, 80, 262
-0.998617, 73, 223, 136, 238
-0.998618, 129, 243, 160, 258
-0.998618, 137, 209, 200, 224
-0.99862, 161, 353, 224, 368
-0.998622, 33, 333, 96, 348
-0.998622, 121, 141, 184, 156
-0.998622, 33, 275, 96, 290
-0.998623, 137, 343, 200, 358
-0.998623, 249, 217, 312, 232
-0.998625, 129, 149, 192, 164
-0.998625, 57, 363, 120, 378
-0.998625, 105, 111, 168, 126
-0.998625, 169, 161, 232, 176
-0.998626, 137, 227, 200, 242
-0.998627, 81, 145, 144, 160
-0.998627, 65, 237, 128, 252
-0.998628, 105, 305, 168, 320
-0.998628, 273, 255, 333, 270
-0.998629, 193, 337, 256, 352
-0.99863, 257, 277, 320, 292
-0.99863, 65, 177, 128, 192
-0.998631, 73, 443, 136, 458
-0.998632, 33, 201, 96, 216
-0.998633, 97, 135, 160, 150
-0.998634, 169, 299, 232, 314
-0.998634, 81, 471, 144, 486
-0.998636, 41, 459, 104, 474
-0.998636, 33, 369, 96, 384
-0.998639, 81, 201, 144, 216
-0.998639, 185, 181, 248, 196
-0.99864, 185, 187, 248, 202
-0.998641, 73, 1, 104, 128
-0.998642, 153, 273, 216, 288
-0.998642, 105, 187, 168, 202
-0.998642, 57, 311, 120, 326
-0.998642, 129, 161, 192, 176
-0.998643, 73, 163, 136, 178
-0.998643, 161, 223, 224, 238
-0.998644, 249, 291, 312, 306
-0.998644, 89, 371, 152, 386
-0.998644, 169, 167, 232, 182
-0.998645, 249, 249, 312, 264
-0.998646, 41, 257, 104, 272
-0.998646, 97, 123, 160, 138
-0.998647, 177, 373, 240, 388
-0.998647, 273, 367, 333, 382
-0.998647, 105, 447, 168, 462
-0.998648, 17, 327, 80, 342
-0.998648, 65, 299, 128, 314
-0.998649, 169, 253, 232, 268
-0.998653, 73, 483, 136, 498
-0.998653, 193, 289, 256, 304
-0.998654, 161, 359, 224, 374
-0.998655, 273, 297, 333, 312
-0.998656, 169, 209, 232, 224
-0.998656, 161, 385, 224, 400
-0.998656, 65, 231, 128, 246
-0.998657, 81, 249, 144, 264
-0.998659, 225, 235, 288, 250
-0.99866, 153, 137, 216, 152
-0.998661, 97, 227, 160, 242
-0.998662, 129, 369, 192, 384
-0.998662, 137, 175, 200, 190
-0.998672, 169, 145, 184, 272
-0.998681, 61, 257, 92, 500
-0.998693, 1, 389, 128, 420
-0.998696, 49, 53, 176, 84
-0.998698, 133, 1, 164, 256
-0.998699, 265, 257, 296, 500
-0.99872, 181, 33, 212, 288
-0.998722, 185, 273, 200, 400
-0.998724, 77, 1, 108, 256
-0.998729, 17, 105, 144, 136
-0.998729, 89, 257, 120, 500
-0.998734, 75, 145, 90, 272
-0.998739, 97, 113, 112, 240
-0.998769, 83, 129, 98, 256
-0.998784, 65, 177, 80, 304
-0.998785, 113, 57, 240, 88
-0.998791, 281, 193, 296, 320
-0.998812, 91, 129, 106, 256
-0.998815, 1, 393, 333, 456
-0.998817, 1, 41, 128, 72
-0.99882, 159, 129, 174, 256
-0.99882, 57, 193, 72, 320
-0.998849, 161, 377, 288, 408
-0.998867, 51, 209, 66, 336
-0.998882, 273, 113, 333, 240
-0.998922, 175, 177, 190, 304
-0.998937, 53, 65, 84, 320
-0.998939, 179, 257, 194, 384
-0.998948, 129, 277, 256, 308
-0.99897, 129, 241, 144, 368
-0.998973, 137, 177, 152, 304
-0.998977, 289, 193, 304, 320
-0.99898, 17, 97, 80, 224
-0.998982, 107, 129, 122, 256
-0.998984, 161, 1, 224, 128
-0.999004, 269, 209, 284, 336
-0.999008, 299, 209, 314, 336
-0.999015, 177, 413, 304, 444
-0.999027, 139, 257, 154, 384
-0.999042, 113, 429, 240, 460
-0.999044, 151, 337, 166, 464
-0.999047, 209, 457, 333, 488
-0.99905, 129, 441, 256, 472
-0.99905, 177, 13, 304, 44
-0.999054, 181, 177, 196, 304
-0.999062, 307, 241, 322, 368
-0.999081, 65, 225, 80, 352
-0.999082, 1, 69, 128, 100
-0.999082, 275, 193, 290, 320
-0.999084, 59, 241, 74, 368
-0.999091, 81, 241, 112, 368
-0.999095, 307, 193, 322, 320
-0.999104, 303, 369, 318, 496
-0.999104, 193, 73, 320, 104
-0.999115, 175, 129, 190, 256
-0.999119, 173, 225, 188, 352
-0.999122, 1, 29, 128, 60
-0.999137, 161, 209, 176, 336
-0.999144, 317, 305, 332, 432
-0.999146, 177, 1, 304, 32
-0.999149, 45, 241, 60, 368
-0.999152, 209, 189, 333, 220
-0.999155, 149, 177, 164, 304
-0.999157, 97, 37, 224, 68
-0.999161, 145, 113, 160, 240
-0.999166, 145, 353, 160, 480
-0.999171, 139, 129, 154, 256
-0.99918, 97, 25, 224, 56
-0.99918, 185, 225, 200, 352
-0.999182, 151, 113, 166, 240
-0.999187, 75, 209, 90, 336
-0.999187, 167, 193, 182, 320
-0.999192, 113, 453, 240, 484
-0.999194, 269, 161, 284, 288
-0.999197, 297, 257, 312, 384
-0.9992, 209, 137, 333, 168
-0.999201, 277, 241, 292, 368
-0.99921, 65, 33, 96, 288
-0.999215, 289, 145, 304, 272
-0.999216, 131, 177, 146, 304
-0.999222, 135, 305, 150, 432
-0.999229, 105, 177, 120, 304
-0.99923, 125, 369, 140, 496
-0.999237, 145, 1, 176, 256
-0.999252, 279, 145, 294, 272
-0.999262, 313, 241, 328, 368
-0.999272, 129, 193, 160, 448
-0.999273, 129, 469, 256, 500
-0.999273, 191, 289, 206, 416
-0.999277, 83, 177, 98, 304
-0.999291, 115, 145, 130, 272
-0.999291, 53, 257, 68, 384
-0.999293, 137, 369, 152, 496
-0.999296, 173, 273, 188, 400
-0.999298, 193, 113, 320, 144
-0.999305, 45, 289, 60, 416
-0.999309, 143, 209, 158, 336
-0.99931, 165, 257, 180, 384
-0.999311, 165, 97, 180, 224
-0.999312, 193, 161, 224, 416
-0.999314, 97, 161, 112, 288
-0.999317, 299, 161, 314, 288
-0.999318, 123, 161, 138, 288
-0.999318, 133, 129, 148, 256
-0.999326, 137, 81, 152, 208
-0.999332, 249, 97, 312, 224
-0.999333, 117, 353, 132, 480
-0.999336, 157, 81, 172, 208
-0.999339, 317, 161, 332, 288
-0.999344, 287, 241, 302, 368
-0.999346, 311, 305, 326, 432
-0.999346, 105, 81, 120, 208
-0.999356, 131, 369, 146, 496
-0.999366, 205, 225, 236, 480
-0.99938, 261, 225, 276, 352
-0.999385, 175, 321, 190, 448
-0.999405, 207, 337, 222, 464
-0.999408, 39, 241, 54, 368
-0.999415, 259, 161, 274, 288
-0.999423, 117, 257, 148, 500
-0.999423, 157, 321, 172, 448
-0.999423, 143, 65, 158, 192
-0.999428, 69, 289, 84, 416
-0.999432, 141, 305, 156, 432
-0.999435, 151, 289, 166, 416
-0.999437, 89, 177, 104, 304
-0.999437, 131, 81, 146, 208
-0.999437, 155, 209, 170, 336
-0.999441, 181, 113, 196, 240
-0.999442, 97, 65, 112, 192
-0.999443, 111, 193, 126, 320
-0.999444, 1, 81, 333, 144
-0.999447, 225, 161, 256, 416
-0.999449, 85, 1, 116, 128
-0.99946, 149, 65, 164, 192
-0.999466, 105, 289, 120, 416
-0.999469, 269, 65, 300, 320
-0.999471, 91, 81, 106, 208
-0.999472, 121, 97, 136, 224
-0.999476, 75, 289, 90, 416
-0.99948, 51, 321, 66, 448
-0.999483, 129, 305, 144, 432
-0.999488, 89, 1, 120, 256
-0.999489, 45, 353, 60, 480
-0.99949, 27, 353, 42, 480
-0.999496, 99, 273, 114, 400
-0.999498, 37, 369, 52, 496
-0.999501, 101, 369, 116, 496
-0.99951, 171, 81, 186, 208
-0.999511, 301, 321, 316, 448
-0.999511, 111, 369, 126, 496
-0.999519, 145, 257, 160, 384
-0.999528, 59, 145, 74, 272
-0.999529, 53, 369, 68, 496
-0.999533, 157, 369, 172, 496
-0.999541, 69, 129, 84, 256
-0.999542, 75, 97, 90, 224
-0.999542, 83, 353, 98, 480
-0.999552, 73, 337, 88, 464
-0.999553, 121, 209, 136, 336
-0.999553, 81, 289, 96, 416
-0.999554, 197, 305, 212, 432
-0.99956, 83, 81, 98, 208
-0.999561, 189, 113, 204, 240
-0.999568, 191, 337, 206, 464
-0.999568, 269, 257, 284, 384
-0.999568, 113, 65, 128, 192
-0.999569, 215, 337, 230, 464
-0.999573, 163, 321, 178, 448
-0.999578, 143, 215, 158, 230
-0.999578, 289, 209, 304, 224
-0.999579, 307, 401, 322, 416
-0.999579, 133, 237, 148, 252
-0.999579, 115, 315, 130, 330
-0.99958, 187, 161, 202, 288
-0.99958, 285, 251, 300, 266
-0.99958, 133, 315, 148, 330
-0.999581, 187, 289, 202, 304
-0.999581, 139, 365, 154, 380
-0.999582, 295, 223, 310, 238
-0.999582, 59, 325, 74, 340
-0.999582, 185, 345, 200, 360
-0.999583, 137, 203, 152, 218
-0.999583, 305, 385, 320, 400
-0.999583, 313, 441, 328, 456
-0.999585, 209, 365, 224, 380
-0.999585, 159, 273, 174, 400
-0.999586, 167, 217, 182, 232
-0.999586, 61, 293, 76, 308
-0.999587, 313, 159, 328, 174
-0.999587, 289, 299, 304, 314
-0.999587, 157, 259, 172, 274
-0.999587, 193, 253, 208, 268
-0.999588, 133, 185, 148, 200
-0.999588, 149, 133, 164, 148
-0.999588, 93, 463, 108, 478
-0.999589, 213, 177, 228, 304
-0.999589, 293, 273, 308, 288
-0.999589, 317, 433, 332, 448
-0.999589, 171, 229, 186, 244
-0.99959, 171, 295, 186, 310
-0.999591, 47, 321, 62, 336
-0.999591, 181, 321, 196, 448
-0.999591, 293, 241, 308, 256
-0.999591, 291, 251, 306, 266
-0.999592, 129, 309, 144, 324
-0.999593, 289, 291, 304, 306
-0.999593, 313, 427, 328, 442
-0.999593, 145, 297, 160, 312
-0.999594, 83, 151, 98, 166
-0.999594, 311, 201, 326, 216
-0.999594, 141, 311, 156, 326
-0.999594, 119, 49, 134, 176
-0.999594, 161, 223, 176, 238
-0.999595, 191, 225, 206, 352
-0.999595, 139, 209, 154, 224
-0.999595, 237, 161, 268, 416
-0.999595, 117, 223, 132, 238
-0.999596, 135, 395, 150, 410
-0.999596, 63, 319, 78, 334
-0.999597, 309, 367, 324, 382
-0.999598, 293, 229, 308, 244
-0.999599, 53, 329, 68, 344
-0.999599, 41, 275, 56, 290
-0.999599, 305, 145, 320, 272
-0.999599, 187, 257, 202, 272
-0.9996, 305, 391, 320, 406
-0.999601, 143, 221, 158, 236
-0.999601, 183, 339, 198, 354
-0.999601, 177, 279, 192, 294
-0.999602, 301, 295, 316, 310
-0.999602, 151, 367, 166, 382
-0.999603, 193, 303, 208, 318
-0.999604, 253, 317, 268, 332
-0.999604, 121, 315, 136, 330
-0.999605, 265, 309, 280, 324
-0.999606, 131, 251, 146, 266
-0.999606, 179, 203, 194, 218
-0.999606, 153, 227, 168, 242
-0.999607, 199, 251, 214, 266
-0.999607, 151, 251, 166, 266
-0.999608, 267, 225, 282, 240
-0.999609, 97, 135, 112, 150
-0.999612, 317, 447, 332, 462
-0.999614, 99, 457, 114, 472
-0.999615, 109, 221, 124, 236
-0.999617, 169, 273, 184, 288
-0.99962, 303, 267, 318, 282
-0.999621, 133, 243, 148, 258
-0.999622, 171, 377, 186, 392
-0.999622, 315, 207, 330, 222
-0.999623, 297, 261, 312, 276
-0.999624, 207, 355, 222, 370
-0.999624, 181, 301, 196, 316
-0.999626, 195, 287, 210, 302
-0.99963, 285, 215, 300, 230
-0.999631, 315, 259, 330, 274
-0.999633, 35, 281, 50, 296
-0.999633, 317, 359, 332, 374
-0.999634, 183, 251, 198, 266
-0.999635, 305, 255, 320, 270
-0.999635, 183, 379, 198, 394
-0.999636, 161, 269, 176, 284
-0.999639, 115, 307, 130, 322
-0.999641, 285, 65, 316, 320
-0.999641, 309, 267, 324, 282
-0.999643, 317, 383, 332, 398
-0.999644, 145, 303, 160, 318
-0.999645, 259, 313, 274, 328
-0.999647, 291, 235, 306, 250
-0.999647, 167, 285, 182, 300
-0.999648, 35, 337, 50, 352
-0.999651, 175, 341, 190, 356
-0.999655, 49, 335, 64, 350
-0.999658, 297, 253, 312, 268
-0.999659, 175, 287, 190, 302
-0.999659, 123, 309, 138, 324
-0.999663, 295, 297, 310, 312
-0.999663, 139, 305, 154, 320
-0.999664, 53, 323, 68, 338
-0.999665, 187, 301, 202, 316
-0.999665, 287, 245, 302, 260
-0.999665, 181, 295, 196, 310
-0.999666, 93, 141, 108, 156
-0.999666, 43, 339, 58, 354
-0.999668, 109, 1, 140, 128
-0.999669, 169, 279, 184, 294
-0.99967, 303, 261, 318, 276
-0.999672, 193, 293, 208, 308
-0.999673, 313, 407, 328, 422
-0.999676, 313, 401, 328, 416
-0.999683, 313, 395, 328, 410
-0.999687, 141, 249, 156, 264
-0.999689, 309, 261, 324, 276
-0.999696, 47, 327, 62, 342
-0.999699, 91, 183, 106, 198
-0.999707, 139, 241, 154, 256
-0.999708, 147, 361, 162, 376
-0.999715, 155, 361, 170, 376
-0.999719, 163, 275, 178, 290
-0.999729, 311, 383, 326, 398
-0.999732, 313, 389, 328, 404
-0.999736, 25, 257, 56, 500
-0.999744, 245, 65, 276, 320
-0.999754, 187, 295, 202, 310
-0.999764, 41, 97, 72, 352
-0.999778, 313, 377, 328, 392
-0.999795, 43, 333, 58, 348
-0.999796, 315, 371, 330, 386
-0.999803, 317, 365, 332, 380
-0.999803, 209, 369, 272, 496
-0.999808, 265, 305, 296, 432
-0.999818, 55, 317, 70, 332
-0.999838, 249, 65, 312, 320
-0.999846, 167, 223, 182, 238
-0.999874, 45, 129, 76, 256
-0.999914, 25, 209, 56, 336
-0.999925, 177, 1, 208, 128
-0.999968, 193, 65, 224, 320
-1.00002, 297, 65, 328, 320
-1.00002, 229, 257, 260, 500
-1.00006, 1, 57, 333, 120
-1.00008, 217, 257, 248, 500
-1.00011, 65, 65, 96, 192
-1.00015, 213, 129, 244, 384
-1.00016, 253, 257, 284, 500
-1.00017, 1, 17, 333, 80
-1.00023, 277, 305, 308, 432
-1.00028, 233, 33, 264, 288
-1.0003, 161, 433, 288, 496
-1.00032, 257, 65, 288, 320
-1.00034, 241, 257, 272, 500
-1.00034, 13, 257, 44, 500
-1.00039, 29, 129, 60, 384
-1.00044, 133, 17, 164, 144
-1.00055, 209, 33, 240, 288
-1.00061, 265, 97, 296, 224
-1.00061, 33, 1, 64, 256
-1.00065, 1, 225, 32, 480
-1.00072, 5, 1, 36, 256
-1.00077, 221, 33, 252, 288
-1.00091, 21, 1, 52, 256
-1.00096, 209, 81, 240, 208
-1.00108, 45, 1, 76, 128
-1.00122, 245, 113, 276, 240
-1.00122, 277, 369, 308, 496
-1.00136, 193, 49, 224, 176
-1.00144, 13, 97, 44, 352
-1.00171, 1, 129, 32, 384
-1.00173, 201, 1, 232, 128
-1.00173, 265, 369, 296, 496
-1.00179, 293, 97, 324, 224
-1.00195, 53, 81, 84, 208
-1.00233, 241, 209, 272, 336
-1.00239, 233, 113, 264, 240
-1.00249, 245, 321, 276, 448
-1.00278, 5, 273, 36, 400
-1.00292, 209, 33, 272, 160
-1.00312, 1, 49, 64, 176
-1.00401, 9, 33, 72, 288
-1.00417, 33, 49, 96, 176
-1.0076, 273, 1, 333, 256
-1.00936, 265, 1, 328, 128
-1.01255, 273, 65, 333, 192
-1.01325, 241, 1, 304, 128
-1.01444, 233, 49, 296, 176
