1873
-0.390125, 1, 65, 500, 320
-0.534537, 1, 1, 256, 335
-0.535096, 1, 1, 500, 335
-0.589565, 161, 1, 416, 335
-0.604142, 193, 65, 448, 320
-0.650533, 1, 65, 256, 320
-0.690356, 257, 1, 500, 335
-0.726098, 97, 65, 352, 320
-0.874311, 225, 65, 352, 320
-0.878486, 1, 113, 500, 240
-0.880822, 177, 65, 304, 320
-0.882379, 273, 65, 400, 320
-0.886821, 1, 65, 128, 320
-0.889866, 1, 193, 500, 320
-0.890861, 129, 65, 256, 320
-0.903078, 193, 161, 448, 288
-0.903835, 65, 65, 192, 320
-0.905358, 337, 1, 464, 335
-0.905983, 369, 65, 496, 320
-0.908197, 321, 65, 448, 320
-0.908518, 209, 1, 336, 335
-0.910704, 273, 1, 400, 335
-0.911624, 129, 1, 256, 335
-0.915373, 1, 193, 256, 320
-0.919945, 81, 1, 208, 335
-0.920335, 17, 1, 144, 335
-0.922532, 33, 97, 288, 224
-0.924301, 33, 145, 288, 272
-0.926492, 265, 113, 328, 240
-0.926967, 225, 113, 480, 240
-0.931253, 257, 145, 384, 272
-0.931809, 129, 113, 384, 240
-0.932215, 1, 129, 128, 256
-0.932243, 177, 193, 304, 320
-0.933056, 97, 193, 352, 320
-0.93438, 193, 209, 448, 335
-0.936479, 369, 129, 496, 256
-0.936821, 233, 129, 296, 256
-0.939497, 257, 161, 320, 288
-0.940013, 233, 177, 296, 304
-0.940575, 209, 145, 336, 272
-0.940591, 9, 129, 72, 256
-0.940779, 49, 113, 176, 240
-0.941592, 297, 129, 360, 256
-0.942049, 337, 177, 400, 304
-0.943167, 49, 177, 176, 304
-0.943416, 1, 65, 500, 192
-0.94363, 225, 65, 480, 192
-0.944312, 209, 161, 272, 288
-0.945083, 289, 193, 416, 320
-0.945119, 145, 145, 272, 272
-0.945154, 1, 209, 128, 335
-0.946055, 289, 97, 416, 224
-0.94704, 129, 209, 256, 335
-0.947076, 49, 113, 112, 240
-0.948656, 97, 161, 224, 288
-0.949327, 281, 177, 344, 304
-0.949343, 337, 177, 464, 304
-0.94991, 345, 129, 408, 256
-0.949915, 185, 193, 248, 320
-0.95076, 129, 97, 256, 224
-0.95083, 425, 113, 488, 240
-0.951192, 281, 161, 344, 224
-0.951413, 89, 129, 152, 256
-0.951756, 385, 113, 448, 240
-0.952977, 49, 113, 112, 176
-0.954324, 65, 193, 128, 320
-0.954359, 225, 193, 352, 320
-0.954711, 177, 233, 240, 296
-0.955455, 313, 177, 376, 304
-0.955662, 329, 233, 392, 296
-0.955913, 209, 209, 272, 335
-0.955963, 241, 97, 368, 224
-0.956004, 321, 113, 384, 240
-0.95608, 297, 121, 360, 184
-0.956961, 17, 121, 80, 184
-0.957008, 249, 113, 312, 176
-0.957049, 393, 177, 456, 304
-0.957094, 177, 97, 304, 224
-0.9571, 89, 193, 152, 320
-0.957208, 41, 137, 104, 200
-0.957864, 249, 137, 312, 200
-0.958096, 313, 185, 376, 248
-0.95815, 161, 193, 224, 320
-0.958279, 209, 161, 272, 224
-0.958834, 65, 65, 192, 192
-0.958989, 385, 113, 448, 176
-0.959122, 425, 121, 488, 184
-0.95919, 297, 225, 360, 288
-0.959208, 257, 161, 320, 224
-0.959339, 233, 161, 296, 224
-0.959356, 361, 209, 424, 335
-0.95936, 129, 113, 192, 240
-0.959456, 313, 65, 376, 192
-0.959594, 273, 129, 336, 192
-0.959843, 369, 273, 432, 335
-0.960227, 297, 249, 360, 312
-0.960554, 321, 129, 384, 192
-0.961142, 313, 153, 376, 216
-0.961382, 409, 273, 472, 335
-0.961531, 73, 273, 136, 335
-0.961789, 281, 65, 344, 192
-0.962293, 233, 81, 296, 208
-0.962446, 353, 241, 416, 304
-0.962929, 217, 241, 280, 304
-0.963121, 161, 113, 224, 240
-0.963138, 409, 249, 472, 312
-0.963226, 33, 209, 96, 335
-0.963423, 89, 145, 152, 208
-0.963852, 361, 137, 424, 200
-0.96388, 153, 225, 216, 288
-0.964161, 257, 209, 320, 335
-0.964255, 345, 193, 408, 256
-0.964374, 185, 145, 248, 272
-0.964394, 89, 217, 152, 280
-0.964873, 73, 121, 136, 184
-0.964991, 129, 225, 192, 288
-0.96509, 169, 201, 232, 264
-0.965093, 361, 169, 424, 232
-0.965423, 57, 209, 120, 272
-0.965464, 401, 169, 464, 232
-0.965519, 145, 193, 208, 256
-0.965947, 129, 65, 384, 192
-0.965953, 209, 113, 272, 240
-0.966076, 329, 273, 392, 335
-0.966119, 49, 185, 112, 248
-0.966193, 113, 193, 176, 320
-0.966218, 113, 129, 176, 192
-0.966299, 1, 81, 128, 208
-0.966636, 97, 249, 160, 312
-0.967247, 273, 217, 336, 280
-0.967575, 225, 137, 288, 200
-0.967577, 45, 129, 76, 192
-0.967812, 257, 65, 320, 192
-0.968078, 345, 81, 408, 208
-0.968134, 369, 161, 432, 288
-0.968203, 273, 249, 336, 312
-0.968296, 89, 193, 152, 256
-0.968297, 33, 161, 96, 288
-0.968354, 137, 121, 200, 184
-0.968447, 17, 145, 80, 208
-0.968457, 185, 113, 248, 176
-0.968482, 137, 273, 200, 335
-0.968543, 377, 241, 440, 304
-0.968941, 9, 177, 72, 304
-0.969088, 137, 193, 200, 320
-0.969678, 297, 273, 360, 335
-0.969968, 81, 169, 144, 232
-0.970006, 257, 65, 320, 320
-0.970049, 269, 113, 300, 240
-0.970052, 241, 241, 304, 304
-0.97024, 113, 185, 176, 248
-0.970472, 73, 249, 136, 312
-0.970656, 137, 65, 200, 192
-0.970657, 113, 153, 176, 216
-0.970688, 337, 169, 400, 232
-0.970786, 229, 161, 260, 288
-0.970988, 321, 241, 448, 304
-0.971046, 273, 185, 336, 248
-0.971421, 301, 113, 332, 240
-0.971517, 1, 201, 64, 264
-0.97152, 177, 257, 240, 320
-0.971684, 369, 169, 496, 232
-0.971848, 425, 145, 488, 208
-0.971928, 401, 145, 464, 208
-0.971974, 153, 249, 216, 312
-0.972049, 97, 273, 160, 335
-0.972132, 433, 249, 496, 312
-0.972167, 161, 49, 224, 176
-0.972196, 57, 113, 88, 176
-0.972422, 433, 273, 496, 335
-0.972649, 49, 161, 112, 224
-0.97276, 269, 161, 300, 224
-0.972764, 49, 209, 176, 272
-0.972867, 33, 121, 160, 184
-0.973078, 273, 233, 400, 296
-0.97322, 353, 113, 416, 176
-0.973237, 9, 233, 72, 296
-0.973242, 193, 201, 256, 264
-0.97345, 209, 161, 336, 224
-0.973702, 145, 153, 208, 216
-0.973795, 309, 161, 340, 224
-0.973817, 177, 161, 240, 224
-0.973846, 57, 97, 88, 224
-0.973998, 369, 121, 496, 184
-0.974284, 9, 177, 72, 240
-0.97438, 289, 169, 416, 232
-0.974382, 129, 249, 192, 312
-0.974484, 273, 97, 336, 160
-0.974504, 281, 97, 312, 224
-0.974584, 25, 201, 88, 264
-0.974668, 433, 193, 496, 320
-0.974668, 193, 241, 320, 304
-0.974729, 185, 97, 248, 224
-0.974744, 217, 185, 280, 248
-0.974791, 265, 177, 296, 304
-0.974829, 25, 81, 88, 208
-0.974844, 241, 161, 272, 288
-0.974902, 249, 201, 312, 264
-0.974912, 369, 81, 496, 208
-0.974949, 189, 193, 220, 320
-0.97495, 25, 129, 56, 192
-0.974961, 129, 233, 256, 296
-0.975039, 269, 113, 300, 176
-0.975287, 69, 129, 100, 192
-0.975326, 345, 33, 408, 160
-0.975342, 297, 65, 360, 320
-0.975394, 49, 233, 112, 296
-0.975483, 217, 65, 280, 320
-0.975651, 161, 153, 288, 216
-0.975759, 209, 193, 240, 320
-0.975785, 81, 185, 208, 248
-0.975832, 305, 121, 336, 184
-0.97594, 297, 169, 328, 232
-0.976, 361, 177, 392, 304
-0.976098, 393, 177, 424, 240
-0.976147, 257, 265, 384, 328
-0.976195, 321, 169, 352, 232
-0.976233, 377, 129, 408, 256
-0.976354, 337, 265, 464, 328
-0.976362, 241, 121, 368, 184
-0.976385, 69, 105, 100, 168
-0.976493, 329, 241, 360, 304
-0.976623, 285, 161, 316, 288
-0.976659, 1, 209, 128, 272
-0.976677, 249, 113, 280, 240
-0.976728, 145, 201, 272, 264
-0.976874, 385, 177, 416, 304
-0.976902, 289, 121, 416, 184
-0.977028, 209, 145, 240, 272
-0.977163, 305, 177, 336, 304
-0.977186, 253, 177, 284, 304
-0.977217, 57, 161, 88, 288
-0.977351, 145, 97, 208, 160
-0.977377, 365, 241, 396, 304
-0.977402, 37, 113, 68, 240
-0.977425, 57, 65, 120, 320
-0.97743, 201, 137, 264, 200
-0.977514, 397, 257, 428, 320
-0.97753, 81, 161, 208, 224
-0.977567, 305, 241, 336, 304
-0.97759, 73, 113, 104, 240
-0.977609, 341, 177, 372, 304
-0.977631, 57, 137, 88, 200
-0.977698, 73, 81, 136, 208
-0.977746, 321, 129, 352, 192
-0.977765, 193, 145, 224, 272
-0.977836, 289, 193, 416, 256
-0.977908, 249, 161, 280, 224
-0.97796, 349, 249, 380, 312
-0.978007, 17, 129, 48, 256
-0.97807, 1, 145, 128, 208
-0.978205, 249, 129, 280, 192
-0.978244, 209, 105, 272, 168
-0.978269, 105, 209, 136, 272
-0.978485, 181, 225, 212, 288
-0.978519, 321, 209, 384, 272
-0.978571, 17, 185, 144, 248
-0.978626, 229, 161, 260, 224
-0.978656, 137, 113, 168, 240
-0.978667, 89, 137, 120, 200
-0.9787, 161, 65, 224, 320
-0.978711, 361, 217, 424, 280
-0.978733, 185, 65, 248, 320
-0.978736, 81, 193, 112, 256
-0.978798, 173, 113, 204, 176
-0.978825, 385, 193, 448, 256
-0.978975, 5, 129, 36, 256
-0.97901, 289, 49, 416, 176
-0.979071, 393, 233, 424, 296
-0.979095, 121, 129, 152, 256
-0.979116, 409, 273, 440, 335
-0.979119, 65, 249, 192, 312
-0.979145, 169, 193, 200, 256
-0.979159, 449, 113, 480, 240
-0.979214, 381, 169, 412, 232
-0.979253, 377, 257, 408, 320
-0.979267, 237, 129, 268, 192
-0.979346, 409, 153, 440, 216
-0.979372, 349, 129, 380, 256
-0.979415, 153, 225, 184, 288
-0.979425, 285, 129, 316, 192
-0.979443, 409, 113, 440, 240
-0.979504, 357, 129, 388, 192
-0.979511, 161, 129, 288, 192
-0.979556, 9, 65, 72, 320
-0.979556, 437, 121, 468, 184
-0.979572, 297, 145, 328, 208
-0.979605, 81, 121, 208, 184
-0.979624, 433, 169, 496, 232
-0.979672, 105, 185, 136, 248
-0.979826, 365, 169, 396, 232
-0.97991, 129, 129, 160, 192
-0.979937, 161, 177, 288, 240
-0.979978, 409, 113, 440, 176
-0.979995, 345, 129, 376, 192
-0.980012, 161, 49, 288, 176
-0.980064, 305, 145, 432, 208
-0.980096, 1, 81, 64, 208
-0.980109, 129, 193, 160, 320
-0.980172, 257, 145, 384, 208
-0.980224, 61, 161, 92, 224
-0.980255, 81, 209, 112, 335
-0.980263, 325, 113, 356, 240
-0.980285, 33, 65, 96, 320
-0.980294, 125, 217, 156, 280
-0.980296, 453, 257, 484, 320
-0.980327, 341, 153, 372, 216
-0.980337, 193, 233, 224, 296
-0.980339, 125, 257, 156, 320
-0.980409, 45, 153, 76, 216
-0.980458, 317, 193, 348, 320
-0.980526, 201, 201, 232, 264
-0.980532, 1, 233, 128, 296
-0.980633, 85, 113, 116, 240
-0.980635, 109, 129, 140, 256
-0.98065, 209, 201, 336, 264
-0.980708, 233, 89, 296, 152
-0.980818, 381, 233, 412, 296
-0.980881, 69, 161, 100, 288
-0.980885, 41, 265, 104, 328
-0.980892, 161, 81, 192, 208
-0.981017, 109, 153, 140, 216
-0.981017, 273, 273, 336, 335
-0.98102, 369, 145, 496, 208
-0.981067, 393, 113, 424, 240
-0.98107, 201, 265, 264, 328
-0.981073, 401, 65, 464, 320
-0.98108, 1, 49, 256, 176
-0.981189, 97, 209, 224, 272
-0.981209, 285, 161, 316, 224
-0.981274, 189, 201, 220, 264
-0.98128, 229, 113, 260, 240
-0.981352, 193, 105, 320, 168
-0.98139, 373, 177, 404, 304
-0.981392, 145, 121, 176, 184
-0.981406, 53, 193, 84, 256
-0.981422, 345, 225, 376, 288
-0.981472, 153, 185, 184, 248
-0.981572, 93, 161, 124, 224
-0.981612, 369, 241, 496, 304
-0.981628, 261, 137, 292, 200
-0.981634, 317, 225, 348, 288
-0.98172, 161, 129, 224, 192
-0.981787, 377, 129, 408, 192
-0.981834, 297, 41, 360, 104
-0.981854, 417, 249, 448, 312
-0.981858, 393, 113, 424, 176
-0.981928, 217, 161, 248, 224
-0.98198, 449, 121, 480, 184
-0.982024, 97, 129, 128, 256
-0.982028, 297, 201, 328, 264
-0.982038, 393, 153, 424, 216
-0.982069, 213, 233, 244, 296
-0.982111, 365, 113, 396, 240
-0.982255, 441, 273, 472, 335
-0.982279, 33, 201, 64, 264
-0.982351, 117, 193, 148, 256
-0.982439, 169, 209, 200, 335
-0.982458, 157, 145, 188, 272
-0.982479, 145, 193, 176, 320
-0.982526, 169, 137, 200, 200
-0.982628, 305, 97, 368, 160
-0.982653, 213, 113, 244, 176
-0.982673, 353, 65, 416, 320
-0.982709, 237, 209, 268, 335
-0.982747, 469, 129, 500, 256
-0.982756, 409, 65, 472, 192
-0.982758, 193, 113, 224, 176
-0.982778, 105, 265, 136, 328
-0.982789, 157, 121, 188, 184
-0.982842, 313, 129, 344, 256
-0.982935, 345, 185, 376, 248
-0.982947, 221, 209, 252, 335
-0.982959, 249, 265, 312, 328
-0.983109, 1, 265, 128, 328
-0.983182, 101, 193, 132, 320
-0.983184, 141, 193, 172, 256
-0.983225, 381, 193, 412, 256
-0.983249, 317, 249, 348, 312
-0.983271, 213, 137, 244, 200
-0.9833, 93, 273, 124, 335
-0.983308, 329, 177, 360, 304
-0.983354, 1, 193, 32, 320
-0.983364, 81, 265, 112, 328
-0.983424, 113, 265, 240, 328
-0.983433, 137, 217, 168, 280
-0.983512, 13, 137, 44, 200
-0.983551, 65, 185, 96, 248
-0.983575, 421, 273, 452, 335
-0.983728, 177, 273, 304, 335
-0.983754, 341, 273, 372, 335
-0.983756, 309, 185, 340, 248
-0.983818, 461, 121, 492, 184
-0.983836, 49, 65, 112, 192
-0.983839, 93, 193, 124, 256
-0.983883, 305, 65, 336, 192
-0.983963, 273, 73, 336, 136
-0.984033, 65, 273, 192, 335
-0.984043, 289, 265, 320, 328
-0.984106, 81, 169, 112, 232
-0.984139, 149, 153, 180, 216
-0.984146, 429, 113, 460, 240
-0.984148, 185, 137, 216, 200
-0.984159, 417, 97, 480, 160
-0.984171, 321, 217, 448, 280
-0.984173, 365, 193, 396, 256
-0.984185, 137, 153, 168, 216
-0.984193, 401, 177, 432, 304
-0.984259, 165, 217, 196, 280
-0.984362, 161, 17, 416, 144
-0.984424, 329, 105, 392, 168
-0.984521, 225, 241, 256, 304
-0.984638, 117, 193, 148, 320
-0.98467, 405, 177, 436, 240
-0.984695, 345, 81, 376, 208
-0.984717, 393, 217, 456, 280
-0.984752, 313, 73, 376, 136
-0.984807, 145, 105, 272, 168
-0.984831, 361, 273, 392, 335
-0.984832, 105, 81, 168, 208
-0.984836, 421, 121, 452, 184
-0.984859, 377, 1, 440, 256
-0.984861, 273, 49, 336, 112
-0.98492, 321, 193, 352, 256
-0.984948, 253, 241, 284, 304
-0.98495, 77, 217, 108, 280
-0.985005, 341, 105, 372, 168
-0.98512, 65, 217, 96, 280
-0.985124, 149, 97, 180, 224
-0.98514, 337, 193, 464, 256
-0.985153, 73, 97, 136, 160
-0.98517, 301, 49, 332, 112
-0.985186, 89, 65, 152, 320
-0.985219, 441, 249, 472, 312
-0.985306, 237, 241, 268, 304
-0.9854, 369, 41, 432, 104
-0.985451, 217, 217, 280, 280
-0.985565, 41, 161, 72, 288
-0.985595, 329, 65, 392, 320
-0.985658, 229, 201, 260, 264
-0.98566, 297, 17, 360, 144
-0.985755, 177, 145, 208, 272
-0.985773, 289, 241, 320, 304
-0.985778, 173, 97, 204, 224
-0.985814, 33, 161, 64, 224
-0.985828, 225, 137, 256, 200
-0.985872, 429, 249, 460, 312
-0.985951, 377, 65, 440, 192
-0.985956, 81, 161, 112, 288
-0.986006, 25, 97, 88, 160
-0.986013, 369, 217, 496, 280
-0.986182, 409, 9, 472, 72
-0.986185, 465, 257, 496, 320
-0.986199, 233, 33, 296, 160
-0.986211, 121, 153, 152, 216
-0.986261, 333, 177, 364, 240
-0.986278, 93, 217, 124, 280
-0.98631, 49, 97, 176, 160
-0.98635, 353, 153, 384, 216
-0.986438, 469, 169, 500, 232
-0.986438, 41, 105, 72, 168
-0.986506, 193, 161, 224, 224
-0.986533, 65, 209, 96, 335
-0.986541, 129, 193, 160, 256
-0.986559, 321, 97, 448, 160
-0.986621, 345, 57, 408, 120
-0.986645, 109, 233, 140, 296
-0.986647, 277, 241, 308, 304
-0.986701, 421, 161, 452, 224
-0.986891, 201, 97, 232, 224
-0.986906, 225, 49, 352, 176
-0.986973, 209, 65, 272, 192
-0.98699, 357, 65, 388, 192
-0.98699, 369, 97, 496, 160
-0.987036, 29, 161, 60, 288
-0.987047, 273, 97, 400, 160
-0.987116, 97, 105, 160, 168
-0.987345, 157, 193, 188, 320
-0.987348, 409, 1, 472, 335
-0.987352, 417, 225, 480, 288
-0.987362, 137, 65, 200, 320
-0.987584, 137, 1, 200, 335
-0.987593, 225, 265, 288, 328
-0.987666, 293, 65, 324, 192
-0.987778, 257, 65, 288, 192
-0.987779, 13, 193, 44, 320
-0.988056, 185, 97, 216, 224
-0.988095, 281, 209, 312, 335
-0.988201, 73, 65, 104, 192
-0.98836, 361, 173, 424, 204
-0.988516, 433, 65, 496, 320
-0.988638, 293, 209, 324, 335
-0.988719, 305, 165, 368, 196
-0.988747, 281, 157, 344, 188
-0.988846, 25, 129, 88, 160
-0.988932, 265, 1, 328, 335
-0.988951, 337, 1, 400, 335
-0.98906, 49, 117, 112, 148
-0.989067, 265, 133, 328, 164
-0.989142, 433, 129, 496, 160
-0.989177, 433, 1, 496, 64
-0.989204, 177, 81, 240, 144
-0.989253, 321, 185, 384, 216
-0.989255, 369, 265, 432, 296
-0.989272, 249, 165, 312, 196
-0.989398, 469, 209, 500, 335
-0.98943, 337, 173, 400, 204
-0.989432, 41, 141, 104, 172
-0.989435, 377, 185, 440, 216
-0.989437, 65, 137, 128, 168
-0.989452, 401, 277, 464, 308
-0.989464, 385, 17, 448, 144
-0.98947, 393, 121, 456, 152
-0.989472, 297, 177, 360, 208
-0.989475, 257, 121, 500, 184
-0.989491, 1, 97, 64, 160
-0.989509, 337, 261, 400, 292
-0.989601, 213, 97, 244, 224
-0.989618, 233, 133, 296, 164
-0.989659, 185, 237, 248, 268
-0.989695, 345, 277, 408, 308
-0.989739, 153, 229, 216, 260
-0.989765, 305, 149, 368, 180
-0.989786, 1, 169, 500, 232
-0.989808, 421, 177, 452, 304
-0.989808, 321, 125, 384, 156
-0.989856, 81, 261, 144, 292
-0.989901, 265, 249, 328, 280
-0.989917, 433, 141, 496, 172
-0.989964, 257, 73, 384, 136
-0.98998, 393, 161, 456, 192
-0.989996, 249, 117, 312, 148
-0.990002, 65, 213, 128, 244
-0.990033, 225, 181, 288, 212
-0.990033, 105, 133, 168, 164
-0.990034, 337, 161, 400, 192
-0.990047, 1, 133, 64, 164
-0.990053, 353, 193, 416, 224
-0.990116, 273, 121, 336, 152
-0.990142, 273, 181, 336, 212
-0.990147, 329, 237, 392, 268
-0.990173, 313, 253, 376, 284
-0.990191, 193, 161, 448, 224
-0.990195, 393, 33, 456, 96
-0.990206, 377, 149, 440, 180
-0.99024, 257, 197, 320, 228
-0.990244, 297, 193, 360, 224
-0.990248, 281, 225, 344, 256
-0.990299, 177, 109, 240, 140
-0.990319, 81, 285, 144, 316
-0.990325, 425, 281, 488, 312
-0.990341, 353, 289, 416, 320
-0.990354, 209, 133, 272, 164
-0.990362, 153, 121, 216, 152
-0.990385, 361, 137, 424, 168
-0.990411, 305, 137, 368, 168
-0.990454, 281, 145, 344, 176
-0.990474, 273, 169, 336, 200
-0.990493, 369, 1, 496, 128
-0.990503, 273, 261, 336, 292
-0.990535, 425, 261, 488, 292
-0.990555, 81, 125, 144, 156
-0.990556, 337, 129, 368, 256
-0.990562, 1, 229, 64, 260
-0.990579, 249, 153, 312, 184
-0.990586, 297, 237, 360, 268
-0.990616, 305, 269, 368, 300
-0.990626, 337, 137, 400, 168
-0.990627, 129, 133, 192, 164
-0.990628, 177, 205, 240, 236
-0.990639, 313, 73, 376, 104
-0.990649, 65, 233, 320, 296
-0.990671, 121, 225, 184, 256
-0.990687, 121, 249, 184, 280
-0.990694, 209, 165, 272, 196
-0.990698, 337, 149, 400, 180
-0.990699, 393, 137, 456, 168
-0.990717, 1, 273, 64, 335
-0.99074, 225, 1, 288, 335
-0.990774, 217, 245, 280, 276
-0.990785, 41, 153, 104, 184
-0.990786, 73, 297, 136, 328
-0.990807, 297, 125, 360, 156
-0.990818, 89, 149, 152, 180
-0.99082, 129, 197, 192, 228
-0.990829, 65, 193, 128, 224
-0.990836, 89, 161, 152, 192
-0.990853, 41, 209, 104, 240
-0.990858, 385, 297, 448, 328
-0.990868, 401, 173, 464, 204
-0.990875, 193, 121, 256, 152
-0.990888, 161, 245, 224, 276
-0.990895, 313, 205, 376, 236
-0.990901, 377, 277, 440, 308
-0.990911, 433, 153, 496, 184
-0.99092, 249, 181, 312, 212
-0.990921, 401, 189, 464, 220
-0.990925, 313, 281, 376, 312
-0.99095, 353, 121, 416, 152
-0.990988, 393, 261, 456, 292
-0.990991, 145, 105, 208, 136
-0.991004, 265, 1, 328, 128
-0.991008, 81, 273, 144, 304
-0.991012, 73, 245, 136, 276
-0.991014, 353, 241, 416, 272
-0.99102, 33, 193, 96, 224
-0.991026, 193, 193, 256, 224
-0.991048, 1, 145, 64, 176
-0.991074, 145, 265, 208, 296
-0.99108, 129, 237, 192, 268
-0.991087, 369, 253, 432, 284
-0.99111, 289, 249, 352, 280
-0.991119, 129, 153, 192, 184
-0.991132, 169, 1, 232, 335
-0.991132, 153, 217, 216, 248
-0.991148, 225, 121, 288, 152
-0.991205, 41, 225, 104, 256
-0.991208, 89, 217, 152, 248
-0.991215, 225, 153, 288, 184
-0.991296, 105, 293, 168, 324
-0.991302, 353, 301, 416, 332
-0.991304, 137, 281, 200, 312
-0.991311, 241, 253, 304, 284
-0.991316, 1, 121, 500, 184
-0.991317, 201, 1, 264, 335
-0.991331, 113, 33, 176, 288
-0.991342, 297, 1, 360, 335
-0.99135, 153, 201, 216, 232
-0.991361, 185, 169, 248, 200
-0.991367, 361, 1, 424, 335
-0.991372, 177, 277, 240, 308
-0.991373, 89, 197, 152, 228
-0.991375, 37, 65, 68, 192
-0.991378, 425, 201, 488, 264
-0.991385, 217, 193, 280, 224
-0.99139, 25, 117, 88, 148
-0.991426, 65, 201, 320, 264
-0.991432, 393, 89, 456, 152
-0.991434, 433, 177, 464, 304
-0.991436, 121, 269, 184, 300
-0.991444, 113, 213, 176, 244
-0.991444, 333, 65, 364, 192
-0.991449, 361, 161, 424, 192
-0.991456, 1, 205, 64, 236
-0.991461, 225, 233, 480, 296
-0.991467, 129, 121, 192, 152
-0.991475, 65, 153, 128, 184
-0.991509, 49, 173, 112, 204
-0.99155, 241, 237, 304, 268
-0.991582, 97, 249, 160, 280
-0.991585, 113, 281, 176, 312
-0.991598, 329, 293, 392, 324
-0.991609, 153, 161, 216, 192
-0.99161, 305, 225, 368, 256
-0.991618, 25, 1, 88, 335
-0.991677, 225, 265, 480, 328
-0.991685, 453, 193, 484, 320
-0.991692, 433, 65, 496, 192
-0.991705, 1, 241, 500, 304
-0.991864, 161, 113, 416, 176
-0.991901, 49, 89, 112, 152
-0.99193, 129, 137, 384, 200
-0.991965, 33, 113, 288, 176
-0.991984, 113, 1, 176, 335
-0.992034, 433, 1, 496, 335
-0.992116, 297, 165, 328, 196
-0.992157, 101, 81, 132, 208
-0.99218, 185, 49, 248, 176
-0.992245, 209, 81, 336, 144
-0.992253, 173, 49, 204, 176
-0.992266, 49, 1, 112, 335
-0.992318, 33, 169, 288, 232
-0.992347, 29, 133, 60, 164
-0.992352, 317, 65, 348, 192
-0.992354, 9, 81, 40, 208
-0.992357, 33, 137, 288, 200
-0.992382, 281, 245, 312, 276
-0.992428, 37, 209, 68, 335
-0.992437, 301, 153, 332, 184
-0.992439, 53, 141, 84, 172
-0.99245, 469, 125, 500, 156
-0.992452, 69, 137, 100, 168
-0.992452, 313, 169, 344, 200
-0.992457, 377, 261, 408, 292
-0.992462, 237, 133, 268, 164
-0.992464, 81, 133, 112, 164
-0.992471, 325, 165, 356, 196
-0.992471, 329, 249, 360, 280
-0.99248, 361, 241, 392, 272
-0.992489, 65, 109, 96, 140
-0.992499, 377, 173, 408, 204
-0.992499, 301, 137, 332, 168
-0.9925, 361, 177, 392, 208
-0.992502, 329, 269, 360, 300
-0.992503, 57, 129, 88, 160
-0.992511, 361, 281, 392, 312
-0.992517, 357, 257, 388, 288
-0.992519, 389, 181, 420, 212
-0.992528, 333, 237, 364, 268
-0.992528, 269, 65, 300, 192
-0.992533, 137, 129, 168, 160
-0.992535, 341, 185, 372, 216
-0.992544, 269, 165, 300, 196
-0.992551, 353, 189, 384, 220
-0.992553, 285, 157, 316, 188
-0.992561, 341, 253, 372, 284
-0.992569, 1, 1, 64, 335
-0.99257, 401, 185, 432, 216
-0.992572, 169, 229, 200, 260
-0.992576, 349, 237, 380, 268
-0.992587, 337, 169, 368, 200
-0.992588, 445, 125, 476, 156
-0.992592, 161, 105, 192, 136
-0.992593, 381, 161, 412, 192
-0.992596, 325, 181, 356, 212
-0.992602, 405, 269, 436, 300
-0.99261, 269, 133, 300, 164
-0.992615, 405, 169, 436, 200
-0.992619, 381, 289, 412, 320
-0.992622, 413, 301, 444, 332
-0.992624, 201, 137, 232, 168
-0.992634, 89, 157, 120, 188
-0.992634, 237, 169, 268, 200
-0.992635, 297, 177, 328, 208
-0.992635, 301, 257, 332, 288
-0.992645, 393, 265, 424, 296
-0.99265, 309, 181, 340, 212
-0.992656, 189, 233, 220, 264
-0.992657, 353, 89, 416, 152
-0.992657, 125, 129, 156, 160
-0.992669, 353, 161, 384, 192
-0.99267, 313, 245, 344, 276
-0.992671, 249, 185, 280, 216
-0.992678, 349, 277, 380, 308
-0.992683, 53, 209, 84, 335
-0.992683, 349, 173, 380, 204
-0.992684, 361, 269, 392, 300
-0.992691, 193, 117, 224, 148
-0.992695, 365, 193, 396, 224
-0.992695, 41, 129, 72, 160
-0.992697, 393, 293, 424, 324
-0.992699, 393, 153, 424, 184
-0.9927, 377, 277, 408, 308
-0.992709, 69, 153, 100, 184
-0.992715, 117, 281, 148, 312
-0.992716, 421, 273, 452, 304
-0.99272, 209, 113, 240, 144
-0.992721, 137, 217, 168, 248
-0.992722, 393, 169, 424, 200
-0.992724, 193, 185, 448, 248
-0.992727, 1, 273, 500, 335
-0.99273, 361, 125, 392, 156
-0.992735, 393, 137, 424, 168
-0.992735, 109, 141, 140, 172
-0.992747, 297, 189, 328, 220
-0.992748, 237, 185, 268, 216
-0.992751, 409, 121, 440, 152
-0.992753, 369, 157, 400, 188
-0.992754, 469, 81, 500, 208
-0.992756, 457, 125, 488, 156
-0.992761, 377, 133, 408, 164
-0.992763, 45, 153, 76, 184
-0.992772, 393, 281, 424, 312
-0.992779, 469, 289, 500, 320
-0.992785, 425, 305, 456, 335
-0.99279, 445, 281, 476, 312
-0.992793, 425, 157, 456, 188
-0.992796, 209, 241, 240, 272
-0.992797, 469, 137, 500, 168
-0.9928, 353, 141, 384, 172
-0.992801, 25, 81, 56, 208
-0.992805, 101, 157, 132, 188
-0.992806, 221, 241, 252, 272
-0.992808, 157, 121, 188, 152
-0.992808, 217, 173, 248, 204
-0.992814, 425, 121, 456, 152
-0.992821, 217, 161, 248, 192
-0.992831, 181, 121, 212, 152
-0.992835, 461, 277, 492, 308
-0.992837, 281, 133, 312, 164
-0.992844, 77, 213, 108, 244
-0.992845, 281, 145, 312, 176
-0.992848, 309, 193, 340, 224
-0.992849, 433, 261, 464, 292
-0.99285, 257, 133, 288, 164
-0.99285, 377, 245, 408, 276
-0.992851, 385, 193, 416, 224
-0.992854, 81, 145, 112, 176
-0.992855, 137, 253, 168, 284
-0.992859, 161, 89, 192, 120
-0.99286, 433, 277, 464, 308
-0.992867, 341, 129, 372, 160
-0.992868, 289, 257, 320, 288
-0.99288, 265, 253, 296, 284
-0.992881, 105, 129, 136, 160
-0.992894, 317, 265, 348, 296
-0.992895, 249, 161, 280, 192
-0.992895, 169, 213, 200, 244
-0.992899, 89, 213, 120, 244
-0.9929, 149, 197, 180, 228
-0.992901, 445, 261, 476, 292
-0.992901, 173, 109, 204, 140
-0.99291, 301, 245, 332, 276
-0.99291, 189, 141, 220, 172
-0.992914, 317, 229, 348, 260
-0.992917, 413, 189, 444, 220
-0.992917, 129, 257, 384, 320
-0.992918, 157, 225, 188, 256
-0.992919, 81, 265, 112, 296
-0.992921, 393, 125, 424, 156
-0.992922, 121, 217, 152, 248
-0.992927, 405, 153, 436, 184
-0.992928, 201, 149, 232, 180
-0.992931, 185, 201, 216, 232
-0.993088, 249, 57, 312, 120
-0.993114, 57, 49, 88, 176
-0.993443, 257, 17, 500, 144
-0.993529, 289, 177, 416, 208
-0.993532, 33, 133, 160, 164
-0.993672, 289, 257, 416, 288
-0.993805, 53, 129, 68, 192
-0.993873, 193, 89, 448, 152
-0.9939, 289, 165, 416, 196
-0.993913, 1, 201, 500, 264
-0.993924, 61, 113, 76, 176
-0.993958, 353, 273, 480, 304
-0.993979, 369, 125, 496, 156
-0.993993, 113, 81, 144, 208
-0.994081, 145, 81, 272, 144
-0.994102, 433, 65, 464, 192
-0.994128, 319, 153, 334, 216
-0.994169, 33, 145, 160, 176
-0.994173, 71, 105, 86, 168
-0.994176, 63, 137, 78, 200
-0.994202, 317, 129, 332, 192
-0.994268, 129, 237, 256, 268
-0.994336, 361, 233, 376, 296
-0.994337, 273, 17, 336, 80
-0.994393, 81, 1, 144, 335
-0.994394, 337, 169, 464, 200
-0.994398, 241, 169, 368, 200
-0.994416, 287, 121, 302, 184
-0.99443, 1, 145, 500, 208
-0.994451, 33, 221, 160, 252
-0.994485, 293, 137, 308, 200
-0.994535, 293, 161, 308, 224
-0.994557, 353, 257, 368, 320
-0.994569, 337, 181, 464, 212
-0.99457, 97, 97, 224, 160
-0.99457, 417, 265, 432, 328
-0.994597, 445, 121, 460, 184
-0.994604, 305, 33, 432, 96
-0.994604, 289, 241, 416, 272
-0.994614, 209, 81, 272, 144
-0.994618, 225, 49, 352, 112
-0.994644, 85, 65, 116, 192
-0.994649, 369, 157, 496, 188
-0.994686, 289, 189, 416, 220
-0.994689, 209, 185, 336, 216
-0.99469, 385, 1, 448, 335
-0.994788, 315, 177, 330, 240
-0.994791, 305, 201, 320, 264
-0.994803, 301, 137, 316, 200
-0.994806, 417, 1, 480, 128
-0.994821, 403, 169, 418, 232
-0.994829, 271, 161, 286, 224
-0.994844, 301, 161, 316, 224
-0.99485, 411, 273, 426, 335
-0.994867, 161, 209, 416, 272
-0.994877, 369, 33, 496, 96
-0.994889, 187, 121, 202, 184
-0.994891, 245, 161, 260, 224
-0.994894, 1, 97, 128, 160
-0.994896, 325, 153, 340, 216
-0.994922, 159, 121, 174, 184
-0.994957, 345, 225, 360, 288
-0.994966, 337, 57, 464, 120
-0.994992, 241, 1, 368, 128
-0.994994, 91, 145, 106, 208
-0.995013, 359, 121, 374, 184
-0.995022, 215, 113, 230, 176
-0.995026, 137, 65, 200, 128
-0.995034, 261, 137, 276, 200
-0.995037, 337, 241, 352, 304
-0.995046, 39, 129, 54, 192
-0.995049, 1, 257, 256, 320
-0.995058, 257, 161, 272, 224
-0.995061, 393, 233, 408, 296
-0.995076, 351, 233, 366, 296
-0.995089, 337, 305, 464, 335
-0.995093, 373, 241, 388, 304
-0.995094, 305, 269, 432, 300
-0.995095, 209, 249, 336, 280
-0.995103, 161, 161, 288, 192
-0.995117, 305, 281, 432, 312
-0.99513, 79, 113, 94, 176
-0.99513, 225, 133, 352, 164
-0.995131, 99, 193, 114, 256
-0.995133, 69, 137, 84, 200
-0.995137, 327, 241, 342, 304
-0.995138, 393, 177, 408, 240
-0.995147, 163, 217, 178, 280
-0.995162, 461, 257, 476, 320
-0.995162, 305, 121, 432, 152
-0.995174, 33, 117, 160, 148
-0.995182, 323, 113, 338, 176
-0.995188, 309, 169, 324, 232
-0.995193, 47, 129, 62, 192
-0.995206, 81, 229, 208, 260
-0.995207, 203, 233, 218, 296
-0.995213, 109, 193, 124, 256
-0.995241, 65, 289, 192, 320
-0.995257, 435, 113, 450, 176
-0.995258, 81, 197, 208, 228
-0.995266, 393, 65, 424, 192
-0.995267, 241, 261, 368, 292
-0.995285, 239, 121, 254, 184
-0.99529, 453, 121, 468, 184
-0.995315, 189, 201, 204, 264
-0.995329, 369, 257, 496, 288
-0.995352, 311, 225, 326, 288
-0.995352, 369, 289, 496, 320
-0.995358, 305, 153, 432, 184
-0.995366, 385, 169, 400, 232
-0.995367, 141, 209, 156, 272
-0.995373, 281, 49, 312, 176
-0.995378, 413, 113, 428, 176
-0.995398, 255, 137, 270, 200
-0.9954, 381, 249, 396, 312
-0.995401, 33, 157, 160, 188
-0.995408, 53, 161, 68, 224
-0.995409, 283, 161, 298, 224
-0.995412, 311, 129, 326, 192
-0.995417, 171, 193, 186, 256
-0.995423, 147, 249, 162, 312
-0.99543, 71, 161, 86, 224
-0.995433, 65, 257, 192, 288
-0.995435, 337, 193, 464, 224
-0.995465, 167, 121, 182, 184
-0.995466, 193, 113, 208, 176
-0.995473, 373, 169, 388, 232
-0.995477, 359, 257, 374, 320
-0.995484, 343, 265, 358, 328
-0.995491, 367, 241, 382, 304
-0.995495, 241, 237, 368, 268
-0.995544, 315, 201, 330, 264
-0.995553, 267, 129, 282, 192
-0.995557, 217, 233, 232, 296
-0.995564, 335, 169, 350, 232
-0.995568, 165, 193, 180, 256
-0.995571, 149, 121, 164, 184
-0.995574, 195, 201, 210, 264
-0.995575, 237, 161, 252, 224
-0.995584, 263, 161, 278, 224
-0.995602, 279, 105, 294, 168
-0.995603, 81, 153, 208, 184
-0.995604, 241, 49, 272, 176
-0.995604, 249, 33, 312, 96
-0.995618, 203, 129, 218, 192
-0.995621, 123, 249, 138, 312
-0.995634, 65, 305, 192, 335
-0.995647, 137, 249, 152, 312
-0.995647, 399, 265, 414, 328
-0.995655, 27, 137, 42, 200
-0.995657, 161, 181, 288, 212
-0.995663, 183, 193, 198, 256
-0.995666, 345, 33, 408, 96
-0.99567, 229, 169, 244, 232
-0.995672, 153, 225, 168, 288
-0.995672, 127, 273, 142, 335
-0.995675, 201, 201, 216, 264
-0.995683, 81, 145, 96, 208
-0.995688, 411, 161, 426, 224
-0.995695, 129, 225, 256, 256
-0.995707, 145, 117, 272, 148
-0.995709, 65, 245, 192, 276
-0.995712, 139, 129, 154, 192
-0.995715, 297, 17, 360, 80
-0.995718, 49, 201, 64, 264
-0.995736, 129, 193, 144, 256
-0.995769, 17, 209, 144, 240
-0.995772, 99, 217, 114, 280
-0.995779, 187, 225, 202, 288
-0.995781, 33, 129, 48, 192
-0.995782, 229, 241, 244, 304
-0.995784, 81, 217, 208, 248
-0.995794, 173, 233, 188, 296
-0.995802, 185, 49, 216, 176
-0.99581, 151, 193, 166, 256
-0.995812, 217, 201, 232, 264
-0.995815, 195, 225, 210, 288
-0.995817, 177, 193, 192, 256
-0.995827, 49, 277, 176, 308
-0.995836, 1, 241, 128, 272
-0.99584, 157, 193, 172, 256
-0.99584, 455, 257, 470, 320
-0.995856, 157, 33, 188, 160
-0.995863, 429, 273, 444, 335
-0.995867, 109, 217, 124, 280
-0.995872, 103, 129, 118, 192
-0.995876, 155, 153, 170, 216
-0.995879, 321, 185, 336, 248
-0.995879, 251, 177, 266, 240
-0.995887, 257, 273, 384, 304
-0.995899, 117, 185, 132, 248
-0.995902, 75, 137, 90, 200
-0.995907, 279, 129, 294, 192
-0.995912, 133, 217, 148, 280
-0.995914, 113, 49, 240, 176
-0.995921, 425, 121, 440, 184
-0.995953, 337, 245, 464, 276
-0.995956, 307, 65, 322, 128
-0.995957, 45, 153, 60, 216
-0.99596, 225, 157, 352, 188
-0.995964, 181, 225, 196, 288
-0.995964, 173, 161, 188, 224
-0.995969, 121, 209, 136, 272
-0.995971, 119, 273, 134, 335
-0.995972, 417, 169, 432, 232
-0.995974, 483, 137, 498, 200
-0.995978, 207, 201, 222, 264
-0.996003, 93, 185, 108, 248
-0.996015, 421, 241, 436, 304
-0.996016, 461, 121, 476, 184
-0.996017, 273, 121, 288, 184
-0.996019, 423, 265, 438, 328
-0.99604, 225, 145, 352, 176
-0.996054, 209, 117, 336, 148
-0.996069, 129, 149, 256, 180
-0.996082, 145, 133, 272, 164
-0.996087, 81, 137, 208, 168
-0.996096, 225, 197, 352, 228
-0.996101, 97, 125, 224, 156
-0.996115, 445, 65, 476, 192
-0.996152, 445, 1, 476, 128
-0.996231, 305, 293, 432, 324
-0.996257, 289, 133, 416, 164
-0.996277, 121, 97, 184, 160
-0.996324, 369, 1, 496, 64
-0.996353, 177, 197, 304, 228
-0.996393, 137, 41, 200, 104
-0.99641, 209, 65, 240, 320
-0.996418, 113, 33, 176, 160
-0.99642, 113, 249, 240, 280
-0.99645, 1, 277, 128, 308
-0.996453, 17, 193, 144, 224
-0.99649, 161, 249, 288, 280
-0.996506, 177, 237, 304, 268
-0.99653, 269, 65, 300, 320
-0.996538, 17, 297, 144, 328
-0.996563, 129, 201, 256, 232
-0.996576, 301, 33, 332, 288
-0.996664, 297, 17, 328, 144
-0.996678, 257, 121, 384, 152
-0.99668, 33, 177, 160, 208
-0.99668, 289, 65, 320, 320
-0.996699, 145, 281, 272, 312
-0.996701, 73, 73, 136, 136
-0.996756, 81, 165, 208, 196
-0.996784, 413, 49, 444, 176
-0.996809, 273, 81, 400, 112
-0.99682, 193, 265, 320, 296
-0.996836, 381, 81, 412, 208
-0.996923, 81, 105, 208, 136
-0.996925, 253, 65, 284, 320
-0.996932, 257, 293, 384, 324
-0.996939, 113, 301, 240, 332
-0.996948, 113, 265, 240, 296
-0.996972, 369, 137, 496, 168
-0.996981, 79, 137, 94, 168
-0.996989, 133, 65, 164, 192
-0.997036, 17, 257, 144, 288
-0.997054, 193, 65, 224, 320
-0.997056, 311, 165, 326, 196
-0.99706, 317, 169, 332, 200
-0.99707, 25, 209, 56, 335
-0.997105, 65, 89, 320, 152
-0.997111, 289, 65, 416, 96
-0.997123, 65, 65, 96, 320
-0.997135, 289, 229, 416, 260
-0.997141, 353, 113, 480, 144
-0.997159, 319, 157, 334, 188
-0.997171, 471, 129, 486, 160
-0.997182, 257, 209, 500, 272
-0.997204, 399, 181, 414, 212
-0.997242, 301, 157, 316, 188
-0.99727, 65, 17, 192, 144
-0.997279, 233, 65, 264, 320
-0.997311, 271, 133, 286, 164
-0.997313, 303, 257, 318, 288
-0.997321, 289, 201, 416, 232
-0.997335, 369, 49, 400, 176
-0.99734, 315, 133, 330, 164
-0.997358, 97, 177, 224, 208
-0.99736, 411, 173, 426, 204
-0.99737, 319, 145, 334, 176
-0.997384, 385, 289, 400, 320
-0.997388, 309, 153, 324, 184
-0.99739, 39, 133, 54, 164
-0.997392, 311, 185, 326, 216
-0.997403, 221, 65, 252, 320
-0.997405, 363, 277, 378, 308
-0.997413, 289, 145, 304, 176
-0.997437, 297, 245, 312, 276
-0.997443, 345, 173, 360, 204
-0.997449, 69, 141, 84, 172
-0.99746, 407, 185, 422, 216
-0.997463, 375, 285, 390, 316
-0.997463, 177, 297, 304, 328
-0.997465, 209, 225, 336, 256
-0.997466, 157, 109, 172, 140
-0.997466, 177, 149, 304, 180
-0.997469, 377, 177, 392, 208
-0.997476, 49, 133, 64, 164
-0.997481, 139, 133, 154, 164
-0.997487, 279, 133, 294, 164
-0.997495, 175, 105, 190, 136
-0.997496, 161, 57, 224, 120
-0.997504, 391, 161, 406, 192
-0.997508, 343, 273, 358, 304
-0.99751, 129, 101, 256, 132
-0.997521, 365, 177, 380, 208
-0.997522, 53, 65, 84, 320
-0.997525, 91, 129, 106, 160
-0.997534, 357, 277, 372, 308
-0.997542, 331, 249, 346, 280
-0.997545, 321, 65, 352, 320
-0.997554, 205, 137, 220, 168
-0.997559, 75, 109, 90, 140
-0.997562, 391, 173, 406, 204
-0.997565, 317, 181, 332, 212
-0.997568, 461, 125, 476, 156
-0.997572, 81, 121, 96, 152
-0.997578, 299, 169, 314, 200
-0.997578, 353, 49, 480, 80
-0.997581, 349, 185, 364, 216
-0.997586, 359, 189, 374, 220
-0.997588, 381, 261, 396, 292
-0.997594, 339, 233, 354, 264
-0.997597, 355, 177, 370, 208
-0.997597, 477, 141, 492, 172
-0.997601, 291, 245, 306, 276
-0.997602, 309, 253, 324, 284
-0.997609, 405, 173, 420, 204
-0.997609, 417, 185, 432, 216
-0.997628, 415, 293, 430, 324
-0.997632, 325, 265, 340, 296
-0.997635, 389, 265, 404, 296
-0.997639, 333, 269, 348, 300
-0.997639, 383, 161, 398, 192
-0.997648, 373, 265, 388, 296
-0.997649, 399, 293, 414, 324
-0.997656, 239, 133, 254, 164
-0.997658, 367, 241, 382, 272
-0.997661, 371, 173, 386, 204
-0.997666, 169, 65, 200, 320
-0.997671, 337, 233, 464, 264
-0.997675, 421, 301, 436, 332
-0.99768, 225, 305, 352, 335
-0.997681, 181, 229, 196, 260
-0.997688, 297, 137, 312, 168
-0.997689, 365, 189, 380, 220
-0.997694, 347, 237, 362, 268
-0.997703, 323, 169, 338, 200
-0.997709, 435, 121, 450, 152
-0.99771, 371, 253, 386, 284
-0.997715, 313, 69, 328, 100
-0.997721, 225, 105, 352, 136
-0.997722, 79, 149, 94, 180
-0.997723, 377, 241, 392, 272
-0.997724, 163, 121, 178, 152
-0.99773, 413, 121, 428, 152
-0.997736, 417, 169, 432, 200
-0.99774, 257, 161, 272, 192
-0.997746, 235, 173, 250, 204
-0.997747, 251, 185, 266, 216
-0.997748, 385, 277, 400, 308
-0.997755, 225, 241, 240, 272
-0.997757, 241, 189, 256, 220
-0.997757, 287, 129, 302, 160
-0.997759, 69, 109, 84, 140
-0.997761, 241, 121, 256, 152
-0.997767, 219, 241, 234, 272
-0.997773, 289, 157, 304, 188
-0.997776, 55, 129, 70, 160
-0.997778, 385, 173, 400, 204
-0.997779, 449, 277, 464, 308
-0.997784, 347, 253, 362, 284
-0.997787, 263, 153, 278, 184
-0.997796, 61, 117, 76, 148
-0.997798, 359, 121, 374, 152
-0.997799, 163, 225, 178, 256
-0.997805, 303, 137, 318, 168
-0.997805, 53, 145, 68, 176
-0.997805, 397, 161, 412, 192
-0.997806, 341, 253, 356, 284
-0.997807, 129, 137, 144, 168
-0.997809, 379, 273, 394, 304
-0.997813, 371, 161, 386, 192
-0.997822, 9, 65, 40, 320
-0.997823, 407, 301, 422, 332
-0.997826, 305, 169, 320, 200
-0.997827, 241, 169, 256, 200
-0.99783, 195, 121, 210, 152
-0.997834, 457, 261, 472, 292
-0.997834, 393, 1, 424, 256
-0.997835, 405, 65, 436, 320
-0.997838, 129, 213, 256, 244
-0.997841, 391, 289, 406, 320
-0.99785, 351, 277, 366, 308
-0.99785, 181, 125, 196, 156
-0.997853, 401, 269, 416, 300
-0.997856, 85, 137, 100, 168
-0.997857, 63, 141, 78, 172
-0.997859, 105, 213, 120, 244
-0.997859, 257, 1, 384, 64
-0.99786, 157, 129, 172, 160
-0.997861, 201, 113, 216, 144
-0.997865, 353, 237, 368, 268
-0.997868, 175, 229, 190, 260
-0.997871, 33, 65, 64, 320
-0.997875, 357, 261, 372, 292
-0.997875, 301, 185, 316, 216
-0.997876, 441, 121, 456, 152
-0.997876, 21, 65, 52, 320
-0.997885, 427, 301, 442, 332
-0.997896, 397, 281, 412, 312
-0.997903, 419, 269, 434, 300
-0.99791, 377, 161, 392, 192
-0.997914, 169, 113, 184, 144
-0.997915, 73, 153, 88, 184
-0.997917, 305, 109, 432, 140
-0.997918, 391, 277, 406, 308
-0.99792, 463, 277, 478, 308
-0.997923, 137, 217, 152, 248
-0.997966, 97, 277, 224, 308
-0.998015, 369, 33, 496, 64
-0.998023, 289, 305, 416, 335
-0.998046, 225, 65, 256, 192
-0.998087, 345, 65, 376, 320
-0.9981, 153, 65, 184, 320
-0.998107, 377, 65, 408, 320
-0.998133, 1, 97, 500, 160
-0.998158, 113, 65, 144, 320
-0.99817, 449, 1, 480, 256
-0.998178, 193, 65, 448, 128
-0.998233, 225, 69, 352, 100
-0.998245, 369, 209, 496, 240
-0.998256, 137, 65, 168, 320
-0.998297, 209, 277, 336, 308
-0.998371, 161, 85, 288, 116
-0.998395, 181, 65, 212, 320
-0.998399, 305, 49, 432, 80
-0.998403, 277, 113, 292, 240
-0.998433, 305, 37, 432, 68
-0.998437, 337, 177, 400, 192
-0.998444, 265, 135, 328, 150
-0.998445, 49, 127, 112, 142
-0.998446, 65, 137, 128, 152
-0.998447, 289, 131, 320, 146
-0.998447, 305, 251, 336, 266
-0.998447, 89, 159, 120, 174
-0.998447, 333, 237, 364, 252
-0.998448, 281, 197, 312, 212
-0.99845, 81, 213, 112, 228
-0.998451, 217, 243, 248, 258
-0.998452, 321, 187, 384, 202
-0.998452, 273, 251, 304, 266
-0.998453, 361, 277, 392, 292
-0.998453, 341, 287, 372, 302
-0.998453, 73, 147, 104, 162
-0.998455, 313, 17, 344, 144
-0.998455, 369, 59, 400, 74
-0.998455, 469, 283, 500, 298
-0.998455, 157, 227, 188, 242
-0.998456, 161, 97, 192, 112
-0.998456, 217, 139, 248, 154
-0.998456, 405, 175, 436, 190
-0.998456, 337, 257, 368, 272
-0.998457, 393, 195, 424, 210
-0.998457, 409, 281, 472, 296
-0.998458, 389, 261, 420, 276
-0.998459, 321, 185, 352, 200
-0.998459, 401, 267, 432, 282
-0.998459, 85, 131, 116, 146
-0.998459, 381, 283, 412, 298
-0.99846, 377, 269, 408, 284
-0.998462, 417, 301, 448, 316
-0.998462, 193, 147, 224, 162
-0.998463, 289, 159, 320, 174
-0.998463, 453, 315, 484, 330
-0.998464, 153, 121, 184, 136
-0.998464, 217, 173, 280, 188
-0.998464, 133, 137, 164, 152
-0.998465, 437, 321, 468, 335
-0.998465, 185, 205, 216, 220
-0.998466, 397, 273, 428, 288
-0.998466, 385, 309, 448, 324
-0.998467, 329, 277, 360, 292
-0.998468, 105, 141, 136, 156
-0.998468, 377, 137, 408, 152
-0.998468, 41, 157, 72, 172
-0.998469, 117, 139, 148, 154
-0.99847, 217, 113, 248, 128
-0.99847, 157, 127, 188, 142
-0.998472, 305, 183, 336, 198
-0.998472, 401, 291, 432, 306
-0.998472, 169, 127, 200, 142
-0.998474, 269, 197, 300, 212
-0.998474, 269, 137, 300, 152
-0.998474, 325, 167, 356, 182
-0.998475, 53, 133, 84, 148
-0.998475, 369, 171, 400, 186
-0.998476, 101, 135, 132, 150
-0.998476, 449, 277, 480, 292
-0.998477, 429, 307, 460, 322
-0.998477, 325, 141, 356, 156
-0.998479, 285, 251, 316, 266
-0.998479, 57, 119, 88, 134
-0.998479, 385, 273, 448, 288
-0.99848, 261, 131, 292, 146
-0.99848, 189, 235, 220, 250
-0.99848, 25, 137, 56, 152
-0.998481, 265, 165, 296, 180
-0.998482, 317, 249, 348, 264
-0.998482, 297, 175, 328, 190
-0.998482, 1, 147, 64, 162
-0.998483, 289, 257, 320, 272
-0.998483, 417, 313, 448, 328
-0.998484, 465, 145, 496, 160
-0.998485, 409, 123, 440, 138
-0.998485, 25, 137, 88, 152
-0.998485, 417, 317, 480, 332
-0.998485, 153, 119, 216, 134
-0.998486, 217, 179, 280, 194
-0.998486, 313, 169, 376, 184
-0.998486, 181, 145, 212, 160
-0.998487, 325, 173, 356, 188
-0.998487, 233, 137, 296, 152
-0.998488, 313, 179, 376, 194
-0.998489, 385, 195, 448, 210
-0.998489, 5, 141, 36, 156
-0.998489, 309, 77, 340, 92
-0.998489, 97, 133, 160, 148
-0.99849, 341, 171, 372, 186
-0.99849, 297, 139, 360, 154
-0.998491, 201, 117, 232, 132
-0.998491, 357, 139, 388, 154
-0.998492, 301, 85, 332, 100
-0.998492, 373, 257, 404, 272
-0.998492, 93, 143, 124, 158
-0.998493, 145, 127, 176, 142
-0.998493, 289, 175, 352, 190
-0.998494, 241, 167, 272, 182
-0.998494, 305, 169, 336, 184
-0.998494, 361, 295, 424, 310
-0.998496, 345, 185, 376, 200
-0.998496, 337, 285, 400, 300
-0.998498, 265, 129, 328, 144
-0.998499, 241, 175, 304, 190
-0.998501, 457, 321, 488, 335
-0.998502, 33, 143, 96, 158
-0.998503, 289, 169, 320, 184
-0.998503, 333, 185, 364, 200
-0.998504, 305, 265, 336, 280
-0.998505, 369, 283, 400, 298
-0.998506, 425, 127, 488, 142
-0.998506, 229, 167, 260, 182
-0.998508, 89, 143, 152, 158
-0.998508, 313, 275, 376, 290
-0.998508, 49, 151, 112, 166
-0.998509, 433, 135, 496, 150
-0.998509, 25, 131, 88, 146
-0.99851, 321, 271, 352, 286
-0.99851, 137, 131, 200, 146
-0.99851, 461, 65, 492, 320
-0.998514, 157, 103, 188, 118
-0.998514, 313, 175, 344, 190
-0.998514, 357, 189, 388, 204
-0.998515, 385, 301, 448, 316
-0.998515, 305, 151, 368, 166
-0.998515, 377, 189, 440, 204
-0.998515, 297, 127, 360, 142
-0.998518, 437, 281, 468, 296
-0.998519, 189, 121, 220, 136
-0.998519, 441, 315, 472, 330
-0.998522, 389, 289, 420, 304
-0.998522, 321, 141, 384, 156
-0.998522, 305, 251, 368, 266
-0.998523, 357, 287, 388, 302
-0.998524, 409, 189, 440, 204
-0.998524, 349, 255, 380, 270
-0.998526, 165, 119, 196, 134
-0.998526, 257, 199, 320, 214
-0.998526, 349, 279, 380, 294
-0.998526, 169, 237, 232, 252
-0.998527, 417, 65, 448, 320
-0.998528, 237, 135, 268, 150
-0.998528, 361, 289, 424, 304
-0.998528, 377, 169, 440, 184
-0.998528, 433, 281, 496, 296
-0.998529, 145, 125, 208, 140
-0.998529, 297, 81, 360, 96
-0.998529, 281, 249, 344, 264
-0.998529, 257, 247, 320, 262
-0.99853, 333, 251, 364, 266
-0.99853, 37, 135, 68, 150
-0.99853, 193, 243, 256, 258
-0.99853, 65, 113, 96, 128
-0.998531, 73, 139, 104, 154
-0.998531, 433, 141, 496, 156
-0.998531, 77, 65, 108, 320
-0.998531, 281, 269, 344, 284
-0.998531, 273, 169, 336, 184
-0.998531, 361, 195, 424, 210
-0.998533, 301, 163, 332, 178
-0.998533, 401, 303, 432, 318
-0.998534, 361, 179, 424, 194
-0.998534, 265, 257, 328, 272
-0.998534, 73, 291, 136, 306
-0.998535, 193, 141, 224, 156
-0.998535, 229, 175, 260, 190
-0.998535, 49, 121, 112, 136
-0.998535, 249, 165, 312, 180
-0.998536, 377, 137, 440, 152
-0.998536, 337, 169, 400, 184
-0.998536, 361, 265, 424, 280
-0.998537, 321, 259, 384, 274
-0.998538, 453, 127, 484, 142
-0.99854, 401, 125, 464, 140
-0.99854, 465, 135, 496, 150
-0.998541, 409, 307, 472, 322
-0.998543, 313, 193, 376, 208
-0.998543, 65, 215, 128, 230
-0.998543, 353, 169, 384, 184
-0.998544, 1, 141, 64, 156
-0.998544, 433, 289, 496, 304
-0.998544, 73, 297, 136, 312
-0.998545, 265, 141, 328, 156
-0.998546, 433, 275, 496, 290
-0.998546, 233, 245, 296, 260
-0.998547, 245, 173, 276, 188
-0.998547, 57, 143, 120, 158
-0.998548, 49, 143, 80, 158
-0.998548, 81, 93, 208, 124
-0.99855, 381, 297, 412, 312
-0.99855, 281, 163, 344, 178
-0.998551, 369, 279, 432, 294
-0.998552, 373, 289, 404, 304
-0.998553, 321, 239, 384, 254
-0.998553, 281, 187, 344, 202
-0.998554, 377, 123, 440, 138
-0.998554, 41, 213, 104, 228
-0.998555, 281, 155, 344, 170
-0.998556, 225, 93, 352, 124
-0.998556, 349, 177, 380, 192
-0.998556, 393, 297, 424, 312
-0.998556, 421, 277, 452, 292
-0.998558, 313, 163, 376, 178
-0.99856, 129, 225, 192, 240
-0.998562, 113, 139, 176, 154
-0.998563, 89, 217, 152, 232
-0.998564, 313, 75, 376, 90
-0.998564, 417, 307, 448, 322
-0.998565, 225, 165, 288, 180
-0.998566, 49, 149, 80, 164
-0.998567, 193, 175, 256, 190
-0.998568, 345, 139, 408, 154
-0.998568, 265, 119, 328, 134
-0.998568, 457, 287, 488, 302
-0.998568, 385, 291, 448, 306
-0.998569, 329, 179, 360, 194
-0.998569, 129, 251, 192, 266
-0.99857, 145, 201, 208, 216
-0.998571, 145, 231, 208, 246
-0.998571, 289, 257, 352, 272
-0.998573, 281, 263, 344, 278
-0.998575, 73, 131, 136, 146
-0.998575, 389, 267, 420, 282
-0.998575, 361, 301, 424, 316
-0.998576, 289, 243, 352, 258
-0.998576, 265, 147, 328, 162
-0.998576, 289, 229, 352, 244
-0.998576, 81, 261, 144, 276
-0.998577, 73, 149, 136, 164
-0.998577, 297, 145, 360, 160
-0.998578, 469, 291, 500, 306
-0.998579, 433, 157, 496, 172
-0.998581, 85, 137, 116, 152
-0.998581, 193, 139, 256, 154
-0.998581, 401, 147, 464, 162
-0.998582, 161, 109, 224, 124
-0.998582, 217, 251, 280, 266
-0.998582, 409, 269, 472, 284
-0.998583, 297, 133, 360, 148
-0.998583, 313, 281, 376, 296
-0.998583, 161, 131, 224, 146
-0.998583, 105, 299, 168, 314
-0.998584, 145, 103, 208, 118
-0.998584, 73, 307, 136, 322
-0.998584, 425, 301, 488, 316
-0.998584, 177, 207, 240, 222
-0.998584, 133, 131, 164, 146
-0.998585, 297, 205, 360, 220
-0.998585, 241, 131, 304, 146
-0.998585, 393, 259, 456, 274
-0.998585, 73, 283, 136, 298
-0.998585, 393, 317, 456, 332
-0.998585, 345, 147, 408, 162
-0.998586, 409, 287, 472, 302
-0.998587, 49, 115, 112, 130
-0.998587, 185, 113, 248, 128
-0.998588, 429, 313, 460, 328
-0.998588, 25, 227, 88, 242
-0.998588, 297, 211, 360, 226
-0.998588, 257, 183, 320, 198
-0.998589, 409, 273, 440, 288
-0.998589, 57, 237, 120, 252
-0.99859, 377, 263, 408, 278
-0.998592, 301, 113, 316, 240
-0.998603, 437, 65, 468, 320
-0.998612, 361, 259, 392, 274
-0.998625, 101, 65, 132, 320
-0.998627, 61, 143, 92, 158
-0.99863, 305, 213, 432, 244
-0.998639, 209, 25, 336, 88
-0.998656, 205, 145, 220, 272
-0.998657, 369, 221, 496, 252
-0.998676, 177, 105, 304, 136
-0.99868, 337, 65, 464, 96
-0.998699, 269, 177, 284, 304
-0.9987, 207, 193, 222, 320
-0.9987, 199, 161, 214, 288
-0.998706, 77, 97, 92, 224
-0.998707, 311, 113, 326, 240
-0.998736, 243, 161, 258, 288
-0.998749, 287, 113, 302, 240
-0.998758, 271, 113, 286, 240
-0.998764, 177, 213, 304, 244
-0.998778, 221, 145, 236, 272
-0.99878, 213, 161, 228, 288
-0.998808, 237, 145, 252, 272
-0.998818, 293, 129, 308, 256
-0.998837, 317, 161, 332, 288
-0.998847, 231, 161, 246, 288
-0.998858, 305, 9, 432, 72
-0.998871, 357, 65, 388, 320
-0.998871, 281, 161, 296, 288
-0.998874, 373, 177, 388, 304
-0.998876, 359, 145, 374, 272
-0.998895, 347, 177, 362, 304
-0.998895, 191, 193, 206, 320
-0.998895, 275, 177, 290, 304
-0.998897, 13, 129, 28, 256
-0.99891, 201, 209, 216, 335
-0.998919, 387, 145, 402, 272
-0.998919, 261, 193, 276, 320
-0.998927, 203, 97, 218, 224
-0.998933, 223, 209, 238, 335
-0.998939, 215, 113, 230, 240
-0.998941, 71, 97, 86, 224
-0.998942, 151, 113, 166, 240
-0.998944, 463, 113, 478, 240
-0.998953, 253, 193, 268, 320
-0.99896, 213, 209, 228, 335
-0.998962, 173, 65, 188, 192
-0.998962, 31, 129, 46, 256
-0.998967, 127, 129, 142, 256
-0.998972, 333, 65, 364, 320
-0.99898, 393, 145, 408, 272
-0.998994, 353, 145, 368, 272
-0.998998, 167, 113, 182, 240
-0.998998, 53, 113, 68, 240
-0.999003, 21, 129, 36, 256
-0.999005, 307, 177, 322, 304
-0.999015, 149, 193, 164, 320
-0.999016, 135, 193, 150, 320
-0.999017, 121, 129, 136, 256
-0.999018, 137, 113, 152, 240
-0.999018, 41, 113, 56, 240
-0.999019, 475, 129, 490, 256
-0.99902, 63, 97, 78, 224
-0.999022, 105, 113, 120, 240
-0.999027, 365, 177, 380, 304
-0.999031, 7, 145, 22, 272
-0.999034, 71, 161, 86, 288
-0.99904, 359, 193, 374, 320
-0.999047, 469, 129, 484, 256
-0.999047, 125, 65, 156, 320
-0.99905, 87, 113, 102, 240
-0.999051, 225, 25, 480, 88
-0.999053, 323, 177, 338, 304
-0.999057, 349, 65, 364, 192
-0.999058, 357, 65, 372, 192
-0.999058, 379, 145, 394, 272
-0.999069, 353, 193, 368, 320
-0.99908, 167, 65, 182, 192
-0.999087, 289, 177, 304, 304
-0.999089, 393, 193, 408, 320
-0.999093, 411, 113, 426, 240
-0.999094, 1, 113, 16, 240
-0.999094, 33, 105, 160, 136
-0.999095, 315, 209, 330, 335
-0.999095, 99, 113, 114, 240
-0.999096, 237, 193, 252, 320
-0.999098, 403, 113, 418, 240
-0.999102, 77, 145, 92, 272
-0.999106, 431, 113, 446, 240
-0.999107, 103, 161, 118, 288
-0.999108, 299, 177, 314, 304
-0.999113, 481, 129, 496, 256
-0.999116, 341, 209, 356, 335
-0.99912, 317, 113, 332, 240
-0.99912, 327, 129, 342, 256
-0.99912, 313, 65, 328, 192
-0.999121, 191, 145, 206, 272
-0.999121, 185, 209, 200, 335
-0.999124, 259, 145, 274, 272
-0.999128, 193, 1, 320, 64
-0.999129, 307, 65, 322, 192
-0.999134, 451, 113, 466, 240
-0.999137, 457, 113, 472, 240
-0.99914, 119, 193, 134, 320
-0.999141, 457, 65, 488, 192
-0.999141, 403, 177, 418, 304
-0.999144, 421, 113, 436, 240
-0.999151, 243, 113, 258, 240
-0.999159, 13, 193, 28, 320
-0.999165, 111, 129, 126, 256
-0.999165, 159, 145, 174, 272
-0.999167, 157, 97, 172, 224
-0.999168, 143, 113, 158, 240
-0.999174, 437, 97, 452, 224
-0.999174, 445, 113, 460, 240
-0.999183, 253, 145, 268, 272
-0.99919, 365, 129, 380, 256
-0.99919, 379, 193, 394, 320
-0.999192, 225, 81, 352, 112
-0.999192, 59, 145, 74, 272
-0.999195, 177, 145, 192, 272
-0.999199, 229, 209, 244, 335
-0.999206, 265, 113, 280, 240
-0.999208, 385, 193, 400, 320
-0.999211, 109, 193, 124, 320
-0.999211, 3, 193, 18, 320
-0.999214, 89, 209, 104, 335
-0.999218, 329, 193, 344, 320
-0.999236, 197, 97, 212, 224
-0.999244, 173, 193, 188, 320
-0.999246, 129, 177, 144, 304
-0.999254, 93, 113, 108, 240
-0.999258, 179, 65, 194, 192
-0.999262, 225, 57, 352, 88
-0.999263, 47, 145, 62, 272
-0.999268, 273, 93, 400, 124
-0.99927, 143, 209, 158, 335
-0.999271, 141, 161, 156, 288
-0.999275, 371, 113, 386, 240
-0.999278, 161, 193, 176, 320
-0.999287, 99, 209, 114, 335
-0.999288, 335, 193, 350, 320
-0.999292, 343, 113, 358, 240
-0.999293, 53, 161, 68, 288
-0.999294, 69, 209, 84, 335
-0.999308, 247, 209, 262, 335
-0.99931, 281, 209, 296, 335
-0.999317, 271, 65, 286, 192
-0.999319, 341, 161, 356, 288
-0.99932, 395, 97, 410, 224
-0.999346, 353, 13, 480, 44
-0.999365, 257, 1, 500, 64
-0.999422, 345, 33, 376, 160
-0.99943, 305, 25, 432, 56
-0.999524, 257, 25, 384, 88
-0.999556, 353, 101, 480, 132
-0.999584, 161, 73, 288, 104
-0.999599, 257, 45, 384, 76
-0.9996, 73, 33, 136, 160
-0.999645, 337, 77, 464, 108
-0.999651, 319, 183, 334, 198
-0.999652, 297, 139, 312, 154
-0.999654, 47, 137, 62, 152
-0.999654, 485, 141, 500, 156
-0.999654, 473, 321, 488, 335
-0.999655, 353, 187, 368, 202
-0.999655, 307, 253, 322, 268
-0.999655, 141, 137, 156, 152
-0.999655, 371, 173, 386, 188
-0.999657, 319, 135, 334, 150
-0.999657, 319, 155, 334, 170
-0.999658, 359, 189, 374, 204
-0.999658, 363, 289, 378, 304
-0.999659, 461, 127, 476, 142
-0.99966, 457, 313, 472, 328
-0.99966, 295, 255, 310, 270
-0.999661, 87, 133, 102, 148
-0.999661, 255, 167, 270, 182
-0.999661, 289, 255, 304, 270
-0.999662, 169, 121, 184, 136
-0.999662, 69, 143, 84, 158
-0.999663, 313, 75, 328, 90
-0.999663, 93, 137, 108, 152
-0.999663, 343, 173, 358, 188
-0.999663, 271, 135, 286, 150
-0.999663, 155, 123, 170, 138
-0.999665, 141, 287, 156, 302
-0.999665, 319, 161, 334, 176
-0.999665, 331, 267, 346, 282
-0.999666, 157, 133, 172, 148
-0.999666, 407, 195, 422, 210
-0.999667, 351, 279, 366, 294
-0.999667, 353, 179, 368, 194
-0.999668, 341, 275, 356, 290
-0.999668, 471, 287, 486, 302
-0.999668, 343, 253, 358, 268
-0.999668, 423, 191, 438, 206
-0.999669, 223, 111, 238, 126
-0.999669, 407, 265, 422, 280
-0.999669, 385, 265, 400, 280
-0.99967, 377, 281, 392, 296
-0.99967, 133, 141, 148, 156
-0.999671, 169, 101, 184, 116
-0.999672, 311, 263, 326, 278
-0.999672, 367, 277, 382, 292
-0.999673, 217, 113, 232, 128
-0.999674, 415, 303, 430, 318
-0.999675, 87, 139, 102, 154
-0.999676, 469, 135, 484, 150
-0.999676, 397, 263, 412, 278
-0.999676, 185, 123, 200, 138
-0.999677, 337, 251, 352, 266
-0.999677, 89, 65, 120, 320
-0.999678, 199, 119, 214, 134
-0.999679, 205, 117, 220, 132
-0.999679, 483, 291, 498, 306
-0.999681, 299, 161, 314, 176
-0.999681, 461, 9, 476, 24
-0.999682, 301, 257, 316, 272
-0.999683, 289, 139, 304, 154
-0.999684, 439, 281, 454, 296
-0.999684, 51, 143, 66, 158
-0.999684, 233, 173, 248, 188
-0.999686, 205, 139, 220, 154
-0.999687, 361, 279, 376, 294
-0.999687, 353, 255, 368, 270
-0.999687, 407, 177, 422, 192
-0.999687, 245, 167, 260, 182
-0.999688, 455, 283, 470, 298
-0.999689, 407, 295, 422, 310
-0.999689, 427, 303, 442, 318
-0.99969, 243, 179, 258, 194
-0.999691, 53, 137, 68, 152
-0.999691, 465, 285, 480, 300
-0.999691, 313, 135, 328, 150
-0.999693, 81, 139, 96, 154
-0.999693, 467, 5, 482, 20
-0.999693, 405, 301, 420, 316
-0.999696, 407, 271, 422, 286
-0.999697, 445, 283, 460, 298
-0.999697, 239, 167, 254, 182
-0.999698, 477, 1, 492, 16
-0.999698, 175, 119, 190, 134
-0.999698, 289, 131, 304, 146
-0.999699, 179, 125, 194, 140
-0.9997, 353, 173, 368, 188
-0.9997, 477, 289, 492, 304
-0.9997, 211, 115, 226, 130
-0.999701, 57, 145, 72, 160
-0.999701, 133, 135, 148, 150
-0.999701, 5, 145, 20, 160
-0.999701, 359, 257, 374, 272
-0.999702, 371, 261, 386, 276
-0.999702, 161, 103, 176, 118
-0.999702, 451, 315, 466, 330
-0.999702, 435, 307, 450, 322
-0.999703, 385, 289, 400, 304
-0.999704, 407, 185, 422, 200
-0.999704, 165, 129, 180, 144
-0.999705, 435, 313, 450, 328
-0.999705, 469, 127, 484, 142
-0.999706, 391, 263, 406, 278
-0.999706, 371, 283, 386, 298
-0.999706, 335, 273, 350, 288
-0.999708, 433, 275, 448, 290
-0.999708, 379, 263, 394, 278
-0.999708, 395, 293, 410, 308
-0.999709, 325, 269, 340, 284
-0.99971, 359, 169, 374, 184
-0.999711, 441, 313, 456, 328
-0.999712, 151, 129, 166, 144
-0.999712, 71, 111, 86, 126
-0.999712, 377, 289, 392, 304
-0.999713, 49, 151, 64, 166
-0.999714, 425, 273, 440, 288
-0.999715, 137, 17, 200, 144
-0.999717, 365, 259, 380, 274
-0.999717, 161, 123, 176, 138
-0.999718, 17, 141, 32, 156
-0.999719, 399, 269, 414, 284
-0.999719, 415, 273, 430, 288
-0.999722, 171, 127, 186, 142
-0.999725, 421, 305, 436, 320
-0.999735, 401, 293, 416, 308
-0.999736, 429, 309, 444, 324
-0.999737, 243, 173, 258, 188
-0.999737, 461, 319, 476, 334
-0.999742, 417, 189, 432, 204
-0.999745, 145, 131, 160, 146
-0.999754, 345, 179, 360, 194
-0.999759, 63, 143, 78, 158
-0.999773, 65, 73, 192, 136
-0.999778, 81, 77, 208, 108
-0.999786, 113, 49, 240, 80
-0.999795, 139, 131, 154, 146
-0.999862, 369, 1, 496, 32
-0.999865, 161, 33, 288, 64
-0.999901, 97, 49, 352, 112
-0.999936, 33, 93, 160, 124
-0.999941, 337, 89, 464, 120
-0.999963, 145, 57, 272, 120
-0.999972, 425, 1, 456, 128
-0.999975, 257, 217, 384, 248
-1.00001, 201, 49, 232, 176
-1.0002, 161, 45, 288, 76
-1.00025, 65, 33, 192, 64
-1.00029, 33, 81, 160, 112
-1.00043, 209, 41, 336, 72
-1.00056, 65, 45, 192, 76
-1.00075, 457, 1, 488, 128
-1.0011, 145, 49, 176, 176
-1.0014, 17, 65, 144, 128
-1.00148, 161, 1, 416, 64
-1.00154, 177, 1, 240, 128
-1.00154, 161, 25, 288, 88
-1.00156, 381, 33, 412, 160
-1.00163, 1, 65, 256, 128
-1.00174, 265, 17, 296, 144
-1.00177, 129, 25, 384, 88
-1.00182, 33, 25, 288, 88
-1.00186, 65, 1, 320, 64
-1.00191, 97, 41, 224, 104
-1.00212, 25, 33, 88, 160
-1.00239, 333, 17, 364, 144
-1.00242, 1, 1, 500, 64
-1.00243, 49, 41, 176, 104
-1.00246, 1, 1, 500, 128
-1.00249, 1, 33, 500, 96
-1.00254, 81, 9, 208, 72
-1.00256, 213, 49, 244, 176
-1.00277, 145, 1, 272, 64
-1.00281, 397, 17, 428, 144
-1.00291, 33, 9, 160, 72
-1.00291, 1, 33, 128, 96
-1.00297, 1, 57, 500, 120
-1.00319, 469, 1, 500, 128
-1.00323, 357, 1, 388, 128
-1.00329, 289, 1, 416, 128
-1.00335, 241, 1, 272, 128
-1.00382, 253, 17, 284, 144
-1.00387, 413, 1, 444, 128
-1.00389, 161, 1, 288, 128
-1.0039, 1, 33, 128, 160
-1.00497, 121, 33, 152, 160
-1.00586, 169, 1, 200, 128
-1.00615, 73, 17, 104, 144
-1.00647, 281, 1, 312, 128
-1.00749, 321, 1, 384, 128
-1.00857, 113, 1, 240, 128
-1.00908, 1, 1, 256, 128
-1.00911, 209, 1, 272, 128
-1.01326, 1, 33, 64, 160
-1.0147, 49, 17, 112, 144
