1972
-0.37691, 1, 1, 500, 256
-0.385477, 1, 1, 500, 375
-0.455525, 1, 97, 500, 352
-0.484717, 1, 1, 256, 375
-0.503246, 97, 1, 352, 375
-0.542716, 225, 1, 480, 375
-0.647265, 33, 33, 288, 288
-0.698267, 225, 65, 480, 320
-0.70496, 129, 129, 384, 375
-0.767283, 1, 129, 256, 375
-0.836412, 129, 1, 384, 256
-0.865357, 209, 1, 336, 375
-0.866227, 1, 1, 128, 375
-0.86825, 225, 97, 352, 352
-0.873181, 81, 1, 208, 375
-0.87462, 305, 1, 432, 375
-0.878536, 49, 33, 176, 288
-0.883679, 161, 1, 288, 375
-0.885669, 1, 1, 128, 256
-0.886397, 177, 129, 304, 375
-0.886666, 305, 33, 432, 288
-0.891514, 97, 1, 224, 256
-0.894125, 1, 97, 128, 352
-0.895144, 177, 33, 304, 288
-0.899166, 1, 97, 500, 224
-0.899656, 1, 145, 500, 272
-0.900809, 1, 49, 500, 176
-0.901483, 257, 1, 384, 375
-0.905621, 241, 1, 368, 256
-0.90675, 273, 129, 400, 375
-0.907104, 1, 1, 500, 128
-0.911139, 49, 129, 176, 375
-0.912176, 321, 129, 448, 375
-0.918674, 225, 113, 480, 240
-0.919401, 129, 129, 256, 375
-0.924723, 353, 1, 480, 375
-0.926089, 1, 193, 500, 320
-0.926492, 65, 129, 320, 256
-0.931883, 33, 81, 288, 208
-0.933402, 225, 129, 352, 256
-0.934916, 225, 177, 480, 304
-0.937666, 225, 65, 480, 192
-0.938364, 97, 177, 352, 304
-0.938457, 369, 129, 496, 375
-0.94012, 353, 33, 480, 288
-0.941632, 9, 1, 72, 128
-0.946217, 1, 17, 128, 144
-0.946612, 241, 145, 304, 272
-0.946763, 305, 113, 432, 240
-0.946924, 1, 1, 256, 128
-0.947912, 177, 145, 304, 272
-0.948328, 65, 65, 192, 192
-0.948588, 225, 17, 480, 144
-0.949664, 1, 177, 256, 304
-0.94981, 193, 145, 256, 272
-0.951295, 225, 177, 352, 304
-0.951408, 217, 145, 280, 272
-0.952005, 289, 145, 352, 272
-0.952544, 33, 17, 96, 144
-0.954075, 305, 177, 432, 304
-0.954692, 1, 145, 128, 272
-0.954776, 97, 1, 352, 128
-0.954854, 49, 1, 176, 128
-0.955978, 217, 81, 280, 208
-0.957063, 105, 1, 168, 128
-0.957629, 241, 49, 368, 176
-0.958893, 305, 1, 432, 128
-0.959139, 257, 193, 320, 320
-0.959397, 129, 1, 256, 128
-0.959564, 129, 177, 256, 304
-0.959738, 257, 97, 320, 224
-0.959883, 129, 129, 256, 256
-0.96006, 17, 9, 80, 72
-0.960361, 65, 177, 192, 304
-0.960685, 177, 193, 304, 320
-0.961005, 265, 145, 328, 272
-0.961506, 305, 49, 432, 176
-0.961635, 233, 209, 296, 336
-0.962051, 233, 185, 296, 248
-0.962278, 241, 1, 368, 128
-0.962356, 209, 1, 272, 128
-0.962447, 57, 49, 120, 176
-0.963095, 161, 161, 224, 288
-0.963226, 185, 177, 248, 240
-0.963537, 209, 153, 272, 216
-0.963678, 249, 1, 312, 128
-0.964023, 1, 97, 128, 224
-0.964391, 49, 113, 176, 240
-0.964457, 177, 65, 304, 192
-0.964568, 265, 209, 328, 272
-0.96488, 89, 81, 152, 208
-0.966076, 273, 129, 336, 192
-0.966146, 249, 49, 312, 176
-0.966212, 193, 1, 320, 128
-0.966517, 65, 161, 128, 288
-0.966608, 289, 185, 352, 248
-0.966935, 313, 177, 376, 304
-0.967548, 273, 49, 336, 176
-0.967744, 361, 129, 424, 256
-0.967767, 97, 177, 160, 304
-0.968546, 17, 41, 80, 104
-0.969086, 145, 1, 208, 128
-0.969095, 121, 177, 184, 304
-0.969158, 249, 137, 312, 200
-0.969233, 1, 49, 64, 176
-0.969881, 329, 129, 392, 256
-0.97003, 1, 241, 500, 368
-0.970153, 97, 49, 160, 112
-0.970287, 137, 129, 200, 256
-0.97039, 65, 1, 128, 128
-0.971013, 57, 57, 120, 120
-0.971074, 129, 49, 384, 176
-0.97127, 249, 33, 312, 96
-0.971338, 225, 17, 288, 80
-0.971495, 241, 209, 304, 272
-0.971709, 57, 17, 120, 80
-0.971841, 113, 49, 176, 176
-0.971871, 49, 113, 112, 240
-0.971925, 289, 161, 352, 224
-0.971959, 369, 193, 432, 320
-0.971971, 201, 193, 264, 320
-0.972263, 225, 57, 288, 120
-0.972538, 169, 153, 232, 216
-0.972771, 209, 65, 272, 320
-0.973, 129, 49, 256, 176
-0.973086, 313, 209, 376, 272
-0.973224, 361, 33, 424, 160
-0.973239, 37, 1, 68, 128
-0.97328, 161, 113, 224, 240
-0.973485, 25, 81, 88, 208
-0.973495, 1, 1, 64, 256
-0.973805, 81, 81, 144, 144
-0.974122, 225, 193, 352, 256
-0.974262, 337, 193, 400, 320
-0.974294, 105, 1, 168, 64
-0.974312, 249, 145, 280, 272
-0.974435, 289, 193, 352, 320
-0.974612, 193, 49, 256, 176
-0.974761, 201, 201, 264, 264
-0.97477, 265, 97, 328, 352
-0.974797, 249, 1, 312, 64
-0.974834, 289, 97, 352, 224
-0.974853, 97, 33, 160, 288
-0.974908, 1, 193, 64, 320
-0.975235, 185, 1, 248, 128
-0.975363, 361, 169, 424, 232
-0.975372, 249, 57, 312, 120
-0.975533, 257, 161, 320, 224
-0.975694, 193, 33, 256, 96
-0.975717, 353, 145, 480, 272
-0.975725, 65, 161, 128, 224
-0.975748, 1, 97, 64, 224
-0.975825, 193, 97, 256, 224
-0.975868, 113, 73, 176, 136
-0.975916, 233, 161, 296, 224
-0.976191, 273, 105, 336, 168
-0.9763, 297, 137, 360, 200
-0.97643, 313, 169, 376, 232
-0.976661, 193, 57, 256, 120
-0.976721, 121, 193, 184, 256
-0.976826, 225, 153, 352, 216
-0.976938, 401, 65, 464, 192
-0.977004, 217, 97, 280, 160
-0.977041, 217, 129, 280, 192
-0.977108, 193, 225, 448, 352
-0.977144, 105, 25, 168, 88
-0.97729, 177, 185, 304, 248
-0.977294, 289, 1, 352, 128
-0.977435, 145, 201, 208, 264
-0.977453, 1, 193, 128, 320
-0.977868, 145, 41, 208, 104
-0.978039, 401, 113, 464, 240
-0.978084, 33, 17, 160, 80
-0.978299, 265, 185, 328, 248
-0.978371, 249, 81, 312, 144
-0.978435, 97, 129, 160, 256
-0.97844, 1, 41, 128, 104
-0.978557, 369, 81, 432, 208
-0.978708, 305, 177, 432, 240
-0.978768, 49, 81, 176, 144
-0.978944, 25, 129, 88, 256
-0.978944, 297, 129, 360, 375
-0.978958, 233, 97, 296, 352
-0.979109, 225, 225, 352, 352
-0.979144, 137, 49, 200, 176
-0.979199, 21, 1, 52, 128
-0.979364, 237, 81, 268, 208
-0.979401, 401, 17, 464, 144
-0.97945, 249, 113, 312, 176
-0.979457, 33, 81, 96, 144
-0.979458, 17, 1, 48, 64
-0.979536, 201, 9, 264, 72
-0.979649, 369, 49, 432, 112
-0.979652, 25, 1, 88, 256
-0.979669, 305, 121, 432, 184
-0.979776, 73, 33, 136, 288
-0.979804, 129, 177, 256, 240
-0.979822, 353, 49, 480, 176
-0.979924, 369, 113, 432, 176
-0.980027, 121, 33, 184, 288
-0.980048, 289, 225, 352, 288
-0.980137, 261, 129, 292, 256
-0.980149, 145, 1, 208, 64
-0.980164, 321, 153, 448, 216
-0.98022, 217, 225, 280, 288
-0.980378, 361, 1, 424, 64
-0.980432, 1, 1, 32, 64
-0.980454, 321, 145, 352, 272
-0.980503, 273, 209, 304, 272
-0.980693, 301, 137, 332, 200
-0.980706, 145, 161, 208, 224
-0.980903, 305, 209, 432, 272
-0.981062, 245, 185, 276, 248
-0.981255, 33, 9, 64, 72
-0.981286, 197, 153, 228, 216
-0.981325, 49, 33, 112, 288
-0.981366, 185, 129, 248, 375
-0.981486, 369, 209, 432, 272
-0.981515, 353, 193, 480, 320
-0.981596, 177, 161, 304, 224
-0.981655, 257, 233, 320, 296
-0.98166, 313, 113, 376, 176
-0.981836, 129, 57, 256, 120
-0.981852, 1, 193, 64, 256
-0.981868, 209, 129, 336, 192
-0.981881, 305, 49, 368, 176
-0.981908, 313, 153, 344, 216
-0.981912, 89, 185, 152, 248
-0.981996, 1, 161, 128, 224
-0.982074, 193, 129, 256, 192
-0.982094, 369, 137, 432, 200
-0.982127, 9, 81, 72, 144
-0.982151, 337, 209, 400, 272
-0.982152, 193, 81, 256, 144
-0.98221, 209, 177, 272, 240
-0.982255, 369, 89, 432, 152
-0.982276, 281, 1, 344, 64
-0.98228, 129, 25, 256, 88
-0.982289, 305, 57, 432, 120
-0.982427, 49, 161, 176, 224
-0.982441, 137, 73, 200, 136
-0.982716, 161, 225, 224, 288
-0.982762, 369, 25, 432, 88
-0.982774, 1, 105, 64, 168
-0.983073, 49, 185, 176, 248
-0.983149, 129, 1, 256, 64
-0.983213, 49, 129, 112, 192
-0.983231, 229, 129, 260, 256
-0.983234, 225, 1, 288, 375
-0.983305, 185, 33, 248, 288
-0.983383, 209, 145, 240, 208
-0.983415, 337, 185, 400, 248
-0.983424, 193, 145, 224, 272
-0.983436, 97, 153, 224, 216
-0.983511, 129, 241, 192, 304
-0.983538, 209, 25, 336, 88
-0.98357, 265, 137, 296, 200
-0.983595, 277, 193, 308, 320
-0.983631, 233, 1, 264, 128
-0.983637, 49, 1, 80, 128
-0.983658, 41, 105, 104, 168
-0.983679, 49, 57, 176, 120
-0.983715, 221, 169, 252, 232
-0.983764, 289, 33, 352, 288
-0.983791, 289, 81, 352, 144
-0.983794, 401, 49, 464, 112
-0.983816, 401, 25, 464, 88
-0.983831, 305, 97, 432, 160
-0.983907, 1, 97, 64, 352
-0.983924, 249, 193, 280, 320
-0.983959, 209, 49, 336, 112
-0.984001, 401, 73, 464, 136
-0.984005, 401, 129, 464, 192
-0.98407, 89, 65, 120, 192
-0.984073, 273, 1, 336, 375
-0.984166, 225, 217, 352, 280
-0.984208, 361, 33, 424, 288
-0.984221, 309, 129, 340, 256
-0.984244, 1, 137, 128, 200
-0.984294, 1, 241, 256, 368
-0.984295, 305, 33, 432, 96
-0.984428, 305, 9, 432, 72
-0.984483, 57, 81, 120, 144
-0.984523, 261, 225, 292, 288
-0.984537, 5, 17, 36, 144
-0.984561, 25, 177, 88, 240
-0.984757, 1, 177, 32, 304
-0.984762, 1, 241, 64, 304
-0.984765, 237, 153, 268, 216
-0.98477, 233, 1, 296, 256
-0.984775, 193, 89, 320, 152
-0.984775, 145, 209, 272, 272
-0.984792, 285, 201, 316, 264
-0.984824, 297, 177, 328, 304
-0.98483, 121, 49, 184, 112
-0.984947, 401, 97, 464, 160
-0.984951, 65, 185, 128, 248
-0.98506, 105, 1, 168, 375
-0.985091, 265, 193, 296, 320
-0.985105, 353, 1, 480, 128
-0.985147, 313, 1, 376, 128
-0.985178, 241, 1, 368, 64
-0.98523, 237, 193, 268, 320
-0.985251, 289, 33, 352, 96
-0.985294, 249, 1, 312, 375
-0.985311, 393, 1, 424, 64
-0.985313, 145, 1, 208, 256
-0.985331, 233, 41, 264, 104
-0.985367, 169, 129, 232, 192
-0.985413, 249, 81, 280, 208
-0.985522, 161, 209, 224, 336
-0.985548, 29, 49, 60, 176
-0.985581, 1, 241, 64, 368
-0.985587, 25, 153, 88, 216
-0.985609, 321, 137, 384, 200
-0.985619, 81, 129, 112, 256
-0.985623, 49, 1, 112, 375
-0.985661, 325, 169, 356, 232
-0.985718, 233, 17, 264, 80
-0.985719, 9, 1, 72, 375
-0.985743, 401, 185, 464, 248
-0.98583, 393, 169, 424, 232
-0.985865, 401, 1, 464, 64
-0.985866, 273, 145, 304, 272
-0.985899, 249, 225, 280, 288
-0.985921, 1, 225, 32, 352
-0.98593, 161, 129, 224, 375
-0.985932, 137, 1, 200, 375
-0.985974, 337, 97, 400, 352
-0.986042, 1, 145, 64, 272
-0.986057, 305, 1, 368, 64
-0.986086, 225, 81, 256, 208
-0.986091, 25, 177, 88, 304
-0.986122, 89, 153, 152, 216
-0.986141, 45, 25, 76, 88
-0.986147, 273, 57, 336, 120
-0.98617, 161, 137, 288, 200
-0.986338, 1, 81, 128, 144
-0.986341, 81, 25, 144, 88
-0.986386, 13, 177, 44, 240
-0.986411, 1, 105, 128, 168
-0.986506, 201, 1, 264, 375
-0.986527, 9, 25, 40, 88
-0.986594, 257, 129, 384, 192
-0.986614, 285, 145, 316, 272
-0.986621, 69, 49, 100, 176
-0.986699, 301, 201, 332, 264
-0.986746, 241, 81, 368, 144
-0.986869, 237, 97, 268, 160
-0.986921, 81, 33, 208, 96
-0.986937, 45, 81, 76, 144
-0.986967, 393, 113, 424, 240
-0.987144, 289, 145, 320, 208
-0.987147, 181, 177, 212, 304
-0.987152, 9, 113, 40, 240
-0.987181, 333, 177, 364, 304
-0.987188, 305, 177, 336, 240
-0.98719, 193, 177, 224, 240
-0.987235, 57, 17, 88, 80
-0.987254, 65, 129, 192, 192
-0.987265, 205, 177, 236, 304
-0.987453, 237, 217, 268, 280
-0.987544, 77, 153, 108, 216
-0.987559, 205, 113, 236, 240
-0.987579, 33, 89, 64, 152
-0.987628, 25, 193, 56, 320
-0.987716, 237, 65, 268, 128
-0.987717, 301, 113, 332, 176
-0.987728, 261, 201, 292, 264
-0.987749, 101, 81, 132, 208
-0.987882, 65, 129, 128, 375
-0.987895, 217, 161, 248, 288
-0.987942, 1, 257, 32, 320
-0.987947, 297, 129, 328, 256
-0.987977, 21, 41, 52, 104
-0.988002, 353, 97, 480, 224
-0.988023, 1, 201, 128, 264
-0.988062, 309, 177, 340, 304
-0.988082, 1, 129, 64, 192
-0.988087, 277, 121, 308, 184
-0.988138, 105, 97, 168, 160
-0.988207, 1, 193, 32, 256
-0.988208, 273, 225, 400, 352
-0.988216, 369, 129, 432, 375
-0.988252, 253, 137, 284, 200
-0.988298, 73, 1, 136, 375
-0.988334, 257, 105, 384, 168
-0.988365, 193, 1, 320, 64
-0.988378, 393, 1, 424, 128
-0.988422, 33, 41, 64, 104
-0.98843, 265, 1, 328, 256
-0.98848, 13, 177, 44, 304
-0.988501, 289, 121, 320, 184
-0.988537, 97, 57, 128, 120
-0.98858, 253, 81, 284, 144
-0.98859, 393, 161, 456, 288
-0.988591, 129, 1, 160, 128
-0.98861, 393, 177, 424, 304
-0.988636, 401, 153, 464, 216
-0.988647, 333, 201, 364, 264
-0.988692, 209, 169, 240, 232
-0.98879, 49, 105, 176, 168
-0.988876, 97, 241, 352, 368
-0.988888, 193, 249, 320, 312
-0.988964, 81, 1, 144, 64
-0.98898, 305, 1, 368, 375
-0.98901, 361, 1, 424, 375
-0.989038, 1, 241, 128, 368
-0.989054, 81, 1, 208, 64
-0.989106, 121, 169, 184, 232
-0.989175, 393, 137, 424, 200
-0.989222, 313, 33, 376, 288
-0.98923, 97, 129, 160, 375
-0.989264, 217, 57, 248, 120
-0.989296, 45, 65, 76, 192
-0.989299, 293, 169, 324, 232
-0.989303, 253, 57, 284, 120
-0.989348, 165, 145, 196, 272
-0.989434, 85, 65, 116, 128
-0.989483, 313, 129, 344, 192
-0.989504, 217, 1, 248, 128
-0.989505, 25, 97, 88, 352
-0.989561, 53, 49, 84, 112
-0.989563, 117, 97, 148, 224
-0.989576, 257, 177, 288, 240
-0.989578, 177, 241, 304, 368
-0.989582, 73, 105, 136, 168
-0.989646, 161, 1, 224, 375
-0.989659, 1, 65, 32, 192
-0.989671, 393, 49, 424, 112
-0.989683, 217, 1, 248, 64
-0.989693, 1, 281, 32, 344
-0.989694, 301, 65, 332, 192
-0.989769, 133, 177, 164, 304
-0.989775, 353, 193, 480, 256
-0.989776, 109, 65, 140, 128
-0.9898, 341, 113, 372, 240
-0.989824, 149, 145, 180, 272
-0.989888, 225, 249, 288, 312
-0.989896, 17, 41, 80, 72
-0.98991, 381, 193, 412, 320
-0.989948, 129, 81, 160, 144
-0.989951, 273, 145, 336, 176
-0.989978, 121, 129, 184, 375
-0.990053, 105, 177, 136, 304
-0.990074, 225, 145, 256, 208
-0.990089, 69, 1, 100, 128
-0.990191, 97, 81, 224, 144
-0.9902, 25, 129, 88, 192
-0.990206, 313, 65, 376, 128
-0.990262, 277, 161, 308, 224
-0.990268, 1, 265, 64, 328
-0.990268, 105, 73, 168, 104
-0.990274, 9, 217, 72, 280
-0.990299, 169, 201, 232, 264
-0.99031, 153, 193, 184, 256
-0.990315, 353, 89, 480, 152
-0.990321, 185, 189, 248, 220
-0.990327, 233, 197, 296, 228
-0.990329, 97, 201, 224, 264
-0.990384, 393, 49, 424, 176
-0.990424, 101, 1, 132, 128
-0.990475, 177, 1, 240, 64
-0.990502, 121, 177, 152, 304
-0.99052, 393, 97, 424, 160
-0.990541, 257, 41, 384, 104
-0.990551, 101, 89, 132, 152
-0.990553, 17, 49, 48, 176
-0.990564, 169, 105, 232, 168
-0.990565, 1, 9, 64, 40
-0.990592, 93, 161, 124, 288
-0.990595, 265, 133, 328, 164
-0.990602, 209, 161, 272, 192
-0.990607, 69, 25, 100, 88
-0.990614, 297, 173, 360, 204
-0.990638, 289, 205, 352, 236
-0.99066, 193, 169, 448, 232
-0.990666, 129, 49, 160, 176
-0.990679, 181, 129, 212, 256
-0.990696, 253, 113, 284, 176
-0.990712, 401, 33, 464, 288
-0.990721, 225, 77, 288, 108
-0.990753, 1, 313, 64, 375
-0.990764, 393, 201, 424, 264
-0.990781, 105, 33, 168, 64
-0.990793, 49, 25, 112, 56
-0.990794, 201, 177, 264, 208
-0.990887, 345, 193, 376, 320
-0.990892, 313, 89, 376, 152
-0.990899, 173, 193, 204, 256
-0.990923, 249, 213, 312, 244
-0.990937, 393, 25, 424, 88
-0.99097, 233, 185, 296, 216
-0.990985, 17, 29, 80, 60
-0.990998, 209, 1, 272, 32
-0.991001, 409, 113, 440, 240
-0.991009, 289, 157, 352, 188
-0.991023, 65, 49, 96, 112
-0.991032, 117, 89, 148, 152
-0.991039, 209, 57, 272, 88
-0.991059, 249, 33, 280, 160
-0.99106, 209, 29, 272, 60
-0.991065, 321, 213, 384, 244
-0.991081, 265, 121, 328, 152
-0.99111, 273, 217, 336, 248
-0.991119, 193, 145, 448, 208
-0.991125, 249, 225, 312, 256
-0.991133, 341, 177, 372, 240
-0.991135, 217, 25, 248, 88
-0.991149, 329, 1, 392, 375
-0.991156, 209, 41, 272, 72
-0.991168, 265, 81, 296, 208
-0.991169, 249, 145, 312, 176
-0.991177, 361, 9, 424, 40
-0.991183, 313, 201, 344, 264
-0.991192, 281, 49, 312, 176
-0.991203, 369, 193, 400, 320
-0.991213, 257, 161, 320, 192
-0.991236, 289, 193, 352, 224
-0.991239, 5, 97, 36, 160
-0.991244, 249, 53, 312, 84
-0.991288, 57, 77, 120, 108
-0.991301, 185, 161, 248, 192
-0.991304, 265, 189, 328, 220
-0.99131, 17, 241, 48, 368
-0.991331, 169, 193, 200, 320
-0.991352, 21, 97, 52, 224
-0.991369, 249, 37, 312, 68
-0.991374, 113, 33, 144, 160
-0.991393, 81, 81, 144, 112
-0.991408, 273, 173, 336, 204
-0.991409, 185, 241, 248, 304
-0.991414, 209, 13, 272, 44
-0.991439, 57, 37, 120, 68
-0.991465, 313, 225, 344, 288
-0.991474, 357, 193, 388, 320
-0.991475, 233, 157, 296, 188
-0.991476, 249, 21, 312, 52
-0.991476, 273, 185, 304, 248
-0.991488, 249, 65, 312, 96
-0.991489, 241, 241, 368, 304
-0.991543, 249, 1, 312, 32
-0.991551, 97, 1, 160, 32
-0.991563, 105, 89, 168, 120
-0.991576, 81, 1, 112, 128
-0.991581, 89, 129, 152, 192
-0.991583, 105, 129, 136, 256
-0.991606, 57, 97, 88, 224
-0.991611, 289, 113, 352, 144
-0.991611, 65, 181, 128, 212
-0.991615, 5, 217, 36, 280
-0.991626, 201, 77, 264, 108
-0.99163, 105, 21, 168, 52
-0.991649, 1, 169, 64, 232
-0.991671, 193, 149, 256, 180
-0.991676, 165, 169, 196, 232
-0.991677, 225, 209, 288, 240
-0.991688, 225, 221, 288, 252
-0.991706, 285, 97, 316, 224
-0.991712, 153, 249, 216, 312
-0.991713, 145, 33, 208, 64
-0.991717, 129, 49, 160, 112
-0.991722, 25, 17, 88, 48
-0.991723, 1, 249, 128, 312
-0.991732, 81, 129, 112, 192
-0.991738, 137, 61, 200, 92
-0.991741, 105, 45, 168, 76
-0.991756, 209, 89, 272, 120
-0.99178, 225, 173, 288, 204
-0.991781, 145, 181, 208, 212
-0.991781, 161, 237, 224, 268
-0.991783, 49, 209, 176, 272
-0.991798, 229, 193, 260, 256
-0.991809, 17, 93, 80, 124
-0.991819, 225, 141, 288, 172
-0.991825, 137, 185, 168, 248
-0.991831, 33, 145, 64, 272
-0.991849, 169, 65, 232, 192
-0.991874, 57, 169, 120, 200
-0.991889, 153, 233, 184, 296
-0.991903, 161, 113, 288, 176
-0.99191, 121, 185, 152, 248
-0.991921, 273, 153, 400, 216
-0.991921, 137, 73, 200, 104
-0.991927, 369, 53, 432, 84
-0.991939, 297, 145, 360, 176
-0.991939, 393, 73, 424, 136
-0.991945, 369, 113, 432, 144
-0.991947, 145, 49, 208, 80
-0.991963, 89, 189, 152, 220
-0.991977, 113, 193, 176, 224
-0.991984, 105, 57, 168, 88
-0.991994, 313, 129, 376, 160
-0.992002, 129, 241, 192, 272
-0.992009, 249, 81, 312, 112
-0.992016, 137, 21, 200, 52
-0.992027, 313, 25, 376, 88
-0.992029, 313, 201, 376, 232
-0.992035, 81, 241, 208, 304
-0.992037, 185, 57, 248, 88
-0.992043, 249, 173, 312, 204
-0.992054, 81, 93, 144, 124
-0.992064, 361, 197, 424, 228
-0.992067, 161, 153, 224, 184
-0.99207, 313, 117, 376, 148
-0.992071, 301, 81, 332, 144
-0.992087, 409, 65, 440, 192
-0.992095, 361, 65, 424, 96
-0.992096, 369, 97, 432, 128
-0.992106, 249, 93, 312, 124
-0.99211, 369, 129, 432, 160
-0.992114, 41, 49, 104, 80
-0.992115, 353, 113, 480, 176
-0.992115, 369, 173, 432, 204
-0.992119, 409, 1, 440, 128
-0.992124, 369, 213, 432, 244
-0.992129, 217, 125, 280, 156
-0.992134, 185, 1, 248, 32
-0.992134, 297, 101, 360, 132
-0.992168, 361, 37, 424, 68
-0.992173, 17, 81, 80, 112
-0.992184, 409, 113, 440, 176
-0.992187, 281, 17, 344, 48
-0.992189, 177, 173, 240, 204
-0.992203, 1, 185, 256, 248
-0.992213, 1, 109, 64, 140
-0.992218, 337, 197, 400, 228
-0.992224, 129, 85, 192, 116
-0.992235, 1, 197, 64, 228
-0.992246, 185, 37, 248, 68
-0.992246, 297, 225, 328, 288
-0.992247, 9, 149, 72, 180
-0.992248, 81, 69, 144, 100
-0.992249, 401, 1, 464, 375
-0.992272, 253, 33, 284, 96
-0.992293, 273, 37, 336, 68
-0.992294, 89, 169, 120, 232
-0.992305, 345, 209, 376, 272
-0.992316, 29, 65, 60, 128
-0.99232, 305, 1, 368, 32
-0.992331, 185, 21, 248, 52
-0.992341, 97, 185, 352, 248
-0.992348, 273, 57, 336, 88
-0.992351, 25, 185, 88, 216
-0.992354, 369, 153, 432, 184
-0.992356, 369, 85, 432, 116
-0.992362, 161, 193, 224, 224
-0.99237, 369, 141, 432, 172
-0.992377, 401, 69, 464, 100
-0.992379, 145, 1, 208, 32
-0.99238, 201, 213, 264, 244
-0.992399, 129, 97, 160, 224
-0.992401, 209, 189, 272, 220
-0.992411, 273, 73, 336, 104
-0.992411, 225, 101, 288, 132
-0.992416, 401, 57, 464, 88
-0.992416, 401, 109, 464, 140
-0.992419, 401, 81, 464, 112
-0.992419, 401, 129, 464, 160
-0.992419, 401, 197, 464, 228
-0.992419, 57, 201, 120, 232
-0.99242, 49, 65, 112, 96
-0.992425, 49, 13, 112, 44
-0.992426, 401, 97, 464, 128
-0.992429, 1, 69, 64, 100
-0.992439, 289, 125, 352, 156
-0.992449, 1, 133, 64, 164
-0.99247, 169, 65, 232, 128
-0.992495, 321, 97, 352, 224
-0.992532, 129, 233, 256, 296
-0.992562, 57, 209, 120, 272
-0.992587, 353, 65, 480, 128
-0.9926, 9, 73, 40, 136
-0.99263, 33, 161, 288, 224
-0.992664, 145, 1, 176, 64
-0.992664, 409, 137, 440, 200
-0.992773, 1, 17, 256, 80
-0.992794, 309, 149, 340, 180
-0.9928, 393, 129, 456, 375
-0.992803, 145, 137, 208, 200
-0.992828, 29, 185, 60, 248
-0.992868, 321, 165, 352, 196
-0.992883, 249, 225, 280, 256
-0.992892, 409, 169, 440, 232
-0.992897, 49, 37, 80, 68
-0.992905, 373, 209, 404, 272
-0.99293, 273, 213, 304, 244
-0.992962, 233, 5, 264, 36
-0.992966, 65, 145, 96, 272
-0.992966, 153, 237, 184, 268
-0.992969, 205, 173, 236, 204
-0.992972, 353, 145, 384, 272
-0.992989, 233, 25, 264, 56
-0.992992, 233, 41, 264, 72
-0.992997, 337, 161, 400, 224
-0.993002, 213, 157, 244, 188
-0.993011, 193, 181, 224, 212
-0.993012, 241, 129, 272, 192
-0.993015, 261, 233, 292, 264
-0.993031, 369, 25, 496, 88
-0.993033, 237, 77, 268, 108
-0.993033, 225, 89, 256, 152
-0.993035, 305, 137, 336, 168
-0.993039, 45, 81, 76, 112
-0.993045, 261, 145, 292, 176
-0.993051, 61, 29, 92, 60
-0.993058, 281, 97, 312, 160
-0.993071, 29, 89, 60, 120
-0.993075, 113, 77, 144, 108
-0.993094, 233, 53, 264, 84
-0.993101, 261, 213, 292, 244
-0.993113, 393, 1, 424, 32
-0.993118, 13, 189, 44, 220
-0.993122, 221, 173, 252, 204
-0.993133, 225, 121, 480, 184
-0.993147, 333, 213, 364, 244
-0.993149, 393, 169, 424, 200
-0.99315, 113, 121, 240, 184
-0.993156, 21, 9, 52, 40
-0.993157, 21, 41, 52, 72
-0.993161, 85, 73, 116, 104
-0.993162, 269, 133, 300, 164
-0.993164, 313, 177, 344, 208
-0.99317, 273, 201, 304, 232
-0.993173, 393, 197, 424, 228
-0.993175, 301, 177, 332, 208
-0.993181, 233, 65, 264, 96
-0.993185, 217, 1, 248, 32
-0.993185, 393, 117, 424, 148
-0.9932, 297, 149, 328, 180
-0.993201, 245, 213, 276, 244
-0.993208, 13, 201, 44, 232
-0.993209, 9, 105, 40, 136
-0.993211, 37, 29, 68, 60
-0.993215, 1, 201, 32, 232
-0.993216, 37, 41, 68, 72
-0.993216, 325, 197, 356, 228
-0.993217, 249, 85, 280, 116
-0.993217, 241, 189, 272, 220
-0.993221, 253, 181, 284, 212
-0.993222, 97, 85, 128, 116
-0.993222, 393, 133, 424, 164
-0.993223, 193, 273, 320, 336
-0.993225, 329, 49, 392, 176
-0.993225, 1, 313, 32, 375
-0.993226, 129, 89, 160, 120
-0.993228, 393, 181, 424, 212
-0.993233, 313, 205, 344, 236
-0.993235, 9, 5, 40, 36
-0.993243, 285, 217, 316, 248
-0.993245, 393, 53, 424, 84
-0.993245, 1, 277, 32, 308
-0.993245, 197, 161, 228, 192
-0.993246, 9, 229, 40, 260
-0.993246, 217, 81, 248, 112
-0.993246, 49, 93, 80, 124
-0.993248, 129, 73, 160, 104
-0.993249, 265, 161, 296, 192
-0.993252, 393, 105, 424, 136
-0.993253, 281, 145, 312, 176
-0.993259, 393, 213, 424, 244
-0.993259, 5, 25, 36, 56
-0.993267, 393, 41, 424, 72
-0.993269, 241, 161, 272, 192
-0.993271, 125, 1, 156, 32
-0.993274, 165, 241, 196, 272
-0.993274, 5, 341, 36, 372
-0.993278, 9, 45, 40, 76
-0.99328, 1, 157, 32, 188
-0.993282, 409, 81, 440, 144
-0.993283, 217, 37, 248, 68
-0.993284, 293, 133, 324, 164
-0.993296, 5, 261, 36, 292
-0.993297, 237, 101, 268, 132
-0.993297, 229, 161, 260, 192
-0.993298, 117, 93, 148, 124
-0.993299, 253, 69, 284, 100
-0.993302, 221, 185, 252, 216
-0.993305, 217, 21, 248, 52
-0.993307, 69, 197, 100, 228
-0.993317, 217, 57, 248, 88
-0.993318, 281, 165, 312, 196
-0.99332, 49, 21, 80, 52
-0.993322, 1, 249, 32, 280
-0.993323, 249, 137, 280, 168
-0.993323, 293, 193, 324, 224
-0.993323, 393, 29, 424, 60
-0.993324, 1, 129, 500, 192
-0.993326, 37, 17, 68, 48
-0.993327, 181, 161, 212, 224
-0.993328, 189, 193, 220, 224
-0.99333, 253, 37, 284, 68
-0.993334, 237, 89, 268, 120
-0.99334, 249, 97, 280, 128
-0.993349, 321, 221, 352, 252
-0.99335, 57, 49, 88, 80
-0.993355, 293, 165, 324, 196
-0.993357, 393, 69, 424, 100
-0.993358, 301, 109, 332, 140
-0.993361, 277, 1, 308, 64
-0.993363, 149, 57, 180, 120
-0.993364, 1, 289, 32, 320
-0.993365, 281, 121, 312, 152
-0.993365, 409, 117, 440, 148
-0.993368, 285, 205, 316, 236
-0.99337, 393, 81, 424, 112
-0.993371, 129, 37, 160, 68
-0.993374, 81, 25, 112, 56
-0.993379, 393, 153, 424, 184
-0.993384, 97, 69, 128, 100
-0.993384, 409, 37, 440, 68
-0.993387, 77, 165, 108, 196
-0.993387, 1, 117, 32, 148
-0.993387, 409, 197, 440, 228
-0.993388, 129, 61, 160, 92
-0.993391, 117, 33, 148, 64
-0.993394, 409, 25, 440, 56
-0.993396, 409, 69, 440, 100
-0.993398, 129, 25, 160, 56
-0.993398, 29, 101, 60, 132
-0.993399, 325, 177, 356, 208
-0.993399, 125, 189, 156, 220
-0.993401, 221, 93, 252, 124
-0.993402, 169, 185, 200, 216
-0.993402, 301, 217, 332, 248
-0.993404, 77, 153, 108, 184
-0.993405, 297, 49, 328, 80
-0.993405, 253, 57, 284, 88
-0.993407, 341, 201, 372, 232
-0.993413, 105, 185, 136, 248
-0.99345, 301, 17, 332, 144
-0.993489, 141, 1, 172, 128
-0.993518, 369, 169, 496, 232
-0.99353, 49, 225, 176, 352
-0.993531, 1, 225, 128, 288
-0.993604, 249, 257, 312, 320
-0.993605, 409, 41, 440, 104
-0.993654, 45, 1, 76, 64
-0.993659, 101, 1, 132, 64
-0.993711, 65, 113, 96, 176
-0.993733, 193, 201, 448, 264
-0.99376, 297, 49, 328, 112
-0.993773, 277, 25, 308, 88
-0.993814, 213, 121, 244, 184
-0.993827, 33, 201, 96, 264
-0.993847, 1, 49, 32, 112
-0.993852, 297, 1, 328, 64
-0.993864, 101, 33, 132, 96
-0.993864, 325, 145, 356, 208
-0.993866, 277, 65, 308, 128
-0.99389, 85, 17, 116, 80
-0.993899, 57, 49, 88, 176
-0.99391, 361, 209, 392, 272
-0.993943, 265, 73, 296, 136
-0.993955, 1, 65, 500, 128
-0.993967, 33, 113, 288, 176
-0.994059, 149, 169, 180, 232
-0.994104, 33, 97, 64, 224
-0.994105, 117, 1, 148, 64
-0.994133, 65, 137, 320, 200
-0.99415, 129, 17, 160, 80
-0.994167, 157, 193, 188, 320
-0.994181, 145, 89, 272, 152
-0.994188, 265, 241, 328, 368
-0.994191, 297, 25, 328, 88
-0.994198, 65, 193, 96, 256
-0.994208, 409, 17, 440, 80
-0.994216, 365, 145, 396, 272
-0.994254, 353, 1, 480, 64
-0.994273, 369, 137, 496, 200
-0.994343, 1, 97, 500, 160
-0.994349, 49, 209, 112, 336
-0.994414, 225, 81, 480, 144
-0.994445, 337, 1, 400, 128
-0.994453, 381, 145, 412, 272
-0.994543, 1, 161, 500, 224
-0.994608, 241, 265, 368, 328
-0.99467, 33, 41, 288, 104
-0.9947, 289, 233, 416, 296
-0.994726, 169, 33, 232, 96
-0.99483, 225, 33, 480, 96
-0.994905, 145, 189, 272, 220
-0.994925, 225, 57, 480, 120
-0.994937, 49, 233, 112, 296
-0.994946, 181, 81, 212, 208
-0.994951, 225, 1, 480, 64
-0.994955, 225, 193, 352, 224
-0.994967, 121, 145, 184, 208
-0.994985, 225, 213, 352, 244
-0.995007, 33, 89, 288, 152
-0.995008, 337, 73, 400, 136
-0.995053, 321, 193, 352, 320
-0.995054, 121, 217, 184, 280
-0.99511, 1, 33, 500, 96
-0.995125, 321, 173, 448, 204
-0.995238, 241, 173, 368, 204
-0.995242, 193, 105, 256, 168
-0.995259, 33, 29, 160, 60
-0.99526, 21, 1, 36, 64
-0.995339, 15, 1, 30, 64
-0.99536, 129, 225, 256, 352
-0.995398, 305, 225, 336, 352
-0.995407, 33, 65, 288, 128
-0.995445, 293, 225, 324, 352
-0.995533, 169, 97, 200, 224
-0.995602, 1, 1, 500, 64
-0.995602, 323, 145, 338, 208
-0.995654, 27, 1, 42, 64
-0.995679, 17, 273, 144, 336
-0.995694, 33, 77, 160, 108
-0.995701, 129, 37, 256, 68
-0.99571, 49, 41, 176, 72
-0.99572, 281, 1, 312, 128
-0.995722, 337, 17, 400, 80
-0.995736, 317, 137, 332, 200
-0.995768, 105, 241, 168, 304
-0.995812, 25, 225, 88, 352
-0.995815, 97, 9, 352, 72
-0.995843, 273, 257, 336, 320
-0.995849, 289, 265, 416, 328
-0.99585, 193, 193, 224, 320
-0.995861, 139, 1, 154, 64
-0.995868, 305, 121, 432, 152
-0.995874, 225, 161, 352, 192
-0.995878, 321, 213, 448, 244
-0.995878, 69, 97, 100, 224
-0.995886, 129, 225, 384, 288
-0.995896, 305, 185, 432, 216
-0.995907, 305, 201, 432, 232
-0.995925, 9, 1, 24, 64
-0.995944, 45, 113, 76, 240
-0.99595, 263, 225, 278, 288
-0.995956, 209, 73, 336, 104
-0.995965, 145, 97, 176, 224
-0.995974, 337, 1, 400, 256
-0.995997, 65, 189, 192, 220
-0.996038, 405, 177, 436, 304
-0.996075, 177, 201, 304, 232
-0.996102, 193, 1, 224, 128
-0.996123, 33, 1, 160, 32
-0.996171, 225, 149, 352, 180
-0.996177, 329, 153, 344, 216
-0.996193, 145, 257, 272, 320
-0.996208, 49, 89, 176, 120
-0.996213, 129, 49, 256, 80
-0.996223, 305, 161, 432, 192
-0.996257, 305, 73, 432, 104
-0.996264, 1, 161, 128, 192
-0.996266, 213, 161, 228, 224
-0.996271, 145, 177, 272, 208
-0.996273, 129, 69, 256, 100
-0.996283, 129, 33, 384, 96
-0.996301, 369, 273, 496, 336
-0.99636, 225, 85, 352, 116
-0.996363, 129, 9, 256, 40
-0.996363, 209, 37, 336, 68
-0.996365, 185, 241, 248, 368
-0.996369, 285, 201, 300, 264
-0.996383, 47, 17, 62, 80
-0.996389, 1, 185, 500, 248
-0.996402, 49, 13, 176, 44
-0.996423, 193, 181, 320, 212
-0.996433, 129, 21, 256, 52
-0.996434, 305, 141, 432, 172
-0.996435, 337, 169, 352, 232
-0.996462, 69, 193, 100, 320
-0.996463, 209, 137, 336, 168
-0.996478, 321, 109, 448, 140
-0.996478, 219, 153, 234, 216
-0.996489, 1, 45, 128, 76
-0.996493, 177, 161, 304, 192
-0.996502, 1, 17, 128, 48
-0.996503, 209, 53, 336, 84
-0.996538, 1, 145, 128, 176
-0.996593, 37, 9, 52, 72
-0.996596, 249, 185, 264, 248
-0.996617, 139, 49, 154, 112
-0.996633, 149, 1, 164, 64
-0.996634, 65, 53, 192, 84
-0.996642, 79, 161, 94, 224
-0.996659, 233, 65, 264, 320
-0.996664, 305, 93, 432, 124
-0.996677, 305, 37, 432, 68
-0.996683, 213, 49, 244, 176
-0.996687, 403, 177, 418, 240
-0.9967, 9, 1, 40, 256
-0.996701, 129, 81, 256, 112
-0.996718, 305, 57, 432, 88
-0.996728, 305, 1, 432, 32
-0.996736, 209, 1, 336, 32
-0.996736, 201, 153, 216, 216
-0.99675, 257, 137, 272, 200
-0.996752, 5, 193, 20, 256
-0.99676, 257, 217, 272, 280
-0.996779, 265, 33, 296, 160
-0.996797, 21, 25, 36, 88
-0.996798, 251, 153, 266, 216
-0.996818, 49, 81, 64, 144
-0.996872, 51, 41, 66, 104
-0.996885, 139, 25, 154, 88
-0.996887, 293, 209, 308, 272
-0.99691, 31, 41, 46, 104
-0.996936, 57, 17, 72, 80
-0.996946, 241, 225, 368, 256
-0.996961, 269, 137, 284, 200
-0.996978, 97, 173, 224, 204
-0.996995, 247, 97, 262, 160
-0.997016, 225, 153, 240, 216
-0.99702, 1, 65, 128, 96
-0.997031, 303, 121, 318, 184
-0.997032, 209, 25, 336, 56
-0.997032, 225, 209, 256, 336
-0.997064, 249, 217, 264, 280
-0.997067, 17, 173, 144, 204
-0.997067, 29, 1, 60, 256
-0.99707, 269, 225, 284, 288
-0.997075, 3, 1, 18, 64
-0.997079, 83, 129, 98, 192
-0.997105, 97, 265, 224, 328
-0.997107, 31, 193, 46, 256
-0.99711, 243, 193, 258, 256
-0.99712, 129, 201, 256, 232
-0.997121, 81, 33, 112, 288
-0.997124, 257, 125, 384, 156
-0.997132, 229, 1, 244, 64
-0.997134, 63, 33, 78, 96
-0.997134, 129, 57, 384, 120
-0.997137, 207, 153, 222, 216
-0.997138, 81, 65, 208, 96
-0.997142, 305, 17, 432, 48
-0.997152, 55, 73, 70, 136
-0.997158, 149, 41, 164, 104
-0.997167, 299, 193, 314, 256
-0.997169, 193, 97, 320, 128
-0.997169, 309, 129, 324, 192
-0.99717, 1, 109, 128, 140
-0.99717, 63, 9, 78, 72
-0.997171, 305, 201, 320, 264
-0.997186, 213, 137, 228, 200
-0.997188, 403, 209, 418, 272
-0.997196, 405, 49, 420, 112
-0.997198, 69, 17, 84, 80
-0.997211, 15, 25, 30, 88
-0.997236, 105, 65, 136, 320
-0.997246, 35, 169, 50, 232
-0.997248, 177, 149, 304, 180
-0.99725, 405, 145, 420, 208
-0.997257, 129, 153, 256, 184
-0.997258, 193, 225, 320, 256
-0.997265, 297, 121, 312, 184
-0.997279, 131, 89, 146, 152
-0.997284, 191, 185, 206, 248
-0.997284, 141, 81, 156, 144
-0.9973, 193, 97, 224, 224
-0.997305, 21, 265, 36, 328
-0.99731, 41, 81, 56, 144
-0.997312, 263, 137, 278, 200
-0.997316, 313, 1, 344, 128
-0.997348, 205, 1, 236, 128
-0.997349, 43, 41, 58, 104
-0.997351, 121, 73, 136, 136
-0.997351, 277, 209, 292, 272
-0.997367, 33, 241, 288, 304
-0.997369, 125, 33, 156, 288
-0.99738, 177, 1, 208, 128
-0.99738, 1, 129, 32, 375
-0.997382, 261, 177, 276, 240
-0.99739, 111, 57, 126, 120
-0.997391, 149, 49, 180, 176
-0.997393, 245, 97, 276, 352
-0.997398, 287, 121, 302, 184
-0.997411, 243, 153, 258, 216
-0.997411, 129, 113, 384, 176
-0.997422, 255, 185, 270, 248
-0.997424, 281, 65, 312, 320
-0.997432, 255, 73, 270, 136
-0.997443, 1, 313, 128, 375
-0.997445, 241, 97, 256, 160
-0.997453, 265, 201, 280, 264
-0.997453, 283, 169, 298, 232
-0.997457, 65, 145, 192, 176
-0.99746, 405, 25, 420, 88
-0.99746, 1, 133, 128, 164
-0.997465, 241, 13, 368, 44
-0.997471, 243, 217, 258, 280
-0.997482, 113, 89, 128, 152
-0.997483, 309, 169, 324, 232
-0.997488, 177, 213, 304, 244
-0.997489, 297, 97, 328, 352
-0.997502, 405, 1, 420, 64
-0.997509, 337, 193, 352, 256
-0.997515, 137, 185, 152, 248
-0.997518, 273, 213, 400, 244
-0.997523, 289, 169, 304, 232
-0.997527, 105, 57, 120, 120
-0.997528, 95, 73, 110, 136
-0.997531, 81, 157, 208, 188
-0.997532, 297, 145, 312, 208
-0.997533, 255, 1, 270, 64
-0.997535, 37, 41, 52, 104
-0.997545, 287, 145, 302, 208
-0.997548, 259, 113, 274, 176
-0.997561, 219, 177, 234, 240
-0.997563, 217, 1, 248, 256
-0.997572, 279, 121, 294, 184
-0.997581, 257, 289, 384, 352
-0.997583, 193, 49, 224, 176
-0.997589, 93, 65, 124, 320
-0.997597, 257, 105, 384, 136
-0.997612, 193, 125, 320, 156
-0.997614, 225, 225, 480, 288
-0.997616, 73, 169, 88, 232
-0.997621, 25, 241, 40, 304
-0.997622, 321, 201, 336, 264
-0.997625, 395, 209, 410, 272
-0.997627, 345, 177, 360, 240
-0.997649, 1, 209, 500, 272
-0.997651, 229, 57, 244, 120
-0.997652, 75, 25, 90, 88
-0.99766, 271, 201, 286, 264
-0.997662, 129, 81, 384, 144
-0.997662, 255, 41, 270, 104
-0.997663, 1, 97, 128, 128
-0.997708, 317, 177, 332, 240
-0.997708, 169, 201, 184, 264
-0.99771, 321, 225, 336, 288
-0.997713, 299, 217, 314, 280
-0.997721, 233, 81, 248, 144
-0.997721, 405, 121, 420, 184
-0.997724, 405, 97, 420, 160
-0.99774, 323, 113, 338, 176
-0.99775, 277, 185, 292, 248
-0.997763, 1, 281, 16, 344
-0.997778, 25, 201, 40, 264
-0.997779, 49, 105, 176, 136
-0.997795, 81, 77, 208, 108
-0.997797, 1, 49, 16, 112
-0.997797, 47, 105, 62, 168
-0.997803, 289, 1, 304, 64
-0.997807, 269, 97, 300, 352
-0.997808, 57, 41, 72, 104
-0.997809, 1, 185, 128, 216
-0.997812, 405, 73, 420, 136
-0.997813, 129, 249, 384, 312
-0.997817, 345, 209, 360, 272
-0.997819, 185, 193, 200, 256
-0.997819, 413, 185, 428, 248
-0.997821, 313, 201, 328, 264
-0.997825, 17, 289, 32, 352
-0.997826, 375, 209, 390, 272
-0.99783, 49, 121, 176, 152
-0.997833, 413, 145, 428, 208
-0.997836, 233, 161, 248, 224
-0.997842, 197, 129, 228, 375
-0.997847, 49, 229, 176, 260
-0.997849, 177, 85, 304, 116
-0.99786, 359, 209, 374, 272
-0.997861, 229, 25, 244, 88
-0.997866, 199, 177, 214, 240
-0.997868, 369, 241, 496, 368
-0.997888, 161, 237, 288, 268
-0.9979, 257, 137, 384, 168
-0.997902, 309, 65, 340, 320
-0.997908, 321, 129, 352, 375
-0.997929, 81, 1, 208, 32
-0.997957, 1, 121, 128, 152
-0.997966, 69, 33, 100, 288
-0.997972, 1, 229, 128, 260
-0.997985, 257, 129, 288, 375
-0.997992, 65, 133, 192, 164
-0.998032, 161, 17, 192, 144
-0.998055, 193, 13, 320, 44
-0.998077, 1, 197, 128, 228
-0.998081, 139, 37, 154, 68
-0.998095, 57, 33, 72, 64
-0.998109, 369, 297, 496, 360
-0.99811, 321, 145, 336, 176
-0.998131, 315, 137, 330, 168
-0.998139, 185, 129, 216, 375
-0.998141, 163, 237, 178, 268
-0.998145, 193, 113, 320, 144
-0.99815, 145, 281, 272, 344
-0.998163, 353, 201, 480, 232
-0.998164, 1, 249, 128, 280
-0.998172, 273, 213, 288, 244
-0.998179, 169, 241, 184, 272
-0.998184, 265, 229, 280, 260
-0.998186, 259, 229, 274, 260
-0.9982, 65, 201, 192, 232
-0.998205, 287, 209, 302, 240
-0.998209, 139, 25, 154, 56
-0.998219, 81, 241, 208, 272
-0.998221, 173, 65, 204, 320
-0.998236, 139, 1, 154, 32
-0.998283, 137, 1, 168, 256
-0.998283, 97, 93, 224, 124
-0.998295, 369, 113, 496, 144
-0.998296, 221, 97, 252, 352
-0.998316, 253, 63, 284, 78
-0.998317, 393, 215, 424, 230
-0.998318, 5, 197, 20, 228
-0.998318, 217, 31, 248, 46
-0.998318, 393, 103, 424, 118
-0.998319, 393, 169, 424, 184
-0.998319, 241, 195, 272, 210
-0.998319, 129, 41, 160, 56
-0.99832, 409, 131, 440, 146
-0.99832, 113, 89, 144, 104
-0.99832, 393, 87, 424, 102
-0.99832, 61, 47, 92, 62
-0.998321, 13, 213, 44, 228
-0.998321, 1, 347, 32, 362
-0.998321, 393, 29, 424, 44
-0.998321, 393, 73, 424, 88
-0.998321, 217, 9, 248, 24
-0.998321, 149, 59, 180, 74
-0.998321, 73, 195, 104, 210
-0.998322, 257, 185, 288, 200
-0.998322, 9, 241, 40, 256
-0.998323, 149, 67, 180, 82
-0.998324, 393, 197, 424, 212
-0.998324, 157, 97, 188, 224
-0.998324, 1, 281, 32, 296
-0.998325, 253, 75, 284, 90
-0.998326, 261, 159, 292, 174
-0.998326, 297, 151, 328, 166
-0.998326, 117, 75, 148, 90
-0.998326, 5, 269, 36, 284
-0.998326, 217, 59, 248, 74
-0.998327, 245, 161, 276, 176
-0.998327, 217, 67, 248, 82
-0.998327, 273, 205, 304, 220
-0.998327, 129, 93, 160, 108
-0.998327, 289, 145, 320, 160
-0.998328, 237, 95, 268, 110
-0.998328, 393, 97, 424, 352
-0.998329, 393, 93, 424, 108
-0.998329, 313, 161, 344, 176
-0.998329, 193, 171, 224, 186
-0.99833, 1, 197, 32, 212
-0.99833, 13, 207, 44, 222
-0.99833, 1, 289, 32, 304
-0.998331, 257, 57, 384, 88
-0.998331, 13, 195, 44, 210
-0.998332, 393, 45, 424, 60
-0.998332, 327, 153, 342, 184
-0.998332, 393, 55, 424, 70
-0.998332, 297, 187, 328, 202
-0.998332, 5, 357, 36, 372
-0.998333, 97, 33, 128, 48
-0.998334, 217, 93, 248, 108
-0.998335, 337, 215, 368, 230
-0.998335, 393, 67, 424, 82
-0.998336, 393, 189, 424, 204
-0.998336, 33, 95, 64, 110
-0.998336, 85, 31, 116, 46
-0.998336, 261, 139, 292, 154
-0.998337, 325, 201, 356, 216
-0.998337, 393, 119, 424, 134
-0.998339, 249, 99, 280, 114
-0.998341, 73, 201, 104, 216
-0.998343, 129, 71, 160, 86
-0.998343, 209, 171, 240, 186
-0.998343, 325, 207, 356, 222
-0.998344, 29, 103, 60, 118
-0.998345, 313, 183, 344, 198
-0.998345, 393, 111, 424, 126
-0.998345, 301, 233, 332, 248
-0.998346, 393, 61, 424, 76
-0.998347, 249, 233, 280, 248
-0.998347, 217, 17, 248, 32
-0.998347, 217, 77, 248, 92
-0.998347, 393, 181, 424, 196
-0.998348, 73, 25, 104, 40
-0.998348, 253, 69, 284, 84
-0.998349, 217, 45, 248, 60
-0.998349, 129, 35, 160, 50
-0.998349, 393, 125, 424, 140
-0.99835, 49, 1, 80, 256
-0.99835, 125, 1, 156, 16
-0.998351, 273, 217, 304, 232
-0.998351, 65, 31, 96, 46
-0.998351, 261, 231, 292, 246
-0.998352, 301, 143, 332, 158
-0.998352, 393, 37, 424, 52
-0.998352, 393, 7, 424, 22
-0.998353, 13, 201, 44, 216
-0.998353, 241, 237, 368, 268
-0.998354, 197, 183, 228, 198
-0.998354, 129, 77, 160, 92
-0.998354, 45, 89, 76, 104
-0.998355, 313, 155, 344, 170
-0.998356, 393, 209, 424, 224
-0.998356, 5, 263, 36, 278
-0.998357, 393, 175, 424, 190
-0.998358, 217, 39, 248, 54
-0.998359, 205, 177, 236, 192
-0.99836, 265, 223, 296, 238
-0.998361, 21, 45, 52, 60
-0.998361, 277, 227, 308, 242
-0.998362, 109, 35, 140, 50
-0.998362, 53, 41, 84, 56
-0.998363, 49, 49, 80, 64
-0.998363, 89, 85, 120, 100
-0.998365, 317, 167, 348, 182
-0.998365, 301, 177, 332, 192
-0.998368, 237, 89, 268, 104
-0.998377, 193, 189, 224, 204
-0.998378, 393, 137, 424, 152
-0.998378, 213, 161, 244, 176
-0.998379, 9, 111, 40, 126
-0.998382, 101, 73, 132, 88
-0.998385, 157, 237, 172, 268
-0.998386, 233, 77, 264, 92
-0.998388, 233, 55, 264, 70
-0.99839, 233, 63, 264, 78
-0.998391, 17, 269, 144, 300
-0.998392, 233, 31, 264, 46
-0.998393, 267, 217, 282, 248
-0.998394, 393, 131, 424, 146
-0.998395, 209, 129, 240, 375
-0.998396, 33, 89, 64, 104
-0.998396, 273, 211, 304, 226
-0.9984, 233, 83, 264, 98
-0.9984, 53, 25, 84, 40
-0.9984, 233, 69, 264, 84
-0.998401, 161, 273, 288, 304
-0.998401, 309, 149, 340, 164
-0.998402, 233, 23, 264, 38
-0.998404, 253, 241, 284, 368
-0.998404, 41, 83, 72, 98
-0.998405, 233, 47, 264, 62
-0.998406, 233, 41, 264, 56
-0.998407, 249, 1, 280, 256
-0.998408, 41, 43, 72, 58
-0.998409, 249, 227, 280, 242
-0.998411, 233, 3, 264, 18
-0.998414, 393, 1, 424, 16
-0.998416, 353, 97, 480, 128
-0.998419, 321, 173, 352, 188
-0.998422, 233, 15, 264, 30
-0.998422, 233, 9, 264, 24
-0.998427, 405, 197, 420, 228
-0.998433, 13, 129, 44, 375
-0.998434, 353, 1, 384, 128
-0.998437, 257, 73, 384, 104
-0.998441, 139, 73, 154, 104
-0.998442, 53, 81, 68, 112
-0.998444, 81, 29, 208, 60
-0.998455, 209, 277, 336, 308
-0.998464, 63, 29, 78, 60
-0.998468, 153, 241, 184, 256
-0.998469, 147, 1, 162, 32
-0.998477, 265, 137, 280, 168
-0.998482, 139, 13, 154, 44
-0.998483, 145, 29, 160, 60
-0.998483, 81, 129, 112, 375
-0.998485, 209, 173, 224, 204
-0.99849, 47, 85, 62, 116
-0.998494, 1, 213, 128, 244
-0.998495, 253, 225, 268, 256
-0.998507, 73, 197, 88, 228
-0.998511, 209, 253, 336, 284
-0.998513, 139, 49, 154, 80
-0.998514, 277, 133, 292, 164
-0.998517, 145, 133, 272, 164
-0.998522, 405, 213, 420, 244
-0.998523, 331, 165, 346, 196
-0.998526, 353, 125, 480, 156
-0.998528, 271, 137, 286, 168
-0.998534, 17, 45, 80, 60
-0.998536, 317, 173, 332, 204
-0.998536, 339, 205, 354, 236
-0.998538, 97, 75, 160, 90
-0.998539, 353, 137, 480, 168
-0.998542, 393, 1, 424, 256
-0.998542, 337, 169, 352, 200
-0.998544, 307, 173, 322, 204
-0.998547, 315, 153, 330, 184
-0.99855, 321, 157, 336, 188
-0.99855, 255, 89, 270, 120
-0.99855, 65, 45, 80, 76
-0.998551, 321, 49, 352, 176
-0.998551, 223, 169, 238, 200
-0.998558, 405, 41, 420, 72
-0.998558, 273, 145, 336, 160
-0.99856, 217, 173, 232, 204
-0.998561, 51, 41, 66, 72
-0.998564, 11, 149, 26, 180
-0.998566, 109, 89, 124, 120
-0.998567, 309, 133, 324, 164
-0.998568, 119, 81, 134, 112
-0.998569, 209, 41, 272, 56
-0.998571, 217, 171, 280, 186
-0.998573, 185, 191, 248, 206
-0.998573, 139, 61, 154, 92
-0.998575, 233, 203, 296, 218
-0.998578, 225, 71, 288, 86
-0.998578, 233, 209, 296, 224
-0.998578, 229, 61, 244, 92
-0.998578, 105, 35, 168, 50
-0.998583, 57, 27, 120, 42
-0.998583, 225, 77, 288, 92
-0.998585, 225, 85, 288, 100
-0.998588, 127, 93, 142, 124
-0.998589, 225, 35, 288, 50
-0.99859, 249, 43, 312, 58
-0.998591, 225, 63, 288, 78
-0.998592, 233, 215, 296, 230
-0.998592, 29, 41, 44, 72
-0.998592, 297, 175, 360, 190
-0.998594, 1, 57, 16, 88
-0.998594, 1, 13, 64, 28
-0.998594, 405, 117, 420, 148
-0.998594, 49, 209, 80, 336
-0.998595, 209, 15, 272, 30
-0.998596, 57, 33, 120, 48
-0.998596, 209, 55, 272, 70
-0.998597, 249, 29, 312, 44
-0.998597, 249, 225, 312, 240
-0.998598, 289, 211, 352, 226
-0.998598, 199, 181, 214, 212
-0.998598, 185, 161, 248, 176
-0.998599, 95, 73, 110, 104
-0.9986, 259, 141, 274, 172
-0.9986, 213, 161, 228, 192
-0.998601, 105, 81, 168, 96
-0.998602, 209, 47, 272, 62
-0.998602, 249, 35, 312, 50
-0.998603, 345, 97, 376, 352
-0.998603, 225, 25, 288, 40
-0.998603, 17, 29, 80, 44
-0.998603, 1, 5, 16, 36
-0.998604, 145, 241, 208, 256
-0.998606, 209, 5, 272, 20
-0.998606, 249, 55, 312, 70
-0.998607, 249, 65, 312, 80
-0.998609, 13, 5, 28, 36
-0.998611, 17, 23, 80, 38
-0.998611, 405, 169, 420, 200
-0.998611, 233, 197, 296, 212
-0.998612, 233, 189, 296, 204
-0.998612, 105, 27, 168, 42
-0.998612, 361, 7, 424, 22
-0.998614, 249, 71, 312, 86
-0.998615, 249, 49, 312, 64
-0.998616, 17, 39, 80, 54
-0.998616, 297, 181, 360, 196
-0.998616, 225, 91, 288, 106
-0.998617, 113, 269, 240, 300
-0.998618, 257, 231, 320, 246
-0.998618, 249, 9, 312, 24
-0.998619, 361, 133, 424, 148
-0.99862, 229, 9, 244, 40
-0.99862, 247, 193, 262, 224
-0.998621, 209, 161, 272, 176
-0.998621, 255, 61, 270, 92
-0.998622, 49, 39, 112, 54
-0.998623, 81, 35, 144, 50
-0.998623, 229, 81, 244, 112
-0.998623, 265, 139, 328, 154
-0.998623, 249, 17, 312, 32
-0.998624, 289, 157, 352, 172
-0.998624, 105, 87, 168, 102
-0.998625, 105, 41, 168, 56
-0.998625, 265, 151, 328, 166
-0.998626, 249, 23, 312, 38
-0.998626, 145, 65, 208, 80
-0.998627, 249, 3, 312, 18
-0.998627, 289, 205, 352, 220
-0.998627, 217, 183, 280, 198
-0.998628, 105, 69, 168, 84
-0.998629, 405, 181, 420, 212
-0.99863, 145, 225, 272, 256
-0.99863, 405, 1, 420, 32
-0.998631, 185, 167, 248, 182
-0.998632, 57, 81, 120, 96
-0.998633, 219, 157, 234, 188
-0.998633, 81, 89, 144, 104
-0.998634, 185, 185, 248, 200
-0.998634, 105, 93, 168, 108
-0.998635, 145, 33, 208, 48
-0.998635, 51, 29, 66, 60
-0.998636, 273, 185, 336, 200
-0.998636, 65, 265, 192, 296
-0.998637, 193, 189, 208, 220
-0.998637, 289, 163, 352, 178
-0.998637, 273, 225, 336, 240
-0.998639, 233, 161, 296, 176
-0.998639, 193, 33, 224, 288
-0.99864, 225, 157, 240, 188
-0.998641, 145, 41, 208, 56
-0.998641, 361, 13, 424, 28
-0.998641, 265, 179, 328, 194
-0.998641, 265, 195, 328, 210
-0.998642, 33, 265, 288, 328
-0.998642, 17, 103, 80, 118
-0.998642, 209, 97, 272, 112
-0.998643, 201, 69, 264, 84
-0.998643, 289, 117, 352, 132
-0.998643, 201, 79, 264, 94
-0.998644, 185, 173, 248, 188
-0.998644, 249, 77, 312, 92
-0.998645, 329, 215, 392, 230
-0.998645, 369, 209, 432, 224
-0.998645, 293, 217, 308, 248
-0.998645, 361, 1, 424, 16
-0.998646, 297, 193, 360, 208
-0.998649, 369, 127, 432, 142
-0.998649, 369, 53, 432, 68
-0.998651, 121, 243, 184, 258
-0.998652, 265, 213, 328, 228
-0.998652, 257, 219, 320, 234
-0.998652, 39, 85, 54, 116
-0.998654, 369, 175, 432, 190
-0.998654, 145, 51, 208, 66
-0.998655, 137, 57, 200, 72
-0.998655, 289, 151, 352, 166
-0.998656, 33, 51, 96, 66
-0.998656, 233, 97, 296, 112
-0.998656, 249, 91, 312, 106
-0.998656, 129, 73, 192, 88
-0.998657, 249, 83, 312, 98
-0.998657, 265, 133, 328, 148
-0.998658, 9, 51, 72, 66
-0.998658, 145, 27, 208, 42
-0.998658, 297, 199, 360, 214
-0.998658, 369, 67, 432, 82
-0.998659, 353, 45, 480, 76
-0.998659, 201, 31, 264, 46
-0.998659, 361, 139, 424, 154
-0.998659, 131, 81, 146, 112
-0.998659, 305, 3, 368, 18
-0.99866, 369, 101, 432, 116
-0.99866, 185, 179, 248, 194
-0.99866, 41, 45, 104, 60
-0.99866, 105, 5, 168, 20
-0.998661, 273, 123, 336, 138
-0.998662, 201, 61, 264, 76
-0.998662, 201, 91, 264, 106
-0.998662, 369, 113, 432, 128
-0.998662, 233, 155, 296, 170
-0.998663, 1, 7, 64, 22
-0.998663, 257, 161, 320, 176
-0.998663, 281, 27, 344, 42
-0.998663, 65, 177, 128, 192
-0.998663, 65, 185, 128, 200
-0.998663, 145, 21, 208, 36
-0.998663, 185, 197, 248, 212
-0.998664, 279, 193, 294, 224
-0.998664, 145, 193, 208, 208
-0.998664, 289, 231, 352, 246
-0.998664, 89, 69, 104, 100
-0.998664, 217, 177, 280, 192
-0.998664, 245, 101, 260, 132
-0.998665, 225, 221, 288, 236
-0.998666, 405, 133, 420, 164
-0.998667, 149, 57, 164, 88
-0.998668, 225, 257, 480, 320
-0.998668, 405, 53, 420, 84
-0.998668, 133, 1, 148, 32
-0.998672, 79, 193, 94, 224
-0.998681, 103, 69, 118, 100
-0.998691, 353, 69, 480, 100
-0.998692, 405, 105, 420, 136
-0.998693, 7, 5, 22, 36
-0.998695, 361, 129, 392, 375
-0.998697, 257, 289, 384, 320
-0.9987, 145, 17, 160, 48
-0.998702, 145, 41, 160, 72
-0.998704, 205, 1, 236, 256
-0.998705, 103, 85, 118, 116
-0.998705, 229, 49, 244, 80
-0.998706, 329, 209, 344, 240
-0.998709, 309, 149, 324, 180
-0.998709, 273, 229, 288, 260
-0.998713, 353, 149, 480, 180
-0.998715, 161, 261, 288, 292
-0.998715, 35, 41, 50, 72
-0.998716, 399, 213, 414, 244
-0.998726, 405, 29, 420, 60
-0.998727, 7, 337, 22, 368
-0.99873, 73, 181, 88, 212
-0.998731, 287, 149, 302, 180
-0.998733, 353, 217, 480, 280
-0.998736, 247, 217, 262, 248
-0.998737, 69, 33, 84, 64
-0.998739, 255, 29, 270, 60
-0.998745, 353, 1, 480, 32
-0.998747, 21, 33, 36, 64
-0.99875, 45, 45, 60, 76
-0.998752, 261, 213, 276, 244
-0.998753, 255, 73, 270, 104
-0.998756, 33, 209, 288, 272
-0.99876, 137, 189, 152, 220
-0.998764, 125, 81, 140, 112
-0.998764, 361, 1, 376, 32
-0.998765, 201, 157, 216, 188
-0.998771, 335, 193, 350, 224
-0.998773, 23, 45, 38, 76
-0.998775, 299, 141, 314, 172
-0.998776, 31, 189, 46, 220
-0.998776, 139, 89, 154, 120
-0.998777, 303, 129, 318, 160
-0.998778, 169, 229, 184, 260
-0.998779, 97, 253, 224, 284
-0.998782, 255, 9, 270, 40
-0.998784, 7, 53, 22, 84
-0.998785, 149, 73, 164, 104
-0.998786, 229, 29, 244, 60
-0.998786, 1, 249, 16, 280
-0.998788, 175, 241, 190, 272
-0.998795, 313, 185, 328, 216
-0.9988, 231, 161, 246, 192
-0.998809, 265, 181, 280, 212
-0.998812, 23, 101, 38, 132
-0.998814, 29, 201, 44, 232
-0.998816, 413, 197, 428, 228
-0.998821, 329, 221, 344, 252
-0.998828, 257, 1, 384, 32
-0.99883, 289, 225, 416, 256
-0.998831, 257, 41, 384, 72
-0.998834, 321, 293, 448, 324
-0.998835, 43, 1, 58, 128
-0.998841, 37, 1, 52, 128
-0.998849, 145, 97, 272, 128
-0.99885, 409, 33, 440, 288
-0.998852, 209, 265, 336, 296
-0.998865, 259, 129, 274, 256
-0.998866, 353, 57, 480, 88
-0.998878, 49, 1, 64, 128
-0.998885, 145, 193, 176, 320
-0.998895, 353, 85, 480, 116
-0.998897, 333, 129, 364, 375
-0.998901, 321, 289, 448, 352
-0.998918, 253, 129, 268, 256
-0.998923, 353, 33, 480, 64
-0.998925, 129, 213, 256, 244
-0.998927, 353, 21, 480, 52
-0.998927, 29, 97, 60, 352
-0.998947, 369, 169, 496, 200
-0.998951, 121, 129, 152, 375
-0.99897, 145, 249, 272, 280
-0.998986, 139, 1, 154, 128
-0.999021, 113, 121, 240, 152
-0.999022, 369, 297, 496, 328
-0.999063, 31, 1, 46, 128
-0.999082, 239, 81, 254, 208
-0.999085, 261, 177, 276, 304
-0.99909, 193, 297, 320, 360
-0.999091, 251, 177, 266, 304
-0.9991, 373, 97, 404, 352
-0.99912, 297, 1, 328, 256
-0.999128, 329, 145, 344, 272
-0.99913, 129, 273, 384, 336
-0.999132, 353, 185, 480, 216
-0.999165, 251, 81, 266, 208
-0.999175, 247, 129, 262, 256
-0.999179, 201, 145, 216, 272
-0.999179, 265, 129, 280, 256
-0.999191, 337, 161, 352, 288
-0.999206, 161, 129, 192, 375
-0.999214, 245, 81, 260, 208
-0.999216, 141, 97, 172, 352
-0.999217, 25, 33, 40, 160
-0.999222, 405, 129, 436, 375
-0.999238, 147, 1, 162, 128
-0.999238, 321, 33, 352, 288
-0.999246, 29, 177, 44, 304
-0.999262, 287, 161, 302, 288
-0.999272, 245, 177, 260, 304
-0.999274, 55, 1, 70, 128
-0.999277, 271, 129, 286, 256
-0.999284, 267, 177, 282, 304
-0.999288, 65, 129, 96, 375
-0.9993, 279, 193, 294, 320
-0.99931, 13, 177, 28, 304
-0.999319, 241, 129, 256, 256
-0.999322, 149, 1, 180, 256
-0.999328, 323, 129, 338, 256
-0.99933, 23, 113, 38, 240
-0.999333, 405, 113, 420, 240
-0.999334, 61, 33, 76, 160
-0.999337, 405, 193, 420, 320
-0.999344, 3, 241, 18, 368
-0.999345, 19, 33, 34, 160
-0.999346, 1, 177, 16, 304
-0.999352, 311, 161, 326, 288
-0.999358, 305, 177, 320, 304
-0.999361, 35, 145, 50, 272
-0.999367, 191, 177, 206, 304
-0.999367, 215, 177, 230, 304
-0.99937, 93, 65, 108, 192
-0.99937, 9, 17, 24, 144
-0.999379, 261, 81, 276, 208
-0.999379, 83, 113, 98, 240
-0.99938, 337, 65, 368, 192
-0.999382, 255, 17, 270, 144
-0.999387, 341, 1, 372, 128
-0.99939, 103, 65, 118, 192
-0.99939, 23, 209, 38, 336
-0.999395, 207, 177, 222, 304
-0.999398, 273, 193, 288, 320
-0.999399, 141, 49, 156, 176
-0.999399, 391, 193, 406, 320
-0.999403, 233, 81, 248, 208
-0.999404, 213, 129, 228, 256
-0.999404, 77, 145, 92, 272
-0.999405, 279, 145, 294, 272
-0.999407, 55, 65, 70, 192
-0.999411, 115, 81, 130, 208
-0.999415, 47, 81, 62, 208
-0.999418, 397, 193, 412, 320
-0.999418, 1, 1, 16, 128
-0.99942, 83, 49, 98, 176
-0.999422, 185, 177, 200, 304
-0.999426, 299, 145, 314, 272
-0.999428, 293, 145, 308, 272
-0.999434, 405, 1, 420, 128
-0.999448, 375, 193, 390, 320
-0.999448, 31, 49, 46, 176
-0.999448, 261, 1, 292, 256
-0.999448, 103, 161, 118, 288
-0.999453, 135, 177, 150, 304
-0.999454, 109, 81, 124, 208
-0.999456, 317, 145, 332, 272
-0.999459, 229, 1, 244, 128
-0.99946, 149, 177, 164, 304
-0.999462, 41, 49, 56, 176
-0.999462, 121, 81, 136, 208
-0.999463, 291, 17, 306, 144
-0.999464, 381, 193, 396, 320
-0.999464, 29, 97, 44, 224
-0.999465, 353, 193, 368, 320
-0.999467, 133, 17, 148, 144
-0.999469, 143, 177, 158, 304
-0.999475, 159, 177, 174, 304
-0.999476, 223, 161, 238, 288
-0.999476, 209, 241, 272, 368
-0.999478, 7, 177, 22, 304
-0.999482, 129, 177, 144, 304
-0.999483, 71, 33, 86, 160
-0.999486, 267, 81, 282, 208
-0.999489, 195, 129, 210, 256
-0.999489, 235, 145, 250, 272
-0.999491, 359, 193, 374, 320
-0.999494, 119, 177, 134, 304
-0.999496, 293, 193, 308, 320
-0.999501, 369, 193, 384, 320
-0.999502, 111, 1, 126, 128
-0.999504, 193, 193, 208, 208
-0.999505, 405, 105, 420, 120
-0.999505, 405, 25, 420, 40
-0.999505, 105, 89, 120, 104
-0.999505, 347, 193, 362, 320
-0.999505, 405, 49, 420, 176
-0.999506, 229, 93, 244, 108
-0.999506, 399, 215, 414, 230
-0.999506, 55, 23, 70, 38
-0.999506, 27, 45, 42, 60
-0.999506, 271, 139, 286, 154
-0.999506, 255, 19, 270, 34
-0.999506, 255, 11, 270, 26
-0.999507, 31, 195, 46, 210
-0.999507, 133, 1, 148, 16
-0.999507, 77, 25, 92, 40
-0.999507, 405, 9, 420, 24
-0.999507, 1, 123, 16, 138
-0.999507, 67, 25, 82, 40
-0.999507, 229, 29, 244, 44
-0.999507, 247, 97, 262, 112
-0.999507, 255, 59, 270, 74
-0.999507, 335, 201, 350, 216
-0.999508, 405, 183, 420, 198
-0.999508, 257, 227, 272, 242
-0.999508, 361, 113, 376, 128
-0.999509, 413, 209, 428, 224
-0.999509, 277, 209, 292, 224
-0.99951, 149, 67, 164, 82
-0.99951, 405, 197, 420, 212
-0.99951, 357, 123, 372, 138
-0.99951, 367, 145, 382, 272
-0.999511, 413, 113, 428, 240
-0.999511, 125, 37, 140, 52
-0.999511, 337, 175, 352, 190
-0.999512, 135, 191, 150, 206
-0.999512, 89, 73, 104, 88
-0.999512, 47, 45, 62, 60
-0.999512, 19, 161, 34, 288
-0.999512, 243, 195, 258, 210
-0.999512, 229, 39, 244, 54
-0.999513, 1, 57, 16, 72
-0.999513, 31, 201, 46, 216
-0.999513, 339, 211, 354, 226
-0.999514, 229, 55, 244, 70
-0.999514, 255, 41, 270, 56
-0.999514, 229, 45, 244, 60
-0.999515, 5, 129, 20, 256
-0.999515, 325, 157, 340, 172
-0.999515, 225, 171, 240, 186
-0.999515, 207, 129, 222, 256
-0.999516, 255, 35, 270, 50
-0.999516, 301, 145, 316, 160
-0.999517, 405, 111, 420, 126
-0.999517, 139, 81, 154, 96
-0.999518, 405, 171, 420, 186
-0.999519, 405, 189, 420, 204
-0.999519, 309, 173, 324, 188
-0.999519, 253, 99, 268, 114
-0.99952, 149, 73, 164, 88
-0.99952, 127, 97, 142, 224
-0.99952, 405, 31, 420, 46
-0.999521, 229, 87, 244, 102
-0.999521, 255, 65, 270, 80
-0.999521, 17, 107, 32, 122
-0.999521, 405, 203, 420, 218
-0.999521, 145, 45, 160, 60
-0.999522, 139, 55, 154, 70
-0.999523, 405, 37, 420, 52
-0.999524, 139, 25, 154, 40
-0.999524, 3, 49, 18, 176
-0.999524, 229, 11, 244, 26
-0.999524, 405, 215, 420, 230
-0.999524, 275, 231, 290, 246
-0.999524, 131, 39, 146, 54
-0.999525, 103, 33, 118, 48
-0.999525, 335, 113, 350, 240
-0.999525, 173, 129, 188, 256
-0.999525, 229, 3, 244, 18
-0.999525, 287, 113, 302, 240
-0.999526, 81, 199, 96, 214
-0.999526, 405, 65, 420, 80
-0.999526, 255, 85, 270, 100
-0.999526, 291, 41, 306, 56
-0.999526, 405, 45, 420, 60
-0.999526, 323, 177, 338, 304
-0.999526, 265, 141, 280, 156
-0.999526, 239, 193, 254, 320
-0.999527, 149, 59, 164, 74
-0.999527, 405, 125, 420, 140
-0.999527, 49, 97, 80, 352
-0.999528, 313, 139, 328, 154
-0.999528, 255, 75, 270, 90
-0.999528, 41, 85, 56, 100
-0.999528, 311, 209, 326, 336
-0.99953, 405, 51, 420, 66
-0.99953, 229, 71, 244, 86
-0.999531, 105, 1, 120, 128
-0.999531, 229, 79, 244, 94
-0.999533, 101, 71, 116, 86
-0.999533, 405, 57, 420, 72
-0.999533, 321, 175, 336, 190
-0.999533, 295, 97, 310, 224
-0.999534, 405, 177, 420, 192
-0.999534, 229, 65, 244, 80
-0.999534, 93, 1, 108, 128
-0.999534, 157, 239, 172, 254
-0.999536, 405, 137, 420, 152
-0.999537, 147, 13, 162, 28
-0.999537, 399, 145, 414, 272
-0.999537, 147, 23, 162, 38
-0.999537, 145, 33, 160, 48
-0.999538, 311, 151, 326, 166
-0.999538, 199, 187, 214, 202
-0.999538, 229, 17, 244, 32
-0.999539, 139, 49, 154, 64
-0.999539, 47, 91, 62, 106
-0.999541, 89, 129, 104, 256
-0.999541, 269, 227, 284, 242
-0.999541, 139, 19, 154, 34
-0.999543, 9, 225, 24, 352
-0.999544, 75, 195, 90, 210
-0.999545, 61, 25, 76, 40
-0.999545, 229, 129, 244, 256
-0.999545, 329, 165, 344, 180
-0.999545, 405, 3, 420, 18
-0.999545, 5, 197, 20, 212
-0.999546, 139, 13, 154, 28
-0.999547, 405, 209, 420, 224
-0.999547, 97, 161, 112, 288
-0.999548, 165, 145, 180, 272
-0.99955, 305, 129, 320, 256
-0.99955, 163, 241, 178, 256
-0.999551, 171, 193, 186, 320
-0.999551, 145, 39, 160, 54
-0.999552, 139, 75, 154, 90
-0.999553, 413, 17, 428, 144
-0.999553, 179, 193, 194, 320
-0.999554, 13, 97, 28, 224
-0.999554, 147, 7, 162, 22
-0.999555, 133, 97, 148, 224
-0.999556, 47, 85, 62, 100
-0.999556, 345, 113, 360, 240
-0.999557, 413, 65, 428, 192
-0.999558, 179, 145, 194, 272
-0.999558, 299, 233, 314, 248
-0.999559, 41, 97, 56, 224
-0.999561, 145, 1, 160, 16
-0.999563, 55, 83, 70, 98
-0.999563, 67, 97, 82, 224
-0.999564, 139, 7, 154, 22
-0.999565, 351, 117, 366, 132
-0.999566, 139, 31, 154, 46
-0.999567, 139, 43, 154, 58
-0.999569, 287, 213, 302, 228
-0.999572, 323, 151, 338, 166
-0.999574, 405, 131, 420, 146
-0.999576, 257, 289, 500, 352
-0.99958, 263, 229, 278, 244
-0.999583, 317, 145, 332, 160
-0.999592, 59, 39, 74, 54
-0.999603, 63, 47, 78, 62
-0.999608, 75, 201, 90, 216
-0.999613, 169, 243, 184, 258
-0.999617, 139, 37, 154, 52
-0.999625, 139, 1, 154, 16
-0.999628, 53, 43, 68, 58
-0.999695, 81, 193, 112, 320
-0.999753, 333, 33, 364, 288
-0.999758, 337, 249, 464, 312
-0.999771, 361, 33, 392, 288
-0.999773, 137, 225, 200, 352
-0.99979, 161, 33, 192, 288
-0.99979, 1, 273, 500, 336
-0.999818, 1, 313, 256, 375
-0.999887, 181, 225, 212, 352
-1.00003, 205, 225, 236, 352
-1.0001, 349, 1, 380, 256
-1.0001, 1, 233, 500, 296
-1.0001, 425, 1, 488, 375
-1.0002, 45, 161, 76, 288
-1.00024, 1, 289, 256, 352
-1.00026, 289, 241, 352, 368
-1.00028, 161, 297, 416, 360
-1.00028, 321, 241, 448, 368
-1.00036, 97, 289, 224, 352
-1.00048, 193, 241, 224, 368
-1.00061, 49, 313, 176, 375
-1.00075, 273, 313, 400, 375
-1.00078, 321, 313, 448, 375
-1.00083, 373, 1, 404, 256
-1.00087, 257, 313, 500, 375
-1.00089, 365, 17, 396, 144
-1.00097, 393, 209, 456, 336
-1.00103, 357, 65, 388, 192
-1.00104, 97, 313, 224, 375
-1.00108, 445, 129, 476, 375
-1.00111, 265, 241, 296, 368
-1.00116, 445, 33, 476, 288
-1.00119, 145, 305, 272, 368
-1.00121, 433, 129, 464, 375
-1.00131, 433, 33, 464, 288
-1.00134, 81, 241, 144, 368
-1.00145, 417, 241, 480, 368
-1.00154, 461, 1, 492, 256
-1.00157, 421, 129, 452, 375
-1.00162, 457, 129, 488, 375
-1.00177, 469, 129, 500, 375
-1.00179, 421, 1, 452, 256
-1.00188, 37, 241, 68, 368
-1.00201, 1, 313, 500, 375
-1.00224, 105, 225, 168, 352
-1.00454, 369, 241, 432, 368
-1.00536, 433, 1, 496, 128
-1.00577, 433, 1, 496, 256
-1.00627, 313, 225, 376, 352
-1.00759, 345, 241, 408, 368
-1.0078, 433, 49, 496, 176
-1.00889, 433, 129, 496, 375
-1.00925, 433, 193, 496, 320
-1.01133, 433, 97, 496, 224
-1.01357, 433, 145, 496, 272
