1877
-0.300182, 1, 65, 500, 320
-0.381995, 1, 1, 500, 333
-0.482026, 161, 1, 416, 333
-0.502283, 129, 65, 384, 320
-0.522999, 1, 1, 256, 333
-0.539239, 257, 1, 500, 333
-0.584446, 33, 65, 288, 320
-0.600619, 225, 65, 480, 320
-0.84203, 241, 65, 368, 320
-0.847932, 161, 65, 288, 320
-0.850632, 81, 65, 208, 320
-0.858166, 1, 65, 128, 320
-0.865162, 209, 1, 336, 333
-0.865534, 1, 145, 500, 272
-0.87137, 49, 1, 176, 333
-0.873614, 305, 33, 432, 288
-0.87513, 161, 1, 288, 333
-0.878537, 257, 1, 384, 333
-0.879608, 353, 65, 480, 320
-0.882826, 97, 1, 224, 333
-0.886262, 129, 145, 384, 272
-0.886352, 305, 1, 432, 333
-0.886781, 1, 193, 500, 320
-0.887523, 1, 1, 128, 333
-0.895658, 65, 193, 320, 320
-0.898759, 369, 1, 496, 333
-0.908747, 1, 97, 500, 224
-0.913685, 33, 145, 288, 272
-0.915675, 161, 177, 288, 304
-0.915963, 225, 145, 352, 272
-0.917942, 225, 145, 480, 272
-0.920096, 129, 97, 384, 224
-0.924975, 257, 81, 500, 208
-0.924985, 81, 177, 208, 304
-0.926602, 49, 161, 112, 288
-0.92799, 289, 145, 352, 272
-0.928478, 161, 193, 416, 320
-0.931064, 81, 193, 144, 320
-0.931356, 57, 185, 120, 248
-0.933127, 33, 97, 288, 224
-0.93338, 33, 177, 160, 304
-0.934157, 265, 145, 328, 272
-0.934312, 209, 193, 336, 320
-0.934528, 225, 177, 288, 304
-0.936409, 201, 177, 264, 304
-0.937174, 161, 161, 224, 288
-0.937629, 273, 161, 400, 288
-0.939182, 161, 129, 288, 256
-0.939569, 113, 177, 176, 304
-0.941471, 265, 193, 328, 320
-0.943344, 257, 193, 500, 320
-0.944601, 137, 177, 200, 304
-0.944657, 321, 161, 384, 288
-0.945149, 289, 193, 352, 320
-0.946024, 97, 209, 160, 272
-0.946726, 1, 33, 500, 160
-0.947375, 177, 81, 304, 208
-0.948609, 81, 129, 208, 256
-0.948977, 233, 129, 296, 256
-0.949162, 89, 145, 152, 272
-0.949217, 129, 201, 192, 264
-0.950064, 177, 185, 240, 248
-0.9502, 153, 193, 216, 256
-0.950214, 161, 113, 224, 240
-0.950438, 257, 241, 320, 304
-0.950882, 225, 81, 352, 208
-0.951882, 185, 129, 248, 256
-0.951912, 257, 81, 320, 208
-0.952254, 265, 137, 328, 200
-0.95276, 289, 153, 352, 216
-0.953294, 289, 65, 416, 192
-0.953962, 201, 81, 264, 208
-0.954102, 201, 185, 264, 248
-0.954145, 273, 209, 400, 333
-0.954241, 217, 217, 280, 280
-0.954885, 65, 225, 128, 288
-0.954903, 289, 81, 352, 208
-0.955076, 161, 153, 224, 216
-0.956326, 233, 81, 296, 208
-0.956412, 137, 113, 200, 240
-0.956665, 201, 145, 264, 208
-0.956753, 265, 217, 328, 280
-0.95677, 289, 113, 416, 240
-0.956927, 1, 97, 128, 224
-0.95715, 241, 137, 304, 200
-0.957495, 329, 185, 392, 248
-0.957497, 321, 161, 448, 288
-0.959069, 33, 49, 288, 176
-0.959475, 169, 209, 232, 333
-0.95972, 209, 129, 272, 256
-0.960153, 321, 161, 384, 224
-0.960244, 49, 81, 176, 208
-0.961716, 25, 193, 88, 320
-0.962055, 25, 97, 88, 224
-0.962323, 41, 209, 104, 272
-0.962367, 49, 201, 176, 264
-0.962585, 161, 129, 224, 192
-0.963366, 353, 81, 480, 208
-0.963564, 313, 113, 376, 240
-0.963643, 129, 225, 192, 288
-0.96388, 241, 217, 304, 280
-0.963983, 265, 161, 328, 224
-0.964161, 345, 145, 408, 272
-0.965248, 113, 129, 176, 256
-0.965348, 81, 185, 144, 248
-0.965407, 57, 209, 120, 333
-0.965474, 225, 177, 288, 240
-0.965711, 289, 217, 352, 280
-0.965741, 65, 97, 128, 224
-0.965754, 161, 217, 224, 280
-0.965994, 233, 65, 296, 320
-0.966273, 265, 65, 328, 320
-0.96645, 137, 137, 200, 200
-0.966857, 97, 65, 160, 320
-0.967002, 129, 81, 256, 208
-0.967363, 97, 201, 224, 264
-0.967481, 313, 65, 376, 192
-0.967743, 185, 217, 248, 280
-0.967859, 193, 65, 256, 320
-0.968141, 1, 161, 64, 288
-0.968478, 353, 169, 416, 232
-0.968755, 105, 177, 168, 240
-0.968776, 257, 161, 384, 224
-0.968819, 117, 209, 148, 272
-0.968834, 145, 193, 272, 256
-0.968899, 141, 201, 172, 264
-0.968907, 129, 33, 384, 160
-0.969026, 165, 177, 196, 304
-0.969173, 129, 177, 192, 240
-0.969181, 193, 137, 320, 200
-0.969208, 321, 153, 352, 216
-0.969231, 153, 177, 184, 304
-0.969532, 89, 177, 120, 304
-0.969693, 249, 193, 312, 256
-0.969757, 201, 121, 264, 184
-0.969764, 161, 217, 288, 280
-0.969776, 113, 81, 176, 208
-0.969803, 57, 65, 120, 320
-0.969834, 289, 65, 352, 320
-0.970047, 137, 65, 200, 320
-0.970083, 65, 161, 96, 288
-0.970233, 161, 193, 192, 256
-0.970401, 201, 185, 232, 248
-0.970478, 341, 169, 372, 232
-0.970513, 305, 185, 368, 248
-0.970597, 265, 145, 296, 272
-0.970612, 89, 233, 152, 296
-0.970897, 329, 145, 360, 272
-0.970921, 385, 81, 448, 208
-0.971149, 85, 185, 116, 248
-0.97123, 189, 185, 220, 248
-0.971261, 169, 65, 232, 320
-0.971536, 225, 33, 480, 160
-0.97157, 137, 105, 200, 168
-0.971591, 289, 241, 352, 304
-0.971792, 409, 81, 472, 208
-0.971838, 177, 105, 240, 168
-0.972001, 329, 33, 392, 288
-0.972111, 249, 177, 280, 304
-0.97223, 89, 81, 152, 208
-0.973041, 177, 177, 208, 304
-0.973098, 49, 177, 176, 240
-0.973269, 289, 145, 320, 272
-0.973335, 317, 145, 348, 272
-0.973453, 137, 177, 168, 304
-0.973651, 145, 49, 208, 176
-0.973889, 277, 193, 308, 320
-0.973908, 41, 233, 104, 296
-0.973914, 97, 201, 128, 264
-0.973921, 433, 97, 496, 224
-0.973943, 65, 161, 128, 224
-0.974019, 233, 241, 296, 304
-0.974064, 145, 137, 272, 200
-0.974075, 173, 193, 204, 256
-0.974133, 305, 145, 336, 272
-0.974139, 77, 177, 108, 304
-0.974162, 341, 145, 372, 272
-0.974277, 49, 225, 176, 288
-0.974297, 9, 65, 72, 320
-0.974327, 193, 161, 224, 288
-0.974386, 209, 161, 336, 224
-0.97444, 289, 265, 352, 328
-0.974448, 185, 161, 216, 224
-0.974562, 261, 225, 292, 288
-0.974579, 57, 201, 88, 264
-0.974582, 129, 201, 160, 264
-0.974773, 17, 209, 80, 272
-0.974925, 105, 81, 168, 144
-0.975109, 101, 177, 132, 304
-0.975114, 89, 225, 120, 288
-0.975281, 321, 137, 384, 200
-0.975417, 345, 65, 408, 192
-0.975444, 1, 185, 128, 248
-0.975454, 241, 137, 368, 200
-0.975669, 25, 177, 88, 240
-0.975695, 33, 65, 96, 320
-0.975745, 205, 153, 236, 216
-0.975908, 241, 209, 368, 272
-0.975961, 241, 233, 368, 296
-0.975974, 1, 97, 64, 224
-0.975987, 249, 137, 280, 200
-0.976018, 225, 161, 256, 288
-0.976099, 217, 185, 248, 248
-0.976117, 277, 145, 308, 272
-0.976161, 233, 145, 264, 208
-0.976284, 237, 161, 268, 288
-0.976364, 313, 209, 376, 333
-0.976398, 201, 89, 264, 152
-0.976611, 97, 225, 224, 288
-0.976739, 341, 145, 372, 208
-0.976862, 205, 161, 236, 288
-0.976874, 273, 241, 304, 304
-0.976884, 361, 65, 424, 320
-0.977042, 1, 89, 64, 152
-0.977067, 121, 177, 152, 304
-0.97714, 353, 161, 384, 224
-0.97719, 277, 81, 308, 208
-0.977199, 369, 161, 496, 288
-0.977219, 261, 137, 292, 200
-0.977336, 173, 161, 204, 224
-0.977365, 273, 217, 304, 280
-0.977393, 145, 225, 176, 288
-0.977523, 285, 241, 316, 304
-0.977678, 301, 193, 332, 320
-0.977712, 241, 113, 304, 176
-0.977766, 285, 137, 316, 200
-0.977804, 289, 193, 320, 320
-0.977805, 329, 177, 360, 240
-0.977848, 273, 185, 336, 248
-0.97837, 305, 177, 432, 240
-0.978504, 241, 185, 368, 248
-0.978588, 265, 273, 328, 333
-0.978608, 193, 185, 320, 248
-0.978661, 49, 33, 176, 160
-0.978686, 289, 81, 320, 208
-0.978819, 97, 161, 224, 224
-0.978881, 193, 241, 320, 304
-0.97898, 309, 153, 340, 216
-0.97902, 113, 33, 240, 160
-0.979205, 261, 97, 292, 224
-0.979229, 113, 105, 240, 168
-0.979245, 65, 225, 96, 288
-0.979325, 305, 153, 432, 216
-0.979361, 409, 65, 472, 320
-0.979376, 53, 225, 84, 288
-0.979387, 289, 129, 352, 192
-0.979396, 261, 209, 292, 333
-0.979434, 201, 217, 232, 280
-0.979476, 181, 129, 212, 256
-0.979493, 233, 177, 264, 240
-0.979533, 53, 177, 84, 304
-0.979534, 81, 81, 144, 144
-0.979606, 329, 73, 392, 136
-0.979639, 313, 209, 376, 272
-0.979654, 77, 225, 108, 288
-0.979876, 181, 129, 212, 192
-0.979877, 49, 89, 112, 152
-0.979882, 273, 137, 304, 200
-0.979889, 169, 137, 200, 200
-0.979955, 153, 113, 184, 240
-0.98015, 241, 113, 272, 240
-0.980171, 1, 217, 128, 280
-0.980258, 217, 145, 248, 208
-0.980292, 241, 257, 368, 320
-0.980447, 353, 145, 384, 272
-0.980629, 321, 193, 352, 320
-0.980693, 241, 217, 272, 280
-0.980774, 161, 161, 288, 224
-0.980779, 365, 169, 396, 232
-0.980786, 433, 65, 496, 320
-0.980795, 301, 81, 332, 208
-0.980799, 233, 265, 296, 328
-0.980805, 209, 17, 336, 144
-0.981035, 245, 185, 276, 248
-0.981063, 133, 233, 164, 296
-0.981109, 385, 65, 448, 320
-0.981141, 205, 81, 236, 208
-0.981236, 261, 249, 292, 312
-0.981274, 265, 89, 328, 152
-0.981589, 101, 225, 132, 288
-0.981605, 293, 209, 324, 272
-0.981612, 97, 33, 160, 160
-0.981652, 313, 249, 376, 312
-0.981705, 409, 81, 472, 144
-0.981733, 97, 153, 160, 216
-0.98189, 233, 209, 264, 333
-0.981904, 317, 97, 348, 224
-0.982203, 161, 113, 288, 176
-0.982289, 165, 113, 196, 240
-0.982379, 25, 97, 88, 160
-0.982536, 245, 161, 276, 224
-0.982545, 1, 177, 64, 240
-0.982616, 193, 137, 224, 200
-0.982692, 345, 145, 408, 208
-0.982698, 161, 225, 192, 288
-0.982723, 417, 161, 480, 288
-0.982777, 117, 233, 148, 296
-0.982929, 305, 73, 368, 136
-0.982957, 297, 137, 328, 200
-0.983035, 213, 217, 244, 280
-0.983066, 369, 145, 432, 272
-0.98308, 69, 185, 100, 248
-0.983092, 345, 97, 376, 224
-0.983224, 233, 89, 296, 152
-0.983235, 261, 201, 292, 264
-0.983252, 161, 169, 192, 232
-0.983286, 193, 113, 224, 240
-0.983436, 369, 81, 432, 144
-0.983514, 177, 49, 240, 176
-0.983587, 49, 81, 176, 144
-0.983664, 333, 193, 364, 320
-0.983733, 161, 89, 288, 152
-0.983744, 297, 161, 328, 224
-0.983828, 101, 169, 132, 232
-0.983866, 173, 217, 204, 280
-0.984034, 45, 193, 76, 256
-0.98409, 345, 193, 408, 320
-0.984109, 25, 145, 88, 272
-0.984134, 289, 73, 416, 136
-0.984165, 229, 217, 260, 280
-0.984311, 197, 209, 228, 333
-0.984316, 313, 241, 344, 304
-0.98438, 353, 169, 480, 232
-0.984413, 353, 185, 384, 248
-0.984441, 225, 81, 256, 208
-0.984518, 369, 33, 496, 160
-0.984542, 189, 225, 220, 288
-0.984545, 137, 129, 168, 256
-0.984556, 265, 161, 296, 224
-0.984598, 265, 1, 328, 333
-0.984638, 393, 161, 456, 288
-0.984711, 49, 113, 80, 240
-0.984724, 265, 113, 328, 176
-0.984803, 97, 137, 224, 200
-0.984827, 253, 113, 284, 176
-0.985019, 89, 129, 120, 256
-0.985025, 1, 33, 128, 160
-0.985047, 209, 241, 272, 304
-0.985123, 229, 121, 260, 184
-0.985296, 241, 1, 304, 333
-0.985297, 57, 177, 88, 240
-0.985386, 149, 161, 180, 224
-0.985396, 409, 177, 472, 240
-0.985478, 213, 209, 244, 333
-0.985527, 181, 105, 212, 168
-0.985583, 105, 1, 168, 333
-0.985669, 65, 49, 128, 176
-0.98572, 205, 129, 236, 192
-0.985739, 177, 81, 208, 208
-0.985765, 185, 1, 248, 333
-0.985774, 41, 1, 104, 333
-0.985822, 317, 177, 348, 240
-0.985834, 289, 1, 416, 128
-0.985847, 153, 105, 184, 168
-0.985854, 433, 89, 496, 152
-0.985893, 81, 57, 144, 120
-0.985947, 297, 257, 328, 320
-0.985982, 65, 1, 128, 333
-0.986067, 1, 97, 128, 160
-0.986252, 69, 161, 100, 224
-0.986261, 377, 161, 440, 224
-0.986298, 157, 137, 188, 200
-0.986397, 37, 161, 68, 288
-0.986445, 113, 185, 144, 248
-0.986445, 289, 1, 352, 333
-0.986457, 65, 249, 128, 312
-0.986481, 73, 97, 104, 224
-0.986491, 285, 161, 316, 224
-0.986515, 153, 73, 216, 136
-0.986548, 225, 89, 352, 152
-0.986557, 161, 33, 288, 160
-0.986599, 205, 97, 236, 160
-0.986622, 209, 1, 272, 333
-0.986753, 41, 65, 104, 128
-0.986768, 49, 153, 176, 216
-0.986838, 249, 241, 280, 304
-0.98697, 1, 161, 128, 224
-0.987077, 57, 185, 120, 216
-0.987078, 289, 257, 416, 320
-0.987154, 1, 1, 64, 333
-0.987169, 313, 217, 344, 280
-0.987183, 121, 33, 184, 160
-0.987279, 289, 201, 416, 264
-0.987414, 1, 49, 64, 176
-0.987414, 41, 153, 104, 216
-0.987454, 41, 49, 104, 176
-0.987474, 341, 193, 372, 256
-0.987556, 353, 81, 480, 144
-0.987612, 321, 209, 448, 333
-0.987675, 145, 1, 208, 333
-0.987693, 433, 161, 496, 224
-0.987706, 65, 193, 320, 256
-0.987728, 329, 201, 360, 264
-0.987771, 345, 193, 376, 320
-0.987849, 61, 97, 92, 224
-0.98792, 329, 17, 392, 144
-0.988003, 37, 113, 68, 240
-0.988023, 65, 105, 192, 168
-0.988026, 17, 153, 80, 216
-0.988048, 105, 209, 168, 240
-0.988052, 241, 113, 368, 176
-0.988095, 133, 81, 164, 208
-0.988114, 165, 105, 196, 168
-0.988121, 369, 1, 432, 333
-0.988142, 73, 225, 136, 256
-0.988168, 193, 265, 320, 328
-0.988193, 65, 209, 96, 333
-0.988218, 289, 157, 352, 188
-0.988319, 233, 33, 296, 160
-0.988385, 49, 205, 112, 236
-0.988443, 393, 33, 456, 160
-0.988443, 33, 249, 160, 312
-0.988445, 265, 33, 328, 160
-0.988464, 345, 1, 408, 333
-0.988501, 113, 65, 240, 128
-0.988504, 41, 209, 72, 333
-0.988527, 321, 1, 384, 333
-0.988592, 329, 165, 392, 196
-0.98875, 113, 105, 176, 168
-0.98876, 193, 97, 224, 160
-0.98876, 137, 169, 168, 232
-0.988778, 29, 97, 60, 160
-0.988789, 129, 145, 384, 208
-0.988841, 249, 225, 312, 256
-0.98886, 41, 169, 72, 232
-0.988861, 109, 129, 140, 256
-0.988877, 153, 241, 216, 304
-0.98892, 305, 185, 336, 248
-0.988934, 65, 225, 320, 288
-0.988961, 417, 33, 480, 160
-0.988993, 365, 161, 396, 288
-0.988998, 209, 33, 272, 160
-0.989009, 145, 201, 208, 232
-0.98901, 73, 197, 136, 228
-0.989031, 145, 225, 208, 256
-0.989069, 337, 177, 400, 208
-0.98907, 449, 81, 480, 208
-0.989083, 301, 233, 332, 296
-0.989106, 257, 253, 320, 284
-0.989119, 397, 81, 428, 208
-0.989238, 365, 97, 396, 224
-0.989302, 93, 81, 124, 144
-0.989314, 129, 169, 384, 232
-0.989331, 465, 97, 496, 224
-0.989339, 265, 137, 328, 168
-0.989347, 333, 97, 364, 224
-0.98939, 277, 193, 308, 256
-0.989423, 161, 133, 224, 164
-0.989432, 289, 233, 416, 296
-0.989465, 161, 185, 224, 216
-0.989465, 89, 161, 120, 224
-0.989531, 265, 113, 296, 176
-0.98957, 353, 193, 416, 256
-0.989582, 393, 1, 456, 333
-0.989584, 85, 81, 116, 208
-0.989642, 409, 81, 440, 208
-0.989646, 97, 193, 160, 224
-0.989654, 13, 89, 44, 152
-0.989655, 217, 177, 280, 208
-0.989656, 185, 181, 248, 212
-0.989659, 117, 81, 148, 208
-0.989716, 121, 197, 184, 228
-0.989729, 145, 241, 272, 304
-0.989774, 225, 137, 288, 168
-0.989777, 309, 129, 340, 192
-0.989789, 41, 225, 104, 256
-0.989797, 201, 221, 264, 252
-0.9898, 25, 81, 56, 208
-0.98981, 273, 237, 336, 268
-0.989814, 369, 57, 432, 120
-0.98982, 1, 177, 500, 240
-0.989823, 313, 177, 376, 208
-0.989847, 113, 221, 176, 252
-0.989854, 125, 169, 156, 232
-0.989863, 1, 1, 256, 128
-0.989904, 225, 89, 256, 152
-0.989971, 433, 1, 496, 333
-0.989981, 225, 221, 288, 252
-0.989999, 177, 221, 240, 252
-0.990013, 137, 141, 200, 172
-0.990025, 249, 169, 312, 200
-0.990035, 141, 97, 172, 160
-0.990057, 5, 81, 36, 208
-0.990119, 201, 137, 264, 168
-0.990136, 437, 81, 468, 208
-0.990138, 385, 185, 448, 248
-0.990266, 161, 173, 224, 204
-0.990287, 217, 121, 248, 184
-0.990297, 249, 213, 312, 244
-0.990312, 297, 249, 360, 280
-0.990315, 133, 137, 164, 200
-0.990335, 329, 189, 392, 220
-0.99039, 289, 129, 416, 192
-0.990447, 113, 237, 176, 268
-0.990459, 237, 89, 268, 152
-0.990484, 353, 17, 416, 144
-0.990485, 17, 233, 80, 296
-0.990491, 117, 81, 148, 144
-0.990515, 265, 149, 328, 180
-0.990519, 121, 129, 152, 256
-0.990552, 81, 213, 144, 244
-0.990625, 241, 113, 272, 176
-0.990655, 241, 157, 304, 188
-0.990686, 289, 145, 352, 176
-0.990712, 249, 237, 312, 268
-0.990713, 105, 57, 168, 120
-0.990723, 353, 145, 480, 208
-0.990743, 145, 137, 176, 200
-0.990765, 97, 81, 160, 112
-0.990787, 145, 213, 208, 244
-0.990846, 305, 193, 368, 224
-0.990869, 425, 81, 456, 208
-0.990887, 201, 153, 264, 184
-0.990932, 65, 237, 128, 268
-0.990933, 105, 93, 168, 124
-0.990946, 25, 193, 88, 224
-0.990962, 273, 213, 336, 244
-0.991001, 225, 209, 288, 240
-0.991011, 329, 153, 392, 184
-0.991059, 361, 177, 424, 208
-0.991082, 185, 169, 248, 200
-0.991135, 377, 177, 408, 240
-0.991184, 57, 173, 120, 204
-0.991193, 137, 185, 200, 216
-0.99122, 225, 237, 288, 268
-0.991281, 273, 225, 336, 256
-0.991284, 161, 157, 224, 188
-0.991287, 289, 169, 352, 200
-0.991304, 81, 173, 144, 204
-0.991334, 41, 245, 104, 276
-0.991338, 101, 81, 132, 208
-0.991356, 277, 89, 308, 152
-0.991356, 65, 93, 128, 124
-0.991402, 25, 105, 88, 136
-0.991405, 77, 249, 108, 312
-0.991425, 25, 213, 88, 244
-0.991442, 185, 193, 248, 224
-0.991464, 257, 265, 320, 296
-0.991473, 225, 177, 480, 240
-0.991507, 249, 89, 280, 152
-0.991508, 249, 201, 312, 232
-0.991512, 153, 49, 184, 176
-0.991519, 209, 165, 272, 196
-0.991527, 329, 73, 360, 136
-0.99154, 169, 209, 232, 240
-0.991552, 1, 93, 64, 124
-0.991558, 17, 229, 80, 260
-0.991569, 161, 121, 224, 152
-0.991584, 293, 185, 324, 248
-0.991586, 321, 129, 352, 192
-0.991592, 337, 57, 464, 120
-0.99162, 297, 265, 360, 296
-0.991639, 105, 181, 168, 212
-0.991644, 33, 173, 96, 204
-0.991647, 41, 225, 72, 288
-0.991725, 425, 185, 488, 216
-0.991728, 1, 153, 500, 216
-0.991728, 225, 189, 288, 220
-0.991745, 49, 209, 176, 240
-0.991789, 185, 125, 248, 156
-0.991795, 401, 57, 464, 120
-0.991796, 161, 145, 224, 176
-0.991805, 409, 89, 472, 120
-0.99182, 169, 97, 232, 128
-0.991822, 81, 89, 112, 152
-0.991823, 201, 89, 264, 120
-0.991845, 433, 185, 496, 248
-0.99186, 401, 185, 464, 216
-0.991873, 225, 125, 288, 156
-0.99191, 321, 49, 384, 112
-0.991931, 433, 65, 496, 128
-0.991941, 201, 209, 264, 240
-0.991946, 1, 73, 128, 136
-0.991991, 289, 181, 352, 212
-0.992039, 329, 73, 392, 104
-0.992055, 329, 201, 392, 232
-0.992064, 1, 89, 32, 152
-0.992064, 33, 169, 288, 232
-0.992067, 161, 209, 416, 272
-0.992075, 89, 237, 152, 268
-0.992082, 145, 217, 176, 248
-0.992084, 9, 117, 72, 148
-0.992112, 361, 81, 424, 112
-0.992118, 225, 153, 480, 216
-0.992135, 157, 193, 188, 224
-0.992136, 173, 185, 204, 216
-0.992146, 153, 109, 216, 140
-0.992181, 257, 181, 320, 212
-0.992185, 341, 173, 372, 204
-0.992191, 337, 161, 368, 192
-0.992207, 365, 73, 396, 136
-0.992209, 441, 89, 472, 152
-0.992226, 257, 161, 384, 192
-0.992233, 53, 205, 84, 236
-0.992242, 69, 225, 100, 256
-0.992249, 137, 153, 200, 184
-0.992256, 433, 97, 496, 128
-0.992279, 257, 281, 320, 312
-0.992281, 137, 237, 200, 268
-0.992283, 49, 225, 176, 256
-0.992298, 9, 177, 72, 208
-0.992302, 313, 157, 344, 188
-0.992307, 109, 205, 140, 236
-0.992315, 209, 273, 272, 333
-0.992322, 345, 185, 376, 216
-0.992323, 225, 57, 352, 120
-0.992327, 145, 85, 208, 116
-0.992337, 385, 81, 416, 208
-0.992339, 165, 225, 196, 256
-0.99234, 233, 249, 296, 280
-0.992347, 133, 201, 164, 232
-0.992351, 313, 213, 376, 244
-0.992356, 297, 81, 360, 112
-0.992372, 361, 165, 424, 196
-0.992377, 153, 229, 184, 260
-0.992382, 73, 81, 136, 112
-0.992385, 273, 265, 304, 328
-0.992387, 85, 225, 116, 256
-0.992392, 137, 129, 200, 160
-0.9924, 273, 217, 304, 248
-0.992402, 1, 209, 500, 272
-0.992408, 41, 97, 72, 160
-0.992409, 353, 193, 416, 224
-0.992425, 281, 201, 344, 232
-0.992425, 273, 89, 336, 120
-0.992425, 297, 145, 328, 176
-0.992434, 129, 101, 192, 132
-0.992447, 257, 221, 288, 252
-0.992449, 325, 161, 356, 192
-0.992451, 129, 173, 192, 204
-0.992456, 69, 237, 100, 268
-0.992463, 325, 177, 356, 208
-0.992464, 353, 169, 384, 200
-0.992472, 97, 221, 128, 252
-0.992479, 233, 261, 296, 292
-0.992483, 145, 197, 176, 228
-0.992485, 101, 193, 132, 224
-0.992492, 273, 241, 304, 272
-0.992493, 201, 185, 232, 216
-0.992498, 249, 89, 312, 120
-0.992499, 129, 49, 192, 112
-0.992501, 137, 233, 168, 264
-0.992507, 49, 229, 80, 260
-0.992509, 313, 141, 376, 172
-0.992524, 177, 221, 208, 252
-0.992526, 133, 221, 164, 252
-0.992532, 165, 205, 196, 236
-0.992537, 49, 197, 176, 228
-0.992547, 285, 141, 316, 172
-0.99255, 81, 249, 208, 312
-0.992566, 237, 177, 268, 208
-0.992579, 161, 137, 192, 168
-0.992585, 33, 81, 96, 112
-0.992594, 65, 249, 128, 280
-0.992599, 85, 205, 116, 236
-0.992604, 385, 85, 448, 116
-0.992604, 325, 249, 356, 312
-0.99261, 69, 177, 100, 208
-0.992613, 165, 49, 196, 176
-0.992625, 81, 185, 112, 216
-0.992626, 265, 161, 296, 192
-0.992626, 161, 225, 288, 256
-0.992627, 249, 125, 312, 156
-0.992633, 281, 277, 344, 308
-0.992648, 297, 237, 360, 268
-0.992648, 169, 237, 232, 268
-0.992652, 185, 137, 216, 168
-0.992658, 113, 249, 176, 312
-0.992664, 217, 181, 248, 212
-0.992669, 121, 213, 152, 244
-0.992697, 253, 137, 284, 168
-0.992698, 341, 65, 372, 128
-0.992698, 329, 193, 360, 224
-0.992698, 301, 157, 332, 188
-0.992706, 185, 173, 216, 204
-0.992706, 401, 173, 464, 204
-0.992709, 59, 193, 74, 256
-0.992713, 241, 133, 272, 164
-0.992713, 265, 89, 296, 152
-0.992716, 345, 149, 376, 180
-0.992735, 229, 137, 260, 168
-0.992758, 189, 185, 220, 216
-0.99276, 129, 73, 192, 136
-0.99276, 41, 93, 104, 124
-0.992761, 213, 133, 244, 164
-0.992764, 433, 85, 496, 116
-0.992769, 261, 233, 292, 264
-0.992774, 97, 205, 224, 236
-0.992779, 241, 161, 272, 192
-0.992791, 253, 173, 284, 204
-0.992792, 285, 161, 316, 192
-0.992793, 425, 173, 488, 204
-0.992798, 189, 221, 220, 252
-0.992815, 265, 137, 296, 168
-0.992819, 241, 65, 304, 128
-0.992824, 61, 97, 92, 160
-0.99283, 113, 229, 144, 260
-0.992832, 205, 173, 236, 204
-0.992833, 173, 133, 204, 164
-0.992835, 253, 161, 284, 192
-0.992842, 233, 277, 296, 308
-0.992847, 225, 221, 256, 252
-0.992849, 113, 145, 176, 176
-0.992851, 321, 249, 384, 280
-0.992856, 1, 105, 64, 136
-0.992859, 361, 181, 392, 212
-0.992865, 97, 209, 128, 240
-0.992871, 333, 149, 364, 180
-0.992883, 205, 221, 236, 252
-0.992889, 161, 181, 192, 212
-0.992893, 309, 145, 340, 176
-0.992897, 1, 209, 64, 240
-0.992898, 57, 105, 120, 136
-0.99292, 125, 237, 156, 268
-0.992925, 129, 117, 192, 148
-0.992926, 149, 141, 180, 172
-0.992927, 193, 49, 224, 176
-0.992928, 185, 161, 216, 192
-0.992932, 285, 245, 316, 276
-0.992935, 265, 253, 296, 284
-0.992936, 173, 157, 204, 188
-0.992943, 53, 217, 84, 248
-0.992951, 273, 149, 304, 180
-0.992959, 269, 205, 300, 236
-0.992969, 45, 193, 76, 224
-0.992972, 93, 181, 124, 212
-0.992974, 273, 229, 304, 260
-0.992975, 345, 197, 376, 228
-0.992977, 245, 213, 276, 244
-0.992982, 201, 133, 232, 164
-0.992982, 65, 249, 96, 312
-0.992985, 157, 193, 172, 256
-0.992994, 265, 173, 296, 204
-0.993001, 293, 257, 324, 288
-0.993012, 321, 145, 352, 176
-0.993034, 173, 173, 204, 204
-0.993062, 65, 213, 96, 244
-0.993065, 185, 197, 216, 228
-0.993068, 89, 85, 120, 116
-0.993078, 321, 249, 352, 280
-0.993088, 293, 233, 324, 264
-0.993095, 305, 245, 336, 276
-0.993102, 109, 217, 140, 248
-0.993109, 57, 185, 88, 216
-0.993115, 249, 185, 280, 216
-0.993117, 29, 97, 60, 128
-0.993118, 81, 173, 112, 204
-0.993119, 357, 157, 388, 188
-0.99313, 221, 169, 252, 200
-0.993131, 293, 213, 324, 244
-0.993131, 377, 73, 408, 136
-0.993132, 261, 149, 292, 180
-0.993133, 305, 269, 336, 300
-0.99314, 121, 193, 152, 224
-0.993144, 177, 241, 240, 304
-0.993155, 205, 149, 236, 180
-0.993156, 213, 209, 244, 240
-0.993164, 177, 209, 208, 240
-0.993167, 233, 149, 264, 180
-0.993168, 113, 81, 144, 112
-0.993168, 241, 225, 272, 256
-0.993171, 1, 89, 32, 120
-0.993171, 253, 261, 284, 292
-0.993177, 193, 209, 224, 240
-0.993181, 249, 273, 280, 333
-0.993182, 365, 169, 396, 200
-0.993184, 377, 81, 408, 112
-0.993185, 277, 129, 308, 160
-0.993187, 449, 185, 480, 216
-0.993188, 341, 121, 372, 184
-0.993189, 357, 193, 388, 224
-0.993191, 57, 241, 88, 272
-0.993193, 49, 105, 80, 136
-0.9932, 257, 201, 288, 232
-0.993216, 469, 97, 500, 128
-0.993217, 249, 245, 280, 276
-0.993219, 73, 93, 104, 124
-0.993222, 149, 105, 180, 136
-0.993231, 49, 185, 176, 216
-0.993233, 225, 89, 256, 120
-0.993234, 469, 185, 500, 216
-0.993236, 133, 145, 164, 176
-0.993238, 81, 237, 112, 268
-0.993238, 433, 185, 464, 216
-0.99324, 37, 213, 68, 244
-0.993334, 313, 81, 344, 144
-0.993412, 99, 185, 114, 248
-0.993432, 353, 193, 480, 256
-0.99352, 141, 201, 156, 264
-0.993521, 377, 161, 408, 288
-0.993537, 33, 145, 288, 208
-0.993591, 309, 265, 340, 328
-0.993591, 409, 153, 472, 216
-0.993598, 277, 113, 308, 176
-0.993629, 163, 193, 178, 256
-0.993633, 343, 161, 358, 224
-0.993652, 147, 201, 162, 264
-0.993725, 249, 65, 280, 192
-0.993729, 127, 209, 142, 272
-0.993736, 207, 185, 222, 248
-0.993765, 129, 89, 160, 152
-0.993771, 193, 137, 320, 168
-0.99378, 273, 65, 336, 128
-0.993795, 1, 49, 128, 112
-0.993799, 161, 185, 288, 216
-0.993869, 65, 57, 192, 120
-0.993901, 145, 137, 272, 168
-0.993987, 105, 33, 136, 160
-0.994062, 97, 217, 224, 248
-0.994101, 97, 193, 224, 224
-0.994105, 337, 177, 352, 240
-0.994119, 93, 185, 108, 248
-0.994174, 67, 217, 82, 280
-0.994194, 117, 33, 148, 160
-0.994195, 101, 209, 116, 272
-0.994201, 321, 49, 352, 176
-0.994238, 337, 153, 352, 216
-0.994278, 129, 121, 384, 184
-0.994286, 1, 189, 128, 220
-0.994312, 275, 137, 290, 200
-0.994317, 107, 193, 122, 256
-0.994323, 1, 89, 256, 152
-0.994327, 135, 209, 150, 272
-0.99434, 217, 65, 280, 128
-0.994369, 65, 237, 192, 268
-0.994371, 221, 185, 236, 248
-0.994382, 289, 33, 352, 160
-0.994389, 169, 201, 184, 264
-0.994392, 181, 201, 196, 264
-0.994459, 215, 185, 230, 248
-0.99446, 289, 97, 352, 160
-0.99446, 273, 225, 288, 288
-0.994483, 225, 173, 352, 204
-0.994497, 113, 201, 128, 264
-0.994501, 1, 233, 500, 296
-0.994519, 175, 185, 190, 248
-0.994526, 93, 225, 108, 288
-0.99453, 241, 257, 368, 288
-0.994557, 279, 241, 294, 304
-0.994607, 133, 33, 164, 160
-0.994614, 177, 81, 240, 144
-0.994639, 193, 161, 208, 224
-0.994648, 159, 217, 174, 280
-0.994672, 285, 217, 300, 280
-0.994673, 113, 229, 240, 260
-0.994792, 193, 185, 208, 248
-0.994803, 207, 153, 222, 216
-0.994804, 33, 257, 96, 320
-0.994808, 199, 185, 214, 248
-0.994866, 355, 161, 370, 224
-0.994895, 177, 65, 304, 128
-0.994895, 17, 161, 48, 288
-0.994902, 247, 137, 262, 200
-0.994913, 229, 177, 244, 240
-0.994926, 87, 225, 102, 288
-0.99494, 305, 177, 432, 208
-0.994946, 241, 229, 368, 260
-0.994952, 145, 197, 272, 228
-0.994968, 257, 137, 272, 200
-0.994969, 119, 209, 134, 272
-0.994989, 49, 129, 176, 192
-0.994992, 263, 129, 278, 192
-0.994998, 241, 149, 368, 180
-0.995009, 241, 197, 368, 228
-0.995023, 129, 81, 384, 144
-0.995036, 187, 201, 202, 264
-0.995044, 193, 213, 320, 244
-0.995054, 1, 65, 64, 128
-0.995064, 331, 161, 346, 224
-0.995066, 289, 49, 416, 112
-0.995078, 113, 129, 176, 192
-0.995084, 187, 161, 202, 224
-0.995094, 1, 113, 64, 176
-0.995095, 225, 249, 480, 312
-0.995109, 57, 225, 72, 288
-0.995157, 97, 177, 224, 208
-0.99517, 257, 81, 500, 144
-0.995192, 241, 241, 368, 272
-0.995203, 241, 217, 368, 248
-0.995206, 237, 65, 268, 192
-0.995215, 137, 233, 152, 296
-0.995228, 437, 161, 468, 288
-0.995247, 153, 217, 168, 280
-0.995248, 241, 185, 368, 216
-0.995248, 165, 225, 180, 288
-0.99527, 365, 161, 380, 224
-0.995288, 87, 185, 102, 248
-0.995293, 193, 237, 320, 268
-0.995334, 349, 169, 364, 232
-0.995335, 319, 153, 334, 216
-0.995385, 281, 137, 296, 200
-0.995386, 197, 137, 212, 200
-0.995388, 181, 161, 196, 224
-0.995396, 269, 137, 284, 200
-0.995403, 261, 49, 292, 176
-0.99541, 301, 257, 316, 320
-0.995421, 5, 161, 36, 288
-0.995424, 221, 145, 236, 208
-0.995428, 301, 137, 316, 200
-0.995436, 175, 161, 190, 224
-0.995441, 229, 137, 244, 200
-0.995456, 65, 185, 80, 248
-0.995457, 161, 157, 288, 188
-0.995457, 81, 225, 96, 288
-0.995472, 253, 161, 268, 224
-0.995495, 285, 241, 300, 304
-0.995504, 183, 137, 198, 200
-0.995507, 65, 249, 320, 312
-0.995512, 241, 137, 256, 200
-0.995517, 271, 257, 286, 320
-0.99553, 307, 137, 322, 200
-0.995536, 199, 161, 214, 224
-0.995553, 107, 217, 122, 280
-0.995566, 1, 213, 128, 244
-0.995572, 73, 217, 88, 280
-0.995575, 265, 249, 280, 312
-0.995593, 267, 217, 282, 280
-0.995595, 361, 49, 392, 176
-0.995604, 235, 177, 250, 240
-0.995607, 1, 201, 128, 232
-0.995637, 337, 233, 464, 296
-0.995661, 313, 145, 328, 208
-0.995663, 177, 173, 304, 204
-0.995678, 325, 153, 340, 216
-0.995684, 1, 129, 128, 192
-0.995714, 49, 93, 176, 124
-0.995717, 1, 225, 128, 256
-0.99572, 177, 137, 192, 200
-0.995725, 247, 177, 262, 240
-0.995737, 175, 209, 190, 272
-0.995743, 131, 233, 146, 296
-0.995751, 257, 201, 500, 264
-0.995774, 289, 137, 304, 200
-0.995775, 89, 257, 152, 320
-0.995818, 389, 161, 420, 288
-0.995824, 311, 241, 326, 304
-0.995825, 215, 145, 230, 208
-0.995833, 449, 161, 480, 288
-0.995865, 89, 65, 120, 320
-0.995881, 201, 225, 216, 288
-0.995888, 69, 65, 100, 320
-0.995898, 213, 217, 228, 280
-0.995906, 263, 169, 278, 232
-0.995907, 373, 177, 388, 240
-0.995911, 189, 121, 204, 184
-0.995929, 417, 161, 448, 288
-0.995933, 245, 65, 276, 320
-0.995948, 209, 65, 240, 320
-0.99595, 181, 33, 212, 160
-0.995953, 235, 137, 250, 200
-0.995971, 361, 185, 376, 248
-0.99598, 145, 213, 272, 244
-0.995984, 279, 217, 294, 280
-0.995991, 195, 225, 210, 288
-0.995994, 305, 165, 432, 196
-0.996015, 265, 65, 296, 320
-0.996038, 289, 105, 416, 168
-0.996039, 353, 177, 480, 208
-0.996046, 1, 177, 128, 208
-0.996048, 295, 137, 310, 200
-0.996058, 53, 49, 84, 176
-0.996058, 261, 225, 276, 288
-0.996065, 169, 177, 184, 240
-0.996074, 209, 161, 336, 192
-0.996081, 343, 193, 358, 256
-0.996087, 305, 77, 432, 108
-0.99609, 305, 1, 432, 64
-0.9961, 253, 185, 268, 248
-0.996105, 305, 189, 432, 220
-0.996107, 241, 177, 256, 240
-0.996121, 1, 65, 256, 128
-0.996127, 113, 225, 128, 288
-0.996128, 307, 161, 322, 224
-0.996129, 93, 161, 108, 224
-0.99613, 271, 161, 286, 224
-0.996137, 377, 33, 408, 160
-0.996152, 281, 65, 312, 320
-0.996153, 241, 137, 368, 168
-0.99617, 145, 233, 160, 296
-0.996172, 161, 273, 416, 333
-0.996178, 341, 33, 372, 288
-0.996205, 295, 249, 310, 312
-0.996205, 71, 177, 86, 240
-0.996211, 225, 33, 256, 160
-0.996212, 227, 217, 242, 280
-0.996214, 113, 41, 240, 104
-0.996227, 221, 217, 236, 280
-0.996231, 207, 217, 222, 280
-0.996236, 233, 217, 248, 280
-0.996245, 469, 161, 500, 288
-0.996246, 233, 65, 264, 320
-0.996251, 307, 265, 322, 328
-0.996263, 355, 185, 370, 248
-0.996275, 209, 33, 240, 160
-0.996278, 293, 65, 324, 320
-0.996315, 345, 49, 408, 112
-0.996321, 183, 113, 198, 176
-0.996322, 163, 169, 178, 232
-0.99634, 65, 25, 192, 88
-0.996353, 255, 209, 270, 272
-0.996355, 53, 201, 68, 264
-0.996368, 345, 97, 408, 160
-0.99638, 175, 105, 190, 168
-0.996394, 241, 217, 256, 280
-0.996397, 265, 193, 280, 256
-0.9964, 353, 1, 416, 64
-0.996401, 321, 33, 352, 288
-0.996407, 189, 225, 204, 288
-0.996412, 141, 65, 172, 320
-0.996417, 151, 217, 166, 248
-0.996422, 293, 209, 308, 272
-0.996432, 161, 125, 288, 156
-0.996453, 301, 161, 316, 224
-0.996475, 151, 137, 166, 200
-0.996485, 197, 65, 228, 320
-0.996487, 155, 105, 170, 168
-0.996487, 105, 65, 136, 320
-0.996497, 69, 241, 84, 304
-0.996509, 1, 89, 500, 152
-0.996516, 173, 65, 204, 320
-0.996524, 121, 65, 152, 320
-0.99653, 185, 65, 216, 320
-0.996543, 105, 169, 120, 232
-0.996556, 269, 105, 284, 168
-0.99656, 203, 129, 218, 192
-0.996562, 221, 65, 252, 320
-0.996575, 289, 149, 416, 180
-0.996576, 57, 65, 88, 320
-0.996589, 285, 161, 300, 224
-0.996593, 25, 121, 88, 184
-0.996608, 153, 65, 184, 320
-0.996629, 171, 137, 186, 200
-0.996631, 369, 89, 496, 120
-0.996657, 1, 257, 500, 320
-0.996664, 25, 89, 40, 152
-0.996667, 145, 273, 272, 333
-0.996669, 97, 141, 224, 172
-0.996672, 225, 129, 480, 192
-0.996673, 73, 137, 136, 200
-0.996674, 149, 169, 164, 232
-0.996684, 257, 9, 384, 72
-0.996692, 93, 33, 124, 160
-0.996705, 49, 173, 176, 204
-0.996721, 341, 49, 372, 176
-0.996774, 193, 89, 320, 120
-0.996798, 99, 205, 114, 236
-0.996816, 297, 49, 360, 112
-0.996816, 339, 161, 354, 192
-0.996819, 105, 33, 168, 96
-0.996837, 401, 161, 432, 288
-0.996843, 37, 65, 68, 192
-0.996882, 369, 105, 496, 168
-0.996909, 45, 65, 76, 320
-0.996912, 361, 33, 392, 288
-0.996979, 1, 245, 128, 276
-0.996998, 157, 217, 172, 248
-0.997005, 175, 189, 190, 220
-0.997027, 241, 269, 368, 300
-0.997034, 33, 65, 64, 320
-0.997057, 79, 225, 94, 256
-0.997065, 193, 257, 320, 288
-0.997081, 309, 65, 340, 320
-0.997082, 97, 57, 352, 120
-0.997135, 151, 197, 166, 228
-0.997149, 129, 85, 256, 116
-0.997168, 289, 249, 416, 280
-0.997191, 337, 177, 352, 208
-0.9972, 289, 261, 416, 292
-0.997203, 1, 97, 128, 128
-0.997206, 141, 205, 156, 236
-0.997207, 345, 165, 360, 196
-0.997248, 59, 189, 74, 220
-0.997248, 1, 25, 128, 88
-0.997264, 257, 169, 272, 200
-0.997286, 337, 217, 400, 280
-0.997287, 353, 165, 480, 196
-0.997287, 309, 145, 324, 176
-0.997288, 321, 113, 384, 176
-0.997289, 193, 197, 320, 228
-0.997301, 73, 229, 88, 260
-0.997304, 157, 229, 172, 260
-0.997307, 169, 225, 184, 256
-0.997313, 241, 89, 368, 120
-0.997315, 145, 217, 160, 248
-0.997338, 401, 33, 432, 160
-0.997339, 277, 33, 308, 160
-0.997349, 1, 113, 256, 176
-0.997357, 167, 193, 182, 224
-0.997366, 381, 65, 412, 320
-0.997367, 89, 225, 104, 256
-0.997389, 67, 229, 82, 260
-0.997393, 329, 157, 344, 188
-0.997397, 61, 229, 76, 260
-0.997397, 151, 233, 166, 264
-0.997397, 101, 189, 116, 220
-0.997421, 59, 201, 74, 232
-0.997424, 113, 101, 240, 132
-0.997425, 163, 229, 178, 260
-0.997434, 159, 193, 174, 224
-0.997439, 401, 65, 432, 320
-0.997457, 347, 185, 362, 216
-0.997457, 425, 65, 456, 320
-0.997464, 413, 65, 444, 320
-0.997466, 111, 197, 126, 228
-0.997475, 113, 17, 240, 80
-0.997498, 91, 181, 106, 212
-0.997502, 339, 189, 354, 220
-0.997503, 409, 201, 472, 264
-0.997511, 177, 101, 304, 132
-0.997543, 205, 185, 220, 216
-0.997551, 9, 65, 40, 320
-0.997552, 283, 217, 298, 248
-0.997562, 251, 181, 266, 212
-0.997566, 315, 149, 330, 180
-0.997574, 453, 65, 484, 320
-0.997574, 105, 213, 120, 244
-0.997582, 225, 105, 480, 168
-0.99759, 181, 185, 196, 216
-0.99759, 175, 225, 190, 256
-0.997598, 131, 209, 146, 240
-0.997602, 177, 269, 304, 300
-0.997605, 121, 209, 136, 240
-0.997615, 277, 241, 292, 272
-0.997628, 337, 153, 464, 184
-0.997635, 309, 157, 324, 188
-0.997644, 113, 241, 240, 272
-0.997647, 441, 65, 472, 320
-0.997652, 263, 181, 278, 212
-0.997655, 365, 169, 380, 200
-0.997667, 21, 65, 52, 320
-0.997673, 195, 181, 210, 212
-0.997674, 267, 169, 282, 200
-0.997674, 113, 153, 240, 184
-0.997674, 65, 185, 80, 216
-0.997683, 65, 205, 80, 236
-0.997687, 339, 149, 354, 180
-0.997687, 163, 213, 178, 244
-0.997694, 177, 137, 192, 168
-0.997699, 305, 261, 320, 292
-0.997704, 357, 173, 372, 204
-0.997708, 143, 229, 158, 260
-0.997709, 353, 189, 480, 220
-0.997735, 187, 225, 202, 256
-0.997737, 249, 133, 264, 164
-0.997745, 269, 225, 284, 256
-0.997747, 173, 177, 188, 208
-0.997769, 225, 181, 240, 212
-0.997769, 353, 161, 368, 192
-0.997769, 465, 65, 496, 320
-0.997773, 73, 49, 104, 176
-0.997776, 275, 137, 290, 168
-0.997776, 55, 225, 70, 256
-0.997777, 49, 81, 176, 112
-0.997778, 171, 133, 186, 164
-0.99778, 215, 133, 230, 164
-0.997791, 81, 237, 96, 268
-0.997806, 289, 137, 304, 168
-0.99781, 299, 141, 314, 172
-0.997816, 81, 177, 96, 208
-0.997817, 239, 133, 254, 164
-0.997823, 357, 189, 372, 220
-0.997826, 225, 281, 352, 312
-0.997848, 285, 161, 300, 192
-0.997849, 181, 205, 196, 236
-0.997855, 257, 137, 272, 168
-0.99786, 337, 33, 464, 96
-0.997863, 361, 149, 376, 180
-0.997867, 203, 133, 218, 164
-0.997872, 217, 181, 232, 212
-0.997877, 233, 177, 248, 208
-0.997882, 369, 185, 384, 216
-0.997883, 199, 169, 214, 200
-0.997889, 89, 105, 152, 168
-0.997902, 195, 225, 210, 256
-0.997904, 469, 49, 500, 176
-0.997908, 227, 133, 242, 164
-0.997918, 183, 133, 198, 164
-0.997921, 1, 129, 500, 192
-0.997926, 311, 269, 326, 300
-0.997926, 127, 229, 142, 260
-0.997933, 285, 245, 300, 276
-0.997934, 49, 249, 176, 280
-0.99795, 289, 273, 416, 304
-0.997953, 181, 225, 196, 256
-0.997954, 189, 161, 204, 192
-0.997957, 233, 133, 248, 164
-0.997958, 251, 161, 266, 192
-0.997963, 279, 149, 294, 180
-0.997974, 309, 245, 324, 276
-0.997981, 97, 177, 112, 208
-0.997984, 205, 173, 220, 204
-0.997985, 371, 173, 386, 204
-0.997987, 137, 237, 152, 268
-0.997998, 189, 133, 204, 164
-0.997998, 287, 233, 302, 264
-0.998001, 137, 225, 152, 256
-0.998002, 163, 137, 178, 168
-0.998018, 257, 225, 500, 288
-0.99802, 175, 205, 190, 236
-0.998044, 345, 153, 360, 184
-0.998054, 417, 33, 448, 160
-0.998054, 229, 221, 244, 252
-0.998056, 239, 177, 254, 208
-0.998058, 1, 85, 128, 116
-0.998069, 91, 193, 106, 224
-0.99807, 353, 1, 480, 64
-0.998078, 211, 185, 226, 216
-0.99808, 263, 133, 278, 164
-0.998081, 257, 157, 272, 188
-0.998091, 331, 173, 346, 204
-0.998091, 99, 221, 114, 252
-0.998093, 281, 137, 296, 168
-0.998093, 299, 253, 314, 284
-0.998095, 189, 193, 204, 224
-0.998096, 217, 209, 232, 240
-0.998097, 153, 141, 168, 172
-0.998097, 269, 137, 284, 168
-0.998102, 71, 241, 86, 272
-0.998106, 343, 201, 358, 232
-0.998107, 257, 181, 272, 212
-0.998123, 269, 157, 284, 188
-0.998126, 17, 33, 48, 160
-0.99814, 303, 161, 318, 192
-0.998142, 245, 169, 260, 200
-0.998148, 221, 133, 236, 164
-0.998159, 223, 221, 238, 252
-0.998172, 211, 173, 226, 204
-0.998176, 217, 221, 232, 252
-0.998178, 265, 245, 280, 276
-0.99819, 235, 221, 250, 252
-0.998195, 127, 197, 142, 228
-0.998201, 209, 221, 224, 252
-0.998216, 369, 137, 432, 200
-0.998223, 261, 193, 276, 224
-0.998239, 289, 217, 416, 248
-0.998268, 113, 165, 240, 196
-0.99834, 441, 33, 472, 160
-0.998342, 225, 57, 480, 120
-0.998352, 257, 273, 500, 333
-0.998361, 97, 273, 224, 333
-0.99837, 209, 125, 336, 156
-0.998371, 181, 193, 212, 208
-0.998371, 177, 157, 208, 172
-0.998371, 305, 201, 432, 232
-0.998373, 245, 191, 276, 206
-0.998374, 329, 173, 392, 188
-0.998375, 289, 161, 352, 176
-0.998377, 129, 225, 160, 240
-0.998378, 57, 189, 120, 204
-0.998378, 357, 181, 388, 196
-0.998379, 309, 271, 340, 286
-0.99838, 213, 137, 244, 152
-0.99838, 261, 137, 292, 152
-0.998383, 173, 221, 204, 236
-0.998384, 105, 81, 136, 96
-0.998385, 237, 223, 268, 238
-0.998385, 321, 179, 352, 194
-0.998386, 209, 217, 240, 232
-0.998387, 285, 247, 316, 262
-0.998389, 205, 155, 236, 170
-0.99839, 309, 261, 340, 276
-0.99839, 273, 157, 304, 172
-0.998391, 253, 163, 284, 178
-0.998391, 229, 175, 260, 190
-0.998394, 69, 235, 100, 250
-0.998397, 225, 89, 256, 104
-0.998403, 97, 211, 160, 226
-0.998403, 225, 137, 256, 152
-0.998404, 161, 233, 192, 248
-0.998404, 233, 189, 264, 204
-0.998405, 113, 125, 240, 156
-0.998406, 197, 137, 228, 152
-0.998407, 349, 199, 380, 214
-0.998408, 349, 161, 380, 176
-0.998409, 369, 191, 400, 206
-0.998409, 293, 259, 324, 274
-0.998411, 293, 267, 324, 282
-0.998411, 137, 231, 168, 246
-0.998411, 57, 41, 120, 104
-0.998413, 281, 235, 312, 250
-0.998414, 105, 219, 136, 234
-0.998414, 205, 177, 236, 192
-0.998414, 305, 153, 336, 168
-0.998416, 245, 217, 276, 232
-0.998421, 265, 171, 296, 186
-0.998421, 329, 167, 392, 182
-0.998421, 273, 139, 304, 154
-0.998422, 249, 227, 312, 242
-0.998423, 245, 171, 276, 186
-0.998424, 169, 113, 200, 128
-0.998427, 137, 215, 168, 230
-0.998427, 57, 183, 120, 198
-0.998428, 209, 181, 272, 196
-0.998429, 169, 205, 200, 220
-0.998431, 193, 189, 224, 204
-0.998431, 85, 205, 116, 220
-0.998432, 273, 229, 304, 244
-0.998432, 145, 201, 208, 216
-0.998435, 181, 181, 212, 196
-0.998436, 269, 257, 300, 272
-0.998436, 185, 137, 216, 152
-0.998436, 297, 165, 328, 180
-0.998437, 257, 221, 288, 236
-0.998438, 65, 225, 128, 240
-0.998438, 121, 201, 152, 216
-0.998439, 161, 193, 224, 208
-0.99844, 1, 91, 32, 106
-0.998441, 325, 167, 356, 182
-0.998441, 65, 125, 192, 156
-0.998443, 297, 145, 328, 160
-0.998443, 89, 219, 120, 234
-0.998443, 149, 203, 180, 218
-0.998444, 161, 227, 224, 242
-0.998444, 137, 233, 200, 248
-0.998446, 53, 223, 84, 238
-0.998447, 357, 191, 388, 206
-0.998447, 185, 151, 216, 166
-0.998448, 89, 191, 120, 206
-0.998449, 201, 223, 232, 238
-0.99845, 325, 189, 356, 204
-0.99845, 153, 221, 184, 236
-0.998451, 257, 193, 288, 208
-0.998453, 57, 203, 120, 218
-0.998453, 305, 173, 368, 188
-0.998456, 261, 235, 292, 250
-0.998457, 129, 239, 160, 254
-0.998457, 317, 155, 348, 170
-0.998459, 97, 199, 160, 214
-0.998459, 185, 225, 216, 240
-0.99846, 105, 225, 136, 240
-0.99846, 285, 157, 316, 172
-0.998463, 125, 211, 156, 226
-0.998464, 281, 253, 312, 268
-0.998464, 149, 215, 180, 230
-0.998465, 65, 105, 192, 136
-0.998466, 185, 185, 248, 200
-0.998467, 329, 191, 392, 206
-0.998467, 193, 1, 320, 64
-0.998468, 81, 225, 112, 240
-0.998469, 289, 249, 352, 264
-0.998469, 349, 167, 380, 182
-0.99847, 285, 165, 316, 180
-0.998471, 317, 249, 348, 264
-0.998471, 337, 157, 368, 172
-0.998471, 153, 137, 216, 152
-0.998472, 257, 257, 320, 272
-0.998472, 185, 199, 216, 214
-0.998473, 137, 147, 168, 162
-0.998474, 333, 181, 364, 196
-0.998475, 41, 229, 104, 244
-0.998477, 329, 181, 392, 196
-0.998477, 173, 199, 204, 214
-0.998479, 265, 241, 296, 256
-0.998479, 273, 247, 304, 262
-0.998479, 57, 195, 120, 210
-0.998481, 33, 1, 160, 64
-0.998485, 325, 195, 356, 210
-0.998486, 285, 141, 316, 156
-0.998491, 249, 233, 312, 248
-0.998494, 137, 207, 168, 222
-0.998494, 81, 233, 144, 248
-0.998494, 209, 187, 272, 202
-0.998496, 265, 163, 296, 178
-0.998496, 109, 213, 140, 228
-0.998497, 97, 205, 160, 220
-0.998497, 97, 217, 160, 232
-0.998498, 345, 181, 376, 196
-0.9985, 57, 229, 88, 244
-0.9985, 137, 143, 200, 158
-0.9985, 193, 183, 224, 198
-0.998502, 85, 183, 116, 198
-0.998506, 53, 209, 84, 224
-0.998506, 121, 203, 184, 218
-0.998508, 249, 221, 312, 236
-0.998509, 281, 167, 344, 182
-0.998512, 177, 177, 192, 304
-0.998513, 265, 157, 328, 172
-0.998514, 149, 143, 180, 158
-0.998515, 125, 231, 156, 246
-0.998516, 121, 197, 184, 212
-0.998518, 113, 233, 144, 248
-0.99852, 17, 273, 144, 333
-0.998521, 305, 159, 336, 174
-0.998522, 241, 171, 304, 186
-0.998522, 325, 173, 356, 188
-0.998524, 305, 167, 368, 182
-0.998525, 337, 163, 368, 178
-0.998526, 173, 187, 204, 202
-0.998526, 225, 223, 288, 238
-0.998529, 265, 149, 328, 164
-0.998529, 105, 229, 168, 244
-0.998531, 161, 187, 224, 202
-0.998533, 241, 177, 272, 192
-0.998533, 257, 139, 320, 154
-0.998534, 245, 185, 276, 200
-0.998534, 141, 221, 172, 236
-0.998535, 273, 243, 336, 258
-0.998538, 41, 221, 104, 236
-0.99854, 321, 89, 448, 120
-0.998542, 357, 173, 388, 188
-0.998542, 257, 251, 320, 266
-0.998543, 249, 239, 312, 254
-0.998545, 305, 155, 368, 170
-0.998545, 233, 177, 296, 192
-0.998545, 113, 223, 176, 238
-0.998545, 69, 229, 100, 244
-0.998547, 57, 241, 120, 256
-0.998547, 149, 231, 180, 246
-0.998547, 345, 193, 376, 208
-0.998548, 53, 203, 84, 218
-0.998548, 185, 175, 248, 190
-0.998549, 173, 137, 204, 152
-0.998551, 289, 233, 416, 264
-0.998552, 177, 135, 240, 150
-0.998557, 201, 223, 264, 238
-0.998558, 173, 227, 204, 242
-0.998558, 65, 273, 320, 333
-0.998559, 161, 181, 224, 196
-0.998563, 341, 175, 372, 190
-0.998564, 113, 237, 176, 252
-0.998565, 41, 209, 104, 224
-0.998565, 337, 197, 400, 212
-0.998565, 233, 183, 296, 198
-0.998567, 257, 165, 320, 180
-0.998568, 269, 219, 300, 234
-0.99857, 105, 207, 136, 222
-0.99857, 169, 199, 232, 214
-0.998573, 297, 255, 360, 270
-0.998573, 305, 179, 368, 194
-0.998573, 141, 237, 172, 252
-0.998574, 145, 1, 208, 128
-0.998576, 93, 225, 124, 240
-0.998578, 205, 185, 236, 200
-0.998579, 89, 87, 152, 102
-0.998579, 65, 101, 128, 116
-0.99858, 361, 191, 424, 206
-0.998581, 161, 139, 192, 154
-0.998581, 257, 227, 288, 242
-0.998582, 217, 183, 248, 198
-0.998582, 201, 153, 264, 168
-0.998582, 1, 165, 128, 196
-0.998584, 273, 231, 336, 246
-0.998584, 65, 241, 96, 256
-0.998585, 1, 113, 128, 144
-0.998586, 137, 219, 200, 234
-0.998587, 217, 217, 280, 232
-0.998587, 339, 145, 354, 272
-0.998587, 105, 99, 168, 114
-0.998588, 129, 149, 192, 164
-0.998589, 321, 161, 384, 176
-0.99859, 249, 245, 312, 260
-0.998592, 65, 209, 128, 224
-0.998593, 305, 187, 368, 202
-0.998594, 241, 159, 304, 174
-0.998594, 341, 187, 372, 202
-0.998594, 317, 161, 348, 176
-0.998595, 89, 177, 104, 304
-0.998596, 233, 137, 296, 152
-0.998596, 69, 181, 100, 196
-0.998597, 41, 247, 104, 262
-0.998599, 81, 183, 144, 198
-0.998599, 241, 215, 304, 230
-0.998599, 81, 239, 144, 254
-0.998601, 97, 197, 128, 212
-0.998601, 329, 77, 392, 92
-0.998604, 177, 151, 240, 166
-0.998605, 105, 191, 168, 206
-0.998605, 185, 193, 248, 208
-0.998608, 121, 209, 184, 224
-0.99861, 337, 257, 464, 320
-0.998611, 257, 263, 320, 278
-0.998611, 429, 33, 460, 160
-0.998613, 313, 197, 376, 212
-0.998614, 137, 239, 200, 254
-0.998615, 177, 221, 240, 236
-0.998615, 169, 177, 184, 304
-0.998616, 273, 237, 336, 252
-0.998616, 25, 201, 88, 216
-0.998618, 33, 181, 96, 196
-0.998619, 281, 173, 344, 188
-0.998619, 273, 125, 400, 156
-0.99862, 281, 223, 344, 238
-0.99862, 201, 137, 264, 152
-0.99862, 281, 213, 344, 228
-0.998622, 41, 215, 104, 230
-0.998623, 297, 261, 360, 276
-0.998624, 161, 157, 224, 172
-0.998625, 241, 149, 304, 164
-0.998626, 297, 271, 360, 286
-0.998627, 161, 145, 224, 160
-0.998627, 81, 177, 144, 192
-0.998627, 169, 193, 200, 208
-0.998628, 225, 235, 288, 250
-0.998629, 161, 227, 192, 242
-0.998629, 233, 191, 296, 206
-0.99863, 209, 175, 272, 190
-0.998631, 209, 193, 272, 208
-0.998631, 65, 219, 128, 234
-0.998632, 89, 223, 152, 238
-0.998632, 33, 241, 96, 256
-0.998632, 217, 93, 280, 108
-0.998633, 229, 181, 260, 196
-0.998634, 329, 155, 392, 170
-0.998635, 257, 177, 320, 192
-0.998637, 353, 177, 416, 192
-0.99864, 9, 221, 72, 236
-0.998641, 145, 99, 208, 114
-0.998642, 137, 227, 200, 242
-0.998643, 345, 161, 408, 176
-0.998644, 305, 149, 368, 164
-0.998644, 113, 243, 176, 258
-0.998645, 201, 147, 264, 162
-0.998645, 225, 229, 288, 244
-0.998647, 353, 185, 416, 200
-0.998647, 41, 235, 104, 250
-0.998649, 97, 93, 160, 108
-0.99865, 81, 189, 144, 204
-0.998651, 17, 195, 80, 210
-0.998651, 409, 93, 472, 108
-0.998653, 137, 191, 200, 206
-0.998653, 197, 145, 212, 272
-0.998654, 337, 169, 368, 184
-0.998656, 149, 177, 164, 304
-0.998663, 153, 197, 184, 212
-0.998664, 183, 177, 198, 304
-0.99868, 95, 177, 110, 304
-0.99871, 163, 177, 178, 304
-0.998729, 233, 161, 248, 288
-0.998749, 385, 105, 448, 168
-0.998764, 337, 241, 400, 304
-0.998768, 109, 177, 124, 304
-0.998776, 313, 145, 328, 272
-0.99878, 205, 161, 220, 288
-0.998784, 59, 177, 74, 304
-0.998786, 155, 177, 170, 304
-0.998802, 303, 193, 318, 320
-0.998804, 77, 161, 92, 288
-0.998806, 297, 193, 312, 320
-0.99881, 261, 161, 276, 288
-0.99881, 139, 177, 154, 304
-0.998813, 291, 145, 306, 272
-0.998825, 239, 161, 254, 288
-0.998829, 353, 61, 480, 92
-0.99883, 307, 129, 322, 256
-0.998835, 289, 33, 320, 160
-0.998838, 1, 73, 128, 104
-0.998839, 83, 161, 98, 288
-0.998847, 279, 145, 294, 272
-0.99885, 289, 137, 416, 168
-0.998852, 227, 161, 242, 288
-0.998857, 103, 177, 118, 304
-0.998863, 329, 1, 392, 64
-0.998866, 389, 33, 420, 160
-0.998871, 301, 33, 332, 160
-0.998881, 241, 77, 368, 108
-0.998881, 285, 193, 300, 320
-0.998882, 333, 145, 348, 272
-0.998882, 133, 161, 148, 288
-0.998889, 217, 177, 232, 304
-0.998892, 189, 177, 204, 304
-0.998892, 171, 129, 186, 256
-0.998892, 211, 161, 226, 288
-0.998895, 127, 161, 142, 288
-0.998895, 113, 73, 240, 104
-0.998897, 241, 33, 368, 96
-0.9989, 65, 177, 80, 304
-0.9989, 273, 81, 288, 208
-0.998903, 345, 161, 360, 288
-0.998905, 285, 81, 300, 208
-0.998909, 327, 145, 342, 272
-0.998913, 245, 161, 260, 288
-0.998915, 177, 25, 304, 88
-0.998915, 255, 161, 270, 288
-0.998923, 319, 145, 334, 272
-0.998928, 359, 145, 374, 272
-0.998936, 271, 209, 286, 333
-0.998942, 307, 81, 322, 208
-0.998947, 309, 193, 324, 320
-0.998959, 115, 161, 130, 288
-0.99896, 299, 81, 314, 208
-0.998965, 267, 161, 282, 288
-0.998966, 121, 161, 136, 288
-0.998967, 261, 97, 276, 224
-0.99897, 291, 193, 306, 320
-0.998984, 321, 101, 448, 132
-0.998986, 335, 193, 350, 320
-0.998987, 1, 33, 32, 160
-0.998989, 279, 81, 294, 208
-0.998993, 285, 145, 300, 272
-0.998995, 203, 97, 218, 224
-0.999002, 273, 145, 288, 272
-0.999023, 71, 161, 86, 288
-0.99903, 301, 145, 316, 272
-0.999042, 291, 81, 306, 208
-0.999043, 83, 209, 98, 333
-0.999048, 113, 113, 240, 144
-0.99905, 1, 209, 64, 333
-0.999057, 253, 113, 268, 240
-0.99907, 305, 1, 432, 32
-0.999075, 165, 113, 180, 240
-0.999085, 317, 81, 332, 208
-0.999091, 353, 161, 368, 288
-0.999095, 241, 81, 256, 208
-0.999103, 221, 129, 236, 256
-0.999108, 267, 81, 282, 208
-0.999113, 265, 209, 280, 333
-0.999115, 315, 193, 330, 320
-0.99912, 179, 97, 194, 224
-0.999122, 191, 97, 206, 224
-0.999127, 133, 209, 148, 333
-0.999132, 1, 65, 500, 128
-0.999146, 369, 101, 496, 132
-0.999147, 247, 209, 262, 333
-0.99915, 247, 97, 262, 224
-0.99915, 277, 193, 292, 320
-0.999152, 365, 145, 380, 272
-0.999154, 357, 209, 388, 333
-0.999157, 89, 129, 104, 256
-0.999162, 53, 113, 68, 240
-0.999162, 329, 193, 344, 320
-0.999169, 195, 193, 210, 320
-0.999169, 345, 113, 360, 240
-0.999182, 159, 97, 174, 224
-0.999184, 185, 129, 200, 256
-0.999187, 231, 81, 246, 208
-0.999193, 151, 97, 166, 224
-0.999199, 209, 81, 224, 208
-0.999205, 139, 129, 154, 256
-0.999206, 99, 129, 114, 256
-0.999209, 211, 209, 226, 333
-0.99921, 417, 249, 480, 312
-0.999212, 369, 77, 496, 108
-0.999212, 217, 81, 232, 208
-0.999213, 145, 129, 160, 256
-0.999214, 161, 113, 288, 144
-0.999215, 119, 209, 134, 333
-0.999215, 125, 209, 140, 333
-0.999224, 49, 161, 64, 288
-0.999224, 337, 245, 464, 276
-0.999225, 69, 97, 84, 224
-0.999233, 205, 209, 220, 333
-0.999234, 197, 97, 212, 224
-0.999238, 65, 161, 192, 192
-0.999238, 321, 193, 336, 320
-0.999239, 253, 209, 268, 333
-0.999249, 327, 65, 342, 192
-0.999252, 235, 209, 250, 333
-0.999256, 77, 209, 92, 333
-0.999266, 225, 81, 240, 208
-0.999267, 241, 209, 256, 333
-0.999277, 61, 113, 76, 240
-0.999278, 161, 265, 224, 328
-0.999282, 335, 97, 350, 224
-0.999293, 457, 33, 488, 160
-0.999296, 53, 209, 68, 333
-0.999301, 77, 97, 92, 224
-0.999311, 223, 209, 238, 333
-0.999311, 229, 209, 244, 333
-0.99932, 259, 209, 274, 333
-0.999322, 145, 257, 272, 288
-0.999328, 351, 113, 366, 240
-0.999337, 47, 97, 62, 224
-0.999343, 145, 81, 160, 208
-0.999346, 471, 97, 486, 224
-0.99935, 193, 77, 320, 108
-0.999362, 363, 193, 378, 320
-0.999362, 257, 101, 384, 132
-0.99937, 305, 65, 432, 96
-0.999381, 457, 81, 472, 208
-0.999385, 443, 81, 458, 208
-0.999389, 357, 65, 372, 192
-0.999393, 337, 233, 464, 264
-0.999398, 109, 129, 124, 256
-0.999399, 465, 97, 480, 224
-0.999407, 13, 81, 28, 208
-0.999408, 371, 177, 386, 304
-0.999412, 133, 81, 148, 208
-0.999417, 451, 81, 466, 208
-0.999418, 409, 81, 424, 208
-0.999418, 415, 81, 430, 208
-0.999432, 41, 97, 56, 224
-0.999485, 153, 17, 216, 80
-0.999518, 81, 53, 208, 84
-0.999521, 97, 33, 224, 64
-0.999524, 177, 281, 304, 312
-0.999528, 49, 113, 112, 176
-0.999569, 193, 301, 320, 332
-0.999595, 127, 213, 142, 228
-0.999596, 347, 201, 362, 216
-0.999597, 191, 227, 206, 242
-0.999599, 335, 251, 350, 266
-0.9996, 89, 175, 104, 190
-0.9996, 273, 257, 288, 272
-0.999601, 183, 185, 198, 200
-0.999601, 157, 215, 172, 230
-0.999602, 259, 177, 274, 192
-0.999603, 371, 175, 386, 190
-0.999604, 73, 179, 88, 194
-0.999605, 239, 187, 254, 202
-0.999605, 181, 157, 196, 172
-0.999607, 297, 143, 312, 158
-0.999607, 351, 165, 366, 180
-0.999607, 361, 167, 376, 182
-0.999609, 171, 223, 186, 238
-0.999609, 179, 205, 194, 220
-0.99961, 253, 169, 268, 184
-0.999611, 107, 99, 122, 114
-0.999611, 169, 203, 184, 218
-0.999612, 109, 201, 124, 216
-0.999613, 353, 171, 368, 186
-0.999614, 331, 173, 346, 188
-0.999614, 139, 147, 154, 162
-0.999614, 85, 181, 100, 196
-0.999616, 59, 197, 74, 212
-0.999618, 109, 225, 124, 240
-0.999618, 109, 219, 124, 234
-0.999619, 367, 197, 382, 212
-0.99962, 287, 139, 302, 154
-0.99962, 155, 221, 170, 236
-0.999621, 73, 9, 136, 72
-0.999621, 347, 195, 362, 210
-0.999621, 183, 225, 198, 240
-0.999622, 251, 181, 266, 196
-0.999623, 307, 165, 322, 180
-0.999623, 339, 185, 354, 200
-0.999624, 143, 231, 158, 246
-0.999625, 189, 195, 204, 210
-0.999625, 367, 191, 382, 206
-0.999625, 267, 223, 282, 238
-0.999626, 313, 261, 328, 276
-0.999627, 151, 229, 166, 244
-0.999628, 355, 177, 370, 192
-0.999631, 65, 231, 80, 246
-0.999632, 143, 219, 158, 234
-0.999633, 163, 233, 178, 248
-0.999634, 251, 187, 266, 202
-0.999634, 185, 137, 200, 152
-0.999634, 89, 189, 104, 204
-0.999635, 193, 1, 448, 64
-0.999635, 357, 187, 372, 202
-0.999636, 287, 247, 302, 262
-0.999638, 137, 231, 152, 246
-0.999638, 337, 159, 352, 174
-0.999639, 305, 265, 320, 280
-0.99964, 321, 159, 336, 174
-0.999644, 185, 201, 200, 216
-0.999644, 299, 257, 314, 272
-0.999644, 345, 165, 360, 180
-0.999644, 177, 187, 192, 202
-0.999644, 195, 193, 210, 208
-0.999645, 183, 191, 198, 206
-0.999645, 341, 197, 356, 212
-0.999646, 315, 159, 330, 174
-0.999646, 277, 163, 292, 178
-0.999648, 101, 193, 116, 208
-0.999652, 365, 173, 380, 188
-0.999652, 147, 205, 162, 220
-0.999652, 285, 167, 300, 182
-0.999652, 259, 169, 274, 184
-0.999652, 155, 235, 170, 250
-0.999653, 269, 167, 284, 182
-0.999653, 135, 209, 150, 224
-0.999654, 101, 207, 116, 222
-0.999659, 195, 185, 210, 200
-0.99966, 345, 171, 360, 186
-0.999662, 309, 159, 324, 174
-0.999665, 127, 233, 142, 248
-0.999666, 151, 145, 166, 160
-0.999666, 57, 227, 72, 242
-0.999666, 175, 199, 190, 214
-0.999671, 69, 241, 84, 256
-0.999672, 149, 221, 164, 236
-0.999672, 79, 229, 94, 244
-0.999673, 103, 221, 118, 236
-0.999673, 319, 153, 334, 168
-0.999675, 179, 137, 194, 152
-0.999677, 353, 195, 368, 210
-0.999678, 93, 225, 108, 240
-0.99968, 79, 235, 94, 250
-0.999685, 141, 207, 156, 222
-0.999685, 157, 197, 172, 212
-0.999686, 349, 189, 364, 204
-0.999687, 211, 187, 226, 202
-0.999688, 311, 149, 326, 164
-0.999688, 257, 183, 272, 198
-0.999689, 79, 179, 94, 194
-0.999691, 331, 161, 346, 176
-0.999692, 347, 183, 362, 198
-0.999693, 167, 139, 182, 154
-0.999694, 59, 203, 74, 218
-0.999695, 253, 175, 268, 190
-0.999698, 159, 141, 174, 156
-0.999698, 49, 137, 176, 168
-0.999701, 149, 235, 164, 250
-0.999701, 173, 137, 188, 152
-0.999703, 241, 17, 368, 48
-0.999704, 73, 229, 88, 244
-0.999708, 85, 227, 100, 242
-0.99971, 205, 185, 220, 200
-0.999711, 163, 227, 178, 242
-0.999711, 261, 193, 276, 208
-0.999714, 337, 179, 352, 194
-0.999718, 217, 185, 232, 200
-0.999718, 359, 195, 374, 210
-0.99972, 173, 193, 188, 208
-0.999723, 341, 191, 356, 206
-0.999724, 99, 187, 114, 202
-0.999727, 137, 239, 152, 254
-0.999727, 143, 237, 158, 252
-0.99973, 91, 181, 106, 196
-0.999732, 145, 41, 272, 72
-0.999732, 339, 165, 354, 180
-0.999734, 177, 227, 192, 242
-0.999734, 345, 177, 360, 192
-0.999734, 169, 229, 184, 244
-0.99974, 157, 229, 172, 244
-0.999741, 235, 181, 250, 196
-0.999746, 227, 183, 242, 198
-0.999748, 357, 1, 388, 128
-0.999757, 163, 195, 178, 210
-0.999761, 151, 215, 166, 230
-0.999762, 241, 65, 368, 96
-0.999763, 337, 171, 352, 186
-0.999765, 49, 149, 176, 180
-0.999766, 243, 179, 258, 194
-0.999767, 49, 261, 176, 292
-0.99978, 73, 1, 136, 128
-0.999789, 65, 69, 192, 100
-0.9998, 161, 33, 416, 96
-0.999814, 1, 125, 128, 156
-0.999824, 33, 45, 160, 76
-0.999837, 257, 1, 384, 32
-0.999851, 1, 41, 256, 104
-0.999852, 241, 301, 368, 332
-0.999864, 177, 57, 240, 120
-0.999865, 1, 17, 128, 48
-0.999875, 169, 1, 232, 128
-0.999882, 337, 141, 464, 172
-0.999885, 209, 113, 336, 144
-0.999886, 1, 9, 256, 72
-0.999894, 97, 293, 224, 324
-0.999903, 305, 297, 432, 328
-0.999919, 273, 285, 400, 316
-0.999957, 33, 57, 160, 88
-0.99996, 1, 261, 128, 292
-0.999967, 129, 17, 192, 80
-0.999983, 369, 1, 496, 32
-0.999989, 353, 201, 480, 232
-1, 193, 29, 320, 60
-1.00002, 97, 253, 224, 284
-1.00006, 353, 221, 480, 252
-1.00006, 241, 29, 368, 60
-1.0001, 337, 257, 464, 288
-1.0001, 41, 1, 104, 128
-1.00028, 81, 33, 144, 96
-1.00039, 321, 1, 352, 128
-1.00073, 97, 9, 352, 72
-1.00094, 245, 17, 276, 144
-1.00106, 257, 25, 500, 88
-1.00137, 369, 209, 496, 333
-1.00161, 1, 25, 500, 88
-1.00163, 345, 1, 376, 128
-1.00181, 373, 209, 404, 333
-1.00182, 333, 1, 364, 128
-1.00221, 369, 193, 432, 320
-1.00241, 1, 1, 500, 64
-1.00245, 153, 1, 184, 128
-1.00256, 193, 1, 224, 128
-1.00281, 41, 17, 72, 144
-1.00297, 29, 17, 60, 144
-1.00346, 265, 1, 296, 128
-1.00381, 165, 1, 196, 128
-1.00433, 25, 209, 56, 333
-1.00438, 13, 209, 44, 333
-1.00452, 9, 1, 72, 128
-1.00591, 401, 209, 464, 333
-1.00759, 425, 209, 488, 333
