1905
-0.569159, 1, 65, 500, 320
-0.675096, 129, 1, 384, 357
-0.703922, 1, 1, 500, 357
-0.713623, 97, 65, 352, 320
-0.729757, 257, 1, 500, 357
-0.733655, 225, 97, 480, 352
-0.772619, 33, 1, 288, 357
-0.839357, 1, 65, 256, 320
-0.881082, 225, 97, 352, 352
-0.888885, 273, 97, 400, 352
-0.904694, 145, 65, 272, 320
-0.905188, 81, 65, 208, 320
-0.907756, 337, 65, 464, 320
-0.914046, 1, 65, 128, 320
-0.916682, 257, 1, 384, 357
-0.919551, 193, 1, 448, 256
-0.920531, 177, 1, 304, 357
-0.923127, 337, 1, 464, 357
-0.927175, 65, 1, 192, 357
-0.931236, 129, 1, 256, 357
-0.933943, 1, 1, 128, 357
-0.937032, 1, 81, 500, 208
-0.942185, 193, 1, 320, 256
-0.943543, 273, 1, 400, 256
-0.953461, 1, 81, 256, 208
-0.95807, 225, 65, 480, 192
-0.960038, 129, 81, 384, 208
-0.961019, 1, 33, 500, 160
-0.961349, 1, 129, 500, 256
-0.964271, 217, 209, 280, 272
-0.966476, 33, 129, 288, 256
-0.968834, 49, 81, 176, 208
-0.968861, 1, 225, 500, 352
-0.969603, 41, 113, 104, 240
-0.969673, 65, 97, 128, 224
-0.970326, 105, 81, 168, 208
-0.970977, 169, 201, 232, 264
-0.971907, 1, 81, 128, 208
-0.972123, 1, 81, 64, 208
-0.972398, 241, 201, 304, 264
-0.973129, 337, 81, 464, 208
-0.973735, 33, 161, 96, 288
-0.974218, 161, 81, 224, 208
-0.974544, 1, 161, 128, 288
-0.974562, 201, 97, 264, 352
-0.974635, 137, 81, 200, 208
-0.974835, 1, 177, 500, 304
-0.975061, 65, 209, 320, 336
-0.975062, 281, 97, 344, 352
-0.975144, 33, 161, 96, 224
-0.975336, 401, 89, 464, 152
-0.975444, 257, 113, 500, 240
-0.975991, 49, 129, 176, 256
-0.976443, 217, 233, 280, 296
-0.976714, 105, 89, 168, 152
-0.976951, 225, 81, 352, 208
-0.977038, 369, 81, 432, 208
-0.977343, 225, 81, 288, 208
-0.977435, 369, 97, 432, 160
-0.97746, 241, 225, 304, 288
-0.977535, 65, 161, 128, 288
-0.977549, 217, 89, 280, 152
-0.97761, 241, 97, 304, 352
-0.977985, 41, 65, 104, 192
-0.978035, 145, 89, 208, 152
-0.978179, 393, 65, 456, 192
-0.978305, 193, 81, 256, 208
-0.978653, 193, 201, 256, 264
-0.978907, 161, 81, 288, 208
-0.979045, 129, 33, 384, 160
-0.979263, 273, 225, 336, 288
-0.979402, 193, 233, 256, 296
-0.979442, 177, 89, 240, 152
-0.979679, 33, 33, 288, 160
-0.979686, 145, 209, 272, 336
-0.979872, 417, 81, 480, 208
-0.979928, 177, 193, 240, 320
-0.979944, 193, 209, 320, 336
-0.980106, 289, 65, 416, 192
-0.980275, 245, 201, 276, 264
-0.980373, 113, 81, 240, 208
-0.980549, 161, 129, 416, 256
-0.981076, 161, 209, 416, 336
-0.98118, 241, 89, 304, 152
-0.981456, 209, 209, 272, 336
-0.981487, 229, 209, 260, 272
-0.981576, 209, 209, 336, 272
-0.981591, 393, 113, 456, 176
-0.982023, 289, 89, 352, 152
-0.982049, 337, 81, 400, 208
-0.982266, 161, 65, 224, 320
-0.98255, 161, 209, 288, 272
-0.982632, 249, 81, 312, 208
-0.982808, 57, 81, 120, 144
-0.982879, 1, 129, 64, 256
-0.982966, 113, 113, 176, 176
-0.983015, 425, 89, 488, 152
-0.98335, 313, 81, 376, 208
-0.983476, 289, 81, 352, 208
-0.983617, 89, 81, 120, 144
-0.983643, 41, 185, 104, 248
-0.983798, 321, 89, 384, 152
-0.983856, 217, 225, 248, 288
-0.98392, 105, 65, 168, 320
-0.984094, 81, 89, 144, 152
-0.984545, 201, 177, 264, 240
-0.984623, 65, 177, 128, 240
-0.98474, 177, 233, 304, 296
-0.984747, 345, 89, 408, 152
-0.984989, 305, 97, 368, 352
-0.984995, 201, 201, 232, 264
-0.985236, 321, 89, 448, 152
-0.985247, 137, 113, 200, 176
-0.9854, 113, 81, 144, 144
-0.98545, 353, 65, 416, 320
-0.985587, 65, 89, 192, 152
-0.9856, 89, 113, 152, 176
-0.985949, 97, 129, 224, 256
-0.985971, 329, 97, 392, 352
-0.985984, 393, 113, 456, 240
-0.986061, 265, 89, 328, 152
-0.986065, 421, 89, 452, 152
-0.986218, 33, 81, 96, 144
-0.986593, 225, 113, 288, 176
-0.986593, 229, 89, 260, 152
-0.986603, 113, 209, 240, 272
-0.98688, 53, 129, 84, 256
-0.987032, 73, 209, 136, 272
-0.987136, 269, 89, 300, 152
-0.987353, 1, 137, 64, 200
-0.987435, 137, 65, 200, 320
-0.987524, 241, 233, 368, 296
-0.987536, 257, 209, 288, 272
-0.987659, 129, 89, 256, 152
-0.987738, 57, 65, 120, 320
-0.987773, 65, 161, 96, 288
-0.987779, 1, 169, 128, 232
-0.987786, 49, 209, 112, 272
-0.987924, 445, 89, 476, 152
-0.98795, 129, 145, 192, 272
-0.987965, 409, 65, 472, 320
-0.988003, 249, 89, 280, 152
-0.988004, 377, 65, 440, 320
-0.988006, 81, 65, 144, 320
-0.988065, 61, 81, 92, 208
-0.98817, 245, 225, 276, 288
-0.988177, 161, 161, 288, 288
-0.988214, 93, 105, 124, 168
-0.988259, 409, 89, 440, 152
-0.98828, 269, 225, 300, 288
-0.988293, 225, 89, 352, 152
-0.988421, 1, 33, 128, 160
-0.988465, 397, 97, 428, 160
-0.988478, 297, 233, 360, 296
-0.988607, 49, 137, 112, 200
-0.988632, 189, 201, 220, 264
-0.98864, 177, 89, 304, 152
-0.988653, 161, 185, 288, 248
-0.988663, 273, 113, 400, 240
-0.988724, 337, 33, 464, 160
-0.988742, 369, 113, 496, 176
-0.988871, 145, 201, 208, 264
-0.988891, 81, 177, 208, 304
-0.988896, 337, 113, 400, 176
-0.988988, 89, 161, 152, 224
-0.989041, 73, 185, 104, 248
-0.989051, 89, 129, 152, 256
-0.9891, 273, 89, 400, 152
-0.989103, 129, 145, 192, 208
-0.989152, 209, 33, 272, 160
-0.989167, 73, 137, 136, 200
-0.989214, 141, 81, 172, 144
-0.989264, 1, 81, 128, 144
-0.989295, 369, 89, 496, 152
-0.989335, 389, 81, 420, 208
-0.98934, 369, 73, 432, 136
-0.989538, 241, 209, 368, 336
-0.989591, 81, 185, 208, 248
-0.989626, 249, 233, 312, 264
-0.989636, 229, 81, 260, 208
-0.989641, 249, 249, 312, 312
-0.989653, 49, 153, 176, 216
-0.989665, 81, 33, 208, 160
-0.989681, 217, 221, 280, 252
-0.9897, 153, 193, 216, 320
-0.98973, 77, 129, 108, 256
-0.989749, 33, 209, 160, 336
-0.989811, 177, 209, 240, 240
-0.989832, 81, 81, 112, 208
-0.989863, 1, 81, 64, 144
-0.989918, 321, 113, 448, 176
-0.989961, 217, 161, 280, 288
-0.989981, 289, 113, 352, 176
-0.990001, 57, 209, 120, 336
-0.990064, 57, 161, 88, 224
-0.99013, 169, 81, 200, 208
-0.99016, 369, 105, 432, 136
-0.990226, 393, 105, 456, 136
-0.990252, 333, 89, 364, 152
-0.990259, 33, 65, 96, 320
-0.990265, 105, 105, 168, 136
-0.990322, 145, 33, 272, 160
-0.990343, 201, 209, 264, 240
-0.990381, 197, 89, 228, 152
-0.990458, 225, 33, 352, 160
-0.990509, 209, 129, 336, 256
-0.990516, 25, 169, 88, 200
-0.990532, 201, 81, 232, 208
-0.990534, 229, 233, 260, 296
-0.990602, 9, 169, 72, 232
-0.990667, 433, 113, 496, 176
-0.99071, 121, 33, 184, 160
-0.990728, 81, 113, 144, 144
-0.990738, 169, 225, 232, 288
-0.990766, 193, 113, 256, 176
-0.990778, 225, 233, 288, 264
-0.990808, 273, 233, 336, 264
-0.990838, 257, 113, 320, 176
-0.990868, 121, 105, 152, 168
-0.990897, 89, 205, 152, 236
-0.990916, 49, 81, 80, 208
-0.990923, 257, 177, 500, 304
-0.990939, 217, 105, 280, 136
-0.990995, 329, 225, 392, 288
-0.991088, 185, 33, 248, 160
-0.991153, 97, 33, 160, 160
-0.991168, 33, 121, 160, 184
-0.991255, 169, 81, 200, 144
-0.991268, 185, 229, 248, 260
-0.991278, 57, 101, 120, 132
-0.991291, 137, 109, 200, 140
-0.9913, 1, 81, 32, 208
-0.99135, 201, 197, 264, 228
-0.991361, 153, 205, 216, 236
-0.991376, 421, 81, 452, 208
-0.991411, 249, 1, 312, 357
-0.991429, 49, 173, 112, 204
-0.991441, 65, 213, 128, 244
-0.991444, 61, 81, 92, 144
-0.991445, 65, 49, 128, 176
-0.991452, 57, 185, 120, 216
-0.991467, 225, 205, 288, 236
-0.991477, 65, 113, 128, 176
-0.991478, 29, 81, 60, 208
-0.991482, 137, 81, 168, 208
-0.991487, 417, 113, 480, 144
-0.991508, 129, 205, 192, 236
-0.991545, 217, 201, 248, 264
-0.991548, 265, 105, 328, 136
-0.99156, 377, 117, 440, 148
-0.991587, 409, 113, 440, 176
-0.991638, 221, 209, 252, 336
-0.991675, 257, 113, 384, 176
-0.991684, 133, 105, 164, 168
-0.991719, 49, 161, 112, 192
-0.991758, 409, 65, 440, 192
-0.991775, 97, 93, 160, 124
-0.991788, 113, 81, 144, 208
-0.991809, 177, 101, 240, 132
-0.991817, 317, 89, 348, 152
-0.991822, 41, 205, 104, 236
-0.991852, 249, 221, 312, 252
-0.991857, 329, 109, 392, 140
-0.991865, 281, 225, 312, 288
-0.991888, 193, 117, 256, 148
-0.991905, 417, 101, 480, 132
-0.991966, 49, 209, 176, 272
-0.991967, 361, 33, 424, 160
-0.991973, 137, 89, 200, 120
-0.991978, 393, 93, 456, 124
-0.991978, 93, 81, 124, 208
-0.99199, 257, 209, 384, 272
-0.992001, 289, 1, 352, 357
-0.992012, 313, 113, 376, 176
-0.992027, 177, 197, 240, 228
-0.992034, 329, 137, 392, 200
-0.99204, 129, 153, 192, 184
-0.992071, 241, 105, 304, 136
-0.992153, 385, 89, 416, 152
-0.992155, 293, 89, 324, 152
-0.992156, 289, 105, 352, 136
-0.992175, 153, 217, 216, 248
-0.992212, 1, 161, 64, 192
-0.992215, 373, 89, 404, 152
-0.992218, 257, 117, 320, 148
-0.992219, 129, 233, 256, 296
-0.992219, 297, 209, 360, 272
-0.992223, 217, 117, 280, 148
-0.992246, 201, 241, 264, 272
-0.992274, 401, 113, 432, 240
-0.992277, 257, 89, 320, 120
-0.9923, 273, 221, 336, 252
-0.992304, 297, 237, 360, 268
-0.992316, 341, 81, 372, 208
-0.992321, 369, 93, 432, 124
-0.992323, 65, 149, 128, 180
-0.992326, 201, 1, 264, 256
-0.992357, 105, 117, 168, 148
-0.992392, 153, 193, 216, 224
-0.992403, 345, 89, 376, 152
-0.992407, 25, 185, 88, 216
-0.992416, 105, 105, 136, 168
-0.992448, 329, 233, 392, 264
-0.992452, 57, 89, 120, 120
-0.992458, 321, 145, 384, 176
-0.99249, 217, 229, 248, 260
-0.992495, 161, 33, 224, 160
-0.992496, 73, 161, 136, 192
-0.992519, 297, 89, 360, 120
-0.992525, 265, 233, 296, 264
-0.992532, 241, 245, 304, 276
-0.992554, 137, 1, 200, 357
-0.992559, 433, 89, 464, 152
-0.992559, 233, 221, 264, 252
-0.992568, 73, 173, 136, 204
-0.99257, 353, 117, 416, 148
-0.992572, 33, 105, 96, 136
-0.992578, 301, 225, 332, 288
-0.992612, 409, 105, 440, 136
-0.992612, 25, 157, 88, 188
-0.99263, 161, 113, 224, 176
-0.992634, 393, 241, 456, 304
-0.992642, 253, 233, 284, 264
-0.992647, 177, 89, 240, 120
-0.99266, 197, 205, 228, 236
-0.992662, 129, 217, 192, 248
-0.992672, 281, 233, 312, 264
-0.992676, 297, 225, 360, 256
-0.992696, 185, 205, 216, 236
-0.992702, 89, 141, 152, 172
-0.992709, 265, 245, 328, 276
-0.992714, 313, 225, 344, 288
-0.992719, 217, 89, 280, 120
-0.992721, 17, 209, 80, 240
-0.992748, 89, 101, 120, 132
-0.992767, 65, 197, 128, 228
-0.992768, 425, 109, 456, 140
-0.992768, 233, 209, 264, 240
-0.992776, 105, 193, 168, 224
-0.992777, 169, 113, 232, 144
-0.992789, 49, 121, 112, 152
-0.992805, 81, 113, 208, 176
-0.992807, 105, 153, 168, 184
-0.992843, 77, 169, 108, 200
-0.992847, 41, 217, 104, 248
-0.992853, 129, 129, 160, 192
-0.992855, 125, 149, 156, 180
-0.99286, 289, 137, 352, 168
-0.992868, 241, 185, 368, 248
-0.992871, 293, 233, 324, 264
-0.992879, 221, 217, 252, 248
-0.992882, 81, 105, 112, 168
-0.992884, 17, 89, 80, 120
-0.992891, 1, 185, 64, 216
-0.992893, 433, 177, 496, 208
-0.992911, 57, 169, 88, 200
-0.992911, 369, 233, 432, 264
-0.992912, 389, 109, 420, 140
-0.992924, 409, 1, 472, 357
-0.99293, 329, 113, 360, 176
-0.992931, 249, 201, 312, 232
-0.992931, 253, 109, 284, 140
-0.992937, 273, 249, 336, 312
-0.992943, 89, 217, 152, 248
-0.992948, 345, 93, 408, 124
-0.992949, 109, 101, 140, 132
-0.99295, 97, 165, 160, 196
-0.992954, 245, 221, 276, 252
-0.992975, 97, 205, 128, 236
-0.992977, 81, 185, 144, 216
-0.992978, 121, 105, 152, 136
-0.992983, 77, 181, 108, 212
-0.99299, 241, 233, 272, 264
-0.992991, 169, 205, 200, 236
-0.992999, 209, 209, 240, 240
-0.993001, 41, 145, 104, 176
-0.993011, 141, 105, 172, 136
-0.993016, 321, 89, 384, 120
-0.99302, 121, 65, 184, 128
-0.993059, 229, 233, 260, 264
-0.993065, 245, 205, 276, 236
-0.993078, 145, 141, 208, 172
-0.993082, 305, 121, 368, 152
-0.993082, 229, 109, 260, 140
-0.993084, 65, 181, 96, 212
-0.993085, 137, 153, 168, 184
-0.99309, 1, 209, 128, 272
-0.993114, 97, 113, 128, 144
-0.993135, 197, 217, 228, 248
-0.993144, 441, 109, 472, 140
-0.993154, 345, 145, 408, 176
-0.993161, 265, 201, 328, 264
-0.993172, 109, 205, 140, 236
-0.993173, 77, 209, 108, 240
-0.993177, 69, 113, 100, 144
-0.993185, 1, 149, 64, 180
-0.993188, 353, 1, 416, 357
-0.993191, 113, 89, 144, 120
-0.993194, 141, 205, 172, 236
-0.993196, 121, 161, 152, 192
-0.993196, 85, 89, 116, 120
-0.993202, 37, 161, 68, 192
-0.993205, 189, 105, 220, 136
-0.993207, 145, 113, 272, 176
-0.993208, 1, 109, 64, 140
-0.993211, 177, 217, 208, 248
-0.993212, 265, 109, 296, 140
-0.993226, 377, 113, 408, 144
-0.993226, 461, 173, 492, 204
-0.993226, 433, 113, 464, 176
-0.993231, 273, 221, 304, 252
-0.993235, 205, 229, 236, 260
-0.993237, 257, 221, 288, 252
-0.993238, 221, 205, 252, 236
-0.99324, 233, 197, 264, 228
-0.993248, 333, 105, 364, 136
-0.99325, 81, 113, 112, 144
-0.99325, 157, 205, 188, 236
-0.993253, 209, 105, 240, 136
-0.99326, 429, 97, 460, 128
-0.993265, 209, 197, 240, 228
-0.993267, 45, 173, 76, 204
-0.993272, 109, 161, 140, 192
-0.993273, 137, 93, 168, 124
-0.993277, 205, 225, 236, 288
-0.993279, 329, 245, 392, 276
-0.993285, 401, 65, 464, 128
-0.993293, 401, 117, 432, 148
-0.993296, 389, 97, 420, 128
-0.993296, 25, 161, 56, 192
-0.993299, 33, 173, 64, 204
-0.993313, 225, 1, 288, 357
-0.99332, 125, 205, 156, 236
-0.993324, 409, 93, 440, 124
-0.993325, 413, 117, 444, 148
-0.993328, 433, 229, 496, 260
-0.993338, 425, 89, 488, 120
-0.993348, 201, 185, 264, 216
-0.993351, 305, 233, 336, 264
-0.993351, 369, 121, 432, 184
-0.993356, 185, 193, 216, 224
-0.993356, 121, 141, 184, 172
-0.99337, 253, 81, 284, 208
-0.99337, 317, 233, 348, 264
-0.993375, 197, 89, 228, 120
-0.993376, 29, 185, 60, 216
-0.993376, 1, 65, 64, 320
-0.993377, 289, 109, 320, 140
-0.99339, 217, 121, 248, 152
-0.993395, 345, 141, 376, 172
-0.993395, 245, 97, 276, 128
-0.993396, 361, 245, 424, 276
-0.993399, 321, 109, 352, 140
-0.9934, 149, 149, 180, 180
-0.9934, 77, 193, 108, 224
-0.993401, 269, 97, 300, 128
-0.993402, 65, 101, 96, 132
-0.993402, 449, 81, 480, 208
-0.993406, 49, 153, 80, 184
-0.993407, 165, 217, 196, 248
-0.993408, 33, 133, 96, 164
-0.993411, 185, 141, 248, 172
-0.993414, 401, 241, 464, 272
-0.993416, 229, 93, 260, 124
-0.993417, 129, 121, 192, 152
-0.993421, 361, 109, 392, 140
-0.993424, 285, 221, 316, 252
-0.993424, 109, 113, 140, 144
-0.99343, 125, 117, 156, 148
-0.993437, 449, 97, 480, 128
-0.993446, 333, 141, 364, 172
-0.993448, 213, 241, 244, 272
-0.993448, 5, 169, 36, 200
-0.993449, 65, 89, 96, 120
-0.993453, 429, 121, 460, 152
-0.993458, 177, 89, 208, 120
-0.993458, 141, 117, 172, 148
-0.99346, 181, 117, 212, 148
-0.993463, 329, 121, 392, 152
-0.993467, 329, 221, 392, 252
-0.993471, 105, 149, 136, 180
-0.993473, 313, 133, 376, 164
-0.993476, 157, 105, 188, 136
-0.99348, 433, 225, 496, 288
-0.993482, 265, 137, 328, 168
-0.993487, 177, 105, 208, 136
-0.993488, 285, 89, 316, 120
-0.993489, 101, 89, 132, 120
-0.993489, 297, 221, 328, 252
-0.99349, 65, 209, 96, 240
-0.993495, 297, 137, 328, 168
-0.993497, 265, 245, 296, 276
-0.993497, 197, 117, 228, 148
-0.993503, 453, 113, 484, 144
-0.993505, 1, 197, 64, 228
-0.993512, 97, 185, 160, 248
-0.993512, 1, 173, 64, 204
-0.993522, 337, 233, 368, 264
-0.993523, 129, 193, 192, 224
-0.993525, 93, 177, 124, 208
-0.993525, 17, 181, 48, 212
-0.993526, 1, 181, 32, 212
-0.993528, 77, 101, 108, 132
-0.993533, 377, 97, 408, 128
-0.993534, 209, 93, 240, 124
-0.993536, 353, 133, 416, 164
-0.993539, 345, 105, 376, 136
-0.99354, 149, 217, 180, 248
-0.993544, 221, 193, 252, 224
-0.993545, 137, 141, 168, 172
-0.993553, 241, 113, 272, 144
-0.993556, 361, 145, 392, 176
-0.993556, 89, 189, 120, 220
-0.993556, 233, 209, 296, 336
-0.993558, 325, 121, 356, 152
-0.99356, 317, 81, 348, 208
-0.993565, 157, 89, 188, 120
-0.993565, 297, 89, 328, 120
-0.993565, 77, 149, 108, 180
-0.993566, 245, 193, 276, 224
-0.993567, 449, 173, 480, 204
-0.993578, 209, 89, 240, 152
-0.993591, 25, 129, 88, 192
-0.993597, 161, 229, 224, 260
-0.993619, 17, 81, 48, 208
-0.993628, 433, 157, 496, 188
-0.993636, 45, 161, 76, 224
-0.993638, 97, 65, 160, 128
-0.993648, 209, 129, 272, 160
-0.993651, 361, 89, 392, 152
-0.993669, 433, 241, 496, 272
-0.993695, 121, 309, 184, 340
-0.993703, 77, 177, 108, 304
-0.993712, 153, 177, 216, 240
-0.993712, 257, 17, 500, 144
-0.993717, 153, 89, 184, 152
-0.993718, 353, 209, 480, 336
-0.993729, 345, 309, 408, 340
-0.993733, 393, 81, 456, 112
-0.993738, 241, 189, 304, 220
-0.993743, 65, 65, 192, 128
-0.993749, 433, 65, 496, 320
-0.993763, 25, 117, 88, 148
-0.993767, 365, 81, 396, 208
-0.993775, 153, 153, 216, 184
-0.993792, 249, 33, 312, 160
-0.993792, 289, 149, 352, 180
-0.993796, 401, 225, 464, 256
-0.993799, 57, 245, 120, 276
-0.993815, 89, 81, 152, 112
-0.993818, 305, 137, 432, 200
-0.993822, 169, 129, 232, 160
-0.99383, 161, 321, 224, 352
-0.993834, 41, 129, 72, 256
-0.993848, 33, 229, 96, 260
-0.993848, 385, 313, 448, 344
-0.993856, 177, 201, 208, 264
-0.99386, 281, 117, 344, 148
-0.993883, 305, 1, 368, 256
-0.993898, 353, 241, 416, 304
-0.993908, 153, 81, 184, 208
-0.993978, 417, 33, 480, 160
-0.994014, 257, 241, 288, 304
-0.994037, 321, 1, 384, 357
-0.994059, 89, 201, 120, 264
-0.994096, 433, 1, 496, 357
-0.994107, 209, 113, 336, 176
-0.994127, 193, 1, 256, 357
-0.994133, 321, 225, 448, 288
-0.994134, 69, 105, 100, 168
-0.994139, 185, 129, 248, 256
-0.99415, 121, 153, 152, 216
-0.994167, 273, 1, 336, 256
-0.994216, 153, 65, 216, 128
-0.994246, 161, 201, 192, 264
-0.994258, 469, 81, 500, 208
-0.994296, 253, 113, 284, 176
-0.9943, 65, 89, 320, 152
-0.99432, 361, 113, 392, 176
-0.994348, 249, 177, 312, 240
-0.994365, 121, 185, 184, 248
-0.994382, 193, 233, 320, 264
-0.994419, 297, 65, 328, 192
-0.994426, 41, 105, 104, 168
-0.994436, 369, 225, 496, 288
-0.9945, 277, 81, 308, 208
-0.994509, 457, 89, 488, 152
-0.994516, 249, 1, 312, 256
-0.994586, 353, 65, 480, 128
-0.994607, 33, 209, 288, 272
-0.994673, 185, 65, 248, 128
-0.994686, 233, 193, 264, 320
-0.994693, 257, 89, 500, 152
-0.994701, 417, 225, 480, 352
-0.994712, 61, 185, 92, 248
-0.994741, 81, 1, 144, 357
-0.994758, 17, 1, 80, 357
-0.994815, 161, 1, 224, 357
-0.99483, 369, 129, 496, 256
-0.994869, 153, 137, 216, 200
-0.994937, 305, 137, 368, 200
-0.994958, 113, 1, 176, 357
-0.994964, 305, 281, 432, 344
-0.994991, 125, 81, 156, 208
-0.994993, 321, 33, 384, 160
-0.995049, 273, 33, 336, 160
-0.995074, 161, 205, 288, 236
-0.995093, 265, 225, 328, 352
-0.995154, 257, 161, 384, 288
-0.995162, 273, 65, 400, 128
-0.995167, 433, 81, 464, 208
-0.995192, 377, 1, 440, 357
-0.995199, 1, 145, 128, 208
-0.995285, 297, 33, 360, 160
-0.995311, 273, 289, 336, 352
-0.995326, 257, 65, 320, 128
-0.995408, 329, 81, 360, 208
-0.995409, 217, 65, 280, 128
-0.995455, 377, 81, 408, 208
-0.995468, 433, 153, 496, 216
-0.995481, 241, 161, 304, 288
-0.995481, 305, 89, 336, 152
-0.995514, 181, 113, 212, 176
-0.995577, 413, 97, 428, 160
-0.995588, 5, 81, 36, 144
-0.99565, 353, 81, 384, 208
-0.995661, 145, 65, 272, 128
-0.995682, 223, 225, 238, 288
-0.995695, 193, 201, 448, 264
-0.995707, 229, 185, 260, 248
-0.995724, 81, 205, 208, 236
-0.995727, 209, 193, 240, 320
-0.995737, 189, 65, 220, 192
-0.995746, 145, 161, 272, 224
-0.995753, 129, 217, 256, 248
-0.995823, 353, 137, 480, 200
-0.995849, 341, 113, 372, 176
-0.995849, 421, 113, 452, 176
-0.995924, 185, 89, 216, 152
-0.995943, 113, 137, 240, 200
-0.995952, 49, 1, 112, 357
-0.995959, 329, 225, 360, 288
-0.995972, 49, 137, 80, 200
-0.995982, 241, 233, 368, 264
-0.995985, 257, 113, 500, 176
-0.995999, 255, 201, 270, 264
-0.996021, 353, 289, 480, 352
-0.996023, 129, 225, 384, 288
-0.996025, 329, 1, 392, 256
-0.99604, 265, 65, 296, 192
-0.996048, 241, 273, 368, 336
-0.99606, 81, 297, 208, 357
-0.996086, 369, 217, 432, 280
-0.996098, 33, 81, 64, 144
-0.996108, 77, 81, 108, 144
-0.996127, 289, 249, 416, 312
-0.996158, 245, 201, 260, 264
-0.996158, 209, 221, 336, 252
-0.996186, 329, 249, 392, 312
-0.996204, 1, 153, 32, 216
-0.996207, 297, 297, 360, 357
-0.996225, 101, 201, 132, 264
-0.996235, 85, 105, 100, 168
-0.996247, 161, 97, 416, 160
-0.99625, 241, 81, 272, 208
-0.996258, 253, 97, 284, 352
-0.996272, 321, 65, 384, 128
-0.996279, 97, 161, 224, 224
-0.996297, 29, 129, 60, 256
-0.996324, 193, 65, 320, 128
-0.996329, 217, 81, 248, 208
-0.996346, 275, 225, 290, 288
-0.996346, 221, 161, 252, 288
-0.996346, 181, 193, 212, 320
-0.996376, 141, 145, 172, 208
-0.996423, 281, 89, 312, 152
-0.996467, 77, 209, 108, 272
-0.996484, 273, 17, 400, 144
-0.996486, 469, 89, 500, 152
-0.996491, 261, 209, 276, 272
-0.996491, 33, 113, 288, 176
-0.996496, 257, 297, 384, 357
-0.996512, 137, 89, 152, 152
-0.996524, 107, 105, 122, 168
-0.996549, 369, 249, 496, 312
-0.996555, 439, 89, 454, 152
-0.996659, 419, 97, 434, 160
-0.996681, 49, 153, 176, 184
-0.996701, 153, 145, 184, 208
-0.996711, 77, 153, 108, 216
-0.996735, 269, 225, 284, 288
-0.996764, 233, 217, 248, 280
-0.996765, 449, 89, 464, 152
-0.996773, 101, 81, 132, 144
-0.996778, 1, 169, 128, 200
-0.996791, 335, 105, 350, 168
-0.9968, 337, 109, 464, 140
-0.996802, 89, 177, 120, 240
-0.996809, 145, 229, 272, 260
-0.996811, 153, 121, 184, 184
-0.99684, 33, 153, 64, 216
-0.99684, 257, 89, 272, 152
-0.99684, 425, 89, 440, 152
-0.996847, 345, 65, 408, 128
-0.99685, 181, 177, 212, 240
-0.996857, 81, 225, 208, 352
-0.996862, 407, 97, 422, 160
-0.996868, 369, 161, 496, 224
-0.996892, 205, 201, 220, 264
-0.996905, 209, 297, 336, 357
-0.996911, 209, 205, 336, 236
-0.996929, 125, 81, 156, 144
-0.996939, 153, 129, 216, 256
-0.996946, 337, 281, 400, 344
-0.996951, 169, 193, 200, 320
-0.996958, 111, 81, 126, 144
-0.996966, 313, 249, 344, 312
-0.996967, 239, 209, 254, 272
-0.997003, 77, 185, 92, 248
-0.997016, 49, 109, 176, 140
-0.997024, 49, 81, 80, 144
-0.997034, 305, 201, 432, 264
-0.997038, 161, 281, 288, 344
-0.997039, 145, 225, 208, 288
-0.99705, 97, 265, 224, 328
-0.997055, 1, 89, 500, 152
-0.997057, 305, 273, 368, 336
-0.997062, 443, 113, 458, 176
-0.997076, 213, 113, 244, 176
-0.997088, 217, 225, 232, 288
-0.997093, 281, 225, 296, 288
-0.997126, 267, 105, 282, 168
-0.997135, 413, 105, 428, 136
-0.997142, 245, 225, 260, 288
-0.997144, 401, 89, 416, 152
-0.997158, 89, 81, 104, 144
-0.997158, 161, 137, 288, 200
-0.997169, 129, 209, 192, 336
-0.997171, 225, 89, 240, 152
-0.997172, 161, 89, 176, 152
-0.997173, 223, 201, 238, 264
-0.997195, 69, 161, 84, 224
-0.997195, 1, 289, 128, 352
-0.997208, 125, 89, 140, 152
-0.997208, 321, 201, 384, 264
-0.997213, 229, 113, 260, 176
-0.997236, 129, 109, 256, 140
-0.997242, 251, 225, 266, 288
-0.997246, 99, 81, 114, 144
-0.997256, 301, 97, 332, 352
-0.997263, 269, 249, 300, 312
-0.997274, 313, 97, 344, 352
-0.997329, 75, 81, 90, 144
-0.99733, 431, 89, 446, 152
-0.99734, 225, 1, 288, 256
-0.997341, 341, 89, 356, 152
-0.997354, 193, 89, 208, 152
-0.997358, 241, 65, 272, 320
-0.997361, 121, 209, 184, 272
-0.997366, 231, 89, 246, 152
-0.997379, 85, 185, 100, 248
-0.997383, 289, 97, 320, 352
-0.997384, 243, 89, 258, 152
-0.997385, 265, 97, 296, 352
-0.99739, 1, 233, 500, 296
-0.997411, 33, 205, 160, 236
-0.997415, 273, 89, 288, 152
-0.997429, 101, 105, 116, 168
-0.99743, 287, 225, 302, 288
-0.997445, 225, 65, 256, 320
-0.99745, 133, 113, 148, 176
-0.997451, 151, 89, 166, 152
-0.997457, 143, 89, 158, 152
-0.99746, 241, 113, 272, 176
-0.99746, 275, 233, 290, 264
-0.997464, 161, 145, 192, 272
-0.99747, 107, 101, 122, 132
-0.997491, 317, 113, 348, 176
-0.997491, 381, 113, 412, 176
-0.997491, 53, 153, 68, 216
-0.997501, 289, 129, 352, 256
-0.997503, 269, 233, 284, 264
-0.99754, 105, 137, 168, 200
-0.997564, 91, 185, 106, 248
-0.99757, 161, 193, 288, 224
-0.99757, 221, 229, 236, 260
-0.997572, 155, 113, 170, 176
-0.997575, 449, 225, 480, 352
-0.997576, 203, 205, 218, 236
-0.99758, 161, 257, 288, 320
-0.99758, 33, 153, 288, 216
-0.99758, 131, 81, 146, 144
-0.997585, 181, 201, 196, 264
-0.997588, 59, 153, 74, 216
-0.997599, 177, 109, 304, 140
-0.997611, 105, 81, 120, 144
-0.997623, 257, 225, 500, 288
-0.997642, 9, 249, 72, 312
-0.997646, 137, 105, 152, 136
-0.997652, 1, 105, 128, 136
-0.997658, 127, 153, 142, 216
-0.997667, 181, 209, 196, 240
-0.99767, 81, 217, 208, 248
-0.997691, 325, 225, 340, 288
-0.997703, 251, 89, 266, 152
-0.997707, 401, 265, 464, 328
-0.997717, 211, 201, 226, 264
-0.997719, 305, 225, 320, 288
-0.997721, 347, 89, 362, 152
-0.997722, 47, 153, 62, 216
-0.997727, 227, 229, 242, 260
-0.997729, 83, 81, 98, 144
-0.997734, 195, 201, 210, 264
-0.997735, 1, 57, 128, 120
-0.99774, 449, 113, 464, 176
-0.997743, 281, 233, 296, 264
-0.997743, 267, 105, 282, 136
-0.997744, 175, 201, 190, 264
-0.997745, 215, 81, 230, 144
-0.997746, 421, 105, 436, 136
-0.997757, 85, 105, 100, 136
-0.997764, 233, 193, 248, 256
-0.997764, 361, 89, 376, 152
-0.997768, 311, 225, 326, 288
-0.997771, 89, 65, 120, 320
-0.997773, 255, 233, 270, 264
-0.997775, 381, 89, 396, 152
-0.997779, 291, 89, 306, 152
-0.997782, 249, 229, 264, 260
-0.997782, 79, 105, 94, 168
-0.997782, 373, 89, 388, 152
-0.997785, 285, 89, 300, 152
-0.997786, 1, 193, 128, 224
-0.997789, 49, 89, 176, 120
-0.99779, 257, 137, 384, 200
-0.997791, 297, 233, 312, 264
-0.997801, 225, 161, 352, 224
-0.997807, 103, 201, 118, 264
-0.997814, 301, 113, 332, 240
-0.997822, 77, 177, 92, 208
-0.997826, 233, 225, 248, 256
-0.997827, 263, 233, 278, 264
-0.997828, 289, 233, 304, 264
-0.997828, 461, 169, 492, 232
-0.99783, 97, 89, 224, 120
-0.99783, 341, 241, 372, 304
-0.997832, 189, 65, 220, 320
-0.997837, 155, 145, 170, 208
-0.997842, 321, 129, 448, 256
-0.997848, 17, 33, 80, 160
-0.997852, 391, 89, 406, 152
-0.997855, 239, 221, 254, 252
-0.997858, 355, 89, 370, 152
-0.997858, 199, 89, 214, 152
-0.997862, 317, 225, 332, 288
-0.997866, 415, 121, 430, 184
-0.997868, 17, 193, 80, 256
-0.997875, 211, 205, 226, 236
-0.997881, 245, 201, 260, 232
-0.997889, 197, 205, 212, 236
-0.997896, 49, 177, 80, 304
-0.997911, 83, 177, 98, 208
-0.997912, 161, 121, 416, 184
-0.997916, 71, 185, 86, 248
-0.997917, 221, 217, 236, 248
-0.997918, 263, 81, 278, 144
-0.997925, 183, 89, 198, 152
-0.997931, 273, 221, 400, 252
-0.997934, 109, 65, 140, 320
-0.997939, 117, 81, 132, 144
-0.997945, 415, 73, 430, 136
-0.997949, 65, 121, 192, 152
-0.99795, 189, 201, 204, 264
-0.997952, 167, 89, 182, 152
-0.997953, 421, 33, 452, 160
-0.997953, 265, 129, 328, 256
-0.997956, 297, 89, 312, 152
-0.99796, 335, 81, 350, 144
-0.997963, 193, 89, 320, 120
-0.997964, 407, 105, 422, 136
-0.997965, 295, 225, 310, 288
-0.997966, 325, 97, 356, 352
-0.997971, 461, 89, 476, 152
-0.997974, 305, 233, 432, 264
-0.99798, 237, 89, 252, 152
-0.997983, 455, 89, 470, 152
-0.997984, 17, 81, 48, 144
-0.997988, 409, 161, 472, 288
-0.997988, 17, 217, 144, 248
-0.997991, 217, 201, 232, 264
-0.997992, 95, 209, 110, 272
-0.997994, 325, 89, 340, 152
-0.998004, 5, 129, 36, 256
-0.998014, 131, 105, 146, 136
-0.998015, 33, 185, 288, 248
-0.998025, 225, 105, 240, 136
-0.998026, 241, 245, 368, 276
-0.998027, 209, 65, 240, 320
-0.998031, 341, 113, 356, 176
-0.998041, 261, 241, 276, 304
-0.998047, 279, 89, 294, 152
-0.998053, 367, 89, 382, 152
-0.998059, 335, 105, 350, 136
-0.998061, 191, 205, 206, 236
-0.998066, 227, 213, 242, 244
-0.998078, 33, 141, 160, 172
-0.998078, 131, 153, 146, 184
-0.998093, 289, 145, 416, 176
-0.998099, 467, 89, 482, 152
-0.998102, 151, 149, 166, 180
-0.998104, 277, 97, 308, 352
-0.998118, 469, 129, 500, 192
-0.998121, 103, 205, 118, 236
-0.998123, 69, 169, 84, 200
-0.998134, 161, 113, 176, 176
-0.998141, 239, 201, 254, 232
-0.998143, 409, 209, 472, 272
-0.998145, 251, 201, 266, 232
-0.998148, 127, 113, 142, 176
-0.998159, 331, 225, 346, 288
-0.998159, 161, 73, 416, 136
-0.998161, 193, 101, 208, 132
-0.99817, 305, 97, 432, 128
-0.998172, 277, 113, 308, 176
-0.998173, 427, 109, 442, 140
-0.99818, 245, 177, 260, 240
-0.998184, 217, 205, 232, 236
-0.998187, 479, 89, 494, 152
-0.998187, 353, 201, 480, 264
-0.998189, 281, 137, 344, 200
-0.998193, 441, 109, 456, 140
-0.998199, 381, 121, 396, 184
-0.998205, 329, 113, 344, 176
-0.998205, 341, 97, 372, 352
-0.998205, 215, 225, 230, 256
-0.998221, 255, 177, 270, 240
-0.998227, 181, 113, 212, 240
-0.998229, 85, 209, 100, 240
-0.998231, 341, 225, 356, 288
-0.998232, 173, 89, 188, 152
-0.998239, 255, 221, 270, 252
-0.99824, 91, 209, 106, 240
-0.998242, 473, 89, 488, 152
-0.998245, 245, 213, 260, 244
-0.998249, 75, 161, 90, 224
-0.998254, 225, 109, 352, 140
-0.998256, 175, 209, 190, 240
-0.998265, 415, 93, 430, 124
-0.998266, 223, 113, 238, 176
-0.998279, 257, 89, 384, 120
-0.998285, 89, 297, 152, 357
-0.998296, 41, 161, 56, 192
-0.9983, 125, 157, 140, 188
-0.998309, 65, 65, 320, 128
-0.99831, 433, 161, 496, 288
-0.998319, 57, 187, 88, 202
-0.99832, 145, 89, 272, 120
-0.99832, 121, 205, 152, 220
-0.998321, 133, 119, 164, 134
-0.998322, 177, 111, 208, 126
-0.998322, 209, 225, 240, 240
-0.998323, 233, 239, 264, 254
-0.998324, 113, 217, 144, 232
-0.998324, 421, 121, 452, 136
-0.998324, 119, 205, 134, 236
-0.998324, 41, 165, 72, 180
-0.998324, 321, 109, 352, 124
-0.998324, 277, 249, 292, 312
-0.998326, 9, 167, 40, 182
-0.998326, 365, 115, 396, 130
-0.998327, 149, 217, 180, 232
-0.998328, 105, 159, 136, 174
-0.998328, 113, 153, 144, 168
-0.998328, 69, 187, 100, 202
-0.99833, 181, 119, 212, 134
-0.99833, 1, 265, 128, 328
-0.998331, 141, 161, 172, 176
-0.998331, 205, 231, 236, 246
-0.998332, 245, 199, 276, 214
-0.998335, 109, 205, 124, 236
-0.998335, 217, 33, 248, 160
-0.998336, 73, 119, 104, 134
-0.998337, 265, 119, 296, 134
-0.998337, 117, 165, 148, 180
-0.998338, 85, 119, 116, 134
-0.998338, 97, 215, 128, 230
-0.998339, 437, 117, 468, 132
-0.998339, 463, 173, 478, 204
-0.998342, 461, 115, 492, 130
-0.998343, 301, 111, 332, 126
-0.998343, 45, 211, 76, 226
-0.998344, 161, 155, 192, 170
-0.998344, 261, 185, 276, 248
-0.998345, 205, 89, 220, 152
-0.998345, 107, 113, 122, 144
-0.998345, 333, 109, 364, 124
-0.998346, 153, 109, 184, 124
-0.998347, 433, 109, 448, 140
-0.998347, 409, 105, 440, 120
-0.998347, 449, 119, 480, 134
-0.998348, 425, 109, 456, 124
-0.998349, 449, 177, 480, 192
-0.998349, 149, 149, 180, 164
-0.99835, 425, 249, 488, 312
-0.99835, 17, 187, 48, 202
-0.998351, 329, 239, 360, 254
-0.998353, 285, 243, 316, 258
-0.998353, 1, 153, 16, 216
-0.998353, 97, 119, 128, 134
-0.998354, 213, 115, 244, 130
-0.998354, 57, 209, 88, 224
-0.998355, 265, 107, 296, 122
-0.998357, 177, 217, 208, 232
-0.998358, 209, 239, 240, 254
-0.99836, 77, 141, 108, 156
-0.998361, 145, 115, 176, 130
-0.998362, 297, 139, 328, 154
-0.998362, 165, 207, 196, 222
-0.998362, 129, 217, 160, 232
-0.998363, 13, 209, 44, 224
-0.998366, 229, 109, 260, 124
-0.998366, 219, 105, 234, 136
-0.998366, 69, 107, 100, 122
-0.998368, 205, 215, 236, 230
-0.998368, 321, 115, 352, 130
-0.998369, 249, 213, 280, 228
-0.99837, 65, 165, 96, 180
-0.99837, 129, 107, 160, 122
-0.998371, 225, 205, 256, 220
-0.998372, 157, 149, 172, 180
-0.998374, 189, 217, 220, 232
-0.998375, 69, 211, 100, 226
-0.998375, 79, 105, 94, 136
-0.998376, 241, 237, 256, 268
-0.998378, 267, 201, 282, 264
-0.998379, 221, 241, 252, 256
-0.99838, 405, 121, 436, 136
-0.998381, 277, 111, 308, 126
-0.998381, 133, 145, 148, 208
-0.998381, 77, 149, 108, 164
-0.998382, 165, 111, 196, 126
-0.998384, 437, 111, 468, 126
-0.998384, 377, 115, 408, 130
-0.998384, 29, 187, 60, 202
-0.998385, 273, 161, 400, 224
-0.998387, 191, 113, 206, 176
-0.998388, 265, 113, 296, 128
-0.99839, 81, 187, 112, 202
-0.998391, 253, 243, 284, 258
-0.998392, 303, 233, 318, 264
-0.998393, 61, 113, 92, 128
-0.998393, 3, 81, 18, 144
-0.998393, 141, 107, 172, 122
-0.998393, 409, 65, 440, 128
-0.998396, 125, 153, 156, 168
-0.998396, 349, 143, 380, 158
-0.998396, 213, 109, 244, 124
-0.998399, 273, 221, 288, 252
-0.9984, 53, 165, 84, 180
-0.998402, 89, 147, 120, 162
-0.998406, 1, 89, 128, 120
-0.998406, 137, 149, 152, 180
-0.998406, 245, 229, 276, 244
-0.998407, 471, 173, 486, 204
-0.998409, 317, 239, 348, 254
-0.998409, 289, 111, 320, 126
-0.99841, 337, 121, 464, 152
-0.998411, 57, 161, 72, 192
-0.998413, 265, 243, 296, 258
-0.998413, 85, 181, 116, 196
-0.998417, 269, 209, 300, 336
-0.998418, 33, 297, 96, 357
-0.998418, 217, 217, 248, 232
-0.998418, 81, 209, 112, 224
-0.99842, 425, 113, 440, 176
-0.998423, 201, 113, 232, 128
-0.998424, 93, 181, 108, 212
-0.998424, 253, 109, 284, 124
-0.998424, 61, 181, 92, 196
-0.998425, 209, 231, 272, 246
-0.998426, 189, 111, 220, 126
-0.998428, 159, 105, 174, 136
-0.998429, 449, 113, 480, 176
-0.99843, 267, 221, 282, 252
-0.998431, 237, 215, 268, 230
-0.998431, 389, 115, 420, 130
-0.998434, 337, 143, 368, 158
-0.998441, 93, 107, 124, 122
-0.998442, 307, 89, 322, 152
-0.998445, 233, 209, 248, 240
-0.998446, 169, 209, 232, 224
-0.998447, 81, 107, 112, 122
-0.998454, 79, 117, 94, 148
-0.998454, 9, 81, 24, 144
-0.998454, 249, 207, 280, 222
-0.998455, 449, 113, 480, 128
-0.998457, 281, 237, 312, 252
-0.998457, 425, 115, 456, 130
-0.998458, 85, 125, 100, 156
-0.998461, 273, 117, 400, 148
-0.998463, 301, 239, 332, 254
-0.998463, 201, 209, 264, 224
-0.998465, 149, 145, 164, 208
-0.998465, 133, 113, 164, 128
-0.998466, 245, 235, 276, 250
-0.998466, 169, 201, 184, 264
-0.998468, 47, 161, 62, 192
-0.998469, 113, 107, 144, 122
-0.998471, 337, 137, 464, 168
-0.998475, 101, 101, 116, 132
-0.998475, 461, 177, 492, 192
-0.998475, 161, 213, 192, 228
-0.998478, 129, 211, 160, 226
-0.99848, 285, 221, 300, 252
-0.998481, 257, 237, 320, 252
-0.998481, 229, 115, 260, 130
-0.998482, 433, 65, 496, 128
-0.998483, 149, 155, 180, 170
-0.998483, 221, 225, 252, 240
-0.998485, 361, 65, 392, 320
-0.998486, 45, 173, 60, 204
-0.998486, 149, 205, 164, 236
-0.998493, 137, 155, 168, 170
-0.998494, 259, 109, 274, 140
-0.998494, 377, 113, 440, 128
-0.998495, 233, 225, 264, 240
-0.998497, 257, 209, 272, 240
-0.998497, 93, 209, 124, 224
-0.998498, 253, 115, 284, 130
-0.998498, 75, 189, 90, 220
-0.998498, 409, 111, 440, 126
-0.998502, 63, 161, 78, 192
-0.998502, 261, 221, 276, 252
-0.998503, 205, 209, 236, 224
-0.998504, 177, 169, 240, 232
-0.998505, 125, 159, 156, 174
-0.998507, 131, 89, 146, 120
-0.998512, 229, 233, 260, 248
-0.998514, 81, 113, 112, 128
-0.998514, 109, 211, 140, 226
-0.998515, 97, 111, 160, 126
-0.998515, 129, 205, 144, 236
-0.998515, 113, 153, 240, 184
-0.998516, 225, 111, 288, 126
-0.998517, 233, 297, 296, 357
-0.998519, 145, 241, 272, 272
-0.99852, 121, 109, 184, 124
-0.99852, 143, 149, 158, 180
-0.998521, 449, 65, 480, 320
-0.998523, 225, 209, 288, 224
-0.998525, 137, 211, 200, 226
-0.998525, 65, 209, 128, 224
-0.998527, 113, 193, 240, 224
-0.998528, 409, 117, 424, 148
-0.99853, 113, 113, 144, 128
-0.99853, 469, 193, 500, 320
-0.998532, 81, 209, 144, 336
-0.998534, 149, 211, 180, 226
-0.998534, 185, 197, 200, 228
-0.998535, 233, 235, 296, 250
-0.998536, 427, 97, 442, 128
-0.998538, 201, 215, 264, 230
-0.998539, 129, 155, 192, 170
-0.998539, 93, 113, 124, 128
-0.998541, 415, 117, 430, 148
-0.998542, 177, 211, 208, 226
-0.998543, 49, 165, 176, 196
-0.998547, 133, 117, 148, 148
-0.998547, 265, 235, 296, 250
-0.998547, 209, 203, 272, 218
-0.998548, 89, 209, 152, 224
-0.998549, 75, 165, 90, 196
-0.998552, 159, 205, 174, 236
-0.998552, 403, 93, 418, 124
-0.998554, 265, 111, 328, 126
-0.998557, 97, 105, 160, 120
-0.998558, 113, 211, 176, 226
-0.998561, 289, 239, 352, 254
-0.998562, 113, 89, 128, 120
-0.998565, 221, 211, 252, 226
-0.998565, 193, 209, 224, 224
-0.998566, 141, 205, 156, 236
-0.998568, 185, 111, 248, 126
-0.998568, 97, 205, 112, 236
-0.998574, 401, 111, 464, 126
-0.998575, 129, 249, 384, 312
-0.99858, 73, 113, 136, 128
-0.99858, 97, 117, 160, 132
-0.998582, 49, 177, 176, 208
-0.998584, 193, 117, 256, 132
-0.998586, 41, 181, 104, 196
-0.998587, 153, 105, 168, 136
-0.998589, 113, 161, 176, 176
-0.998589, 217, 231, 248, 246
-0.99859, 113, 109, 128, 140
-0.998591, 73, 181, 104, 196
-0.998591, 49, 187, 112, 202
-0.998593, 105, 155, 168, 170
-0.998594, 225, 117, 288, 132
-0.998595, 381, 109, 396, 140
-0.998596, 353, 115, 416, 130
-0.998601, 377, 107, 440, 122
-0.998601, 137, 115, 200, 130
-0.998603, 321, 145, 384, 160
-0.998606, 421, 117, 436, 148
-0.998606, 79, 89, 94, 120
-0.99861, 233, 243, 296, 258
-0.99861, 201, 225, 264, 240
-0.99861, 161, 111, 224, 126
-0.99861, 49, 273, 176, 336
-0.998611, 233, 229, 296, 244
-0.998613, 237, 205, 268, 220
-0.998614, 81, 189, 96, 220
-0.998615, 369, 93, 496, 124
-0.998616, 21, 153, 52, 216
-0.998618, 169, 205, 184, 236
-0.998619, 73, 149, 136, 164
-0.99862, 73, 107, 136, 122
-0.998621, 409, 117, 472, 132
-0.998622, 397, 121, 428, 184
-0.998623, 185, 231, 248, 246
-0.998623, 241, 193, 368, 224
-0.998623, 129, 217, 192, 232
-0.998623, 257, 117, 320, 132
-0.998625, 169, 217, 232, 232
-0.998627, 209, 239, 272, 254
-0.998631, 9, 187, 72, 202
-0.998632, 119, 153, 134, 184
-0.998632, 73, 119, 136, 134
-0.998634, 121, 103, 184, 118
-0.998637, 81, 183, 144, 198
-0.998638, 41, 209, 104, 224
-0.998638, 241, 215, 304, 230
-0.998639, 225, 221, 288, 236
-0.998644, 17, 165, 80, 180
-0.998646, 145, 149, 208, 164
-0.998647, 257, 243, 320, 258
-0.998647, 433, 117, 496, 132
-0.998648, 289, 113, 352, 128
-0.998651, 97, 149, 160, 164
-0.998651, 385, 121, 448, 136
-0.998652, 289, 139, 352, 154
-0.998652, 81, 157, 144, 172
-0.998652, 17, 209, 80, 224
-0.998653, 329, 113, 392, 128
-0.998653, 1, 57, 64, 120
-0.998653, 313, 241, 376, 256
-0.998657, 433, 179, 496, 194
-0.998658, 207, 217, 222, 248
-0.998658, 89, 215, 152, 230
-0.99866, 153, 105, 216, 120
-0.998662, 41, 167, 104, 182
-0.998664, 161, 117, 224, 132
-0.998664, 251, 109, 266, 140
-0.998665, 345, 137, 408, 152
-0.998665, 77, 65, 108, 320
-0.998668, 185, 239, 248, 254
-0.998668, 25, 215, 88, 230
-0.998669, 297, 107, 360, 122
-0.99867, 49, 217, 112, 232
-0.99867, 401, 109, 416, 140
-0.998671, 89, 169, 104, 200
-0.998672, 191, 113, 206, 144
-0.998672, 49, 109, 112, 124
-0.998673, 137, 65, 168, 320
-0.998675, 193, 105, 256, 120
-0.998675, 1, 193, 500, 256
-0.998675, 81, 143, 144, 158
-0.998676, 357, 141, 372, 172
-0.99868, 185, 203, 248, 218
-0.99868, 249, 105, 312, 120
-0.998681, 233, 203, 296, 218
-0.998682, 141, 89, 156, 120
-0.998683, 225, 105, 288, 120
-0.998683, 289, 245, 352, 260
-0.998684, 145, 205, 208, 220
-0.998685, 193, 245, 320, 276
-0.998685, 113, 205, 176, 220
-0.998686, 295, 221, 310, 252
-0.998687, 405, 97, 436, 352
-0.998687, 249, 209, 312, 224
-0.998688, 389, 65, 420, 320
-0.998688, 17, 159, 80, 174
-0.998688, 105, 89, 120, 120
-0.998689, 257, 231, 320, 246
-0.99869, 121, 149, 184, 164
-0.998691, 169, 65, 200, 320
-0.998691, 65, 163, 128, 178
-0.998692, 241, 123, 304, 138
-0.998694, 267, 93, 282, 124
-0.998694, 377, 225, 408, 288
-0.998696, 401, 105, 464, 120
-0.998696, 33, 117, 96, 132
-0.998696, 341, 109, 356, 140
-0.9987, 235, 237, 250, 268
-0.9987, 153, 155, 216, 170
-0.9987, 463, 113, 478, 144
-0.998702, 33, 181, 48, 212
-0.998702, 269, 117, 284, 148
-0.998702, 273, 89, 288, 120
-0.998704, 85, 137, 100, 168
-0.998706, 233, 197, 248, 228
-0.998707, 313, 235, 376, 250
-0.998709, 25, 111, 88, 126
-0.998709, 1, 215, 64, 230
-0.998709, 373, 109, 388, 140
-0.99871, 81, 177, 144, 192
-0.998711, 329, 233, 344, 264
-0.998711, 49, 145, 112, 160
-0.998712, 321, 151, 384, 166
-0.998712, 281, 119, 344, 134
-0.998712, 213, 237, 228, 268
-0.998713, 425, 111, 488, 126
-0.998713, 225, 117, 240, 148
-0.998713, 301, 137, 316, 168
-0.998714, 281, 233, 344, 248
-0.998715, 257, 203, 320, 218
-0.998717, 17, 181, 80, 196
-0.998718, 97, 209, 160, 272
-0.998718, 265, 139, 328, 154
-0.998718, 249, 197, 312, 212
-0.998719, 49, 151, 112, 166
-0.998719, 89, 89, 104, 120
-0.99872, 447, 113, 462, 144
-0.998721, 153, 135, 216, 150
-0.998722, 217, 117, 232, 148
-0.998723, 361, 239, 424, 254
-0.998723, 73, 101, 136, 116
-0.998724, 137, 161, 200, 176
-0.998724, 337, 239, 400, 254
-0.998724, 177, 225, 240, 240
-0.998725, 89, 165, 152, 180
-0.998727, 289, 145, 352, 160
-0.998727, 97, 99, 160, 114
-0.998727, 1, 135, 64, 150
-0.998729, 345, 147, 408, 162
-0.998729, 361, 121, 424, 136
-0.998729, 353, 105, 416, 120
-0.99873, 201, 123, 264, 138
-0.998732, 105, 143, 168, 158
-0.998734, 321, 107, 384, 122
-0.998736, 187, 217, 202, 248
-0.998736, 393, 241, 456, 256
-0.998738, 161, 231, 224, 246
-0.998738, 41, 139, 104, 154
-0.998739, 25, 203, 88, 218
-0.998741, 337, 245, 400, 260
-0.998742, 305, 119, 368, 134
-0.998749, 145, 121, 272, 152
-0.99876, 61, 65, 92, 320
-0.998763, 65, 193, 192, 224
-0.998767, 433, 281, 496, 344
-0.998785, 289, 65, 352, 128
-0.998798, 353, 237, 480, 268
-0.998803, 1, 181, 128, 212
-0.998804, 109, 161, 140, 224
-0.998814, 385, 33, 416, 160
-0.998816, 353, 225, 480, 256
-0.998832, 417, 65, 448, 320
-0.998846, 1, 117, 128, 148
-0.998848, 333, 137, 364, 200
-0.998866, 289, 113, 320, 240
-0.998874, 125, 65, 156, 320
-0.998874, 81, 241, 208, 304
-0.998876, 325, 33, 356, 160
-0.998878, 257, 137, 500, 200
-0.998878, 33, 57, 96, 120
-0.998883, 105, 129, 136, 192
-0.998945, 301, 249, 332, 312
-0.998949, 73, 129, 104, 192
-0.99898, 129, 141, 256, 172
-0.998983, 469, 65, 500, 320
-0.998987, 89, 33, 120, 160
-0.998988, 377, 65, 408, 320
-0.998989, 33, 65, 64, 320
-0.999019, 289, 245, 416, 276
-0.999028, 241, 129, 368, 160
-0.999032, 61, 137, 92, 200
-0.999035, 397, 73, 428, 136
-0.999036, 109, 33, 140, 160
-0.999037, 1, 153, 128, 184
-0.99904, 281, 201, 312, 264
-0.999047, 33, 241, 288, 304
-0.999066, 1, 113, 500, 176
-0.999095, 49, 249, 176, 280
-0.999113, 5, 65, 36, 320
-0.999122, 81, 133, 208, 164
-0.999135, 361, 273, 424, 336
-0.999135, 149, 65, 180, 320
-0.999144, 265, 113, 296, 176
-0.999158, 437, 65, 468, 320
-0.999159, 1, 249, 128, 280
-0.999172, 129, 145, 384, 208
-0.999177, 97, 229, 224, 260
-0.999185, 161, 177, 416, 240
-0.999199, 441, 33, 472, 160
-0.999207, 257, 185, 288, 248
-0.99922, 257, 249, 500, 312
-0.99923, 45, 65, 76, 320
-0.99925, 289, 209, 352, 336
-0.999255, 75, 161, 90, 288
-0.999256, 369, 173, 496, 204
-0.999258, 321, 169, 448, 232
-0.999276, 21, 65, 52, 320
-0.999279, 297, 1, 328, 256
-0.999292, 1, 289, 64, 352
-0.999295, 149, 145, 180, 272
-0.999299, 269, 201, 300, 264
-0.99932, 329, 129, 392, 256
-0.999321, 53, 97, 68, 224
-0.999324, 33, 241, 160, 304
-0.999337, 353, 249, 480, 280
-0.999338, 413, 65, 428, 192
-0.999344, 67, 129, 82, 256
-0.999347, 273, 1, 304, 256
-0.999347, 169, 225, 200, 288
-0.999352, 73, 81, 88, 208
-0.999367, 233, 33, 264, 160
-0.999369, 321, 85, 448, 116
-0.999369, 47, 81, 62, 208
-0.999372, 1, 289, 256, 352
-0.999382, 249, 65, 280, 128
-0.999386, 83, 113, 98, 240
-0.999387, 257, 209, 288, 336
-0.999399, 65, 81, 80, 208
-0.999419, 89, 161, 120, 288
-0.999419, 337, 321, 464, 352
-0.999425, 1, 313, 128, 344
-0.999425, 145, 325, 272, 356
-0.999435, 41, 273, 104, 336
-0.999436, 425, 81, 440, 208
-0.999436, 165, 33, 196, 160
-0.999438, 59, 129, 74, 256
-0.999438, 225, 193, 240, 320
-0.999441, 285, 249, 316, 312
-0.999442, 231, 193, 246, 320
-0.999443, 403, 81, 418, 208
-0.999453, 197, 193, 228, 320
-0.999454, 321, 1, 352, 256
-0.999455, 95, 81, 110, 208
-0.999455, 413, 225, 444, 288
-0.999457, 149, 81, 164, 208
-0.999465, 157, 65, 172, 192
-0.999465, 59, 81, 74, 208
-0.99947, 33, 177, 64, 240
-0.999475, 167, 81, 182, 208
-0.999482, 419, 81, 434, 208
-0.999486, 329, 249, 360, 312
-0.999488, 103, 97, 118, 224
-0.999495, 135, 81, 150, 208
-0.999498, 257, 81, 272, 208
-0.9995, 201, 33, 232, 160
-0.999502, 1, 77, 128, 108
-0.999502, 1, 81, 16, 208
-0.999508, 321, 301, 448, 332
-0.999514, 449, 81, 464, 208
-0.999515, 241, 317, 368, 348
-0.999517, 83, 177, 98, 304
-0.99952, 235, 81, 250, 208
-0.999528, 409, 113, 424, 240
-0.999531, 145, 269, 272, 300
-0.999534, 9, 81, 24, 208
-0.999539, 41, 81, 56, 208
-0.999542, 293, 81, 308, 208
-0.999544, 333, 81, 348, 208
-0.999544, 345, 81, 360, 208
-0.999544, 401, 225, 432, 288
-0.999546, 111, 81, 126, 208
-0.999548, 127, 81, 142, 208
-0.999549, 245, 33, 276, 160
-0.99955, 141, 81, 156, 208
-0.999551, 241, 81, 256, 208
-0.999555, 333, 143, 348, 158
-0.999556, 67, 211, 82, 226
-0.999557, 215, 109, 230, 124
-0.999557, 265, 105, 280, 120
-0.999557, 191, 217, 206, 232
-0.999558, 207, 215, 222, 230
-0.999558, 261, 243, 276, 258
-0.999558, 45, 129, 60, 256
-0.999559, 421, 121, 436, 136
-0.99956, 441, 65, 456, 192
-0.99956, 435, 81, 450, 208
-0.99956, 273, 243, 288, 258
-0.99956, 257, 113, 272, 128
-0.99956, 355, 143, 370, 158
-0.99956, 249, 215, 264, 230
-0.999561, 15, 81, 30, 208
-0.999561, 451, 115, 466, 130
-0.999561, 301, 137, 316, 152
-0.999562, 225, 65, 240, 192
-0.999564, 373, 81, 388, 208
-0.999564, 335, 239, 350, 254
-0.999565, 151, 117, 166, 132
-0.999565, 383, 81, 398, 208
-0.999566, 225, 225, 240, 240
-0.999566, 337, 281, 464, 312
-0.999566, 239, 201, 254, 216
-0.999567, 69, 181, 84, 196
-0.999568, 219, 193, 234, 320
-0.999568, 73, 187, 88, 202
-0.99957, 335, 115, 350, 130
-0.999571, 427, 113, 442, 128
-0.999571, 177, 145, 240, 208
-0.999572, 263, 81, 278, 208
-0.999572, 141, 115, 156, 130
-0.999572, 305, 81, 320, 208
-0.999574, 409, 121, 424, 136
-0.999575, 79, 117, 94, 132
-0.999575, 469, 225, 500, 288
-0.999577, 325, 81, 340, 208
-0.999577, 87, 209, 102, 224
-0.999577, 369, 129, 432, 256
-0.999577, 133, 119, 148, 134
-0.999579, 133, 33, 164, 160
-0.999579, 39, 187, 54, 202
-0.99958, 443, 111, 458, 126
-0.99958, 461, 113, 476, 128
-0.99958, 89, 129, 104, 256
-0.999581, 217, 205, 232, 220
-0.999581, 345, 33, 376, 160
-0.999583, 137, 153, 152, 168
-0.999583, 311, 239, 326, 254
-0.999584, 185, 81, 200, 208
-0.999585, 243, 221, 258, 236
-0.999585, 255, 211, 270, 226
-0.999585, 171, 207, 186, 222
-0.999585, 485, 81, 500, 208
-0.999587, 369, 161, 496, 192
-0.999587, 199, 81, 214, 208
-0.999588, 231, 217, 246, 232
-0.999588, 251, 229, 266, 244
-0.999589, 93, 209, 108, 224
-0.999589, 267, 243, 282, 258
-0.999589, 249, 121, 264, 136
-0.99959, 159, 115, 174, 130
-0.999592, 339, 143, 354, 158
-0.999592, 237, 217, 252, 232
-0.999593, 473, 177, 488, 192
-0.999594, 329, 239, 344, 254
-0.999594, 251, 115, 266, 130
-0.999594, 35, 81, 50, 208
-0.999595, 133, 211, 148, 226
-0.999595, 215, 81, 230, 208
-0.999596, 281, 237, 296, 252
-0.999597, 89, 187, 104, 202
-0.999597, 349, 143, 364, 158
-0.999598, 241, 193, 256, 320
-0.9996, 97, 147, 112, 162
-0.9996, 291, 235, 306, 250
-0.9996, 291, 113, 306, 128
-0.9996, 241, 145, 368, 176
-0.999602, 261, 205, 276, 220
-0.999602, 333, 65, 364, 128
-0.999602, 273, 81, 288, 208
-0.999603, 297, 237, 312, 252
-0.999604, 157, 211, 172, 226
-0.999605, 127, 155, 142, 170
-0.999605, 89, 81, 104, 208
-0.999605, 125, 111, 140, 126
-0.999606, 33, 187, 48, 202
-0.999608, 225, 115, 240, 130
-0.999608, 151, 211, 166, 226
-0.999609, 319, 239, 334, 254
-0.99961, 81, 185, 96, 200
-0.99961, 69, 177, 84, 304
-0.999611, 121, 81, 136, 208
-0.999611, 401, 115, 416, 130
-0.999612, 159, 129, 174, 256
-0.999613, 441, 117, 456, 132
-0.999613, 217, 231, 232, 246
-0.999614, 261, 235, 276, 250
-0.999616, 21, 81, 36, 208
-0.999617, 193, 121, 320, 152
-0.999617, 127, 211, 142, 226
-0.999619, 89, 143, 104, 158
-0.999619, 83, 107, 98, 122
-0.99962, 1, 129, 128, 160
-0.99962, 393, 81, 408, 208
-0.999621, 65, 281, 128, 344
-0.999621, 299, 109, 314, 124
-0.999622, 191, 111, 206, 126
-0.999623, 143, 159, 158, 174
-0.999624, 83, 65, 98, 192
-0.999624, 229, 233, 244, 248
-0.999625, 303, 237, 318, 252
-0.999625, 335, 109, 350, 124
-0.999626, 277, 33, 308, 160
-0.999626, 145, 77, 272, 108
-0.999627, 255, 235, 270, 250
-0.999627, 67, 165, 82, 180
-0.999627, 247, 235, 262, 250
-0.999628, 363, 81, 378, 208
-0.999629, 99, 209, 114, 224
-0.999629, 289, 313, 416, 344
-0.999632, 251, 81, 266, 208
-0.999632, 159, 155, 174, 170
-0.999633, 461, 177, 476, 192
-0.999633, 105, 105, 120, 120
-0.999634, 137, 159, 152, 174
-0.999634, 139, 211, 154, 226
-0.999634, 183, 193, 198, 320
-0.999635, 351, 81, 366, 208
-0.999635, 111, 209, 126, 224
-0.999635, 93, 181, 108, 196
-0.999635, 121, 211, 136, 226
-0.999635, 145, 211, 160, 226
-0.999635, 339, 81, 354, 208
-0.999637, 245, 209, 260, 224
-0.999639, 245, 227, 260, 242
-0.999639, 143, 153, 158, 168
-0.999639, 91, 177, 106, 304
-0.99964, 245, 203, 260, 218
-0.999642, 223, 231, 238, 246
-0.999642, 27, 81, 42, 208
-0.999642, 275, 235, 290, 250
-0.999643, 205, 81, 220, 208
-0.999643, 225, 109, 240, 124
-0.999645, 193, 65, 208, 192
-0.999649, 479, 81, 494, 208
-0.99965, 241, 233, 256, 248
-0.999652, 65, 317, 192, 348
-0.999654, 341, 1, 372, 256
-0.999654, 105, 209, 120, 224
-0.999655, 159, 109, 174, 124
-0.999655, 411, 111, 426, 126
-0.999655, 273, 77, 400, 108
-0.999655, 239, 209, 254, 224
-0.999656, 177, 81, 192, 208
-0.999657, 231, 227, 246, 242
-0.999658, 287, 81, 302, 208
-0.999658, 85, 113, 100, 128
-0.999658, 135, 107, 150, 122
-0.999658, 267, 111, 282, 126
-0.999659, 417, 111, 432, 126
-0.99966, 163, 211, 178, 226
-0.999661, 1, 129, 16, 256
-0.999664, 187, 211, 202, 226
-0.999665, 319, 81, 334, 208
-0.999666, 267, 235, 282, 250
-0.999668, 253, 205, 268, 220
-0.999669, 467, 81, 482, 208
-0.99967, 227, 113, 242, 240
-0.999672, 413, 105, 428, 120
-0.999675, 311, 65, 326, 192
-0.999675, 225, 161, 288, 224
-0.999677, 243, 215, 258, 230
-0.999677, 235, 233, 250, 248
-0.999678, 193, 269, 320, 300
-0.999678, 135, 113, 150, 128
-0.99968, 75, 181, 90, 196
-0.99968, 37, 177, 68, 304
-0.99968, 461, 81, 476, 208
-0.999682, 213, 211, 228, 226
-0.999682, 231, 211, 246, 226
-0.999684, 289, 193, 416, 224
-0.999684, 181, 211, 196, 226
-0.999685, 149, 155, 164, 170
-0.999686, 299, 65, 314, 192
-0.999687, 353, 193, 480, 224
-0.999688, 173, 213, 188, 228
-0.999689, 197, 209, 212, 224
-0.99969, 157, 149, 172, 164
-0.99969, 49, 77, 176, 108
-0.999691, 281, 65, 296, 192
-0.999693, 455, 81, 470, 208
-0.999695, 467, 177, 482, 192
-0.999697, 357, 81, 372, 208
-0.999699, 299, 113, 314, 240
-0.999701, 53, 145, 68, 272
-0.999702, 443, 113, 458, 240
-0.999703, 223, 211, 238, 226
-0.999704, 205, 209, 220, 224
-0.999705, 369, 77, 496, 108
-0.999709, 225, 77, 352, 108
-0.999709, 253, 1, 284, 256
-0.999715, 337, 213, 464, 244
-0.999716, 193, 113, 208, 240
-0.999722, 161, 161, 288, 192
-0.999727, 177, 133, 304, 164
-0.999728, 87, 181, 102, 196
-0.999728, 433, 185, 496, 248
-0.99973, 237, 225, 252, 240
-0.99973, 459, 193, 474, 320
-0.999732, 271, 209, 286, 336
-0.999736, 81, 179, 96, 194
-0.999738, 107, 111, 122, 126
-0.999738, 473, 81, 488, 208
-0.999741, 97, 277, 224, 308
-0.999743, 1, 237, 128, 268
-0.999751, 153, 129, 168, 256
-0.999755, 175, 209, 190, 336
-0.99976, 101, 49, 116, 176
-0.999762, 345, 137, 376, 200
-0.999764, 285, 1, 316, 256
-0.999765, 209, 177, 240, 240
-0.999765, 235, 145, 250, 272
-0.999766, 39, 161, 54, 288
-0.999768, 453, 225, 468, 352
-0.999769, 63, 177, 78, 304
-0.999776, 177, 301, 304, 332
-0.999776, 107, 33, 122, 160
-0.999776, 257, 209, 384, 240
-0.999778, 373, 249, 404, 312
-0.999779, 279, 209, 294, 336
-0.999779, 241, 177, 272, 240
-0.999781, 393, 289, 456, 352
-0.999782, 241, 305, 368, 336
-0.999784, 213, 193, 228, 320
-0.999788, 401, 33, 416, 160
-0.999789, 257, 65, 500, 128
-0.999791, 189, 177, 204, 304
-0.999792, 225, 281, 352, 312
-0.999792, 17, 325, 144, 356
-0.999792, 263, 33, 278, 160
-0.999793, 249, 33, 264, 160
-0.999794, 53, 49, 68, 176
-0.999794, 471, 193, 486, 320
-0.999796, 407, 33, 422, 160
-0.999797, 193, 317, 320, 348
-0.9998, 239, 33, 254, 160
-0.9998, 423, 33, 438, 160
-0.999801, 289, 261, 416, 292
-0.999801, 129, 305, 256, 336
-0.999803, 335, 129, 350, 256
-0.999805, 139, 33, 154, 160
-0.999807, 47, 177, 62, 304
-0.999807, 335, 33, 350, 160
-0.999811, 1, 177, 16, 304
-0.999816, 309, 1, 340, 256
-0.999816, 415, 129, 430, 256
-0.999817, 131, 33, 146, 160
-0.999819, 9, 129, 24, 256
-0.999819, 433, 33, 448, 160
-0.99982, 313, 113, 328, 240
-0.999823, 183, 145, 198, 272
-0.999824, 257, 33, 272, 160
-0.999827, 187, 33, 202, 160
-0.999828, 273, 33, 288, 160
-0.999829, 289, 133, 416, 164
-0.99983, 225, 293, 352, 324
-0.99983, 97, 177, 112, 304
-0.999831, 453, 33, 468, 160
-0.999832, 369, 293, 496, 324
-0.999836, 161, 257, 288, 288
-0.999837, 291, 33, 306, 160
-0.999838, 95, 33, 110, 160
-0.999839, 341, 33, 356, 160
-0.999839, 323, 33, 338, 160
-0.999852, 97, 169, 224, 200
-0.999852, 1, 225, 64, 288
-0.999852, 233, 273, 296, 336
-0.999855, 289, 209, 416, 336
-0.999855, 49, 301, 176, 332
-0.999858, 49, 237, 176, 268
-0.999863, 229, 65, 260, 128
-0.999877, 369, 305, 496, 336
-0.99988, 401, 1, 432, 256
-0.999881, 177, 281, 304, 312
-0.999882, 65, 209, 96, 272
-0.999884, 1, 273, 128, 304
-0.999887, 289, 281, 416, 312
-0.999913, 225, 257, 352, 288
-0.999916, 369, 261, 496, 292
-0.999917, 81, 225, 112, 352
-0.999947, 445, 161, 476, 288
-0.999947, 433, 209, 464, 336
-0.999948, 97, 77, 224, 108
-0.999951, 289, 325, 416, 356
-0.999957, 49, 261, 176, 292
-0.99996, 161, 177, 288, 208
-0.999973, 225, 161, 352, 192
-0.999976, 393, 17, 456, 144
-0.999989, 81, 289, 208, 320
-1, 97, 297, 352, 357
-1.00001, 309, 33, 340, 160
-1.00001, 1, 301, 128, 332
-1.00002, 289, 181, 416, 212
-1.00002, 353, 225, 384, 288
-1.00002, 129, 289, 256, 320
-1.00004, 353, 149, 480, 180
-1.00004, 257, 169, 500, 232
-1.00004, 241, 177, 368, 208
-1.00004, 377, 137, 408, 200
-1.00006, 49, 273, 176, 304
-1.00006, 121, 33, 152, 160
-1.00007, 369, 193, 432, 256
-1.00011, 1, 113, 64, 176
-1.00012, 129, 273, 384, 336
-1.00013, 33, 209, 96, 336
-1.00013, 321, 73, 448, 104
-1.00013, 273, 161, 400, 192
-1.00013, 397, 33, 428, 160
-1.00015, 201, 289, 264, 352
-1.00019, 21, 33, 52, 160
-1.0002, 145, 33, 176, 160
-1.0002, 1, 285, 128, 316
-1.00021, 97, 257, 224, 288
-1.00021, 273, 293, 400, 324
-1.00022, 241, 269, 368, 300
-1.00023, 177, 145, 304, 176
-1.00024, 225, 297, 480, 357
-1.00025, 177, 33, 208, 160
-1.00026, 49, 241, 112, 304
-1.00027, 25, 217, 88, 280
-1.00029, 1, 261, 128, 292
-1.00038, 257, 273, 500, 336
-1.00041, 453, 33, 484, 160
-1.00047, 41, 33, 72, 160
-1.00048, 1, 65, 500, 128
-1.0005, 145, 249, 208, 312
-1.00057, 409, 169, 472, 232
-1.00058, 209, 137, 336, 200
-1.00059, 153, 289, 216, 352
-1.0006, 1, 137, 500, 200
-1.00062, 369, 33, 400, 160
-1.00064, 413, 129, 444, 256
-1.00068, 177, 297, 240, 357
-1.00068, 457, 177, 488, 304
-1.00068, 113, 273, 176, 336
-1.00069, 33, 265, 288, 328
-1.0007, 429, 129, 460, 256
-1.0007, 345, 201, 408, 264
-1.00084, 1, 33, 32, 160
-1.00086, 57, 57, 120, 120
-1.00089, 353, 145, 416, 208
-1.00094, 1, 273, 500, 336
-1.00094, 237, 145, 268, 272
-1.00098, 65, 209, 96, 336
-1.00098, 281, 225, 312, 352
-1.00114, 9, 177, 72, 304
-1.00116, 393, 209, 456, 336
-1.00121, 1, 177, 32, 304
-1.00122, 13, 177, 44, 304
-1.00129, 161, 49, 416, 112
-1.00133, 157, 193, 188, 320
-1.00135, 353, 1, 480, 64
-1.00137, 1, 297, 500, 357
-1.0014, 129, 129, 160, 256
-1.00141, 245, 193, 276, 320
-1.00142, 1, 169, 500, 232
-1.00143, 257, 1, 500, 64
-1.00146, 69, 33, 100, 160
-1.00149, 277, 161, 308, 288
-1.00154, 257, 225, 500, 352
-1.00157, 17, 129, 48, 256
-1.00172, 357, 33, 388, 160
-1.00174, 333, 129, 364, 256
-1.00181, 53, 33, 84, 160
-1.00181, 161, 1, 416, 64
-1.00183, 1, 41, 256, 104
-1.00186, 305, 1, 432, 64
-1.00187, 65, 1, 320, 64
-1.00187, 81, 41, 208, 104
-1.00189, 209, 1, 336, 64
-1.00194, 125, 209, 156, 336
-1.00199, 293, 209, 324, 336
-1.00203, 257, 41, 500, 104
-1.00203, 197, 145, 228, 272
-1.00205, 465, 33, 496, 160
-1.00211, 97, 25, 352, 88
-1.00218, 189, 17, 220, 144
-1.00225, 313, 129, 344, 256
-1.0023, 161, 1, 288, 64
-1.00237, 93, 209, 124, 336
-1.00241, 209, 129, 240, 256
-1.00242, 29, 225, 60, 352
-1.0025, 265, 177, 328, 304
-1.00253, 265, 113, 296, 240
-1.00258, 101, 129, 132, 256
-1.00264, 469, 145, 500, 272
-1.00268, 361, 129, 392, 256
-1.00269, 105, 193, 168, 320
-1.00269, 113, 209, 144, 336
-1.00271, 257, 1, 384, 64
-1.00271, 193, 41, 320, 104
-1.00276, 49, 1, 176, 64
-1.00276, 97, 1, 224, 64
-1.00283, 257, 161, 288, 288
-1.00288, 129, 25, 256, 88
-1.0029, 273, 41, 400, 104
-1.0029, 41, 17, 104, 144
-1.00291, 1, 9, 128, 72
-1.00292, 353, 41, 480, 104
-1.00299, 113, 129, 144, 256
-1.00304, 141, 225, 172, 352
-1.00305, 361, 225, 424, 352
-1.0031, 457, 129, 488, 256
-1.00317, 1, 1, 500, 64
-1.00325, 409, 17, 440, 144
-1.00333, 421, 225, 452, 352
-1.00334, 1, 41, 500, 104
-1.00352, 349, 129, 380, 256
-1.00367, 377, 129, 408, 256
-1.00372, 321, 225, 384, 352
-1.00377, 289, 161, 320, 288
-1.00382, 305, 225, 336, 352
-1.00382, 409, 193, 440, 320
-1.00384, 137, 177, 168, 304
-1.00402, 33, 33, 160, 96
-1.00478, 73, 1, 136, 128
-1.00545, 9, 225, 72, 352
-1.00623, 345, 177, 408, 304
-1.00661, 313, 177, 376, 304
-1.00697, 369, 177, 432, 304
