1954
-0.217862, 1, 1, 500, 375
-0.30446, 257, 1, 500, 375
-0.350197, 1, 65, 500, 320
-0.407594, 65, 1, 320, 375
-0.436944, 161, 1, 416, 375
-0.611781, 193, 97, 448, 352
-0.620315, 65, 129, 320, 375
-0.677307, 97, 1, 352, 256
-0.766163, 1, 1, 256, 256
-0.784722, 225, 1, 480, 256
-0.83286, 289, 1, 416, 375
-0.838443, 369, 1, 496, 375
-0.85461, 113, 1, 240, 375
-0.85909, 161, 1, 288, 375
-0.865908, 321, 65, 448, 320
-0.869838, 97, 129, 224, 375
-0.869842, 33, 1, 160, 375
-0.870394, 241, 1, 368, 375
-0.872211, 1, 161, 500, 288
-0.874311, 369, 33, 496, 288
-0.8781, 49, 129, 176, 375
-0.880647, 1, 49, 500, 176
-0.881055, 161, 129, 288, 375
-0.881951, 113, 1, 240, 256
-0.882114, 241, 65, 368, 320
-0.887609, 1, 113, 500, 240
-0.894725, 369, 129, 496, 375
-0.901371, 129, 81, 384, 208
-0.9033, 1, 241, 500, 368
-0.904584, 161, 33, 288, 288
-0.905047, 1, 1, 500, 128
-0.905846, 49, 1, 176, 256
-0.909416, 65, 177, 320, 304
-0.92043, 1, 225, 256, 352
-0.921713, 1, 129, 128, 375
-0.922247, 257, 49, 500, 176
-0.929866, 33, 1, 288, 128
-0.930373, 17, 225, 144, 352
-0.931993, 97, 225, 352, 352
-0.932027, 225, 145, 480, 272
-0.932039, 57, 225, 120, 352
-0.932885, 193, 81, 320, 208
-0.933216, 65, 129, 320, 256
-0.934236, 225, 241, 480, 368
-0.936925, 65, 193, 192, 320
-0.938174, 105, 193, 168, 320
-0.938263, 209, 81, 272, 208
-0.93833, 1, 1, 128, 256
-0.939066, 33, 65, 288, 192
-0.939074, 321, 49, 448, 176
-0.939146, 161, 1, 416, 128
-0.939367, 241, 65, 368, 192
-0.939868, 81, 209, 144, 336
-0.940203, 225, 97, 480, 224
-0.941023, 305, 65, 368, 192
-0.941335, 17, 209, 80, 336
-0.942446, 233, 81, 296, 208
-0.942947, 1, 177, 128, 304
-0.944122, 369, 193, 496, 320
-0.944697, 273, 81, 336, 208
-0.94507, 369, 33, 432, 160
-0.945134, 257, 193, 500, 320
-0.945433, 305, 177, 432, 304
-0.946943, 409, 193, 472, 320
-0.947767, 129, 113, 256, 240
-0.947847, 409, 201, 472, 264
-0.949226, 241, 225, 368, 352
-0.949714, 185, 65, 248, 192
-0.949978, 105, 145, 168, 272
-0.950508, 129, 225, 192, 352
-0.95119, 369, 49, 496, 176
-0.951203, 137, 113, 200, 240
-0.951872, 145, 65, 272, 192
-0.951921, 113, 1, 240, 128
-0.95243, 329, 33, 392, 160
-0.952433, 113, 193, 240, 320
-0.9532, 41, 241, 104, 304
-0.95385, 409, 49, 472, 176
-0.953894, 321, 113, 448, 240
-0.953939, 273, 225, 336, 352
-0.954059, 409, 225, 472, 288
-0.954256, 73, 241, 136, 304
-0.954521, 97, 241, 224, 368
-0.954924, 65, 201, 128, 264
-0.955593, 89, 281, 152, 344
-0.955999, 129, 177, 192, 304
-0.956027, 177, 113, 240, 240
-0.95637, 361, 177, 424, 304
-0.956794, 25, 209, 88, 272
-0.956832, 105, 241, 168, 368
-0.957163, 17, 233, 80, 296
-0.95735, 433, 49, 496, 176
-0.957382, 49, 145, 176, 272
-0.957389, 417, 145, 480, 272
-0.957729, 273, 113, 400, 240
-0.958082, 41, 177, 104, 304
-0.958287, 361, 241, 424, 304
-0.958459, 369, 145, 496, 272
-0.958709, 321, 209, 384, 336
-0.958779, 433, 201, 496, 264
-0.958782, 169, 1, 232, 128
-0.959248, 65, 281, 128, 344
-0.959729, 17, 161, 80, 288
-0.960179, 393, 145, 456, 272
-0.960567, 369, 49, 432, 112
-0.960925, 105, 241, 168, 304
-0.961294, 385, 209, 448, 336
-0.961514, 153, 177, 216, 304
-0.961645, 321, 49, 384, 112
-0.961687, 161, 193, 288, 320
-0.96204, 41, 265, 104, 328
-0.962354, 129, 273, 192, 336
-0.962571, 321, 241, 448, 368
-0.962977, 145, 241, 272, 368
-0.963401, 329, 81, 392, 208
-0.963723, 281, 89, 344, 152
-0.963791, 233, 89, 296, 152
-0.963884, 41, 1, 104, 128
-0.964023, 137, 129, 200, 192
-0.964212, 113, 145, 176, 208
-0.964604, 209, 89, 272, 152
-0.964812, 393, 1, 456, 128
-0.964812, 249, 225, 312, 352
-0.965087, 65, 161, 128, 288
-0.965213, 377, 217, 440, 280
-0.965537, 377, 193, 440, 256
-0.965602, 1, 217, 128, 280
-0.965615, 153, 241, 216, 368
-0.96575, 113, 97, 176, 224
-0.965796, 153, 249, 216, 312
-0.965822, 457, 201, 488, 264
-0.965996, 161, 1, 224, 64
-0.966044, 97, 193, 160, 256
-0.96624, 169, 49, 232, 112
-0.966825, 393, 57, 456, 120
-0.966903, 1, 201, 32, 264
-0.96693, 377, 97, 440, 224
-0.967257, 81, 1, 144, 128
-0.967327, 337, 129, 400, 256
-0.9674, 257, 97, 320, 160
-0.967628, 137, 185, 200, 248
-0.967744, 361, 225, 424, 352
-0.967936, 81, 97, 208, 224
-0.967971, 177, 129, 304, 256
-0.967971, 369, 97, 432, 160
-0.968379, 177, 241, 240, 368
-0.968562, 49, 209, 176, 272
-0.968593, 353, 73, 416, 136
-0.968594, 41, 289, 104, 352
-0.96878, 153, 65, 216, 192
-0.968973, 209, 177, 336, 304
-0.969111, 409, 177, 472, 240
-0.969116, 129, 249, 192, 312
-0.969123, 73, 241, 104, 304
-0.969149, 193, 241, 320, 368
-0.969338, 433, 57, 496, 120
-0.96949, 17, 241, 144, 304
-0.969566, 377, 33, 440, 288
-0.969575, 305, 89, 368, 152
-0.969731, 81, 73, 144, 136
-0.969814, 177, 129, 240, 192
-0.969923, 385, 241, 448, 304
-0.970219, 433, 225, 496, 288
-0.970374, 297, 65, 360, 128
-0.970407, 97, 169, 160, 232
-0.970499, 297, 241, 360, 368
-0.970545, 121, 281, 152, 344
-0.970553, 433, 193, 496, 320
-0.970566, 17, 185, 80, 248
-0.970721, 209, 33, 272, 160
-0.970861, 81, 49, 144, 176
-0.970917, 273, 177, 336, 304
-0.970979, 93, 209, 124, 336
-0.97106, 113, 121, 176, 184
-0.971157, 225, 193, 288, 320
-0.971235, 469, 201, 500, 264
-0.971248, 257, 177, 384, 304
-0.971267, 193, 33, 320, 160
-0.971354, 289, 265, 352, 328
-0.971643, 105, 217, 168, 280
-0.971658, 105, 305, 168, 368
-0.971736, 5, 193, 36, 320
-0.971866, 297, 113, 360, 240
-0.972032, 297, 193, 360, 320
-0.972053, 225, 241, 288, 368
-0.972128, 49, 241, 80, 304
-0.972142, 105, 129, 168, 375
-0.972183, 57, 201, 88, 264
-0.972206, 185, 81, 248, 144
-0.972207, 321, 65, 352, 192
-0.972225, 57, 265, 88, 328
-0.972257, 1, 1, 128, 128
-0.972312, 1, 257, 64, 320
-0.972624, 229, 81, 260, 208
-0.972701, 201, 241, 264, 368
-0.972745, 369, 97, 496, 224
-0.972814, 369, 201, 496, 264
-0.972885, 369, 57, 496, 120
-0.972892, 61, 241, 92, 304
-0.972899, 169, 105, 232, 168
-0.9729, 225, 129, 352, 256
-0.972947, 153, 273, 216, 336
-0.973002, 17, 225, 48, 288
-0.973084, 137, 105, 200, 168
-0.973101, 105, 225, 136, 352
-0.973112, 93, 249, 124, 312
-0.973126, 281, 241, 344, 304
-0.973202, 69, 201, 100, 264
-0.97322, 409, 129, 472, 375
-0.9733, 57, 225, 88, 352
-0.973333, 289, 81, 416, 144
-0.973338, 257, 81, 288, 208
-0.973426, 129, 129, 192, 375
-0.973434, 225, 129, 288, 256
-0.973455, 385, 129, 448, 192
-0.97357, 385, 169, 448, 232
-0.973665, 97, 281, 128, 344
-0.973777, 153, 153, 216, 216
-0.973786, 177, 193, 240, 320
-0.973826, 29, 225, 60, 352
-0.973865, 17, 297, 80, 360
-0.973957, 445, 201, 476, 264
-0.973989, 89, 97, 152, 224
-0.97399, 65, 241, 192, 304
-0.974001, 17, 281, 144, 344
-0.974098, 329, 81, 392, 144
-0.974105, 241, 81, 272, 208
-0.974123, 345, 49, 408, 112
-0.974194, 185, 153, 248, 216
-0.974244, 213, 65, 244, 192
-0.974282, 5, 225, 36, 288
-0.974305, 129, 81, 192, 144
-0.974335, 321, 265, 384, 328
-0.974341, 209, 97, 336, 160
-0.974343, 425, 33, 488, 288
-0.974363, 49, 1, 176, 128
-0.974424, 369, 241, 496, 368
-0.974498, 225, 153, 288, 216
-0.97452, 273, 81, 304, 208
-0.974577, 433, 177, 496, 240
-0.974622, 393, 33, 456, 96
-0.974678, 337, 241, 400, 304
-0.974703, 361, 265, 424, 328
-0.974775, 393, 233, 424, 296
-0.974814, 409, 225, 440, 288
-0.974847, 345, 137, 408, 200
-0.975301, 73, 177, 136, 240
-0.975458, 81, 177, 208, 240
-0.975461, 249, 177, 312, 304
-0.975468, 369, 225, 496, 288
-0.975684, 369, 1, 496, 128
-0.975692, 1, 193, 128, 256
-0.975792, 249, 129, 312, 256
-0.975909, 425, 145, 456, 272
-0.975919, 1, 209, 64, 272
-0.975935, 281, 33, 344, 160
-0.975979, 265, 265, 328, 328
-0.975988, 109, 281, 140, 344
-0.975989, 305, 57, 432, 120
-0.975994, 201, 121, 264, 184
-0.976093, 201, 129, 264, 256
-0.976274, 301, 81, 332, 208
-0.976277, 157, 249, 188, 312
-0.976284, 377, 1, 440, 375
-0.97634, 433, 201, 464, 264
-0.976406, 233, 249, 296, 312
-0.976532, 37, 217, 68, 280
-0.97655, 169, 25, 232, 88
-0.976633, 225, 113, 288, 176
-0.976663, 233, 273, 296, 336
-0.976709, 185, 273, 248, 336
-0.976742, 121, 1, 184, 128
-0.976822, 345, 169, 408, 232
-0.976832, 169, 249, 200, 312
-0.97685, 73, 1, 136, 64
-0.976867, 369, 177, 496, 240
-0.976882, 185, 177, 248, 240
-0.976933, 65, 265, 192, 328
-0.977031, 97, 49, 224, 176
-0.977042, 41, 1, 104, 64
-0.977042, 265, 153, 328, 216
-0.977046, 89, 217, 120, 280
-0.977134, 117, 177, 148, 304
-0.977156, 397, 41, 428, 104
-0.97717, 153, 129, 216, 375
-0.97729, 353, 81, 416, 208
-0.977346, 141, 193, 172, 320
-0.977364, 37, 241, 68, 304
-0.977382, 321, 1, 448, 128
-0.97739, 369, 129, 432, 375
-0.977468, 305, 113, 368, 176
-0.977498, 125, 225, 156, 352
-0.977514, 409, 225, 440, 352
-0.977568, 257, 241, 320, 304
-0.977713, 465, 225, 496, 288
-0.977819, 285, 81, 316, 208
-0.977836, 113, 137, 240, 200
-0.977912, 33, 81, 160, 208
-0.978068, 97, 41, 160, 104
-0.978088, 177, 249, 240, 312
-0.97809, 137, 209, 200, 272
-0.978106, 201, 177, 264, 304
-0.978109, 305, 241, 368, 304
-0.978144, 353, 1, 416, 375
-0.978211, 209, 65, 272, 128
-0.978246, 321, 1, 384, 375
-0.978267, 381, 233, 412, 296
-0.978302, 209, 273, 272, 336
-0.978308, 281, 65, 344, 320
-0.978419, 145, 273, 176, 336
-0.978461, 193, 129, 256, 375
-0.978592, 1, 1, 64, 128
-0.978664, 249, 65, 312, 320
-0.978671, 305, 233, 432, 296
-0.978673, 273, 129, 336, 256
-0.978739, 393, 81, 456, 144
-0.978831, 325, 65, 356, 128
-0.978862, 353, 33, 416, 288
-0.978892, 113, 49, 240, 112
-0.978974, 161, 193, 224, 256
-0.979014, 257, 121, 320, 184
-0.979059, 201, 249, 264, 312
-0.979067, 329, 97, 392, 352
-0.979182, 377, 33, 408, 160
-0.979184, 397, 17, 428, 144
-0.979283, 201, 65, 232, 192
-0.979333, 113, 273, 240, 336
-0.979441, 357, 65, 388, 192
-0.979487, 233, 33, 296, 160
-0.979603, 345, 33, 376, 160
-0.979614, 253, 89, 284, 152
-0.97963, 81, 313, 144, 375
-0.979656, 401, 1, 464, 375
-0.979697, 409, 153, 472, 216
-0.979729, 17, 225, 48, 352
-0.97974, 73, 1, 136, 256
-0.979763, 17, 201, 48, 264
-0.979773, 161, 137, 288, 200
-0.979813, 305, 89, 336, 152
-0.979814, 257, 33, 320, 160
-0.979824, 453, 225, 484, 288
-0.979858, 141, 145, 172, 208
-0.980081, 401, 33, 464, 288
-0.980174, 25, 177, 56, 304
-0.98026, 425, 169, 456, 232
-0.980268, 405, 201, 436, 264
-0.980295, 297, 153, 360, 216
-0.980343, 153, 81, 216, 144
-0.980391, 189, 1, 220, 64
-0.980445, 269, 89, 300, 152
-0.980455, 413, 49, 444, 176
-0.980485, 425, 1, 488, 375
-0.980559, 273, 265, 400, 328
-0.980572, 217, 65, 280, 320
-0.980593, 41, 193, 72, 320
-0.98065, 369, 25, 432, 88
-0.98065, 233, 89, 264, 152
-0.980742, 281, 113, 344, 176
-0.980761, 129, 89, 256, 152
-0.980771, 321, 193, 448, 256
-0.980808, 221, 89, 252, 152
-0.980827, 281, 97, 312, 160
-0.980861, 169, 1, 232, 256
-0.980909, 157, 129, 188, 192
-0.980916, 241, 73, 368, 136
-0.980966, 225, 177, 288, 240
-0.980981, 329, 105, 392, 168
-0.980986, 389, 177, 420, 304
-0.981074, 465, 177, 496, 240
-0.981088, 305, 65, 368, 320
-0.98109, 337, 137, 464, 200
-0.981281, 193, 113, 224, 240
-0.981338, 297, 1, 360, 375
-0.981387, 273, 17, 400, 144
-0.981404, 165, 153, 196, 216
-0.981442, 73, 273, 104, 336
-0.981444, 289, 105, 416, 168
-0.981498, 401, 97, 464, 224
-0.981591, 113, 25, 240, 88
-0.981596, 129, 177, 160, 304
-0.981644, 181, 113, 212, 240
-0.98174, 457, 57, 488, 120
-0.981746, 121, 193, 152, 256
-0.981772, 141, 129, 172, 256
-0.981801, 129, 1, 192, 256
-0.981841, 453, 177, 484, 304
-0.981858, 189, 1, 220, 128
-0.981902, 129, 49, 192, 176
-0.981955, 321, 153, 384, 216
-0.981963, 289, 137, 416, 200
-0.982078, 205, 65, 236, 128
-0.982162, 5, 241, 36, 368
-0.98217, 165, 113, 196, 240
-0.982378, 241, 241, 368, 304
-0.982392, 145, 169, 176, 232
-0.982426, 385, 265, 448, 328
-0.982548, 65, 41, 128, 104
-0.982614, 185, 1, 248, 375
-0.982678, 129, 57, 192, 120
-0.982724, 85, 281, 116, 344
-0.982787, 333, 33, 364, 160
-0.982817, 405, 161, 436, 288
-0.982829, 113, 241, 240, 304
-0.982841, 333, 81, 364, 208
-0.982905, 81, 97, 144, 352
-0.982949, 105, 97, 168, 160
-0.982965, 65, 97, 128, 224
-0.983018, 129, 177, 256, 240
-0.983029, 37, 265, 68, 328
-0.983085, 405, 257, 436, 320
-0.983125, 109, 241, 140, 304
-0.983179, 97, 1, 224, 64
-0.983197, 81, 193, 112, 320
-0.983203, 361, 129, 392, 192
-0.983211, 133, 273, 164, 336
-0.983225, 97, 201, 224, 264
-0.983238, 129, 129, 160, 256
-0.983317, 337, 113, 464, 176
-0.983334, 321, 265, 448, 328
-0.983339, 329, 217, 392, 280
-0.983347, 381, 49, 412, 112
-0.983415, 309, 241, 340, 304
-0.983435, 469, 177, 500, 304
-0.98346, 273, 65, 336, 128
-0.983466, 33, 1, 160, 64
-0.983505, 121, 81, 152, 208
-0.983516, 241, 121, 368, 184
-0.983537, 201, 17, 264, 80
-0.983572, 177, 121, 208, 184
-0.983625, 293, 89, 324, 152
-0.983638, 117, 305, 148, 368
-0.983678, 81, 193, 112, 256
-0.983695, 225, 265, 352, 328
-0.983706, 369, 73, 400, 136
-0.983797, 369, 49, 400, 112
-0.983809, 89, 137, 152, 200
-0.983818, 397, 17, 428, 80
-0.983882, 161, 113, 288, 176
-0.983888, 193, 65, 320, 128
-0.983906, 281, 225, 312, 352
-0.983973, 425, 65, 456, 192
-0.983988, 129, 249, 160, 312
-0.984005, 17, 1, 80, 64
-0.984034, 321, 89, 352, 152
-0.984042, 405, 177, 436, 240
-0.984046, 161, 273, 288, 336
-0.98405, 209, 89, 240, 152
-0.984089, 69, 177, 100, 304
-0.984106, 101, 201, 132, 264
-0.98411, 161, 249, 288, 312
-0.984115, 121, 129, 152, 192
-0.984168, 397, 225, 428, 352
-0.984219, 69, 225, 100, 352
-0.984228, 337, 89, 464, 152
-0.984236, 141, 241, 172, 368
-0.984239, 353, 209, 384, 336
-0.984273, 49, 177, 112, 240
-0.984301, 17, 249, 48, 312
-0.984496, 381, 89, 412, 152
-0.984528, 73, 1, 136, 375
-0.984548, 209, 113, 240, 240
-0.984561, 433, 129, 496, 375
-0.984562, 313, 65, 344, 128
-0.984579, 105, 177, 136, 304
-0.984594, 17, 129, 80, 375
-0.9846, 233, 1, 296, 375
-0.984618, 153, 193, 184, 320
-0.984648, 105, 65, 168, 128
-0.984674, 69, 1, 100, 128
-0.984688, 97, 113, 224, 176
-0.984701, 373, 209, 404, 336
-0.984738, 1, 305, 128, 368
-0.984802, 421, 217, 452, 280
-0.984817, 321, 193, 352, 320
-0.98482, 305, 265, 336, 328
-0.984831, 265, 1, 328, 375
-0.984891, 417, 129, 480, 192
-0.984909, 413, 113, 444, 240
-0.984917, 161, 177, 192, 240
-0.985008, 141, 201, 172, 264
-0.985033, 85, 1, 116, 128
-0.985091, 421, 193, 452, 320
-0.985186, 297, 185, 360, 248
-0.985193, 209, 1, 272, 375
-0.985234, 369, 33, 496, 96
-0.985238, 165, 241, 196, 368
-0.985296, 293, 265, 324, 328
-0.985322, 333, 209, 364, 336
-0.985344, 289, 161, 416, 224
-0.985375, 177, 193, 208, 320
-0.98542, 105, 49, 168, 176
-0.985464, 49, 49, 176, 112
-0.9855, 293, 225, 324, 352
-0.985604, 453, 177, 484, 240
-0.985628, 129, 297, 192, 360
-0.985638, 105, 313, 136, 375
-0.985703, 317, 265, 348, 328
-0.985736, 469, 49, 500, 176
-0.985741, 193, 33, 256, 288
-0.98583, 417, 1, 480, 128
-0.98584, 153, 105, 184, 168
-0.985901, 345, 81, 376, 208
-0.985916, 241, 153, 368, 216
-0.985991, 41, 241, 72, 368
-0.985997, 101, 1, 132, 128
-0.98605, 413, 57, 444, 120
-0.98606, 165, 177, 196, 304
-0.986061, 161, 273, 192, 336
-0.986107, 321, 33, 448, 96
-0.986158, 213, 153, 244, 216
-0.986184, 341, 265, 372, 328
-0.986187, 369, 129, 400, 256
-0.986197, 105, 1, 168, 256
-0.98629, 337, 49, 368, 112
-0.986309, 117, 25, 148, 88
-0.986317, 441, 177, 472, 240
-0.986324, 129, 81, 160, 144
-0.986335, 41, 129, 104, 375
-0.986339, 193, 161, 320, 224
-0.986355, 341, 97, 372, 160
-0.986359, 9, 1, 72, 375
-0.986369, 353, 81, 384, 144
-0.986369, 397, 97, 428, 160
-0.986429, 353, 49, 384, 112
-0.986455, 33, 169, 160, 232
-0.98646, 393, 257, 424, 320
-0.986498, 245, 153, 276, 216
-0.986566, 129, 161, 160, 224
-0.986631, 397, 65, 428, 192
-0.986672, 393, 105, 456, 168
-0.986687, 309, 225, 340, 352
-0.986713, 201, 121, 232, 184
-0.986755, 361, 265, 392, 328
-0.986836, 129, 1, 192, 64
-0.986853, 369, 249, 496, 312
-0.986868, 249, 177, 312, 240
-0.986888, 437, 225, 468, 288
-0.986909, 369, 241, 400, 304
-0.986913, 201, 241, 232, 368
-0.986935, 433, 57, 464, 120
-0.987008, 233, 153, 264, 216
-0.98702, 49, 1, 112, 375
-0.987032, 189, 137, 220, 200
-0.987051, 417, 129, 448, 192
-0.98709, 401, 65, 432, 128
-0.987103, 189, 241, 220, 368
-0.987108, 153, 113, 184, 240
-0.987123, 57, 177, 88, 304
-0.987178, 17, 25, 144, 88
-0.987241, 49, 313, 176, 375
-0.987277, 269, 225, 300, 352
-0.987282, 173, 273, 204, 336
-0.987287, 297, 241, 328, 304
-0.987294, 273, 249, 304, 312
-0.987297, 125, 105, 156, 168
-0.987321, 445, 57, 476, 120
-0.987364, 193, 25, 224, 88
-0.987414, 437, 49, 468, 176
-0.987424, 113, 169, 144, 232
-0.987432, 361, 105, 392, 168
-0.987467, 373, 137, 404, 200
-0.987475, 393, 193, 424, 256
-0.987502, 441, 177, 472, 304
-0.98752, 413, 33, 444, 96
-0.987542, 161, 1, 224, 375
-0.987574, 329, 265, 360, 328
-0.987589, 73, 1, 104, 64
-0.987639, 341, 153, 372, 216
-0.987648, 181, 249, 212, 312
-0.98773, 173, 65, 204, 192
-0.987738, 353, 217, 416, 280
-0.987811, 321, 113, 352, 240
-0.987818, 421, 241, 452, 304
-0.987825, 45, 193, 76, 256
-0.987857, 41, 57, 104, 120
-0.987884, 213, 121, 244, 184
-0.987886, 65, 137, 192, 200
-0.987942, 257, 1, 500, 128
-0.987945, 193, 273, 224, 336
-0.987946, 41, 49, 104, 176
-0.987965, 177, 1, 208, 64
-0.987967, 221, 241, 252, 368
-0.988007, 229, 273, 260, 336
-0.988056, 1, 257, 32, 320
-0.988075, 181, 185, 212, 248
-0.988105, 105, 1, 168, 375
-0.988126, 405, 153, 436, 216
-0.988127, 81, 81, 208, 144
-0.988164, 189, 193, 220, 320
-0.988209, 145, 201, 272, 264
-0.988226, 305, 17, 368, 144
-0.988261, 129, 33, 192, 96
-0.98835, 409, 233, 472, 264
-0.988417, 57, 241, 120, 272
-0.988428, 433, 81, 496, 144
-0.988435, 457, 49, 488, 176
-0.988436, 105, 129, 136, 256
-0.988473, 177, 241, 208, 368
-0.988587, 433, 97, 496, 224
-0.988607, 329, 1, 392, 256
-0.988666, 97, 305, 224, 368
-0.98868, 153, 241, 184, 368
-0.988724, 161, 65, 192, 192
-0.988747, 321, 25, 384, 88
-0.98875, 417, 209, 480, 240
-0.988788, 253, 193, 284, 320
-0.988802, 1, 241, 256, 304
-0.988813, 65, 229, 128, 260
-0.988815, 105, 17, 168, 80
-0.988858, 417, 33, 480, 96
-0.988939, 257, 241, 288, 368
-0.988944, 357, 113, 388, 240
-0.988978, 177, 9, 304, 72
-0.988999, 309, 177, 340, 304
-0.989022, 81, 97, 144, 160
-0.989022, 353, 193, 416, 256
-0.989029, 1, 49, 128, 112
-0.989082, 241, 241, 272, 368
-0.98911, 17, 241, 80, 272
-0.989258, 33, 73, 160, 136
-0.989309, 201, 125, 264, 156
-0.989368, 321, 241, 352, 368
-0.98937, 369, 245, 432, 276
-0.989405, 341, 129, 372, 256
-0.98945, 385, 241, 416, 368
-0.989455, 105, 201, 168, 232
-0.989488, 225, 121, 288, 152
-0.989518, 261, 129, 292, 256
-0.989533, 113, 17, 144, 144
-0.989539, 309, 129, 340, 256
-0.989585, 245, 129, 276, 256
-0.989649, 89, 65, 120, 192
-0.989658, 161, 137, 224, 168
-0.989664, 129, 181, 192, 212
-0.989729, 89, 145, 120, 272
-0.989741, 409, 221, 472, 252
-0.989762, 17, 229, 80, 260
-0.989778, 137, 137, 200, 168
-0.98979, 201, 1, 232, 128
-0.989797, 57, 253, 120, 284
-0.989884, 65, 209, 128, 240
-0.989885, 41, 229, 104, 260
-0.989885, 1, 253, 64, 284
-0.989942, 105, 245, 168, 276
-0.989994, 145, 277, 208, 308
-0.990009, 137, 193, 200, 224
-0.990036, 433, 61, 496, 92
-0.990037, 225, 33, 256, 160
-0.990069, 305, 89, 368, 120
-0.990076, 129, 1, 192, 375
-0.990084, 265, 177, 296, 304
-0.990098, 393, 61, 456, 92
-0.990104, 281, 177, 312, 304
-0.990104, 73, 265, 136, 296
-0.990151, 297, 177, 328, 304
-0.990188, 329, 53, 392, 84
-0.990235, 161, 5, 224, 36
-0.99032, 369, 53, 432, 84
-0.99032, 221, 129, 252, 256
-0.99034, 377, 233, 440, 264
-0.990346, 417, 197, 480, 228
-0.990362, 1, 201, 64, 232
-0.990372, 41, 273, 104, 304
-0.990387, 33, 257, 96, 288
-0.990424, 433, 221, 496, 252
-0.990427, 377, 145, 440, 176
-0.990431, 233, 129, 264, 256
-0.990448, 97, 229, 160, 260
-0.990502, 137, 149, 200, 180
-0.990506, 185, 65, 216, 192
-0.990516, 89, 313, 152, 344
-0.990533, 377, 221, 440, 252
-0.990575, 257, 125, 320, 156
-0.990583, 185, 141, 248, 172
-0.990585, 273, 253, 336, 284
-0.990594, 469, 225, 500, 352
-0.990607, 17, 217, 80, 248
-0.990609, 1, 265, 64, 296
-0.990629, 161, 257, 224, 288
-0.99065, 113, 133, 176, 164
-0.990664, 1, 1, 64, 32
-0.990697, 401, 161, 464, 192
-0.990715, 225, 133, 288, 164
-0.990747, 377, 81, 408, 208
-0.990819, 1, 233, 500, 296
-0.990832, 89, 281, 152, 312
-0.990861, 81, 73, 144, 104
-0.990875, 209, 145, 272, 176
-0.99088, 185, 89, 248, 120
-0.990891, 417, 249, 480, 280
-0.990911, 305, 125, 368, 156
-0.990916, 241, 97, 304, 128
-0.990918, 89, 189, 152, 220
-0.990925, 345, 249, 408, 280
-0.990946, 57, 1, 88, 128
-0.990948, 409, 1, 440, 128
-0.990956, 321, 65, 384, 96
-0.990978, 217, 97, 280, 128
-0.990998, 193, 185, 256, 216
-0.990999, 113, 149, 176, 180
-0.991007, 401, 113, 432, 240
-0.991012, 385, 257, 448, 288
-0.991013, 281, 89, 344, 120
-0.99102, 121, 269, 184, 300
-0.991044, 161, 197, 224, 228
-0.991047, 65, 89, 320, 152
-0.991066, 17, 305, 80, 336
-0.99109, 81, 241, 144, 272
-0.991094, 137, 241, 200, 272
-0.991129, 249, 253, 312, 284
-0.991154, 65, 1, 128, 32
-0.991155, 177, 77, 240, 108
-0.991189, 273, 129, 304, 256
-0.991192, 161, 149, 224, 180
-0.991195, 345, 137, 408, 168
-0.991201, 121, 81, 184, 112
-0.991207, 329, 269, 392, 300
-0.991208, 81, 85, 144, 116
-0.991213, 377, 201, 440, 232
-0.991213, 65, 281, 128, 312
-0.991221, 377, 169, 440, 200
-0.991225, 65, 25, 192, 88
-0.991241, 281, 125, 344, 156
-0.991255, 25, 201, 88, 232
-0.991263, 249, 137, 312, 168
-0.99128, 409, 185, 472, 216
-0.9913, 97, 241, 352, 304
-0.991323, 233, 109, 296, 140
-0.991326, 137, 125, 200, 156
-0.991343, 249, 273, 312, 304
-0.991343, 41, 217, 104, 248
-0.991382, 105, 217, 168, 248
-0.991388, 169, 125, 232, 156
-0.991393, 209, 81, 272, 112
-0.991407, 1, 317, 64, 348
-0.991424, 241, 177, 368, 240
-0.991432, 117, 129, 148, 256
-0.991443, 41, 1, 104, 32
-0.991446, 153, 181, 216, 212
-0.991448, 313, 137, 376, 168
-0.991464, 433, 233, 496, 264
-0.991467, 193, 257, 256, 288
-0.991471, 169, 33, 232, 64
-0.991471, 329, 81, 392, 112
-0.991474, 273, 137, 336, 168
-0.991479, 97, 33, 160, 64
-0.991483, 169, 61, 232, 92
-0.991521, 297, 253, 360, 284
-0.991531, 377, 157, 440, 188
-0.991538, 73, 29, 136, 60
-0.991549, 185, 153, 248, 184
-0.991571, 193, 185, 320, 248
-0.991581, 401, 173, 464, 204
-0.991591, 353, 81, 416, 112
-0.991595, 401, 149, 464, 180
-0.991609, 369, 65, 432, 96
-0.991609, 121, 97, 184, 128
-0.991614, 49, 13, 112, 44
-0.991616, 177, 33, 304, 96
-0.991631, 285, 129, 316, 256
-0.991633, 41, 305, 104, 336
-0.991634, 185, 277, 248, 308
-0.991638, 121, 281, 184, 312
-0.991638, 229, 193, 260, 320
-0.991649, 253, 33, 284, 160
-0.991659, 105, 293, 168, 324
-0.99167, 201, 193, 232, 320
-0.991672, 361, 17, 392, 144
-0.991673, 1, 1, 32, 128
-0.991674, 97, 65, 352, 128
-0.991682, 161, 89, 224, 120
-0.991699, 393, 45, 456, 76
-0.991702, 49, 85, 112, 116
-0.991707, 1, 81, 500, 144
-0.99172, 289, 77, 352, 108
-0.991721, 113, 161, 176, 192
-0.991722, 329, 125, 392, 156
-0.991723, 441, 113, 472, 240
-0.991724, 305, 269, 368, 300
-0.991736, 257, 113, 320, 144
-0.991743, 369, 129, 432, 160
-0.991752, 273, 273, 336, 304
-0.991778, 153, 161, 216, 192
-0.991784, 225, 273, 288, 304
-0.991786, 65, 317, 128, 348
-0.991801, 459, 201, 474, 264
-0.991819, 137, 225, 200, 256
-0.991826, 1, 201, 256, 264
-0.991913, 257, 49, 384, 112
-0.991925, 1, 233, 128, 264
-0.992004, 133, 65, 164, 192
-0.992074, 453, 221, 484, 252
-0.992083, 225, 89, 480, 152
-0.992083, 1, 209, 32, 240
-0.992095, 237, 33, 268, 160
-0.992097, 49, 105, 176, 168
-0.992109, 49, 241, 80, 272
-0.99211, 465, 129, 496, 256
-0.992177, 301, 33, 332, 160
-0.992179, 29, 241, 60, 272
-0.99218, 33, 273, 288, 336
-0.992197, 41, 145, 72, 272
-0.99221, 129, 129, 384, 192
-0.992227, 9, 145, 40, 272
-0.992234, 1, 1, 256, 64
-0.992237, 229, 121, 260, 152
-0.992255, 93, 233, 124, 264
-0.99226, 225, 241, 480, 304
-0.99226, 213, 193, 244, 320
-0.992276, 449, 209, 480, 240
-0.992283, 253, 125, 284, 156
-0.992285, 125, 281, 156, 312
-0.992295, 61, 229, 92, 260
-0.992299, 469, 209, 500, 240
-0.992299, 61, 241, 92, 272
-0.992313, 429, 213, 460, 244
-0.99234, 405, 241, 436, 272
-0.992373, 73, 241, 104, 272
-0.992417, 57, 261, 88, 292
-0.992441, 241, 121, 272, 152
-0.992448, 21, 225, 52, 256
-0.992456, 121, 301, 152, 332
-0.992473, 73, 221, 104, 252
-0.992496, 109, 309, 140, 340
-0.992519, 85, 261, 116, 292
-0.99252, 21, 253, 52, 284
-0.992526, 401, 253, 432, 284
-0.99256, 325, 77, 356, 108
-0.992562, 1, 249, 32, 280
-0.992563, 469, 197, 500, 228
-0.99257, 97, 249, 128, 280
-0.992584, 257, 57, 500, 120
-0.992598, 5, 197, 36, 228
-0.992601, 145, 281, 176, 312
-0.992617, 321, 89, 352, 120
-0.992621, 41, 225, 72, 256
-0.992622, 57, 213, 88, 244
-0.992623, 173, 137, 204, 168
-0.992629, 265, 125, 296, 156
-0.992664, 397, 57, 428, 88
-0.992676, 453, 193, 484, 224
-0.992677, 13, 213, 44, 244
-0.992681, 145, 1, 208, 128
-0.992683, 193, 137, 224, 168
-0.992684, 457, 65, 488, 96
-0.992686, 17, 241, 48, 272
-0.992687, 97, 313, 128, 344
-0.992692, 25, 205, 56, 236
-0.992725, 189, 5, 220, 36
-0.992731, 373, 249, 404, 280
-0.992737, 131, 273, 146, 336
-0.992737, 217, 125, 248, 156
-0.992744, 145, 133, 176, 164
-0.992745, 41, 1, 104, 256
-0.992746, 181, 185, 212, 216
-0.992749, 417, 233, 448, 264
-0.99275, 401, 45, 432, 76
-0.992754, 109, 293, 140, 324
-0.992758, 77, 81, 108, 112
-0.99276, 409, 221, 440, 252
-0.992762, 429, 225, 460, 256
-0.992768, 413, 61, 444, 92
-0.992769, 441, 197, 472, 228
-0.99278, 85, 249, 116, 280
-0.992781, 9, 261, 40, 292
-0.992788, 309, 89, 340, 120
-0.992801, 161, 141, 192, 172
-0.992806, 77, 209, 108, 240
-0.992806, 101, 281, 132, 312
-0.992808, 389, 253, 420, 284
-0.992809, 233, 133, 264, 164
-0.992815, 1, 221, 32, 252
-0.992822, 145, 197, 176, 228
-0.992826, 301, 253, 332, 284
-0.992826, 465, 241, 496, 272
-0.99284, 213, 141, 244, 172
-0.99284, 1, 233, 32, 264
-0.992842, 125, 197, 156, 228
-0.992846, 465, 229, 496, 260
-0.992847, 337, 89, 368, 120
-0.992848, 313, 77, 344, 108
-0.992848, 445, 61, 476, 92
-0.992853, 97, 261, 128, 292
-0.992864, 85, 317, 116, 348
-0.992872, 145, 269, 176, 300
-0.992882, 393, 241, 424, 272
-0.992889, 57, 277, 88, 308
-0.99289, 145, 177, 176, 208
-0.992895, 1, 317, 32, 348
-0.992895, 433, 57, 464, 88
-0.992897, 429, 193, 460, 224
-0.992898, 453, 201, 468, 264
-0.992901, 281, 125, 312, 156
-0.992909, 285, 253, 316, 284
-0.992912, 161, 189, 192, 220
-0.992914, 273, 253, 304, 284
-0.992918, 85, 221, 116, 252
-0.992918, 161, 41, 416, 104
-0.992919, 413, 253, 444, 284
-0.992922, 145, 225, 176, 256
-0.992926, 201, 125, 232, 156
-0.992926, 73, 269, 104, 300
-0.99293, 249, 109, 280, 140
-0.992933, 405, 197, 436, 228
-0.992934, 1, 213, 128, 244
-0.992935, 121, 313, 152, 344
-0.992936, 261, 97, 292, 128
-0.992937, 229, 109, 260, 140
-0.992944, 421, 173, 452, 204
-0.992948, 13, 313, 44, 344
-0.992948, 181, 257, 212, 288
-0.992951, 169, 257, 200, 288
-0.992954, 37, 289, 68, 320
-0.992954, 205, 81, 236, 112
-0.992956, 397, 101, 428, 132
-0.992957, 1, 185, 500, 248
-0.992958, 9, 1, 40, 32
-0.992967, 193, 257, 224, 288
-0.992975, 229, 97, 260, 128
-0.992976, 201, 185, 232, 216
-0.992976, 157, 273, 188, 304
-0.992977, 249, 97, 280, 128
-0.992977, 23, 209, 38, 272
-0.992978, 169, 277, 200, 308
-0.992983, 37, 253, 68, 284
-0.992984, 441, 225, 472, 256
-0.99299, 333, 57, 364, 88
-0.992991, 61, 1, 92, 32
-0.992995, 145, 149, 176, 180
-0.992998, 181, 149, 212, 180
-0.993, 31, 225, 46, 288
-0.993005, 41, 301, 72, 332
-0.993007, 53, 293, 84, 324
-0.993011, 329, 125, 360, 156
-0.993014, 229, 145, 260, 176
-0.993017, 317, 125, 348, 156
-0.993024, 73, 1, 104, 32
-0.993025, 361, 137, 392, 168
-0.993025, 197, 149, 228, 180
-0.993026, 425, 157, 456, 188
-0.993027, 137, 293, 168, 324
-0.993033, 93, 201, 124, 232
-0.993035, 413, 153, 444, 184
-0.993052, 467, 209, 482, 272
-0.99312, 273, 209, 400, 272
-0.993125, 1, 129, 500, 192
-0.993309, 1, 57, 500, 120
-0.993352, 1, 129, 128, 256
-0.993353, 257, 265, 500, 328
-0.993409, 17, 245, 144, 276
-0.99344, 193, 125, 320, 156
-0.993502, 483, 217, 498, 280
-0.993533, 475, 201, 490, 264
-0.993558, 1, 209, 500, 272
-0.993736, 87, 241, 102, 304
-0.993751, 79, 241, 94, 304
-0.993768, 129, 273, 384, 336
-0.993836, 97, 153, 352, 216
-0.993874, 1, 309, 128, 340
-0.993881, 369, 9, 496, 72
-0.993882, 113, 281, 128, 344
-0.993913, 1, 273, 500, 336
-0.99392, 49, 225, 176, 256
-0.993945, 61, 241, 76, 304
-0.993946, 113, 137, 240, 168
-0.99395, 17, 261, 144, 292
-0.994048, 73, 241, 88, 304
-0.994051, 33, 41, 288, 104
-0.994053, 369, 233, 496, 264
-0.994057, 225, 129, 480, 192
-0.994065, 1, 1, 64, 256
-0.994066, 51, 241, 66, 304
-0.994112, 411, 233, 426, 296
-0.994123, 433, 241, 496, 368
-0.994137, 169, 249, 184, 312
-0.994142, 405, 25, 420, 88
-0.994143, 369, 61, 496, 92
-0.994145, 67, 225, 82, 288
-0.994223, 81, 241, 208, 272
-0.99423, 1, 169, 256, 232
-0.994248, 99, 249, 114, 312
-0.994258, 161, 137, 288, 168
-0.994301, 121, 297, 136, 360
-0.994307, 41, 129, 104, 256
-0.994322, 61, 217, 76, 280
-0.994373, 485, 193, 500, 256
-0.994395, 369, 205, 496, 236
-0.994467, 225, 153, 480, 216
-0.994493, 15, 201, 30, 264
-0.994502, 49, 209, 176, 240
-0.994511, 331, 57, 346, 120
-0.994518, 473, 225, 488, 288
-0.994537, 93, 241, 108, 304
-0.994557, 215, 57, 230, 120
-0.994564, 67, 201, 82, 264
-0.99458, 95, 209, 110, 272
-0.994603, 257, 209, 500, 272
-0.994611, 305, 9, 432, 72
-0.994628, 29, 201, 44, 264
-0.994718, 101, 217, 116, 280
-0.994766, 397, 233, 412, 296
-0.994785, 81, 257, 208, 288
-0.994787, 417, 233, 432, 296
-0.994836, 1, 201, 16, 264
-0.994847, 1, 201, 128, 232
-0.994852, 149, 273, 164, 336
-0.99487, 105, 249, 120, 312
-0.994871, 77, 201, 92, 264
-0.994871, 83, 201, 98, 264
-0.994896, 273, 89, 400, 120
-0.994948, 51, 217, 66, 280
-0.99498, 423, 225, 438, 288
-0.994992, 89, 201, 104, 264
-0.995001, 145, 125, 272, 156
-0.995013, 113, 153, 240, 184
-0.995027, 411, 33, 426, 96
-0.995027, 1, 65, 256, 128
-0.995036, 447, 193, 462, 256
-0.995047, 405, 241, 420, 304
-0.995059, 225, 177, 480, 240
-0.995075, 193, 97, 320, 128
-0.9951, 17, 225, 32, 288
-0.995136, 353, 217, 480, 248
-0.995169, 161, 17, 416, 80
-0.995191, 289, 137, 416, 168
-0.995195, 263, 89, 278, 152
-0.995203, 41, 217, 56, 280
-0.995212, 305, 77, 432, 108
-0.995213, 321, 241, 448, 272
-0.995229, 1, 153, 500, 216
-0.995251, 43, 241, 58, 304
-0.995253, 53, 265, 68, 328
-0.99527, 311, 89, 326, 152
-0.995281, 391, 241, 406, 304
-0.995286, 233, 89, 248, 152
-0.995292, 323, 73, 338, 136
-0.995297, 9, 193, 24, 256
-0.995332, 225, 89, 240, 152
-0.995337, 97, 201, 352, 264
-0.99536, 1, 1, 128, 32
-0.995365, 137, 193, 152, 256
-0.995386, 269, 89, 284, 152
-0.995393, 255, 89, 270, 152
-0.995407, 49, 281, 176, 312
-0.995408, 33, 129, 288, 192
-0.995411, 103, 281, 118, 344
-0.995421, 113, 89, 240, 120
-0.995445, 475, 177, 490, 240
-0.995447, 321, 253, 448, 284
-0.995452, 281, 89, 296, 152
-0.995453, 247, 89, 262, 152
-0.995462, 111, 249, 126, 312
-0.995462, 113, 181, 240, 212
-0.995467, 203, 9, 218, 72
-0.995483, 1, 105, 500, 168
-0.995493, 59, 193, 74, 256
-0.995494, 129, 177, 384, 240
-0.995501, 405, 49, 420, 112
-0.995518, 413, 257, 428, 320
-0.995565, 471, 57, 486, 120
-0.995568, 419, 193, 434, 256
-0.995592, 107, 217, 122, 280
-0.995597, 23, 233, 38, 296
-0.995608, 225, 209, 352, 272
-0.995609, 455, 225, 470, 288
-0.995614, 209, 137, 336, 168
-0.995622, 163, 249, 178, 312
-0.995627, 465, 185, 480, 248
-0.99566, 317, 89, 332, 152
-0.995674, 225, 253, 352, 284
-0.995687, 375, 49, 390, 112
-0.995697, 273, 125, 400, 156
-0.9957, 87, 265, 102, 328
-0.995703, 239, 89, 254, 152
-0.995708, 275, 89, 290, 152
-0.995724, 113, 201, 240, 232
-0.995729, 427, 201, 442, 264
-0.995738, 125, 273, 140, 336
-0.995748, 167, 129, 182, 192
-0.995752, 17, 129, 144, 192
-0.995767, 291, 97, 306, 160
-0.995784, 137, 273, 152, 336
-0.995802, 147, 201, 162, 264
-0.995832, 75, 265, 90, 328
-0.995853, 1, 241, 16, 304
-0.995854, 139, 297, 154, 360
-0.995879, 159, 145, 174, 208
-0.995894, 427, 177, 442, 240
-0.995901, 5, 1, 20, 64
-0.995903, 369, 73, 384, 136
-0.995911, 197, 1, 212, 64
-0.995912, 119, 273, 134, 336
-0.995922, 303, 97, 318, 160
-0.995922, 61, 265, 76, 328
-0.995943, 377, 241, 392, 304
-0.995949, 95, 281, 110, 344
-0.995963, 65, 269, 192, 300
-0.995965, 177, 253, 304, 284
-0.995971, 369, 193, 496, 224
-0.995972, 23, 185, 38, 248
-0.995977, 143, 273, 158, 336
-0.99598, 129, 257, 256, 288
-0.995985, 141, 241, 156, 304
-0.995996, 221, 65, 236, 128
-0.996, 113, 53, 240, 84
-0.996022, 455, 177, 470, 240
-0.996022, 173, 129, 188, 192
-0.996053, 129, 77, 256, 108
-0.996056, 461, 225, 476, 288
-0.996081, 209, 81, 336, 112
-0.996089, 81, 265, 96, 328
-0.996107, 137, 81, 152, 144
-0.996107, 115, 209, 130, 272
-0.996135, 129, 277, 256, 308
-0.996149, 321, 241, 336, 304
-0.996155, 321, 269, 448, 300
-0.996156, 411, 57, 426, 120
-0.996161, 321, 201, 448, 232
-0.996162, 161, 153, 288, 184
-0.996169, 95, 49, 110, 112
-0.996185, 7, 225, 22, 288
-0.996189, 305, 57, 432, 88
-0.99619, 397, 1, 428, 256
-0.996196, 43, 265, 58, 328
-0.996215, 427, 129, 442, 192
-0.996226, 115, 305, 130, 368
-0.996238, 113, 33, 240, 64
-0.996246, 161, 197, 288, 228
-0.996249, 311, 265, 326, 328
-0.996258, 399, 25, 414, 88
-0.996264, 147, 129, 162, 192
-0.996266, 113, 113, 240, 144
-0.996286, 297, 97, 312, 160
-0.996287, 35, 201, 50, 264
-0.996306, 315, 241, 330, 304
-0.99631, 375, 81, 390, 144
-0.996312, 375, 129, 390, 192
-0.996317, 17, 297, 144, 328
-0.996324, 191, 1, 206, 64
-0.996334, 319, 265, 334, 328
-0.996338, 153, 129, 168, 192
-0.996343, 127, 169, 142, 232
-0.996349, 175, 249, 190, 312
-0.996352, 355, 265, 370, 328
-0.996356, 179, 121, 194, 184
-0.996381, 321, 149, 448, 180
-0.996391, 225, 273, 352, 304
-0.996426, 273, 249, 400, 280
-0.996435, 337, 125, 464, 156
-0.996436, 321, 97, 448, 128
-0.996436, 161, 181, 288, 212
-0.996477, 97, 1, 224, 32
-0.996494, 141, 129, 172, 375
-0.996504, 65, 317, 192, 348
-0.996537, 65, 137, 192, 168
-0.996571, 413, 33, 444, 288
-0.996572, 241, 113, 368, 144
-0.996588, 61, 241, 76, 272
-0.996597, 161, 225, 288, 288
-0.996599, 23, 213, 38, 244
-0.99666, 369, 245, 496, 276
-0.996728, 161, 165, 288, 196
-0.996732, 353, 137, 480, 168
-0.996748, 117, 129, 148, 375
-0.99675, 1, 33, 500, 96
-0.996752, 337, 169, 464, 200
-0.996772, 369, 257, 496, 288
-0.996793, 65, 197, 192, 228
-0.996808, 425, 129, 456, 375
-0.996815, 113, 21, 240, 52
-0.996819, 71, 241, 86, 272
-0.996821, 419, 241, 434, 272
-0.996847, 49, 81, 176, 112
-0.996876, 209, 69, 336, 100
-0.996894, 41, 241, 56, 272
-0.996903, 209, 149, 336, 180
-0.996929, 65, 177, 192, 208
-0.996931, 353, 313, 480, 375
-0.996933, 273, 269, 400, 300
-0.996934, 33, 229, 48, 260
-0.996951, 241, 101, 368, 132
-0.996959, 131, 281, 146, 312
-0.996966, 51, 249, 66, 280
-0.996972, 433, 33, 464, 288
-0.996978, 257, 77, 384, 108
-0.996981, 161, 241, 288, 272
-0.997004, 113, 65, 240, 96
-0.997016, 73, 229, 88, 260
-0.997022, 25, 253, 40, 284
-0.997032, 121, 301, 136, 332
-0.997048, 265, 121, 280, 152
-0.997066, 463, 209, 478, 240
-0.997076, 65, 125, 192, 156
-0.99709, 353, 77, 480, 108
-0.997103, 429, 213, 444, 244
-0.997114, 177, 273, 304, 304
-0.997133, 249, 125, 264, 156
-0.997135, 161, 129, 192, 375
-0.997138, 19, 201, 34, 232
-0.997149, 63, 229, 78, 260
-0.997157, 97, 229, 224, 260
-0.997157, 231, 121, 246, 152
-0.99716, 273, 237, 400, 268
-0.997167, 471, 205, 486, 236
-0.997167, 369, 153, 496, 184
-0.997182, 33, 241, 48, 272
-0.997185, 105, 229, 120, 260
-0.997186, 77, 241, 92, 272
-0.997194, 23, 237, 38, 268
-0.997199, 401, 97, 432, 352
-0.997219, 327, 81, 342, 112
-0.997224, 129, 129, 160, 375
-0.997233, 313, 65, 344, 320
-0.997261, 255, 125, 270, 156
-0.997264, 381, 33, 412, 288
-0.997273, 23, 225, 38, 256
-0.997276, 241, 125, 256, 156
-0.997277, 369, 49, 496, 80
-0.997283, 113, 169, 240, 200
-0.997313, 485, 205, 500, 236
-0.997329, 469, 65, 500, 320
-0.997336, 455, 225, 470, 256
-0.997337, 415, 253, 430, 284
-0.997345, 265, 65, 296, 320
-0.997345, 277, 65, 308, 320
-0.997354, 453, 209, 468, 240
-0.997358, 297, 65, 328, 320
-0.99736, 409, 49, 424, 80
-0.997362, 53, 233, 68, 264
-0.997363, 1, 205, 16, 236
-0.997389, 105, 313, 120, 344
-0.997403, 443, 213, 458, 244
-0.997407, 41, 229, 56, 260
-0.997409, 329, 65, 360, 320
-0.997439, 357, 65, 388, 320
-0.997445, 1, 305, 256, 368
-0.997449, 289, 177, 416, 208
-0.997449, 229, 65, 260, 320
-0.997457, 289, 113, 416, 144
-0.997461, 479, 209, 494, 240
-0.997462, 245, 65, 276, 320
-0.997468, 161, 113, 288, 144
-0.99747, 225, 125, 240, 156
-0.997478, 93, 241, 108, 272
-0.997478, 85, 241, 100, 272
-0.997487, 273, 157, 400, 188
-0.997494, 369, 181, 496, 212
-0.997509, 1, 33, 128, 64
-0.997509, 177, 41, 304, 72
-0.997511, 437, 213, 452, 244
-0.997517, 185, 129, 216, 375
-0.997519, 1, 321, 128, 352
-0.997527, 65, 161, 192, 192
-0.997529, 171, 141, 186, 172
-0.997531, 9, 49, 72, 176
-0.997532, 107, 249, 122, 280
-0.997536, 213, 65, 244, 320
-0.997551, 121, 33, 152, 288
-0.997552, 1, 189, 128, 220
-0.997572, 65, 69, 192, 100
-0.997576, 11, 197, 26, 228
-0.997578, 115, 309, 130, 340
-0.997579, 53, 285, 68, 316
-0.997584, 329, 69, 344, 100
-0.997591, 149, 281, 164, 312
-0.997593, 79, 229, 94, 260
-0.9976, 201, 1, 232, 256
-0.997623, 25, 197, 40, 228
-0.997626, 51, 221, 66, 252
-0.997631, 345, 97, 376, 352
-0.997633, 195, 1, 210, 32
-0.99764, 1, 273, 128, 304
-0.997643, 49, 1, 176, 32
-0.997644, 321, 45, 448, 76
-0.997645, 449, 65, 480, 320
-0.997647, 271, 125, 286, 156
-0.997651, 337, 113, 464, 144
-0.997652, 201, 129, 232, 375
-0.997653, 139, 201, 154, 232
-0.997654, 321, 229, 448, 260
-0.997656, 99, 261, 114, 292
-0.997669, 425, 233, 440, 264
-0.997675, 17, 253, 32, 284
-0.997684, 173, 129, 204, 375
-0.997686, 91, 261, 106, 292
-0.997687, 65, 149, 192, 180
-0.997688, 177, 9, 304, 40
-0.997689, 369, 129, 400, 375
-0.997693, 65, 45, 192, 76
-0.997694, 11, 209, 26, 240
-0.997701, 17, 213, 32, 244
-0.997703, 399, 249, 414, 280
-0.997703, 3, 317, 18, 348
-0.997706, 369, 33, 400, 288
-0.997713, 413, 241, 428, 272
-0.997721, 177, 137, 192, 168
-0.997734, 331, 57, 346, 88
-0.997751, 83, 269, 98, 300
-0.997755, 65, 97, 192, 128
-0.99776, 419, 221, 434, 252
-0.997763, 1, 69, 128, 100
-0.997774, 405, 37, 420, 68
-0.997774, 465, 197, 480, 228
-0.997781, 415, 61, 430, 92
-0.997781, 113, 101, 240, 132
-0.997788, 463, 221, 478, 252
-0.997789, 209, 165, 336, 196
-0.99779, 479, 197, 494, 228
-0.997791, 413, 129, 444, 375
-0.997792, 209, 181, 336, 212
-0.997795, 29, 209, 44, 240
-0.997795, 141, 293, 156, 324
-0.997802, 321, 89, 336, 120
-0.997803, 409, 253, 424, 284
-0.997803, 99, 233, 114, 264
-0.997805, 473, 193, 488, 224
-0.997805, 201, 137, 216, 168
-0.997809, 433, 61, 448, 92
-0.997816, 17, 225, 32, 256
-0.997818, 131, 293, 146, 324
-0.997822, 99, 313, 114, 344
-0.997823, 445, 193, 460, 224
-0.997824, 145, 237, 160, 268
-0.997827, 99, 249, 114, 280
-0.997827, 97, 305, 224, 336
-0.997831, 105, 1, 136, 256
-0.997833, 445, 225, 460, 256
-0.997847, 219, 81, 234, 112
-0.997856, 473, 229, 488, 260
-0.997856, 85, 229, 100, 260
-0.997858, 49, 21, 176, 52
-0.997858, 105, 129, 136, 375
-0.99786, 81, 97, 112, 352
-0.997866, 421, 61, 436, 92
-0.997868, 405, 13, 420, 44
-0.997873, 217, 69, 232, 100
-0.997877, 3, 245, 18, 276
-0.997878, 211, 141, 226, 172
-0.997885, 471, 217, 486, 248
-0.997887, 93, 221, 108, 252
-0.997888, 93, 317, 108, 348
-0.997892, 245, 113, 260, 144
-0.997896, 423, 169, 438, 200
-0.997903, 113, 281, 128, 312
-0.997904, 53, 269, 68, 300
-0.997906, 387, 249, 402, 280
-0.997907, 71, 213, 86, 244
-0.997907, 257, 25, 384, 88
-0.997908, 467, 57, 482, 88
-0.997908, 429, 165, 444, 196
-0.99791, 217, 181, 232, 212
-0.997912, 137, 189, 152, 220
-0.997918, 401, 57, 416, 88
-0.997925, 375, 249, 390, 280
-0.997929, 89, 209, 104, 240
-0.997936, 43, 253, 58, 284
-0.997942, 61, 257, 76, 288
-0.997943, 381, 129, 412, 375
-0.997947, 369, 93, 496, 124
-0.99795, 87, 85, 102, 116
-0.997954, 105, 261, 120, 292
-0.997968, 223, 185, 238, 216
-0.997972, 97, 213, 224, 244
-0.997973, 447, 57, 462, 88
-0.997973, 9, 1, 24, 32
-0.997981, 165, 137, 180, 168
-0.997984, 11, 261, 26, 292
-0.997987, 393, 253, 408, 284
-0.997992, 333, 89, 348, 120
-0.997994, 381, 249, 396, 280
-0.997997, 203, 13, 218, 44
-0.997998, 149, 201, 164, 232
-0.998, 157, 269, 172, 300
-0.998, 479, 77, 494, 108
-0.998001, 233, 133, 248, 164
-0.998001, 121, 313, 136, 344
-0.998069, 49, 33, 176, 64
-0.998085, 69, 1, 100, 256
-0.998095, 177, 21, 304, 52
-0.99812, 1, 81, 128, 112
-0.998129, 1, 13, 128, 44
-0.998134, 1, 9, 500, 72
-0.99816, 17, 45, 144, 76
-0.998225, 17, 129, 48, 375
-0.998266, 209, 241, 336, 272
-0.998275, 305, 213, 432, 244
-0.998288, 289, 189, 416, 220
-0.998348, 29, 129, 60, 375
-0.998356, 57, 255, 120, 270
-0.998363, 341, 1, 372, 256
-0.998369, 133, 1, 164, 256
-0.998391, 241, 209, 368, 240
-0.998401, 17, 255, 80, 270
-0.998411, 409, 233, 472, 248
-0.998413, 417, 215, 480, 230
-0.998426, 41, 295, 72, 310
-0.998427, 209, 141, 240, 156
-0.998427, 1, 241, 32, 256
-0.998427, 49, 57, 176, 88
-0.998428, 349, 91, 380, 106
-0.998428, 425, 169, 456, 184
-0.998429, 169, 257, 200, 272
-0.998431, 453, 203, 484, 218
-0.998431, 333, 55, 364, 70
-0.998432, 361, 55, 392, 70
-0.998433, 381, 51, 412, 66
-0.998434, 109, 295, 140, 310
-0.998435, 321, 85, 352, 100
-0.998435, 145, 201, 176, 216
-0.998436, 417, 227, 480, 242
-0.998436, 105, 249, 168, 264
-0.998437, 133, 201, 164, 216
-0.998437, 25, 215, 56, 230
-0.998437, 205, 91, 236, 106
-0.998438, 45, 241, 76, 256
-0.998439, 17, 245, 80, 260
-0.998441, 161, 197, 192, 212
-0.998442, 465, 203, 496, 218
-0.998445, 201, 133, 232, 148
-0.998445, 17, 243, 48, 258
-0.998445, 29, 263, 60, 278
-0.998446, 389, 99, 420, 114
-0.998446, 125, 301, 156, 316
-0.998446, 397, 45, 428, 60
-0.998446, 93, 249, 124, 264
-0.998448, 93, 33, 124, 288
-0.998449, 37, 301, 68, 316
-0.998449, 193, 141, 224, 156
-0.998449, 81, 221, 112, 236
-0.998449, 101, 283, 132, 298
-0.99845, 81, 237, 112, 252
-0.998452, 49, 261, 80, 276
-0.998452, 393, 251, 424, 266
-0.998452, 425, 163, 456, 178
-0.998453, 53, 301, 84, 316
-0.998454, 469, 225, 500, 240
-0.998458, 133, 95, 164, 110
-0.998459, 41, 261, 104, 276
-0.99846, 409, 169, 440, 184
-0.998462, 181, 5, 212, 20
-0.998462, 413, 225, 444, 240
-0.998462, 397, 55, 428, 70
-0.998463, 53, 281, 84, 296
-0.998464, 437, 239, 468, 254
-0.998466, 13, 211, 44, 226
-0.998466, 21, 223, 52, 238
-0.998467, 189, 135, 220, 150
-0.998467, 97, 261, 128, 276
-0.998467, 137, 199, 200, 214
-0.998468, 425, 63, 488, 78
-0.998468, 57, 227, 88, 242
-0.998469, 261, 125, 292, 140
-0.998471, 5, 199, 36, 214
-0.998472, 37, 225, 68, 240
-0.998473, 377, 245, 440, 260
-0.998474, 41, 247, 72, 262
-0.998479, 65, 235, 128, 250
-0.998479, 169, 137, 232, 152
-0.998479, 409, 239, 472, 254
-0.99848, 33, 233, 96, 248
-0.99848, 329, 55, 392, 70
-0.998482, 69, 225, 100, 240
-0.998482, 5, 235, 36, 250
-0.998483, 57, 209, 120, 224
-0.998484, 21, 315, 52, 330
-0.998485, 49, 275, 80, 290
-0.998486, 61, 261, 92, 276
-0.998486, 425, 225, 456, 240
-0.998487, 149, 281, 180, 296
-0.998487, 189, 201, 220, 216
-0.998487, 337, 91, 368, 106
-0.998488, 69, 235, 100, 250
-0.998492, 57, 217, 88, 232
-0.998492, 41, 307, 72, 322
-0.998495, 13, 205, 44, 220
-0.998498, 57, 229, 120, 244
-0.998499, 453, 235, 484, 250
-0.9985, 129, 313, 160, 328
-0.998502, 85, 77, 116, 92
-0.998503, 17, 261, 48, 276
-0.998504, 229, 125, 260, 140
-0.998505, 321, 91, 352, 106
-0.998505, 173, 135, 204, 150
-0.998506, 105, 205, 168, 220
-0.998506, 425, 65, 456, 80
-0.998507, 297, 91, 360, 106
-0.998507, 17, 239, 80, 254
-0.998508, 9, 223, 40, 238
-0.998509, 437, 225, 468, 240
-0.998509, 405, 63, 436, 78
-0.998509, 145, 281, 208, 296
-0.99851, 97, 231, 160, 246
-0.99851, 409, 239, 440, 254
-0.998511, 417, 221, 480, 236
-0.998512, 57, 233, 88, 248
-0.998515, 1, 317, 32, 332
-0.998516, 81, 211, 112, 226
-0.998517, 405, 253, 436, 268
-0.998517, 305, 91, 336, 106
-0.998517, 77, 83, 108, 98
-0.998517, 17, 235, 48, 250
-0.998517, 345, 53, 376, 68
-0.998518, 393, 63, 456, 78
-0.998519, 433, 209, 496, 224
-0.99852, 37, 235, 68, 250
-0.998521, 105, 209, 120, 336
-0.998521, 29, 257, 60, 272
-0.998521, 57, 241, 120, 256
-0.998522, 137, 145, 200, 160
-0.998522, 1, 57, 128, 88
-0.998523, 1, 259, 32, 274
-0.998524, 201, 131, 264, 146
-0.998524, 17, 207, 80, 222
-0.998524, 57, 209, 88, 224
-0.998525, 85, 319, 116, 334
-0.998528, 377, 247, 408, 262
-0.998528, 469, 245, 500, 260
-0.998528, 73, 79, 136, 94
-0.998529, 121, 203, 152, 218
-0.99853, 225, 125, 288, 140
-0.998531, 457, 63, 488, 78
-0.998532, 369, 251, 432, 266
-0.998532, 57, 241, 88, 256
-0.998535, 425, 215, 456, 230
-0.998535, 377, 239, 440, 254
-0.998536, 25, 227, 88, 242
-0.998536, 97, 317, 160, 332
-0.998537, 5, 217, 36, 232
-0.998537, 17, 261, 80, 276
-0.998538, 105, 255, 168, 270
-0.998539, 25, 219, 88, 234
-0.998539, 377, 223, 440, 238
-0.998539, 433, 69, 496, 84
-0.99854, 457, 245, 488, 260
-0.998542, 17, 229, 48, 244
-0.998542, 81, 231, 112, 246
-0.998543, 137, 135, 200, 150
-0.998543, 69, 255, 100, 270
-0.998545, 93, 237, 124, 252
-0.998546, 181, 195, 212, 210
-0.998547, 97, 317, 128, 332
-0.998548, 369, 55, 432, 70
-0.998549, 25, 203, 56, 218
-0.998549, 249, 125, 280, 140
-0.998549, 57, 221, 120, 236
-0.99855, 409, 245, 472, 260
-0.998551, 93, 231, 124, 246
-0.998551, 401, 245, 432, 260
-0.998551, 29, 251, 60, 266
-0.998553, 105, 311, 168, 326
-0.998553, 125, 291, 156, 306
-0.998554, 469, 209, 500, 224
-0.998555, 241, 253, 304, 268
-0.998555, 105, 283, 168, 298
-0.998557, 41, 275, 104, 290
-0.998557, 161, 7, 224, 22
-0.998557, 161, 151, 224, 166
-0.998557, 109, 311, 140, 326
-0.998558, 201, 125, 264, 140
-0.998559, 81, 255, 144, 270
-0.99856, 469, 217, 500, 232
-0.99856, 177, 91, 240, 106
-0.998561, 177, 199, 240, 214
-0.998561, 393, 169, 456, 184
-0.998561, 161, 143, 224, 158
-0.998562, 97, 237, 160, 252
-0.998562, 241, 193, 368, 224
-0.998562, 57, 129, 88, 375
-0.998564, 17, 213, 80, 228
-0.998565, 105, 243, 168, 258
-0.998566, 121, 181, 184, 196
-0.99857, 449, 209, 480, 224
-0.998573, 129, 193, 192, 208
-0.998574, 137, 151, 200, 166
-0.998574, 1, 5, 64, 20
-0.998575, 97, 225, 160, 240
-0.998575, 57, 249, 120, 264
-0.998576, 145, 1, 208, 16
-0.998578, 393, 57, 456, 72
-0.998579, 321, 91, 384, 106
-0.998579, 105, 151, 168, 166
-0.99858, 49, 1, 112, 16
-0.998581, 409, 203, 472, 218
-0.998582, 65, 215, 128, 230
-0.998582, 69, 209, 100, 224
-0.998582, 17, 253, 48, 268
-0.998583, 177, 193, 240, 208
-0.998584, 433, 199, 496, 214
-0.998584, 409, 195, 472, 210
-0.998584, 433, 243, 496, 258
-0.998585, 73, 315, 136, 330
-0.998586, 409, 209, 472, 224
-0.998586, 457, 221, 488, 236
-0.998586, 161, 253, 224, 268
-0.998588, 201, 255, 264, 270
-0.998588, 393, 163, 456, 178
-0.998589, 377, 233, 440, 248
-0.998589, 417, 165, 480, 180
-0.998589, 57, 283, 120, 298
-0.998591, 437, 61, 468, 76
-0.998592, 25, 1, 88, 16
-0.998592, 225, 159, 288, 174
-0.998594, 393, 69, 456, 84
-0.998595, 385, 157, 448, 172
-0.998595, 161, 131, 224, 146
-0.998596, 273, 251, 336, 266
-0.998596, 1, 201, 64, 216
-0.998597, 129, 285, 160, 300
-0.998597, 121, 307, 152, 322
-0.998597, 353, 97, 416, 112
-0.998597, 369, 61, 432, 76
-0.998598, 49, 85, 112, 100
-0.998598, 25, 269, 88, 284
-0.998599, 117, 283, 148, 298
-0.998599, 73, 261, 136, 276
-0.998599, 73, 27, 136, 42
-0.9986, 433, 233, 496, 248
-0.9986, 137, 129, 200, 144
-0.998601, 257, 125, 320, 140
-0.998602, 105, 289, 168, 304
-0.998602, 273, 93, 336, 108
-0.998602, 369, 269, 432, 284
-0.998602, 185, 279, 248, 294
-0.998603, 161, 161, 224, 176
-0.998604, 89, 185, 152, 200
-0.998605, 81, 323, 144, 338
-0.998606, 249, 159, 312, 174
-0.998606, 153, 193, 216, 208
-0.998606, 273, 143, 336, 158
-0.998606, 337, 271, 400, 286
-0.998607, 17, 309, 80, 324
-0.998608, 41, 299, 104, 314
-0.998608, 241, 99, 304, 114
-0.998608, 393, 175, 456, 190
-0.998608, 265, 275, 328, 290
-0.998609, 209, 143, 272, 158
-0.998609, 137, 161, 200, 176
-0.998609, 137, 205, 200, 220
-0.998611, 201, 93, 264, 108
-0.998612, 377, 147, 440, 162
-0.998612, 1, 267, 64, 282
-0.998612, 145, 247, 208, 262
-0.998613, 29, 245, 60, 260
-0.998613, 377, 197, 440, 212
-0.998613, 169, 63, 232, 78
-0.998613, 81, 3, 144, 18
-0.998613, 5, 97, 36, 352
-0.998614, 169, 57, 232, 72
-0.998614, 329, 157, 392, 172
-0.998614, 121, 95, 184, 110
-0.998616, 81, 255, 112, 270
-0.99862, 389, 245, 420, 260
-0.998622, 193, 57, 320, 88
-0.998628, 49, 255, 80, 270
-0.998641, 189, 1, 220, 256
-0.998647, 449, 227, 480, 242
-0.998669, 93, 255, 124, 270
-0.998672, 1, 285, 128, 316
-0.998674, 429, 231, 460, 246
-0.998675, 231, 81, 246, 208
-0.998681, 145, 33, 176, 288
-0.998683, 1, 209, 32, 224
-0.998683, 253, 81, 268, 208
-0.998684, 61, 209, 76, 336
-0.99869, 267, 81, 282, 208
-0.998692, 21, 193, 36, 320
-0.998697, 173, 1, 204, 256
-0.998707, 1, 265, 32, 280
-0.998711, 111, 225, 126, 352
-0.998719, 243, 81, 258, 208
-0.998724, 225, 81, 240, 208
-0.998729, 281, 81, 296, 208
-0.998759, 325, 65, 340, 192
-0.998766, 57, 1, 88, 256
-0.99877, 369, 273, 496, 336
-0.99877, 41, 129, 72, 375
-0.998772, 273, 81, 288, 208
-0.998772, 261, 81, 276, 208
-0.998777, 237, 81, 252, 208
-0.99878, 217, 65, 232, 192
-0.998795, 407, 17, 422, 144
-0.9988, 65, 113, 192, 144
-0.998808, 315, 81, 330, 208
-0.998813, 141, 209, 156, 336
-0.998836, 53, 209, 68, 336
-0.998843, 287, 81, 302, 208
-0.998854, 43, 225, 58, 352
-0.998874, 429, 145, 444, 272
-0.998882, 293, 81, 308, 208
-0.998893, 131, 241, 146, 368
-0.998895, 307, 81, 322, 208
-0.998902, 27, 209, 42, 336
-0.998903, 299, 81, 314, 208
-0.99891, 13, 241, 28, 368
-0.998917, 331, 65, 346, 192
-0.998934, 119, 225, 134, 352
-0.998938, 257, 65, 384, 96
-0.998942, 369, 17, 496, 48
-0.998945, 99, 193, 114, 320
-0.998956, 373, 65, 388, 192
-0.998959, 369, 269, 496, 300
-0.998963, 415, 49, 430, 176
-0.99897, 413, 225, 428, 352
-0.998971, 321, 17, 448, 48
-0.998984, 337, 65, 352, 192
-0.998989, 15, 193, 30, 320
-0.998997, 7, 193, 22, 320
-0.999003, 1, 1, 16, 128
-0.999013, 437, 129, 468, 375
-0.999026, 419, 161, 434, 288
-0.999031, 361, 33, 376, 160
-0.999032, 1, 105, 128, 168
-0.999042, 151, 193, 166, 320
-0.999043, 203, 1, 218, 128
-0.999045, 159, 177, 174, 304
-0.999049, 5, 1, 36, 256
-0.999066, 383, 49, 398, 176
-0.999069, 69, 129, 100, 375
-0.999071, 135, 177, 150, 304
-0.999075, 345, 33, 360, 160
-0.999078, 33, 177, 48, 304
-0.999083, 351, 65, 366, 192
-0.999083, 1, 193, 16, 320
-0.999084, 7, 241, 22, 368
-0.999092, 455, 177, 470, 304
-0.999099, 21, 241, 36, 368
-0.999102, 141, 129, 156, 256
-0.999107, 403, 177, 418, 304
-0.999109, 195, 113, 210, 240
-0.999118, 27, 161, 42, 288
-0.99912, 97, 305, 352, 368
-0.999135, 41, 177, 56, 304
-0.999135, 173, 113, 188, 240
-0.99914, 419, 225, 434, 352
-0.999141, 211, 49, 226, 176
-0.999142, 407, 225, 422, 352
-0.99915, 125, 225, 140, 352
-0.999156, 93, 129, 124, 375
-0.999157, 149, 241, 164, 368
-0.999159, 121, 177, 136, 304
-0.999159, 409, 177, 424, 304
-0.999161, 483, 193, 498, 320
-0.999162, 427, 65, 442, 192
-0.999167, 367, 209, 382, 336
-0.99917, 115, 145, 130, 272
-0.99918, 481, 65, 496, 192
-0.999189, 201, 113, 216, 240
-0.99919, 401, 49, 416, 176
-0.999192, 165, 177, 180, 304
-0.999197, 81, 1, 112, 256
-0.999199, 331, 209, 346, 336
-0.999206, 343, 81, 358, 208
-0.999206, 179, 113, 194, 240
-0.999208, 391, 33, 406, 160
-0.999208, 167, 113, 182, 240
-0.999209, 387, 209, 402, 336
-0.99921, 217, 113, 232, 240
-0.99921, 185, 113, 200, 240
-0.999212, 93, 177, 108, 304
-0.999217, 91, 1, 106, 128
-0.999217, 167, 225, 182, 352
-0.999221, 421, 49, 436, 176
-0.999224, 83, 177, 98, 304
-0.999226, 313, 225, 328, 352
-0.999229, 207, 113, 222, 240
-0.999234, 89, 81, 104, 208
-0.999235, 173, 241, 188, 368
-0.999237, 83, 225, 98, 352
-0.999243, 367, 49, 382, 176
-0.999244, 461, 177, 476, 304
-0.999245, 129, 161, 144, 288
-0.999249, 427, 193, 442, 320
-0.999249, 477, 177, 492, 304
-0.99925, 183, 193, 198, 320
-0.999258, 69, 193, 84, 320
-0.99926, 337, 209, 352, 336
-0.999265, 295, 225, 310, 352
-0.999271, 99, 1, 114, 128
-0.999272, 325, 209, 340, 336
-0.999275, 361, 209, 376, 336
-0.999275, 447, 177, 462, 304
-0.999278, 373, 209, 388, 336
-0.999282, 191, 193, 206, 320
-0.999288, 75, 193, 90, 320
-0.999295, 105, 1, 120, 128
-0.999298, 283, 225, 298, 352
-0.999301, 35, 225, 50, 352
-0.999302, 177, 193, 192, 320
-0.999303, 195, 65, 210, 192
-0.999306, 155, 241, 170, 368
-0.999312, 211, 241, 226, 368
-0.999313, 433, 65, 448, 192
-0.999319, 123, 97, 138, 224
-0.999321, 221, 241, 236, 368
-0.999323, 181, 241, 196, 368
-0.999323, 199, 241, 214, 368
-0.999324, 355, 241, 370, 368
-0.999326, 125, 1, 140, 128
-0.999326, 277, 225, 292, 352
-0.999327, 475, 49, 490, 176
-0.999328, 455, 49, 470, 176
-0.999333, 483, 145, 498, 272
-0.999334, 187, 241, 202, 368
-0.999337, 175, 65, 190, 192
-0.999337, 1, 241, 16, 368
-0.999339, 89, 225, 104, 352
-0.999339, 227, 241, 242, 368
-0.999399, 41, 1, 72, 256
-0.99947, 17, 113, 80, 240
-0.999575, 273, 313, 400, 375
-0.999588, 157, 1, 188, 256
-0.999635, 33, 203, 48, 218
-0.999635, 87, 125, 102, 140
-0.999636, 427, 175, 442, 190
-0.999636, 205, 133, 220, 148
-0.999637, 25, 219, 40, 234
-0.999638, 147, 151, 162, 166
-0.999639, 51, 265, 66, 280
-0.99964, 31, 313, 46, 328
-0.999641, 465, 211, 480, 226
-0.999641, 83, 233, 98, 248
-0.999641, 329, 73, 344, 88
-0.999642, 423, 167, 438, 182
-0.999643, 97, 79, 112, 94
-0.999643, 481, 79, 496, 94
-0.999644, 401, 251, 416, 266
-0.999645, 107, 249, 122, 264
-0.999645, 471, 219, 486, 234
-0.999645, 453, 209, 468, 224
-0.999645, 17, 231, 32, 246
-0.999646, 331, 67, 346, 82
-0.999646, 23, 315, 38, 330
-0.999646, 249, 125, 264, 140
-0.999646, 95, 319, 110, 334
-0.999648, 211, 141, 226, 156
-0.999648, 143, 239, 158, 254
-0.999648, 135, 309, 150, 324
-0.999649, 53, 291, 68, 306
-0.999649, 111, 261, 126, 276
-0.999652, 47, 305, 62, 320
-0.999655, 411, 61, 426, 76
-0.999655, 77, 209, 92, 224
-0.999656, 255, 125, 270, 140
-0.999656, 223, 125, 238, 140
-0.999656, 141, 203, 156, 218
-0.999656, 421, 237, 436, 252
-0.999657, 193, 199, 208, 214
-0.999657, 423, 63, 438, 78
-0.999657, 481, 243, 496, 258
-0.999659, 91, 209, 106, 224
-0.999659, 71, 233, 86, 248
-0.999659, 135, 95, 150, 110
-0.999659, 121, 303, 136, 318
-0.999661, 73, 227, 88, 242
-0.999662, 199, 199, 214, 214
-0.999662, 27, 209, 42, 224
-0.999664, 327, 81, 342, 96
-0.999666, 479, 217, 494, 232
-0.999666, 53, 303, 68, 318
-0.999667, 331, 61, 346, 76
-0.999668, 19, 259, 34, 274
-0.999668, 389, 245, 404, 260
-0.999669, 103, 317, 118, 332
-0.99967, 411, 55, 426, 70
-0.99967, 419, 255, 434, 270
-0.999671, 183, 197, 198, 212
-0.999672, 71, 209, 86, 224
-0.999673, 19, 265, 34, 280
-0.999676, 439, 65, 454, 80
-0.999677, 59, 241, 74, 256
-0.999678, 459, 221, 474, 236
-0.999678, 3, 209, 18, 224
-0.999679, 473, 245, 488, 260
-0.999679, 61, 261, 76, 276
-0.999682, 51, 257, 66, 272
-0.999683, 43, 251, 58, 266
-0.999683, 149, 245, 164, 260
-0.999683, 111, 315, 126, 330
-0.999684, 377, 247, 392, 262
-0.999684, 443, 227, 458, 242
-0.999685, 5, 259, 20, 274
-0.999685, 347, 51, 362, 66
-0.999685, 97, 227, 112, 242
-0.999687, 459, 209, 474, 224
-0.999688, 455, 243, 470, 258
-0.999688, 89, 321, 104, 336
-0.999689, 11, 199, 26, 214
-0.99969, 43, 257, 58, 272
-0.999693, 79, 255, 94, 270
-0.999693, 481, 201, 496, 216
-0.999694, 141, 307, 156, 322
-0.999694, 23, 231, 38, 246
-0.999695, 407, 15, 422, 30
-0.999697, 187, 203, 202, 218
-0.999698, 61, 255, 76, 270
-0.999699, 265, 123, 280, 138
-0.999703, 483, 209, 498, 224
-0.999705, 53, 297, 68, 312
-0.999705, 31, 231, 46, 246
-0.999707, 23, 237, 38, 252
-0.999707, 71, 255, 86, 270
-0.999708, 5, 265, 20, 280
-0.999709, 409, 245, 424, 260
-0.999711, 25, 203, 40, 218
-0.999713, 85, 81, 100, 96
-0.999713, 195, 5, 210, 20
-0.999717, 31, 253, 46, 268
-0.999717, 17, 317, 32, 332
-0.999718, 19, 217, 34, 232
-0.999719, 407, 41, 422, 56
-0.99972, 23, 243, 38, 258
-0.999723, 89, 255, 104, 270
-0.999724, 429, 215, 444, 230
-0.999724, 21, 225, 36, 240
-0.999725, 395, 243, 410, 258
-0.999726, 51, 241, 66, 256
-0.999726, 23, 253, 38, 268
-0.999727, 383, 247, 398, 262
-0.99973, 453, 227, 468, 242
-0.999731, 429, 229, 444, 244
-0.999732, 467, 61, 482, 76
-0.999733, 473, 209, 488, 224
-0.999734, 17, 209, 32, 224
-0.999735, 403, 245, 418, 260
-0.999735, 79, 83, 94, 98
-0.999738, 433, 65, 448, 80
-0.999738, 135, 201, 150, 216
-0.99974, 449, 61, 464, 76
-0.999741, 37, 253, 52, 268
-0.999745, 405, 55, 420, 70
-0.999745, 33, 241, 48, 256
-0.999746, 95, 255, 110, 270
-0.999755, 105, 231, 120, 246
-0.999756, 131, 283, 146, 298
-0.999764, 121, 309, 136, 324
-0.999776, 33, 247, 48, 262
-0.999783, 29, 1, 60, 256
-0.999784, 101, 255, 116, 270
-0.999814, 51, 251, 66, 266
-0.999823, 257, 33, 500, 96
-0.999843, 107, 255, 122, 270
-0.999849, 41, 245, 56, 260
-0.999852, 13, 265, 28, 280
-1.00005, 1, 297, 500, 360
-1.00006, 17, 33, 48, 288
-1.00025, 257, 305, 500, 368
-1.00049, 209, 289, 336, 352
-1.00057, 321, 289, 448, 352
-1.00094, 145, 297, 272, 360
-1.00121, 225, 313, 352, 375
-1.00143, 257, 289, 384, 352
-1.00151, 257, 1, 500, 64
-1.00318, 257, 1, 384, 64
-1.006, 409, 241, 472, 368
