1967
-0.143789, 1, 1, 375, 500
-0.250743, 129, 1, 375, 500
-0.278047, 1, 1, 256, 500
-0.281022, 1, 33, 375, 288
-0.317645, 1, 225, 375, 480
-0.404177, 1, 129, 375, 384
-0.418552, 1, 1, 256, 256
-0.446381, 65, 257, 320, 500
-0.500779, 129, 129, 375, 384
-0.505054, 97, 1, 352, 256
-0.541564, 33, 161, 288, 416
-0.792175, 49, 193, 176, 448
-0.802012, 97, 225, 224, 480
-0.806132, 49, 1, 176, 500
-0.819736, 177, 1, 304, 256
-0.821195, 241, 1, 368, 500
-0.823045, 129, 1, 256, 500
-0.823976, 161, 193, 288, 448
-0.830045, 241, 1, 368, 256
-0.831553, 17, 65, 144, 320
-0.836785, 209, 97, 336, 352
-0.841029, 241, 225, 368, 480
-0.846195, 177, 1, 304, 500
-0.847606, 97, 1, 224, 256
-0.850969, 1, 1, 128, 500
-0.850976, 1, 273, 375, 400
-0.858607, 1, 161, 128, 416
-0.859304, 161, 97, 288, 352
-0.864951, 1, 321, 375, 448
-0.876948, 1, 257, 128, 500
-0.878316, 113, 129, 240, 384
-0.883768, 1, 49, 375, 176
-0.883899, 129, 209, 375, 336
-0.888513, 1, 161, 375, 288
-0.888734, 1, 1, 375, 128
-0.896786, 1, 257, 256, 384
-0.898463, 1, 145, 256, 272
-0.900838, 65, 305, 320, 432
-0.901935, 97, 257, 352, 384
-0.902268, 1, 225, 375, 352
-0.903334, 49, 209, 176, 336
-0.903777, 65, 97, 192, 352
-0.906108, 1, 369, 375, 496
-0.907525, 129, 161, 375, 288
-0.908395, 33, 65, 288, 192
-0.91085, 33, 209, 288, 336
-0.911009, 209, 289, 336, 416
-0.912422, 97, 1, 352, 128
-0.915376, 113, 177, 176, 304
-0.915813, 193, 129, 320, 256
-0.91692, 225, 49, 352, 176
-0.917044, 1, 1, 256, 128
-0.91728, 25, 145, 88, 272
-0.917823, 97, 177, 224, 304
-0.918541, 33, 1, 160, 128
-0.919125, 249, 273, 312, 400
-0.919589, 121, 337, 184, 464
-0.920322, 177, 1, 304, 128
-0.921029, 225, 129, 288, 256
-0.921297, 1, 161, 128, 288
-0.921444, 289, 289, 352, 416
-0.921731, 161, 193, 288, 320
-0.922888, 33, 1, 96, 128
-0.923928, 169, 321, 232, 448
-0.924558, 233, 209, 296, 336
-0.92465, 113, 241, 240, 368
-0.924947, 129, 81, 375, 208
-0.924964, 265, 225, 328, 352
-0.925169, 265, 65, 328, 192
-0.925299, 209, 209, 336, 336
-0.925319, 73, 305, 136, 432
-0.925627, 249, 1, 312, 128
-0.926118, 17, 257, 144, 384
-0.926134, 97, 337, 224, 464
-0.926492, 209, 305, 272, 432
-0.92772, 145, 321, 272, 448
-0.927859, 41, 257, 104, 384
-0.927957, 97, 353, 352, 480
-0.930539, 209, 177, 272, 304
-0.931127, 265, 177, 328, 304
-0.931218, 113, 1, 240, 128
-0.931471, 65, 273, 192, 400
-0.931781, 241, 97, 368, 224
-0.932077, 225, 81, 288, 208
-0.932142, 17, 305, 144, 432
-0.932939, 1, 113, 375, 240
-0.934572, 225, 1, 352, 128
-0.93485, 169, 193, 232, 320
-0.93573, 209, 225, 272, 352
-0.935752, 145, 65, 272, 192
-0.936551, 73, 209, 136, 336
-0.93659, 73, 1, 136, 128
-0.936656, 177, 1, 240, 128
-0.937017, 289, 49, 352, 176
-0.93736, 289, 209, 352, 336
-0.937535, 97, 353, 160, 480
-0.937883, 9, 33, 72, 160
-0.938002, 129, 225, 192, 352
-0.938459, 177, 257, 240, 384
-0.939236, 161, 257, 288, 384
-0.939306, 313, 17, 375, 144
-0.939632, 241, 161, 368, 288
-0.939697, 1, 353, 256, 480
-0.939898, 97, 273, 160, 400
-0.940017, 145, 337, 208, 464
-0.940085, 49, 65, 176, 192
-0.940277, 49, 161, 176, 288
-0.940356, 249, 129, 312, 256
-0.940447, 209, 1, 272, 128
-0.940617, 297, 161, 360, 288
-0.941147, 145, 145, 272, 272
-0.941926, 289, 97, 352, 224
-0.942175, 33, 49, 96, 176
-0.943133, 97, 401, 160, 464
-0.943176, 193, 353, 320, 480
-0.944713, 65, 49, 128, 176
-0.944722, 1, 177, 64, 304
-0.944762, 113, 193, 176, 256
-0.945822, 265, 177, 328, 240
-0.946096, 201, 129, 264, 256
-0.946099, 169, 369, 232, 496
-0.946315, 145, 369, 272, 496
-0.946908, 209, 353, 272, 480
-0.947321, 105, 225, 168, 352
-0.947463, 65, 161, 128, 288
-0.947697, 153, 241, 216, 368
-0.948088, 49, 97, 112, 224
-0.948364, 297, 233, 360, 296
-0.94854, 25, 161, 88, 224
-0.948586, 185, 49, 248, 176
-0.948926, 33, 209, 96, 336
-0.948951, 113, 225, 176, 288
-0.948992, 33, 41, 96, 104
-0.94902, 241, 337, 368, 464
-0.949391, 201, 369, 264, 432
-0.949501, 273, 257, 336, 320
-0.949872, 217, 177, 280, 240
-0.950423, 17, 113, 144, 240
-0.950678, 289, 337, 352, 464
-0.95074, 297, 337, 360, 400
-0.951103, 41, 289, 104, 352
-0.951151, 161, 385, 224, 448
-0.951186, 225, 137, 288, 200
-0.951285, 233, 57, 296, 120
-0.951888, 289, 49, 352, 112
-0.9519, 1, 225, 64, 352
-0.951928, 257, 25, 320, 88
-0.951982, 313, 65, 375, 192
-0.95209, 241, 361, 304, 424
-0.952183, 209, 65, 272, 128
-0.952185, 97, 17, 160, 144
-0.952458, 249, 337, 312, 464
-0.952992, 249, 145, 312, 208
-0.953074, 193, 177, 256, 240
-0.953333, 73, 313, 136, 376
-0.953354, 121, 273, 184, 400
-0.953685, 145, 1, 208, 128
-0.953831, 49, 353, 176, 480
-0.953833, 233, 209, 296, 272
-0.954037, 33, 65, 96, 128
-0.954049, 289, 1, 352, 128
-0.954145, 265, 73, 328, 136
-0.9546, 1, 49, 128, 176
-0.954745, 273, 233, 336, 296
-0.954949, 25, 97, 88, 224
-0.955086, 137, 393, 200, 456
-0.955134, 289, 81, 352, 144
-0.95516, 249, 1, 312, 256
-0.955252, 273, 201, 336, 264
-0.955354, 305, 177, 368, 240
-0.95553, 73, 217, 136, 280
-0.955657, 273, 345, 336, 408
-0.955813, 217, 281, 280, 344
-0.956337, 41, 1, 104, 64
-0.956776, 73, 65, 136, 128
-0.956854, 185, 153, 248, 216
-0.956965, 177, 145, 240, 272
-0.956971, 33, 225, 96, 288
-0.957026, 1, 209, 128, 336
-0.957227, 265, 49, 328, 112
-0.957342, 33, 129, 96, 384
-0.957599, 105, 193, 168, 448
-0.957811, 297, 209, 360, 272
-0.957838, 145, 241, 208, 304
-0.958098, 57, 33, 120, 96
-0.959008, 65, 193, 128, 256
-0.959354, 209, 41, 272, 104
-0.959377, 49, 313, 112, 376
-0.959379, 313, 49, 375, 112
-0.95938, 233, 161, 296, 416
-0.959531, 177, 1, 240, 64
-0.959742, 249, 105, 312, 168
-0.959889, 41, 265, 104, 328
-0.959942, 249, 281, 312, 344
-0.960004, 49, 305, 112, 432
-0.960019, 97, 65, 224, 192
-0.9603, 217, 1, 280, 64
-0.960325, 153, 257, 216, 500
-0.960689, 9, 25, 72, 88
-0.9607, 9, 1, 72, 256
-0.960883, 249, 257, 312, 320
-0.960895, 313, 241, 375, 368
-0.961382, 297, 153, 360, 216
-0.961485, 33, 137, 96, 200
-0.961498, 177, 41, 240, 104
-0.961749, 65, 257, 128, 384
-0.961932, 169, 225, 232, 288
-0.962157, 265, 225, 328, 480
-0.962236, 17, 217, 144, 280
-0.962384, 33, 1, 96, 256
-0.96253, 65, 65, 128, 320
-0.962684, 49, 89, 112, 152
-0.962747, 73, 353, 136, 480
-0.962977, 217, 233, 280, 296
-0.963009, 1, 233, 64, 296
-0.963335, 153, 193, 216, 256
-0.96339, 273, 281, 336, 344
-0.963457, 229, 225, 260, 352
-0.96348, 121, 17, 184, 144
-0.963522, 209, 33, 272, 288
-0.963636, 49, 241, 176, 304
-0.96367, 297, 17, 360, 80
-0.963676, 313, 337, 375, 464
-0.96369, 201, 225, 264, 480
-0.963743, 201, 321, 232, 448
-0.963775, 145, 217, 208, 280
-0.963995, 313, 73, 375, 136
-0.964061, 169, 257, 232, 320
-0.964159, 297, 257, 328, 384
-0.964205, 297, 225, 360, 480
-0.96435, 137, 177, 200, 304
-0.96464, 185, 1, 248, 256
-0.964644, 241, 169, 304, 232
-0.964716, 65, 209, 192, 272
-0.964777, 281, 305, 344, 368
-0.964985, 177, 257, 240, 500
-0.964996, 249, 233, 312, 296
-0.965057, 73, 113, 136, 240
-0.965171, 25, 201, 88, 264
-0.965194, 9, 1, 72, 64
-0.96527, 313, 289, 344, 416
-0.965336, 129, 257, 192, 500
-0.965469, 225, 89, 288, 152
-0.965565, 17, 273, 144, 336
-0.96564, 185, 201, 248, 264
-0.965716, 297, 257, 360, 320
-0.965876, 185, 321, 216, 448
-0.96591, 297, 97, 360, 352
-0.965929, 97, 305, 128, 432
-0.965948, 113, 65, 176, 192
-0.966029, 193, 169, 320, 232
-0.966051, 113, 353, 144, 480
-0.966204, 265, 257, 296, 384
-0.966225, 1, 169, 64, 232
-0.966241, 117, 177, 148, 304
-0.966354, 9, 65, 72, 128
-0.966386, 121, 177, 152, 240
-0.966667, 229, 129, 260, 192
-0.966688, 81, 393, 208, 456
-0.966779, 253, 129, 284, 256
-0.966798, 225, 113, 288, 176
-0.966808, 73, 265, 136, 328
-0.966824, 241, 129, 272, 256
-0.966848, 277, 289, 308, 416
-0.966918, 89, 65, 152, 192
-0.966951, 153, 49, 216, 176
-0.967022, 237, 65, 268, 128
-0.9671, 313, 289, 375, 416
-0.967103, 49, 113, 112, 176
-0.967312, 137, 337, 168, 464
-0.967331, 17, 193, 144, 256
-0.967349, 257, 97, 320, 352
-0.967383, 289, 1, 352, 256
-0.9674, 185, 65, 248, 128
-0.96742, 241, 81, 272, 208
-0.967429, 257, 49, 288, 176
-0.967447, 157, 337, 188, 464
-0.967527, 177, 145, 304, 208
-0.967637, 17, 161, 144, 224
-0.967705, 121, 353, 184, 416
-0.967709, 249, 145, 280, 208
-0.967804, 249, 121, 280, 184
-0.967824, 193, 33, 320, 96
-0.967882, 137, 193, 168, 320
-0.967922, 313, 113, 375, 240
-0.967956, 269, 65, 300, 192
-0.96796, 49, 337, 112, 400
-0.967965, 81, 41, 144, 104
-0.96802, 161, 1, 288, 64
-0.968064, 65, 241, 128, 304
-0.968119, 65, 169, 128, 232
-0.968221, 257, 1, 288, 128
-0.968232, 57, 65, 88, 192
-0.968614, 313, 105, 375, 168
-0.968628, 229, 305, 260, 432
-0.968767, 209, 193, 336, 256
-0.968783, 129, 185, 256, 248
-0.968863, 105, 41, 168, 104
-0.968884, 137, 265, 200, 328
-0.969021, 321, 73, 352, 136
-0.969022, 73, 9, 136, 72
-0.969024, 129, 217, 256, 280
-0.969068, 1, 209, 64, 272
-0.969116, 129, 417, 192, 480
-0.96922, 201, 321, 264, 384
-0.969221, 241, 217, 368, 280
-0.969257, 69, 65, 100, 128
-0.9693, 225, 369, 256, 432
-0.969346, 193, 57, 320, 120
-0.969364, 205, 377, 236, 440
-0.969375, 301, 273, 332, 336
-0.969544, 201, 129, 264, 192
-0.96959, 65, 113, 192, 240
-0.969636, 249, 49, 280, 112
-0.969664, 285, 177, 316, 304
-0.969863, 281, 33, 312, 160
-0.969956, 153, 41, 216, 104
-0.969957, 37, 1, 68, 128
-0.970012, 97, 65, 160, 128
-0.970027, 177, 329, 240, 392
-0.970089, 157, 393, 188, 456
-0.970091, 181, 385, 212, 448
-0.970122, 33, 305, 160, 368
-0.970128, 281, 241, 312, 368
-0.97016, 209, 209, 272, 272
-0.97019, 273, 153, 336, 216
-0.970223, 225, 145, 352, 208
-0.970225, 257, 89, 288, 152
-0.970255, 73, 193, 136, 448
-0.970273, 265, 369, 328, 432
-0.970522, 213, 321, 244, 448
-0.970529, 281, 129, 344, 192
-0.97057, 249, 361, 280, 424
-0.970648, 249, 169, 280, 232
-0.970649, 241, 1, 304, 64
-0.970723, 325, 337, 356, 400
-0.97079, 269, 113, 300, 240
-0.970823, 129, 257, 256, 320
-0.970826, 297, 209, 328, 336
-0.970854, 269, 1, 300, 128
-0.970912, 241, 225, 272, 352
-0.970983, 229, 81, 260, 208
-0.971021, 49, 1, 80, 128
-0.971035, 201, 89, 264, 152
-0.971058, 89, 1, 152, 256
-0.971114, 53, 49, 84, 112
-0.971168, 177, 225, 304, 288
-0.971171, 289, 105, 352, 168
-0.971193, 301, 57, 332, 120
-0.971234, 225, 305, 288, 368
-0.971311, 169, 161, 232, 416
-0.971331, 209, 113, 336, 176
-0.971345, 129, 33, 256, 96
-0.971401, 233, 281, 264, 344
-0.971407, 217, 393, 280, 456
-0.971408, 217, 81, 248, 208
-0.971429, 253, 257, 284, 384
-0.971599, 97, 409, 128, 472
-0.971674, 253, 273, 284, 336
-0.971728, 9, 273, 72, 400
-0.97173, 221, 177, 252, 304
-0.971733, 125, 353, 156, 480
-0.971783, 169, 337, 200, 464
-0.971886, 205, 241, 236, 368
-0.97192, 93, 313, 124, 376
-0.971945, 157, 233, 188, 296
-0.971957, 217, 225, 248, 352
-0.971984, 89, 353, 152, 416
-0.971985, 25, 321, 88, 448
-0.972001, 141, 201, 172, 264
-0.972007, 297, 361, 360, 424
-0.972012, 113, 401, 144, 464
-0.972034, 81, 305, 112, 432
-0.972044, 261, 129, 292, 192
-0.972085, 69, 17, 100, 144
-0.972146, 313, 49, 344, 112
-0.97216, 241, 305, 272, 432
-0.972169, 229, 129, 260, 256
-0.972181, 169, 233, 200, 296
-0.972191, 89, 185, 152, 248
-0.972196, 1, 353, 128, 480
-0.972207, 137, 401, 168, 464
-0.972236, 297, 321, 328, 448
-0.972268, 253, 193, 284, 320
-0.972304, 1, 161, 64, 416
-0.972308, 305, 345, 336, 408
-0.972387, 201, 369, 232, 496
-0.972549, 293, 49, 324, 176
-0.972552, 169, 385, 200, 448
-0.972554, 185, 401, 248, 464
-0.972607, 137, 169, 200, 232
-0.972825, 193, 369, 320, 432
-0.972849, 241, 81, 368, 144
-0.97285, 209, 289, 336, 352
-0.972851, 81, 313, 112, 376
-0.972875, 325, 97, 356, 160
-0.972875, 193, 377, 224, 440
-0.972946, 213, 129, 244, 256
-0.972953, 189, 177, 220, 304
-0.973047, 109, 305, 140, 432
-0.97309, 113, 1, 240, 64
-0.973176, 265, 361, 296, 424
-0.973227, 33, 33, 160, 96
-0.973237, 105, 425, 168, 488
-0.973262, 29, 145, 60, 272
-0.973268, 161, 409, 224, 472
-0.973278, 321, 33, 352, 160
-0.973354, 237, 361, 268, 424
-0.973373, 205, 41, 236, 104
-0.973462, 97, 249, 160, 312
-0.973472, 209, 257, 336, 320
-0.973481, 241, 33, 368, 96
-0.973531, 65, 65, 192, 128
-0.973615, 217, 137, 248, 200
-0.973662, 281, 129, 312, 256
-0.973662, 49, 225, 112, 480
-0.973679, 329, 81, 360, 208
-0.973679, 217, 273, 248, 400
-0.973701, 113, 225, 144, 352
-0.973743, 81, 417, 208, 480
-0.973802, 161, 65, 224, 128
-0.973854, 101, 353, 132, 480
-0.973876, 193, 257, 256, 320
-0.973894, 1, 57, 128, 120
-0.973945, 33, 1, 64, 64
-0.973966, 125, 401, 156, 464
-0.974051, 53, 113, 84, 240
-0.974066, 37, 25, 68, 88
-0.974079, 57, 89, 88, 152
-0.974153, 289, 353, 320, 416
-0.974186, 253, 305, 284, 432
-0.974202, 161, 1, 224, 256
-0.974234, 241, 169, 368, 232
-0.974266, 145, 337, 208, 400
-0.974281, 233, 177, 264, 304
-0.97435, 65, 185, 192, 248
-0.974417, 1, 201, 32, 264
-0.974461, 125, 273, 156, 400
-0.974558, 257, 193, 288, 256
-0.974585, 145, 65, 272, 128
-0.974589, 241, 385, 304, 448
-0.974595, 105, 377, 168, 440
-0.974786, 37, 65, 68, 192
-0.974812, 265, 209, 296, 336
-0.974854, 233, 33, 296, 96
-0.974869, 261, 161, 292, 224
-0.974909, 297, 281, 360, 344
-0.97494, 209, 129, 272, 384
-0.975001, 57, 1, 88, 64
-0.975007, 25, 1, 88, 500
-0.975031, 97, 313, 160, 376
-0.975184, 313, 129, 375, 192
-0.97519, 197, 153, 228, 216
-0.97519, 313, 1, 375, 256
-0.975203, 309, 33, 340, 160
-0.97525, 273, 161, 304, 224
-0.975347, 289, 49, 320, 112
-0.975434, 129, 33, 192, 96
-0.975462, 121, 33, 184, 288
-0.975478, 277, 353, 308, 416
-0.975513, 217, 217, 248, 280
-0.975526, 193, 257, 224, 384
-0.97557, 145, 393, 272, 456
-0.975584, 29, 233, 60, 296
-0.975606, 237, 97, 268, 160
-0.975637, 209, 161, 240, 224
-0.975675, 201, 177, 232, 304
-0.975707, 113, 281, 176, 344
-0.975738, 69, 289, 100, 416
-0.975759, 273, 25, 304, 88
-0.975786, 129, 161, 192, 416
-0.975815, 241, 353, 272, 480
-0.975884, 9, 153, 40, 216
-0.97592, 281, 249, 312, 312
-0.975921, 113, 169, 176, 232
-0.975964, 313, 177, 344, 304
-0.975969, 65, 1, 128, 500
-0.975977, 189, 369, 220, 496
-0.975985, 121, 65, 184, 128
-0.976058, 229, 193, 260, 256
-0.976193, 277, 129, 308, 192
-0.97624, 237, 161, 268, 224
-0.976288, 261, 217, 292, 280
-0.97631, 265, 161, 296, 288
-0.976372, 269, 105, 300, 168
-0.976432, 5, 177, 36, 240
-0.976434, 229, 353, 260, 480
-0.976627, 305, 305, 368, 368
-0.976652, 305, 305, 336, 368
-0.976661, 113, 217, 144, 280
-0.976728, 89, 161, 152, 288
-0.976799, 245, 33, 276, 160
-0.976844, 157, 209, 188, 336
-0.976853, 209, 9, 336, 72
-0.97687, 73, 417, 136, 480
-0.976944, 241, 361, 368, 424
-0.977103, 241, 57, 368, 120
-0.977115, 265, 265, 296, 328
-0.97719, 81, 1, 112, 128
-0.977231, 137, 273, 168, 400
-0.977241, 53, 113, 84, 176
-0.977248, 325, 257, 356, 384
-0.977301, 177, 177, 208, 304
-0.977303, 269, 73, 300, 136
-0.977326, 53, 137, 84, 200
-0.977338, 73, 81, 104, 208
-0.977378, 193, 313, 320, 376
-0.97738, 65, 33, 96, 96
-0.9774, 5, 161, 36, 288
-0.977402, 33, 161, 64, 224
-0.977404, 1, 129, 64, 256
-0.97746, 25, 329, 88, 392
-0.977483, 25, 97, 88, 160
-0.977506, 9, 305, 72, 368
-0.977564, 33, 1, 160, 64
-0.977629, 25, 225, 56, 352
-0.977856, 49, 25, 80, 88
-0.978001, 333, 321, 364, 448
-0.978054, 289, 273, 320, 336
-0.978102, 145, 321, 272, 384
-0.978155, 241, 257, 304, 500
-0.978215, 301, 225, 332, 288
-0.978251, 65, 273, 192, 336
-0.97831, 281, 73, 312, 136
-0.978434, 81, 345, 208, 408
-0.978458, 201, 1, 232, 64
-0.978464, 325, 177, 356, 304
-0.978477, 1, 81, 64, 208
-0.978535, 261, 49, 292, 112
-0.978539, 69, 313, 100, 376
-0.978576, 113, 1, 176, 500
-0.978667, 261, 9, 292, 72
-0.978824, 153, 257, 184, 384
-0.978855, 145, 129, 208, 256
-0.978976, 265, 305, 296, 432
-0.979018, 217, 57, 248, 120
-0.979021, 145, 369, 272, 432
-0.97904, 201, 225, 232, 288
-0.979042, 305, 1, 368, 500
-0.979078, 173, 1, 204, 128
-0.979088, 49, 353, 112, 480
-0.979123, 85, 73, 116, 136
-0.979294, 77, 41, 108, 104
-0.979302, 125, 225, 156, 352
-0.979347, 225, 1, 288, 500
-0.979466, 129, 153, 256, 216
-0.979534, 81, 305, 208, 368
-0.97954, 81, 41, 208, 104
-0.979682, 181, 257, 212, 384
-0.979688, 57, 257, 88, 384
-0.979744, 169, 257, 200, 384
-0.979748, 17, 329, 144, 392
-0.979775, 285, 153, 316, 216
-0.979825, 225, 169, 256, 232
-0.97992, 301, 81, 332, 144
-0.979977, 205, 1, 236, 128
-0.980041, 333, 1, 364, 128
-0.980051, 181, 233, 212, 296
-0.980099, 45, 1, 76, 64
-0.980206, 325, 49, 356, 112
-0.980284, 289, 177, 320, 240
-0.980354, 189, 65, 220, 128
-0.980368, 325, 17, 356, 80
-0.980413, 333, 129, 364, 256
-0.980435, 317, 169, 348, 232
-0.980443, 137, 1, 200, 500
-0.980608, 281, 209, 312, 272
-0.980641, 197, 129, 228, 256
-0.9807, 97, 353, 128, 416
-0.980701, 153, 201, 184, 264
-0.980747, 281, 1, 344, 500
-0.980766, 93, 1, 124, 128
-0.980877, 341, 177, 372, 304
-0.980884, 41, 65, 72, 128
-0.980898, 1, 241, 128, 304
-0.980913, 249, 1, 312, 500
-0.981004, 325, 209, 356, 272
-0.981222, 89, 1, 152, 500
-0.981237, 313, 129, 344, 256
-0.981242, 213, 369, 244, 496
-0.981251, 289, 313, 320, 376
-0.981276, 253, 353, 284, 480
-0.981294, 125, 353, 156, 416
-0.981297, 281, 81, 312, 208
-0.98139, 221, 281, 252, 344
-0.98139, 25, 225, 88, 480
-0.981444, 21, 209, 52, 272
-0.981566, 93, 49, 124, 112
-0.981603, 217, 193, 248, 256
-0.981732, 133, 225, 164, 288
-0.981738, 177, 89, 304, 152
-0.981788, 297, 161, 328, 288
-0.981859, 101, 241, 132, 368
-0.982002, 309, 225, 340, 352
-0.982035, 341, 329, 372, 392
-0.982126, 265, 289, 296, 352
-0.982147, 277, 337, 308, 464
-0.982275, 17, 137, 144, 200
-0.982278, 297, 1, 328, 128
-0.982315, 17, 1, 48, 128
-0.98239, 341, 81, 372, 144
-0.9824, 301, 249, 332, 312
-0.982433, 33, 97, 160, 160
-0.982496, 217, 1, 248, 128
-0.982617, 169, 257, 200, 320
-0.982684, 245, 193, 276, 256
-0.982799, 189, 177, 220, 240
-0.983015, 113, 281, 240, 344
-0.983238, 337, 33, 368, 96
-0.983265, 177, 41, 208, 104
-0.983284, 157, 257, 188, 320
-0.983343, 85, 65, 116, 192
-0.983364, 105, 313, 136, 376
-0.983373, 185, 17, 216, 144
-0.983432, 305, 81, 336, 208
-0.983435, 313, 97, 344, 160
-0.983468, 161, 1, 224, 500
-0.983492, 337, 233, 368, 296
-0.983497, 109, 249, 140, 312
-0.983623, 337, 57, 368, 120
-0.983728, 17, 177, 48, 304
-0.983732, 125, 1, 156, 128
-0.983741, 241, 337, 368, 400
-0.983747, 237, 41, 268, 104
-0.983816, 277, 49, 308, 112
-0.983846, 245, 385, 276, 448
-0.983849, 313, 265, 344, 328
-0.983864, 333, 161, 364, 224
-0.983904, 69, 89, 100, 152
-0.983937, 225, 393, 256, 456
-0.983945, 81, 257, 112, 384
-0.983954, 125, 281, 156, 344
-0.984055, 89, 353, 120, 480
-0.98407, 185, 1, 248, 500
-0.984075, 129, 145, 160, 272
-0.984318, 105, 17, 136, 144
-0.984453, 33, 393, 160, 456
-0.984498, 25, 49, 56, 176
-0.984649, 161, 121, 288, 184
-0.984714, 41, 145, 72, 272
-0.984965, 49, 321, 80, 448
-0.98497, 1, 65, 32, 192
-0.985012, 81, 369, 208, 432
-0.985134, 1, 1, 64, 500
-0.985275, 129, 417, 256, 480
-0.985334, 317, 81, 348, 208
-0.985404, 205, 49, 236, 176
-0.985484, 341, 65, 372, 192
-0.985673, 153, 65, 184, 192
-0.985837, 181, 65, 212, 192
-0.985857, 337, 257, 368, 384
-0.986021, 161, 17, 192, 144
-0.98606, 241, 313, 368, 376
-0.986099, 65, 161, 192, 224
-0.986148, 53, 193, 84, 320
-0.986181, 41, 273, 72, 400
-0.986355, 193, 345, 320, 408
-0.986824, 161, 281, 288, 344
-0.986972, 129, 345, 256, 408
-0.986996, 137, 17, 168, 144
-0.987034, 145, 289, 208, 416
-0.987117, 129, 209, 375, 272
-0.987181, 313, 345, 375, 376
-0.987528, 257, 301, 320, 332
-0.987597, 193, 393, 320, 456
-0.987677, 129, 265, 375, 328
-0.987765, 33, 353, 160, 416
-0.987958, 185, 69, 248, 100
-0.987984, 297, 233, 360, 264
-0.987988, 33, 417, 160, 480
-0.988068, 225, 201, 288, 232
-0.988077, 265, 201, 328, 232
-0.988121, 233, 69, 296, 100
-0.988155, 105, 201, 168, 232
-0.988156, 129, 233, 192, 264
-0.988172, 305, 189, 368, 220
-0.988225, 273, 257, 336, 288
-0.988235, 289, 353, 352, 384
-0.98832, 281, 293, 344, 324
-0.988445, 105, 225, 168, 256
-0.988605, 33, 69, 96, 100
-0.988614, 273, 237, 336, 268
-0.988625, 265, 357, 328, 388
-0.988651, 41, 309, 104, 340
-0.988654, 25, 165, 88, 196
-0.988691, 105, 241, 168, 272
-0.988698, 105, 413, 168, 444
-0.988739, 209, 73, 272, 104
-0.988761, 273, 61, 336, 92
-0.988804, 265, 81, 328, 112
-0.98882, 257, 273, 320, 304
-0.988825, 241, 365, 304, 396
-0.988851, 105, 213, 168, 244
-0.988904, 145, 401, 208, 432
-0.988913, 1, 305, 256, 368
-0.988927, 33, 65, 288, 128
-0.988976, 201, 381, 264, 412
-0.989035, 129, 33, 375, 96
-0.989047, 89, 425, 152, 456
-0.989058, 225, 189, 288, 220
-0.98906, 65, 137, 192, 200
-0.989061, 1, 185, 256, 248
-0.989067, 185, 189, 248, 220
-0.989085, 217, 137, 280, 168
-0.989134, 241, 225, 304, 256
-0.989177, 41, 293, 104, 324
-0.989209, 169, 257, 232, 288
-0.989211, 25, 33, 88, 64
-0.989221, 249, 125, 312, 156
-0.989236, 73, 205, 136, 236
-0.98925, 41, 1, 104, 32
-0.98926, 233, 161, 296, 192
-0.98927, 313, 357, 375, 388
-0.989279, 57, 65, 120, 96
-0.98928, 65, 225, 128, 256
-0.989282, 225, 213, 288, 244
-0.989304, 249, 37, 312, 68
-0.98931, 297, 177, 360, 208
-0.989323, 129, 217, 192, 248
-0.989365, 33, 237, 96, 268
-0.989392, 65, 241, 128, 272
-0.989396, 225, 93, 288, 124
-0.989416, 129, 233, 375, 296
-0.989417, 273, 225, 336, 256
-0.989428, 25, 177, 88, 208
-0.989481, 33, 53, 96, 84
-0.989491, 297, 249, 360, 280
-0.989509, 265, 189, 328, 220
-0.98951, 313, 105, 375, 136
-0.98954, 265, 49, 328, 80
-0.989556, 169, 393, 232, 424
-0.989584, 209, 161, 272, 192
-0.989589, 81, 73, 144, 104
-0.989594, 249, 237, 312, 268
-0.989638, 265, 213, 328, 244
-0.989639, 185, 177, 248, 208
-0.98964, 177, 57, 240, 88
-0.989653, 41, 281, 104, 312
-0.989683, 313, 85, 375, 116
-0.989684, 289, 73, 352, 104
-0.989702, 297, 261, 360, 292
-0.989739, 113, 189, 176, 220
-0.989752, 33, 265, 96, 296
-0.989776, 153, 245, 216, 276
-0.989792, 65, 253, 128, 284
-0.989793, 209, 321, 272, 352
-0.989797, 233, 173, 296, 204
-0.989799, 1, 321, 375, 384
-0.989803, 65, 53, 128, 84
-0.989827, 177, 5, 240, 36
-0.989839, 305, 201, 368, 232
-0.989847, 257, 169, 320, 200
-0.989848, 313, 57, 375, 88
-0.98985, 49, 29, 112, 60
-0.989876, 281, 305, 344, 336
-0.989886, 1, 225, 256, 288
-0.989902, 209, 49, 272, 80
-0.989902, 289, 281, 352, 312
-0.989941, 289, 93, 352, 124
-0.989972, 9, 21, 72, 52
-0.989973, 249, 149, 312, 180
-0.989983, 41, 13, 104, 44
-0.989984, 41, 253, 104, 284
-0.990007, 1, 241, 64, 272
-0.990016, 25, 153, 88, 184
-0.990067, 297, 221, 360, 252
-0.990108, 177, 269, 240, 300
-0.990116, 129, 245, 192, 276
-0.99012, 217, 1, 280, 32
-0.990126, 249, 137, 312, 168
-0.990126, 57, 85, 120, 116
-0.99015, 73, 305, 136, 336
-0.990153, 289, 365, 352, 396
-0.990154, 49, 345, 112, 376
-0.990163, 249, 253, 312, 284
-0.990187, 201, 149, 264, 180
-0.990198, 25, 189, 88, 220
-0.990212, 249, 113, 312, 144
-0.990215, 185, 205, 248, 236
-0.990224, 217, 37, 280, 68
-0.990233, 225, 149, 288, 180
-0.990234, 201, 217, 264, 248
-0.99024, 169, 229, 232, 260
-0.99025, 73, 293, 136, 324
-0.990259, 209, 173, 272, 204
-0.99027, 177, 333, 240, 364
-0.990291, 33, 225, 96, 256
-0.990308, 1, 229, 64, 260
-0.990309, 297, 45, 360, 76
-0.99031, 73, 193, 136, 224
-0.990324, 233, 57, 296, 88
-0.990327, 217, 397, 280, 428
-0.99034, 217, 265, 280, 296
-0.990343, 153, 421, 216, 452
-0.99036, 225, 285, 288, 316
-0.990374, 97, 397, 160, 428
-0.990393, 249, 25, 312, 56
-0.990414, 25, 137, 88, 168
-0.990446, 9, 9, 72, 40
-0.990449, 273, 157, 336, 188
-0.990466, 9, 69, 72, 100
-0.990496, 177, 413, 240, 444
-0.990499, 113, 437, 176, 468
-0.990516, 209, 25, 272, 56
-0.990615, 97, 329, 352, 392
-0.990644, 129, 169, 375, 232
-0.990705, 65, 401, 320, 464
-0.990712, 1, 57, 375, 120
-0.991011, 65, 9, 320, 72
-0.991111, 49, 205, 176, 236
-0.991183, 1, 41, 256, 104
-0.99126, 1, 69, 128, 100
-0.991302, 17, 217, 144, 248
-0.991473, 113, 113, 240, 176
-0.99162, 1, 273, 256, 336
-0.991623, 17, 297, 144, 328
-0.991653, 129, 57, 375, 120
-0.991704, 255, 137, 270, 200
-0.991747, 209, 73, 336, 104
-0.991768, 49, 229, 176, 260
-0.99178, 129, 377, 375, 440
-0.991817, 225, 73, 256, 104
-0.991843, 1, 345, 375, 408
-0.991843, 313, 349, 344, 380
-0.991871, 213, 69, 244, 100
-0.991906, 325, 345, 356, 376
-0.991912, 301, 353, 332, 384
-0.99195, 341, 341, 372, 372
-0.991984, 1, 249, 256, 312
-0.992004, 1, 217, 375, 280
-0.992012, 297, 301, 328, 332
-0.992016, 137, 221, 168, 252
-0.992078, 237, 73, 268, 104
-0.992083, 97, 145, 352, 208
-0.99213, 257, 93, 288, 124
-0.99216, 1, 33, 375, 96
-0.992178, 121, 185, 152, 216
-0.992181, 281, 249, 312, 280
-0.992195, 309, 297, 340, 328
-0.992212, 81, 405, 208, 436
-0.992221, 97, 429, 128, 460
-0.992225, 253, 201, 284, 232
-0.992234, 321, 93, 352, 124
-0.992253, 197, 65, 228, 96
-0.992257, 293, 365, 324, 396
-0.992258, 281, 361, 312, 392
-0.992265, 249, 157, 280, 188
-0.992284, 321, 109, 352, 140
-0.992287, 229, 137, 260, 168
-0.992287, 253, 145, 284, 176
-0.992288, 157, 233, 188, 264
-0.992293, 241, 169, 272, 200
-0.992301, 261, 161, 292, 192
-0.992315, 173, 257, 204, 288
-0.992322, 277, 153, 308, 184
-0.992327, 113, 225, 144, 256
-0.992336, 269, 301, 300, 332
-0.992341, 257, 105, 288, 136
-0.992352, 17, 193, 144, 224
-0.992359, 273, 141, 304, 172
-0.992359, 237, 85, 268, 116
-0.992368, 1, 345, 256, 408
-0.992372, 313, 77, 344, 108
-0.992378, 9, 177, 40, 208
-0.992379, 325, 357, 356, 388
-0.992383, 257, 121, 288, 152
-0.992391, 213, 169, 244, 200
-0.992407, 297, 285, 328, 316
-0.992411, 13, 161, 44, 192
-0.992413, 313, 361, 344, 392
-0.992425, 217, 221, 248, 252
-0.992433, 229, 201, 260, 232
-0.992433, 209, 149, 240, 180
-0.992439, 241, 137, 272, 168
-0.992453, 185, 65, 216, 96
-0.992454, 5, 189, 36, 220
-0.992458, 269, 129, 300, 160
-0.99246, 129, 269, 256, 300
-0.992463, 69, 81, 100, 112
-0.992476, 33, 165, 64, 196
-0.992478, 253, 133, 284, 164
-0.992486, 129, 81, 375, 144
-0.992487, 1, 257, 64, 500
-0.992491, 253, 309, 284, 340
-0.992493, 233, 157, 264, 188
-0.992505, 209, 273, 336, 304
-0.992507, 341, 353, 372, 384
-0.99251, 117, 197, 148, 228
-0.992514, 201, 165, 232, 196
-0.992514, 305, 93, 336, 124
-0.992519, 269, 365, 300, 396
-0.992522, 257, 217, 288, 248
-0.992533, 57, 53, 88, 84
-0.992541, 157, 405, 188, 436
-0.992544, 81, 69, 112, 100
-0.992545, 325, 81, 356, 112
-0.992552, 297, 273, 328, 304
-0.992554, 29, 241, 60, 272
-0.992562, 249, 185, 280, 216
-0.992567, 301, 65, 332, 96
-0.992586, 285, 169, 316, 200
-0.992588, 57, 29, 88, 60
-0.992588, 269, 113, 300, 144
-0.992602, 17, 285, 144, 316
-0.992602, 221, 157, 252, 188
-0.992603, 329, 265, 360, 296
-0.992607, 149, 217, 180, 248
-0.992609, 141, 409, 172, 440
-0.992611, 253, 53, 284, 84
-0.992614, 257, 365, 288, 396
-0.992614, 1, 153, 256, 216
-0.992623, 301, 77, 332, 108
-0.992634, 269, 173, 300, 204
-0.992639, 33, 21, 64, 52
-0.992643, 173, 397, 204, 428
-0.992649, 1, 209, 32, 240
-0.992649, 141, 205, 172, 236
-0.99265, 61, 93, 92, 124
-0.99265, 53, 141, 84, 172
-0.992652, 285, 293, 316, 324
-0.992655, 45, 9, 76, 40
-0.992661, 33, 5, 64, 36
-0.992671, 113, 405, 144, 436
-0.992674, 293, 197, 324, 228
-0.992675, 281, 261, 312, 292
-0.992676, 273, 81, 304, 112
-0.992683, 309, 269, 340, 300
-0.992686, 245, 369, 276, 400
-0.992686, 53, 153, 84, 184
-0.992693, 177, 97, 240, 224
-0.992694, 229, 377, 260, 408
-0.992697, 57, 69, 88, 100
-0.992699, 157, 261, 188, 292
-0.992699, 57, 109, 88, 140
-0.992702, 241, 233, 368, 264
-0.992704, 201, 265, 232, 296
-0.992707, 33, 33, 64, 64
-0.992708, 321, 53, 352, 84
-0.992709, 169, 245, 200, 276
-0.992712, 233, 181, 264, 212
-0.992712, 301, 233, 332, 264
-0.99272, 21, 225, 52, 256
-0.992726, 281, 233, 312, 264
-0.99273, 121, 129, 184, 256
-0.992732, 209, 197, 336, 228
-0.992733, 113, 241, 144, 272
-0.99274, 249, 73, 280, 104
-0.992742, 265, 25, 296, 56
-0.992743, 213, 325, 244, 356
-0.992746, 305, 165, 336, 196
-0.992748, 185, 393, 216, 424
-0.992753, 297, 261, 328, 292
-0.992757, 69, 53, 100, 84
-0.992757, 233, 213, 264, 244
-0.992765, 217, 381, 248, 412
-0.992768, 81, 345, 112, 376
-0.992774, 333, 93, 364, 124
-0.992776, 309, 285, 340, 316
-0.992777, 249, 41, 280, 72
-0.992778, 253, 173, 284, 204
-0.992779, 281, 305, 312, 336
-0.992783, 325, 233, 356, 264
-0.992784, 213, 205, 244, 236
-0.992784, 109, 393, 140, 424
-0.992785, 201, 77, 232, 108
-0.992791, 21, 65, 52, 96
-0.992793, 305, 217, 336, 248
-0.992799, 281, 221, 312, 252
-0.992802, 1, 225, 32, 256
-0.992806, 65, 217, 192, 248
-0.992824, 49, 241, 176, 272
-0.992844, 193, 61, 320, 92
-0.992904, 17, 317, 144, 348
-0.992936, 193, 141, 320, 172
-0.99299, 193, 169, 320, 200
-0.993006, 193, 213, 320, 244
-0.993027, 1, 205, 128, 236
-0.99303, 65, 261, 192, 292
-0.993031, 213, 377, 228, 440
-0.993043, 261, 273, 276, 336
-0.993043, 33, 273, 160, 304
-0.993085, 247, 281, 262, 344
-0.993092, 247, 137, 262, 200
-0.993176, 161, 5, 288, 36
-0.993211, 193, 33, 320, 64
-0.993217, 49, 181, 176, 212
-0.993217, 255, 361, 270, 424
-0.993223, 1, 297, 375, 360
-0.993239, 167, 233, 182, 296
-0.993244, 249, 65, 264, 128
-0.993247, 187, 385, 202, 448
-0.993255, 277, 257, 292, 320
-0.993265, 17, 253, 144, 284
-0.993295, 231, 369, 246, 432
-0.993302, 145, 401, 160, 464
-0.993308, 129, 193, 256, 224
-0.99333, 1, 229, 128, 260
-0.993392, 1, 385, 375, 448
-0.993397, 193, 21, 320, 52
-0.993409, 193, 153, 320, 184
-0.993455, 225, 309, 352, 340
-0.993456, 121, 161, 152, 416
-0.993461, 93, 313, 108, 376
-0.993468, 279, 353, 294, 416
-0.993493, 1, 265, 375, 328
-0.993494, 193, 385, 208, 448
-0.993494, 89, 97, 152, 352
-0.993505, 1, 1, 375, 64
-0.993515, 261, 361, 276, 424
-0.993525, 97, 205, 224, 236
-0.993532, 145, 69, 272, 100
-0.993534, 101, 417, 116, 480
-0.993594, 241, 369, 256, 432
-0.993594, 171, 393, 186, 456
-0.993596, 241, 85, 368, 116
-0.993642, 33, 377, 288, 440
-0.993658, 241, 129, 256, 192
-0.993659, 331, 73, 346, 136
-0.993659, 207, 377, 222, 440
-0.993687, 323, 73, 338, 136
-0.99373, 235, 129, 250, 192
-0.99374, 51, 33, 66, 96
-0.993746, 253, 281, 268, 344
-0.993748, 81, 425, 208, 456
-0.993758, 219, 377, 234, 440
-0.993765, 129, 401, 144, 464
-0.993771, 181, 385, 196, 448
-0.993785, 259, 89, 274, 152
-0.993791, 267, 265, 282, 328
-0.993794, 165, 393, 180, 456
-0.993797, 243, 65, 258, 128
-0.993802, 193, 49, 320, 80
-0.993807, 129, 89, 256, 152
-0.993813, 199, 385, 214, 448
-0.993821, 301, 345, 316, 408
-0.993822, 151, 401, 166, 464
-0.993825, 263, 177, 278, 240
-0.993825, 65, 105, 320, 168
-0.993832, 281, 65, 312, 320
-0.993832, 129, 305, 375, 368
-0.993833, 129, 393, 256, 424
-0.993833, 307, 273, 322, 336
-0.993838, 17, 169, 144, 200
-0.993844, 139, 401, 154, 464
-0.99385, 81, 69, 208, 100
-0.993875, 1, 193, 375, 256
-0.99388, 249, 361, 264, 424
-0.993887, 303, 177, 318, 240
-0.99389, 193, 257, 320, 288
-0.993895, 177, 225, 304, 256
-0.993906, 241, 161, 256, 224
-0.993909, 271, 97, 286, 160
-0.993913, 75, 73, 90, 136
-0.993943, 267, 361, 282, 424
-0.993964, 129, 217, 256, 248
-0.993988, 225, 361, 352, 392
-0.994019, 83, 321, 98, 384
-0.99407, 225, 369, 240, 432
-0.994071, 99, 313, 114, 376
-0.994081, 141, 201, 156, 264
-0.994085, 67, 49, 82, 112
-0.994099, 273, 353, 288, 416
-0.994132, 255, 113, 270, 176
-0.994136, 225, 129, 352, 160
-0.994144, 241, 281, 256, 344
-0.99415, 159, 393, 174, 456
-0.994164, 313, 273, 328, 336
-0.994197, 305, 57, 320, 120
-0.994202, 263, 121, 278, 184
-0.994229, 213, 145, 228, 208
-0.994239, 17, 57, 144, 88
-0.994246, 275, 225, 290, 288
-0.99425, 277, 73, 292, 136
-0.99426, 323, 97, 338, 160
-0.994276, 97, 353, 352, 416
-0.994287, 1, 241, 128, 272
-0.994293, 237, 33, 268, 288
-0.9943, 291, 145, 306, 208
-0.994302, 179, 233, 194, 296
-0.994322, 257, 161, 288, 416
-0.994364, 343, 233, 358, 296
-0.994369, 255, 49, 270, 112
-0.994375, 225, 185, 352, 216
-0.994386, 241, 221, 368, 252
-0.994403, 257, 65, 288, 320
-0.994408, 1, 181, 128, 212
-0.994408, 161, 225, 192, 480
-0.994432, 61, 49, 76, 112
-0.994436, 235, 281, 250, 344
-0.994445, 269, 1, 300, 256
-0.994467, 81, 65, 96, 128
-0.994477, 173, 241, 188, 304
-0.994482, 313, 337, 328, 400
-0.994483, 133, 177, 148, 240
-0.994487, 113, 1, 240, 32
-0.994496, 113, 241, 240, 272
-0.994497, 313, 57, 328, 120
-0.994503, 107, 417, 122, 480
-0.994509, 193, 373, 320, 404
-0.99452, 145, 57, 272, 88
-0.994531, 231, 169, 246, 232
-0.994547, 33, 5, 160, 36
-0.994551, 153, 201, 168, 264
-0.994566, 105, 313, 120, 376
-0.994569, 223, 137, 238, 200
-0.994573, 269, 137, 284, 200
-0.994595, 73, 41, 88, 104
-0.994634, 225, 117, 352, 148
-0.994635, 1, 409, 375, 472
-0.994644, 109, 257, 140, 500
-0.994646, 337, 89, 352, 152
-0.994646, 145, 81, 272, 112
-0.994657, 247, 169, 262, 232
-0.994669, 229, 137, 244, 200
-0.994685, 59, 25, 74, 88
-0.994701, 33, 425, 288, 488
-0.994704, 299, 265, 314, 328
-0.994759, 317, 81, 332, 144
-0.994765, 237, 161, 268, 416
-0.99478, 3, 209, 18, 272
-0.994783, 325, 49, 340, 112
-0.994793, 285, 121, 300, 184
-0.994796, 213, 41, 228, 104
-0.9948, 241, 349, 368, 380
-0.994819, 41, 233, 56, 296
-0.994822, 9, 185, 24, 248
-0.99483, 51, 1, 66, 64
-0.994832, 33, 21, 160, 52
-0.994835, 129, 181, 256, 212
-0.994842, 299, 57, 314, 120
-0.994857, 285, 353, 300, 416
-0.994861, 123, 393, 138, 456
-0.994868, 23, 145, 38, 208
-0.994869, 273, 161, 288, 224
-0.994877, 263, 41, 278, 104
-0.994884, 241, 153, 368, 184
-0.994897, 137, 257, 168, 500
-0.994898, 291, 345, 306, 408
-0.994916, 69, 89, 84, 152
-0.994924, 161, 233, 176, 296
-0.99493, 57, 1, 72, 64
-0.99494, 341, 201, 356, 264
-0.99494, 349, 217, 364, 280
-0.994958, 261, 65, 276, 128
-0.994958, 115, 217, 130, 280
-0.994972, 1, 145, 375, 208
-0.994986, 253, 161, 268, 224
-0.99499, 65, 193, 192, 224
-0.994994, 321, 289, 336, 352
-0.995037, 185, 233, 200, 296
-0.995043, 305, 217, 320, 280
-0.995052, 271, 73, 286, 136
-0.99506, 87, 57, 102, 120
-0.995061, 217, 33, 248, 288
-0.995068, 305, 305, 320, 368
-0.995069, 277, 105, 292, 168
-0.995072, 281, 145, 296, 208
-0.995073, 81, 57, 208, 88
-0.995075, 337, 57, 352, 120
-0.995094, 149, 257, 180, 500
-0.995101, 209, 297, 336, 328
-0.99514, 237, 201, 252, 264
-0.995144, 189, 1, 220, 256
-0.995147, 173, 257, 204, 500
-0.995147, 193, 193, 208, 256
-0.995148, 113, 253, 240, 284
-0.995151, 265, 89, 280, 152
-0.995151, 241, 261, 368, 292
-0.995153, 225, 161, 256, 416
-0.995155, 77, 305, 92, 368
-0.995157, 177, 181, 304, 212
-0.995166, 177, 237, 304, 268
-0.995167, 113, 21, 240, 52
-0.995173, 297, 161, 312, 224
-0.995183, 113, 229, 240, 260
-0.995184, 237, 65, 252, 128
-0.995191, 241, 61, 368, 92
-0.995207, 307, 337, 322, 400
-0.995214, 249, 97, 264, 160
-0.995222, 211, 225, 226, 288
-0.995229, 261, 153, 276, 216
-0.995231, 241, 385, 368, 448
-0.995265, 25, 201, 40, 264
-0.995267, 37, 1, 68, 256
-0.995269, 331, 49, 346, 112
-0.995272, 1, 169, 375, 232
-0.99528, 215, 1, 230, 64
-0.995286, 327, 329, 342, 392
-0.995288, 241, 209, 368, 240
-0.99529, 185, 257, 216, 500
-0.995307, 65, 301, 192, 332
-0.995323, 1, 129, 256, 192
-0.995335, 241, 165, 368, 196
-0.99534, 113, 37, 240, 68
-0.995344, 177, 385, 304, 416
-0.99536, 273, 161, 304, 416
-0.995364, 33, 345, 160, 376
-0.995367, 65, 285, 192, 316
-0.995412, 121, 257, 152, 500
-0.995512, 65, 437, 192, 468
-0.995513, 1, 153, 128, 184
-0.995515, 145, 417, 272, 448
-0.995516, 145, 405, 272, 436
-0.995521, 209, 225, 240, 480
-0.995527, 241, 13, 368, 44
-0.995557, 225, 97, 352, 128
-0.995586, 285, 161, 316, 416
-0.995596, 61, 1, 92, 256
-0.995615, 241, 49, 368, 80
-0.995723, 53, 97, 84, 352
-0.995765, 209, 321, 336, 352
-0.995772, 65, 333, 192, 364
-0.99578, 241, 249, 368, 280
-0.995792, 201, 1, 232, 256
-0.995804, 193, 285, 320, 316
-0.995828, 193, 85, 320, 116
-0.995839, 209, 1, 336, 32
-0.995846, 301, 193, 332, 448
-0.995889, 241, 141, 368, 172
-0.995913, 177, 1, 208, 256
-0.995935, 145, 153, 272, 184
-0.995975, 33, 33, 160, 64
-0.996, 145, 205, 272, 236
-0.996027, 109, 161, 140, 416
-0.996088, 293, 33, 324, 288
-0.996096, 197, 257, 228, 500
-0.996113, 197, 161, 228, 416
-0.996122, 193, 401, 320, 432
-0.996126, 81, 349, 208, 380
-0.996127, 33, 129, 64, 384
-0.996132, 321, 225, 352, 480
-0.99616, 177, 117, 304, 148
-0.996167, 221, 257, 252, 500
-0.996174, 241, 73, 256, 104
-0.996182, 73, 1, 104, 256
-0.996212, 1, 81, 128, 112
-0.99622, 129, 281, 256, 312
-0.996222, 227, 69, 242, 100
-0.996251, 177, 161, 208, 416
-0.996262, 49, 1, 80, 256
-0.996273, 49, 81, 176, 112
-0.996274, 17, 429, 144, 460
-0.996281, 335, 345, 350, 376
-0.996296, 129, 165, 256, 196
-0.996358, 345, 341, 360, 372
-0.996391, 241, 373, 368, 404
-0.996417, 1, 241, 375, 304
-0.996419, 29, 225, 60, 480
-0.996438, 325, 97, 356, 352
-0.996439, 161, 329, 288, 360
-0.996451, 177, 129, 304, 160
-0.996471, 221, 69, 236, 100
-0.996528, 241, 37, 368, 68
-0.996535, 129, 341, 256, 372
-0.99654, 327, 349, 342, 380
-0.996546, 133, 161, 164, 416
-0.996549, 5, 65, 36, 320
-0.996557, 317, 353, 332, 384
-0.996574, 235, 73, 250, 104
-0.996587, 81, 393, 208, 424
-0.996589, 213, 129, 244, 384
-0.996645, 33, 97, 160, 128
-0.996683, 321, 1, 352, 256
-0.996692, 241, 285, 368, 316
-0.996694, 97, 257, 128, 500
-0.996701, 225, 389, 352, 420
-0.996703, 25, 33, 56, 288
-0.996706, 249, 257, 280, 500
-0.996765, 145, 141, 272, 172
-0.996768, 305, 353, 320, 384
-0.996775, 53, 193, 84, 448
-0.996777, 241, 25, 368, 56
-0.996777, 17, 45, 144, 76
-0.996795, 269, 257, 300, 500
-0.996814, 249, 73, 264, 104
-0.996824, 73, 257, 104, 500
-0.996853, 17, 329, 144, 360
-0.996867, 1, 113, 375, 176
-0.996868, 295, 361, 310, 392
-0.9969, 65, 313, 192, 344
-0.996902, 245, 165, 260, 196
-0.996911, 33, 137, 160, 168
-0.996925, 333, 1, 364, 256
-0.996941, 1, 81, 375, 144
-0.996946, 351, 345, 366, 376
-0.996948, 105, 1, 136, 256
-0.99695, 33, 121, 160, 152
-0.996957, 33, 417, 160, 448
-0.996964, 255, 145, 270, 176
-0.996987, 247, 85, 262, 116
-0.996987, 299, 305, 314, 336
-0.99699, 295, 169, 310, 200
-0.997005, 259, 93, 274, 124
-0.997042, 313, 297, 328, 328
-0.997043, 321, 293, 336, 324
-0.997053, 49, 361, 176, 392
-0.997063, 33, 109, 160, 140
-0.997073, 177, 97, 304, 128
-0.997074, 293, 157, 308, 188
-0.997113, 215, 69, 230, 100
-0.997122, 271, 105, 286, 136
-0.99713, 131, 181, 146, 212
-0.997135, 165, 65, 196, 320
-0.997138, 237, 161, 252, 192
-0.997157, 237, 257, 268, 500
-0.997165, 125, 1, 156, 256
-0.997174, 143, 213, 158, 244
-0.997182, 263, 181, 278, 212
-0.997201, 149, 209, 164, 240
-0.997205, 343, 353, 358, 384
-0.99722, 281, 257, 312, 500
-0.997235, 323, 105, 338, 136
-0.997235, 211, 153, 226, 184
-0.997245, 301, 185, 316, 216
-0.99725, 259, 165, 274, 196
-0.997276, 309, 1, 340, 256
-0.99728, 333, 357, 348, 388
-0.997288, 311, 353, 326, 384
-0.997298, 173, 261, 188, 292
-0.997314, 209, 65, 224, 96
-0.997315, 33, 397, 160, 428
-0.997321, 99, 429, 114, 460
-0.997322, 21, 129, 52, 384
-0.997324, 283, 125, 298, 156
-0.99733, 137, 33, 168, 288
-0.997332, 307, 305, 322, 336
-0.997334, 193, 177, 208, 208
-0.997369, 65, 165, 192, 196
-0.997392, 253, 129, 268, 160
-0.997409, 307, 365, 322, 396
-0.997413, 333, 193, 364, 448
-0.997415, 277, 265, 292, 296
-0.997417, 253, 157, 268, 188
-0.997423, 197, 69, 212, 100
-0.997428, 231, 201, 246, 232
-0.99743, 41, 237, 56, 268
-0.997434, 129, 429, 256, 460
-0.99744, 85, 1, 116, 256
-0.997445, 335, 93, 350, 124
-0.997446, 221, 149, 236, 180
-0.997451, 275, 297, 290, 328
-0.997453, 81, 381, 208, 412
-0.997454, 239, 177, 254, 208
-0.997455, 305, 197, 320, 228
-0.997458, 287, 149, 302, 180
-0.997459, 341, 97, 372, 352
-0.99747, 317, 85, 332, 116
-0.997473, 277, 113, 292, 144
-0.997476, 299, 269, 314, 300
-0.997488, 305, 97, 336, 352
-0.997497, 257, 309, 272, 340
-0.997497, 63, 57, 78, 88
-0.997513, 259, 37, 274, 68
-0.997515, 327, 81, 342, 112
-0.997517, 203, 73, 218, 104
-0.99752, 263, 137, 278, 168
-0.997522, 7, 201, 22, 232
-0.997523, 3, 221, 18, 252
-0.997523, 265, 201, 280, 232
-0.997526, 301, 365, 316, 396
-0.997532, 39, 165, 54, 196
-0.997542, 241, 85, 256, 116
-0.997542, 229, 81, 244, 112
-0.997542, 267, 93, 282, 124
-0.997548, 287, 137, 302, 168
-0.997552, 289, 361, 304, 392
-0.997562, 83, 77, 98, 108
-0.997576, 281, 365, 296, 396
-0.997582, 265, 149, 280, 180
-0.997588, 245, 137, 260, 168
-0.997591, 69, 53, 84, 84
-0.997601, 149, 221, 164, 252
-0.997609, 167, 241, 182, 272
-0.997611, 173, 229, 188, 260
-0.99763, 345, 233, 360, 264
-0.99763, 129, 381, 256, 412
-0.997646, 155, 213, 170, 244
-0.997667, 319, 117, 334, 148
-0.997667, 261, 113, 276, 144
-0.997669, 65, 45, 192, 76
-0.997671, 113, 293, 240, 324
-0.997672, 193, 193, 208, 224
-0.997683, 191, 65, 206, 96
-0.997685, 317, 97, 332, 128
-0.997695, 211, 165, 226, 196
-0.997698, 323, 69, 338, 100
-0.997702, 225, 161, 240, 192
-0.997704, 253, 89, 268, 120
-0.997704, 293, 301, 308, 332
-0.997719, 75, 65, 90, 96
-0.997721, 323, 365, 338, 396
-0.997737, 311, 193, 326, 224
-0.997749, 347, 197, 362, 228
-0.997757, 83, 325, 98, 356
-0.997765, 179, 253, 194, 284
-0.997767, 13, 177, 28, 208
-0.997769, 339, 177, 354, 208
-0.99777, 255, 73, 270, 104
-0.997771, 275, 365, 290, 396
-0.997774, 149, 161, 180, 416
-0.997775, 269, 161, 284, 192
-0.997777, 179, 233, 194, 264
-0.997779, 225, 217, 240, 248
-0.997784, 161, 405, 176, 436
-0.997789, 307, 281, 322, 312
-0.997796, 309, 217, 324, 248
-0.997805, 123, 301, 138, 332
-0.997812, 357, 345, 372, 376
-0.997828, 77, 85, 92, 116
-0.997831, 219, 161, 234, 192
-0.997835, 199, 185, 214, 216
-0.99784, 87, 93, 102, 124
-0.997842, 55, 25, 70, 56
-0.997848, 231, 189, 246, 220
-0.997849, 261, 125, 276, 156
-0.997851, 73, 97, 104, 352
-0.997855, 269, 365, 284, 396
-0.997863, 297, 77, 312, 108
-0.997864, 149, 33, 180, 288
-0.997868, 1, 233, 16, 264
-0.997868, 187, 253, 202, 284
-0.997869, 51, 9, 66, 40
-0.99787, 151, 413, 166, 444
-0.99787, 235, 85, 250, 116
-0.997871, 167, 261, 182, 292
-0.997872, 89, 73, 104, 104
-0.997873, 9, 189, 24, 220
-0.997877, 115, 245, 130, 276
-0.997878, 343, 105, 358, 136
-0.998057, 85, 257, 116, 500
-0.998179, 81, 89, 208, 152
-0.998189, 209, 321, 224, 448
-0.998191, 275, 209, 290, 336
-0.998222, 203, 321, 218, 448
-0.99825, 41, 225, 72, 480
-0.998267, 243, 225, 258, 352
-0.998323, 345, 193, 375, 448
-0.998337, 249, 305, 264, 432
-0.998337, 345, 1, 375, 256
-0.998353, 215, 321, 230, 448
-0.998362, 125, 353, 140, 480
-0.998362, 265, 303, 328, 318
-0.998363, 169, 337, 184, 464
-0.998363, 277, 257, 292, 384
-0.998367, 297, 359, 360, 374
-0.998373, 281, 365, 344, 380
-0.998373, 197, 321, 212, 448
-0.998377, 313, 351, 375, 366
-0.998384, 163, 337, 178, 464
-0.998392, 273, 247, 336, 262
-0.998399, 25, 167, 88, 182
-0.998399, 113, 211, 176, 226
-0.998403, 273, 263, 336, 278
-0.998404, 273, 253, 336, 268
-0.998404, 225, 73, 288, 88
-0.998405, 301, 289, 316, 416
-0.998406, 105, 241, 168, 256
-0.998406, 225, 203, 288, 218
-0.998407, 249, 309, 312, 324
-0.998408, 235, 225, 250, 352
-0.998408, 235, 273, 250, 400
-0.99841, 265, 223, 328, 238
-0.998413, 129, 235, 192, 250
-0.998415, 177, 71, 240, 86
-0.998418, 273, 241, 336, 256
-0.998419, 249, 371, 312, 386
-0.998422, 281, 309, 344, 324
-0.998425, 105, 205, 168, 220
-0.998426, 313, 345, 375, 360
-0.998426, 243, 273, 258, 400
-0.998428, 297, 237, 360, 252
-0.998429, 121, 177, 136, 304
-0.99843, 257, 277, 320, 292
-0.998431, 271, 257, 286, 384
-0.998432, 281, 297, 344, 312
-0.998432, 41, 319, 104, 334
-0.998434, 41, 305, 104, 320
-0.998436, 265, 203, 328, 218
-0.998437, 97, 161, 128, 416
-0.998437, 269, 209, 284, 336
-0.998441, 169, 269, 232, 284
-0.998442, 225, 195, 288, 210
-0.998442, 119, 353, 134, 480
-0.998442, 185, 197, 248, 212
-0.998443, 129, 243, 192, 258
-0.998443, 225, 211, 288, 226
-0.998444, 73, 219, 136, 234
-0.998444, 305, 191, 368, 206
-0.998444, 293, 289, 308, 416
-0.998446, 105, 231, 168, 246
-0.998447, 41, 299, 104, 314
-0.998449, 105, 217, 168, 232
-0.998449, 73, 311, 136, 326
-0.99845, 73, 213, 136, 228
-0.998453, 305, 197, 368, 212
-0.998454, 297, 181, 360, 196
-0.998455, 105, 249, 168, 264
-0.998457, 65, 241, 128, 256
-0.998457, 273, 235, 336, 250
-0.998457, 225, 223, 288, 238
-0.998458, 33, 71, 96, 86
-0.998459, 249, 315, 312, 330
-0.99846, 233, 163, 296, 178
-0.998464, 265, 271, 328, 286
-0.998464, 297, 253, 360, 268
-0.998464, 73, 207, 136, 222
-0.998465, 249, 133, 312, 148
-0.998466, 225, 139, 288, 154
-0.998467, 41, 313, 104, 328
-0.998467, 289, 353, 352, 368
-0.998468, 263, 97, 278, 224
-0.998468, 65, 255, 128, 270
-0.998468, 257, 365, 320, 380
-0.998469, 273, 359, 336, 374
-0.99847, 65, 247, 128, 262
-0.998471, 185, 187, 248, 202
-0.998473, 53, 143, 84, 158
-0.998473, 197, 165, 228, 180
-0.998474, 89, 431, 152, 446
-0.998474, 189, 339, 220, 354
-0.998475, 25, 173, 88, 188
-0.998476, 229, 403, 260, 418
-0.998476, 65, 235, 128, 250
-0.998476, 297, 243, 360, 258
-0.998476, 309, 101, 340, 116
-0.998477, 301, 373, 332, 388
-0.998477, 25, 181, 88, 196
-0.998477, 53, 151, 84, 166
-0.998477, 133, 359, 164, 374
-0.998477, 277, 373, 308, 388
-0.998478, 273, 139, 304, 154
-0.998478, 241, 233, 304, 248
-0.998478, 57, 71, 120, 86
-0.998478, 245, 373, 276, 388
-0.998478, 105, 225, 168, 240
-0.998479, 233, 201, 264, 216
-0.998479, 201, 77, 232, 92
-0.998479, 289, 271, 352, 286
-0.998479, 53, 157, 84, 172
-0.99848, 105, 413, 168, 428
-0.99848, 33, 245, 96, 260
-0.998481, 313, 91, 375, 106
-0.998481, 265, 209, 328, 224
-0.998481, 313, 113, 375, 128
-0.998481, 297, 197, 328, 212
-0.998482, 57, 39, 88, 54
-0.998483, 33, 27, 64, 42
-0.998483, 297, 273, 328, 288
-0.998483, 161, 349, 192, 364
-0.998484, 257, 369, 288, 384
-0.998484, 289, 303, 352, 318
-0.998484, 73, 305, 136, 320
-0.998484, 217, 219, 248, 234
-0.998484, 73, 201, 136, 216
-0.998485, 193, 415, 224, 430
-0.998486, 289, 79, 352, 94
-0.998486, 249, 239, 312, 254
-0.998487, 265, 215, 328, 230
-0.998487, 33, 281, 96, 296
-0.998488, 329, 179, 360, 194
-0.998488, 265, 185, 328, 200
-0.998489, 165, 275, 196, 290
-0.998489, 65, 229, 128, 244
-0.99849, 305, 367, 368, 382
-0.998491, 277, 383, 308, 398
-0.998491, 41, 293, 104, 308
-0.998491, 269, 173, 300, 188
-0.998491, 225, 217, 288, 232
-0.998492, 249, 83, 312, 98
-0.998492, 109, 251, 140, 266
-0.998492, 233, 191, 264, 206
-0.998492, 273, 167, 304, 182
-0.998492, 157, 337, 172, 464
-0.998493, 33, 255, 96, 270
-0.998493, 233, 169, 296, 184
-0.998494, 313, 297, 344, 312
-0.998495, 113, 73, 176, 88
-0.998495, 225, 189, 288, 204
-0.998495, 33, 287, 96, 302
-0.998495, 193, 79, 256, 94
-0.998495, 249, 189, 280, 204
-0.998496, 33, 275, 96, 290
-0.998496, 297, 315, 328, 330
-0.998497, 325, 101, 356, 116
-0.998497, 133, 161, 148, 288
-0.998497, 249, 153, 312, 168
-0.998498, 249, 49, 312, 64
-0.998498, 225, 209, 256, 224
-0.998498, 329, 235, 360, 250
-0.998498, 77, 79, 108, 94
-0.998499, 33, 35, 96, 50
-0.998499, 1, 245, 64, 260
-0.9985, 141, 219, 172, 234
-0.9985, 33, 33, 64, 48
-0.9985, 33, 269, 96, 284
-0.9985, 5, 193, 36, 208
-0.998501, 125, 181, 156, 196
-0.998501, 41, 29, 104, 44
-0.998501, 313, 87, 344, 102
-0.998502, 265, 151, 296, 166
-0.998502, 261, 161, 292, 176
-0.998502, 33, 263, 96, 278
-0.998503, 257, 217, 288, 232
-0.998503, 175, 337, 190, 464
-0.998503, 13, 169, 44, 184
-0.998503, 265, 193, 328, 208
-0.998503, 257, 145, 288, 160
-0.998504, 249, 247, 312, 262
-0.998504, 217, 73, 248, 88
-0.998505, 25, 45, 88, 60
-0.998505, 249, 127, 312, 142
-0.998505, 255, 129, 270, 256
-0.998505, 113, 245, 144, 260
-0.998506, 193, 181, 224, 196
-0.998506, 209, 85, 272, 100
-0.998506, 289, 55, 352, 70
-0.998507, 313, 281, 344, 296
-0.998507, 305, 205, 368, 220
-0.998507, 33, 239, 96, 254
-0.998508, 233, 377, 296, 392
-0.998509, 329, 363, 360, 378
-0.998509, 113, 195, 176, 210
-0.998509, 9, 31, 72, 46
-0.998509, 85, 73, 116, 88
-0.998511, 261, 129, 292, 144
-0.998511, 109, 305, 124, 432
-0.998511, 249, 41, 312, 56
-0.998512, 273, 229, 336, 244
-0.998512, 229, 81, 244, 208
-0.998513, 297, 175, 360, 190
-0.998514, 257, 135, 288, 150
-0.998516, 297, 231, 360, 246
-0.998517, 65, 69, 96, 84
-0.998517, 293, 281, 324, 296
-0.998518, 289, 373, 352, 388
-0.998519, 73, 317, 136, 332
-0.998519, 341, 351, 372, 366
-0.998519, 97, 407, 160, 422
-0.99852, 249, 253, 312, 268
-0.99852, 281, 233, 312, 248
-0.99852, 233, 175, 264, 190
-0.99852, 249, 55, 312, 70
-0.998521, 253, 153, 284, 168
-0.998521, 209, 159, 240, 174
-0.998521, 305, 361, 336, 376
-0.998521, 287, 289, 302, 416
-0.998522, 153, 237, 184, 252
-0.998522, 41, 5, 104, 20
-0.998522, 329, 107, 360, 122
-0.998522, 129, 249, 192, 264
-0.998523, 113, 229, 144, 244
-0.998523, 297, 97, 360, 112
-0.998523, 9, 37, 72, 52
-0.998524, 273, 73, 336, 88
-0.998524, 89, 441, 152, 456
-0.998524, 177, 13, 240, 28
-0.998527, 269, 129, 284, 256
-0.998527, 33, 233, 96, 248
-0.998527, 229, 163, 260, 178
-0.998527, 217, 275, 280, 290
-0.998527, 191, 321, 206, 448
-0.998529, 221, 321, 236, 448
-0.99853, 241, 139, 272, 154
-0.99853, 321, 347, 352, 362
-0.998531, 269, 121, 300, 136
-0.998532, 293, 77, 324, 92
-0.998532, 301, 83, 332, 98
-0.998534, 345, 357, 375, 372
-0.998536, 281, 297, 312, 312
-0.998537, 337, 197, 368, 212
-0.998538, 205, 71, 236, 86
-0.998538, 113, 235, 144, 250
-0.99854, 285, 359, 316, 374
-0.998542, 121, 199, 152, 214
-0.998542, 213, 79, 244, 94
-0.998542, 241, 163, 272, 178
-0.998543, 257, 121, 288, 136
-0.998543, 253, 311, 284, 326
-0.998543, 285, 173, 316, 188
-0.998544, 235, 145, 250, 272
-0.998544, 273, 145, 304, 160
-0.998545, 249, 175, 280, 190
-0.998545, 47, 1, 62, 128
-0.998546, 229, 73, 260, 88
-0.998546, 281, 265, 312, 280
-0.998548, 197, 267, 228, 282
-0.998548, 277, 157, 308, 172
-0.998549, 265, 113, 296, 128
-0.998551, 289, 373, 320, 388
-0.998551, 221, 171, 252, 186
-0.998552, 301, 303, 332, 318
-0.998555, 131, 353, 146, 480
-0.998556, 297, 291, 328, 306
-0.998556, 121, 187, 152, 202
-0.998558, 281, 241, 312, 256
-0.99856, 29, 243, 60, 258
-0.998561, 33, 169, 64, 184
-0.998561, 257, 223, 288, 238
-0.998561, 237, 81, 252, 208
-0.998562, 229, 273, 244, 400
-0.998563, 249, 91, 280, 106
-0.998564, 213, 165, 244, 180
-0.998564, 269, 365, 300, 380
-0.998566, 261, 167, 292, 182
-0.998569, 9, 179, 40, 194
-0.998569, 141, 209, 172, 224
-0.998573, 309, 351, 340, 366
-0.998574, 253, 195, 284, 210
-0.998577, 225, 83, 256, 98
-0.998579, 253, 201, 284, 216
-0.99858, 229, 139, 260, 154
-0.99858, 73, 33, 88, 160
-0.998582, 243, 81, 258, 208
-0.998583, 233, 169, 264, 184
-0.998586, 103, 305, 118, 432
-0.998588, 115, 305, 130, 432
-0.998589, 337, 345, 368, 360
-0.998593, 151, 337, 166, 464
-0.998594, 285, 17, 300, 144
-0.998594, 255, 305, 270, 432
-0.998596, 255, 81, 270, 208
-0.998598, 253, 209, 284, 224
-0.998599, 277, 65, 292, 192
-0.998602, 321, 93, 352, 108
-0.998602, 293, 367, 324, 382
-0.998607, 229, 225, 244, 352
-0.998608, 219, 241, 234, 368
-0.998609, 281, 253, 312, 268
-0.99861, 237, 87, 268, 102
-0.998611, 301, 177, 316, 304
-0.998613, 279, 17, 294, 144
-0.998617, 341, 321, 356, 448
-0.998618, 113, 353, 128, 480
-0.998619, 267, 1, 282, 128
-0.998625, 297, 355, 328, 370
-0.998625, 185, 321, 200, 448
-0.998625, 253, 99, 284, 114
-0.998626, 121, 193, 152, 208
-0.998628, 321, 113, 352, 128
-0.99863, 133, 209, 148, 336
-0.99863, 281, 247, 312, 262
-0.998631, 281, 259, 312, 274
-0.998633, 293, 309, 324, 324
-0.998635, 329, 355, 360, 370
-0.998635, 265, 257, 280, 384
-0.998637, 307, 193, 322, 320
-0.99864, 249, 169, 280, 184
-0.998642, 297, 241, 312, 368
-0.998644, 247, 353, 262, 480
-0.998645, 31, 161, 46, 288
-0.998645, 257, 105, 288, 120
-0.998649, 269, 303, 300, 318
-0.998661, 249, 65, 264, 192
-0.998661, 305, 367, 336, 382
-0.998661, 137, 337, 152, 464
-0.998662, 97, 305, 112, 432
-0.998665, 201, 369, 216, 496
-0.998669, 121, 289, 136, 416
-0.998678, 227, 321, 242, 448
-0.998685, 287, 65, 302, 192
-0.998685, 273, 1, 288, 128
-0.998685, 249, 225, 264, 352
-0.998687, 317, 361, 348, 376
-0.998694, 295, 161, 310, 288
-0.998696, 5, 161, 36, 416
-0.998698, 17, 225, 48, 480
-0.998698, 321, 49, 336, 176
-0.9987, 269, 49, 284, 176
-0.998702, 259, 33, 274, 160
-0.998706, 209, 369, 224, 496
-0.998714, 253, 353, 268, 480
-0.998717, 213, 241, 228, 368
-0.99872, 263, 177, 278, 304
-0.99872, 127, 225, 142, 352
-0.998722, 145, 337, 160, 464
-0.998724, 307, 321, 322, 448
-0.998725, 135, 273, 150, 400
-0.998729, 53, 33, 68, 160
-0.99873, 307, 273, 322, 400
-0.998734, 143, 273, 158, 400
-0.998742, 141, 193, 156, 320
-0.998745, 215, 369, 230, 496
-0.998749, 193, 177, 208, 304
-0.998754, 67, 65, 82, 192
-0.998756, 293, 33, 308, 160
-0.998763, 229, 129, 244, 256
-0.998775, 241, 129, 256, 256
-0.998779, 255, 257, 270, 384
-0.998781, 337, 1, 352, 128
-0.998793, 75, 273, 90, 400
-0.998798, 127, 161, 142, 288
-0.998799, 47, 65, 62, 192
-0.998811, 115, 225, 130, 352
-0.998818, 121, 241, 136, 368
-0.998818, 313, 289, 328, 416
-0.998818, 41, 225, 56, 352
-0.998821, 195, 369, 210, 496
-0.99883, 211, 177, 226, 304
-0.998832, 91, 305, 106, 432
-0.998838, 59, 49, 74, 176
-0.998839, 283, 113, 298, 240
-0.998842, 223, 81, 238, 208
-0.998844, 241, 321, 256, 448
-0.998844, 261, 305, 276, 432
-0.998849, 75, 113, 90, 240
-0.998851, 199, 257, 214, 384
-0.998852, 331, 65, 346, 192
-0.998853, 151, 193, 166, 320
-0.99886, 37, 161, 52, 288
-0.99886, 5, 193, 20, 320
-0.99886, 295, 337, 310, 464
-0.998861, 61, 1, 76, 128
-0.998863, 171, 209, 186, 336
-0.998865, 85, 305, 100, 432
-0.998868, 235, 321, 250, 448
-0.998869, 249, 145, 264, 272
-0.99887, 149, 273, 164, 400
-0.99887, 275, 161, 290, 288
-0.998873, 127, 289, 142, 416
-0.998874, 199, 177, 214, 304
-0.99888, 283, 225, 298, 352
-0.998889, 205, 257, 220, 384
-0.99889, 181, 257, 196, 384
-0.998897, 347, 321, 362, 448
-0.998902, 189, 241, 204, 368
-0.998913, 221, 369, 236, 496
-0.998915, 79, 1, 94, 128
-0.99964, 21, 159, 36, 174
-0.999641, 143, 205, 158, 220
-0.999641, 97, 83, 112, 98
-0.999642, 263, 279, 278, 294
-0.999642, 3, 225, 18, 240
-0.999642, 293, 305, 308, 320
-0.999642, 213, 77, 228, 92
-0.999643, 259, 173, 274, 188
-0.999644, 323, 79, 338, 94
-0.999644, 115, 253, 130, 268
-0.999644, 211, 161, 226, 176
-0.999644, 213, 223, 228, 238
-0.999644, 293, 361, 308, 376
-0.999645, 269, 163, 284, 178
-0.999646, 7, 203, 22, 218
-0.999646, 293, 367, 308, 382
-0.999646, 305, 183, 320, 198
-0.999647, 231, 201, 246, 216
-0.999647, 265, 149, 280, 164
-0.999647, 229, 211, 244, 226
-0.999647, 237, 177, 252, 192
-0.999648, 249, 97, 264, 112
-0.999649, 305, 209, 320, 224
-0.99965, 91, 325, 106, 340
-0.99965, 291, 157, 306, 172
-0.999651, 193, 193, 208, 208
-0.999651, 269, 113, 284, 128
-0.999651, 313, 353, 328, 368
-0.999652, 267, 157, 282, 172
-0.999654, 247, 287, 262, 302
-0.999655, 143, 221, 158, 236
-0.999655, 241, 139, 256, 154
-0.999656, 243, 175, 258, 190
-0.999658, 305, 281, 320, 296
-0.999658, 235, 139, 250, 154
-0.999658, 287, 145, 302, 160
-0.99966, 255, 135, 270, 150
-0.999662, 157, 213, 172, 228
-0.999662, 283, 135, 298, 150
-0.999663, 353, 341, 368, 356
-0.999664, 211, 155, 226, 170
-0.999664, 213, 171, 228, 186
-0.999665, 237, 73, 252, 88
-0.999666, 127, 187, 142, 202
-0.999666, 221, 79, 236, 94
-0.999667, 315, 87, 330, 102
-0.999667, 213, 71, 228, 86
-0.999668, 317, 93, 332, 108
-0.999669, 297, 185, 312, 200
-0.99967, 323, 349, 338, 364
-0.999673, 299, 191, 314, 206
-0.999673, 315, 301, 330, 316
-0.999673, 347, 341, 362, 356
-0.999674, 287, 375, 302, 390
-0.999674, 299, 275, 314, 290
-0.999675, 261, 113, 276, 128
-0.999676, 301, 373, 316, 388
-0.999678, 351, 347, 366, 362
-0.999678, 283, 129, 298, 144
-0.999678, 261, 119, 276, 134
-0.999681, 247, 163, 262, 178
-0.999681, 295, 179, 310, 194
-0.999685, 257, 153, 272, 168
-0.999685, 149, 221, 164, 236
-0.999685, 329, 347, 344, 362
-0.99969, 257, 311, 272, 326
-0.99969, 361, 353, 375, 368
-0.999691, 303, 357, 318, 372
-0.999691, 313, 201, 328, 216
-0.999694, 259, 103, 274, 118
-0.999694, 301, 197, 316, 212
-0.999694, 225, 71, 240, 86
-0.999697, 265, 197, 280, 212
-0.999697, 263, 189, 278, 204
-0.999699, 227, 81, 242, 96
-0.999699, 175, 267, 190, 282
-0.999699, 255, 143, 270, 158
-0.999699, 249, 169, 264, 184
-0.999699, 335, 345, 350, 360
-0.999699, 341, 343, 356, 358
-0.9997, 193, 181, 208, 196
-0.9997, 275, 113, 290, 128
-0.999702, 261, 181, 276, 196
-0.999702, 255, 159, 270, 174
-0.999703, 41, 241, 56, 256
-0.999704, 309, 189, 324, 204
-0.999705, 273, 107, 288, 122
-0.999705, 355, 355, 370, 370
-0.999705, 151, 209, 166, 224
-0.999706, 321, 103, 336, 118
-0.999707, 143, 211, 158, 226
-0.999709, 259, 167, 274, 182
-0.999714, 233, 83, 248, 98
-0.999717, 39, 167, 54, 182
-0.999717, 267, 103, 282, 118
-0.999718, 321, 363, 336, 378
-0.99972, 323, 113, 338, 128
-0.99972, 231, 73, 246, 88
-0.999721, 267, 97, 282, 112
-0.999722, 277, 267, 292, 282
-0.999722, 329, 107, 344, 122
-0.999725, 345, 349, 360, 364
-0.999727, 219, 71, 234, 86
-0.999728, 249, 89, 264, 104
-0.99973, 299, 367, 314, 382
-0.99973, 339, 359, 354, 374
-0.99973, 281, 123, 296, 138
-0.999731, 329, 363, 344, 378
-0.999734, 305, 367, 320, 382
-0.999739, 265, 205, 280, 220
-0.99974, 347, 355, 362, 370
-0.999741, 239, 85, 254, 100
-0.999741, 315, 361, 330, 376
-0.999742, 311, 195, 326, 210
-0.999744, 243, 169, 258, 184
-0.999744, 299, 311, 314, 326
-0.999744, 133, 183, 148, 198
-0.999746, 343, 235, 358, 250
-0.999748, 293, 171, 308, 186
-0.99975, 293, 373, 308, 388
-0.999754, 149, 215, 164, 230
-0.999755, 319, 119, 334, 134
-0.999755, 237, 169, 252, 184
-0.999755, 323, 357, 338, 372
-0.999756, 335, 353, 350, 368
-0.999756, 321, 295, 336, 310
-0.999756, 311, 367, 326, 382
-0.999766, 329, 355, 344, 370
-0.999779, 259, 93, 274, 108
-0.999784, 275, 301, 290, 316
-0.99993, 85, 161, 116, 416
-0.999936, 1, 433, 375, 496
-0.999986, 177, 417, 304, 480
-1.00069, 97, 113, 160, 240
-1.00114, 129, 425, 375, 488
-1.00149, 1, 257, 32, 500
-1.00262, 241, 409, 368, 472
-1.00321, 225, 433, 352, 496
-1.00338, 1, 321, 64, 448
-1.01478, 9, 369, 72, 496
