1978
-0.40761, 1, 1, 500, 375
-0.42546, 257, 1, 500, 375
-0.426048, 1, 129, 500, 375
-0.454743, 1, 1, 500, 256
-0.474334, 33, 1, 288, 375
-0.603566, 257, 129, 500, 375
-0.639086, 129, 1, 384, 375
-0.650949, 97, 129, 352, 375
-0.661485, 33, 33, 288, 288
-0.725234, 257, 33, 500, 288
-0.807541, 1, 129, 256, 375
-0.821215, 129, 1, 384, 256
-0.861878, 49, 1, 176, 375
-0.868177, 1, 241, 500, 368
-0.869009, 1, 161, 500, 288
-0.872987, 337, 1, 464, 256
-0.873636, 369, 129, 496, 375
-0.874589, 145, 129, 272, 375
-0.875185, 1, 1, 128, 375
-0.879216, 369, 1, 496, 375
-0.880667, 17, 1, 144, 256
-0.882688, 225, 97, 352, 352
-0.885036, 33, 241, 288, 368
-0.885504, 129, 1, 256, 375
-0.888304, 225, 1, 352, 375
-0.893817, 1, 129, 128, 375
-0.896977, 1, 113, 500, 240
-0.89705, 257, 241, 500, 368
-0.900847, 305, 1, 432, 375
-0.90222, 129, 241, 384, 368
-0.90567, 65, 129, 192, 375
-0.909353, 65, 1, 192, 256
-0.909409, 225, 241, 352, 368
-0.909684, 321, 129, 448, 375
-0.911082, 65, 241, 192, 368
-0.913921, 225, 241, 288, 368
-0.915502, 257, 49, 500, 176
-0.917768, 1, 241, 64, 368
-0.91972, 177, 1, 304, 375
-0.920016, 257, 161, 500, 288
-0.922874, 73, 225, 136, 352
-0.926349, 177, 1, 304, 256
-0.92703, 1, 17, 500, 144
-0.92834, 1, 65, 500, 192
-0.928484, 49, 241, 112, 368
-0.928759, 113, 241, 240, 368
-0.929838, 129, 1, 256, 256
-0.930378, 129, 193, 384, 320
-0.930383, 105, 241, 168, 368
-0.931084, 17, 241, 144, 368
-0.931675, 25, 241, 88, 368
-0.931832, 177, 241, 304, 368
-0.932376, 257, 113, 500, 240
-0.934652, 273, 241, 336, 368
-0.935771, 273, 97, 400, 352
-0.93583, 1, 1, 256, 128
-0.936252, 353, 33, 480, 160
-0.937265, 129, 241, 192, 368
-0.937705, 289, 297, 352, 360
-0.937897, 377, 33, 440, 160
-0.937974, 297, 241, 360, 368
-0.93818, 1, 193, 128, 320
-0.939026, 49, 265, 112, 328
-0.93907, 201, 241, 264, 368
-0.939888, 33, 193, 288, 320
-0.939969, 225, 257, 288, 320
-0.940132, 97, 1, 352, 128
-0.940779, 49, 289, 112, 352
-0.941181, 9, 193, 72, 320
-0.941771, 73, 249, 136, 312
-0.941853, 249, 265, 312, 328
-0.941893, 417, 49, 480, 176
-0.941933, 321, 113, 448, 240
-0.942058, 401, 1, 464, 128
-0.942176, 225, 1, 352, 256
-0.942832, 289, 241, 416, 368
-0.943092, 281, 265, 344, 328
-0.943296, 289, 1, 416, 256
-0.944268, 249, 241, 312, 368
-0.944774, 129, 273, 192, 336
-0.945232, 25, 25, 88, 88
-0.945267, 145, 193, 272, 320
-0.945582, 401, 57, 464, 120
-0.946444, 369, 241, 496, 368
-0.946911, 417, 177, 480, 304
-0.946933, 257, 1, 500, 128
-0.947565, 329, 313, 392, 375
-0.947705, 105, 297, 168, 360
-0.948261, 73, 273, 136, 336
-0.948573, 113, 249, 176, 312
-0.94908, 1, 257, 64, 320
-0.949118, 225, 177, 352, 304
-0.949143, 145, 297, 208, 360
-0.949197, 1, 97, 64, 224
-0.949671, 25, 265, 88, 328
-0.949911, 369, 177, 496, 304
-0.949948, 49, 193, 112, 320
-0.951338, 1, 1, 64, 128
-0.951634, 409, 97, 472, 224
-0.951656, 425, 193, 488, 256
-0.951683, 105, 273, 168, 336
-0.951981, 17, 305, 80, 368
-0.952318, 161, 49, 416, 176
-0.952344, 81, 193, 208, 320
-0.952477, 33, 81, 288, 208
-0.952577, 177, 241, 240, 368
-0.952591, 201, 161, 264, 288
-0.953118, 49, 241, 112, 304
-0.953174, 249, 289, 312, 352
-0.953328, 41, 1, 104, 128
-0.953424, 1, 281, 64, 344
-0.953462, 81, 313, 144, 375
-0.953762, 321, 241, 384, 368
-0.954088, 273, 145, 336, 272
-0.95439, 377, 81, 440, 144
-0.954604, 273, 161, 336, 224
-0.955038, 25, 233, 88, 296
-0.955402, 105, 193, 168, 320
-0.955763, 425, 225, 488, 352
-0.95578, 1, 1, 64, 64
-0.955787, 33, 129, 288, 256
-0.956072, 129, 145, 384, 272
-0.956097, 17, 1, 144, 128
-0.95613, 249, 193, 312, 320
-0.956206, 265, 1, 328, 128
-0.956211, 249, 313, 312, 375
-0.956522, 1, 137, 64, 200
-0.956722, 201, 97, 264, 224
-0.956803, 177, 1, 304, 128
-0.956897, 233, 153, 296, 216
-0.956918, 17, 145, 80, 272
-0.957874, 17, 49, 80, 112
-0.958267, 169, 313, 232, 375
-0.958305, 57, 313, 120, 375
-0.95832, 169, 17, 232, 144
-0.958646, 209, 297, 272, 360
-0.958665, 273, 177, 400, 304
-0.958705, 153, 241, 216, 368
-0.959008, 249, 241, 312, 304
-0.959082, 229, 241, 260, 368
-0.959458, 1, 49, 128, 176
-0.959579, 313, 289, 376, 352
-0.959855, 1, 145, 128, 272
-0.959885, 305, 161, 368, 288
-0.959964, 313, 233, 376, 296
-0.960646, 137, 1, 200, 128
-0.960795, 201, 161, 264, 224
-0.961011, 1, 225, 64, 288
-0.961049, 297, 185, 360, 248
-0.961243, 1, 49, 64, 176
-0.961527, 225, 129, 352, 256
-0.961724, 321, 161, 448, 288
-0.961733, 377, 81, 440, 208
-0.96229, 225, 17, 288, 144
-0.962374, 177, 273, 240, 336
-0.962461, 369, 81, 496, 208
-0.962807, 137, 249, 200, 312
-0.962873, 433, 73, 496, 136
-0.963027, 153, 273, 216, 336
-0.963149, 33, 265, 160, 328
-0.963259, 385, 305, 448, 368
-0.963564, 273, 193, 336, 320
-0.963774, 129, 273, 256, 336
-0.963843, 129, 145, 256, 272
-0.963872, 377, 241, 440, 368
-0.964026, 9, 161, 72, 224
-0.96409, 209, 257, 336, 320
-0.964207, 225, 297, 352, 360
-0.964231, 233, 113, 296, 240
-0.964242, 369, 49, 432, 112
-0.96435, 81, 249, 208, 312
-0.964694, 309, 265, 340, 328
-0.964755, 305, 265, 368, 328
-0.964934, 401, 25, 464, 88
-0.964975, 277, 257, 308, 320
-0.965012, 25, 193, 88, 256
-0.965274, 81, 297, 208, 360
-0.965345, 265, 137, 328, 200
-0.965464, 33, 297, 160, 360
-0.965524, 353, 1, 416, 128
-0.965573, 305, 241, 336, 368
-0.965637, 417, 1, 480, 256
-0.965652, 225, 193, 288, 320
-0.965698, 97, 225, 128, 352
-0.965769, 425, 265, 488, 328
-0.965877, 113, 225, 176, 288
-0.965994, 317, 297, 348, 360
-0.965998, 33, 25, 64, 88
-0.966314, 129, 97, 384, 224
-0.966334, 353, 313, 416, 375
-0.966345, 77, 225, 108, 352
-0.966351, 297, 161, 360, 224
-0.966422, 1, 193, 64, 256
-0.966548, 49, 9, 112, 72
-0.966634, 1, 113, 64, 176
-0.966761, 97, 1, 224, 128
-0.966765, 433, 313, 496, 375
-0.966847, 33, 241, 160, 304
-0.966851, 101, 281, 132, 344
-0.967191, 237, 257, 268, 320
-0.967269, 417, 289, 480, 352
-0.967365, 61, 265, 92, 328
-0.967438, 461, 193, 492, 256
-0.967666, 61, 241, 92, 368
-0.967695, 337, 313, 368, 375
-0.968057, 85, 305, 116, 368
-0.968061, 201, 265, 264, 328
-0.968117, 257, 49, 384, 176
-0.968149, 241, 241, 272, 368
-0.968321, 41, 57, 104, 120
-0.968389, 433, 217, 496, 280
-0.968482, 249, 177, 312, 240
-0.968516, 281, 241, 344, 304
-0.968518, 361, 25, 424, 88
-0.968555, 421, 33, 452, 160
-0.968572, 273, 97, 400, 224
-0.968573, 297, 265, 328, 328
-0.968674, 145, 241, 176, 368
-0.968706, 149, 257, 180, 320
-0.96877, 157, 297, 188, 360
-0.968771, 305, 81, 368, 208
-0.968815, 33, 49, 96, 176
-0.96882, 257, 257, 288, 320
-0.968852, 257, 241, 288, 368
-0.968988, 177, 177, 240, 304
-0.969002, 281, 65, 344, 192
-0.969005, 89, 265, 120, 328
-0.96909, 289, 313, 416, 375
-0.969156, 73, 225, 136, 288
-0.969254, 401, 241, 464, 368
-0.969285, 169, 65, 232, 128
-0.969339, 293, 241, 324, 368
-0.969387, 173, 305, 204, 368
-0.969412, 73, 1, 136, 128
-0.969472, 369, 129, 496, 256
-0.969603, 73, 9, 136, 72
-0.969607, 53, 17, 84, 80
-0.969664, 377, 129, 440, 256
-0.969772, 33, 153, 96, 216
-0.969872, 225, 65, 288, 192
-0.969898, 81, 273, 208, 336
-0.970073, 177, 49, 304, 176
-0.970075, 361, 281, 424, 344
-0.970259, 273, 185, 336, 248
-0.970281, 41, 305, 72, 368
-0.970287, 97, 241, 128, 304
-0.970316, 73, 241, 104, 304
-0.970348, 201, 1, 264, 128
-0.970397, 25, 177, 56, 304
-0.970445, 9, 73, 72, 136
-0.970458, 33, 97, 160, 224
-0.970507, 21, 161, 52, 224
-0.970524, 177, 249, 240, 312
-0.970556, 97, 17, 160, 80
-0.970617, 9, 225, 40, 352
-0.970687, 177, 177, 240, 240
-0.970693, 33, 1, 160, 64
-0.970737, 129, 193, 192, 320
-0.970883, 145, 297, 272, 360
-0.97093, 417, 105, 480, 168
-0.970949, 385, 265, 448, 328
-0.970959, 425, 1, 488, 128
-0.971027, 349, 305, 380, 368
-0.971041, 105, 313, 136, 375
-0.971076, 337, 297, 464, 360
-0.971344, 41, 97, 104, 224
-0.971544, 257, 265, 384, 328
-0.971547, 345, 209, 408, 336
-0.971563, 85, 241, 116, 304
-0.971603, 233, 121, 296, 184
-0.971605, 397, 49, 428, 112
-0.971626, 289, 289, 416, 352
-0.971666, 305, 1, 432, 128
-0.971734, 401, 193, 464, 256
-0.972022, 49, 217, 112, 280
-0.972024, 285, 297, 316, 360
-0.972024, 297, 305, 328, 368
-0.972034, 161, 273, 192, 336
-0.972127, 113, 1, 176, 128
-0.972138, 137, 273, 168, 336
-0.972139, 257, 97, 320, 224
-0.972141, 405, 33, 436, 160
-0.972188, 393, 177, 456, 304
-0.972247, 81, 145, 208, 272
-0.972367, 201, 241, 264, 304
-0.972403, 133, 241, 164, 368
-0.972503, 329, 257, 392, 320
-0.972543, 225, 129, 288, 375
-0.972635, 469, 241, 500, 368
-0.972649, 33, 129, 96, 192
-0.972708, 73, 177, 136, 304
-0.972727, 413, 57, 444, 120
-0.972827, 409, 169, 472, 232
-0.972972, 161, 249, 288, 312
-0.97305, 33, 225, 64, 352
-0.973113, 117, 265, 148, 328
-0.97318, 25, 233, 56, 296
-0.973195, 425, 97, 456, 224
-0.973256, 465, 193, 496, 320
-0.973282, 425, 49, 488, 112
-0.973362, 41, 145, 104, 272
-0.973363, 369, 1, 432, 64
-0.973424, 393, 1, 456, 64
-0.973584, 257, 281, 288, 344
-0.973712, 1, 249, 32, 312
-0.973848, 433, 1, 496, 64
-0.973863, 433, 33, 464, 160
-0.97391, 13, 177, 44, 304
-0.973948, 273, 241, 304, 368
-0.973989, 33, 17, 64, 144
-0.974097, 225, 297, 256, 360
-0.974155, 265, 41, 328, 104
-0.974195, 45, 265, 76, 328
-0.974198, 217, 81, 280, 144
-0.974235, 13, 1, 44, 64
-0.974269, 321, 185, 384, 248
-0.974317, 29, 185, 60, 248
-0.974443, 109, 241, 140, 304
-0.974446, 433, 57, 464, 120
-0.97452, 129, 241, 160, 304
-0.974531, 13, 313, 44, 375
-0.974549, 25, 1, 88, 64
-0.974636, 329, 289, 360, 352
-0.974661, 273, 129, 336, 375
-0.974661, 45, 241, 76, 304
-0.974711, 353, 57, 480, 120
-0.974728, 109, 225, 140, 352
-0.974819, 417, 1, 480, 375
-0.974909, 121, 49, 184, 112
-0.974909, 161, 241, 192, 368
-0.974915, 65, 49, 128, 112
-0.975008, 9, 185, 40, 248
-0.975102, 25, 33, 88, 288
-0.975119, 257, 1, 384, 128
-0.975164, 29, 273, 60, 336
-0.975376, 417, 97, 480, 352
-0.975436, 297, 129, 360, 375
-0.975506, 225, 257, 256, 320
-0.97551, 73, 305, 104, 368
-0.975511, 13, 249, 44, 312
-0.975518, 1, 217, 128, 280
-0.97554, 201, 185, 264, 248
-0.975678, 161, 81, 224, 208
-0.975696, 321, 241, 352, 368
-0.975714, 273, 281, 304, 344
-0.975715, 77, 265, 108, 328
-0.975743, 125, 305, 156, 368
-0.975764, 1, 1, 32, 64
-0.975859, 305, 265, 432, 328
-0.975914, 225, 33, 288, 96
-0.975922, 465, 249, 496, 312
-0.975926, 25, 129, 88, 375
-0.975966, 61, 289, 92, 352
-0.976041, 33, 161, 64, 224
-0.976063, 425, 241, 488, 304
-0.976073, 33, 129, 64, 256
-0.976109, 177, 113, 304, 240
-0.976151, 409, 217, 472, 280
-0.976222, 161, 1, 224, 64
-0.976232, 145, 25, 208, 88
-0.976249, 17, 25, 144, 88
-0.976263, 297, 1, 360, 128
-0.976267, 225, 161, 352, 224
-0.976383, 1, 25, 64, 88
-0.976384, 45, 241, 76, 368
-0.976399, 21, 129, 52, 256
-0.97646, 321, 177, 352, 240
-0.976705, 1, 49, 128, 112
-0.976741, 453, 177, 484, 304
-0.976759, 369, 265, 496, 328
-0.976798, 29, 313, 60, 375
-0.97682, 13, 1, 44, 128
-0.976829, 377, 177, 440, 240
-0.976853, 289, 241, 320, 304
-0.976868, 137, 297, 168, 360
-0.976937, 157, 41, 188, 104
-0.977028, 45, 41, 76, 104
-0.977033, 353, 233, 416, 296
-0.977047, 201, 129, 264, 375
-0.977092, 21, 33, 52, 96
-0.977216, 137, 89, 200, 152
-0.977236, 173, 281, 204, 344
-0.977281, 153, 17, 184, 80
-0.977281, 193, 97, 256, 160
-0.977295, 121, 241, 152, 368
-0.97734, 25, 209, 56, 272
-0.977425, 225, 177, 288, 240
-0.977429, 121, 17, 184, 80
-0.97744, 281, 153, 312, 216
-0.977518, 209, 137, 272, 200
-0.977536, 33, 49, 64, 112
-0.977588, 21, 137, 52, 200
-0.97764, 337, 177, 464, 240
-0.97767, 409, 313, 440, 375
-0.97769, 217, 57, 280, 120
-0.977693, 57, 241, 88, 304
-0.977707, 337, 265, 368, 328
-0.977729, 21, 225, 52, 352
-0.977877, 245, 289, 276, 352
-0.977989, 213, 241, 244, 368
-0.977999, 209, 233, 336, 296
-0.978034, 321, 1, 384, 128
-0.978037, 121, 129, 184, 375
-0.978086, 1, 273, 32, 336
-0.978103, 321, 161, 384, 224
-0.978121, 405, 241, 436, 368
-0.978151, 81, 1, 208, 64
-0.978173, 153, 225, 216, 288
-0.978241, 257, 185, 384, 248
-0.97829, 205, 169, 236, 232
-0.978296, 393, 1, 456, 256
-0.978325, 1, 153, 32, 216
-0.97835, 361, 105, 424, 168
-0.978362, 217, 97, 248, 224
-0.978433, 209, 217, 272, 280
-0.978443, 185, 313, 216, 375
-0.978721, 409, 129, 472, 192
-0.978742, 177, 1, 208, 128
-0.978784, 321, 81, 448, 144
-0.97882, 161, 25, 288, 88
-0.97887, 105, 1, 136, 64
-0.978894, 369, 81, 496, 144
-0.978972, 261, 161, 292, 224
-0.979011, 469, 273, 500, 336
-0.979014, 209, 9, 272, 72
-0.979064, 305, 49, 432, 112
-0.979142, 229, 169, 260, 232
-0.979163, 453, 73, 484, 136
-0.97917, 337, 289, 400, 352
-0.979187, 169, 41, 232, 104
-0.97922, 37, 1, 68, 64
-0.979255, 337, 113, 464, 176
-0.979276, 337, 241, 368, 368
-0.979329, 421, 193, 452, 256
-0.979561, 429, 97, 460, 160
-0.979563, 337, 153, 464, 216
-0.979596, 349, 241, 380, 368
-0.979776, 81, 225, 208, 288
-0.979834, 305, 161, 336, 224
-0.979841, 177, 129, 240, 375
-0.979904, 433, 169, 496, 232
-0.979916, 465, 225, 496, 288
-0.979949, 413, 25, 444, 88
-0.979987, 25, 105, 88, 168
-0.980128, 377, 153, 440, 216
-0.980217, 1, 129, 64, 375
-0.980315, 409, 81, 440, 144
-0.980344, 21, 65, 52, 128
-0.980393, 393, 241, 456, 304
-0.980492, 37, 217, 68, 280
-0.980562, 309, 177, 340, 304
-0.980672, 445, 17, 476, 144
-0.980738, 49, 1, 80, 128
-0.980747, 141, 233, 172, 296
-0.980841, 249, 97, 312, 352
-0.980878, 1, 145, 32, 272
-0.980883, 249, 217, 312, 280
-0.981055, 9, 129, 40, 192
-0.981061, 365, 313, 396, 375
-0.981067, 161, 153, 224, 216
-0.981085, 129, 9, 160, 72
-0.981112, 441, 193, 472, 256
-0.981174, 137, 81, 200, 208
-0.981427, 289, 137, 352, 200
-0.981511, 81, 97, 208, 224
-0.98156, 17, 81, 48, 208
-0.981577, 321, 97, 384, 160
-0.98158, 385, 305, 416, 368
-0.981587, 113, 1, 144, 128
-0.981623, 113, 289, 144, 352
-0.981688, 37, 177, 68, 304
-0.981741, 173, 241, 204, 368
-0.981789, 153, 33, 216, 288
-0.981789, 393, 1, 424, 128
-0.981857, 33, 1, 96, 375
-0.981867, 313, 209, 376, 272
-0.981889, 397, 273, 428, 336
-0.981952, 169, 57, 200, 120
-0.981953, 321, 265, 352, 328
-0.981975, 225, 49, 352, 112
-0.98201, 257, 17, 320, 80
-0.982016, 425, 177, 456, 304
-0.982061, 217, 169, 248, 232
-0.982123, 289, 129, 320, 256
-0.982138, 369, 241, 496, 304
-0.982215, 65, 49, 192, 176
-0.982251, 345, 169, 376, 232
-0.982262, 133, 193, 164, 320
-0.982273, 153, 193, 216, 320
-0.982425, 53, 193, 84, 320
-0.982464, 29, 65, 60, 192
-0.982465, 41, 193, 72, 256
-0.982505, 305, 57, 368, 120
-0.982525, 469, 17, 500, 144
-0.982539, 73, 129, 136, 375
-0.982559, 457, 305, 488, 368
-0.98257, 277, 233, 308, 296
-0.982577, 169, 1, 200, 64
-0.982601, 253, 233, 284, 296
-0.982615, 293, 177, 324, 304
-0.982696, 305, 49, 432, 176
-0.982737, 461, 1, 492, 64
-0.98275, 121, 1, 184, 256
-0.982761, 65, 25, 192, 88
-0.982793, 129, 145, 256, 208
-0.982799, 213, 305, 244, 368
-0.982828, 393, 129, 456, 375
-0.982837, 321, 25, 448, 88
-0.982852, 377, 1, 440, 375
-0.98288, 369, 1, 496, 64
-0.982885, 453, 265, 484, 328
-0.982921, 385, 41, 416, 104
-0.982943, 69, 217, 100, 280
-0.982975, 409, 161, 440, 288
-0.982993, 401, 25, 432, 88
-0.982995, 81, 49, 208, 112
-0.98301, 317, 153, 348, 216
-0.983037, 217, 1, 280, 256
-0.983065, 13, 289, 44, 352
-0.983101, 33, 129, 64, 192
-0.983115, 145, 1, 272, 64
-0.983206, 385, 281, 416, 344
-0.983207, 161, 89, 192, 152
-0.983213, 269, 137, 300, 200
-0.983236, 337, 49, 400, 176
-0.983238, 153, 1, 184, 128
-0.983278, 457, 1, 488, 128
-0.983334, 177, 169, 304, 232
-0.983374, 1, 73, 128, 136
-0.98341, 169, 25, 200, 88
-0.983413, 161, 129, 224, 256
-0.983418, 129, 97, 256, 224
-0.983435, 113, 25, 144, 88
-0.983462, 273, 305, 304, 368
-0.983464, 469, 297, 500, 360
-0.983476, 273, 177, 304, 304
-0.983493, 57, 193, 88, 256
-0.983566, 49, 217, 80, 280
-0.983601, 1, 1, 32, 128
-0.983695, 1, 217, 32, 280
-0.983732, 337, 193, 368, 256
-0.983785, 81, 73, 208, 136
-0.983839, 213, 265, 244, 328
-0.983841, 33, 193, 160, 256
-0.983852, 237, 313, 268, 375
-0.983958, 237, 1, 268, 128
-0.983976, 257, 233, 384, 296
-0.984056, 369, 33, 496, 96
-0.984214, 129, 225, 256, 288
-0.984233, 389, 241, 420, 368
-0.984303, 201, 241, 232, 368
-0.984437, 405, 81, 436, 208
-0.984573, 301, 113, 332, 240
-0.984655, 97, 33, 160, 288
-0.984665, 369, 201, 496, 264
-0.984718, 241, 193, 272, 320
-0.984718, 1, 153, 128, 216
-0.984736, 165, 1, 196, 128
-0.984746, 325, 177, 356, 304
-0.984749, 457, 241, 488, 368
-0.984909, 277, 129, 308, 256
-0.985059, 1, 33, 64, 288
-0.985116, 457, 49, 488, 176
-0.985123, 81, 97, 208, 160
-0.985142, 229, 161, 260, 288
-0.985198, 205, 161, 236, 288
-0.985273, 369, 1, 432, 256
-0.985328, 145, 121, 272, 184
-0.985577, 225, 17, 352, 80
-0.98565, 249, 49, 312, 176
-0.985771, 129, 177, 256, 240
-0.985855, 81, 1, 144, 375
-0.985865, 305, 241, 432, 304
-0.985941, 417, 241, 448, 368
-0.985947, 129, 97, 256, 160
-0.985949, 273, 161, 400, 224
-0.986026, 9, 1, 72, 375
-0.986026, 81, 177, 112, 304
-0.986082, 329, 97, 392, 224
-0.986133, 273, 113, 400, 176
-0.986138, 381, 1, 412, 128
-0.986156, 121, 193, 152, 320
-0.986203, 193, 193, 320, 256
-0.98622, 257, 193, 288, 320
-0.986229, 321, 81, 352, 208
-0.986301, 193, 297, 448, 360
-0.986306, 337, 177, 368, 304
-0.986351, 217, 161, 248, 288
-0.986385, 129, 273, 384, 336
-0.986422, 193, 129, 320, 192
-0.986534, 49, 129, 112, 375
-0.986581, 161, 49, 288, 112
-0.986641, 85, 1, 116, 128
-0.986878, 445, 65, 476, 192
-0.986961, 193, 49, 256, 176
-0.987164, 33, 105, 160, 168
-0.987206, 441, 161, 472, 288
-0.987244, 101, 177, 132, 304
-0.98748, 241, 1, 304, 256
-0.987534, 69, 1, 100, 128
-0.987552, 81, 145, 208, 208
-0.987553, 1, 297, 256, 360
-0.987622, 65, 193, 96, 320
-0.987643, 469, 81, 500, 208
-0.987692, 433, 97, 496, 224
-0.987718, 145, 193, 176, 320
-0.987729, 41, 269, 104, 300
-0.987764, 289, 333, 352, 364
-0.987766, 49, 301, 112, 332
-0.987768, 257, 265, 500, 328
-0.987794, 321, 129, 352, 256
-0.987873, 305, 65, 336, 192
-0.987897, 321, 325, 384, 356
-0.987909, 241, 137, 368, 200
-0.987967, 97, 129, 160, 375
-0.987971, 205, 97, 236, 224
-0.988012, 89, 297, 152, 328
-0.988032, 137, 145, 200, 272
-0.988124, 217, 269, 280, 300
-0.988133, 129, 293, 192, 324
-0.988189, 221, 1, 252, 128
-0.988229, 281, 277, 344, 308
-0.988307, 17, 269, 80, 300
-0.988366, 137, 305, 200, 336
-0.988382, 33, 249, 288, 312
-0.988392, 49, 145, 80, 272
-0.988393, 81, 249, 144, 280
-0.988395, 161, 73, 288, 136
-0.988516, 249, 273, 312, 304
-0.988533, 1, 249, 64, 280
-0.988537, 113, 249, 176, 280
-0.98854, 121, 265, 184, 296
-0.98858, 145, 129, 208, 375
-0.988604, 1, 281, 64, 312
-0.988627, 345, 345, 408, 375
-0.988632, 409, 65, 472, 96
-0.988642, 341, 113, 372, 240
-0.988653, 49, 169, 176, 232
-0.988662, 161, 325, 224, 356
-0.98868, 97, 305, 352, 368
-0.988696, 125, 1, 156, 128
-0.988747, 113, 281, 176, 312
-0.988776, 249, 261, 312, 292
-0.988779, 33, 281, 96, 312
-0.988798, 433, 201, 496, 232
-0.988807, 89, 317, 152, 348
-0.988828, 41, 257, 104, 288
-0.988828, 57, 281, 120, 312
-0.988845, 25, 45, 88, 76
-0.988893, 1, 149, 64, 180
-0.988897, 297, 181, 360, 212
-0.988902, 25, 153, 88, 184
-0.988953, 297, 1, 328, 128
-0.988958, 113, 25, 240, 88
-0.988977, 65, 329, 128, 360
-0.988985, 353, 333, 416, 364
-0.989023, 273, 261, 336, 292
-0.989024, 41, 333, 104, 364
-0.989091, 225, 281, 288, 312
-0.989106, 249, 285, 312, 316
-0.989116, 281, 297, 344, 328
-0.989117, 145, 201, 272, 264
-0.989135, 225, 105, 352, 168
-0.989197, 321, 345, 384, 375
-0.989201, 9, 33, 72, 64
-0.989208, 273, 173, 336, 204
-0.989237, 1, 293, 64, 324
-0.989279, 185, 337, 248, 368
-0.989325, 225, 253, 288, 284
-0.989328, 289, 313, 352, 344
-0.989338, 209, 1, 272, 375
-0.989357, 177, 285, 240, 316
-0.989406, 81, 261, 144, 292
-0.989421, 1, 273, 256, 336
-0.989422, 9, 317, 72, 348
-0.989429, 257, 209, 384, 272
-0.989463, 113, 49, 240, 176
-0.989465, 65, 341, 128, 372
-0.989512, 329, 313, 392, 344
-0.989561, 65, 313, 128, 344
-0.98957, 137, 333, 200, 364
-0.989597, 1, 233, 64, 264
-0.989608, 249, 325, 312, 356
-0.98962, 185, 241, 216, 368
-0.989625, 377, 345, 440, 375
-0.989634, 365, 97, 396, 224
-0.989669, 33, 245, 96, 276
-0.989686, 385, 325, 448, 356
-0.989696, 9, 137, 72, 168
-0.989697, 41, 313, 104, 344
-0.989699, 129, 1, 192, 375
-0.989699, 193, 185, 256, 216
-0.989704, 113, 237, 176, 268
-0.98971, 1, 49, 32, 176
-0.989713, 89, 273, 152, 304
-0.989724, 409, 201, 472, 232
-0.989729, 313, 265, 376, 296
-0.989738, 105, 1, 168, 375
-0.989739, 89, 285, 152, 316
-0.98974, 97, 65, 160, 192
-0.989754, 1, 161, 64, 192
-0.989773, 33, 65, 96, 96
-0.989783, 225, 49, 256, 176
-0.989792, 233, 161, 296, 192
-0.989802, 257, 49, 288, 176
-0.98981, 137, 281, 200, 312
-0.989816, 81, 121, 208, 184
-0.989835, 201, 17, 232, 144
-0.989839, 57, 1, 120, 375
-0.989863, 241, 73, 368, 136
-0.989864, 9, 193, 72, 224
-0.989869, 401, 345, 464, 375
-0.98989, 157, 193, 188, 320
-0.9899, 169, 85, 232, 116
-0.989904, 425, 213, 488, 244
-0.989954, 113, 305, 176, 336
-0.989958, 41, 229, 104, 260
-0.989971, 49, 1, 112, 256
-0.989976, 249, 297, 312, 328
-0.989989, 305, 285, 368, 316
-0.989994, 385, 53, 448, 84
-0.989994, 129, 249, 384, 312
-0.989999, 1, 329, 64, 360
-0.989999, 97, 341, 160, 372
-0.990005, 209, 305, 272, 336
-0.990027, 393, 1, 456, 32
-0.990035, 289, 345, 352, 375
-0.990047, 41, 25, 104, 56
-0.990064, 101, 1, 132, 128
-0.990069, 25, 177, 88, 208
-0.990096, 1, 77, 64, 108
-0.990106, 417, 305, 480, 336
-0.990106, 353, 129, 416, 375
-0.990123, 385, 289, 448, 320
-0.990124, 153, 293, 216, 324
-0.990134, 9, 1, 72, 32
-0.990139, 177, 313, 240, 344
-0.990186, 417, 333, 480, 364
-0.990195, 17, 21, 80, 52
-0.990209, 265, 153, 328, 184
-0.990214, 281, 1, 344, 375
-0.990224, 169, 49, 200, 176
-0.990251, 225, 173, 288, 204
-0.990258, 393, 49, 424, 176
-0.990259, 261, 145, 292, 272
-0.990261, 377, 97, 440, 128
-0.990262, 65, 61, 128, 92
-0.990266, 249, 249, 312, 280
-0.990268, 129, 77, 192, 108
-0.990282, 433, 85, 496, 116
-0.990288, 201, 169, 264, 200
-0.990317, 429, 241, 460, 368
-0.990319, 369, 9, 432, 40
-0.990336, 145, 269, 208, 300
-0.990355, 241, 309, 304, 340
-0.990361, 25, 297, 88, 328
-0.990364, 217, 333, 280, 364
-0.990403, 417, 317, 480, 348
-0.990416, 209, 293, 272, 324
-0.990434, 57, 5, 120, 36
-0.990442, 361, 57, 424, 88
-0.990483, 1, 181, 64, 212
-0.9905, 209, 317, 272, 348
-0.990521, 273, 249, 336, 280
-0.990523, 313, 297, 376, 328
-0.990533, 257, 57, 500, 120
-0.99054, 57, 49, 120, 176
-0.990547, 281, 193, 344, 224
-0.990555, 145, 37, 208, 68
-0.990558, 113, 1, 176, 32
-0.99056, 161, 337, 224, 368
-0.990574, 1, 213, 64, 244
-0.990591, 385, 273, 448, 304
-0.990623, 121, 317, 184, 348
-0.990627, 41, 141, 104, 172
-0.990642, 33, 205, 96, 236
-0.990666, 409, 13, 472, 44
-0.990668, 1, 305, 64, 336
-0.990682, 417, 101, 480, 132
-0.990689, 25, 89, 88, 120
-0.990698, 9, 341, 72, 372
-0.990722, 321, 177, 384, 208
-0.990741, 433, 233, 496, 264
-0.990751, 121, 21, 184, 52
-0.990876, 1, 297, 500, 360
-0.990923, 161, 1, 224, 375
-0.991019, 349, 161, 380, 288
-0.991051, 105, 145, 168, 272
-0.991062, 1, 249, 500, 312
-0.991078, 445, 241, 476, 368
-0.991138, 273, 25, 400, 88
-0.991288, 81, 201, 208, 264
-0.991311, 257, 225, 500, 288
-0.991397, 149, 129, 180, 256
-0.991467, 289, 137, 416, 200
-0.991499, 5, 97, 36, 224
-0.991502, 321, 1, 384, 375
-0.991507, 161, 57, 416, 120
-0.991658, 1, 9, 256, 72
-0.991685, 193, 33, 256, 288
-0.991791, 37, 33, 68, 64
-0.991826, 241, 81, 272, 208
-0.991831, 305, 277, 336, 308
-0.991849, 81, 269, 208, 300
-0.991858, 101, 293, 132, 324
-0.991878, 321, 1, 448, 64
-0.991878, 305, 201, 432, 264
-0.99188, 365, 1, 396, 128
-0.991892, 33, 301, 160, 332
-0.991893, 305, 33, 368, 288
-0.991921, 277, 277, 308, 308
-0.991921, 209, 273, 336, 304
-0.991923, 353, 145, 416, 272
-0.99197, 469, 265, 500, 296
-0.99197, 1, 129, 128, 192
-0.991979, 293, 261, 324, 292
-0.991985, 273, 261, 304, 292
-0.992029, 253, 257, 284, 288
-0.992043, 289, 281, 320, 312
-0.992058, 317, 285, 348, 316
-0.992059, 277, 81, 308, 208
-0.99207, 465, 201, 496, 232
-0.992076, 81, 285, 112, 316
-0.992076, 101, 305, 132, 336
-0.992078, 341, 317, 372, 348
-0.992092, 81, 297, 112, 328
-0.992098, 305, 261, 336, 292
-0.992105, 233, 265, 264, 296
-0.992113, 317, 273, 348, 304
-0.992124, 173, 325, 204, 356
-0.99214, 141, 249, 172, 280
-0.99214, 257, 185, 500, 248
-0.992147, 45, 49, 76, 176
-0.992155, 389, 341, 420, 372
-0.992168, 261, 1, 292, 128
-0.992176, 1, 33, 256, 96
-0.992178, 1, 285, 32, 316
-0.992179, 457, 129, 488, 256
-0.992183, 265, 281, 296, 312
-0.99219, 65, 253, 192, 284
-0.992198, 149, 65, 180, 192
-0.9922, 325, 181, 356, 212
-0.992201, 129, 281, 256, 312
-0.992225, 93, 273, 124, 304
-0.99223, 321, 129, 384, 375
-0.992234, 29, 253, 60, 284
-0.992234, 301, 289, 332, 320
-0.992246, 49, 265, 80, 296
-0.992256, 153, 293, 184, 324
-0.992263, 125, 301, 156, 332
-0.992269, 309, 337, 340, 368
-0.992275, 285, 297, 316, 328
-0.99228, 33, 265, 64, 296
-0.992288, 253, 281, 284, 312
-0.992288, 225, 297, 256, 328
-0.992292, 209, 177, 240, 208
-0.992292, 33, 289, 160, 320
-0.992298, 113, 301, 144, 332
-0.992301, 361, 329, 392, 360
-0.992304, 145, 269, 176, 300
-0.992304, 325, 301, 356, 332
-0.992312, 173, 309, 204, 340
-0.992313, 85, 325, 116, 356
-0.992314, 81, 269, 112, 300
-0.992314, 377, 49, 408, 176
-0.992319, 261, 269, 292, 300
-0.992339, 25, 229, 56, 260
-0.992344, 401, 53, 432, 84
-0.992356, 9, 149, 40, 180
-0.992361, 17, 265, 48, 296
-0.992361, 29, 217, 60, 248
-0.992364, 425, 57, 456, 88
-0.992369, 65, 261, 96, 292
-0.992373, 21, 185, 52, 216
-0.992374, 241, 293, 272, 324
-0.992376, 269, 293, 300, 324
-0.992379, 65, 277, 96, 308
-0.992379, 113, 277, 144, 308
-0.992386, 193, 161, 224, 288
-0.992388, 105, 249, 136, 280
-0.99239, 329, 325, 360, 356
-0.992392, 137, 297, 168, 328
-0.9924, 49, 25, 80, 56
-0.992401, 237, 337, 268, 368
-0.992404, 401, 5, 432, 36
-0.992425, 169, 297, 200, 328
-0.992428, 319, 265, 334, 328
-0.992429, 153, 305, 184, 336
-0.992433, 225, 325, 352, 356
-0.992435, 93, 341, 124, 372
-0.992439, 349, 341, 380, 372
-0.992439, 53, 333, 84, 364
-0.992444, 257, 297, 288, 328
-0.992446, 469, 253, 500, 284
-0.992446, 5, 257, 36, 288
-0.992448, 125, 265, 156, 296
-0.99245, 229, 169, 260, 200
-0.992456, 157, 281, 188, 312
-0.992459, 81, 309, 112, 340
-0.992461, 25, 73, 56, 104
-0.992469, 25, 129, 56, 160
-0.99247, 185, 313, 216, 344
-0.992471, 1, 185, 32, 216
-0.992474, 25, 241, 56, 272
-0.992479, 313, 265, 328, 328
-0.992479, 85, 257, 116, 288
-0.992482, 273, 265, 288, 328
-0.992483, 165, 81, 196, 112
-0.992489, 125, 1, 156, 32
-0.99249, 421, 197, 452, 228
-0.99249, 69, 333, 100, 364
-0.992492, 169, 273, 200, 304
-0.992492, 37, 21, 68, 52
-0.992497, 29, 277, 60, 308
-0.992501, 33, 189, 64, 220
-0.992502, 329, 345, 360, 375
-0.992505, 273, 149, 304, 180
-0.992506, 53, 45, 84, 76
-0.992512, 353, 317, 384, 348
-0.992514, 317, 261, 348, 292
-0.992514, 217, 257, 248, 288
-0.992516, 157, 45, 188, 76
-0.992523, 41, 285, 72, 316
-0.992526, 225, 305, 352, 336
-0.992528, 33, 45, 64, 76
-0.992534, 93, 245, 124, 276
-0.992535, 21, 57, 52, 88
-0.992535, 377, 341, 408, 372
-0.992539, 441, 329, 472, 360
-0.992539, 45, 233, 76, 264
-0.992539, 133, 233, 164, 264
-0.992545, 1, 177, 500, 240
-0.992547, 289, 249, 320, 280
-0.992557, 225, 277, 256, 308
-0.992558, 37, 297, 68, 328
-0.992561, 157, 269, 188, 300
-0.992566, 445, 201, 476, 232
-0.992567, 349, 305, 380, 336
-0.992569, 233, 253, 264, 284
-0.992578, 165, 29, 196, 60
-0.992588, 257, 153, 500, 216
-0.992592, 381, 13, 412, 44
-0.992595, 189, 325, 220, 356
-0.992597, 65, 229, 96, 260
-0.992605, 17, 277, 144, 308
-0.992608, 429, 105, 460, 136
-0.992609, 413, 65, 444, 96
-0.992611, 293, 333, 324, 364
-0.992611, 13, 209, 44, 240
-0.992614, 441, 65, 472, 96
-0.992615, 201, 189, 232, 220
-0.99262, 1, 5, 32, 36
-0.992622, 253, 157, 284, 188
-0.992622, 37, 149, 68, 180
-0.992629, 61, 293, 92, 324
-0.992631, 53, 277, 84, 308
-0.992635, 345, 177, 376, 208
-0.992636, 33, 9, 160, 40
-0.992636, 137, 285, 168, 316
-0.992652, 213, 161, 244, 192
-0.992652, 125, 277, 156, 308
-0.992656, 401, 345, 432, 375
-0.992656, 353, 333, 480, 364
-0.992665, 35, 25, 50, 88
-0.992677, 129, 293, 256, 324
-0.992702, 281, 257, 296, 320
-0.992726, 285, 1, 316, 128
-0.992733, 81, 297, 208, 328
-0.992741, 1, 265, 128, 296
-0.992748, 177, 97, 304, 160
-0.992761, 97, 33, 352, 96
-0.99278, 81, 313, 208, 344
-0.992786, 257, 129, 500, 192
-0.992793, 257, 1, 320, 375
-0.992803, 321, 17, 352, 144
-0.992817, 53, 265, 68, 328
-0.992833, 249, 1, 280, 128
-0.992877, 1, 317, 128, 348
-0.992896, 305, 265, 320, 328
-0.992899, 321, 345, 448, 375
-0.992912, 349, 305, 364, 368
-0.992921, 241, 285, 368, 316
-0.992954, 353, 1, 416, 375
-0.992972, 87, 305, 102, 368
-0.992973, 209, 261, 336, 292
-0.992975, 289, 321, 416, 352
-0.992995, 47, 25, 62, 88
-0.993009, 153, 257, 168, 320
-0.993023, 265, 97, 296, 224
-0.993067, 287, 265, 302, 328
-0.993104, 1, 273, 500, 336
-0.99312, 97, 225, 352, 288
-0.993126, 105, 241, 120, 304
-0.993135, 41, 241, 56, 304
-0.993211, 95, 265, 110, 328
-0.993218, 339, 305, 354, 368
-0.99322, 245, 257, 260, 320
-0.993241, 169, 57, 184, 120
-0.993245, 95, 305, 110, 368
-0.993247, 229, 97, 260, 224
-0.993263, 113, 273, 128, 336
-0.993267, 165, 97, 196, 224
-0.993278, 81, 325, 208, 356
-0.993303, 55, 17, 70, 80
-0.993306, 323, 297, 338, 360
-0.99332, 299, 265, 314, 328
-0.99333, 327, 265, 342, 328
-0.993343, 141, 1, 172, 128
-0.993375, 47, 257, 62, 320
-0.993424, 3, 257, 18, 320
-0.993442, 357, 49, 388, 176
-0.993446, 1, 329, 128, 360
-0.993446, 315, 297, 330, 360
-0.993447, 273, 1, 336, 256
-0.993519, 233, 1, 296, 375
-0.993535, 147, 273, 162, 336
-0.993555, 239, 265, 254, 328
-0.993565, 83, 265, 98, 328
-0.993581, 193, 177, 320, 208
-0.993602, 41, 201, 56, 264
-0.993606, 193, 289, 320, 320
-0.99361, 163, 273, 178, 336
-0.993625, 53, 297, 68, 360
-0.993639, 161, 265, 288, 296
-0.993655, 17, 241, 144, 272
-0.993659, 257, 105, 500, 168
-0.993665, 105, 273, 120, 336
-0.993668, 229, 265, 244, 328
-0.993716, 189, 17, 220, 144
-0.99372, 1, 81, 256, 144
-0.993727, 255, 273, 270, 336
-0.993751, 123, 273, 138, 336
-0.993754, 33, 217, 48, 280
-0.993761, 105, 297, 120, 360
-0.993767, 1, 129, 500, 192
-0.993774, 289, 333, 416, 364
-0.993782, 113, 241, 128, 304
-0.993783, 257, 261, 384, 292
-0.993818, 305, 57, 432, 88
-0.993828, 33, 145, 288, 208
-0.99384, 309, 305, 324, 368
-0.993842, 145, 297, 160, 360
-0.993854, 475, 193, 490, 256
-0.993854, 267, 257, 282, 320
-0.993856, 249, 289, 264, 352
-0.993857, 423, 65, 438, 128
-0.993872, 45, 49, 60, 112
-0.993887, 77, 249, 92, 312
-0.993904, 329, 289, 344, 352
-0.993927, 413, 49, 428, 112
-0.993939, 81, 337, 208, 368
-0.993942, 297, 297, 312, 360
-0.993951, 225, 33, 480, 96
-0.993971, 91, 241, 106, 304
-0.993974, 329, 1, 392, 256
-0.993985, 471, 249, 486, 312
-0.993987, 47, 297, 62, 360
-0.993987, 129, 305, 256, 336
-0.994003, 177, 273, 192, 336
-0.994014, 237, 297, 252, 360
-0.994038, 31, 153, 46, 216
-0.99406, 1, 57, 256, 120
-0.994071, 41, 265, 56, 328
-0.994076, 355, 225, 370, 288
-0.99409, 155, 289, 170, 352
-0.994106, 477, 249, 492, 312
-0.994112, 353, 57, 480, 88
-0.994124, 273, 1, 400, 64
-0.994137, 81, 281, 208, 312
-0.994141, 33, 193, 48, 256
-0.994144, 283, 289, 298, 352
-0.994146, 65, 129, 128, 256
-0.994148, 85, 241, 100, 304
-0.994149, 21, 177, 36, 240
-0.994158, 293, 273, 308, 336
-0.994163, 339, 177, 354, 240
-0.994171, 23, 1, 38, 64
-0.994171, 27, 57, 42, 120
-0.994182, 41, 145, 56, 208
-0.994199, 171, 297, 186, 360
-0.994214, 13, 249, 28, 312
-0.994235, 33, 25, 160, 56
-0.994244, 235, 161, 250, 224
-0.994253, 273, 153, 288, 216
-0.994262, 71, 257, 86, 320
-0.994265, 41, 25, 56, 88
-0.994291, 65, 241, 192, 272
-0.994301, 25, 233, 40, 296
-0.994302, 47, 201, 62, 264
-0.994303, 37, 313, 52, 375
-0.994316, 353, 69, 480, 100
-0.994336, 161, 333, 288, 364
-0.994336, 337, 121, 464, 152
-0.99436, 225, 337, 352, 368
-0.994364, 113, 297, 128, 360
-0.994366, 187, 305, 202, 368
-0.994366, 1, 225, 500, 288
-0.994391, 49, 233, 64, 296
-0.994401, 259, 249, 274, 312
-0.994409, 171, 265, 186, 328
-0.994428, 17, 341, 144, 372
-0.99443, 337, 317, 464, 348
-0.994432, 81, 297, 96, 360
-0.994436, 31, 313, 46, 375
-0.994442, 1, 201, 500, 264
-0.994458, 35, 265, 50, 328
-0.99446, 289, 277, 416, 308
-0.994465, 277, 289, 292, 352
-0.994475, 1, 253, 128, 284
-0.994496, 369, 289, 496, 320
-0.994516, 251, 249, 266, 312
-0.994517, 63, 233, 78, 296
-0.994519, 161, 169, 416, 232
-0.994535, 119, 249, 134, 312
-0.994538, 63, 1, 78, 64
-0.994546, 17, 41, 144, 72
-0.99455, 305, 297, 432, 328
-0.994554, 1, 57, 500, 120
-0.994558, 147, 249, 162, 312
-0.994581, 161, 321, 288, 352
-0.994586, 19, 241, 34, 304
-0.994587, 159, 249, 174, 312
-0.994594, 89, 273, 104, 336
-0.99461, 177, 309, 304, 340
-0.994612, 25, 145, 40, 208
-0.994616, 431, 97, 446, 160
-0.994638, 425, 193, 440, 256
-0.994663, 127, 297, 142, 360
-0.994671, 167, 33, 182, 96
-0.994673, 469, 193, 484, 256
-0.994677, 273, 309, 400, 340
-0.994695, 41, 289, 56, 352
-0.994696, 473, 225, 488, 288
-0.994698, 293, 249, 308, 312
-0.994698, 367, 313, 382, 375
-0.994706, 257, 81, 500, 144
-0.994712, 33, 49, 48, 112
-0.994743, 9, 1, 24, 64
-0.994759, 81, 13, 208, 44
-0.994777, 181, 313, 196, 375
-0.994778, 129, 249, 256, 280
-0.994779, 133, 281, 148, 344
-0.994782, 163, 305, 178, 368
-0.994796, 65, 265, 80, 328
-0.994798, 215, 169, 230, 232
-0.994816, 139, 305, 154, 368
-0.994827, 107, 1, 122, 64
-0.994832, 479, 225, 494, 288
-0.994837, 357, 297, 372, 360
-0.994856, 209, 249, 336, 280
-0.994859, 303, 297, 318, 360
-0.994865, 435, 193, 450, 256
-0.994881, 171, 81, 186, 144
-0.994898, 403, 49, 418, 112
-0.9949, 27, 177, 42, 240
-0.994907, 477, 273, 492, 336
-0.994916, 33, 201, 288, 264
-0.99492, 139, 273, 154, 336
-0.994943, 1, 289, 16, 352
-0.994945, 59, 297, 74, 360
-0.994952, 461, 1, 476, 64
-0.994955, 321, 185, 448, 216
-0.99498, 79, 225, 94, 288
-0.994986, 243, 305, 258, 368
-0.995, 19, 137, 34, 200
-0.995005, 257, 1, 500, 64
-0.995038, 17, 69, 144, 100
-0.995161, 273, 345, 400, 375
-0.995192, 1, 113, 256, 176
-0.995203, 17, 57, 144, 88
-0.995215, 1, 97, 500, 160
-0.995242, 1, 209, 128, 240
-0.995243, 425, 1, 456, 256
-0.995301, 257, 185, 384, 216
-0.995302, 1, 225, 256, 288
-0.995324, 81, 25, 208, 56
-0.995359, 369, 81, 496, 112
-0.995359, 369, 301, 496, 332
-0.99538, 161, 1, 416, 64
-0.995393, 193, 165, 320, 196
-0.99544, 33, 225, 160, 256
-0.995442, 1, 153, 500, 216
-0.995459, 369, 277, 496, 308
-0.99548, 337, 101, 464, 132
-0.995493, 81, 1, 208, 32
-0.995528, 369, 37, 496, 68
-0.99556, 129, 345, 256, 375
-0.995563, 369, 345, 496, 375
-0.995642, 161, 129, 416, 192
-0.995713, 145, 29, 272, 60
-0.995762, 453, 1, 484, 256
-0.995782, 257, 65, 384, 96
-0.995814, 441, 1, 472, 256
-0.995834, 257, 173, 384, 204
-0.995837, 353, 97, 416, 224
-0.995875, 97, 81, 352, 144
-0.995909, 369, 257, 496, 288
-0.99591, 129, 173, 256, 204
-0.995917, 81, 45, 208, 76
-0.995933, 129, 145, 256, 176
-0.995945, 37, 1, 68, 256
-0.996, 305, 69, 432, 100
-0.996008, 321, 165, 448, 196
-0.996033, 81, 93, 208, 124
-0.996083, 129, 93, 256, 124
-0.996096, 305, 265, 432, 296
-0.996114, 81, 81, 208, 112
-0.996115, 177, 189, 304, 220
-0.996141, 329, 161, 392, 288
-0.996214, 337, 133, 464, 164
-0.99622, 185, 1, 248, 375
-0.996284, 369, 245, 496, 276
-0.996303, 161, 133, 288, 164
-0.996307, 257, 197, 384, 228
-0.996339, 129, 185, 256, 216
-0.99634, 1, 181, 128, 212
-0.996347, 337, 197, 464, 228
-0.996358, 85, 293, 100, 324
-0.996391, 289, 281, 304, 312
-0.996396, 113, 233, 240, 264
-0.996423, 321, 81, 448, 112
-0.996433, 329, 289, 344, 320
-0.996455, 465, 65, 496, 320
-0.996456, 237, 129, 268, 375
-0.996481, 337, 181, 352, 212
-0.996487, 33, 177, 288, 240
-0.996511, 33, 193, 160, 224
-0.996525, 289, 249, 416, 280
-0.996535, 281, 261, 296, 292
-0.996538, 281, 281, 296, 312
-0.996541, 337, 145, 464, 176
-0.996561, 369, 221, 496, 252
-0.996578, 109, 293, 124, 324
-0.996578, 209, 145, 336, 176
-0.996606, 305, 265, 320, 296
-0.996614, 169, 77, 184, 108
-0.996619, 277, 145, 292, 176
-0.996621, 49, 149, 176, 180
-0.996639, 29, 181, 44, 212
-0.996665, 275, 281, 290, 312
-0.99667, 311, 289, 326, 320
-0.996676, 1, 157, 128, 188
-0.996684, 273, 113, 400, 144
-0.996685, 317, 277, 332, 308
-0.996688, 327, 273, 342, 304
-0.99669, 161, 17, 288, 48
-0.996708, 55, 21, 70, 52
-0.996735, 1, 9, 500, 72
-0.996736, 305, 285, 320, 316
-0.996744, 1, 269, 16, 300
-0.996774, 225, 53, 352, 84
-0.996796, 295, 281, 310, 312
-0.996799, 175, 37, 190, 68
-0.996807, 173, 89, 188, 120
-0.99681, 45, 33, 60, 64
-0.996813, 119, 301, 134, 332
-0.996814, 321, 45, 448, 76
-0.996825, 81, 133, 208, 164
-0.996844, 105, 341, 120, 372
-0.996856, 31, 61, 46, 92
-0.996856, 45, 265, 60, 296
-0.996894, 161, 265, 176, 296
-0.996898, 299, 297, 314, 328
-0.996899, 333, 333, 348, 364
-0.996901, 129, 193, 384, 256
-0.996924, 347, 309, 362, 340
-0.996932, 1, 33, 500, 96
-0.996934, 145, 77, 272, 108
-0.996941, 323, 261, 338, 292
-0.996951, 275, 293, 290, 324
-0.996953, 313, 265, 328, 296
-0.996957, 425, 97, 456, 352
-0.996964, 51, 269, 66, 300
-0.996967, 1, 141, 128, 172
-0.996977, 123, 1, 138, 32
-0.996981, 189, 309, 204, 340
-0.996988, 53, 33, 68, 64
-0.996988, 247, 297, 262, 328
-0.996991, 33, 197, 48, 228
-0.996991, 323, 289, 338, 320
-0.996992, 1, 97, 128, 128
-0.996993, 85, 277, 100, 308
-0.997, 175, 333, 190, 364
-0.997, 357, 229, 372, 260
-0.997002, 225, 129, 256, 375
-0.997004, 33, 81, 48, 112
-0.997004, 93, 301, 108, 332
-0.997006, 245, 337, 260, 368
-0.997009, 157, 253, 172, 284
-0.997018, 305, 129, 336, 375
-0.997019, 25, 33, 56, 288
-0.997024, 117, 285, 132, 316
-0.997032, 365, 329, 380, 360
-0.997041, 39, 261, 54, 292
-0.997043, 233, 257, 248, 288
-0.997045, 117, 1, 132, 32
-0.997046, 299, 265, 314, 296
-0.997055, 11, 1, 26, 32
-0.997057, 479, 265, 494, 296
-0.997057, 233, 169, 248, 200
-0.997058, 1, 129, 128, 160
-0.997065, 23, 185, 38, 216
-0.997065, 211, 169, 226, 200
-0.997071, 25, 145, 40, 176
-0.997076, 43, 277, 58, 308
-0.997079, 331, 177, 346, 208
-0.99708, 71, 277, 86, 308
-0.997084, 95, 281, 110, 312
-0.99709, 341, 313, 356, 344
-0.997108, 151, 293, 166, 324
-0.99711, 285, 129, 316, 375
-0.997112, 27, 261, 42, 292
-0.997114, 269, 261, 284, 292
-0.997135, 353, 25, 480, 56
-0.997139, 311, 277, 326, 308
-0.997155, 53, 297, 68, 328
-0.997155, 267, 157, 282, 188
-0.997159, 473, 233, 488, 264
-0.997164, 49, 213, 176, 244
-0.99717, 287, 269, 302, 300
-0.99717, 209, 97, 240, 352
-0.997184, 127, 301, 142, 332
-0.997188, 103, 313, 118, 344
-0.997188, 413, 1, 444, 256
-0.997192, 79, 273, 94, 304
-0.997192, 61, 269, 76, 300
-0.997193, 129, 41, 256, 72
-0.997195, 157, 281, 172, 312
-0.997198, 129, 157, 256, 188
-0.99721, 269, 277, 284, 308
-0.997211, 413, 97, 444, 352
-0.997214, 155, 265, 170, 296
-0.997215, 5, 257, 20, 288
-0.997217, 161, 105, 416, 168
-0.997235, 287, 293, 302, 324
-0.997235, 311, 333, 326, 364
-0.997236, 103, 301, 118, 332
-0.997236, 169, 41, 184, 72
-0.997251, 101, 325, 116, 356
-0.997253, 123, 285, 138, 316
-0.997253, 359, 301, 374, 332
-0.997255, 355, 337, 370, 368
-0.997261, 225, 177, 240, 208
-0.997264, 95, 313, 110, 344
-0.997267, 433, 197, 448, 228
-0.997269, 369, 5, 496, 36
-0.99727, 105, 273, 120, 304
-0.99727, 257, 281, 272, 312
-0.997274, 161, 133, 176, 164
-0.997276, 89, 265, 104, 296
-0.997277, 293, 257, 308, 288
-0.997289, 79, 257, 94, 288
-0.997289, 17, 249, 32, 280
-0.997292, 191, 325, 206, 356
-0.997293, 181, 329, 196, 360
-0.997294, 225, 273, 240, 304
-0.997296, 275, 265, 290, 296
-0.997299, 27, 249, 42, 280
-0.997302, 193, 237, 320, 268
-0.997305, 49, 285, 64, 316
-0.997307, 35, 221, 50, 252
-0.997309, 241, 217, 368, 248
-0.99731, 69, 265, 84, 296
-0.997312, 21, 265, 36, 296
-0.997321, 41, 149, 56, 180
-0.997323, 95, 261, 110, 292
-0.997325, 205, 185, 220, 216
-0.997329, 35, 165, 50, 196
-0.997332, 473, 249, 488, 280
-0.997333, 249, 257, 264, 288
-0.997334, 163, 293, 178, 324
-0.997334, 117, 13, 132, 44
-0.997335, 53, 129, 84, 375
-0.997336, 49, 21, 64, 52
-0.997337, 483, 245, 498, 276
-0.997339, 471, 281, 486, 312
-0.997341, 225, 261, 240, 292
-0.997343, 33, 257, 48, 288
-0.997347, 169, 29, 184, 60
-0.997348, 317, 289, 332, 320
-0.997348, 211, 185, 226, 216
-0.997349, 175, 321, 190, 352
-0.997349, 37, 45, 52, 76
-0.997349, 35, 153, 50, 184
-0.99735, 299, 329, 314, 360
-0.997353, 93, 329, 108, 360
-0.997355, 147, 281, 162, 312
-0.997355, 369, 169, 496, 200
-0.997355, 7, 129, 22, 160
-0.997393, 177, 5, 304, 36
-0.997427, 269, 129, 300, 375
-0.997456, 65, 61, 192, 92
-0.997461, 273, 129, 400, 160
-0.997465, 77, 129, 108, 375
-0.997478, 209, 125, 336, 156
-0.997489, 321, 229, 448, 260
-0.997517, 353, 209, 480, 240
-0.997537, 93, 129, 124, 375
-0.997598, 137, 129, 168, 375
-0.9976, 257, 233, 384, 264
-0.997611, 157, 129, 188, 375
-0.99764, 129, 5, 256, 36
-0.997645, 225, 109, 352, 140
-0.997667, 17, 129, 48, 375
-0.997682, 257, 129, 288, 375
-0.997691, 273, 45, 400, 76
-0.997699, 17, 169, 144, 200
-0.997708, 241, 157, 368, 188
-0.997717, 453, 129, 484, 375
-0.997733, 105, 129, 136, 375
-0.997745, 193, 29, 320, 60
-0.997773, 29, 129, 60, 375
-0.997774, 177, 57, 304, 88
-0.997906, 73, 1, 136, 256
-0.99796, 5, 97, 36, 352
-0.997976, 329, 129, 360, 375
-0.998, 401, 1, 432, 256
-0.998037, 153, 1, 184, 256
-0.998091, 109, 1, 140, 256
-0.998151, 437, 97, 468, 352
-0.998205, 229, 1, 260, 256
-0.998245, 243, 241, 258, 368
-0.998316, 237, 241, 252, 368
-0.998325, 217, 1, 248, 256
-0.99834, 233, 269, 296, 284
-0.998357, 273, 263, 336, 278
-0.998358, 217, 277, 280, 292
-0.998358, 265, 277, 328, 292
-0.99836, 41, 271, 104, 286
-0.998362, 97, 309, 160, 324
-0.998365, 49, 307, 112, 322
-0.998367, 137, 307, 200, 322
-0.998367, 125, 129, 156, 375
-0.99838, 329, 325, 392, 340
-0.998382, 25, 265, 88, 280
-0.998383, 13, 1, 44, 256
-0.998384, 281, 283, 344, 298
-0.998391, 257, 257, 320, 272
-0.998392, 281, 185, 344, 200
-0.998393, 385, 57, 448, 72
-0.998394, 49, 1, 80, 256
-0.998395, 231, 241, 246, 368
-0.998397, 41, 277, 104, 292
-0.9984, 129, 293, 192, 308
-0.998403, 289, 341, 352, 356
-0.998405, 313, 263, 376, 278
-0.998406, 1, 253, 64, 268
-0.998413, 65, 347, 128, 362
-0.998417, 9, 3, 72, 18
-0.99842, 33, 159, 96, 174
-0.99842, 9, 39, 72, 54
-0.99842, 113, 255, 176, 270
-0.998421, 297, 191, 360, 206
-0.998425, 105, 291, 168, 306
-0.998427, 273, 269, 336, 284
-0.998427, 9, 149, 72, 164
-0.998431, 289, 335, 352, 350
-0.998431, 25, 285, 88, 300
-0.998432, 17, 259, 80, 274
-0.998433, 329, 331, 392, 346
-0.998434, 129, 301, 192, 316
-0.998435, 169, 1, 184, 128
-0.998435, 89, 301, 152, 316
-0.998437, 49, 301, 112, 316
-0.998437, 109, 225, 124, 352
-0.998438, 289, 277, 352, 292
-0.998439, 281, 303, 344, 318
-0.998439, 423, 33, 438, 160
-0.99844, 1, 285, 64, 300
-0.998441, 241, 283, 304, 298
-0.998441, 1, 277, 64, 292
-0.998443, 17, 271, 80, 286
-0.998443, 305, 359, 368, 374
-0.998444, 201, 171, 264, 186
-0.998444, 433, 203, 496, 218
-0.998445, 225, 259, 288, 274
-0.998446, 177, 339, 240, 354
-0.998447, 73, 293, 136, 308
-0.998448, 65, 331, 128, 346
-0.998448, 113, 249, 176, 264
-0.99845, 57, 265, 120, 280
-0.998451, 377, 361, 440, 375
-0.998454, 265, 297, 328, 312
-0.998454, 73, 251, 136, 266
-0.998454, 81, 277, 144, 292
-0.998456, 353, 339, 416, 354
-0.998457, 41, 257, 104, 272
-0.998458, 309, 241, 324, 368
-0.998461, 101, 225, 116, 352
-0.998462, 137, 337, 200, 352
-0.998462, 1, 265, 64, 280
-0.998463, 41, 291, 104, 306
-0.998465, 385, 11, 448, 26
-0.998465, 1, 329, 64, 344
-0.998467, 121, 315, 184, 330
-0.998471, 113, 283, 176, 298
-0.998472, 65, 355, 128, 370
-0.998472, 33, 49, 96, 64
-0.998473, 121, 267, 184, 282
-0.998473, 9, 291, 72, 306
-0.998473, 433, 209, 496, 224
-0.998474, 49, 285, 112, 300
-0.998476, 233, 167, 296, 182
-0.998476, 323, 241, 338, 368
-0.998477, 345, 361, 408, 375
-0.998477, 217, 297, 280, 312
-0.998478, 47, 241, 62, 368
-0.998479, 329, 319, 392, 334
-0.998481, 25, 227, 88, 242
-0.998481, 257, 289, 320, 304
-0.998482, 9, 187, 72, 202
-0.998484, 73, 287, 136, 302
-0.998486, 297, 271, 360, 286
-0.998486, 41, 249, 104, 264
-0.998487, 129, 45, 192, 60
-0.998487, 177, 293, 240, 308
-0.998489, 137, 287, 200, 302
-0.99849, 9, 45, 72, 60
-0.99849, 89, 353, 152, 368
-0.99849, 297, 317, 360, 332
-0.99849, 281, 255, 344, 270
-0.998491, 169, 93, 232, 108
-0.998492, 313, 295, 376, 310
-0.998494, 161, 331, 224, 346
-0.998496, 177, 281, 240, 296
-0.998496, 329, 339, 392, 354
-0.998496, 217, 287, 280, 302
-0.998496, 241, 303, 304, 318
-0.998496, 377, 351, 440, 366
-0.998497, 121, 277, 184, 292
-0.998497, 297, 349, 360, 364
-0.998497, 89, 319, 152, 334
-0.998498, 33, 43, 96, 58
-0.998499, 49, 7, 112, 22
-0.998499, 329, 305, 392, 320
-0.998499, 353, 345, 416, 360
-0.998499, 1, 155, 64, 170
-0.998499, 209, 271, 272, 286
-0.9985, 305, 183, 368, 198
-0.998501, 353, 355, 416, 370
-0.998502, 417, 13, 480, 28
-0.998502, 257, 163, 320, 178
-0.998504, 65, 63, 128, 78
-0.998507, 17, 25, 80, 40
-0.998508, 241, 297, 304, 312
-0.998509, 65, 271, 128, 286
-0.998509, 249, 263, 312, 278
-0.99851, 89, 245, 152, 260
-0.99851, 289, 297, 352, 312
-0.998511, 33, 335, 96, 350
-0.998511, 1, 313, 64, 328
-0.998511, 329, 345, 392, 360
-0.998511, 17, 75, 80, 90
-0.998512, 321, 353, 384, 368
-0.998512, 113, 25, 176, 40
-0.998513, 33, 153, 96, 168
-0.998513, 417, 311, 480, 326
-0.998515, 289, 329, 352, 344
-0.998515, 49, 313, 112, 328
-0.998516, 121, 31, 184, 46
-0.998517, 321, 191, 384, 206
-0.998517, 75, 241, 90, 368
-0.998518, 241, 275, 304, 290
-0.998519, 97, 1, 160, 16
-0.99852, 425, 215, 488, 230
-0.998521, 209, 303, 272, 318
-0.998523, 165, 1, 196, 256
-0.998527, 473, 209, 488, 336
-0.998539, 153, 311, 184, 326
-0.998539, 101, 319, 132, 334
-0.99854, 113, 293, 144, 308
-0.99854, 145, 291, 176, 306
-0.998541, 341, 341, 372, 356
-0.998541, 269, 161, 300, 176
-0.998543, 297, 337, 328, 352
-0.998544, 93, 343, 124, 358
-0.998544, 33, 269, 64, 284
-0.998544, 141, 277, 172, 292
-0.998544, 29, 231, 60, 246
-0.998545, 49, 31, 80, 46
-0.998546, 301, 285, 332, 300
-0.998547, 1, 289, 32, 304
-0.998547, 185, 317, 216, 332
-0.998548, 33, 191, 64, 206
-0.998549, 397, 359, 428, 374
-0.99855, 245, 1, 276, 256
-0.99855, 425, 349, 456, 364
-0.998551, 469, 15, 500, 30
-0.998553, 253, 281, 284, 296
-0.998553, 101, 361, 132, 375
-0.998553, 3, 241, 18, 368
-0.998554, 65, 233, 96, 248
-0.998555, 109, 17, 140, 32
-0.998555, 29, 49, 60, 64
-0.998556, 469, 273, 500, 288
-0.998556, 257, 269, 288, 284
-0.998558, 245, 299, 276, 314
-0.998559, 161, 93, 192, 108
-0.998559, 29, 285, 60, 300
-0.998559, 25, 275, 56, 290
-0.998561, 225, 303, 256, 318
-0.998561, 73, 353, 104, 368
-0.998561, 265, 291, 296, 306
-0.998562, 97, 273, 128, 288
-0.998562, 85, 251, 116, 266
-0.998562, 305, 295, 336, 310
-0.998563, 21, 71, 52, 86
-0.998565, 93, 283, 124, 298
-0.998566, 9, 283, 40, 298
-0.998567, 353, 327, 384, 342
-0.998568, 165, 305, 196, 320
-0.998568, 169, 337, 200, 352
-0.998568, 433, 33, 448, 160
-0.998569, 389, 345, 420, 360
-0.998569, 325, 263, 356, 278
-0.99857, 165, 33, 196, 48
-0.998571, 393, 293, 424, 308
-0.998571, 345, 361, 376, 375
-0.998572, 93, 289, 124, 304
-0.998572, 45, 273, 76, 288
-0.998572, 277, 283, 308, 298
-0.998572, 93, 225, 108, 352
-0.998572, 265, 277, 296, 292
-0.998573, 393, 55, 424, 70
-0.998574, 73, 275, 104, 290
-0.998574, 313, 337, 344, 352
-0.998575, 405, 353, 436, 368
-0.998575, 157, 299, 188, 314
-0.998578, 53, 209, 68, 336
-0.998578, 269, 255, 300, 270
-0.998578, 165, 277, 196, 292
-0.998578, 57, 273, 88, 288
-0.998579, 45, 285, 76, 300
-0.998579, 333, 307, 364, 322
-0.998581, 181, 331, 212, 346
-0.998581, 13, 187, 44, 202
-0.998583, 81, 289, 112, 304
-0.998584, 133, 249, 164, 264
-0.998585, 233, 261, 264, 276
-0.998585, 201, 189, 232, 204
-0.998586, 479, 193, 494, 320
-0.998587, 275, 241, 290, 368
-0.998587, 81, 225, 96, 352
-0.998587, 369, 361, 400, 375
-0.998588, 57, 279, 88, 294
-0.998588, 405, 9, 436, 24
-0.998588, 289, 1, 320, 256
-0.998589, 313, 301, 344, 316
-0.99859, 101, 297, 132, 312
-0.998591, 105, 353, 136, 368
-0.998595, 1, 257, 32, 272
-0.998596, 25, 261, 56, 276
-0.998597, 145, 271, 176, 286
-0.998597, 249, 241, 264, 368
-0.998599, 81, 305, 112, 320
-0.998599, 41, 25, 72, 40
-0.998599, 141, 255, 172, 270
-0.9986, 115, 225, 130, 352
-0.998601, 145, 305, 176, 320
-0.998601, 225, 297, 256, 312
-0.998602, 409, 55, 440, 70
-0.998602, 293, 267, 324, 282
-0.998603, 25, 159, 56, 174
-0.998603, 25, 185, 56, 200
-0.998604, 173, 323, 204, 338
-0.998607, 345, 315, 376, 330
-0.998608, 9, 1, 40, 16
-0.998609, 13, 149, 44, 164
-0.99861, 299, 241, 314, 368
-0.998611, 325, 191, 356, 206
-0.998612, 13, 261, 44, 276
-0.998613, 81, 299, 112, 314
-0.998613, 233, 269, 264, 284
-0.998614, 25, 77, 56, 92
-0.998615, 17, 253, 48, 268
-0.998615, 85, 277, 116, 292
-0.998615, 121, 305, 152, 320
-0.998616, 85, 331, 116, 346
-0.998617, 45, 235, 76, 250
-0.998618, 249, 257, 280, 272
-0.998619, 333, 331, 364, 346
-0.99862, 93, 355, 124, 370
-0.99862, 265, 283, 296, 298
-0.998622, 221, 261, 252, 276
-0.998628, 225, 173, 256, 188
-0.998628, 37, 39, 68, 54
-0.998631, 253, 263, 284, 278
-0.998631, 37, 279, 68, 294
-0.998633, 313, 283, 344, 298
-0.998634, 301, 277, 332, 292
-0.998635, 289, 257, 320, 272
-0.998638, 101, 313, 132, 328
-0.998638, 133, 271, 164, 286
-0.998639, 281, 277, 312, 292
-0.998639, 357, 357, 388, 372
-0.998641, 313, 273, 344, 288
-0.998642, 277, 261, 308, 276
-0.998645, 269, 271, 300, 286
-0.998647, 33, 33, 64, 48
-0.998647, 1, 263, 32, 278
-0.998648, 341, 321, 372, 336
-0.998649, 19, 145, 34, 272
-0.998655, 85, 349, 116, 364
-0.998657, 101, 303, 132, 318
-0.998661, 157, 45, 188, 60
-0.998667, 469, 267, 500, 282
-0.99867, 325, 183, 356, 198
-0.998673, 461, 201, 492, 216
-0.99868, 285, 241, 300, 368
-0.998681, 41, 1, 56, 128
-0.998685, 209, 179, 240, 194
-0.998692, 369, 1, 400, 256
-0.998693, 197, 129, 228, 375
-0.998703, 33, 153, 64, 168
-0.998704, 305, 263, 336, 278
-0.998707, 159, 241, 174, 368
-0.998711, 317, 241, 332, 368
-0.998738, 225, 241, 240, 368
-0.998738, 23, 193, 38, 320
-0.998739, 31, 177, 46, 304
-0.998755, 153, 241, 168, 368
-0.998756, 35, 1, 50, 128
-0.998761, 47, 129, 62, 256
-0.998773, 87, 241, 102, 368
-0.998782, 443, 49, 458, 176
-0.998789, 353, 129, 384, 375
-0.998789, 59, 241, 74, 368
-0.998792, 411, 1, 426, 128
-0.998793, 121, 1, 152, 256
-0.998813, 69, 241, 84, 368
-0.99883, 41, 225, 56, 352
-0.998831, 467, 177, 482, 304
-0.998842, 269, 241, 284, 368
-0.998857, 65, 129, 96, 375
-0.998861, 163, 1, 178, 128
-0.998864, 427, 97, 442, 224
-0.998864, 41, 129, 72, 375
-0.998866, 127, 241, 142, 368
-0.998869, 35, 225, 50, 352
-0.998869, 143, 225, 158, 352
-0.998869, 39, 177, 54, 304
-0.998871, 121, 241, 136, 368
-0.998875, 1, 1, 32, 256
-0.998878, 13, 225, 28, 352
-0.998882, 417, 65, 432, 192
-0.998886, 479, 241, 494, 368
-0.998888, 409, 225, 424, 352
-0.998897, 425, 161, 440, 288
-0.998907, 25, 1, 40, 128
-0.998908, 35, 49, 50, 176
-0.998911, 25, 145, 40, 272
-0.998915, 417, 17, 432, 144
-0.998915, 171, 241, 186, 368
-0.998916, 473, 161, 488, 288
-0.998916, 257, 241, 272, 368
-0.99892, 263, 241, 278, 368
-0.998926, 403, 241, 418, 368
-0.998928, 221, 97, 236, 224
-0.998941, 355, 209, 370, 336
-0.998941, 19, 1, 34, 128
-0.998941, 19, 241, 34, 368
-0.998968, 313, 177, 328, 304
-0.99897, 165, 241, 180, 368
-0.998974, 349, 209, 364, 336
-0.998977, 11, 1, 26, 128
-0.998981, 337, 241, 352, 368
-0.998981, 485, 1, 500, 128
-0.998982, 273, 1, 304, 256
-0.998984, 113, 1, 128, 128
-0.998989, 219, 241, 234, 368
-0.998989, 33, 129, 48, 256
-0.99899, 29, 241, 44, 368
-0.998992, 133, 241, 148, 368
-0.998994, 329, 241, 344, 368
-0.998997, 451, 17, 466, 144
-0.999003, 45, 177, 60, 304
-0.999018, 467, 225, 482, 352
-0.999019, 385, 1, 416, 256
-0.999031, 49, 17, 64, 144
-0.999031, 41, 113, 56, 240
-0.999043, 173, 49, 188, 176
-0.99905, 23, 97, 38, 224
-0.999058, 41, 49, 56, 176
-0.999066, 317, 113, 332, 240
-0.999067, 13, 177, 28, 304
-0.999069, 211, 113, 226, 240
-0.999071, 419, 161, 434, 288
-0.999096, 461, 177, 476, 304
-0.999096, 457, 17, 472, 144
-0.999101, 177, 1, 192, 128
-0.999106, 205, 1, 236, 256
-0.999107, 293, 241, 308, 368
-0.99911, 121, 193, 136, 320
-0.999118, 279, 193, 294, 320
-0.999122, 101, 1, 116, 128
-0.999122, 235, 161, 250, 288
-0.999135, 439, 1, 454, 128
-0.999137, 209, 161, 224, 288
-0.999141, 485, 241, 500, 368
-0.999146, 71, 193, 86, 320
-0.999152, 63, 193, 78, 320
-0.999157, 13, 113, 28, 240
-0.999158, 339, 161, 354, 288
-0.999159, 29, 81, 44, 208
-0.999162, 397, 1, 412, 128
-0.999165, 463, 1, 478, 128
-0.99918, 343, 241, 358, 368
-0.999183, 83, 177, 98, 304
-0.999184, 319, 177, 334, 304
-0.999189, 55, 1, 70, 128
-0.99919, 123, 1, 138, 128
-0.999193, 277, 65, 292, 192
-0.999194, 241, 161, 256, 288
-0.999198, 3, 1, 18, 128
-0.999201, 219, 177, 234, 304
-0.999203, 485, 81, 500, 208
-0.999207, 235, 97, 250, 224
-0.999208, 341, 129, 372, 375
-0.999211, 189, 1, 220, 256
-0.999213, 437, 97, 452, 224
-0.999214, 453, 177, 468, 304
-0.999222, 317, 65, 332, 192
-0.999224, 249, 193, 264, 320
-0.999228, 127, 193, 142, 320
-0.999231, 479, 1, 494, 128
-0.999232, 137, 1, 168, 256
-0.999235, 445, 1, 460, 128
-0.999237, 61, 33, 92, 288
-0.999239, 79, 1, 94, 128
-0.999241, 167, 81, 182, 208
-0.999241, 7, 161, 22, 288
-0.999254, 229, 161, 244, 288
-0.999376, 317, 129, 348, 375
-0.999398, 97, 1, 128, 256
-0.999445, 317, 1, 348, 256
-0.999447, 261, 1, 292, 256
-0.999454, 345, 1, 376, 256
-0.999579, 77, 33, 108, 288
-0.999635, 357, 1, 388, 256
-0.99968, 169, 129, 200, 375
-0.999709, 177, 1, 208, 256
-0.999726, 253, 259, 268, 274
-0.999728, 313, 281, 328, 296
-0.999729, 335, 331, 350, 346
-0.999729, 209, 181, 224, 196
-0.999729, 161, 41, 176, 56
-0.999729, 265, 289, 280, 304
-0.99973, 293, 257, 308, 272
-0.99973, 367, 355, 382, 370
-0.99973, 77, 247, 92, 262
-0.999731, 103, 299, 118, 314
-0.999731, 429, 11, 444, 26
-0.999731, 51, 231, 66, 246
-0.999731, 19, 7, 34, 22
-0.999731, 91, 275, 106, 290
-0.999732, 403, 55, 418, 70
-0.999732, 283, 287, 298, 302
-0.999732, 1, 273, 16, 288
-0.999733, 273, 293, 288, 308
-0.999734, 477, 299, 492, 314
-0.999734, 359, 359, 374, 374
-0.999734, 25, 161, 40, 176
-0.999734, 23, 135, 38, 150
-0.999735, 323, 67, 338, 82
-0.999735, 3, 253, 18, 268
-0.999735, 319, 335, 334, 350
-0.999736, 167, 25, 182, 40
-0.999736, 305, 269, 320, 284
-0.999736, 119, 307, 134, 322
-0.999736, 223, 177, 238, 192
-0.999736, 105, 289, 120, 304
-0.999738, 95, 291, 110, 306
-0.999738, 25, 271, 40, 286
-0.999738, 147, 305, 162, 320
-0.999738, 347, 361, 362, 375
-0.999738, 47, 95, 62, 110
-0.999738, 175, 39, 190, 54
-0.999739, 365, 327, 380, 342
-0.999739, 21, 265, 36, 280
-0.99974, 97, 307, 112, 322
-0.99974, 111, 303, 126, 318
-0.99974, 313, 303, 328, 318
-0.999741, 105, 345, 120, 360
-0.999741, 29, 199, 44, 214
-0.999743, 477, 283, 492, 298
-0.999743, 117, 17, 132, 32
-0.999744, 349, 313, 364, 328
-0.999744, 409, 55, 424, 70
-0.999744, 105, 63, 120, 78
-0.999745, 269, 263, 284, 278
-0.999745, 85, 285, 100, 300
-0.999747, 211, 95, 226, 110
-0.999748, 171, 297, 186, 312
-0.999748, 223, 261, 238, 276
-0.999749, 307, 297, 322, 312
-0.99975, 343, 317, 358, 332
-0.99975, 319, 299, 334, 314
-0.999751, 19, 257, 34, 272
-0.999751, 237, 299, 252, 314
-0.999751, 275, 261, 290, 276
-0.999751, 17, 187, 32, 202
-0.999751, 167, 93, 182, 108
-0.999753, 167, 303, 182, 318
-0.999754, 229, 295, 244, 310
-0.999755, 33, 267, 48, 282
-0.999755, 317, 287, 332, 302
-0.999755, 289, 273, 304, 288
-0.999755, 39, 285, 54, 300
-0.999755, 263, 283, 278, 298
-0.999756, 155, 255, 170, 270
-0.999756, 325, 187, 340, 202
-0.999756, 205, 189, 220, 204
-0.999757, 69, 65, 84, 80
-0.999757, 19, 151, 34, 166
-0.999758, 41, 265, 56, 280
-0.999758, 31, 61, 46, 76
-0.99976, 29, 261, 44, 276
-0.99976, 243, 265, 258, 280
-0.999761, 297, 279, 312, 294
-0.999763, 119, 23, 134, 38
-0.999763, 273, 283, 288, 298
-0.999763, 327, 277, 342, 292
-0.999764, 27, 193, 42, 208
-0.999764, 219, 99, 234, 114
-0.999765, 13, 5, 28, 20
-0.999766, 99, 351, 114, 366
-0.999766, 233, 175, 248, 190
-0.999766, 41, 49, 56, 64
-0.999767, 273, 273, 288, 288
-0.999768, 311, 337, 326, 352
-0.999769, 305, 281, 320, 296
-0.999769, 103, 313, 118, 328
-0.999769, 35, 49, 50, 64
-0.999772, 313, 297, 328, 312
-0.999772, 51, 281, 66, 296
-0.999773, 319, 275, 334, 290
-0.999773, 163, 283, 178, 298
-0.999773, 23, 185, 38, 200
-0.999775, 167, 87, 182, 102
-0.999776, 281, 263, 296, 278
-0.999778, 215, 177, 230, 192
-0.999779, 329, 287, 344, 302
-0.99978, 47, 153, 62, 168
-0.99978, 83, 247, 98, 262
-0.999781, 167, 79, 182, 94
-0.999786, 275, 267, 290, 282
-0.999787, 85, 297, 100, 312
-0.999788, 313, 275, 328, 290
-0.999788, 323, 269, 338, 284
-0.999789, 479, 267, 494, 282
-0.999789, 281, 269, 296, 284
-0.999789, 107, 353, 122, 368
-0.999791, 115, 361, 130, 375
-0.999791, 43, 279, 58, 294
-0.999794, 281, 143, 296, 158
-0.999794, 37, 259, 52, 274
-0.999796, 1, 259, 16, 274
-0.999796, 49, 275, 64, 290
-0.999801, 327, 263, 342, 278
-0.999804, 283, 279, 298, 294
-0.999807, 29, 185, 44, 200
-0.999807, 289, 281, 304, 296
-0.999812, 173, 89, 188, 104
-0.999812, 1, 279, 16, 294
-0.999816, 327, 293, 342, 308
-0.99982, 239, 171, 254, 186
-0.999831, 233, 261, 248, 276
-0.999841, 331, 187, 346, 202
-0.999844, 339, 191, 354, 206
-0.999853, 55, 23, 70, 38
-0.999856, 305, 1, 336, 256
-0.999868, 333, 33, 364, 288
-0.999873, 335, 181, 350, 196
-0.999963, 401, 97, 432, 352
-1.00027, 365, 129, 396, 375
-1.00041, 181, 129, 212, 375
-1.00069, 385, 129, 416, 375
-1.00081, 369, 193, 432, 320
