1605
-0.51626, 1, 1, 500, 207
-0.627618, 97, 1, 352, 207
-0.704864, 257, 1, 500, 207
-0.828021, 1, 1, 256, 207
-0.846212, 193, 1, 320, 207
-0.886896, 145, 1, 272, 207
-0.893924, 1, 81, 500, 207
-0.90503, 1, 1, 128, 207
-0.906635, 241, 1, 368, 207
-0.907797, 65, 65, 320, 192
-0.922534, 193, 33, 320, 160
-0.923054, 81, 1, 208, 207
-0.927435, 1, 33, 500, 160
-0.93327, 289, 1, 416, 207
-0.936128, 337, 1, 464, 207
-0.937249, 161, 33, 416, 160
-0.938898, 249, 17, 312, 144
-0.941219, 217, 33, 280, 160
-0.947466, 1, 1, 256, 128
-0.948586, 129, 65, 256, 192
-0.950749, 257, 1, 500, 128
-0.950835, 225, 81, 480, 207
-0.951879, 241, 65, 304, 192
-0.952074, 81, 81, 208, 207
-0.952695, 249, 25, 312, 88
-0.95378, 105, 81, 168, 207
-0.957386, 217, 33, 280, 96
-0.957811, 177, 65, 240, 192
-0.961445, 257, 81, 384, 207
-0.963068, 241, 17, 368, 144
-0.963775, 177, 81, 304, 207
-0.964859, 193, 17, 256, 144
-0.964876, 249, 49, 312, 112
-0.96488, 153, 65, 216, 192
-0.96595, 273, 33, 336, 160
-0.966177, 129, 1, 256, 128
-0.968466, 193, 33, 320, 96
-0.968488, 169, 1, 232, 128
-0.969576, 129, 65, 192, 192
-0.969916, 249, 1, 312, 207
-0.969923, 1, 81, 128, 207
-0.969931, 193, 33, 256, 96
-0.970531, 257, 73, 320, 136
-0.970581, 209, 57, 272, 120
-0.971694, 145, 73, 208, 136
-0.971696, 273, 81, 336, 207
-0.972158, 121, 81, 184, 144
-0.972211, 177, 73, 240, 136
-0.973441, 273, 33, 336, 96
-0.973816, 121, 17, 184, 144
-0.973938, 233, 1, 296, 64
-0.974012, 33, 1, 96, 128
-0.9745, 225, 33, 256, 96
-0.974607, 289, 33, 416, 160
-0.974856, 277, 17, 308, 144
-0.975446, 193, 57, 320, 120
-0.975613, 217, 1, 280, 207
-0.976739, 273, 113, 336, 176
-0.976815, 65, 33, 192, 160
-0.976927, 17, 33, 144, 160
-0.977011, 241, 97, 304, 160
-0.977024, 225, 17, 256, 144
-0.977038, 145, 17, 208, 144
-0.977057, 277, 17, 308, 80
-0.97722, 81, 81, 144, 207
-0.977411, 57, 81, 120, 207
-0.977516, 297, 49, 360, 176
-0.977657, 97, 97, 160, 160
-0.977707, 97, 137, 160, 200
-0.977846, 169, 49, 232, 112
-0.978332, 369, 17, 496, 144
-0.978393, 289, 57, 352, 120
-0.979056, 265, 1, 296, 128
-0.979321, 137, 49, 200, 112
-0.979327, 253, 49, 284, 176
-0.979652, 241, 33, 272, 160
-0.979695, 241, 41, 272, 104
-0.979712, 253, 1, 284, 128
-0.979721, 129, 73, 256, 136
-0.979753, 289, 89, 352, 152
-0.979832, 409, 17, 472, 144
-0.979877, 249, 129, 312, 192
-0.980239, 241, 25, 368, 88
-0.980248, 253, 49, 284, 112
-0.98035, 9, 17, 72, 144
-0.98039, 193, 1, 256, 207
-0.980421, 265, 1, 328, 64
-0.980605, 113, 81, 144, 207
-0.981004, 265, 25, 296, 88
-0.981099, 125, 81, 156, 207
-0.981589, 257, 113, 384, 176
-0.98203, 81, 33, 144, 160
-0.982146, 285, 41, 316, 104
-0.98223, 65, 89, 128, 152
-0.982527, 385, 1, 448, 128
-0.982798, 433, 33, 496, 96
-0.982891, 233, 73, 296, 136
-0.983033, 81, 89, 208, 152
-0.983108, 57, 145, 120, 207
-0.983149, 241, 49, 368, 112
-0.983277, 289, 9, 352, 72
-0.983311, 209, 89, 336, 152
-0.983619, 433, 1, 496, 128
-0.983644, 297, 1, 360, 128
-0.983726, 177, 9, 240, 72
-0.983752, 277, 73, 308, 136
-0.983785, 81, 145, 208, 207
-0.984003, 201, 65, 232, 192
-0.984044, 225, 121, 288, 184
-0.984226, 193, 9, 320, 72
-0.984288, 257, 137, 384, 200
-0.984409, 433, 1, 496, 64
-0.984465, 169, 65, 200, 192
-0.984477, 297, 33, 360, 96
-0.984513, 209, 137, 336, 200
-0.984518, 41, 1, 104, 64
-0.984578, 149, 81, 180, 207
-0.984602, 265, 81, 296, 207
-0.984612, 273, 89, 400, 152
-0.984622, 145, 41, 272, 104
-0.984893, 305, 81, 432, 207
-0.984958, 137, 81, 168, 207
-0.984971, 145, 1, 208, 207
-0.985212, 289, 33, 320, 160
-0.985215, 273, 1, 336, 207
-0.985249, 169, 73, 200, 136
-0.985363, 181, 73, 212, 136
-0.985406, 121, 89, 152, 152
-0.985488, 185, 65, 216, 192
-0.985774, 1, 121, 128, 184
-0.985787, 281, 129, 312, 192
-0.98579, 213, 33, 244, 160
-0.98585, 73, 113, 136, 176
-0.985857, 209, 113, 336, 176
-0.985887, 113, 49, 176, 112
-0.985893, 401, 25, 464, 88
-0.985897, 109, 97, 140, 160
-0.986065, 101, 137, 132, 200
-0.986289, 149, 81, 180, 144
-0.986428, 33, 145, 160, 207
-0.986447, 337, 137, 400, 200
-0.986537, 301, 49, 332, 176
-0.986574, 1, 81, 64, 207
-0.986662, 353, 65, 480, 192
-0.986722, 9, 1, 72, 207
-0.98679, 81, 121, 208, 184
-0.986804, 1, 89, 128, 152
-0.986936, 33, 81, 96, 207
-0.987062, 33, 1, 96, 207
-0.987065, 337, 1, 464, 64
-0.987111, 201, 145, 264, 207
-0.987362, 281, 105, 312, 168
-0.987494, 245, 17, 276, 80
-0.987573, 265, 57, 296, 120
-0.987586, 169, 1, 232, 207
-0.9876, 89, 65, 152, 128
-0.987838, 269, 97, 300, 160
-0.987878, 273, 137, 336, 200
-0.987915, 49, 121, 112, 184
-0.988067, 201, 1, 232, 128
-0.988097, 469, 1, 500, 128
-0.988132, 377, 89, 440, 152
-0.988214, 301, 81, 332, 144
-0.988246, 393, 1, 456, 64
-0.988252, 369, 25, 496, 88
-0.988293, 201, 81, 264, 207
-0.988352, 205, 65, 236, 128
-0.9885, 369, 65, 432, 128
-0.988616, 97, 81, 128, 207
-0.988736, 257, 37, 320, 68
-0.988736, 289, 81, 320, 207
-0.988748, 217, 45, 280, 76
-0.98876, 257, 1, 384, 64
-0.98876, 305, 145, 368, 207
-0.988823, 145, 17, 272, 80
-0.988849, 17, 25, 80, 88
-0.988869, 209, 1, 272, 64
-0.98896, 225, 145, 288, 207
-0.989025, 289, 57, 416, 120
-0.989244, 33, 1, 160, 64
-0.989249, 85, 81, 116, 207
-0.98926, 1, 1, 64, 64
-0.989273, 193, 73, 224, 136
-0.989415, 33, 65, 160, 128
-0.989496, 133, 81, 164, 144
-0.989497, 277, 65, 308, 192
-0.989498, 221, 57, 252, 120
-0.989602, 45, 1, 76, 128
-0.989679, 145, 17, 176, 144
-0.989729, 257, 61, 320, 92
-0.989807, 165, 49, 196, 112
-0.98987, 233, 9, 264, 72
-0.989885, 409, 65, 472, 128
-0.990028, 301, 41, 332, 104
-0.990032, 241, 25, 304, 56
-0.990051, 257, 49, 320, 80
-0.990095, 113, 1, 176, 207
-0.990188, 97, 81, 352, 144
-0.990241, 1, 1, 32, 128
-0.990315, 269, 137, 300, 200
-0.990336, 193, 49, 224, 112
-0.99043, 265, 1, 296, 64
-0.990513, 289, 65, 320, 128
-0.99054, 169, 17, 200, 144
-0.990551, 265, 25, 328, 56
-0.990602, 217, 33, 280, 64
-0.990603, 169, 77, 232, 108
-0.990651, 257, 73, 320, 104
-0.990713, 345, 73, 408, 136
-0.990722, 185, 17, 216, 144
-0.990782, 161, 129, 288, 192
-0.99079, 137, 85, 200, 116
-0.990821, 97, 49, 224, 112
-0.990878, 257, 85, 320, 116
-0.990891, 141, 57, 172, 120
-0.990895, 209, 65, 272, 96
-0.990957, 117, 33, 148, 160
-0.991053, 433, 57, 496, 120
-0.991195, 385, 137, 448, 200
-0.991265, 177, 53, 240, 84
-0.99127, 213, 33, 244, 96
-0.991278, 105, 93, 168, 124
-0.991292, 145, 1, 208, 64
-0.991293, 153, 57, 184, 120
-0.991303, 145, 25, 208, 88
-0.991354, 433, 81, 496, 207
-0.991356, 193, 33, 256, 64
-0.991375, 257, 97, 320, 128
-0.991398, 297, 105, 328, 168
-0.991416, 233, 57, 296, 88
-0.991428, 289, 33, 416, 96
-0.991445, 377, 81, 440, 207
-0.991487, 297, 49, 360, 80
-0.991489, 129, 49, 384, 112
-0.991495, 417, 129, 480, 192
-0.9915, 293, 1, 324, 64
-0.991506, 85, 145, 116, 207
-0.991564, 57, 1, 88, 128
-0.991572, 129, 17, 160, 144
-0.991591, 289, 121, 352, 152
-0.991614, 289, 37, 352, 68
-0.991659, 345, 105, 408, 168
-0.991706, 361, 137, 424, 200
-0.991762, 233, 69, 296, 100
-0.991822, 393, 1, 456, 207
-0.991873, 97, 113, 128, 176
-0.991892, 65, 97, 128, 128
-0.991897, 425, 17, 456, 144
-0.991913, 297, 77, 360, 108
-0.991919, 73, 113, 136, 144
-0.991924, 273, 133, 336, 164
-0.991966, 469, 9, 500, 72
-0.991973, 409, 1, 472, 32
-0.991987, 57, 1, 88, 64
-0.991987, 209, 81, 272, 144
-0.991993, 289, 25, 352, 56
-0.991998, 289, 61, 352, 92
-0.992025, 297, 1, 360, 207
-0.99204, 157, 17, 188, 144
-0.992052, 177, 65, 240, 96
-0.992061, 289, 109, 352, 140
-0.992072, 385, 1, 448, 32
-0.992073, 105, 105, 168, 136
-0.992097, 281, 13, 344, 44
-0.99212, 57, 1, 120, 32
-0.992132, 89, 161, 152, 192
-0.992144, 217, 21, 280, 52
-0.992185, 265, 121, 328, 152
-0.992191, 321, 41, 384, 104
-0.992226, 233, 85, 296, 116
-0.992277, 225, 145, 256, 207
-0.992278, 289, 89, 352, 120
-0.992291, 249, 109, 312, 140
-0.992291, 81, 113, 112, 176
-0.992335, 233, 125, 296, 156
-0.992364, 81, 85, 144, 116
-0.992399, 193, 77, 256, 108
-0.992409, 57, 141, 120, 172
-0.992416, 57, 125, 120, 156
-0.992421, 17, 1, 80, 32
-0.992426, 233, 141, 296, 172
-0.992431, 89, 141, 152, 172
-0.992437, 393, 21, 456, 52
-0.992452, 425, 13, 488, 44
-0.992463, 273, 25, 304, 56
-0.992466, 225, 33, 256, 64
-0.992527, 249, 49, 280, 80
-0.992554, 57, 153, 120, 184
-0.992555, 353, 1, 416, 128
-0.992567, 241, 13, 304, 44
-0.992581, 345, 81, 408, 207
-0.992585, 57, 1, 120, 207
-0.992585, 1, 25, 128, 88
-0.992611, 257, 1, 320, 32
-0.992622, 233, 153, 296, 184
-0.992632, 433, 33, 496, 64
-0.992634, 121, 73, 184, 104
-0.992649, 433, 1, 496, 207
-0.992655, 297, 169, 360, 200
-0.99266, 145, 73, 208, 104
-0.99268, 65, 113, 320, 176
-0.99269, 41, 13, 104, 44
-0.99269, 265, 145, 328, 176
-0.992696, 121, 65, 152, 128
-0.9927, 181, 49, 212, 112
-0.992711, 261, 41, 292, 72
-0.992717, 285, 45, 316, 76
-0.992731, 361, 109, 424, 140
-0.992739, 209, 9, 240, 72
-0.992741, 321, 169, 384, 200
-0.992755, 297, 141, 360, 172
-0.99276, 161, 145, 224, 207
-0.992771, 65, 137, 320, 200
-0.992799, 345, 133, 408, 164
-0.99281, 121, 45, 184, 76
-0.992814, 237, 45, 268, 76
-0.992817, 57, 165, 120, 196
-0.992834, 237, 65, 268, 128
-0.992834, 177, 21, 240, 52
-0.992835, 273, 37, 304, 68
-0.992862, 393, 113, 456, 176
-0.992863, 89, 177, 152, 207
-0.992869, 1, 13, 64, 44
-0.992874, 401, 93, 464, 124
-0.992885, 201, 157, 264, 188
-0.992887, 281, 77, 312, 108
-0.99289, 33, 101, 96, 132
-0.9929, 285, 65, 316, 96
-0.992921, 57, 177, 120, 207
-0.992923, 97, 73, 160, 104
-0.992927, 257, 157, 320, 188
-0.992932, 261, 57, 292, 88
-0.992939, 257, 113, 500, 176
-0.992942, 25, 25, 88, 56
-0.992959, 121, 97, 152, 128
-0.992959, 169, 41, 232, 72
-0.992964, 153, 57, 216, 88
-0.992973, 97, 81, 128, 144
-0.992974, 89, 1, 152, 207
-0.992983, 361, 97, 424, 128
-0.992993, 149, 85, 180, 116
-0.992997, 197, 73, 228, 104
-0.993, 17, 41, 80, 72
-0.993002, 9, 113, 72, 144
-0.993005, 217, 57, 248, 88
-0.993007, 305, 137, 432, 200
-0.99301, 385, 149, 448, 180
-0.99302, 361, 1, 424, 64
-0.993023, 281, 101, 312, 132
-0.993025, 225, 45, 256, 76
-0.993029, 177, 77, 208, 108
-0.993033, 97, 117, 160, 148
-0.993038, 161, 105, 288, 168
-0.993045, 301, 53, 332, 84
-0.993057, 165, 81, 196, 112
-0.993059, 281, 157, 344, 188
-0.99306, 353, 1, 416, 32
-0.993064, 97, 157, 128, 188
-0.993067, 425, 105, 488, 136
-0.993077, 329, 109, 392, 140
-0.993077, 425, 169, 488, 200
-0.993078, 385, 105, 448, 136
-0.99309, 261, 73, 292, 104
-0.993091, 133, 89, 164, 120
-0.993096, 233, 97, 296, 128
-0.993101, 301, 65, 332, 96
-0.993102, 25, 1, 56, 128
-0.993106, 401, 37, 464, 68
-0.993112, 209, 73, 240, 104
-0.993116, 321, 157, 384, 188
-0.993119, 97, 129, 160, 160
-0.993133, 205, 57, 236, 88
-0.993135, 361, 149, 424, 180
-0.99314, 249, 61, 280, 92
-0.993146, 109, 105, 140, 136
-0.993148, 185, 169, 248, 200
-0.993174, 145, 25, 208, 56
-0.993174, 425, 117, 488, 148
-0.993174, 249, 33, 280, 64
-0.993175, 129, 61, 192, 92
-0.993181, 329, 145, 392, 176
-0.993186, 401, 81, 464, 112
-0.993201, 153, 73, 184, 104
-0.993205, 401, 133, 464, 164
-0.993208, 97, 17, 160, 80
-0.993213, 241, 169, 304, 200
-0.993215, 33, 89, 96, 120
-0.993216, 385, 117, 448, 148
-0.993226, 9, 101, 72, 132
-0.993227, 253, 85, 284, 116
-0.993228, 285, 125, 316, 156
-0.993228, 113, 177, 176, 207
-0.993228, 297, 113, 328, 144
-0.993229, 153, 165, 216, 196
-0.993229, 345, 65, 408, 96
-0.993231, 417, 157, 480, 188
-0.993236, 273, 173, 336, 204
-0.993249, 205, 45, 236, 76
-0.99325, 285, 33, 316, 64
-0.993252, 145, 1, 208, 32
-0.993252, 409, 65, 472, 96
-0.993255, 301, 89, 332, 120
-0.993259, 293, 21, 324, 52
-0.993264, 281, 89, 312, 120
-0.993265, 465, 33, 496, 96
-0.993267, 93, 101, 124, 132
-0.993272, 425, 45, 488, 76
-0.993276, 165, 69, 196, 100
-0.993282, 233, 1, 296, 32
-0.993283, 353, 165, 416, 196
-0.993286, 433, 65, 496, 96
-0.993289, 269, 85, 300, 116
-0.993291, 401, 49, 464, 80
-0.993295, 57, 1, 120, 128
-0.993295, 273, 53, 304, 84
-0.993299, 81, 53, 144, 84
-0.993303, 237, 33, 268, 64
-0.993304, 105, 25, 168, 56
-0.993304, 85, 121, 116, 152
-0.993306, 177, 65, 208, 96
-0.993309, 377, 161, 440, 192
-0.993315, 9, 65, 72, 96
-0.993322, 189, 61, 220, 92
-0.993322, 1, 53, 64, 84
-0.993325, 305, 1, 368, 32
-0.993326, 213, 29, 244, 60
-0.993327, 321, 133, 384, 164
-0.993336, 301, 41, 332, 72
-0.993337, 313, 37, 376, 68
-0.993339, 301, 1, 332, 128
-0.993339, 105, 89, 136, 120
-0.993341, 385, 65, 448, 96
-0.993341, 97, 145, 128, 176
-0.993343, 121, 13, 184, 44
-0.993343, 217, 169, 280, 200
-0.993344, 1, 97, 500, 160
-0.993345, 281, 1, 344, 32
-0.993356, 33, 77, 96, 108
-0.993357, 105, 117, 136, 148
-0.993363, 345, 49, 408, 112
-0.993371, 221, 1, 252, 64
-0.993371, 257, 97, 288, 160
-0.993374, 133, 77, 164, 108
-0.993378, 257, 17, 288, 48
-0.993387, 81, 157, 112, 188
-0.993388, 321, 177, 352, 207
-0.99339, 237, 69, 268, 100
-0.993391, 273, 65, 304, 96
-0.993392, 453, 45, 484, 76
-0.993393, 261, 97, 292, 128
-0.993398, 369, 137, 496, 200
-0.9934, 261, 29, 292, 60
-0.993403, 273, 113, 304, 144
-0.99341, 81, 133, 112, 164
-0.99341, 85, 169, 116, 200
-0.993416, 409, 1, 440, 32
-0.993418, 301, 77, 332, 108
-0.99342, 57, 1, 88, 32
-0.993433, 393, 153, 424, 184
-0.993433, 237, 21, 268, 52
-0.993443, 281, 13, 312, 44
-0.993444, 77, 145, 108, 176
-0.993451, 441, 37, 472, 68
-0.993451, 281, 137, 312, 168
-0.993452, 469, 65, 500, 128
-0.993453, 309, 165, 340, 196
-0.993454, 249, 73, 280, 104
-0.993454, 469, 1, 500, 32
-0.993459, 45, 21, 76, 52
-0.993461, 469, 25, 500, 56
-0.993462, 421, 25, 452, 56
-0.993463, 241, 85, 272, 116
-0.993478, 333, 169, 364, 200
-0.993485, 193, 41, 320, 72
-0.993487, 325, 141, 356, 172
-0.99349, 345, 137, 376, 168
-0.993492, 5, 1, 36, 32
-0.993499, 261, 1, 292, 32
-0.993507, 269, 141, 300, 172
-0.993508, 429, 1, 460, 32
-0.993508, 221, 69, 252, 100
-0.993508, 441, 33, 472, 160
-0.993511, 1, 57, 32, 88
-0.993513, 225, 21, 256, 52
-0.993513, 1, 117, 32, 148
-0.993513, 229, 57, 260, 88
-0.993514, 101, 133, 132, 164
-0.993521, 469, 13, 500, 44
-0.993523, 69, 109, 100, 140
-0.993527, 381, 105, 412, 136
-0.993528, 469, 37, 500, 68
-0.993531, 293, 101, 324, 132
-0.993535, 413, 157, 444, 188
-0.993543, 273, 1, 304, 32
-0.993543, 285, 113, 316, 144
-0.993543, 57, 13, 88, 44
-0.993545, 417, 105, 480, 168
-0.993545, 329, 153, 360, 184
-0.993547, 341, 149, 372, 180
-0.993554, 441, 161, 472, 192
-0.993555, 469, 161, 500, 192
-0.993556, 369, 173, 400, 204
-0.993558, 393, 109, 424, 140
-0.993558, 429, 165, 460, 196
-0.993564, 321, 165, 352, 196
-0.993565, 121, 77, 152, 108
-0.993566, 45, 89, 76, 120
-0.993568, 289, 1, 320, 32
-0.993569, 17, 41, 48, 72
-0.99357, 353, 161, 384, 192
-0.993571, 325, 45, 356, 76
-0.993572, 305, 29, 336, 60
-0.993573, 457, 29, 488, 60
-0.993576, 33, 29, 64, 60
-0.993577, 393, 141, 424, 172
-0.993577, 201, 29, 232, 60
-0.993578, 445, 97, 476, 128
-0.993583, 313, 45, 344, 76
-0.993584, 97, 169, 128, 200
-0.993587, 261, 153, 292, 184
-0.993588, 305, 17, 336, 80
-0.993589, 373, 161, 404, 192
-0.993589, 209, 17, 240, 48
-0.99359, 429, 177, 460, 207
-0.993591, 469, 89, 500, 120
-0.993594, 33, 89, 64, 120
-0.993594, 213, 169, 244, 200
-0.993597, 1, 137, 32, 168
-0.993602, 209, 57, 336, 88
-0.99366, 257, 25, 500, 88
-0.993703, 257, 73, 500, 136
-0.993782, 417, 1, 448, 64
-0.993835, 253, 73, 284, 136
-0.993902, 1, 129, 500, 192
-0.993959, 313, 9, 376, 72
-0.993969, 65, 1, 128, 64
-0.993997, 413, 1, 444, 128
-0.994058, 369, 113, 432, 176
-0.994105, 377, 41, 440, 104
-0.994244, 25, 121, 88, 184
-0.994266, 225, 49, 480, 112
-0.994277, 65, 65, 128, 128
-0.994281, 229, 65, 260, 192
-0.99429, 9, 145, 72, 207
-0.994353, 369, 97, 496, 160
-0.994366, 109, 73, 140, 136
-0.994381, 353, 65, 480, 128
-0.994462, 1, 73, 500, 136
-0.994498, 321, 113, 448, 176
-0.99451, 457, 1, 488, 128
-0.994535, 193, 29, 320, 60
-0.99456, 49, 41, 176, 104
-0.994655, 297, 113, 360, 176
-0.994674, 429, 25, 460, 88
-0.994675, 161, 25, 416, 88
-0.9947, 193, 69, 320, 100
-0.994844, 9, 41, 40, 104
-0.994846, 241, 81, 272, 207
-0.994941, 193, 137, 448, 200
-0.994948, 257, 121, 288, 184
-0.995001, 121, 1, 184, 64
-0.995006, 1, 25, 256, 88
-0.995062, 385, 1, 416, 64
-0.995081, 247, 41, 262, 104
-0.995134, 341, 137, 372, 200
-0.995174, 101, 137, 116, 200
-0.995177, 469, 49, 500, 176
-0.995323, 269, 33, 284, 96
-0.995335, 381, 89, 412, 152
-0.995377, 257, 1, 500, 64
-0.995387, 257, 41, 272, 104
-0.995419, 345, 25, 408, 88
-0.995465, 1, 81, 64, 144
-0.995471, 275, 25, 290, 88
-0.995521, 241, 41, 368, 72
-0.995522, 161, 53, 288, 84
-0.995523, 145, 77, 272, 108
-0.995609, 1, 1, 500, 64
-0.995651, 81, 1, 208, 64
-0.995664, 105, 33, 136, 160
-0.995666, 229, 25, 244, 88
-0.995692, 13, 33, 44, 160
-0.995718, 201, 145, 232, 207
-0.995808, 321, 97, 384, 160
-0.995812, 1, 17, 32, 80
-0.99582, 41, 17, 72, 80
-0.995825, 277, 1, 308, 207
-0.995831, 409, 81, 440, 207
-0.995833, 25, 73, 88, 136
-0.995835, 1, 1, 256, 64
-0.995858, 9, 49, 72, 112
-0.995861, 313, 65, 376, 128
-0.995864, 1, 81, 256, 144
-0.995888, 1, 97, 32, 160
-0.995901, 121, 145, 184, 207
-0.995917, 237, 33, 252, 96
-0.995951, 263, 49, 278, 112
-0.995972, 433, 1, 464, 64
-0.996004, 213, 81, 244, 207
-0.996019, 1, 49, 256, 112
-0.996046, 289, 25, 304, 88
-0.996057, 97, 85, 224, 116
-0.996121, 281, 17, 296, 80
-0.996152, 295, 33, 310, 96
-0.996164, 321, 89, 448, 152
-0.996166, 385, 81, 416, 207
-0.996168, 273, 85, 400, 116
-0.996168, 209, 81, 336, 112
-0.996211, 401, 81, 464, 207
-0.996212, 185, 73, 200, 136
-0.996225, 321, 1, 384, 128
-0.996238, 273, 101, 400, 132
-0.996272, 1, 113, 64, 176
-0.996295, 245, 137, 276, 200
-0.996297, 57, 41, 120, 104
-0.996304, 241, 29, 368, 60
-0.996305, 1, 73, 32, 136
-0.99632, 113, 57, 240, 88
-0.99637, 225, 1, 256, 207
-0.996384, 257, 133, 384, 164
-0.996392, 449, 33, 480, 96
-0.996414, 281, 65, 296, 128
-0.996458, 97, 25, 224, 88
-0.996468, 209, 97, 336, 128
-0.996502, 145, 29, 272, 60
-0.996527, 29, 17, 60, 80
-0.99654, 179, 73, 194, 136
-0.996584, 85, 89, 116, 152
-0.99659, 159, 81, 174, 144
-0.996634, 209, 109, 336, 140
-0.996637, 17, 113, 48, 176
-0.99664, 215, 65, 230, 128
-0.99664, 25, 97, 88, 160
-0.996647, 223, 33, 238, 96
-0.996649, 257, 145, 384, 176
-0.996654, 165, 81, 180, 144
-0.996661, 273, 65, 400, 96
-0.996662, 193, 73, 208, 136
-0.996675, 203, 73, 218, 136
-0.996682, 393, 57, 424, 120
-0.996684, 69, 1, 100, 64
-0.996711, 247, 17, 262, 80
-0.996736, 107, 121, 122, 184
-0.996761, 17, 113, 144, 144
-0.996769, 445, 145, 476, 207
-0.996773, 1, 49, 32, 176
-0.996774, 49, 1, 176, 32
-0.996785, 291, 121, 306, 184
-0.996801, 257, 53, 384, 84
-0.996802, 257, 145, 288, 207
-0.996832, 271, 57, 286, 120
-0.996838, 117, 97, 132, 160
-0.996867, 353, 81, 384, 207
-0.996883, 125, 89, 140, 152
-0.996886, 297, 105, 312, 168
-0.996887, 263, 17, 278, 80
-0.996899, 151, 81, 166, 144
-0.996906, 273, 113, 400, 144
-0.996918, 301, 81, 316, 144
-0.996943, 275, 1, 290, 64
-0.996958, 275, 97, 290, 160
-0.996978, 131, 89, 146, 152
-0.996978, 341, 1, 372, 128
-0.996978, 421, 81, 452, 207
-0.996988, 289, 97, 304, 160
-0.99699, 81, 157, 208, 188
-0.996991, 457, 97, 488, 160
-0.997001, 221, 57, 236, 120
-0.997025, 321, 81, 384, 207
-0.997055, 345, 113, 376, 176
-0.997056, 145, 81, 160, 144
-0.997063, 469, 137, 500, 200
-0.997064, 253, 17, 268, 80
-0.997067, 17, 137, 144, 168
-0.997092, 173, 49, 188, 112
-0.997128, 289, 41, 416, 72
-0.997133, 1, 25, 500, 88
-0.997134, 283, 105, 298, 168
-0.997146, 49, 73, 176, 104
-0.997146, 325, 129, 356, 192
-0.997147, 261, 1, 292, 207
-0.997152, 209, 129, 336, 160
-0.997161, 449, 9, 480, 72
-0.997165, 313, 49, 344, 112
-0.997168, 49, 97, 176, 128
-0.997169, 361, 145, 392, 207
-0.997171, 95, 145, 110, 207
-0.997177, 405, 1, 436, 64
-0.997178, 207, 49, 222, 112
-0.99719, 97, 97, 224, 128
-0.997202, 161, 105, 416, 168
-0.997204, 1, 137, 32, 200
-0.997216, 1, 161, 128, 192
-0.997226, 17, 125, 144, 156
-0.997248, 155, 57, 170, 120
-0.997263, 197, 49, 212, 112
-0.997265, 213, 41, 228, 104
-0.997265, 145, 41, 272, 72
-0.99727, 269, 1, 284, 64
-0.997271, 237, 9, 252, 72
-0.997279, 241, 1, 272, 207
-0.997291, 485, 33, 500, 96
-0.997299, 401, 1, 432, 128
-0.99731, 209, 73, 224, 136
-0.997317, 281, 137, 296, 200
-0.997341, 97, 113, 112, 176
-0.997355, 261, 45, 276, 76
-0.997364, 341, 41, 372, 104
-0.997373, 167, 57, 182, 120
-0.997383, 193, 17, 320, 48
-0.997394, 171, 81, 186, 144
-0.997407, 209, 145, 336, 176
-0.997412, 37, 81, 68, 207
-0.997415, 185, 121, 248, 184
-0.997419, 289, 1, 304, 64
-0.997425, 33, 145, 96, 207
-0.997447, 433, 81, 496, 144
-0.997452, 137, 89, 152, 152
-0.997461, 321, 1, 448, 32
-0.99747, 81, 145, 208, 176
-0.997474, 149, 49, 164, 112
-0.997474, 305, 49, 320, 112
-0.997486, 111, 97, 126, 160
-0.997499, 255, 65, 270, 128
-0.9975, 1, 1, 128, 32
-0.997524, 67, 1, 82, 64
-0.997532, 97, 109, 224, 140
-0.997534, 405, 97, 436, 160
-0.997555, 183, 49, 198, 112
-0.997556, 295, 57, 310, 120
-0.99756, 247, 45, 262, 76
-0.997561, 213, 145, 244, 207
-0.997564, 93, 33, 124, 160
-0.99757, 139, 65, 154, 128
-0.997585, 295, 81, 310, 144
-0.997588, 25, 49, 56, 176
-0.997596, 413, 73, 444, 136
-0.997598, 33, 13, 160, 44
-0.997601, 1, 177, 128, 207
-0.997603, 485, 9, 500, 72
-0.99763, 193, 157, 320, 188
-0.997634, 213, 1, 244, 207
-0.997642, 369, 1, 496, 32
-0.997642, 369, 25, 496, 56
-0.997646, 191, 49, 206, 112
-0.997667, 255, 53, 270, 84
-0.997689, 485, 65, 500, 128
-0.997695, 161, 57, 176, 120
-0.997703, 283, 21, 298, 52
-0.997741, 73, 81, 104, 207
-0.997747, 293, 129, 324, 192
-0.997751, 231, 29, 246, 60
-0.997754, 345, 1, 408, 207
-0.997787, 103, 89, 118, 152
-0.997787, 345, 145, 360, 207
-0.997788, 469, 97, 500, 160
-0.997809, 413, 25, 444, 88
-0.997821, 221, 1, 236, 64
-0.997826, 421, 137, 452, 200
-0.997843, 73, 137, 104, 200
-0.997844, 289, 29, 416, 60
-0.997862, 33, 85, 160, 116
-0.997866, 123, 65, 138, 128
-0.997877, 485, 145, 500, 207
-0.997877, 81, 129, 208, 160
-0.997878, 321, 1, 384, 207
-0.997882, 435, 1, 450, 64
-0.997888, 479, 25, 494, 88
-0.997893, 97, 1, 352, 64
-0.997897, 467, 33, 482, 96
-0.997902, 295, 1, 310, 64
-0.997903, 277, 25, 292, 56
-0.99791, 17, 149, 144, 180
-0.997914, 303, 17, 318, 80
-0.997918, 263, 57, 278, 88
-0.997926, 241, 157, 368, 188
-0.997927, 109, 49, 140, 112
-0.997941, 231, 1, 246, 64
-0.997962, 133, 65, 148, 128
-0.997964, 239, 37, 254, 68
-0.997972, 295, 41, 310, 72
-0.997978, 267, 41, 282, 72
-0.997982, 275, 137, 290, 200
-0.997994, 257, 173, 384, 204
-0.997998, 321, 81, 352, 207
-0.997998, 53, 17, 68, 80
-0.997998, 249, 73, 264, 136
-0.998, 17, 29, 144, 60
-0.998001, 485, 89, 500, 152
-0.998008, 1, 113, 16, 176
-0.998023, 241, 57, 256, 120
-0.998036, 269, 137, 284, 200
-0.998043, 273, 41, 288, 72
-0.998051, 281, 41, 296, 104
-0.998055, 427, 9, 442, 72
-0.998078, 81, 169, 208, 200
-0.998084, 1, 49, 16, 112
-0.998086, 211, 73, 226, 104
-0.998087, 337, 173, 464, 204
-0.9981, 115, 73, 130, 136
-0.998101, 193, 169, 320, 200
-0.998106, 29, 129, 60, 192
-0.998111, 269, 53, 284, 84
-0.998119, 337, 129, 352, 192
-0.998119, 261, 73, 276, 136
-0.998129, 287, 57, 302, 120
-0.998131, 485, 121, 500, 184
-0.998137, 1, 73, 16, 136
-0.998149, 113, 17, 240, 48
-0.998152, 265, 97, 280, 160
-0.998163, 1, 101, 128, 132
-0.998164, 377, 137, 408, 200
-0.998168, 449, 65, 480, 128
-0.998176, 121, 101, 136, 132
-0.998177, 435, 25, 450, 88
-0.998184, 337, 13, 464, 44
-0.998197, 233, 121, 264, 184
-0.9982, 129, 165, 256, 196
-0.998228, 17, 65, 48, 128
-0.998235, 229, 49, 244, 112
-0.998253, 459, 33, 474, 96
-0.998253, 477, 137, 492, 200
-0.998256, 163, 85, 178, 116
-0.998262, 161, 145, 288, 176
-0.998264, 421, 1, 436, 64
-0.998268, 89, 137, 104, 200
-0.998276, 353, 41, 480, 72
-0.998283, 281, 77, 296, 108
-0.998284, 205, 73, 220, 104
-0.99829, 89, 127, 120, 142
-0.99829, 449, 33, 464, 96
-0.99829, 393, 1, 424, 16
-0.998293, 77, 169, 108, 184
-0.998293, 289, 17, 320, 32
-0.998294, 357, 177, 388, 192
-0.998294, 225, 45, 240, 76
-0.998295, 189, 77, 204, 108
-0.998295, 377, 1, 408, 16
-0.998295, 105, 131, 136, 146
-0.998296, 237, 55, 268, 70
-0.998297, 353, 193, 384, 207
-0.998298, 113, 113, 128, 144
-0.998299, 109, 115, 140, 130
-0.998299, 93, 121, 124, 136
-0.998299, 421, 165, 452, 180
-0.998301, 137, 89, 168, 104
-0.998301, 249, 91, 280, 106
-0.998301, 281, 115, 312, 130
-0.998301, 441, 41, 472, 56
-0.998302, 201, 59, 232, 74
-0.998303, 405, 1, 436, 16
-0.998303, 297, 119, 328, 134
-0.998303, 409, 157, 440, 172
-0.998303, 209, 67, 240, 82
-0.998304, 289, 25, 320, 40
-0.998306, 325, 167, 356, 182
-0.998307, 97, 113, 128, 128
-0.998309, 81, 151, 112, 166
-0.998309, 97, 1, 128, 16
-0.998312, 273, 57, 304, 72
-0.998312, 381, 175, 412, 190
-0.998313, 85, 141, 116, 156
-0.998313, 325, 177, 356, 192
-0.998314, 65, 1, 96, 16
-0.998315, 97, 153, 128, 168
-0.998315, 97, 159, 128, 174
-0.998316, 297, 107, 328, 122
-0.998317, 241, 31, 272, 46
-0.998317, 369, 187, 400, 202
-0.998317, 345, 177, 376, 192
-0.998317, 297, 99, 328, 114
-0.998317, 281, 87, 312, 102
-0.998318, 197, 71, 228, 86
-0.998318, 285, 135, 316, 150
-0.998318, 117, 1, 148, 16
-0.998318, 265, 79, 296, 94
-0.998318, 157, 77, 188, 92
-0.998319, 309, 173, 340, 188
-0.998319, 231, 145, 246, 207
-0.99832, 169, 1, 200, 207
-0.99832, 145, 83, 176, 98
-0.998321, 221, 71, 252, 86
-0.998321, 213, 31, 244, 46
-0.998324, 301, 89, 332, 104
-0.998324, 281, 109, 312, 124
-0.998325, 181, 75, 212, 90
-0.998326, 261, 37, 292, 52
-0.998327, 109, 103, 140, 118
-0.998329, 265, 27, 296, 42
-0.998329, 241, 85, 272, 100
-0.99833, 85, 133, 116, 148
-0.99833, 261, 87, 292, 102
-0.99833, 9, 1, 40, 16
-0.998331, 389, 151, 420, 166
-0.998334, 17, 9, 48, 72
-0.998334, 77, 1, 108, 16
-0.998335, 305, 43, 336, 58
-0.998335, 305, 69, 320, 100
-0.998335, 281, 97, 312, 112
-0.998336, 117, 109, 148, 124
-0.998339, 293, 125, 324, 140
-0.99834, 301, 75, 332, 90
-0.998341, 301, 81, 332, 96
-0.998341, 317, 25, 332, 88
-0.998342, 97, 165, 128, 180
-0.998342, 165, 1, 196, 16
-0.998342, 169, 75, 200, 90
-0.998343, 7, 105, 22, 168
-0.998344, 293, 31, 324, 46
-0.998344, 253, 67, 284, 82
-0.998344, 73, 1, 88, 64
-0.998345, 183, 77, 198, 108
-0.998346, 221, 65, 252, 80
-0.998346, 213, 47, 244, 62
-0.998347, 169, 85, 184, 116
-0.998347, 289, 33, 304, 64
-0.998347, 301, 53, 332, 68
-0.998348, 97, 103, 128, 118
-0.998348, 321, 1, 352, 16
-0.99835, 129, 1, 160, 16
-0.998351, 109, 93, 140, 108
-0.998352, 269, 1, 300, 16
-0.998353, 177, 1, 208, 16
-0.998353, 253, 1, 284, 16
-0.998353, 195, 77, 210, 108
-0.998354, 265, 63, 296, 78
-0.998355, 173, 1, 204, 64
-0.998355, 365, 1, 396, 16
-0.998358, 389, 137, 404, 200
-0.998359, 209, 1, 240, 16
-0.998359, 245, 43, 276, 58
-0.99836, 205, 53, 236, 68
-0.998362, 475, 57, 490, 120
-0.998364, 99, 153, 114, 184
-0.998365, 285, 39, 316, 54
-0.998366, 349, 1, 380, 16
-0.998367, 1, 49, 500, 112
-0.998368, 209, 1, 336, 32
-0.99837, 169, 73, 184, 104
-0.998371, 257, 65, 272, 96
-0.998371, 337, 1, 368, 16
-0.998372, 257, 21, 288, 36
-0.998373, 225, 1, 256, 16
-0.998373, 293, 1, 324, 16
-0.998373, 209, 73, 240, 88
-0.998375, 45, 17, 60, 80
-0.998376, 305, 1, 336, 16
-0.998376, 257, 17, 384, 48
-0.998376, 277, 21, 308, 36
-0.998376, 245, 37, 276, 52
-0.998377, 279, 61, 294, 92
-0.998379, 149, 85, 164, 116
-0.998379, 121, 103, 152, 118
-0.998382, 197, 1, 228, 16
-0.998382, 269, 45, 300, 60
-0.998382, 221, 59, 252, 74
-0.998382, 241, 1, 272, 16
-0.998384, 281, 1, 312, 16
-0.99839, 301, 69, 332, 84
-0.998393, 149, 1, 180, 16
-0.998396, 285, 51, 316, 66
-0.998396, 285, 65, 316, 80
-0.998396, 281, 103, 312, 118
-0.998397, 285, 75, 316, 90
-0.998398, 129, 95, 160, 110
-0.9984, 127, 97, 142, 128
-0.998402, 225, 51, 256, 66
-0.998407, 301, 59, 332, 74
-0.998408, 285, 81, 316, 96
-0.99841, 221, 57, 236, 88
-0.99841, 275, 73, 290, 104
-0.99841, 149, 89, 180, 104
-0.998411, 161, 85, 192, 100
-0.998413, 225, 145, 240, 207
-0.998419, 353, 157, 480, 188
-0.99842, 197, 77, 228, 92
-0.99842, 261, 57, 292, 72
-0.998421, 217, 73, 232, 104
-0.998422, 369, 89, 496, 120
-0.998422, 303, 105, 318, 168
-0.998423, 217, 47, 280, 62
-0.998423, 307, 49, 322, 80
-0.998428, 225, 33, 256, 48
-0.998429, 241, 89, 272, 152
-0.998434, 355, 137, 370, 200
-0.998435, 365, 145, 380, 207
-0.998435, 285, 59, 316, 74
-0.998436, 235, 57, 250, 120
-0.99844, 285, 45, 316, 60
-0.998442, 225, 45, 256, 60
-0.998443, 213, 145, 228, 207
-0.998445, 177, 81, 208, 96
-0.998446, 321, 25, 352, 88
-0.998447, 347, 113, 362, 176
-0.998451, 257, 49, 320, 64
-0.998452, 273, 39, 304, 54
-0.998457, 473, 33, 488, 96
-0.998458, 291, 125, 306, 156
-0.998458, 369, 121, 384, 184
-0.998459, 389, 89, 404, 152
-0.998463, 261, 33, 276, 64
-0.998465, 9, 1, 24, 64
-0.998466, 175, 81, 190, 112
-0.998466, 137, 93, 152, 124
-0.998467, 197, 1, 228, 207
-0.998469, 249, 33, 264, 64
-0.998469, 249, 39, 312, 54
-0.998476, 41, 1, 72, 207
-0.998479, 89, 41, 152, 104
-0.998479, 1, 1, 16, 64
-0.998485, 273, 85, 288, 116
-0.998486, 269, 51, 300, 66
-0.99849, 243, 145, 258, 207
-0.998491, 277, 27, 308, 42
-0.998492, 295, 81, 310, 112
-0.998493, 255, 41, 270, 72
-0.998493, 257, 45, 288, 60
-0.998494, 217, 41, 280, 56
-0.998498, 255, 77, 270, 108
-0.998499, 273, 33, 304, 48
-0.998499, 249, 57, 280, 72
-0.9985, 97, 69, 224, 100
-0.998502, 257, 63, 320, 78
-0.998503, 237, 49, 268, 64
-0.998507, 305, 161, 432, 192
-0.998508, 299, 145, 314, 207
-0.998511, 433, 81, 464, 207
-0.998511, 11, 49, 26, 112
-0.998514, 15, 129, 30, 192
-0.998529, 273, 97, 288, 128
-0.99853, 225, 39, 256, 54
-0.998532, 257, 87, 320, 102
-0.998533, 155, 85, 170, 116
-0.998536, 143, 89, 158, 120
-0.998538, 453, 57, 468, 120
-0.998539, 175, 65, 190, 96
-0.998541, 217, 53, 280, 68
-0.998542, 249, 51, 280, 66
-0.998543, 257, 69, 320, 84
-0.998545, 389, 1, 404, 64
-0.998545, 297, 121, 312, 152
-0.998548, 249, 55, 312, 70
-0.998555, 269, 65, 284, 96
-0.998555, 1, 25, 16, 88
-0.998556, 125, 85, 140, 116
-0.998559, 291, 101, 306, 132
-0.99856, 257, 75, 320, 90
-0.998565, 311, 41, 326, 104
-0.998566, 169, 79, 232, 94
-0.998567, 271, 29, 286, 60
-0.99857, 485, 169, 500, 200
-0.99857, 209, 71, 272, 86
-0.998573, 241, 33, 304, 48
-0.998575, 257, 81, 320, 96
-0.998578, 321, 81, 448, 112
-0.99858, 217, 35, 280, 50
-0.998583, 215, 61, 230, 92
-0.998583, 97, 173, 112, 204
-0.998585, 265, 33, 328, 48
-0.998588, 217, 59, 280, 74
-0.998588, 237, 25, 252, 56
-0.998589, 285, 65, 300, 96
-0.998589, 105, 137, 120, 168
-0.998592, 265, 27, 328, 42
-0.998594, 99, 117, 114, 148
-0.9986, 305, 53, 432, 84
-0.998601, 93, 161, 108, 192
-0.998601, 193, 39, 256, 54
-0.998601, 233, 25, 296, 40
-0.998602, 145, 85, 208, 100
-0.998603, 273, 1, 336, 16
-0.998603, 301, 45, 316, 76
-0.998606, 177, 57, 240, 72
-0.99861, 297, 57, 360, 72
-0.998611, 121, 91, 184, 106
-0.998612, 217, 65, 280, 80
-0.998612, 243, 25, 258, 56
-0.998612, 303, 81, 318, 112
-0.998615, 169, 1, 232, 16
-0.998619, 249, 1, 312, 16
-0.998619, 337, 145, 464, 176
-0.998621, 65, 1, 128, 16
-0.998621, 289, 41, 352, 56
-0.998621, 297, 69, 360, 84
-0.998624, 107, 101, 122, 132
-0.998626, 209, 1, 272, 16
-0.998628, 181, 65, 196, 96
-0.998629, 107, 121, 122, 152
-0.998629, 297, 75, 360, 90
-0.99863, 281, 127, 344, 142
-0.998631, 225, 33, 240, 64
-0.998631, 329, 1, 392, 16
-0.998632, 145, 1, 208, 16
-0.998632, 297, 1, 360, 16
-0.998633, 177, 51, 240, 66
-0.998634, 289, 63, 352, 78
-0.998635, 185, 73, 248, 88
-0.998636, 177, 65, 240, 80
-0.998636, 305, 175, 368, 190
-0.998637, 283, 89, 298, 120
-0.998637, 369, 1, 432, 16
-0.998637, 257, 103, 320, 118
-0.998638, 73, 107, 136, 122
-0.998638, 189, 65, 204, 96
-0.998639, 297, 81, 360, 96
-0.998645, 177, 45, 240, 60
-0.998647, 81, 93, 144, 108
-0.998648, 67, 1, 82, 32
-0.998648, 149, 1, 180, 207
-0.99865, 289, 97, 352, 112
-0.99865, 289, 35, 352, 50
-0.998651, 337, 169, 352, 200
-0.998651, 281, 137, 296, 168
-0.998651, 121, 1, 184, 16
-0.998651, 289, 47, 352, 62
-0.998652, 313, 33, 344, 160
-0.998652, 281, 121, 344, 136
-0.998653, 257, 93, 320, 108
-0.998653, 485, 21, 500, 52
-0.998654, 193, 31, 256, 46
-0.998656, 121, 97, 184, 112
-0.998657, 289, 21, 304, 52
-0.998657, 485, 141, 500, 172
-0.998657, 129, 77, 192, 92
-0.998657, 273, 135, 336, 150
-0.998658, 301, 109, 316, 140
-0.998658, 13, 1, 44, 207
-0.998659, 113, 103, 176, 118
-0.998659, 297, 167, 360, 182
-0.998665, 337, 169, 400, 184
-0.998665, 289, 105, 352, 120
-0.998666, 295, 53, 310, 84
-0.998667, 73, 101, 136, 116
-0.998667, 273, 57, 336, 72
-0.998667, 73, 113, 136, 128
-0.998667, 283, 49, 298, 80
-0.998669, 57, 145, 120, 160
-0.998671, 89, 1, 152, 16
-0.998671, 241, 129, 304, 144
-0.998672, 233, 71, 296, 86
-0.998673, 153, 71, 216, 86
-0.998674, 115, 89, 130, 120
-0.998675, 105, 109, 168, 124
-0.998675, 289, 111, 352, 126
-0.998676, 425, 1, 456, 207
-0.998677, 281, 21, 344, 36
-0.998677, 257, 111, 320, 126
-0.998678, 285, 5, 300, 36
-0.998678, 385, 109, 448, 124
-0.998678, 99, 141, 114, 172
-0.998679, 233, 79, 296, 94
-0.998679, 297, 87, 360, 102
-0.99868, 65, 129, 128, 144
-0.998683, 329, 177, 392, 192
-0.998683, 157, 73, 172, 104
-0.998684, 57, 135, 120, 150
-0.998684, 233, 139, 296, 154
-0.998687, 393, 1, 456, 16
-0.998687, 241, 19, 304, 34
-0.998689, 257, 117, 320, 132
-0.99869, 303, 93, 318, 124
-0.99869, 405, 145, 420, 176
-0.998691, 41, 97, 104, 112
-0.998691, 33, 105, 96, 120
-0.998692, 281, 179, 344, 194
-0.998692, 429, 113, 460, 176
-0.998693, 17, 1, 80, 16
-0.998693, 41, 1, 104, 16
-0.998693, 49, 171, 112, 186
-0.998693, 289, 27, 352, 42
-0.998694, 209, 61, 224, 92
-0.998695, 97, 135, 160, 150
-0.998695, 225, 157, 288, 172
-0.998695, 57, 153, 120, 168
-0.998696, 265, 141, 328, 156
-0.998697, 281, 173, 344, 188
-0.998697, 9, 103, 72, 118
-0.998697, 81, 165, 144, 180
-0.998697, 89, 141, 152, 156
-0.998697, 233, 145, 296, 160
-0.998698, 89, 155, 152, 170
-0.9987, 105, 85, 168, 100
-0.9987, 425, 1, 488, 16
-0.9987, 299, 65, 314, 96
-0.9987, 139, 77, 154, 108
-0.998702, 385, 103, 448, 118
-0.998702, 17, 13, 80, 28
-0.998702, 409, 189, 472, 204
-0.998702, 433, 39, 496, 54
-0.998703, 105, 115, 168, 130
-0.998704, 249, 165, 312, 180
-0.998706, 161, 93, 288, 124
-0.998706, 329, 129, 392, 144
-0.998706, 89, 147, 152, 162
-0.998707, 361, 107, 424, 122
-0.998707, 433, 63, 496, 78
-0.998709, 65, 119, 128, 134
-0.998709, 425, 179, 488, 194
-0.998709, 145, 91, 208, 106
-0.998709, 57, 13, 120, 28
-0.998709, 321, 163, 384, 178
-0.99871, 369, 149, 432, 164
-0.998711, 433, 167, 496, 182
-0.998712, 433, 33, 496, 48
-0.998712, 409, 105, 472, 120
-0.998712, 353, 175, 416, 190
-0.998713, 425, 111, 488, 126
-0.998713, 329, 137, 392, 152
-0.998713, 409, 39, 472, 54
-0.998713, 265, 153, 328, 168
-0.998713, 289, 189, 352, 204
-0.998715, 249, 123, 312, 138
-0.998715, 193, 79, 256, 94
-0.998715, 369, 53, 496, 84
-0.998716, 339, 137, 354, 168
-0.998721, 199, 65, 214, 96
-0.998723, 313, 145, 344, 207
-0.998731, 219, 41, 234, 72
-0.998733, 353, 33, 384, 160
-0.998733, 133, 1, 164, 207
-0.998737, 345, 137, 360, 168
-0.99874, 73, 1, 88, 32
-0.998747, 277, 1, 292, 32
-0.998758, 101, 105, 116, 136
-0.99876, 289, 49, 304, 80
-0.998762, 89, 105, 104, 136
-0.998766, 113, 1, 240, 32
-0.998778, 485, 37, 500, 68
-0.998778, 287, 113, 302, 144
-0.998784, 485, 129, 500, 160
-0.998784, 281, 1, 296, 128
-0.998785, 343, 177, 358, 207
-0.998785, 273, 1, 400, 32
-0.998785, 81, 41, 208, 72
-0.998786, 7, 1, 22, 32
-0.998786, 331, 173, 346, 204
-0.998787, 91, 145, 106, 176
-0.998789, 33, 49, 96, 112
-0.99879, 295, 25, 310, 56
-0.998792, 163, 73, 178, 104
-0.998794, 97, 129, 112, 160
-0.998797, 247, 65, 262, 96
-0.998797, 151, 73, 166, 104
-0.998799, 485, 101, 500, 132
-0.9988, 29, 89, 60, 152
-0.998802, 181, 1, 212, 207
-0.998804, 161, 1, 288, 32
-0.998805, 337, 133, 464, 164
-0.998808, 485, 1, 500, 32
-0.998809, 79, 97, 94, 128
-0.998814, 219, 21, 234, 52
-0.998818, 61, 1, 76, 32
-0.998819, 79, 109, 94, 140
-0.99882, 485, 69, 500, 100
-0.99882, 297, 93, 312, 124
-0.998823, 1, 41, 128, 72
-0.998826, 29, 1, 60, 207
-0.998826, 289, 1, 320, 207
-0.99883, 321, 97, 448, 128
-0.998831, 365, 97, 396, 160
-0.998833, 269, 17, 284, 48
-0.998834, 419, 1, 434, 32
-0.998837, 53, 77, 68, 108
-0.998837, 269, 33, 284, 160
-0.998844, 351, 137, 366, 168
-0.998848, 441, 33, 456, 64
-0.998849, 263, 69, 278, 100
-0.99886, 365, 121, 396, 184
-0.998865, 433, 1, 448, 32
-0.998867, 291, 1, 306, 32
-0.998869, 275, 1, 290, 128
-0.998873, 485, 89, 500, 120
-0.998877, 53, 1, 84, 207
-0.998878, 275, 145, 290, 176
-0.998883, 283, 37, 298, 68
-0.99889, 363, 173, 378, 204
-0.998891, 1, 1, 32, 207
-0.998892, 93, 117, 108, 148
-0.998892, 1, 53, 128, 84
-0.998899, 293, 33, 308, 160
-0.99891, 413, 49, 444, 112
-0.998937, 121, 1, 152, 207
-0.998941, 393, 105, 424, 168
-0.998941, 65, 25, 192, 56
-0.998943, 161, 129, 288, 160
-0.998961, 49, 53, 176, 84
-0.998974, 325, 49, 356, 112
-0.998986, 17, 137, 48, 200
-0.999007, 469, 1, 500, 207
-0.999013, 433, 137, 464, 200
-0.999029, 233, 17, 248, 144
-0.999042, 181, 145, 212, 207
-0.999046, 365, 73, 396, 136
-0.999048, 227, 17, 242, 144
-0.999051, 65, 81, 96, 144
-0.999055, 259, 49, 274, 176
-0.999057, 123, 81, 138, 207
-0.999068, 369, 101, 496, 132
-0.999103, 261, 1, 276, 128
-0.999121, 245, 113, 276, 176
-0.99913, 287, 1, 302, 128
-0.999135, 249, 33, 264, 160
-0.999146, 243, 33, 258, 160
-0.999148, 353, 65, 480, 96
-0.999149, 273, 81, 288, 207
-0.999149, 301, 65, 316, 192
-0.99915, 129, 81, 144, 207
-0.999155, 143, 81, 158, 207
-0.999158, 167, 65, 182, 192
-0.999164, 109, 1, 140, 207
-0.999182, 153, 81, 168, 207
-0.999193, 301, 1, 332, 207
-0.999193, 211, 65, 226, 192
-0.999204, 117, 81, 132, 207
-0.999214, 1, 73, 128, 104
-0.999221, 205, 65, 220, 192
-0.999226, 111, 81, 126, 207
-0.99923, 189, 65, 204, 192
-0.999231, 161, 81, 176, 207
-0.999231, 437, 1, 468, 207
-0.999232, 197, 65, 212, 192
-0.999233, 389, 129, 420, 192
-0.999239, 183, 65, 198, 192
-0.99925, 129, 177, 256, 207
-0.999252, 137, 81, 152, 207
-0.999256, 255, 1, 270, 128
-0.99926, 99, 81, 114, 207
-0.999263, 321, 117, 448, 148
-0.999264, 109, 1, 140, 64
-0.999268, 221, 17, 236, 144
-0.999274, 173, 65, 188, 192
-0.999274, 409, 145, 440, 207
-0.999275, 283, 65, 298, 192
-0.999296, 267, 81, 282, 207
-0.9993, 485, 33, 500, 160
-0.999301, 217, 65, 232, 192
-0.999308, 365, 81, 396, 207
-0.999314, 337, 1, 400, 64
-0.999327, 145, 1, 160, 128
-0.999334, 215, 1, 230, 128
-0.999337, 295, 81, 310, 207
-0.999355, 97, 1, 128, 207
-0.999369, 205, 17, 220, 144
-0.999372, 441, 97, 472, 160
-0.999377, 119, 33, 134, 160
-0.999377, 59, 1, 74, 128
-0.99938, 199, 17, 214, 144
-0.999403, 397, 33, 428, 96
-0.999403, 161, 105, 288, 136
-0.999409, 13, 1, 28, 128
-0.999426, 187, 17, 202, 144
-0.999432, 157, 145, 188, 207
-0.999443, 369, 77, 496, 108
-0.999444, 429, 17, 444, 144
-0.999448, 439, 17, 454, 144
-0.999456, 305, 17, 320, 144
-0.999457, 193, 17, 208, 144
-0.999466, 173, 17, 188, 144
-0.999468, 163, 17, 178, 144
-0.999468, 53, 1, 68, 128
-0.999494, 321, 1, 352, 64
-0.999498, 157, 33, 172, 160
-0.999507, 105, 81, 120, 207
-0.999513, 57, 105, 88, 168
-0.999519, 179, 17, 194, 144
-0.999519, 217, 55, 232, 70
-0.99952, 299, 61, 314, 76
-0.99952, 249, 39, 264, 54
-0.99952, 479, 141, 494, 156
-0.99952, 221, 71, 236, 86
-0.99952, 97, 133, 112, 148
-0.99952, 293, 49, 308, 64
-0.999521, 305, 49, 320, 64
-0.999522, 77, 111, 92, 126
-0.999524, 157, 89, 172, 104
-0.999524, 187, 73, 202, 88
-0.999524, 395, 1, 410, 16
-0.999524, 91, 81, 106, 207
-0.999524, 341, 173, 356, 188
-0.999524, 101, 1, 116, 16
-0.999525, 295, 55, 310, 70
-0.999525, 99, 157, 114, 172
-0.999526, 99, 163, 114, 178
-0.999526, 227, 45, 242, 60
-0.999526, 109, 1, 124, 16
-0.999526, 97, 143, 112, 158
-0.999527, 293, 103, 308, 118
-0.999527, 165, 1, 180, 16
-0.999527, 305, 85, 320, 100
-0.999527, 11, 1, 26, 16
-0.999527, 365, 17, 396, 80
-0.999527, 77, 41, 108, 104
-0.999528, 399, 113, 414, 128
-0.999528, 485, 151, 500, 166
-0.999529, 225, 51, 240, 66
-0.999529, 137, 33, 152, 160
-0.99953, 485, 137, 500, 152
-0.99953, 271, 21, 286, 36
-0.99953, 291, 131, 306, 146
-0.99953, 357, 171, 372, 186
-0.999531, 289, 81, 304, 207
-0.999531, 135, 1, 150, 16
-0.999531, 69, 1, 84, 16
-0.999531, 255, 45, 270, 60
-0.999531, 151, 33, 166, 160
-0.999531, 377, 1, 392, 16
-0.999533, 75, 1, 90, 16
-0.999533, 303, 67, 318, 82
-0.999534, 241, 29, 256, 44
-0.999534, 273, 29, 288, 44
-0.999534, 91, 155, 106, 170
-0.999534, 305, 79, 320, 94
-0.999535, 149, 89, 164, 104
-0.999536, 209, 75, 224, 90
-0.999536, 177, 1, 192, 16
-0.999537, 127, 33, 142, 160
-0.999537, 303, 91, 318, 106
-0.999537, 369, 193, 384, 207
-0.999537, 115, 111, 130, 126
-0.999537, 289, 35, 304, 50
-0.999537, 479, 1, 494, 128
-0.999538, 267, 29, 282, 44
-0.999539, 219, 45, 234, 60
-0.999539, 281, 77, 296, 92
-0.99954, 297, 1, 312, 16
-0.999542, 127, 1, 142, 16
-0.999542, 251, 1, 266, 16
-0.999542, 215, 67, 230, 82
-0.999543, 295, 125, 310, 140
-0.999543, 273, 43, 288, 58
-0.999543, 295, 79, 310, 94
-0.999544, 175, 83, 190, 98
-0.999544, 155, 83, 170, 98
-0.999545, 179, 75, 194, 90
-0.999545, 485, 171, 500, 186
-0.999547, 269, 1, 284, 16
-0.999547, 317, 1, 332, 16
-0.999548, 303, 73, 318, 88
-0.999548, 305, 55, 320, 70
-0.999548, 255, 83, 270, 98
-0.999549, 205, 1, 220, 16
-0.999549, 223, 65, 238, 80
-0.999549, 369, 113, 496, 144
-0.999549, 329, 1, 344, 16
-0.99955, 41, 81, 56, 207
-0.99955, 371, 1, 386, 16
-0.99955, 335, 1, 350, 16
-0.99955, 283, 51, 298, 66
-0.999551, 143, 93, 158, 108
-0.999552, 239, 1, 254, 16
-0.999552, 417, 155, 432, 170
-0.999552, 167, 79, 182, 94
-0.999553, 157, 1, 172, 16
-0.999553, 235, 33, 250, 48
-0.999554, 267, 59, 282, 74
-0.999554, 305, 1, 320, 16
-0.999555, 215, 75, 230, 90
-0.999555, 245, 1, 260, 16
-0.999555, 259, 1, 274, 16
-0.999556, 265, 35, 280, 50
-0.999556, 111, 103, 126, 118
-0.999559, 135, 95, 150, 110
-0.99956, 39, 17, 54, 144
-0.99956, 347, 171, 362, 186
-0.99956, 171, 1, 186, 16
-0.999561, 363, 1, 378, 16
-0.999563, 163, 87, 178, 102
-0.999563, 141, 1, 156, 16
-0.999564, 233, 1, 248, 16
-0.999564, 121, 25, 184, 88
-0.999565, 185, 1, 200, 16
-0.999566, 405, 151, 420, 166
-0.999566, 299, 47, 314, 62
-0.999567, 311, 1, 326, 16
-0.999568, 127, 99, 142, 114
-0.999568, 199, 77, 214, 92
-0.999569, 223, 65, 238, 192
-0.99957, 485, 143, 500, 158
-0.99957, 275, 37, 290, 52
-0.99957, 291, 1, 306, 16
-0.99957, 195, 1, 210, 16
-0.99957, 277, 1, 292, 16
-0.999571, 213, 1, 228, 16
-0.999572, 189, 79, 204, 94
-0.999574, 413, 1, 444, 207
-0.999574, 181, 81, 196, 96
-0.999575, 429, 81, 460, 144
-0.999577, 447, 17, 462, 144
-0.999577, 227, 1, 242, 16
-0.999577, 267, 43, 282, 58
-0.999579, 255, 57, 270, 72
-0.99958, 299, 17, 314, 144
-0.99958, 221, 1, 236, 16
-0.99958, 173, 77, 188, 92
-0.999581, 241, 45, 256, 60
-0.999582, 353, 1, 368, 16
-0.999582, 343, 1, 358, 16
-0.999583, 169, 85, 184, 100
-0.999585, 291, 41, 306, 56
-0.999589, 7, 1, 22, 128
-0.999592, 279, 29, 294, 44
-0.999595, 325, 1, 356, 207
-0.999595, 121, 105, 136, 120
-0.999596, 283, 1, 298, 16
-0.999601, 113, 33, 128, 160
-0.999606, 47, 17, 62, 144
-0.999609, 283, 23, 298, 38
-0.999611, 13, 81, 44, 207
-0.999611, 269, 53, 284, 68
-0.999612, 151, 1, 166, 16
-0.999613, 423, 1, 438, 128
-0.999613, 307, 65, 322, 192
-0.999613, 381, 1, 412, 128
-0.999614, 253, 81, 268, 207
-0.999614, 457, 145, 488, 207
-0.999615, 33, 17, 48, 144
-0.999618, 239, 39, 254, 54
-0.999625, 19, 1, 34, 128
-0.999627, 457, 33, 472, 160
-0.999627, 485, 81, 500, 207
-0.999633, 229, 33, 244, 48
-0.999635, 257, 51, 272, 66
-0.999637, 385, 33, 416, 96
-0.999641, 365, 33, 396, 160
-0.999648, 471, 1, 486, 128
-0.999652, 47, 81, 62, 207
-0.999652, 261, 45, 276, 60
-0.999666, 67, 1, 82, 128
-0.999667, 369, 1, 432, 207
-0.999672, 261, 57, 276, 72
-0.999673, 325, 1, 356, 128
-0.999674, 1, 49, 16, 176
-0.999679, 27, 33, 42, 160
-0.999684, 249, 49, 264, 64
-0.999688, 79, 81, 94, 207
-0.999695, 85, 1, 116, 207
-0.999697, 231, 81, 246, 207
-0.999701, 105, 33, 120, 160
-0.999702, 413, 81, 428, 207
-0.999703, 435, 65, 450, 192
-0.999704, 237, 65, 252, 192
-0.999707, 353, 1, 368, 128
-0.999709, 409, 1, 424, 128
-0.999719, 1, 1, 16, 128
-0.999721, 73, 1, 88, 128
-0.999722, 449, 1, 480, 207
-0.999724, 263, 51, 278, 66
-0.999727, 247, 81, 262, 207
-0.999727, 417, 1, 432, 128
-0.999729, 465, 33, 480, 160
-0.999729, 9, 49, 24, 176
-0.999731, 407, 81, 422, 207
-0.999733, 333, 65, 364, 192
-0.999733, 449, 81, 480, 207
-0.999733, 403, 1, 418, 128
-0.999734, 427, 65, 442, 192
-0.999749, 99, 33, 114, 160
-0.999757, 397, 81, 412, 207
-0.999757, 67, 49, 82, 176
-0.999758, 335, 65, 350, 192
-0.999766, 391, 1, 406, 128
-0.999768, 53, 49, 68, 176
-0.99977, 369, 81, 384, 207
-0.999776, 363, 65, 378, 192
-0.999784, 397, 65, 428, 192
-0.999788, 419, 65, 434, 192
-0.999792, 85, 49, 100, 176
-0.999794, 145, 117, 272, 148
-0.999802, 315, 33, 330, 160
-0.999809, 321, 49, 336, 176
-0.99981, 451, 65, 466, 192
-0.999816, 477, 49, 492, 176
-0.999817, 375, 1, 390, 128
-0.99982, 381, 65, 396, 192
-0.999824, 61, 81, 76, 207
-0.999824, 375, 81, 390, 207
-0.999826, 441, 65, 456, 192
-0.999834, 391, 65, 406, 192
-0.999836, 349, 81, 364, 207
-0.999838, 17, 49, 32, 176
-0.999841, 343, 49, 358, 176
-0.999845, 329, 49, 344, 176
-0.999849, 393, 1, 424, 207
-0.999849, 361, 1, 376, 128
-0.999867, 335, 1, 350, 128
-0.999869, 357, 49, 372, 176
-0.999874, 347, 1, 362, 128
-0.999878, 327, 1, 342, 128
-0.99988, 79, 33, 94, 160
-0.99988, 471, 49, 486, 176
-0.999889, 381, 1, 396, 128
-0.99989, 459, 81, 474, 207
-0.999977, 49, 65, 80, 192
-1, 369, 1, 400, 207
-1.00004, 345, 1, 376, 207
-1.0001, 313, 1, 344, 207
-1.00017, 61, 49, 92, 176
-1.00033, 65, 1, 96, 207
-1.00038, 357, 1, 388, 207
-1.00046, 381, 1, 412, 207
-1.00065, 185, 97, 248, 160
-1.00106, 73, 17, 104, 144
-1.00159, 161, 121, 224, 184
-1.003, 121, 121, 184, 184
-1.00403, 161, 97, 224, 160
