1880
-0.308809, 1, 1, 500, 336
-0.371099, 1, 33, 500, 288
-0.473617, 193, 1, 448, 336
-0.482794, 65, 1, 320, 336
-0.572645, 257, 1, 500, 256
-0.615576, 1, 65, 256, 320
-0.626305, 161, 65, 416, 320
-0.833865, 353, 1, 480, 336
-0.836419, 273, 33, 400, 288
-0.838951, 337, 65, 464, 320
-0.843297, 289, 1, 416, 336
-0.849296, 1, 129, 500, 256
-0.862242, 17, 33, 144, 288
-0.863359, 241, 1, 368, 336
-0.866031, 209, 1, 336, 256
-0.86608, 81, 65, 208, 320
-0.868503, 1, 177, 500, 304
-0.869978, 1, 1, 128, 336
-0.87423, 97, 1, 224, 336
-0.880242, 49, 1, 176, 336
-0.881342, 145, 65, 272, 320
-0.889272, 1, 49, 500, 176
-0.890537, 257, 113, 500, 240
-0.891491, 145, 1, 272, 336
-0.892433, 193, 1, 320, 336
-0.902991, 1, 1, 500, 128
-0.903749, 161, 129, 416, 256
-0.905159, 257, 161, 500, 288
-0.910298, 257, 65, 500, 192
-0.914436, 161, 81, 416, 208
-0.915146, 33, 1, 288, 128
-0.917353, 33, 145, 288, 272
-0.921971, 289, 81, 416, 208
-0.923844, 161, 193, 416, 320
-0.924742, 129, 1, 384, 128
-0.926862, 321, 129, 448, 256
-0.927532, 369, 161, 432, 288
-0.927681, 33, 209, 288, 336
-0.928603, 425, 177, 488, 304
-0.929463, 289, 177, 416, 304
-0.929613, 401, 113, 464, 240
-0.929777, 65, 65, 320, 192
-0.930985, 369, 193, 496, 320
-0.931466, 257, 209, 500, 336
-0.932781, 361, 49, 424, 176
-0.933764, 225, 1, 480, 128
-0.934044, 209, 113, 336, 240
-0.934484, 345, 113, 408, 240
-0.93456, 369, 113, 496, 240
-0.935977, 369, 65, 496, 192
-0.936723, 49, 145, 176, 272
-0.93872, 193, 81, 256, 208
-0.938933, 313, 145, 376, 272
-0.938942, 33, 209, 160, 336
-0.939147, 281, 113, 344, 240
-0.93924, 81, 97, 208, 224
-0.939367, 401, 161, 464, 288
-0.939758, 321, 49, 384, 176
-0.94005, 129, 81, 256, 208
-0.94012, 289, 1, 416, 128
-0.940307, 305, 97, 368, 224
-0.94103, 369, 1, 496, 128
-0.941889, 209, 161, 336, 288
-0.942719, 273, 129, 400, 256
-0.943432, 1, 97, 128, 224
-0.943694, 385, 49, 448, 176
-0.943708, 49, 209, 112, 336
-0.944813, 73, 1, 136, 128
-0.944816, 1, 145, 128, 272
-0.944923, 97, 33, 160, 160
-0.945401, 73, 145, 136, 272
-0.945605, 425, 241, 488, 304
-0.945686, 433, 129, 496, 256
-0.94615, 49, 161, 112, 288
-0.946446, 281, 161, 344, 288
-0.946458, 257, 145, 320, 272
-0.946655, 65, 1, 192, 128
-0.947134, 217, 113, 280, 240
-0.947155, 161, 161, 224, 288
-0.947573, 345, 161, 408, 288
-0.948051, 193, 129, 256, 256
-0.948112, 401, 209, 464, 336
-0.948265, 425, 193, 488, 256
-0.949048, 209, 49, 336, 176
-0.949087, 361, 1, 424, 128
-0.949106, 161, 145, 288, 272
-0.949157, 17, 145, 80, 272
-0.949171, 313, 177, 376, 240
-0.949784, 241, 1, 368, 128
-0.950024, 401, 217, 464, 280
-0.950336, 393, 193, 456, 256
-0.950375, 369, 185, 432, 248
-0.950788, 369, 97, 432, 224
-0.951114, 17, 49, 144, 176
-0.952138, 369, 209, 432, 336
-0.952239, 17, 209, 80, 336
-0.952345, 1, 217, 64, 280
-0.952656, 49, 17, 112, 144
-0.95284, 121, 17, 184, 144
-0.952887, 169, 81, 232, 208
-0.953106, 25, 1, 88, 128
-0.95342, 113, 1, 240, 128
-0.953435, 297, 49, 360, 176
-0.953666, 337, 1, 400, 128
-0.954023, 57, 65, 120, 192
-0.954127, 401, 169, 464, 232
-0.954291, 353, 217, 416, 280
-0.954754, 353, 65, 416, 128
-0.954869, 345, 193, 408, 256
-0.955021, 297, 209, 360, 336
-0.955103, 209, 1, 272, 128
-0.955384, 33, 193, 96, 256
-0.955409, 337, 209, 400, 336
-0.955542, 425, 217, 488, 280
-0.956136, 1, 193, 64, 256
-0.95623, 81, 81, 144, 208
-0.95632, 97, 177, 224, 304
-0.956352, 305, 121, 368, 184
-0.956743, 401, 257, 464, 320
-0.956867, 9, 49, 72, 176
-0.956951, 361, 153, 424, 216
-0.956958, 425, 169, 488, 232
-0.956998, 65, 49, 192, 176
-0.957061, 169, 217, 232, 280
-0.957271, 33, 217, 96, 280
-0.957357, 409, 137, 472, 200
-0.957493, 281, 137, 344, 200
-0.957594, 377, 233, 440, 296
-0.957725, 241, 209, 368, 336
-0.957743, 65, 161, 128, 224
-0.957852, 361, 33, 424, 288
-0.958192, 201, 137, 264, 200
-0.958471, 169, 153, 232, 216
-0.958742, 329, 89, 392, 152
-0.959143, 217, 161, 280, 288
-0.959397, 305, 145, 368, 208
-0.959503, 225, 49, 288, 176
-0.959546, 41, 145, 104, 208
-0.959652, 249, 209, 312, 336
-0.959738, 393, 1, 456, 128
-0.959834, 73, 209, 136, 336
-0.959867, 153, 209, 216, 336
-0.960375, 153, 185, 216, 248
-0.960577, 17, 1, 144, 128
-0.961082, 433, 81, 496, 208
-0.961171, 257, 81, 320, 208
-0.961181, 329, 153, 392, 216
-0.961301, 153, 1, 216, 128
-0.961456, 73, 1, 136, 64
-0.961714, 49, 113, 112, 240
-0.961763, 1, 153, 64, 216
-0.961803, 433, 137, 496, 200
-0.961884, 97, 1, 160, 64
-0.961952, 345, 129, 408, 192
-0.961975, 17, 97, 80, 224
-0.96222, 369, 89, 432, 152
-0.962507, 193, 193, 256, 320
-0.962754, 145, 193, 272, 320
-0.96278, 185, 33, 248, 160
-0.96342, 81, 65, 144, 128
-0.963451, 177, 193, 240, 256
-0.963501, 273, 161, 336, 224
-0.963791, 297, 81, 360, 144
-0.963958, 241, 137, 304, 200
-0.963991, 385, 65, 448, 320
-0.964277, 193, 209, 320, 336
-0.964281, 161, 33, 288, 160
-0.964474, 321, 57, 384, 120
-0.964651, 201, 65, 264, 128
-0.96508, 281, 1, 344, 128
-0.965188, 409, 49, 472, 176
-0.965204, 57, 217, 120, 280
-0.965222, 97, 153, 160, 216
-0.965305, 201, 217, 264, 280
-0.965509, 121, 65, 184, 128
-0.965736, 41, 1, 104, 64
-0.965829, 313, 209, 376, 272
-0.965837, 393, 113, 456, 176
-0.966373, 97, 129, 160, 256
-0.966414, 33, 241, 96, 304
-0.966478, 377, 257, 440, 320
-0.966594, 121, 65, 184, 192
-0.966702, 33, 169, 96, 232
-0.966772, 257, 33, 320, 160
-0.966806, 201, 257, 264, 320
-0.967115, 313, 1, 376, 256
-0.967183, 1, 241, 64, 304
-0.967207, 385, 33, 448, 96
-0.967232, 129, 1, 192, 64
-0.967753, 421, 217, 452, 280
-0.967835, 337, 1, 400, 256
-0.967861, 425, 1, 488, 128
-0.968076, 73, 193, 136, 256
-0.968079, 65, 25, 128, 88
-0.968132, 353, 257, 416, 320
-0.968208, 201, 193, 264, 256
-0.968276, 209, 113, 272, 176
-0.968453, 425, 265, 488, 328
-0.968467, 357, 97, 388, 224
-0.968479, 121, 113, 184, 240
-0.968554, 137, 161, 200, 288
-0.968821, 193, 161, 256, 224
-0.969093, 305, 1, 368, 128
-0.969093, 353, 169, 480, 232
-0.969121, 289, 201, 352, 264
-0.969214, 49, 65, 112, 128
-0.969214, 129, 185, 192, 248
-0.969415, 441, 233, 472, 296
-0.969477, 81, 89, 144, 152
-0.969506, 381, 161, 412, 288
-0.96951, 233, 57, 296, 120
-0.96954, 289, 113, 320, 240
-0.96979, 273, 209, 336, 336
-0.969893, 373, 185, 404, 248
-0.970006, 1, 265, 64, 328
-0.970138, 169, 241, 232, 304
-0.970173, 1, 1, 64, 128
-0.970178, 337, 1, 400, 64
-0.9702, 361, 33, 424, 96
-0.970287, 1, 121, 64, 184
-0.970307, 385, 65, 448, 128
-0.970336, 297, 57, 360, 120
-0.970348, 425, 33, 488, 288
-0.970369, 85, 145, 116, 272
-0.970528, 281, 33, 344, 96
-0.970624, 41, 41, 104, 104
-0.970819, 397, 145, 428, 272
-0.970861, 449, 161, 480, 288
-0.970963, 129, 1, 192, 256
-0.970978, 369, 121, 432, 184
-0.97106, 1, 185, 32, 248
-0.971093, 313, 33, 376, 96
-0.971174, 105, 41, 168, 104
-0.97121, 393, 89, 456, 152
-0.971313, 161, 73, 224, 136
-0.971355, 145, 81, 208, 208
-0.971357, 365, 49, 396, 176
-0.971426, 433, 177, 464, 304
-0.971481, 289, 137, 416, 200
-0.971536, 365, 193, 396, 320
-0.971553, 273, 113, 336, 176
-0.971563, 305, 161, 432, 224
-0.971638, 97, 193, 160, 256
-0.971653, 361, 1, 424, 64
-0.971657, 45, 225, 76, 288
-0.971673, 317, 113, 348, 240
-0.971859, 469, 241, 500, 304
-0.971897, 225, 209, 288, 336
-0.971946, 361, 1, 392, 128
-0.972042, 41, 97, 104, 160
-0.972075, 321, 73, 448, 136
-0.972084, 225, 1, 288, 256
-0.972206, 1, 217, 128, 280
-0.972296, 145, 153, 208, 216
-0.972444, 305, 49, 432, 112
-0.972546, 397, 209, 428, 336
-0.97256, 433, 169, 464, 232
-0.972743, 65, 161, 96, 288
-0.972748, 65, 201, 192, 264
-0.972761, 441, 209, 472, 272
-0.972824, 353, 193, 480, 256
-0.972824, 73, 137, 136, 200
-0.972849, 289, 33, 352, 288
-0.972958, 145, 217, 208, 280
-0.973022, 445, 169, 476, 232
-0.973072, 69, 209, 100, 336
-0.973074, 301, 137, 332, 200
-0.973103, 225, 113, 256, 240
-0.973104, 1, 153, 128, 216
-0.973119, 409, 161, 440, 288
-0.973124, 297, 161, 328, 288
-0.973129, 353, 217, 480, 280
-0.973238, 129, 209, 192, 336
-0.97327, 433, 105, 496, 168
-0.973362, 209, 145, 336, 208
-0.973502, 377, 113, 408, 240
-0.97352, 233, 1, 296, 128
-0.973541, 197, 153, 228, 216
-0.973561, 41, 1, 104, 256
-0.973595, 9, 65, 72, 320
-0.973643, 113, 217, 240, 280
-0.973729, 365, 257, 396, 320
-0.973736, 169, 129, 232, 192
-0.973793, 369, 241, 496, 304
-0.973938, 257, 57, 320, 120
-0.97412, 129, 41, 192, 104
-0.974188, 289, 185, 416, 248
-0.974355, 417, 1, 480, 64
-0.974391, 65, 145, 192, 208
-0.974508, 361, 193, 392, 256
-0.974599, 385, 145, 448, 208
-0.974632, 289, 113, 416, 176
-0.974653, 449, 257, 480, 320
-0.974677, 33, 121, 96, 184
-0.974709, 409, 185, 440, 248
-0.974742, 397, 217, 428, 280
-0.974756, 369, 105, 496, 168
-0.974939, 457, 137, 488, 200
-0.975006, 145, 113, 272, 176
-0.975015, 121, 217, 184, 280
-0.975039, 49, 105, 176, 168
-0.975119, 193, 89, 256, 152
-0.975165, 121, 113, 184, 176
-0.975491, 65, 177, 192, 240
-0.975536, 17, 97, 80, 160
-0.975537, 357, 153, 388, 216
-0.97554, 25, 265, 88, 328
-0.975613, 89, 113, 152, 176
-0.975706, 273, 73, 400, 136
-0.975716, 429, 241, 460, 304
-0.975737, 57, 225, 88, 288
-0.975744, 177, 49, 240, 112
-0.975757, 129, 81, 256, 144
-0.975762, 85, 161, 116, 224
-0.975808, 369, 225, 400, 288
-0.975811, 429, 193, 460, 256
-0.975821, 209, 81, 240, 208
-0.975858, 413, 97, 444, 224
-0.975878, 377, 1, 440, 336
-0.975904, 117, 1, 148, 128
-0.975919, 177, 1, 240, 256
-0.976006, 305, 113, 336, 240
-0.97601, 341, 89, 372, 152
-0.976016, 381, 209, 412, 272
-0.976019, 249, 225, 312, 288
-0.976043, 33, 241, 160, 304
-0.976043, 225, 257, 288, 320
-0.97612, 313, 137, 344, 200
-0.976164, 409, 161, 440, 224
-0.976192, 389, 97, 420, 224
-0.976221, 97, 153, 128, 216
-0.976276, 337, 1, 400, 336
-0.97636, 457, 161, 488, 224
-0.976367, 333, 145, 364, 208
-0.976406, 353, 49, 384, 176
-0.976489, 305, 217, 432, 280
-0.976527, 365, 57, 396, 120
-0.976534, 341, 81, 372, 208
-0.976575, 369, 57, 496, 120
-0.97659, 17, 1, 80, 64
-0.976628, 425, 97, 456, 224
-0.976694, 97, 1, 160, 256
-0.976712, 449, 113, 480, 240
-0.976748, 433, 81, 496, 144
-0.976755, 369, 129, 496, 192
-0.976758, 57, 241, 120, 304
-0.976761, 421, 177, 452, 304
-0.97682, 57, 209, 88, 336
-0.976834, 217, 33, 280, 96
-0.976872, 81, 217, 144, 280
-0.976882, 397, 185, 428, 248
-0.976884, 385, 9, 448, 72
-0.976892, 257, 265, 320, 328
-0.976894, 17, 177, 144, 240
-0.976944, 469, 177, 500, 304
-0.97698, 377, 57, 408, 120
-0.976983, 333, 129, 364, 256
-0.976984, 189, 201, 220, 264
-0.977018, 137, 89, 200, 152
-0.977063, 21, 193, 52, 256
-0.977109, 385, 249, 416, 312
-0.977119, 337, 33, 400, 96
-0.977132, 221, 73, 252, 136
-0.977184, 225, 121, 352, 184
-0.977237, 381, 209, 412, 336
-0.977283, 9, 73, 72, 136
-0.977303, 113, 137, 240, 200
-0.977305, 445, 137, 476, 200
-0.977355, 37, 49, 68, 176
-0.97736, 225, 177, 352, 240
-0.977401, 341, 113, 372, 176
-0.977403, 393, 33, 424, 160
-0.977422, 217, 89, 280, 152
-0.97749, 389, 161, 420, 224
-0.97753, 17, 65, 144, 128
-0.97753, 77, 1, 108, 128
-0.977542, 113, 33, 144, 96
-0.97756, 373, 1, 404, 128
-0.977608, 201, 201, 232, 264
-0.977634, 337, 1, 464, 64
-0.977682, 153, 1, 216, 64
-0.977687, 209, 73, 336, 136
-0.977704, 249, 185, 312, 248
-0.977707, 321, 113, 352, 176
-0.97774, 281, 1, 344, 64
-0.977842, 365, 145, 396, 272
-0.977874, 209, 145, 240, 272
-0.977925, 1, 177, 32, 304
-0.977951, 129, 161, 256, 224
-0.977985, 289, 225, 352, 288
-0.977999, 1, 217, 32, 280
-0.978035, 105, 1, 136, 64
-0.978035, 201, 233, 232, 296
-0.978037, 321, 65, 352, 192
-0.978068, 285, 137, 316, 200
-0.978111, 357, 89, 388, 152
-0.978181, 257, 1, 320, 256
-0.97819, 469, 161, 500, 224
-0.978211, 293, 161, 324, 224
-0.978221, 309, 161, 340, 288
-0.978244, 301, 209, 332, 336
-0.978271, 353, 57, 384, 120
-0.978276, 409, 249, 440, 312
-0.978365, 45, 209, 76, 336
-0.978408, 385, 97, 416, 160
-0.978411, 233, 113, 296, 176
-0.978473, 129, 1, 160, 128
-0.978495, 73, 145, 104, 208
-0.97854, 65, 113, 128, 176
-0.978558, 345, 129, 376, 256
-0.978625, 353, 265, 480, 328
-0.978658, 453, 193, 484, 256
-0.978658, 413, 33, 444, 160
-0.978687, 45, 185, 76, 248
-0.978688, 177, 185, 304, 248
-0.978779, 221, 121, 252, 184
-0.978787, 33, 185, 64, 248
-0.978791, 129, 193, 256, 256
-0.978799, 201, 177, 232, 240
-0.978857, 225, 217, 288, 280
-0.978879, 73, 1, 136, 256
-0.978905, 353, 217, 384, 280
-0.978946, 113, 89, 176, 152
-0.978977, 65, 1, 96, 128
-0.979003, 37, 57, 68, 120
-0.979088, 313, 1, 376, 336
-0.979198, 69, 209, 100, 272
-0.979202, 305, 65, 336, 192
-0.97926, 397, 241, 428, 304
-0.979274, 161, 185, 192, 248
-0.979308, 257, 33, 320, 96
-0.97937, 241, 201, 368, 264
-0.979425, 209, 137, 240, 200
-0.979564, 85, 65, 116, 192
-0.979571, 241, 161, 304, 224
-0.979575, 469, 217, 500, 280
-0.979584, 421, 169, 452, 232
-0.979636, 85, 137, 116, 200
-0.979698, 97, 1, 224, 64
-0.979738, 57, 57, 88, 120
-0.979754, 189, 145, 220, 272
-0.97979, 257, 49, 384, 112
-0.979805, 321, 161, 352, 288
-0.979812, 193, 49, 320, 112
-0.979889, 409, 25, 472, 88
-0.979947, 57, 193, 88, 256
-0.979949, 33, 217, 64, 280
-0.979969, 121, 137, 184, 200
-0.980103, 65, 113, 96, 240
-0.980154, 381, 137, 412, 200
-0.980176, 421, 265, 452, 328
-0.980215, 201, 1, 264, 256
-0.980218, 461, 113, 492, 240
-0.980239, 193, 217, 320, 280
-0.980364, 161, 1, 288, 64
-0.980389, 221, 65, 252, 192
-0.980462, 105, 209, 168, 336
-0.980479, 49, 1, 176, 64
-0.980555, 397, 65, 428, 128
-0.980569, 321, 57, 352, 120
-0.980581, 97, 57, 224, 120
-0.980658, 353, 129, 384, 192
-0.98068, 409, 209, 440, 336
-0.980682, 197, 81, 228, 208
-0.980699, 337, 33, 368, 160
-0.980718, 437, 113, 468, 240
-0.980737, 457, 209, 488, 336
-0.980791, 433, 1, 496, 336
-0.980818, 65, 81, 192, 144
-0.980847, 469, 137, 500, 200
-0.98087, 305, 25, 432, 88
-0.980876, 225, 97, 352, 160
-0.980881, 237, 113, 268, 240
-0.980917, 97, 129, 128, 256
-0.980928, 189, 225, 220, 288
-0.980957, 205, 65, 236, 128
-0.980992, 137, 1, 168, 64
-0.981029, 1, 113, 128, 176
-0.981037, 353, 193, 384, 320
-0.981098, 365, 1, 396, 64
-0.981152, 381, 49, 412, 176
-0.981158, 409, 209, 440, 272
-0.981189, 189, 209, 220, 336
-0.981193, 49, 1, 80, 128
-0.981241, 105, 177, 136, 240
-0.981255, 97, 81, 128, 208
-0.981264, 25, 177, 56, 304
-0.981295, 1, 89, 128, 152
-0.981319, 285, 161, 316, 288
-0.981357, 241, 1, 368, 64
-0.981363, 297, 225, 328, 288
-0.981398, 5, 241, 36, 304
-0.98145, 21, 225, 52, 288
-0.981454, 161, 161, 192, 288
-0.981476, 373, 89, 404, 152
-0.981476, 213, 217, 244, 280
-0.981698, 369, 81, 496, 144
-0.981784, 5, 265, 36, 328
-0.981864, 297, 113, 328, 176
-0.981898, 281, 209, 312, 336
-0.981899, 369, 129, 400, 192
-0.981955, 321, 241, 448, 304
-0.982036, 365, 33, 396, 96
-0.982045, 317, 177, 348, 240
-0.982071, 313, 201, 344, 264
-0.982094, 321, 89, 352, 152
-0.982114, 153, 65, 216, 320
-0.982134, 445, 209, 476, 336
-0.982204, 341, 41, 372, 104
-0.982272, 301, 201, 332, 264
-0.982289, 49, 41, 176, 104
-0.982326, 161, 137, 288, 200
-0.982354, 461, 265, 492, 328
-0.98236, 33, 1, 64, 128
-0.982378, 113, 121, 144, 184
-0.982395, 237, 57, 268, 120
-0.982455, 61, 161, 92, 224
-0.982471, 57, 137, 88, 200
-0.982509, 49, 161, 80, 288
-0.982527, 109, 153, 140, 216
-0.982559, 49, 1, 112, 336
-0.982646, 369, 25, 496, 88
-0.982693, 269, 137, 300, 200
-0.982701, 345, 177, 376, 240
-0.982718, 169, 153, 200, 216
-0.982878, 49, 33, 80, 96
-0.982911, 85, 193, 116, 320
-0.982961, 401, 1, 464, 336
-0.983053, 309, 57, 340, 120
-0.98306, 401, 81, 432, 208
-0.983061, 273, 161, 304, 288
-0.983125, 221, 161, 252, 288
-0.983149, 341, 65, 372, 128
-0.98324, 17, 1, 48, 128
-0.983275, 249, 33, 280, 96
-0.983279, 385, 185, 416, 248
-0.983303, 1, 1, 128, 64
-0.983321, 273, 241, 400, 304
-0.983322, 181, 177, 212, 240
-0.983345, 61, 17, 92, 80
-0.98335, 229, 97, 260, 160
-0.983369, 1, 265, 128, 328
-0.983439, 89, 1, 120, 128
-0.983483, 241, 25, 368, 88
-0.983496, 377, 161, 408, 224
-0.98351, 173, 161, 204, 288
-0.983515, 13, 209, 44, 336
-0.983538, 213, 161, 244, 224
-0.983547, 109, 49, 140, 176
-0.983557, 253, 137, 284, 200
-0.983569, 21, 49, 52, 176
-0.983574, 9, 113, 40, 176
-0.983586, 93, 193, 124, 256
-0.983592, 433, 145, 464, 208
-0.983695, 209, 1, 240, 128
-0.983706, 345, 153, 376, 216
-0.983785, 341, 201, 372, 264
-0.983853, 37, 145, 68, 208
-0.983857, 385, 17, 416, 80
-0.983914, 437, 105, 468, 168
-0.983983, 209, 257, 240, 320
-0.983986, 409, 33, 440, 96
-0.984003, 433, 265, 464, 328
-0.984008, 457, 225, 488, 288
-0.984026, 29, 121, 60, 184
-0.984028, 29, 129, 60, 256
-0.984035, 209, 193, 240, 320
-0.984115, 349, 1, 380, 128
-0.984169, 105, 1, 136, 128
-0.984191, 65, 49, 96, 176
-0.984321, 261, 113, 292, 240
-0.984389, 193, 25, 320, 88
-0.984497, 117, 97, 148, 224
-0.984592, 97, 113, 224, 176
-0.984618, 309, 1, 340, 128
-0.984658, 193, 257, 320, 320
-0.984802, 249, 113, 280, 240
-0.984927, 97, 241, 224, 304
-0.984962, 5, 129, 36, 256
-0.984973, 129, 49, 160, 176
-0.984998, 145, 57, 272, 120
-0.985002, 289, 1, 352, 336
-0.985153, 113, 145, 144, 272
-0.985262, 245, 1, 276, 128
-0.985494, 141, 1, 172, 128
-0.985531, 113, 1, 176, 336
-0.985603, 177, 113, 208, 240
-0.985712, 145, 249, 272, 312
-0.985717, 289, 1, 416, 64
-0.985984, 113, 33, 240, 96
-0.986047, 433, 33, 464, 160
-0.986266, 49, 49, 80, 176
-0.9863, 249, 161, 280, 288
-0.986436, 177, 209, 208, 336
-0.986471, 249, 209, 280, 336
-0.986854, 237, 161, 268, 288
-0.986926, 185, 49, 216, 176
-0.987077, 233, 65, 264, 192
-0.987123, 265, 1, 328, 336
-0.987181, 89, 1, 152, 336
-0.987384, 241, 265, 368, 328
-0.987629, 157, 97, 188, 224
-0.987786, 305, 273, 432, 336
-0.987824, 225, 1, 256, 128
-0.987867, 161, 209, 192, 336
-0.987936, 425, 245, 488, 276
-0.988041, 97, 265, 224, 328
-0.988135, 469, 65, 500, 192
-0.988201, 321, 1, 352, 128
-0.988287, 189, 1, 220, 128
-0.988322, 453, 1, 484, 128
-0.988392, 245, 65, 276, 192
-0.988396, 241, 1, 304, 336
-0.988424, 341, 193, 372, 320
-0.988516, 305, 185, 368, 216
-0.988554, 277, 113, 308, 240
-0.988633, 1, 41, 128, 104
-0.988689, 129, 97, 160, 224
-0.988712, 353, 229, 416, 260
-0.988729, 45, 97, 76, 224
-0.988765, 17, 1, 80, 336
-0.988789, 17, 97, 48, 224
-0.9888, 169, 169, 232, 200
-0.988815, 425, 209, 488, 240
-0.988861, 33, 217, 96, 248
-0.988867, 221, 209, 252, 336
-0.988902, 169, 1, 232, 336
-0.988909, 237, 209, 268, 336
-0.98892, 385, 217, 448, 248
-0.988921, 25, 149, 88, 180
-0.989012, 261, 161, 292, 288
-0.989019, 297, 145, 360, 176
-0.989095, 345, 149, 408, 180
-0.989112, 257, 65, 288, 192
-0.989149, 313, 209, 344, 336
-0.989204, 409, 173, 472, 204
-0.989257, 225, 161, 480, 224
-0.989269, 177, 149, 240, 180
-0.989313, 257, 185, 500, 248
-0.989335, 401, 233, 464, 264
-0.989355, 433, 225, 496, 256
-0.989359, 361, 61, 424, 92
-0.989368, 305, 157, 368, 188
-0.989374, 285, 65, 316, 192
-0.98938, 385, 173, 448, 204
-0.98938, 257, 129, 500, 192
-0.989384, 57, 149, 120, 180
-0.989417, 305, 133, 368, 164
-0.989444, 313, 53, 376, 84
-0.989472, 337, 93, 400, 124
-0.989492, 445, 65, 476, 192
-0.989551, 209, 1, 272, 336
-0.989582, 425, 269, 488, 300
-0.989625, 169, 225, 232, 256
-0.989664, 425, 281, 488, 312
-0.989703, 345, 189, 408, 220
-0.989707, 1, 213, 64, 244
-0.989712, 305, 173, 368, 204
-0.989717, 153, 185, 216, 216
-0.989766, 265, 145, 328, 176
-0.98978, 377, 185, 440, 216
-0.989781, 369, 73, 432, 104
-0.989814, 369, 241, 432, 272
-0.989827, 401, 193, 464, 224
-0.989916, 297, 105, 360, 136
-0.989943, 257, 105, 500, 168
-0.989969, 345, 205, 408, 236
-0.989972, 345, 217, 408, 248
-0.989988, 345, 165, 408, 196
-0.989996, 209, 137, 272, 168
-0.990029, 149, 161, 180, 288
-0.990031, 385, 161, 448, 192
-0.990041, 393, 41, 456, 72
-0.990058, 33, 245, 96, 276
-0.990061, 417, 257, 480, 288
-0.990063, 113, 185, 176, 216
-0.990091, 393, 113, 456, 144
-0.990103, 433, 165, 496, 196
-0.990106, 97, 193, 128, 320
-0.990109, 1, 201, 64, 232
-0.990116, 337, 113, 400, 144
-0.990121, 361, 113, 424, 144
-0.990126, 41, 161, 104, 192
-0.990139, 385, 253, 448, 284
-0.990141, 273, 169, 336, 200
-0.990146, 377, 201, 440, 232
-0.990147, 329, 229, 392, 260
-0.99015, 193, 73, 256, 104
-0.99018, 89, 1, 152, 32
-0.990188, 161, 201, 416, 264
-0.9902, 97, 17, 160, 48
-0.990205, 33, 61, 96, 92
-0.990217, 177, 1, 208, 128
-0.990226, 201, 161, 264, 192
-0.990249, 33, 229, 96, 260
-0.990256, 1, 249, 64, 280
-0.990262, 57, 237, 120, 268
-0.990268, 153, 197, 216, 228
-0.99027, 313, 213, 376, 244
-0.990279, 345, 133, 408, 164
-0.99028, 337, 41, 400, 72
-0.990289, 433, 133, 496, 164
-0.990294, 1, 193, 256, 256
-0.990313, 409, 221, 472, 252
-0.99034, 361, 97, 424, 128
-0.990348, 161, 237, 224, 268
-0.990353, 9, 181, 72, 212
-0.990355, 33, 201, 96, 232
-0.990361, 121, 65, 184, 96
-0.990373, 201, 149, 264, 180
-0.990379, 121, 33, 184, 64
-0.990381, 241, 145, 304, 176
-0.990395, 297, 89, 360, 120
-0.990402, 265, 53, 328, 84
-0.990437, 281, 133, 344, 164
-0.990443, 25, 257, 88, 288
-0.990446, 425, 145, 488, 176
-0.990449, 153, 157, 216, 188
-0.990461, 337, 81, 400, 112
-0.990462, 73, 65, 136, 96
-0.990469, 57, 17, 120, 48
-0.990472, 17, 1, 80, 32
-0.990479, 345, 177, 408, 208
-0.990526, 41, 105, 104, 136
-0.990533, 1, 161, 256, 224
-0.99054, 33, 49, 96, 80
-0.990554, 81, 157, 144, 188
-0.990591, 81, 205, 144, 236
-0.990638, 289, 233, 352, 264
-0.990651, 81, 193, 144, 224
-0.990652, 313, 121, 376, 152
-0.990659, 193, 85, 256, 116
-0.99066, 129, 13, 192, 44
-0.990662, 321, 197, 384, 228
-0.990666, 281, 157, 344, 188
-0.990669, 161, 77, 224, 108
-0.990673, 193, 205, 256, 236
-0.990688, 1, 149, 64, 180
-0.990694, 369, 49, 432, 80
-0.990708, 105, 49, 168, 80
-0.990714, 393, 277, 456, 308
-0.990715, 401, 53, 464, 84
-0.990719, 89, 101, 152, 132
-0.990721, 353, 13, 416, 44
-0.990734, 409, 161, 472, 192
-0.990744, 369, 149, 432, 180
-0.990749, 289, 41, 352, 72
-0.990752, 385, 29, 448, 60
-0.990757, 9, 233, 72, 264
-0.990771, 41, 5, 104, 36
-0.990772, 49, 265, 176, 328
-0.990772, 193, 173, 256, 204
-0.990777, 57, 201, 120, 232
-0.990779, 313, 29, 376, 60
-0.99079, 393, 129, 456, 160
-0.990816, 361, 85, 424, 116
-0.990817, 329, 1, 392, 32
-0.990829, 401, 205, 464, 236
-0.990861, 193, 237, 256, 268
-0.990949, 425, 37, 488, 68
-0.990951, 57, 213, 120, 244
-0.990968, 273, 193, 336, 224
-0.990969, 17, 105, 80, 136
-0.990972, 305, 77, 368, 108
-0.990973, 161, 281, 224, 312
-0.990976, 273, 205, 336, 236
-0.990996, 257, 249, 500, 312
-0.991005, 385, 101, 448, 132
-0.991017, 401, 289, 464, 320
-0.991019, 65, 5, 128, 36
-0.991183, 97, 137, 352, 200
-0.991247, 129, 89, 384, 152
-0.99151, 145, 273, 272, 336
-0.991554, 65, 113, 320, 176
-0.991704, 225, 73, 480, 136
-0.99179, 129, 169, 384, 232
-0.991831, 225, 49, 480, 112
-0.991924, 1, 129, 500, 192
-0.991976, 145, 1, 208, 336
-0.992064, 377, 209, 408, 240
-0.992091, 377, 225, 408, 256
-0.992137, 397, 217, 428, 248
-0.992156, 389, 229, 420, 260
-0.992181, 469, 261, 500, 292
-0.992205, 457, 161, 488, 192
-0.992219, 1, 217, 256, 280
-0.992279, 357, 221, 388, 252
-0.992281, 449, 249, 480, 280
-0.992294, 385, 57, 416, 88
-0.992316, 365, 61, 396, 92
-0.992335, 257, 209, 500, 272
-0.992345, 377, 169, 408, 200
-0.992353, 389, 161, 420, 192
-0.992368, 333, 157, 364, 188
-0.992379, 305, 145, 336, 176
-0.992385, 373, 241, 404, 272
-0.992399, 365, 205, 396, 236
-0.992411, 185, 149, 216, 180
-0.992427, 417, 237, 448, 268
-0.992441, 377, 149, 408, 180
-0.992467, 201, 153, 232, 184
-0.99247, 29, 149, 60, 180
-0.992482, 365, 193, 396, 224
-0.992482, 437, 245, 468, 276
-0.992486, 45, 237, 76, 268
-0.992491, 1, 153, 500, 216
-0.992497, 453, 273, 484, 304
-0.992505, 397, 241, 428, 272
-0.99251, 381, 189, 412, 220
-0.992511, 1, 241, 256, 304
-0.992515, 69, 213, 100, 244
-0.992521, 321, 145, 352, 176
-0.992532, 437, 173, 468, 204
-0.992533, 293, 145, 324, 176
-0.99254, 369, 1, 400, 32
-0.992542, 429, 225, 460, 256
-0.99255, 369, 257, 400, 288
-0.992553, 129, 65, 384, 128
-0.992554, 49, 221, 80, 252
-0.992556, 1, 197, 32, 228
-0.992559, 333, 145, 364, 176
-0.992563, 433, 197, 464, 228
-0.992564, 1, 105, 500, 168
-0.992566, 185, 221, 216, 252
-0.992567, 413, 185, 444, 216
-0.992573, 37, 57, 68, 88
-0.992574, 217, 81, 248, 112
-0.992574, 405, 169, 436, 200
-0.992576, 389, 173, 420, 204
-0.992583, 173, 173, 204, 204
-0.992585, 353, 93, 384, 124
-0.992588, 57, 245, 88, 276
-0.992588, 313, 129, 344, 160
-0.992588, 357, 153, 388, 184
-0.992594, 401, 157, 432, 188
-0.9926, 353, 201, 384, 232
-0.992602, 49, 149, 80, 180
-0.992608, 121, 21, 152, 52
-0.992609, 73, 225, 104, 256
-0.99261, 289, 185, 416, 216
-0.992613, 469, 225, 500, 256
-0.992613, 1, 177, 500, 240
-0.992623, 85, 149, 116, 180
-0.992624, 33, 69, 64, 100
-0.992627, 393, 185, 424, 216
-0.992634, 293, 241, 324, 272
-0.992634, 57, 45, 88, 76
-0.992636, 213, 149, 244, 180
-0.992637, 313, 161, 344, 192
-0.992637, 309, 181, 340, 212
-0.992639, 445, 209, 476, 240
-0.992644, 161, 189, 192, 220
-0.992649, 57, 233, 88, 264
-0.992655, 433, 209, 464, 240
-0.992662, 397, 65, 428, 96
-0.992663, 429, 261, 460, 292
-0.99267, 377, 285, 408, 316
-0.992671, 369, 225, 496, 256
-0.992675, 293, 169, 324, 200
-0.992683, 469, 149, 500, 180
-0.992689, 29, 213, 60, 244
-0.992692, 361, 273, 392, 304
-0.992693, 469, 237, 500, 268
-0.992698, 205, 73, 236, 104
-0.992701, 409, 217, 440, 248
-0.992714, 393, 205, 424, 236
-0.992718, 321, 113, 352, 144
-0.992721, 105, 189, 136, 220
-0.992724, 1, 237, 32, 268
-0.992724, 181, 193, 212, 224
-0.992725, 369, 181, 400, 212
-0.992726, 425, 249, 456, 280
-0.992726, 345, 145, 376, 176
-0.99273, 433, 285, 464, 316
-0.992739, 293, 157, 324, 188
-0.992742, 189, 233, 220, 264
-0.992743, 345, 157, 376, 188
-0.992744, 41, 249, 72, 280
-0.992745, 353, 189, 384, 220
-0.992751, 61, 149, 92, 180
-0.992753, 125, 33, 156, 64
-0.992757, 41, 45, 72, 76
-0.992764, 385, 261, 416, 292
-0.992764, 361, 133, 392, 164
-0.992765, 169, 157, 200, 188
-0.992767, 445, 145, 476, 176
-0.992769, 97, 1, 128, 32
-0.99277, 373, 49, 404, 80
-0.99277, 5, 217, 36, 248
-0.992771, 97, 153, 128, 184
-0.992772, 389, 149, 420, 180
-0.992773, 113, 33, 144, 64
-0.992773, 185, 169, 216, 200
-0.992775, 45, 1, 76, 32
-0.992776, 341, 97, 372, 128
-0.992776, 425, 173, 456, 204
-0.992776, 373, 85, 404, 116
-0.992778, 353, 233, 384, 264
-0.992784, 161, 233, 192, 264
-0.992786, 301, 133, 332, 164
-0.992787, 341, 129, 372, 160
-0.992792, 1, 49, 256, 112
-0.992793, 201, 165, 232, 196
-0.992794, 433, 185, 464, 216
-0.992796, 445, 161, 476, 192
-0.992804, 409, 49, 440, 80
-0.992805, 265, 145, 296, 176
-0.992805, 461, 249, 492, 280
-0.992806, 189, 205, 220, 236
-0.992808, 17, 213, 48, 244
-0.99281, 341, 109, 372, 140
-0.992815, 421, 205, 452, 236
-0.992817, 225, 145, 256, 176
-0.992818, 209, 265, 240, 296
-0.992819, 289, 133, 320, 164
-0.992822, 385, 77, 416, 108
-0.992823, 381, 101, 412, 132
-0.992825, 121, 1, 152, 32
-0.992826, 1, 149, 128, 180
-0.992827, 29, 201, 60, 232
-0.992982, 97, 225, 352, 288
-0.993071, 1, 57, 500, 120
-0.99308, 193, 1, 448, 64
-0.993104, 289, 97, 416, 128
-0.993183, 161, 113, 416, 176
-0.993256, 1, 137, 256, 200
-0.993424, 289, 141, 416, 172
-0.993425, 305, 161, 432, 192
-0.99353, 65, 25, 320, 88
-0.993539, 369, 237, 496, 268
-0.99355, 207, 225, 222, 288
-0.993562, 449, 169, 464, 232
-0.993568, 373, 177, 388, 240
-0.993588, 337, 177, 464, 208
-0.993596, 369, 145, 496, 176
-0.993637, 81, 153, 208, 184
-0.993651, 433, 225, 448, 288
-0.993684, 65, 1, 320, 64
-0.993701, 1, 213, 128, 244
-0.993709, 443, 233, 458, 296
-0.993718, 289, 173, 416, 204
-0.993764, 483, 145, 498, 208
-0.993794, 311, 137, 326, 200
-0.993807, 65, 1, 192, 32
-0.993843, 305, 225, 432, 256
-0.993844, 193, 25, 448, 88
-0.99385, 395, 57, 410, 120
-0.993857, 209, 145, 336, 176
-0.993879, 369, 225, 384, 288
-0.993919, 369, 253, 496, 284
-0.993936, 369, 165, 496, 196
-0.993958, 97, 273, 352, 336
-0.99401, 353, 193, 480, 224
-0.994012, 369, 201, 384, 264
-0.994015, 447, 201, 462, 264
-0.994067, 369, 209, 496, 240
-0.994117, 177, 157, 304, 188
-0.994128, 369, 249, 384, 312
-0.99415, 289, 85, 416, 116
-0.994156, 33, 73, 288, 136
-0.994157, 113, 77, 240, 108
-0.994161, 161, 145, 288, 176
-0.994177, 399, 209, 414, 272
-0.994191, 317, 137, 332, 200
-0.9942, 379, 161, 394, 224
-0.994271, 231, 73, 246, 136
-0.994282, 1, 201, 500, 264
-0.994297, 305, 137, 320, 200
-0.994298, 289, 129, 416, 160
-0.994317, 13, 185, 28, 248
-0.994328, 411, 153, 426, 216
-0.994329, 145, 89, 272, 120
-0.994376, 483, 257, 498, 320
-0.994398, 1, 81, 500, 144
-0.994413, 305, 237, 432, 268
-0.994426, 205, 201, 220, 264
-0.994428, 455, 137, 470, 200
-0.994428, 83, 145, 98, 208
-0.994439, 289, 109, 416, 140
-0.994442, 225, 273, 480, 336
-0.994443, 405, 177, 420, 240
-0.994488, 225, 125, 352, 156
-0.994495, 3, 185, 18, 248
-0.9945, 441, 209, 456, 272
-0.994508, 425, 185, 440, 248
-0.994565, 13, 225, 28, 288
-0.994606, 357, 129, 372, 192
-0.99462, 393, 217, 408, 280
-0.99463, 63, 225, 78, 288
-0.99463, 377, 233, 392, 296
-0.994652, 455, 161, 470, 224
-0.994654, 91, 145, 106, 208
-0.994659, 241, 181, 368, 212
-0.994667, 69, 225, 84, 288
-0.99468, 409, 201, 424, 264
-0.99469, 289, 69, 416, 100
-0.994705, 299, 225, 314, 288
-0.994709, 211, 153, 226, 216
-0.994733, 367, 49, 382, 112
-0.994734, 443, 169, 458, 232
-0.994746, 401, 57, 416, 120
-0.994755, 225, 105, 352, 136
-0.994758, 463, 257, 478, 320
-0.994773, 363, 217, 378, 280
-0.994786, 337, 97, 464, 128
-0.994792, 299, 153, 314, 216
-0.994793, 473, 145, 488, 208
-0.994794, 305, 197, 432, 228
-0.99481, 1, 225, 500, 288
-0.994829, 289, 209, 416, 240
-0.994839, 455, 241, 470, 304
-0.994857, 415, 193, 430, 256
-0.994869, 1, 181, 128, 212
-0.994879, 103, 161, 118, 224
-0.994881, 305, 161, 320, 224
-0.994898, 369, 277, 496, 308
-0.994905, 435, 169, 450, 232
-0.994905, 389, 249, 404, 312
-0.994912, 357, 1, 388, 256
-0.994913, 197, 209, 212, 272
-0.994915, 97, 137, 112, 200
-0.99492, 1, 217, 16, 280
-0.99492, 383, 185, 398, 248
-0.994925, 49, 225, 64, 288
-0.99494, 209, 85, 336, 116
-0.994945, 55, 217, 70, 280
-0.994955, 419, 233, 434, 296
-0.994958, 317, 57, 332, 120
-0.994981, 43, 185, 58, 248
-0.994984, 1, 65, 128, 96
-0.995053, 369, 77, 496, 108
-0.995058, 387, 97, 402, 160
-0.995058, 77, 161, 92, 224
-0.995067, 383, 73, 398, 136
-0.995068, 289, 137, 304, 200
-0.995069, 145, 125, 272, 156
-0.995073, 435, 193, 450, 256
-0.995075, 51, 185, 66, 248
-0.995086, 305, 53, 432, 84
-0.995089, 395, 105, 410, 168
-0.995099, 213, 249, 228, 312
-0.995102, 485, 233, 500, 296
-0.995135, 369, 133, 496, 164
-0.995136, 449, 137, 464, 200
-0.995138, 357, 89, 372, 152
-0.995141, 81, 141, 208, 172
-0.995149, 27, 185, 42, 248
-0.995172, 65, 205, 192, 236
-0.995182, 345, 153, 360, 216
-0.995186, 209, 57, 224, 120
-0.995197, 81, 105, 208, 136
-0.995211, 423, 265, 438, 328
-0.995215, 43, 217, 58, 280
-0.995219, 1, 233, 128, 264
-0.995224, 413, 249, 428, 312
-0.995238, 85, 169, 100, 232
-0.995245, 483, 201, 498, 264
-0.995253, 19, 185, 34, 248
-0.995257, 401, 65, 432, 320
-0.995263, 461, 145, 476, 208
-0.995264, 373, 33, 404, 288
-0.995264, 37, 185, 52, 248
-0.995276, 405, 153, 420, 216
-0.995283, 161, 185, 176, 248
-0.995294, 7, 225, 22, 288
-0.995299, 351, 129, 366, 192
-0.995299, 221, 161, 236, 224
-0.995309, 367, 153, 382, 216
-0.995314, 413, 65, 444, 320
-0.995316, 425, 209, 440, 272
-0.995318, 363, 185, 378, 248
-0.995319, 311, 161, 326, 224
-0.995319, 309, 113, 324, 176
-0.995331, 33, 53, 160, 84
-0.995332, 369, 65, 496, 96
-0.995342, 113, 1, 128, 64
-0.995342, 207, 249, 222, 312
-0.995353, 417, 169, 432, 232
-0.995355, 1, 33, 500, 96
-0.995358, 225, 161, 352, 192
-0.995369, 395, 145, 410, 208
-0.995372, 315, 201, 330, 264
-0.995373, 213, 225, 228, 288
-0.995375, 283, 137, 298, 200
-0.995377, 97, 61, 224, 92
-0.995378, 401, 97, 416, 160
-0.995379, 81, 165, 208, 196
-0.99538, 373, 89, 388, 152
-0.995389, 49, 69, 176, 100
-0.995395, 387, 33, 402, 96
-0.995417, 441, 257, 456, 320
-0.99542, 219, 137, 234, 200
-0.99543, 97, 193, 224, 224
-0.995432, 377, 129, 392, 192
-0.995434, 29, 113, 44, 176
-0.99544, 451, 105, 466, 168
-0.995447, 467, 225, 482, 288
-0.995452, 341, 41, 356, 104
-0.995472, 129, 249, 384, 312
-0.995473, 145, 173, 272, 204
-0.995474, 161, 61, 288, 92
-0.995497, 257, 241, 384, 272
-0.995501, 113, 153, 128, 216
-0.995505, 129, 205, 256, 236
-0.995509, 389, 57, 404, 120
-0.995509, 477, 217, 492, 280
-0.995516, 407, 225, 422, 288
-0.995518, 345, 113, 360, 176
-0.995525, 225, 197, 352, 228
-0.995538, 73, 193, 88, 256
-0.995542, 49, 193, 176, 224
-0.995545, 123, 25, 138, 88
-0.995546, 1, 201, 128, 232
-0.995547, 477, 169, 492, 232
-0.995551, 79, 1, 94, 64
-0.995556, 443, 145, 458, 208
-0.995557, 335, 145, 350, 208
-0.995561, 1, 1, 500, 64
-0.995566, 473, 257, 488, 320
-0.995572, 49, 117, 176, 148
-0.995573, 319, 177, 334, 240
-0.995589, 325, 57, 340, 120
-0.995593, 317, 113, 332, 176
-0.995605, 1, 265, 256, 328
-0.995608, 97, 161, 112, 224
-0.995611, 49, 233, 176, 264
-0.99562, 123, 81, 138, 144
-0.995622, 205, 145, 220, 208
-0.995629, 369, 45, 496, 76
-0.995631, 213, 201, 228, 264
-0.995633, 381, 49, 396, 112
-0.995637, 335, 113, 350, 176
-0.995675, 17, 245, 144, 276
-0.995682, 369, 1, 496, 32
-0.995694, 129, 157, 256, 188
-0.995703, 129, 285, 256, 316
-0.995711, 257, 225, 384, 256
-0.995718, 1, 161, 128, 192
-0.995782, 353, 113, 480, 144
-0.995789, 65, 29, 192, 60
-0.995835, 17, 297, 144, 328
-0.995849, 241, 53, 368, 84
-0.99587, 193, 225, 320, 256
-0.995878, 1, 81, 128, 112
-0.995879, 193, 73, 320, 104
-0.995897, 97, 89, 224, 120
-0.995903, 17, 105, 144, 136
-0.99592, 177, 185, 304, 216
-0.995924, 425, 65, 456, 320
-0.99596, 345, 1, 376, 256
-0.996009, 241, 209, 368, 240
-0.996065, 105, 1, 136, 256
-0.996066, 241, 1, 368, 32
-0.996071, 41, 1, 72, 256
-0.996077, 17, 137, 144, 168
-0.996083, 209, 245, 336, 276
-0.996096, 49, 41, 176, 72
-0.996111, 17, 9, 144, 40
-0.996117, 33, 93, 160, 124
-0.996127, 321, 29, 448, 60
-0.996131, 389, 65, 420, 320
-0.996176, 145, 109, 272, 140
-0.996198, 177, 205, 304, 236
-0.996198, 241, 73, 368, 104
-0.996207, 229, 1, 260, 256
-0.996208, 113, 49, 240, 80
-0.996221, 193, 273, 320, 304
-0.996222, 97, 177, 224, 208
-0.996236, 49, 221, 176, 252
-0.996268, 321, 33, 352, 288
-0.996269, 49, 181, 176, 212
-0.996333, 129, 37, 256, 68
-0.996343, 161, 49, 288, 80
-0.996352, 117, 1, 148, 256
-0.996363, 369, 265, 496, 296
-0.99637, 225, 33, 352, 64
-0.996401, 49, 81, 176, 112
-0.996415, 369, 289, 496, 320
-0.996436, 301, 33, 332, 288
-0.996461, 97, 221, 224, 252
-0.996492, 113, 13, 240, 44
-0.99653, 321, 1, 448, 32
-0.996562, 241, 1, 272, 256
-0.996585, 133, 1, 164, 256
-0.996585, 145, 237, 272, 268
-0.996615, 65, 129, 192, 160
-0.996615, 321, 41, 448, 72
-0.996677, 25, 65, 56, 320
-0.996677, 1, 273, 500, 336
-0.996693, 369, 229, 384, 260
-0.996735, 441, 65, 472, 320
-0.99676, 1, 117, 128, 148
-0.996766, 399, 221, 414, 252
-0.996773, 161, 21, 288, 52
-0.996822, 65, 17, 192, 48
-0.996866, 81, 293, 208, 324
-0.996877, 307, 145, 322, 176
-0.996887, 375, 193, 390, 224
-0.996909, 337, 13, 464, 44
-0.996916, 241, 13, 368, 44
-0.996923, 289, 289, 416, 320
-0.996928, 113, 1, 240, 32
-0.996936, 273, 253, 400, 284
-0.996948, 443, 241, 458, 272
-0.997005, 369, 209, 384, 240
-0.997024, 205, 233, 220, 264
-0.997028, 393, 229, 408, 260
-0.997052, 209, 293, 336, 324
-0.997071, 57, 1, 88, 256
-0.997073, 333, 1, 364, 256
-0.997076, 77, 1, 108, 256
-0.997081, 177, 37, 304, 68
-0.997109, 289, 1, 320, 256
-0.99711, 145, 249, 272, 280
-0.997132, 145, 217, 272, 248
-0.997133, 321, 257, 448, 288
-0.997135, 393, 165, 408, 196
-0.997167, 435, 229, 450, 260
-0.997179, 273, 41, 400, 72
-0.997183, 393, 217, 408, 248
-0.997194, 97, 241, 224, 272
-0.997201, 65, 305, 192, 336
-0.997211, 63, 221, 78, 252
-0.997213, 315, 133, 330, 164
-0.997216, 1, 257, 128, 288
-0.997229, 379, 181, 394, 212
-0.997241, 1, 65, 32, 320
-0.997247, 193, 1, 320, 32
-0.997248, 369, 197, 384, 228
-0.997251, 145, 273, 272, 304
-0.997259, 449, 169, 464, 200
-0.997289, 1, 37, 128, 68
-0.997302, 399, 153, 414, 184
-0.997303, 97, 117, 224, 148
-0.997303, 183, 149, 198, 180
-0.997314, 69, 241, 84, 272
-0.997317, 113, 25, 240, 56
-0.997321, 379, 225, 394, 256
-0.99734, 405, 181, 420, 212
-0.997358, 93, 33, 124, 288
-0.997358, 369, 257, 384, 288
-0.997379, 5, 237, 20, 268
-0.997396, 63, 233, 78, 264
-0.997399, 179, 173, 194, 204
-0.997404, 211, 149, 226, 180
-0.997408, 295, 241, 310, 272
-0.997424, 435, 193, 450, 224
-0.997425, 405, 65, 420, 96
-0.997432, 33, 149, 48, 180
-0.997437, 5, 217, 20, 248
-0.997445, 315, 161, 330, 192
-0.997449, 75, 225, 90, 256
-0.997459, 425, 217, 440, 248
-0.997465, 337, 145, 352, 176
-0.997465, 343, 105, 358, 136
-0.997468, 399, 61, 414, 92
-0.997471, 317, 149, 332, 180
-0.997498, 153, 1, 184, 256
-0.997507, 383, 269, 398, 300
-0.997526, 39, 149, 54, 180
-0.997527, 59, 149, 74, 180
-0.997546, 393, 101, 408, 132
-0.997547, 381, 153, 396, 184
-0.997548, 465, 249, 480, 280
-0.997551, 205, 77, 220, 108
-0.997557, 387, 225, 402, 256
-0.997558, 485, 241, 500, 272
-0.997558, 207, 245, 222, 276
-0.997559, 375, 209, 390, 240
-0.997559, 473, 161, 488, 192
-0.99756, 309, 133, 324, 164
-0.997576, 309, 161, 324, 192
-0.99758, 375, 245, 390, 276
-0.997581, 299, 153, 314, 184
-0.997588, 49, 149, 64, 180
-0.997589, 381, 165, 396, 196
-0.99759, 127, 21, 142, 52
-0.99759, 59, 37, 74, 68
-0.997591, 389, 49, 404, 80
-0.997594, 211, 161, 226, 192
-0.997605, 57, 237, 72, 268
-0.997607, 387, 101, 402, 132
-0.99761, 425, 185, 440, 216
-0.99761, 169, 65, 200, 320
-0.997613, 173, 173, 188, 204
-0.997616, 37, 65, 52, 96
-0.997617, 205, 149, 220, 180
-0.997618, 457, 165, 472, 196
-0.99762, 447, 273, 462, 304
-0.997621, 65, 149, 80, 180
-0.997624, 1, 197, 16, 228
-0.997632, 341, 157, 356, 188
-0.997634, 349, 153, 364, 184
-0.997637, 177, 157, 192, 188
-0.997639, 465, 65, 496, 320
-0.997639, 441, 221, 456, 252
-0.99764, 197, 193, 212, 224
-0.997641, 387, 281, 402, 312
-0.997642, 215, 81, 230, 112
-0.997646, 55, 225, 70, 256
-0.997654, 371, 5, 386, 36
-0.997655, 317, 181, 332, 212
-0.997664, 415, 169, 430, 200
-0.997665, 429, 37, 444, 68
-0.997666, 409, 213, 424, 244
-0.997667, 233, 101, 248, 132
-0.997667, 309, 189, 324, 220
-0.997668, 221, 161, 236, 192
-0.997669, 209, 65, 240, 320
-0.997677, 393, 245, 408, 276
-0.997682, 443, 165, 458, 196
-0.997683, 123, 33, 138, 64
-0.997686, 385, 197, 400, 228
-0.997687, 11, 233, 26, 264
-0.99769, 117, 185, 132, 216
-0.997691, 219, 149, 234, 180
-0.997693, 387, 153, 402, 184
-0.997698, 405, 161, 420, 192
-0.997705, 441, 177, 456, 208
-0.997706, 381, 101, 396, 132
-0.997709, 305, 229, 320, 260
-0.997712, 401, 205, 416, 236
-0.997717, 1, 249, 500, 312
-0.997721, 383, 209, 398, 240
-0.997722, 411, 157, 426, 188
-0.997726, 325, 141, 340, 172
-0.997729, 367, 269, 382, 300
-0.997733, 317, 61, 332, 92
-0.997735, 171, 185, 186, 216
-0.997739, 51, 213, 66, 244
-0.997739, 49, 241, 64, 272
-0.997739, 349, 97, 364, 128
-0.997741, 461, 145, 476, 176
-0.997741, 99, 149, 114, 180
-0.997741, 445, 209, 460, 240
-0.997746, 231, 77, 246, 108
-0.997746, 223, 85, 238, 116
-0.997748, 481, 149, 496, 180
-0.997751, 63, 245, 78, 276
-0.997752, 393, 149, 408, 180
-0.997752, 433, 253, 448, 284
-0.997753, 85, 213, 100, 244
-0.997756, 369, 245, 384, 276
-0.997757, 311, 201, 326, 232
-0.997759, 3, 181, 18, 212
-0.99776, 479, 221, 494, 252
-0.99777, 71, 145, 86, 176
-0.997772, 27, 149, 42, 180
-0.997775, 183, 161, 198, 192
-0.997778, 399, 237, 414, 268
-0.997779, 359, 217, 374, 248
-0.99778, 69, 229, 84, 260
-0.997781, 43, 217, 58, 248
-0.997782, 303, 133, 318, 164
-0.997784, 13, 65, 44, 320
-0.997815, 181, 65, 212, 320
-0.997818, 453, 65, 484, 320
-0.997905, 253, 1, 284, 256
-0.998155, 197, 33, 228, 288
-0.998407, 385, 221, 448, 236
-0.998414, 409, 179, 472, 194
-0.998424, 409, 171, 472, 186
-0.998429, 153, 197, 216, 212
-0.998439, 321, 57, 384, 72
-0.99844, 425, 247, 488, 262
-0.998447, 305, 145, 368, 160
-0.998453, 1, 219, 64, 234
-0.998456, 337, 97, 400, 112
-0.998457, 305, 137, 368, 152
-0.998459, 377, 167, 440, 182
-0.998461, 169, 153, 232, 168
-0.998463, 361, 65, 424, 80
-0.998465, 401, 245, 464, 260
-0.998466, 345, 165, 408, 180
-0.998468, 305, 163, 368, 178
-0.998469, 305, 189, 368, 204
-0.998471, 405, 237, 436, 252
-0.998471, 297, 153, 360, 168
-0.998471, 397, 253, 428, 268
-0.998472, 305, 131, 368, 146
-0.998472, 369, 97, 400, 112
-0.998472, 321, 103, 352, 118
-0.998473, 177, 165, 240, 180
-0.998473, 205, 237, 236, 252
-0.998473, 445, 167, 476, 182
-0.998474, 469, 287, 500, 302
-0.998474, 113, 197, 144, 212
-0.998474, 341, 129, 372, 144
-0.998474, 341, 117, 372, 132
-0.998475, 469, 241, 500, 256
-0.998475, 125, 33, 156, 48
-0.998475, 353, 189, 384, 204
-0.998475, 57, 53, 88, 68
-0.998475, 193, 87, 256, 102
-0.998476, 393, 193, 424, 208
-0.998477, 433, 241, 496, 256
-0.998477, 45, 255, 76, 270
-0.998477, 353, 231, 416, 246
-0.998477, 445, 143, 476, 158
-0.998477, 373, 91, 404, 106
-0.998479, 217, 87, 248, 102
-0.99848, 445, 179, 476, 194
-0.998481, 101, 197, 132, 212
-0.998481, 9, 251, 72, 266
-0.998481, 385, 175, 448, 190
-0.998481, 433, 211, 464, 226
-0.998481, 93, 163, 124, 178
-0.998483, 365, 247, 396, 262
-0.998483, 385, 215, 448, 230
-0.998483, 209, 151, 240, 166
-0.998484, 357, 155, 388, 170
-0.998484, 425, 167, 456, 182
-0.998485, 1, 253, 32, 268
-0.998486, 429, 265, 460, 280
-0.998486, 385, 153, 416, 168
-0.998486, 13, 215, 44, 230
-0.998487, 425, 283, 488, 298
-0.998488, 365, 1, 396, 16
-0.998488, 385, 283, 416, 298
-0.998488, 313, 137, 344, 152
-0.998489, 69, 219, 100, 234
-0.998489, 409, 183, 440, 198
-0.99849, 433, 225, 496, 240
-0.99849, 57, 237, 88, 252
-0.99849, 25, 215, 88, 230
-0.99849, 289, 153, 320, 168
-0.998491, 93, 151, 124, 166
-0.998491, 345, 219, 408, 234
-0.998491, 421, 225, 452, 240
-0.998491, 345, 159, 376, 174
-0.998492, 433, 225, 464, 240
-0.998492, 353, 237, 416, 252
-0.998493, 301, 159, 332, 174
-0.998493, 221, 95, 252, 110
-0.998493, 205, 163, 236, 178
-0.998494, 377, 221, 408, 236
-0.998494, 393, 57, 456, 72
-0.998494, 381, 197, 412, 212
-0.998495, 1, 213, 64, 228
-0.998495, 341, 147, 372, 162
-0.998496, 421, 219, 452, 234
-0.998496, 79, 161, 94, 288
-0.998496, 377, 171, 408, 186
-0.998497, 373, 259, 404, 274
-0.998497, 1, 201, 32, 216
-0.998498, 425, 217, 488, 232
-0.998498, 429, 259, 460, 274
-0.998498, 177, 151, 208, 166
-0.998498, 353, 221, 384, 236
-0.998499, 273, 153, 336, 168
-0.9985, 293, 167, 324, 182
-0.9985, 469, 277, 500, 292
-0.998501, 313, 163, 344, 178
-0.998502, 281, 145, 344, 160
-0.998502, 433, 171, 496, 186
-0.998503, 313, 181, 376, 196
-0.998503, 349, 35, 380, 50
-0.998504, 177, 171, 240, 186
-0.998504, 361, 225, 424, 240
-0.998505, 357, 161, 388, 176
-0.998506, 377, 185, 408, 200
-0.998506, 17, 155, 48, 170
-0.998508, 201, 157, 232, 172
-0.998508, 385, 185, 448, 200
-0.998508, 17, 153, 80, 168
-0.998508, 169, 77, 232, 92
-0.998509, 177, 171, 208, 186
-0.998509, 345, 153, 408, 168
-0.99851, 397, 73, 428, 88
-0.99851, 453, 283, 484, 298
-0.99851, 65, 245, 96, 260
-0.99851, 389, 179, 420, 194
-0.998511, 313, 143, 344, 158
-0.998511, 417, 275, 480, 290
-0.998511, 205, 201, 236, 216
-0.998511, 73, 197, 136, 212
-0.998511, 33, 223, 96, 238
-0.998511, 385, 237, 448, 252
-0.998511, 385, 263, 448, 278
-0.998511, 361, 133, 392, 148
-0.998512, 385, 227, 448, 242
-0.998512, 313, 171, 344, 186
-0.998513, 169, 159, 232, 174
-0.998513, 361, 55, 424, 70
-0.998513, 385, 257, 448, 272
-0.998513, 385, 237, 416, 252
-0.998514, 313, 129, 344, 144
-0.998514, 469, 227, 500, 242
-0.998516, 417, 253, 480, 268
-0.998516, 345, 135, 408, 150
-0.998516, 345, 159, 408, 174
-0.998517, 161, 285, 224, 300
-0.998518, 161, 187, 192, 202
-0.998518, 17, 5, 80, 20
-0.998518, 193, 79, 256, 94
-0.998519, 413, 189, 444, 204
-0.998519, 365, 203, 396, 218
-0.99852, 401, 231, 432, 246
-0.99852, 17, 259, 80, 274
-0.99852, 345, 185, 408, 200
-0.99852, 153, 187, 216, 202
-0.99852, 409, 165, 472, 180
-0.998521, 417, 261, 480, 276
-0.998522, 425, 177, 456, 192
-0.998522, 469, 263, 500, 278
-0.998523, 113, 191, 176, 206
-0.998523, 41, 5, 104, 20
-0.998524, 329, 79, 392, 94
-0.998524, 377, 193, 440, 208
-0.998524, 201, 85, 232, 100
-0.998524, 49, 215, 112, 230
-0.998525, 345, 171, 408, 186
-0.998525, 305, 173, 368, 188
-0.998526, 345, 199, 408, 214
-0.998526, 361, 99, 424, 114
-0.998526, 153, 211, 216, 226
-0.998526, 377, 289, 408, 304
-0.998526, 305, 63, 368, 78
-0.998526, 365, 231, 396, 246
-0.998526, 37, 249, 68, 264
-0.998528, 417, 267, 480, 282
-0.998528, 421, 251, 452, 266
-0.998528, 417, 203, 480, 218
-0.998529, 433, 205, 464, 220
-0.998529, 361, 195, 392, 210
-0.99853, 353, 191, 416, 206
-0.99853, 293, 245, 324, 260
-0.998531, 65, 153, 128, 168
-0.998531, 369, 7, 400, 22
-0.998532, 361, 287, 424, 302
-0.998532, 385, 51, 448, 66
-0.998532, 369, 77, 432, 92
-0.998533, 5, 195, 36, 210
-0.998533, 297, 103, 360, 118
-0.998533, 365, 215, 396, 230
-0.998534, 361, 81, 392, 96
-0.998534, 433, 235, 496, 250
-0.998535, 169, 237, 232, 252
-0.998536, 401, 219, 432, 234
-0.998536, 353, 93, 384, 108
-0.998536, 177, 219, 240, 234
-0.998536, 329, 225, 392, 240
-0.998536, 77, 231, 108, 246
-0.998537, 393, 65, 424, 80
-0.998537, 45, 213, 76, 228
-0.998537, 209, 79, 240, 94
-0.998538, 305, 195, 368, 210
-0.998538, 329, 145, 392, 160
-0.998539, 81, 17, 144, 32
-0.998539, 433, 165, 496, 180
-0.99854, 169, 177, 232, 192
-0.99854, 393, 115, 456, 130
-0.99854, 321, 3, 384, 18
-0.998542, 393, 185, 424, 200
-0.998543, 189, 151, 220, 166
-0.998543, 365, 59, 396, 74
-0.998544, 345, 117, 408, 132
-0.998544, 153, 85, 216, 100
-0.998544, 369, 71, 432, 86
-0.998544, 281, 51, 344, 66
-0.998545, 153, 229, 216, 244
-0.998545, 81, 205, 144, 220
-0.998545, 433, 289, 496, 304
-0.998546, 313, 111, 376, 126
-0.998546, 345, 205, 408, 220
-0.998546, 401, 169, 432, 184
-0.998547, 417, 211, 480, 226
-0.998547, 217, 265, 280, 280
-0.998547, 41, 229, 104, 244
-0.998547, 337, 47, 400, 62
-0.998547, 385, 207, 448, 222
-0.998548, 361, 87, 424, 102
-0.998549, 345, 213, 408, 228
-0.998549, 377, 201, 440, 216
-0.99855, 401, 285, 464, 300
-0.99855, 313, 235, 376, 250
-0.99855, 25, 215, 56, 230
-0.998551, 293, 133, 324, 148
-0.998551, 373, 241, 404, 256
-0.998551, 377, 251, 440, 266
-0.998553, 361, 3, 424, 18
-0.998553, 365, 221, 396, 236
-0.998554, 113, 201, 176, 216
-0.998555, 41, 57, 72, 72
-0.998555, 153, 223, 216, 238
-0.998555, 337, 103, 400, 118
-0.998556, 209, 217, 272, 232
-0.998556, 401, 63, 464, 78
-0.998556, 409, 225, 472, 240
-0.998556, 425, 147, 488, 162
-0.998557, 281, 59, 344, 74
-0.998557, 209, 73, 272, 88
-0.998558, 81, 163, 144, 178
-0.998559, 193, 149, 256, 164
-0.998559, 353, 243, 416, 258
-0.998559, 369, 153, 432, 168
-0.99856, 393, 247, 424, 262
-0.99856, 321, 91, 384, 106
-0.99856, 457, 171, 488, 186
-0.998561, 41, 111, 104, 126
-0.998562, 437, 173, 468, 188
-0.998563, 389, 167, 420, 182
-0.998565, 45, 241, 76, 256
-0.998568, 313, 157, 344, 172
-0.998569, 333, 157, 364, 172
-0.998571, 399, 161, 414, 288
-0.998572, 377, 165, 408, 180
-0.998574, 377, 55, 408, 70
-0.998574, 361, 285, 392, 300
-0.998575, 457, 165, 488, 180
-0.998583, 301, 147, 332, 162
-0.998586, 437, 245, 468, 260
-0.998587, 333, 163, 364, 178
-0.998592, 389, 221, 420, 236
-0.998594, 377, 227, 408, 242
-0.998594, 397, 161, 428, 176
-0.998595, 377, 215, 408, 230
-0.998604, 321, 151, 352, 166
-0.998607, 301, 153, 332, 168
-0.998609, 377, 191, 408, 206
-0.99861, 389, 231, 420, 246
-0.99863, 311, 161, 326, 288
-0.998638, 369, 193, 384, 320
-0.998638, 367, 33, 382, 160
-0.99864, 301, 129, 316, 256
-0.998664, 87, 145, 102, 272
-0.998668, 443, 177, 458, 304
-0.998677, 451, 161, 466, 288
-0.998681, 409, 145, 424, 272
-0.998691, 273, 65, 304, 320
-0.998701, 387, 145, 402, 272
-0.998704, 391, 209, 406, 336
-0.998708, 93, 161, 108, 288
-0.998726, 85, 209, 100, 336
-0.998728, 373, 97, 388, 224
-0.99873, 393, 97, 408, 224
-0.998733, 67, 209, 82, 336
-0.998737, 3, 177, 18, 304
-0.998743, 383, 81, 398, 208
-0.998743, 353, 81, 368, 208
-0.998744, 373, 33, 388, 160
-0.99875, 37, 49, 52, 176
-0.998756, 311, 113, 326, 240
-0.99876, 375, 161, 390, 288
-0.998771, 441, 129, 456, 256
-0.998776, 317, 113, 332, 240
-0.998778, 231, 81, 246, 208
-0.998793, 49, 209, 64, 336
-0.998794, 429, 209, 444, 336
-0.998799, 77, 1, 92, 128
-0.998799, 457, 177, 472, 304
-0.998805, 453, 113, 468, 240
-0.998819, 435, 177, 450, 304
-0.998842, 415, 161, 430, 288
-0.998849, 205, 65, 220, 192
-0.99885, 79, 209, 94, 336
-0.998853, 225, 113, 240, 240
-0.998856, 415, 113, 430, 240
-0.99887, 429, 97, 444, 224
-0.998872, 363, 113, 378, 240
-0.998881, 343, 129, 358, 256
-0.998888, 237, 81, 252, 208
-0.998894, 409, 49, 424, 176
-0.998894, 305, 81, 320, 208
-0.998897, 129, 1, 144, 128
-0.998897, 329, 113, 344, 240
-0.998919, 383, 33, 398, 160
-0.998924, 447, 113, 462, 240
-0.99893, 335, 129, 350, 256
-0.998931, 323, 65, 338, 192
-0.998937, 361, 65, 376, 192
-0.998938, 463, 161, 478, 288
-0.998939, 393, 161, 408, 288
-0.998953, 463, 113, 478, 240
-0.998961, 199, 81, 214, 208
-0.998961, 361, 1, 376, 128
-0.998963, 369, 145, 384, 272
-0.998963, 61, 209, 76, 336
-0.998966, 171, 161, 186, 288
-0.998967, 403, 113, 418, 240
-0.998967, 397, 209, 412, 336
-0.998969, 451, 209, 466, 336
-0.998969, 217, 81, 232, 208
-0.998973, 301, 177, 316, 304
-0.998973, 177, 161, 192, 288
-0.998976, 415, 1, 430, 128
-0.998984, 73, 193, 88, 320
-0.998986, 115, 1, 130, 128
-0.998986, 409, 193, 424, 320
-0.998995, 47, 1, 62, 128
-0.998997, 205, 209, 220, 336
-0.998998, 485, 209, 500, 336
-0.998999, 381, 129, 396, 256
-0.999001, 205, 161, 220, 288
-0.999005, 311, 65, 326, 192
-0.999006, 87, 97, 102, 224
-0.999006, 355, 17, 370, 144
-0.999012, 295, 209, 310, 336
-0.999014, 11, 177, 26, 304
-0.999024, 431, 33, 446, 160
-0.999031, 323, 145, 338, 272
-0.999032, 27, 1, 42, 128
-0.999035, 285, 161, 300, 288
-0.999042, 59, 33, 74, 160
-0.999043, 475, 161, 490, 288
-0.999043, 39, 1, 54, 128
-0.999044, 223, 65, 238, 192
-0.999044, 425, 33, 440, 160
-0.999045, 295, 113, 310, 240
-0.999046, 125, 49, 140, 176
-0.999048, 395, 49, 410, 176
-0.999049, 215, 129, 230, 256
-0.999051, 383, 193, 398, 320
-0.999054, 101, 113, 116, 240
-0.999056, 331, 49, 346, 176
-0.999056, 467, 209, 482, 336
-0.999059, 197, 145, 212, 272
-0.999059, 469, 129, 484, 256
-0.999061, 55, 177, 70, 304
-0.999064, 341, 33, 356, 160
-0.999074, 403, 209, 418, 336
-0.999077, 363, 193, 378, 320
-0.999078, 31, 49, 46, 176
-0.999081, 403, 33, 418, 160
-0.999083, 307, 209, 322, 336
-0.999084, 349, 33, 364, 160
-0.999084, 313, 1, 328, 128
-0.999087, 135, 33, 150, 160
-0.999089, 123, 1, 138, 128
-0.999089, 243, 81, 258, 208
-0.99909, 223, 161, 238, 288
-0.99909, 127, 113, 142, 240
-0.999091, 91, 1, 106, 128
-0.999093, 43, 209, 58, 336
-0.999093, 231, 129, 246, 256
-0.999094, 17, 177, 32, 304
-0.999098, 377, 209, 392, 336
-0.999099, 485, 161, 500, 288
-0.9991, 357, 129, 372, 256
-0.999101, 249, 161, 264, 288
-0.999104, 67, 161, 82, 288
-0.999105, 435, 113, 450, 240
-0.999115, 485, 1, 500, 128
-0.999116, 421, 161, 436, 288
-0.99912, 141, 1, 156, 128
-0.999123, 317, 161, 332, 288
-0.999124, 73, 145, 88, 272
-0.999125, 207, 113, 222, 240
-0.999132, 409, 97, 424, 224
-0.999132, 389, 33, 404, 160
-0.999653, 13, 219, 28, 234
-0.999653, 29, 215, 44, 230
-0.999653, 197, 197, 212, 212
-0.999653, 5, 221, 20, 236
-0.999654, 401, 221, 416, 236
-0.999654, 373, 9, 388, 24
-0.999654, 391, 55, 406, 70
-0.999655, 383, 201, 398, 216
-0.999655, 63, 221, 78, 236
-0.999655, 107, 153, 122, 168
-0.999655, 199, 241, 214, 256
-0.999656, 313, 131, 328, 146
-0.999656, 361, 223, 376, 238
-0.999656, 317, 175, 332, 190
-0.999656, 369, 247, 384, 262
-0.999656, 357, 37, 372, 52
-0.999657, 401, 233, 416, 248
-0.999657, 59, 45, 74, 60
-0.999657, 319, 181, 334, 196
-0.999658, 397, 283, 412, 298
-0.999658, 331, 57, 346, 72
-0.999658, 3, 243, 18, 258
-0.999659, 381, 233, 396, 248
-0.999659, 473, 165, 488, 180
-0.999659, 215, 79, 230, 94
-0.999659, 477, 225, 492, 240
-0.99966, 453, 143, 468, 158
-0.99966, 427, 173, 442, 188
-0.99966, 383, 281, 398, 296
-0.999661, 297, 135, 312, 150
-0.999661, 299, 155, 314, 170
-0.999661, 399, 169, 414, 184
-0.999662, 407, 215, 422, 230
-0.999662, 11, 251, 26, 266
-0.999662, 311, 159, 326, 174
-0.999662, 377, 171, 392, 186
-0.999662, 437, 169, 452, 184
-0.999663, 161, 191, 176, 206
-0.999663, 101, 153, 116, 168
-0.999664, 65, 233, 80, 248
-0.999665, 367, 269, 382, 284
-0.999666, 295, 249, 310, 264
-0.999666, 485, 235, 500, 250
-0.999667, 217, 163, 232, 178
-0.999667, 369, 241, 384, 256
-0.999668, 385, 189, 400, 204
-0.999668, 299, 145, 314, 160
-0.999668, 409, 165, 424, 180
-0.999669, 79, 231, 94, 246
-0.99967, 21, 1, 36, 16
-0.99967, 29, 1, 44, 16
-0.99967, 349, 47, 364, 62
-0.99967, 369, 209, 384, 224
-0.999671, 51, 249, 66, 264
-0.999672, 213, 87, 228, 102
-0.999672, 1, 195, 16, 210
-0.999672, 379, 3, 394, 18
-0.999672, 377, 289, 392, 304
-0.999672, 385, 101, 400, 116
-0.999673, 19, 157, 34, 172
-0.999673, 391, 229, 406, 244
-0.999674, 365, 289, 380, 304
-0.999674, 133, 31, 148, 46
-0.999675, 307, 167, 322, 182
-0.999676, 409, 239, 424, 254
-0.999676, 181, 171, 196, 186
-0.999677, 377, 165, 392, 180
-0.999677, 369, 259, 384, 274
-0.999677, 391, 97, 406, 112
-0.999677, 405, 185, 420, 200
-0.999679, 179, 151, 194, 166
-0.999679, 393, 235, 408, 250
-0.99968, 317, 153, 332, 168
-0.99968, 37, 3, 52, 18
-0.999681, 35, 69, 50, 84
-0.999682, 325, 59, 340, 74
-0.999682, 439, 175, 454, 190
-0.999683, 397, 213, 412, 228
-0.999685, 11, 193, 26, 208
-0.999685, 405, 67, 420, 82
-0.999686, 483, 241, 498, 256
-0.999686, 439, 225, 454, 240
-0.999686, 205, 81, 220, 96
-0.999687, 301, 247, 316, 262
-0.999688, 59, 239, 74, 254
-0.999688, 429, 229, 444, 244
-0.999688, 425, 191, 440, 206
-0.999689, 311, 177, 326, 192
-0.999689, 335, 153, 350, 168
-0.999691, 485, 83, 500, 98
-0.999692, 391, 291, 406, 306
-0.999692, 315, 143, 330, 158
-0.999693, 349, 157, 364, 172
-0.999693, 5, 237, 20, 252
-0.999693, 307, 153, 322, 168
-0.999694, 207, 247, 222, 262
-0.999694, 69, 245, 84, 260
-0.999694, 393, 171, 408, 186
-0.999694, 369, 229, 384, 244
-0.999694, 397, 61, 412, 76
-0.999695, 429, 179, 444, 194
-0.999695, 85, 229, 100, 244
-0.999696, 249, 217, 264, 232
-0.999699, 317, 159, 332, 174
-0.9997, 23, 215, 38, 230
-0.999703, 205, 149, 220, 164
-0.999704, 71, 239, 86, 254
-0.999705, 401, 161, 416, 176
-0.999707, 371, 223, 386, 238
-0.999711, 341, 159, 356, 174
-0.999711, 449, 171, 464, 186
-0.999712, 295, 243, 310, 258
-0.999717, 389, 241, 404, 256
-0.999718, 385, 287, 400, 302
-0.99972, 205, 235, 220, 250
-0.999723, 375, 197, 390, 212
-0.999723, 369, 215, 384, 230
-0.999726, 373, 3, 388, 18
-0.999726, 393, 165, 408, 180
-0.999727, 387, 165, 402, 180
-0.999729, 397, 289, 412, 304
-0.999732, 309, 201, 324, 216
-0.999734, 171, 187, 186, 202
-0.999736, 445, 243, 460, 258
-0.999747, 309, 147, 324, 162
-0.999748, 377, 191, 392, 206
-0.999748, 401, 227, 416, 242
-0.999757, 307, 133, 322, 148
-0.99976, 395, 219, 410, 234
-0.999808, 379, 185, 394, 200
