1967
-0.595683, 1, 97, 500, 352
-0.636217, 1, 1, 500, 256
-0.667019, 161, 1, 416, 375
-0.703532, 1, 1, 500, 375
-0.763895, 65, 1, 320, 375
-0.817246, 257, 1, 500, 375
-0.854298, 225, 65, 480, 320
-0.903456, 177, 1, 304, 375
-0.90674, 129, 33, 384, 288
-0.924483, 305, 129, 432, 375
-0.92628, 225, 1, 352, 375
-0.928382, 257, 97, 384, 352
-0.934227, 193, 33, 320, 288
-0.935101, 305, 1, 432, 375
-0.936547, 209, 129, 336, 375
-0.947763, 369, 1, 496, 375
-0.950129, 1, 145, 500, 272
-0.951735, 353, 129, 480, 375
-0.956163, 1, 97, 500, 224
-0.956309, 257, 1, 384, 256
-0.957562, 145, 1, 272, 256
-0.959454, 321, 1, 448, 256
-0.960477, 1, 1, 128, 256
-0.960689, 113, 129, 240, 375
-0.960975, 161, 225, 416, 352
-0.961175, 225, 225, 352, 352
-0.962829, 161, 129, 288, 375
-0.963827, 1, 1, 128, 375
-0.963837, 297, 241, 360, 368
-0.964368, 369, 33, 496, 288
-0.967294, 97, 1, 224, 375
-0.96746, 257, 145, 500, 272
-0.967758, 273, 225, 336, 352
-0.968134, 1, 49, 500, 176
-0.970938, 1, 241, 500, 368
-0.973165, 297, 273, 360, 336
-0.973388, 1, 1, 500, 128
-0.973616, 305, 193, 368, 320
-0.974213, 185, 209, 248, 336
-0.975154, 225, 177, 352, 304
-0.975609, 161, 65, 416, 192
-0.976102, 329, 225, 392, 352
-0.976408, 49, 1, 176, 375
-0.976687, 1, 193, 500, 320
-0.976792, 257, 193, 500, 320
-0.976872, 129, 177, 384, 304
-0.977124, 177, 209, 304, 336
-0.977228, 225, 265, 288, 328
-0.977528, 305, 129, 432, 256
-0.978311, 257, 81, 384, 208
-0.979249, 329, 257, 392, 320
-0.979584, 185, 273, 248, 336
-0.979918, 305, 241, 432, 368
-0.980133, 97, 17, 352, 144
-0.980535, 81, 33, 208, 288
-0.980589, 161, 113, 416, 240
-0.980603, 289, 249, 352, 312
-0.981453, 1, 1, 256, 128
-0.98164, 305, 297, 368, 360
-0.98187, 369, 161, 496, 288
-0.981883, 225, 273, 352, 336
-0.982079, 209, 225, 272, 352
-0.982241, 257, 97, 500, 224
-0.982542, 265, 233, 328, 296
-0.982558, 241, 161, 304, 224
-0.982712, 321, 273, 352, 336
-0.982928, 257, 17, 500, 144
-0.983498, 265, 265, 328, 328
-0.983507, 65, 241, 320, 368
-0.983563, 129, 193, 256, 320
-0.983852, 305, 193, 432, 320
-0.98477, 321, 241, 352, 368
-0.984783, 201, 233, 264, 296
-0.985144, 193, 33, 320, 160
-0.985156, 233, 225, 296, 352
-0.985294, 273, 177, 336, 304
-0.985417, 345, 129, 408, 256
-0.985589, 129, 129, 384, 375
-0.985652, 305, 225, 368, 288
-0.985832, 329, 281, 392, 344
-0.986022, 177, 161, 304, 288
-0.986029, 305, 193, 368, 256
-0.986091, 241, 161, 304, 288
-0.986354, 257, 241, 500, 368
-0.98646, 241, 289, 304, 352
-0.986575, 129, 241, 256, 368
-0.98658, 1, 1, 128, 128
-0.986717, 341, 225, 372, 352
-0.986985, 201, 297, 264, 360
-0.987055, 33, 97, 160, 352
-0.98736, 337, 257, 368, 320
-0.987371, 225, 249, 352, 312
-0.987377, 17, 1, 80, 128
-0.987598, 321, 113, 384, 240
-0.987626, 177, 257, 304, 320
-0.987641, 33, 193, 288, 320
-0.987828, 225, 185, 352, 248
-0.988375, 177, 249, 240, 312
-0.988446, 297, 97, 360, 352
-0.988585, 169, 161, 232, 288
-0.988617, 281, 185, 344, 248
-0.988806, 257, 225, 384, 288
-0.988869, 305, 225, 336, 352
-0.988869, 401, 177, 464, 304
-0.988921, 297, 97, 360, 160
-0.988926, 273, 81, 336, 208
-0.989038, 377, 161, 440, 224
-0.989063, 161, 161, 224, 224
-0.989093, 265, 209, 328, 272
-0.989144, 1, 1, 256, 256
-0.989161, 333, 289, 364, 352
-0.989224, 265, 73, 328, 136
-0.989378, 177, 281, 304, 344
-0.989539, 177, 193, 240, 256
-0.989626, 305, 265, 432, 328
-0.989867, 401, 177, 464, 240
-0.98991, 377, 161, 440, 288
-0.990066, 249, 65, 312, 192
-0.990071, 425, 193, 488, 320
-0.99015, 177, 153, 304, 216
-0.990171, 225, 1, 288, 375
-0.990366, 321, 161, 448, 224
-0.990448, 201, 273, 232, 336
-0.990519, 209, 1, 272, 128
-0.990602, 273, 65, 336, 320
-0.990677, 321, 97, 384, 352
-0.990681, 225, 225, 256, 352
-0.990775, 161, 241, 224, 368
-0.990866, 297, 97, 360, 224
-0.990932, 189, 265, 220, 328
-0.990978, 369, 81, 496, 208
-0.990988, 145, 1, 272, 128
-0.991044, 177, 161, 208, 224
-0.991102, 229, 265, 260, 328
-0.991105, 197, 241, 228, 368
-0.991113, 321, 121, 384, 184
-0.991181, 281, 273, 344, 304
-0.991205, 305, 281, 368, 312
-0.991229, 225, 241, 288, 304
-0.991286, 309, 265, 340, 328
-0.991342, 289, 137, 416, 200
-0.991377, 309, 241, 340, 304
-0.991424, 225, 277, 288, 308
-0.991479, 369, 193, 496, 256
-0.991591, 265, 161, 328, 224
-0.991622, 305, 297, 368, 328
-0.991653, 241, 217, 304, 280
-0.991689, 325, 193, 356, 320
-0.991714, 229, 289, 260, 352
-0.991812, 41, 1, 104, 64
-0.991851, 297, 245, 360, 276
-0.991862, 185, 293, 248, 324
-0.991901, 241, 57, 304, 120
-0.991923, 137, 161, 200, 224
-0.991942, 213, 209, 244, 336
-0.99201, 297, 257, 360, 288
-0.992063, 265, 289, 328, 320
-0.992096, 201, 261, 264, 292
-0.992102, 433, 201, 496, 264
-0.992123, 241, 261, 304, 292
-0.992168, 273, 289, 400, 352
-0.992172, 177, 113, 304, 240
-0.992213, 321, 269, 384, 300
-0.992245, 241, 289, 304, 320
-0.992251, 185, 281, 248, 312
-0.992286, 253, 161, 284, 224
-0.992309, 329, 233, 360, 296
-0.992312, 177, 297, 240, 360
-0.992328, 273, 229, 336, 260
-0.992333, 281, 1, 344, 375
-0.992346, 329, 281, 392, 312
-0.99235, 209, 65, 336, 128
-0.992385, 169, 161, 232, 192
-0.992399, 129, 281, 256, 344
-0.992417, 241, 161, 304, 192
-0.992427, 289, 209, 320, 336
-0.992458, 193, 249, 256, 280
-0.992499, 209, 1, 272, 256
-0.992562, 273, 245, 336, 276
-0.992562, 433, 169, 496, 232
-0.992602, 177, 225, 240, 288
-0.992612, 217, 33, 280, 96
-0.992631, 209, 217, 336, 280
-0.992635, 329, 297, 392, 328
-0.992637, 305, 241, 432, 304
-0.992649, 273, 185, 400, 248
-0.992705, 305, 233, 368, 264
-0.992708, 265, 289, 328, 352
-0.992724, 265, 153, 296, 216
-0.992726, 265, 157, 328, 188
-0.99274, 209, 297, 272, 328
-0.992773, 153, 289, 216, 320
-0.99278, 257, 277, 320, 308
-0.992839, 305, 309, 368, 340
-0.992863, 177, 269, 240, 300
-0.992899, 317, 281, 348, 312
-0.992901, 321, 257, 384, 288
-0.992904, 113, 145, 240, 272
-0.992914, 241, 173, 304, 204
-0.992946, 305, 221, 368, 252
-0.99298, 161, 185, 288, 248
-0.993023, 225, 185, 288, 248
-0.993023, 153, 265, 216, 328
-0.993033, 273, 261, 336, 292
-0.993058, 337, 309, 400, 340
-0.993059, 273, 217, 336, 248
-0.993099, 177, 205, 240, 236
-0.993108, 193, 237, 256, 268
-0.993151, 145, 165, 208, 196
-0.993159, 361, 161, 424, 192
-0.993161, 297, 193, 360, 224
-0.993173, 337, 297, 368, 328
-0.993191, 337, 269, 368, 300
-0.993195, 409, 165, 472, 196
-0.993195, 185, 305, 248, 336
-0.993196, 253, 161, 284, 192
-0.993197, 385, 149, 448, 180
-0.993219, 265, 153, 296, 184
-0.993221, 177, 161, 208, 192
-0.993221, 433, 217, 496, 248
-0.993235, 417, 205, 480, 236
-0.993246, 241, 161, 368, 224
-0.993252, 233, 297, 264, 328
-0.99326, 273, 189, 336, 220
-0.99326, 145, 225, 272, 288
-0.993263, 233, 301, 296, 332
-0.993268, 193, 289, 224, 320
-0.993268, 337, 141, 400, 172
-0.99327, 273, 277, 304, 308
-0.993273, 321, 293, 352, 324
-0.993278, 185, 217, 248, 248
-0.993281, 257, 77, 320, 108
-0.993316, 289, 153, 352, 216
-0.993333, 321, 129, 384, 160
-0.993337, 333, 257, 364, 288
-0.99334, 249, 257, 280, 320
-0.993357, 241, 65, 304, 96
-0.993372, 385, 177, 448, 208
-0.993374, 169, 257, 232, 288
-0.99339, 285, 273, 316, 304
-0.993396, 297, 109, 360, 140
-0.993411, 161, 301, 224, 332
-0.993416, 433, 185, 496, 216
-0.993423, 241, 249, 304, 280
-0.993427, 169, 241, 232, 272
-0.993431, 341, 281, 372, 312
-0.993438, 217, 189, 280, 220
-0.993439, 173, 289, 204, 320
-0.99344, 185, 257, 216, 288
-0.99344, 325, 241, 356, 272
-0.993442, 305, 205, 368, 236
-0.993445, 273, 89, 336, 120
-0.993446, 329, 233, 392, 296
-0.99346, 305, 241, 336, 272
-0.993461, 253, 281, 284, 312
-0.993477, 393, 189, 456, 220
-0.99348, 229, 265, 260, 296
-0.993481, 309, 261, 340, 292
-0.993493, 341, 241, 372, 272
-0.993495, 225, 53, 288, 84
-0.993503, 185, 273, 216, 304
-0.993504, 305, 281, 336, 312
-0.993515, 145, 277, 208, 308
-0.993517, 249, 173, 280, 204
-0.993521, 153, 229, 216, 260
-0.993521, 273, 289, 304, 320
-0.993533, 361, 129, 424, 160
-0.993536, 261, 269, 292, 300
-0.993537, 341, 309, 372, 340
-0.99354, 329, 281, 360, 312
-0.993541, 321, 245, 384, 276
-0.993554, 161, 165, 192, 196
-0.993557, 233, 225, 296, 256
-0.993559, 277, 153, 308, 184
-0.993566, 345, 253, 376, 284
-0.993567, 245, 261, 276, 292
-0.99358, 385, 165, 448, 196
-0.993582, 209, 261, 240, 292
-0.993582, 281, 205, 344, 236
-0.993584, 185, 233, 216, 264
-0.993593, 353, 117, 416, 148
-0.993596, 169, 185, 232, 216
-0.993599, 249, 185, 312, 216
-0.9936, 173, 265, 204, 296
-0.9936, 225, 249, 256, 280
-0.993601, 321, 269, 352, 300
-0.993603, 205, 241, 236, 272
-0.993608, 197, 277, 228, 308
-0.993609, 233, 237, 296, 268
-0.993609, 173, 173, 204, 204
-0.993609, 49, 1, 112, 32
-0.993612, 245, 301, 276, 332
-0.993615, 241, 273, 272, 304
-0.993617, 265, 165, 296, 196
-0.99362, 233, 285, 264, 316
-0.993623, 297, 229, 328, 260
-0.993624, 297, 269, 328, 300
-0.993627, 193, 245, 224, 276
-0.993632, 197, 157, 228, 188
-0.993634, 265, 145, 328, 176
-0.993637, 325, 305, 356, 336
-0.993638, 193, 301, 224, 332
-0.993638, 177, 149, 208, 180
-0.993645, 201, 1, 264, 375
-0.993653, 393, 165, 424, 196
-0.993653, 197, 265, 228, 296
-0.993656, 129, 153, 192, 184
-0.99366, 305, 177, 336, 304
-0.993663, 221, 293, 252, 324
-0.993666, 237, 313, 268, 344
-0.993667, 209, 41, 272, 72
-0.993668, 405, 173, 436, 204
-0.993676, 257, 49, 320, 80
-0.993677, 445, 205, 476, 236
-0.993678, 341, 321, 372, 352
-0.993679, 217, 161, 280, 192
-0.99368, 457, 193, 488, 224
-0.993683, 241, 89, 368, 152
-0.993686, 225, 229, 256, 260
-0.993687, 201, 177, 264, 208
-0.993688, 465, 221, 496, 252
-0.993689, 377, 153, 408, 184
-0.993695, 193, 25, 256, 56
-0.993699, 257, 293, 288, 324
-0.993701, 209, 285, 240, 316
-0.993706, 349, 265, 380, 296
-0.993707, 269, 69, 300, 100
-0.993708, 205, 297, 236, 328
-0.99371, 285, 233, 316, 264
-0.993711, 285, 261, 316, 292
-0.993711, 169, 173, 232, 204
-0.993713, 297, 189, 328, 220
-0.993714, 61, 1, 92, 32
-0.993716, 409, 145, 472, 208
-0.993716, 273, 265, 304, 296
-0.993723, 253, 57, 284, 88
-0.993726, 325, 109, 356, 140
-0.993726, 281, 77, 312, 108
-0.993726, 161, 177, 192, 208
-0.993728, 181, 301, 212, 332
-0.99373, 309, 97, 340, 128
-0.993731, 49, 9, 80, 40
-0.993731, 173, 277, 204, 308
-0.993731, 281, 65, 344, 96
-0.993736, 337, 117, 368, 148
-0.993738, 313, 321, 376, 352
-0.993738, 301, 293, 332, 324
-0.993738, 433, 173, 496, 204
-0.993739, 353, 301, 384, 332
-0.993743, 285, 245, 316, 276
-0.993746, 417, 165, 448, 196
-0.99375, 1, 53, 32, 84
-0.993752, 229, 33, 260, 64
-0.993753, 345, 129, 376, 160
-0.993754, 161, 153, 192, 184
-0.993758, 205, 229, 236, 260
-0.993759, 453, 217, 484, 248
-0.993759, 357, 137, 388, 168
-0.99376, 285, 221, 316, 252
-0.99376, 417, 185, 448, 216
-0.993761, 337, 205, 368, 236
-0.993763, 321, 93, 384, 124
-0.993766, 293, 85, 324, 116
-0.993769, 217, 21, 248, 52
-0.993771, 181, 185, 212, 216
-0.993773, 249, 185, 280, 216
-0.993773, 173, 253, 204, 284
-0.993775, 237, 45, 268, 76
-0.993778, 321, 229, 352, 260
-0.993778, 1, 53, 64, 84
-0.993781, 273, 253, 304, 284
-0.993784, 441, 181, 472, 212
-0.993788, 385, 141, 416, 172
-0.993789, 409, 177, 472, 208
-0.993789, 317, 193, 348, 224
-0.993789, 249, 149, 280, 180
-0.99379, 209, 201, 240, 232
-0.99379, 225, 309, 256, 340
-0.993799, 185, 221, 216, 252
-0.9938, 265, 141, 296, 172
-0.9938, 305, 217, 336, 248
-0.993801, 221, 277, 252, 308
-0.993803, 37, 17, 68, 48
-0.993803, 329, 317, 360, 348
-0.993804, 397, 153, 428, 184
-0.993805, 429, 193, 460, 224
-0.993807, 237, 177, 268, 208
-0.993807, 341, 229, 372, 260
-0.99381, 33, 13, 96, 44
-0.99381, 257, 257, 288, 288
-0.993814, 241, 149, 304, 180
-0.993817, 233, 213, 296, 244
-0.993818, 209, 313, 272, 344
-0.993819, 285, 285, 316, 316
-0.993822, 337, 105, 400, 136
-0.993824, 469, 201, 500, 232
-0.993826, 245, 249, 276, 280
-0.993827, 277, 185, 308, 216
-0.993831, 329, 233, 392, 264
-0.993831, 13, 45, 44, 76
-0.993832, 173, 237, 204, 268
-0.993838, 329, 193, 360, 224
-0.993844, 21, 33, 52, 64
-0.993846, 269, 209, 300, 240
-0.993848, 285, 205, 316, 236
-0.993887, 265, 173, 328, 204
-0.99389, 225, 129, 288, 375
-0.993892, 297, 77, 360, 108
-0.9939, 209, 225, 272, 256
-0.993903, 281, 301, 344, 332
-0.993906, 345, 249, 408, 280
-0.993908, 145, 185, 208, 216
-0.993919, 305, 209, 432, 272
-0.993923, 193, 165, 256, 196
-0.993925, 297, 145, 360, 272
-0.993926, 129, 257, 256, 320
-0.993937, 297, 181, 360, 212
-0.99394, 329, 217, 392, 248
-0.993945, 145, 241, 208, 272
-0.99396, 361, 145, 424, 176
-0.993962, 177, 41, 304, 104
-0.993974, 177, 9, 240, 40
-0.993977, 17, 37, 80, 68
-0.993985, 249, 241, 280, 368
-0.993986, 345, 265, 408, 296
-0.993997, 217, 9, 280, 40
-0.994002, 145, 261, 208, 292
-0.994002, 257, 129, 384, 256
-0.994004, 169, 149, 232, 180
-0.994004, 217, 249, 280, 280
-0.99401, 241, 33, 304, 64
-0.994015, 257, 205, 320, 236
-0.994015, 337, 153, 400, 184
-0.994031, 297, 97, 360, 128
-0.994036, 329, 205, 392, 236
-0.994039, 209, 149, 272, 180
-0.994064, 273, 113, 400, 176
-0.99407, 25, 25, 88, 56
-0.994074, 217, 177, 280, 304
-0.994075, 145, 209, 208, 240
-0.994081, 361, 173, 424, 204
-0.994085, 225, 21, 288, 52
-0.994091, 321, 117, 384, 148
-0.994123, 257, 185, 320, 248
-0.994123, 385, 137, 448, 168
-0.994125, 161, 305, 288, 368
-0.994129, 205, 241, 236, 304
-0.994146, 273, 101, 336, 132
-0.994151, 337, 321, 400, 352
-0.994156, 417, 133, 480, 164
-0.99416, 409, 153, 472, 184
-0.994179, 401, 121, 464, 152
-0.994185, 9, 101, 72, 132
-0.994223, 345, 137, 408, 200
-0.994226, 185, 241, 216, 368
-0.994251, 17, 17, 80, 80
-0.994279, 225, 297, 352, 360
-0.994366, 349, 273, 380, 336
-0.994426, 185, 241, 216, 304
-0.994438, 161, 281, 416, 344
-0.994475, 393, 113, 456, 240
-0.994478, 289, 265, 320, 328
-0.994575, 193, 17, 256, 80
-0.994612, 209, 161, 272, 224
-0.994668, 273, 1, 400, 128
-0.994671, 417, 129, 480, 256
-0.994727, 249, 65, 312, 320
-0.99473, 161, 129, 224, 375
-0.994847, 321, 289, 448, 352
-0.994859, 145, 17, 272, 80
-0.994862, 145, 161, 208, 288
-0.994896, 217, 281, 248, 344
-0.994933, 369, 129, 496, 192
-0.994948, 1, 1, 64, 375
-0.995008, 153, 289, 216, 352
-0.995021, 33, 1, 160, 64
-0.995108, 185, 193, 216, 320
-0.995139, 1, 33, 128, 96
-0.995165, 225, 225, 256, 288
-0.99518, 257, 1, 320, 375
-0.995185, 321, 89, 448, 152
-0.995201, 237, 225, 268, 352
-0.995222, 329, 305, 392, 368
-0.995227, 305, 1, 368, 375
-0.995251, 353, 129, 416, 375
-0.995254, 361, 81, 424, 208
-0.995283, 113, 161, 240, 224
-0.995317, 345, 1, 408, 375
-0.995325, 321, 49, 448, 176
-0.99534, 345, 217, 376, 280
-0.99541, 369, 161, 496, 224
-0.995412, 273, 49, 400, 112
-0.995423, 185, 129, 248, 375
-0.995441, 33, 145, 288, 272
-0.995483, 261, 257, 292, 320
-0.995585, 113, 185, 240, 248
-0.995644, 177, 265, 208, 328
-0.995775, 1, 41, 64, 104
-0.995816, 41, 1, 104, 128
-0.99583, 345, 257, 360, 320
-0.995837, 189, 289, 220, 352
-0.995909, 273, 249, 304, 312
-0.995914, 9, 1, 72, 256
-0.995953, 289, 225, 320, 288
-0.995993, 241, 25, 368, 88
-0.996037, 377, 137, 440, 200
-0.996038, 137, 209, 200, 336
-0.996068, 201, 193, 232, 320
-0.99608, 433, 129, 496, 375
-0.996105, 345, 113, 376, 240
-0.996131, 177, 289, 208, 352
-0.996133, 201, 209, 264, 272
-0.996136, 153, 217, 216, 280
-0.996139, 313, 73, 376, 136
-0.996141, 161, 257, 416, 320
-0.996158, 257, 161, 500, 224
-0.996169, 225, 49, 288, 176
-0.996251, 353, 105, 416, 168
-0.996271, 331, 273, 346, 336
-0.996324, 209, 1, 336, 64
-0.996361, 277, 193, 308, 320
-0.996374, 177, 145, 208, 272
-0.996379, 225, 281, 352, 312
-0.996528, 341, 289, 356, 352
-0.996548, 273, 273, 304, 336
-0.996553, 173, 241, 204, 368
-0.99664, 329, 209, 392, 272
-0.996699, 285, 185, 316, 248
-0.996735, 243, 289, 258, 352
-0.996752, 377, 1, 440, 375
-0.996792, 249, 281, 280, 344
-0.996804, 161, 225, 416, 288
-0.996853, 81, 265, 208, 328
-0.996857, 33, 1, 288, 64
-0.996861, 197, 265, 212, 328
-0.996888, 257, 185, 500, 248
-0.996892, 81, 209, 208, 336
-0.996911, 45, 1, 76, 128
-0.996986, 337, 177, 368, 304
-0.997053, 329, 193, 360, 256
-0.99709, 203, 273, 218, 336
-0.997099, 273, 129, 336, 256
-0.997101, 465, 193, 496, 256
-0.997104, 321, 49, 384, 176
-0.99715, 241, 297, 368, 328
-0.997218, 321, 273, 336, 336
-0.99722, 369, 105, 496, 168
-0.997237, 185, 217, 216, 280
-0.997298, 321, 185, 448, 248
-0.997344, 401, 1, 464, 375
-0.997348, 273, 145, 304, 272
-0.997359, 347, 281, 362, 344
-0.997387, 189, 273, 204, 336
-0.997401, 243, 265, 258, 328
-0.997407, 217, 257, 248, 320
-0.997414, 409, 201, 472, 264
-0.997432, 235, 273, 250, 336
-0.997461, 273, 281, 400, 312
-0.997463, 339, 257, 354, 320
-0.997468, 241, 137, 304, 200
-0.997489, 177, 285, 304, 316
-0.99754, 153, 241, 216, 304
-0.997553, 329, 97, 360, 224
-0.997603, 129, 185, 384, 248
-0.997643, 161, 129, 288, 192
-0.997669, 329, 177, 392, 304
-0.997721, 241, 137, 368, 200
-0.997725, 445, 201, 476, 264
-0.997747, 233, 1, 296, 64
-0.997756, 277, 257, 292, 320
-0.997757, 281, 49, 344, 112
-0.997759, 393, 129, 456, 375
-0.997776, 209, 241, 224, 304
-0.997783, 265, 1, 328, 128
-0.997785, 225, 269, 352, 300
-0.997793, 337, 81, 400, 144
-0.997806, 259, 153, 274, 216
-0.997818, 241, 305, 272, 368
-0.997824, 305, 185, 336, 248
-0.997849, 341, 121, 372, 184
-0.997862, 161, 165, 288, 196
-0.997864, 313, 257, 328, 320
-0.997876, 165, 161, 196, 288
-0.99788, 377, 153, 408, 216
-0.997891, 267, 153, 282, 216
-0.997936, 225, 137, 480, 200
-0.99795, 369, 217, 496, 280
-0.99796, 449, 193, 480, 320
-0.997964, 321, 113, 448, 176
-0.997964, 257, 241, 384, 272
-0.997985, 285, 65, 316, 192
-0.998005, 195, 289, 210, 352
-0.998016, 347, 217, 362, 280
-0.998019, 261, 281, 292, 344
-0.99804, 425, 1, 488, 375
-0.998044, 339, 233, 354, 296
-0.99807, 161, 301, 288, 332
-0.998111, 257, 249, 500, 312
-0.998128, 233, 225, 248, 288
-0.998134, 303, 257, 318, 320
-0.998141, 183, 265, 198, 328
-0.998151, 177, 273, 304, 304
-0.998164, 309, 233, 324, 296
-0.998181, 349, 305, 364, 336
-0.998183, 253, 153, 268, 216
-0.998187, 81, 137, 208, 200
-0.998192, 353, 161, 416, 224
-0.998203, 205, 287, 236, 302
-0.998203, 441, 195, 472, 210
-0.998203, 401, 177, 432, 192
-0.998203, 469, 197, 500, 212
-0.998203, 269, 217, 300, 232
-0.998204, 293, 193, 324, 208
-0.998204, 161, 159, 192, 174
-0.998204, 237, 319, 268, 334
-0.998205, 377, 143, 408, 158
-0.998205, 197, 267, 228, 282
-0.998206, 173, 231, 204, 246
-0.998206, 225, 253, 352, 284
-0.998207, 257, 177, 288, 192
-0.998208, 305, 193, 336, 208
-0.998208, 309, 103, 340, 118
-0.998209, 357, 303, 388, 318
-0.998209, 461, 209, 492, 224
-0.99821, 221, 231, 252, 246
-0.99821, 201, 281, 232, 296
-0.998211, 237, 289, 268, 304
-0.998211, 393, 167, 424, 182
-0.998211, 221, 303, 252, 318
-0.998212, 273, 265, 304, 280
-0.998212, 253, 277, 284, 292
-0.998212, 321, 195, 352, 210
-0.998212, 341, 237, 372, 252
-0.998213, 229, 253, 260, 268
-0.998213, 341, 131, 372, 146
-0.998213, 245, 257, 276, 272
-0.998214, 349, 273, 380, 288
-0.998216, 285, 235, 316, 250
-0.998216, 301, 285, 332, 300
-0.998216, 289, 267, 320, 282
-0.998217, 175, 161, 190, 224
-0.998217, 275, 281, 290, 344
-0.998218, 229, 283, 260, 298
-0.998218, 265, 71, 296, 86
-0.998219, 185, 1, 248, 128
-0.998219, 297, 229, 328, 244
-0.998219, 441, 203, 472, 218
-0.998219, 321, 239, 352, 254
-0.998219, 181, 157, 212, 172
-0.99822, 413, 171, 444, 186
-0.99822, 313, 267, 344, 282
-0.998222, 53, 1, 84, 64
-0.998223, 173, 175, 204, 190
-0.998223, 301, 275, 332, 290
-0.998225, 321, 273, 352, 288
-0.998225, 457, 199, 488, 214
-0.998226, 221, 275, 252, 290
-0.998226, 305, 257, 336, 272
-0.998227, 309, 291, 340, 306
-0.998227, 209, 267, 240, 282
-0.998229, 257, 271, 288, 286
-0.998229, 305, 251, 336, 266
-0.99823, 225, 237, 256, 252
-0.99823, 285, 153, 316, 168
-0.99823, 193, 243, 224, 258
-0.99823, 177, 275, 208, 290
-0.998231, 233, 313, 264, 328
-0.998232, 461, 221, 492, 236
-0.998233, 333, 315, 364, 330
-0.998233, 185, 237, 216, 252
-0.998233, 205, 251, 236, 266
-0.998234, 205, 301, 236, 316
-0.998235, 297, 235, 328, 250
-0.998235, 161, 171, 192, 186
-0.998236, 257, 171, 288, 186
-0.998237, 245, 311, 276, 326
-0.998239, 185, 255, 216, 270
-0.998241, 249, 159, 280, 174
-0.998242, 321, 245, 352, 260
-0.998243, 337, 321, 368, 336
-0.998244, 205, 239, 236, 254
-0.998244, 181, 285, 212, 300
-0.998244, 241, 165, 272, 180
-0.998245, 193, 275, 224, 290
-0.998246, 183, 241, 198, 304
-0.998246, 203, 249, 218, 312
-0.998246, 193, 303, 224, 318
-0.998246, 253, 295, 284, 310
-0.998247, 249, 263, 280, 278
-0.998248, 173, 291, 204, 306
-0.998248, 257, 281, 500, 344
-0.998248, 181, 303, 212, 318
-0.99825, 181, 153, 196, 216
-0.99825, 205, 261, 236, 276
-0.998252, 225, 243, 256, 258
-0.998252, 185, 309, 216, 324
-0.998255, 173, 265, 204, 280
-0.998256, 229, 259, 260, 274
-0.998256, 349, 267, 380, 282
-0.998257, 225, 295, 256, 310
-0.998257, 345, 313, 376, 328
-0.998258, 233, 273, 264, 288
-0.998259, 285, 291, 316, 306
-0.998261, 265, 163, 296, 178
-0.998262, 301, 241, 332, 256
-0.998263, 273, 273, 304, 288
-0.998263, 341, 249, 372, 264
-0.998263, 185, 269, 216, 284
-0.998264, 325, 251, 356, 266
-0.998264, 285, 273, 316, 288
-0.998267, 341, 243, 372, 258
-0.998268, 333, 271, 364, 286
-0.998273, 253, 283, 284, 298
-0.998273, 229, 265, 260, 280
-0.998279, 261, 289, 292, 304
-0.998281, 345, 257, 376, 272
-0.998282, 205, 245, 236, 260
-0.998282, 189, 291, 220, 306
-0.998282, 269, 65, 300, 128
-0.998283, 185, 297, 216, 312
-0.998284, 185, 263, 216, 278
-0.998286, 233, 307, 264, 322
-0.998286, 265, 279, 296, 294
-0.998289, 325, 303, 356, 318
-0.99829, 245, 297, 260, 328
-0.998291, 353, 241, 384, 368
-0.998291, 269, 151, 300, 166
-0.998292, 161, 165, 192, 180
-0.998294, 273, 157, 304, 172
-0.998296, 193, 177, 320, 208
-0.998298, 337, 289, 368, 304
-0.998299, 317, 279, 348, 294
-0.9983, 333, 277, 364, 292
-0.9983, 273, 129, 336, 192
-0.9983, 245, 175, 276, 190
-0.998307, 177, 137, 240, 200
-0.998308, 273, 291, 304, 306
-0.998308, 271, 257, 286, 320
-0.998311, 329, 257, 360, 272
-0.998316, 337, 301, 368, 316
-0.99832, 173, 169, 204, 184
-0.998321, 273, 285, 304, 300
-0.998323, 337, 283, 368, 298
-0.998326, 355, 241, 370, 304
-0.998327, 333, 265, 364, 280
-0.99833, 327, 249, 342, 312
-0.998332, 321, 291, 352, 306
-0.998334, 253, 165, 284, 180
-0.998337, 233, 301, 264, 316
-0.998339, 225, 229, 352, 260
-0.998345, 261, 157, 292, 172
-0.998351, 337, 307, 368, 322
-0.998353, 333, 285, 348, 316
-0.998357, 341, 295, 372, 310
-0.99836, 189, 249, 204, 312
-0.998362, 337, 185, 464, 216
-0.998372, 289, 293, 416, 324
-0.998373, 317, 285, 348, 300
-0.998377, 181, 163, 212, 178
-0.998383, 257, 209, 500, 272
-0.998386, 445, 177, 476, 240
-0.998387, 97, 209, 224, 272
-0.998389, 113, 305, 240, 368
-0.998393, 321, 297, 352, 312
-0.998397, 341, 297, 356, 328
-0.998402, 417, 177, 448, 240
-0.998406, 177, 165, 192, 196
-0.998414, 225, 249, 240, 312
-0.998426, 209, 265, 224, 328
-0.99844, 195, 289, 210, 320
-0.998441, 275, 281, 290, 312
-0.998459, 305, 265, 432, 296
-0.998467, 321, 105, 352, 168
-0.998471, 289, 33, 352, 160
-0.998478, 349, 305, 364, 368
-0.998479, 265, 257, 280, 320
-0.998479, 197, 241, 212, 304
-0.998488, 249, 297, 264, 360
-0.99849, 279, 153, 294, 216
-0.998499, 293, 185, 308, 248
-0.998502, 345, 193, 360, 256
-0.998503, 213, 1, 244, 128
-0.998506, 345, 261, 360, 292
-0.998512, 241, 161, 272, 224
-0.998515, 393, 145, 424, 272
-0.998539, 217, 273, 232, 336
-0.998543, 281, 281, 296, 344
-0.998555, 195, 273, 210, 304
-0.998557, 289, 225, 416, 256
-0.998558, 161, 97, 416, 160
-0.998567, 353, 281, 368, 344
-0.998571, 323, 281, 338, 312
-0.998577, 277, 269, 292, 300
-0.998577, 177, 153, 304, 184
-0.998582, 333, 249, 348, 312
-0.998586, 257, 161, 272, 192
-0.998596, 321, 277, 448, 308
-0.998602, 289, 285, 352, 300
-0.998611, 319, 249, 334, 312
-0.998621, 265, 289, 328, 304
-0.998622, 297, 293, 360, 308
-0.99863, 237, 297, 252, 360
-0.998632, 433, 185, 464, 248
-0.998633, 145, 261, 272, 292
-0.998633, 1, 161, 500, 224
-0.998636, 287, 265, 302, 328
-0.998643, 225, 283, 288, 298
-0.998646, 233, 289, 296, 304
-0.998647, 353, 241, 384, 304
-0.998649, 265, 161, 280, 192
-0.998655, 281, 279, 344, 294
-0.998656, 65, 257, 320, 320
-0.998657, 329, 289, 392, 304
-0.99866, 255, 273, 270, 336
-0.998664, 471, 201, 486, 264
-0.998673, 193, 305, 256, 320
-0.998673, 335, 297, 350, 328
-0.998675, 185, 291, 248, 306
-0.998677, 313, 301, 376, 316
-0.998681, 321, 277, 384, 292
-0.998681, 257, 193, 384, 224
-0.998684, 201, 265, 264, 280
-0.998686, 273, 237, 336, 252
-0.998686, 313, 247, 376, 262
-0.998686, 201, 299, 264, 314
-0.998687, 313, 283, 376, 298
-0.99869, 241, 161, 304, 176
-0.998691, 289, 245, 352, 260
-0.998693, 169, 165, 232, 180
-0.998693, 341, 249, 356, 280
-0.998694, 225, 263, 288, 278
-0.998695, 313, 253, 376, 268
-0.998695, 129, 73, 384, 136
-0.998696, 329, 295, 392, 310
-0.998698, 239, 241, 254, 304
-0.9987, 193, 259, 256, 274
-0.998701, 253, 57, 284, 120
-0.998704, 297, 261, 360, 276
-0.998705, 273, 253, 400, 284
-0.998706, 241, 295, 304, 310
-0.998707, 313, 241, 376, 256
-0.998707, 185, 285, 248, 300
-0.998707, 193, 247, 256, 262
-0.998708, 281, 285, 296, 316
-0.99871, 265, 273, 328, 288
-0.998711, 241, 273, 304, 288
-0.998711, 289, 193, 352, 208
-0.998711, 265, 295, 328, 310
-0.998713, 289, 251, 352, 266
-0.998714, 313, 307, 376, 322
-0.998714, 229, 273, 244, 336
-0.998716, 193, 237, 256, 252
-0.998717, 81, 233, 208, 296
-0.998719, 257, 283, 320, 298
-0.998719, 305, 229, 368, 244
-0.99872, 331, 273, 346, 304
-0.998722, 305, 269, 368, 284
-0.998724, 241, 177, 304, 192
-0.998724, 145, 171, 208, 186
-0.998725, 187, 285, 202, 316
-0.998725, 325, 97, 356, 352
-0.998726, 265, 155, 328, 170
-0.998728, 153, 295, 216, 310
-0.998731, 321, 259, 384, 274
-0.998731, 201, 271, 264, 286
-0.998731, 161, 307, 224, 322
-0.998731, 281, 267, 344, 282
-0.998732, 347, 237, 362, 268
-0.998734, 425, 189, 488, 204
-0.998735, 177, 297, 240, 312
-0.998736, 305, 315, 368, 330
-0.998736, 249, 187, 312, 202
-0.998737, 169, 263, 232, 278
-0.998737, 273, 227, 336, 242
-0.998737, 313, 235, 376, 250
-0.998737, 1, 49, 64, 176
-0.998738, 233, 305, 296, 320
-0.998739, 289, 299, 352, 314
-0.998739, 337, 311, 400, 326
-0.99874, 137, 163, 200, 178
-0.99874, 433, 197, 496, 212
-0.998741, 209, 311, 272, 326
-0.998741, 241, 167, 304, 182
-0.998743, 201, 253, 264, 268
-0.998743, 153, 301, 216, 316
-0.998745, 255, 173, 270, 204
-0.998745, 153, 289, 216, 304
-0.998745, 425, 183, 488, 198
-0.998747, 169, 171, 232, 186
-0.998747, 233, 231, 296, 246
-0.998748, 169, 245, 232, 260
-0.99875, 243, 265, 258, 296
-0.998751, 169, 277, 232, 292
-0.998752, 233, 311, 296, 326
-0.998752, 177, 271, 240, 286
-0.998753, 393, 163, 456, 178
-0.998755, 465, 185, 480, 248
-0.998756, 177, 227, 240, 242
-0.998757, 409, 177, 472, 192
-0.998757, 225, 257, 288, 272
-0.998758, 433, 219, 496, 234
-0.998758, 393, 191, 456, 206
-0.998758, 377, 153, 440, 168
-0.998762, 177, 1, 240, 375
-0.998763, 209, 277, 272, 292
-0.998765, 369, 167, 432, 182
-0.998765, 329, 317, 392, 332
-0.998765, 337, 121, 400, 136
-0.998766, 337, 301, 400, 316
-0.998766, 301, 185, 316, 248
-0.998767, 189, 225, 204, 288
-0.998768, 265, 261, 328, 276
-0.998768, 329, 265, 392, 280
-0.998768, 241, 155, 304, 170
-0.998768, 265, 163, 328, 178
-0.998769, 349, 289, 364, 320
-0.998769, 161, 257, 224, 272
-0.998769, 177, 201, 240, 216
-0.99877, 377, 147, 440, 162
-0.99877, 289, 109, 352, 124
-0.99877, 177, 221, 240, 236
-0.99877, 345, 127, 408, 142
-0.99877, 265, 221, 328, 236
-0.99877, 377, 183, 440, 198
-0.998771, 297, 115, 360, 130
-0.998771, 377, 173, 440, 188
-0.998771, 313, 223, 376, 238
-0.998772, 265, 243, 328, 258
-0.998772, 289, 305, 352, 320
-0.998772, 257, 267, 320, 282
-0.998773, 241, 73, 304, 88
-0.998774, 321, 133, 384, 148
-0.998775, 417, 205, 480, 220
-0.998775, 409, 171, 472, 186
-0.998775, 161, 283, 224, 298
-0.998776, 305, 93, 368, 108
-0.998776, 233, 241, 296, 256
-0.998777, 329, 271, 392, 286
-0.998777, 305, 207, 368, 222
-0.998777, 417, 211, 480, 226
-0.998777, 345, 153, 408, 168
-0.998778, 305, 123, 368, 138
-0.998778, 361, 161, 424, 176
-0.998778, 353, 135, 416, 150
-0.998778, 209, 241, 336, 272
-0.998778, 281, 103, 344, 118
-0.998779, 249, 195, 312, 210
-0.998779, 217, 317, 280, 332
-0.99878, 337, 143, 400, 158
-0.998781, 169, 159, 232, 174
-0.998781, 265, 255, 328, 270
-0.998781, 313, 213, 376, 228
-0.998781, 209, 217, 336, 248
-0.998782, 321, 103, 384, 118
-0.998782, 177, 215, 240, 230
-0.998782, 325, 185, 340, 248
-0.998783, 337, 113, 400, 128
-0.998783, 433, 225, 496, 240
-0.998784, 185, 311, 248, 326
-0.998784, 281, 209, 344, 224
-0.998784, 145, 267, 208, 282
-0.998784, 249, 79, 312, 94
-0.998784, 177, 207, 240, 222
-0.998793, 237, 297, 252, 328
-0.998797, 249, 173, 264, 204
-0.998806, 309, 185, 324, 248
-0.998807, 33, 297, 288, 360
-0.998811, 305, 153, 432, 184
-0.998814, 321, 173, 448, 204
-0.998819, 113, 165, 240, 196
-0.998821, 271, 157, 286, 188
-0.998836, 249, 273, 264, 336
-0.998846, 257, 205, 384, 236
-0.998851, 273, 153, 288, 216
-0.998853, 277, 233, 292, 296
-0.998854, 193, 301, 208, 332
-0.998854, 249, 113, 312, 240
-0.998856, 369, 213, 496, 244
-0.998861, 245, 177, 276, 304
-0.998863, 301, 217, 316, 280
-0.998869, 353, 253, 368, 284
-0.99887, 477, 193, 492, 256
-0.998874, 65, 1, 80, 64
-0.998878, 145, 233, 272, 264
-0.998879, 269, 277, 284, 308
-0.998883, 345, 297, 376, 360
-0.998887, 191, 261, 206, 292
-0.998891, 241, 165, 368, 196
-0.998892, 295, 265, 310, 328
-0.998901, 323, 297, 338, 360
-0.998908, 327, 261, 342, 292
-0.998909, 287, 273, 302, 304
-0.998917, 187, 297, 202, 328
-0.998921, 343, 285, 358, 316
-0.998923, 277, 153, 292, 184
-0.998925, 241, 181, 368, 212
-0.998928, 337, 193, 352, 256
-0.99893, 343, 273, 358, 304
-0.998931, 309, 97, 340, 160
-0.998935, 161, 249, 288, 280
-0.998936, 201, 289, 216, 320
-0.998937, 455, 177, 470, 240
-0.998945, 171, 161, 186, 192
-0.998948, 203, 265, 218, 296
-0.998954, 183, 269, 198, 300
-0.998955, 273, 217, 304, 280
-0.998959, 201, 297, 216, 360
-0.99896, 361, 137, 392, 200
-0.998962, 449, 201, 464, 264
-0.998967, 369, 153, 496, 184
-0.998971, 209, 81, 336, 112
-0.998971, 223, 281, 238, 344
-0.998971, 113, 297, 240, 328
-0.998972, 285, 129, 316, 256
-0.998973, 295, 233, 310, 296
-0.998974, 241, 281, 256, 312
-0.998974, 353, 273, 416, 336
-0.998976, 199, 153, 214, 216
-0.998981, 315, 285, 330, 316
-0.998982, 335, 297, 350, 360
-0.998989, 347, 121, 362, 184
-0.998997, 183, 161, 198, 192
-0.998999, 273, 65, 288, 128
-0.998999, 241, 97, 368, 128
-0.999, 287, 145, 302, 208
-0.999, 287, 185, 302, 248
-0.999001, 323, 97, 338, 160
-0.999008, 343, 309, 358, 340
-0.999018, 355, 305, 370, 336
-0.999023, 249, 249, 264, 312
-0.999027, 309, 209, 324, 272
-0.999028, 185, 253, 200, 284
-0.999036, 351, 193, 366, 256
-0.999037, 369, 141, 496, 172
-0.999037, 209, 241, 224, 272
-0.999037, 449, 169, 464, 232
-0.999039, 289, 73, 352, 136
-0.999041, 339, 261, 354, 292
-0.999045, 305, 269, 320, 300
-0.999046, 257, 25, 320, 88
-0.999046, 307, 241, 322, 272
-0.999046, 315, 281, 330, 344
-0.999048, 249, 261, 264, 292
-0.999051, 237, 269, 252, 300
-0.999053, 189, 161, 220, 224
-0.999053, 329, 105, 344, 168
-0.999055, 297, 89, 328, 152
-0.999056, 193, 17, 448, 80
-0.999056, 237, 241, 268, 304
-0.999059, 257, 177, 272, 240
-0.999061, 417, 169, 432, 232
-0.999061, 359, 273, 374, 336
-0.999062, 191, 161, 206, 192
-0.999065, 397, 137, 428, 200
-0.999068, 173, 233, 204, 296
-0.999068, 161, 305, 416, 368
-0.99907, 283, 217, 298, 280
-0.999073, 269, 65, 300, 192
-0.999074, 461, 209, 476, 272
-0.999075, 289, 141, 416, 172
-0.999085, 345, 241, 360, 368
-0.999085, 305, 241, 432, 272
-0.999086, 485, 201, 500, 264
-0.999086, 389, 161, 420, 224
-0.999089, 173, 177, 188, 208
-0.99909, 311, 261, 326, 292
-0.999094, 181, 217, 196, 280
-0.999097, 219, 241, 234, 304
-0.999097, 269, 289, 284, 320
-0.999098, 401, 33, 464, 288
-0.999099, 199, 305, 214, 336
-0.999101, 189, 161, 204, 224
-0.999102, 353, 217, 368, 280
-0.999103, 349, 317, 364, 348
-0.999107, 13, 33, 44, 160
-0.99911, 353, 201, 480, 232
-0.999111, 197, 157, 212, 188
-0.999119, 263, 149, 278, 180
-0.999122, 251, 301, 266, 332
-0.999122, 267, 177, 282, 240
-0.999122, 189, 297, 204, 360
-0.999123, 339, 113, 354, 176
-0.999125, 429, 177, 444, 240
-0.999125, 307, 281, 322, 344
-0.999126, 177, 189, 304, 220
-0.999126, 225, 37, 352, 68
-0.999128, 429, 161, 460, 224
-0.99913, 341, 237, 356, 268
-0.999131, 437, 161, 452, 224
-0.999132, 317, 97, 332, 160
-0.999132, 283, 153, 298, 184
-0.999138, 387, 137, 402, 200
-0.999141, 231, 293, 246, 324
-0.999143, 209, 69, 336, 100
-0.999143, 347, 249, 362, 280
-0.999146, 261, 173, 276, 204
-0.999146, 315, 185, 330, 248
-0.999152, 279, 257, 294, 288
-0.999154, 177, 261, 192, 292
-0.999158, 177, 249, 192, 312
-0.999159, 393, 137, 408, 200
-0.999161, 203, 157, 218, 188
-0.999163, 237, 33, 252, 96
-0.999163, 253, 49, 268, 112
-0.999163, 237, 41, 268, 104
-0.999164, 227, 209, 242, 272
-0.999167, 215, 233, 230, 264
-0.999167, 221, 241, 236, 272
-0.999169, 465, 161, 496, 288
-0.999172, 303, 229, 318, 260
-0.999172, 247, 313, 262, 344
-0.999175, 351, 265, 366, 296
-0.999177, 289, 217, 304, 280
-0.999177, 289, 129, 416, 160
-0.999179, 349, 201, 364, 232
-0.999183, 443, 185, 458, 248
-0.999183, 65, 25, 320, 88
-0.999184, 209, 261, 224, 292
-0.999185, 181, 193, 196, 256
-0.999187, 263, 57, 278, 120
-0.999188, 161, 313, 288, 344
-0.999189, 189, 229, 204, 260
-0.999189, 183, 241, 198, 272
-0.999191, 267, 261, 282, 292
-0.999193, 97, 49, 352, 112
-0.999194, 161, 41, 288, 72
-0.999194, 267, 233, 282, 296
-0.999195, 319, 217, 334, 280
-0.999196, 287, 73, 302, 136
-0.9992, 317, 241, 332, 272
-0.999204, 275, 293, 290, 324
-0.999205, 309, 89, 324, 152
-0.999206, 243, 253, 258, 284
-0.999207, 275, 129, 290, 192
-0.999207, 269, 281, 284, 344
-0.999208, 189, 273, 204, 304
-0.99921, 129, 197, 256, 228
-0.999211, 309, 297, 340, 360
-0.999212, 129, 285, 256, 316
-0.999212, 393, 161, 408, 224
-0.999214, 371, 137, 386, 200
-0.999222, 185, 129, 216, 375
-0.999225, 331, 185, 346, 248
-0.999227, 417, 169, 432, 200
-0.999227, 311, 273, 326, 304
-0.999228, 1, 273, 500, 336
-0.999229, 145, 177, 272, 208
-0.99923, 237, 257, 252, 288
-0.999231, 353, 125, 480, 156
-0.999235, 355, 305, 370, 368
-0.999236, 225, 17, 256, 144
-0.999237, 287, 241, 302, 304
-0.999241, 257, 113, 384, 144
-0.999243, 207, 277, 222, 308
-0.999243, 467, 205, 482, 236
-0.999244, 301, 65, 332, 320
-0.999246, 201, 245, 216, 276
-0.999247, 289, 85, 416, 116
-0.999247, 435, 185, 450, 248
-0.999248, 235, 281, 250, 312
-0.999251, 343, 117, 358, 148
-0.999253, 217, 201, 232, 264
-0.999258, 309, 229, 324, 260
-0.999259, 455, 201, 470, 264
-0.999263, 3, 61, 18, 92
-0.999264, 471, 177, 486, 240
-0.999264, 145, 25, 272, 56
-0.999265, 301, 81, 316, 144
-0.999268, 247, 285, 262, 316
-0.999269, 405, 169, 436, 232
-0.999269, 343, 321, 358, 352
-0.99927, 241, 309, 368, 340
-0.999271, 225, 25, 256, 88
-0.999271, 369, 65, 496, 128
-0.999272, 299, 261, 314, 292
-0.999273, 337, 309, 352, 340
-0.999273, 293, 221, 308, 252
-0.999277, 193, 249, 208, 280
-0.999278, 269, 241, 300, 368
-0.999281, 301, 217, 316, 248
-0.999281, 309, 189, 324, 220
-0.999285, 305, 101, 432, 132
-0.999285, 465, 217, 496, 280
-0.999287, 353, 241, 368, 272
-0.999288, 337, 273, 352, 304
-0.99929, 395, 153, 410, 184
-0.999292, 73, 1, 88, 32
-0.999293, 257, 41, 500, 104
-0.999295, 197, 193, 228, 256
-0.999295, 177, 57, 304, 88
-0.999298, 201, 229, 216, 260
-0.999298, 241, 41, 256, 72
-0.999301, 129, 273, 256, 304
-0.999303, 201, 277, 216, 308
-0.999307, 389, 153, 404, 184
-0.999308, 335, 245, 350, 276
-0.999309, 249, 273, 264, 304
-0.999311, 377, 113, 440, 176
-0.999311, 331, 109, 346, 140
-0.999312, 399, 165, 414, 196
-0.999316, 241, 313, 256, 344
-0.999317, 183, 229, 198, 260
-0.999317, 299, 273, 314, 304
-0.999318, 321, 265, 336, 296
-0.99932, 235, 309, 250, 340
-0.999323, 355, 129, 370, 160
-0.999325, 451, 201, 466, 232
-0.999325, 205, 301, 220, 332
-0.999327, 255, 185, 270, 216
-0.999328, 327, 293, 342, 324
-0.999329, 9, 57, 24, 88
-0.999329, 483, 229, 498, 260
-0.99933, 385, 141, 400, 172
-0.999331, 161, 161, 192, 224
-0.999336, 321, 293, 336, 324
-0.999336, 305, 257, 320, 288
-0.999338, 289, 149, 304, 180
-0.999339, 411, 169, 426, 200
-0.999342, 465, 217, 480, 248
-0.999344, 413, 161, 444, 288
-0.999352, 225, 313, 288, 375
-0.999359, 1, 49, 32, 176
-0.999359, 373, 129, 404, 256
-0.999364, 341, 97, 372, 352
-0.999369, 209, 9, 336, 40
-0.999372, 1, 45, 128, 76
-0.999376, 129, 161, 384, 224
-0.999384, 209, 25, 336, 56
-0.999387, 361, 33, 424, 288
-0.999389, 297, 121, 360, 184
-0.999392, 339, 241, 354, 368
-0.999402, 257, 145, 288, 272
-0.999403, 325, 241, 340, 368
-0.999406, 369, 173, 496, 204
-0.99941, 241, 49, 368, 80
-0.999417, 213, 217, 244, 280
-0.999422, 321, 297, 352, 360
-0.999424, 33, 225, 288, 288
-0.999425, 321, 113, 448, 144
-0.999434, 353, 321, 368, 336
-0.999434, 413, 169, 428, 184
-0.999435, 233, 261, 248, 276
-0.999435, 237, 313, 252, 328
-0.999435, 201, 295, 216, 310
-0.999436, 291, 227, 306, 242
-0.999436, 255, 309, 270, 324
-0.999436, 255, 57, 270, 72
-0.999437, 195, 267, 210, 282
-0.999437, 341, 119, 356, 134
-0.999437, 269, 263, 284, 278
-0.999437, 195, 311, 210, 326
-0.999438, 339, 287, 354, 302
-0.999439, 271, 153, 286, 168
-0.999439, 367, 143, 382, 158
-0.999439, 341, 319, 356, 334
-0.999439, 327, 273, 342, 288
-0.99944, 337, 243, 352, 258
-0.99944, 241, 261, 256, 276
-0.999441, 301, 235, 316, 250
-0.999442, 269, 295, 284, 310
-0.999442, 309, 267, 324, 282
-0.999443, 29, 17, 60, 144
-0.999443, 191, 285, 206, 300
-0.999443, 249, 263, 264, 278
-0.999443, 183, 235, 198, 250
-0.999444, 271, 165, 286, 180
-0.999444, 189, 275, 204, 290
-0.999444, 243, 279, 258, 294
-0.999445, 337, 273, 352, 288
-0.999445, 309, 241, 324, 256
-0.999445, 473, 197, 488, 212
-0.999445, 319, 241, 334, 368
-0.999447, 215, 245, 230, 260
-0.999447, 359, 303, 374, 318
-0.999448, 201, 307, 216, 322
-0.999448, 189, 231, 204, 246
-0.999448, 305, 217, 336, 280
-0.999449, 205, 267, 220, 282
-0.999449, 315, 275, 330, 290
-0.999449, 253, 187, 268, 202
-0.999449, 189, 305, 204, 320
-0.999449, 209, 249, 224, 264
-0.999449, 279, 267, 294, 282
-0.99945, 177, 263, 192, 278
-0.999451, 289, 273, 304, 288
-0.999451, 235, 295, 250, 310
-0.999451, 355, 131, 370, 146
-0.999452, 237, 273, 252, 288
-0.999452, 245, 319, 260, 334
-0.999453, 211, 261, 226, 276
-0.999453, 385, 129, 416, 192
-0.999454, 215, 239, 230, 254
-0.999454, 189, 237, 204, 252
-0.999454, 209, 255, 224, 270
-0.999454, 343, 313, 358, 328
-0.999454, 335, 301, 350, 316
-0.999454, 345, 273, 360, 288
-0.999454, 283, 291, 298, 306
-0.999454, 257, 65, 500, 128
-0.999455, 339, 279, 354, 294
-0.999455, 347, 323, 362, 338
-0.999455, 247, 313, 262, 328
-0.999455, 179, 269, 194, 284
-0.999456, 303, 269, 318, 284
-0.999456, 169, 167, 184, 182
-0.999456, 171, 179, 186, 194
-0.99946, 353, 267, 368, 282
-0.99946, 259, 157, 274, 172
-0.99946, 237, 301, 252, 316
-0.99946, 265, 171, 280, 186
-0.999462, 243, 273, 258, 288
-0.999463, 171, 173, 186, 188
-0.999463, 181, 275, 196, 290
-0.999463, 275, 297, 290, 312
-0.999463, 249, 169, 264, 184
-0.999464, 209, 225, 224, 352
-0.999465, 305, 305, 432, 336
-0.999465, 221, 245, 236, 260
-0.999466, 253, 163, 268, 178
-0.999467, 341, 255, 356, 270
-0.999468, 203, 301, 218, 316
-0.999468, 209, 241, 224, 256
-0.99947, 285, 151, 300, 166
-0.99947, 195, 273, 210, 288
-0.999471, 241, 293, 256, 308
-0.999472, 345, 249, 360, 264
-0.999473, 313, 65, 344, 320
-0.999473, 257, 61, 384, 92
-0.999473, 269, 281, 284, 296
-0.999474, 187, 263, 202, 278
-0.999476, 331, 225, 346, 352
-0.999476, 199, 159, 214, 174
-0.999477, 235, 267, 250, 282
-0.999478, 321, 65, 448, 128
-0.99948, 193, 163, 208, 178
-0.99948, 189, 299, 204, 314
-0.99948, 269, 289, 284, 304
-0.999481, 247, 307, 262, 322
-0.999481, 351, 301, 366, 316
-0.999483, 345, 243, 360, 258
-0.999485, 183, 169, 198, 184
-0.999485, 265, 165, 280, 180
-0.999486, 249, 177, 264, 192
-0.999487, 349, 315, 364, 330
-0.999487, 351, 241, 366, 368
-0.99949, 345, 291, 360, 306
-0.99949, 33, 9, 160, 40
-0.999491, 351, 257, 366, 272
-0.999492, 189, 269, 204, 284
-0.999492, 113, 221, 240, 252
-0.999495, 281, 285, 296, 300
-0.999496, 229, 1, 260, 256
-0.999498, 277, 273, 292, 288
-0.999498, 175, 161, 190, 176
-0.999499, 189, 291, 204, 306
-0.999499, 203, 273, 218, 288
-0.999499, 129, 9, 256, 40
-0.999499, 81, 153, 208, 184
-0.999502, 195, 279, 210, 294
-0.999502, 357, 129, 388, 256
-0.999503, 349, 193, 364, 320
-0.999503, 195, 293, 210, 308
-0.999505, 301, 209, 316, 336
-0.999505, 289, 73, 416, 104
-0.999505, 259, 169, 274, 184
-0.999507, 331, 279, 346, 294
-0.999508, 345, 267, 360, 282
-0.999509, 281, 65, 312, 320
-0.999511, 195, 305, 210, 320
-0.999512, 341, 303, 356, 318
-0.999512, 259, 163, 274, 178
-0.999514, 275, 283, 290, 298
-0.999514, 245, 299, 260, 314
-0.999514, 243, 267, 258, 282
-0.999514, 239, 225, 254, 352
-0.999515, 185, 285, 200, 300
-0.999516, 333, 287, 348, 302
-0.999516, 233, 1, 296, 128
-0.99952, 233, 209, 248, 336
-0.999521, 255, 175, 270, 190
-0.999522, 261, 33, 292, 288
-0.999522, 177, 173, 192, 188
-0.999523, 321, 283, 336, 298
-0.999524, 273, 159, 288, 174
-0.999524, 197, 287, 212, 302
-0.999526, 279, 155, 294, 170
-0.999528, 265, 157, 280, 172
-0.999533, 353, 257, 480, 320
-0.999533, 341, 297, 356, 312
-0.999536, 185, 209, 200, 336
-0.999538, 343, 261, 358, 276
-0.999539, 351, 309, 366, 324
-0.999539, 193, 205, 320, 236
-0.99955, 185, 163, 200, 178
-0.99955, 309, 225, 324, 352
-0.999552, 335, 295, 350, 310
-0.999554, 195, 209, 210, 336
-0.999554, 237, 33, 268, 160
-0.999554, 195, 299, 210, 314
-0.999562, 329, 1, 392, 256
-0.999566, 337, 253, 464, 284
-0.999569, 97, 257, 224, 288
-0.999574, 145, 1, 208, 375
-0.999576, 343, 193, 358, 320
-0.99958, 175, 167, 190, 182
-0.999596, 275, 289, 290, 304
-0.999601, 223, 225, 238, 352
-0.999608, 201, 241, 216, 368
-0.999617, 321, 177, 336, 304
-0.999618, 273, 313, 400, 375
-0.99962, 1, 33, 128, 64
-0.999626, 295, 193, 310, 320
-0.999645, 257, 113, 500, 176
-0.99966, 321, 145, 384, 208
-0.99966, 337, 193, 352, 320
-0.999661, 305, 213, 432, 244
-0.999671, 173, 129, 204, 375
-0.999679, 309, 177, 324, 304
-0.99969, 129, 209, 256, 240
-0.99969, 245, 241, 260, 368
-0.999692, 129, 137, 192, 200
-0.999693, 329, 177, 344, 304
-0.999702, 355, 193, 370, 320
-0.999708, 343, 113, 358, 240
-0.999711, 215, 193, 230, 320
-0.999712, 181, 137, 212, 200
-0.999716, 201, 177, 216, 304
-0.999716, 289, 317, 416, 348
-0.999717, 215, 241, 230, 368
-0.999719, 315, 177, 330, 304
-0.999722, 253, 129, 284, 375
-0.999725, 357, 241, 372, 368
-0.999725, 179, 145, 194, 272
-0.999727, 349, 113, 364, 240
-0.999734, 337, 225, 464, 256
-0.999735, 153, 185, 216, 248
-0.999742, 253, 49, 284, 176
-0.999744, 17, 21, 144, 52
-0.999749, 251, 241, 266, 368
-0.999751, 209, 177, 224, 304
-0.999753, 357, 113, 372, 240
-0.999757, 317, 97, 348, 224
-0.999763, 1, 49, 16, 176
-0.999764, 219, 1, 234, 128
-0.999764, 327, 97, 342, 224
-0.999775, 241, 153, 368, 184
-0.999776, 289, 193, 304, 320
-0.999777, 49, 1, 64, 128
-0.999783, 25, 25, 56, 88
-0.999783, 287, 129, 302, 256
-0.999784, 353, 193, 384, 320
-0.999786, 97, 177, 224, 208
-0.999787, 337, 97, 352, 224
-0.999789, 191, 161, 206, 288
-0.999791, 385, 97, 416, 224
-0.999797, 255, 145, 270, 272
-0.999797, 9, 41, 40, 104
-0.999797, 281, 73, 312, 136
-0.999797, 303, 161, 318, 288
-0.999803, 273, 225, 288, 352
-0.999805, 479, 209, 494, 336
-0.999806, 301, 81, 332, 208
-0.999806, 173, 161, 188, 288
-0.999806, 461, 193, 476, 320
-0.999808, 113, 245, 240, 276
-0.999809, 353, 97, 384, 352
-0.999813, 295, 65, 310, 192
-0.999814, 383, 129, 398, 256
-0.999815, 417, 161, 432, 288
-0.999816, 285, 65, 300, 192
-0.999816, 397, 145, 412, 272
-0.999817, 319, 81, 334, 208
-0.999817, 441, 177, 456, 304
-0.999819, 403, 145, 418, 272
-0.99982, 233, 17, 248, 144
-0.999821, 377, 129, 392, 256
-0.999822, 59, 1, 74, 128
-0.999823, 427, 161, 442, 288
-0.999825, 29, 17, 44, 144
-0.999827, 485, 193, 500, 320
-0.999827, 467, 161, 482, 288
-0.999828, 269, 49, 284, 176
-0.999831, 179, 193, 194, 320
-0.999831, 455, 145, 470, 272
-0.999832, 11, 33, 26, 160
-0.999835, 473, 161, 488, 288
-0.999835, 367, 65, 382, 192
-0.999836, 485, 145, 500, 272
-0.999839, 281, 129, 296, 256
-0.99984, 279, 193, 294, 320
-0.999845, 227, 177, 242, 304
-0.99985, 279, 65, 294, 192
-0.999851, 295, 241, 310, 368
-0.999853, 113, 309, 240, 340
-0.999854, 271, 177, 286, 304
-0.999854, 409, 113, 424, 240
-0.999855, 249, 1, 264, 128
-0.999855, 447, 177, 462, 304
-0.999856, 391, 129, 406, 256
-0.999857, 429, 177, 460, 304
-0.999859, 17, 33, 32, 160
-0.999863, 363, 129, 378, 256
-0.999865, 265, 225, 280, 352
-0.999869, 255, 33, 270, 160
-0.999871, 253, 185, 284, 248
-0.999872, 455, 193, 470, 320
-0.999872, 443, 129, 458, 256
-0.999873, 287, 241, 302, 368
-0.999876, 261, 145, 276, 272
-0.999877, 237, 129, 268, 375
-0.999877, 81, 285, 208, 316
-0.999878, 435, 177, 450, 304
-0.999879, 373, 65, 388, 192
-0.999879, 309, 81, 324, 208
-0.99988, 371, 113, 386, 240
-0.99988, 185, 145, 200, 272
-0.99988, 225, 1, 240, 128
-0.99988, 303, 81, 318, 208
-0.999882, 43, 1, 58, 128
-0.999883, 415, 113, 430, 240
-0.999887, 479, 161, 494, 288
-0.999887, 179, 241, 194, 368
-0.999887, 331, 49, 346, 176
-0.999892, 411, 161, 426, 288
-0.999892, 467, 209, 482, 336
-0.999894, 281, 241, 296, 368
-0.999894, 25, 1, 88, 375
-0.999894, 217, 129, 248, 375
-0.999895, 221, 177, 236, 304
-0.999896, 241, 33, 256, 160
-0.999899, 353, 65, 368, 192
-0.999902, 421, 113, 436, 240
-0.999904, 261, 49, 276, 176
-0.999906, 449, 129, 464, 256
-0.999907, 257, 305, 500, 368
-0.999907, 397, 97, 412, 224
-0.999911, 381, 81, 396, 208
-0.999911, 347, 65, 362, 192
-0.999911, 25, 1, 56, 256
-0.999912, 473, 209, 488, 336
-0.999913, 261, 1, 276, 128
-0.999919, 247, 161, 262, 288
-0.999919, 391, 81, 406, 208
-0.999919, 37, 17, 52, 144
-0.999923, 461, 145, 476, 272
-0.999925, 23, 33, 38, 160
-0.999926, 259, 225, 274, 352
-0.999927, 275, 129, 290, 256
-0.999928, 337, 289, 464, 320
-0.99993, 269, 129, 284, 256
-0.999933, 197, 129, 228, 375
-0.999936, 437, 129, 452, 256
-0.999938, 161, 221, 288, 252
-0.999938, 403, 97, 418, 224
-0.999939, 337, 49, 352, 176
-0.999939, 305, 33, 320, 160
-0.999941, 241, 177, 256, 304
-0.999942, 1, 1, 16, 128
-0.999945, 353, 305, 480, 336
-0.999946, 275, 17, 290, 144
-0.99996, 33, 161, 288, 224
-0.999979, 217, 1, 248, 256
-1.00001, 389, 129, 420, 375
-1.00001, 1, 185, 256, 248
-1.00003, 433, 145, 496, 208
-1.00003, 273, 97, 336, 160
-1.00003, 321, 169, 384, 232
-1.00004, 285, 145, 316, 208
-1.00004, 369, 81, 496, 112
-1.00004, 253, 137, 284, 200
-1.00005, 369, 297, 496, 360
-1.00006, 37, 1, 68, 256
-1.00006, 297, 1, 360, 256
-1.00006, 365, 129, 396, 375
-1.00007, 1, 185, 500, 248
-1.00008, 1, 1, 500, 64
-1.00008, 81, 201, 208, 232
-1.00009, 305, 197, 432, 228
-1.0001, 469, 97, 500, 352
-1.00011, 1, 113, 500, 176
-1.00013, 97, 233, 224, 264
-1.00017, 365, 81, 396, 208
-1.00018, 377, 33, 408, 288
-1.00019, 453, 97, 484, 352
-1.0002, 65, 169, 192, 232
-1.00021, 417, 153, 448, 216
-1.00021, 177, 141, 304, 172
-1.00022, 441, 145, 472, 272
-1.00023, 241, 125, 368, 156
-1.00025, 333, 1, 364, 256
-1.00026, 425, 129, 456, 375
-1.00026, 201, 137, 264, 200
-1.00027, 65, 245, 192, 276
-1.00027, 461, 209, 492, 336
-1.00028, 81, 189, 208, 220
-1.00029, 269, 129, 300, 375
-1.0003, 369, 93, 496, 124
-1.0003, 369, 69, 496, 100
-1.0003, 245, 33, 276, 288
-1.0003, 185, 161, 248, 224
-1.00031, 401, 129, 432, 375
-1.00033, 321, 313, 448, 375
-1.00034, 1, 185, 128, 216
-1.00034, 353, 237, 480, 268
-1.00034, 345, 1, 376, 256
-1.00035, 405, 1, 436, 256
-1.00035, 353, 25, 480, 56
-1.00035, 241, 185, 272, 248
-1.00037, 17, 77, 144, 108
-1.00037, 13, 1, 44, 256
-1.00038, 373, 121, 404, 184
-1.00038, 369, 37, 496, 68
-1.00039, 1, 57, 128, 88
-1.00041, 441, 97, 472, 352
-1.00041, 353, 57, 480, 88
-1.00041, 65, 297, 192, 328
-1.00042, 413, 129, 444, 375
-1.00043, 377, 129, 408, 375
-1.00044, 273, 177, 304, 240
-1.00044, 369, 109, 496, 140
-1.00044, 241, 137, 368, 168
-1.00044, 289, 41, 416, 72
-1.00045, 209, 321, 336, 352
-1.00046, 165, 257, 196, 320
-1.00047, 201, 217, 232, 280
-1.00047, 81, 269, 208, 300
-1.00048, 1, 113, 128, 144
-1.00049, 337, 317, 464, 348
-1.00049, 273, 337, 400, 368
-1.0005, 1, 101, 128, 132
-1.0005, 97, 137, 352, 200
-1.00051, 1, 133, 128, 164
-1.00051, 225, 113, 352, 176
-1.00051, 1, 33, 32, 288
-1.00052, 353, 265, 480, 296
-1.00052, 365, 33, 396, 288
-1.00052, 49, 105, 176, 136
-1.00053, 17, 261, 144, 292
-1.00053, 317, 185, 348, 248
-1.00054, 397, 97, 428, 224
-1.00054, 273, 29, 400, 60
-1.00055, 321, 329, 448, 360
-1.00055, 17, 161, 144, 224
-1.00056, 417, 33, 448, 288
-1.00058, 369, 209, 496, 336
-1.00058, 17, 245, 144, 276
-1.00058, 337, 1, 464, 32
-1.00058, 17, 233, 144, 264
-1.00059, 409, 113, 440, 240
-1.0006, 161, 69, 288, 100
-1.0006, 41, 9, 72, 72
-1.00061, 49, 93, 176, 124
-1.00061, 129, 145, 256, 176
-1.00061, 361, 113, 392, 176
-1.00062, 177, 33, 208, 288
-1.00062, 1, 173, 128, 204
-1.00063, 369, 277, 496, 308
-1.00063, 345, 49, 376, 176
-1.00063, 393, 1, 424, 256
-1.00064, 49, 213, 176, 244
-1.00064, 81, 321, 208, 352
-1.00065, 257, 89, 500, 152
-1.00066, 1, 65, 500, 128
-1.00067, 121, 1, 184, 375
-1.00069, 161, 129, 192, 375
-1.0007, 453, 145, 484, 272
-1.0007, 329, 49, 360, 176
-1.00072, 205, 1, 236, 256
-1.00074, 353, 225, 416, 352
-1.00075, 429, 33, 460, 288
-1.00075, 369, 41, 496, 104
-1.00075, 1, 137, 128, 200
-1.00076, 1, 241, 500, 304
-1.00077, 429, 129, 460, 256
-1.00077, 213, 9, 244, 72
-1.00078, 317, 217, 348, 280
-1.00084, 189, 145, 220, 272
-1.00085, 17, 105, 144, 168
-1.00087, 49, 1, 80, 256
-1.00088, 441, 1, 472, 256
-1.00092, 453, 1, 484, 256
-1.00095, 1, 129, 256, 192
-1.00096, 185, 193, 216, 256
-1.00097, 297, 289, 328, 352
-1.00097, 1, 137, 500, 200
-1.00099, 1, 97, 256, 224
-1.00102, 265, 193, 296, 320
-1.00102, 353, 1, 480, 64
-1.00103, 193, 33, 224, 288
-1.00107, 433, 33, 496, 288
-1.00107, 1, 185, 128, 248
-1.00107, 341, 193, 372, 256
-1.00108, 229, 313, 260, 375
-1.0011, 217, 57, 280, 120
-1.00111, 1, 297, 500, 360
-1.00114, 209, 193, 240, 256
-1.00114, 1, 105, 256, 168
-1.00114, 157, 33, 188, 288
-1.00117, 193, 161, 256, 288
-1.00118, 229, 177, 260, 304
-1.00122, 33, 129, 288, 375
-1.00123, 1, 73, 256, 136
-1.00123, 465, 1, 496, 256
-1.00124, 1, 129, 32, 375
-1.00126, 97, 97, 224, 224
-1.00129, 321, 1, 448, 128
-1.00131, 1, 89, 500, 152
-1.00131, 217, 129, 280, 256
-1.00133, 13, 97, 44, 352
-1.00135, 349, 97, 380, 160
-1.00136, 65, 1, 96, 64
-1.00136, 33, 209, 160, 272
-1.00137, 97, 113, 224, 176
-1.0014, 1, 209, 500, 272
-1.0014, 321, 25, 448, 88
-1.0014, 49, 313, 176, 375
-1.00141, 161, 65, 288, 128
-1.00141, 353, 241, 416, 304
-1.00142, 317, 73, 348, 136
-1.00143, 261, 33, 292, 96
-1.00144, 93, 33, 124, 288
-1.00144, 97, 1, 160, 375
-1.00145, 305, 1, 432, 64
-1.00145, 49, 81, 176, 144
-1.00147, 1, 25, 500, 88
-1.00148, 329, 81, 360, 144
-1.00148, 1, 233, 128, 296
-1.0015, 37, 97, 68, 352
-1.0015, 149, 129, 180, 375
-1.00151, 73, 1, 104, 256
-1.00153, 17, 257, 144, 320
-1.00155, 117, 97, 148, 352
-1.00157, 33, 289, 160, 352
-1.00158, 105, 65, 136, 320
-1.00158, 53, 97, 84, 352
-1.0016, 25, 97, 56, 352
-1.0016, 141, 33, 172, 288
-1.0016, 281, 49, 312, 112
-1.00161, 85, 129, 116, 375
-1.00165, 305, 65, 336, 128
-1.00166, 65, 97, 96, 352
-1.00168, 121, 1, 152, 256
-1.00169, 345, 185, 408, 248
-1.00171, 129, 129, 160, 375
-1.00171, 65, 1, 128, 375
-1.00173, 61, 1, 92, 256
-1.00175, 261, 233, 292, 296
-1.00175, 213, 161, 244, 288
-1.00176, 461, 169, 492, 232
-1.00178, 1, 57, 128, 120
-1.00179, 433, 225, 496, 288
-1.0018, 177, 97, 304, 160
-1.00181, 1, 81, 128, 144
-1.00186, 409, 105, 472, 168
-1.00188, 137, 129, 200, 375
-1.00195, 129, 257, 192, 320
-1.00196, 97, 81, 224, 144
-1.00196, 293, 57, 324, 120
-1.00199, 201, 297, 232, 360
-1.002, 1, 49, 256, 112
-1.00203, 393, 65, 456, 192
-1.00203, 313, 161, 344, 224
-1.00204, 249, 1, 280, 128
-1.00204, 241, 217, 272, 280
-1.00209, 281, 17, 312, 144
-1.00211, 185, 1, 248, 256
-1.00214, 169, 113, 232, 240
-1.00215, 1, 97, 128, 224
-1.00215, 305, 49, 368, 112
-1.00218, 181, 97, 212, 224
-1.00218, 433, 89, 496, 152
-1.00219, 333, 169, 364, 232
-1.00219, 113, 49, 240, 112
-1.00227, 353, 217, 416, 280
-1.00227, 1, 313, 128, 375
-1.00234, 305, 33, 336, 160
-1.00234, 249, 25, 280, 88
-1.0024, 257, 97, 288, 224
-1.0024, 65, 57, 192, 120
-1.00242, 269, 129, 300, 192
-1.00246, 65, 33, 192, 96
-1.00248, 157, 137, 188, 200
-1.00249, 333, 313, 364, 375
-1.00252, 317, 33, 348, 160
-1.00252, 261, 1, 292, 128
-1.00253, 301, 161, 332, 224
-1.00259, 165, 281, 196, 344
-1.00261, 97, 1, 224, 64
-1.00265, 169, 185, 200, 248
-1.00275, 257, 1, 384, 64
-1.00275, 201, 185, 264, 248
-1.0028, 417, 57, 480, 120
-1.00284, 441, 153, 472, 216
-1.00285, 33, 1, 96, 256
-1.00285, 193, 113, 256, 240
-1.00294, 201, 161, 232, 224
-1.00301, 1, 177, 64, 240
-1.00304, 41, 249, 104, 312
-1.00306, 325, 145, 356, 272
-1.00307, 297, 129, 328, 256
-1.00323, 213, 305, 244, 368
-1.00324, 153, 129, 216, 192
-1.00329, 425, 297, 488, 360
-1.00331, 409, 81, 472, 144
-1.00332, 285, 289, 316, 352
-1.00333, 57, 1, 88, 128
-1.00336, 393, 49, 456, 112
-1.00336, 353, 177, 384, 240
-1.00347, 1, 97, 64, 160
-1.00362, 261, 209, 292, 272
-1.00362, 241, 129, 272, 192
-1.00364, 165, 209, 196, 272
-1.00365, 369, 1, 496, 128
-1.00369, 465, 113, 496, 240
-1.00374, 433, 121, 496, 184
-1.00375, 417, 81, 480, 208
-1.00377, 1, 65, 32, 128
-1.00377, 377, 185, 440, 248
-1.00381, 237, 9, 268, 72
-1.00386, 237, 129, 268, 256
-1.00387, 65, 225, 128, 288
-1.00389, 369, 65, 432, 128
-1.0039, 137, 113, 200, 240
-1.00391, 385, 89, 448, 152
-1.00396, 129, 281, 192, 344
-1.00398, 25, 105, 88, 168
-1.004, 433, 33, 496, 96
-1.00402, 313, 1, 376, 128
-1.00407, 201, 145, 232, 272
-1.00408, 161, 209, 192, 336
-1.00409, 225, 1, 256, 64
-1.0041, 229, 177, 260, 240
-1.00412, 65, 1, 128, 64
-1.00412, 201, 1, 232, 64
-1.00416, 469, 145, 500, 208
-1.00419, 157, 113, 188, 240
-1.00421, 417, 129, 448, 192
-1.00421, 129, 217, 192, 280
-1.00428, 17, 153, 80, 216
-1.00441, 1, 1, 32, 128
-1.00456, 293, 17, 324, 144
-1.00461, 445, 97, 476, 224
-1.00463, 1, 145, 128, 272
-1.00472, 153, 313, 216, 375
-1.00477, 289, 1, 352, 64
-1.00483, 377, 49, 408, 176
-1.00486, 41, 185, 104, 248
-1.00495, 169, 1, 232, 64
-1.00495, 313, 17, 376, 80
-1.00499, 129, 185, 192, 248
-1.00504, 385, 297, 448, 360
-1.00506, 425, 9, 488, 72
-1.00517, 233, 113, 296, 176
-1.00518, 137, 33, 200, 288
-1.00518, 201, 1, 232, 128
-1.00518, 25, 225, 88, 288
-1.00525, 1, 121, 64, 184
-1.00525, 33, 193, 160, 320
-1.00532, 197, 97, 228, 224
-1.00532, 337, 49, 400, 112
-1.00536, 25, 129, 88, 192
-1.00545, 373, 1, 404, 128
-1.00548, 65, 145, 192, 272
-1.00548, 409, 273, 472, 336
-1.0055, 25, 81, 88, 144
-1.0055, 385, 273, 448, 336
-1.00558, 421, 81, 452, 208
-1.00564, 65, 105, 128, 168
-1.00569, 73, 153, 136, 216
-1.0057, 433, 1, 464, 128
-1.0057, 365, 225, 396, 352
-1.00573, 281, 25, 344, 88
-1.00573, 1, 201, 64, 264
-1.00574, 97, 217, 160, 280
-1.00578, 17, 289, 80, 352
-1.00581, 361, 33, 392, 160
-1.00586, 17, 81, 48, 208
-1.00605, 405, 1, 436, 128
-1.00606, 389, 49, 420, 176
-1.00612, 417, 17, 448, 144
-1.00613, 329, 1, 360, 128
-1.00618, 433, 81, 464, 208
-1.00623, 449, 33, 480, 160
-1.00627, 17, 113, 80, 240
-1.00629, 169, 65, 232, 192
-1.00629, 405, 49, 436, 176
-1.00633, 461, 49, 492, 176
-1.00637, 393, 1, 424, 128
-1.00639, 461, 1, 492, 128
-1.0064, 1, 97, 32, 224
-1.00641, 5, 177, 36, 304
-1.00642, 17, 129, 48, 256
-1.00643, 153, 161, 184, 288
-1.00651, 345, 33, 408, 160
-1.00663, 29, 97, 60, 224
-1.00666, 341, 1, 372, 128
-1.00666, 1, 49, 256, 176
-1.00669, 225, 129, 256, 256
-1.00672, 49, 33, 176, 160
-1.00675, 237, 81, 268, 208
-1.00685, 377, 241, 408, 368
-1.00688, 1, 49, 128, 176
-1.00688, 33, 241, 160, 368
-1.0069, 365, 177, 396, 304
-1.00696, 85, 209, 116, 336
-1.00704, 133, 193, 164, 320
-1.00706, 149, 225, 180, 352
-1.00708, 425, 33, 488, 160
-1.00709, 17, 177, 48, 304
-1.00714, 381, 193, 412, 320
-1.00717, 161, 33, 224, 288
-1.00718, 1, 161, 64, 288
-1.00719, 449, 241, 480, 368
-1.00722, 421, 225, 452, 352
-1.00727, 1, 97, 64, 352
-1.00734, 101, 241, 132, 368
-1.00739, 433, 225, 464, 352
-1.0074, 393, 1, 456, 128
-1.00743, 45, 97, 76, 224
-1.00747, 169, 97, 200, 224
-1.00747, 89, 145, 120, 272
-1.00751, 121, 209, 152, 336
-1.00761, 57, 97, 120, 352
-1.00765, 397, 193, 428, 320
-1.00767, 1, 225, 32, 352
-1.00768, 401, 241, 432, 368
-1.00768, 73, 225, 104, 352
-1.00773, 77, 81, 108, 208
-1.00778, 109, 177, 140, 304
-1.00779, 113, 65, 176, 320
-1.0078, 113, 49, 240, 176
-1.00784, 73, 161, 104, 288
-1.00792, 213, 97, 244, 224
-1.00794, 117, 65, 148, 192
-1.00818, 33, 97, 96, 352
-1.00861, 89, 1, 152, 256
-1.00863, 353, 177, 416, 304
-1.00863, 409, 241, 472, 368
-1.00881, 49, 81, 176, 208
-1.00893, 41, 241, 104, 368
-1.00895, 369, 33, 432, 160
-1.00906, 41, 193, 104, 320
-1.00911, 65, 1, 128, 256
-1.00945, 377, 225, 440, 352
-1.00948, 41, 97, 104, 224
-1.00948, 81, 161, 144, 288
-1.00952, 81, 129, 144, 375
-1.00981, 113, 113, 176, 240
-1.00981, 1, 209, 64, 336
-1.01002, 97, 1, 224, 128
-1.01003, 433, 241, 496, 368
-1.01013, 73, 225, 136, 352
-1.01035, 129, 65, 192, 192
-1.01035, 121, 161, 184, 288
-1.01123, 113, 209, 176, 336
-1.01133, 57, 145, 120, 272
-1.01136, 49, 49, 112, 176
-1.01218, 129, 17, 192, 144
-1.01234, 97, 65, 160, 192
-1.01243, 65, 97, 128, 224
-1.0126, 89, 1, 152, 128
-1.01331, 193, 65, 256, 192
-1.01331, 73, 49, 136, 176
-1.01341, 25, 49, 88, 176
-1.01344, 153, 17, 216, 144
-1.0139, 89, 113, 152, 240
-1.01513, 65, 1, 128, 128
