1898
-0.330572, 1, 1, 500, 332
-0.412805, 1, 33, 500, 288
-0.513874, 33, 1, 288, 332
-0.658594, 129, 1, 384, 332
-0.674221, 257, 1, 500, 332
-0.751334, 65, 33, 320, 288
-0.786146, 161, 1, 416, 256
-0.874739, 97, 1, 224, 332
-0.887573, 257, 65, 500, 320
-0.89155, 145, 1, 272, 332
-0.893082, 1, 1, 128, 332
-0.894671, 1, 209, 500, 332
-0.894686, 97, 1, 224, 256
-0.895872, 1, 81, 500, 208
-0.896704, 1, 145, 500, 272
-0.901532, 1, 33, 500, 160
-0.905806, 241, 1, 368, 256
-0.90795, 49, 1, 176, 332
-0.908153, 145, 1, 272, 256
-0.910525, 257, 1, 384, 332
-0.917337, 1, 33, 128, 288
-0.929034, 337, 1, 464, 332
-0.930504, 49, 65, 176, 320
-0.932586, 321, 65, 448, 320
-0.936565, 193, 1, 320, 256
-0.945187, 193, 1, 320, 332
-0.946461, 161, 1, 416, 128
-0.94697, 97, 49, 352, 176
-0.950703, 33, 209, 288, 332
-0.952753, 161, 97, 416, 224
-0.960151, 1, 49, 256, 176
-0.960601, 153, 49, 216, 176
-0.960849, 49, 209, 112, 332
-0.961015, 257, 97, 500, 224
-0.961294, 65, 97, 320, 224
-0.962198, 33, 1, 288, 128
-0.962296, 65, 145, 320, 272
-0.96233, 49, 209, 176, 332
-0.962829, 369, 65, 496, 320
-0.962869, 257, 97, 384, 224
-0.963643, 129, 49, 256, 176
-0.964, 225, 209, 480, 332
-0.964258, 33, 265, 96, 328
-0.964601, 193, 49, 448, 176
-0.966291, 257, 49, 384, 176
-0.966869, 321, 209, 448, 332
-0.967191, 177, 1, 240, 128
-0.967209, 161, 145, 416, 272
-0.968182, 161, 1, 288, 128
-0.969085, 153, 49, 216, 112
-0.969228, 193, 81, 320, 208
-0.969451, 81, 81, 208, 208
-0.970044, 257, 1, 500, 128
-0.97066, 129, 49, 192, 176
-0.970674, 345, 273, 408, 332
-0.971907, 321, 81, 448, 208
-0.971962, 297, 1, 360, 128
-0.972261, 257, 1, 384, 128
-0.972437, 145, 97, 272, 224
-0.972454, 65, 161, 192, 288
-0.972852, 129, 57, 192, 120
-0.97355, 105, 81, 168, 208
-0.973798, 321, 161, 448, 288
-0.974248, 33, 49, 160, 176
-0.975314, 73, 177, 136, 304
-0.975325, 1, 209, 128, 332
-0.975341, 57, 273, 120, 332
-0.975419, 9, 273, 72, 332
-0.975453, 257, 161, 500, 288
-0.976728, 41, 265, 72, 328
-0.977192, 173, 41, 204, 104
-0.977305, 1, 273, 128, 332
-0.977432, 233, 105, 296, 168
-0.977704, 153, 1, 216, 256
-0.977777, 241, 49, 304, 176
-0.977833, 257, 209, 384, 332
-0.977836, 177, 33, 240, 96
-0.977969, 145, 1, 208, 128
-0.978013, 97, 129, 160, 256
-0.978375, 97, 97, 160, 160
-0.978774, 129, 81, 192, 144
-0.97898, 113, 1, 240, 128
-0.979191, 1, 97, 128, 224
-0.979243, 209, 33, 336, 160
-0.979313, 321, 17, 448, 144
-0.979522, 345, 209, 408, 332
-0.979611, 321, 265, 448, 328
-0.979632, 177, 49, 240, 176
-0.980509, 209, 129, 336, 256
-0.98051, 145, 25, 208, 88
-0.980742, 257, 97, 320, 224
-0.981104, 233, 97, 296, 224
-0.981123, 369, 257, 432, 320
-0.981336, 33, 241, 96, 304
-0.981365, 201, 97, 264, 224
-0.981454, 161, 41, 192, 104
-0.981477, 89, 33, 152, 160
-0.981511, 257, 145, 384, 272
-0.981862, 201, 105, 264, 168
-0.981932, 129, 209, 384, 332
-0.98206, 297, 49, 360, 176
-0.982477, 153, 73, 216, 136
-0.982492, 137, 97, 200, 224
-0.982679, 113, 73, 240, 136
-0.982779, 161, 33, 288, 96
-0.983027, 313, 273, 376, 332
-0.983298, 257, 113, 384, 176
-0.983373, 177, 9, 240, 72
-0.983769, 105, 73, 168, 136
-0.983915, 265, 113, 328, 176
-0.983919, 73, 81, 136, 208
-0.983933, 297, 25, 360, 88
-0.984061, 193, 105, 320, 168
-0.984164, 113, 49, 240, 112
-0.984272, 25, 273, 56, 332
-0.984348, 289, 1, 352, 64
-0.984472, 9, 49, 72, 176
-0.984505, 57, 233, 120, 296
-0.984519, 153, 65, 184, 128
-0.985015, 177, 57, 240, 120
-0.985062, 65, 209, 96, 332
-0.985155, 181, 17, 212, 80
-0.985711, 177, 1, 240, 256
-0.985943, 73, 201, 136, 264
-0.986002, 177, 9, 304, 72
-0.986019, 153, 1, 216, 332
-0.986139, 49, 89, 176, 152
-0.986268, 129, 105, 192, 168
-0.986321, 33, 249, 160, 312
-0.986588, 273, 49, 336, 176
-0.986588, 177, 97, 240, 224
-0.986677, 257, 89, 384, 152
-0.986697, 53, 273, 84, 332
-0.986714, 305, 97, 368, 224
-0.986744, 409, 177, 472, 304
-0.98681, 49, 225, 176, 288
-0.986979, 81, 177, 144, 240
-0.987019, 297, 97, 360, 160
-0.987077, 49, 1, 176, 128
-0.987118, 105, 121, 168, 184
-0.987167, 297, 1, 360, 256
-0.987287, 321, 121, 448, 184
-0.987358, 409, 97, 472, 224
-0.987626, 97, 97, 224, 160
-0.987644, 257, 41, 384, 104
-0.987652, 369, 129, 496, 256
-0.987694, 329, 17, 360, 144
-0.987841, 97, 25, 224, 88
-0.987924, 65, 33, 128, 288
-0.987928, 241, 129, 304, 192
-0.987939, 177, 33, 208, 160
-0.987946, 33, 49, 96, 176
-0.987955, 209, 129, 336, 192
-0.988029, 189, 41, 220, 104
-0.988032, 209, 49, 272, 176
-0.988173, 161, 145, 288, 272
-0.988206, 217, 129, 280, 192
-0.988278, 321, 201, 448, 264
-0.988283, 233, 81, 296, 144
-0.988305, 105, 33, 168, 288
-0.988326, 141, 97, 172, 160
-0.988339, 57, 89, 120, 152
-0.98837, 417, 249, 480, 312
-0.988393, 321, 233, 448, 296
-0.988403, 337, 49, 400, 176
-0.988434, 257, 65, 384, 128
-0.988481, 177, 105, 240, 168
-0.988496, 273, 273, 400, 332
-0.988525, 129, 33, 192, 288
-0.988721, 157, 33, 188, 160
-0.988749, 193, 81, 320, 144
-0.988763, 321, 89, 448, 152
-0.988786, 57, 33, 120, 160
-0.988786, 105, 49, 168, 112
-0.988924, 9, 89, 72, 152
-0.988927, 321, 145, 448, 208
-0.988981, 1, 1, 64, 332
-0.988988, 193, 129, 256, 192
-0.989078, 193, 81, 256, 144
-0.989103, 305, 49, 368, 112
-0.989103, 393, 257, 456, 320
-0.989108, 49, 1, 112, 332
-0.989123, 321, 177, 448, 240
-0.989159, 121, 1, 184, 128
-0.989166, 193, 17, 224, 80
-0.989245, 257, 137, 384, 200
-0.989297, 129, 121, 256, 184
-0.98931, 305, 73, 368, 136
-0.989375, 257, 17, 384, 80
-0.989381, 89, 153, 152, 216
-0.989394, 305, 193, 368, 320
-0.989516, 33, 65, 160, 128
-0.989547, 25, 269, 88, 300
-0.989573, 65, 201, 192, 264
-0.98958, 49, 273, 176, 332
-0.989638, 81, 1, 144, 332
-0.989698, 33, 65, 96, 320
-0.989774, 133, 73, 164, 136
-0.989778, 129, 1, 192, 332
-0.989835, 281, 97, 344, 224
-0.989849, 321, 65, 448, 128
-0.989976, 161, 57, 288, 120
-0.990031, 305, 145, 368, 272
-0.990039, 273, 105, 304, 168
-0.990115, 1, 89, 128, 152
-0.99016, 145, 65, 176, 192
-0.990179, 133, 81, 164, 208
-0.990203, 153, 97, 216, 160
-0.990213, 337, 97, 400, 160
-0.990229, 341, 273, 372, 332
-0.990239, 277, 49, 308, 176
-0.99024, 345, 249, 408, 312
-0.990324, 145, 97, 272, 160
-0.990344, 337, 1, 400, 128
-0.990395, 337, 73, 400, 136
-0.990398, 25, 1, 88, 332
-0.99047, 409, 225, 472, 288
-0.990478, 305, 249, 368, 312
-0.990485, 409, 97, 472, 160
-0.990607, 121, 89, 152, 152
-0.99062, 81, 65, 144, 128
-0.990644, 77, 193, 108, 320
-0.990671, 1, 1, 128, 128
-0.990685, 161, 53, 224, 84
-0.990778, 177, 1, 240, 332
-0.990785, 409, 153, 472, 216
-0.990788, 33, 89, 96, 152
-0.990801, 49, 97, 112, 224
-0.990809, 17, 293, 80, 324
-0.990814, 81, 177, 208, 240
-0.990841, 313, 297, 376, 328
-0.990859, 305, 193, 368, 256
-0.990884, 257, 209, 384, 272
-0.990913, 65, 297, 128, 328
-0.990936, 337, 97, 400, 224
-0.990949, 57, 241, 88, 304
-0.99096, 369, 209, 496, 332
-0.991168, 169, 17, 200, 80
-0.9912, 49, 285, 112, 316
-0.99126, 369, 273, 496, 332
-0.99131, 169, 41, 232, 72
-0.991346, 145, 41, 208, 72
-0.991363, 305, 153, 368, 216
-0.991459, 305, 129, 368, 192
-0.991497, 121, 81, 152, 208
-0.991538, 321, 41, 448, 104
-0.991547, 9, 33, 72, 288
-0.991551, 97, 1, 224, 64
-0.991561, 137, 53, 200, 84
-0.991581, 17, 161, 144, 288
-0.991592, 81, 153, 208, 216
-0.991616, 73, 113, 136, 176
-0.991618, 257, 249, 384, 312
-0.991632, 145, 65, 208, 96
-0.991661, 53, 209, 84, 332
-0.991664, 233, 113, 264, 176
-0.991664, 249, 1, 312, 256
-0.99169, 73, 273, 104, 332
-0.991741, 257, 169, 384, 232
-0.99177, 209, 57, 272, 120
-0.991816, 109, 81, 140, 208
-0.99183, 233, 117, 296, 148
-0.991864, 129, 85, 192, 116
-0.991911, 321, 17, 448, 80
-0.99195, 105, 93, 168, 124
-0.991997, 177, 29, 240, 60
-0.991998, 297, 1, 360, 332
-0.992067, 345, 281, 408, 312
-0.992107, 265, 97, 296, 224
-0.992145, 17, 65, 80, 128
-0.992146, 1, 281, 64, 312
-0.992171, 105, 1, 168, 332
-0.992177, 41, 241, 72, 304
-0.992246, 41, 257, 104, 288
-0.992262, 337, 49, 400, 112
-0.992276, 169, 49, 200, 80
-0.992287, 113, 145, 176, 208
-0.99234, 337, 293, 400, 324
-0.99236, 173, 65, 204, 128
-0.992401, 185, 57, 248, 88
-0.99241, 285, 97, 316, 224
-0.992475, 177, 17, 240, 48
-0.992505, 377, 261, 440, 292
-0.992507, 289, 301, 352, 332
-0.992541, 257, 113, 320, 144
-0.992544, 105, 105, 168, 136
-0.992561, 121, 69, 184, 100
-0.992573, 17, 113, 144, 176
-0.992591, 297, 29, 360, 60
-0.992614, 193, 121, 256, 152
-0.99263, 201, 109, 264, 140
-0.992635, 245, 97, 276, 224
-0.992651, 361, 273, 392, 332
-0.992655, 337, 201, 400, 264
-0.99266, 25, 281, 88, 312
-0.992661, 313, 285, 376, 316
-0.992665, 137, 101, 200, 132
-0.992699, 177, 37, 208, 68
-0.992703, 249, 129, 312, 160
-0.992729, 97, 273, 224, 332
-0.992739, 217, 133, 280, 164
-0.992742, 105, 121, 168, 152
-0.992758, 285, 105, 316, 168
-0.992778, 345, 269, 408, 300
-0.992783, 337, 257, 400, 288
-0.992788, 105, 81, 168, 112
-0.992794, 249, 41, 312, 104
-0.992798, 297, 101, 360, 132
-0.992801, 193, 5, 256, 36
-0.992821, 153, 1, 216, 32
-0.992833, 153, 77, 216, 108
-0.992835, 361, 301, 424, 332
-0.992857, 145, 29, 208, 60
-0.992858, 129, 113, 192, 144
-0.992866, 297, 117, 360, 148
-0.99288, 289, 13, 352, 44
-0.992882, 81, 193, 144, 224
-0.992887, 341, 289, 372, 320
-0.99292, 305, 273, 368, 304
-0.992927, 189, 17, 220, 144
-0.992927, 393, 293, 456, 324
-0.992932, 97, 133, 160, 164
-0.992935, 161, 61, 192, 92
-0.992954, 37, 265, 68, 296
-0.992965, 249, 101, 312, 132
-0.992987, 177, 109, 240, 140
-0.992988, 345, 225, 408, 288
-0.992995, 409, 241, 472, 272
-0.992996, 49, 245, 112, 276
-0.993001, 25, 277, 56, 308
-0.993001, 37, 209, 68, 332
-0.99301, 409, 165, 472, 196
-0.993017, 317, 1, 348, 128
-0.993031, 81, 129, 208, 192
-0.993036, 289, 1, 352, 32
-0.993039, 57, 229, 120, 260
-0.993041, 57, 65, 120, 128
-0.993048, 49, 273, 112, 304
-0.993065, 305, 61, 368, 92
-0.993067, 273, 125, 336, 156
-0.99308, 73, 205, 136, 236
-0.99308, 129, 125, 192, 156
-0.993089, 33, 293, 64, 324
-0.993091, 305, 41, 368, 72
-0.993098, 17, 257, 80, 288
-0.993116, 337, 169, 400, 232
-0.993116, 409, 201, 472, 264
-0.993116, 81, 97, 144, 128
-0.99312, 305, 145, 368, 176
-0.993127, 105, 157, 168, 188
-0.99313, 21, 289, 52, 320
-0.993137, 121, 301, 184, 332
-0.993137, 201, 1, 264, 256
-0.993148, 369, 273, 432, 304
-0.993149, 105, 289, 168, 320
-0.993152, 217, 97, 280, 128
-0.993158, 177, 69, 240, 100
-0.99316, 181, 49, 212, 80
-0.993163, 49, 301, 80, 332
-0.993164, 253, 121, 284, 184
-0.993164, 241, 141, 304, 172
-0.993166, 193, 133, 256, 164
-0.993169, 65, 217, 128, 248
-0.993169, 305, 73, 368, 104
-0.993181, 89, 177, 152, 208
-0.993185, 181, 25, 212, 56
-0.993194, 173, 61, 204, 92
-0.993195, 225, 1, 288, 128
-0.993198, 133, 85, 164, 116
-0.993211, 417, 133, 480, 164
-0.993213, 337, 93, 400, 124
-0.993218, 161, 121, 224, 152
-0.993233, 409, 229, 472, 260
-0.993234, 369, 233, 496, 296
-0.993248, 89, 301, 152, 332
-0.99325, 305, 129, 368, 160
-0.993255, 121, 141, 184, 172
-0.993256, 209, 57, 336, 120
-0.993259, 357, 281, 388, 312
-0.993263, 305, 85, 368, 116
-0.993265, 273, 113, 304, 144
-0.993276, 193, 97, 256, 128
-0.993278, 153, 73, 184, 104
-0.993282, 165, 37, 196, 68
-0.993284, 337, 105, 400, 136
-0.993285, 65, 261, 128, 292
-0.993289, 93, 293, 124, 324
-0.993292, 105, 301, 136, 332
-0.993296, 189, 13, 220, 44
-0.993309, 193, 45, 256, 76
-0.993319, 345, 245, 408, 276
-0.993326, 157, 49, 188, 80
-0.993328, 337, 137, 400, 168
-0.99333, 337, 65, 400, 96
-0.993336, 305, 253, 368, 284
-0.993338, 337, 81, 400, 112
-0.99334, 261, 121, 292, 152
-0.993341, 333, 209, 364, 332
-0.993341, 121, 89, 152, 120
-0.993343, 281, 285, 344, 316
-0.993346, 321, 9, 384, 40
-0.993348, 305, 217, 368, 280
-0.993356, 401, 281, 464, 312
-0.993357, 141, 105, 172, 136
-0.99336, 41, 301, 104, 332
-0.993361, 45, 253, 76, 284
-0.993362, 265, 45, 328, 76
-0.993364, 305, 225, 368, 256
-0.993372, 149, 89, 180, 120
-0.993376, 81, 285, 112, 316
-0.993376, 321, 297, 352, 328
-0.993379, 113, 57, 176, 88
-0.993379, 81, 273, 144, 304
-0.99338, 305, 165, 368, 196
-0.993387, 289, 121, 320, 152
-0.993388, 9, 97, 72, 128
-0.99339, 249, 301, 312, 332
-0.993393, 417, 121, 480, 152
-0.993393, 137, 73, 168, 104
-0.993398, 305, 193, 368, 224
-0.993403, 329, 21, 392, 52
-0.993416, 409, 101, 472, 132
-0.993423, 49, 265, 80, 296
-0.993425, 341, 277, 372, 308
-0.993426, 137, 121, 168, 152
-0.99343, 337, 161, 400, 288
-0.993437, 409, 217, 472, 248
-0.993437, 305, 213, 368, 244
-0.99344, 305, 241, 368, 272
-0.99344, 337, 129, 400, 192
-0.993442, 149, 61, 180, 92
-0.993459, 193, 41, 224, 72
-0.993461, 201, 145, 264, 176
-0.993462, 185, 61, 216, 92
-0.993463, 409, 197, 472, 228
-0.993464, 69, 277, 100, 308
-0.993466, 409, 253, 472, 284
-0.993469, 309, 301, 340, 332
-0.993486, 25, 265, 56, 296
-0.993489, 1, 269, 64, 300
-0.993489, 337, 117, 400, 148
-0.993497, 401, 257, 432, 288
-0.9935, 305, 181, 368, 212
-0.9935, 409, 185, 472, 216
-0.993502, 337, 225, 400, 256
-0.993503, 169, 133, 232, 164
-0.993505, 181, 1, 212, 32
-0.993507, 337, 193, 400, 224
-0.993512, 97, 265, 160, 328
-0.993516, 121, 41, 184, 72
-0.993526, 57, 101, 120, 132
-0.993526, 337, 213, 400, 244
-0.993528, 337, 177, 400, 208
-0.993529, 125, 137, 156, 168
-0.993532, 165, 73, 196, 104
-0.993533, 125, 121, 156, 184
-0.993543, 125, 101, 156, 132
-0.993548, 237, 113, 268, 144
-0.993551, 321, 1, 384, 64
-0.993552, 237, 137, 268, 168
-0.993555, 273, 101, 304, 132
-0.993558, 153, 17, 216, 48
-0.993559, 97, 145, 160, 176
-0.993559, 241, 57, 304, 88
-0.993562, 417, 153, 480, 184
-0.993565, 361, 301, 392, 332
-0.993568, 37, 281, 68, 312
-0.993568, 193, 25, 224, 56
-0.99357, 269, 133, 300, 164
-0.993575, 217, 145, 280, 272
-0.99358, 161, 129, 224, 192
-0.993585, 13, 277, 44, 308
-0.993587, 217, 109, 248, 140
-0.993593, 317, 17, 348, 48
-0.993595, 389, 301, 420, 332
-0.993596, 221, 133, 252, 164
-0.993604, 1, 73, 500, 136
-0.993604, 417, 237, 448, 268
-0.993612, 81, 201, 112, 232
-0.993613, 257, 89, 320, 152
-0.993619, 285, 105, 316, 136
-0.99362, 353, 265, 384, 296
-0.993622, 249, 117, 280, 148
-0.993623, 313, 1, 344, 32
-0.993624, 121, 149, 152, 180
-0.993624, 369, 273, 400, 304
-0.993626, 409, 177, 472, 240
-0.993638, 401, 293, 432, 324
-0.993639, 381, 265, 412, 296
-0.99364, 201, 9, 232, 40
-0.993647, 281, 133, 312, 164
-0.993649, 321, 29, 352, 60
-0.99365, 73, 213, 104, 244
-0.993651, 89, 189, 120, 220
-0.993651, 9, 289, 40, 320
-0.993658, 101, 137, 132, 168
-0.993664, 257, 133, 288, 164
-0.993674, 101, 153, 132, 184
-0.993674, 201, 113, 232, 144
-0.993675, 221, 97, 252, 128
-0.993677, 241, 101, 272, 132
-0.993685, 233, 125, 264, 156
-0.993689, 57, 249, 88, 280
-0.99369, 333, 61, 364, 92
-0.99369, 349, 73, 380, 104
-0.993692, 341, 301, 372, 332
-0.993698, 17, 137, 144, 200
-0.993698, 65, 229, 96, 260
-0.993698, 349, 89, 380, 120
-0.993707, 413, 289, 444, 320
-0.993708, 253, 101, 284, 132
-0.993719, 9, 301, 40, 332
-0.993721, 417, 117, 448, 148
-0.993723, 329, 109, 360, 140
-0.993723, 125, 121, 156, 152
-0.993724, 93, 101, 124, 132
-0.993734, 429, 277, 460, 308
-0.993735, 153, 101, 184, 132
-0.993736, 329, 93, 360, 124
-0.993737, 337, 265, 368, 296
-0.993737, 229, 149, 260, 180
-0.993738, 97, 177, 128, 208
-0.993738, 61, 301, 92, 332
-0.993739, 57, 277, 88, 308
-0.993739, 113, 161, 144, 192
-0.993739, 173, 13, 204, 44
-0.993741, 333, 245, 364, 276
-0.993742, 117, 297, 148, 328
-0.993742, 329, 121, 360, 152
-0.993744, 333, 49, 364, 80
-0.993748, 133, 301, 164, 332
-0.993752, 433, 93, 464, 124
-0.993756, 221, 121, 252, 152
-0.993759, 345, 105, 376, 136
-0.99376, 61, 261, 92, 292
-0.993761, 333, 9, 364, 40
-0.993761, 349, 61, 380, 92
-0.993764, 297, 109, 328, 140
-0.993766, 417, 101, 448, 132
-0.993767, 113, 117, 144, 148
-0.99377, 113, 77, 144, 108
-0.993771, 205, 133, 236, 164
-0.993772, 33, 253, 64, 284
-0.993775, 45, 97, 76, 128
-0.993776, 333, 73, 364, 104
-0.993778, 397, 245, 428, 276
-0.993778, 69, 97, 100, 128
-0.993778, 329, 133, 360, 164
-0.99378, 149, 37, 180, 68
-0.99378, 421, 89, 452, 120
-0.99378, 161, 85, 192, 116
-0.993782, 217, 145, 248, 176
-0.993783, 421, 217, 452, 248
-0.993786, 333, 181, 364, 212
-0.993787, 417, 121, 480, 184
-0.993792, 409, 49, 472, 176
-0.993812, 1, 273, 500, 332
-0.993831, 141, 49, 172, 112
-0.99386, 121, 25, 184, 88
-0.993869, 265, 49, 296, 176
-0.993887, 225, 273, 352, 332
-0.993889, 369, 81, 496, 208
-0.99391, 1, 265, 256, 328
-0.993968, 281, 129, 312, 192
-0.993985, 25, 209, 88, 332
-0.993997, 241, 145, 304, 272
-0.99403, 321, 1, 352, 64
-0.994059, 77, 201, 108, 264
-0.99417, 161, 1, 416, 64
-0.99419, 233, 81, 264, 208
-0.994222, 209, 33, 336, 96
-0.994228, 133, 33, 164, 160
-0.994236, 1, 249, 500, 312
-0.994266, 65, 137, 128, 200
-0.994269, 409, 73, 472, 136
-0.994282, 369, 145, 496, 208
-0.994301, 117, 33, 148, 160
-0.99432, 9, 33, 40, 160
-0.994326, 1, 209, 64, 332
-0.994342, 1, 193, 128, 256
-0.994399, 369, 105, 496, 168
-0.994446, 93, 161, 124, 288
-0.994454, 1, 105, 500, 168
-0.994478, 421, 209, 452, 332
-0.994531, 49, 41, 176, 104
-0.994534, 153, 1, 216, 64
-0.994536, 183, 33, 198, 96
-0.994546, 1, 185, 500, 248
-0.994567, 329, 33, 360, 96
-0.994575, 21, 33, 52, 160
-0.994579, 401, 257, 432, 320
-0.994619, 113, 209, 240, 332
-0.994665, 193, 273, 448, 332
-0.994666, 201, 1, 264, 332
-0.99468, 49, 209, 112, 272
-0.994683, 161, 97, 416, 160
-0.994741, 161, 145, 288, 208
-0.994797, 97, 73, 352, 136
-0.994855, 177, 41, 192, 104
-0.994881, 1, 153, 500, 216
-0.994888, 369, 169, 496, 232
-0.994898, 1, 217, 128, 280
-0.994927, 349, 65, 380, 192
-0.994931, 353, 209, 384, 332
-0.994949, 73, 129, 136, 256
-0.994971, 201, 113, 232, 176
-0.994981, 221, 89, 252, 152
-0.994995, 353, 249, 384, 312
-0.99508, 189, 25, 204, 88
-0.995141, 1, 241, 256, 304
-0.99519, 253, 49, 284, 176
-0.995205, 385, 233, 448, 296
-0.995216, 17, 277, 144, 308
-0.995237, 137, 129, 200, 192
-0.995239, 409, 1, 472, 332
-0.995265, 265, 137, 328, 200
-0.995273, 245, 97, 276, 160
-0.995286, 273, 33, 336, 96
-0.99529, 129, 49, 384, 112
-0.995362, 1, 293, 128, 324
-0.995387, 369, 209, 496, 272
-0.995441, 261, 97, 292, 160
-0.995481, 377, 273, 408, 332
-0.995509, 1, 225, 500, 288
-0.995519, 161, 121, 416, 184
-0.995541, 33, 145, 96, 272
-0.995552, 41, 265, 56, 328
-0.995569, 225, 33, 288, 288
-0.99557, 1, 49, 500, 112
-0.995579, 213, 65, 244, 192
-0.9956, 161, 25, 416, 88
-0.995638, 409, 65, 472, 320
-0.99566, 105, 145, 136, 272
-0.995663, 385, 209, 448, 332
-0.995675, 257, 97, 500, 160
-0.99569, 1, 161, 128, 224
-0.995694, 109, 97, 140, 160
-0.99573, 9, 233, 72, 296
-0.995804, 93, 177, 124, 240
-0.995897, 33, 33, 64, 160
-0.995902, 197, 113, 228, 240
-0.995929, 45, 49, 76, 176
-0.995939, 273, 301, 400, 332
-0.995976, 349, 73, 380, 136
-0.995979, 49, 113, 112, 176
-0.995979, 65, 121, 320, 184
-0.995992, 47, 265, 62, 328
-0.995999, 33, 49, 288, 112
-0.996, 65, 217, 96, 280
-0.996015, 65, 97, 320, 160
-0.996073, 85, 81, 116, 208
-0.996081, 161, 145, 416, 208
-0.996084, 269, 129, 300, 192
-0.996102, 405, 209, 436, 332
-0.996104, 113, 145, 240, 272
-0.996121, 35, 273, 50, 332
-0.996132, 169, 49, 184, 112
-0.996144, 89, 89, 120, 152
-0.996149, 97, 97, 128, 224
-0.99625, 289, 49, 320, 176
-0.996252, 55, 265, 70, 328
-0.996256, 145, 53, 272, 84
-0.996306, 81, 249, 208, 312
-0.996311, 201, 1, 264, 128
-0.996311, 145, 265, 272, 328
-0.996314, 101, 153, 132, 216
-0.996314, 193, 73, 448, 136
-0.996318, 209, 25, 272, 88
-0.99634, 273, 57, 336, 120
-0.996346, 1, 1, 64, 128
-0.996372, 273, 1, 336, 128
-0.996386, 1, 41, 128, 104
-0.996427, 1, 129, 500, 192
-0.99644, 221, 121, 252, 184
-0.996448, 321, 269, 448, 300
-0.996474, 193, 109, 320, 140
-0.996486, 49, 301, 176, 332
-0.9965, 1, 97, 64, 224
-0.996506, 257, 117, 384, 148
-0.996512, 209, 153, 336, 216
-0.996527, 389, 265, 420, 328
-0.996531, 33, 201, 288, 264
-0.996558, 225, 1, 288, 332
-0.996562, 1, 73, 256, 136
-0.996616, 61, 273, 76, 332
-0.996631, 225, 249, 480, 312
-0.996644, 257, 129, 384, 160
-0.99667, 195, 17, 210, 80
-0.996698, 321, 1, 384, 332
-0.996703, 113, 153, 144, 216
-0.996706, 145, 241, 272, 304
-0.996712, 321, 1, 384, 256
-0.99673, 425, 241, 456, 304
-0.99674, 13, 273, 44, 332
-0.996812, 321, 289, 448, 320
-0.996812, 209, 209, 336, 332
-0.996828, 155, 65, 170, 128
-0.996853, 17, 265, 144, 296
-0.996888, 137, 121, 168, 184
-0.996898, 65, 153, 320, 216
-0.996901, 161, 57, 176, 120
-0.996908, 1, 25, 500, 88
-0.996921, 125, 129, 156, 256
-0.996929, 257, 129, 500, 192
-0.996931, 101, 129, 132, 192
-0.996986, 369, 81, 496, 144
-0.997007, 113, 93, 240, 124
-0.997019, 147, 97, 162, 160
-0.997026, 71, 273, 86, 332
-0.997041, 209, 121, 336, 152
-0.99705, 189, 49, 204, 112
-0.997074, 25, 89, 56, 152
-0.997077, 65, 49, 96, 176
-0.997081, 441, 177, 472, 304
-0.997095, 29, 273, 44, 332
-0.997101, 161, 37, 288, 68
-0.997185, 113, 209, 240, 272
-0.99719, 113, 77, 240, 108
-0.997193, 257, 105, 384, 136
-0.997201, 97, 49, 128, 176
-0.997201, 33, 25, 288, 88
-0.997223, 285, 105, 300, 168
-0.99723, 13, 89, 44, 152
-0.997239, 177, 1, 208, 256
-0.997242, 195, 41, 210, 104
-0.997243, 217, 1, 280, 64
-0.997257, 193, 97, 320, 128
-0.997286, 161, 81, 192, 208
-0.99729, 37, 89, 68, 152
-0.997307, 49, 289, 176, 320
-0.99733, 193, 241, 320, 304
-0.997363, 425, 33, 456, 160
-0.997366, 291, 105, 306, 168
-0.997392, 161, 225, 416, 288
-0.997405, 279, 113, 294, 176
-0.99741, 153, 89, 184, 152
-0.997414, 237, 137, 268, 200
-0.997423, 113, 65, 240, 96
-0.997428, 49, 89, 80, 152
-0.997459, 349, 1, 380, 128
-0.997477, 329, 97, 360, 224
-0.997485, 249, 1, 312, 332
-0.997485, 33, 177, 288, 240
-0.997487, 257, 93, 384, 124
-0.997489, 321, 253, 448, 284
-0.997505, 69, 89, 100, 152
-0.997526, 333, 145, 364, 272
-0.99756, 97, 53, 224, 84
-0.997564, 257, 141, 384, 172
-0.997568, 97, 209, 160, 332
-0.997577, 209, 133, 336, 164
-0.997579, 189, 1, 220, 256
-0.997579, 139, 121, 154, 184
-0.997584, 133, 81, 148, 144
-0.997585, 343, 41, 358, 104
-0.997589, 321, 133, 448, 164
-0.997589, 117, 65, 148, 128
-0.997592, 257, 41, 384, 72
-0.9976, 421, 161, 452, 288
-0.997613, 353, 301, 480, 332
-0.997614, 129, 117, 256, 148
-0.997634, 329, 1, 344, 64
-0.997635, 145, 73, 160, 136
-0.997636, 273, 289, 400, 320
-0.997652, 321, 93, 448, 124
-0.997655, 49, 93, 176, 124
-0.997662, 139, 73, 154, 136
-0.997684, 153, 89, 168, 152
-0.997688, 353, 273, 368, 332
-0.997702, 141, 97, 156, 160
-0.997703, 173, 81, 204, 208
-0.99771, 185, 45, 200, 76
-0.997713, 177, 17, 304, 48
-0.99772, 101, 73, 132, 136
-0.997728, 183, 65, 198, 128
-0.997729, 257, 81, 384, 112
-0.997735, 417, 273, 480, 332
-0.997739, 239, 105, 254, 168
-0.997739, 161, 185, 416, 248
-0.997739, 97, 273, 352, 332
-0.997741, 63, 233, 78, 296
-0.997751, 49, 225, 176, 256
-0.997763, 113, 105, 240, 136
-0.997767, 321, 225, 448, 256
-0.997779, 133, 121, 148, 184
-0.997785, 25, 113, 88, 176
-0.99779, 1, 41, 64, 104
-0.997797, 329, 57, 360, 120
-0.997802, 273, 105, 288, 168
-0.997803, 257, 53, 384, 84
-0.997804, 33, 249, 160, 280
-0.99782, 257, 217, 500, 280
-0.997829, 57, 233, 72, 296
-0.997837, 321, 109, 448, 140
-0.997837, 321, 121, 448, 152
-0.997844, 329, 1, 360, 256
-0.997853, 185, 145, 248, 272
-0.997865, 65, 193, 192, 224
-0.997878, 17, 81, 48, 208
-0.99788, 175, 41, 190, 72
-0.997906, 97, 289, 224, 320
-0.997913, 321, 153, 448, 184
-0.997915, 129, 249, 384, 312
-0.997918, 347, 257, 362, 320
-0.997929, 145, 17, 176, 144
-0.997931, 267, 113, 282, 176
-0.997937, 189, 1, 204, 64
-0.997945, 433, 217, 496, 280
-0.997948, 129, 129, 256, 160
-0.997948, 225, 49, 480, 112
-0.997952, 247, 113, 262, 176
-0.997954, 201, 1, 216, 64
-0.997958, 417, 97, 448, 224
-0.997972, 257, 273, 320, 332
-0.997974, 321, 201, 448, 232
-0.997975, 29, 81, 60, 208
-0.99798, 321, 185, 448, 216
-0.997992, 113, 301, 240, 332
-0.998004, 51, 241, 66, 304
-0.998009, 65, 213, 192, 244
-0.998009, 321, 213, 448, 244
-0.998015, 209, 177, 336, 240
-0.998021, 321, 237, 448, 268
-0.99803, 183, 9, 198, 72
-0.998031, 321, 61, 448, 92
-0.998031, 329, 97, 360, 160
-0.998044, 257, 269, 384, 300
-0.998055, 179, 53, 194, 84
-0.998069, 285, 129, 300, 192
-0.99807, 233, 73, 264, 136
-0.998078, 183, 33, 198, 64
-0.998079, 321, 169, 448, 200
-0.998079, 21, 209, 52, 332
-0.998087, 353, 285, 368, 316
-0.998088, 321, 81, 448, 112
-0.998095, 1, 1, 256, 64
-0.998107, 97, 37, 224, 68
-0.998119, 241, 29, 368, 60
-0.99812, 177, 5, 304, 36
-0.998126, 127, 137, 142, 200
-0.998132, 337, 25, 352, 88
-0.998139, 337, 25, 400, 88
-0.998146, 363, 273, 378, 332
-0.998146, 385, 129, 448, 192
-0.998161, 225, 1, 352, 32
-0.998166, 25, 1, 88, 128
-0.998168, 69, 241, 84, 304
-0.99818, 169, 49, 184, 80
-0.998192, 175, 65, 190, 128
-0.998207, 85, 33, 116, 160
-0.998212, 193, 301, 320, 332
-0.998214, 209, 241, 272, 304
-0.998222, 237, 143, 268, 158
-0.998222, 389, 263, 420, 278
-0.998222, 73, 217, 104, 232
-0.998223, 349, 77, 380, 92
-0.998224, 137, 71, 168, 86
-0.998224, 317, 21, 348, 36
-0.998224, 341, 299, 372, 314
-0.998225, 49, 291, 80, 306
-0.998226, 309, 1, 340, 16
-0.998227, 117, 159, 148, 174
-0.998228, 177, 25, 208, 40
-0.998228, 65, 229, 96, 244
-0.998228, 269, 111, 300, 126
-0.998228, 321, 31, 352, 46
-0.998229, 257, 69, 384, 100
-0.998229, 205, 9, 236, 24
-0.998229, 397, 297, 428, 312
-0.998229, 221, 109, 252, 124
-0.99823, 417, 217, 448, 280
-0.99823, 125, 141, 156, 156
-0.998231, 33, 237, 160, 268
-0.998231, 221, 103, 252, 118
-0.998232, 77, 211, 108, 226
-0.998232, 265, 9, 328, 72
-0.998232, 133, 313, 164, 328
-0.998233, 333, 73, 364, 88
-0.998233, 169, 33, 200, 48
-0.998234, 117, 301, 148, 316
-0.998234, 237, 125, 268, 140
-0.998235, 185, 5, 216, 20
-0.998236, 417, 241, 448, 256
-0.998238, 57, 261, 88, 276
-0.998238, 373, 273, 404, 288
-0.998239, 413, 293, 444, 308
-0.998239, 105, 151, 136, 166
-0.99824, 185, 17, 216, 32
-0.998241, 149, 65, 180, 80
-0.998243, 185, 65, 216, 80
-0.998244, 265, 123, 296, 138
-0.998244, 29, 267, 60, 282
-0.998244, 389, 303, 420, 318
-0.998245, 189, 25, 204, 56
-0.998245, 133, 129, 164, 144
-0.998245, 221, 131, 252, 146
-0.998245, 1, 113, 64, 176
-0.998247, 233, 131, 264, 146
-0.998248, 273, 129, 304, 144
-0.998248, 77, 311, 108, 326
-0.998249, 121, 97, 152, 112
-0.998249, 249, 143, 280, 158
-0.998249, 149, 91, 180, 106
-0.99825, 293, 119, 324, 134
-0.99825, 85, 317, 116, 332
-0.99825, 129, 135, 160, 150
-0.99825, 373, 311, 404, 326
-0.998252, 101, 297, 132, 312
-0.998252, 41, 261, 72, 276
-0.998253, 97, 141, 224, 172
-0.998254, 337, 281, 368, 296
-0.998255, 173, 19, 204, 34
-0.998255, 149, 57, 180, 72
-0.998255, 173, 65, 204, 80
-0.998255, 61, 299, 92, 314
-0.998258, 129, 105, 160, 120
-0.998259, 77, 287, 108, 302
-0.998259, 69, 305, 100, 320
-0.998261, 253, 113, 284, 128
-0.998263, 137, 111, 168, 126
-0.998263, 241, 115, 272, 130
-0.998264, 253, 133, 284, 148
-0.998267, 137, 121, 168, 136
-0.998267, 285, 131, 316, 146
-0.998268, 101, 157, 132, 172
-0.998271, 121, 153, 152, 168
-0.998273, 353, 273, 384, 288
-0.998273, 281, 113, 312, 128
-0.998273, 221, 141, 252, 156
-0.998274, 353, 289, 384, 304
-0.998274, 65, 277, 96, 292
-0.998275, 197, 51, 228, 66
-0.998276, 33, 273, 48, 304
-0.99828, 189, 25, 220, 40
-0.99828, 273, 1, 336, 256
-0.998282, 269, 135, 300, 150
-0.998282, 161, 65, 288, 96
-0.998282, 141, 105, 172, 120
-0.998283, 69, 317, 100, 332
-0.998283, 197, 15, 228, 30
-0.998283, 285, 125, 316, 140
-0.998283, 401, 261, 432, 276
-0.998284, 181, 11, 212, 26
-0.998285, 145, 97, 176, 112
-0.998285, 81, 173, 208, 204
-0.998286, 345, 315, 376, 330
-0.998288, 153, 85, 184, 100
-0.998289, 81, 293, 112, 308
-0.99829, 189, 59, 220, 74
-0.998291, 361, 307, 392, 322
-0.998293, 177, 17, 192, 80
-0.998293, 341, 287, 372, 302
-0.998294, 133, 95, 164, 110
-0.998294, 153, 71, 184, 86
-0.998295, 93, 305, 124, 320
-0.998296, 167, 61, 182, 92
-0.998297, 317, 303, 348, 318
-0.998298, 33, 81, 160, 112
-0.998298, 185, 51, 216, 66
-0.9983, 253, 119, 284, 134
-0.998301, 83, 273, 98, 332
-0.998302, 113, 313, 144, 328
-0.998303, 141, 77, 172, 92
-0.998304, 181, 33, 212, 48
-0.998305, 257, 113, 272, 176
-0.998307, 157, 49, 188, 64
-0.99831, 329, 297, 360, 312
-0.998311, 29, 279, 60, 294
-0.998314, 133, 89, 164, 104
-0.998314, 165, 43, 196, 58
-0.998317, 53, 271, 84, 286
-0.998317, 157, 79, 188, 94
-0.998319, 341, 1, 372, 64
-0.99832, 165, 71, 196, 86
-0.998321, 189, 43, 220, 58
-0.998323, 33, 273, 64, 288
-0.998324, 233, 137, 264, 152
-0.998328, 289, 315, 320, 330
-0.998328, 21, 285, 52, 300
-0.998329, 301, 311, 332, 326
-0.998329, 137, 83, 168, 98
-0.998331, 353, 283, 384, 298
-0.998331, 89, 299, 120, 314
-0.998334, 177, 145, 304, 176
-0.998339, 161, 65, 192, 80
-0.99834, 309, 1, 340, 64
-0.998352, 269, 117, 300, 132
-0.998358, 361, 317, 392, 332
-0.998359, 395, 265, 410, 328
-0.99836, 41, 303, 72, 318
-0.998363, 191, 41, 206, 72
-0.998365, 57, 315, 88, 330
-0.998365, 105, 307, 136, 322
-0.998368, 49, 309, 80, 324
-0.998368, 423, 89, 438, 152
-0.998374, 177, 57, 208, 72
-0.998374, 381, 273, 396, 332
-0.99838, 33, 295, 64, 310
-0.998385, 177, 39, 208, 54
-0.998387, 297, 97, 328, 224
-0.998389, 165, 1, 196, 256
-0.998391, 27, 281, 42, 312
-0.998398, 257, 157, 384, 188
-0.998398, 21, 291, 52, 306
-0.9984, 257, 257, 384, 288
-0.998402, 345, 97, 376, 160
-0.998403, 119, 153, 134, 216
-0.998405, 351, 73, 366, 136
-0.998407, 417, 273, 448, 332
-0.998411, 411, 257, 426, 320
-0.998412, 341, 293, 372, 308
-0.998413, 321, 41, 448, 72
-0.998419, 257, 161, 500, 224
-0.998426, 233, 113, 248, 176
-0.998434, 165, 59, 196, 74
-0.998437, 41, 267, 72, 282
-0.998439, 49, 161, 112, 224
-0.998443, 101, 273, 132, 332
-0.998444, 101, 89, 116, 152
-0.998448, 417, 257, 432, 320
-0.998448, 35, 249, 50, 312
-0.998449, 257, 173, 384, 204
-0.998454, 65, 65, 192, 96
-0.998457, 79, 209, 94, 272
-0.998463, 297, 105, 312, 168
-0.99847, 177, 45, 208, 60
-0.99847, 1, 97, 128, 128
-0.998479, 345, 1, 408, 332
-0.998481, 301, 49, 332, 176
-0.998485, 173, 51, 204, 66
-0.998495, 257, 1, 500, 64
-0.9985, 257, 233, 384, 264
-0.998501, 127, 89, 142, 152
-0.998504, 273, 1, 336, 332
-0.998504, 193, 209, 320, 272
-0.99851, 193, 49, 320, 80
-0.998512, 55, 301, 70, 332
-0.998512, 195, 17, 210, 48
-0.998518, 69, 241, 100, 304
-0.998518, 171, 17, 186, 80
-0.998519, 375, 273, 390, 332
-0.998527, 161, 69, 176, 100
-0.998532, 257, 221, 384, 252
-0.998532, 389, 265, 404, 328
-0.998532, 77, 273, 92, 332
-0.998534, 97, 153, 224, 184
-0.998535, 99, 293, 114, 324
-0.998539, 85, 201, 100, 264
-0.998541, 153, 145, 216, 272
-0.998547, 39, 265, 54, 296
-0.998551, 215, 105, 230, 168
-0.998551, 37, 89, 52, 152
-0.998553, 403, 257, 418, 320
-0.998555, 25, 271, 88, 286
-0.998566, 97, 1, 224, 32
-0.998571, 141, 121, 156, 152
-0.998579, 61, 89, 76, 152
-0.998584, 93, 185, 108, 248
-0.998588, 241, 17, 368, 48
-0.998588, 113, 21, 240, 52
-0.998588, 25, 277, 88, 292
-0.998592, 189, 57, 204, 88
-0.998596, 241, 129, 256, 192
-0.998597, 31, 89, 46, 152
-0.998598, 49, 105, 176, 136
-0.9986, 323, 1, 338, 64
-0.998605, 47, 297, 62, 328
-0.998606, 47, 89, 62, 152
-0.998606, 433, 177, 496, 304
-0.998609, 145, 97, 160, 128
-0.998612, 127, 65, 142, 128
-0.998614, 9, 297, 72, 312
-0.998615, 65, 303, 128, 318
-0.998618, 313, 301, 376, 316
-0.998618, 289, 273, 352, 332
-0.99862, 321, 29, 448, 60
-0.99862, 161, 59, 224, 74
-0.998621, 145, 53, 208, 68
-0.998623, 169, 53, 232, 68
-0.998623, 57, 297, 120, 312
-0.998624, 17, 305, 80, 320
-0.998624, 73, 309, 136, 324
-0.998627, 257, 185, 384, 216
-0.998636, 129, 1, 192, 64
-0.998637, 139, 81, 154, 112
-0.99864, 49, 291, 112, 306
-0.998642, 289, 121, 304, 152
-0.998643, 169, 45, 232, 60
-0.998644, 145, 65, 208, 80
-0.998645, 55, 89, 70, 152
-0.998647, 81, 315, 144, 330
-0.99865, 23, 273, 38, 332
-0.99865, 109, 301, 124, 332
-0.998652, 33, 313, 96, 328
-0.998652, 173, 61, 188, 92
-0.998652, 1, 291, 64, 306
-0.998653, 137, 73, 200, 88
-0.998655, 363, 281, 378, 312
-0.998658, 81, 277, 208, 308
-0.998659, 45, 261, 60, 292
-0.998662, 17, 283, 80, 298
-0.998663, 33, 289, 48, 320
-0.998663, 417, 97, 448, 160
-0.998663, 249, 119, 312, 134
-0.998665, 225, 141, 288, 156
-0.998665, 45, 241, 60, 304
-0.998669, 77, 33, 108, 288
-0.99867, 41, 293, 56, 324
-0.998671, 257, 245, 384, 276
-0.998672, 151, 89, 166, 120
-0.998672, 185, 59, 248, 74
-0.998672, 129, 87, 192, 102
-0.998673, 241, 131, 304, 146
-0.998674, 145, 49, 160, 112
-0.998674, 161, 57, 176, 88
-0.998675, 305, 307, 368, 322
-0.998676, 345, 317, 408, 332
-0.998678, 93, 89, 108, 152
-0.998679, 145, 47, 208, 62
-0.99868, 281, 127, 344, 142
-0.998681, 41, 285, 104, 300
-0.998682, 33, 265, 96, 280
-0.998682, 177, 35, 240, 50
-0.998683, 313, 295, 376, 310
-0.998685, 145, 109, 160, 140
-0.998685, 103, 273, 118, 332
-0.998687, 111, 89, 126, 152
-0.998693, 345, 301, 408, 316
-0.998693, 233, 125, 296, 140
-0.998694, 257, 197, 384, 228
-0.998695, 121, 93, 184, 108
-0.998695, 313, 315, 376, 330
-0.998696, 257, 113, 320, 128
-0.998697, 137, 79, 200, 94
-0.998697, 321, 273, 352, 332
-0.998697, 137, 59, 200, 74
-0.998698, 377, 269, 440, 284
-0.998698, 177, 29, 240, 44
-0.998698, 341, 249, 372, 312
-0.998699, 217, 135, 280, 150
-0.9987, 337, 263, 400, 278
-0.9987, 353, 311, 416, 326
-0.998702, 345, 277, 408, 292
-0.998703, 135, 129, 150, 160
-0.998706, 193, 129, 256, 144
-0.998707, 165, 25, 180, 88
-0.998707, 353, 295, 416, 310
-0.998708, 297, 117, 360, 132
-0.998708, 289, 27, 352, 42
-0.998709, 225, 119, 288, 134
-0.998709, 105, 105, 168, 120
-0.99871, 289, 313, 352, 328
-0.998711, 345, 269, 408, 284
-0.998712, 169, 65, 232, 80
-0.998712, 161, 71, 224, 86
-0.998713, 185, 21, 248, 36
-0.998714, 249, 1, 312, 128
-0.998714, 193, 109, 256, 124
-0.998714, 265, 133, 328, 148
-0.998715, 305, 1, 432, 32
-0.998715, 25, 89, 40, 152
-0.998716, 267, 117, 282, 148
-0.998716, 193, 135, 256, 150
-0.998716, 121, 73, 136, 136
-0.998717, 161, 193, 288, 320
-0.998717, 129, 107, 192, 122
-0.998718, 105, 99, 168, 114
-0.998722, 297, 41, 360, 56
-0.998722, 355, 249, 370, 312
-0.998723, 329, 307, 392, 322
-0.998724, 193, 51, 256, 66
-0.998725, 297, 111, 360, 126
-0.998726, 193, 123, 256, 138
-0.998726, 97, 131, 160, 146
-0.998728, 193, 15, 256, 30
-0.998729, 297, 33, 360, 48
-0.998729, 313, 275, 376, 290
-0.99873, 153, 39, 216, 54
-0.998731, 201, 117, 264, 132
-0.998731, 377, 263, 440, 278
-0.998731, 279, 117, 294, 148
-0.998732, 305, 47, 368, 62
-0.998733, 105, 111, 168, 126
-0.998733, 97, 93, 160, 108
-0.998733, 41, 259, 104, 274
-0.998734, 105, 299, 168, 314
-0.998734, 305, 77, 368, 92
-0.998735, 313, 287, 376, 302
-0.998735, 201, 141, 264, 156
-0.998735, 273, 121, 336, 136
-0.998735, 305, 99, 368, 114
-0.998735, 305, 85, 368, 100
-0.998736, 193, 9, 256, 24
-0.998737, 1, 277, 64, 292
-0.998737, 289, 21, 352, 36
-0.998737, 121, 67, 184, 82
-0.998738, 305, 105, 368, 120
-0.998738, 137, 101, 200, 116
-0.998738, 81, 193, 144, 208
-0.998739, 305, 147, 368, 162
-0.99874, 113, 151, 176, 166
-0.99874, 129, 115, 192, 130
-0.99874, 105, 119, 168, 134
-0.99874, 15, 89, 30, 152
-0.99874, 337, 283, 400, 298
-0.99874, 153, 11, 216, 26
-0.99874, 289, 13, 352, 28
-0.99874, 409, 169, 472, 184
-0.998741, 201, 103, 264, 118
-0.998741, 233, 103, 296, 118
-0.998741, 305, 67, 368, 82
-0.998742, 145, 33, 176, 288
-0.998742, 161, 121, 224, 136
-0.998743, 73, 209, 136, 224
-0.998743, 265, 47, 328, 62
-0.998744, 305, 129, 368, 144
-0.998744, 1, 269, 64, 284
-0.998744, 225, 113, 288, 128
-0.998744, 345, 257, 408, 272
-0.998744, 393, 297, 456, 312
-0.998744, 89, 155, 152, 170
-0.998745, 57, 267, 120, 282
-0.998745, 305, 153, 368, 168
-0.998745, 337, 97, 400, 112
-0.998745, 121, 135, 184, 150
-0.998745, 57, 233, 120, 248
-0.998745, 89, 181, 152, 196
-0.998745, 81, 199, 144, 214
-0.998746, 337, 81, 400, 96
-0.998746, 409, 243, 472, 258
-0.998746, 337, 289, 400, 304
-0.998747, 113, 311, 176, 326
-0.998747, 97, 137, 160, 152
-0.998748, 305, 93, 368, 108
-0.998748, 281, 1, 344, 16
-0.998749, 129, 123, 192, 138
-0.998749, 81, 285, 144, 300
-0.998749, 305, 173, 368, 188
-0.99875, 417, 141, 480, 156
-0.99875, 249, 139, 312, 154
-0.998751, 369, 265, 496, 296
-0.998752, 279, 137, 294, 200
-0.99876, 169, 73, 184, 136
-0.998761, 423, 273, 438, 332
-0.99877, 67, 89, 82, 152
-0.998782, 99, 177, 114, 240
-0.998783, 257, 209, 384, 240
-0.998787, 139, 49, 154, 112
-0.998787, 145, 73, 160, 104
-0.99879, 369, 289, 496, 320
-0.998791, 425, 145, 440, 208
-0.998792, 155, 41, 170, 104
-0.998799, 33, 133, 160, 164
-0.998802, 53, 265, 68, 296
-0.998802, 21, 65, 52, 128
-0.998803, 73, 217, 88, 280
-0.998803, 201, 13, 216, 44
-0.998804, 249, 145, 280, 272
-0.998806, 249, 137, 264, 200
-0.998807, 291, 129, 306, 192
-0.998808, 295, 109, 310, 140
-0.998809, 425, 113, 440, 176
-0.998814, 193, 81, 320, 112
-0.998814, 21, 285, 36, 316
-0.998827, 353, 273, 368, 304
-0.99883, 103, 153, 118, 216
-0.998833, 329, 137, 360, 200
-0.998834, 65, 265, 192, 296
-0.998836, 155, 77, 170, 108
-0.998842, 341, 97, 356, 160
-0.998843, 123, 153, 138, 184
-0.998844, 61, 301, 76, 332
-0.998846, 305, 13, 432, 44
-0.998851, 1, 1, 500, 64
-0.998852, 209, 289, 336, 320
-0.998855, 335, 273, 350, 332
-0.998855, 105, 33, 136, 288
-0.998858, 183, 65, 198, 96
-0.998858, 257, 193, 500, 256
-0.998858, 209, 113, 224, 176
-0.998859, 1, 201, 128, 232
-0.998861, 449, 249, 464, 312
-0.998863, 347, 289, 362, 320
-0.998864, 283, 129, 298, 160
-0.998864, 273, 129, 288, 192
-0.998865, 279, 89, 294, 152
-0.998866, 231, 81, 246, 144
-0.998869, 337, 1, 352, 64
-0.998872, 1, 17, 128, 80
-0.998876, 115, 301, 130, 332
-0.998878, 59, 269, 74, 300
-0.99888, 139, 101, 154, 132
-0.99889, 247, 89, 262, 152
-0.998891, 419, 233, 434, 296
-0.998891, 119, 97, 134, 160
-0.998897, 255, 137, 270, 200
-0.998901, 133, 89, 148, 120
-0.998903, 81, 125, 208, 156
-0.998903, 273, 81, 304, 144
-0.998906, 97, 273, 112, 332
-0.998908, 51, 249, 66, 280
-0.998909, 93, 33, 124, 288
-0.99891, 155, 65, 170, 96
-0.998912, 87, 285, 102, 316
-0.998912, 79, 281, 94, 312
-0.998915, 345, 177, 360, 240
-0.998924, 239, 133, 254, 164
-0.998927, 325, 1, 340, 32
-0.998931, 217, 153, 280, 216
-0.998933, 195, 53, 210, 84
-0.998934, 129, 141, 144, 172
-0.998935, 53, 65, 84, 320
-0.998938, 67, 301, 82, 332
-0.998946, 33, 65, 48, 128
-0.998946, 59, 257, 74, 288
-0.998949, 27, 65, 42, 128
-0.998952, 347, 277, 362, 308
-0.998953, 93, 289, 108, 320
-0.99896, 341, 293, 356, 324
-0.998963, 65, 33, 96, 288
-0.998967, 39, 277, 54, 308
-0.998968, 231, 137, 246, 168
-0.998975, 29, 249, 44, 312
-0.998976, 221, 105, 236, 168
-0.998977, 87, 97, 102, 160
-0.998979, 195, 5, 210, 36
-0.998982, 115, 65, 130, 128
-0.998983, 113, 161, 128, 224
-0.998985, 79, 249, 94, 312
-0.998986, 273, 113, 288, 144
-0.998989, 197, 37, 212, 68
-0.998993, 121, 273, 184, 332
-0.998994, 121, 145, 184, 272
-0.998997, 409, 249, 424, 280
-0.999006, 261, 121, 276, 152
-0.999007, 21, 65, 36, 128
-0.999007, 351, 97, 366, 160
-0.999008, 319, 301, 334, 332
-0.999012, 43, 65, 58, 128
-0.999014, 331, 25, 346, 88
-0.999019, 77, 129, 108, 256
-0.999023, 129, 49, 160, 112
-0.999026, 133, 33, 164, 288
-0.999026, 67, 273, 82, 304
-0.999027, 335, 297, 350, 328
-0.999039, 441, 97, 472, 224
-0.999042, 335, 29, 350, 60
-0.999054, 295, 121, 310, 152
-0.999056, 327, 297, 342, 328
-0.999061, 289, 109, 304, 140
-0.999063, 1, 177, 128, 208
-0.999068, 283, 105, 298, 136
-0.999078, 209, 61, 336, 92
-0.99908, 277, 129, 292, 160
-0.999083, 73, 277, 88, 308
-0.999087, 369, 241, 496, 272
-0.999091, 369, 113, 496, 144
-0.999093, 167, 73, 182, 104
-0.999096, 9, 65, 40, 128
-0.999098, 201, 1, 232, 128
-0.999101, 177, 29, 192, 60
-0.999105, 369, 137, 496, 168
-0.999106, 173, 73, 188, 104
-0.99911, 111, 289, 126, 320
-0.999115, 117, 1, 148, 256
-0.999119, 201, 1, 216, 32
-0.999119, 33, 121, 160, 152
-0.99912, 369, 205, 496, 236
-0.999124, 329, 13, 344, 44
-0.999127, 341, 37, 356, 68
-0.999138, 185, 257, 248, 320
-0.999141, 417, 233, 432, 264
-0.999142, 345, 57, 360, 88
-0.999146, 75, 301, 90, 332
-0.999146, 351, 77, 366, 108
-0.999153, 151, 105, 166, 136
-0.999154, 135, 117, 150, 148
-0.999159, 185, 65, 216, 128
-0.99916, 161, 153, 224, 216
-0.999161, 271, 133, 286, 164
-0.999167, 121, 297, 136, 328
-0.999171, 89, 65, 120, 128
-0.999171, 49, 17, 176, 80
-0.999172, 33, 145, 160, 176
-0.999173, 237, 117, 252, 148
-0.999175, 333, 193, 364, 256
-0.999179, 117, 153, 132, 184
-0.999184, 57, 289, 72, 320
-0.999184, 369, 169, 496, 200
-0.999186, 123, 141, 138, 172
-0.999186, 127, 301, 142, 332
-0.999187, 257, 25, 500, 88
-0.999192, 355, 301, 370, 332
-0.999193, 145, 169, 272, 232
-0.999193, 1, 213, 128, 244
-0.999198, 47, 285, 62, 316
-0.999198, 215, 113, 230, 144
-0.9992, 1, 225, 128, 256
-0.999202, 427, 129, 442, 160
-0.999202, 423, 221, 438, 252
-0.999206, 333, 169, 364, 232
-0.99921, 189, 13, 204, 44
-0.999212, 351, 89, 366, 120
-0.999215, 423, 273, 438, 304
-0.999218, 25, 209, 88, 272
-0.999219, 33, 65, 64, 128
-0.99922, 129, 129, 144, 160
-0.99922, 363, 301, 378, 332
-0.999229, 27, 269, 42, 300
-0.999233, 127, 93, 142, 124
-0.999238, 1, 189, 128, 220
-0.999243, 379, 273, 394, 304
-0.999244, 67, 261, 82, 292
-0.999245, 245, 137, 260, 168
-0.999247, 275, 101, 290, 132
-0.999254, 161, 81, 176, 112
-0.999257, 157, 17, 188, 80
-0.999265, 429, 225, 444, 256
-0.99927, 101, 281, 116, 312
-0.999271, 319, 289, 334, 320
-0.999274, 183, 21, 198, 52
-0.999274, 27, 293, 42, 324
-0.999275, 425, 113, 440, 144
-0.999278, 349, 129, 380, 256
-0.999282, 369, 125, 496, 156
-0.999284, 289, 133, 304, 164
-0.999285, 241, 105, 256, 136
-0.999291, 399, 301, 414, 332
-0.999292, 369, 149, 496, 180
-0.999292, 49, 185, 112, 248
-0.999294, 255, 129, 270, 160
-0.999295, 231, 125, 246, 156
-0.999297, 207, 5, 222, 36
-0.999297, 307, 297, 322, 328
-0.999299, 187, 1, 202, 128
-0.999314, 125, 145, 156, 208
-0.999326, 49, 65, 80, 128
-0.999331, 253, 1, 284, 256
-0.999342, 105, 177, 168, 240
-0.999344, 5, 81, 36, 208
-0.999344, 233, 145, 264, 272
-0.999346, 369, 229, 496, 260
-0.99935, 179, 17, 194, 144
-0.999357, 49, 53, 176, 84
-0.999369, 369, 33, 496, 160
-0.999384, 369, 101, 496, 132
-0.999391, 369, 193, 496, 224
-0.999404, 185, 97, 216, 224
-0.999406, 29, 249, 60, 312
-0.999407, 147, 65, 162, 192
-0.999424, 141, 65, 156, 192
-0.999425, 331, 1, 346, 128
-0.999426, 343, 33, 358, 160
-0.99943, 81, 177, 112, 240
-0.99943, 429, 1, 460, 256
-0.999434, 65, 65, 96, 128
-0.999444, 167, 33, 182, 160
-0.99945, 253, 133, 268, 148
-0.99945, 267, 133, 282, 148
-0.99945, 135, 121, 150, 136
-0.99945, 37, 65, 68, 320
-0.999451, 145, 249, 272, 280
-0.999451, 261, 141, 276, 156
-0.999451, 391, 267, 406, 282
-0.999451, 419, 291, 434, 306
-0.999451, 61, 301, 76, 316
-0.999451, 145, 269, 272, 300
-0.999452, 259, 117, 274, 132
-0.999452, 139, 111, 154, 126
-0.999452, 63, 265, 78, 280
-0.999452, 19, 291, 34, 306
-0.999452, 55, 297, 70, 312
-0.999452, 47, 293, 62, 308
-0.999452, 413, 295, 428, 310
-0.999453, 265, 111, 280, 126
-0.999453, 335, 35, 350, 50
-0.999454, 157, 49, 172, 176
-0.999454, 243, 133, 258, 148
-0.999455, 177, 71, 192, 86
-0.999455, 129, 133, 144, 148
-0.999455, 135, 135, 150, 150
-0.999455, 1, 89, 32, 152
-0.999456, 53, 209, 68, 332
-0.999456, 147, 117, 162, 132
-0.999457, 275, 133, 290, 148
-0.999457, 123, 157, 138, 172
-0.999457, 17, 165, 144, 196
-0.999457, 173, 33, 188, 160
-0.999457, 73, 311, 88, 326
-0.999458, 401, 301, 416, 316
-0.999458, 179, 65, 194, 80
-0.999459, 281, 127, 296, 142
-0.999459, 189, 17, 204, 32
-0.99946, 189, 65, 204, 80
-0.999461, 283, 49, 298, 176
-0.999462, 65, 209, 80, 332
-0.999462, 371, 279, 386, 294
-0.999464, 393, 305, 408, 320
-0.999465, 45, 261, 60, 276
-0.999465, 385, 309, 400, 324
-0.999465, 237, 131, 252, 146
-0.999466, 139, 89, 154, 104
-0.999466, 369, 317, 384, 332
-0.999467, 271, 139, 286, 154
-0.999467, 81, 317, 96, 332
-0.999468, 285, 117, 300, 132
-0.999469, 357, 317, 372, 332
-0.99947, 191, 31, 206, 46
-0.99947, 377, 275, 392, 290
-0.999471, 359, 289, 374, 304
-0.999471, 379, 313, 394, 328
-0.999472, 157, 83, 172, 98
-0.999472, 141, 127, 156, 142
-0.999472, 195, 53, 210, 68
-0.999473, 267, 123, 282, 138
-0.999474, 129, 143, 144, 158
-0.999475, 57, 263, 72, 278
-0.999475, 181, 59, 196, 74
-0.999475, 79, 209, 94, 332
-0.999476, 135, 129, 150, 144
-0.999476, 347, 285, 362, 300
-0.999478, 147, 77, 162, 92
-0.999478, 159, 77, 174, 92
-0.999479, 289, 49, 304, 176
-0.999479, 73, 209, 88, 332
-0.999483, 235, 137, 250, 152
-0.999484, 145, 111, 160, 126
-0.999485, 229, 141, 244, 156
-0.999485, 275, 115, 290, 130
-0.999485, 83, 285, 98, 300
-0.999487, 353, 283, 368, 298
-0.999489, 143, 83, 158, 98
-0.999489, 67, 275, 82, 290
-0.99949, 411, 257, 426, 272
-0.99949, 153, 69, 168, 84
-0.999491, 165, 71, 180, 86
-0.999493, 125, 151, 140, 166
-0.999494, 195, 11, 210, 26
-0.999494, 31, 277, 46, 292
-0.999495, 141, 121, 156, 136
-0.999496, 281, 133, 296, 148
-0.999497, 295, 115, 310, 130
-0.999498, 237, 33, 268, 160
-0.999498, 121, 315, 136, 330
-0.999498, 25, 289, 40, 304
-0.999498, 305, 273, 336, 332
-0.999499, 363, 317, 378, 332
-0.9995, 75, 279, 90, 294
-0.999501, 191, 59, 206, 74
-0.999501, 49, 267, 64, 282
-0.999501, 169, 61, 184, 76
-0.999502, 159, 63, 174, 78
-0.999504, 61, 271, 76, 286
-0.999504, 153, 89, 168, 104
-0.999505, 69, 317, 84, 332
-0.999507, 295, 123, 310, 138
-0.999507, 287, 131, 302, 146
-0.999508, 327, 301, 342, 316
-0.999511, 55, 269, 70, 284
-0.999511, 275, 97, 290, 224
-0.999512, 203, 13, 218, 28
-0.999513, 265, 117, 280, 132
-0.999515, 59, 209, 74, 332
-0.999515, 369, 217, 496, 248
-0.999517, 303, 313, 318, 328
-0.999517, 295, 317, 310, 332
-0.999517, 249, 97, 264, 224
-0.999517, 347, 291, 362, 306
-0.999518, 195, 41, 210, 56
-0.999518, 321, 305, 336, 320
-0.999518, 369, 253, 496, 284
-0.999521, 145, 285, 272, 316
-0.999521, 37, 271, 52, 286
-0.999522, 89, 289, 104, 304
-0.999523, 149, 95, 164, 110
-0.999524, 289, 125, 304, 140
-0.999524, 175, 59, 190, 74
-0.999524, 135, 81, 150, 208
-0.999525, 43, 267, 58, 282
-0.999527, 241, 33, 272, 288
-0.999527, 333, 299, 348, 314
-0.999527, 145, 101, 160, 116
-0.999527, 313, 309, 328, 324
-0.999528, 197, 19, 212, 34
-0.999528, 123, 81, 138, 208
-0.999528, 127, 315, 142, 330
-0.999529, 27, 283, 42, 298
-0.999533, 191, 25, 206, 40
-0.999535, 179, 53, 194, 68
-0.999535, 341, 295, 356, 310
-0.999536, 85, 193, 100, 320
-0.999536, 363, 283, 378, 298
-0.999537, 185, 33, 200, 48
-0.999537, 1, 1, 32, 256
-0.999537, 165, 55, 180, 70
-0.999539, 95, 293, 110, 308
-0.999539, 183, 65, 198, 192
-0.999543, 25, 41, 88, 104
-0.999543, 35, 293, 50, 308
-0.999544, 429, 41, 460, 104
-0.999548, 41, 295, 56, 310
-0.999549, 281, 97, 296, 224
-0.999549, 241, 97, 256, 224
-0.999554, 171, 51, 186, 66
-0.999555, 45, 209, 60, 332
-0.999556, 49, 299, 64, 314
-0.999557, 119, 309, 134, 324
-0.999557, 265, 1, 296, 256
-0.999564, 277, 49, 292, 176
-0.999567, 107, 301, 122, 316
-0.999572, 1, 109, 128, 140
-0.999573, 181, 39, 196, 54
-0.999587, 369, 277, 496, 308
-0.999587, 55, 303, 70, 318
-0.999587, 193, 1, 208, 128
-0.999588, 351, 49, 366, 176
-0.999591, 101, 297, 116, 312
-0.999593, 185, 51, 200, 66
-0.999596, 337, 17, 352, 144
-0.999596, 113, 305, 128, 320
-0.999596, 175, 45, 190, 60
-0.999597, 129, 65, 144, 192
-0.999599, 61, 307, 76, 322
-0.999599, 369, 1, 432, 332
-0.999604, 21, 33, 36, 160
-0.999605, 347, 209, 362, 332
-0.999607, 369, 181, 496, 212
-0.999609, 75, 317, 90, 332
-0.999611, 255, 81, 270, 208
-0.999612, 117, 81, 132, 208
-0.999615, 189, 45, 204, 60
-0.999619, 67, 311, 82, 326
-0.999621, 425, 65, 456, 128
-0.999622, 15, 33, 30, 160
-0.999633, 201, 1, 232, 256
-0.999636, 1, 53, 128, 84
-0.999638, 27, 33, 42, 160
-0.999641, 353, 289, 368, 304
-0.999642, 25, 97, 88, 224
-0.999645, 99, 145, 114, 272
-0.999645, 25, 33, 56, 288
-0.999647, 271, 49, 286, 176
-0.999651, 417, 65, 448, 320
-0.999653, 295, 49, 310, 176
-0.999653, 289, 113, 304, 240
-0.999655, 91, 193, 106, 320
-0.999657, 417, 209, 432, 332
-0.999662, 111, 81, 126, 208
-0.999662, 423, 209, 438, 332
-0.999664, 13, 1, 44, 256
-0.999665, 33, 33, 48, 160
-0.999671, 189, 65, 204, 192
-0.999672, 147, 17, 162, 144
-0.999674, 425, 81, 440, 208
-0.999679, 39, 209, 54, 332
-0.99968, 39, 33, 54, 160
-0.999683, 297, 105, 328, 168
-0.999685, 189, 129, 220, 192
-0.999686, 265, 65, 280, 192
-0.999686, 49, 49, 64, 176
-0.999687, 177, 157, 304, 188
-0.999687, 297, 97, 312, 224
-0.99969, 145, 237, 272, 268
-0.999695, 17, 69, 144, 100
-0.999695, 55, 49, 70, 176
-0.999706, 105, 81, 120, 208
-0.999707, 325, 1, 340, 128
-0.999709, 193, 265, 320, 296
-0.999716, 9, 33, 24, 160
-0.999716, 135, 33, 150, 160
-0.999717, 131, 129, 146, 256
-0.999719, 61, 49, 76, 176
-0.999723, 115, 145, 130, 272
-0.999723, 423, 161, 438, 288
-0.999723, 3, 33, 18, 160
-0.999724, 141, 113, 156, 240
-0.999728, 355, 209, 370, 332
-0.999729, 121, 33, 136, 160
-0.999729, 199, 1, 214, 128
-0.999734, 249, 145, 264, 272
-0.999734, 177, 81, 192, 208
-0.999736, 235, 81, 250, 208
-0.999737, 99, 49, 114, 176
-0.999738, 153, 209, 216, 332
-0.999738, 193, 153, 256, 216
-0.999742, 209, 113, 240, 240
-0.999742, 353, 1, 368, 128
-0.999744, 147, 113, 162, 240
-0.999746, 67, 49, 82, 176
-0.999751, 89, 129, 104, 256
-0.999755, 107, 129, 122, 256
-0.999757, 201, 65, 232, 192
-0.999757, 89, 265, 120, 328
-0.999759, 301, 49, 316, 176
-0.999768, 77, 49, 92, 176
-0.999768, 377, 145, 440, 272
-0.999771, 215, 97, 230, 224
-0.999772, 207, 97, 222, 224
-0.999772, 343, 129, 358, 256
-0.999773, 21, 81, 36, 208
-0.999777, 411, 209, 426, 332
-0.999778, 99, 97, 114, 224
-0.999778, 43, 81, 58, 208
-0.999778, 93, 65, 108, 192
-0.999779, 255, 129, 270, 256
-0.999781, 263, 129, 278, 256
-0.999781, 141, 17, 156, 144
-0.999781, 85, 49, 100, 176
-0.999783, 27, 81, 42, 208
-0.999785, 429, 209, 444, 332
-0.999791, 215, 49, 230, 176
-0.999793, 441, 65, 472, 320
-0.999793, 37, 81, 52, 208
-0.999796, 455, 97, 470, 224
-0.999796, 97, 209, 112, 332
-0.999797, 247, 49, 262, 176
-0.999797, 113, 33, 128, 160
-0.999798, 269, 113, 284, 240
-0.999798, 455, 177, 470, 304
-0.999799, 221, 1, 252, 256
-0.999799, 125, 129, 140, 256
-0.9998, 195, 49, 210, 176
-0.9998, 307, 49, 322, 176
-0.999801, 245, 65, 276, 128
-0.999803, 107, 33, 122, 160
-0.999805, 153, 97, 168, 224
-0.999806, 15, 81, 30, 208
-0.999808, 243, 145, 258, 272
-0.99981, 79, 145, 94, 272
-0.999813, 201, 97, 216, 224
-0.999816, 345, 81, 360, 208
-0.999821, 171, 81, 186, 208
-0.999822, 441, 17, 456, 144
-0.999827, 349, 65, 380, 320
-0.999827, 419, 81, 434, 208
-0.99983, 97, 253, 224, 284
-0.999831, 351, 97, 366, 224
-0.999833, 195, 113, 210, 240
-0.999833, 193, 237, 320, 268
-0.999837, 429, 161, 444, 288
-0.999837, 303, 97, 318, 224
-0.999839, 161, 1, 176, 128
-0.999841, 399, 209, 414, 332
-0.999843, 127, 17, 142, 144
-0.999843, 227, 1, 242, 128
-0.999844, 229, 97, 244, 224
-0.999845, 189, 129, 204, 256
-0.99985, 9, 81, 24, 208
-0.999854, 259, 33, 274, 160
-0.999855, 241, 49, 256, 176
-0.999857, 433, 49, 448, 176
-0.999857, 85, 113, 116, 176
-0.999857, 221, 49, 236, 176
-0.999867, 447, 49, 462, 176
-0.99987, 155, 1, 170, 128
-0.999886, 317, 25, 348, 88
-0.999886, 349, 129, 380, 192
-0.999907, 369, 49, 496, 112
-0.99992, 121, 201, 184, 264
-0.999925, 213, 17, 244, 144
-0.999939, 409, 49, 472, 112
-0.999939, 433, 1, 496, 332
-0.999941, 281, 1, 312, 256
-0.999968, 265, 145, 296, 272
-1.00003, 349, 49, 380, 112
-1.00004, 145, 113, 176, 240
-1.00006, 161, 257, 224, 320
-1.00006, 317, 1, 348, 256
-1.00007, 261, 41, 292, 104
-1.00009, 421, 129, 452, 192
-1.00009, 81, 41, 144, 104
-1.00009, 209, 89, 240, 152
-1.0002, 17, 249, 48, 312
-1.00023, 241, 17, 304, 80
-1.00027, 273, 193, 336, 256
-1.00029, 377, 81, 440, 144
-1.00029, 217, 145, 248, 208
-1.00033, 437, 97, 468, 160
-1.00034, 153, 201, 216, 264
-1.00034, 293, 1, 324, 256
-1.00037, 93, 209, 124, 332
-1.00038, 437, 49, 468, 176
-1.00038, 349, 193, 380, 256
-1.00038, 333, 225, 364, 288
-1.00039, 273, 1, 304, 128
-1.00041, 77, 65, 108, 128
-1.00046, 349, 25, 380, 88
-1.00047, 405, 33, 436, 288
-1.00056, 273, 49, 304, 112
-1.00056, 441, 209, 472, 272
-1.00058, 441, 169, 472, 232
-1.00063, 249, 161, 312, 224
-1.00068, 153, 233, 216, 296
-1.00068, 377, 105, 440, 168
-1.00071, 369, 9, 496, 72
-1.00072, 405, 233, 436, 296
-1.00074, 349, 153, 380, 216
-1.00075, 377, 81, 440, 208
-1.00077, 433, 145, 496, 208
-1.00079, 225, 17, 256, 144
-1.0008, 121, 225, 184, 288
-1.0008, 305, 1, 336, 256
-1.00087, 433, 177, 496, 240
-1.00088, 57, 41, 120, 104
-1.00093, 225, 265, 288, 328
-1.00094, 461, 65, 492, 320
-1.00097, 433, 113, 496, 240
-1.00098, 241, 193, 304, 256
-1.00104, 285, 73, 316, 136
-1.00108, 281, 25, 312, 88
-1.00108, 193, 89, 224, 152
-1.0011, 217, 217, 280, 280
-1.00112, 205, 1, 236, 64
-1.00116, 441, 249, 472, 312
-1.00117, 213, 49, 244, 112
-1.00117, 257, 73, 288, 136
-1.00123, 345, 65, 408, 320
-1.00124, 385, 161, 448, 224
-1.00132, 393, 33, 424, 288
-1.00137, 385, 201, 448, 264
-1.00141, 65, 145, 96, 272
-1.00141, 9, 41, 40, 104
-1.00141, 89, 137, 120, 200
-1.00148, 177, 145, 208, 272
-1.00154, 373, 65, 404, 320
-1.00156, 221, 113, 252, 240
-1.00157, 257, 1, 288, 128
-1.00159, 293, 1, 324, 128
-1.00164, 105, 49, 136, 112
-1.00164, 41, 97, 72, 224
-1.00165, 429, 97, 460, 224
-1.00166, 405, 121, 436, 184
-1.00168, 361, 1, 392, 256
-1.00168, 425, 153, 456, 216
-1.00168, 173, 113, 204, 176
-1.00168, 145, 25, 176, 88
-1.00177, 89, 201, 120, 264
-1.00181, 193, 193, 256, 320
-1.00184, 405, 81, 436, 208
-1.00187, 273, 209, 336, 332
-1.00189, 385, 209, 416, 332
-1.00204, 433, 65, 496, 320
-1.00244, 265, 145, 328, 272
-1.00246, 409, 161, 440, 288
-1.00249, 49, 1, 80, 128
-1.00257, 105, 1, 136, 128
-1.0026, 53, 97, 84, 224
-1.00265, 65, 97, 96, 224
-1.00272, 69, 1, 100, 128
-1.00282, 393, 1, 456, 128
-1.00296, 461, 161, 492, 288
-1.00298, 277, 145, 308, 272
-1.00302, 453, 97, 484, 224
-1.00302, 165, 129, 196, 256
-1.00359, 377, 65, 440, 320
-1.00371, 413, 33, 444, 160
-1.00373, 453, 209, 484, 332
-1.00395, 237, 209, 268, 332
-1.00403, 401, 17, 432, 144
-1.00404, 309, 97, 340, 224
-1.00406, 197, 193, 228, 320
-1.00409, 305, 1, 336, 128
-1.00409, 449, 1, 480, 128
-1.00411, 53, 161, 84, 288
-1.00412, 217, 193, 280, 320
-1.00417, 217, 209, 248, 332
-1.00432, 117, 209, 148, 332
-1.00438, 161, 193, 192, 320
-1.00441, 293, 145, 324, 272
-1.00443, 373, 209, 404, 332
-1.00447, 129, 193, 192, 320
-1.00459, 141, 177, 172, 304
-1.0048, 317, 209, 348, 332
-1.00506, 449, 49, 480, 176
-1.00511, 317, 49, 348, 176
-1.00516, 249, 193, 280, 320
-1.00526, 417, 1, 480, 128
-1.00526, 305, 209, 336, 332
-1.0054, 185, 209, 216, 332
-1.00543, 305, 161, 336, 288
-1.00553, 221, 161, 252, 288
-1.00566, 365, 1, 396, 128
-1.00572, 209, 161, 240, 288
-1.00577, 105, 209, 136, 332
-1.00577, 433, 65, 496, 192
-1.00578, 437, 1, 468, 128
-1.00583, 277, 193, 308, 320
-1.00586, 173, 209, 204, 332
-1.00592, 129, 209, 160, 332
-1.00596, 461, 49, 492, 176
-1.00622, 5, 129, 36, 256
-1.00622, 17, 129, 48, 256
-1.00642, 241, 193, 304, 320
-1.00644, 261, 193, 292, 320
-1.00646, 369, 1, 432, 128
-1.0068, 397, 161, 428, 288
-1.00685, 29, 129, 60, 256
-1.01186, 9, 161, 72, 288
