1966
-0.357573, 1, 225, 364, 480
-0.384138, 1, 129, 364, 384
-0.419443, 1, 1, 364, 500
-0.505661, 1, 33, 364, 288
-0.53676, 1, 97, 256, 352
-0.573483, 1, 1, 256, 500
-0.590451, 1, 193, 256, 448
-0.597257, 97, 1, 352, 500
-0.636137, 97, 225, 352, 480
-0.702816, 97, 129, 352, 384
-0.764466, 97, 33, 352, 288
-0.823587, 33, 97, 160, 352
-0.841148, 65, 193, 192, 448
-0.853618, 113, 193, 240, 448
-0.862473, 1, 129, 364, 256
-0.866274, 241, 1, 364, 500
-0.867151, 81, 97, 208, 352
-0.868938, 161, 225, 288, 480
-0.871077, 241, 97, 364, 352
-0.871721, 1, 225, 128, 480
-0.87305, 1, 1, 256, 256
-0.876891, 1, 209, 364, 336
-0.881333, 225, 193, 352, 448
-0.883056, 33, 1, 160, 500
-0.892313, 1, 337, 364, 464
-0.893752, 81, 1, 208, 500
-0.898515, 1, 289, 364, 416
-0.901078, 17, 1, 144, 256
-0.905137, 1, 145, 256, 272
-0.905192, 1, 81, 364, 208
-0.906525, 129, 65, 256, 320
-0.908649, 33, 209, 288, 336
-0.911892, 177, 1, 304, 500
-0.913538, 129, 1, 256, 500
-0.919314, 97, 321, 352, 448
-0.919679, 177, 129, 304, 384
-0.920514, 17, 145, 144, 272
-0.923658, 81, 161, 144, 288
-0.929149, 97, 145, 352, 272
-0.929275, 1, 97, 256, 224
-0.93165, 97, 369, 352, 496
-0.932872, 57, 129, 120, 256
-0.934248, 105, 113, 168, 240
-0.935046, 129, 337, 256, 464
-0.935773, 161, 289, 288, 416
-0.936302, 97, 97, 352, 224
-0.937097, 41, 193, 104, 320
-0.93758, 153, 321, 216, 448
-0.937963, 1, 353, 256, 480
-0.938242, 1, 257, 256, 384
-0.938769, 17, 193, 144, 320
-0.939355, 33, 241, 160, 368
-0.939405, 33, 97, 160, 224
-0.939425, 25, 145, 88, 272
-0.9403, 65, 193, 192, 320
-0.942723, 105, 161, 168, 288
-0.942728, 241, 145, 364, 272
-0.943936, 97, 273, 352, 400
-0.945058, 1, 305, 256, 432
-0.947242, 209, 289, 336, 416
-0.948011, 65, 145, 192, 272
-0.948049, 153, 329, 216, 392
-0.948112, 41, 81, 104, 208
-0.948305, 105, 209, 168, 336
-0.949, 25, 169, 88, 232
-0.949479, 177, 337, 304, 464
-0.949663, 193, 289, 256, 416
-0.949911, 113, 209, 240, 336
-0.950071, 129, 321, 192, 448
-0.951588, 225, 337, 288, 464
-0.951735, 17, 193, 80, 320
-0.951748, 65, 1, 192, 256
-0.951847, 129, 369, 192, 496
-0.952406, 225, 1, 352, 256
-0.952602, 25, 201, 88, 264
-0.952682, 65, 81, 128, 208
-0.95308, 65, 353, 192, 480
-0.953094, 89, 233, 152, 296
-0.953762, 89, 177, 152, 240
-0.953885, 41, 137, 104, 200
-0.954099, 65, 49, 320, 176
-0.954315, 105, 369, 168, 496
-0.954349, 97, 289, 224, 416
-0.954577, 241, 193, 364, 320
-0.954695, 177, 33, 304, 288
-0.95558, 65, 137, 128, 200
-0.955855, 113, 161, 240, 288
-0.955908, 153, 273, 216, 400
-0.956008, 17, 97, 80, 224
-0.956239, 297, 81, 360, 208
-0.956261, 49, 209, 112, 272
-0.956279, 217, 289, 280, 416
-0.956496, 1, 33, 364, 160
-0.957946, 121, 353, 184, 416
-0.958529, 65, 169, 128, 232
-0.958609, 225, 337, 352, 464
-0.958762, 177, 209, 304, 336
-0.958808, 209, 209, 272, 336
-0.958952, 81, 241, 144, 368
-0.959113, 129, 209, 192, 336
-0.95922, 49, 241, 112, 304
-0.95954, 49, 241, 112, 368
-0.959682, 257, 129, 320, 256
-0.960296, 81, 353, 144, 480
-0.96033, 65, 97, 128, 352
-0.960517, 89, 153, 152, 216
-0.960535, 81, 97, 208, 224
-0.960884, 289, 161, 352, 288
-0.961279, 17, 353, 144, 480
-0.961445, 33, 169, 64, 232
-0.961521, 105, 113, 168, 176
-0.961642, 249, 321, 312, 448
-0.961652, 121, 217, 184, 280
-0.961798, 201, 337, 264, 464
-0.962134, 1, 105, 64, 168
-0.962273, 97, 433, 160, 496
-0.962486, 1, 145, 64, 272
-0.963343, 17, 137, 144, 200
-0.96365, 241, 241, 364, 368
-0.964124, 241, 97, 364, 224
-0.964224, 33, 193, 160, 256
-0.964255, 193, 161, 320, 288
-0.964354, 145, 353, 208, 416
-0.964627, 109, 161, 140, 288
-0.96491, 161, 225, 224, 352
-0.964979, 201, 345, 264, 408
-0.965343, 1, 193, 64, 256
-0.965372, 233, 161, 296, 288
-0.965465, 49, 193, 80, 256
-0.965715, 233, 241, 296, 368
-0.966046, 129, 145, 192, 272
-0.966122, 297, 169, 360, 232
-0.966384, 185, 297, 248, 360
-0.966629, 185, 209, 248, 336
-0.966669, 105, 313, 168, 376
-0.96673, 177, 337, 240, 464
-0.966896, 89, 97, 152, 352
-0.967117, 273, 289, 336, 416
-0.967142, 101, 145, 132, 208
-0.967241, 97, 97, 128, 224
-0.967749, 45, 145, 76, 272
-0.967758, 1, 321, 64, 448
-0.968259, 297, 89, 360, 152
-0.968353, 153, 369, 216, 496
-0.968421, 89, 65, 152, 192
-0.968432, 113, 185, 176, 248
-0.968456, 97, 193, 128, 320
-0.96854, 273, 137, 336, 200
-0.968568, 33, 169, 160, 232
-0.968738, 25, 225, 88, 288
-0.9688, 81, 97, 144, 160
-0.968854, 145, 297, 208, 360
-0.968884, 33, 145, 64, 272
-0.969408, 25, 97, 88, 352
-0.969468, 1, 305, 128, 432
-0.969525, 113, 161, 176, 416
-0.969759, 33, 233, 160, 296
-0.969792, 249, 161, 312, 224
-0.969829, 113, 153, 176, 216
-0.970481, 105, 257, 168, 384
-0.97051, 61, 217, 92, 280
-0.97061, 49, 289, 176, 416
-0.971159, 217, 377, 280, 440
-0.971225, 201, 193, 264, 448
-0.971267, 89, 377, 152, 440
-0.971313, 113, 409, 176, 472
-0.971335, 185, 321, 248, 384
-0.971525, 37, 97, 68, 224
-0.971897, 149, 305, 180, 432
-0.971923, 81, 265, 144, 328
-0.971995, 89, 225, 152, 480
-0.972006, 241, 345, 304, 408
-0.972077, 297, 193, 360, 256
-0.972148, 177, 345, 240, 408
-0.972395, 129, 113, 256, 240
-0.972453, 129, 321, 192, 384
-0.972513, 273, 161, 336, 224
-0.972673, 25, 97, 88, 160
-0.972784, 121, 377, 184, 440
-0.973021, 1, 169, 64, 232
-0.973059, 17, 145, 80, 208
-0.973093, 73, 209, 136, 272
-0.973231, 129, 273, 192, 400
-0.973265, 25, 193, 88, 448
-0.973282, 49, 89, 112, 152
-0.97335, 257, 177, 320, 304
-0.973393, 113, 177, 144, 240
-0.973447, 165, 329, 196, 392
-0.973464, 49, 193, 80, 320
-0.973567, 273, 81, 336, 208
-0.97358, 201, 217, 264, 280
-0.973611, 57, 353, 120, 480
-0.973938, 281, 209, 344, 336
-0.97405, 105, 321, 168, 448
-0.974138, 161, 225, 224, 480
-0.97429, 193, 417, 256, 480
-0.974426, 113, 241, 176, 304
-0.974495, 33, 289, 96, 416
-0.974579, 17, 97, 144, 160
-0.974628, 57, 145, 88, 272
-0.974652, 89, 353, 152, 416
-0.974859, 81, 225, 208, 288
-0.974935, 97, 145, 128, 272
-0.975152, 1, 65, 64, 320
-0.975244, 33, 145, 64, 208
-0.975321, 145, 361, 272, 424
-0.975411, 145, 337, 272, 400
-0.975431, 125, 225, 156, 288
-0.975487, 249, 137, 312, 200
-0.975571, 209, 161, 272, 288
-0.975683, 89, 129, 120, 192
-0.975694, 225, 313, 288, 376
-0.976, 37, 201, 68, 264
-0.97606, 65, 225, 128, 480
-0.976075, 257, 241, 320, 368
-0.976271, 93, 233, 124, 296
-0.976295, 73, 241, 104, 304
-0.976315, 225, 337, 352, 400
-0.976534, 145, 313, 272, 376
-0.976601, 45, 137, 76, 200
-0.976647, 241, 369, 304, 432
-0.976757, 65, 193, 96, 320
-0.976767, 249, 369, 312, 496
-0.976959, 113, 153, 144, 216
-0.977146, 149, 353, 180, 416
-0.977206, 245, 337, 276, 464
-0.977215, 225, 281, 288, 344
-0.977233, 85, 161, 116, 288
-0.977607, 137, 337, 168, 464
-0.977612, 233, 161, 296, 416
-0.977752, 65, 353, 192, 416
-0.977783, 97, 209, 160, 272
-0.977831, 273, 185, 336, 248
-0.97791, 153, 321, 184, 384
-0.97807, 113, 401, 240, 464
-0.978165, 121, 161, 152, 288
-0.978348, 85, 113, 116, 240
-0.97838, 125, 369, 156, 496
-0.978402, 109, 97, 140, 224
-0.978425, 73, 209, 104, 272
-0.978452, 25, 241, 88, 368
-0.978479, 77, 225, 108, 352
-0.978707, 281, 65, 344, 320
-0.978853, 281, 321, 344, 384
-0.978934, 241, 257, 304, 500
-0.97895, 153, 377, 216, 440
-0.978992, 241, 185, 364, 248
-0.979008, 97, 329, 224, 392
-0.979024, 93, 169, 124, 232
-0.979057, 273, 113, 336, 176
-0.979065, 305, 241, 364, 368
-0.979184, 65, 129, 192, 192
-0.979201, 73, 97, 104, 224
-0.979253, 249, 249, 312, 312
-0.979384, 113, 425, 144, 488
-0.979497, 21, 161, 52, 288
-0.979581, 289, 337, 352, 464
-0.979685, 161, 321, 192, 448
-0.979803, 185, 321, 216, 384
-0.979882, 81, 153, 112, 216
-0.980116, 293, 97, 324, 224
-0.980128, 161, 289, 288, 352
-0.980156, 297, 249, 360, 312
-0.98019, 305, 65, 364, 320
-0.980207, 25, 201, 56, 264
-0.980236, 105, 233, 136, 296
-0.980274, 33, 257, 160, 320
-0.980336, 1, 49, 128, 176
-0.980358, 253, 161, 284, 224
-0.980364, 229, 273, 260, 400
-0.980446, 33, 337, 96, 464
-0.980514, 233, 337, 264, 464
-0.98061, 193, 369, 256, 432
-0.980617, 333, 193, 364, 256
-0.980791, 53, 81, 84, 208
-0.980806, 113, 353, 144, 480
-0.980845, 133, 129, 164, 256
-0.980874, 49, 233, 80, 296
-0.980884, 121, 257, 184, 500
-0.980911, 201, 289, 232, 416
-0.98093, 237, 345, 268, 408
-0.980947, 101, 193, 132, 256
-0.981039, 209, 377, 336, 440
-0.98124, 97, 425, 224, 488
-0.981274, 193, 393, 256, 456
-0.981336, 65, 105, 192, 168
-0.98136, 113, 65, 176, 320
-0.981376, 49, 377, 176, 440
-0.98142, 225, 401, 288, 464
-0.98144, 225, 313, 352, 376
-0.98155, 73, 129, 104, 192
-0.981633, 81, 201, 208, 264
-0.981645, 225, 177, 288, 240
-0.981741, 145, 217, 208, 280
-0.981859, 273, 217, 336, 280
-0.981878, 241, 209, 364, 272
-0.981952, 117, 209, 148, 336
-0.982005, 45, 97, 76, 160
-0.982007, 121, 401, 152, 464
-0.982106, 97, 249, 224, 312
-0.982184, 33, 369, 96, 432
-0.98225, 109, 257, 140, 320
-0.982298, 225, 225, 288, 288
-0.982328, 37, 193, 68, 320
-0.982481, 313, 81, 344, 208
-0.982565, 49, 113, 112, 176
-0.982612, 173, 305, 204, 432
-0.982614, 137, 361, 168, 424
-0.982616, 97, 153, 224, 216
-0.982618, 97, 377, 224, 440
-0.982628, 53, 161, 84, 224
-0.982671, 241, 153, 364, 216
-0.982684, 177, 217, 240, 280
-0.982735, 121, 113, 152, 240
-0.982757, 249, 161, 280, 288
-0.982758, 161, 225, 288, 288
-0.982879, 193, 113, 320, 240
-0.98291, 217, 433, 280, 496
-0.982979, 25, 97, 56, 224
-0.983002, 249, 321, 312, 384
-0.983088, 161, 273, 192, 400
-0.983117, 65, 409, 128, 472
-0.983196, 257, 337, 288, 464
-0.983251, 129, 193, 160, 256
-0.983332, 209, 273, 336, 336
-0.983335, 49, 433, 176, 496
-0.983406, 241, 273, 272, 400
-0.983448, 189, 289, 220, 416
-0.98346, 129, 433, 192, 496
-0.983603, 333, 177, 364, 304
-0.983638, 321, 209, 352, 272
-0.983685, 193, 273, 256, 336
-0.983695, 225, 153, 288, 216
-0.983697, 65, 49, 192, 176
-0.983748, 65, 321, 128, 384
-0.983766, 217, 337, 248, 464
-0.983794, 1, 225, 64, 288
-0.983862, 249, 185, 312, 248
-0.983905, 129, 185, 256, 248
-0.983985, 153, 161, 216, 288
-0.984039, 193, 401, 320, 464
-0.984057, 81, 305, 144, 432
-0.984174, 89, 241, 120, 368
-0.984177, 101, 433, 132, 496
-0.984202, 1, 161, 64, 416
-0.984206, 309, 81, 340, 144
-0.984245, 185, 337, 216, 464
-0.984292, 317, 169, 348, 232
-0.984373, 193, 65, 320, 192
-0.984644, 265, 345, 328, 408
-0.984659, 53, 241, 84, 368
-0.984702, 13, 97, 44, 224
-0.984713, 85, 97, 116, 160
-0.984737, 73, 145, 104, 272
-0.984767, 61, 193, 92, 256
-0.984776, 101, 241, 132, 368
-0.984853, 81, 177, 208, 240
-0.984873, 237, 153, 268, 216
-0.984922, 149, 353, 180, 480
-0.98494, 293, 97, 324, 160
-0.984944, 57, 265, 120, 328
-0.984993, 277, 169, 308, 232
-0.985054, 233, 209, 264, 336
-0.98514, 9, 369, 72, 432
-0.985163, 89, 409, 152, 472
-0.985284, 73, 433, 136, 496
-0.985312, 249, 337, 280, 400
-0.985321, 61, 129, 92, 192
-0.985362, 297, 217, 360, 280
-0.985395, 113, 105, 144, 168
-0.985412, 277, 145, 308, 208
-0.98542, 309, 161, 340, 288
-0.985441, 229, 281, 260, 344
-0.985452, 217, 289, 248, 416
-0.985483, 225, 201, 288, 264
-0.985532, 153, 241, 216, 304
-0.985537, 97, 289, 160, 352
-0.985584, 121, 249, 152, 312
-0.985633, 253, 257, 284, 384
-0.985664, 233, 161, 264, 288
-0.985715, 61, 241, 92, 304
-0.9858, 297, 289, 360, 416
-0.985819, 277, 113, 308, 240
-0.985824, 129, 209, 160, 336
-0.985834, 193, 209, 224, 336
-0.985838, 125, 377, 156, 440
-0.98589, 249, 209, 312, 272
-0.985965, 65, 353, 128, 416
-0.985987, 81, 1, 144, 500
-0.985998, 229, 321, 260, 384
-0.986019, 273, 161, 336, 416
-0.986058, 265, 153, 296, 216
-0.98613, 113, 129, 240, 192
-0.986137, 301, 177, 332, 240
-0.986181, 161, 433, 288, 496
-0.986221, 181, 297, 212, 360
-0.98624, 17, 313, 80, 376
-0.986347, 321, 89, 352, 152
-0.986361, 281, 369, 344, 432
-0.986365, 101, 97, 132, 160
-0.986391, 113, 265, 176, 328
-0.986449, 181, 241, 212, 368
-0.986452, 33, 1, 96, 500
-0.986481, 165, 225, 196, 352
-0.986502, 241, 249, 364, 312
-0.986508, 21, 177, 52, 240
-0.986599, 209, 401, 240, 464
-0.986628, 85, 65, 116, 192
-0.986669, 101, 337, 132, 464
-0.986742, 209, 289, 240, 352
-0.98679, 177, 345, 208, 408
-0.986811, 1, 113, 32, 240
-0.986815, 129, 65, 256, 192
-0.986864, 245, 369, 276, 432
-0.986951, 273, 273, 336, 336
-0.986994, 273, 297, 336, 360
-0.986997, 297, 1, 360, 500
-0.987027, 205, 209, 236, 336
-0.987068, 229, 377, 260, 440
-0.98713, 297, 153, 328, 216
-0.98713, 197, 345, 228, 408
-0.98714, 289, 177, 320, 240
-0.987166, 33, 1, 96, 256
-0.987199, 177, 241, 208, 304
-0.987202, 141, 321, 172, 384
-0.987204, 161, 265, 224, 328
-0.987274, 1, 241, 64, 368
-0.987349, 241, 81, 304, 208
-0.987388, 225, 345, 256, 408
-0.987421, 305, 337, 364, 400
-0.987479, 41, 337, 104, 400
-0.987486, 137, 385, 168, 448
-0.987534, 137, 185, 200, 248
-0.987591, 129, 97, 192, 224
-0.987678, 297, 161, 360, 416
-0.98772, 13, 105, 44, 168
-0.987736, 49, 433, 112, 496
-0.987759, 125, 425, 156, 488
-0.987782, 65, 1, 128, 256
-0.987788, 65, 241, 96, 368
-0.987801, 225, 257, 288, 320
-0.987802, 297, 145, 360, 208
-0.98783, 37, 225, 68, 288
-0.987848, 297, 161, 328, 288
-0.98789, 333, 217, 364, 280
-0.987903, 241, 129, 364, 192
-0.987907, 1, 113, 32, 176
-0.987921, 149, 377, 180, 440
-0.987934, 105, 1, 168, 500
-0.98797, 25, 105, 56, 168
-0.987979, 189, 225, 220, 288
-0.987989, 197, 289, 228, 352
-0.987993, 1, 49, 64, 176
-0.988011, 249, 273, 312, 336
-0.988013, 193, 201, 320, 264
-0.988023, 49, 409, 176, 472
-0.988109, 97, 257, 128, 320
-0.988125, 221, 209, 252, 336
-0.988125, 201, 193, 264, 256
-0.988189, 81, 305, 208, 368
-0.988223, 269, 305, 300, 432
-0.988246, 57, 1, 120, 500
-0.98825, 29, 321, 60, 448
-0.988259, 249, 1, 312, 500
-0.988278, 33, 201, 96, 232
-0.988291, 157, 297, 188, 360
-0.988317, 1, 313, 128, 376
-0.988395, 273, 1, 336, 500
-0.988418, 201, 337, 232, 464
-0.988433, 13, 305, 44, 432
-0.988543, 89, 1, 152, 256
-0.988647, 81, 241, 144, 272
-0.988651, 97, 181, 160, 212
-0.988727, 57, 89, 88, 152
-0.988751, 81, 281, 208, 344
-0.988783, 137, 273, 200, 336
-0.988877, 49, 221, 112, 252
-0.988887, 277, 121, 308, 184
-0.988924, 305, 361, 364, 424
-0.98898, 113, 377, 144, 440
-0.989011, 129, 313, 160, 376
-0.989053, 57, 137, 120, 168
-0.989105, 145, 249, 272, 312
-0.989134, 321, 161, 352, 288
-0.989136, 153, 129, 216, 384
-0.989138, 325, 81, 356, 208
-0.989176, 305, 281, 364, 344
-0.989206, 145, 217, 176, 280
-0.989216, 185, 265, 216, 328
-0.989232, 261, 129, 292, 256
-0.989335, 257, 81, 320, 144
-0.989371, 89, 169, 152, 200
-0.989394, 21, 153, 52, 216
-0.989403, 161, 361, 192, 424
-0.989404, 57, 289, 120, 416
-0.989426, 25, 189, 88, 220
-0.98943, 97, 193, 160, 224
-0.989436, 193, 169, 320, 232
-0.989484, 213, 217, 244, 280
-0.989546, 89, 329, 120, 392
-0.989561, 241, 89, 364, 152
-0.989701, 145, 353, 208, 384
-0.989703, 81, 253, 144, 284
-0.989713, 65, 337, 96, 464
-0.989749, 145, 341, 208, 372
-0.989772, 133, 145, 164, 208
-0.989772, 125, 321, 156, 448
-0.989814, 65, 161, 320, 224
-0.989838, 85, 265, 116, 328
-0.989885, 305, 65, 364, 128
-0.989902, 145, 329, 208, 360
-0.989906, 113, 201, 144, 264
-0.989916, 121, 361, 184, 392
-0.989918, 17, 221, 80, 252
-0.989927, 217, 377, 248, 440
-0.989935, 213, 337, 244, 400
-0.989944, 1, 201, 256, 264
-0.989953, 129, 1, 192, 500
-0.989965, 97, 337, 352, 400
-0.989974, 57, 189, 120, 220
-0.989989, 137, 401, 200, 464
-0.990017, 1, 1, 64, 500
-0.990149, 25, 233, 88, 264
-0.990155, 77, 273, 108, 400
-0.990171, 253, 313, 284, 376
-0.990184, 9, 209, 72, 240
-0.990221, 97, 457, 160, 488
-0.990238, 249, 393, 312, 456
-0.990242, 145, 161, 272, 224
-0.990257, 121, 225, 184, 256
-0.990286, 233, 113, 296, 176
-0.990289, 305, 213, 364, 244
-0.990298, 261, 177, 292, 304
-0.990361, 193, 145, 320, 208
-0.990383, 41, 245, 104, 276
-0.990385, 161, 193, 224, 256
-0.990403, 197, 265, 228, 328
-0.990415, 209, 97, 272, 352
-0.990426, 41, 33, 104, 160
-0.990471, 1, 137, 256, 200
-0.990472, 97, 445, 160, 476
-0.990504, 17, 353, 144, 416
-0.99051, 33, 145, 96, 176
-0.990517, 253, 137, 284, 200
-0.990531, 137, 97, 200, 160
-0.990537, 81, 157, 144, 188
-0.990569, 125, 169, 156, 232
-0.990574, 281, 65, 344, 128
-0.990577, 73, 73, 136, 136
-0.99058, 65, 225, 320, 288
-0.990606, 25, 177, 88, 208
-0.990631, 217, 113, 280, 240
-0.99065, 145, 257, 176, 384
-0.990659, 1, 117, 64, 148
-0.99066, 129, 129, 192, 192
-0.990673, 177, 329, 240, 360
-0.990683, 81, 273, 144, 304
-0.990703, 249, 297, 312, 360
-0.990714, 105, 345, 136, 408
-0.990723, 25, 369, 56, 432
-0.99074, 201, 249, 264, 312
-0.990766, 297, 33, 360, 160
-0.990844, 125, 345, 156, 408
-0.990853, 265, 257, 328, 500
-0.990864, 153, 433, 216, 496
-0.990865, 305, 97, 364, 128
-0.990872, 25, 157, 88, 188
-0.990884, 241, 281, 272, 344
-0.990885, 201, 225, 264, 256
-0.990886, 285, 161, 316, 288
-0.990897, 221, 401, 252, 464
-0.990908, 249, 153, 312, 184
-0.990929, 101, 121, 132, 184
-0.990932, 273, 173, 336, 204
-0.990933, 57, 233, 120, 264
-0.990944, 233, 185, 264, 248
-0.990953, 289, 161, 352, 192
-0.990954, 57, 161, 120, 192
-0.990984, 185, 341, 248, 372
-0.990993, 97, 229, 160, 260
-0.991, 137, 161, 200, 224
-0.991021, 41, 97, 104, 128
-0.991029, 297, 197, 360, 228
-0.991042, 241, 225, 272, 288
-0.99105, 17, 73, 80, 136
-0.991052, 113, 161, 176, 192
-0.991063, 49, 65, 112, 128
-0.991088, 81, 145, 144, 176
-0.991092, 225, 345, 288, 376
-0.991102, 133, 121, 164, 184
-0.991105, 65, 177, 128, 208
-0.991108, 113, 345, 176, 376
-0.991127, 249, 165, 312, 196
-0.991149, 49, 297, 112, 360
-0.991159, 1, 197, 64, 228
-0.991162, 65, 201, 128, 232
-0.991169, 241, 377, 304, 408
-0.991171, 129, 461, 192, 492
-0.991173, 121, 173, 184, 204
-0.991198, 317, 209, 348, 336
-0.991202, 297, 173, 360, 204
-0.991225, 105, 133, 168, 164
-0.991245, 49, 261, 112, 292
-0.99126, 193, 89, 320, 152
-0.99127, 169, 353, 232, 384
-0.991315, 257, 361, 288, 424
-0.991315, 233, 401, 264, 464
-0.991318, 277, 257, 308, 384
-0.991323, 97, 205, 160, 236
-0.991331, 273, 241, 336, 304
-0.991334, 81, 101, 144, 132
-0.991337, 201, 297, 264, 328
-0.991407, 89, 353, 120, 480
-0.991452, 261, 337, 292, 400
-0.991458, 105, 317, 168, 348
-0.991459, 105, 433, 168, 464
-0.991483, 145, 317, 208, 348
-0.991495, 169, 409, 232, 472
-0.991496, 1, 225, 364, 288
-0.991509, 273, 149, 336, 180
-0.991523, 105, 265, 168, 296
-0.991542, 25, 209, 56, 336
-0.991576, 289, 109, 352, 140
-0.99158, 1, 169, 64, 200
-0.991583, 129, 189, 192, 220
-0.991587, 225, 329, 288, 360
-0.991588, 169, 297, 200, 360
-0.99159, 129, 385, 192, 416
-0.991591, 329, 169, 360, 232
-0.991627, 121, 253, 184, 284
-0.991637, 249, 177, 312, 208
-0.991645, 201, 217, 232, 280
-0.991655, 333, 225, 364, 352
-0.991666, 105, 145, 168, 176
-0.991672, 193, 369, 256, 400
-0.991693, 145, 193, 176, 320
-0.991701, 305, 201, 336, 264
-0.991709, 25, 393, 88, 456
-0.991711, 309, 145, 340, 208
-0.991719, 101, 321, 132, 384
-0.991734, 201, 353, 264, 384
-0.99174, 37, 369, 68, 432
-0.991745, 289, 333, 352, 364
-0.991746, 121, 373, 184, 404
-0.991753, 33, 369, 288, 432
-0.991772, 9, 369, 72, 496
-0.991777, 153, 365, 216, 396
-0.991782, 245, 185, 276, 248
-0.991789, 1, 193, 364, 256
-0.991794, 281, 217, 344, 248
-0.991818, 129, 89, 256, 152
-0.991819, 113, 241, 176, 272
-0.99183, 129, 213, 192, 244
-0.991834, 17, 101, 80, 132
-0.991862, 73, 97, 104, 160
-0.991863, 9, 381, 72, 412
-0.991869, 89, 381, 152, 412
-0.991869, 73, 461, 136, 492
-0.991884, 305, 185, 364, 216
-0.991885, 153, 381, 216, 412
-0.991885, 217, 385, 280, 416
-0.991887, 121, 405, 184, 436
-0.991912, 1, 185, 64, 216
-0.991913, 97, 121, 160, 152
-0.991929, 1, 153, 364, 216
-0.991933, 217, 313, 248, 376
-0.99196, 33, 173, 64, 204
-0.991963, 57, 377, 120, 440
-0.991963, 113, 417, 176, 448
-0.991965, 225, 293, 288, 324
-0.991983, 197, 409, 228, 472
-0.991995, 249, 341, 312, 372
-0.992007, 185, 309, 248, 340
-0.992014, 97, 217, 160, 248
-0.992025, 257, 209, 320, 240
-0.992034, 25, 341, 88, 372
-0.992039, 257, 65, 320, 320
-0.992043, 225, 161, 288, 192
-0.992045, 121, 329, 184, 360
-0.992047, 321, 297, 352, 360
-0.99207, 45, 213, 76, 244
-0.992088, 1, 345, 64, 408
-0.992096, 129, 201, 192, 232
-0.992113, 201, 273, 264, 304
-0.992131, 93, 141, 124, 172
-0.992143, 53, 201, 84, 232
-0.992156, 193, 433, 256, 464
-0.992172, 1, 433, 128, 496
-0.992174, 117, 185, 148, 216
-0.992183, 301, 305, 332, 432
-0.992187, 273, 193, 336, 224
-0.992195, 209, 409, 272, 440
-0.992215, 101, 177, 132, 208
-0.99224, 65, 333, 128, 364
-0.992242, 225, 189, 288, 220
-0.992249, 137, 297, 200, 328
-0.992249, 217, 373, 280, 404
-0.992262, 273, 193, 304, 320
-0.992273, 305, 225, 364, 256
-0.992273, 37, 185, 68, 216
-0.99228, 1, 129, 64, 160
-0.992285, 33, 377, 96, 408
-0.992294, 257, 257, 288, 320
-0.992303, 65, 437, 128, 468
-0.992304, 201, 321, 232, 384
-0.992307, 105, 469, 168, 500
-0.992312, 249, 277, 312, 308
-0.992312, 145, 237, 208, 268
-0.992314, 101, 161, 132, 192
-0.992318, 81, 133, 144, 164
-0.992321, 177, 293, 240, 324
-0.992328, 57, 273, 120, 304
-0.99233, 89, 421, 152, 452
-0.992333, 193, 421, 256, 452
-0.992333, 281, 281, 344, 312
-0.99234, 105, 393, 168, 424
-0.992342, 1, 377, 128, 440
-0.992372, 177, 229, 240, 260
-0.992378, 1, 345, 64, 376
-0.992382, 57, 149, 120, 180
-0.992382, 97, 129, 352, 192
-0.992392, 193, 249, 320, 312
-0.992401, 77, 337, 108, 464
-0.992404, 1, 73, 128, 136
-0.992408, 289, 257, 352, 500
-0.992409, 41, 145, 72, 176
-0.992429, 33, 133, 96, 164
-0.992434, 97, 357, 160, 388
-0.992441, 281, 97, 344, 128
-0.992447, 177, 129, 240, 384
-0.99245, 45, 225, 76, 256
-0.992461, 73, 221, 136, 252
-0.992464, 33, 201, 64, 232
-0.992483, 9, 321, 72, 352
-0.992486, 241, 313, 272, 376
-0.99249, 61, 221, 92, 252
-0.992492, 225, 261, 288, 292
-0.992504, 49, 73, 176, 136
-0.992531, 161, 333, 192, 364
-0.992532, 29, 161, 60, 192
-0.992535, 33, 249, 288, 312
-0.992537, 325, 213, 356, 244
-0.992539, 73, 133, 104, 164
-0.99255, 141, 281, 172, 344
-0.992566, 149, 145, 180, 272
-0.992579, 149, 353, 180, 384
-0.992601, 333, 201, 364, 232
-0.992607, 105, 241, 136, 272
-0.992628, 121, 233, 152, 264
-0.992633, 77, 265, 108, 296
-0.992635, 33, 281, 160, 344
-0.992639, 49, 329, 176, 392
-0.992652, 49, 237, 80, 268
-0.992653, 93, 237, 124, 268
-0.992655, 33, 221, 64, 252
-0.992664, 81, 153, 112, 184
-0.99268, 225, 1, 288, 500
-0.99269, 165, 345, 196, 376
-0.992695, 53, 137, 84, 168
-0.992711, 65, 249, 96, 280
-0.992718, 313, 93, 344, 124
-0.992726, 117, 197, 148, 228
-0.992726, 149, 325, 180, 356
-0.992729, 125, 409, 156, 440
-0.992733, 177, 145, 240, 272
-0.992744, 21, 109, 52, 140
-0.992755, 17, 149, 144, 180
-0.992761, 221, 161, 252, 288
-0.992763, 81, 245, 112, 276
-0.992769, 113, 165, 144, 196
-0.992798, 121, 161, 136, 224
-0.992799, 105, 269, 136, 300
-0.992802, 93, 253, 124, 284
-0.992818, 65, 433, 320, 496
-0.992824, 177, 321, 208, 352
-0.992838, 297, 101, 328, 132
-0.992844, 37, 101, 68, 132
-0.992847, 65, 233, 96, 264
-0.992851, 101, 449, 132, 480
-0.992866, 297, 173, 328, 204
-0.992868, 49, 189, 80, 220
-0.992897, 41, 157, 72, 188
-0.992912, 105, 253, 136, 284
-0.992913, 117, 421, 148, 452
-0.992913, 109, 437, 140, 468
-0.992928, 205, 297, 236, 328
-0.99293, 21, 201, 52, 232
-0.992931, 141, 177, 172, 240
-0.992954, 265, 257, 296, 384
-0.992964, 1, 361, 364, 424
-0.992968, 253, 173, 284, 204
-0.992977, 185, 341, 216, 372
-0.992981, 89, 169, 120, 200
-0.992985, 133, 221, 164, 252
-0.992986, 241, 33, 364, 160
-0.993002, 309, 165, 340, 196
-0.993016, 333, 129, 364, 256
-0.99302, 137, 393, 168, 424
-0.993024, 53, 97, 84, 128
-0.993024, 289, 161, 320, 192
-0.993033, 313, 189, 344, 220
-0.993039, 241, 165, 272, 196
-0.993041, 221, 297, 252, 328
-0.993047, 69, 145, 100, 176
-0.99305, 173, 357, 204, 388
-0.993051, 149, 365, 180, 396
-0.993056, 105, 149, 136, 180
-0.993056, 101, 197, 132, 228
-0.993062, 101, 101, 132, 132
-0.993064, 85, 129, 116, 160
-0.99308, 249, 185, 280, 216
-0.993087, 309, 177, 340, 208
-0.993095, 237, 373, 268, 404
-0.993097, 133, 465, 164, 496
-0.993099, 269, 169, 300, 200
-0.9931, 93, 265, 124, 296
-0.9931, 137, 209, 168, 240
-0.993108, 97, 201, 352, 264
-0.993115, 217, 345, 248, 376
-0.993122, 125, 249, 156, 280
-0.993127, 21, 345, 52, 376
-0.99313, 241, 341, 272, 372
-0.993131, 93, 277, 124, 308
-0.993132, 185, 1, 248, 500
-0.993134, 173, 353, 204, 480
-0.993139, 197, 353, 228, 384
-0.99314, 1, 121, 32, 152
-0.993142, 309, 213, 340, 244
-0.993142, 233, 177, 264, 208
-0.993148, 293, 217, 324, 248
-0.993149, 113, 109, 144, 140
-0.993153, 325, 89, 356, 120
-0.993154, 117, 269, 148, 300
-0.993155, 121, 461, 152, 492
-0.993156, 17, 161, 48, 192
-0.993158, 17, 181, 48, 212
-0.993159, 33, 381, 64, 412
-0.993161, 89, 97, 120, 128
-0.993167, 63, 193, 78, 256
-0.993168, 257, 161, 288, 192
-0.993168, 89, 457, 120, 488
-0.993169, 205, 225, 236, 256
-0.993169, 225, 333, 256, 364
-0.993169, 73, 217, 104, 248
-0.99317, 129, 177, 160, 208
-0.993174, 277, 145, 308, 176
-0.993191, 193, 229, 224, 260
-0.993195, 121, 433, 152, 464
-0.993206, 35, 153, 50, 216
-0.993207, 81, 233, 112, 264
-0.993207, 29, 145, 60, 176
-0.99321, 53, 169, 84, 200
-0.993214, 121, 389, 152, 420
-0.993217, 269, 157, 300, 188
-0.993222, 281, 321, 312, 448
-0.993224, 281, 173, 312, 204
-0.993224, 113, 449, 144, 480
-0.993224, 153, 381, 184, 412
-0.993227, 141, 341, 172, 372
-0.993232, 205, 409, 236, 440
-0.993233, 253, 341, 284, 372
-0.993238, 313, 201, 344, 232
-0.993241, 33, 237, 160, 268
-0.993242, 241, 229, 272, 260
-0.993253, 229, 345, 260, 376
-0.99326, 129, 317, 160, 348
-0.993261, 133, 361, 164, 392
-0.993261, 249, 377, 280, 408
-0.993265, 293, 113, 324, 144
-0.993283, 97, 437, 128, 468
-0.993287, 81, 181, 112, 212
-0.993288, 237, 385, 268, 416
-0.993292, 245, 209, 276, 336
-0.993293, 129, 421, 160, 452
-0.993302, 269, 181, 300, 212
-0.993304, 21, 213, 52, 244
-0.993305, 105, 425, 136, 456
-0.993307, 237, 289, 268, 320
-0.993308, 245, 329, 276, 360
-0.993315, 165, 313, 196, 344
-0.993346, 53, 321, 84, 448
-0.993351, 71, 209, 86, 272
-0.993448, 161, 369, 192, 496
-0.993553, 57, 185, 72, 248
-0.993579, 99, 129, 114, 192
-0.993585, 47, 177, 62, 240
-0.993637, 1, 409, 128, 472
-0.993663, 153, 1, 216, 500
-0.993671, 51, 201, 66, 264
-0.993675, 33, 201, 160, 232
-0.993691, 107, 169, 122, 232
-0.993738, 33, 213, 160, 244
-0.993751, 1, 97, 256, 160
-0.993756, 193, 113, 320, 176
-0.993784, 317, 337, 348, 464
-0.993788, 17, 177, 144, 208
-0.99379, 97, 305, 352, 368
-0.99379, 33, 273, 64, 400
-0.993805, 1, 273, 256, 336
-0.993825, 225, 65, 352, 128
-0.99387, 73, 49, 104, 176
-0.993891, 47, 137, 62, 200
-0.993959, 115, 153, 130, 216
-0.993982, 285, 209, 316, 336
-0.994017, 57, 209, 72, 272
-0.994021, 117, 241, 132, 304
-0.994042, 33, 97, 160, 128
-0.994044, 101, 289, 132, 416
-0.994129, 93, 137, 108, 200
-0.994137, 1, 337, 364, 400
-0.994139, 65, 401, 320, 464
-0.994141, 1, 305, 32, 432
-0.994154, 97, 65, 224, 128
-0.994228, 1, 345, 256, 408
-0.994256, 1, 129, 364, 192
-0.994295, 33, 249, 160, 280
-0.994356, 1, 305, 256, 368
-0.994422, 249, 97, 280, 224
-0.994425, 33, 189, 160, 220
-0.994448, 97, 97, 352, 160
-0.994493, 41, 161, 56, 224
-0.994493, 317, 257, 348, 384
-0.994504, 63, 217, 78, 280
-0.994564, 17, 161, 144, 192
-0.994611, 97, 229, 224, 260
-0.994615, 33, 225, 160, 256
-0.994627, 17, 137, 144, 168
-0.994632, 113, 257, 144, 384
-0.994679, 129, 337, 256, 368
-0.994736, 193, 97, 256, 224
-0.994753, 129, 185, 144, 248
-0.994774, 233, 65, 296, 320
-0.994841, 105, 137, 120, 200
-0.994855, 65, 137, 192, 168
-0.994882, 105, 97, 136, 352
-0.994886, 87, 129, 102, 192
-0.994916, 87, 241, 102, 304
-0.994972, 41, 321, 72, 448
-0.994998, 33, 177, 48, 240
-0.995026, 241, 433, 364, 496
-0.995029, 101, 161, 116, 224
-0.995053, 45, 201, 60, 264
-0.995055, 39, 201, 54, 264
-0.995088, 33, 261, 160, 292
-0.99509, 127, 225, 142, 288
-0.995104, 241, 217, 364, 248
-0.995105, 241, 401, 364, 464
-0.995153, 155, 345, 170, 408
-0.995155, 293, 49, 324, 176
-0.995189, 115, 193, 130, 256
-0.995238, 133, 209, 148, 272
-0.995257, 81, 241, 96, 304
-0.995318, 105, 193, 120, 256
-0.99534, 329, 273, 360, 400
-0.995354, 1, 385, 364, 448
-0.995357, 145, 377, 272, 408
-0.995376, 17, 353, 48, 480
-0.995387, 97, 245, 224, 276
-0.995418, 41, 97, 72, 352
-0.995424, 109, 49, 140, 176
-0.995426, 129, 349, 256, 380
-0.995441, 175, 329, 190, 392
-0.995473, 181, 337, 196, 400
-0.995497, 65, 17, 128, 144
-0.995508, 269, 369, 300, 496
-0.995519, 285, 369, 316, 496
-0.99552, 177, 229, 304, 260
-0.995539, 81, 97, 112, 352
-0.995545, 65, 465, 192, 496
-0.995564, 1, 273, 364, 336
-0.995594, 1, 89, 364, 152
-0.995619, 249, 337, 264, 400
-0.995624, 69, 97, 100, 352
-0.99563, 147, 361, 162, 424
-0.995645, 55, 97, 70, 160
-0.995662, 339, 193, 354, 256
-0.995662, 241, 337, 364, 368
-0.995672, 241, 173, 364, 204
-0.995679, 27, 169, 42, 232
-0.995693, 151, 321, 166, 384
-0.995711, 193, 349, 320, 380
-0.995712, 163, 321, 178, 384
-0.995714, 97, 49, 128, 176
-0.995723, 55, 161, 70, 224
-0.995754, 181, 177, 212, 304
-0.995756, 97, 73, 352, 136
-0.99576, 233, 113, 264, 240
-0.995765, 65, 149, 192, 180
-0.995768, 41, 137, 56, 200
-0.995775, 1, 313, 364, 376
-0.995797, 29, 49, 60, 176
-0.995801, 197, 273, 212, 336
-0.995804, 145, 365, 272, 396
-0.995821, 95, 233, 110, 296
-0.995822, 157, 321, 172, 384
-0.995827, 241, 185, 364, 216
-0.995831, 37, 369, 68, 496
-0.995831, 1, 249, 364, 312
-0.995841, 161, 353, 176, 416
-0.995859, 161, 297, 288, 328
-0.995884, 69, 233, 84, 296
-0.995885, 225, 161, 352, 192
-0.995888, 243, 345, 258, 408
-0.995906, 113, 417, 240, 448
-0.995914, 75, 241, 90, 304
-0.995914, 193, 381, 320, 412
-0.995924, 139, 201, 154, 264
-0.995928, 161, 325, 288, 356
-0.995931, 271, 153, 286, 216
-0.995933, 193, 321, 208, 384
-0.995937, 1, 257, 64, 500
-0.995945, 133, 273, 164, 400
-0.995947, 77, 209, 92, 272
-0.995952, 93, 89, 108, 152
-0.995954, 65, 125, 192, 156
-0.995954, 273, 33, 336, 160
-0.995961, 65, 369, 192, 400
-0.995968, 81, 357, 208, 388
-0.995994, 345, 193, 360, 256
-0.995996, 41, 105, 56, 168
-0.996004, 93, 129, 124, 384
-0.996015, 47, 105, 62, 168
-0.996023, 53, 369, 84, 496
-0.996044, 75, 129, 90, 192
-0.996051, 109, 233, 124, 296
-0.996077, 95, 161, 110, 224
-0.996085, 89, 289, 120, 416
-0.996095, 81, 129, 96, 192
-0.996111, 113, 217, 240, 248
-0.996129, 125, 409, 140, 472
-0.996153, 1, 433, 364, 496
-0.996174, 129, 377, 144, 440
-0.996179, 47, 225, 62, 288
-0.996184, 53, 97, 84, 352
-0.996195, 237, 345, 252, 408
-0.996205, 129, 397, 256, 428
-0.996216, 97, 257, 224, 288
-0.996228, 97, 437, 224, 468
-0.996244, 121, 65, 152, 192
-0.996259, 97, 449, 224, 480
-0.996273, 117, 265, 132, 328
-0.996276, 277, 161, 292, 224
-0.996282, 317, 89, 332, 152
-0.996302, 119, 417, 134, 480
-0.996315, 109, 257, 140, 500
-0.996315, 81, 181, 208, 212
-0.996327, 255, 337, 270, 400
-0.996345, 33, 201, 48, 264
-0.996352, 261, 161, 276, 224
-0.996364, 325, 89, 340, 152
-0.996367, 265, 81, 296, 208
-0.996367, 113, 305, 144, 432
-0.996378, 53, 137, 68, 200
-0.996381, 1, 117, 128, 148
-0.996381, 99, 97, 114, 160
-0.996389, 97, 225, 128, 480
-0.99639, 169, 329, 184, 392
-0.996405, 55, 221, 70, 252
-0.996418, 117, 97, 148, 352
-0.996436, 65, 389, 192, 420
-0.99647, 9, 161, 40, 288
-0.996476, 101, 329, 116, 392
-0.996479, 249, 361, 264, 424
-0.996483, 177, 309, 304, 340
-0.996488, 113, 49, 176, 176
-0.996491, 133, 81, 164, 208
-0.996492, 33, 273, 160, 304
-0.996497, 225, 289, 240, 352
-0.996506, 193, 337, 320, 368
-0.996506, 307, 97, 322, 160
-0.996516, 61, 137, 76, 200
-0.996522, 3, 121, 18, 184
-0.996524, 109, 433, 124, 496
-0.996541, 55, 233, 70, 296
-0.996573, 225, 281, 352, 312
-0.996578, 97, 281, 352, 344
-0.996591, 209, 293, 336, 324
-0.996594, 187, 297, 202, 360
-0.996599, 279, 137, 294, 200
-0.996614, 121, 185, 136, 248
-0.996619, 49, 213, 64, 244
-0.996627, 235, 377, 250, 440
-0.996628, 305, 33, 336, 160
-0.996634, 225, 205, 352, 236
-0.99664, 111, 265, 126, 328
-0.996642, 139, 385, 154, 448
-0.996649, 241, 369, 364, 400
-0.996662, 61, 161, 76, 224
-0.996666, 115, 97, 130, 160
-0.996675, 113, 169, 240, 200
-0.996683, 65, 169, 192, 200
-0.996684, 131, 401, 146, 464
-0.996693, 231, 345, 246, 408
-0.996729, 187, 321, 202, 384
-0.996729, 93, 113, 108, 176
-0.996731, 87, 105, 102, 168
-0.996744, 145, 313, 160, 376
-0.996745, 209, 393, 224, 456
-0.996747, 219, 289, 234, 352
-0.996758, 191, 241, 206, 304
-0.996762, 61, 89, 76, 152
-0.996771, 243, 321, 258, 384
-0.996777, 167, 361, 182, 424
-0.996787, 145, 33, 208, 288
-0.996801, 147, 217, 162, 280
-0.996803, 297, 241, 328, 368
-0.996808, 91, 137, 106, 168
-0.996811, 123, 369, 138, 432
-0.996818, 123, 249, 138, 312
-0.996821, 271, 177, 286, 240
-0.996831, 113, 193, 240, 224
-0.996844, 225, 149, 352, 180
-0.996853, 231, 281, 246, 344
-0.996854, 175, 305, 190, 368
-0.996856, 49, 453, 176, 484
-0.996865, 39, 369, 54, 432
-0.996869, 329, 169, 344, 232
-0.996876, 43, 213, 58, 244
-0.996878, 277, 65, 308, 192
-0.996884, 301, 177, 316, 240
-0.996885, 309, 153, 324, 216
-0.996891, 49, 109, 176, 140
-0.996898, 225, 325, 352, 356
-0.99691, 165, 225, 196, 480
-0.996915, 141, 361, 156, 424
-0.99692, 137, 425, 152, 488
-0.996921, 241, 257, 272, 500
-0.996924, 247, 153, 262, 216
-0.996934, 137, 49, 200, 176
-0.996937, 61, 225, 76, 256
-0.996952, 297, 105, 312, 168
-0.996966, 121, 225, 152, 480
-0.996967, 329, 209, 344, 272
-0.996973, 231, 321, 246, 384
-0.996978, 113, 205, 240, 236
-0.996987, 225, 193, 256, 448
-0.996995, 33, 437, 160, 468
-0.996997, 123, 177, 138, 208
-0.997004, 65, 225, 96, 480
-0.997016, 29, 145, 44, 208
-0.99702, 33, 97, 48, 160
-0.997023, 49, 193, 80, 448
-0.997032, 95, 273, 110, 336
-0.997037, 145, 385, 160, 448
-0.997046, 129, 313, 256, 344
-0.997047, 9, 113, 24, 176
-0.99705, 241, 161, 256, 224
-0.997055, 201, 225, 216, 288
-0.997059, 215, 393, 230, 456
-0.997073, 229, 393, 244, 456
-0.997081, 127, 161, 142, 224
-0.997088, 49, 401, 176, 432
-0.997089, 241, 349, 364, 380
-0.997096, 249, 161, 280, 416
-0.997097, 81, 337, 208, 368
-0.997103, 193, 361, 208, 424
-0.997104, 209, 145, 240, 272
-0.997109, 201, 193, 232, 448
-0.997146, 103, 165, 118, 196
-0.997149, 37, 165, 52, 196
-0.997156, 129, 97, 160, 352
-0.997166, 193, 409, 320, 440
-0.997168, 29, 129, 60, 384
-0.997171, 161, 449, 288, 480
-0.997192, 241, 229, 364, 260
-0.99726, 37, 205, 52, 236
-0.997272, 177, 337, 192, 368
-0.997277, 99, 137, 114, 168
-0.997308, 213, 193, 244, 448
-0.997318, 49, 413, 176, 444
-0.997319, 237, 161, 268, 416
-0.997331, 1, 409, 364, 472
-0.997334, 119, 165, 134, 196
-0.99734, 17, 373, 144, 404
-0.997363, 53, 141, 68, 172
-0.997363, 43, 101, 58, 132
-0.997397, 113, 461, 240, 492
-0.997404, 309, 65, 340, 320
-0.997419, 81, 269, 208, 300
-0.997423, 81, 321, 208, 352
-0.997428, 225, 309, 352, 340
-0.997429, 55, 185, 70, 216
-0.997432, 113, 297, 240, 328
-0.997434, 67, 229, 82, 260
-0.99745, 145, 257, 176, 500
-0.997504, 31, 161, 46, 192
-0.997513, 45, 145, 60, 176
-0.997526, 193, 369, 320, 400
-0.997529, 185, 225, 216, 480
-0.997537, 85, 133, 100, 164
-0.997555, 113, 157, 240, 188
-0.997557, 33, 425, 160, 456
-0.997605, 49, 173, 64, 204
-0.997615, 77, 225, 108, 480
-0.997624, 113, 237, 128, 268
-0.99764, 93, 149, 108, 180
-0.997643, 131, 193, 146, 224
-0.997658, 31, 197, 46, 228
-0.997692, 261, 161, 292, 416
-0.997693, 241, 385, 364, 416
-0.997695, 67, 201, 82, 232
-0.997707, 113, 181, 128, 212
-0.997729, 85, 245, 100, 276
-0.997729, 1, 385, 128, 416
-0.997731, 241, 261, 364, 292
-0.997743, 49, 201, 64, 232
-0.997755, 151, 345, 166, 376
-0.99776, 337, 197, 352, 228
-0.997764, 49, 225, 64, 256
-0.99777, 61, 237, 76, 268
-0.997772, 55, 209, 70, 240
-0.997776, 53, 97, 68, 128
-0.997795, 1, 317, 128, 348
-0.997802, 117, 253, 132, 284
-0.997815, 125, 233, 140, 264
-0.997818, 59, 137, 74, 168
-0.997834, 177, 253, 304, 284
-0.997835, 79, 133, 94, 164
-0.997837, 209, 109, 336, 140
-0.997845, 85, 145, 100, 176
-0.997848, 73, 217, 88, 248
-0.997851, 161, 461, 288, 492
-0.997854, 123, 189, 138, 220
-0.997857, 113, 153, 128, 184
-0.997859, 241, 93, 364, 124
-0.997863, 43, 169, 58, 200
-0.997874, 3, 125, 18, 156
-0.997875, 59, 197, 74, 228
-0.997877, 145, 285, 272, 316
-0.997902, 45, 189, 60, 220
-0.997906, 193, 217, 320, 248
-0.997906, 321, 93, 336, 124
-0.997921, 33, 105, 48, 136
-0.997926, 1, 341, 128, 372
-0.997936, 35, 177, 50, 208
-0.997938, 135, 405, 150, 436
-0.997956, 325, 97, 356, 352
-0.997958, 313, 97, 328, 128
-0.997971, 193, 397, 320, 428
-0.997978, 107, 237, 122, 268
-0.997994, 91, 249, 106, 280
-0.997994, 115, 433, 130, 464
-0.997998, 55, 233, 70, 264
-0.998005, 127, 413, 142, 444
-0.998007, 137, 457, 152, 488
-0.998008, 347, 205, 362, 236
-0.998011, 303, 105, 318, 136
-0.99802, 37, 225, 68, 480
-0.99802, 145, 437, 272, 468
-0.998044, 99, 149, 114, 180
-0.998047, 113, 97, 240, 128
-0.998048, 45, 113, 60, 144
-0.998055, 67, 241, 82, 272
-0.99806, 161, 241, 288, 272
-0.998067, 115, 273, 130, 304
-0.998069, 91, 237, 106, 268
-0.99807, 107, 149, 122, 180
-0.998071, 193, 173, 320, 204
-0.998071, 29, 185, 44, 216
-0.998083, 129, 181, 144, 212
-0.998086, 329, 213, 344, 244
-0.998088, 37, 381, 52, 412
-0.998091, 105, 449, 120, 480
-0.9981, 61, 213, 76, 244
-0.998103, 137, 213, 152, 244
-0.998109, 157, 349, 172, 380
-0.998112, 297, 97, 328, 352
-0.998113, 309, 173, 324, 204
-0.998114, 17, 465, 144, 496
-0.99812, 141, 129, 172, 384
-0.998121, 171, 333, 186, 364
-0.998121, 77, 249, 92, 280
-0.998129, 113, 201, 128, 232
-0.998129, 119, 241, 134, 272
-0.998134, 9, 121, 24, 152
-0.998135, 121, 425, 136, 456
-0.998135, 39, 153, 54, 184
-0.998146, 327, 93, 342, 124
-0.998151, 155, 325, 170, 356
-0.998152, 145, 361, 160, 392
-0.998169, 271, 165, 286, 196
-0.998171, 129, 117, 256, 148
-0.998176, 261, 169, 276, 200
-0.998182, 97, 161, 112, 192
-0.998183, 109, 437, 124, 468
-0.998185, 227, 297, 242, 328
-0.998192, 33, 357, 160, 388
-0.998211, 105, 201, 120, 232
-0.998217, 113, 137, 240, 168
-0.998217, 109, 265, 124, 296
-0.998221, 131, 225, 146, 256
-0.998225, 323, 217, 338, 248
-0.998237, 241, 241, 364, 272
-0.998244, 317, 177, 332, 208
-0.998244, 241, 377, 256, 408
-0.998259, 335, 209, 350, 240
-0.998262, 117, 105, 132, 136
-0.998265, 297, 109, 312, 140
-0.99827, 241, 397, 364, 428
-0.998275, 183, 345, 198, 376
-0.998277, 37, 193, 52, 224
-0.998278, 49, 157, 64, 188
-0.998286, 163, 361, 178, 392
-0.998287, 91, 161, 106, 192
-0.998288, 329, 193, 344, 224
-0.99829, 247, 373, 262, 404
-0.998297, 9, 97, 40, 352
-0.998298, 131, 205, 146, 236
-0.998302, 193, 185, 320, 216
-0.998309, 219, 297, 234, 328
-0.998314, 103, 265, 118, 296
-0.998316, 133, 389, 148, 420
-0.998319, 31, 341, 46, 372
-0.998326, 141, 401, 156, 432
-0.998332, 37, 217, 52, 248
-0.998334, 187, 325, 202, 356
-0.998335, 27, 105, 42, 136
-0.99834, 253, 257, 284, 500
-0.99834, 109, 101, 124, 132
-0.998349, 315, 165, 330, 196
-0.998352, 85, 257, 100, 288
-0.998352, 99, 277, 114, 308
-0.998352, 101, 97, 116, 128
-0.998355, 99, 457, 114, 488
-0.998355, 221, 341, 236, 372
-0.998358, 277, 149, 292, 180
-0.998358, 303, 161, 318, 192
-0.998369, 111, 177, 126, 304
-0.998371, 109, 439, 140, 454
-0.998372, 33, 231, 64, 246
-0.998372, 277, 169, 292, 200
-0.998373, 181, 341, 212, 356
-0.998373, 81, 309, 208, 340
-0.998373, 317, 191, 348, 206
-0.998373, 297, 109, 328, 124
-0.998374, 249, 183, 280, 198
-0.998375, 137, 219, 168, 234
-0.998375, 253, 161, 284, 176
-0.998376, 41, 99, 72, 114
-0.998376, 53, 147, 84, 162
-0.998377, 57, 247, 88, 262
-0.998377, 93, 33, 124, 288
-0.998377, 89, 257, 120, 272
-0.998378, 101, 331, 132, 346
-0.998378, 209, 299, 240, 314
-0.998378, 133, 361, 164, 376
-0.998379, 43, 225, 58, 256
-0.998379, 129, 185, 160, 200
-0.998381, 241, 165, 272, 180
-0.998381, 177, 329, 208, 344
-0.998381, 33, 211, 96, 226
-0.998382, 109, 269, 140, 284
-0.998384, 21, 201, 52, 216
-0.998385, 77, 279, 108, 294
-0.998385, 105, 255, 136, 270
-0.998386, 1, 131, 32, 146
-0.998388, 217, 345, 248, 360
-0.998388, 73, 237, 88, 268
-0.998388, 81, 151, 112, 166
-0.998389, 37, 153, 68, 168
-0.998389, 73, 133, 88, 164
-0.998389, 221, 299, 252, 314
-0.998391, 165, 349, 196, 364
-0.998392, 249, 173, 280, 188
-0.998392, 67, 213, 82, 244
-0.998392, 129, 407, 160, 422
-0.998394, 121, 419, 152, 434
-0.998394, 245, 347, 276, 362
-0.998395, 85, 245, 116, 260
-0.998396, 165, 343, 196, 358
-0.998399, 149, 367, 180, 382
-0.9984, 37, 165, 68, 180
-0.998401, 297, 179, 328, 194
-0.998401, 121, 245, 152, 260
-0.998402, 297, 173, 328, 188
-0.998403, 25, 199, 88, 214
-0.998403, 189, 357, 220, 372
-0.998405, 129, 465, 160, 480
-0.998406, 161, 269, 288, 300
-0.998408, 85, 167, 116, 182
-0.998408, 17, 117, 48, 132
-0.998408, 101, 197, 132, 212
-0.998411, 73, 97, 104, 112
-0.998411, 185, 349, 216, 364
-0.998412, 131, 465, 146, 496
-0.998412, 27, 173, 42, 204
-0.998414, 305, 187, 336, 202
-0.998414, 37, 171, 68, 186
-0.998415, 113, 235, 144, 250
-0.998415, 45, 239, 76, 254
-0.998418, 125, 413, 156, 428
-0.998419, 281, 175, 312, 190
-0.998419, 285, 97, 316, 352
-0.99842, 33, 381, 64, 396
-0.99842, 145, 355, 176, 370
-0.998421, 289, 221, 320, 236
-0.998421, 125, 251, 156, 266
-0.998424, 97, 249, 128, 264
-0.998424, 89, 183, 152, 198
-0.998426, 325, 211, 356, 226
-0.998426, 269, 171, 300, 186
-0.998428, 273, 213, 304, 228
-0.998429, 25, 205, 88, 220
-0.998431, 25, 207, 56, 222
-0.998436, 305, 103, 336, 118
-0.998437, 181, 335, 212, 350
-0.998438, 97, 191, 160, 206
-0.998439, 29, 217, 60, 232
-0.998439, 49, 191, 80, 206
-0.998439, 161, 337, 192, 352
-0.99844, 237, 377, 268, 392
-0.998441, 105, 241, 136, 256
-0.998442, 21, 345, 52, 360
-0.998442, 305, 219, 336, 234
-0.998444, 37, 159, 68, 174
-0.998447, 49, 141, 112, 156
-0.998451, 81, 157, 112, 172
-0.998453, 89, 175, 152, 190
-0.998456, 133, 225, 164, 240
-0.998456, 33, 219, 96, 234
-0.998457, 61, 241, 92, 256
-0.998457, 33, 223, 64, 238
-0.998457, 85, 99, 116, 114
-0.998459, 109, 171, 140, 186
-0.998462, 97, 197, 160, 212
-0.998462, 109, 107, 140, 122
-0.998464, 209, 227, 240, 242
-0.998464, 57, 145, 72, 272
-0.998467, 69, 251, 100, 266
-0.998469, 117, 201, 148, 216
-0.998471, 57, 235, 88, 250
-0.998474, 117, 183, 148, 198
-0.998475, 97, 159, 128, 174
-0.998476, 93, 237, 124, 252
-0.998477, 77, 273, 108, 288
-0.998479, 53, 99, 84, 114
-0.99848, 53, 199, 84, 214
-0.998481, 65, 241, 128, 256
-0.998481, 97, 103, 128, 118
-0.998483, 193, 133, 320, 164
-0.998485, 65, 139, 96, 154
-0.998489, 49, 97, 112, 112
-0.99849, 97, 269, 128, 284
-0.998491, 37, 195, 68, 210
-0.998492, 77, 143, 108, 158
-0.998492, 113, 177, 144, 192
-0.998493, 225, 121, 352, 152
-0.998494, 25, 111, 56, 126
-0.998495, 69, 149, 100, 164
-0.998496, 33, 105, 64, 120
-0.998497, 89, 139, 120, 154
-0.998499, 57, 225, 88, 240
-0.998501, 73, 245, 104, 260
-0.998502, 161, 357, 224, 372
-0.998502, 121, 161, 136, 288
-0.998503, 85, 251, 116, 266
-0.998504, 129, 227, 192, 242
-0.998504, 57, 217, 88, 232
-0.998505, 149, 329, 180, 344
-0.998506, 41, 147, 72, 162
-0.998508, 81, 249, 144, 264
-0.998511, 73, 149, 136, 164
-0.998512, 105, 193, 120, 320
-0.998514, 45, 233, 76, 248
-0.998516, 313, 97, 344, 112
-0.998518, 145, 361, 176, 376
-0.998518, 107, 129, 122, 256
-0.998518, 333, 193, 364, 448
-0.998519, 57, 195, 120, 210
-0.99852, 81, 257, 144, 272
-0.998524, 105, 165, 136, 180
-0.998529, 37, 189, 68, 204
-0.998529, 97, 203, 160, 218
-0.998531, 25, 193, 88, 208
-0.998532, 89, 239, 152, 254
-0.998532, 97, 151, 128, 166
-0.998532, 101, 191, 132, 206
-0.998535, 145, 341, 208, 356
-0.998536, 265, 173, 328, 188
-0.998536, 89, 169, 152, 184
-0.998536, 25, 167, 56, 182
-0.998538, 77, 137, 108, 152
-0.998539, 57, 189, 120, 204
-0.998542, 33, 201, 64, 216
-0.998543, 25, 237, 88, 252
-0.998544, 65, 235, 128, 250
-0.998546, 41, 147, 104, 162
-0.998547, 81, 163, 144, 178
-0.998547, 53, 205, 84, 220
-0.998548, 177, 343, 240, 358
-0.998549, 25, 173, 88, 188
-0.998549, 49, 229, 112, 244
-0.998549, 1, 219, 64, 234
-0.998551, 97, 173, 128, 188
-0.998553, 153, 351, 216, 366
-0.998553, 57, 135, 120, 150
-0.998554, 101, 179, 132, 194
-0.998555, 145, 335, 208, 350
-0.998555, 57, 211, 88, 226
-0.998556, 81, 157, 144, 172
-0.998557, 29, 183, 60, 198
-0.998557, 37, 207, 68, 222
-0.998558, 121, 361, 184, 376
-0.99856, 117, 189, 148, 204
-0.99856, 89, 271, 152, 286
-0.998561, 201, 229, 264, 244
-0.998563, 113, 185, 176, 200
-0.998564, 305, 215, 364, 230
-0.998565, 17, 229, 80, 244
-0.998565, 225, 345, 288, 360
-0.998566, 81, 263, 144, 278
-0.998567, 289, 171, 352, 186
-0.998569, 41, 247, 104, 262
-0.998571, 17, 181, 80, 196
-0.998571, 281, 219, 344, 234
-0.998574, 201, 351, 264, 366
-0.998574, 117, 195, 148, 210
-0.998574, 325, 217, 356, 232
-0.998575, 39, 145, 54, 272
-0.998575, 145, 329, 208, 344
-0.998577, 17, 187, 80, 202
-0.998577, 305, 99, 364, 114
-0.998578, 97, 463, 160, 478
-0.99858, 9, 117, 72, 132
-0.99858, 153, 363, 216, 378
-0.998581, 33, 305, 160, 336
-0.998586, 57, 1, 88, 256
-0.998586, 249, 167, 312, 182
-0.998586, 177, 337, 240, 352
-0.998587, 41, 213, 72, 228
-0.998587, 53, 141, 84, 156
-0.998588, 101, 185, 132, 200
-0.99859, 33, 177, 64, 192
-0.998591, 121, 367, 184, 382
-0.998595, 17, 345, 80, 360
-0.998596, 89, 457, 152, 472
-0.998596, 65, 273, 128, 288
-0.998598, 113, 179, 176, 194
-0.998598, 45, 227, 76, 242
-0.998603, 265, 179, 328, 194
-0.998604, 113, 157, 176, 172
-0.998605, 49, 265, 112, 280
-0.998605, 25, 163, 88, 178
-0.998605, 65, 207, 128, 222
-0.998605, 281, 165, 344, 180
-0.998609, 65, 201, 128, 216
-0.998609, 1, 213, 64, 228
-0.99861, 225, 379, 288, 394
-0.998611, 121, 193, 184, 208
-0.998612, 1, 123, 64, 138
-0.998612, 129, 465, 192, 480
-0.998612, 89, 469, 152, 484
-0.998613, 45, 219, 76, 234
-0.998613, 105, 233, 168, 248
-0.998614, 297, 105, 360, 120
-0.998616, 49, 171, 112, 186
-0.998618, 249, 161, 312, 176
-0.998619, 57, 183, 120, 198
-0.998619, 1, 175, 64, 190
-0.99862, 289, 185, 352, 200
-0.998621, 113, 163, 176, 178
-0.998621, 201, 345, 264, 360
-0.998621, 57, 219, 120, 234
-0.998622, 73, 101, 136, 116
-0.998622, 177, 349, 240, 364
-0.998624, 113, 173, 176, 188
-0.998625, 241, 173, 304, 188
-0.998625, 113, 151, 176, 166
-0.998627, 105, 245, 168, 260
-0.998627, 25, 381, 88, 396
-0.998627, 33, 155, 96, 170
-0.998628, 105, 331, 168, 346
-0.998629, 121, 353, 184, 368
-0.998629, 89, 145, 120, 160
-0.998629, 289, 177, 352, 192
-0.99863, 185, 357, 248, 372
-0.998631, 57, 155, 120, 170
-0.998631, 105, 143, 168, 158
-0.998631, 105, 251, 168, 266
-0.998631, 121, 391, 184, 406
-0.998632, 297, 193, 360, 208
-0.998632, 281, 209, 344, 224
-0.998633, 121, 471, 184, 486
-0.998634, 201, 299, 264, 314
-0.998634, 73, 143, 136, 158
-0.998635, 209, 413, 272, 428
-0.998635, 249, 215, 312, 230
-0.998635, 1, 203, 64, 218
-0.998635, 73, 279, 136, 294
-0.998636, 97, 451, 160, 466
-0.998636, 81, 107, 144, 122
-0.998636, 29, 33, 60, 288
-0.998638, 305, 223, 364, 238
-0.998639, 217, 273, 280, 288
-0.998641, 297, 111, 360, 126
-0.998643, 105, 137, 168, 152
-0.998644, 49, 177, 112, 192
-0.998644, 249, 155, 312, 170
-0.998644, 257, 381, 320, 396
-0.998645, 113, 271, 176, 286
-0.998646, 145, 245, 208, 260
-0.998646, 105, 445, 168, 460
-0.998646, 121, 385, 184, 400
-0.998648, 25, 99, 88, 114
-0.998649, 193, 273, 256, 288
-0.998649, 217, 339, 280, 354
-0.998651, 129, 221, 192, 236
-0.998651, 201, 381, 264, 396
-0.998652, 129, 375, 192, 390
-0.998652, 33, 285, 160, 316
-0.998653, 33, 339, 96, 354
-0.998661, 225, 81, 352, 112
-0.998665, 241, 137, 364, 168
-0.998677, 149, 337, 164, 464
-0.99869, 159, 305, 174, 432
-0.998709, 81, 85, 208, 116
-0.998712, 193, 429, 320, 460
-0.998726, 49, 145, 64, 272
-0.998743, 273, 97, 304, 352
-0.998745, 113, 97, 128, 224
-0.998753, 177, 153, 304, 184
-0.998762, 145, 181, 272, 212
-0.998763, 105, 81, 120, 208
-0.998763, 241, 469, 364, 500
-0.998776, 105, 1, 136, 256
-0.998796, 63, 177, 78, 304
-0.998797, 99, 177, 114, 304
-0.998799, 129, 177, 144, 304
-0.998816, 153, 161, 184, 416
-0.998819, 1, 453, 128, 484
-0.998835, 193, 97, 320, 128
-0.998842, 17, 329, 144, 360
-0.998845, 165, 305, 180, 432
-0.998856, 43, 97, 58, 224
-0.998864, 69, 193, 84, 320
-0.998868, 269, 257, 300, 500
-0.998883, 81, 281, 208, 312
-0.998884, 251, 337, 266, 464
-0.998888, 33, 85, 160, 116
-0.99889, 45, 1, 76, 256
-0.998907, 95, 113, 110, 240
-0.998924, 75, 193, 90, 320
-0.998925, 69, 145, 84, 272
-0.998942, 31, 161, 46, 288
-0.998949, 143, 353, 158, 480
-0.998957, 47, 193, 62, 320
-0.998962, 53, 193, 68, 320
-0.998965, 119, 97, 134, 224
-0.998967, 89, 81, 104, 208
-0.998975, 49, 97, 64, 224
-0.998982, 81, 1, 112, 256
-0.998982, 101, 129, 116, 256
-0.999002, 261, 337, 276, 464
-0.999032, 245, 337, 260, 464
-0.999048, 31, 97, 46, 224
-0.999055, 97, 241, 112, 368
-0.999063, 117, 209, 132, 336
-0.999068, 241, 273, 256, 400
-0.99907, 127, 369, 142, 496
-0.999071, 83, 81, 98, 208
-0.999072, 79, 241, 94, 368
-0.999091, 253, 65, 284, 320
-0.999092, 305, 97, 320, 224
-0.999104, 121, 353, 136, 480
-0.999107, 241, 449, 364, 480
-0.999107, 37, 97, 52, 224
-0.999116, 249, 273, 264, 400
-0.999121, 299, 97, 314, 224
-0.999122, 137, 353, 152, 480
-0.999128, 235, 273, 250, 400
-0.999129, 57, 97, 72, 224
-0.999134, 243, 209, 258, 336
-0.999139, 135, 177, 150, 304
-0.99914, 65, 81, 80, 208
-0.999142, 153, 289, 168, 416
-0.999145, 311, 81, 326, 208
-0.999145, 313, 161, 344, 416
-0.999148, 91, 225, 106, 352
-0.999154, 1, 397, 128, 428
-0.999162, 129, 97, 144, 224
-0.999173, 105, 241, 120, 368
-0.999173, 165, 129, 196, 384
-0.999176, 191, 289, 206, 416
-0.99918, 133, 225, 164, 480
-0.999183, 177, 321, 192, 448
-0.999184, 267, 321, 282, 448
-0.999185, 63, 225, 78, 352
-0.999186, 1, 65, 364, 128
-0.999195, 123, 225, 138, 352
-0.999199, 117, 1, 148, 256
-0.999205, 111, 225, 126, 352
-0.999206, 63, 129, 78, 256
-0.999206, 85, 225, 100, 352
-0.99921, 221, 289, 236, 416
-0.99921, 231, 337, 246, 464
-0.999212, 39, 193, 54, 320
-0.999222, 171, 321, 186, 448
-0.999224, 293, 97, 308, 224
-0.999226, 159, 257, 174, 384
-0.999229, 227, 273, 242, 400
-0.99924, 91, 161, 106, 288
-0.999241, 99, 65, 114, 192
-0.999243, 305, 145, 320, 272
-0.999244, 239, 321, 254, 448
-0.999249, 205, 209, 220, 336
-0.999249, 335, 177, 350, 304
-0.999255, 77, 81, 92, 208
-0.999256, 243, 145, 258, 272
-0.999258, 33, 321, 48, 448
-0.999266, 183, 337, 198, 464
-0.999271, 203, 289, 218, 416
-0.999273, 225, 337, 240, 464
-0.999273, 249, 177, 264, 304
-0.999274, 281, 225, 312, 480
-0.999274, 317, 81, 332, 208
-0.999278, 329, 161, 344, 288
-0.999279, 69, 241, 84, 368
-0.999281, 197, 289, 212, 416
-0.999284, 141, 129, 156, 256
-0.999296, 329, 209, 344, 336
-0.999298, 329, 81, 344, 208
-0.999299, 261, 161, 276, 288
-0.999302, 115, 353, 130, 480
-0.999308, 197, 225, 212, 352
-0.99931, 199, 337, 214, 464
-0.999313, 237, 145, 252, 272
-0.999318, 225, 97, 256, 352
-0.999322, 217, 337, 232, 464
-0.999325, 69, 321, 84, 448
-0.999327, 311, 161, 326, 288
-0.999328, 17, 193, 48, 448
-0.999331, 255, 257, 270, 384
-0.999332, 1, 113, 16, 240
-0.999335, 241, 65, 272, 320
-0.999335, 273, 305, 288, 432
-0.999337, 233, 209, 248, 336
-0.99934, 27, 305, 42, 432
-0.999345, 177, 129, 208, 384
-0.999345, 187, 241, 202, 368
-0.999351, 323, 81, 338, 208
-0.999357, 255, 161, 270, 288
-0.999364, 177, 201, 304, 232
-0.999364, 129, 225, 144, 352
-0.999368, 39, 305, 54, 432
-0.999377, 71, 81, 86, 208
-0.999379, 5, 225, 36, 480
-0.999379, 277, 129, 292, 256
-0.99938, 347, 209, 362, 336
-0.999386, 301, 193, 332, 448
-0.999386, 75, 289, 90, 416
-0.999389, 215, 273, 230, 400
-0.999392, 193, 353, 208, 480
-0.999396, 147, 129, 162, 256
-0.999402, 165, 257, 180, 384
-0.999403, 21, 97, 36, 224
-0.999403, 285, 209, 300, 336
-0.999413, 25, 145, 40, 272
-0.999415, 155, 353, 170, 480
-0.999425, 135, 113, 150, 240
-0.999426, 227, 209, 242, 336
-0.999429, 209, 289, 224, 416
-0.999429, 269, 177, 284, 304
-0.999432, 287, 113, 302, 240
-0.999438, 325, 1, 356, 256
-0.99944, 211, 209, 226, 336
-0.999445, 281, 257, 296, 384
-0.999448, 75, 129, 90, 256
-0.999451, 181, 241, 196, 368
-0.999452, 219, 209, 234, 336
-0.99946, 165, 353, 180, 480
-0.999496, 1, 73, 256, 136
-0.99954, 297, 1, 328, 256
-0.999555, 313, 257, 344, 500
-0.99956, 69, 1, 100, 256
-0.999576, 213, 97, 244, 352
-0.999577, 89, 257, 104, 272
-0.999577, 59, 217, 74, 232
-0.999577, 143, 251, 158, 266
-0.999577, 311, 185, 326, 200
-0.999579, 109, 453, 124, 468
-0.999579, 79, 249, 94, 264
-0.999579, 195, 275, 210, 290
-0.99958, 51, 179, 66, 194
-0.999581, 45, 183, 60, 198
-0.999582, 29, 167, 44, 182
-0.999583, 299, 111, 314, 126
-0.999583, 31, 383, 46, 398
-0.999583, 107, 241, 122, 256
-0.999583, 49, 141, 64, 156
-0.999585, 89, 97, 104, 112
-0.999585, 135, 407, 150, 422
-0.999585, 33, 159, 48, 174
-0.999586, 207, 229, 222, 244
-0.999586, 73, 221, 88, 236
-0.999588, 69, 211, 84, 226
-0.999588, 325, 95, 340, 110
-0.999588, 221, 343, 236, 358
-0.999589, 309, 175, 324, 190
-0.999589, 285, 213, 300, 228
-0.999589, 17, 117, 32, 132
-0.99959, 139, 221, 154, 236
-0.99959, 293, 219, 308, 234
-0.99959, 11, 121, 26, 136
-0.999591, 131, 231, 146, 246
-0.999592, 333, 213, 348, 228
-0.999594, 93, 145, 108, 160
-0.999594, 55, 235, 70, 250
-0.999594, 299, 179, 314, 194
-0.999595, 275, 211, 290, 226
-0.999596, 85, 243, 100, 258
-0.999597, 169, 333, 184, 348
-0.999597, 97, 249, 112, 264
-0.999597, 125, 237, 140, 252
-0.999598, 163, 295, 178, 310
-0.999599, 155, 357, 170, 372
-0.999599, 91, 133, 106, 148
-0.9996, 77, 137, 92, 152
-0.9996, 31, 181, 46, 196
-0.999601, 317, 97, 332, 112
-0.999601, 67, 235, 82, 250
-0.999601, 123, 197, 138, 212
-0.999602, 113, 269, 128, 284
-0.999603, 329, 219, 344, 234
-0.999604, 133, 199, 148, 214
-0.999606, 91, 243, 106, 258
-0.999606, 123, 109, 138, 124
-0.999607, 113, 201, 128, 216
-0.999607, 305, 181, 320, 196
-0.999608, 339, 215, 354, 230
-0.999608, 137, 463, 152, 478
-0.999609, 327, 213, 342, 228
-0.999609, 129, 187, 144, 202
-0.999613, 77, 243, 92, 258
-0.999613, 315, 221, 330, 236
-0.999614, 65, 219, 80, 234
-0.999616, 103, 331, 118, 346
-0.999616, 71, 279, 86, 294
-0.999616, 311, 101, 326, 116
-0.999618, 29, 173, 44, 188
-0.999618, 25, 343, 40, 358
-0.999619, 91, 159, 106, 174
-0.99962, 103, 235, 118, 250
-0.999622, 133, 205, 148, 220
-0.999622, 321, 217, 336, 232
-0.999622, 281, 1, 312, 256
-0.999624, 97, 99, 112, 114
-0.999625, 131, 193, 146, 208
-0.999626, 179, 343, 194, 358
-0.999626, 47, 225, 62, 240
-0.999627, 51, 101, 66, 116
-0.99963, 223, 299, 238, 314
-0.999632, 99, 139, 114, 154
-0.999633, 29, 199, 44, 214
-0.999633, 305, 105, 320, 120
-0.999636, 27, 109, 42, 124
-0.999638, 85, 149, 100, 164
-0.999638, 7, 127, 22, 142
-0.99964, 145, 361, 160, 376
-0.999644, 115, 105, 130, 120
-0.999645, 83, 135, 98, 150
-0.99965, 39, 171, 54, 186
-0.999651, 91, 251, 106, 266
-0.999651, 99, 145, 114, 160
-0.999653, 121, 175, 136, 190
-0.999657, 47, 203, 62, 218
-0.999658, 103, 101, 118, 116
-0.999658, 41, 113, 56, 128
-0.999659, 57, 197, 72, 212
-0.999659, 109, 103, 124, 118
-0.999665, 37, 381, 52, 396
-0.999667, 1, 133, 16, 148
-0.999669, 31, 343, 46, 358
-0.999671, 61, 141, 76, 156
-0.999672, 35, 201, 50, 216
-0.999675, 79, 147, 94, 162
-0.999679, 51, 185, 66, 200
-0.999681, 17, 1, 48, 256
-0.999683, 113, 237, 128, 252
-0.999686, 123, 181, 138, 196
-0.999686, 123, 191, 138, 206
-0.999688, 59, 223, 74, 238
-0.999689, 45, 175, 60, 190
-0.999693, 65, 229, 80, 244
-0.999694, 35, 165, 50, 180
-0.999695, 33, 109, 48, 124
-0.999697, 47, 147, 62, 162
-0.999698, 45, 103, 60, 118
-0.999699, 49, 211, 64, 226
-0.999707, 91, 151, 106, 166
-0.99971, 189, 129, 220, 384
-0.999711, 39, 177, 54, 192
-0.999716, 93, 139, 108, 154
-0.999716, 85, 249, 100, 264
-0.999718, 175, 337, 190, 352
-0.999722, 97, 161, 112, 176
-0.999724, 53, 217, 68, 232
-0.999726, 153, 65, 184, 320
-0.999727, 103, 171, 118, 186
-0.999729, 37, 207, 52, 222
-0.999736, 39, 105, 54, 120
-0.999752, 41, 213, 56, 228
-0.999753, 67, 241, 82, 256
-0.999756, 55, 143, 70, 158
-0.999758, 53, 223, 68, 238
-0.99976, 55, 191, 70, 206
-0.999767, 87, 143, 102, 158
-0.999768, 1, 409, 128, 440
-0.999771, 61, 235, 76, 250
-0.999795, 55, 229, 70, 244
-0.999801, 45, 219, 60, 234
-0.999807, 201, 97, 232, 352
-0.999808, 5, 1, 36, 256
-0.999815, 129, 1, 160, 256
-0.999866, 153, 113, 216, 240
-0.999892, 241, 437, 364, 468
-0.999963, 241, 409, 364, 440
-0.999987, 177, 121, 304, 152
-1.00003, 161, 65, 288, 128
-1.00012, 241, 425, 364, 456
-1.00019, 141, 33, 172, 288
-1.00022, 269, 1, 300, 256
-1.0006, 225, 69, 352, 100
-1.00065, 241, 57, 364, 88
-1.00068, 145, 73, 272, 104
-1.0007, 17, 73, 144, 104
-1.00071, 185, 33, 216, 288
-1.00075, 225, 41, 352, 104
-1.00075, 1, 49, 128, 112
-1.00076, 193, 41, 320, 72
-1.00084, 173, 33, 204, 288
-1.00104, 229, 1, 260, 256
-1.00125, 49, 49, 176, 112
-1.00128, 217, 1, 248, 256
-1.00145, 197, 1, 228, 256
-1.00153, 97, 49, 352, 112
-1.00156, 1, 1, 256, 64
-1.00158, 177, 33, 240, 288
-1.00165, 97, 9, 352, 72
-1.00176, 1, 41, 256, 104
-1.00185, 193, 9, 320, 72
-1.00195, 1, 1, 256, 128
-1.00207, 17, 1, 144, 64
-1.00222, 241, 9, 364, 72
-1.00235, 217, 65, 280, 192
-1.00242, 17, 25, 144, 88
-1.00243, 129, 25, 256, 88
-1.00244, 145, 1, 272, 64
-1.00274, 65, 9, 192, 72
-1.00276, 177, 33, 304, 96
-1.00326, 81, 1, 208, 128
-1.00326, 1, 1, 364, 64
-1.00343, 193, 17, 320, 144
-1.00355, 1, 25, 364, 88
-1.0041, 97, 1, 352, 128
-1.00481, 249, 33, 312, 160
-1.00486, 209, 1, 272, 256
-1.0056, 1, 1, 64, 128
-1.00583, 105, 1, 168, 128
-1.00617, 169, 65, 232, 192
-1.00633, 1, 1, 128, 128
-1.00712, 129, 17, 256, 144
-1.00866, 193, 49, 256, 176
-1.01214, 185, 1, 248, 128
-1.01236, 217, 17, 280, 144
-1.01331, 161, 1, 224, 128
-1.01684, 129, 1, 192, 128
