1976
-0.442337, 1, 129, 500, 375
-0.571236, 1, 1, 500, 256
-0.576112, 1, 1, 500, 375
-0.665866, 33, 1, 288, 375
-0.722127, 1, 129, 256, 375
-0.722293, 129, 1, 384, 375
-0.727152, 225, 1, 480, 375
-0.734649, 257, 129, 500, 375
-0.784225, 97, 97, 352, 352
-0.849478, 257, 33, 500, 288
-0.870007, 1, 1, 256, 256
-0.886344, 97, 129, 224, 375
-0.888109, 17, 1, 144, 375
-0.888384, 1, 177, 500, 304
-0.89044, 129, 1, 384, 256
-0.894584, 49, 129, 176, 375
-0.904776, 65, 1, 192, 375
-0.906455, 1, 1, 128, 256
-0.908528, 305, 129, 432, 375
-0.910751, 353, 129, 480, 375
-0.912789, 145, 129, 272, 375
-0.914468, 1, 241, 500, 368
-0.915811, 225, 129, 352, 375
-0.920153, 337, 1, 464, 375
-0.923041, 33, 177, 288, 304
-0.923191, 113, 1, 240, 375
-0.92617, 1, 113, 500, 240
-0.93057, 1, 97, 128, 352
-0.930706, 289, 1, 416, 375
-0.930935, 161, 1, 288, 375
-0.930991, 1, 241, 256, 368
-0.934372, 225, 1, 352, 375
-0.93491, 161, 193, 416, 320
-0.937633, 369, 33, 496, 288
-0.9396, 49, 33, 176, 288
-0.940863, 81, 161, 208, 288
-0.942101, 177, 33, 304, 288
-0.942327, 257, 177, 500, 304
-0.942652, 97, 33, 224, 288
-0.94323, 305, 1, 432, 256
-0.94591, 153, 241, 216, 368
-0.946932, 1, 1, 128, 128
-0.947188, 1, 17, 500, 144
-0.947687, 65, 241, 192, 368
-0.948941, 97, 241, 352, 368
-0.94995, 177, 193, 240, 320
-0.951089, 17, 241, 144, 368
-0.952053, 257, 33, 384, 288
-0.953197, 257, 113, 500, 240
-0.953432, 177, 193, 304, 320
-0.953841, 49, 209, 112, 336
-0.954187, 113, 241, 240, 368
-0.956627, 17, 193, 144, 320
-0.957074, 153, 177, 216, 304
-0.95784, 161, 113, 416, 240
-0.958616, 89, 177, 152, 304
-0.958898, 193, 241, 448, 368
-0.96011, 369, 145, 496, 272
-0.9602, 73, 241, 136, 368
-0.960718, 129, 193, 256, 320
-0.961728, 129, 161, 192, 288
-0.962036, 177, 129, 304, 256
-0.962137, 153, 249, 216, 312
-0.962981, 121, 241, 184, 368
-0.963125, 425, 145, 488, 272
-0.964383, 65, 129, 320, 256
-0.964741, 225, 177, 352, 304
-0.96505, 1, 1, 64, 128
-0.965604, 1, 49, 128, 176
-0.96655, 273, 177, 400, 304
-0.966563, 1, 65, 500, 192
-0.967237, 1, 1, 256, 128
-0.967789, 41, 233, 104, 296
-0.969022, 97, 113, 224, 240
-0.969067, 25, 209, 88, 336
-0.969184, 145, 177, 208, 240
-0.969189, 177, 201, 240, 264
-0.969289, 185, 145, 248, 272
-0.969457, 97, 241, 160, 368
-0.969578, 401, 177, 464, 304
-0.970067, 433, 161, 496, 224
-0.970126, 49, 33, 112, 160
-0.97023, 225, 241, 352, 368
-0.970343, 177, 241, 304, 368
-0.970485, 185, 241, 248, 368
-0.971338, 81, 257, 144, 320
-0.971688, 9, 1, 72, 64
-0.971745, 369, 225, 496, 352
-0.971888, 169, 225, 232, 288
-0.972541, 289, 241, 416, 368
-0.972655, 121, 257, 184, 320
-0.972817, 321, 129, 448, 256
-0.972867, 201, 193, 264, 320
-0.972888, 273, 113, 400, 240
-0.972984, 49, 1, 176, 128
-0.973775, 57, 57, 120, 120
-0.974141, 97, 177, 224, 240
-0.974239, 145, 113, 208, 240
-0.974374, 345, 177, 408, 304
-0.974721, 265, 177, 328, 304
-0.974761, 321, 177, 384, 304
-0.974884, 321, 177, 448, 304
-0.974913, 433, 209, 496, 336
-0.975167, 17, 241, 144, 304
-0.975718, 65, 161, 128, 288
-0.975783, 33, 209, 96, 272
-0.976369, 65, 49, 320, 176
-0.976385, 401, 225, 464, 352
-0.97639, 177, 265, 240, 328
-0.976547, 145, 225, 208, 288
-0.976924, 273, 241, 336, 368
-0.977054, 153, 313, 216, 375
-0.977146, 177, 177, 208, 304
-0.977299, 81, 185, 144, 248
-0.97736, 233, 193, 296, 320
-0.977549, 17, 241, 80, 304
-0.977616, 273, 113, 336, 240
-0.977882, 81, 1, 144, 128
-0.978487, 377, 225, 440, 352
-0.978622, 401, 97, 464, 224
-0.978731, 177, 201, 304, 264
-0.978912, 65, 257, 192, 320
-0.978953, 73, 25, 136, 88
-0.979044, 305, 97, 368, 224
-0.97907, 353, 225, 416, 352
-0.979072, 113, 313, 176, 375
-0.979116, 49, 49, 176, 176
-0.979191, 225, 241, 288, 368
-0.979243, 49, 33, 112, 96
-0.979347, 41, 161, 104, 288
-0.979449, 225, 129, 352, 256
-0.979632, 289, 177, 352, 304
-0.979701, 1, 1, 128, 64
-0.979893, 369, 177, 432, 304
-0.979919, 193, 193, 224, 320
-0.980016, 189, 185, 220, 248
-0.980043, 177, 177, 240, 240
-0.980093, 177, 209, 208, 272
-0.980237, 49, 1, 112, 256
-0.98035, 25, 1, 88, 128
-0.980467, 33, 1, 96, 64
-0.980606, 145, 273, 208, 336
-0.980669, 173, 225, 204, 352
-0.980789, 297, 241, 360, 368
-0.980859, 345, 97, 408, 224
-0.981, 157, 241, 188, 368
-0.98119, 369, 97, 496, 224
-0.981346, 113, 249, 240, 312
-0.981381, 73, 49, 136, 176
-0.981439, 121, 129, 184, 375
-0.981572, 1, 129, 128, 256
-0.981702, 49, 169, 112, 232
-0.981713, 57, 193, 120, 256
-0.981813, 97, 113, 160, 240
-0.981851, 177, 177, 304, 240
-0.981992, 201, 273, 264, 336
-0.982023, 401, 145, 464, 208
-0.982025, 329, 241, 392, 368
-0.982035, 89, 313, 152, 375
-0.982045, 89, 49, 152, 112
-0.982045, 145, 153, 208, 216
-0.982088, 57, 257, 120, 320
-0.982171, 281, 153, 344, 216
-0.98233, 1, 1, 32, 128
-0.982397, 169, 241, 200, 304
-0.982431, 233, 129, 296, 256
-0.982597, 161, 161, 192, 288
-0.982636, 73, 1, 104, 128
-0.982641, 321, 153, 384, 216
-0.982919, 153, 201, 216, 264
-0.982935, 433, 97, 496, 224
-0.983065, 89, 177, 120, 304
-0.983373, 105, 281, 168, 344
-0.983462, 121, 113, 184, 240
-0.983473, 257, 273, 320, 336
-0.983575, 201, 209, 264, 272
-0.983595, 65, 201, 192, 264
-0.983663, 113, 273, 240, 336
-0.983667, 189, 225, 220, 288
-0.984005, 297, 249, 360, 312
-0.984079, 153, 129, 216, 375
-0.984293, 105, 177, 168, 240
-0.984301, 161, 273, 288, 336
-0.984353, 225, 1, 480, 128
-0.984459, 153, 249, 184, 312
-0.98448, 145, 225, 272, 288
-0.984508, 65, 313, 192, 375
-0.984534, 145, 313, 272, 375
-0.984675, 433, 129, 496, 375
-0.984679, 249, 169, 312, 232
-0.984679, 17, 265, 80, 328
-0.984692, 97, 225, 224, 288
-0.984788, 13, 1, 44, 128
-0.984793, 73, 161, 136, 224
-0.984793, 377, 241, 440, 304
-0.984815, 225, 281, 288, 344
-0.984815, 453, 145, 484, 272
-0.984827, 65, 313, 128, 375
-0.984926, 201, 177, 264, 240
-0.984996, 1, 33, 128, 96
-0.98513, 265, 129, 328, 192
-0.985153, 97, 1, 352, 128
-0.98538, 81, 217, 144, 280
-0.985382, 185, 129, 248, 375
-0.985415, 185, 241, 216, 368
-0.98545, 17, 265, 144, 328
-0.985473, 101, 241, 132, 368
-0.985475, 145, 241, 176, 368
-0.985508, 369, 113, 432, 240
-0.985661, 1, 57, 128, 120
-0.985664, 209, 129, 272, 256
-0.985669, 1, 225, 64, 352
-0.985744, 165, 177, 196, 240
-0.985794, 437, 177, 468, 304
-0.985809, 177, 137, 240, 200
-0.985884, 337, 145, 464, 208
-0.986272, 1, 169, 128, 232
-0.986472, 361, 129, 424, 375
-0.986479, 177, 177, 208, 240
-0.986505, 85, 17, 116, 144
-0.986511, 273, 161, 400, 224
-0.986589, 385, 105, 448, 168
-0.986634, 41, 209, 72, 336
-0.986636, 401, 233, 464, 296
-0.986641, 177, 153, 304, 216
-0.986676, 121, 145, 184, 208
-0.9867, 185, 297, 248, 360
-0.986781, 225, 177, 288, 240
-0.9868, 425, 233, 488, 296
-0.986836, 433, 201, 496, 264
-0.986893, 281, 185, 344, 248
-0.986937, 369, 177, 496, 240
-0.986965, 81, 129, 144, 375
-0.986984, 209, 273, 336, 336
-0.986989, 305, 129, 368, 375
-0.987035, 321, 185, 384, 248
-0.987078, 41, 281, 104, 344
-0.987096, 321, 249, 384, 312
-0.987113, 77, 25, 108, 88
-0.987115, 109, 265, 140, 328
-0.987225, 257, 185, 384, 248
-0.987295, 385, 129, 448, 375
-0.98731, 249, 193, 312, 256
-0.987361, 97, 153, 224, 216
-0.987362, 69, 193, 100, 320
-0.987385, 33, 1, 64, 64
-0.987501, 5, 17, 36, 80
-0.987517, 1, 73, 64, 136
-0.987524, 129, 241, 160, 368
-0.987664, 37, 1, 68, 128
-0.987677, 85, 257, 116, 320
-0.987695, 81, 241, 112, 368
-0.987748, 113, 233, 176, 296
-0.987759, 65, 281, 192, 344
-0.987828, 53, 209, 84, 336
-0.987861, 57, 129, 120, 375
-0.987862, 169, 97, 232, 224
-0.987865, 417, 177, 448, 304
-0.987971, 33, 57, 96, 120
-0.987972, 205, 177, 236, 304
-0.987995, 49, 1, 80, 128
-0.988025, 49, 49, 176, 112
-0.988056, 113, 241, 144, 368
-0.988115, 1, 217, 128, 280
-0.988154, 49, 97, 176, 224
-0.988211, 425, 129, 488, 192
-0.98825, 17, 313, 144, 375
-0.988254, 1, 177, 64, 304
-0.988264, 9, 209, 72, 272
-0.988289, 289, 121, 352, 184
-0.988299, 353, 249, 416, 312
-0.988317, 97, 153, 160, 216
-0.988322, 1, 25, 64, 88
-0.988324, 437, 225, 468, 352
-0.988368, 321, 81, 448, 208
-0.98841, 297, 313, 360, 375
-0.988446, 57, 1, 120, 375
-0.988475, 257, 49, 500, 176
-0.988485, 49, 113, 112, 240
-0.988512, 409, 129, 472, 375
-0.988529, 281, 97, 344, 352
-0.988583, 49, 161, 176, 224
-0.988586, 161, 249, 288, 312
-0.98866, 209, 249, 272, 312
-0.988707, 321, 113, 384, 176
-0.988717, 165, 217, 196, 280
-0.988769, 45, 217, 76, 280
-0.988783, 81, 161, 112, 224
-0.988814, 133, 273, 164, 336
-0.988867, 425, 225, 456, 352
-0.988895, 185, 265, 216, 328
-0.988986, 81, 57, 112, 120
-0.988999, 69, 233, 100, 296
-0.989053, 205, 273, 236, 336
-0.989217, 457, 225, 488, 352
-0.989275, 97, 1, 224, 128
-0.989309, 273, 257, 400, 320
-0.989331, 321, 177, 352, 304
-0.989341, 25, 249, 56, 312
-0.989341, 465, 145, 496, 272
-0.98936, 409, 1, 472, 64
-0.989381, 209, 313, 272, 375
-0.989411, 369, 1, 496, 128
-0.989412, 73, 49, 104, 176
-0.98945, 113, 345, 176, 375
-0.98948, 97, 257, 128, 320
-0.989518, 129, 201, 256, 264
-0.989518, 85, 65, 116, 192
-0.989583, 81, 1, 144, 375
-0.989587, 121, 273, 152, 336
-0.989612, 1, 81, 128, 144
-0.989665, 73, 1, 136, 64
-0.98967, 1, 65, 64, 192
-0.989676, 5, 57, 36, 120
-0.989681, 65, 209, 96, 272
-0.989703, 1, 49, 32, 176
-0.989756, 409, 169, 472, 232
-0.989919, 89, 193, 120, 256
-0.989973, 201, 185, 232, 248
-0.990049, 217, 129, 280, 192
-0.990082, 197, 241, 228, 368
-0.99009, 369, 233, 496, 296
-0.99012, 273, 313, 336, 375
-0.99014, 281, 177, 312, 304
-0.990178, 221, 273, 252, 336
-0.990178, 213, 241, 244, 368
-0.990179, 141, 313, 172, 375
-0.990241, 345, 185, 408, 248
-0.990256, 17, 193, 144, 256
-0.990269, 377, 177, 408, 304
-0.990322, 353, 121, 480, 184
-0.990336, 181, 129, 212, 256
-0.990379, 25, 33, 88, 96
-0.990421, 49, 17, 176, 80
-0.990474, 405, 225, 436, 352
-0.990488, 281, 273, 344, 336
-0.990506, 73, 289, 136, 352
-0.990556, 345, 105, 408, 168
-0.990557, 397, 177, 428, 304
-0.990573, 69, 1, 100, 64
-0.990587, 17, 289, 144, 352
-0.990591, 41, 237, 104, 268
-0.990597, 149, 161, 180, 288
-0.990604, 209, 313, 336, 375
-0.990647, 249, 241, 312, 368
-0.990666, 145, 81, 272, 208
-0.990688, 409, 89, 472, 152
-0.9907, 257, 129, 320, 375
-0.990723, 145, 257, 208, 288
-0.99076, 313, 273, 376, 336
-0.990761, 321, 241, 448, 304
-0.990764, 253, 193, 284, 320
-0.990779, 185, 201, 248, 232
-0.990792, 73, 97, 136, 224
-0.990806, 337, 313, 400, 375
-0.990829, 73, 1, 136, 256
-0.990873, 241, 193, 272, 320
-0.990881, 229, 241, 260, 368
-0.990904, 161, 237, 224, 268
-0.990905, 101, 177, 132, 304
-0.990931, 81, 113, 208, 176
-0.991019, 357, 177, 388, 304
-0.99103, 329, 65, 392, 320
-0.991041, 337, 273, 400, 336
-0.991077, 137, 1, 200, 375
-0.991125, 125, 161, 156, 288
-0.991159, 353, 161, 416, 224
-0.991183, 449, 161, 480, 224
-0.991194, 29, 225, 60, 352
-0.991207, 369, 201, 496, 264
-0.991207, 93, 153, 124, 216
-0.991269, 1, 249, 256, 312
-0.991296, 113, 1, 176, 375
-0.991315, 153, 181, 216, 212
-0.991332, 129, 313, 160, 375
-0.991332, 225, 193, 256, 320
-0.991341, 233, 313, 296, 375
-0.991367, 69, 169, 100, 232
-0.991392, 109, 313, 140, 375
-0.991404, 225, 161, 352, 224
-0.991407, 69, 145, 100, 272
-0.991417, 169, 225, 232, 256
-0.991431, 377, 153, 440, 216
-0.99144, 49, 45, 112, 76
-0.991459, 273, 49, 400, 176
-0.991462, 57, 61, 120, 92
-0.991465, 217, 129, 280, 375
-0.991467, 281, 97, 344, 160
-0.991468, 121, 257, 184, 288
-0.991474, 145, 269, 208, 300
-0.991492, 65, 49, 96, 112
-0.991497, 81, 261, 144, 292
-0.991525, 1, 1, 64, 32
-0.991528, 289, 313, 416, 375
-0.991548, 433, 1, 496, 64
-0.99157, 169, 213, 232, 244
-0.991604, 381, 225, 412, 352
-0.99162, 169, 269, 232, 300
-0.991677, 17, 81, 80, 112
-0.991707, 433, 165, 496, 196
-0.991707, 89, 345, 152, 375
-0.991753, 437, 177, 468, 240
-0.991769, 233, 281, 264, 344
-0.991772, 465, 161, 496, 224
-0.991796, 105, 273, 168, 304
-0.991811, 49, 137, 176, 200
-0.991821, 81, 189, 144, 220
-0.991838, 153, 337, 216, 368
-0.991861, 177, 189, 240, 220
-0.991868, 305, 105, 432, 168
-0.991886, 369, 9, 496, 72
-0.991921, 321, 169, 448, 232
-0.991932, 121, 177, 184, 208
-0.99196, 209, 249, 336, 312
-0.992031, 73, 173, 136, 204
-0.992046, 337, 161, 368, 288
-0.992054, 161, 121, 288, 184
-0.992064, 137, 237, 200, 268
-0.992073, 73, 45, 136, 76
-0.992074, 17, 241, 80, 272
-0.992077, 65, 81, 128, 144
-0.992086, 273, 269, 336, 300
-0.992101, 129, 281, 192, 312
-0.992107, 261, 129, 292, 256
-0.992109, 49, 249, 112, 280
-0.992126, 257, 177, 288, 240
-0.992127, 41, 221, 104, 252
-0.99213, 357, 241, 388, 368
-0.992135, 281, 113, 344, 144
-0.992135, 17, 257, 80, 288
-0.992153, 41, 77, 104, 108
-0.992156, 265, 193, 296, 320
-0.99216, 65, 177, 320, 240
-0.992197, 33, 1, 96, 32
-0.992205, 49, 209, 112, 240
-0.992207, 273, 133, 336, 164
-0.992221, 113, 161, 144, 288
-0.992226, 281, 153, 344, 184
-0.992228, 9, 61, 72, 92
-0.992241, 1, 13, 64, 44
-0.992249, 129, 165, 192, 196
-0.99225, 277, 169, 308, 232
-0.992273, 369, 89, 496, 152
-0.992287, 209, 1, 336, 128
-0.992299, 433, 185, 496, 216
-0.992329, 161, 201, 224, 232
-0.992338, 73, 33, 136, 64
-0.992351, 201, 213, 264, 244
-0.99236, 113, 333, 176, 364
-0.992385, 149, 273, 180, 336
-0.992388, 153, 169, 216, 200
-0.992399, 209, 121, 336, 184
-0.992411, 49, 197, 112, 228
-0.992413, 81, 161, 144, 192
-0.992427, 49, 21, 112, 52
-0.992434, 273, 129, 400, 192
-0.992435, 85, 233, 116, 296
-0.992435, 153, 129, 216, 192
-0.992435, 225, 81, 352, 208
-0.992438, 249, 201, 312, 232
-0.99244, 49, 73, 176, 136
-0.99245, 49, 173, 112, 204
-0.99245, 201, 277, 264, 308
-0.992477, 313, 1, 376, 375
-0.992482, 469, 193, 500, 320
-0.992487, 65, 229, 128, 260
-0.992493, 289, 281, 416, 344
-0.992505, 401, 173, 464, 204
-0.992522, 185, 249, 248, 280
-0.992526, 453, 233, 484, 296
-0.992526, 233, 337, 296, 368
-0.992527, 137, 161, 168, 288
-0.992528, 81, 57, 144, 88
-0.992528, 1, 145, 128, 208
-0.992543, 65, 345, 128, 375
-0.992554, 145, 345, 176, 375
-0.992567, 329, 169, 392, 200
-0.992567, 17, 269, 80, 300
-0.992568, 25, 1, 56, 128
-0.992579, 145, 213, 208, 244
-0.992579, 25, 1, 88, 256
-0.992588, 57, 261, 120, 292
-0.992602, 321, 169, 352, 232
-0.992613, 333, 113, 364, 240
-0.992615, 25, 297, 88, 328
-0.992618, 185, 237, 248, 268
-0.992622, 177, 169, 240, 200
-0.992632, 249, 273, 312, 304
-0.992637, 233, 145, 296, 176
-0.992652, 41, 81, 104, 144
-0.992653, 129, 129, 192, 160
-0.992654, 289, 181, 352, 212
-0.992659, 49, 33, 112, 64
-0.992677, 249, 169, 312, 200
-0.992703, 297, 265, 360, 296
-0.992705, 313, 253, 376, 284
-0.99271, 305, 169, 368, 200
-0.992715, 309, 161, 340, 288
-0.992739, 145, 225, 208, 256
-0.992746, 257, 149, 320, 180
-0.992756, 189, 201, 220, 232
-0.992759, 233, 133, 296, 164
-0.99276, 361, 245, 424, 276
-0.99277, 57, 161, 120, 192
-0.992778, 417, 237, 480, 268
-0.992796, 153, 129, 216, 160
-0.992807, 313, 185, 376, 216
-0.992808, 273, 197, 336, 228
-0.992814, 129, 309, 192, 340
-0.992815, 17, 93, 80, 124
-0.992816, 169, 237, 200, 268
-0.992822, 65, 73, 128, 104
-0.992833, 385, 241, 448, 272
-0.992837, 21, 1, 52, 64
-0.992846, 225, 265, 288, 296
-0.992853, 153, 325, 216, 356
-0.992854, 385, 109, 448, 140
-0.992859, 337, 253, 400, 284
-0.992859, 145, 145, 208, 176
-0.99286, 1, 25, 64, 56
-0.992863, 173, 265, 204, 328
-0.992868, 169, 249, 200, 280
-0.99287, 225, 281, 288, 312
-0.992879, 305, 145, 368, 176
-0.992882, 305, 157, 368, 188
-0.992892, 209, 201, 272, 232
-0.992897, 281, 169, 344, 200
-0.992908, 177, 225, 208, 256
-0.992916, 281, 333, 344, 364
-0.992919, 409, 345, 472, 375
-0.992932, 109, 345, 140, 375
-0.992935, 161, 285, 224, 316
-0.992947, 433, 213, 496, 244
-0.992954, 345, 189, 408, 220
-0.992956, 65, 85, 128, 116
-0.992959, 437, 233, 468, 296
-0.992959, 81, 241, 144, 272
-0.992966, 157, 113, 188, 240
-0.992966, 265, 185, 328, 216
-0.992968, 169, 141, 232, 172
-0.992971, 57, 289, 120, 320
-0.992974, 1, 49, 64, 80
-0.992992, 89, 293, 152, 324
-0.992993, 33, 57, 96, 88
-0.993002, 1, 345, 64, 375
-0.993004, 25, 281, 88, 312
-0.993005, 177, 317, 240, 348
-0.993007, 185, 185, 216, 216
-0.993012, 225, 189, 288, 220
-0.993017, 201, 321, 264, 352
-0.993019, 305, 337, 368, 368
-0.993021, 345, 337, 408, 368
-0.993024, 201, 185, 264, 216
-0.993026, 1, 97, 64, 160
-0.993041, 193, 225, 256, 256
-0.993057, 65, 237, 96, 268
-0.993059, 77, 37, 108, 68
-0.993067, 33, 1, 96, 375
-0.993073, 225, 201, 288, 264
-0.993076, 181, 213, 212, 244
-0.993088, 377, 273, 440, 336
-0.993088, 305, 109, 368, 140
-0.993089, 1, 1, 64, 375
-0.993101, 345, 105, 408, 136
-0.993109, 377, 93, 440, 124
-0.993114, 433, 197, 496, 228
-0.993114, 33, 1, 64, 32
-0.993122, 409, 153, 472, 184
-0.993126, 77, 49, 108, 80
-0.993129, 105, 161, 168, 192
-0.993131, 345, 137, 408, 200
-0.993132, 321, 1, 448, 128
-0.993143, 433, 225, 496, 256
-0.993146, 225, 153, 288, 216
-0.993149, 157, 257, 188, 288
-0.993154, 49, 301, 112, 332
-0.993155, 169, 117, 232, 148
-0.993156, 181, 269, 212, 300
-0.993167, 189, 229, 220, 260
-0.993175, 133, 177, 164, 208
-0.993176, 85, 161, 116, 192
-0.993183, 125, 345, 156, 375
-0.993183, 317, 97, 348, 224
-0.993187, 45, 229, 76, 260
-0.99319, 205, 193, 236, 224
-0.993192, 81, 61, 112, 92
-0.993192, 81, 253, 112, 284
-0.993208, 85, 193, 116, 224
-0.993222, 145, 333, 176, 364
-0.993226, 1, 25, 32, 56
-0.993227, 113, 113, 176, 176
-0.993239, 265, 273, 296, 336
-0.99324, 1, 61, 32, 92
-0.993245, 73, 173, 104, 204
-0.99326, 97, 345, 128, 375
-0.993274, 253, 201, 284, 264
-0.993279, 173, 185, 204, 216
-0.993279, 5, 1, 36, 32
-0.993283, 129, 41, 192, 104
-0.99329, 185, 173, 216, 204
-0.993312, 117, 269, 148, 300
-0.993312, 137, 269, 168, 300
-0.993313, 465, 217, 496, 280
-0.993316, 149, 169, 180, 200
-0.993317, 165, 337, 196, 368
-0.993319, 73, 25, 104, 56
-0.993321, 133, 165, 164, 196
-0.993331, 133, 281, 164, 312
-0.993336, 297, 169, 328, 232
-0.993342, 9, 13, 40, 44
-0.993342, 217, 277, 248, 308
-0.993344, 185, 257, 216, 288
-0.99335, 97, 49, 224, 176
-0.993351, 453, 169, 484, 200
-0.993353, 161, 173, 192, 204
-0.993359, 93, 261, 124, 292
-0.993366, 85, 73, 116, 104
-0.993368, 69, 217, 100, 248
-0.993371, 69, 13, 100, 44
-0.993371, 85, 233, 116, 264
-0.993374, 69, 249, 100, 280
-0.993376, 205, 273, 236, 304
-0.993379, 25, 253, 56, 284
-0.993384, 385, 81, 448, 144
-0.993388, 193, 269, 224, 300
-0.993391, 97, 157, 128, 188
-0.993394, 17, 289, 80, 352
-0.993396, 69, 61, 100, 92
-0.993402, 1, 37, 32, 68
-0.993411, 153, 269, 184, 300
-0.993412, 401, 209, 464, 272
-0.993412, 329, 225, 392, 288
-0.99342, 433, 193, 464, 224
-0.993425, 29, 293, 60, 324
-0.993428, 429, 177, 460, 208
-0.993436, 105, 261, 136, 292
-0.993442, 133, 257, 164, 288
-0.993447, 177, 153, 208, 216
-0.993449, 73, 137, 136, 200
-0.993459, 41, 129, 104, 192
-0.993459, 465, 165, 496, 196
-0.993466, 189, 245, 220, 276
-0.993466, 33, 241, 64, 272
-0.993469, 261, 201, 292, 232
-0.99347, 321, 185, 352, 216
-0.993474, 45, 85, 76, 116
-0.993476, 465, 229, 496, 260
-0.993478, 193, 145, 224, 272
-0.993483, 25, 85, 56, 116
-0.993484, 61, 45, 92, 76
-0.993493, 45, 1, 76, 32
-0.993496, 437, 237, 468, 268
-0.993497, 269, 165, 300, 196
-0.9935, 269, 273, 300, 304
-0.993502, 201, 181, 232, 212
-0.993506, 253, 173, 284, 204
-0.99351, 445, 181, 476, 212
-0.99351, 253, 189, 284, 220
-0.993511, 133, 329, 164, 360
-0.993516, 241, 177, 272, 240
-0.993516, 85, 173, 116, 204
-0.993518, 229, 281, 260, 312
-0.993519, 277, 113, 308, 240
-0.993519, 269, 137, 300, 168
-0.99352, 69, 205, 100, 236
-0.993523, 169, 265, 200, 296
-0.993527, 9, 81, 40, 112
-0.993527, 69, 161, 100, 192
-0.993529, 145, 181, 176, 212
-0.993531, 113, 185, 144, 216
-0.993531, 1, 49, 32, 80
-0.993531, 301, 241, 332, 368
-0.993533, 57, 225, 88, 256
-0.993533, 297, 177, 328, 208
-0.993535, 73, 73, 104, 104
-0.993535, 173, 169, 204, 200
-0.993536, 53, 241, 84, 272
-0.993538, 289, 269, 320, 300
-0.993539, 169, 213, 200, 244
-0.993539, 41, 297, 72, 328
-0.99354, 193, 217, 224, 248
-0.993541, 277, 149, 308, 180
-0.993541, 217, 201, 248, 232
-0.993542, 397, 189, 428, 220
-0.993548, 277, 197, 308, 228
-0.993551, 161, 193, 416, 256
-0.993553, 157, 245, 188, 276
-0.993555, 53, 301, 84, 332
-0.993557, 97, 49, 128, 80
-0.993558, 241, 189, 272, 220
-0.993559, 417, 193, 448, 224
-0.993559, 33, 273, 288, 336
-0.99356, 249, 201, 280, 232
-0.993563, 401, 241, 432, 272
-0.993564, 333, 169, 364, 200
-0.993569, 89, 313, 120, 375
-0.993571, 161, 325, 192, 356
-0.993574, 205, 213, 236, 244
-0.993575, 9, 97, 40, 128
-0.993587, 269, 185, 300, 216
-0.993588, 257, 277, 288, 308
-0.993588, 449, 241, 480, 272
-0.993589, 25, 65, 56, 96
-0.993591, 273, 249, 336, 312
-0.993593, 97, 177, 128, 208
-0.993596, 169, 277, 200, 308
-0.993599, 345, 169, 376, 200
-0.9936, 93, 61, 124, 92
-0.993603, 417, 181, 448, 212
-0.993605, 305, 265, 336, 296
-0.993606, 89, 93, 120, 124
-0.993606, 261, 149, 292, 180
-0.993608, 241, 177, 272, 208
-0.99361, 65, 1, 96, 32
-0.993611, 73, 193, 104, 224
-0.993611, 245, 285, 276, 316
-0.993614, 337, 1, 400, 375
-0.993614, 121, 169, 152, 200
-0.993666, 177, 1, 240, 375
-0.993667, 433, 145, 464, 208
-0.993679, 89, 129, 120, 256
-0.993691, 361, 305, 424, 368
-0.993703, 133, 113, 164, 240
-0.993717, 109, 153, 140, 216
-0.993745, 241, 129, 272, 256
-0.993772, 129, 177, 160, 240
-0.993823, 129, 249, 160, 312
-0.993851, 1, 225, 256, 288
-0.993862, 369, 313, 496, 375
-0.993863, 33, 201, 288, 264
-0.993876, 61, 17, 92, 144
-0.993884, 97, 17, 128, 144
-0.993916, 169, 113, 200, 240
-0.993938, 297, 113, 328, 240
-0.993955, 1, 185, 500, 248
-0.993974, 141, 249, 172, 312
-0.993986, 369, 1, 432, 375
-0.993995, 245, 305, 276, 368
-0.994015, 293, 177, 324, 304
-0.99404, 77, 193, 108, 256
-0.994041, 113, 41, 240, 104
-0.994121, 337, 161, 368, 224
-0.994145, 273, 1, 336, 375
-0.994188, 433, 105, 496, 168
-0.994196, 425, 1, 488, 375
-0.994226, 385, 1, 448, 64
-0.994249, 201, 153, 264, 216
-0.994296, 353, 97, 384, 224
-0.994303, 321, 1, 448, 64
-0.994412, 97, 181, 224, 212
-0.994418, 421, 169, 452, 232
-0.994423, 297, 225, 360, 288
-0.994441, 1, 161, 500, 224
-0.994441, 177, 113, 240, 176
-0.994466, 153, 1, 216, 256
-0.994498, 9, 313, 72, 375
-0.994533, 245, 281, 276, 344
-0.994537, 257, 105, 384, 168
-0.994548, 97, 65, 160, 192
-0.99455, 425, 233, 456, 296
-0.994587, 377, 129, 440, 192
-0.994637, 401, 297, 464, 360
-0.994643, 45, 1, 76, 64
-0.994662, 213, 201, 244, 264
-0.994678, 257, 185, 500, 248
-0.994698, 321, 217, 448, 280
-0.994727, 145, 153, 176, 216
-0.994736, 65, 345, 192, 375
-0.994751, 225, 209, 352, 272
-0.994788, 129, 313, 384, 375
-0.994789, 121, 113, 152, 240
-0.994792, 193, 1, 320, 64
-0.994792, 305, 49, 368, 176
-0.994829, 465, 97, 496, 224
-0.994834, 97, 25, 160, 88
-0.994842, 161, 281, 192, 344
-0.994858, 165, 313, 196, 375
-0.99486, 425, 33, 488, 288
-0.994863, 309, 161, 340, 224
-0.994896, 53, 273, 84, 336
-0.994917, 1, 305, 256, 368
-0.994925, 409, 241, 440, 304
-0.994931, 193, 161, 224, 224
-0.994934, 161, 161, 416, 224
-0.994952, 41, 265, 72, 328
-0.994973, 241, 121, 304, 184
-0.994999, 321, 81, 448, 144
-0.995004, 29, 57, 60, 120
-0.99503, 1, 17, 16, 80
-0.995057, 69, 241, 100, 368
-0.995089, 265, 241, 296, 368
-0.995106, 249, 241, 280, 368
-0.995128, 393, 225, 424, 352
-0.995139, 129, 273, 384, 336
-0.99514, 321, 89, 384, 152
-0.99514, 233, 257, 296, 320
-0.995149, 105, 113, 136, 240
-0.99515, 193, 225, 208, 288
-0.99515, 1, 249, 128, 280
-0.995153, 277, 265, 308, 328
-0.995172, 369, 185, 432, 248
-0.995186, 97, 241, 352, 304
-0.9952, 29, 177, 60, 304
-0.995265, 241, 201, 272, 264
-0.995266, 401, 33, 464, 288
-0.99528, 353, 225, 416, 288
-0.995308, 345, 1, 408, 64
-0.995323, 157, 145, 188, 208
-0.995327, 109, 177, 140, 240
-0.99533, 183, 201, 198, 264
-0.995333, 89, 33, 120, 96
-0.995335, 1, 9, 128, 40
-0.995345, 17, 261, 144, 292
-0.995362, 97, 257, 224, 288
-0.995368, 57, 233, 88, 296
-0.995375, 369, 273, 496, 336
-0.995422, 401, 273, 464, 336
-0.995431, 429, 129, 460, 256
-0.99546, 225, 305, 256, 368
-0.995536, 37, 241, 68, 304
-0.995543, 393, 1, 456, 375
-0.995553, 289, 241, 320, 368
-0.995553, 221, 249, 252, 312
-0.995556, 33, 97, 96, 352
-0.995578, 17, 73, 48, 136
-0.995588, 161, 65, 416, 192
-0.995635, 257, 153, 288, 216
-0.995642, 191, 177, 206, 240
-0.995648, 201, 209, 232, 272
-0.995658, 273, 233, 400, 296
-0.995676, 433, 33, 496, 160
-0.995694, 273, 25, 400, 88
-0.9957, 133, 153, 164, 216
-0.995746, 33, 289, 64, 352
-0.995782, 65, 153, 320, 216
-0.995797, 61, 25, 92, 88
-0.9958, 1, 257, 500, 320
-0.995802, 233, 233, 296, 296
-0.995825, 1, 217, 500, 280
-0.995826, 369, 225, 400, 352
-0.99583, 145, 105, 208, 168
-0.995836, 345, 81, 408, 144
-0.995843, 321, 225, 352, 352
-0.995847, 289, 265, 320, 328
-0.995854, 201, 185, 216, 248
-0.995855, 145, 113, 176, 240
-0.995858, 345, 241, 376, 368
-0.995865, 289, 1, 352, 256
-0.995869, 41, 305, 104, 368
-0.995911, 325, 249, 356, 312
-0.995912, 217, 1, 280, 128
-0.995927, 129, 269, 256, 300
-0.995932, 1, 1, 64, 256
-0.995956, 145, 341, 272, 372
-0.995959, 397, 241, 428, 304
-0.995981, 195, 201, 210, 264
-0.996011, 193, 33, 320, 96
-0.996011, 369, 185, 400, 248
-0.996038, 409, 1, 472, 128
-0.996038, 425, 1, 456, 64
-0.996046, 257, 161, 500, 224
-0.996051, 365, 97, 396, 224
-0.996063, 205, 161, 236, 224
-0.996107, 257, 137, 500, 200
-0.996119, 209, 129, 240, 256
-0.996125, 177, 189, 304, 220
-0.996139, 81, 137, 112, 200
-0.996177, 321, 193, 448, 256
-0.996187, 381, 241, 412, 304
-0.996189, 97, 1, 160, 256
-0.996206, 349, 169, 380, 232
-0.996211, 185, 177, 200, 240
-0.996223, 177, 217, 192, 280
-0.99628, 457, 305, 488, 368
-0.996293, 169, 241, 184, 304
-0.996294, 193, 249, 448, 312
-0.996324, 101, 41, 132, 104
-0.99633, 309, 185, 340, 248
-0.99633, 65, 273, 96, 336
-0.996348, 159, 257, 174, 320
-0.996349, 289, 193, 320, 256
-0.996352, 65, 245, 192, 276
-0.996359, 229, 185, 260, 248
-0.996407, 469, 193, 500, 256
-0.996409, 437, 1, 468, 64
-0.996412, 3, 49, 18, 112
-0.99643, 49, 161, 176, 192
-0.996434, 161, 205, 288, 236
-0.996441, 161, 97, 288, 160
-0.996441, 277, 241, 308, 368
-0.996457, 217, 1, 280, 375
-0.996482, 189, 201, 204, 264
-0.996491, 369, 1, 432, 128
-0.996502, 277, 193, 308, 256
-0.996506, 65, 229, 192, 260
-0.996527, 333, 241, 364, 368
-0.996533, 209, 97, 336, 160
-0.996536, 65, 269, 192, 300
-0.996588, 273, 1, 400, 64
-0.996606, 97, 289, 128, 352
-0.99663, 97, 65, 224, 128
-0.996634, 161, 1, 288, 128
-0.996642, 91, 33, 106, 96
-0.996645, 321, 25, 448, 88
-0.996655, 177, 177, 192, 240
-0.996668, 201, 249, 232, 312
-0.996678, 185, 297, 216, 360
-0.996713, 469, 281, 500, 344
-0.996718, 297, 313, 328, 375
-0.99672, 145, 245, 272, 276
-0.996725, 197, 297, 228, 360
-0.996748, 7, 25, 22, 88
-0.996749, 85, 281, 116, 344
-0.996773, 53, 193, 84, 256
-0.996777, 17, 173, 144, 204
-0.996782, 1, 121, 128, 184
-0.996792, 249, 1, 312, 375
-0.996792, 51, 209, 66, 272
-0.996802, 301, 265, 332, 328
-0.996808, 9, 193, 40, 320
-0.996815, 87, 249, 102, 312
-0.996823, 241, 257, 272, 320
-0.996837, 1, 61, 128, 92
-0.996837, 85, 17, 100, 80
-0.996851, 87, 217, 102, 280
-0.996857, 89, 81, 120, 144
-0.996869, 93, 1, 124, 64
-0.996871, 145, 225, 272, 256
-0.99688, 97, 65, 128, 192
-0.996895, 153, 257, 168, 320
-0.996905, 129, 17, 256, 80
-0.996929, 47, 1, 62, 64
-0.996948, 409, 185, 440, 248
-0.996948, 445, 209, 476, 272
-0.99695, 369, 249, 400, 312
-0.996969, 361, 1, 424, 256
-0.996972, 209, 297, 240, 360
-0.996992, 133, 273, 148, 336
-0.996995, 81, 169, 96, 232
-0.99701, 229, 129, 260, 256
-0.997012, 93, 185, 108, 248
-0.99702, 217, 169, 248, 232
-0.99704, 1, 21, 128, 52
-0.997043, 1, 41, 128, 72
-0.997058, 121, 153, 152, 216
-0.997065, 17, 241, 48, 368
-0.997068, 27, 249, 42, 312
-0.997099, 33, 209, 64, 272
-0.997107, 81, 193, 208, 224
-0.997115, 177, 177, 304, 208
-0.997119, 123, 265, 138, 328
-0.997127, 9, 97, 72, 352
-0.997127, 257, 97, 500, 160
-0.997132, 369, 33, 496, 96
-0.997139, 385, 129, 416, 256
-0.997139, 177, 257, 304, 288
-0.997177, 425, 193, 456, 256
-0.997207, 225, 273, 480, 336
-0.99725, 183, 249, 198, 312
-0.997251, 113, 329, 240, 360
-0.997255, 225, 197, 352, 228
-0.997262, 95, 257, 110, 320
-0.997264, 113, 257, 128, 320
-0.997277, 209, 269, 336, 300
-0.997301, 445, 129, 476, 375
-0.997302, 95, 57, 110, 120
-0.997322, 189, 257, 204, 320
-0.997327, 1, 81, 128, 112
-0.997347, 273, 189, 400, 220
-0.997362, 33, 281, 160, 312
-0.997367, 49, 161, 80, 288
-0.997367, 1, 93, 128, 124
-0.997378, 59, 217, 74, 280
-0.997406, 17, 237, 144, 268
-0.997406, 31, 1, 46, 64
-0.997417, 35, 241, 50, 304
-0.997437, 1, 17, 16, 48
-0.997437, 95, 153, 110, 216
-0.997441, 1, 313, 500, 375
-0.997447, 141, 281, 156, 344
-0.99746, 129, 313, 144, 375
-0.997462, 81, 241, 96, 304
-0.997466, 97, 169, 224, 200
-0.997482, 37, 1, 52, 64
-0.997495, 87, 161, 102, 224
-0.997512, 223, 273, 238, 336
-0.997514, 207, 185, 222, 248
-0.997517, 201, 225, 216, 288
-0.997523, 79, 1, 94, 64
-0.99753, 229, 273, 244, 336
-0.997533, 105, 257, 120, 320
-0.997538, 453, 97, 484, 224
-0.997545, 245, 281, 260, 344
-0.997549, 197, 161, 212, 224
-0.997551, 257, 265, 384, 296
-0.997551, 161, 217, 416, 280
-0.997558, 1, 49, 256, 112
-0.997561, 481, 193, 496, 256
-0.997573, 13, 65, 44, 192
-0.997587, 369, 169, 496, 200
-0.997591, 241, 33, 304, 288
-0.997591, 103, 161, 118, 224
-0.997595, 457, 161, 472, 224
-0.997624, 479, 161, 494, 224
-0.997626, 337, 185, 464, 216
-0.997627, 117, 313, 132, 375
-0.997631, 369, 49, 496, 176
-0.997645, 79, 49, 94, 112
-0.997654, 145, 161, 272, 192
-0.997658, 157, 305, 172, 368
-0.997684, 7, 1, 22, 64
-0.997696, 9, 49, 24, 112
-0.997704, 457, 129, 488, 375
-0.997714, 147, 273, 162, 336
-0.997716, 1, 137, 500, 200
-0.997718, 155, 345, 170, 375
-0.997721, 199, 265, 214, 328
-0.997723, 65, 209, 192, 240
-0.997728, 129, 313, 256, 344
-0.997748, 217, 273, 232, 336
-0.997758, 209, 281, 336, 312
-0.997763, 145, 305, 160, 368
-0.997766, 207, 265, 222, 328
-0.997769, 111, 313, 126, 375
-0.997777, 353, 157, 480, 188
-0.997797, 81, 1, 112, 256
-0.997799, 193, 333, 320, 364
-0.997803, 1, 281, 500, 344
-0.997805, 129, 281, 256, 312
-0.997808, 19, 73, 34, 136
-0.997814, 85, 193, 100, 256
-0.997821, 81, 281, 208, 312
-0.997827, 135, 313, 150, 375
-0.997834, 305, 253, 432, 284
-0.997835, 417, 129, 448, 256
-0.997836, 123, 313, 138, 375
-0.997839, 1, 345, 128, 375
-0.997843, 49, 53, 176, 84
-0.99785, 13, 9, 28, 72
-0.997864, 25, 1, 40, 64
-0.997873, 269, 273, 284, 336
-0.99789, 81, 149, 208, 180
-0.997901, 153, 129, 184, 375
-0.997904, 273, 113, 400, 144
-0.997906, 3, 29, 18, 60
-0.997916, 173, 129, 204, 375
-0.997929, 45, 1, 60, 32
-0.997934, 85, 65, 100, 128
-0.997935, 281, 65, 344, 192
-0.997941, 225, 305, 480, 368
-0.997949, 443, 233, 458, 296
-0.997952, 1, 1, 256, 64
-0.997956, 151, 313, 166, 375
-0.997961, 37, 265, 52, 328
-0.997974, 469, 225, 484, 288
-0.997975, 257, 17, 500, 80
-0.997976, 171, 177, 186, 240
-0.997985, 1, 213, 128, 244
-0.997997, 45, 233, 60, 296
-0.998001, 441, 185, 456, 248
-0.998022, 239, 281, 254, 344
-0.99803, 169, 153, 184, 216
-0.998034, 175, 241, 190, 304
-0.998037, 255, 289, 270, 352
-0.998046, 261, 281, 276, 344
-0.998047, 65, 317, 192, 348
-0.998048, 59, 193, 74, 256
-0.998051, 273, 337, 400, 368
-0.998052, 65, 333, 192, 364
-0.998056, 459, 241, 474, 304
-0.99806, 451, 161, 466, 224
-0.998065, 257, 169, 384, 200
-0.998065, 215, 193, 230, 256
-0.998066, 49, 293, 176, 324
-0.998083, 121, 33, 184, 288
-0.998086, 75, 169, 90, 232
-0.998091, 199, 185, 214, 216
-0.998095, 49, 273, 64, 336
-0.998105, 177, 145, 304, 176
-0.99812, 453, 241, 468, 304
-0.998131, 143, 249, 158, 312
-0.998136, 183, 217, 198, 248
-0.998142, 129, 145, 256, 176
-0.998143, 53, 233, 68, 296
-0.998143, 265, 1, 328, 256
-0.998144, 97, 89, 224, 152
-0.998149, 111, 345, 126, 375
-0.998159, 369, 241, 496, 272
-0.998161, 417, 129, 448, 375
-0.998165, 49, 9, 176, 40
-0.998169, 177, 137, 192, 200
-0.998169, 79, 209, 94, 272
-0.998179, 193, 229, 208, 260
-0.998181, 277, 177, 292, 240
-0.998186, 89, 97, 120, 352
-0.998187, 165, 345, 180, 375
-0.998188, 209, 161, 224, 224
-0.998188, 167, 313, 182, 375
-0.998196, 369, 197, 496, 228
-0.998207, 43, 273, 58, 336
-0.99821, 149, 145, 164, 208
-0.998214, 1, 201, 128, 232
-0.998214, 253, 201, 268, 264
-0.998215, 141, 129, 172, 375
-0.998221, 159, 177, 174, 240
-0.998222, 183, 153, 198, 216
-0.998226, 131, 169, 146, 232
-0.998234, 189, 201, 204, 232
-0.998239, 241, 209, 256, 272
-0.998242, 31, 57, 46, 120
-0.998243, 49, 65, 176, 96
-0.998244, 475, 201, 490, 264
-0.998254, 161, 137, 416, 200
-0.998259, 5, 1, 36, 256
-0.998264, 153, 269, 184, 284
-0.998264, 65, 57, 96, 72
-0.998264, 437, 241, 468, 256
-0.998264, 153, 183, 184, 198
-0.998265, 97, 165, 128, 180
-0.998265, 29, 89, 60, 104
-0.998265, 5, 77, 36, 92
-0.998265, 325, 189, 356, 204
-0.998266, 169, 265, 200, 280
-0.998266, 249, 207, 280, 222
-0.998266, 89, 351, 120, 366
-0.998266, 233, 305, 264, 320
-0.998267, 265, 275, 296, 290
-0.998267, 73, 231, 104, 246
-0.998267, 9, 351, 40, 366
-0.998267, 49, 7, 80, 22
-0.998267, 93, 61, 108, 92
-0.998268, 21, 263, 52, 278
-0.998268, 45, 209, 60, 272
-0.998268, 135, 249, 150, 312
-0.998268, 97, 51, 128, 66
-0.998269, 1, 51, 32, 66
-0.998269, 49, 89, 80, 104
-0.998271, 421, 195, 452, 210
-0.998271, 329, 49, 392, 176
-0.998271, 29, 79, 60, 94
-0.998271, 421, 189, 452, 204
-0.998271, 41, 81, 72, 96
-0.998271, 201, 275, 232, 290
-0.998272, 73, 163, 104, 178
-0.998272, 189, 225, 220, 240
-0.998273, 77, 177, 108, 192
-0.998273, 105, 191, 136, 206
-0.998274, 185, 255, 216, 270
-0.998274, 233, 203, 264, 218
-0.998274, 233, 285, 264, 300
-0.998274, 77, 359, 108, 374
-0.998275, 275, 273, 290, 336
-0.998275, 205, 193, 236, 208
-0.998275, 59, 273, 74, 336
-0.998275, 137, 361, 168, 375
-0.998275, 69, 193, 100, 208
-0.998275, 293, 345, 324, 360
-0.998276, 405, 243, 436, 258
-0.998277, 433, 183, 464, 198
-0.998278, 1, 35, 32, 50
-0.998279, 465, 169, 496, 184
-0.99828, 189, 247, 220, 262
-0.998282, 69, 225, 100, 240
-0.998282, 253, 283, 284, 298
-0.998282, 321, 109, 448, 140
-0.998283, 221, 299, 252, 314
-0.998284, 101, 71, 132, 86
-0.998284, 5, 29, 36, 44
-0.998285, 277, 273, 308, 288
-0.998287, 189, 237, 220, 252
-0.998289, 265, 281, 296, 296
-0.998289, 453, 169, 484, 184
-0.99829, 289, 269, 320, 284
-0.998291, 401, 193, 432, 208
-0.998292, 61, 231, 92, 246
-0.998292, 81, 241, 112, 256
-0.998292, 1, 43, 32, 58
-0.998293, 449, 185, 480, 200
-0.998293, 97, 63, 128, 78
-0.998293, 105, 185, 120, 248
-0.998293, 65, 171, 96, 186
-0.998296, 9, 101, 40, 116
-0.998296, 97, 263, 128, 278
-0.998297, 157, 263, 188, 278
-0.998297, 1, 69, 32, 84
-0.998298, 433, 193, 464, 208
-0.998299, 77, 73, 108, 88
-0.998299, 85, 81, 116, 96
-0.9983, 73, 29, 104, 44
-0.9983, 1, 61, 32, 76
-0.998301, 69, 17, 100, 32
-0.998302, 49, 37, 176, 68
-0.998302, 89, 361, 120, 375
-0.998303, 125, 279, 156, 294
-0.998303, 77, 257, 108, 272
-0.998303, 101, 355, 132, 370
-0.998305, 221, 281, 252, 296
-0.998305, 239, 313, 254, 375
-0.998306, 253, 201, 284, 216
-0.998307, 113, 273, 144, 288
-0.998308, 159, 145, 174, 208
-0.998308, 25, 257, 56, 272
-0.998308, 185, 263, 216, 278
-0.998309, 49, 233, 80, 248
-0.99831, 133, 181, 164, 196
-0.998313, 69, 23, 100, 38
-0.998313, 161, 351, 192, 366
-0.998313, 5, 5, 36, 20
-0.998314, 89, 195, 120, 210
-0.998314, 45, 1, 76, 16
-0.998315, 1, 73, 16, 136
-0.998315, 329, 185, 344, 248
-0.998316, 33, 295, 64, 310
-0.998318, 263, 177, 278, 240
-0.99832, 69, 63, 100, 78
-0.998321, 1, 23, 32, 38
-0.998322, 185, 271, 216, 286
-0.998322, 161, 177, 192, 192
-0.998324, 69, 249, 100, 264
-0.998325, 145, 177, 176, 192
-0.998328, 181, 179, 212, 194
-0.998328, 143, 177, 158, 240
-0.99833, 45, 241, 76, 256
-0.998331, 145, 279, 176, 294
-0.998332, 181, 215, 212, 230
-0.998333, 473, 161, 488, 224
-0.998334, 97, 159, 128, 174
-0.998334, 137, 273, 168, 288
-0.998338, 111, 177, 126, 240
-0.998338, 185, 209, 216, 224
-0.998339, 25, 9, 56, 24
-0.998341, 65, 237, 96, 252
-0.998341, 145, 351, 176, 366
-0.998345, 141, 153, 156, 216
-0.998345, 193, 125, 320, 156
-0.998346, 161, 357, 192, 372
-0.998347, 129, 347, 160, 362
-0.998349, 81, 57, 112, 72
-0.998351, 201, 199, 232, 214
-0.998351, 81, 171, 112, 186
-0.998351, 73, 35, 104, 50
-0.998353, 185, 129, 216, 375
-0.998354, 5, 15, 36, 30
-0.998356, 53, 1, 68, 64
-0.998357, 165, 183, 196, 198
-0.998359, 189, 231, 220, 246
-0.99836, 89, 73, 120, 88
-0.998361, 187, 225, 202, 288
-0.998362, 227, 305, 242, 368
-0.998364, 105, 313, 120, 375
-0.998364, 61, 33, 92, 288
-0.998364, 77, 45, 108, 60
-0.998365, 77, 51, 108, 66
-0.998369, 193, 185, 208, 216
-0.99837, 149, 177, 164, 240
-0.998371, 85, 165, 116, 180
-0.998371, 61, 243, 92, 258
-0.998372, 149, 361, 180, 375
-0.998372, 185, 187, 216, 202
-0.998375, 269, 177, 284, 240
-0.998376, 445, 153, 460, 216
-0.998378, 249, 305, 264, 368
-0.998382, 269, 201, 284, 264
-0.998384, 225, 153, 352, 184
-0.998388, 61, 225, 76, 256
-0.998389, 73, 201, 88, 264
-0.998391, 165, 257, 196, 272
-0.998392, 157, 261, 172, 292
-0.998393, 177, 223, 208, 238
-0.998396, 169, 245, 184, 276
-0.998397, 81, 67, 112, 82
-0.998397, 401, 113, 432, 240
-0.998399, 329, 129, 360, 375
-0.998401, 369, 49, 432, 176
-0.998401, 225, 345, 352, 375
-0.998402, 1, 25, 500, 88
-0.998406, 65, 129, 320, 192
-0.998408, 37, 7, 68, 22
-0.998411, 189, 203, 220, 218
-0.998414, 207, 193, 222, 224
-0.998419, 17, 333, 144, 364
-0.998423, 173, 235, 204, 250
-0.998424, 13, 21, 28, 52
-0.998427, 177, 229, 208, 244
-0.998427, 85, 233, 100, 264
-0.998428, 1, 185, 128, 216
-0.998428, 1, 5, 16, 36
-0.998433, 33, 1, 64, 16
-0.998444, 173, 241, 204, 256
-0.998444, 1, 25, 256, 88
-0.998445, 9, 9, 24, 40
-0.998447, 1, 89, 256, 152
-0.998448, 169, 251, 200, 266
-0.998454, 97, 301, 224, 332
-0.998465, 85, 253, 100, 284
-0.998466, 7, 57, 22, 88
-0.998466, 105, 1, 168, 128
-0.998476, 109, 347, 140, 362
-0.998477, 197, 129, 228, 375
-0.998487, 469, 241, 500, 368
-0.998487, 249, 81, 312, 208
-0.998488, 157, 333, 172, 364
-0.998494, 199, 201, 214, 232
-0.998497, 25, 49, 88, 176
-0.998498, 93, 257, 108, 288
-0.998499, 97, 53, 224, 84
-0.998501, 241, 325, 368, 356
-0.998507, 145, 345, 176, 360
-0.998508, 145, 133, 272, 164
-0.99851, 163, 253, 178, 284
-0.998522, 17, 129, 80, 256
-0.998525, 369, 109, 496, 140
-0.99853, 113, 347, 176, 362
-0.99853, 101, 129, 132, 375
-0.998538, 49, 21, 176, 52
-0.99855, 1, 49, 16, 80
-0.998554, 217, 33, 280, 288
-0.99856, 321, 125, 448, 156
-0.998563, 41, 241, 104, 256
-0.998563, 129, 193, 256, 224
-0.998569, 89, 45, 104, 76
-0.998569, 1, 225, 128, 256
-0.998571, 129, 181, 192, 196
-0.998572, 149, 345, 164, 375
-0.998579, 91, 193, 106, 224
-0.998579, 309, 129, 340, 375
-0.998581, 185, 203, 248, 218
-0.998582, 183, 185, 198, 216
-0.998586, 135, 345, 150, 375
-0.998586, 117, 345, 132, 375
-0.998587, 75, 229, 90, 260
-0.998589, 145, 265, 208, 280
-0.99859, 153, 255, 216, 270
-0.998591, 161, 237, 224, 252
-0.998591, 1, 49, 500, 112
-0.998592, 123, 345, 138, 375
-0.998593, 225, 185, 352, 216
-0.998595, 113, 205, 240, 236
-0.9986, 7, 45, 22, 76
-0.9986, 305, 173, 432, 204
-0.998601, 161, 247, 224, 262
-0.998601, 177, 211, 240, 226
-0.998606, 455, 169, 470, 200
-0.998607, 177, 225, 192, 256
-0.998609, 175, 237, 190, 268
-0.99861, 377, 129, 408, 375
-0.99861, 433, 129, 464, 375
-0.998617, 33, 305, 160, 336
-0.998618, 1, 7, 64, 22
-0.998619, 169, 217, 232, 232
-0.99862, 117, 129, 148, 375
-0.998628, 191, 253, 206, 284
-0.998629, 201, 211, 264, 226
-0.998629, 85, 33, 100, 64
-0.998629, 41, 235, 104, 250
-0.998633, 169, 225, 232, 240
-0.998635, 105, 345, 120, 375
-0.998635, 1, 161, 128, 192
-0.998636, 169, 231, 232, 246
-0.998638, 145, 271, 208, 286
-0.99864, 49, 67, 112, 82
-0.998642, 113, 279, 176, 294
-0.998643, 51, 1, 66, 32
-0.998643, 433, 169, 496, 184
-0.998644, 33, 247, 96, 262
-0.998646, 73, 55, 136, 70
-0.998646, 73, 263, 136, 278
-0.998648, 49, 257, 112, 272
-0.998648, 1, 353, 64, 368
-0.998648, 141, 345, 156, 375
-0.998649, 57, 73, 120, 88
-0.998651, 161, 341, 224, 356
-0.998651, 113, 361, 176, 375
-0.998653, 121, 353, 184, 368
-0.998653, 49, 59, 112, 74
-0.998654, 73, 65, 136, 80
-0.998654, 27, 253, 42, 284
-0.998655, 305, 97, 432, 128
-0.998655, 73, 49, 136, 64
-0.998656, 97, 353, 160, 368
-0.998656, 33, 1, 96, 16
-0.998656, 95, 161, 110, 192
-0.998656, 115, 261, 130, 292
-0.998657, 49, 47, 112, 62
-0.998658, 65, 359, 128, 374
-0.998659, 265, 277, 328, 292
-0.998662, 105, 273, 168, 288
-0.998662, 233, 341, 296, 356
-0.998662, 153, 183, 216, 198
-0.998664, 73, 165, 136, 180
-0.998665, 81, 195, 144, 210
-0.998667, 49, 223, 112, 238
-0.998668, 169, 271, 232, 286
-0.998669, 129, 345, 144, 375
-0.99867, 97, 133, 224, 164
-0.99867, 143, 177, 158, 208
-0.998671, 73, 43, 136, 58
-0.998671, 81, 273, 144, 288
-0.998672, 137, 277, 200, 292
-0.998672, 17, 259, 80, 274
-0.998672, 21, 9, 36, 40
-0.998674, 65, 173, 128, 188
-0.998674, 137, 347, 200, 362
-0.998675, 49, 81, 112, 96
-0.998675, 65, 233, 128, 248
-0.998676, 289, 165, 352, 180
-0.998677, 433, 191, 496, 206
-0.998678, 1, 1, 64, 16
-0.998679, 137, 241, 200, 256
-0.99868, 137, 249, 200, 264
-0.998681, 113, 257, 176, 272
-0.998681, 177, 261, 240, 276
-0.998681, 41, 7, 104, 22
-0.998682, 113, 267, 176, 282
-0.998682, 177, 279, 240, 294
-0.998682, 49, 53, 112, 68
-0.998683, 87, 165, 102, 196
-0.998684, 17, 71, 80, 86
-0.998684, 65, 351, 128, 366
-0.998684, 177, 255, 240, 270
-0.998684, 137, 283, 200, 298
-0.998685, 49, 21, 112, 36
-0.998685, 161, 205, 224, 220
-0.998685, 129, 129, 160, 375
-0.998686, 17, 79, 80, 94
-0.998686, 49, 213, 112, 228
-0.998686, 137, 235, 200, 250
-0.998688, 17, 13, 80, 28
-0.998688, 89, 347, 152, 362
-0.998689, 401, 129, 432, 375
-0.99869, 17, 267, 80, 282
-0.99869, 321, 137, 448, 168
-0.99869, 369, 217, 496, 248
-0.99869, 185, 197, 248, 212
-0.998692, 273, 199, 336, 214
-0.998692, 469, 129, 500, 375
-0.998692, 161, 177, 224, 192
-0.998692, 49, 163, 112, 178
-0.998696, 49, 33, 112, 48
-0.998696, 345, 129, 376, 375
-0.998697, 153, 355, 216, 370
-0.998697, 369, 129, 496, 160
-0.998697, 41, 229, 104, 244
-0.998697, 281, 345, 344, 360
-0.998697, 81, 251, 144, 266
-0.998697, 189, 265, 204, 296
-0.998698, 201, 279, 264, 294
-0.998699, 289, 267, 352, 282
-0.998699, 81, 161, 96, 192
-0.9987, 265, 153, 328, 168
-0.9987, 481, 201, 496, 232
-0.998701, 225, 283, 288, 298
-0.998701, 233, 207, 296, 222
-0.998702, 321, 191, 384, 206
-0.998703, 65, 87, 128, 102
-0.998703, 17, 87, 80, 102
-0.998703, 81, 189, 144, 204
-0.998705, 137, 361, 200, 375
-0.998705, 129, 175, 192, 190
-0.998705, 81, 179, 144, 194
-0.998706, 113, 285, 176, 300
-0.998707, 161, 295, 224, 310
-0.998707, 161, 189, 224, 204
-0.998707, 185, 237, 248, 252
-0.998708, 9, 63, 72, 78
-0.998708, 113, 341, 176, 356
-0.998708, 81, 71, 144, 86
-0.99871, 33, 41, 96, 56
-0.99871, 17, 99, 80, 114
-0.99871, 25, 299, 88, 314
-0.998711, 257, 283, 320, 298
-0.998711, 33, 355, 96, 370
-0.998712, 1, 29, 64, 44
-0.998712, 281, 131, 344, 146
-0.998713, 173, 181, 188, 212
-0.998713, 89, 279, 152, 294
-0.998714, 217, 273, 280, 288
-0.998715, 83, 213, 98, 244
-0.998715, 17, 241, 80, 256
-0.998715, 185, 243, 248, 258
-0.998715, 257, 125, 384, 156
-0.998716, 73, 37, 136, 52
-0.998716, 75, 45, 90, 76
-0.998716, 145, 289, 208, 304
-0.998716, 153, 335, 216, 350
-0.998717, 385, 245, 448, 260
-0.998717, 193, 321, 320, 352
-0.998718, 257, 173, 320, 188
-0.998718, 49, 197, 112, 212
-0.998718, 145, 229, 208, 244
-0.998718, 17, 253, 80, 268
-0.998719, 101, 157, 116, 188
-0.998719, 17, 273, 80, 288
-0.998719, 401, 185, 464, 200
-0.99872, 41, 13, 104, 28
-0.998721, 433, 175, 496, 190
-0.998721, 433, 211, 496, 226
-0.998722, 369, 1, 496, 32
-0.998722, 41, 89, 104, 104
-0.998722, 281, 185, 344, 200
-0.998722, 161, 127, 224, 142
-0.998723, 1, 23, 64, 38
-0.998727, 83, 17, 98, 48
-0.998727, 151, 265, 166, 296
-0.99873, 199, 213, 214, 244
-0.998733, 39, 1, 54, 32
-0.998734, 125, 269, 140, 300
-0.998741, 145, 281, 160, 312
-0.998744, 83, 177, 98, 208
-0.998747, 99, 261, 114, 292
-0.998749, 443, 193, 458, 224
-0.998751, 67, 233, 82, 264
-0.998751, 69, 129, 100, 375
-0.99876, 135, 277, 150, 308
-0.998766, 305, 313, 432, 344
-0.998767, 257, 277, 384, 308
-0.998769, 83, 61, 98, 92
-0.99877, 369, 21, 496, 52
-0.998771, 441, 129, 472, 256
-0.998784, 157, 169, 172, 200
-0.998786, 209, 301, 336, 332
-0.998808, 97, 77, 112, 108
-0.998809, 479, 165, 494, 196
-0.998811, 49, 125, 176, 156
-0.998811, 461, 165, 476, 196
-0.998812, 65, 77, 192, 108
-0.998812, 143, 165, 158, 196
-0.998813, 79, 241, 94, 272
-0.99882, 241, 137, 368, 168
-0.998822, 205, 221, 220, 252
-0.99883, 219, 277, 234, 308
-0.998831, 289, 129, 320, 375
-0.998839, 19, 77, 34, 108
-0.998839, 33, 245, 48, 276
-0.998844, 149, 165, 164, 196
-0.998848, 229, 277, 244, 308
-0.998849, 97, 117, 224, 148
-0.998849, 369, 229, 496, 260
-0.998849, 107, 261, 122, 292
-0.998851, 185, 33, 248, 288
-0.998853, 183, 261, 198, 292
-0.998855, 273, 157, 400, 188
-0.998861, 179, 169, 194, 200
-0.998865, 209, 209, 336, 240
-0.998871, 195, 269, 210, 300
-0.998874, 55, 225, 70, 256
-0.998875, 369, 345, 496, 375
-0.998876, 163, 181, 178, 212
-0.998878, 161, 293, 288, 324
-0.998878, 1, 1, 16, 128
-0.998878, 209, 273, 224, 304
-0.99888, 147, 329, 162, 360
-0.998885, 183, 205, 198, 236
-0.998892, 267, 277, 282, 308
-0.998893, 169, 169, 184, 200
-0.998893, 369, 93, 496, 124
-0.998894, 61, 241, 76, 272
-0.998898, 133, 169, 148, 200
-0.998903, 167, 333, 182, 364
-0.998908, 181, 177, 196, 304
-0.99891, 53, 77, 68, 108
-0.998919, 97, 105, 352, 168
-0.998921, 33, 293, 48, 324
-0.99893, 449, 185, 464, 216
-0.99894, 469, 229, 484, 260
-0.998944, 209, 129, 240, 375
-0.998946, 79, 1, 94, 32
-0.998948, 1, 61, 16, 92
-0.998952, 209, 181, 224, 212
-0.998955, 191, 177, 206, 304
-0.998956, 185, 173, 200, 204
-0.998957, 197, 169, 212, 200
-0.998961, 39, 241, 54, 272
-0.99897, 485, 189, 500, 220
-0.998972, 83, 193, 98, 224
-0.998981, 27, 9, 42, 40
-0.998981, 219, 197, 234, 228
-0.998984, 201, 269, 216, 300
-0.998988, 25, 81, 40, 112
-0.998989, 191, 241, 206, 272
-0.998989, 49, 93, 176, 124
-0.998992, 225, 245, 352, 276
-0.998998, 357, 65, 388, 320
-0.998999, 255, 205, 270, 236
-0.999, 163, 169, 178, 200
-0.999001, 95, 181, 110, 212
-0.999001, 199, 229, 214, 260
-0.999001, 469, 165, 484, 196
-0.999002, 49, 297, 64, 328
-0.999003, 273, 81, 400, 144
-0.999005, 77, 173, 92, 204
-0.999008, 317, 181, 332, 212
-0.999014, 321, 333, 448, 364
-0.999017, 237, 281, 252, 312
-0.999019, 153, 277, 168, 308
-0.999023, 55, 237, 70, 268
-0.999025, 97, 193, 112, 224
-0.999026, 107, 181, 122, 212
-0.999028, 225, 113, 352, 144
-0.99903, 149, 177, 164, 208
-0.999042, 193, 217, 208, 248
-0.999043, 321, 241, 448, 272
-0.999047, 85, 1, 100, 128
-0.99905, 245, 209, 260, 240
-0.999061, 15, 65, 30, 96
-0.999079, 233, 129, 264, 375
-0.999081, 389, 129, 420, 375
-0.999085, 17, 109, 144, 140
-0.999085, 321, 345, 448, 375
-0.999093, 369, 145, 496, 176
-0.999114, 129, 41, 384, 104
-0.999114, 173, 161, 188, 288
-0.999154, 305, 265, 432, 296
-0.999155, 159, 241, 174, 368
-0.999156, 189, 241, 204, 368
-0.99916, 197, 177, 212, 304
-0.999161, 1, 293, 128, 324
-0.999162, 93, 177, 108, 304
-0.999168, 145, 45, 272, 76
-0.999171, 257, 129, 288, 375
-0.999176, 171, 225, 186, 352
-0.999177, 129, 9, 384, 72
-0.99918, 241, 313, 368, 344
-0.999182, 7, 1, 22, 128
-0.999202, 91, 33, 106, 160
-0.999205, 273, 49, 400, 112
-0.999206, 321, 9, 448, 40
-0.999217, 51, 209, 66, 336
-0.999235, 1, 125, 128, 156
-0.999237, 305, 281, 432, 312
-0.999238, 145, 117, 272, 148
-0.999246, 289, 301, 416, 332
-0.999251, 203, 193, 218, 320
-0.999259, 115, 241, 130, 368
-0.999261, 165, 225, 180, 352
-0.999272, 443, 177, 458, 304
-0.999276, 167, 161, 182, 288
-0.999283, 321, 49, 448, 112
-0.999296, 95, 241, 110, 368
-0.999301, 101, 241, 116, 368
-0.999303, 99, 177, 114, 304
-0.999307, 193, 221, 320, 252
-0.999307, 183, 241, 198, 368
-0.999316, 19, 1, 34, 128
-0.999322, 153, 241, 168, 368
-0.999322, 97, 49, 112, 176
-0.999324, 321, 29, 448, 60
-0.99933, 89, 241, 104, 368
-0.999333, 61, 209, 76, 336
-0.999333, 353, 253, 480, 284
-0.99934, 257, 33, 384, 64
-0.999343, 93, 1, 124, 256
-0.999347, 161, 161, 176, 288
-0.999348, 109, 241, 124, 368
-0.99935, 437, 177, 452, 304
-0.999353, 449, 161, 464, 288
-0.999355, 197, 241, 212, 368
-0.999358, 443, 225, 458, 352
-0.99936, 17, 145, 144, 176
-0.999367, 457, 145, 472, 272
-0.999371, 35, 225, 50, 352
-0.999374, 49, 1, 64, 128
-0.999375, 87, 193, 102, 320
-0.999376, 177, 225, 192, 352
-0.99938, 41, 209, 56, 336
-0.999381, 105, 177, 120, 304
-0.999382, 123, 241, 138, 368
-0.999383, 79, 1, 94, 128
-0.999388, 457, 1, 488, 256
-0.999394, 453, 225, 468, 352
-0.9994, 231, 241, 246, 368
-0.999401, 193, 41, 320, 72
-0.999401, 185, 129, 200, 256
-0.999403, 459, 225, 474, 352
-0.999404, 145, 241, 160, 368
-0.999407, 97, 65, 224, 96
-0.999414, 131, 241, 146, 368
-0.999416, 13, 1, 28, 128
-0.999422, 209, 193, 224, 320
-0.999424, 221, 129, 252, 375
-0.999431, 257, 101, 384, 132
-0.999431, 369, 333, 496, 364
-0.999433, 471, 145, 486, 272
-0.999439, 469, 209, 484, 336
-0.99944, 245, 129, 276, 375
-0.999441, 237, 193, 252, 320
-0.999441, 115, 177, 130, 304
-0.999448, 221, 193, 236, 320
-0.999451, 225, 241, 240, 368
-0.999463, 67, 209, 82, 336
-0.999464, 11, 49, 26, 176
-0.999466, 81, 161, 96, 288
-0.99947, 203, 241, 218, 368
-0.999472, 81, 225, 96, 352
-0.999474, 369, 177, 384, 304
-0.999476, 433, 225, 448, 352
-0.999476, 269, 193, 284, 320
-0.999479, 413, 177, 428, 304
-0.999479, 481, 161, 496, 288
-0.999483, 277, 129, 308, 375
-0.999483, 423, 177, 438, 304
-0.999484, 57, 239, 72, 254
-0.999484, 33, 3, 48, 18
-0.999484, 41, 243, 56, 258
-0.999484, 213, 241, 228, 368
-0.999484, 275, 277, 290, 292
-0.999484, 207, 273, 222, 288
-0.999484, 75, 51, 90, 66
-0.999485, 101, 263, 116, 278
-0.999485, 479, 167, 494, 182
-0.999485, 481, 201, 496, 216
-0.999485, 143, 277, 158, 292
-0.999485, 347, 177, 362, 304
-0.999486, 81, 17, 96, 32
-0.999487, 81, 43, 96, 58
-0.999487, 85, 233, 100, 248
-0.999487, 323, 177, 338, 304
-0.999487, 83, 193, 98, 208
-0.999487, 141, 173, 156, 188
-0.999487, 59, 231, 74, 246
-0.999487, 25, 259, 40, 274
-0.999488, 151, 175, 166, 190
-0.999488, 159, 181, 174, 196
-0.999488, 69, 241, 84, 256
-0.999488, 93, 359, 108, 374
-0.999488, 85, 221, 100, 236
-0.999489, 121, 189, 136, 204
-0.999489, 99, 81, 114, 96
-0.99949, 209, 199, 224, 214
-0.99949, 37, 293, 52, 308
-0.999491, 203, 215, 218, 230
-0.999491, 75, 171, 90, 186
-0.999492, 89, 75, 104, 90
-0.999492, 141, 181, 156, 196
-0.999492, 127, 185, 142, 200
-0.999493, 157, 267, 172, 282
-0.999493, 87, 39, 102, 54
-0.999494, 163, 255, 178, 270
-0.999494, 83, 23, 98, 38
-0.999494, 167, 183, 182, 198
-0.999494, 27, 253, 42, 268
-0.999494, 185, 179, 200, 194
-0.999495, 83, 175, 98, 190
-0.999496, 403, 177, 418, 304
-0.999497, 77, 247, 92, 262
-0.999497, 187, 271, 202, 286
-0.999497, 203, 129, 218, 256
-0.999498, 125, 273, 140, 288
-0.999498, 191, 187, 206, 202
-0.999498, 267, 281, 282, 296
-0.999498, 189, 259, 204, 274
-0.999499, 203, 193, 218, 208
-0.999499, 257, 209, 500, 272
-0.999499, 41, 1, 56, 128
-0.999499, 99, 87, 114, 102
-0.9995, 197, 271, 212, 286
-0.9995, 135, 181, 150, 196
-0.999501, 1, 5, 16, 20
-0.999501, 87, 257, 102, 272
-0.999501, 11, 33, 26, 48
-0.999502, 91, 169, 106, 184
-0.999502, 209, 193, 224, 208
-0.999503, 93, 157, 108, 172
-0.999504, 133, 279, 148, 294
-0.999504, 445, 193, 460, 208
-0.999505, 199, 221, 214, 236
-0.999506, 247, 193, 262, 320
-0.999507, 333, 177, 348, 304
-0.999508, 145, 283, 160, 298
-0.999509, 105, 359, 120, 374
-0.99951, 429, 177, 444, 304
-0.99951, 1, 57, 16, 72
-0.99951, 139, 241, 154, 368
-0.999511, 227, 193, 242, 320
-0.999511, 93, 195, 108, 210
-0.999511, 63, 241, 78, 256
-0.999511, 169, 177, 184, 192
-0.999511, 355, 177, 370, 304
-0.999512, 179, 177, 194, 192
-0.999512, 181, 227, 196, 242
-0.999513, 155, 161, 170, 288
-0.999513, 475, 209, 490, 336
-0.999513, 379, 177, 394, 304
-0.999513, 157, 175, 172, 190
-0.999514, 215, 177, 230, 304
-0.999514, 19, 15, 34, 30
-0.999514, 151, 279, 166, 294
-0.999515, 177, 237, 192, 252
-0.999515, 185, 215, 200, 230
-0.999515, 253, 193, 268, 320
-0.999516, 91, 61, 106, 76
-0.999516, 5, 51, 20, 66
-0.999516, 173, 245, 188, 260
-0.999517, 135, 347, 150, 362
-0.999517, 85, 239, 100, 254
-0.999517, 35, 9, 50, 24
-0.999517, 479, 209, 494, 224
-0.999518, 7, 57, 22, 72
-0.99952, 153, 345, 168, 360
-0.99952, 3, 11, 18, 26
-0.99952, 147, 345, 162, 360
-0.999522, 31, 1, 46, 128
-0.999522, 101, 159, 116, 174
-0.999522, 159, 261, 174, 276
-0.999523, 169, 253, 184, 268
-0.999524, 119, 347, 134, 362
-0.999524, 173, 183, 188, 198
-0.999524, 191, 129, 206, 256
-0.999526, 85, 33, 100, 48
-0.999527, 219, 241, 234, 368
-0.999527, 51, 3, 66, 18
-0.999527, 3, 45, 18, 60
-0.999529, 83, 67, 98, 82
-0.999529, 75, 235, 90, 250
-0.99953, 179, 185, 194, 200
-0.99953, 167, 347, 182, 362
-0.999531, 93, 259, 108, 274
-0.999531, 203, 199, 218, 214
-0.999533, 465, 145, 480, 272
-0.999533, 129, 347, 144, 362
-0.999533, 197, 129, 212, 256
-0.999535, 389, 177, 404, 304
-0.999535, 189, 265, 204, 280
-0.999535, 183, 221, 198, 236
-0.999535, 149, 161, 164, 288
-0.999537, 83, 251, 98, 266
-0.999537, 3, 49, 18, 176
-0.999537, 311, 177, 326, 304
-0.99954, 25, 11, 40, 26
-0.999541, 65, 233, 80, 248
-0.999542, 361, 177, 376, 304
-0.999543, 141, 345, 156, 360
-0.999543, 121, 177, 136, 304
-0.999545, 43, 9, 58, 24
-0.999545, 199, 187, 214, 202
-0.999546, 187, 207, 202, 222
-0.999548, 9, 63, 24, 78
-0.999549, 3, 39, 18, 54
-0.999549, 95, 163, 110, 178
-0.99955, 87, 163, 102, 178
-0.999552, 13, 23, 28, 38
-0.999552, 457, 167, 472, 182
-0.999554, 237, 241, 252, 368
-0.999554, 157, 361, 172, 375
-0.999554, 75, 241, 90, 256
-0.999558, 25, 1, 40, 128
-0.999559, 99, 97, 114, 224
-0.999559, 259, 193, 274, 320
-0.999563, 81, 169, 96, 184
-0.999566, 177, 113, 192, 240
-0.999568, 339, 177, 354, 304
-0.999569, 29, 225, 44, 352
-0.999571, 407, 225, 422, 352
-0.999572, 149, 113, 164, 240
-0.999572, 17, 1, 48, 256
-0.999573, 193, 203, 208, 218
-0.999577, 193, 231, 208, 246
-0.999578, 173, 1, 204, 256
-0.999579, 131, 161, 146, 288
-0.999583, 39, 1, 54, 16
-0.999583, 281, 177, 296, 304
-0.999586, 165, 353, 180, 368
-0.999587, 49, 9, 64, 24
-0.99959, 73, 193, 88, 320
-0.999591, 295, 177, 310, 304
-0.999592, 9, 15, 24, 30
-0.999592, 1, 17, 16, 32
-0.999594, 95, 73, 110, 88
-0.999594, 243, 241, 258, 368
-0.999595, 59, 1, 74, 128
-0.999596, 273, 129, 288, 256
-0.999597, 289, 177, 304, 304
-0.999597, 163, 359, 178, 374
-0.999599, 81, 49, 96, 176
-0.9996, 375, 241, 390, 368
-0.9996, 159, 113, 174, 240
-0.999603, 213, 129, 228, 256
-0.999603, 1, 33, 16, 48
-0.999605, 139, 161, 154, 288
-0.999606, 415, 225, 430, 352
-0.999606, 241, 145, 256, 272
-0.999607, 113, 345, 128, 360
-0.999608, 97, 1, 112, 128
-0.999608, 395, 177, 410, 304
-0.999609, 383, 225, 398, 352
-0.999612, 393, 225, 408, 352
-0.999615, 273, 241, 288, 368
-0.999617, 309, 1, 340, 256
-0.999618, 249, 241, 264, 368
-0.999619, 131, 113, 146, 240
-0.99962, 263, 241, 278, 368
-0.999626, 85, 113, 100, 240
-0.999626, 93, 67, 108, 82
-0.999629, 159, 345, 174, 360
-0.99963, 67, 17, 82, 144
-0.99963, 253, 145, 268, 272
-0.999635, 3, 23, 18, 38
-0.999643, 193, 57, 320, 120
-0.999663, 241, 1, 272, 128
-0.999664, 273, 209, 400, 272
-0.999667, 45, 3, 60, 18
-0.999673, 321, 1, 352, 256
-0.999676, 225, 41, 480, 104
-0.999701, 369, 65, 496, 128
-0.999759, 97, 73, 352, 136
-0.999777, 297, 1, 328, 256
-0.999779, 109, 1, 140, 256
-0.999807, 337, 33, 368, 288
-0.99984, 121, 1, 152, 256
-0.999881, 1, 105, 500, 168
-0.999882, 49, 1, 80, 256
-0.999906, 437, 33, 468, 288
-0.999927, 41, 97, 72, 352
-0.999937, 405, 1, 436, 256
-0.999942, 269, 33, 300, 288
-0.999948, 1, 73, 500, 136
-0.999995, 253, 33, 284, 288
-1.00001, 1, 97, 32, 352
-1.00003, 25, 129, 56, 375
-1.00004, 377, 1, 408, 256
-1.00004, 149, 33, 180, 288
-1.00004, 61, 65, 92, 192
-1.00008, 185, 1, 216, 256
-1.00008, 133, 1, 164, 256
-1.00011, 425, 33, 456, 288
-1.00011, 281, 33, 312, 288
-1.00011, 197, 97, 228, 224
-1.00013, 393, 1, 424, 256
-1.00019, 257, 73, 500, 136
-1.00022, 241, 33, 272, 288
-1.00024, 469, 1, 500, 256
-1.00025, 121, 33, 152, 160
-1.00027, 33, 1, 64, 256
-1.00029, 437, 81, 468, 208
-1.00032, 13, 129, 44, 375
-1.00033, 161, 1, 192, 256
-1.00036, 201, 33, 232, 288
-1.00047, 225, 33, 256, 288
-1.0005, 53, 129, 84, 375
-1.00052, 145, 65, 272, 128
-1.00055, 349, 49, 380, 176
-1.00063, 145, 49, 208, 176
-1.00064, 409, 49, 472, 176
-1.00068, 33, 49, 64, 176
-1.00068, 1, 1, 500, 64
-1.00072, 121, 65, 184, 192
-1.0008, 257, 1, 384, 128
-1.00086, 213, 33, 244, 288
-1.0009, 321, 49, 352, 176
-1.00091, 241, 1, 304, 128
-1.00096, 457, 1, 488, 128
-1.00102, 45, 49, 76, 176
-1.00103, 309, 49, 340, 176
-1.00112, 445, 1, 476, 128
-1.00115, 229, 1, 260, 128
-1.00123, 313, 1, 376, 128
-1.00132, 377, 81, 408, 208
-1.00138, 109, 17, 140, 144
-1.00143, 397, 1, 428, 128
-1.00155, 297, 49, 328, 176
-1.00156, 385, 1, 416, 128
-1.00183, 333, 33, 364, 160
-1.00207, 201, 49, 264, 176
-1.00213, 57, 113, 88, 240
-1.00239, 181, 81, 212, 208
-1.00239, 421, 1, 452, 128
-1.00243, 373, 1, 404, 128
-1.00255, 253, 1, 284, 128
-1.00256, 261, 65, 292, 192
-1.00272, 345, 1, 408, 128
-1.00301, 169, 49, 232, 176
-1.0034, 225, 65, 288, 192
-1.0035, 281, 1, 344, 128
-1.00558, 193, 1, 256, 128
-1.00694, 129, 1, 192, 128
-1.00776, 161, 1, 224, 128
