1972
-0.296132, 1, 1, 500, 375
-0.365543, 1, 97, 500, 352
-0.424672, 1, 1, 500, 256
-0.452834, 97, 1, 352, 375
-0.492165, 257, 1, 500, 375
-0.516671, 1, 1, 256, 375
-0.55953, 129, 97, 384, 352
-0.585855, 225, 129, 480, 375
-0.604463, 1, 65, 256, 320
-0.605247, 257, 1, 500, 256
-0.676986, 97, 1, 352, 256
-0.837217, 241, 97, 368, 352
-0.845603, 193, 129, 320, 375
-0.851938, 353, 129, 480, 375
-0.853659, 193, 1, 320, 375
-0.857932, 193, 1, 320, 256
-0.862188, 369, 1, 496, 375
-0.866613, 33, 1, 160, 375
-0.867849, 113, 129, 240, 375
-0.869266, 1, 241, 500, 368
-0.870857, 241, 1, 368, 375
-0.873711, 289, 129, 416, 375
-0.87372, 33, 1, 160, 256
-0.879705, 369, 1, 496, 256
-0.881846, 113, 1, 240, 375
-0.885153, 17, 97, 144, 352
-0.885771, 305, 1, 432, 375
-0.885885, 241, 1, 368, 256
-0.885893, 1, 177, 500, 304
-0.88652, 1, 81, 500, 208
-0.887209, 113, 1, 240, 256
-0.88739, 305, 1, 432, 256
-0.892136, 1, 129, 500, 256
-0.902364, 129, 225, 384, 352
-0.908763, 1, 1, 500, 128
-0.909366, 65, 129, 192, 375
-0.910102, 97, 81, 352, 208
-0.910537, 193, 113, 448, 240
-0.914859, 97, 177, 352, 304
-0.922241, 257, 161, 500, 288
-0.922428, 273, 113, 400, 240
-0.924288, 225, 241, 480, 368
-0.926008, 97, 241, 224, 368
-0.927338, 1, 97, 256, 224
-0.929693, 113, 241, 176, 368
-0.930153, 193, 97, 320, 224
-0.930306, 161, 225, 224, 352
-0.930518, 281, 113, 344, 240
-0.930591, 193, 177, 320, 304
-0.9315, 1, 33, 256, 160
-0.932891, 137, 225, 200, 352
-0.933731, 1, 145, 256, 272
-0.9338, 241, 177, 368, 304
-0.936238, 169, 81, 232, 208
-0.936252, 1, 97, 64, 224
-0.936305, 257, 1, 500, 128
-0.937017, 281, 209, 344, 336
-0.939284, 1, 241, 256, 368
-0.941276, 273, 225, 400, 352
-0.94167, 193, 225, 320, 352
-0.942033, 321, 177, 384, 304
-0.942672, 249, 177, 312, 304
-0.942805, 1, 145, 64, 208
-0.942915, 193, 65, 256, 192
-0.943141, 225, 97, 288, 224
-0.943385, 289, 177, 416, 304
-0.943723, 369, 113, 496, 240
-0.944102, 273, 161, 336, 288
-0.94511, 97, 33, 352, 160
-0.945185, 273, 209, 336, 272
-0.945604, 297, 161, 360, 288
-0.945744, 97, 129, 352, 256
-0.945986, 129, 265, 192, 328
-0.94601, 201, 161, 264, 288
-0.946119, 281, 233, 344, 296
-0.946292, 17, 33, 144, 160
-0.946826, 425, 313, 488, 375
-0.947202, 169, 177, 232, 304
-0.947473, 145, 81, 208, 208
-0.947706, 185, 81, 248, 144
-0.948531, 105, 265, 168, 328
-0.94883, 145, 81, 272, 208
-0.949094, 257, 65, 500, 192
-0.949339, 353, 161, 480, 288
-0.950812, 17, 81, 144, 208
-0.951079, 145, 177, 272, 304
-0.951347, 17, 145, 80, 272
-0.951485, 337, 129, 400, 256
-0.951574, 105, 113, 168, 240
-0.951613, 257, 225, 320, 352
-0.951635, 153, 265, 216, 328
-0.951987, 313, 225, 376, 352
-0.952299, 401, 313, 464, 375
-0.952687, 257, 233, 320, 296
-0.952698, 1, 49, 64, 176
-0.952778, 193, 49, 320, 176
-0.953022, 193, 113, 256, 240
-0.953308, 337, 161, 400, 224
-0.953646, 17, 145, 144, 272
-0.954022, 161, 105, 224, 168
-0.954024, 129, 241, 192, 304
-0.954116, 377, 145, 440, 272
-0.954162, 49, 241, 176, 368
-0.954319, 97, 81, 224, 208
-0.954625, 137, 289, 200, 352
-0.954684, 1, 193, 256, 320
-0.954713, 193, 1, 320, 128
-0.955099, 249, 97, 312, 224
-0.955535, 105, 65, 168, 192
-0.955651, 305, 233, 368, 296
-0.95571, 65, 17, 128, 144
-0.955729, 185, 169, 248, 232
-0.957098, 321, 81, 448, 208
-0.957242, 97, 193, 224, 320
-0.957511, 81, 65, 144, 192
-0.957657, 313, 177, 376, 240
-0.957676, 97, 33, 224, 160
-0.957681, 185, 225, 248, 352
-0.957767, 337, 241, 464, 368
-0.958, 409, 113, 472, 240
-0.958032, 249, 177, 312, 240
-0.958239, 385, 153, 448, 216
-0.958346, 1, 1, 64, 128
-0.958353, 105, 113, 168, 176
-0.958353, 289, 257, 352, 320
-0.958451, 313, 113, 376, 240
-0.958465, 25, 1, 88, 128
-0.959215, 177, 249, 240, 312
-0.959361, 137, 97, 200, 160
-0.959679, 249, 201, 312, 264
-0.959899, 169, 33, 232, 160
-0.96057, 9, 49, 72, 112
-0.960636, 233, 33, 296, 160
-0.960723, 25, 81, 88, 208
-0.961279, 49, 193, 176, 320
-0.961405, 161, 289, 224, 352
-0.961439, 433, 113, 496, 240
-0.961905, 409, 65, 472, 192
-0.962027, 145, 177, 208, 304
-0.962085, 89, 241, 152, 368
-0.962477, 49, 81, 112, 208
-0.962598, 361, 153, 424, 216
-0.962643, 417, 1, 480, 128
-0.962727, 193, 193, 256, 256
-0.962785, 225, 153, 288, 216
-0.962808, 385, 97, 448, 224
-0.962972, 25, 153, 88, 216
-0.963052, 209, 89, 272, 152
-0.963083, 33, 1, 96, 64
-0.963168, 409, 241, 472, 368
-0.963172, 209, 17, 272, 144
-0.963221, 161, 81, 224, 144
-0.963244, 185, 273, 248, 336
-0.963385, 417, 289, 480, 352
-0.963392, 113, 129, 240, 256
-0.963548, 169, 129, 232, 256
-0.963582, 289, 97, 352, 352
-0.96394, 345, 193, 408, 320
-0.964246, 145, 225, 272, 352
-0.964325, 153, 225, 216, 288
-0.964444, 265, 121, 328, 184
-0.964691, 1, 169, 64, 232
-0.964904, 113, 289, 176, 352
-0.964957, 129, 129, 192, 256
-0.964957, 433, 241, 496, 368
-0.964991, 161, 201, 224, 264
-0.96512, 257, 49, 320, 176
-0.965267, 225, 177, 288, 304
-0.965317, 289, 161, 352, 224
-0.965407, 1, 105, 64, 168
-0.965509, 105, 241, 168, 304
-0.965555, 241, 49, 368, 176
-0.965645, 377, 313, 440, 375
-0.965649, 89, 1, 152, 128
-0.965714, 353, 1, 480, 128
-0.965852, 113, 241, 240, 304
-0.96586, 361, 177, 424, 240
-0.965951, 265, 97, 328, 352
-0.966006, 337, 137, 400, 200
-0.966447, 233, 225, 296, 288
-0.966613, 81, 129, 144, 256
-0.966614, 233, 105, 296, 168
-0.966676, 5, 145, 36, 208
-0.966758, 281, 217, 312, 280
-0.966788, 393, 1, 456, 128
-0.966791, 225, 97, 288, 352
-0.966792, 297, 209, 360, 272
-0.966954, 277, 161, 308, 288
-0.96713, 225, 201, 288, 264
-0.967222, 125, 105, 156, 168
-0.967285, 113, 193, 176, 320
-0.967479, 313, 137, 376, 200
-0.967548, 201, 65, 264, 320
-0.967763, 273, 185, 400, 248
-0.967801, 193, 113, 256, 176
-0.967983, 9, 73, 72, 136
-0.968203, 337, 193, 400, 256
-0.968836, 329, 233, 392, 296
-0.968919, 289, 185, 352, 248
-0.969011, 185, 89, 216, 152
-0.969096, 133, 241, 164, 368
-0.969123, 185, 209, 216, 336
-0.969143, 97, 273, 224, 336
-0.969241, 17, 145, 48, 208
-0.969258, 345, 241, 408, 368
-0.96927, 145, 265, 176, 328
-0.969342, 37, 137, 68, 200
-0.969413, 353, 161, 384, 224
-0.969461, 425, 1, 488, 256
-0.969553, 201, 65, 232, 192
-0.969903, 161, 169, 224, 232
-0.969928, 137, 33, 200, 160
-0.97007, 105, 137, 168, 200
-0.970092, 193, 177, 320, 240
-0.970243, 41, 129, 104, 256
-0.970576, 369, 169, 400, 232
-0.970751, 169, 65, 232, 320
-0.970778, 217, 177, 280, 240
-0.970964, 425, 313, 456, 375
-0.971122, 201, 73, 232, 136
-0.971155, 317, 233, 348, 296
-0.971186, 177, 225, 240, 288
-0.971339, 145, 209, 176, 336
-0.971371, 201, 137, 264, 200
-0.971402, 129, 129, 192, 375
-0.971464, 169, 129, 232, 192
-0.971544, 433, 161, 496, 288
-0.971553, 1, 1, 64, 256
-0.971555, 209, 265, 272, 328
-0.971566, 369, 161, 496, 224
-0.9716, 1, 25, 64, 88
-0.971617, 385, 241, 448, 368
-0.971779, 377, 289, 440, 352
-0.971782, 281, 33, 344, 160
-0.971949, 301, 249, 332, 312
-0.972052, 313, 257, 376, 320
-0.972105, 137, 121, 168, 184
-0.972132, 161, 97, 288, 160
-0.972144, 277, 177, 308, 240
-0.972188, 21, 97, 52, 224
-0.972349, 57, 1, 120, 64
-0.972447, 353, 305, 416, 368
-0.972581, 129, 265, 160, 328
-0.972605, 369, 313, 496, 375
-0.972715, 137, 73, 200, 136
-0.972808, 193, 201, 320, 264
-0.972862, 233, 81, 296, 144
-0.972873, 205, 161, 236, 224
-0.97288, 265, 25, 328, 88
-0.972974, 117, 257, 148, 320
-0.972991, 145, 33, 272, 160
-0.973136, 329, 225, 360, 288
-0.973201, 273, 137, 400, 200
-0.973242, 169, 241, 200, 368
-0.973399, 65, 129, 192, 256
-0.973409, 49, 41, 112, 104
-0.973541, 389, 153, 420, 216
-0.973553, 333, 169, 364, 232
-0.973554, 257, 233, 384, 296
-0.973566, 305, 1, 432, 128
-0.97357, 177, 281, 208, 344
-0.9736, 273, 161, 400, 224
-0.9736, 133, 113, 164, 240
-0.973733, 285, 209, 316, 336
-0.973779, 225, 1, 288, 256
-0.97383, 89, 289, 152, 352
-0.973871, 257, 209, 384, 272
-0.97394, 269, 209, 300, 272
-0.973966, 265, 265, 328, 328
-0.973977, 145, 265, 272, 328
-0.973981, 17, 153, 144, 216
-0.97403, 49, 257, 176, 320
-0.974088, 297, 193, 328, 320
-0.97412, 285, 241, 316, 304
-0.97417, 137, 129, 200, 192
-0.974184, 193, 233, 320, 296
-0.974237, 345, 161, 376, 288
-0.974246, 129, 209, 192, 272
-0.974278, 313, 113, 344, 240
-0.974338, 333, 161, 364, 288
-0.97434, 193, 145, 320, 208
-0.974392, 433, 137, 496, 200
-0.974463, 289, 129, 352, 192
-0.97453, 121, 225, 152, 352
-0.974642, 257, 1, 320, 128
-0.974742, 289, 113, 320, 240
-0.97475, 305, 225, 336, 288
-0.974756, 209, 225, 272, 352
-0.97479, 177, 73, 304, 136
-0.974827, 269, 97, 300, 224
-0.974937, 89, 81, 152, 144
-0.97494, 213, 97, 244, 224
-0.974951, 265, 169, 296, 232
-0.975063, 409, 129, 472, 192
-0.97509, 209, 161, 240, 288
-0.975195, 433, 257, 496, 320
-0.975271, 189, 65, 220, 192
-0.975321, 25, 177, 88, 240
-0.975329, 25, 121, 56, 184
-0.975364, 9, 129, 40, 256
-0.975366, 249, 57, 312, 120
-0.975377, 409, 169, 472, 232
-0.975389, 369, 1, 432, 128
-0.975403, 137, 241, 168, 304
-0.975467, 453, 305, 484, 368
-0.975697, 49, 153, 112, 216
-0.975856, 213, 89, 244, 152
-0.975914, 185, 297, 248, 360
-0.975944, 249, 145, 312, 208
-0.976013, 265, 161, 296, 288
-0.976028, 193, 257, 320, 320
-0.976058, 233, 225, 296, 352
-0.976065, 273, 97, 336, 160
-0.976126, 413, 305, 444, 368
-0.976201, 217, 169, 248, 232
-0.976207, 409, 129, 472, 375
-0.976226, 321, 177, 352, 304
-0.97629, 165, 281, 196, 344
-0.976345, 25, 129, 88, 192
-0.976372, 145, 169, 272, 232
-0.976466, 289, 1, 352, 256
-0.976494, 49, 73, 112, 136
-0.976501, 73, 265, 136, 328
-0.976528, 433, 129, 496, 375
-0.97657, 113, 137, 144, 200
-0.976579, 105, 97, 168, 352
-0.97663, 117, 97, 148, 224
-0.976647, 73, 145, 136, 208
-0.976671, 113, 81, 240, 144
-0.976814, 225, 81, 256, 208
-0.976878, 233, 249, 296, 312
-0.976904, 361, 161, 392, 288
-0.977004, 249, 1, 312, 256
-0.97701, 193, 57, 256, 120
-0.977065, 181, 169, 212, 232
-0.977146, 469, 313, 500, 375
-0.977165, 273, 257, 400, 320
-0.977174, 37, 113, 68, 176
-0.977186, 197, 161, 228, 288
-0.977222, 169, 257, 200, 320
-0.977259, 321, 161, 448, 224
-0.977276, 1, 33, 128, 96
-0.977343, 9, 97, 72, 352
-0.977345, 237, 169, 268, 232
-0.977349, 197, 249, 228, 312
-0.977362, 49, 129, 112, 192
-0.977404, 313, 129, 376, 375
-0.977406, 37, 49, 68, 176
-0.977573, 377, 129, 440, 375
-0.977614, 97, 1, 160, 64
-0.977794, 81, 193, 144, 320
-0.977883, 25, 105, 88, 168
-0.977906, 337, 137, 368, 200
-0.977955, 321, 185, 448, 248
-0.978031, 65, 1, 128, 256
-0.97821, 17, 1, 144, 64
-0.97834, 209, 225, 272, 288
-0.978347, 41, 97, 72, 224
-0.97835, 289, 33, 352, 96
-0.978372, 437, 313, 468, 375
-0.978391, 9, 169, 40, 232
-0.978393, 369, 289, 496, 352
-0.978402, 293, 209, 324, 272
-0.978418, 73, 41, 136, 104
-0.978425, 9, 81, 40, 208
-0.978447, 177, 233, 208, 296
-0.978453, 169, 201, 200, 264
-0.978505, 209, 105, 336, 168
-0.978515, 101, 65, 132, 192
-0.978519, 393, 257, 456, 320
-0.978646, 373, 145, 404, 208
-0.978676, 245, 201, 276, 264
-0.978701, 401, 161, 464, 288
-0.978713, 169, 57, 232, 120
-0.97881, 225, 97, 256, 160
-0.978817, 225, 17, 288, 80
-0.978886, 13, 113, 44, 176
-0.978895, 97, 297, 224, 360
-0.978932, 269, 209, 300, 336
-0.979015, 173, 97, 204, 160
-0.979017, 349, 113, 380, 240
-0.979051, 113, 105, 240, 168
-0.979117, 433, 169, 496, 232
-0.979131, 189, 273, 220, 336
-0.979142, 241, 1, 368, 128
-0.979169, 197, 225, 228, 352
-0.979178, 353, 257, 416, 320
-0.979215, 425, 57, 488, 120
-0.97925, 29, 161, 60, 224
-0.97943, 297, 241, 328, 368
-0.979451, 401, 1, 464, 256
-0.979472, 425, 97, 488, 160
-0.979502, 157, 225, 188, 352
-0.979543, 361, 97, 424, 224
-0.979583, 377, 129, 440, 192
-0.979606, 121, 1, 184, 256
-0.979686, 125, 233, 156, 296
-0.979789, 349, 185, 380, 248
-0.979809, 25, 1, 88, 256
-0.979882, 225, 73, 352, 136
-0.979902, 201, 113, 232, 240
-0.979939, 313, 289, 376, 352
-0.979974, 257, 113, 384, 176
-0.979999, 125, 129, 156, 192
-0.980024, 333, 113, 364, 240
-0.980033, 325, 257, 356, 320
-0.980037, 273, 113, 304, 176
-0.980049, 133, 193, 164, 320
-0.980123, 305, 233, 432, 296
-0.980134, 257, 193, 288, 256
-0.980134, 401, 313, 432, 375
-0.980174, 49, 89, 176, 152
-0.980206, 89, 1, 152, 256
-0.980229, 205, 113, 236, 176
-0.980285, 193, 161, 224, 224
-0.980339, 265, 233, 296, 296
-0.980396, 129, 313, 192, 375
-0.98043, 341, 233, 372, 296
-0.980448, 369, 65, 496, 192
-0.980466, 149, 289, 180, 352
-0.980472, 105, 113, 136, 240
-0.980509, 117, 281, 148, 344
-0.980538, 257, 1, 320, 64
-0.980543, 373, 129, 404, 256
-0.980598, 289, 185, 320, 248
-0.980625, 321, 137, 448, 200
-0.980637, 33, 1, 64, 128
-0.980638, 69, 1, 100, 64
-0.98064, 49, 281, 176, 344
-0.980708, 1, 1, 64, 64
-0.980843, 145, 193, 272, 256
-0.980867, 425, 1, 488, 375
-0.980921, 321, 313, 448, 375
-0.980935, 333, 193, 364, 256
-0.980936, 433, 65, 496, 192
-0.980955, 97, 129, 224, 192
-0.980958, 221, 177, 252, 304
-0.981019, 181, 209, 212, 272
-0.981024, 253, 193, 284, 320
-0.981187, 169, 193, 200, 320
-0.981325, 465, 241, 496, 368
-0.981368, 113, 1, 176, 128
-0.98142, 65, 305, 128, 368
-0.981438, 305, 313, 368, 375
-0.981486, 369, 137, 496, 200
-0.9815, 113, 217, 240, 280
-0.981509, 297, 97, 360, 160
-0.981514, 1, 41, 32, 104
-0.981534, 389, 297, 420, 360
-0.981579, 129, 185, 192, 248
-0.981616, 385, 129, 416, 256
-0.981636, 257, 1, 320, 375
-0.981711, 321, 169, 352, 232
-0.981742, 193, 217, 224, 280
-0.981744, 217, 33, 248, 160
-0.981785, 173, 65, 204, 192
-0.981795, 257, 97, 288, 224
-0.981865, 253, 81, 284, 144
-0.981881, 309, 225, 340, 352
-0.981885, 81, 1, 112, 64
-0.981978, 25, 25, 88, 88
-0.981979, 193, 281, 320, 344
-0.982006, 189, 297, 220, 360
-0.98208, 381, 177, 412, 240
-0.982127, 217, 145, 248, 208
-0.982134, 297, 121, 328, 184
-0.982135, 145, 289, 272, 352
-0.98214, 97, 57, 224, 120
-0.982156, 153, 233, 184, 296
-0.982251, 85, 1, 116, 128
-0.98231, 205, 281, 236, 344
-0.982429, 225, 129, 288, 192
-0.982441, 73, 1, 104, 128
-0.982447, 425, 65, 456, 192
-0.982487, 377, 1, 440, 256
-0.982511, 205, 185, 236, 248
-0.982513, 9, 1, 72, 375
-0.98265, 185, 145, 216, 272
-0.982663, 193, 121, 224, 184
-0.982696, 1, 241, 128, 368
-0.982724, 129, 289, 160, 352
-0.98279, 441, 113, 472, 240
-0.982794, 173, 73, 204, 136
-0.982833, 349, 137, 380, 200
-0.982886, 49, 129, 176, 192
-0.982991, 277, 153, 308, 216
-0.983014, 33, 145, 64, 272
-0.983055, 273, 305, 336, 368
-0.983114, 193, 1, 320, 64
-0.983153, 37, 49, 68, 112
-0.983168, 369, 265, 496, 328
-0.983204, 361, 137, 392, 200
-0.983208, 289, 1, 352, 375
-0.983239, 217, 265, 248, 328
-0.983252, 433, 289, 464, 352
-0.983261, 1, 33, 32, 160
-0.983263, 137, 65, 168, 192
-0.983314, 369, 113, 496, 176
-0.983345, 325, 225, 356, 352
-0.983389, 65, 17, 192, 80
-0.983425, 49, 161, 80, 224
-0.983492, 109, 241, 140, 368
-0.9835, 101, 145, 132, 208
-0.983539, 61, 1, 92, 128
-0.983668, 413, 113, 444, 240
-0.983668, 205, 137, 236, 200
-0.983692, 225, 49, 288, 112
-0.9837, 17, 57, 144, 120
-0.983708, 161, 313, 224, 375
-0.983748, 97, 201, 160, 264
-0.983809, 105, 41, 168, 104
-0.983823, 241, 97, 272, 224
-0.98383, 337, 129, 400, 375
-0.983849, 45, 1, 76, 64
-0.983923, 321, 257, 448, 320
-0.983923, 425, 17, 488, 80
-0.984036, 57, 1, 88, 64
-0.984044, 89, 313, 152, 375
-0.984066, 401, 105, 464, 168
-0.984077, 313, 257, 344, 320
-0.984084, 129, 161, 192, 224
-0.984097, 233, 161, 264, 288
-0.984104, 337, 1, 400, 128
-0.984126, 305, 201, 336, 264
-0.984144, 313, 1, 376, 64
-0.984169, 385, 9, 448, 72
-0.984211, 1, 129, 128, 192
-0.984222, 361, 193, 392, 256
-0.984277, 25, 97, 56, 160
-0.984286, 1, 105, 128, 168
-0.98432, 33, 9, 64, 72
-0.984332, 305, 49, 368, 176
-0.98436, 405, 161, 436, 224
-0.984387, 121, 49, 152, 176
-0.984405, 101, 121, 132, 184
-0.984491, 253, 145, 284, 208
-0.984515, 289, 1, 416, 64
-0.984582, 145, 33, 208, 288
-0.984662, 321, 289, 448, 352
-0.984668, 21, 25, 52, 88
-0.984737, 49, 97, 112, 160
-0.984747, 285, 265, 316, 328
-0.984772, 225, 193, 256, 256
-0.984788, 209, 241, 240, 368
-0.984833, 305, 209, 432, 272
-0.984941, 361, 113, 392, 240
-0.984987, 45, 89, 76, 152
-0.985011, 1, 193, 128, 320
-0.985036, 429, 241, 460, 368
-0.985091, 293, 97, 324, 160
-0.985101, 377, 313, 408, 375
-0.985149, 89, 49, 120, 112
-0.985164, 169, 1, 232, 375
-0.98523, 237, 81, 268, 144
-0.985249, 337, 81, 400, 208
-0.985319, 341, 209, 372, 336
-0.98535, 193, 185, 224, 248
-0.985355, 165, 233, 196, 296
-0.985357, 321, 129, 352, 192
-0.985463, 113, 113, 144, 176
-0.985482, 265, 49, 296, 176
-0.985484, 141, 201, 172, 264
-0.985547, 309, 177, 340, 304
-0.985592, 289, 153, 320, 216
-0.985653, 413, 1, 444, 128
-0.985802, 249, 105, 280, 168
-0.985833, 437, 137, 468, 200
-0.985839, 461, 145, 492, 208
-0.985853, 1, 177, 128, 240
-0.985871, 177, 49, 304, 112
-0.985874, 261, 105, 292, 168
-0.985904, 89, 49, 120, 176
-0.985986, 309, 33, 340, 160
-0.985986, 449, 137, 480, 200
-0.986032, 209, 1, 272, 375
-0.986035, 21, 145, 52, 272
-0.986084, 469, 161, 500, 288
-0.98615, 393, 185, 424, 248
-0.986163, 33, 233, 160, 296
-0.9862, 33, 1, 96, 375
-0.98633, 161, 105, 192, 168
-0.986375, 1, 121, 32, 184
-0.986389, 257, 281, 384, 344
-0.986401, 81, 97, 144, 352
-0.986438, 105, 297, 136, 360
-0.986449, 249, 145, 280, 272
-0.98646, 449, 241, 480, 368
-0.986559, 29, 73, 60, 136
-0.986609, 469, 257, 500, 320
-0.986656, 321, 1, 384, 375
-0.986764, 425, 1, 456, 128
-0.986821, 97, 169, 224, 232
-0.98686, 397, 145, 428, 272
-0.986871, 121, 1, 184, 375
-0.986872, 369, 241, 400, 368
-0.98697, 417, 241, 448, 368
-0.987217, 205, 17, 236, 144
-0.987234, 373, 177, 404, 304
-0.987281, 53, 81, 84, 208
-0.987291, 137, 293, 200, 324
-0.987305, 97, 241, 352, 304
-0.98733, 101, 1, 132, 128
-0.987354, 401, 1, 464, 375
-0.9874, 301, 113, 332, 240
-0.987425, 57, 1, 120, 375
-0.987444, 33, 313, 160, 375
-0.987473, 145, 1, 208, 375
-0.987541, 161, 121, 288, 184
-0.987553, 313, 33, 376, 288
-0.987583, 425, 113, 456, 240
-0.987634, 289, 245, 352, 276
-0.987708, 273, 305, 400, 368
-0.987734, 89, 1, 152, 375
-0.987879, 173, 145, 204, 272
-0.987922, 397, 241, 428, 368
-0.987942, 457, 97, 488, 224
-0.987946, 401, 317, 464, 348
-0.987999, 121, 145, 152, 272
-0.988033, 157, 65, 188, 192
-0.988132, 329, 177, 392, 208
-0.988182, 233, 1, 296, 375
-0.988271, 81, 193, 208, 256
-0.988322, 257, 221, 320, 252
-0.988351, 193, 165, 256, 196
-0.988396, 245, 49, 276, 176
-0.988463, 145, 113, 176, 240
-0.988464, 257, 41, 384, 104
-0.988469, 1, 81, 128, 144
-0.988508, 129, 273, 192, 304
-0.988682, 417, 329, 480, 360
-0.988704, 185, 177, 248, 208
-0.988715, 193, 17, 224, 144
-0.988751, 57, 225, 120, 352
-0.988773, 1, 169, 64, 200
-0.988785, 161, 297, 224, 328
-0.988788, 257, 205, 320, 236
-0.988791, 297, 257, 360, 288
-0.988815, 169, 101, 232, 132
-0.988824, 469, 33, 500, 160
-0.988853, 225, 177, 288, 208
-0.98888, 161, 281, 224, 312
-0.988882, 93, 129, 124, 256
-0.988887, 97, 113, 352, 176
-0.988889, 289, 189, 352, 220
-0.988897, 441, 1, 472, 128
-0.988903, 313, 237, 376, 268
-0.988933, 353, 233, 480, 296
-0.988957, 289, 233, 352, 264
-0.989057, 1, 149, 64, 180
-0.98907, 321, 65, 352, 192
-0.98911, 185, 89, 248, 120
-0.989144, 173, 17, 204, 144
-0.989154, 105, 269, 168, 300
-0.98917, 129, 113, 192, 144
-0.989227, 321, 105, 448, 168
-0.989237, 281, 221, 344, 252
-0.989241, 257, 137, 500, 200
-0.989268, 353, 177, 416, 208
-0.989291, 169, 117, 232, 148
-0.989309, 45, 145, 76, 272
-0.989318, 425, 317, 488, 348
-0.98934, 33, 97, 96, 352
-0.989348, 257, 193, 320, 224
-0.989358, 273, 257, 336, 288
-0.989408, 385, 345, 448, 375
-0.989425, 113, 297, 176, 328
-0.989427, 401, 97, 432, 224
-0.989467, 385, 241, 416, 368
-0.989475, 249, 181, 312, 212
-0.989499, 289, 177, 352, 208
-0.989517, 113, 129, 176, 160
-0.989526, 193, 101, 256, 132
-0.989527, 265, 245, 328, 276
-0.98953, 161, 313, 288, 375
-0.989535, 113, 257, 176, 288
-0.989542, 1, 53, 64, 84
-0.989556, 25, 161, 88, 192
-0.989571, 193, 177, 448, 240
-0.989573, 385, 329, 448, 360
-0.989577, 425, 341, 488, 372
-0.989582, 25, 173, 88, 204
-0.989588, 225, 105, 288, 136
-0.989676, 169, 269, 232, 300
-0.989734, 109, 193, 140, 320
-0.989734, 265, 233, 328, 264
-0.989749, 169, 165, 232, 196
-0.989783, 105, 141, 168, 172
-0.989843, 193, 189, 256, 220
-0.989885, 137, 101, 200, 132
-0.989907, 409, 305, 472, 336
-0.989916, 289, 201, 352, 232
-0.989947, 129, 237, 192, 268
-0.989965, 353, 189, 416, 220
-0.989987, 153, 129, 216, 160
-0.989991, 337, 165, 400, 196
-0.990012, 337, 9, 464, 72
-0.990033, 129, 1, 256, 64
-0.990036, 177, 249, 240, 280
-0.990041, 1, 69, 64, 100
-0.990047, 113, 285, 176, 316
-0.99009, 201, 113, 264, 144
-0.990099, 321, 189, 384, 220
-0.990107, 137, 309, 200, 340
-0.990113, 105, 117, 168, 148
-0.99014, 297, 65, 328, 192
-0.990151, 21, 1, 52, 128
-0.990152, 129, 217, 384, 280
-0.990163, 241, 241, 304, 272
-0.99019, 385, 161, 448, 192
-0.990209, 1, 145, 500, 208
-0.990226, 185, 289, 248, 320
-0.990248, 17, 241, 80, 368
-0.990268, 377, 317, 440, 348
-0.990272, 361, 329, 424, 360
-0.990317, 345, 345, 408, 375
-0.990417, 433, 305, 496, 336
-0.990428, 361, 149, 424, 180
-0.990436, 369, 1, 432, 375
-0.990441, 289, 269, 352, 300
-0.990448, 145, 261, 208, 292
-0.990483, 433, 265, 496, 296
-0.990499, 353, 209, 384, 336
-0.990503, 233, 229, 296, 260
-0.990527, 161, 89, 224, 120
-0.990549, 97, 89, 352, 152
-0.990555, 233, 33, 264, 160
-0.990557, 265, 121, 328, 152
-0.990593, 281, 65, 312, 192
-0.990598, 209, 25, 336, 88
-0.990608, 245, 1, 276, 128
-0.990629, 233, 165, 296, 196
-0.990634, 321, 253, 384, 284
-0.990658, 429, 161, 460, 288
-0.990661, 49, 1, 80, 128
-0.990682, 161, 177, 224, 208
-0.990697, 25, 49, 56, 176
-0.990708, 217, 93, 280, 124
-0.99071, 249, 257, 312, 288
-0.990722, 81, 153, 144, 184
-0.990735, 1, 113, 64, 144
-0.99075, 457, 33, 488, 160
-0.990763, 225, 305, 352, 368
-0.990815, 281, 165, 344, 196
-0.990815, 233, 201, 296, 232
-0.990833, 329, 201, 392, 232
-0.990834, 225, 189, 288, 220
-0.99084, 257, 169, 320, 200
-0.99084, 33, 1, 96, 32
-0.990846, 241, 209, 272, 336
-0.990879, 1, 181, 64, 212
-0.990884, 321, 265, 384, 296
-0.990892, 153, 245, 216, 276
-0.990902, 193, 257, 448, 320
-0.990916, 113, 1, 144, 128
-0.99094, 297, 129, 360, 160
-0.990954, 17, 129, 80, 160
-0.990963, 193, 265, 256, 296
-0.99097, 433, 61, 496, 92
-0.990978, 433, 177, 496, 208
-0.990981, 49, 161, 112, 192
-0.991016, 273, 81, 400, 144
-0.991016, 433, 101, 496, 132
-0.991019, 97, 241, 128, 368
-0.991028, 57, 1, 120, 32
-0.991034, 417, 293, 480, 324
-0.991067, 409, 257, 472, 288
-0.991074, 177, 237, 240, 268
-0.99109, 177, 77, 240, 108
-0.991095, 233, 213, 296, 244
-0.991115, 329, 141, 392, 172
-0.991128, 145, 225, 208, 256
-0.991132, 393, 137, 456, 168
-0.991147, 457, 161, 488, 288
-0.991149, 409, 169, 472, 200
-0.991154, 97, 105, 160, 136
-0.991158, 153, 209, 216, 240
-0.991165, 241, 89, 304, 120
-0.991184, 201, 125, 264, 156
-0.991218, 129, 141, 192, 172
-0.991224, 57, 149, 120, 180
-0.991261, 9, 41, 72, 72
-0.991272, 377, 301, 440, 332
-0.991277, 177, 129, 240, 160
-0.991278, 377, 189, 440, 220
-0.991283, 1, 97, 256, 160
-0.991285, 353, 201, 416, 232
-0.991296, 145, 161, 208, 192
-0.991305, 377, 193, 440, 320
-0.991314, 89, 257, 152, 288
-0.991326, 337, 333, 400, 364
-0.991338, 89, 293, 152, 324
-0.991341, 89, 281, 152, 312
-0.991343, 81, 141, 144, 172
-0.991346, 105, 153, 168, 184
-0.99135, 305, 221, 368, 252
-0.991359, 41, 61, 104, 92
-0.991365, 345, 1, 408, 375
-0.991368, 241, 149, 304, 180
-0.991412, 33, 209, 160, 272
-0.991487, 1, 153, 256, 216
-0.991545, 97, 185, 352, 248
-0.991592, 1, 289, 128, 352
-0.991657, 369, 185, 496, 248
-0.991676, 161, 153, 416, 216
-0.991732, 33, 273, 288, 336
-0.991765, 369, 1, 400, 128
-0.991784, 221, 241, 252, 368
-0.991936, 165, 289, 196, 320
-0.991955, 317, 253, 348, 284
-0.991955, 333, 177, 364, 208
-0.991964, 241, 1, 368, 64
-0.991976, 161, 281, 416, 344
-0.992023, 1, 249, 500, 312
-0.992089, 285, 249, 316, 280
-0.99211, 145, 145, 272, 208
-0.992133, 413, 65, 444, 192
-0.992136, 441, 161, 472, 288
-0.99214, 149, 293, 180, 324
-0.992147, 353, 177, 384, 208
-0.992162, 1, 161, 32, 192
-0.99217, 125, 121, 156, 152
-0.99218, 109, 137, 140, 168
-0.992195, 437, 321, 468, 352
-0.992218, 177, 289, 208, 320
-0.992228, 217, 177, 248, 208
-0.992251, 205, 165, 236, 196
-0.992256, 265, 217, 296, 248
-0.992257, 269, 173, 300, 204
-0.992271, 421, 321, 452, 352
-0.992272, 141, 273, 172, 304
-0.992279, 205, 113, 236, 144
-0.992288, 305, 177, 432, 208
-0.992295, 297, 241, 328, 272
-0.992295, 1, 289, 500, 352
-0.992309, 281, 181, 312, 212
-0.992315, 285, 233, 316, 264
-0.992318, 133, 133, 164, 164
-0.992323, 305, 253, 336, 284
-0.992325, 29, 125, 60, 156
-0.99235, 333, 233, 364, 264
-0.992364, 185, 165, 216, 196
-0.992368, 353, 165, 384, 196
-0.99237, 185, 113, 216, 144
-0.992372, 449, 321, 480, 352
-0.992378, 1, 257, 128, 320
-0.992378, 317, 241, 348, 272
-0.99238, 281, 221, 312, 252
-0.992384, 173, 93, 204, 124
-0.992392, 373, 173, 404, 204
-0.992394, 45, 153, 76, 184
-0.992401, 281, 205, 312, 236
-0.992406, 33, 169, 64, 200
-0.992426, 273, 245, 304, 276
-0.992433, 381, 345, 412, 375
-0.992438, 297, 197, 328, 228
-0.99244, 125, 109, 156, 140
-0.992444, 293, 213, 324, 244
-0.992458, 133, 289, 164, 320
-0.992483, 217, 165, 248, 196
-0.9925, 353, 189, 384, 220
-0.992505, 189, 101, 220, 132
-0.992505, 21, 161, 52, 192
-0.992507, 385, 181, 416, 212
-0.992507, 129, 269, 160, 300
-0.992513, 5, 149, 36, 180
-0.992515, 121, 281, 152, 312
-0.992516, 185, 301, 216, 332
-0.992533, 189, 281, 220, 312
-0.992534, 253, 225, 284, 256
-0.992534, 273, 233, 304, 264
-0.992544, 221, 109, 252, 140
-0.992549, 333, 165, 364, 196
-0.992553, 337, 197, 368, 228
-0.99256, 145, 137, 176, 168
-0.99256, 41, 177, 104, 304
-0.992561, 393, 329, 424, 360
-0.992561, 137, 117, 168, 148
-0.992561, 429, 333, 460, 364
-0.992563, 461, 329, 492, 360
-0.992566, 17, 177, 48, 208
-0.992569, 165, 277, 196, 308
-0.992577, 153, 277, 184, 308
-0.99258, 233, 181, 264, 212
-0.99258, 433, 309, 464, 340
-0.992585, 237, 101, 268, 132
-0.992589, 373, 185, 404, 216
-0.992604, 17, 145, 48, 176
-0.992607, 33, 149, 64, 180
-0.992613, 385, 193, 416, 320
-0.992617, 185, 85, 216, 116
-0.992617, 213, 97, 244, 128
-0.992619, 113, 265, 144, 296
-0.992624, 121, 253, 152, 284
-0.992625, 129, 145, 160, 176
-0.992631, 129, 33, 256, 96
-0.992637, 1, 177, 32, 304
-0.992645, 453, 301, 484, 332
-0.992658, 417, 309, 448, 340
-0.992659, 157, 177, 188, 304
-0.99267, 285, 157, 316, 188
-0.992674, 45, 173, 76, 204
-0.992676, 409, 341, 440, 372
-0.992676, 469, 341, 500, 372
-0.992682, 7, 145, 22, 208
-0.992683, 205, 177, 236, 208
-0.992684, 169, 305, 200, 336
-0.992689, 441, 341, 472, 372
-0.992694, 1, 129, 256, 192
-0.992695, 201, 257, 232, 288
-0.992695, 197, 85, 228, 116
-0.992698, 121, 293, 152, 324
-0.992698, 173, 109, 204, 140
-0.992712, 201, 125, 232, 156
-0.992714, 17, 109, 48, 140
-0.992714, 237, 169, 268, 200
-0.992715, 109, 149, 140, 180
-0.992718, 225, 97, 256, 128
-0.992723, 265, 201, 296, 232
-0.992725, 121, 133, 152, 164
-0.992726, 1, 41, 32, 72
-0.992727, 225, 189, 352, 220
-0.992729, 273, 189, 400, 220
-0.992729, 301, 265, 332, 296
-0.992732, 221, 189, 252, 220
-0.99274, 189, 177, 220, 208
-0.99274, 197, 293, 228, 324
-0.992742, 5, 57, 36, 88
-0.992748, 321, 229, 352, 260
-0.992751, 181, 257, 212, 288
-0.992756, 365, 197, 396, 228
-0.992757, 5, 177, 36, 208
-0.992768, 141, 233, 172, 264
-0.992769, 397, 157, 428, 188
-0.992773, 253, 205, 284, 236
-0.992773, 285, 261, 316, 292
-0.992775, 201, 101, 232, 132
-0.99278, 453, 261, 484, 292
-0.992782, 181, 229, 212, 260
-0.992791, 269, 157, 300, 188
-0.992792, 437, 257, 468, 288
-0.992799, 305, 229, 336, 260
-0.992802, 405, 317, 436, 348
-0.992807, 189, 245, 220, 276
-0.99281, 41, 117, 72, 148
-0.992811, 205, 189, 236, 220
-0.992811, 49, 1, 80, 32
-0.992812, 325, 189, 356, 220
-0.992815, 261, 145, 292, 176
-0.992818, 321, 177, 352, 208
-0.992823, 253, 181, 284, 212
-0.992841, 269, 189, 300, 220
-0.992854, 281, 121, 312, 152
-0.992854, 221, 261, 252, 292
-0.992857, 93, 153, 124, 184
-0.992857, 201, 269, 232, 300
-0.992951, 401, 1, 432, 128
-0.992973, 369, 57, 496, 120
-0.993014, 1, 73, 256, 136
-0.993034, 143, 113, 158, 176
-0.993034, 345, 33, 408, 288
-0.99304, 289, 1, 320, 128
-0.993053, 35, 153, 50, 216
-0.993084, 353, 333, 480, 364
-0.993085, 77, 49, 108, 176
-0.993085, 161, 113, 192, 240
-0.993097, 1, 241, 256, 304
-0.99311, 1, 225, 500, 288
-0.993206, 113, 293, 240, 324
-0.99323, 113, 281, 240, 312
-0.993264, 197, 97, 212, 160
-0.993305, 209, 177, 336, 208
-0.99332, 161, 93, 288, 124
-0.993344, 33, 297, 288, 360
-0.99335, 257, 113, 500, 176
-0.993354, 161, 109, 288, 140
-0.99341, 257, 233, 500, 296
-0.993443, 147, 265, 162, 328
-0.993469, 13, 145, 28, 208
-0.993485, 283, 209, 298, 272
-0.993593, 331, 241, 346, 304
-0.993625, 369, 169, 496, 200
-0.993634, 139, 265, 154, 328
-0.993656, 257, 281, 500, 344
-0.993666, 43, 137, 58, 200
-0.993696, 257, 305, 500, 368
-0.993698, 291, 233, 306, 296
-0.993748, 97, 1, 352, 64
-0.993778, 29, 145, 44, 208
-0.993791, 113, 269, 240, 300
-0.993797, 285, 233, 300, 296
-0.993843, 337, 157, 464, 188
-0.993897, 1, 169, 500, 232
-0.993918, 197, 73, 212, 136
-0.993923, 177, 201, 304, 232
-0.993933, 131, 249, 146, 312
-0.993941, 241, 221, 368, 252
-0.993957, 129, 305, 384, 368
-0.993982, 367, 161, 382, 224
-0.993986, 369, 313, 496, 344
-0.99399, 339, 225, 354, 288
-0.994, 1, 41, 256, 104
-0.994, 273, 241, 400, 272
-0.994002, 137, 241, 152, 304
-0.994009, 355, 161, 370, 224
-0.994047, 49, 145, 64, 208
-0.994059, 257, 1, 500, 64
-0.994062, 65, 277, 192, 308
-0.994062, 275, 217, 290, 280
-0.99407, 325, 241, 340, 304
-0.994079, 305, 1, 368, 128
-0.994087, 297, 209, 312, 272
-0.994095, 19, 145, 34, 208
-0.9941, 289, 201, 416, 232
-0.994129, 299, 233, 314, 296
-0.994142, 257, 177, 384, 208
-0.994144, 225, 201, 480, 264
-0.994147, 205, 73, 220, 136
-0.994166, 273, 253, 400, 284
-0.99418, 131, 113, 146, 176
-0.994197, 33, 113, 48, 176
-0.994234, 193, 161, 320, 192
-0.994235, 1, 153, 16, 216
-0.994239, 369, 345, 496, 375
-0.994251, 223, 89, 238, 152
-0.994265, 97, 25, 352, 88
-0.994269, 345, 177, 360, 240
-0.994279, 283, 177, 298, 240
-0.994285, 113, 245, 240, 276
-0.994291, 57, 97, 120, 352
-0.994293, 387, 169, 402, 232
-0.994304, 289, 177, 304, 240
-0.994346, 225, 253, 352, 284
-0.99435, 435, 313, 450, 375
-0.994354, 97, 305, 224, 336
-0.994366, 65, 293, 192, 324
-0.994367, 129, 257, 256, 288
-0.994369, 289, 209, 304, 272
-0.994373, 361, 161, 376, 224
-0.994375, 397, 153, 412, 216
-0.994384, 257, 165, 384, 196
-0.994414, 207, 153, 222, 216
-0.99443, 189, 89, 204, 152
-0.994451, 177, 189, 304, 220
-0.994472, 187, 217, 202, 280
-0.994474, 193, 89, 448, 152
-0.9945, 177, 281, 192, 344
-0.994515, 235, 177, 250, 240
-0.994536, 153, 265, 168, 328
-0.994541, 369, 33, 496, 96
-0.994554, 137, 113, 152, 176
-0.994565, 1, 121, 500, 184
-0.994568, 257, 137, 384, 168
-0.994574, 41, 113, 56, 176
-0.994579, 193, 265, 320, 296
-0.994611, 1, 201, 500, 264
-0.994639, 471, 305, 486, 368
-0.994641, 275, 153, 290, 216
-0.994656, 129, 65, 384, 128
-0.994688, 225, 241, 352, 272
-0.994697, 113, 109, 240, 140
-0.994709, 185, 281, 200, 344
-0.994711, 113, 125, 240, 156
-0.994711, 1, 313, 500, 375
-0.994725, 379, 169, 394, 232
-0.99473, 293, 153, 308, 216
-0.994732, 353, 257, 480, 288
-0.994733, 217, 89, 232, 152
-0.994755, 457, 305, 472, 368
-0.994764, 319, 249, 334, 312
-0.99478, 209, 113, 336, 144
-0.994782, 151, 121, 166, 184
-0.994788, 183, 89, 198, 152
-0.994803, 369, 137, 496, 168
-0.994828, 41, 161, 56, 224
-0.994831, 143, 233, 158, 296
-0.994847, 213, 249, 228, 312
-0.99485, 209, 113, 224, 176
-0.994859, 387, 145, 402, 208
-0.99486, 307, 225, 322, 288
-0.994877, 335, 177, 350, 240
-0.994896, 285, 145, 300, 208
-0.994896, 417, 305, 432, 368
-0.994917, 125, 249, 140, 312
-0.994918, 163, 281, 178, 344
-0.994941, 177, 229, 304, 260
-0.994947, 373, 177, 388, 240
-0.994956, 241, 125, 368, 156
-0.994976, 193, 281, 208, 344
-0.994977, 269, 217, 284, 280
-0.994984, 321, 345, 448, 375
-0.994994, 7, 169, 22, 232
-0.994996, 449, 313, 464, 375
-0.995001, 121, 113, 136, 176
-0.995009, 169, 265, 184, 328
-0.995021, 161, 289, 288, 320
-0.995023, 429, 305, 444, 368
-0.995076, 49, 97, 64, 160
-0.995101, 55, 73, 70, 136
-0.995121, 1, 217, 256, 280
-0.99513, 185, 257, 200, 320
-0.995131, 257, 201, 272, 264
-0.995143, 115, 257, 130, 320
-0.995165, 293, 97, 324, 352
-0.995168, 49, 265, 176, 296
-0.995186, 333, 217, 348, 280
-0.995189, 361, 185, 376, 248
-0.995205, 325, 217, 340, 280
-0.995208, 171, 289, 186, 352
-0.995219, 43, 1, 58, 64
-0.995227, 113, 97, 240, 128
-0.995228, 209, 97, 336, 128
-0.995247, 305, 249, 320, 312
-0.995254, 321, 189, 448, 220
-0.995256, 223, 113, 238, 176
-0.995259, 227, 169, 242, 232
-0.99526, 1, 121, 16, 184
-0.995287, 203, 265, 218, 328
-0.995288, 409, 153, 424, 216
-0.995299, 377, 49, 440, 176
-0.995326, 219, 169, 234, 232
-0.995356, 279, 241, 294, 304
-0.995364, 351, 137, 366, 200
-0.995395, 179, 209, 194, 272
-0.995396, 463, 305, 478, 368
-0.995399, 393, 177, 408, 240
-0.995401, 199, 201, 214, 264
-0.995409, 231, 89, 246, 152
-0.995417, 213, 153, 228, 216
-0.995418, 1, 41, 128, 72
-0.99542, 1, 193, 64, 320
-0.99544, 341, 153, 356, 216
-0.995452, 369, 181, 496, 212
-0.995455, 83, 1, 98, 64
-0.995467, 289, 113, 304, 176
-0.995473, 33, 141, 160, 172
-0.995474, 263, 185, 278, 248
-0.995481, 9, 33, 24, 96
-0.995493, 485, 313, 500, 375
-0.995493, 273, 269, 400, 300
-0.995503, 17, 161, 144, 192
-0.995511, 49, 41, 64, 104
-0.99552, 297, 185, 312, 248
-0.995529, 13, 169, 28, 232
-0.99554, 225, 201, 352, 232
-0.995555, 295, 113, 310, 176
-0.995569, 361, 137, 376, 200
-0.995575, 25, 169, 40, 232
-0.99558, 409, 305, 424, 368
-0.995582, 281, 97, 312, 352
-0.995589, 1, 1, 256, 64
-0.995608, 191, 241, 206, 304
-0.995619, 23, 121, 38, 184
-0.995644, 195, 169, 210, 232
-0.995649, 55, 145, 70, 208
-0.995658, 143, 289, 158, 352
-0.995669, 133, 281, 148, 344
-0.995669, 295, 257, 310, 320
-0.99568, 303, 193, 318, 256
-0.995686, 265, 97, 296, 352
-0.995687, 341, 249, 356, 312
-0.995691, 369, 301, 496, 332
-0.995693, 11, 121, 26, 184
-0.995713, 211, 73, 226, 136
-0.995715, 197, 233, 212, 296
-0.995722, 305, 333, 432, 364
-0.995729, 209, 129, 240, 375
-0.995729, 281, 113, 296, 176
-0.995729, 355, 185, 370, 248
-0.995732, 179, 257, 194, 320
-0.995748, 177, 97, 192, 160
-0.995768, 1, 53, 128, 84
-0.99577, 193, 213, 320, 244
-0.995775, 257, 1, 384, 32
-0.995779, 273, 177, 288, 240
-0.995795, 161, 277, 288, 308
-0.995812, 161, 81, 288, 112
-0.99583, 129, 185, 256, 216
-0.995849, 257, 33, 500, 96
-0.995888, 189, 129, 220, 375
-0.995888, 97, 145, 224, 176
-0.995941, 177, 301, 304, 332
-0.995948, 433, 1, 464, 256
-0.995987, 145, 169, 272, 200
-0.995995, 1, 65, 128, 96
-0.996014, 305, 145, 432, 176
-0.996079, 253, 97, 284, 352
-0.996097, 133, 97, 164, 352
-0.996105, 17, 177, 144, 208
-0.996153, 117, 129, 148, 375
-0.996155, 305, 97, 336, 352
-0.996157, 177, 241, 304, 272
-0.996172, 241, 153, 368, 184
-0.996176, 81, 85, 208, 116
-0.996183, 353, 209, 480, 272
-0.996196, 193, 149, 320, 180
-0.996211, 17, 5, 144, 36
-0.996252, 209, 85, 336, 116
-0.996289, 233, 65, 264, 320
-0.996314, 421, 1, 452, 256
-0.996324, 49, 129, 176, 160
-0.996332, 449, 129, 480, 375
-0.996361, 33, 253, 160, 284
-0.996362, 1, 177, 256, 240
-0.99639, 49, 305, 176, 336
-0.996405, 457, 1, 488, 256
-0.996411, 177, 253, 304, 284
-0.996414, 1, 97, 500, 160
-0.996477, 353, 273, 480, 304
-0.996502, 321, 81, 448, 144
-0.996532, 65, 17, 192, 48
-0.996538, 321, 97, 352, 352
-0.996541, 97, 73, 224, 104
-0.996569, 1, 1, 500, 64
-0.996579, 225, 65, 480, 128
-0.996581, 221, 65, 252, 320
-0.996616, 305, 317, 432, 348
-0.996623, 353, 289, 480, 320
-0.996629, 29, 1, 60, 256
-0.996643, 369, 81, 496, 144
-0.996646, 197, 33, 228, 288
-0.996657, 17, 1, 48, 256
-0.996663, 209, 33, 240, 288
-0.996666, 1, 41, 500, 104
-0.996668, 113, 205, 240, 236
-0.996679, 17, 29, 144, 60
-0.996682, 337, 129, 368, 375
-0.996683, 33, 97, 160, 128
-0.996704, 145, 129, 176, 375
-0.996714, 139, 113, 154, 144
-0.996721, 161, 121, 288, 152
-0.996728, 181, 289, 196, 320
-0.996731, 5, 1, 36, 256
-0.996756, 313, 1, 344, 256
-0.996768, 193, 1, 320, 32
-0.996806, 163, 293, 178, 324
-0.996807, 209, 277, 336, 308
-0.996833, 161, 137, 288, 168
-0.996842, 113, 233, 240, 264
-0.99686, 305, 57, 432, 120
-0.996862, 49, 41, 176, 72
-0.996926, 5, 153, 20, 184
-0.996929, 369, 101, 496, 132
-0.996933, 169, 293, 184, 324
-0.996946, 257, 297, 384, 328
-0.996957, 335, 177, 350, 208
-0.996959, 143, 125, 158, 156
-0.99697, 1, 77, 128, 108
-0.996979, 299, 245, 314, 276
-0.996995, 187, 293, 202, 324
-0.997007, 289, 229, 416, 260
-0.997017, 321, 245, 448, 276
-0.997017, 285, 1, 316, 256
-0.997025, 291, 241, 306, 272
-0.997029, 321, 301, 448, 332
-0.99703, 29, 97, 60, 352
-0.99704, 33, 109, 160, 140
-0.997052, 233, 177, 248, 208
-0.997053, 149, 133, 164, 164
-0.997065, 175, 293, 190, 324
-0.99707, 209, 29, 336, 60
-0.997084, 165, 97, 196, 352
-0.99711, 289, 213, 416, 244
-0.997118, 207, 113, 222, 144
-0.997128, 7, 165, 22, 196
-0.997132, 283, 153, 298, 184
-0.997135, 97, 157, 224, 188
-0.997147, 357, 177, 372, 208
-0.99715, 461, 129, 492, 375
-0.997156, 193, 13, 320, 44
-0.997169, 445, 1, 476, 256
-0.99717, 443, 325, 458, 356
-0.997175, 281, 241, 296, 272
-0.997182, 327, 229, 342, 260
-0.997182, 451, 321, 466, 352
-0.997184, 355, 189, 370, 220
-0.997188, 261, 1, 292, 256
-0.997189, 217, 165, 232, 196
-0.997189, 131, 145, 146, 176
-0.997189, 209, 69, 336, 100
-0.997205, 291, 181, 306, 212
-0.997206, 319, 249, 334, 280
-0.997211, 345, 181, 360, 212
-0.997213, 193, 289, 208, 320
-0.997218, 287, 221, 302, 252
-0.997225, 149, 121, 164, 152
-0.997255, 1, 65, 500, 128
-0.99726, 351, 177, 366, 208
-0.997268, 121, 133, 136, 164
-0.99727, 277, 217, 292, 248
-0.997276, 267, 221, 282, 252
-0.997277, 113, 317, 240, 348
-0.997277, 35, 177, 50, 208
-0.997278, 145, 293, 160, 324
-0.997286, 189, 105, 204, 136
-0.997286, 457, 325, 472, 356
-0.997291, 437, 321, 452, 352
-0.997295, 337, 233, 352, 264
-0.997302, 97, 57, 224, 88
-0.997303, 193, 169, 208, 200
-0.997304, 387, 181, 402, 212
-0.997305, 17, 97, 48, 352
-0.997306, 179, 117, 194, 148
-0.997307, 257, 285, 384, 316
-0.997309, 223, 173, 238, 204
-0.997312, 59, 157, 74, 188
-0.997328, 309, 249, 324, 280
-0.997333, 299, 213, 314, 244
-0.997343, 157, 297, 172, 328
-0.997343, 49, 53, 176, 84
-0.997349, 337, 125, 464, 156
-0.997354, 181, 97, 196, 128
-0.997367, 141, 269, 156, 300
-0.997369, 257, 313, 384, 344
-0.99737, 379, 185, 394, 216
-0.997371, 181, 33, 212, 288
-0.99738, 177, 129, 208, 375
-0.997386, 207, 173, 222, 204
-0.997391, 39, 129, 54, 160
-0.997394, 289, 253, 304, 284
-0.997403, 65, 1, 192, 32
-0.997417, 369, 61, 496, 92
-0.997424, 133, 1, 164, 256
-0.997425, 291, 209, 306, 240
-0.997425, 195, 85, 210, 116
-0.997425, 133, 109, 148, 140
-0.997429, 81, 193, 208, 224
-0.997444, 431, 317, 446, 348
-0.997449, 47, 145, 62, 176
-0.997451, 33, 325, 160, 356
-0.997451, 295, 161, 310, 192
-0.997452, 45, 165, 60, 196
-0.997452, 409, 129, 440, 375
-0.997459, 305, 289, 432, 320
-0.997465, 469, 1, 500, 256
-0.997467, 289, 157, 304, 188
-0.99747, 37, 153, 52, 184
-0.997471, 281, 165, 296, 196
-0.99748, 367, 177, 382, 208
-0.997483, 329, 253, 344, 284
-0.997502, 299, 233, 314, 264
-0.99751, 273, 1, 304, 256
-0.997524, 321, 33, 448, 96
-0.997535, 301, 193, 316, 224
-0.997538, 113, 329, 240, 360
-0.997541, 275, 173, 290, 204
-0.997551, 29, 165, 44, 196
-0.997552, 207, 125, 222, 156
-0.997559, 239, 177, 254, 208
-0.997559, 213, 121, 228, 152
-0.997562, 65, 29, 192, 60
-0.997569, 151, 297, 166, 328
-0.997569, 343, 233, 358, 264
-0.997569, 33, 337, 160, 368
-0.997571, 39, 165, 54, 196
-0.997573, 5, 69, 20, 100
-0.997573, 189, 89, 204, 120
-0.997574, 221, 109, 236, 140
-0.997574, 293, 221, 308, 252
-0.997589, 51, 161, 66, 192
-0.997596, 31, 109, 46, 140
-0.997604, 103, 149, 118, 180
-0.997607, 463, 329, 478, 360
-0.997609, 227, 261, 242, 292
-0.997611, 199, 97, 214, 128
-0.997613, 41, 97, 72, 352
-0.997616, 393, 177, 408, 208
-0.997617, 437, 129, 468, 375
-0.997618, 181, 213, 196, 244
-0.997621, 123, 289, 138, 320
-0.997623, 131, 129, 146, 160
-0.99763, 139, 289, 154, 320
-0.997639, 153, 277, 168, 308
-0.997641, 15, 57, 30, 88
-0.997644, 331, 241, 346, 272
-0.997645, 335, 253, 350, 284
-0.997646, 321, 237, 336, 268
-0.99765, 353, 165, 368, 196
-0.997654, 271, 145, 286, 176
-0.997654, 1, 169, 16, 200
-0.99766, 277, 153, 292, 184
-0.997661, 17, 17, 144, 48
-0.997665, 259, 225, 274, 256
-0.99767, 197, 181, 212, 212
-0.997671, 333, 189, 348, 220
-0.997674, 377, 169, 392, 200
-0.997676, 263, 181, 278, 212
-0.997677, 155, 133, 170, 164
-0.997683, 227, 185, 242, 216
-0.997683, 209, 289, 336, 320
-0.997684, 227, 97, 242, 128
-0.997694, 345, 169, 360, 200
-0.997696, 361, 157, 376, 188
-0.997701, 169, 277, 184, 308
-0.997704, 295, 257, 310, 288
-0.997705, 401, 1, 432, 256
-0.997705, 257, 325, 384, 356
-0.997707, 431, 305, 446, 336
-0.997707, 125, 145, 140, 176
-0.99771, 207, 185, 222, 216
-0.99771, 101, 1, 132, 256
-0.997711, 141, 141, 156, 172
-0.997714, 285, 181, 300, 212
-0.997717, 433, 57, 448, 88
-0.997722, 163, 281, 178, 312
-0.997724, 399, 181, 414, 212
-0.99773, 117, 33, 148, 288
-0.997737, 17, 289, 144, 320
-0.997738, 147, 273, 162, 304
-0.997738, 271, 233, 286, 264
-0.997743, 213, 109, 228, 140
-0.997746, 49, 129, 64, 160
-0.997746, 203, 161, 218, 192
-0.99775, 183, 229, 198, 260
-0.997751, 277, 229, 292, 260
-0.997752, 387, 341, 402, 372
-0.997753, 17, 161, 32, 192
-0.997757, 475, 337, 490, 368
-0.997765, 17, 241, 144, 272
-0.997768, 257, 101, 384, 132
-0.997786, 421, 129, 452, 375
-0.997801, 113, 1, 240, 32
-0.997804, 89, 1, 120, 256
-0.997849, 249, 1, 280, 256
-0.997862, 177, 313, 304, 344
-0.997872, 337, 221, 464, 252
-0.997879, 45, 1, 76, 256
-0.997918, 145, 149, 272, 180
-0.997941, 97, 173, 224, 204
-0.997959, 81, 221, 208, 252
-0.998018, 397, 129, 428, 375
-0.998022, 257, 45, 384, 76
-0.99807, 369, 193, 496, 224
-0.998071, 377, 129, 408, 375
-0.998076, 161, 69, 288, 100
-0.998137, 353, 129, 384, 375
-0.99817, 73, 1, 104, 256
-0.998262, 297, 1, 328, 256
-0.998359, 273, 247, 336, 262
-0.998372, 321, 183, 384, 198
-0.998396, 409, 343, 472, 358
-0.998402, 177, 109, 240, 124
-0.99841, 225, 183, 288, 198
-0.998423, 289, 253, 352, 268
-0.998429, 185, 115, 248, 130
-0.99843, 137, 295, 200, 310
-0.998434, 409, 323, 472, 338
-0.998438, 1, 177, 64, 192
-0.998438, 161, 103, 224, 118
-0.998438, 289, 261, 352, 276
-0.998442, 185, 183, 248, 198
-0.998443, 289, 189, 352, 204
-0.998444, 409, 337, 472, 352
-0.998444, 161, 293, 224, 308
-0.998446, 129, 301, 192, 316
-0.998448, 185, 175, 248, 190
-0.998449, 385, 347, 448, 362
-0.998452, 273, 215, 336, 230
-0.998454, 217, 109, 280, 124
-0.998454, 289, 181, 352, 196
-0.998455, 1, 151, 64, 166
-0.998456, 177, 165, 240, 180
-0.998459, 97, 149, 160, 164
-0.998463, 345, 179, 408, 194
-0.998466, 249, 179, 312, 194
-0.998466, 325, 1, 356, 256
-0.998469, 257, 239, 320, 254
-0.998469, 193, 101, 256, 116
-0.998472, 169, 285, 232, 300
-0.998474, 401, 331, 464, 346
-0.998474, 297, 237, 360, 252
-0.998475, 169, 127, 232, 142
-0.998475, 293, 223, 324, 238
-0.998475, 389, 155, 420, 170
-0.998476, 257, 191, 320, 206
-0.998476, 461, 333, 492, 348
-0.998476, 13, 147, 44, 162
-0.998476, 105, 269, 168, 284
-0.998478, 161, 299, 224, 314
-0.998478, 337, 265, 368, 280
-0.998478, 283, 161, 298, 288
-0.998479, 129, 281, 192, 296
-0.998479, 265, 253, 328, 268
-0.998479, 257, 243, 288, 258
-0.99848, 233, 181, 264, 196
-0.998482, 285, 195, 316, 210
-0.998482, 297, 261, 328, 276
-0.998482, 113, 141, 144, 156
-0.998482, 337, 237, 368, 252
-0.998483, 321, 177, 384, 192
-0.998483, 257, 199, 320, 214
-0.998484, 457, 341, 488, 356
-0.998484, 5, 155, 36, 170
-0.998485, 185, 121, 216, 136
-0.998485, 37, 147, 68, 162
-0.998485, 345, 345, 376, 360
-0.998485, 425, 325, 456, 340
-0.998485, 25, 173, 88, 188
-0.998487, 177, 205, 208, 220
-0.998487, 257, 185, 320, 200
-0.998487, 377, 341, 440, 356
-0.998488, 113, 153, 144, 168
-0.998488, 281, 223, 344, 238
-0.998489, 225, 105, 256, 120
-0.998489, 121, 275, 184, 290
-0.998489, 413, 357, 444, 372
-0.998489, 425, 329, 488, 344
-0.99849, 185, 127, 216, 142
-0.99849, 187, 209, 202, 336
-0.99849, 197, 179, 228, 194
-0.998491, 141, 237, 172, 252
-0.998491, 25, 165, 56, 180
-0.998492, 453, 263, 484, 278
-0.998492, 437, 341, 468, 356
-0.998493, 201, 119, 232, 134
-0.998493, 173, 97, 204, 112
-0.998494, 169, 265, 232, 280
-0.998494, 33, 133, 64, 148
-0.998494, 249, 207, 312, 222
-0.998495, 389, 357, 420, 372
-0.998495, 305, 129, 336, 144
-0.998495, 161, 307, 224, 322
-0.998496, 433, 259, 464, 274
-0.998497, 237, 173, 268, 188
-0.998497, 137, 111, 200, 126
-0.998498, 201, 173, 232, 188
-0.998498, 17, 183, 80, 198
-0.998498, 249, 221, 312, 236
-0.998499, 337, 259, 368, 274
-0.998499, 313, 255, 376, 270
-0.9985, 433, 105, 496, 120
-0.9985, 277, 149, 308, 164
-0.9985, 361, 157, 424, 172
-0.998501, 17, 165, 80, 180
-0.998503, 265, 235, 296, 250
-0.998503, 333, 175, 364, 190
-0.998503, 69, 1, 100, 16
-0.998503, 425, 265, 488, 280
-0.998504, 97, 155, 160, 170
-0.998504, 177, 173, 208, 188
-0.998504, 233, 173, 296, 188
-0.998506, 133, 145, 164, 160
-0.998506, 297, 195, 360, 210
-0.998506, 121, 111, 152, 126
-0.998506, 465, 265, 496, 280
-0.998506, 257, 221, 288, 236
-0.998508, 205, 185, 236, 200
-0.998509, 189, 301, 220, 316
-0.998509, 297, 255, 328, 270
-0.99851, 417, 349, 480, 364
-0.99851, 133, 291, 164, 306
-0.998511, 145, 269, 208, 284
-0.998511, 301, 239, 332, 254
-0.998511, 393, 355, 456, 370
-0.998511, 129, 289, 192, 304
-0.998513, 225, 189, 288, 204
-0.998513, 49, 1, 80, 16
-0.998514, 345, 189, 408, 204
-0.998514, 129, 239, 192, 254
-0.998514, 281, 175, 344, 190
-0.998515, 277, 163, 308, 178
-0.998516, 1, 75, 64, 90
-0.998516, 353, 185, 384, 200
-0.998516, 285, 235, 316, 250
-0.998517, 65, 155, 128, 170
-0.998517, 373, 187, 404, 202
-0.998517, 209, 173, 272, 188
-0.998517, 249, 235, 280, 250
-0.998517, 377, 347, 408, 362
-0.998518, 285, 189, 316, 204
-0.998518, 17, 173, 48, 188
-0.998519, 169, 271, 232, 286
-0.998519, 249, 245, 312, 260
-0.99852, 249, 159, 312, 174
-0.99852, 129, 105, 192, 120
-0.998521, 249, 213, 312, 228
-0.998521, 213, 177, 244, 192
-0.998521, 45, 159, 76, 174
-0.998521, 213, 117, 244, 132
-0.998521, 445, 173, 476, 188
-0.998521, 1, 171, 64, 186
-0.998522, 185, 235, 216, 250
-0.998523, 297, 269, 360, 284
-0.998523, 145, 119, 208, 134
-0.998524, 297, 243, 360, 258
-0.998524, 297, 201, 328, 216
-0.998525, 221, 189, 252, 204
-0.998526, 177, 285, 208, 300
-0.998526, 105, 263, 168, 278
-0.998526, 289, 205, 352, 220
-0.998529, 25, 187, 56, 202
-0.998529, 413, 323, 444, 338
-0.99853, 401, 317, 464, 332
-0.99853, 193, 193, 256, 208
-0.998531, 281, 211, 312, 226
-0.998532, 45, 173, 76, 188
-0.998532, 113, 137, 176, 152
-0.998532, 425, 139, 488, 154
-0.998533, 433, 335, 496, 350
-0.998534, 213, 261, 244, 276
-0.998534, 185, 165, 216, 180
-0.998535, 321, 189, 384, 204
-0.998536, 153, 133, 216, 148
-0.998536, 345, 347, 408, 362
-0.998538, 193, 105, 224, 120
-0.998539, 309, 223, 340, 238
-0.998539, 125, 151, 156, 166
-0.998539, 145, 295, 176, 310
-0.99854, 377, 335, 440, 350
-0.998541, 165, 305, 196, 320
-0.998541, 273, 233, 336, 248
-0.998541, 161, 299, 192, 314
-0.998541, 113, 295, 176, 310
-0.998542, 277, 157, 308, 172
-0.998543, 349, 173, 380, 188
-0.998544, 113, 129, 176, 144
-0.998544, 273, 181, 304, 196
-0.998544, 125, 131, 156, 146
-0.998545, 177, 95, 240, 110
-0.998546, 241, 107, 272, 122
-0.998548, 281, 129, 344, 144
-0.998548, 389, 181, 420, 196
-0.998549, 417, 175, 480, 190
-0.99855, 385, 167, 448, 182
-0.99855, 5, 175, 36, 190
-0.99855, 33, 181, 64, 196
-0.99855, 417, 311, 480, 326
-0.998551, 137, 139, 168, 154
-0.998551, 1, 55, 64, 70
-0.998552, 177, 279, 240, 294
-0.998552, 205, 125, 236, 140
-0.998552, 425, 335, 456, 350
-0.998552, 129, 269, 160, 284
-0.998553, 209, 269, 272, 284
-0.998553, 169, 121, 232, 136
-0.998555, 105, 115, 168, 130
-0.998555, 137, 127, 200, 142
-0.998555, 385, 361, 448, 375
-0.998556, 281, 223, 312, 238
-0.998557, 249, 233, 312, 248
-0.998557, 257, 173, 320, 188
-0.998558, 445, 335, 476, 350
-0.998558, 225, 197, 288, 212
-0.998559, 1, 165, 32, 180
-0.998561, 193, 263, 256, 278
-0.998561, 29, 125, 60, 140
-0.998562, 93, 153, 124, 168
-0.998562, 129, 307, 192, 322
-0.998562, 173, 103, 204, 118
-0.998563, 113, 123, 176, 138
-0.998563, 201, 167, 264, 182
-0.998564, 353, 195, 416, 210
-0.998564, 1, 67, 64, 82
-0.998564, 345, 173, 408, 188
-0.998565, 217, 103, 280, 118
-0.998566, 185, 299, 248, 314
-0.998566, 1, 159, 64, 174
-0.998566, 129, 117, 160, 132
-0.998566, 329, 199, 392, 214
-0.998567, 189, 291, 220, 306
-0.998568, 161, 235, 224, 250
-0.998568, 433, 181, 496, 196
-0.998568, 433, 63, 496, 78
-0.998568, 249, 227, 312, 242
-0.998569, 225, 203, 288, 218
-0.99857, 129, 233, 192, 248
-0.99857, 33, 97, 48, 224
-0.99857, 301, 249, 332, 264
-0.99857, 337, 341, 400, 356
-0.998571, 377, 317, 440, 332
-0.998572, 417, 259, 480, 274
-0.998573, 205, 111, 236, 126
-0.998573, 97, 285, 160, 300
-0.998573, 197, 165, 228, 180
-0.998577, 441, 325, 472, 340
-0.998579, 291, 193, 306, 320
-0.99858, 113, 147, 144, 162
-0.998584, 137, 133, 168, 148
-0.998587, 325, 233, 356, 248
-0.998587, 105, 97, 136, 352
-0.998588, 177, 297, 208, 312
-0.998592, 285, 253, 316, 268
-0.998593, 269, 175, 300, 190
-0.998595, 269, 221, 300, 236
-0.998596, 281, 241, 312, 256
-0.998599, 33, 175, 64, 190
-0.998602, 157, 293, 188, 308
-0.998603, 169, 291, 200, 306
-0.998611, 143, 241, 158, 368
-0.998617, 181, 109, 212, 124
-0.998619, 297, 217, 328, 232
-0.998623, 311, 193, 326, 320
-0.998624, 217, 183, 248, 198
-0.998625, 125, 139, 156, 154
-0.998629, 433, 319, 464, 334
-0.998629, 277, 247, 308, 262
-0.998634, 197, 225, 212, 352
-0.998638, 333, 181, 364, 196
-0.998639, 289, 247, 320, 262
-0.99864, 353, 179, 384, 194
-0.998643, 373, 179, 404, 194
-0.99865, 193, 111, 224, 126
-0.998651, 181, 225, 196, 352
-0.998656, 317, 253, 348, 268
-0.998662, 213, 65, 228, 192
-0.998662, 5, 181, 36, 196
-0.998663, 221, 111, 252, 126
-0.998665, 269, 241, 300, 256
-0.998675, 297, 193, 312, 320
-0.99868, 57, 1, 88, 256
-0.998707, 365, 161, 380, 288
-0.998708, 285, 97, 300, 224
-0.998711, 137, 225, 152, 352
-0.99872, 341, 145, 356, 272
-0.99872, 155, 209, 170, 336
-0.998722, 219, 113, 234, 240
-0.998727, 23, 113, 38, 240
-0.998729, 21, 179, 52, 194
-0.998733, 273, 161, 288, 288
-0.998743, 11, 129, 26, 256
-0.998767, 141, 97, 156, 224
-0.998769, 291, 145, 306, 272
-0.998787, 175, 225, 190, 352
-0.998794, 161, 1, 192, 256
-0.998795, 365, 129, 396, 375
-0.998801, 149, 241, 164, 368
-0.998812, 197, 65, 212, 192
-0.998813, 207, 65, 222, 192
-0.998815, 335, 145, 350, 272
-0.998822, 279, 209, 294, 336
-0.998831, 319, 225, 334, 352
-0.998835, 347, 145, 362, 272
-0.998836, 205, 225, 220, 352
-0.998837, 187, 65, 202, 192
-0.998839, 333, 193, 348, 320
-0.99884, 219, 65, 234, 192
-0.998843, 389, 1, 420, 256
-0.998848, 5, 97, 36, 352
-0.99885, 5, 145, 20, 272
-0.998856, 285, 209, 300, 336
-0.998863, 211, 241, 226, 368
-0.998873, 299, 113, 314, 240
-0.998878, 341, 193, 356, 320
-0.99888, 279, 113, 294, 240
-0.998881, 131, 209, 146, 336
-0.998886, 305, 177, 320, 304
-0.998887, 49, 97, 64, 224
-0.998888, 229, 97, 244, 224
-0.998918, 303, 241, 318, 368
-0.998922, 211, 161, 226, 288
-0.998923, 43, 129, 58, 256
-0.998931, 197, 161, 212, 288
-0.998938, 219, 161, 234, 288
-0.998955, 129, 97, 144, 224
-0.998961, 11, 81, 26, 208
-0.998966, 327, 113, 342, 240
-0.998968, 291, 97, 306, 224
-0.998972, 211, 113, 226, 240
-0.998973, 169, 241, 184, 368
-0.998975, 55, 81, 70, 208
-0.998988, 121, 113, 136, 240
-0.998988, 355, 113, 370, 240
-0.998992, 297, 241, 312, 368
-0.999007, 125, 241, 140, 368
-0.99901, 17, 129, 32, 256
-0.999011, 45, 1, 60, 128
-0.999017, 373, 145, 388, 272
-0.999023, 39, 81, 54, 208
-0.999034, 27, 65, 42, 192
-0.999038, 425, 81, 440, 208
-0.999038, 265, 97, 280, 224
-0.999051, 149, 193, 164, 320
-0.999051, 163, 225, 178, 352
-0.999051, 269, 49, 284, 176
-0.999053, 117, 241, 132, 368
-0.999056, 143, 193, 158, 320
-0.999066, 111, 65, 126, 192
-0.999068, 273, 97, 288, 224
-0.999073, 389, 129, 404, 256
-0.999073, 327, 65, 342, 192
-0.999079, 1, 81, 16, 208
-0.999085, 101, 1, 116, 128
-0.999089, 417, 97, 432, 224
-0.999091, 321, 113, 336, 240
-0.999101, 271, 209, 286, 336
-0.999102, 149, 113, 164, 240
-0.999104, 307, 113, 322, 240
-0.999105, 355, 177, 370, 304
-0.999106, 203, 161, 218, 288
-0.999107, 89, 1, 104, 128
-0.999109, 347, 193, 362, 320
-0.99911, 349, 33, 380, 288
-0.999118, 135, 113, 150, 240
-0.99912, 191, 145, 206, 272
-0.99912, 267, 161, 282, 288
-0.999121, 311, 241, 326, 368
-0.999128, 229, 161, 244, 288
-0.999129, 427, 1, 442, 128
-0.99913, 119, 65, 134, 192
-0.999131, 367, 113, 382, 240
-0.999133, 17, 33, 32, 160
-0.99914, 197, 113, 212, 240
-0.999144, 17, 81, 32, 208
-0.999148, 325, 193, 340, 320
-0.999159, 379, 145, 394, 272
-0.999168, 103, 81, 118, 208
-0.999168, 77, 1, 92, 128
-0.999169, 181, 65, 196, 192
-0.999178, 477, 161, 492, 288
-0.99918, 39, 1, 54, 128
-0.999181, 179, 177, 194, 304
-0.999182, 235, 97, 250, 224
-0.999183, 55, 129, 70, 256
-0.999185, 145, 33, 176, 288
-0.999186, 433, 1, 448, 128
-0.99919, 35, 145, 50, 272
-0.999191, 45, 49, 60, 176
-0.999194, 477, 241, 492, 368
-0.999196, 465, 241, 480, 368
-0.999202, 483, 177, 498, 304
-0.999203, 95, 65, 110, 192
-0.999204, 51, 33, 66, 160
-0.999207, 209, 17, 224, 144
-0.999222, 313, 49, 328, 176
-0.999222, 397, 129, 412, 256
-0.999223, 291, 241, 306, 368
-0.999224, 25, 161, 40, 288
-0.999224, 217, 241, 232, 368
-0.999229, 185, 161, 200, 288
-0.999231, 83, 1, 98, 128
-0.999231, 441, 113, 456, 240
-0.999232, 113, 113, 128, 240
-0.999233, 449, 241, 464, 368
-0.999233, 389, 225, 404, 352
-0.999233, 235, 161, 250, 288
-0.999235, 125, 193, 140, 320
-0.999236, 147, 65, 162, 192
-0.999396, 53, 129, 84, 375
-0.999495, 93, 97, 124, 352
-0.999644, 337, 33, 368, 288
-0.999664, 445, 327, 460, 342
-0.999665, 369, 1, 400, 256
-0.999665, 301, 199, 316, 214
-0.999666, 201, 165, 216, 180
-0.999666, 31, 125, 46, 140
-0.999667, 473, 179, 488, 194
-0.999667, 449, 169, 464, 184
-0.999668, 301, 125, 316, 140
-0.999669, 305, 239, 320, 254
-0.999669, 351, 179, 366, 194
-0.999669, 121, 145, 136, 160
-0.99967, 147, 123, 162, 138
-0.99967, 141, 127, 156, 142
-0.99967, 483, 267, 498, 282
-0.99967, 203, 179, 218, 194
-0.999671, 479, 183, 494, 198
-0.999671, 191, 89, 206, 104
-0.999671, 179, 127, 194, 142
-0.999672, 187, 211, 202, 226
-0.999672, 211, 291, 226, 306
-0.999672, 197, 181, 212, 196
-0.999672, 207, 185, 222, 200
-0.999672, 201, 109, 216, 124
-0.999675, 189, 285, 204, 300
-0.999675, 145, 293, 160, 308
-0.999675, 213, 123, 228, 138
-0.999675, 293, 165, 308, 180
-0.999676, 323, 233, 338, 248
-0.999677, 271, 149, 286, 164
-0.999677, 171, 299, 186, 314
-0.999678, 187, 165, 202, 180
-0.999679, 265, 183, 280, 198
-0.999679, 7, 71, 22, 86
-0.99968, 213, 161, 228, 176
-0.99968, 151, 297, 166, 312
-0.999681, 285, 151, 300, 166
-0.999682, 135, 143, 150, 158
-0.999682, 17, 53, 32, 68
-0.999682, 363, 179, 378, 194
-0.999683, 183, 303, 198, 318
-0.999683, 45, 125, 60, 140
-0.999683, 51, 147, 66, 162
-0.999684, 267, 237, 282, 252
-0.999684, 207, 127, 222, 142
-0.999685, 21, 175, 36, 190
-0.999685, 233, 185, 248, 200
-0.999685, 399, 183, 414, 198
-0.999686, 191, 299, 206, 314
-0.999686, 257, 177, 272, 192
-0.999687, 473, 265, 488, 280
-0.999688, 9, 181, 24, 196
-0.999688, 163, 293, 178, 308
-0.999688, 213, 185, 228, 200
-0.999689, 345, 233, 360, 248
-0.999689, 297, 255, 312, 270
-0.999689, 335, 233, 350, 248
-0.999689, 319, 253, 334, 268
-0.999689, 143, 135, 158, 150
-0.99969, 273, 219, 288, 234
-0.999691, 289, 255, 304, 270
-0.999692, 99, 151, 114, 166
-0.999693, 305, 245, 320, 260
-0.999693, 193, 167, 208, 182
-0.999694, 377, 177, 392, 192
-0.999695, 175, 305, 190, 320
-0.999696, 283, 249, 298, 264
-0.999696, 299, 177, 314, 192
-0.999697, 195, 103, 210, 118
-0.999698, 189, 235, 204, 250
-0.999698, 347, 345, 362, 360
-0.9997, 135, 117, 150, 132
-0.9997, 137, 111, 152, 126
-0.999701, 7, 153, 22, 168
-0.999701, 3, 181, 18, 196
-0.999701, 397, 189, 412, 204
-0.999702, 303, 215, 318, 230
-0.999702, 145, 117, 160, 132
-0.999702, 433, 319, 448, 334
-0.999702, 291, 171, 306, 186
-0.999702, 129, 153, 144, 168
-0.999702, 193, 293, 208, 308
-0.999703, 447, 319, 462, 334
-0.999703, 3, 163, 18, 178
-0.999703, 389, 179, 404, 194
-0.999705, 207, 111, 222, 126
-0.999705, 181, 233, 196, 248
-0.999707, 461, 173, 476, 188
-0.999708, 189, 111, 204, 126
-0.999708, 439, 325, 454, 340
-0.999708, 351, 173, 366, 188
-0.999709, 311, 249, 326, 264
-0.999711, 275, 155, 290, 170
-0.999712, 467, 177, 482, 192
-0.999712, 455, 171, 470, 186
-0.999713, 149, 131, 164, 146
-0.999714, 169, 291, 184, 306
-0.999714, 129, 139, 144, 154
-0.999716, 227, 185, 242, 200
-0.999718, 293, 223, 308, 238
-0.99972, 129, 147, 144, 162
-0.999722, 225, 261, 240, 276
-0.999724, 279, 243, 294, 258
-0.999725, 267, 221, 282, 236
-0.999726, 121, 137, 136, 152
-0.999728, 333, 177, 348, 192
-0.999728, 181, 295, 196, 310
-0.999728, 217, 167, 232, 182
-0.999733, 225, 109, 240, 124
-0.999734, 289, 157, 304, 172
-0.999735, 175, 291, 190, 306
-0.999738, 453, 323, 468, 338
-0.999742, 223, 115, 238, 130
-0.999742, 273, 241, 288, 256
-0.999743, 151, 137, 166, 152
-0.999744, 285, 165, 300, 180
-0.999747, 329, 233, 344, 248
-0.999749, 235, 179, 250, 194
-0.999749, 47, 173, 62, 188
-0.999752, 15, 183, 30, 198
-0.999752, 217, 111, 232, 126
-0.999754, 195, 111, 210, 126
-0.999758, 183, 287, 198, 302
-0.999758, 369, 181, 384, 196
-0.999764, 281, 159, 296, 174
-0.999775, 295, 159, 310, 174
-0.999784, 41, 177, 56, 192
-0.999794, 21, 181, 36, 196
-0.999795, 293, 247, 308, 262
-0.999803, 105, 153, 120, 168
-0.999808, 35, 179, 50, 194
-0.999846, 27, 181, 42, 196
-1.00021, 65, 97, 96, 352
-1.00083, 77, 97, 108, 352
