1884
-0.48836, 1, 1, 500, 256
-0.51848, 1, 1, 500, 334
-0.545147, 161, 1, 416, 334
-0.547506, 257, 1, 500, 334
-0.589303, 1, 1, 256, 334
-0.66797, 193, 1, 448, 256
-0.770838, 33, 1, 288, 256
-0.863923, 273, 1, 400, 334
-0.880959, 129, 65, 256, 320
-0.88799, 177, 65, 304, 320
-0.891435, 273, 1, 400, 256
-0.892466, 1, 193, 500, 320
-0.895187, 129, 1, 256, 334
-0.903967, 225, 1, 352, 256
-0.904806, 225, 1, 352, 334
-0.906366, 129, 177, 384, 304
-0.906461, 1, 1, 128, 334
-0.915188, 321, 1, 448, 334
-0.915367, 49, 1, 176, 334
-0.918678, 1, 145, 500, 272
-0.922251, 49, 1, 176, 256
-0.923336, 321, 1, 448, 256
-0.925134, 33, 209, 288, 334
-0.925496, 33, 161, 288, 288
-0.928325, 1, 1, 128, 256
-0.928564, 1, 1, 500, 128
-0.929942, 129, 177, 256, 304
-0.937289, 161, 1, 416, 128
-0.938158, 217, 145, 280, 272
-0.94061, 209, 193, 336, 320
-0.94065, 209, 145, 336, 272
-0.942039, 369, 65, 496, 320
-0.942879, 177, 1, 304, 334
-0.943081, 97, 113, 352, 240
-0.943549, 369, 1, 496, 334
-0.944304, 257, 145, 500, 272
-0.945281, 161, 129, 288, 256
-0.94699, 185, 209, 248, 334
-0.947427, 225, 193, 480, 320
-0.948132, 1, 97, 500, 224
-0.948604, 249, 177, 312, 304
-0.949106, 225, 193, 288, 320
-0.950008, 1, 49, 500, 176
-0.950146, 161, 177, 224, 304
-0.950916, 193, 161, 256, 288
-0.951506, 273, 17, 400, 144
-0.951533, 193, 49, 448, 176
-0.952126, 81, 209, 208, 334
-0.953531, 137, 209, 200, 334
-0.954742, 33, 17, 288, 144
-0.955102, 129, 81, 256, 208
-0.955735, 1, 113, 256, 240
-0.957371, 209, 97, 336, 224
-0.958229, 169, 129, 232, 256
-0.958407, 113, 129, 240, 256
-0.958515, 193, 97, 448, 224
-0.958577, 241, 81, 304, 208
-0.95929, 217, 97, 280, 224
-0.961063, 305, 1, 368, 128
-0.961774, 193, 1, 320, 128
-0.962278, 257, 1, 500, 128
-0.962341, 225, 161, 288, 224
-0.963272, 161, 249, 224, 312
-0.963477, 193, 49, 320, 176
-0.963516, 233, 137, 296, 200
-0.963669, 113, 209, 176, 334
-0.963673, 201, 145, 264, 208
-0.963695, 257, 193, 384, 320
-0.963976, 97, 65, 352, 192
-0.964411, 233, 257, 296, 320
-0.964845, 193, 81, 256, 208
-0.965266, 257, 113, 384, 240
-0.965812, 129, 273, 192, 334
-0.965911, 1, 209, 64, 334
-0.966019, 65, 145, 192, 272
-0.966622, 33, 193, 160, 320
-0.967177, 25, 209, 88, 334
-0.967272, 185, 241, 248, 304
-0.967544, 145, 113, 208, 240
-0.96794, 265, 113, 328, 240
-0.968178, 105, 249, 168, 312
-0.968225, 137, 161, 200, 288
-0.968546, 209, 217, 272, 280
-0.969794, 17, 1, 144, 128
-0.970642, 201, 169, 264, 232
-0.970957, 237, 129, 268, 256
-0.971328, 65, 97, 192, 224
-0.971353, 281, 17, 344, 144
-0.971743, 273, 161, 336, 288
-0.971966, 249, 169, 312, 232
-0.972309, 113, 145, 176, 272
-0.972522, 241, 129, 304, 256
-0.972578, 169, 81, 232, 208
-0.972748, 257, 241, 320, 304
-0.973056, 105, 273, 168, 334
-0.973102, 113, 257, 240, 320
-0.973112, 137, 225, 200, 288
-0.973354, 305, 25, 368, 88
-0.973582, 177, 161, 304, 224
-0.973858, 145, 185, 208, 248
-0.973957, 169, 153, 232, 216
-0.974423, 233, 137, 264, 200
-0.974458, 73, 273, 136, 334
-0.975072, 297, 209, 360, 334
-0.975137, 305, 241, 368, 304
-0.975432, 217, 209, 248, 334
-0.975522, 241, 65, 304, 128
-0.975818, 209, 265, 336, 328
-0.975839, 89, 209, 152, 334
-0.976019, 233, 201, 296, 264
-0.97622, 257, 241, 384, 304
-0.976405, 129, 233, 256, 296
-0.976472, 257, 177, 288, 304
-0.97695, 201, 73, 264, 136
-0.97699, 177, 177, 240, 240
-0.977163, 129, 185, 256, 248
-0.977392, 65, 273, 192, 334
-0.97744, 205, 145, 236, 272
-0.977717, 177, 17, 240, 144
-0.978034, 145, 17, 272, 144
-0.978048, 281, 273, 344, 334
-0.978095, 49, 249, 176, 312
-0.978187, 205, 153, 236, 216
-0.978229, 177, 225, 304, 288
-0.978279, 297, 1, 360, 64
-0.97833, 225, 1, 288, 128
-0.978406, 201, 273, 264, 334
-0.978471, 281, 249, 344, 312
-0.97856, 17, 273, 80, 334
-0.978692, 201, 1, 264, 128
-0.978752, 249, 1, 312, 128
-0.978847, 257, 137, 320, 200
-0.97886, 105, 201, 168, 264
-0.978861, 217, 65, 280, 320
-0.979006, 393, 145, 456, 208
-0.979145, 273, 177, 336, 240
-0.97919, 321, 273, 384, 334
-0.979273, 305, 145, 432, 272
-0.979535, 221, 161, 252, 288
-0.979606, 337, 81, 464, 208
-0.979627, 273, 65, 400, 192
-0.979674, 57, 209, 120, 334
-0.97969, 273, 209, 336, 334
-0.979874, 113, 161, 176, 224
-0.97992, 97, 33, 224, 160
-0.979976, 129, 121, 256, 184
-0.979998, 265, 1, 328, 64
-0.980018, 137, 249, 200, 312
-0.98022, 65, 1, 128, 128
-0.980235, 73, 249, 136, 312
-0.980293, 161, 257, 288, 320
-0.980338, 49, 257, 112, 320
-0.9804, 281, 1, 344, 256
-0.980546, 245, 193, 276, 320
-0.980754, 265, 65, 328, 192
-0.98089, 141, 273, 172, 334
-0.980998, 269, 177, 300, 304
-0.981021, 161, 113, 224, 176
-0.981154, 221, 153, 252, 216
-0.981157, 369, 161, 496, 288
-0.98116, 345, 33, 408, 160
-0.981208, 1, 145, 128, 272
-0.981274, 81, 225, 208, 288
-0.981323, 209, 201, 336, 264
-0.98162, 305, 1, 368, 256
-0.981645, 217, 49, 280, 176
-0.98175, 153, 273, 216, 334
-0.982148, 205, 209, 236, 334
-0.982301, 225, 129, 352, 192
-0.982461, 289, 113, 352, 240
-0.982473, 17, 273, 144, 334
-0.982505, 177, 65, 240, 320
-0.982598, 265, 49, 328, 112
-0.982616, 193, 81, 320, 144
-0.982616, 185, 177, 216, 304
-0.982618, 153, 65, 216, 320
-0.982623, 177, 89, 240, 152
-0.98277, 281, 129, 344, 192
-0.982807, 241, 113, 304, 176
-0.982911, 233, 193, 264, 320
-0.982956, 113, 225, 176, 288
-0.983102, 241, 89, 304, 152
-0.983135, 157, 177, 188, 304
-0.983153, 209, 121, 272, 184
-0.983167, 65, 169, 192, 232
-0.98318, 401, 145, 464, 272
-0.983241, 129, 145, 256, 208
-0.983266, 1, 225, 64, 288
-0.983414, 129, 209, 256, 272
-0.983466, 329, 1, 392, 64
-0.983504, 17, 201, 80, 264
-0.983627, 241, 65, 304, 320
-0.983673, 141, 209, 172, 334
-0.983714, 105, 97, 168, 224
-0.983802, 269, 153, 300, 216
-0.983841, 217, 97, 248, 224
-0.983854, 257, 273, 384, 334
-0.983953, 321, 17, 448, 144
-0.984075, 29, 209, 60, 334
-0.984097, 113, 121, 176, 184
-0.984159, 261, 129, 292, 256
-0.984202, 89, 225, 152, 288
-0.984285, 145, 145, 208, 208
-0.984429, 81, 1, 144, 64
-0.984522, 281, 25, 344, 88
-0.984567, 321, 273, 448, 334
-0.984618, 145, 81, 272, 144
-0.984638, 257, 273, 320, 334
-0.98475, 345, 41, 408, 104
-0.984763, 241, 177, 368, 240
-0.98483, 345, 273, 408, 334
-0.984876, 273, 17, 400, 80
-0.984999, 321, 65, 384, 192
-0.985023, 321, 209, 448, 334
-0.98508, 253, 153, 284, 216
-0.985084, 141, 241, 172, 304
-0.985116, 169, 177, 200, 304
-0.98513, 153, 265, 184, 328
-0.985155, 273, 97, 336, 160
-0.985176, 281, 153, 344, 216
-0.985251, 49, 81, 112, 208
-0.985292, 1, 49, 128, 176
-0.985324, 233, 233, 296, 296
-0.9854, 209, 177, 240, 240
-0.985408, 33, 33, 96, 160
-0.985494, 177, 65, 240, 128
-0.985513, 401, 97, 464, 224
-0.985579, 345, 65, 408, 128
-0.985616, 249, 129, 280, 256
-0.985777, 273, 153, 400, 216
-0.985801, 369, 137, 432, 200
-0.98586, 33, 161, 96, 288
-0.986167, 17, 97, 144, 224
-0.986193, 281, 177, 312, 304
-0.986196, 269, 249, 300, 312
-0.986218, 297, 1, 360, 334
-0.986257, 369, 81, 432, 208
-0.986309, 225, 57, 352, 120
-0.986321, 245, 129, 276, 192
-0.986425, 49, 49, 176, 176
-0.986477, 189, 249, 220, 312
-0.986505, 233, 81, 264, 208
-0.986533, 193, 153, 224, 216
-0.986556, 129, 249, 160, 312
-0.986693, 209, 9, 336, 72
-0.98671, 273, 49, 304, 176
-0.986726, 229, 217, 260, 280
-0.986794, 209, 225, 240, 288
-0.986807, 273, 113, 304, 240
-0.986828, 237, 257, 268, 320
-0.986832, 1, 65, 256, 192
-0.986854, 229, 73, 260, 136
-0.986929, 1, 177, 64, 240
-0.986992, 273, 41, 400, 104
-0.987026, 177, 137, 304, 200
-0.987096, 281, 241, 312, 304
-0.987115, 165, 113, 196, 240
-0.987139, 65, 145, 192, 208
-0.987146, 145, 89, 208, 152
-0.987186, 349, 65, 380, 128
-0.987197, 257, 201, 320, 264
-0.987206, 109, 273, 140, 334
-0.98722, 321, 209, 384, 334
-0.987237, 65, 113, 192, 176
-0.987247, 217, 49, 280, 112
-0.987333, 177, 273, 240, 334
-0.987472, 257, 249, 288, 312
-0.987625, 57, 105, 120, 168
-0.987751, 209, 249, 272, 312
-0.987814, 253, 177, 284, 240
-0.987921, 41, 193, 104, 256
-0.987971, 433, 145, 496, 208
-0.987972, 49, 201, 176, 264
-0.987973, 25, 249, 88, 312
-0.987981, 265, 185, 296, 248
-0.987983, 265, 129, 296, 192
-0.988024, 41, 209, 72, 334
-0.988051, 425, 145, 488, 272
-0.988096, 129, 273, 384, 334
-0.988288, 329, 1, 392, 256
-0.988309, 177, 113, 208, 240
-0.988431, 265, 1, 328, 334
-0.988433, 73, 265, 104, 328
-0.988535, 253, 65, 284, 192
-0.988589, 201, 97, 264, 160
-0.988599, 9, 49, 72, 176
-0.988611, 161, 209, 224, 272
-0.988613, 209, 1, 240, 128
-0.988629, 185, 217, 248, 280
-0.988702, 1, 161, 64, 288
-0.988702, 305, 241, 336, 304
-0.988789, 189, 97, 220, 224
-0.988802, 269, 57, 300, 120
-0.988864, 409, 113, 472, 176
-0.988887, 345, 273, 376, 334
-0.988934, 293, 241, 324, 304
-0.98896, 337, 249, 400, 312
-0.989032, 89, 137, 152, 200
-0.989095, 225, 153, 352, 216
-0.989117, 337, 161, 400, 288
-0.989144, 365, 41, 396, 104
-0.989158, 333, 1, 364, 128
-0.989219, 153, 185, 184, 248
-0.989253, 17, 209, 48, 334
-0.989269, 217, 73, 248, 136
-0.989272, 249, 209, 280, 272
-0.989343, 281, 169, 312, 232
-0.989381, 401, 169, 464, 232
-0.989518, 297, 17, 328, 144
-0.98957, 129, 273, 160, 334
-0.98959, 313, 145, 376, 272
-0.989592, 33, 273, 64, 334
-0.989604, 413, 137, 444, 200
-0.989616, 233, 1, 296, 64
-0.989668, 225, 161, 288, 192
-0.989703, 129, 65, 192, 320
-0.989711, 285, 1, 316, 128
-0.989741, 1, 233, 128, 296
-0.989773, 169, 1, 232, 334
-0.989776, 221, 273, 252, 334
-0.989783, 321, 1, 384, 334
-0.989796, 1, 209, 32, 334
-0.989796, 81, 97, 144, 224
-0.989798, 297, 193, 328, 320
-0.989823, 337, 145, 464, 208
-0.989863, 205, 273, 236, 334
-0.989866, 209, 149, 272, 180
-0.989936, 321, 273, 352, 334
-0.989969, 145, 161, 176, 288
-0.990043, 177, 257, 208, 320
-0.990052, 65, 161, 128, 288
-0.990073, 1, 257, 256, 320
-0.990074, 117, 193, 148, 320
-0.990077, 177, 105, 304, 168
-0.990089, 1, 153, 64, 216
-0.990123, 293, 97, 324, 224
-0.99013, 97, 177, 352, 240
-0.990145, 33, 33, 96, 96
-0.990148, 221, 49, 252, 176
-0.990156, 289, 73, 416, 136
-0.990158, 225, 105, 352, 168
-0.990248, 17, 113, 80, 240
-0.990274, 161, 241, 416, 304
-0.990304, 165, 265, 196, 328
-0.990331, 193, 9, 256, 72
-0.990335, 89, 145, 152, 272
-0.990347, 233, 149, 296, 180
-0.990354, 1, 25, 128, 88
-0.990355, 57, 17, 120, 80
-0.990422, 173, 177, 204, 240
-0.990435, 33, 225, 96, 288
-0.990453, 273, 129, 400, 192
-0.990514, 377, 129, 440, 256
-0.990559, 177, 57, 304, 120
-0.990621, 113, 297, 176, 328
-0.99063, 225, 261, 288, 292
-0.990632, 129, 193, 160, 320
-0.990726, 137, 65, 200, 192
-0.990748, 9, 293, 72, 324
-0.990757, 249, 161, 312, 192
-0.990794, 89, 281, 152, 312
-0.99089, 241, 173, 304, 204
-0.990898, 321, 1, 448, 64
-0.990908, 137, 289, 200, 320
-0.990913, 129, 277, 192, 308
-0.990928, 57, 1, 120, 256
-0.99098, 153, 113, 184, 240
-0.991017, 137, 241, 200, 272
-0.991031, 285, 49, 316, 176
-0.991032, 217, 81, 280, 112
-0.991099, 145, 185, 208, 216
-0.991103, 193, 289, 256, 320
-0.991133, 281, 225, 344, 288
-0.991169, 321, 209, 352, 334
-0.991175, 297, 25, 360, 56
-0.99118, 201, 165, 264, 196
-0.991195, 173, 81, 204, 144
-0.991211, 105, 225, 168, 256
-0.991225, 65, 233, 320, 296
-0.99123, 9, 41, 72, 104
-0.991245, 137, 121, 200, 184
-0.991274, 37, 201, 68, 264
-0.991286, 21, 273, 52, 334
-0.991309, 213, 129, 244, 192
-0.991328, 225, 213, 288, 244
-0.991331, 185, 177, 248, 208
-0.991346, 17, 113, 144, 176
-0.991355, 53, 265, 84, 328
-0.991362, 265, 189, 328, 220
-0.991377, 197, 185, 228, 248
-0.991377, 85, 257, 116, 320
-0.99138, 65, 293, 128, 324
-0.991387, 233, 137, 296, 168
-0.991409, 77, 209, 108, 334
-0.991416, 321, 305, 384, 334
-0.991424, 297, 285, 360, 316
-0.991439, 185, 121, 248, 184
-0.99144, 185, 177, 216, 240
-0.991442, 209, 193, 272, 256
-0.991466, 185, 153, 248, 184
-0.991471, 185, 245, 248, 276
-0.991485, 169, 297, 232, 328
-0.991494, 297, 9, 360, 40
-0.99152, 133, 129, 164, 256
-0.991525, 333, 9, 364, 72
-0.991543, 177, 165, 240, 196
-0.991544, 353, 177, 480, 240
-0.991562, 97, 265, 128, 328
-0.991568, 193, 1, 256, 334
-0.991588, 41, 137, 104, 200
-0.991614, 209, 137, 272, 168
-0.99164, 257, 253, 320, 284
-0.991643, 249, 73, 280, 136
-0.991645, 245, 233, 276, 296
-0.991655, 17, 281, 80, 312
-0.991656, 81, 105, 144, 168
-0.991684, 209, 225, 272, 256
-0.991688, 345, 65, 408, 96
-0.991709, 33, 293, 96, 324
-0.99172, 309, 17, 340, 144
-0.991731, 33, 1, 96, 256
-0.991737, 305, 249, 432, 312
-0.991748, 209, 277, 272, 308
-0.991769, 289, 17, 320, 80
-0.991793, 241, 77, 304, 108
-0.991794, 153, 145, 184, 208
-0.991796, 193, 81, 256, 112
-0.991824, 265, 177, 328, 208
-0.991825, 133, 201, 164, 264
-0.991839, 89, 209, 120, 334
-0.991851, 129, 265, 192, 296
-0.991862, 97, 209, 352, 272
-0.99188, 333, 273, 364, 334
-0.991887, 161, 257, 224, 288
-0.991894, 97, 81, 224, 144
-0.991902, 257, 201, 320, 232
-0.991902, 297, 305, 360, 334
-0.991907, 425, 97, 488, 224
-0.991932, 209, 177, 272, 208
-0.991932, 177, 277, 240, 308
-0.991934, 321, 281, 384, 312
-0.991934, 33, 105, 96, 168
-0.991956, 309, 1, 340, 64
-0.991968, 273, 149, 336, 180
-0.991975, 401, 145, 432, 208
-0.99198, 285, 145, 316, 208
-0.991988, 1, 241, 500, 304
-0.992012, 105, 261, 168, 292
-0.992024, 257, 273, 320, 304
-0.992033, 97, 249, 160, 280
-0.992059, 225, 249, 256, 312
-0.992084, 117, 249, 148, 312
-0.992088, 153, 273, 216, 304
-0.992098, 33, 1, 160, 64
-0.992102, 65, 277, 128, 308
-0.992112, 145, 213, 208, 244
-0.992135, 241, 89, 304, 120
-0.992138, 41, 281, 104, 312
-0.99214, 61, 209, 92, 334
-0.992141, 209, 93, 272, 124
-0.992141, 233, 273, 296, 304
-0.992153, 17, 209, 80, 240
-0.992169, 121, 193, 184, 224
-0.992213, 305, 137, 368, 200
-0.992222, 401, 145, 464, 176
-0.992223, 273, 161, 336, 192
-0.992224, 113, 177, 176, 208
-0.992226, 129, 253, 192, 284
-0.992238, 1, 185, 128, 248
-0.992252, 145, 305, 208, 334
-0.992253, 377, 145, 440, 176
-0.992262, 345, 33, 376, 96
-0.992267, 253, 1, 284, 128
-0.992281, 289, 49, 352, 112
-0.992283, 225, 189, 288, 220
-0.992294, 73, 49, 136, 176
-0.992329, 237, 149, 268, 180
-0.992329, 297, 269, 360, 300
-0.992333, 113, 213, 176, 244
-0.992396, 73, 1, 136, 334
-0.992413, 141, 169, 172, 232
-0.992448, 217, 1, 280, 334
-0.99245, 233, 201, 296, 232
-0.992467, 89, 237, 152, 268
-0.992471, 153, 141, 216, 172
-0.992479, 145, 229, 208, 260
-0.992482, 5, 185, 36, 248
-0.992484, 185, 93, 248, 124
-0.992489, 113, 137, 176, 168
-0.992494, 89, 301, 152, 332
-0.992496, 213, 153, 244, 184
-0.9925, 5, 257, 36, 320
-0.992507, 177, 213, 240, 244
-0.992535, 257, 169, 500, 232
-0.992549, 41, 161, 72, 288
-0.992559, 97, 149, 160, 180
-0.992577, 201, 201, 264, 232
-0.992608, 209, 237, 272, 268
-0.992609, 337, 13, 400, 44
-0.99261, 169, 189, 232, 220
-0.992613, 221, 1, 252, 128
-0.992615, 321, 237, 384, 268
-0.99264, 297, 241, 360, 272
-0.99265, 1, 265, 500, 328
-0.992651, 265, 9, 328, 40
-0.992661, 145, 113, 208, 144
-0.992665, 169, 77, 232, 108
-0.992681, 289, 177, 352, 208
-0.992685, 321, 1, 352, 64
-0.992697, 241, 65, 304, 96
-0.992717, 309, 25, 340, 88
-0.99273, 377, 81, 440, 144
-0.992731, 309, 209, 340, 334
-0.992758, 265, 21, 328, 52
-0.992767, 193, 265, 256, 296
-0.992767, 145, 173, 208, 204
-0.99277, 345, 49, 408, 80
-0.992775, 393, 157, 456, 188
-0.992778, 1, 229, 64, 260
-0.992779, 241, 125, 304, 156
-0.992795, 425, 193, 488, 320
-0.992803, 349, 65, 380, 96
-0.992806, 73, 265, 136, 296
-0.99282, 321, 29, 384, 60
-0.992827, 1, 197, 64, 228
-0.992841, 57, 101, 120, 132
-0.992842, 229, 81, 260, 112
-0.992851, 209, 5, 272, 36
-0.992859, 65, 145, 128, 208
-0.992865, 321, 65, 384, 96
-0.992866, 321, 65, 384, 128
-0.992866, 33, 221, 96, 252
-0.992873, 345, 1, 408, 334
-0.992885, 337, 77, 400, 108
-0.99289, 97, 65, 160, 320
-0.992892, 145, 197, 208, 228
-0.992897, 205, 165, 236, 196
-0.992899, 17, 153, 144, 216
-0.992899, 165, 105, 196, 168
-0.992902, 233, 5, 296, 36
-0.992905, 337, 1, 400, 32
-0.992905, 121, 125, 184, 156
-0.992913, 185, 233, 248, 264
-0.992914, 81, 137, 144, 168
-0.992914, 233, 249, 296, 280
-0.992928, 257, 137, 320, 168
-0.992937, 241, 137, 272, 168
-0.992943, 265, 57, 328, 88
-0.992947, 89, 1, 152, 128
-0.992952, 321, 217, 384, 280
-0.992952, 265, 225, 296, 288
-0.992953, 21, 293, 52, 324
-0.992959, 265, 161, 296, 192
-0.992971, 177, 117, 240, 148
-0.99298, 225, 221, 256, 252
-0.99298, 321, 293, 384, 324
-0.992984, 253, 153, 284, 184
-0.992994, 1, 241, 64, 272
-0.992995, 57, 1, 120, 32
-0.992996, 241, 257, 272, 288
-0.993006, 125, 277, 156, 308
-0.993018, 117, 297, 148, 328
-0.993029, 225, 149, 256, 180
-0.993033, 161, 93, 224, 124
-0.993048, 209, 229, 240, 260
-0.993055, 273, 101, 336, 132
-0.993055, 393, 177, 456, 208
-0.993068, 253, 165, 284, 196
-0.993069, 281, 133, 344, 164
-0.993073, 113, 285, 144, 316
-0.993073, 361, 33, 424, 288
-0.993073, 205, 181, 236, 212
-0.993074, 345, 301, 408, 332
-0.993082, 241, 1, 304, 334
-0.993082, 161, 245, 224, 276
-0.993085, 161, 129, 224, 160
-0.993085, 217, 165, 248, 196
-0.993091, 141, 277, 172, 308
-0.993099, 33, 1, 96, 334
-0.993107, 89, 5, 152, 36
-0.99311, 221, 277, 252, 308
-0.993111, 281, 177, 312, 208
-0.993112, 201, 149, 232, 180
-0.993116, 233, 161, 264, 192
-0.993117, 193, 293, 224, 324
-0.993118, 33, 281, 64, 312
-0.993127, 209, 277, 240, 308
-0.993127, 321, 217, 448, 280
-0.993131, 201, 17, 264, 48
-0.993133, 69, 281, 100, 312
-0.993137, 121, 149, 184, 180
-0.993143, 345, 273, 408, 304
-0.993144, 265, 253, 296, 284
-0.993145, 249, 213, 312, 244
-0.993146, 1, 181, 64, 212
-0.993149, 205, 289, 236, 320
-0.993156, 193, 245, 224, 276
-0.993162, 1, 301, 32, 332
-0.993165, 181, 297, 212, 328
-0.993167, 257, 205, 288, 236
-0.993176, 413, 141, 444, 172
-0.993176, 169, 185, 200, 216
-0.993185, 137, 225, 168, 256
-0.993189, 181, 253, 212, 284
-0.993196, 113, 1, 176, 334
-0.993196, 37, 293, 68, 324
-0.9932, 297, 273, 328, 334
-0.9932, 253, 257, 284, 288
-0.993203, 153, 273, 184, 304
-0.993204, 253, 141, 284, 172
-0.993207, 165, 261, 196, 292
-0.99321, 217, 177, 248, 208
-0.993211, 249, 77, 280, 108
-0.993218, 337, 305, 368, 334
-0.99322, 265, 149, 296, 180
-0.99323, 237, 217, 268, 248
-0.99323, 325, 289, 356, 320
-0.993233, 269, 193, 300, 224
-0.993235, 21, 281, 52, 312
-0.993242, 165, 305, 196, 334
-0.993246, 129, 289, 160, 320
-0.993254, 281, 189, 312, 220
-0.993255, 213, 141, 244, 172
-0.993265, 81, 277, 112, 308
-0.993269, 269, 173, 300, 204
-0.99327, 53, 293, 84, 324
-0.993275, 137, 241, 168, 272
-0.993276, 329, 21, 360, 52
-0.99328, 165, 289, 196, 320
-0.993291, 217, 77, 248, 108
-0.993292, 325, 301, 356, 332
-0.993293, 1, 249, 64, 312
-0.993297, 49, 281, 80, 312
-0.993303, 25, 201, 56, 264
-0.993308, 249, 125, 280, 156
-0.993309, 153, 189, 184, 220
-0.993329, 93, 293, 124, 324
-0.99334, 361, 65, 392, 96
-0.993342, 337, 81, 464, 144
-0.993342, 9, 289, 40, 320
-0.993344, 233, 93, 264, 124
-0.993349, 69, 293, 100, 324
-0.993352, 309, 285, 340, 316
-0.993354, 313, 29, 344, 60
-0.993357, 237, 201, 268, 232
-0.993358, 229, 185, 260, 248
-0.99336, 337, 281, 368, 312
-0.993361, 141, 261, 172, 292
-0.993362, 37, 217, 68, 248
-0.993364, 225, 137, 256, 168
-0.993365, 221, 265, 252, 296
-0.993373, 181, 185, 212, 216
-0.993376, 21, 161, 52, 288
-0.993385, 145, 213, 176, 244
-0.993388, 29, 229, 60, 260
-0.993389, 129, 49, 256, 112
-0.993399, 1, 253, 32, 284
-0.993403, 25, 213, 56, 244
-0.993404, 1, 201, 256, 264
-0.993404, 401, 145, 432, 176
-0.993407, 121, 249, 152, 280
-0.993412, 357, 33, 388, 160
-0.993414, 205, 241, 236, 272
-0.993418, 217, 289, 248, 320
-0.993421, 157, 117, 188, 148
-0.993426, 21, 201, 52, 232
-0.993427, 313, 305, 344, 334
-0.993428, 97, 153, 352, 216
-0.993431, 293, 177, 324, 208
-0.993431, 145, 177, 176, 208
-0.993433, 205, 97, 236, 224
-0.993435, 233, 277, 264, 308
-0.993435, 249, 89, 280, 120
-0.99344, 141, 289, 172, 320
-0.993443, 133, 213, 164, 244
-0.993443, 237, 1, 268, 32
-0.993445, 173, 85, 204, 116
-0.993449, 97, 277, 128, 308
-0.993453, 345, 77, 376, 108
-0.993453, 309, 17, 340, 48
-0.993453, 81, 293, 112, 324
-0.993456, 109, 137, 140, 168
-0.993461, 257, 181, 288, 212
-0.993465, 145, 305, 176, 334
-0.993472, 269, 65, 300, 96
-0.993474, 285, 273, 316, 304
-0.993475, 129, 197, 160, 228
-0.993478, 193, 173, 320, 204
-0.99348, 193, 185, 224, 216
-0.99348, 25, 161, 88, 224
-0.993484, 277, 161, 308, 192
-0.993493, 277, 253, 308, 284
-0.993493, 37, 205, 68, 236
-0.993508, 193, 173, 224, 204
-0.993508, 305, 161, 368, 224
-0.993509, 129, 301, 160, 332
-0.99351, 129, 265, 160, 296
-0.993511, 145, 201, 176, 232
-0.993513, 189, 149, 220, 180
-0.993515, 325, 237, 356, 268
-0.993524, 89, 233, 120, 264
-0.993525, 261, 269, 292, 300
-0.993525, 209, 13, 240, 44
-0.993527, 221, 93, 252, 124
-0.993528, 413, 153, 444, 184
-0.993528, 177, 117, 208, 148
-0.993531, 285, 145, 316, 176
-0.993532, 209, 213, 240, 244
-0.993536, 297, 281, 328, 312
-0.993536, 293, 29, 324, 60
-0.993538, 173, 73, 204, 104
-0.993551, 201, 249, 232, 312
-0.993658, 385, 65, 448, 320
-0.993666, 345, 17, 376, 144
-0.993762, 257, 201, 384, 264
-0.993763, 49, 17, 80, 144
-0.99379, 69, 1, 100, 128
-0.99382, 321, 1, 352, 128
-0.993836, 329, 153, 392, 216
-0.993901, 273, 89, 304, 152
-0.993972, 273, 97, 400, 160
-0.993972, 429, 145, 460, 272
-0.994014, 97, 285, 224, 316
-0.994033, 209, 273, 336, 304
-0.994087, 337, 121, 464, 184
-0.994108, 193, 209, 448, 272
-0.994182, 309, 273, 340, 334
-0.994192, 165, 65, 196, 192
-0.99426, 433, 161, 464, 224
-0.994264, 233, 161, 264, 224
-0.994265, 297, 65, 360, 192
-0.99429, 225, 137, 480, 200
-0.994314, 225, 97, 256, 160
-0.994383, 17, 129, 80, 192
-0.994386, 425, 185, 488, 248
-0.994412, 1, 209, 128, 272
-0.994441, 369, 17, 496, 144
-0.994442, 257, 241, 500, 304
-0.994445, 1, 177, 500, 240
-0.994465, 401, 1, 464, 334
-0.994508, 409, 129, 440, 256
-0.994513, 429, 97, 460, 224
-0.994544, 369, 49, 432, 112
-0.994553, 321, 41, 448, 104
-0.994567, 205, 73, 236, 136
-0.994592, 65, 57, 192, 120
-0.99463, 193, 161, 320, 192
-0.994643, 241, 185, 272, 248
-0.994648, 105, 129, 136, 192
-0.994666, 345, 81, 408, 208
-0.99467, 153, 105, 184, 168
-0.994677, 265, 73, 328, 136
-0.99472, 281, 57, 312, 120
-0.99472, 137, 121, 168, 184
-0.994739, 345, 1, 376, 64
-0.994753, 189, 217, 220, 280
-0.994769, 369, 1, 432, 334
-0.994782, 1, 1, 64, 334
-0.994788, 329, 241, 360, 304
-0.994887, 409, 33, 472, 288
-0.994902, 289, 201, 352, 264
-0.994923, 273, 1, 304, 128
-0.994923, 297, 105, 328, 168
-0.994923, 129, 273, 256, 304
-0.994934, 161, 9, 416, 72
-0.994949, 225, 273, 480, 334
-0.994972, 1, 293, 128, 324
-0.994976, 97, 1, 224, 64
-0.995001, 369, 113, 432, 176
-0.995001, 57, 225, 120, 288
-0.995004, 321, 25, 352, 88
-0.995031, 219, 153, 234, 216
-0.995032, 129, 209, 256, 240
-0.995112, 81, 201, 144, 264
-0.995117, 345, 65, 376, 192
-0.99512, 97, 1, 128, 128
-0.995123, 1, 177, 256, 240
-0.99513, 153, 217, 184, 280
-0.995132, 197, 1, 228, 128
-0.995141, 1, 217, 500, 280
-0.995163, 145, 1, 208, 334
-0.99517, 349, 249, 380, 312
-0.99518, 129, 161, 160, 224
-0.995187, 345, 217, 408, 280
-0.995202, 245, 105, 276, 168
-0.995215, 1, 49, 128, 112
-0.995224, 193, 57, 448, 120
-0.995298, 205, 153, 220, 216
-0.995326, 33, 249, 64, 312
-0.995376, 129, 129, 384, 192
-0.995379, 41, 73, 104, 136
-0.995404, 9, 1, 72, 256
-0.995404, 81, 1, 112, 128
-0.995426, 129, 229, 256, 260
-0.995435, 33, 89, 160, 152
-0.995436, 213, 249, 244, 312
-0.995467, 129, 157, 256, 188
-0.99548, 161, 261, 288, 292
-0.995509, 245, 137, 260, 200
-0.995543, 213, 153, 228, 216
-0.995576, 129, 241, 256, 272
-0.995595, 237, 1, 268, 64
-0.995618, 193, 233, 320, 264
-0.995622, 269, 1, 300, 64
-0.995715, 1, 105, 64, 168
-0.995719, 257, 25, 320, 88
-0.99572, 237, 145, 252, 208
-0.995751, 97, 297, 224, 328
-0.995765, 73, 169, 136, 232
-0.99577, 369, 49, 496, 112
-0.995791, 441, 145, 472, 272
-0.995794, 209, 49, 240, 176
-0.995803, 1, 145, 256, 208
-0.995809, 285, 265, 316, 328
-0.995814, 177, 49, 208, 176
-0.99582, 169, 41, 232, 104
-0.995831, 177, 33, 304, 96
-0.995851, 305, 177, 432, 240
-0.995869, 121, 97, 184, 160
-0.995874, 153, 241, 184, 304
-0.995889, 129, 185, 256, 216
-0.99593, 81, 245, 208, 276
-0.995964, 393, 81, 424, 208
-0.995972, 297, 105, 360, 168
-0.995999, 267, 161, 282, 224
-0.996041, 129, 97, 384, 160
-0.996046, 49, 25, 176, 88
-0.996073, 277, 121, 308, 184
-0.996087, 317, 241, 348, 304
-0.996094, 293, 49, 324, 112
-0.996127, 49, 277, 176, 308
-0.996129, 361, 65, 392, 128
-0.996132, 413, 81, 444, 208
-0.996136, 113, 257, 240, 288
-0.996177, 105, 193, 136, 320
-0.996185, 285, 89, 316, 152
-0.996191, 421, 161, 452, 224
-0.996192, 209, 261, 336, 292
-0.996199, 193, 273, 224, 334
-0.996204, 279, 153, 294, 216
-0.996214, 177, 245, 304, 276
-0.996216, 61, 81, 92, 208
-0.996222, 65, 257, 192, 288
-0.996226, 225, 145, 240, 208
-0.996227, 145, 81, 272, 112
-0.996229, 361, 249, 424, 312
-0.996238, 259, 145, 274, 208
-0.996247, 145, 141, 272, 172
-0.996268, 85, 1, 116, 64
-0.996302, 305, 305, 432, 334
-0.996303, 5, 225, 36, 288
-0.996334, 257, 249, 384, 280
-0.996362, 241, 141, 368, 172
-0.996364, 271, 249, 286, 312
-0.996365, 345, 129, 408, 192
-0.996408, 65, 177, 192, 208
-0.996433, 241, 153, 368, 184
-0.996437, 225, 33, 352, 96
-0.996456, 1, 9, 500, 72
-0.996457, 209, 9, 240, 72
-0.996459, 49, 289, 176, 320
-0.996477, 193, 149, 320, 180
-0.996477, 17, 177, 48, 240
-0.996481, 261, 169, 276, 232
-0.996481, 37, 225, 68, 288
-0.996514, 177, 105, 208, 168
-0.996526, 177, 93, 304, 124
-0.996543, 429, 113, 460, 176
-0.996545, 161, 33, 416, 96
-0.99655, 161, 1, 224, 64
-0.996556, 209, 201, 240, 264
-0.996561, 227, 73, 242, 136
-0.996562, 117, 129, 148, 192
-0.996566, 129, 169, 256, 200
-0.996578, 251, 137, 266, 200
-0.996601, 49, 221, 176, 252
-0.996643, 177, 185, 304, 216
-0.996653, 353, 241, 480, 304
-0.996656, 235, 73, 250, 136
-0.996678, 261, 81, 292, 144
-0.996685, 341, 193, 372, 320
-0.996689, 361, 65, 376, 128
-0.996694, 369, 201, 496, 264
-0.996713, 83, 265, 98, 328
-0.996723, 249, 49, 280, 112
-0.996723, 357, 273, 388, 334
-0.996741, 277, 249, 292, 312
-0.996742, 265, 137, 280, 200
-0.996744, 257, 113, 500, 176
-0.996758, 291, 241, 306, 304
-0.996774, 273, 153, 288, 216
-0.996781, 255, 169, 270, 232
-0.996786, 155, 273, 170, 334
-0.996807, 243, 73, 258, 136
-0.996813, 73, 1, 104, 64
-0.996822, 297, 73, 360, 136
-0.996824, 161, 289, 288, 320
-0.996825, 81, 97, 112, 224
-0.996836, 193, 77, 320, 108
-0.996837, 257, 33, 500, 96
-0.996857, 257, 285, 384, 316
-0.996862, 145, 241, 160, 304
-0.996862, 283, 249, 298, 312
-0.996872, 73, 73, 136, 136
-0.996882, 225, 81, 480, 144
-0.996882, 145, 1, 272, 64
-0.996911, 257, 193, 384, 224
-0.996919, 355, 33, 370, 96
-0.996929, 185, 81, 216, 144
-0.996939, 293, 145, 324, 272
-0.99697, 231, 217, 246, 280
-0.996974, 369, 17, 432, 144
-0.996989, 221, 225, 236, 288
-0.997001, 231, 153, 246, 216
-0.997005, 457, 145, 488, 272
-0.997009, 303, 241, 318, 304
-0.997017, 39, 201, 54, 264
-0.997023, 135, 273, 150, 334
-0.997025, 265, 249, 280, 312
-0.99705, 321, 281, 448, 312
-0.997051, 201, 249, 216, 312
-0.997057, 121, 273, 136, 334
-0.99706, 369, 1, 400, 128
-0.997061, 17, 73, 80, 136
-0.99707, 33, 121, 288, 184
-0.997072, 329, 145, 360, 272
-0.997073, 297, 241, 312, 304
-0.997077, 113, 25, 240, 88
-0.997082, 193, 213, 320, 244
-0.997092, 415, 137, 430, 200
-0.997103, 259, 249, 274, 312
-0.997106, 289, 21, 416, 52
-0.997125, 121, 209, 152, 272
-0.997135, 145, 197, 272, 228
-0.99714, 225, 169, 240, 232
-0.997151, 165, 265, 180, 328
-0.997156, 433, 65, 496, 320
-0.997157, 273, 261, 400, 292
-0.99716, 173, 265, 188, 328
-0.997173, 305, 113, 336, 240
-0.997174, 177, 81, 192, 144
-0.997175, 285, 169, 300, 232
-0.997178, 89, 249, 104, 312
-0.997195, 149, 273, 164, 334
-0.997203, 309, 241, 324, 304
-0.997211, 45, 273, 60, 334
-0.99723, 193, 49, 224, 176
-0.997239, 241, 165, 368, 196
-0.997246, 211, 233, 226, 296
-0.997248, 271, 65, 286, 128
-0.997251, 49, 233, 176, 264
-0.997256, 239, 217, 254, 280
-0.997266, 249, 209, 264, 272
-0.997268, 289, 33, 416, 64
-0.997277, 215, 177, 230, 240
-0.997284, 277, 185, 292, 248
-0.997297, 389, 137, 420, 200
-0.997301, 213, 129, 228, 192
-0.997302, 161, 81, 192, 144
-0.997317, 193, 177, 208, 240
-0.997339, 339, 273, 354, 334
-0.997341, 241, 249, 256, 312
-0.997344, 151, 241, 166, 304
-0.997344, 241, 205, 368, 236
-0.997345, 257, 9, 500, 72
-0.997345, 233, 273, 248, 334
-0.997345, 85, 113, 116, 176
-0.997347, 241, 73, 368, 104
-0.997358, 133, 249, 148, 312
-0.99736, 1, 281, 128, 312
-0.997362, 49, 193, 80, 256
-0.997393, 355, 57, 370, 120
-0.997407, 115, 273, 130, 334
-0.99741, 241, 9, 368, 40
-0.997417, 165, 241, 196, 304
-0.997423, 77, 273, 92, 334
-0.997428, 195, 249, 210, 312
-0.997432, 433, 209, 496, 272
-0.997444, 421, 137, 436, 200
-0.997447, 257, 177, 384, 208
-0.997449, 33, 65, 288, 128
-0.997452, 65, 153, 192, 184
-0.997454, 221, 73, 236, 136
-0.997458, 209, 285, 336, 316
-0.997464, 241, 297, 368, 328
-0.997465, 189, 249, 204, 312
-0.997476, 433, 1, 496, 334
-0.997482, 139, 249, 154, 312
-0.997487, 29, 273, 44, 334
-0.997492, 141, 273, 156, 334
-0.997495, 205, 65, 236, 320
-0.997499, 351, 273, 366, 334
-0.997502, 1, 33, 256, 96
-0.997526, 159, 185, 174, 248
-0.997529, 271, 185, 286, 248
-0.997529, 95, 257, 110, 320
-0.997531, 327, 273, 342, 334
-0.997536, 31, 193, 46, 256
-0.997538, 233, 65, 264, 320
-0.997544, 121, 145, 152, 272
-0.997559, 97, 137, 224, 168
-0.997562, 317, 241, 332, 304
-0.997578, 219, 273, 234, 334
-0.997587, 39, 273, 54, 334
-0.997594, 45, 201, 60, 264
-0.997602, 179, 265, 194, 328
-0.997606, 209, 129, 336, 160
-0.997613, 257, 121, 272, 184
-0.997613, 253, 257, 268, 320
-0.997632, 161, 129, 288, 160
-0.997633, 277, 57, 292, 120
-0.99764, 249, 65, 280, 320
-0.997654, 179, 177, 194, 240
-0.997659, 127, 273, 142, 334
-0.997662, 289, 9, 416, 40
-0.997672, 247, 249, 262, 312
-0.997677, 65, 193, 192, 224
-0.997684, 249, 113, 264, 176
-0.997684, 9, 129, 40, 256
-0.997689, 283, 49, 298, 112
-0.997699, 199, 153, 214, 216
-0.997699, 209, 177, 224, 240
-0.997702, 333, 273, 348, 334
-0.997707, 333, 1, 348, 64
-0.99771, 263, 209, 278, 272
-0.997718, 211, 149, 226, 180
-0.997721, 187, 177, 202, 240
-0.997721, 145, 217, 160, 280
-0.997722, 433, 121, 496, 184
-0.997731, 145, 305, 272, 334
-0.997742, 345, 273, 360, 334
-0.997744, 275, 129, 290, 192
-0.997749, 1, 225, 16, 288
-0.997752, 221, 1, 252, 256
-0.997759, 33, 1, 288, 64
-0.997766, 211, 273, 226, 334
-0.997779, 169, 105, 184, 168
-0.997787, 167, 177, 182, 240
-0.997793, 289, 45, 416, 76
-0.997805, 257, 273, 384, 304
-0.997817, 287, 145, 302, 208
-0.997827, 227, 265, 242, 328
-0.997828, 221, 161, 236, 192
-0.997833, 259, 157, 274, 188
-0.997838, 321, 293, 448, 324
-0.997839, 23, 273, 38, 334
-0.99784, 239, 193, 254, 256
-0.997844, 241, 25, 368, 56
-0.997847, 97, 117, 224, 148
-0.997856, 33, 245, 160, 276
-0.997858, 49, 169, 112, 232
-0.997866, 239, 145, 254, 176
-0.99787, 369, 41, 384, 104
-0.997872, 145, 113, 272, 144
-0.997874, 33, 33, 64, 160
-0.997882, 71, 273, 86, 334
-0.997883, 65, 165, 192, 196
-0.997883, 327, 1, 342, 64
-0.997885, 337, 145, 464, 176
-0.997889, 53, 265, 68, 328
-0.997893, 325, 1, 356, 256
-0.997894, 155, 153, 170, 216
-0.997896, 269, 225, 284, 288
-0.997899, 153, 185, 168, 248
-0.997914, 255, 209, 270, 272
-0.997915, 353, 65, 368, 96
-0.997916, 263, 73, 278, 136
-0.997916, 15, 273, 30, 334
-0.997918, 49, 301, 176, 332
-0.997925, 249, 73, 264, 136
-0.997929, 257, 61, 384, 92
-0.997929, 225, 89, 352, 120
-0.997935, 291, 169, 306, 232
-0.997938, 85, 49, 116, 176
-0.997944, 193, 5, 320, 36
-0.997948, 193, 197, 320, 228
-0.997948, 217, 149, 232, 180
-0.997954, 199, 177, 214, 240
-0.997962, 309, 1, 340, 256
-0.997964, 337, 157, 464, 188
-0.997972, 303, 25, 318, 88
-0.997983, 409, 145, 424, 208
-0.997988, 5, 185, 20, 248
-0.997989, 369, 25, 496, 88
-0.997994, 173, 177, 188, 240
-0.998005, 323, 241, 338, 304
-0.998005, 127, 249, 142, 312
-0.998012, 361, 65, 376, 96
-0.998019, 289, 73, 416, 104
-0.998019, 281, 89, 296, 152
-0.998034, 361, 41, 376, 104
-0.998034, 245, 137, 260, 168
-0.998035, 75, 249, 90, 312
-0.998038, 313, 25, 328, 88
-0.99804, 105, 265, 120, 328
-0.998042, 309, 161, 340, 288
-0.998057, 1, 153, 500, 216
-0.998065, 297, 1, 328, 256
-0.998072, 237, 1, 268, 128
-0.998088, 273, 237, 400, 268
-0.998109, 65, 205, 192, 236
-0.998124, 273, 65, 304, 320
-0.998139, 1, 253, 16, 284
-0.998143, 153, 33, 184, 160
-0.99815, 269, 153, 284, 184
-0.99815, 243, 81, 258, 112
-0.998154, 215, 233, 230, 264
-0.998164, 261, 65, 292, 320
-0.998183, 277, 161, 292, 192
-0.9982, 227, 145, 242, 176
-0.998215, 97, 101, 224, 132
-0.998222, 109, 81, 140, 208
-0.998229, 221, 229, 236, 260
-0.99824, 177, 65, 208, 320
-0.998246, 17, 209, 144, 240
-0.998253, 193, 65, 320, 96
-0.99826, 227, 157, 242, 188
-0.998262, 157, 65, 188, 320
-0.99827, 215, 161, 230, 192
-0.998274, 17, 265, 144, 296
-0.99828, 325, 305, 356, 320
-0.998281, 273, 67, 304, 82
-0.998284, 221, 91, 252, 106
-0.998285, 185, 185, 216, 200
-0.998285, 97, 289, 128, 304
-0.998285, 1, 305, 32, 320
-0.998287, 57, 287, 88, 302
-0.998287, 161, 301, 192, 316
-0.998288, 233, 89, 264, 104
-0.998288, 227, 221, 242, 252
-0.998289, 393, 145, 424, 160
-0.998291, 29, 285, 60, 300
-0.998291, 345, 319, 376, 334
-0.998292, 233, 95, 264, 110
-0.998293, 245, 93, 276, 108
-0.998293, 309, 285, 340, 300
-0.998293, 125, 291, 156, 306
-0.998294, 261, 205, 292, 220
-0.998294, 33, 221, 64, 236
-0.998294, 141, 239, 172, 254
-0.998295, 193, 157, 224, 172
-0.998295, 141, 267, 172, 282
-0.998295, 227, 169, 242, 200
-0.998295, 245, 131, 276, 146
-0.998295, 345, 305, 376, 320
-0.998296, 161, 315, 192, 330
-0.998296, 17, 287, 48, 302
-0.998296, 261, 255, 292, 270
-0.998296, 229, 277, 260, 292
-0.998298, 193, 179, 224, 194
-0.998298, 293, 179, 324, 194
-0.998299, 221, 79, 252, 94
-0.9983, 165, 261, 196, 276
-0.998301, 273, 199, 304, 214
-0.998301, 361, 67, 392, 82
-0.998302, 201, 247, 232, 262
-0.998302, 133, 219, 164, 234
-0.998303, 225, 283, 256, 298
-0.998303, 13, 221, 44, 236
-0.998303, 177, 305, 208, 320
-0.998303, 181, 255, 212, 270
-0.998303, 317, 291, 348, 306
-0.998304, 221, 271, 252, 286
-0.998304, 417, 141, 432, 172
-0.998304, 133, 203, 164, 218
-0.998304, 277, 161, 308, 176
-0.998306, 193, 151, 224, 166
-0.998306, 69, 285, 100, 300
-0.998307, 109, 287, 140, 302
-0.998308, 161, 187, 192, 202
-0.998312, 137, 231, 168, 246
-0.998314, 325, 311, 356, 326
-0.998314, 1, 257, 32, 272
-0.998314, 45, 113, 76, 240
-0.998314, 133, 315, 164, 330
-0.998315, 141, 273, 172, 288
-0.998315, 329, 299, 360, 314
-0.998315, 121, 319, 152, 334
-0.998315, 253, 211, 284, 226
-0.998315, 217, 289, 248, 304
-0.998315, 333, 317, 364, 332
-0.998315, 219, 277, 234, 308
-0.998316, 137, 279, 168, 294
-0.998316, 41, 227, 72, 242
-0.998316, 293, 185, 324, 200
-0.998317, 181, 299, 212, 314
-0.998317, 265, 149, 296, 164
-0.998318, 209, 181, 240, 196
-0.99832, 201, 285, 232, 300
-0.998322, 141, 289, 172, 304
-0.998324, 145, 215, 176, 230
-0.998324, 69, 291, 100, 306
-0.998325, 329, 285, 360, 300
-0.998326, 241, 259, 272, 274
-0.998327, 209, 241, 240, 256
-0.998328, 249, 171, 280, 186
-0.998328, 325, 27, 356, 42
-0.998329, 197, 185, 228, 200
-0.998329, 217, 175, 248, 190
-0.998331, 45, 287, 76, 302
-0.998331, 309, 31, 340, 46
-0.998331, 29, 231, 60, 246
-0.998331, 49, 293, 80, 308
-0.998333, 43, 277, 58, 308
-0.998334, 17, 137, 144, 168
-0.998334, 269, 173, 300, 188
-0.998334, 329, 293, 360, 308
-0.998334, 241, 215, 272, 230
-0.998336, 233, 83, 264, 98
-0.998336, 125, 279, 156, 294
-0.998336, 189, 249, 220, 264
-0.998337, 309, 319, 340, 334
-0.998338, 193, 295, 224, 310
-0.99834, 113, 297, 144, 312
-0.99834, 217, 277, 248, 292
-0.998343, 269, 183, 300, 198
-0.998343, 137, 225, 168, 240
-0.998343, 149, 319, 180, 334
-0.998344, 373, 315, 404, 330
-0.998348, 149, 225, 164, 256
-0.998349, 149, 281, 180, 296
-0.998352, 281, 189, 312, 204
-0.998354, 173, 185, 204, 200
-0.998355, 229, 171, 260, 186
-0.998357, 281, 179, 312, 194
-0.99836, 245, 137, 276, 152
-0.99836, 199, 293, 214, 324
-0.99836, 227, 77, 242, 108
-0.998362, 337, 311, 368, 326
-0.998363, 213, 235, 244, 250
-0.998363, 165, 309, 196, 324
-0.998364, 349, 73, 380, 88
-0.998365, 253, 151, 284, 166
-0.998365, 9, 299, 40, 314
-0.998366, 137, 277, 152, 308
-0.998367, 357, 145, 388, 272
-0.998373, 321, 317, 352, 332
-0.998375, 205, 291, 236, 306
-0.998377, 253, 145, 284, 160
-0.998379, 217, 145, 248, 160
-0.99838, 233, 221, 248, 252
-0.998381, 33, 291, 64, 306
-0.998381, 205, 157, 236, 172
-0.998385, 221, 229, 252, 244
-0.998388, 265, 167, 296, 182
-0.998388, 213, 283, 244, 298
-0.998391, 409, 145, 440, 160
-0.998391, 265, 155, 296, 170
-0.998394, 209, 165, 224, 196
-0.998395, 205, 149, 220, 180
-0.998404, 123, 285, 138, 316
-0.998406, 253, 159, 284, 174
-0.998407, 121, 285, 152, 300
-0.998407, 229, 221, 260, 236
-0.998409, 193, 17, 320, 48
-0.998414, 213, 281, 228, 312
-0.998417, 21, 293, 52, 308
-0.99842, 205, 289, 220, 320
-0.998421, 253, 165, 284, 180
-0.998421, 39, 213, 54, 244
-0.998423, 233, 157, 264, 172
-0.998424, 265, 161, 296, 176
-0.998427, 9, 1, 72, 128
-0.998432, 25, 293, 40, 324
-0.998433, 293, 177, 308, 208
-0.998438, 1, 181, 128, 212
-0.998443, 237, 81, 252, 112
-0.998448, 233, 165, 264, 180
-0.998449, 259, 145, 274, 176
-0.99845, 237, 143, 268, 158
-0.99845, 227, 281, 242, 312
-0.998451, 207, 241, 222, 272
-0.998457, 217, 151, 248, 166
-0.998462, 361, 193, 424, 320
-0.998464, 265, 165, 280, 196
-0.99847, 289, 165, 416, 196
-0.998471, 213, 163, 244, 178
-0.998474, 123, 297, 138, 328
-0.998479, 117, 285, 132, 316
-0.998484, 349, 67, 380, 82
-0.998489, 271, 253, 286, 284
-0.998493, 69, 161, 100, 288
-0.998495, 147, 285, 162, 316
-0.998495, 193, 151, 256, 166
-0.998504, 35, 289, 50, 320
-0.998506, 265, 257, 280, 288
-0.998519, 131, 281, 146, 312
-0.998519, 257, 169, 272, 200
-0.998522, 217, 157, 248, 172
-0.998523, 225, 167, 288, 182
-0.998525, 43, 289, 58, 320
-0.998525, 51, 293, 66, 324
-0.998528, 241, 161, 304, 176
-0.998532, 217, 157, 280, 172
-0.998536, 233, 149, 296, 164
-0.998542, 253, 149, 268, 180
-0.998549, 249, 125, 264, 156
-0.99855, 1, 41, 128, 72
-0.998559, 275, 149, 290, 180
-0.99856, 217, 173, 280, 188
-0.99856, 257, 257, 272, 288
-0.998562, 9, 295, 72, 310
-0.998565, 209, 145, 272, 160
-0.998567, 221, 177, 236, 208
-0.998568, 19, 293, 34, 324
-0.998572, 353, 177, 480, 208
-0.998575, 201, 165, 264, 180
-0.998577, 205, 151, 236, 166
-0.998581, 193, 157, 256, 172
-0.998581, 297, 319, 360, 334
-0.998582, 237, 149, 268, 164
-0.998582, 285, 185, 300, 216
-0.998585, 343, 305, 358, 334
-0.998585, 75, 281, 90, 312
-0.998585, 141, 289, 156, 320
-0.998588, 241, 155, 304, 170
-0.998589, 147, 213, 162, 244
-0.99859, 297, 29, 360, 44
-0.998597, 337, 1, 368, 256
-0.998597, 233, 143, 296, 158
-0.998603, 225, 265, 288, 280
-0.998604, 33, 113, 160, 144
-0.998604, 97, 285, 160, 300
-0.998609, 215, 181, 230, 212
-0.99861, 153, 277, 168, 308
-0.998612, 161, 187, 224, 202
-0.998612, 329, 313, 392, 328
-0.998614, 265, 177, 328, 192
-0.998616, 201, 249, 216, 280
-0.998617, 249, 167, 312, 182
-0.998618, 137, 287, 200, 302
-0.998619, 271, 201, 286, 232
-0.998624, 113, 279, 176, 294
-0.998627, 81, 281, 96, 312
-0.998627, 193, 291, 256, 306
-0.998628, 209, 85, 272, 100
-0.998629, 1, 305, 16, 334
-0.998629, 297, 23, 360, 38
-0.99863, 229, 269, 244, 300
-0.998631, 243, 217, 258, 248
-0.998632, 161, 269, 176, 300
-0.998632, 305, 133, 432, 164
-0.998638, 113, 311, 176, 326
-0.998639, 337, 69, 400, 84
-0.99864, 265, 189, 328, 204
-0.99864, 25, 289, 88, 304
-0.998642, 305, 313, 368, 328
-0.998642, 241, 173, 304, 188
-0.998644, 321, 269, 448, 300
-0.998644, 97, 291, 160, 306
-0.998646, 65, 293, 128, 308
-0.998648, 297, 17, 360, 32
-0.998649, 137, 249, 200, 264
-0.99865, 177, 165, 240, 180
-0.998651, 105, 225, 168, 240
-0.998651, 185, 183, 248, 198
-0.998651, 57, 293, 72, 324
-0.998653, 337, 289, 352, 320
-0.998653, 113, 33, 176, 160
-0.998653, 329, 307, 392, 322
-0.998654, 241, 183, 304, 198
-0.998654, 347, 65, 362, 96
-0.998654, 121, 319, 184, 334
-0.998655, 97, 317, 160, 332
-0.998655, 393, 147, 456, 162
-0.998656, 225, 217, 288, 232
-0.998657, 225, 259, 288, 274
-0.998659, 161, 309, 224, 324
-0.998659, 217, 225, 280, 240
-0.998659, 233, 271, 296, 286
-0.998659, 1, 301, 64, 316
-0.998659, 201, 237, 264, 252
-0.998661, 219, 289, 234, 320
-0.998661, 209, 231, 272, 246
-0.998662, 105, 297, 168, 312
-0.998662, 169, 295, 232, 310
-0.998662, 283, 161, 298, 192
-0.998662, 37, 201, 52, 232
-0.998663, 289, 287, 352, 302
-0.998664, 237, 157, 252, 188
-0.998664, 113, 273, 176, 288
-0.998665, 201, 285, 264, 300
-0.998665, 225, 195, 288, 210
-0.998665, 297, 303, 360, 318
-0.998667, 233, 137, 296, 152
-0.998668, 137, 215, 200, 230
-0.998668, 161, 181, 224, 196
-0.998669, 129, 265, 192, 280
-0.99867, 321, 319, 384, 334
-0.998671, 185, 249, 248, 264
-0.998672, 297, 297, 360, 312
-0.998672, 177, 87, 240, 102
-0.998673, 281, 183, 344, 198
-0.998675, 161, 287, 224, 302
-0.998675, 137, 187, 200, 202
-0.998675, 97, 257, 160, 272
-0.998675, 73, 279, 136, 294
-0.998676, 29, 281, 44, 312
-0.998676, 209, 79, 272, 94
-0.998676, 137, 281, 200, 296
-0.998676, 209, 139, 272, 154
-0.998676, 137, 293, 200, 308
-0.998676, 97, 247, 160, 262
-0.998677, 193, 243, 256, 258
-0.998677, 129, 255, 192, 270
-0.998679, 255, 129, 270, 160
-0.998679, 131, 297, 146, 328
-0.998679, 265, 199, 328, 214
-0.99868, 297, 275, 360, 290
-0.998681, 73, 287, 136, 302
-0.998681, 321, 283, 384, 298
-0.998681, 49, 287, 112, 302
-0.998681, 251, 161, 266, 192
-0.998682, 241, 93, 304, 108
-0.998682, 257, 275, 320, 290
-0.998683, 297, 11, 360, 26
-0.998683, 105, 201, 168, 216
-0.998683, 411, 145, 426, 176
-0.998683, 249, 211, 312, 226
-0.998685, 209, 91, 272, 106
-0.998687, 113, 305, 176, 320
-0.998687, 51, 281, 66, 312
-0.998688, 145, 317, 208, 332
-0.998688, 177, 281, 240, 296
-0.998689, 33, 295, 96, 310
-0.998689, 209, 179, 272, 194
-0.99869, 225, 283, 288, 298
-0.998691, 345, 75, 408, 90
-0.998691, 273, 171, 336, 186
-0.998691, 25, 223, 88, 238
-0.998691, 305, 35, 368, 50
-0.998692, 345, 63, 408, 78
-0.998692, 113, 231, 176, 246
-0.998692, 1, 253, 64, 268
-0.998694, 241, 87, 304, 102
-0.998694, 9, 217, 72, 232
-0.998695, 369, 145, 432, 160
-0.998696, 257, 205, 320, 220
-0.998696, 241, 79, 304, 94
-0.998698, 137, 243, 200, 258
-0.998698, 169, 303, 232, 318
-0.998699, 153, 261, 216, 276
-0.998699, 265, 161, 328, 176
-0.998699, 289, 281, 352, 296
-0.998699, 7, 305, 22, 334
-0.998699, 153, 145, 216, 160
-0.9987, 67, 293, 82, 324
-0.9987, 321, 85, 448, 116
-0.998701, 105, 219, 168, 234
-0.998702, 113, 207, 176, 222
-0.998702, 185, 177, 248, 192
-0.998703, 185, 93, 248, 108
-0.998703, 281, 153, 344, 168
-0.998703, 305, 241, 368, 256
-0.998705, 201, 277, 264, 292
-0.998706, 257, 253, 320, 268
-0.998706, 385, 317, 448, 332
-0.998706, 209, 97, 272, 112
-0.998707, 321, 289, 384, 304
-0.998707, 153, 271, 216, 286
-0.998708, 153, 153, 216, 168
-0.998708, 401, 141, 464, 156
-0.998708, 143, 245, 158, 276
-0.998708, 257, 143, 320, 158
-0.998709, 193, 267, 256, 282
-0.998709, 137, 237, 200, 252
-0.998709, 277, 253, 292, 284
-0.998713, 89, 289, 104, 320
-0.99872, 13, 297, 28, 328
-0.998721, 265, 141, 280, 172
-0.998723, 265, 205, 280, 236
-0.998727, 249, 85, 264, 116
-0.998728, 341, 145, 372, 272
-0.998731, 105, 129, 136, 256
-0.998731, 29, 201, 44, 232
-0.998732, 145, 69, 272, 100
-0.998733, 189, 1, 220, 256
-0.998734, 195, 249, 210, 280
-0.998738, 329, 285, 344, 316
-0.998738, 179, 185, 194, 216
-0.998743, 177, 293, 192, 324
-0.998752, 109, 1, 140, 128
-0.998755, 189, 297, 204, 328
-0.998759, 161, 189, 176, 220
-0.99876, 1, 89, 256, 152
-0.998766, 141, 221, 156, 252
-0.998767, 397, 145, 428, 272
-0.99877, 175, 81, 190, 112
-0.998789, 181, 253, 196, 284
-0.998789, 257, 213, 272, 244
-0.998789, 271, 165, 286, 196
-0.998791, 143, 273, 158, 304
-0.998792, 423, 141, 438, 172
-0.998793, 345, 17, 360, 48
-0.998798, 187, 185, 202, 216
-0.998805, 333, 301, 348, 332
-0.998811, 97, 5, 224, 36
-0.998814, 1, 1, 128, 32
-0.998816, 73, 293, 88, 324
-0.998817, 117, 297, 132, 328
-0.998818, 251, 257, 266, 288
-0.998821, 261, 193, 276, 320
-0.998823, 33, 213, 48, 244
-0.99883, 241, 201, 256, 232
-0.99883, 89, 253, 104, 284
-0.998834, 173, 305, 188, 334
-0.998834, 273, 85, 400, 116
-0.998835, 243, 257, 258, 288
-0.998835, 135, 249, 150, 280
-0.998837, 249, 217, 264, 248
-0.99884, 321, 233, 448, 264
-0.998842, 169, 185, 184, 216
-0.998845, 343, 285, 358, 316
-0.998849, 39, 233, 54, 264
-0.998851, 275, 185, 290, 216
-0.998851, 35, 277, 50, 308
-0.998853, 337, 61, 464, 92
-0.998853, 43, 201, 58, 232
-0.998853, 323, 285, 338, 316
-0.998855, 277, 197, 292, 228
-0.998855, 285, 65, 316, 320
-0.998856, 313, 33, 328, 64
-0.998857, 109, 285, 124, 316
-0.998863, 235, 277, 250, 308
-0.998869, 33, 29, 160, 60
-0.99889, 239, 129, 254, 256
-0.998891, 225, 209, 240, 334
-0.998893, 1, 197, 128, 228
-0.998915, 133, 65, 164, 320
-0.998931, 249, 129, 264, 256
-0.998941, 97, 81, 224, 112
-0.998972, 49, 125, 176, 156
-0.99898, 337, 245, 464, 276
-0.998986, 231, 145, 246, 272
-0.998987, 1, 33, 500, 96
-0.998999, 267, 177, 282, 304
-0.999006, 255, 193, 270, 320
-0.999007, 231, 209, 246, 334
-0.999035, 289, 153, 416, 184
-0.999036, 225, 161, 240, 288
-0.999045, 217, 145, 232, 272
-0.999046, 337, 1, 464, 32
-0.999065, 277, 177, 292, 304
-0.999066, 219, 209, 234, 334
-0.999073, 225, 105, 352, 136
-0.999079, 413, 65, 444, 320
-0.999081, 337, 17, 464, 48
-0.999091, 209, 37, 336, 68
-0.999092, 39, 209, 54, 334
-0.999119, 177, 49, 304, 80
-0.999122, 247, 209, 262, 334
-0.99913, 199, 177, 214, 304
-0.999136, 145, 33, 176, 288
-0.999137, 1, 165, 128, 196
-0.999145, 241, 193, 256, 320
-0.999164, 209, 145, 224, 272
-0.999165, 1, 53, 128, 84
-0.999172, 1, 233, 128, 264
-0.999181, 1, 81, 500, 144
-0.999182, 213, 209, 228, 334
-0.999188, 265, 129, 280, 256
-0.999189, 357, 1, 388, 256
-0.99919, 29, 113, 60, 240
-0.999194, 49, 1, 176, 32
-0.999199, 1, 149, 128, 180
-0.999204, 65, 1, 96, 256
-0.999205, 49, 101, 176, 132
-0.999206, 33, 209, 48, 334
-0.999209, 93, 145, 124, 272
-0.999212, 337, 257, 464, 288
-0.999215, 1, 221, 128, 252
-0.999215, 259, 145, 274, 272
-0.999217, 187, 177, 202, 304
-0.999229, 21, 49, 52, 176
-0.999231, 1, 125, 128, 156
-0.999232, 193, 177, 208, 304
-0.999245, 247, 81, 262, 208
-0.999247, 207, 209, 222, 334
-0.999247, 305, 177, 432, 208
-0.99925, 289, 97, 416, 128
-0.999256, 225, 117, 352, 148
-0.999256, 179, 177, 194, 304
-0.99927, 65, 17, 192, 48
-0.999271, 1, 121, 500, 184
-0.999271, 169, 177, 184, 304
-0.999277, 85, 1, 116, 256
-0.999279, 271, 113, 286, 240
-0.999281, 45, 209, 60, 334
-0.999284, 241, 65, 256, 192
-0.999289, 283, 177, 298, 304
-0.999295, 163, 177, 178, 304
-0.999305, 177, 113, 192, 240
-0.999306, 235, 81, 250, 208
-0.999314, 283, 97, 298, 224
-0.99932, 229, 81, 244, 208
-0.999325, 241, 49, 368, 80
-0.999331, 147, 209, 162, 334
-0.999337, 353, 193, 480, 224
-0.999339, 157, 177, 172, 304
-0.999344, 293, 193, 308, 320
-0.999346, 277, 49, 292, 176
-0.999352, 337, 73, 464, 104
-0.999365, 257, 97, 272, 224
-0.999371, 183, 113, 198, 240
-0.999372, 425, 65, 456, 320
-0.999374, 171, 97, 186, 224
-0.999384, 283, 49, 298, 176
-0.999387, 53, 1, 84, 256
-0.999395, 1, 57, 500, 120
-0.999403, 271, 65, 286, 192
-0.999409, 223, 97, 238, 224
-0.999415, 369, 1, 400, 256
-0.99942, 277, 129, 292, 256
-0.999424, 305, 193, 320, 320
-0.999427, 357, 33, 372, 160
-0.999431, 291, 1, 306, 128
-0.999438, 345, 1, 360, 128
-0.999438, 273, 121, 400, 152
-0.99944, 299, 193, 314, 320
-0.999445, 41, 1, 72, 256
-0.999453, 165, 129, 180, 256
-0.999454, 203, 113, 218, 240
-0.999464, 65, 65, 192, 96
-0.999467, 211, 97, 226, 224
-0.999472, 225, 1, 240, 128
-0.999491, 87, 209, 102, 334
-0.999492, 1, 209, 16, 334
-0.999493, 89, 293, 104, 308
-0.999493, 49, 295, 64, 310
-0.999495, 313, 33, 328, 48
-0.999495, 211, 1, 226, 128
-0.999495, 273, 109, 400, 140
-0.999496, 157, 129, 172, 256
-0.999496, 195, 297, 210, 312
-0.999496, 291, 49, 306, 176
-0.999497, 141, 275, 156, 290
-0.999498, 243, 133, 258, 148
-0.999498, 143, 243, 158, 258
-0.999499, 111, 289, 126, 304
-0.999499, 207, 293, 222, 308
-0.9995, 163, 317, 178, 332
-0.9995, 125, 193, 140, 320
-0.9995, 329, 285, 344, 300
-0.9995, 291, 319, 306, 334
-0.9995, 285, 1, 300, 128
-0.999501, 43, 227, 58, 242
-0.999501, 1, 305, 16, 320
-0.999502, 327, 317, 342, 332
-0.999502, 169, 187, 184, 202
-0.999502, 355, 63, 370, 78
-0.999502, 193, 185, 208, 200
-0.999503, 71, 289, 86, 304
-0.999503, 275, 169, 290, 184
-0.999503, 177, 301, 192, 316
-0.999503, 233, 169, 248, 184
-0.999504, 177, 85, 192, 100
-0.999505, 145, 225, 160, 240
-0.999505, 339, 301, 354, 316
-0.999506, 373, 315, 388, 330
-0.999506, 239, 143, 254, 158
-0.999506, 257, 213, 272, 228
-0.999506, 385, 313, 400, 328
-0.999507, 277, 199, 292, 214
-0.999507, 283, 191, 298, 206
-0.999507, 333, 293, 348, 308
-0.999508, 345, 305, 360, 320
-0.999508, 41, 161, 56, 288
-0.999508, 215, 183, 230, 198
-0.99951, 181, 307, 196, 322
-0.999511, 291, 187, 306, 202
-0.999511, 145, 285, 160, 300
-0.999511, 269, 205, 284, 220
-0.999512, 39, 203, 54, 218
-0.999512, 133, 297, 148, 312
-0.999512, 17, 13, 144, 44
-0.999512, 251, 165, 266, 180
-0.999512, 251, 215, 266, 230
-0.999513, 215, 163, 230, 178
-0.999513, 229, 285, 244, 300
-0.999513, 139, 281, 154, 296
-0.999514, 145, 217, 160, 232
-0.999514, 423, 143, 438, 158
-0.999515, 25, 295, 40, 310
-0.999515, 117, 193, 132, 320
-0.999515, 7, 255, 22, 270
-0.999516, 223, 277, 238, 292
-0.999517, 281, 183, 296, 198
-0.999518, 237, 163, 252, 178
-0.999519, 201, 291, 216, 306
-0.999519, 131, 193, 146, 320
-0.99952, 347, 69, 362, 84
-0.99952, 195, 251, 210, 266
-0.99952, 171, 309, 186, 324
-0.99952, 309, 17, 324, 144
-0.99952, 33, 285, 48, 300
-0.999521, 207, 163, 222, 178
-0.999521, 255, 141, 270, 156
-0.999521, 7, 303, 22, 318
-0.999521, 337, 49, 464, 80
-0.999521, 217, 291, 232, 306
-0.999521, 217, 81, 232, 208
-0.999522, 141, 291, 156, 306
-0.999523, 223, 283, 238, 298
-0.999525, 19, 297, 34, 312
-0.999525, 35, 231, 50, 246
-0.999525, 27, 289, 42, 304
-0.999525, 203, 151, 218, 166
-0.999526, 151, 281, 166, 296
-0.999527, 415, 145, 430, 160
-0.999527, 303, 33, 318, 160
-0.999527, 65, 291, 80, 306
-0.999527, 341, 293, 356, 308
-0.999527, 379, 313, 394, 328
-0.999527, 245, 217, 260, 232
-0.999528, 245, 147, 260, 162
-0.999528, 35, 293, 50, 308
-0.999528, 237, 155, 252, 170
-0.999528, 113, 41, 240, 72
-0.999528, 315, 319, 330, 334
-0.999528, 141, 209, 156, 334
-0.99953, 311, 209, 326, 334
-0.99953, 157, 319, 172, 334
-0.99953, 281, 165, 296, 180
-0.999531, 335, 317, 350, 332
-0.999531, 221, 177, 236, 192
-0.999532, 51, 209, 66, 334
-0.999532, 321, 209, 336, 334
-0.999534, 253, 151, 268, 166
-0.999534, 249, 135, 264, 150
-0.999534, 359, 71, 374, 86
-0.999536, 13, 299, 28, 314
-0.999537, 207, 287, 222, 302
-0.999537, 49, 289, 64, 304
-0.999537, 201, 247, 216, 262
-0.999538, 207, 241, 222, 256
-0.999539, 263, 209, 278, 224
-0.99954, 339, 311, 354, 326
-0.99954, 269, 149, 284, 164
-0.999541, 217, 283, 232, 298
-0.999541, 255, 171, 270, 186
-0.999542, 43, 291, 58, 306
-0.999543, 293, 179, 308, 194
-0.999544, 61, 209, 76, 334
-0.999545, 333, 65, 364, 192
-0.999545, 287, 181, 302, 196
-0.999545, 335, 287, 350, 302
-0.999546, 55, 295, 70, 310
-0.999547, 151, 227, 166, 242
-0.999548, 275, 153, 290, 168
-0.999549, 189, 97, 204, 224
-0.999551, 207, 157, 222, 172
-0.999554, 331, 209, 346, 334
-0.999557, 179, 65, 194, 192
-0.999558, 283, 159, 298, 174
-0.999558, 259, 147, 274, 162
-0.999559, 23, 209, 38, 334
-0.999559, 265, 1, 280, 128
-0.99956, 223, 165, 238, 180
-0.99956, 235, 221, 250, 236
-0.999561, 289, 113, 304, 240
-0.999563, 261, 171, 276, 186
-0.999563, 1, 253, 16, 268
-0.999565, 351, 75, 366, 90
-0.999565, 149, 161, 164, 288
-0.999566, 231, 17, 246, 144
-0.999566, 197, 97, 212, 224
-0.999569, 267, 161, 282, 176
-0.999574, 15, 209, 30, 334
-0.999574, 263, 81, 278, 208
-0.999575, 121, 97, 152, 224
-0.999578, 93, 209, 108, 334
-0.999579, 229, 151, 244, 166
-0.999579, 213, 237, 228, 252
-0.999582, 217, 1, 232, 128
-0.999583, 259, 155, 274, 170
-0.999586, 1, 259, 16, 274
-0.999587, 269, 155, 284, 170
-0.999588, 227, 173, 242, 188
-0.999589, 217, 231, 232, 246
-0.999591, 239, 149, 254, 164
-0.999592, 297, 17, 312, 144
-0.999594, 63, 17, 78, 144
-0.999595, 351, 1, 366, 128
-0.999596, 277, 159, 292, 174
-0.999597, 315, 17, 330, 144
-0.999597, 229, 223, 244, 238
-0.999598, 29, 161, 44, 288
-0.999598, 223, 227, 238, 242
-0.999601, 205, 1, 220, 128
-0.999602, 81, 209, 96, 334
-0.999603, 215, 149, 230, 164
-0.999604, 213, 157, 228, 172
-0.999604, 257, 165, 272, 180
-0.999606, 307, 97, 322, 224
-0.999608, 295, 97, 310, 224
-0.99961, 253, 49, 268, 176
-0.99961, 1, 161, 16, 288
-0.999614, 301, 97, 316, 224
-0.999617, 365, 49, 380, 176
-0.999617, 227, 159, 242, 174
-0.99962, 245, 141, 260, 156
-0.999623, 417, 81, 432, 208
-0.999623, 441, 97, 456, 224
-0.99963, 393, 65, 424, 320
-0.999632, 361, 65, 376, 80
-0.999632, 219, 155, 234, 170
-0.999641, 49, 65, 80, 192
-0.999641, 327, 1, 342, 128
-0.999642, 69, 17, 84, 144
-0.999642, 67, 209, 82, 334
-0.999644, 335, 1, 350, 128
-0.999646, 381, 33, 412, 160
-0.999646, 353, 69, 368, 84
-0.99965, 295, 145, 310, 272
-0.999653, 337, 209, 352, 334
-0.999658, 351, 65, 366, 192
-0.999659, 35, 161, 50, 288
-0.999661, 149, 97, 164, 224
-0.999668, 81, 1, 96, 128
-0.999669, 209, 151, 224, 166
-0.999672, 271, 1, 286, 128
-0.999675, 259, 1, 274, 128
-0.999677, 371, 33, 386, 160
-0.999678, 143, 161, 158, 288
-0.999682, 105, 209, 120, 334
-0.999683, 47, 145, 62, 272
-0.999686, 75, 1, 90, 128
-0.999686, 101, 1, 116, 128
-0.999692, 23, 145, 38, 272
-0.999694, 449, 113, 464, 240
-0.999694, 321, 17, 336, 144
-0.999695, 99, 209, 114, 334
-0.999696, 237, 17, 252, 144
-0.999697, 345, 193, 360, 320
-0.999697, 143, 113, 158, 240
-0.999697, 109, 1, 124, 128
-0.999704, 423, 81, 438, 208
-0.999704, 73, 209, 88, 334
-0.999715, 137, 17, 200, 144
-0.999723, 381, 33, 412, 288
-0.999735, 441, 97, 472, 224
-0.999739, 93, 97, 124, 224
-0.999742, 437, 33, 468, 288
-0.999808, 97, 1, 128, 256
-0.999891, 1, 33, 32, 288
-0.99992, 393, 49, 456, 176
-0.999949, 21, 1, 52, 128
-0.999955, 109, 1, 140, 256
-0.999979, 369, 273, 496, 334
-0.999981, 121, 1, 152, 256
-0.999983, 417, 177, 448, 304
-1.00001, 25, 1, 56, 256
-1.00008, 457, 65, 488, 320
-1.00009, 73, 49, 104, 176
-1.00016, 469, 145, 500, 272
-1.00018, 141, 81, 172, 208
-1.00021, 1, 81, 32, 208
-1.00034, 369, 65, 400, 192
-1.00045, 13, 1, 44, 256
-1.00051, 453, 97, 484, 224
-1.00057, 469, 65, 500, 320
-1.00068, 381, 81, 412, 208
-1.00073, 357, 81, 388, 208
-1.00081, 453, 193, 484, 320
-1.00087, 97, 49, 128, 176
-1.00088, 185, 1, 216, 128
-1.00101, 57, 145, 88, 272
-1.00125, 369, 1, 496, 64
-1.00131, 317, 97, 348, 224
-1.00135, 9, 33, 40, 160
-1.00138, 369, 161, 400, 288
-1.00141, 81, 145, 112, 272
-1.00183, 401, 33, 432, 160
-1.00206, 465, 193, 496, 320
-1.00208, 353, 193, 384, 320
-1.00231, 441, 193, 472, 320
-1.00238, 321, 49, 352, 176
-1.00244, 305, 65, 336, 192
-1.00245, 385, 177, 416, 304
-1.00259, 433, 49, 496, 176
-1.0033, 369, 209, 496, 334
-1.00335, 385, 209, 448, 334
-1.00366, 393, 1, 456, 128
-1.00726, 417, 1, 480, 128
