1979
-0.515936, 1, 97, 500, 352
-0.594522, 1, 1, 500, 375
-0.704922, 1, 1, 500, 256
-0.719549, 225, 1, 480, 375
-0.745646, 33, 1, 288, 375
-0.784369, 225, 97, 480, 352
-0.803137, 33, 129, 288, 375
-0.812998, 129, 1, 384, 375
-0.853881, 129, 129, 384, 375
-0.900817, 1, 209, 500, 336
-0.905912, 369, 129, 496, 375
-0.910354, 49, 129, 176, 375
-0.912682, 33, 193, 288, 320
-0.924227, 129, 97, 256, 352
-0.926679, 225, 129, 352, 375
-0.929446, 225, 1, 352, 375
-0.929866, 353, 1, 480, 375
-0.941235, 1, 97, 500, 224
-0.942555, 321, 97, 448, 352
-0.942688, 177, 97, 304, 352
-0.943991, 49, 1, 176, 375
-0.944496, 305, 1, 432, 375
-0.944593, 129, 1, 256, 375
-0.944805, 1, 97, 128, 352
-0.945879, 129, 193, 384, 320
-0.946248, 1, 161, 500, 288
-0.946483, 193, 241, 448, 368
-0.948579, 145, 193, 272, 320
-0.948757, 49, 193, 176, 320
-0.949651, 177, 1, 304, 375
-0.949916, 289, 241, 416, 368
-0.952401, 257, 193, 500, 320
-0.955278, 33, 241, 288, 368
-0.955541, 369, 193, 496, 320
-0.957527, 81, 33, 208, 288
-0.959671, 49, 193, 112, 320
-0.964324, 97, 193, 160, 320
-0.965321, 273, 97, 400, 352
-0.965416, 193, 193, 256, 320
-0.965908, 321, 241, 384, 368
-0.966496, 169, 193, 232, 320
-0.967039, 1, 1, 128, 375
-0.967783, 225, 193, 352, 320
-0.968549, 73, 177, 136, 304
-0.96885, 345, 241, 408, 368
-0.969286, 121, 193, 184, 320
-0.970518, 145, 193, 208, 320
-0.970991, 425, 193, 488, 320
-0.971487, 329, 249, 392, 312
-0.972009, 185, 201, 248, 264
-0.972013, 97, 193, 224, 320
-0.9734, 1, 145, 256, 272
-0.973929, 57, 201, 120, 264
-0.974155, 433, 233, 496, 296
-0.97453, 1, 193, 128, 320
-0.975818, 89, 201, 152, 264
-0.975914, 273, 289, 336, 352
-0.976008, 257, 145, 500, 272
-0.976098, 297, 241, 360, 368
-0.976374, 49, 201, 176, 264
-0.976658, 305, 265, 432, 328
-0.976959, 433, 113, 496, 240
-0.977172, 129, 201, 192, 264
-0.97742, 209, 241, 272, 368
-0.97765, 257, 81, 500, 208
-0.977651, 25, 209, 88, 336
-0.977671, 177, 241, 304, 368
-0.977694, 321, 1, 448, 256
-0.977727, 49, 241, 176, 368
-0.978013, 41, 225, 104, 288
-0.978091, 225, 241, 352, 368
-0.978162, 1, 1, 128, 256
-0.97883, 129, 201, 256, 264
-0.97887, 369, 241, 496, 368
-0.978888, 417, 209, 480, 272
-0.979217, 33, 145, 160, 272
-0.979256, 241, 289, 304, 352
-0.979346, 305, 265, 368, 328
-0.979762, 273, 225, 336, 352
-0.980245, 161, 201, 224, 264
-0.980556, 369, 113, 496, 240
-0.980599, 369, 241, 496, 304
-0.980833, 57, 241, 120, 368
-0.981496, 433, 185, 496, 248
-0.981638, 273, 1, 400, 256
-0.981652, 401, 209, 464, 336
-0.981819, 353, 257, 416, 320
-0.98213, 57, 129, 120, 256
-0.982362, 225, 241, 352, 304
-0.982458, 177, 1, 304, 256
-0.982858, 385, 281, 448, 344
-0.983014, 9, 161, 72, 288
-0.983045, 369, 1, 496, 256
-0.983087, 257, 265, 320, 328
-0.983269, 425, 121, 488, 184
-0.984041, 249, 225, 312, 352
-0.984126, 201, 257, 264, 320
-0.98417, 157, 193, 188, 320
-0.984181, 129, 145, 192, 272
-0.984509, 97, 145, 224, 272
-0.984633, 401, 145, 464, 272
-0.984685, 57, 193, 88, 320
-0.984732, 1, 241, 128, 368
-0.984868, 145, 145, 272, 272
-0.984944, 233, 233, 296, 296
-0.985212, 433, 241, 496, 368
-0.985215, 225, 281, 352, 344
-0.985222, 305, 193, 432, 320
-0.986125, 33, 233, 160, 296
-0.986162, 321, 265, 352, 328
-0.986174, 145, 225, 272, 288
-0.986286, 105, 177, 136, 304
-0.986418, 369, 217, 496, 280
-0.986444, 321, 241, 352, 368
-0.986586, 193, 225, 256, 288
-0.986617, 1, 49, 500, 176
-0.986699, 445, 201, 476, 264
-0.986742, 301, 289, 332, 352
-0.986795, 225, 33, 352, 288
-0.986815, 65, 313, 128, 375
-0.98687, 49, 313, 176, 375
-0.986892, 461, 249, 492, 312
-0.986941, 149, 201, 180, 264
-0.986976, 141, 193, 172, 320
-0.987013, 233, 177, 296, 304
-0.987025, 41, 249, 104, 312
-0.987074, 361, 249, 392, 312
-0.987078, 433, 257, 496, 320
-0.987104, 173, 193, 204, 320
-0.987212, 433, 97, 496, 352
-0.987371, 97, 241, 224, 368
-0.987421, 25, 289, 88, 352
-0.987549, 77, 193, 108, 320
-0.987613, 57, 209, 88, 272
-0.987712, 145, 257, 272, 320
-0.987749, 353, 281, 416, 344
-0.987785, 433, 193, 464, 256
-0.9879, 209, 281, 272, 344
-0.987931, 129, 225, 192, 288
-0.987953, 177, 201, 208, 264
-0.988086, 385, 249, 448, 312
-0.988133, 105, 97, 168, 352
-0.988185, 225, 209, 256, 336
-0.988202, 129, 241, 192, 368
-0.98825, 273, 313, 336, 375
-0.988333, 121, 193, 152, 320
-0.988606, 97, 113, 352, 240
-0.988665, 369, 281, 496, 344
-0.988735, 401, 129, 464, 375
-0.988763, 461, 225, 492, 352
-0.988771, 129, 1, 256, 256
-0.988771, 221, 209, 252, 272
-0.988779, 469, 217, 500, 280
-0.988914, 401, 185, 464, 248
-0.98904, 437, 177, 468, 304
-0.989041, 297, 289, 360, 352
-0.989053, 381, 273, 412, 336
-0.989117, 169, 145, 232, 272
-0.989133, 129, 97, 192, 352
-0.989217, 9, 241, 72, 304
-0.989264, 329, 177, 392, 304
-0.989303, 193, 313, 256, 375
-0.989347, 129, 209, 160, 272
-0.989507, 33, 265, 160, 328
-0.989548, 449, 193, 480, 320
-0.989702, 245, 281, 276, 344
-0.989817, 297, 193, 360, 320
-0.989897, 321, 97, 448, 224
-0.989946, 77, 201, 108, 264
-0.989959, 49, 129, 112, 375
-0.990004, 217, 313, 280, 375
-0.990033, 353, 177, 480, 240
-0.990041, 117, 201, 148, 264
-0.99007, 361, 241, 392, 368
-0.990104, 105, 113, 168, 240
-0.990157, 113, 177, 176, 240
-0.990206, 281, 265, 344, 328
-0.990253, 33, 145, 96, 272
-0.990256, 233, 257, 296, 320
-0.990262, 81, 225, 208, 288
-0.990327, 89, 193, 120, 320
-0.990401, 193, 129, 256, 375
-0.990433, 169, 97, 232, 352
-0.990448, 45, 209, 76, 336
-0.990485, 105, 193, 136, 256
-0.990534, 329, 257, 392, 288
-0.990552, 305, 305, 432, 368
-0.990597, 1, 209, 128, 272
-0.990633, 457, 209, 488, 272
-0.990717, 393, 161, 456, 224
-0.990757, 177, 281, 304, 344
-0.990785, 281, 241, 344, 304
-0.990803, 57, 205, 120, 236
-0.990818, 333, 241, 364, 368
-0.990841, 373, 241, 404, 368
-0.990872, 33, 201, 288, 264
-0.99096, 433, 161, 496, 224
-0.991028, 449, 233, 480, 296
-0.991156, 57, 273, 120, 336
-0.991211, 185, 205, 248, 236
-0.991225, 177, 201, 304, 264
-0.99125, 189, 201, 220, 264
-0.991349, 385, 97, 448, 224
-0.99141, 377, 193, 440, 320
-0.991411, 73, 97, 136, 352
-0.991473, 81, 201, 144, 232
-0.991504, 161, 201, 192, 264
-0.991527, 333, 257, 364, 320
-0.991529, 1, 241, 64, 368
-0.991536, 433, 209, 496, 240
-0.991551, 213, 193, 244, 320
-0.991563, 65, 177, 128, 240
-0.991592, 81, 113, 144, 240
-0.991598, 409, 265, 472, 328
-0.991625, 121, 209, 184, 240
-0.991776, 185, 193, 216, 320
-0.991851, 105, 337, 168, 368
-0.991856, 285, 289, 316, 352
-0.991895, 17, 217, 80, 280
-0.991914, 153, 209, 216, 240
-0.991944, 321, 241, 448, 304
-0.991973, 433, 245, 496, 276
-0.992063, 41, 237, 104, 268
-0.992081, 273, 329, 336, 360
-0.992096, 273, 293, 336, 324
-0.992114, 129, 221, 192, 252
-0.99212, 89, 225, 152, 288
-0.992136, 137, 249, 200, 312
-0.992138, 301, 313, 332, 375
-0.992159, 81, 241, 144, 368
-0.99219, 197, 193, 228, 320
-0.992205, 209, 201, 240, 264
-0.99225, 385, 285, 448, 316
-0.992253, 237, 241, 268, 368
-0.992302, 153, 177, 216, 240
-0.992308, 297, 241, 328, 368
-0.992327, 233, 201, 296, 264
-0.992345, 257, 281, 320, 312
-0.992351, 49, 225, 112, 256
-0.992373, 193, 225, 256, 256
-0.992396, 345, 273, 408, 304
-0.992417, 233, 129, 296, 375
-0.992435, 201, 265, 264, 296
-0.992457, 225, 217, 352, 280
-0.992472, 409, 225, 472, 256
-0.992484, 313, 273, 376, 304
-0.992501, 433, 257, 496, 288
-0.992529, 297, 285, 360, 316
-0.992534, 225, 285, 288, 316
-0.992577, 225, 305, 352, 368
-0.992586, 297, 265, 328, 328
-0.992603, 153, 345, 216, 375
-0.992612, 153, 225, 216, 288
-0.992616, 225, 265, 480, 328
-0.992638, 97, 177, 224, 240
-0.992642, 241, 265, 304, 296
-0.99265, 281, 273, 344, 304
-0.992669, 65, 325, 128, 356
-0.992705, 57, 345, 120, 375
-0.992718, 249, 293, 312, 324
-0.992734, 193, 325, 256, 356
-0.992752, 417, 125, 480, 156
-0.992765, 409, 213, 472, 244
-0.992794, 393, 137, 456, 200
-0.992823, 233, 249, 296, 280
-0.992837, 417, 197, 480, 228
-0.99284, 377, 265, 440, 296
-0.992846, 41, 249, 104, 280
-0.992876, 217, 345, 280, 375
-0.992899, 177, 313, 304, 375
-0.992901, 225, 321, 288, 352
-0.992908, 349, 241, 380, 368
-0.992922, 33, 309, 96, 340
-0.992945, 233, 237, 296, 268
-0.992958, 129, 233, 192, 264
-0.99296, 121, 197, 184, 228
-0.99297, 109, 201, 140, 232
-0.992979, 225, 213, 288, 244
-0.992979, 305, 261, 368, 292
-0.99299, 257, 289, 288, 352
-0.992995, 49, 269, 112, 300
-0.993002, 353, 257, 416, 288
-0.993023, 449, 209, 480, 240
-0.99304, 361, 257, 392, 288
-0.993058, 65, 209, 96, 240
-0.99306, 249, 333, 312, 364
-0.993065, 273, 317, 336, 348
-0.993078, 193, 345, 256, 375
-0.993084, 33, 209, 96, 240
-0.993086, 433, 221, 496, 252
-0.993088, 201, 253, 264, 284
-0.993091, 353, 285, 416, 316
-0.993098, 17, 289, 80, 320
-0.993104, 425, 161, 488, 192
-0.993104, 437, 201, 468, 232
-0.993106, 281, 257, 344, 288
-0.993116, 17, 265, 80, 328
-0.99313, 137, 253, 200, 284
-0.993131, 349, 249, 380, 312
-0.993134, 353, 193, 416, 320
-0.993143, 1, 249, 64, 280
-0.99316, 461, 245, 492, 276
-0.993162, 213, 205, 244, 236
-0.993174, 225, 333, 288, 364
-0.993177, 201, 277, 264, 308
-0.993208, 193, 237, 256, 268
-0.99321, 377, 253, 440, 284
-0.993215, 325, 265, 356, 296
-0.993221, 149, 209, 180, 240
-0.993234, 25, 225, 88, 256
-0.993241, 465, 225, 496, 256
-0.993246, 137, 209, 168, 240
-0.993252, 425, 149, 488, 180
-0.993255, 297, 297, 328, 328
-0.993256, 1, 313, 128, 375
-0.993265, 77, 205, 108, 236
-0.993267, 45, 217, 76, 280
-0.993268, 273, 305, 336, 336
-0.993268, 57, 221, 88, 252
-0.993278, 257, 345, 320, 375
-0.993279, 49, 289, 176, 352
-0.993286, 225, 201, 288, 232
-0.993286, 89, 201, 120, 264
-0.993287, 337, 261, 368, 292
-0.993288, 97, 197, 128, 228
-0.993306, 433, 181, 496, 212
-0.993306, 301, 329, 332, 360
-0.993309, 57, 305, 120, 336
-0.993313, 169, 209, 200, 240
-0.993322, 433, 217, 464, 248
-0.993322, 433, 233, 496, 264
-0.993335, 73, 189, 136, 220
-0.993348, 425, 137, 488, 168
-0.993353, 145, 197, 208, 228
-0.993353, 453, 233, 484, 264
-0.993353, 241, 309, 304, 340
-0.993356, 137, 325, 200, 356
-0.993363, 377, 277, 408, 308
-0.993364, 233, 225, 296, 256
-0.993364, 169, 333, 232, 364
-0.993377, 385, 345, 448, 375
-0.99338, 397, 281, 428, 344
-0.993397, 201, 313, 264, 344
-0.993398, 225, 261, 256, 292
-0.993399, 417, 273, 480, 304
-0.9934, 409, 185, 472, 216
-0.993407, 281, 341, 344, 372
-0.993407, 309, 289, 340, 320
-0.993414, 53, 233, 84, 264
-0.993418, 465, 257, 496, 288
-0.993419, 393, 169, 456, 200
-0.993422, 385, 297, 448, 328
-0.993423, 245, 285, 276, 316
-0.993427, 397, 285, 428, 316
-0.993441, 349, 257, 380, 288
-0.993445, 201, 201, 232, 232
-0.993453, 313, 333, 376, 364
-0.993455, 353, 345, 416, 375
-0.993456, 221, 217, 252, 248
-0.993459, 125, 209, 156, 240
-0.993463, 309, 305, 340, 336
-0.993464, 373, 265, 404, 296
-0.993472, 301, 317, 332, 348
-0.993473, 65, 309, 96, 340
-0.993474, 297, 297, 360, 328
-0.993476, 57, 285, 120, 316
-0.993479, 169, 237, 232, 268
-0.993496, 201, 325, 232, 356
-0.993497, 1, 233, 64, 264
-0.993498, 229, 273, 260, 304
-0.993499, 297, 277, 328, 308
-0.993499, 305, 249, 368, 280
-0.993504, 225, 241, 256, 304
-0.993508, 221, 229, 252, 260
-0.993511, 185, 205, 216, 236
-0.993514, 277, 293, 308, 324
-0.99352, 185, 193, 248, 224
-0.993521, 465, 213, 496, 244
-0.993524, 337, 137, 464, 200
-0.993524, 453, 221, 484, 252
-0.993527, 289, 209, 352, 240
-0.993531, 393, 157, 456, 188
-0.993536, 321, 277, 352, 308
-0.993546, 97, 213, 160, 244
-0.993549, 45, 293, 76, 324
-0.993551, 133, 337, 164, 368
-0.993551, 53, 209, 84, 240
-0.993559, 441, 233, 472, 264
-0.993559, 97, 237, 160, 268
-0.99356, 245, 269, 276, 300
-0.993563, 85, 193, 116, 224
-0.993565, 453, 193, 484, 224
-0.993565, 385, 141, 448, 172
-0.993566, 441, 189, 472, 220
-0.993573, 385, 309, 448, 340
-0.993574, 217, 345, 248, 375
-0.993574, 397, 273, 428, 304
-0.993581, 353, 297, 416, 328
-0.993588, 249, 313, 312, 375
-0.993589, 429, 129, 460, 160
-0.993591, 41, 241, 72, 272
-0.993596, 241, 245, 272, 276
-0.993602, 133, 221, 164, 252
-0.993603, 233, 317, 264, 348
-0.993605, 69, 325, 100, 356
-0.99361, 297, 317, 360, 348
-0.993611, 149, 221, 180, 252
-0.993613, 265, 293, 296, 324
-0.993619, 385, 333, 448, 364
-0.993619, 309, 277, 340, 308
-0.993626, 393, 197, 456, 228
-0.993627, 121, 333, 152, 364
-0.993628, 369, 313, 496, 375
-0.993629, 305, 261, 336, 292
-0.99363, 49, 193, 112, 224
-0.993638, 93, 209, 124, 240
-0.993638, 169, 221, 232, 252
-0.993641, 1, 169, 128, 232
-0.993641, 237, 345, 268, 375
-0.993643, 409, 237, 472, 268
-0.993644, 245, 257, 276, 288
-0.993645, 113, 249, 176, 280
-0.993648, 73, 241, 136, 272
-0.993651, 277, 329, 308, 360
-0.993653, 305, 345, 336, 375
-0.993662, 225, 249, 256, 280
-0.993662, 241, 233, 272, 264
-0.993666, 385, 321, 448, 352
-0.993669, 353, 313, 416, 344
-0.993674, 49, 305, 80, 336
-0.993674, 25, 333, 88, 364
-0.993676, 333, 249, 364, 280
-0.993684, 425, 193, 456, 224
-0.993685, 257, 281, 288, 312
-0.993692, 449, 245, 480, 276
-0.993692, 389, 261, 420, 292
-0.993698, 381, 249, 412, 280
-0.993699, 249, 329, 280, 360
-0.993701, 201, 345, 232, 375
-0.993705, 33, 225, 288, 288
-0.993707, 69, 341, 100, 372
-0.993709, 381, 345, 412, 375
-0.993715, 125, 193, 156, 224
-0.993715, 217, 333, 248, 364
-0.993716, 357, 245, 388, 276
-0.993716, 109, 337, 140, 368
-0.993717, 441, 177, 472, 208
-0.993723, 261, 341, 292, 372
-0.993724, 53, 317, 84, 348
-0.993724, 37, 281, 68, 312
-0.993726, 433, 269, 464, 300
-0.993727, 41, 217, 72, 248
-0.993731, 293, 345, 324, 375
-0.993732, 133, 233, 164, 264
-0.993734, 321, 337, 352, 368
-0.993734, 89, 257, 152, 288
-0.993734, 9, 261, 72, 292
-0.993734, 237, 205, 268, 236
-0.993736, 425, 181, 456, 212
-0.993736, 129, 341, 192, 372
-0.993739, 289, 333, 320, 364
-0.993741, 277, 281, 308, 312
-0.993741, 417, 153, 448, 184
-0.993744, 161, 225, 192, 256
-0.993746, 181, 193, 212, 224
-0.993746, 289, 313, 320, 344
-0.993746, 9, 277, 72, 308
-0.993747, 165, 197, 196, 228
-0.993749, 185, 341, 216, 372
-0.993752, 437, 161, 468, 192
-0.993756, 145, 249, 176, 280
-0.993759, 157, 237, 188, 268
-0.99376, 353, 329, 416, 360
-0.993763, 421, 209, 452, 240
-0.993764, 133, 245, 164, 276
-0.993765, 233, 329, 264, 360
-0.993766, 381, 289, 412, 320
-0.99377, 449, 269, 480, 300
-0.99377, 217, 309, 248, 340
-0.993773, 157, 257, 188, 288
-0.993774, 413, 141, 444, 172
-0.993779, 321, 289, 352, 320
-0.993784, 73, 193, 104, 224
-0.993784, 65, 297, 96, 328
-0.993786, 113, 189, 144, 220
-0.993786, 397, 301, 428, 332
-0.99379, 93, 261, 124, 292
-0.993791, 29, 249, 60, 280
-0.993792, 61, 197, 92, 228
-0.993792, 421, 169, 452, 200
-0.993793, 9, 209, 72, 240
-0.993793, 453, 281, 484, 312
-0.993793, 81, 249, 208, 312
-0.993796, 321, 317, 352, 348
-0.993796, 137, 197, 168, 228
-0.993796, 469, 121, 500, 152
-0.993801, 25, 321, 88, 352
-0.993834, 369, 241, 432, 368
-0.993844, 313, 205, 376, 236
-0.993844, 25, 345, 88, 375
-0.993858, 97, 325, 160, 356
-0.993859, 425, 145, 456, 272
-0.993859, 385, 129, 448, 160
-0.993861, 25, 197, 88, 228
-0.993883, 41, 313, 104, 375
-0.993889, 49, 297, 80, 360
-0.99389, 377, 117, 440, 148
-0.993901, 161, 249, 224, 280
-0.993919, 105, 225, 168, 256
-0.993923, 329, 245, 392, 276
-0.993927, 305, 345, 368, 375
-0.99393, 289, 89, 352, 120
-0.993935, 113, 269, 176, 300
-0.993962, 9, 129, 72, 375
-0.994016, 157, 225, 188, 288
-0.994134, 309, 241, 340, 368
-0.994141, 329, 225, 392, 288
-0.994165, 1, 201, 500, 264
-0.994319, 257, 81, 384, 208
-0.994397, 321, 105, 448, 168
-0.994412, 461, 177, 492, 304
-0.994448, 209, 177, 336, 240
-0.994508, 49, 177, 176, 240
-0.994575, 297, 313, 360, 375
-0.99459, 385, 305, 448, 368
-0.994608, 249, 241, 280, 368
-0.994633, 329, 1, 392, 375
-0.994643, 233, 265, 264, 328
-0.994664, 193, 145, 320, 272
-0.994676, 33, 249, 288, 312
-0.994722, 369, 97, 432, 352
-0.994723, 9, 193, 72, 256
-0.994748, 185, 177, 248, 240
-0.994797, 65, 233, 128, 296
-0.994865, 305, 225, 368, 288
-0.994902, 1, 265, 500, 328
-0.994935, 129, 313, 256, 375
-0.995019, 65, 241, 96, 368
-0.995042, 277, 241, 308, 368
-0.995106, 245, 193, 276, 320
-0.995158, 193, 241, 448, 304
-0.99519, 433, 1, 496, 375
-0.995193, 241, 89, 368, 152
-0.995232, 273, 1, 336, 375
-0.995268, 49, 209, 176, 240
-0.995271, 441, 113, 472, 240
-0.995346, 305, 273, 432, 304
-0.995393, 225, 289, 480, 352
-0.995394, 89, 177, 152, 240
-0.995413, 281, 129, 344, 375
-0.995488, 145, 205, 272, 236
-0.995493, 65, 49, 320, 176
-0.995642, 241, 233, 272, 296
-0.995656, 289, 261, 416, 292
-0.995663, 269, 289, 300, 352
-0.995694, 105, 313, 168, 375
-0.995753, 1, 97, 256, 224
-0.995764, 61, 129, 92, 256
-0.995784, 157, 145, 188, 272
-0.995792, 145, 177, 272, 240
-0.995816, 1, 313, 500, 375
-0.995843, 113, 249, 176, 312
-0.995861, 137, 313, 200, 375
-0.995868, 273, 241, 400, 304
-0.995885, 145, 1, 208, 375
-0.995897, 309, 265, 340, 328
-0.995901, 209, 201, 272, 264
-0.995975, 377, 113, 440, 176
-0.995994, 49, 341, 176, 372
-0.996019, 89, 113, 120, 240
-0.996021, 433, 121, 464, 184
-0.996035, 225, 1, 288, 375
-0.99608, 329, 97, 392, 352
-0.996131, 369, 1, 432, 375
-0.996152, 1, 289, 500, 352
-0.996158, 201, 313, 232, 375
-0.996189, 397, 241, 428, 368
-0.996235, 69, 313, 100, 375
-0.996239, 33, 249, 64, 312
-0.996255, 417, 65, 480, 192
-0.996273, 225, 269, 352, 300
-0.996281, 193, 129, 256, 256
-0.996322, 313, 201, 376, 264
-0.996331, 333, 193, 364, 320
-0.996353, 313, 289, 328, 352
-0.99636, 121, 1, 184, 375
-0.996389, 1, 289, 128, 352
-0.996402, 233, 313, 264, 375
-0.996419, 49, 241, 80, 304
-0.996425, 201, 1, 264, 375
-0.996429, 225, 257, 352, 288
-0.996441, 129, 209, 384, 272
-0.996442, 437, 225, 468, 352
-0.996452, 437, 225, 468, 288
-0.99646, 33, 225, 64, 352
-0.99647, 149, 241, 180, 368
-0.99647, 161, 65, 416, 192
-0.996514, 177, 97, 304, 224
-0.996535, 65, 273, 320, 336
-0.996537, 105, 241, 168, 368
-0.996539, 433, 281, 496, 344
-0.996562, 417, 145, 448, 208
-0.996593, 25, 169, 88, 232
-0.99662, 49, 129, 176, 192
-0.996625, 353, 305, 416, 368
-0.996627, 397, 257, 428, 320
-0.996638, 393, 281, 408, 344
-0.996652, 323, 265, 338, 328
-0.996684, 277, 265, 308, 328
-0.996686, 1, 225, 500, 288
-0.996699, 305, 1, 368, 375
-0.996703, 161, 241, 224, 368
-0.996708, 449, 201, 464, 264
-0.996724, 193, 105, 320, 168
-0.996749, 265, 265, 296, 328
-0.996786, 443, 193, 458, 256
-0.996816, 257, 201, 500, 264
-0.996823, 129, 225, 256, 256
-0.996829, 97, 273, 224, 336
-0.996832, 475, 249, 490, 312
-0.996838, 137, 185, 168, 248
-0.996841, 261, 241, 292, 368
-0.996848, 133, 241, 164, 368
-0.996852, 313, 289, 344, 352
-0.996863, 453, 113, 484, 240
-0.996865, 369, 225, 432, 288
-0.996875, 145, 237, 272, 268
-0.99691, 61, 209, 76, 272
-0.996928, 467, 225, 482, 288
-0.99697, 177, 201, 192, 264
-0.996995, 141, 241, 172, 304
-0.997043, 369, 245, 496, 276
-0.997082, 455, 201, 470, 264
-0.997086, 89, 249, 152, 312
-0.997124, 33, 237, 160, 268
-0.997125, 49, 221, 176, 252
-0.997126, 229, 201, 244, 264
-0.997128, 425, 169, 456, 232
-0.997166, 225, 281, 352, 312
-0.997191, 151, 201, 166, 264
-0.997193, 125, 145, 156, 272
-0.99722, 161, 273, 288, 304
-0.997233, 409, 1, 472, 375
-0.99724, 225, 313, 480, 375
-0.997253, 177, 1, 240, 375
-0.997263, 139, 209, 154, 272
-0.997263, 485, 217, 500, 280
-0.997266, 373, 249, 404, 312
-0.99728, 165, 201, 180, 264
-0.997301, 41, 1, 104, 375
-0.997324, 369, 113, 496, 176
-0.997334, 301, 289, 316, 352
-0.997341, 183, 201, 198, 264
-0.997343, 383, 265, 398, 328
-0.997358, 97, 113, 224, 176
-0.997369, 245, 273, 260, 336
-0.997376, 305, 285, 432, 316
-0.997379, 97, 341, 224, 372
-0.997393, 145, 145, 176, 272
-0.997417, 305, 129, 368, 375
-0.997419, 49, 197, 176, 228
-0.997421, 97, 1, 160, 375
-0.997427, 75, 201, 90, 264
-0.997435, 109, 113, 140, 240
-0.997441, 225, 97, 480, 160
-0.997448, 477, 225, 492, 288
-0.99745, 97, 97, 224, 224
-0.997488, 369, 285, 496, 316
-0.997493, 369, 273, 496, 304
-0.997497, 369, 261, 496, 292
-0.997509, 177, 145, 208, 272
-0.99752, 171, 209, 186, 272
-0.997521, 33, 313, 288, 375
-0.997531, 249, 1, 312, 375
-0.997531, 481, 257, 496, 320
-0.99754, 193, 201, 208, 264
-0.997548, 249, 257, 280, 320
-0.997549, 335, 257, 350, 320
-0.997552, 373, 249, 388, 312
-0.997553, 123, 201, 138, 264
-0.997557, 67, 201, 82, 264
-0.997557, 145, 209, 160, 272
-0.997574, 289, 201, 352, 264
-0.997577, 289, 313, 320, 375
-0.997582, 125, 177, 156, 240
-0.997598, 73, 129, 104, 256
-0.997606, 49, 329, 176, 360
-0.997623, 437, 169, 468, 232
-0.997639, 129, 201, 144, 264
-0.997664, 235, 225, 250, 288
-0.997676, 55, 217, 70, 280
-0.997677, 337, 233, 368, 296
-0.997691, 329, 257, 344, 320
-0.997703, 421, 209, 452, 336
-0.99771, 97, 209, 224, 240
-0.997731, 459, 241, 474, 304
-0.99774, 83, 201, 98, 264
-0.997761, 61, 297, 76, 360
-0.99777, 115, 193, 130, 256
-0.997783, 251, 281, 266, 344
-0.997786, 145, 253, 272, 284
-0.997786, 193, 113, 224, 240
-0.997786, 363, 249, 378, 312
-0.997793, 461, 201, 476, 264
-0.997809, 257, 281, 272, 344
-0.99781, 223, 201, 238, 264
-0.997816, 109, 193, 124, 256
-0.997838, 345, 257, 360, 320
-0.997846, 403, 281, 418, 344
-0.997852, 437, 185, 452, 248
-0.997859, 209, 129, 240, 256
-0.997861, 93, 201, 108, 264
-0.997862, 65, 1, 128, 375
-0.997864, 345, 193, 376, 320
-0.997875, 159, 201, 174, 264
-0.99788, 217, 201, 232, 264
-0.997905, 225, 293, 352, 324
-0.997914, 305, 325, 432, 356
-0.997926, 217, 177, 280, 240
-0.997927, 145, 113, 272, 176
-0.99796, 355, 257, 370, 320
-0.997963, 369, 233, 496, 264
-0.997967, 385, 241, 416, 304
-0.997972, 385, 209, 416, 336
-0.997975, 449, 177, 480, 240
-0.99798, 47, 241, 62, 304
-0.997987, 209, 213, 336, 244
-0.997987, 469, 249, 484, 312
-0.997998, 225, 177, 480, 240
-0.998018, 209, 329, 336, 360
-0.998028, 369, 205, 496, 236
-0.998028, 273, 289, 288, 352
-0.998033, 311, 265, 326, 328
-0.998041, 81, 233, 208, 264
-0.998047, 99, 201, 114, 264
-0.998048, 73, 305, 88, 368
-0.998064, 199, 193, 214, 256
-0.998065, 217, 113, 280, 240
-0.998077, 251, 257, 266, 320
-0.998089, 145, 345, 272, 375
-0.998091, 209, 201, 224, 264
-0.998092, 305, 341, 432, 372
-0.998098, 81, 241, 112, 368
-0.998103, 257, 89, 320, 152
-0.998113, 369, 217, 496, 248
-0.998122, 265, 289, 280, 352
-0.998122, 239, 257, 254, 320
-0.998128, 453, 233, 468, 296
-0.99815, 33, 177, 288, 240
-0.998151, 97, 193, 224, 224
-0.998165, 279, 289, 294, 352
-0.998168, 209, 225, 336, 256
-0.99818, 413, 129, 444, 256
-0.998181, 33, 269, 160, 300
-0.998188, 451, 205, 466, 236
-0.998196, 161, 249, 224, 312
-0.998203, 305, 313, 432, 344
-0.998209, 469, 201, 484, 264
-0.998218, 221, 249, 252, 264
-0.998218, 241, 355, 272, 370
-0.998218, 381, 261, 412, 276
-0.998219, 289, 291, 320, 306
-0.998219, 385, 269, 416, 284
-0.998219, 41, 295, 72, 310
-0.99822, 241, 251, 272, 266
-0.99822, 241, 241, 272, 256
-0.998221, 185, 203, 216, 218
-0.998221, 329, 205, 360, 220
-0.998221, 237, 349, 268, 364
-0.998223, 45, 221, 76, 236
-0.998223, 177, 233, 208, 248
-0.998223, 181, 341, 212, 356
-0.998223, 89, 195, 120, 210
-0.998224, 305, 269, 336, 284
-0.998224, 153, 349, 184, 364
-0.998226, 201, 329, 232, 344
-0.998226, 197, 343, 228, 358
-0.998226, 69, 325, 100, 340
-0.998226, 237, 221, 268, 236
-0.998226, 185, 349, 216, 364
-0.998227, 313, 211, 344, 226
-0.998227, 129, 341, 160, 356
-0.998227, 49, 307, 80, 322
-0.998227, 401, 361, 432, 375
-0.998228, 221, 257, 252, 272
-0.998228, 133, 205, 164, 220
-0.998229, 429, 281, 460, 296
-0.998229, 321, 343, 352, 358
-0.99823, 425, 131, 456, 146
-0.998233, 249, 279, 280, 294
-0.998234, 217, 345, 248, 360
-0.998235, 301, 287, 332, 302
-0.998235, 233, 327, 264, 342
-0.998235, 397, 293, 428, 308
-0.998236, 233, 321, 264, 336
-0.998237, 45, 301, 76, 316
-0.998237, 201, 359, 232, 374
-0.998238, 285, 297, 316, 312
-0.998238, 201, 351, 232, 366
-0.998239, 475, 201, 490, 264
-0.99824, 221, 235, 252, 250
-0.998241, 309, 299, 340, 314
-0.998241, 433, 225, 464, 240
-0.998241, 261, 349, 292, 364
-0.998242, 45, 215, 76, 230
-0.998243, 173, 347, 204, 362
-0.998243, 301, 339, 332, 354
-0.998244, 37, 161, 68, 288
-0.998245, 137, 249, 168, 264
-0.998245, 277, 291, 308, 306
-0.998245, 317, 289, 348, 304
-0.998246, 201, 201, 232, 216
-0.998246, 393, 279, 424, 294
-0.998248, 161, 209, 192, 224
-0.998249, 149, 225, 180, 240
-0.99825, 65, 315, 96, 330
-0.998251, 241, 257, 272, 272
-0.998252, 365, 265, 396, 280
-0.998252, 453, 199, 484, 214
-0.998253, 305, 311, 336, 326
-0.998253, 313, 293, 328, 324
-0.998254, 301, 349, 332, 364
-0.998255, 49, 245, 80, 260
-0.998255, 257, 291, 288, 306
-0.998256, 433, 199, 464, 214
-0.998256, 465, 221, 496, 236
-0.998257, 453, 209, 484, 224
-0.998258, 441, 235, 472, 250
-0.998259, 305, 317, 336, 332
-0.998259, 241, 267, 272, 282
-0.99826, 221, 223, 252, 238
-0.998261, 249, 341, 280, 356
-0.998261, 173, 209, 204, 224
-0.998261, 225, 269, 256, 284
-0.998263, 53, 239, 84, 254
-0.998263, 197, 207, 228, 222
-0.998263, 201, 323, 232, 338
-0.998265, 241, 285, 272, 300
-0.998265, 69, 345, 100, 360
-0.998266, 229, 277, 260, 292
-0.998266, 321, 277, 352, 292
-0.998267, 369, 271, 400, 286
-0.998268, 465, 227, 496, 242
-0.998268, 225, 263, 256, 278
-0.998271, 133, 221, 164, 236
-0.998272, 93, 201, 124, 216
-0.998272, 325, 211, 356, 226
-0.998272, 321, 283, 352, 298
-0.998272, 53, 227, 84, 242
-0.998275, 381, 285, 412, 300
-0.998277, 445, 201, 460, 232
-0.998277, 305, 277, 336, 292
-0.998278, 449, 241, 480, 256
-0.998282, 301, 305, 332, 320
-0.998282, 301, 333, 332, 348
-0.998283, 469, 261, 500, 276
-0.998284, 441, 191, 472, 206
-0.998285, 245, 273, 276, 288
-0.998285, 217, 213, 248, 228
-0.998285, 53, 233, 84, 248
-0.998286, 57, 221, 88, 236
-0.998287, 453, 227, 484, 242
-0.998287, 149, 211, 180, 226
-0.998288, 169, 177, 200, 240
-0.998289, 429, 213, 460, 228
-0.998289, 325, 265, 356, 280
-0.998291, 301, 293, 332, 308
-0.998291, 449, 221, 480, 236
-0.998291, 449, 177, 464, 240
-0.998293, 325, 271, 356, 286
-0.998297, 185, 209, 216, 224
-0.998298, 377, 279, 408, 294
-0.998298, 461, 253, 492, 268
-0.998299, 65, 309, 96, 324
-0.9983, 33, 97, 160, 224
-0.998302, 117, 207, 148, 222
-0.998303, 221, 229, 252, 244
-0.998307, 301, 327, 332, 342
-0.998308, 121, 335, 152, 350
-0.998308, 387, 241, 402, 304
-0.998313, 397, 287, 428, 302
-0.998314, 89, 209, 120, 224
-0.998314, 429, 219, 460, 234
-0.998315, 437, 205, 468, 220
-0.998316, 307, 297, 322, 360
-0.998318, 297, 299, 328, 314
-0.998322, 209, 207, 240, 222
-0.998324, 133, 211, 164, 226
-0.998328, 457, 247, 488, 262
-0.998329, 257, 193, 288, 320
-0.998333, 111, 197, 126, 228
-0.998343, 245, 241, 260, 304
-0.998343, 337, 263, 368, 278
-0.99835, 469, 241, 500, 256
-0.998358, 449, 97, 480, 352
-0.998363, 61, 213, 76, 244
-0.998364, 49, 317, 176, 348
-0.998369, 445, 215, 476, 230
-0.998376, 461, 235, 492, 250
-0.998378, 77, 205, 108, 220
-0.998378, 61, 211, 92, 226
-0.99839, 429, 145, 444, 208
-0.998391, 325, 269, 340, 300
-0.998396, 357, 257, 388, 272
-0.998404, 353, 189, 480, 220
-0.998405, 309, 193, 340, 320
-0.998406, 57, 129, 120, 192
-0.99841, 393, 281, 408, 312
-0.99841, 305, 297, 432, 328
-0.998416, 33, 249, 160, 280
-0.998421, 1, 1, 64, 375
-0.998429, 287, 289, 302, 352
-0.998438, 161, 249, 192, 312
-0.99845, 105, 203, 136, 218
-0.998457, 409, 233, 472, 296
-0.998462, 293, 289, 308, 352
-0.998471, 435, 161, 450, 224
-0.998477, 229, 209, 244, 240
-0.998492, 209, 201, 336, 232
-0.998493, 41, 273, 72, 336
-0.9985, 289, 217, 416, 280
-0.998501, 67, 209, 82, 240
-0.998505, 467, 229, 482, 260
-0.998516, 257, 129, 500, 192
-0.99852, 65, 185, 96, 248
-0.998528, 369, 345, 496, 375
-0.998532, 173, 233, 188, 296
-0.998535, 409, 97, 472, 160
-0.998536, 149, 241, 164, 304
-0.998538, 473, 249, 488, 280
-0.99854, 479, 257, 494, 288
-0.998544, 149, 209, 164, 240
-0.998554, 447, 225, 462, 288
-0.998566, 67, 305, 82, 368
-0.998568, 385, 269, 400, 300
-0.998569, 313, 313, 328, 375
-0.998572, 69, 233, 100, 296
-0.998572, 141, 185, 156, 248
-0.998573, 257, 345, 384, 375
-0.99858, 85, 201, 100, 232
-0.99858, 161, 209, 176, 240
-0.998583, 337, 259, 400, 274
-0.998586, 313, 305, 328, 336
-0.998596, 271, 265, 286, 328
-0.998599, 373, 253, 388, 284
-0.998601, 81, 205, 144, 220
-0.998602, 57, 209, 120, 224
-0.998623, 321, 145, 448, 272
-0.998625, 185, 207, 248, 222
-0.998626, 155, 209, 170, 240
-0.998627, 425, 213, 488, 228
-0.998631, 41, 249, 56, 312
-0.998636, 167, 209, 182, 240
-0.998647, 91, 205, 106, 236
-0.998648, 329, 265, 392, 280
-0.998649, 379, 261, 394, 292
-0.998652, 81, 245, 208, 276
-0.998654, 331, 265, 346, 296
-0.998656, 385, 287, 448, 302
-0.998662, 119, 201, 134, 232
-0.998664, 209, 241, 336, 272
-0.998665, 41, 243, 104, 258
-0.998672, 457, 213, 472, 244
-0.998673, 485, 225, 500, 256
-0.998673, 319, 285, 334, 316
-0.998676, 273, 297, 336, 312
-0.998678, 433, 219, 496, 234
-0.998679, 193, 231, 256, 246
-0.998681, 121, 209, 184, 224
-0.998682, 401, 219, 464, 234
-0.998683, 241, 277, 304, 292
-0.998683, 129, 225, 192, 240
-0.998684, 105, 337, 168, 352
-0.998688, 281, 277, 344, 292
-0.998688, 161, 241, 192, 368
-0.998691, 145, 211, 208, 226
-0.998692, 273, 289, 336, 304
-0.998693, 425, 243, 488, 258
-0.998693, 273, 331, 336, 346
-0.998694, 193, 225, 256, 240
-0.998694, 213, 177, 244, 240
-0.998695, 449, 265, 464, 328
-0.998696, 345, 275, 408, 290
-0.998697, 209, 283, 272, 298
-0.998699, 353, 281, 416, 296
-0.9987, 433, 255, 496, 270
-0.9987, 263, 265, 278, 328
-0.9987, 137, 209, 152, 240
-0.9987, 193, 359, 256, 374
-0.998701, 49, 215, 112, 230
-0.998701, 41, 237, 104, 252
-0.998701, 105, 203, 168, 218
-0.998705, 57, 347, 120, 362
-0.998705, 433, 225, 496, 240
-0.998705, 377, 273, 440, 288
-0.998707, 223, 205, 238, 236
-0.998707, 385, 281, 448, 296
-0.998708, 357, 193, 388, 320
-0.998708, 249, 291, 312, 306
-0.998708, 49, 227, 112, 242
-0.998708, 209, 325, 272, 340
-0.998709, 241, 271, 304, 286
-0.99871, 1, 209, 128, 240
-0.998711, 49, 221, 112, 236
-0.998712, 305, 265, 320, 328
-0.998713, 105, 359, 168, 374
-0.998713, 155, 249, 170, 312
-0.998714, 233, 265, 296, 280
-0.998715, 435, 121, 450, 184
-0.998715, 433, 195, 496, 210
-0.998716, 105, 343, 168, 358
-0.998716, 281, 271, 344, 286
-0.998717, 225, 343, 288, 358
-0.998717, 401, 203, 464, 218
-0.998719, 145, 347, 208, 362
-0.998719, 301, 297, 316, 328
-0.998719, 217, 357, 280, 372
-0.99872, 313, 281, 376, 296
-0.998721, 153, 355, 216, 370
-0.998722, 201, 263, 264, 278
-0.998722, 65, 353, 128, 368
-0.998722, 177, 285, 304, 316
-0.998723, 89, 211, 152, 226
-0.998724, 393, 249, 408, 312
-0.998724, 129, 231, 192, 246
-0.998724, 241, 313, 256, 375
-0.998725, 249, 265, 264, 296
-0.998725, 201, 269, 264, 284
-0.998726, 193, 349, 256, 364
-0.998727, 425, 207, 488, 222
-0.998727, 313, 271, 376, 286
-0.998727, 33, 249, 96, 264
-0.998727, 265, 283, 328, 298
-0.998728, 65, 333, 128, 348
-0.998728, 447, 217, 462, 248
-0.998729, 433, 231, 496, 246
-0.99873, 201, 277, 264, 292
-0.99873, 81, 199, 144, 214
-0.99873, 17, 215, 80, 230
-0.99873, 425, 249, 488, 264
-0.998731, 193, 217, 256, 232
-0.998731, 313, 287, 376, 302
-0.998731, 57, 203, 120, 218
-0.998731, 377, 267, 440, 282
-0.998732, 209, 319, 272, 334
-0.998732, 225, 213, 288, 228
-0.998732, 233, 259, 296, 274
-0.998733, 257, 353, 320, 368
-0.998733, 473, 237, 488, 268
-0.998733, 385, 293, 448, 308
-0.998734, 297, 293, 360, 308
-0.998734, 273, 337, 336, 352
-0.998734, 249, 297, 312, 312
-0.998734, 169, 343, 232, 358
-0.998734, 49, 269, 112, 284
-0.998736, 369, 261, 432, 276
-0.998737, 209, 331, 272, 346
-0.998737, 65, 361, 128, 375
-0.998737, 417, 237, 480, 252
-0.998737, 385, 359, 448, 374
-0.998737, 105, 349, 168, 364
-0.998738, 409, 229, 472, 244
-0.998738, 137, 243, 200, 258
-0.998738, 425, 163, 488, 178
-0.998739, 137, 339, 200, 354
-0.998739, 193, 237, 256, 252
-0.998739, 433, 261, 496, 276
-0.998739, 175, 209, 190, 240
-0.99874, 433, 189, 496, 204
-0.99874, 121, 219, 184, 234
-0.99874, 225, 219, 288, 234
-0.99874, 25, 303, 88, 318
-0.99874, 9, 239, 72, 254
-0.99874, 169, 231, 232, 246
-0.99874, 57, 341, 120, 356
-0.998741, 185, 325, 248, 340
-0.998741, 243, 273, 258, 304
-0.998741, 153, 205, 216, 220
-0.998741, 417, 135, 480, 150
-0.998741, 353, 177, 480, 208
-0.998742, 33, 309, 96, 324
-0.998742, 273, 303, 336, 318
-0.998742, 381, 241, 396, 304
-0.998743, 291, 265, 306, 328
-0.998743, 53, 281, 68, 344
-0.998744, 461, 225, 476, 256
-0.998745, 193, 257, 256, 272
-0.998745, 225, 289, 288, 304
-0.998745, 273, 325, 336, 340
-0.998746, 233, 253, 296, 268
-0.998746, 57, 313, 120, 328
-0.998746, 233, 243, 296, 258
-0.998746, 265, 343, 328, 358
-0.998746, 273, 309, 336, 324
-0.998746, 401, 197, 464, 212
-0.998747, 305, 263, 368, 278
-0.998748, 425, 155, 488, 170
-0.998748, 241, 283, 304, 298
-0.998748, 225, 351, 288, 366
-0.998748, 185, 337, 248, 352
-0.998749, 225, 337, 288, 352
-0.998749, 1, 249, 64, 264
-0.99875, 129, 255, 192, 270
-0.99875, 433, 273, 496, 288
-0.998751, 433, 283, 496, 298
-0.998751, 417, 129, 480, 144
-0.998751, 233, 225, 296, 240
-0.998752, 17, 221, 80, 236
-0.998753, 249, 331, 312, 346
-0.998753, 57, 325, 120, 340
-0.998753, 233, 235, 296, 250
-0.998753, 281, 263, 344, 278
-0.998755, 143, 209, 158, 240
-0.998757, 171, 185, 186, 248
-0.998758, 105, 201, 120, 232
-0.998761, 467, 245, 482, 276
-0.998764, 369, 329, 496, 360
-0.998766, 57, 129, 88, 375
-0.998775, 441, 265, 472, 328
-0.998781, 433, 129, 464, 375
-0.998782, 439, 201, 454, 232
-0.998789, 97, 329, 224, 360
-0.998803, 71, 281, 86, 344
-0.998805, 125, 205, 140, 236
-0.998813, 359, 257, 374, 288
-0.998815, 337, 261, 352, 292
-0.998819, 409, 121, 440, 184
-0.99882, 49, 241, 64, 272
-0.998824, 455, 233, 470, 264
-0.998824, 49, 297, 176, 328
-0.998825, 443, 161, 458, 224
-0.998826, 479, 217, 494, 248
-0.99883, 233, 221, 248, 252
-0.99883, 281, 265, 296, 328
-0.99884, 127, 177, 142, 240
-0.99884, 135, 185, 150, 248
-0.998845, 1, 333, 128, 364
-0.998845, 217, 113, 280, 176
-0.998846, 327, 209, 342, 240
-0.998849, 73, 225, 88, 288
-0.998849, 479, 233, 494, 264
-0.998853, 257, 93, 384, 124
-0.998865, 249, 281, 264, 312
-0.998868, 351, 233, 366, 296
-0.998871, 1, 189, 128, 220
-0.998875, 73, 205, 88, 236
-0.998876, 143, 241, 158, 304
-0.998877, 353, 257, 368, 288
-0.998884, 469, 193, 500, 256
-0.998884, 169, 97, 200, 352
-0.998887, 441, 213, 456, 244
-0.998887, 33, 281, 160, 312
-0.998888, 403, 305, 418, 368
-0.998888, 161, 49, 288, 176
-0.998888, 403, 285, 418, 316
-0.998896, 343, 261, 358, 292
-0.998901, 165, 225, 180, 288
-0.998908, 317, 265, 332, 328
-0.99891, 399, 257, 414, 320
-0.998912, 153, 97, 184, 352
-0.998913, 409, 281, 424, 344
-0.998918, 437, 145, 468, 208
-0.998922, 99, 177, 114, 240
-0.998923, 73, 309, 88, 340
-0.998924, 129, 185, 384, 248
-0.998924, 329, 233, 344, 296
-0.998925, 79, 205, 94, 236
-0.99893, 181, 209, 196, 240
-0.998933, 55, 233, 70, 264
-0.99894, 373, 193, 404, 320
-0.998942, 353, 161, 480, 192
-0.998944, 167, 249, 182, 312
-0.998945, 245, 253, 260, 284
-0.998945, 237, 261, 252, 292
-0.998951, 369, 301, 496, 332
-0.998953, 59, 297, 74, 328
-0.998954, 207, 201, 222, 232
-0.998958, 1, 225, 128, 256
-0.998959, 345, 233, 360, 296
-0.998961, 261, 289, 276, 320
-0.998962, 367, 253, 382, 284
-0.998965, 81, 257, 208, 288
-0.998966, 61, 185, 76, 248
-0.998968, 17, 313, 80, 375
-0.99898, 211, 313, 226, 375
-0.99898, 131, 209, 146, 240
-0.998983, 217, 205, 232, 236
-0.999007, 319, 289, 334, 352
-0.999008, 85, 177, 116, 240
-0.99901, 461, 241, 476, 272
-0.999016, 187, 209, 202, 240
-0.999018, 225, 313, 352, 344
-0.999021, 473, 225, 488, 256
-0.999028, 187, 177, 202, 240
-0.999028, 335, 233, 350, 296
-0.999028, 443, 257, 458, 320
-0.999031, 485, 261, 500, 292
-0.999032, 109, 97, 140, 352
-0.999032, 195, 205, 210, 236
-0.999034, 189, 177, 220, 240
-0.999038, 291, 293, 306, 324
-0.999039, 99, 205, 114, 236
-0.99904, 331, 201, 346, 264
-0.999041, 337, 149, 464, 180
-0.999041, 137, 97, 168, 352
-0.999046, 1, 317, 128, 348
-0.999046, 203, 313, 218, 375
-0.999048, 161, 81, 288, 144
-0.999049, 193, 177, 208, 240
-0.999051, 129, 297, 384, 360
-0.999052, 461, 129, 492, 375
-0.999053, 317, 345, 332, 375
-0.999056, 161, 249, 176, 312
-0.999058, 59, 273, 74, 336
-0.999058, 221, 129, 252, 375
-0.999061, 255, 285, 270, 316
-0.999062, 243, 217, 258, 280
-0.999064, 321, 193, 352, 320
-0.999067, 307, 293, 322, 324
-0.999068, 245, 129, 276, 375
-0.999069, 369, 317, 496, 348
-0.999074, 67, 225, 82, 288
-0.99908, 431, 273, 446, 336
-0.999081, 301, 333, 316, 364
-0.999089, 219, 177, 234, 240
-0.999092, 159, 225, 174, 288
-0.999093, 201, 201, 216, 232
-0.999094, 479, 245, 494, 276
-0.999097, 145, 341, 160, 372
-0.999104, 73, 329, 88, 360
-0.999104, 227, 177, 242, 240
-0.999104, 315, 333, 330, 364
-0.999106, 145, 333, 272, 364
-0.999111, 485, 245, 500, 276
-0.999113, 81, 97, 112, 352
-0.999113, 313, 273, 328, 304
-0.999115, 445, 185, 460, 216
-0.999119, 55, 241, 70, 304
-0.99912, 49, 145, 80, 272
-0.999128, 125, 97, 156, 352
-0.999128, 299, 265, 314, 328
-0.999128, 267, 293, 282, 324
-0.999133, 459, 197, 474, 228
-0.999133, 273, 293, 288, 324
-0.999135, 99, 193, 114, 224
-0.999136, 257, 333, 384, 364
-0.999139, 201, 97, 232, 352
-0.99914, 173, 229, 188, 260
-0.99914, 159, 177, 174, 240
-0.999145, 333, 205, 348, 236
-0.999146, 447, 273, 462, 304
-0.999148, 301, 313, 316, 375
-0.999149, 337, 133, 464, 164
-0.99915, 289, 81, 416, 144
-0.999156, 449, 229, 464, 260
-0.999157, 401, 273, 416, 304
-0.999161, 53, 285, 68, 316
-0.999161, 177, 317, 304, 348
-0.999163, 435, 213, 450, 244
-0.999171, 301, 285, 316, 316
-0.999171, 255, 273, 270, 304
-0.999176, 431, 129, 446, 160
-0.99918, 435, 181, 450, 212
-0.99918, 209, 341, 336, 372
-0.999182, 67, 197, 82, 228
-0.999185, 469, 213, 484, 244
-0.999185, 1, 105, 500, 168
-0.99919, 173, 193, 188, 320
-0.999192, 267, 201, 282, 232
-0.999195, 55, 221, 70, 252
-0.999206, 279, 293, 294, 324
-0.999207, 161, 193, 176, 320
-0.999207, 121, 241, 152, 368
-0.999207, 149, 249, 164, 280
-0.99921, 281, 89, 344, 152
-0.999212, 453, 193, 468, 224
-0.999214, 485, 213, 500, 244
-0.999218, 307, 281, 322, 312
-0.999221, 81, 289, 144, 352
-0.999222, 181, 97, 212, 352
-0.999223, 151, 345, 166, 375
-0.999224, 65, 305, 80, 336
-0.999227, 285, 293, 300, 324
-0.999227, 135, 333, 150, 364
-0.99923, 479, 205, 494, 236
-0.999236, 425, 141, 440, 172
-0.999243, 121, 333, 136, 364
-0.999249, 235, 233, 250, 264
-0.999254, 315, 321, 330, 352
-0.999254, 167, 193, 182, 320
-0.999255, 243, 241, 258, 272
-0.999257, 155, 193, 170, 320
-0.999258, 323, 337, 338, 368
-0.999259, 317, 261, 332, 292
-0.999259, 387, 281, 402, 312
-0.999268, 307, 337, 322, 368
-0.999269, 395, 269, 410, 300
-0.99927, 179, 193, 194, 320
-0.999271, 465, 113, 496, 240
-0.999277, 275, 333, 290, 364
-0.999282, 431, 157, 446, 188
-0.999288, 1, 345, 128, 375
-0.999297, 5, 177, 36, 304
-0.999298, 1, 305, 128, 336
-0.999302, 91, 193, 106, 224
-0.999303, 223, 337, 238, 368
-0.999303, 203, 321, 218, 352
-0.999322, 63, 193, 78, 320
-0.999326, 87, 193, 102, 320
-0.999344, 37, 129, 68, 375
-0.999346, 143, 193, 158, 320
-0.999347, 149, 193, 164, 320
-0.999363, 449, 193, 464, 320
-0.999372, 273, 249, 400, 280
-0.999373, 235, 209, 250, 336
-0.999377, 77, 193, 92, 320
-0.999382, 55, 209, 70, 336
-0.999385, 169, 313, 232, 375
-0.999388, 137, 193, 152, 320
-0.999388, 93, 193, 108, 320
-0.999391, 69, 129, 100, 375
-0.999391, 325, 241, 340, 368
-0.999391, 185, 193, 200, 320
-0.999403, 157, 177, 188, 240
-0.999403, 361, 225, 392, 288
-0.999403, 65, 273, 96, 336
-0.999417, 421, 129, 452, 375
-0.999423, 93, 97, 124, 352
-0.999429, 129, 193, 144, 320
-0.999429, 473, 225, 488, 352
-0.999439, 123, 193, 138, 320
-0.999443, 109, 177, 124, 304
-0.999446, 485, 237, 500, 252
-0.999446, 193, 343, 208, 358
-0.999446, 99, 193, 114, 320
-0.999446, 253, 337, 268, 352
-0.999446, 315, 273, 330, 288
-0.999447, 315, 335, 330, 350
-0.999447, 1, 129, 500, 192
-0.999447, 443, 195, 458, 210
-0.999447, 161, 223, 176, 238
-0.999447, 469, 229, 484, 244
-0.999448, 479, 243, 494, 258
-0.999448, 197, 349, 212, 364
-0.999448, 195, 203, 210, 218
-0.99945, 453, 223, 468, 238
-0.99945, 167, 225, 182, 240
-0.999451, 437, 197, 452, 212
-0.999451, 47, 253, 62, 268
-0.999451, 297, 297, 312, 312
-0.999451, 483, 219, 498, 234
-0.999452, 307, 353, 322, 368
-0.999452, 315, 279, 330, 294
-0.999453, 59, 227, 74, 242
-0.999455, 291, 295, 306, 310
-0.999455, 243, 255, 258, 270
-0.999456, 61, 307, 76, 322
-0.999456, 477, 225, 492, 240
-0.999456, 377, 241, 392, 368
-0.999456, 169, 209, 184, 224
-0.999456, 477, 231, 492, 246
-0.999457, 335, 205, 350, 220
-0.999457, 73, 329, 88, 344
-0.999457, 55, 295, 70, 310
-0.999458, 261, 199, 276, 214
-0.999458, 313, 315, 328, 330
-0.99946, 55, 239, 70, 254
-0.99946, 465, 225, 480, 352
-0.99946, 367, 257, 382, 272
-0.999461, 483, 249, 498, 264
-0.999461, 403, 291, 418, 306
-0.999461, 215, 205, 230, 220
-0.999461, 157, 209, 172, 224
-0.999462, 143, 341, 158, 356
-0.999462, 481, 265, 496, 280
-0.999464, 181, 209, 196, 224
-0.999464, 235, 263, 250, 278
-0.999464, 435, 221, 450, 236
-0.999464, 249, 277, 264, 292
-0.999464, 115, 177, 130, 304
-0.999466, 317, 349, 332, 364
-0.999467, 203, 203, 218, 218
-0.999467, 383, 277, 398, 292
-0.999467, 477, 219, 492, 234
-0.999467, 233, 223, 248, 238
-0.999467, 135, 335, 150, 350
-0.999467, 175, 209, 190, 224
-0.999468, 209, 321, 224, 336
-0.999471, 99, 209, 114, 224
-0.999471, 319, 293, 334, 308
-0.999471, 307, 293, 322, 308
-0.999471, 449, 211, 464, 226
-0.999471, 163, 209, 178, 224
-0.999471, 399, 279, 414, 294
-0.999472, 271, 195, 286, 210
-0.999472, 313, 309, 328, 324
-0.999472, 457, 241, 472, 256
-0.999473, 59, 301, 74, 316
-0.999474, 257, 287, 272, 302
-0.999475, 147, 251, 162, 266
-0.999475, 69, 307, 84, 322
-0.999475, 49, 247, 64, 262
-0.999476, 245, 261, 260, 276
-0.999479, 325, 281, 340, 296
-0.999479, 483, 225, 498, 240
-0.99948, 447, 227, 462, 242
-0.999481, 243, 281, 258, 296
-0.999482, 197, 209, 212, 224
-0.999483, 443, 177, 458, 304
-0.999483, 379, 265, 394, 280
-0.999484, 333, 241, 348, 368
-0.999484, 321, 249, 448, 280
-0.999485, 455, 209, 470, 224
-0.999485, 191, 209, 206, 224
-0.999485, 235, 229, 250, 244
-0.999486, 237, 269, 252, 284
-0.999486, 327, 269, 342, 284
-0.999488, 105, 203, 120, 218
-0.999488, 327, 275, 342, 290
-0.999488, 65, 113, 320, 176
-0.99949, 323, 287, 338, 302
-0.999491, 75, 209, 90, 224
-0.999491, 57, 233, 72, 248
-0.999491, 251, 285, 266, 300
-0.999491, 99, 201, 114, 216
-0.999491, 343, 263, 358, 278
-0.999491, 461, 235, 476, 250
-0.999492, 485, 231, 500, 246
-0.999492, 69, 193, 84, 320
-0.999492, 353, 261, 368, 276
-0.999493, 383, 271, 398, 286
-0.999493, 241, 275, 256, 290
-0.999493, 443, 201, 458, 216
-0.999495, 313, 291, 328, 306
-0.999495, 455, 209, 470, 336
-0.999497, 249, 271, 264, 286
-0.999498, 229, 215, 244, 230
-0.999499, 473, 241, 488, 256
-0.999499, 303, 299, 318, 314
-0.999499, 119, 203, 134, 218
-0.9995, 229, 193, 244, 320
-0.9995, 129, 207, 144, 222
-0.999503, 403, 285, 418, 300
-0.999503, 361, 257, 376, 272
-0.999503, 147, 211, 162, 226
-0.999504, 59, 213, 74, 228
-0.999505, 453, 235, 468, 250
-0.999507, 313, 241, 328, 368
-0.999509, 191, 193, 206, 320
-0.999509, 141, 213, 156, 228
-0.99951, 457, 229, 472, 244
-0.99951, 443, 215, 458, 230
-0.999511, 329, 211, 344, 226
-0.999513, 467, 235, 482, 250
-0.999513, 335, 265, 350, 280
-0.999515, 313, 297, 328, 312
-0.999515, 249, 241, 264, 368
-0.999516, 449, 217, 464, 232
-0.999519, 389, 279, 404, 294
-0.99952, 441, 221, 456, 236
-0.999521, 267, 201, 282, 216
-0.999521, 479, 259, 494, 274
-0.999522, 435, 213, 450, 228
-0.999524, 221, 207, 236, 222
-0.999526, 93, 207, 108, 222
-0.999527, 393, 285, 408, 300
-0.999528, 233, 97, 264, 352
-0.999528, 61, 219, 76, 234
-0.999533, 349, 241, 364, 368
-0.999533, 243, 241, 258, 368
-0.999534, 135, 211, 150, 226
-0.999535, 373, 257, 388, 272
-0.99954, 463, 245, 478, 260
-0.999541, 49, 225, 64, 352
-0.999545, 369, 241, 384, 368
-0.999547, 449, 205, 464, 220
-0.999547, 355, 241, 370, 368
-0.999549, 313, 303, 328, 318
-0.999553, 473, 251, 488, 266
-0.999557, 1, 1, 500, 128
-0.999559, 145, 193, 272, 224
-0.999559, 343, 241, 358, 368
-0.999563, 257, 153, 500, 216
-0.999564, 193, 189, 320, 220
-0.999565, 85, 205, 100, 220
-0.999566, 363, 241, 378, 368
-0.999566, 203, 177, 218, 304
-0.999567, 437, 161, 452, 288
-0.999568, 65, 211, 80, 226
-0.999569, 227, 209, 242, 224
-0.99957, 479, 193, 494, 320
-0.999571, 391, 241, 406, 368
-0.999575, 211, 193, 226, 320
-0.999577, 467, 177, 482, 304
-0.999593, 485, 209, 500, 336
-0.999595, 219, 193, 234, 320
-0.999596, 443, 129, 458, 256
-0.999598, 1, 145, 128, 208
-0.999603, 197, 177, 212, 304
-0.999604, 111, 201, 126, 216
-0.999609, 383, 241, 398, 368
-0.999617, 33, 33, 288, 288
-0.999617, 321, 177, 384, 240
-0.999631, 473, 177, 488, 304
-0.999638, 461, 177, 476, 304
-0.999639, 255, 241, 270, 368
-0.999639, 449, 241, 480, 368
-0.999644, 303, 241, 318, 368
-0.999652, 431, 145, 446, 272
-0.999652, 319, 241, 334, 368
-0.999658, 443, 225, 458, 352
-0.999661, 337, 117, 464, 148
-0.999665, 97, 121, 224, 152
-0.999668, 1, 293, 128, 324
-0.99967, 245, 193, 260, 320
-0.999678, 305, 241, 336, 304
-0.999685, 293, 241, 308, 368
-0.999686, 67, 241, 82, 368
-0.999688, 337, 193, 352, 320
-0.999689, 403, 241, 418, 368
-0.99969, 69, 129, 84, 256
-0.999692, 479, 241, 494, 368
-0.999696, 265, 193, 280, 320
-0.999696, 173, 145, 188, 272
-0.999699, 345, 193, 360, 320
-0.999705, 77, 145, 92, 272
-0.999707, 63, 129, 78, 256
-0.999712, 435, 209, 450, 336
-0.999721, 61, 241, 76, 368
-0.999726, 153, 241, 168, 368
-0.999726, 359, 193, 374, 320
-0.999736, 155, 145, 170, 272
-0.999741, 313, 89, 376, 152
-0.999743, 167, 241, 182, 368
-0.999743, 181, 145, 196, 272
-0.999743, 277, 241, 292, 368
-0.999746, 101, 113, 116, 240
-0.999746, 111, 113, 126, 240
-0.999752, 163, 145, 178, 272
-0.999754, 131, 241, 146, 368
-0.999758, 201, 113, 216, 240
-0.999759, 147, 241, 162, 368
-0.999759, 385, 193, 400, 320
-0.999759, 283, 241, 298, 368
-0.999759, 211, 113, 226, 240
-0.999759, 451, 129, 466, 256
-0.99976, 125, 145, 140, 272
-0.999762, 169, 225, 200, 288
-0.999762, 351, 193, 366, 320
-0.999763, 437, 97, 452, 224
-0.99977, 83, 129, 98, 256
-0.999774, 367, 193, 382, 320
-0.999774, 269, 241, 284, 368
-0.999775, 263, 241, 278, 368
-0.999778, 73, 241, 88, 368
-0.999782, 89, 113, 104, 240
-0.999782, 485, 161, 500, 288
-0.999783, 149, 145, 164, 272
-0.999783, 57, 145, 72, 272
-0.999784, 139, 241, 154, 368
-0.999784, 375, 193, 390, 320
-0.999786, 305, 101, 432, 132
-0.999786, 195, 113, 210, 240
-0.999788, 329, 193, 344, 320
-0.999789, 117, 113, 132, 240
-0.999794, 189, 145, 204, 272
-0.999795, 81, 269, 208, 300
-0.999797, 43, 225, 58, 352
-0.999802, 397, 225, 412, 352
-0.99981, 221, 113, 236, 240
-0.99981, 317, 193, 332, 320
-0.99981, 131, 129, 146, 256
-0.999812, 323, 193, 338, 320
-0.999813, 465, 113, 480, 240
-0.999814, 9, 177, 24, 304
-0.999815, 177, 117, 304, 148
-0.999821, 137, 145, 152, 272
-0.999822, 87, 241, 102, 368
-0.999825, 479, 113, 494, 240
-0.999827, 65, 133, 192, 164
-0.999829, 473, 113, 488, 240
-0.99983, 51, 145, 66, 272
-0.999831, 161, 241, 176, 368
-0.999833, 95, 113, 110, 240
-0.999834, 81, 121, 144, 184
-0.999834, 125, 241, 140, 368
-0.999838, 173, 241, 188, 368
-0.999838, 321, 209, 352, 272
-0.999839, 143, 145, 158, 272
-0.999841, 113, 89, 240, 152
-0.999841, 229, 145, 244, 272
-0.999842, 429, 209, 444, 336
-0.999849, 271, 193, 286, 320
-0.999849, 457, 113, 472, 240
-0.99986, 251, 193, 266, 320
-0.999862, 369, 89, 496, 152
-0.999864, 15, 177, 30, 304
-0.999869, 457, 121, 488, 184
-0.999888, 209, 105, 336, 136
-0.999909, 321, 209, 448, 240
-0.999949, 257, 129, 288, 375
-0.999955, 361, 97, 392, 352
-0.99996, 381, 313, 412, 375
-0.999965, 337, 97, 368, 352
-0.999985, 269, 97, 300, 352
-0.999987, 241, 209, 272, 272
-0.999995, 33, 145, 96, 208
-1, 1, 177, 128, 208
-1.00001, 201, 177, 232, 240
-1.00002, 381, 97, 412, 352
-1.00003, 313, 129, 344, 375
-1.00003, 1, 177, 500, 240
-1.00003, 221, 313, 252, 375
-1.00004, 237, 185, 268, 248
-1.00004, 33, 149, 160, 180
-1.00006, 349, 97, 380, 352
-1.00007, 145, 101, 272, 132
-1.00007, 25, 129, 56, 375
-1.00009, 177, 305, 304, 336
-1.00011, 257, 161, 384, 224
-1.00011, 393, 97, 424, 352
-1.00011, 17, 165, 144, 196
-1.00012, 129, 317, 256, 348
-1.00012, 469, 273, 500, 336
-1.00013, 129, 241, 160, 304
-1.00018, 337, 49, 464, 176
-1.0002, 325, 129, 356, 375
-1.00022, 409, 97, 440, 352
-1.00024, 393, 209, 456, 272
-1.00024, 301, 129, 332, 375
-1.0003, 321, 81, 448, 112
-1.0003, 273, 57, 400, 120
-1.00031, 81, 281, 208, 312
-1.00031, 17, 137, 144, 168
-1.00033, 257, 213, 384, 244
-1.00035, 9, 129, 40, 375
-1.00036, 177, 85, 304, 116
-1.00036, 257, 197, 384, 228
-1.00036, 369, 105, 496, 136
-1.00037, 1, 117, 128, 148
-1.00038, 429, 33, 460, 288
-1.00038, 49, 121, 176, 152
-1.00038, 101, 241, 132, 304
-1.00038, 1, 137, 256, 200
-1.0004, 61, 33, 92, 288
-1.0004, 241, 81, 368, 112
-1.0004, 257, 105, 384, 136
-1.00043, 97, 305, 224, 336
-1.00044, 97, 109, 224, 140
-1.00046, 129, 89, 384, 152
-1.00047, 225, 117, 352, 148
-1.00048, 1, 105, 128, 168
-1.00048, 305, 221, 432, 252
-1.00048, 261, 313, 292, 375
-1.00048, 353, 105, 416, 168
-1.00048, 213, 33, 244, 288
-1.00049, 305, 193, 432, 256
-1.00049, 257, 237, 384, 268
-1.00052, 429, 265, 460, 328
-1.00053, 193, 57, 320, 120
-1.00054, 369, 93, 496, 124
-1.00055, 397, 305, 428, 368
-1.00055, 305, 197, 432, 228
-1.00057, 105, 273, 168, 336
-1.00058, 257, 173, 384, 204
-1.0006, 285, 129, 316, 375
-1.00061, 305, 233, 432, 264
-1.00061, 445, 1, 476, 256
-1.00062, 137, 113, 200, 176
-1.00065, 461, 33, 492, 288
-1.00066, 49, 105, 176, 136
-1.00067, 13, 225, 44, 352
-1.00067, 277, 313, 308, 375
-1.00069, 305, 181, 432, 212
-1.00069, 305, 161, 432, 192
-1.00069, 97, 181, 224, 212
-1.0007, 257, 225, 384, 256
-1.0007, 53, 265, 84, 328
-1.00072, 417, 1, 448, 256
-1.00074, 417, 273, 448, 336
-1.00076, 257, 129, 384, 160
-1.00077, 1, 41, 128, 72
-1.00078, 257, 185, 384, 216
-1.0008, 193, 129, 320, 160
-1.00083, 89, 241, 120, 304
-1.00083, 273, 117, 400, 148
-1.00084, 33, 209, 64, 272
-1.00084, 257, 161, 384, 192
-1.00084, 177, 177, 304, 208
-1.00085, 177, 161, 304, 192
-1.00086, 81, 45, 208, 76
-1.00086, 209, 141, 336, 172
-1.00088, 145, 129, 272, 160
-1.00088, 93, 1, 124, 256
-1.00089, 269, 1, 300, 256
-1.0009, 129, 161, 384, 224
-1.0009, 1, 29, 128, 60
-1.0009, 65, 29, 192, 60
-1.0009, 113, 293, 240, 324
-1.0009, 145, 37, 272, 68
-1.00091, 185, 289, 248, 352
-1.00091, 369, 273, 400, 336
-1.00092, 349, 225, 380, 288
-1.00093, 321, 241, 352, 304
-1.00095, 21, 161, 52, 288
-1.00096, 257, 73, 500, 136
-1.00098, 97, 65, 352, 128
-1.00099, 41, 33, 72, 288
-1.00099, 117, 1, 148, 256
-1.001, 257, 185, 384, 248
-1.00101, 313, 81, 376, 208
-1.00102, 405, 1, 436, 256
-1.00105, 49, 105, 176, 168
-1.00107, 1, 153, 500, 216
-1.00107, 117, 225, 148, 288
-1.00107, 257, 81, 320, 208
-1.00108, 93, 241, 124, 368
-1.00109, 321, 313, 352, 375
-1.0011, 281, 177, 344, 240
-1.0011, 249, 1, 280, 256
-1.00115, 321, 57, 448, 120
-1.00115, 425, 217, 456, 280
-1.00116, 257, 137, 384, 200
-1.00119, 297, 1, 328, 256
-1.0012, 33, 89, 288, 152
-1.00125, 161, 1, 192, 256
-1.00126, 1, 225, 32, 352
-1.00126, 77, 1, 108, 256
-1.00127, 309, 1, 340, 256
-1.00128, 105, 1, 136, 256
-1.0013, 209, 49, 336, 176
-1.00131, 393, 1, 424, 256
-1.00132, 145, 1, 176, 256
-1.00132, 181, 1, 212, 256
-1.00132, 273, 193, 304, 320
-1.00132, 337, 1, 368, 256
-1.00133, 229, 1, 260, 256
-1.00133, 321, 33, 352, 288
-1.00136, 381, 1, 412, 256
-1.00136, 285, 1, 316, 256
-1.00137, 97, 169, 128, 232
-1.00137, 329, 185, 360, 248
-1.00138, 201, 1, 232, 256
-1.00139, 429, 97, 460, 224
-1.00139, 133, 1, 164, 256
-1.0014, 305, 169, 432, 232
-1.0014, 361, 1, 392, 256
-1.00141, 433, 1, 496, 256
-1.00142, 469, 113, 500, 176
-1.00144, 1, 169, 64, 232
-1.00145, 13, 33, 44, 288
-1.0015, 289, 193, 320, 320
-1.00152, 105, 113, 168, 176
-1.00152, 193, 113, 256, 176
-1.00153, 209, 137, 336, 200
-1.00154, 161, 129, 416, 192
-1.00157, 409, 289, 472, 352
-1.00157, 1, 33, 32, 288
-1.00159, 65, 49, 192, 176
-1.00161, 161, 113, 224, 176
-1.00161, 25, 1, 56, 256
-1.00163, 109, 241, 140, 368
-1.0017, 349, 1, 380, 256
-1.0017, 49, 81, 176, 144
-1.00174, 225, 49, 480, 112
-1.00177, 369, 65, 496, 128
-1.0018, 45, 185, 76, 248
-1.00185, 401, 33, 464, 288
-1.00187, 1, 49, 256, 112
-1.00187, 113, 169, 144, 232
-1.0019, 237, 145, 268, 272
-1.00191, 309, 193, 340, 256
-1.00191, 257, 33, 500, 160
-1.00192, 421, 121, 452, 184
-1.00193, 129, 25, 384, 88
-1.00194, 221, 145, 252, 272
-1.00195, 1, 25, 256, 88
-1.00197, 85, 273, 116, 336
-1.00203, 193, 1, 448, 64
-1.00205, 257, 25, 500, 88
-1.00208, 409, 209, 440, 336
-1.0021, 453, 281, 484, 344
-1.00211, 65, 1, 320, 64
-1.00214, 233, 289, 264, 352
-1.00215, 361, 97, 424, 224
-1.00215, 145, 33, 272, 96
-1.00224, 161, 145, 288, 208
-1.00226, 465, 169, 496, 232
-1.00226, 397, 193, 428, 320
-1.00231, 225, 25, 352, 88
-1.00231, 273, 113, 400, 176
-1.00237, 97, 153, 224, 216
-1.00238, 1, 81, 128, 144
-1.00238, 257, 33, 384, 160
-1.00239, 217, 289, 248, 352
-1.00239, 1, 25, 128, 88
-1.00242, 133, 313, 164, 375
-1.00244, 305, 17, 432, 80
-1.00247, 121, 265, 152, 328
-1.00251, 21, 241, 52, 304
-1.00253, 181, 225, 212, 288
-1.00256, 1, 193, 32, 256
-1.00256, 257, 97, 288, 224
-1.00257, 153, 273, 216, 336
-1.00259, 369, 33, 496, 96
-1.00262, 65, 49, 192, 112
-1.00263, 225, 185, 256, 248
-1.00267, 281, 65, 344, 128
-1.00272, 33, 193, 96, 256
-1.00274, 193, 1, 320, 64
-1.00274, 65, 25, 192, 88
-1.00275, 109, 313, 140, 375
-1.00276, 257, 97, 320, 352
-1.00276, 129, 1, 256, 64
-1.00281, 353, 73, 416, 136
-1.00284, 189, 313, 220, 375
-1.00285, 241, 1, 368, 64
-1.00285, 353, 1, 480, 64
-1.00286, 249, 313, 280, 375
-1.00287, 413, 249, 444, 312
-1.00287, 9, 241, 40, 304
-1.00288, 17, 1, 144, 64
-1.00288, 65, 1, 192, 64
-1.00291, 33, 33, 96, 288
-1.00291, 17, 57, 144, 120
-1.00296, 417, 81, 448, 208
-1.00303, 113, 49, 240, 176
-1.00309, 81, 313, 112, 375
-1.00309, 261, 97, 292, 160
-1.00312, 229, 97, 260, 224
-1.00313, 241, 113, 304, 176
-1.00317, 1, 81, 500, 144
-1.00318, 273, 81, 304, 208
-1.0032, 397, 113, 428, 176
-1.00325, 161, 17, 416, 144
-1.00325, 129, 57, 256, 120
-1.00326, 377, 217, 408, 280
-1.00327, 49, 153, 176, 216
-1.00327, 17, 121, 80, 184
-1.00334, 217, 81, 280, 144
-1.00335, 433, 97, 496, 160
-1.00336, 333, 81, 364, 208
-1.00344, 273, 89, 304, 152
-1.00345, 281, 81, 344, 208
-1.00349, 401, 113, 432, 240
-1.00353, 173, 241, 204, 368
-1.00355, 185, 89, 248, 152
-1.00355, 1, 1, 500, 64
-1.0036, 1, 25, 500, 88
-1.00362, 1, 49, 500, 112
-1.00363, 453, 65, 484, 192
-1.00366, 305, 65, 368, 128
-1.00371, 189, 241, 220, 368
-1.00379, 441, 65, 472, 192
-1.00379, 209, 241, 240, 368
-1.00379, 193, 33, 256, 288
-1.00379, 217, 33, 280, 288
-1.00387, 285, 81, 316, 208
-1.00389, 257, 241, 320, 304
-1.00394, 313, 81, 344, 208
-1.00396, 145, 97, 208, 224
-1.004, 73, 97, 136, 160
-1.004, 265, 201, 328, 264
-1.00408, 129, 273, 192, 336
-1.00416, 345, 81, 376, 208
-1.00419, 121, 97, 152, 224
-1.00426, 329, 65, 392, 128
-1.00426, 337, 97, 400, 224
-1.00428, 469, 65, 500, 192
-1.00429, 357, 97, 388, 224
-1.0043, 97, 89, 160, 152
-1.00435, 301, 81, 332, 208
-1.00438, 389, 97, 420, 224
-1.00446, 385, 89, 448, 152
-1.00458, 321, 305, 384, 368
-1.00459, 269, 145, 300, 272
-1.00466, 185, 241, 248, 368
-1.00468, 181, 97, 212, 224
-1.00469, 377, 97, 408, 224
-1.00474, 265, 1, 328, 256
-1.00476, 65, 1, 128, 256
-1.00479, 377, 185, 440, 248
-1.00482, 429, 49, 460, 176
-1.00488, 105, 1, 168, 256
-1.00497, 337, 201, 400, 264
-1.00497, 237, 49, 268, 176
-1.00502, 149, 49, 180, 176
-1.00508, 405, 65, 436, 192
-1.00509, 137, 89, 200, 152
-1.0051, 369, 49, 400, 176
-1.00515, 153, 97, 184, 224
-1.00521, 305, 33, 336, 160
-1.00523, 217, 49, 280, 176
-1.00529, 33, 97, 96, 160
-1.00539, 169, 97, 200, 224
-1.00539, 257, 65, 320, 128
-1.00539, 265, 33, 328, 160
-1.00544, 257, 169, 320, 232
-1.00547, 221, 49, 252, 176
-1.00547, 37, 113, 68, 240
-1.00553, 293, 33, 324, 160
-1.00556, 197, 65, 228, 192
-1.00559, 249, 49, 280, 176
-1.00564, 273, 129, 336, 192
-1.00572, 329, 1, 392, 256
-1.00574, 61, 65, 92, 192
-1.00574, 161, 89, 224, 152
-1.00577, 321, 33, 352, 160
-1.00577, 385, 49, 416, 176
-1.0058, 357, 33, 388, 160
-1.00584, 369, 49, 432, 176
-1.0059, 109, 65, 140, 192
-1.00595, 305, 33, 368, 288
-1.00598, 337, 33, 368, 160
-1.00599, 273, 33, 304, 160
-1.00599, 9, 33, 72, 288
-1.00602, 165, 49, 196, 176
-1.00603, 313, 153, 376, 216
-1.00604, 1, 49, 128, 176
-1.00607, 377, 1, 440, 256
-1.0061, 141, 97, 172, 224
-1.00612, 261, 49, 292, 176
-1.00618, 13, 113, 44, 240
-1.0062, 177, 49, 208, 176
-1.0062, 81, 65, 112, 192
-1.0062, 89, 65, 152, 192
-1.00621, 185, 65, 248, 192
-1.00625, 209, 49, 240, 176
-1.00626, 209, 1, 336, 128
-1.00631, 249, 137, 312, 200
-1.00632, 245, 97, 276, 224
-1.00637, 297, 33, 360, 160
-1.00645, 1, 129, 32, 256
-1.00646, 137, 49, 200, 176
-1.00651, 289, 153, 352, 216
-1.00656, 125, 49, 156, 176
-1.00668, 345, 177, 408, 240
-1.00668, 273, 177, 336, 304
-1.00679, 353, 1, 416, 256
-1.00683, 145, 1, 208, 256
-1.00699, 57, 153, 120, 216
-1.00703, 129, 33, 384, 288
-1.00734, 345, 49, 408, 176
-1.00734, 169, 1, 232, 256
-1.00769, 393, 49, 456, 176
-1.00769, 49, 65, 112, 192
-1.0078, 241, 33, 304, 160
-1.0078, 273, 129, 400, 256
-1.00809, 161, 49, 224, 176
-1.00816, 9, 113, 72, 240
-1.00828, 161, 1, 288, 128
-1.00831, 113, 49, 176, 176
-1.00832, 65, 1, 320, 128
-1.00864, 321, 33, 384, 160
-1.00887, 321, 1, 448, 128
-1.00978, 265, 129, 328, 256
-1.00992, 1, 1, 128, 128
-1.00995, 65, 1, 192, 128
-1.01003, 241, 1, 304, 256
-1.01099, 369, 1, 496, 128
-1.011, 185, 17, 248, 144
-1.01125, 305, 145, 368, 272
-1.01146, 17, 65, 80, 192
-1.0124, 345, 1, 408, 128
-1.01302, 113, 1, 240, 128
-1.01313, 377, 145, 440, 272
-1.01344, 17, 1, 80, 128
-1.01378, 353, 145, 416, 272
-1.01386, 217, 1, 280, 128
-1.01409, 41, 17, 104, 144
-1.01414, 241, 129, 304, 256
-1.01445, 161, 1, 224, 128
-1.01461, 73, 17, 136, 144
-1.015, 113, 1, 176, 128
-1.01545, 369, 1, 432, 128
-1.01558, 393, 1, 456, 128
-1.01584, 433, 1, 496, 128
-1.01636, 137, 1, 200, 128
-1.0201, 257, 1, 500, 256
