1971
-0.367306, 1, 1, 375, 500
-0.377018, 1, 129, 375, 384
-0.427102, 1, 1, 256, 500
-0.44405, 1, 257, 375, 500
-0.46348, 1, 33, 375, 288
-0.577014, 129, 1, 375, 500
-0.597209, 1, 193, 256, 448
-0.603326, 1, 97, 256, 352
-0.678123, 97, 129, 352, 384
-0.730085, 33, 1, 288, 256
-0.733431, 97, 225, 352, 480
-0.748996, 129, 33, 375, 288
-0.845735, 49, 129, 176, 384
-0.865413, 97, 257, 224, 500
-0.867152, 81, 1, 208, 500
-0.86836, 33, 225, 160, 480
-0.878711, 1, 1, 128, 500
-0.881852, 1, 161, 375, 288
-0.883054, 129, 129, 256, 384
-0.885945, 1, 113, 375, 240
-0.88656, 1, 225, 375, 352
-0.887902, 1, 273, 375, 400
-0.891029, 65, 1, 192, 256
-0.894537, 129, 1, 256, 500
-0.89833, 1, 369, 375, 496
-0.898922, 1, 209, 256, 336
-0.899214, 1, 321, 375, 448
-0.904981, 145, 33, 272, 288
-0.909149, 1, 65, 375, 192
-0.91005, 1, 129, 128, 384
-0.912109, 1, 257, 256, 384
-0.9126, 1, 369, 256, 496
-0.912778, 33, 161, 288, 288
-0.920436, 33, 97, 288, 224
-0.922996, 145, 257, 272, 500
-0.925083, 193, 129, 320, 384
-0.925852, 177, 1, 304, 500
-0.929973, 129, 193, 375, 320
-0.930684, 97, 241, 352, 368
-0.930986, 1, 1, 375, 128
-0.931325, 129, 209, 192, 336
-0.931874, 81, 209, 208, 336
-0.932713, 33, 49, 288, 176
-0.933157, 129, 161, 192, 288
-0.933715, 1, 33, 128, 288
-0.933746, 33, 241, 160, 368
-0.93408, 1, 321, 256, 448
-0.935614, 65, 145, 192, 272
-0.936194, 105, 209, 168, 336
-0.937061, 33, 353, 160, 480
-0.937442, 129, 113, 375, 240
-0.937622, 105, 145, 168, 272
-0.937797, 97, 273, 224, 400
-0.938093, 129, 369, 192, 496
-0.938741, 73, 97, 136, 224
-0.940275, 209, 33, 336, 288
-0.940692, 17, 289, 144, 416
-0.941647, 65, 81, 192, 208
-0.943691, 89, 321, 152, 448
-0.943782, 209, 257, 336, 500
-0.943806, 121, 241, 184, 304
-0.944019, 33, 193, 160, 320
-0.944048, 129, 273, 192, 400
-0.944795, 65, 33, 192, 160
-0.945344, 225, 1, 352, 500
-0.945701, 113, 273, 176, 336
-0.946948, 97, 289, 352, 416
-0.946957, 89, 289, 152, 352
-0.9488, 129, 65, 375, 192
-0.948919, 121, 217, 184, 280
-0.949007, 129, 393, 192, 456
-0.949253, 49, 129, 112, 256
-0.94955, 89, 265, 152, 328
-0.949863, 1, 1, 256, 128
-0.951282, 33, 289, 96, 416
-0.951513, 73, 161, 136, 288
-0.95154, 81, 313, 144, 376
-0.951835, 81, 241, 144, 304
-0.952535, 129, 113, 192, 240
-0.952677, 129, 97, 256, 224
-0.952926, 241, 161, 368, 416
-0.953054, 129, 209, 256, 336
-0.953179, 89, 273, 152, 400
-0.953382, 89, 345, 152, 408
-0.953641, 113, 161, 240, 288
-0.954224, 113, 193, 176, 256
-0.954247, 49, 273, 112, 336
-0.95525, 97, 369, 224, 496
-0.955439, 49, 337, 112, 464
-0.955457, 129, 417, 192, 480
-0.955474, 153, 241, 216, 368
-0.955588, 121, 161, 184, 224
-0.956347, 57, 337, 120, 400
-0.956381, 1, 113, 128, 240
-0.956897, 73, 209, 136, 272
-0.957254, 153, 353, 216, 480
-0.957515, 57, 145, 120, 208
-0.957721, 97, 1, 352, 128
-0.958502, 73, 209, 136, 336
-0.958616, 129, 369, 375, 496
-0.958963, 161, 369, 288, 496
-0.959313, 97, 321, 224, 448
-0.959346, 25, 353, 88, 480
-0.959403, 121, 321, 184, 448
-0.959409, 57, 289, 120, 416
-0.959899, 49, 297, 112, 360
-0.960114, 57, 169, 120, 232
-0.961788, 121, 313, 184, 376
-0.961934, 145, 249, 208, 312
-0.962146, 49, 81, 112, 208
-0.962512, 153, 81, 216, 208
-0.962923, 17, 289, 80, 352
-0.963965, 1, 305, 64, 432
-0.96463, 17, 265, 144, 328
-0.964779, 33, 297, 160, 360
-0.964795, 65, 121, 128, 184
-0.965246, 49, 361, 112, 424
-0.965635, 105, 273, 136, 336
-0.965774, 113, 193, 176, 448
-0.965929, 17, 241, 80, 368
-0.966086, 89, 369, 152, 496
-0.966202, 161, 161, 288, 288
-0.966211, 105, 241, 136, 304
-0.966434, 49, 249, 112, 312
-0.966579, 145, 137, 208, 200
-0.966669, 49, 193, 112, 320
-0.966815, 25, 265, 88, 328
-0.967086, 129, 369, 192, 432
-0.967096, 145, 257, 272, 384
-0.967141, 97, 153, 160, 216
-0.967176, 89, 225, 152, 480
-0.967286, 193, 241, 320, 368
-0.967302, 97, 217, 160, 280
-0.967499, 153, 161, 216, 288
-0.9676, 121, 129, 184, 192
-0.967654, 65, 161, 192, 224
-0.967724, 65, 241, 192, 304
-0.967777, 65, 281, 96, 344
-0.967792, 77, 313, 108, 376
-0.967953, 153, 273, 216, 336
-0.96832, 145, 161, 176, 224
-0.968453, 25, 433, 88, 496
-0.968578, 153, 393, 216, 456
-0.968593, 145, 49, 272, 176
-0.968806, 61, 321, 92, 384
-0.968887, 109, 329, 140, 392
-0.968897, 133, 217, 164, 280
-0.969194, 109, 297, 140, 360
-0.969218, 125, 265, 156, 328
-0.969242, 153, 105, 216, 168
-0.970058, 1, 353, 64, 480
-0.970349, 145, 217, 208, 280
-0.970459, 33, 329, 160, 392
-0.970679, 133, 177, 164, 240
-0.970756, 105, 217, 136, 280
-0.970782, 125, 145, 156, 208
-0.970823, 81, 209, 208, 272
-0.970889, 81, 177, 144, 240
-0.970933, 65, 121, 192, 184
-0.970954, 89, 321, 120, 384
-0.970987, 149, 193, 180, 320
-0.971029, 153, 201, 184, 264
-0.971113, 145, 161, 208, 224
-0.971403, 149, 233, 180, 296
-0.97146, 49, 241, 112, 368
-0.97161, 129, 273, 160, 400
-0.971632, 125, 241, 156, 304
-0.971705, 65, 97, 192, 160
-0.971716, 121, 193, 152, 256
-0.971753, 121, 97, 184, 352
-0.971802, 69, 153, 100, 216
-0.971963, 33, 329, 96, 392
-0.971995, 73, 337, 104, 400
-0.972204, 97, 265, 224, 328
-0.972304, 33, 353, 160, 416
-0.972349, 141, 257, 172, 320
-0.9724, 101, 169, 132, 232
-0.972514, 117, 241, 148, 368
-0.972599, 149, 137, 180, 200
-0.972695, 121, 193, 152, 320
-0.97272, 49, 201, 112, 264
-0.972731, 225, 129, 352, 256
-0.972763, 81, 145, 112, 208
-0.972871, 113, 145, 144, 208
-0.972937, 9, 361, 72, 424
-0.973083, 77, 97, 108, 224
-0.973156, 73, 145, 104, 272
-0.973179, 153, 265, 184, 328
-0.973289, 89, 161, 120, 288
-0.97341, 149, 129, 180, 256
-0.973465, 153, 417, 216, 480
-0.973714, 53, 281, 84, 344
-0.973738, 49, 417, 176, 480
-0.97381, 61, 129, 92, 256
-0.973835, 105, 97, 168, 224
-0.973843, 49, 89, 112, 152
-0.973984, 17, 241, 144, 304
-0.973997, 145, 185, 208, 248
-0.974003, 177, 369, 240, 496
-0.97465, 133, 225, 164, 352
-0.974705, 93, 217, 124, 280
-0.974752, 65, 129, 128, 384
-0.974782, 137, 145, 168, 272
-0.974941, 209, 113, 272, 240
-0.974983, 249, 369, 312, 496
-0.97502, 33, 225, 96, 288
-0.975101, 89, 377, 152, 440
-0.975149, 93, 145, 124, 208
-0.975212, 257, 401, 320, 464
-0.975271, 121, 313, 152, 376
-0.975344, 113, 337, 176, 400
-0.975627, 17, 97, 80, 224
-0.975719, 1, 65, 128, 192
-0.975734, 121, 217, 152, 280
-0.975842, 73, 209, 104, 336
-0.975845, 97, 273, 128, 400
-0.975918, 33, 193, 160, 256
-0.976091, 41, 265, 72, 328
-0.97616, 121, 129, 152, 256
-0.97632, 1, 337, 64, 400
-0.976354, 93, 297, 124, 360
-0.976382, 93, 273, 124, 336
-0.976436, 297, 369, 360, 496
-0.976604, 241, 209, 368, 336
-0.976646, 145, 17, 208, 144
-0.976647, 153, 369, 216, 432
-0.976666, 73, 177, 104, 240
-0.976667, 77, 273, 108, 336
-0.976683, 81, 185, 208, 248
-0.976755, 109, 289, 140, 416
-0.976793, 77, 121, 108, 184
-0.976831, 129, 1, 256, 128
-0.976852, 101, 145, 132, 272
-0.976875, 33, 161, 96, 224
-0.976907, 249, 433, 312, 496
-0.97691, 113, 241, 240, 304
-0.976975, 93, 241, 124, 304
-0.977008, 65, 65, 192, 128
-0.977152, 241, 241, 304, 368
-0.977286, 25, 409, 88, 472
-0.977299, 217, 241, 280, 368
-0.977354, 33, 385, 96, 448
-0.977438, 33, 385, 160, 448
-0.977448, 225, 369, 352, 496
-0.977586, 145, 193, 208, 448
-0.977707, 73, 89, 104, 152
-0.977836, 33, 433, 64, 496
-0.978063, 17, 169, 144, 232
-0.978182, 57, 353, 88, 416
-0.978268, 97, 289, 224, 352
-0.97835, 97, 209, 128, 336
-0.978591, 49, 1, 176, 64
-0.978645, 89, 129, 152, 384
-0.978752, 17, 193, 80, 320
-0.978946, 1, 265, 64, 328
-0.979002, 145, 145, 272, 208
-0.979042, 153, 81, 216, 144
-0.979085, 97, 417, 224, 480
-0.979114, 169, 249, 232, 312
-0.979154, 57, 289, 88, 416
-0.979203, 105, 433, 168, 496
-0.979394, 61, 209, 92, 336
-0.979409, 105, 193, 136, 256
-0.979503, 1, 425, 64, 488
-0.979554, 193, 289, 320, 416
-0.979595, 121, 289, 152, 352
-0.979718, 33, 33, 96, 160
-0.979871, 313, 425, 375, 488
-0.97989, 177, 113, 304, 240
-0.979912, 145, 121, 272, 184
-0.979932, 53, 337, 84, 464
-0.979967, 249, 377, 312, 440
-0.98001, 89, 169, 120, 232
-0.980054, 193, 209, 256, 336
-0.980346, 17, 145, 144, 208
-0.980412, 153, 241, 184, 368
-0.980464, 65, 433, 128, 496
-0.980528, 145, 193, 272, 256
-0.980557, 137, 281, 168, 344
-0.980573, 37, 289, 68, 352
-0.980591, 93, 193, 124, 256
-0.980671, 121, 169, 152, 232
-0.980699, 89, 409, 152, 472
-0.980875, 97, 313, 224, 376
-0.980924, 241, 161, 304, 288
-0.980996, 109, 353, 140, 416
-0.981069, 165, 249, 196, 312
-0.98111, 49, 225, 112, 480
-0.981117, 193, 65, 320, 192
-0.981123, 81, 385, 208, 448
-0.981141, 65, 41, 192, 104
-0.981145, 281, 409, 344, 472
-0.981217, 109, 337, 140, 464
-0.981249, 169, 129, 232, 192
-0.981277, 33, 129, 96, 192
-0.981591, 113, 1, 176, 128
-0.981698, 209, 121, 272, 184
-0.981762, 53, 257, 84, 320
-0.981784, 17, 257, 80, 500
-0.981792, 161, 145, 192, 208
-0.981844, 109, 193, 140, 320
-0.981925, 145, 97, 208, 352
-0.98203, 113, 1, 176, 64
-0.982229, 121, 337, 152, 400
-0.982267, 33, 217, 160, 280
-0.982312, 153, 417, 184, 480
-0.9825, 65, 81, 96, 208
-0.982514, 129, 105, 192, 168
-0.982599, 153, 289, 216, 416
-0.982733, 65, 121, 96, 184
-0.982811, 57, 153, 88, 216
-0.982849, 161, 401, 288, 464
-0.982904, 85, 345, 116, 408
-0.982906, 89, 113, 120, 240
-0.982926, 129, 65, 192, 192
-0.982967, 45, 425, 76, 488
-0.983094, 97, 337, 224, 400
-0.98311, 273, 209, 336, 336
-0.983136, 257, 265, 320, 328
-0.983163, 25, 201, 88, 264
-0.983229, 161, 249, 288, 312
-0.98328, 1, 433, 128, 496
-0.983306, 297, 97, 360, 224
-0.983392, 273, 369, 336, 496
-0.983612, 225, 393, 288, 456
-0.983637, 225, 249, 288, 312
-0.983657, 161, 193, 192, 320
-0.983745, 57, 409, 120, 472
-0.983831, 137, 97, 168, 224
-0.983906, 145, 425, 272, 488
-0.98401, 145, 113, 176, 176
-0.984041, 121, 1, 184, 500
-0.9841, 61, 177, 92, 240
-0.984105, 145, 169, 272, 232
-0.984106, 157, 105, 188, 168
-0.98415, 161, 225, 288, 288
-0.984152, 29, 265, 60, 328
-0.98417, 97, 321, 128, 448
-0.984171, 145, 321, 272, 448
-0.984238, 169, 129, 232, 384
-0.984336, 37, 289, 68, 416
-0.984348, 73, 97, 136, 160
-0.984375, 165, 241, 196, 368
-0.984488, 97, 345, 128, 408
-0.984589, 217, 193, 280, 320
-0.984608, 77, 209, 108, 272
-0.984674, 45, 241, 76, 368
-0.984694, 1, 385, 64, 448
-0.984828, 241, 321, 368, 448
-0.98487, 169, 153, 232, 216
-0.984981, 153, 393, 184, 456
-0.985027, 169, 209, 232, 272
-0.985037, 113, 81, 176, 144
-0.985087, 201, 249, 264, 312
-0.985152, 77, 249, 108, 312
-0.98521, 13, 369, 44, 496
-0.985234, 145, 89, 272, 152
-0.985247, 281, 273, 344, 400
-0.985251, 185, 113, 248, 240
-0.985256, 257, 113, 320, 240
-0.985259, 133, 417, 164, 480
-0.985298, 177, 321, 240, 448
-0.98535, 305, 265, 368, 328
-0.985368, 145, 17, 208, 80
-0.985375, 165, 353, 196, 480
-0.985381, 1, 121, 128, 184
-0.985389, 157, 177, 188, 240
-0.985501, 65, 337, 96, 464
-0.985558, 41, 353, 72, 480
-0.985638, 57, 33, 120, 288
-0.985662, 153, 57, 216, 120
-0.985732, 145, 1, 208, 500
-0.985751, 297, 385, 360, 448
-0.985778, 77, 257, 108, 384
-0.985795, 273, 161, 336, 288
-0.985856, 17, 145, 80, 272
-0.985857, 281, 265, 344, 328
-0.985913, 141, 273, 172, 400
-0.98597, 257, 289, 320, 416
-0.985974, 137, 137, 168, 200
-0.986029, 233, 185, 296, 248
-0.986072, 65, 257, 96, 320
-0.986117, 137, 1, 168, 128
-0.986172, 165, 417, 196, 480
-0.986251, 33, 129, 96, 384
-0.986268, 305, 369, 336, 496
-0.986309, 17, 265, 48, 328
-0.986355, 97, 361, 224, 424
-0.986404, 1, 409, 128, 472
-0.986431, 45, 321, 76, 384
-0.986465, 89, 129, 152, 192
-0.986537, 13, 425, 44, 488
-0.986653, 65, 417, 96, 480
-0.98673, 169, 393, 200, 456
-0.986786, 177, 161, 240, 288
-0.986809, 145, 377, 272, 440
-0.986889, 65, 201, 96, 264
-0.987001, 233, 113, 296, 240
-0.98712, 225, 425, 352, 488
-0.987125, 105, 49, 168, 176
-0.987258, 181, 369, 212, 496
-0.987265, 177, 385, 240, 448
-0.987272, 225, 289, 288, 416
-0.987385, 149, 289, 180, 352
-0.987419, 65, 1, 128, 128
-0.987443, 217, 281, 280, 344
-0.987551, 249, 425, 280, 488
-0.987556, 57, 1, 120, 500
-0.987564, 77, 353, 108, 480
-0.987635, 157, 81, 188, 144
-0.98765, 225, 417, 288, 480
-0.987726, 169, 177, 232, 240
-0.987742, 257, 145, 320, 208
-0.987754, 209, 65, 272, 192
-0.987765, 89, 233, 152, 264
-0.987789, 129, 229, 192, 260
-0.98785, 209, 145, 272, 208
-0.987901, 1, 265, 256, 328
-0.987911, 105, 281, 168, 312
-0.987943, 105, 221, 168, 252
-0.987966, 1, 17, 128, 144
-0.987968, 201, 225, 264, 288
-0.987969, 89, 201, 152, 232
-0.988053, 121, 205, 184, 236
-0.988072, 129, 217, 192, 248
-0.988086, 113, 57, 176, 120
-0.988114, 273, 201, 336, 264
-0.98813, 133, 393, 164, 456
-0.98816, 281, 433, 344, 496
-0.988179, 145, 65, 272, 128
-0.988197, 1, 89, 128, 152
-0.988218, 105, 153, 168, 184
-0.988226, 157, 65, 188, 192
-0.988226, 241, 401, 368, 464
-0.98825, 113, 185, 176, 216
-0.988314, 313, 345, 375, 408
-0.988362, 85, 209, 116, 336
-0.98837, 73, 157, 136, 188
-0.988409, 129, 41, 256, 104
-0.988421, 45, 361, 76, 424
-0.988427, 225, 121, 352, 184
-0.988448, 145, 273, 272, 336
-0.988454, 185, 257, 248, 384
-0.98847, 89, 169, 152, 200
-0.988503, 345, 425, 375, 488
-0.988509, 89, 265, 152, 296
-0.988546, 25, 105, 88, 168
-0.988549, 33, 65, 96, 128
-0.988557, 129, 401, 192, 432
-0.988586, 169, 225, 200, 288
-0.988599, 249, 65, 312, 192
-0.988653, 121, 245, 184, 276
-0.988657, 169, 193, 200, 256
-0.988744, 137, 1, 168, 64
-0.98875, 73, 217, 136, 248
-0.988803, 273, 169, 336, 232
-0.988814, 73, 49, 136, 176
-0.988824, 65, 41, 128, 104
-0.988833, 225, 249, 352, 312
-0.988834, 65, 345, 128, 376
-0.988854, 89, 297, 152, 328
-0.988864, 257, 241, 320, 304
-0.98887, 113, 169, 176, 200
-0.9889, 225, 369, 352, 432
-0.988924, 129, 261, 192, 292
-0.988969, 145, 1, 208, 256
-0.989001, 5, 385, 36, 448
-0.989063, 129, 157, 192, 188
-0.989093, 89, 361, 152, 392
-0.989108, 89, 325, 152, 356
-0.989114, 225, 153, 352, 216
-0.989116, 81, 313, 144, 344
-0.989128, 129, 413, 192, 444
-0.989143, 113, 1, 176, 256
-0.989158, 121, 293, 184, 324
-0.989204, 9, 241, 72, 304
-0.989225, 129, 369, 160, 496
-0.989235, 89, 349, 152, 380
-0.989248, 129, 441, 192, 472
-0.989304, 25, 369, 56, 496
-0.989307, 81, 305, 112, 432
-0.98931, 25, 17, 88, 80
-0.989319, 129, 277, 192, 308
-0.98933, 1, 313, 64, 376
-0.989356, 5, 289, 36, 416
-0.989379, 33, 1, 96, 500
-0.989385, 209, 369, 272, 496
-0.989439, 185, 65, 248, 192
-0.989492, 305, 113, 368, 176
-0.989495, 57, 1, 120, 64
-0.989497, 65, 329, 128, 360
-0.98951, 281, 225, 344, 288
-0.989513, 89, 181, 152, 212
-0.989536, 57, 145, 120, 176
-0.989544, 305, 209, 368, 336
-0.989561, 73, 249, 136, 280
-0.98957, 153, 369, 184, 496
-0.989631, 245, 393, 276, 456
-0.989637, 285, 409, 316, 472
-0.989655, 241, 273, 368, 400
-0.989672, 49, 281, 112, 312
-0.989675, 65, 233, 128, 264
-0.989683, 57, 169, 120, 200
-0.989743, 33, 241, 64, 368
-0.989827, 1, 369, 32, 496
-0.989842, 33, 33, 96, 288
-0.989846, 73, 285, 136, 316
-0.989859, 129, 429, 192, 460
-0.989863, 129, 17, 256, 80
-0.989869, 89, 337, 152, 368
-0.989879, 161, 145, 192, 272
-0.989886, 49, 365, 112, 396
-0.989943, 129, 389, 192, 420
-0.989973, 57, 81, 88, 144
-0.989977, 97, 249, 160, 280
-0.99001, 73, 361, 104, 424
-0.990025, 49, 197, 112, 228
-0.990039, 57, 313, 120, 344
-0.990074, 209, 129, 272, 384
-0.9901, 65, 225, 96, 288
-0.990153, 133, 361, 164, 424
-0.990175, 1, 241, 256, 304
-0.99018, 145, 169, 208, 200
-0.990209, 49, 181, 112, 212
-0.990224, 65, 265, 128, 296
-0.990234, 273, 337, 336, 400
-0.990262, 169, 113, 200, 176
-0.99028, 153, 277, 216, 308
-0.990301, 225, 345, 352, 408
-0.990326, 193, 281, 320, 344
-0.990332, 1, 209, 256, 272
-0.990357, 153, 289, 184, 416
-0.99036, 9, 153, 72, 216
-0.990408, 113, 433, 144, 496
-0.990414, 65, 297, 128, 328
-0.990415, 145, 201, 208, 232
-0.990439, 25, 273, 88, 304
-0.990451, 49, 157, 112, 188
-0.990457, 165, 369, 196, 432
-0.990467, 153, 401, 216, 432
-0.990503, 233, 225, 296, 288
-0.990566, 49, 221, 112, 252
-0.990584, 305, 153, 368, 216
-0.990601, 113, 341, 176, 372
-0.990611, 177, 409, 240, 472
-0.990638, 153, 153, 216, 184
-0.990645, 297, 49, 360, 176
-0.990651, 145, 141, 208, 172
-0.990668, 105, 309, 168, 340
-0.990677, 25, 449, 88, 480
-0.990686, 265, 401, 296, 464
-0.990698, 113, 25, 176, 88
-0.990702, 241, 289, 304, 352
-0.99072, 41, 297, 104, 328
-0.990726, 9, 373, 72, 404
-0.990732, 173, 193, 204, 320
-0.990751, 121, 137, 184, 168
-0.990764, 165, 273, 196, 336
-0.99077, 49, 161, 80, 288
-0.990786, 25, 437, 88, 468
-0.990806, 49, 209, 112, 240
-0.990844, 1, 105, 256, 168
-0.990872, 53, 401, 84, 464
-0.990878, 261, 241, 292, 368
-0.990906, 305, 145, 368, 272
-0.990915, 25, 289, 56, 352
-0.990919, 169, 1, 232, 500
-0.990937, 145, 185, 208, 216
-0.990947, 53, 129, 84, 192
-0.990989, 153, 109, 216, 140
-0.991026, 249, 241, 280, 368
-0.991036, 25, 469, 88, 500
-0.991037, 113, 325, 176, 356
-0.991048, 33, 169, 288, 232
-0.991056, 57, 93, 120, 124
-0.991071, 153, 453, 216, 484
-0.991072, 129, 453, 192, 484
-0.991087, 145, 121, 208, 152
-0.991109, 209, 369, 272, 432
-0.991132, 121, 321, 152, 448
-0.991172, 17, 293, 80, 324
-0.991207, 29, 353, 60, 416
-0.991215, 113, 353, 176, 384
-0.991222, 153, 345, 216, 408
-0.991234, 1, 369, 256, 432
-0.991251, 81, 1, 144, 500
-0.991268, 49, 253, 112, 284
-0.991289, 105, 461, 168, 492
-0.991292, 233, 161, 296, 224
-0.991292, 145, 289, 208, 320
-0.991308, 9, 385, 72, 416
-0.991354, 169, 389, 232, 420
-0.991356, 153, 413, 216, 444
-0.991356, 145, 241, 208, 272
-0.991364, 33, 145, 96, 176
-0.991371, 205, 241, 236, 368
-0.991375, 1, 289, 375, 352
-0.991375, 153, 213, 216, 244
-0.991391, 153, 441, 216, 472
-0.991394, 297, 409, 328, 472
-0.99141, 73, 129, 136, 160
-0.991414, 57, 33, 88, 160
-0.991414, 69, 33, 100, 160
-0.991449, 41, 233, 104, 264
-0.991456, 49, 105, 80, 168
-0.991463, 305, 377, 336, 440
-0.991473, 89, 393, 152, 424
-0.991535, 33, 325, 96, 356
-0.991546, 261, 265, 292, 328
-0.991547, 153, 57, 184, 120
-0.991566, 121, 377, 184, 408
-0.991577, 241, 201, 368, 264
-0.991588, 29, 409, 60, 472
-0.991597, 153, 425, 216, 456
-0.991622, 249, 445, 312, 476
-0.99164, 1, 281, 64, 312
-0.991648, 37, 241, 68, 304
-0.991653, 105, 405, 168, 436
-0.991681, 65, 65, 128, 128
-0.991682, 169, 169, 200, 232
-0.991732, 161, 261, 224, 292
-0.991737, 1, 345, 256, 408
-0.991752, 281, 121, 344, 184
-0.991755, 1, 257, 375, 320
-0.991764, 25, 313, 88, 344
-0.991768, 153, 89, 216, 120
-0.991774, 225, 225, 352, 288
-0.99179, 241, 273, 368, 336
-0.991803, 109, 345, 140, 376
-0.991803, 77, 345, 108, 376
-0.991815, 105, 449, 168, 480
-0.991815, 81, 145, 144, 176
-0.991821, 341, 401, 372, 464
-0.991825, 249, 397, 312, 428
-0.991827, 249, 249, 280, 312
-0.991839, 33, 425, 288, 488
-0.991855, 25, 425, 88, 456
-0.991862, 149, 201, 180, 232
-0.991867, 305, 445, 368, 476
-0.99188, 89, 121, 120, 184
-0.991884, 241, 49, 368, 176
-0.991896, 89, 373, 152, 404
-0.991904, 209, 289, 272, 320
-0.991926, 25, 353, 88, 384
-0.991929, 1, 433, 64, 464
-0.991929, 117, 169, 148, 200
-0.99194, 57, 105, 120, 136
-0.991948, 161, 229, 224, 260
-0.991969, 1, 465, 64, 496
-0.99197, 117, 201, 148, 232
-0.991976, 21, 241, 52, 368
-0.991979, 133, 185, 164, 216
-0.991983, 65, 385, 96, 448
-0.991985, 145, 353, 272, 416
-0.991988, 133, 217, 164, 248
-0.992005, 209, 129, 272, 160
-0.992008, 105, 249, 136, 280
-0.992013, 129, 309, 192, 340
-0.992033, 57, 465, 120, 496
-0.992034, 89, 169, 120, 200
-0.992045, 145, 169, 176, 200
-0.992055, 89, 429, 152, 460
-0.992058, 1, 361, 64, 392
-0.992064, 149, 185, 180, 216
-0.992066, 129, 365, 192, 396
-0.992068, 1, 305, 256, 368
-0.992071, 133, 201, 164, 232
-0.992077, 149, 233, 180, 264
-0.992077, 257, 257, 320, 500
-0.992082, 121, 221, 152, 252
-0.992082, 57, 437, 120, 468
-0.99209, 109, 277, 140, 308
-0.992091, 133, 153, 164, 184
-0.992096, 273, 441, 336, 472
-0.992099, 109, 297, 140, 328
-0.992106, 113, 101, 176, 132
-0.992111, 149, 221, 180, 252
-0.992118, 97, 281, 128, 312
-0.992122, 85, 321, 100, 384
-0.992133, 133, 249, 164, 280
-0.992141, 149, 157, 180, 188
-0.992142, 73, 117, 136, 148
-0.992143, 97, 249, 352, 312
-0.992148, 105, 217, 136, 248
-0.992159, 89, 353, 120, 384
-0.99216, 313, 409, 375, 440
-0.992162, 109, 313, 140, 344
-0.992178, 125, 281, 156, 312
-0.99218, 81, 233, 208, 264
-0.992181, 137, 305, 168, 368
-0.992183, 89, 229, 120, 260
-0.992185, 89, 201, 120, 232
-0.992198, 113, 237, 144, 268
-0.992204, 89, 293, 120, 324
-0.992211, 241, 273, 304, 304
-0.992213, 57, 385, 120, 448
-0.992214, 89, 305, 120, 336
-0.992219, 133, 233, 164, 264
-0.99222, 109, 153, 140, 184
-0.992227, 89, 261, 120, 292
-0.992231, 89, 417, 152, 448
-0.992239, 89, 337, 120, 368
-0.992242, 97, 157, 128, 188
-0.992248, 41, 341, 104, 372
-0.992252, 65, 345, 96, 376
-0.99226, 113, 265, 144, 296
-0.992262, 273, 397, 336, 428
-0.99227, 201, 277, 264, 308
-0.992271, 249, 353, 312, 416
-0.992277, 89, 217, 120, 248
-0.99228, 133, 173, 164, 204
-0.992281, 177, 453, 240, 484
-0.992292, 121, 249, 152, 280
-0.992297, 89, 325, 120, 356
-0.992297, 109, 357, 140, 388
-0.992299, 77, 333, 108, 364
-0.992299, 169, 241, 232, 272
-0.992303, 109, 329, 140, 360
-0.992306, 89, 249, 120, 280
-0.992314, 169, 141, 232, 172
-0.992316, 49, 129, 112, 160
-0.992324, 153, 425, 184, 456
-0.992329, 81, 405, 144, 436
-0.992341, 69, 273, 100, 304
-0.992343, 105, 185, 136, 216
-0.992347, 73, 213, 104, 244
-0.992354, 73, 181, 104, 212
-0.992358, 105, 169, 136, 200
-0.992358, 49, 157, 176, 188
-0.992361, 141, 265, 172, 296
-0.992377, 165, 437, 196, 468
-0.992379, 61, 289, 92, 320
-0.992379, 121, 185, 152, 216
-0.992384, 325, 369, 356, 496
-0.992391, 77, 285, 108, 316
-0.992394, 33, 129, 288, 192
-0.99241, 1, 333, 64, 364
-0.992412, 77, 313, 108, 344
-0.992416, 149, 249, 180, 280
-0.992417, 149, 277, 180, 308
-0.992419, 73, 157, 104, 188
-0.992423, 25, 217, 88, 248
-0.992428, 125, 265, 156, 296
-0.99243, 61, 357, 92, 388
-0.992438, 209, 177, 336, 240
-0.99245, 49, 113, 80, 240
-0.992453, 61, 145, 92, 176
-0.992464, 85, 153, 116, 184
-0.992474, 77, 201, 108, 232
-0.992484, 121, 157, 152, 188
-0.992491, 101, 233, 132, 264
-0.992497, 181, 385, 212, 448
-0.992501, 241, 129, 304, 384
-0.992527, 77, 97, 108, 128
-0.992539, 61, 173, 92, 204
-0.992539, 73, 169, 104, 200
-0.992539, 89, 189, 120, 220
-0.992545, 77, 301, 108, 332
-0.992558, 73, 357, 104, 388
-0.99256, 45, 441, 76, 472
-0.99256, 61, 333, 92, 364
-0.992562, 17, 277, 144, 308
-0.992566, 69, 249, 100, 280
-0.992574, 105, 205, 136, 236
-0.992579, 101, 265, 132, 296
-0.99258, 65, 301, 96, 332
-0.992595, 145, 141, 176, 172
-0.992605, 61, 313, 92, 344
-0.992606, 209, 33, 272, 288
-0.992611, 73, 233, 104, 264
-0.992622, 61, 157, 92, 188
-0.99263, 193, 273, 256, 336
-0.992638, 153, 441, 184, 472
-0.992667, 265, 425, 296, 488
-0.992677, 37, 273, 68, 304
-0.992686, 61, 221, 92, 252
-0.992698, 129, 249, 144, 312
-0.992705, 137, 277, 168, 308
-0.992715, 1, 233, 375, 296
-0.992722, 325, 409, 356, 472
-0.992723, 157, 145, 188, 176
-0.992726, 81, 273, 112, 304
-0.992727, 345, 345, 375, 408
-0.99274, 33, 437, 64, 468
-0.992744, 69, 129, 100, 160
-0.992746, 69, 109, 100, 140
-0.992747, 123, 313, 138, 376
-0.992755, 137, 49, 168, 176
-0.992762, 61, 205, 92, 236
-0.992766, 25, 41, 88, 104
-0.992771, 1, 65, 128, 128
-0.992775, 49, 285, 80, 316
-0.992779, 153, 265, 184, 296
-0.992782, 161, 157, 192, 188
-0.992782, 5, 345, 36, 408
-0.992784, 29, 453, 60, 484
-0.992787, 65, 269, 192, 300
-0.992789, 137, 89, 168, 152
-0.992791, 149, 293, 180, 324
-0.992797, 53, 265, 84, 296
-0.992823, 45, 297, 76, 328
-0.992825, 61, 189, 92, 220
-0.992829, 73, 261, 104, 292
-0.992831, 161, 213, 192, 244
-0.992833, 129, 293, 160, 324
-0.992839, 161, 201, 192, 232
-0.992852, 61, 233, 92, 264
-0.992854, 161, 277, 192, 308
-0.992863, 133, 425, 164, 456
-0.992865, 157, 117, 188, 148
-0.992875, 21, 385, 52, 448
-0.992878, 53, 429, 84, 460
-0.992882, 153, 1, 184, 128
-0.992899, 313, 241, 375, 304
-0.992905, 241, 33, 304, 288
-0.992917, 161, 185, 192, 216
-0.992927, 121, 341, 152, 372
-0.99293, 125, 325, 156, 356
-0.992938, 313, 273, 375, 400
-0.992938, 153, 413, 184, 444
-0.992938, 29, 465, 60, 496
-0.992943, 161, 241, 192, 272
-0.992953, 153, 105, 184, 136
-0.992958, 157, 169, 188, 200
-0.992959, 65, 189, 192, 220
-0.992971, 1, 361, 375, 424
-0.992975, 305, 433, 336, 496
-0.992997, 121, 357, 152, 388
-0.993004, 121, 313, 152, 344
-0.993017, 73, 145, 104, 176
-0.993019, 165, 425, 196, 456
-0.993023, 169, 389, 200, 420
-0.993026, 185, 337, 248, 400
-0.993029, 133, 413, 164, 444
-0.993029, 133, 437, 164, 468
-0.993036, 1, 1, 64, 500
-0.993044, 169, 449, 200, 480
-0.993055, 57, 253, 88, 284
-0.993062, 49, 345, 80, 376
-0.993066, 249, 393, 280, 424
-0.993074, 141, 369, 172, 496
-0.993077, 153, 393, 184, 424
-0.993131, 91, 313, 106, 376
-0.993144, 133, 321, 164, 448
-0.99315, 81, 213, 208, 244
-0.993161, 81, 201, 208, 232
-0.993183, 121, 289, 136, 352
-0.993185, 281, 209, 312, 336
-0.993207, 81, 245, 208, 276
-0.993217, 145, 329, 272, 392
-0.99322, 115, 273, 130, 336
-0.993229, 139, 241, 154, 304
-0.993243, 33, 81, 288, 144
-0.993246, 69, 65, 100, 128
-0.993248, 209, 345, 272, 408
-0.993266, 159, 137, 174, 200
-0.99327, 65, 97, 192, 128
-0.993273, 249, 121, 312, 184
-0.993282, 129, 217, 375, 280
-0.99329, 25, 289, 56, 416
-0.993341, 177, 433, 240, 496
-0.99335, 233, 113, 264, 240
-0.993356, 115, 241, 130, 304
-0.993364, 129, 113, 375, 176
-0.993365, 33, 309, 160, 340
-0.993397, 117, 329, 132, 392
-0.993397, 265, 289, 296, 416
-0.993406, 1, 417, 32, 480
-0.99341, 313, 97, 344, 224
-0.993413, 65, 169, 192, 200
-0.99345, 113, 409, 144, 472
-0.99347, 127, 217, 142, 280
-0.993485, 167, 393, 182, 456
-0.993485, 1, 401, 256, 464
-0.993533, 321, 433, 352, 496
-0.993536, 265, 353, 296, 480
-0.993543, 321, 345, 352, 408
-0.993557, 17, 265, 144, 296
-0.993559, 121, 241, 136, 304
-0.993595, 285, 353, 316, 480
-0.993598, 161, 177, 176, 240
-0.993604, 313, 289, 375, 352
-0.993624, 123, 337, 138, 400
-0.993662, 97, 273, 352, 336
-0.993679, 201, 305, 232, 432
-0.993686, 249, 369, 280, 432
-0.993698, 65, 125, 192, 156
-0.9937, 209, 1, 272, 500
-0.993709, 75, 161, 90, 224
-0.993709, 129, 193, 375, 256
-0.993721, 249, 369, 280, 496
-0.993733, 163, 233, 178, 296
-0.993746, 277, 249, 308, 312
-0.993747, 141, 201, 156, 264
-0.993757, 107, 233, 122, 296
-0.993767, 1, 193, 375, 256
-0.993771, 135, 209, 150, 272
-0.993785, 1, 417, 375, 480
-0.993792, 67, 281, 82, 344
-0.993798, 33, 369, 160, 400
-0.993801, 1, 153, 375, 216
-0.993822, 113, 209, 128, 272
-0.993829, 213, 113, 244, 240
-0.993837, 1, 49, 256, 112
-0.993838, 33, 201, 160, 232
-0.993846, 79, 305, 94, 368
-0.993869, 33, 329, 160, 360
-0.993874, 121, 265, 136, 328
-0.993931, 97, 281, 224, 312
-0.99394, 71, 313, 86, 376
-0.99395, 147, 217, 162, 280
-0.993954, 161, 209, 176, 272
-0.993958, 193, 201, 320, 264
-0.993963, 91, 289, 106, 352
-0.993968, 225, 209, 256, 336
-0.993969, 129, 409, 375, 472
-0.993982, 161, 393, 176, 456
-0.993989, 79, 329, 94, 392
-0.99399, 99, 257, 114, 320
-0.99399, 129, 145, 375, 208
-0.993992, 33, 237, 160, 268
-0.993994, 85, 289, 100, 352
-0.993999, 193, 305, 320, 368
-0.994012, 217, 257, 280, 500
-0.994013, 201, 305, 264, 432
-0.994031, 155, 265, 170, 328
-0.994047, 193, 241, 224, 368
-0.994048, 107, 209, 122, 272
-0.994084, 1, 1, 256, 64
-0.994103, 97, 441, 224, 472
-0.994108, 87, 265, 102, 328
-0.994136, 139, 169, 154, 232
-0.994164, 67, 161, 82, 224
-0.994167, 121, 217, 136, 280
-0.994172, 1, 393, 375, 456
-0.99418, 65, 137, 192, 168
-0.9942, 1, 113, 375, 176
-0.9942, 153, 185, 168, 248
-0.994211, 237, 241, 268, 368
-0.994211, 225, 273, 256, 400
-0.994246, 101, 321, 116, 384
-0.994252, 1, 1, 128, 64
-0.994261, 33, 297, 160, 328
-0.994263, 147, 161, 162, 224
-0.994274, 107, 257, 122, 320
-0.994291, 49, 421, 176, 452
-0.994304, 33, 213, 160, 244
-0.994337, 49, 433, 176, 464
-0.994355, 61, 321, 76, 384
-0.994378, 129, 193, 144, 256
-0.994381, 101, 97, 132, 224
-0.994404, 123, 193, 138, 256
-0.994419, 83, 145, 98, 208
-0.994419, 57, 289, 72, 352
-0.994426, 57, 265, 72, 328
-0.99444, 97, 217, 112, 280
-0.994442, 79, 249, 94, 312
-0.99445, 265, 1, 328, 500
-0.994454, 69, 257, 84, 320
-0.994465, 115, 305, 130, 368
-0.994496, 129, 281, 144, 344
-0.994501, 119, 161, 134, 224
-0.994526, 1, 337, 375, 400
-0.994542, 77, 273, 92, 336
-0.994567, 127, 161, 142, 224
-0.994576, 133, 169, 148, 232
-0.994577, 33, 357, 160, 388
-0.994579, 111, 329, 126, 392
-0.994585, 213, 193, 244, 320
-0.994585, 97, 425, 224, 456
-0.994622, 33, 457, 160, 488
-0.994644, 89, 89, 104, 152
-0.994668, 143, 273, 158, 336
-0.99467, 81, 257, 208, 288
-0.994674, 281, 65, 344, 320
-0.994676, 175, 409, 190, 472
-0.994686, 113, 177, 128, 240
-0.99471, 161, 113, 176, 176
-0.994711, 345, 337, 375, 464
-0.994711, 161, 417, 176, 480
-0.994716, 147, 193, 162, 256
-0.994726, 107, 281, 122, 344
-0.994734, 1, 313, 375, 376
-0.994737, 65, 77, 192, 108
-0.99475, 153, 217, 168, 280
-0.994753, 75, 121, 90, 184
-0.994786, 65, 113, 192, 144
-0.9948, 89, 33, 152, 288
-0.994804, 33, 249, 160, 280
-0.994818, 33, 445, 160, 476
-0.99482, 1, 25, 128, 88
-0.99484, 145, 241, 160, 304
-0.994859, 81, 185, 96, 248
-0.994876, 285, 273, 316, 400
-0.994903, 75, 89, 90, 152
-0.994914, 67, 137, 82, 200
-0.994937, 273, 161, 336, 416
-0.994946, 33, 341, 160, 372
-0.994954, 91, 345, 106, 408
-0.994957, 129, 313, 144, 376
-0.994962, 91, 233, 106, 296
-0.994973, 137, 145, 152, 208
-0.99503, 107, 169, 122, 232
-0.995035, 145, 129, 176, 384
-0.995035, 281, 321, 344, 448
-0.995038, 57, 361, 72, 424
-0.99504, 313, 321, 375, 448
-0.995043, 1, 25, 256, 88
-0.995049, 113, 169, 240, 200
-0.995063, 273, 49, 336, 176
-0.995066, 167, 417, 182, 480
-0.995084, 129, 169, 375, 232
-0.99509, 1, 149, 128, 180
-0.995091, 129, 89, 375, 152
-0.995095, 99, 289, 114, 352
-0.995096, 97, 305, 352, 368
-0.995097, 73, 337, 88, 400
-0.995116, 163, 265, 178, 328
-0.995123, 135, 273, 150, 336
-0.995123, 129, 433, 375, 496
-0.99514, 297, 1, 360, 500
-0.995151, 109, 145, 124, 208
-0.995174, 145, 297, 272, 360
-0.995183, 107, 305, 122, 368
-0.995198, 97, 453, 224, 484
-0.995203, 155, 409, 170, 472
-0.995219, 129, 385, 375, 448
-0.99522, 75, 193, 90, 256
-0.995226, 51, 289, 66, 352
-0.995239, 81, 401, 208, 432
-0.995269, 169, 33, 232, 288
-0.995277, 67, 193, 82, 256
-0.995288, 133, 193, 164, 448
-0.995291, 155, 289, 170, 352
-0.995306, 49, 1, 176, 32
-0.995306, 97, 337, 352, 400
-0.995315, 67, 217, 82, 280
-0.995323, 169, 145, 184, 208
-0.995351, 41, 265, 56, 328
-0.995359, 289, 97, 320, 224
-0.995362, 153, 129, 168, 192
-0.995371, 113, 269, 240, 300
-0.995381, 97, 193, 112, 256
-0.995396, 77, 225, 92, 288
-0.9954, 129, 65, 375, 128
-0.995416, 241, 1, 304, 500
-0.995462, 89, 65, 120, 192
-0.995467, 51, 265, 66, 328
-0.995471, 97, 157, 224, 188
-0.995473, 35, 433, 50, 496
-0.9955, 305, 289, 336, 416
-0.9955, 149, 265, 164, 328
-0.995502, 67, 345, 82, 408
-0.995506, 281, 257, 344, 500
-0.995514, 225, 97, 352, 160
-0.995517, 345, 97, 375, 224
-0.995523, 85, 121, 100, 184
-0.995531, 113, 193, 144, 448
-0.995583, 89, 201, 104, 264
-0.9956, 151, 241, 166, 304
-0.995601, 113, 185, 240, 216
-0.995618, 145, 129, 272, 160
-0.995624, 97, 293, 224, 324
-0.995648, 153, 161, 168, 224
-0.995654, 41, 297, 56, 360
-0.995658, 293, 209, 324, 336
-0.995666, 185, 321, 216, 448
-0.995677, 245, 129, 276, 256
-0.995695, 17, 169, 144, 200
-0.995707, 33, 381, 160, 412
-0.995707, 91, 169, 106, 232
-0.995713, 83, 225, 98, 288
-0.995728, 129, 201, 256, 232
-0.99574, 63, 257, 78, 320
-0.995822, 65, 13, 192, 44
-0.995827, 97, 33, 352, 96
-0.995846, 155, 385, 170, 448
-0.995865, 93, 265, 108, 328
-0.995891, 83, 89, 98, 152
-0.995896, 305, 257, 368, 500
-0.995898, 33, 225, 160, 256
-0.99594, 241, 193, 272, 320
-0.995957, 97, 193, 128, 448
-0.995964, 325, 97, 356, 224
-0.995973, 67, 433, 82, 496
-0.995976, 145, 453, 272, 484
-0.995997, 69, 129, 100, 384
-0.995999, 129, 253, 256, 284
-0.996016, 129, 117, 256, 148
-0.996038, 309, 193, 340, 320
-0.996043, 59, 425, 74, 488
-0.996049, 33, 409, 160, 440
-0.996052, 157, 241, 172, 304
-0.996058, 161, 397, 288, 428
-0.996073, 33, 397, 160, 428
-0.996086, 65, 25, 192, 56
-0.9961, 97, 145, 112, 208
-0.996113, 161, 369, 176, 432
-0.996116, 169, 241, 184, 304
-0.99612, 97, 413, 224, 444
-0.996129, 145, 441, 272, 472
-0.996133, 129, 241, 256, 272
-0.996186, 33, 281, 48, 344
-0.996186, 81, 353, 96, 416
-0.99619, 149, 289, 164, 352
-0.996191, 65, 49, 192, 80
-0.996217, 33, 469, 160, 500
-0.99622, 65, 37, 192, 68
-0.996222, 145, 153, 272, 184
-0.99623, 89, 145, 104, 208
-0.996235, 129, 337, 144, 400
-0.996243, 61, 177, 76, 240
-0.996245, 309, 145, 340, 272
-0.996252, 129, 229, 256, 260
-0.996258, 129, 213, 256, 244
-0.996282, 173, 385, 188, 448
-0.996282, 65, 65, 192, 96
-0.996289, 225, 57, 352, 120
-0.996299, 27, 425, 42, 488
-0.996333, 113, 389, 240, 420
-0.996348, 177, 433, 192, 496
-0.996356, 103, 145, 118, 208
-0.996362, 145, 141, 272, 172
-0.996369, 173, 129, 204, 256
-0.996379, 97, 345, 224, 376
-0.996401, 169, 185, 184, 248
-0.996413, 345, 209, 375, 336
-0.996418, 17, 189, 144, 220
-0.996422, 97, 321, 224, 352
-0.996437, 91, 121, 106, 184
-0.996465, 167, 369, 182, 432
-0.996523, 1, 81, 375, 144
-0.996525, 37, 193, 68, 320
-0.996573, 97, 333, 224, 364
-0.996591, 225, 161, 256, 288
-0.996592, 97, 361, 352, 424
-0.996626, 81, 193, 112, 448
-0.996632, 155, 281, 170, 312
-0.996641, 5, 241, 36, 368
-0.996656, 129, 85, 256, 116
-0.996666, 225, 453, 352, 484
-0.996688, 117, 345, 132, 376
-0.996726, 125, 249, 140, 280
-0.996744, 261, 113, 292, 240
-0.996776, 67, 233, 82, 264
-0.99678, 1, 137, 128, 168
-0.996783, 153, 157, 168, 188
-0.996795, 97, 361, 224, 392
-0.996796, 75, 233, 90, 264
-0.9968, 161, 429, 176, 460
-0.996809, 123, 153, 138, 184
-0.996815, 93, 349, 108, 380
-0.996817, 161, 185, 176, 216
-0.996826, 105, 233, 120, 264
-0.996831, 153, 189, 168, 220
-0.996846, 81, 169, 96, 200
-0.996852, 197, 177, 228, 304
-0.996858, 137, 201, 152, 232
-0.996859, 145, 281, 272, 312
-0.996867, 97, 377, 224, 408
-0.996868, 61, 225, 92, 480
-0.996873, 89, 201, 104, 232
-0.996876, 163, 217, 178, 248
-0.996881, 75, 249, 90, 280
-0.996884, 81, 217, 96, 248
-0.996915, 125, 233, 140, 264
-0.996927, 97, 305, 224, 336
-0.996935, 73, 345, 88, 376
-0.996949, 83, 341, 98, 372
-0.996951, 125, 217, 140, 248
-0.996956, 115, 213, 130, 244
-0.996958, 305, 1, 368, 256
-0.996958, 143, 213, 158, 244
-0.99696, 111, 233, 126, 264
-0.996965, 121, 281, 136, 312
-0.996968, 167, 429, 182, 460
-0.996972, 89, 233, 104, 264
-0.996976, 111, 265, 126, 296
-0.996976, 317, 321, 348, 448
-0.99698, 177, 437, 192, 468
-0.996981, 127, 205, 142, 236
-0.996981, 85, 329, 100, 360
-0.996985, 161, 409, 288, 440
-0.996986, 137, 169, 152, 200
-0.996988, 139, 233, 154, 264
-0.996991, 69, 281, 84, 312
-0.996991, 129, 265, 144, 296
-0.996994, 67, 249, 82, 280
-0.996995, 163, 417, 178, 448
-0.997004, 169, 257, 232, 500
-0.997009, 83, 233, 98, 264
-0.997011, 161, 421, 288, 452
-0.997014, 125, 81, 156, 208
-0.997019, 165, 305, 196, 432
-0.997027, 123, 349, 138, 380
-0.99703, 261, 65, 292, 192
-0.997036, 75, 217, 90, 248
-0.997046, 89, 185, 104, 216
-0.99705, 139, 157, 154, 188
-0.997073, 157, 169, 172, 200
-0.997074, 89, 169, 104, 200
-0.997074, 1, 433, 128, 464
-0.997076, 153, 217, 168, 248
-0.997084, 93, 313, 108, 344
-0.997086, 153, 205, 168, 236
-0.997088, 77, 281, 92, 312
-0.997089, 261, 177, 292, 304
-0.997103, 115, 153, 130, 184
-0.997112, 75, 265, 90, 296
-0.997112, 85, 313, 100, 344
-0.997114, 109, 153, 124, 184
-0.99712, 137, 185, 152, 216
-0.997124, 159, 141, 174, 172
-0.997128, 105, 265, 120, 296
-0.997129, 1, 33, 375, 96
-0.997131, 81, 249, 96, 280
-0.997132, 169, 441, 184, 472
-0.997152, 107, 349, 122, 380
-0.997154, 129, 153, 144, 184
-0.997156, 77, 357, 92, 388
-0.997158, 127, 173, 142, 204
-0.997158, 91, 325, 106, 356
-0.99716, 133, 217, 148, 248
-0.997165, 97, 465, 224, 496
-0.997169, 89, 217, 104, 248
-0.997172, 161, 201, 176, 232
-0.997173, 111, 249, 126, 280
-0.997173, 181, 241, 212, 368
-0.997178, 153, 257, 184, 500
-0.997183, 127, 189, 142, 220
-0.997183, 139, 265, 154, 296
-0.997191, 85, 297, 100, 328
-0.997196, 147, 169, 162, 200
-0.997197, 1, 113, 128, 144
-0.9972, 167, 401, 182, 432
-0.997214, 81, 157, 96, 188
-0.997216, 119, 233, 134, 264
-0.997217, 121, 265, 136, 296
-0.997217, 83, 265, 98, 296
-0.997219, 83, 201, 98, 232
-0.997242, 81, 185, 96, 216
-0.997249, 113, 277, 128, 308
-0.997252, 201, 113, 232, 240
-0.997255, 147, 201, 162, 232
-0.997259, 97, 9, 352, 72
-0.997274, 99, 277, 114, 308
-0.997276, 121, 297, 136, 328
-0.997279, 97, 217, 112, 248
-0.997292, 89, 281, 104, 312
-0.997296, 147, 185, 162, 216
-0.997297, 89, 265, 104, 296
-0.997308, 143, 281, 158, 312
-0.997321, 301, 97, 332, 224
-0.997326, 117, 245, 132, 276
-0.99733, 91, 297, 106, 328
-0.997335, 67, 173, 82, 204
-0.997337, 83, 281, 98, 312
-0.997339, 133, 233, 148, 264
-0.997339, 107, 169, 122, 200
-0.997342, 163, 169, 178, 200
-0.997343, 193, 285, 320, 316
-0.997351, 159, 157, 174, 188
-0.997352, 163, 233, 178, 264
-0.997355, 101, 341, 116, 372
-0.997357, 67, 265, 82, 296
-0.997359, 77, 297, 92, 328
-0.99736, 75, 205, 90, 236
-0.99736, 117, 97, 148, 352
-0.997363, 201, 369, 232, 496
-0.997368, 175, 425, 190, 456
-0.997371, 69, 217, 84, 248
-0.997374, 161, 385, 288, 416
-0.997374, 163, 245, 178, 276
-0.997379, 123, 361, 138, 392
-0.997379, 165, 225, 196, 480
-0.997402, 67, 293, 82, 324
-0.997415, 165, 277, 180, 308
-0.997427, 113, 297, 128, 328
-0.997429, 123, 329, 138, 360
-0.997433, 101, 249, 116, 280
-0.997434, 119, 169, 134, 200
-0.997445, 75, 173, 90, 204
-0.997457, 67, 345, 82, 376
-0.997475, 119, 201, 134, 232
-0.997478, 99, 205, 114, 236
-0.997491, 109, 217, 124, 248
-0.997492, 105, 201, 120, 232
-0.997492, 161, 269, 288, 300
-0.997492, 135, 249, 150, 280
-0.997507, 135, 281, 150, 312
-0.997515, 89, 249, 104, 280
-0.997515, 67, 205, 82, 236
-0.997521, 99, 153, 114, 184
-0.997521, 107, 281, 122, 312
-0.997526, 75, 185, 90, 216
-0.997526, 127, 281, 142, 312
-0.997532, 67, 145, 82, 176
-0.997533, 129, 105, 256, 136
-0.997535, 121, 309, 136, 340
-0.997538, 225, 393, 352, 424
-0.997539, 61, 337, 76, 368
-0.99754, 113, 173, 128, 204
-0.997544, 127, 293, 142, 324
-0.997551, 129, 61, 256, 92
-0.997551, 97, 185, 112, 216
-0.997562, 93, 97, 124, 352
-0.997568, 225, 121, 352, 152
-0.9976, 37, 97, 68, 224
-0.997677, 241, 413, 368, 444
-0.997694, 1, 101, 128, 132
-0.997704, 241, 433, 368, 464
-0.997727, 69, 33, 100, 288
-0.997729, 1, 421, 128, 452
-0.997787, 45, 193, 76, 448
-0.997797, 317, 241, 348, 368
-0.997803, 161, 189, 288, 220
-0.997813, 1, 125, 128, 156
-0.997824, 169, 129, 200, 384
-0.997837, 129, 41, 256, 72
-0.997901, 281, 161, 312, 288
-0.997907, 1, 9, 375, 72
-0.997921, 305, 241, 336, 368
-0.997939, 129, 29, 256, 60
-0.997972, 209, 273, 336, 304
-0.998004, 213, 289, 244, 416
-0.998045, 9, 129, 72, 384
-0.998045, 225, 149, 352, 180
-0.998058, 177, 41, 304, 104
-0.998063, 145, 73, 272, 104
-0.998063, 145, 293, 272, 324
-0.99807, 129, 1, 256, 32
-0.998087, 225, 465, 352, 496
-0.998096, 225, 133, 352, 164
-0.998098, 193, 65, 224, 192
-0.99813, 145, 33, 176, 288
-0.998141, 161, 177, 288, 208
-0.998162, 129, 17, 256, 48
-0.998166, 1, 85, 128, 116
-0.998177, 233, 65, 264, 192
-0.998199, 193, 437, 320, 468
-0.998231, 1, 57, 375, 120
-0.998262, 161, 165, 288, 196
-0.99827, 57, 129, 88, 384
-0.998339, 113, 215, 176, 230
-0.998345, 81, 65, 112, 320
-0.998371, 129, 207, 192, 222
-0.998372, 145, 469, 272, 500
-0.998375, 193, 17, 320, 144
-0.998386, 105, 231, 168, 246
-0.998387, 105, 225, 168, 240
-0.998388, 225, 165, 352, 196
-0.998389, 105, 279, 168, 294
-0.998393, 113, 167, 176, 182
-0.998394, 105, 247, 168, 262
-0.998405, 129, 239, 192, 254
-0.998406, 105, 289, 168, 304
-0.998409, 89, 209, 152, 224
-0.998409, 241, 253, 368, 284
-0.99841, 89, 161, 152, 176
-0.998414, 129, 401, 192, 416
-0.998417, 113, 199, 176, 214
-0.998419, 129, 423, 192, 438
-0.99842, 129, 231, 192, 246
-0.998425, 157, 129, 188, 384
-0.998425, 129, 175, 192, 190
-0.998426, 105, 271, 168, 286
-0.998427, 105, 153, 168, 168
-0.99843, 129, 187, 192, 202
-0.99843, 129, 247, 192, 262
-0.998433, 57, 151, 120, 166
-0.998438, 129, 417, 192, 432
-0.998438, 129, 445, 192, 460
-0.998441, 89, 193, 152, 208
-0.998441, 73, 361, 136, 376
-0.998441, 113, 161, 176, 176
-0.998442, 89, 171, 152, 186
-0.998446, 129, 411, 192, 426
-0.998449, 253, 289, 284, 416
-0.998451, 305, 49, 336, 176
-0.998452, 105, 239, 168, 254
-0.998452, 121, 193, 184, 208
-0.998455, 241, 289, 368, 320
-0.998459, 225, 349, 352, 380
-0.998461, 89, 203, 152, 218
-0.998462, 89, 177, 152, 192
-0.998463, 129, 225, 192, 240
-0.998463, 129, 283, 192, 298
-0.998466, 89, 311, 152, 326
-0.998467, 89, 265, 152, 280
-0.99847, 225, 381, 352, 412
-0.99847, 129, 273, 192, 288
-0.998473, 89, 253, 152, 268
-0.998473, 73, 215, 136, 230
-0.998474, 89, 341, 152, 356
-0.998475, 73, 335, 136, 350
-0.998478, 121, 295, 184, 310
-0.99848, 65, 167, 128, 182
-0.998483, 105, 185, 168, 200
-0.998485, 81, 235, 144, 250
-0.998485, 129, 431, 192, 446
-0.998487, 129, 395, 192, 410
-0.998488, 89, 295, 152, 310
-0.998491, 129, 451, 192, 466
-0.998495, 137, 151, 168, 166
-0.998495, 121, 163, 152, 178
-0.998495, 73, 273, 104, 288
-0.998495, 101, 201, 132, 216
-0.998496, 137, 265, 168, 280
-0.998497, 89, 325, 152, 340
-0.998499, 129, 155, 192, 170
-0.998499, 73, 197, 104, 212
-0.998499, 133, 243, 164, 258
-0.998499, 121, 359, 152, 374
-0.9985, 81, 179, 112, 194
-0.998502, 73, 187, 104, 202
-0.998502, 49, 367, 112, 382
-0.998502, 89, 201, 120, 216
-0.998502, 73, 151, 104, 166
-0.998504, 65, 171, 96, 186
-0.998505, 57, 177, 120, 192
-0.998505, 137, 277, 168, 292
-0.998505, 121, 263, 184, 278
-0.998506, 77, 287, 108, 302
-0.998506, 105, 273, 136, 288
-0.998506, 73, 247, 136, 262
-0.998507, 81, 223, 144, 238
-0.998507, 65, 329, 96, 344
-0.998508, 89, 173, 120, 188
-0.998508, 153, 429, 184, 444
-0.998509, 89, 323, 120, 338
-0.998509, 73, 165, 104, 180
-0.998509, 109, 227, 140, 242
-0.99851, 97, 157, 128, 172
-0.99851, 61, 301, 92, 316
-0.998513, 241, 321, 368, 384
-0.998513, 89, 311, 120, 326
-0.998513, 81, 151, 144, 166
-0.998516, 89, 263, 120, 278
-0.998516, 57, 317, 120, 332
-0.998517, 89, 273, 120, 288
-0.998517, 97, 305, 128, 320
-0.998517, 57, 343, 120, 358
-0.998519, 121, 257, 184, 272
-0.998519, 149, 179, 180, 194
-0.998519, 149, 193, 180, 208
-0.998522, 89, 257, 120, 272
-0.998522, 125, 189, 156, 204
-0.998522, 73, 231, 104, 246
-0.998522, 129, 289, 160, 304
-0.998523, 101, 179, 132, 194
-0.998523, 61, 241, 92, 256
-0.998523, 125, 223, 156, 238
-0.998523, 65, 315, 96, 330
-0.998525, 89, 319, 152, 334
-0.998526, 89, 305, 152, 320
-0.998527, 49, 209, 112, 224
-0.998528, 49, 445, 80, 460
-0.998528, 113, 301, 176, 316
-0.998528, 69, 279, 100, 294
-0.998528, 57, 183, 120, 198
-0.998528, 65, 157, 128, 172
-0.998529, 105, 151, 136, 166
-0.998529, 69, 295, 100, 310
-0.998529, 89, 247, 120, 262
-0.99853, 89, 353, 152, 368
-0.99853, 85, 157, 116, 172
-0.99853, 93, 363, 124, 378
-0.998532, 109, 357, 140, 372
-0.998532, 149, 237, 180, 252
-0.998533, 121, 243, 152, 258
-0.998533, 57, 323, 120, 338
-0.998534, 149, 287, 180, 302
-0.998535, 89, 241, 120, 256
-0.998535, 65, 285, 128, 300
-0.998536, 109, 291, 140, 306
-0.998536, 61, 365, 92, 380
-0.998536, 137, 235, 168, 250
-0.998538, 109, 311, 140, 326
-0.998538, 133, 167, 164, 182
-0.998539, 149, 261, 180, 276
-0.998539, 89, 341, 120, 356
-0.998539, 77, 319, 108, 334
-0.99854, 33, 295, 96, 310
-0.998541, 101, 215, 132, 230
-0.998541, 149, 279, 180, 294
-0.998542, 77, 95, 108, 110
-0.998542, 149, 243, 180, 258
-0.998543, 137, 229, 168, 244
-0.998543, 149, 225, 180, 240
-0.998543, 73, 225, 104, 240
-0.998544, 73, 229, 136, 244
-0.998545, 61, 351, 92, 366
-0.998546, 105, 267, 136, 282
-0.998546, 89, 367, 152, 382
-0.998547, 105, 243, 136, 258
-0.998547, 73, 217, 104, 232
-0.998547, 121, 261, 152, 276
-0.998547, 109, 299, 140, 314
-0.998547, 149, 273, 180, 288
-0.998548, 25, 281, 88, 296
-0.998549, 89, 281, 120, 296
-0.99855, 81, 241, 144, 256
-0.998551, 153, 451, 216, 466
-0.998551, 89, 167, 120, 182
-0.998552, 65, 329, 128, 344
-0.998552, 89, 351, 120, 366
-0.998552, 57, 199, 120, 214
-0.998553, 77, 343, 108, 358
-0.998553, 153, 159, 216, 174
-0.998553, 121, 183, 152, 198
-0.998554, 109, 319, 140, 334
-0.998555, 25, 441, 88, 456
-0.998557, 61, 289, 92, 304
-0.998557, 297, 161, 360, 416
-0.998557, 129, 289, 192, 304
-0.998558, 121, 277, 152, 292
-0.99856, 89, 347, 152, 362
-0.99856, 97, 299, 128, 314
-0.998561, 153, 419, 216, 434
-0.998563, 57, 253, 120, 268
-0.998564, 153, 399, 216, 414
-0.998565, 97, 361, 160, 376
-0.998565, 117, 203, 148, 218
-0.998565, 25, 275, 88, 290
-0.998566, 57, 291, 120, 306
-0.998566, 33, 439, 64, 454
-0.998566, 65, 267, 128, 282
-0.998566, 25, 433, 88, 448
-0.998567, 129, 437, 192, 452
-0.998567, 153, 249, 184, 264
-0.998568, 81, 183, 144, 198
-0.998569, 149, 211, 180, 226
-0.998569, 145, 253, 208, 268
-0.998569, 65, 349, 128, 364
-0.998569, 133, 253, 164, 268
-0.998569, 61, 151, 92, 166
-0.99857, 9, 375, 72, 390
-0.99857, 57, 145, 120, 160
-0.998571, 145, 169, 208, 184
-0.998571, 81, 275, 144, 290
-0.998571, 49, 193, 112, 208
-0.998572, 133, 183, 164, 198
-0.998572, 89, 217, 120, 232
-0.998572, 89, 225, 120, 240
-0.998572, 193, 237, 320, 268
-0.998573, 193, 301, 320, 332
-0.998574, 33, 257, 64, 500
-0.998574, 49, 215, 112, 230
-0.998574, 65, 299, 128, 314
-0.998575, 101, 169, 132, 184
-0.998576, 153, 149, 216, 164
-0.998577, 9, 381, 72, 396
-0.998577, 9, 387, 72, 402
-0.998577, 145, 115, 208, 130
-0.998581, 97, 259, 160, 274
-0.998582, 153, 429, 216, 444
-0.998583, 121, 307, 184, 322
-0.998583, 225, 181, 352, 212
-0.998583, 105, 235, 136, 250
-0.998584, 57, 95, 120, 110
-0.998585, 153, 409, 216, 424
-0.998585, 9, 369, 72, 384
-0.998585, 73, 259, 136, 274
-0.998585, 149, 167, 180, 182
-0.998587, 121, 361, 184, 376
-0.998588, 113, 461, 176, 476
-0.998588, 113, 355, 176, 370
-0.998588, 105, 253, 136, 268
-0.998589, 113, 333, 176, 348
-0.99859, 57, 311, 120, 326
-0.998592, 145, 219, 208, 234
-0.998592, 153, 445, 216, 460
-0.998593, 149, 155, 180, 170
-0.998594, 121, 389, 184, 404
-0.998595, 161, 279, 224, 294
-0.998597, 249, 451, 312, 466
-0.998597, 149, 187, 180, 202
-0.998597, 129, 149, 192, 164
-0.998598, 153, 287, 216, 302
-0.998598, 129, 181, 192, 196
-0.998598, 117, 151, 148, 166
-0.998599, 121, 143, 184, 158
-0.9986, 89, 289, 120, 304
-0.9986, 33, 447, 96, 462
-0.9986, 169, 81, 200, 208
-0.998601, 129, 201, 160, 216
-0.998601, 49, 237, 112, 252
-0.998601, 125, 237, 156, 252
-0.998602, 121, 317, 184, 332
-0.998603, 105, 221, 136, 236
-0.998603, 145, 201, 208, 216
-0.998603, 121, 177, 152, 192
-0.998604, 57, 223, 120, 238
-0.998607, 85, 151, 116, 166
-0.998609, 117, 249, 148, 264
-0.998611, 133, 211, 164, 226
-0.998611, 121, 209, 152, 224
-0.998612, 109, 279, 140, 294
-0.998613, 109, 363, 140, 378
-0.998613, 117, 267, 148, 282
-0.998614, 141, 173, 172, 188
-0.998617, 49, 439, 80, 454
-0.998618, 89, 231, 120, 246
-0.998619, 345, 273, 375, 400
-0.998621, 129, 157, 160, 172
-0.998622, 109, 345, 140, 360
-0.998624, 137, 189, 168, 204
-0.998625, 109, 157, 140, 172
-0.998643, 149, 199, 180, 214
-0.998644, 121, 169, 152, 184
-0.998651, 89, 357, 120, 372
-0.998654, 317, 49, 348, 176
-0.998655, 77, 351, 108, 366
-0.998655, 121, 273, 136, 400
-0.998658, 117, 217, 148, 232
-0.998659, 69, 359, 100, 374
-0.998659, 109, 285, 140, 300
-0.99866, 149, 217, 180, 232
-0.998666, 137, 221, 168, 236
-0.998668, 149, 205, 180, 220
-0.998668, 129, 283, 160, 298
-0.998674, 109, 351, 140, 366
-0.998681, 149, 231, 180, 246
-0.998684, 17, 193, 48, 320
-0.998693, 121, 231, 152, 246
-0.998695, 241, 225, 368, 256
-0.998727, 241, 241, 368, 272
-0.998734, 193, 249, 320, 280
-0.998739, 153, 129, 168, 256
-0.998742, 53, 289, 68, 416
-0.998748, 131, 257, 146, 384
-0.99875, 141, 145, 156, 272
-0.998757, 163, 209, 178, 336
-0.998784, 73, 81, 88, 208
-0.998786, 225, 365, 352, 396
-0.998793, 163, 161, 178, 288
-0.99881, 249, 129, 280, 384
-0.998816, 139, 225, 154, 352
-0.998846, 69, 129, 84, 256
-0.998863, 91, 97, 106, 224
-0.998865, 91, 145, 106, 272
-0.998869, 145, 337, 272, 368
-0.998884, 225, 213, 352, 244
-0.998886, 61, 289, 76, 416
-0.998888, 161, 369, 176, 496
-0.998909, 109, 289, 124, 416
-0.998911, 129, 97, 160, 352
-0.998915, 81, 97, 96, 224
-0.998915, 149, 225, 164, 352
-0.998919, 167, 369, 182, 496
-0.998919, 193, 201, 320, 232
-0.998923, 161, 353, 288, 384
-0.99893, 293, 49, 324, 176
-0.998959, 89, 273, 104, 400
-0.998964, 5, 225, 36, 480
-0.998969, 47, 289, 62, 416
-0.99897, 75, 145, 90, 272
-0.998973, 225, 129, 256, 384
-0.998974, 61, 241, 76, 368
-0.998974, 181, 65, 212, 192
-0.998976, 83, 161, 98, 288
-0.99898, 67, 225, 82, 352
-0.998996, 1, 33, 128, 64
-0.99901, 67, 273, 82, 400
-0.999018, 115, 145, 130, 272
-0.99902, 79, 305, 94, 432
-0.999021, 133, 209, 148, 336
-0.999021, 185, 193, 216, 320
-0.999025, 155, 225, 170, 352
-0.999028, 173, 369, 188, 496
-0.999034, 225, 25, 352, 88
-0.999038, 237, 65, 268, 320
-0.999039, 119, 209, 134, 336
-0.999047, 157, 273, 172, 400
-0.999049, 99, 129, 114, 256
-0.999049, 97, 289, 112, 416
-0.999059, 123, 321, 138, 448
-0.999061, 81, 257, 96, 384
-0.999061, 145, 273, 160, 400
-0.999063, 193, 225, 320, 256
-0.999068, 177, 117, 304, 148
-0.999074, 127, 129, 142, 256
-0.999076, 53, 33, 84, 288
-0.999082, 87, 321, 102, 448
-0.999094, 149, 1, 164, 128
-0.999095, 67, 337, 82, 464
-0.999105, 209, 65, 240, 192
-0.999106, 53, 337, 68, 464
-0.999108, 163, 273, 178, 400
-0.999123, 281, 97, 312, 352
-0.999131, 151, 81, 166, 208
-0.999138, 91, 225, 106, 352
-0.999142, 105, 225, 120, 352
-0.999142, 75, 193, 90, 320
-0.999145, 51, 241, 66, 368
-0.999149, 63, 113, 78, 240
-0.999164, 59, 337, 74, 464
-0.999169, 73, 241, 88, 368
-0.999171, 23, 369, 38, 496
-0.999178, 73, 289, 88, 416
-0.999183, 127, 193, 142, 320
-0.999184, 21, 257, 52, 500
-0.999185, 183, 369, 198, 496
-0.999189, 151, 273, 166, 400
-0.999192, 31, 353, 46, 480
-0.9992, 39, 353, 54, 480
-0.9992, 113, 209, 128, 336
-0.999208, 43, 241, 58, 368
-0.999214, 333, 145, 364, 272
-0.999219, 273, 257, 304, 500
-0.999219, 169, 241, 184, 368
-0.999225, 45, 353, 60, 480
-0.999229, 83, 209, 98, 336
-0.99923, 115, 273, 130, 400
-0.999231, 139, 273, 154, 400
-0.999233, 37, 289, 52, 416
-0.999237, 161, 81, 176, 208
-0.999245, 97, 193, 112, 320
-0.999255, 105, 129, 120, 256
-0.999271, 193, 353, 208, 480
-0.999273, 73, 337, 88, 464
-0.999275, 261, 33, 292, 288
-0.999283, 157, 33, 188, 288
-0.999284, 17, 353, 32, 480
-0.999306, 37, 241, 52, 368
-0.999308, 155, 369, 170, 496
-0.999318, 115, 337, 130, 464
-0.999321, 67, 177, 82, 304
-0.999326, 173, 193, 188, 320
-0.999328, 217, 241, 232, 368
-0.999331, 135, 161, 150, 288
-0.999333, 147, 177, 162, 304
-0.99935, 103, 273, 118, 400
-0.999353, 67, 65, 82, 192
-0.999355, 279, 353, 294, 480
-0.999383, 29, 273, 44, 400
-0.999386, 97, 81, 112, 208
-0.999399, 9, 369, 24, 496
-0.999399, 73, 33, 88, 160
-0.9994, 81, 353, 96, 480
-0.999401, 305, 257, 336, 500
-0.999405, 61, 193, 76, 320
-0.999419, 163, 321, 178, 448
-0.99942, 271, 353, 286, 480
-0.999426, 317, 369, 332, 496
-0.999429, 121, 161, 136, 288
-0.999433, 25, 321, 40, 448
-0.99944, 261, 257, 292, 500
-0.999446, 133, 1, 164, 256
-0.999448, 125, 369, 140, 496
-0.999455, 131, 305, 146, 432
-0.999456, 99, 337, 114, 464
-0.999471, 305, 369, 320, 496
-0.999473, 133, 369, 148, 496
-0.99948, 223, 209, 238, 336
-0.999482, 251, 241, 266, 368
-0.999488, 105, 177, 120, 304
-0.999489, 237, 193, 268, 448
-0.999489, 159, 33, 174, 160
-0.99949, 259, 241, 274, 368
-0.999497, 97, 241, 112, 368
-0.999497, 139, 97, 154, 224
-0.999505, 177, 321, 192, 448
-0.999509, 1, 337, 16, 464
-0.999509, 167, 113, 182, 240
-0.999511, 157, 177, 172, 304
-0.999514, 311, 369, 326, 496
-0.999515, 209, 241, 224, 368
-0.999525, 157, 321, 172, 448
-0.999532, 213, 129, 244, 384
-0.999533, 343, 369, 358, 496
-0.999539, 217, 289, 232, 416
-0.999547, 79, 49, 94, 176
-0.999551, 57, 129, 72, 256
-0.999552, 285, 369, 300, 496
-0.999556, 199, 369, 214, 496
-0.999558, 299, 369, 314, 496
-0.999561, 305, 161, 336, 416
-0.999564, 265, 241, 280, 368
-0.999567, 273, 289, 288, 416
-0.999575, 279, 289, 294, 416
-0.999578, 239, 209, 254, 336
-0.999591, 227, 257, 242, 384
-0.999592, 9, 321, 24, 448
-0.999594, 245, 241, 260, 368
-0.999595, 337, 369, 352, 496
-0.999596, 217, 193, 232, 320
-0.999599, 19, 305, 34, 432
-0.999636, 181, 129, 212, 384
-0.999641, 197, 129, 228, 384
-0.999659, 317, 257, 348, 500
-0.999661, 293, 193, 324, 448
-0.999684, 85, 239, 100, 254
-0.999685, 93, 309, 108, 324
-0.999685, 75, 295, 90, 310
-0.999685, 53, 441, 68, 456
-0.999685, 141, 267, 156, 282
-0.999686, 149, 151, 164, 166
-0.999686, 109, 243, 124, 258
-0.999686, 157, 425, 172, 440
-0.999686, 163, 147, 178, 162
-0.999687, 77, 235, 92, 250
-0.999687, 131, 261, 146, 276
-0.999687, 127, 269, 142, 284
-0.999687, 101, 269, 116, 284
-0.999687, 101, 283, 116, 298
-0.999687, 69, 171, 84, 186
-0.999687, 93, 341, 108, 356
-0.999688, 99, 361, 114, 376
-0.999688, 161, 181, 176, 196
-0.999688, 83, 249, 98, 264
-0.999688, 137, 211, 152, 226
-0.999689, 115, 349, 130, 364
-0.999689, 173, 429, 188, 444
-0.99969, 163, 217, 178, 232
-0.999691, 139, 159, 154, 174
-0.999691, 83, 311, 98, 326
-0.999691, 85, 281, 100, 296
-0.999692, 83, 227, 98, 242
-0.999693, 121, 217, 136, 232
-0.999693, 77, 265, 92, 280
-0.999694, 117, 307, 132, 322
-0.999695, 115, 299, 130, 314
-0.999695, 175, 451, 190, 466
-0.999695, 93, 297, 108, 312
-0.999695, 127, 189, 142, 204
-0.999697, 173, 441, 188, 456
-0.999698, 163, 405, 178, 420
-0.999698, 153, 205, 168, 220
-0.999698, 91, 183, 106, 198
-0.999698, 125, 353, 140, 368
-0.999698, 85, 205, 100, 220
-0.999698, 163, 411, 178, 426
-0.999698, 129, 151, 144, 166
-0.999698, 85, 325, 100, 340
-0.999699, 157, 153, 172, 168
-0.999699, 149, 165, 164, 180
-0.9997, 69, 263, 84, 278
-0.999701, 117, 231, 132, 246
-0.999702, 129, 197, 144, 212
-0.999702, 155, 283, 170, 298
-0.999702, 101, 347, 116, 362
-0.999703, 87, 331, 102, 346
-0.999703, 81, 173, 96, 188
-0.999703, 81, 187, 96, 202
-0.999704, 163, 423, 178, 438
-0.999705, 125, 359, 140, 374
-0.999705, 163, 211, 178, 226
-0.999705, 163, 417, 178, 432
-0.999706, 71, 269, 86, 284
-0.999707, 77, 347, 92, 362
-0.999707, 99, 219, 114, 234
-0.999708, 83, 297, 98, 312
-0.999708, 67, 249, 82, 264
-0.999708, 115, 155, 130, 170
-0.999712, 151, 197, 166, 212
-0.999712, 269, 161, 300, 416
-0.999712, 77, 247, 92, 262
-0.999713, 153, 227, 168, 242
-0.999713, 131, 227, 146, 242
-0.999714, 107, 359, 122, 374
-0.999715, 113, 173, 128, 188
-0.999716, 101, 237, 116, 252
-0.999716, 111, 275, 126, 290
-0.999716, 141, 237, 156, 252
-0.999716, 127, 205, 142, 220
-0.999718, 153, 175, 168, 190
-0.999718, 157, 195, 172, 210
-0.999718, 123, 165, 138, 180
-0.999718, 67, 281, 82, 296
-0.999719, 139, 275, 154, 290
-0.999719, 89, 221, 104, 236
-0.99972, 159, 445, 174, 460
-0.99972, 141, 221, 156, 236
-0.99972, 137, 281, 152, 296
-0.999721, 157, 165, 172, 180
-0.999721, 117, 243, 132, 258
-0.999721, 75, 281, 90, 296
-0.999721, 119, 337, 134, 352
-0.999721, 167, 443, 182, 458
-0.999722, 137, 181, 152, 196
-0.999722, 91, 231, 106, 246
-0.999722, 125, 259, 140, 274
-0.999722, 309, 65, 340, 320
-0.999725, 115, 363, 130, 378
-0.999725, 83, 233, 98, 248
-0.999726, 113, 221, 128, 236
-0.999727, 127, 237, 142, 252
-0.999727, 63, 151, 78, 166
-0.999727, 137, 243, 152, 258
-0.999728, 93, 351, 108, 366
-0.999729, 129, 165, 144, 180
-0.99973, 117, 211, 132, 226
-0.99973, 123, 151, 138, 166
-0.99973, 153, 159, 168, 174
-0.999732, 113, 267, 128, 282
-0.999734, 127, 253, 142, 268
-0.999734, 143, 181, 158, 196
-0.999735, 117, 275, 132, 290
-0.999736, 125, 157, 140, 172
-0.999738, 139, 205, 154, 220
-0.999738, 91, 215, 106, 230
-0.999739, 163, 399, 178, 414
-0.999739, 91, 203, 106, 218
-0.999741, 69, 233, 84, 248
-0.999741, 139, 173, 154, 188
-0.999743, 81, 217, 96, 232
-0.999743, 93, 329, 108, 344
-0.999743, 91, 361, 106, 376
-0.999747, 249, 257, 280, 500
-0.999748, 153, 297, 168, 312
-0.999748, 153, 221, 168, 236
-0.999749, 83, 343, 98, 358
-0.999751, 123, 227, 138, 242
-0.999753, 71, 355, 86, 370
-0.999757, 127, 283, 142, 298
-0.999759, 153, 189, 168, 204
-0.999759, 163, 429, 178, 444
-0.999763, 127, 221, 142, 236
-0.999763, 173, 435, 188, 450
-0.99977, 85, 357, 100, 372
-0.99977, 77, 359, 92, 374
-0.999773, 63, 439, 78, 454
-0.99978, 345, 65, 375, 320
-0.999783, 155, 291, 170, 306
-0.999789, 113, 237, 128, 252
-0.999795, 213, 33, 244, 288
-0.999797, 345, 257, 375, 500
-0.999807, 105, 97, 136, 352
-0.999849, 293, 97, 324, 352
-0.99994, 289, 1, 320, 256
-0.999963, 249, 33, 280, 288
-1, 193, 33, 224, 288
-1.00002, 173, 33, 204, 288
-1.00002, 333, 257, 364, 500
-1.00003, 225, 33, 256, 288
-1.00005, 17, 129, 48, 384
-1.00006, 321, 1, 352, 256
-1.00006, 333, 1, 364, 256
-1.00009, 181, 257, 212, 500
-1.00023, 41, 97, 72, 352
-1.00023, 93, 1, 124, 256
-1.00023, 225, 257, 256, 500
-1.0003, 201, 225, 232, 480
-1.00033, 29, 129, 60, 384
-1.00035, 273, 1, 304, 256
-1.00037, 1, 97, 32, 352
-1.00041, 213, 225, 244, 480
-1.00044, 337, 161, 368, 416
-1.00046, 325, 161, 356, 416
-1.00087, 117, 1, 148, 256
-1.00104, 1, 1, 32, 256
-1.00108, 13, 33, 44, 288
-1.00118, 29, 33, 60, 288
-1.00136, 105, 1, 136, 256
-1.00158, 41, 1, 72, 256
-1.00166, 241, 297, 368, 360
-1.00167, 177, 17, 304, 80
-1.0019, 241, 1, 368, 64
-1.00266, 193, 225, 256, 480
-1.00297, 249, 17, 312, 144
-1.00399, 217, 17, 280, 144
-1.0045, 193, 17, 256, 144
-1.00495, 241, 1, 368, 128
-1.00512, 273, 1, 336, 128
-1.00571, 9, 33, 72, 288
-1.00665, 305, 1, 368, 128
-1.00769, 1, 49, 64, 176
-1.00773, 169, 1, 232, 128
-1.01177, 89, 1, 152, 128
-1.01425, 1, 1, 64, 128
