2057
-0.366661, 1, 129, 439, 384
-0.370768, 1, 1, 439, 500
-0.444953, 1, 33, 439, 288
-0.446624, 1, 225, 439, 480
-0.452259, 97, 65, 352, 320
-0.464388, 1, 1, 256, 500
-0.480697, 97, 1, 352, 500
-0.484285, 1, 65, 256, 320
-0.543853, 129, 225, 384, 480
-0.58481, 193, 1, 439, 500
-0.645792, 33, 161, 288, 416
-0.649283, 193, 97, 439, 352
-0.75167, 33, 257, 288, 500
-0.783889, 193, 1, 439, 256
-0.829264, 177, 97, 304, 352
-0.834293, 97, 65, 224, 320
-0.842847, 113, 1, 240, 500
-0.848501, 145, 193, 272, 448
-0.85375, 193, 193, 320, 448
-0.858585, 65, 1, 192, 500
-0.859583, 161, 1, 288, 500
-0.860482, 225, 65, 352, 320
-0.866528, 1, 1, 128, 500
-0.867226, 49, 129, 176, 384
-0.870747, 145, 1, 272, 256
-0.873966, 1, 49, 439, 176
-0.87563, 1, 65, 128, 320
-0.875893, 209, 1, 336, 500
-0.875991, 257, 193, 384, 448
-0.878285, 1, 97, 439, 224
-0.880032, 97, 161, 224, 416
-0.881044, 1, 145, 439, 272
-0.884965, 257, 1, 384, 500
-0.888686, 97, 177, 352, 304
-0.88983, 1, 209, 439, 336
-0.889933, 97, 113, 352, 240
-0.893296, 97, 257, 224, 500
-0.893976, 1, 257, 439, 384
-0.897209, 49, 1, 176, 256
-0.900421, 129, 225, 384, 352
-0.901443, 1, 161, 128, 416
-0.901971, 305, 1, 432, 500
-0.904906, 273, 65, 400, 320
-0.905045, 1, 161, 256, 288
-0.907534, 33, 65, 288, 192
-0.907635, 1, 113, 256, 240
-0.916223, 169, 161, 232, 288
-0.919128, 113, 161, 240, 288
-0.919606, 153, 225, 216, 352
-0.920136, 113, 81, 240, 208
-0.920277, 129, 337, 384, 464
-0.920445, 161, 65, 416, 192
-0.920594, 1, 337, 439, 464
-0.921539, 161, 273, 416, 400
-0.92199, 177, 113, 304, 240
-0.922065, 209, 129, 272, 256
-0.922158, 305, 257, 432, 500
-0.922625, 65, 145, 192, 272
-0.923445, 193, 225, 256, 352
-0.923779, 137, 145, 200, 272
-0.924185, 113, 129, 176, 256
-0.924993, 193, 113, 439, 240
-0.925881, 145, 209, 272, 336
-0.926679, 169, 97, 232, 224
-0.927131, 81, 129, 144, 256
-0.927679, 137, 65, 200, 192
-0.928328, 1, 209, 256, 336
-0.928485, 161, 161, 288, 288
-0.930364, 1, 1, 439, 128
-0.932851, 241, 193, 304, 320
-0.933468, 305, 161, 432, 416
-0.933934, 209, 177, 336, 304
-0.934194, 49, 193, 176, 320
-0.93464, 273, 305, 400, 432
-0.935952, 65, 97, 192, 224
-0.936998, 113, 33, 240, 160
-0.937069, 193, 81, 256, 208
-0.937396, 1, 1, 256, 128
-0.937626, 129, 193, 192, 320
-0.937999, 1, 113, 128, 240
-0.938928, 129, 137, 192, 200
-0.939462, 113, 49, 176, 176
-0.940004, 33, 257, 288, 384
-0.940169, 49, 225, 176, 480
-0.940216, 209, 177, 272, 304
-0.942378, 161, 49, 224, 176
-0.942531, 193, 241, 320, 368
-0.942925, 97, 17, 352, 144
-0.942961, 193, 161, 439, 288
-0.943491, 129, 241, 192, 368
-0.943667, 193, 233, 256, 296
-0.943942, 177, 113, 240, 176
-0.944116, 137, 17, 200, 144
-0.944194, 137, 233, 200, 296
-0.944502, 1, 161, 128, 288
-0.94474, 153, 129, 216, 192
-0.944753, 105, 177, 168, 304
-0.945161, 265, 193, 328, 320
-0.945285, 337, 289, 400, 416
-0.945363, 49, 49, 176, 176
-0.945658, 121, 57, 184, 120
-0.945788, 161, 81, 224, 144
-0.945819, 169, 289, 232, 416
-0.945891, 73, 81, 136, 208
-0.946752, 105, 161, 168, 224
-0.946932, 81, 177, 144, 240
-0.947023, 113, 289, 240, 416
-0.94769, 249, 145, 312, 272
-0.947818, 313, 321, 376, 448
-0.947854, 177, 209, 240, 272
-0.947884, 137, 89, 200, 152
-0.94796, 273, 241, 336, 368
-0.948161, 33, 113, 96, 240
-0.948168, 241, 257, 368, 384
-0.948398, 97, 241, 224, 368
-0.948429, 137, 33, 200, 96
-0.948506, 225, 129, 352, 256
-0.948686, 33, 305, 288, 432
-0.948833, 81, 129, 144, 192
-0.949721, 217, 201, 280, 264
-0.949836, 313, 273, 376, 400
-0.950153, 241, 209, 304, 272
-0.951088, 161, 249, 224, 312
-0.951133, 193, 273, 256, 400
-0.951258, 161, 65, 288, 192
-0.951563, 209, 145, 272, 208
-0.951606, 225, 81, 288, 208
-0.952284, 185, 169, 248, 232
-0.952579, 81, 177, 144, 304
-0.952688, 217, 105, 280, 168
-0.95272, 249, 233, 312, 296
-0.952784, 129, 201, 192, 264
-0.953152, 153, 201, 216, 264
-0.953408, 145, 169, 208, 232
-0.954156, 185, 81, 248, 144
-0.954276, 337, 313, 400, 376
-0.954566, 161, 273, 224, 336
-0.954916, 217, 225, 280, 352
-0.9552, 129, 113, 192, 176
-0.955374, 161, 289, 288, 416
-0.955474, 57, 145, 120, 272
-0.955656, 161, 337, 224, 464
-0.955674, 153, 57, 216, 120
-0.955818, 273, 209, 336, 272
-0.955944, 193, 353, 320, 480
-0.956264, 169, 313, 232, 376
-0.956405, 353, 49, 416, 176
-0.956537, 105, 129, 168, 192
-0.956597, 105, 185, 168, 248
-0.95662, 225, 81, 352, 208
-0.956822, 1, 65, 128, 192
-0.957088, 41, 65, 104, 192
-0.957401, 225, 177, 288, 240
-0.957555, 65, 153, 128, 216
-0.957722, 249, 177, 312, 240
-0.958121, 225, 233, 288, 296
-0.958591, 153, 161, 216, 416
-0.958712, 289, 193, 352, 320
-0.959468, 289, 161, 416, 288
-0.959732, 241, 137, 304, 200
-0.96017, 225, 273, 288, 400
-0.960186, 329, 289, 392, 352
-0.960275, 145, 289, 208, 416
-0.960375, 9, 113, 72, 240
-0.960489, 217, 273, 280, 336
-0.96058, 161, 65, 224, 320
-0.960587, 321, 65, 384, 192
-0.960727, 17, 1, 80, 128
-0.960802, 97, 65, 160, 128
-0.96108, 297, 321, 360, 384
-0.961082, 105, 105, 168, 168
-0.961264, 377, 1, 439, 128
-0.961272, 193, 97, 256, 352
-0.961323, 305, 1, 432, 128
-0.961596, 193, 305, 256, 368
-0.961713, 129, 257, 192, 320
-0.961836, 193, 33, 256, 160
-0.962059, 9, 65, 72, 192
-0.962204, 345, 97, 408, 224
-0.962229, 141, 97, 172, 224
-0.962451, 257, 321, 320, 448
-0.963014, 193, 17, 439, 144
-0.963256, 337, 1, 400, 128
-0.963305, 145, 337, 272, 464
-0.963329, 241, 353, 368, 480
-0.963362, 33, 1, 160, 128
-0.963669, 273, 97, 400, 224
-0.963696, 129, 97, 192, 352
-0.963701, 201, 193, 264, 448
-0.963717, 197, 161, 228, 288
-0.96375, 177, 145, 240, 208
-0.964041, 217, 97, 280, 352
-0.964053, 185, 257, 248, 320
-0.964058, 257, 209, 384, 336
-0.964084, 149, 49, 180, 176
-0.964255, 105, 217, 168, 280
-0.964255, 289, 49, 416, 176
-0.96428, 209, 353, 272, 480
-0.96431, 17, 89, 80, 152
-0.964403, 181, 241, 212, 368
-0.964452, 241, 33, 368, 160
-0.964887, 129, 145, 160, 208
-0.964892, 129, 1, 192, 256
-0.965072, 161, 81, 192, 208
-0.965194, 337, 353, 400, 480
-0.965281, 273, 241, 336, 304
-0.965488, 133, 185, 164, 248
-0.965734, 181, 129, 212, 256
-0.965763, 9, 57, 72, 120
-0.965817, 57, 193, 120, 256
-0.965832, 233, 193, 296, 448
-0.965925, 337, 49, 400, 112
-0.966036, 169, 337, 232, 400
-0.966181, 281, 289, 344, 416
-0.966192, 177, 57, 240, 120
-0.966202, 193, 97, 224, 224
-0.966253, 329, 121, 392, 184
-0.966308, 221, 105, 252, 168
-0.966308, 141, 145, 172, 208
-0.966321, 41, 1, 104, 64
-0.966345, 161, 145, 192, 272
-0.96645, 241, 105, 304, 168
-0.966497, 49, 129, 112, 192
-0.966619, 193, 281, 256, 344
-0.966681, 273, 113, 336, 240
-0.966717, 173, 193, 204, 320
-0.966749, 209, 73, 272, 136
-0.967159, 145, 209, 272, 272
-0.967164, 1, 1, 64, 64
-0.967171, 169, 257, 232, 500
-0.967188, 145, 113, 272, 176
-0.967251, 25, 129, 88, 192
-0.967327, 49, 153, 176, 216
-0.967347, 177, 233, 304, 296
-0.967359, 249, 33, 312, 160
-0.967429, 117, 113, 148, 240
-0.967576, 157, 145, 188, 208
-0.967577, 289, 257, 416, 384
-0.967584, 213, 129, 244, 256
-0.967671, 145, 145, 272, 208
-0.96785, 145, 297, 208, 360
-0.967894, 225, 137, 256, 200
-0.967974, 257, 273, 320, 336
-0.968144, 249, 97, 312, 352
-0.968294, 153, 225, 184, 352
-0.968378, 177, 217, 208, 280
-0.968409, 249, 241, 312, 368
-0.968517, 293, 209, 324, 272
-0.968694, 113, 33, 176, 96
-0.968973, 145, 57, 176, 120
-0.969016, 105, 225, 168, 352
-0.969076, 313, 145, 376, 272
-0.969151, 217, 225, 248, 352
-0.969227, 97, 193, 224, 256
-0.969251, 129, 49, 160, 112
-0.969251, 185, 353, 248, 480
-0.969321, 57, 193, 120, 320
-0.96936, 193, 329, 256, 392
-0.96942, 125, 49, 156, 176
-0.96951, 237, 233, 268, 296
-0.969524, 81, 201, 144, 264
-0.969552, 89, 33, 152, 160
-0.969575, 353, 113, 416, 176
-0.969701, 113, 233, 240, 296
-0.969803, 185, 177, 216, 304
-0.969821, 177, 73, 208, 136
-0.969824, 345, 345, 408, 408
-0.969845, 305, 353, 432, 480
-0.969901, 233, 161, 264, 288
-0.969904, 97, 121, 224, 184
-0.969909, 161, 17, 288, 144
-0.969933, 185, 297, 216, 360
-0.969965, 197, 209, 228, 336
-0.970135, 193, 305, 224, 432
-0.970141, 117, 153, 148, 216
-0.970173, 297, 49, 360, 176
-0.970203, 129, 193, 192, 448
-0.970282, 81, 145, 112, 272
-0.970313, 137, 177, 168, 304
-0.970342, 141, 225, 172, 352
-0.970418, 225, 305, 352, 432
-0.970544, 149, 185, 180, 248
-0.970562, 81, 161, 112, 224
-0.970604, 141, 265, 172, 328
-0.970619, 201, 225, 232, 288
-0.970649, 201, 97, 232, 160
-0.970672, 181, 169, 212, 232
-0.970687, 165, 49, 196, 112
-0.970703, 193, 161, 224, 224
-0.970749, 369, 97, 432, 224
-0.970824, 297, 273, 360, 336
-0.970857, 137, 105, 168, 168
-0.970935, 165, 233, 196, 296
-0.970971, 1, 209, 128, 336
-0.970988, 177, 169, 304, 232
-0.971098, 217, 209, 248, 272
-0.971108, 297, 97, 360, 224
-0.971133, 97, 153, 224, 216
-0.971292, 161, 377, 224, 440
-0.971397, 117, 121, 148, 184
-0.971424, 313, 49, 376, 112
-0.971448, 233, 97, 264, 224
-0.971644, 233, 209, 264, 272
-0.971648, 145, 25, 176, 88
-0.971651, 173, 49, 204, 176
-0.971706, 49, 177, 176, 240
-0.971762, 41, 105, 104, 168
-0.971784, 129, 129, 160, 256
-0.971817, 305, 345, 368, 408
-0.97183, 209, 209, 336, 272
-0.971832, 73, 81, 136, 144
-0.971838, 33, 185, 96, 248
-0.971854, 137, 49, 168, 176
-0.971906, 33, 161, 96, 288
-0.972013, 97, 129, 128, 256
-0.972086, 97, 97, 224, 160
-0.972106, 169, 129, 200, 192
-0.972259, 281, 57, 344, 120
-0.972381, 97, 369, 224, 496
-0.972399, 17, 129, 144, 192
-0.972423, 97, 153, 128, 216
-0.972456, 1, 169, 128, 232
-0.972467, 253, 145, 284, 272
-0.972612, 297, 249, 360, 312
-0.972617, 17, 33, 80, 96
-0.972656, 141, 233, 172, 296
-0.972667, 293, 209, 324, 336
-0.972825, 161, 1, 224, 128
-0.972842, 145, 257, 272, 320
-0.972974, 165, 105, 196, 168
-0.972988, 249, 81, 312, 208
-0.972993, 201, 201, 232, 264
-0.973162, 305, 97, 368, 160
-0.973165, 329, 305, 360, 368
-0.973225, 213, 137, 244, 200
-0.973305, 149, 145, 180, 272
-0.973318, 281, 193, 344, 448
-0.973344, 273, 65, 336, 320
-0.97335, 97, 57, 224, 120
-0.973364, 341, 313, 372, 376
-0.973424, 1, 353, 256, 480
-0.973506, 185, 1, 248, 256
-0.973527, 273, 305, 336, 368
-0.973533, 161, 33, 192, 160
-0.973555, 201, 305, 232, 368
-0.973577, 165, 241, 196, 368
-0.973759, 41, 65, 104, 128
-0.973832, 257, 193, 320, 448
-0.973896, 121, 289, 184, 416
-0.973969, 257, 337, 320, 400
-0.974091, 245, 113, 276, 176
-0.97411, 153, 257, 184, 320
-0.974151, 233, 297, 296, 360
-0.974191, 1, 113, 64, 176
-0.974228, 73, 105, 136, 168
-0.97426, 313, 209, 376, 336
-0.97436, 149, 121, 180, 184
-0.974365, 281, 337, 344, 464
-0.974416, 89, 193, 120, 256
-0.974429, 49, 201, 176, 264
-0.974454, 181, 121, 212, 184
-0.974522, 145, 353, 208, 416
-0.974542, 161, 169, 192, 232
-0.974622, 105, 265, 168, 328
-0.974647, 109, 177, 140, 240
-0.974656, 57, 1, 120, 128
-0.974659, 73, 65, 136, 320
-0.97467, 249, 73, 312, 136
-0.974716, 217, 241, 248, 304
-0.974792, 145, 81, 272, 144
-0.974799, 113, 1, 176, 128
-0.974877, 177, 33, 240, 96
-0.975008, 97, 33, 160, 288
-0.975024, 233, 177, 264, 240
-0.975065, 241, 137, 272, 200
-0.975135, 117, 177, 148, 304
-0.975218, 9, 161, 72, 224
-0.975283, 41, 65, 104, 320
-0.975351, 161, 193, 192, 256
-0.97536, 189, 321, 220, 384
-0.975364, 277, 209, 308, 272
-0.975422, 329, 369, 392, 432
-0.975436, 305, 225, 336, 352
-0.975517, 213, 177, 244, 304
-0.975527, 125, 73, 156, 136
-0.975536, 361, 305, 424, 432
-0.975617, 17, 97, 80, 352
-0.97566, 193, 353, 320, 416
-0.975786, 189, 97, 220, 160
-0.976097, 181, 193, 212, 256
-0.976224, 9, 161, 72, 288
-0.976229, 193, 145, 320, 208
-0.97623, 69, 177, 100, 240
-0.976363, 341, 273, 372, 400
-0.976368, 165, 81, 196, 144
-0.976377, 185, 257, 216, 320
-0.976416, 137, 1, 168, 128
-0.976446, 221, 81, 252, 208
-0.976544, 273, 329, 400, 392
-0.976552, 225, 105, 352, 168
-0.976572, 201, 361, 264, 424
-0.976575, 329, 89, 392, 152
-0.976623, 101, 129, 132, 192
-0.976632, 329, 153, 392, 216
-0.976779, 313, 1, 376, 128
-0.976791, 241, 209, 272, 336
-0.976801, 297, 193, 360, 256
-0.976862, 149, 273, 180, 400
-0.976897, 249, 41, 312, 104
-0.976898, 241, 273, 368, 336
-0.976951, 49, 65, 176, 128
-0.976982, 233, 113, 264, 176
-0.977013, 281, 209, 312, 336
-0.977014, 377, 113, 439, 176
-0.97708, 205, 81, 236, 208
-0.977082, 121, 289, 184, 352
-0.977094, 145, 321, 208, 384
-0.97721, 253, 177, 284, 240
-0.977242, 205, 289, 236, 416
-0.977246, 169, 401, 232, 464
-0.977314, 153, 289, 184, 352
-0.977333, 1, 257, 128, 500
-0.977376, 65, 225, 192, 288
-0.977466, 1, 193, 128, 256
-0.977485, 189, 73, 220, 136
-0.97754, 253, 201, 284, 264
-0.977574, 113, 33, 240, 96
-0.977591, 161, 25, 192, 88
-0.9776, 153, 225, 184, 288
-0.977601, 297, 297, 360, 360
-0.977637, 273, 185, 336, 248
-0.977719, 285, 241, 316, 304
-0.97774, 41, 41, 104, 104
-0.977775, 273, 49, 400, 112
-0.977787, 289, 305, 416, 368
-0.977798, 177, 97, 208, 160
-0.977968, 145, 57, 272, 120
-0.978099, 189, 217, 220, 280
-0.978165, 181, 49, 212, 112
-0.978167, 209, 169, 240, 232
-0.978233, 225, 169, 352, 232
-0.978238, 105, 129, 168, 384
-0.978274, 313, 369, 376, 496
-0.978296, 361, 297, 392, 360
-0.978361, 137, 337, 200, 464
-0.978416, 253, 137, 284, 200
-0.97861, 225, 33, 288, 160
-0.978611, 305, 193, 336, 256
-0.978643, 265, 105, 328, 168
-0.978714, 305, 249, 336, 312
-0.978828, 337, 1, 400, 256
-0.979004, 129, 9, 192, 72
-0.979016, 321, 321, 352, 448
-0.979122, 69, 153, 100, 216
-0.979225, 57, 193, 88, 256
-0.979231, 97, 273, 224, 336
-0.979251, 1, 129, 32, 192
-0.979257, 369, 305, 400, 432
-0.979263, 61, 113, 92, 240
-0.979357, 353, 89, 416, 152
-0.97939, 341, 281, 372, 344
-0.979427, 305, 225, 336, 288
-0.979539, 89, 41, 152, 104
-0.979607, 305, 73, 368, 136
-0.979617, 361, 321, 424, 384
-0.979627, 153, 89, 184, 152
-0.979654, 41, 153, 104, 216
-0.979711, 233, 353, 296, 480
-0.979717, 361, 137, 424, 200
-0.979737, 49, 241, 176, 368
-0.979738, 169, 281, 200, 344
-0.979756, 305, 113, 432, 176
-0.979824, 377, 49, 439, 112
-0.979825, 241, 273, 272, 336
-0.979835, 133, 25, 164, 88
-0.979885, 353, 33, 384, 160
-0.979885, 193, 281, 320, 344
-0.97992, 177, 329, 208, 392
-0.980019, 249, 97, 280, 224
-0.980028, 229, 81, 260, 144
-0.980043, 117, 49, 148, 112
-0.980048, 241, 137, 368, 200
-0.980106, 337, 241, 400, 368
-0.980156, 225, 241, 352, 304
-0.980195, 265, 177, 296, 304
-0.980275, 9, 65, 40, 128
-0.980282, 217, 321, 280, 384
-0.98042, 9, 209, 72, 336
-0.980455, 141, 209, 172, 272
-0.980475, 181, 289, 212, 416
-0.980516, 225, 265, 256, 328
-0.980642, 293, 289, 324, 416
-0.980648, 229, 209, 260, 336
-0.980652, 265, 217, 296, 280
-0.980661, 165, 289, 196, 416
-0.980668, 241, 305, 368, 368
-0.980679, 289, 273, 320, 336
-0.980701, 117, 97, 148, 160
-0.98073, 241, 81, 368, 144
-0.980733, 13, 153, 44, 216
-0.980737, 77, 129, 108, 192
-0.980759, 273, 49, 336, 176
-0.980765, 193, 73, 320, 136
-0.980783, 353, 81, 384, 208
-0.980799, 1, 89, 128, 152
-0.980801, 201, 1, 264, 500
-0.98083, 121, 177, 152, 240
-0.98084, 289, 353, 416, 416
-0.980846, 85, 97, 116, 224
-0.980919, 313, 257, 376, 500
-0.980924, 253, 193, 284, 320
-0.980937, 209, 1, 272, 256
-0.980948, 181, 145, 212, 208
-0.980958, 357, 289, 388, 416
-0.981014, 145, 1, 208, 500
-0.981022, 201, 49, 264, 112
-0.981035, 309, 281, 340, 344
-0.981095, 305, 121, 368, 184
-0.981097, 249, 89, 280, 152
-0.981116, 225, 273, 256, 400
-0.981174, 65, 25, 192, 88
-0.981265, 265, 137, 296, 200
-0.981285, 89, 129, 120, 192
-0.981346, 281, 257, 312, 384
-0.981406, 9, 97, 40, 160
-0.981409, 149, 1, 180, 128
-0.981463, 325, 329, 356, 392
-0.981491, 161, 33, 288, 96
-0.981564, 189, 345, 220, 408
-0.981564, 65, 57, 128, 120
-0.981579, 1, 1, 128, 64
-0.981583, 73, 97, 104, 224
-0.981594, 49, 97, 176, 160
-0.981599, 265, 145, 328, 208
-0.981616, 69, 161, 100, 288
-0.981644, 237, 273, 268, 400
-0.98165, 325, 257, 356, 384
-0.981677, 273, 361, 336, 424
-0.981677, 213, 73, 244, 136
-0.981698, 341, 81, 372, 208
-0.981757, 161, 305, 288, 368
-0.981808, 197, 281, 228, 344
-0.981813, 201, 329, 232, 392
-0.981826, 353, 393, 416, 456
-0.981866, 169, 337, 200, 464
-0.981873, 145, 369, 272, 432
-0.981932, 297, 217, 360, 280
-0.981976, 125, 209, 156, 272
-0.981979, 221, 161, 252, 224
-0.981993, 97, 81, 128, 208
-0.981998, 185, 49, 216, 176
-0.982081, 225, 49, 288, 112
-0.982081, 305, 169, 368, 232
-0.982149, 361, 297, 424, 360
-0.982181, 13, 129, 44, 192
-0.982304, 305, 273, 336, 400
-0.982331, 293, 161, 324, 288
-0.982366, 341, 49, 372, 112
-0.982376, 113, 49, 144, 176
-0.982428, 177, 1, 240, 500
-0.982449, 313, 161, 376, 416
-0.982459, 65, 161, 128, 416
-0.982591, 273, 81, 336, 144
-0.982699, 1, 137, 64, 200
-0.982738, 341, 33, 372, 160
-0.982752, 153, 1, 216, 64
-0.982798, 289, 281, 416, 344
-0.982811, 61, 65, 92, 128
-0.982818, 45, 1, 76, 64
-0.982821, 61, 89, 92, 152
-0.982829, 293, 185, 324, 248
-0.982833, 121, 1, 184, 500
-0.982884, 201, 73, 232, 136
-0.982924, 69, 201, 100, 264
-0.983002, 241, 353, 368, 416
-0.98305, 353, 329, 384, 392
-0.983099, 201, 137, 232, 200
-0.98313, 337, 25, 400, 88
-0.983139, 369, 321, 400, 384
-0.983141, 233, 49, 264, 176
-0.983245, 113, 337, 240, 400
-0.983313, 241, 1, 304, 500
-0.983329, 137, 81, 168, 144
-0.98335, 113, 297, 240, 360
-0.983354, 361, 41, 392, 104
-0.983381, 165, 321, 196, 384
-0.983383, 145, 417, 208, 480
-0.98344, 65, 1, 96, 64
-0.983468, 29, 1, 60, 64
-0.983536, 353, 113, 384, 176
-0.983539, 177, 329, 304, 392
-0.983554, 13, 129, 44, 256
-0.98357, 129, 265, 160, 328
-0.983599, 13, 81, 44, 208
-0.9836, 49, 217, 112, 280
-0.983648, 1, 97, 32, 224
-0.983651, 257, 297, 288, 360
-0.983675, 265, 193, 296, 256
-0.983694, 61, 129, 92, 192
-0.983703, 1, 57, 128, 120
-0.983777, 341, 121, 372, 184
-0.983803, 337, 145, 400, 272
-0.983838, 61, 49, 92, 176
-0.983854, 9, 1, 40, 64
-0.98395, 81, 1, 144, 500
-0.983971, 233, 1, 296, 256
-0.983996, 337, 321, 368, 448
-0.984074, 257, 209, 384, 272
-0.984204, 9, 33, 40, 160
-0.984206, 1, 145, 32, 272
-0.984331, 361, 1, 424, 256
-0.98449, 1, 225, 128, 288
-0.984524, 365, 49, 396, 176
-0.984586, 33, 33, 64, 160
-0.984715, 377, 49, 439, 176
-0.984758, 297, 65, 360, 320
-0.984783, 313, 177, 344, 304
-0.984802, 137, 273, 168, 400
-0.984825, 361, 353, 424, 480
-0.984828, 33, 1, 96, 500
-0.98483, 9, 1, 72, 256
-0.984838, 273, 393, 400, 456
-0.984867, 45, 49, 76, 176
-0.984888, 209, 49, 336, 112
-0.984896, 153, 321, 184, 448
-0.985043, 193, 257, 224, 384
-0.985137, 245, 49, 276, 176
-0.985175, 281, 337, 312, 464
-0.985178, 45, 1, 76, 128
-0.985182, 273, 1, 336, 128
-0.985196, 49, 353, 176, 480
-0.985597, 181, 353, 212, 480
-0.985729, 261, 97, 292, 224
-0.985874, 65, 305, 192, 432
-0.986019, 97, 177, 128, 304
-0.986029, 381, 1, 412, 128
-0.986261, 61, 1, 92, 128
-0.986316, 225, 329, 352, 392
-0.986326, 269, 241, 300, 368
-0.98633, 129, 225, 160, 352
-0.986371, 349, 353, 380, 480
-0.986379, 393, 81, 424, 208
-0.986411, 329, 1, 392, 500
-0.986473, 33, 81, 64, 208
-0.98653, 65, 249, 192, 312
-0.986534, 97, 385, 224, 448
-0.986593, 105, 225, 168, 480
-0.986627, 369, 1, 400, 128
-0.986634, 273, 161, 400, 224
-0.986673, 57, 1, 120, 500
-0.986699, 125, 1, 156, 128
-0.986705, 265, 1, 328, 500
-0.986756, 337, 257, 400, 500
-0.986776, 65, 1, 192, 64
-0.98689, 97, 361, 224, 424
-0.987061, 409, 49, 439, 176
-0.987223, 293, 337, 324, 464
-0.987252, 273, 233, 400, 296
-0.987309, 97, 249, 352, 312
-0.987369, 305, 73, 432, 136
-0.987386, 261, 289, 292, 416
-0.987519, 1, 1, 64, 500
-0.987612, 129, 1, 256, 64
-0.987764, 17, 25, 144, 88
-0.987841, 145, 393, 272, 456
-0.987882, 209, 353, 240, 480
-0.987913, 249, 229, 312, 260
-0.987914, 81, 193, 112, 320
-0.987969, 321, 81, 352, 208
-0.987982, 129, 149, 192, 180
-0.988021, 289, 1, 352, 500
-0.988035, 309, 321, 340, 448
-0.988107, 65, 129, 320, 192
-0.988117, 185, 113, 248, 144
-0.988164, 65, 161, 320, 224
-0.988221, 225, 133, 288, 164
-0.988227, 217, 33, 248, 160
-0.988233, 273, 229, 336, 260
-0.988248, 273, 129, 304, 256
-0.988291, 305, 137, 432, 200
-0.988355, 217, 221, 280, 252
-0.988366, 377, 65, 408, 192
-0.988378, 269, 337, 300, 464
-0.988394, 21, 1, 52, 128
-0.988411, 193, 237, 256, 268
-0.98847, 137, 133, 200, 164
-0.988475, 169, 221, 232, 252
-0.988497, 129, 57, 192, 88
-0.988505, 209, 149, 272, 180
-0.988568, 161, 253, 224, 284
-0.988574, 305, 209, 432, 336
-0.988582, 113, 161, 176, 192
-0.988613, 265, 1, 296, 128
-0.988628, 65, 105, 320, 168
-0.988715, 97, 149, 160, 180
-0.988773, 193, 221, 256, 252
-0.988787, 89, 165, 152, 196
-0.988808, 137, 37, 200, 68
-0.988813, 273, 25, 400, 88
-0.988822, 177, 165, 240, 196
-0.988909, 257, 241, 320, 272
-0.988915, 205, 33, 236, 160
-0.988955, 305, 369, 336, 496
-0.988958, 65, 177, 128, 208
-0.98903, 145, 181, 208, 212
-0.989038, 185, 125, 248, 156
-0.989043, 33, 193, 288, 256
-0.989046, 77, 49, 108, 176
-0.989087, 45, 97, 76, 224
-0.989096, 113, 137, 176, 168
-0.989123, 105, 193, 168, 224
-0.989136, 225, 169, 288, 200
-0.989146, 137, 165, 200, 196
-0.989147, 209, 113, 272, 144
-0.989152, 249, 201, 312, 232
-0.989186, 137, 241, 200, 272
-0.989272, 73, 197, 136, 228
-0.989279, 397, 1, 428, 128
-0.989292, 105, 181, 168, 212
-0.989294, 153, 49, 216, 80
-0.989311, 145, 93, 208, 124
-0.989316, 129, 209, 192, 240
-0.989327, 153, 149, 216, 180
-0.989365, 137, 253, 200, 284
-0.989407, 129, 425, 256, 488
-0.989428, 225, 237, 288, 268
-0.989473, 137, 69, 200, 100
-0.989495, 345, 97, 408, 352
-0.989533, 281, 241, 344, 272
-0.989554, 241, 217, 304, 248
-0.989555, 177, 145, 240, 176
-0.989565, 169, 321, 232, 352
-0.98958, 321, 321, 384, 352
-0.989617, 21, 193, 52, 320
-0.989636, 49, 273, 176, 336
-0.989638, 169, 333, 232, 364
-0.989677, 161, 309, 224, 340
-0.989679, 105, 73, 168, 104
-0.98968, 161, 105, 224, 136
-0.989687, 97, 225, 352, 288
-0.989712, 193, 313, 256, 344
-0.989717, 129, 113, 192, 144
-0.989762, 201, 165, 264, 196
-0.989771, 225, 385, 352, 448
-0.989816, 73, 153, 136, 184
-0.98982, 209, 205, 272, 236
-0.989821, 121, 265, 184, 296
-0.989833, 161, 121, 416, 184
-0.989837, 193, 353, 224, 480
-0.989847, 97, 125, 160, 156
-0.989858, 1, 81, 64, 112
-0.989863, 161, 273, 416, 336
-0.989872, 273, 209, 336, 240
-0.989924, 113, 221, 176, 252
-0.989931, 321, 129, 352, 256
-0.989962, 193, 249, 256, 280
-0.989979, 169, 237, 232, 268
-0.989992, 113, 353, 176, 480
-0.99003, 161, 129, 224, 160
-0.990031, 1, 193, 32, 320
-0.990032, 177, 205, 240, 236
-0.99005, 81, 209, 144, 240
-0.990055, 337, 53, 400, 84
-0.990056, 153, 297, 216, 328
-0.990059, 301, 49, 332, 176
-0.990073, 185, 57, 248, 88
-0.990076, 185, 177, 248, 208
-0.990076, 229, 321, 260, 448
-0.990105, 137, 221, 200, 252
-0.990109, 209, 101, 272, 132
-0.990112, 241, 277, 304, 308
-0.990116, 345, 329, 408, 360
-0.990149, 153, 117, 216, 148
-0.990161, 185, 97, 248, 128
-0.990184, 1, 193, 64, 448
-0.990189, 249, 189, 312, 220
-0.99019, 261, 49, 292, 176
-0.990314, 161, 77, 224, 108
-0.990329, 321, 337, 384, 368
-0.990336, 345, 353, 408, 384
-0.990338, 201, 265, 264, 296
-0.990362, 105, 53, 168, 84
-0.990373, 273, 185, 400, 248
-0.990378, 281, 261, 344, 292
-0.990431, 97, 89, 160, 120
-0.990449, 17, 1, 80, 32
-0.990461, 153, 209, 216, 240
-0.990469, 121, 89, 184, 120
-0.990489, 137, 193, 200, 224
-0.990506, 73, 133, 136, 164
-0.990512, 217, 285, 280, 316
-0.990517, 145, 265, 208, 296
-0.990548, 241, 113, 304, 144
-0.990592, 9, 61, 72, 92
-0.990594, 1, 73, 256, 136
-0.99061, 321, 33, 352, 160
-0.990639, 137, 277, 200, 308
-0.990782, 329, 305, 392, 336
-0.990796, 265, 273, 328, 304
-0.990814, 17, 93, 80, 124
-0.990825, 305, 357, 368, 388
-0.990832, 161, 285, 224, 316
-0.990833, 341, 129, 372, 256
-0.990875, 345, 341, 408, 372
-0.990877, 241, 265, 304, 296
-0.990878, 169, 373, 232, 404
-0.990899, 1, 117, 64, 148
-0.990903, 313, 369, 376, 400
-0.990905, 105, 209, 168, 240
-0.990907, 161, 193, 224, 224
-0.990919, 297, 197, 360, 228
-0.990929, 253, 353, 284, 480
-0.990944, 329, 121, 392, 152
-0.990949, 41, 1, 104, 32
-0.990957, 281, 49, 312, 176
-0.99096, 193, 301, 256, 332
-0.99097, 9, 49, 72, 80
-0.990975, 73, 85, 136, 116
-0.990979, 65, 49, 320, 112
-0.990991, 233, 101, 296, 132
-0.991007, 41, 193, 104, 224
-0.991024, 81, 65, 144, 96
-0.991049, 297, 321, 360, 352
-0.99105, 329, 145, 392, 176
-0.991062, 161, 61, 224, 92
-0.991067, 17, 129, 80, 160
-0.991077, 41, 81, 104, 112
-0.991086, 289, 65, 352, 96
-0.991109, 257, 357, 320, 388
-0.991132, 257, 289, 320, 320
-0.991133, 41, 13, 104, 44
-0.991134, 169, 273, 232, 304
-0.99115, 369, 117, 432, 148
-0.991158, 329, 389, 392, 420
-0.991166, 313, 285, 376, 316
-0.991173, 1, 105, 64, 136
-0.99119, 273, 121, 336, 152
-0.991192, 193, 325, 256, 356
-0.991209, 1, 225, 256, 288
-0.991216, 209, 181, 272, 212
-0.991232, 209, 365, 272, 396
-0.991233, 337, 157, 400, 188
-0.991266, 81, 409, 208, 472
-0.991376, 161, 313, 416, 376
-0.991497, 41, 161, 104, 416
-0.991584, 209, 25, 336, 88
-0.991663, 305, 417, 432, 480
-0.991666, 161, 73, 416, 136
-0.991666, 1, 137, 439, 200
-0.991713, 201, 109, 232, 140
-0.991864, 293, 217, 324, 248
-0.991977, 33, 209, 96, 336
-0.991983, 137, 189, 168, 220
-0.991991, 129, 201, 384, 264
-0.991994, 1, 161, 439, 224
-0.992011, 257, 1, 384, 64
-0.992047, 193, 409, 320, 472
-0.992054, 369, 97, 432, 352
-0.99208, 181, 237, 212, 268
-0.992084, 193, 169, 439, 232
-0.992086, 129, 57, 160, 88
-0.992086, 217, 221, 248, 252
-0.992086, 193, 221, 224, 252
-0.992089, 225, 117, 256, 148
-0.99209, 197, 161, 228, 192
-0.992095, 289, 241, 320, 272
-0.992108, 289, 257, 416, 320
-0.99212, 277, 229, 308, 260
-0.992141, 81, 165, 208, 196
-0.992146, 137, 41, 168, 72
-0.992148, 157, 149, 188, 180
-0.992171, 121, 73, 152, 104
-0.992183, 185, 209, 216, 240
-0.992188, 201, 297, 216, 360
-0.992208, 165, 129, 196, 160
-0.992222, 305, 229, 336, 260
-0.992223, 217, 149, 248, 180
-0.992234, 201, 233, 232, 264
-0.992235, 369, 1, 432, 500
-0.992235, 229, 237, 260, 268
-0.99225, 141, 97, 172, 128
-0.992253, 177, 177, 208, 208
-0.992254, 165, 189, 196, 220
-0.992263, 173, 85, 204, 116
-0.992267, 249, 133, 280, 164
-0.992271, 121, 177, 152, 208
-0.992278, 177, 237, 304, 268
-0.992278, 141, 133, 172, 164
-0.992287, 145, 273, 176, 304
-0.992294, 133, 265, 164, 296
-0.992307, 177, 57, 208, 88
-0.992307, 177, 221, 208, 252
-0.992322, 1, 49, 439, 112
-0.992323, 181, 101, 212, 132
-0.992344, 165, 97, 196, 128
-0.992347, 245, 169, 276, 200
-0.992355, 173, 113, 204, 144
-0.992356, 141, 57, 172, 88
-0.992366, 197, 317, 228, 348
-0.992369, 153, 61, 184, 92
-0.992372, 137, 161, 168, 192
-0.992373, 157, 293, 188, 324
-0.992378, 145, 177, 176, 208
-0.992384, 121, 129, 152, 160
-0.992391, 145, 205, 176, 236
-0.992391, 289, 229, 320, 260
-0.992393, 161, 229, 192, 260
-0.992397, 183, 169, 198, 232
-0.992399, 165, 41, 196, 72
-0.992406, 165, 209, 196, 240
-0.992414, 289, 205, 320, 236
-0.992415, 209, 161, 240, 192
-0.992418, 133, 201, 164, 232
-0.992418, 149, 29, 180, 60
-0.99242, 233, 165, 264, 196
-0.992422, 133, 73, 164, 104
-0.992431, 177, 137, 208, 168
-0.992435, 149, 41, 180, 72
-0.992438, 341, 333, 372, 364
-0.992445, 173, 249, 204, 280
-0.992452, 197, 97, 228, 128
-0.992456, 229, 129, 260, 160
-0.992456, 221, 173, 252, 204
-0.992459, 133, 145, 164, 176
-0.99247, 161, 145, 416, 208
-0.992473, 121, 153, 152, 184
-0.992473, 153, 93, 184, 124
-0.99248, 157, 177, 188, 208
-0.992482, 233, 141, 264, 172
-0.992484, 85, 161, 116, 192
-0.992485, 221, 105, 252, 136
-0.992489, 165, 57, 196, 88
-0.9925, 89, 197, 120, 228
-0.992503, 165, 165, 196, 196
-0.992506, 149, 221, 180, 252
-0.99251, 109, 161, 140, 192
-0.992512, 193, 185, 224, 216
-0.992519, 217, 241, 248, 272
-0.992521, 325, 313, 356, 344
-0.992527, 133, 213, 164, 244
-0.992536, 201, 209, 232, 240
-0.99255, 169, 285, 200, 316
-0.992555, 49, 185, 176, 216
-0.992559, 153, 133, 184, 164
-0.992566, 189, 173, 220, 204
-0.992573, 225, 273, 256, 304
-0.992575, 129, 93, 160, 124
-0.992576, 109, 189, 140, 220
-0.992579, 185, 321, 216, 352
-0.992585, 349, 345, 380, 376
-0.992587, 177, 165, 208, 196
-0.992593, 185, 337, 216, 368
-0.992594, 345, 321, 376, 352
-0.992596, 181, 189, 212, 220
-0.992599, 177, 309, 208, 340
-0.99261, 165, 69, 196, 100
-0.992613, 77, 177, 108, 208
-0.992613, 185, 125, 216, 156
-0.992617, 245, 281, 276, 312
-0.992619, 169, 349, 200, 380
-0.99262, 249, 121, 280, 152
-0.99262, 197, 305, 228, 336
-0.992629, 65, 181, 96, 212
-0.992631, 261, 133, 292, 164
-0.992631, 133, 177, 164, 208
-0.992632, 153, 261, 184, 292
-0.992632, 281, 257, 312, 288
-0.992634, 265, 229, 296, 260
-0.992634, 201, 173, 232, 204
-0.992638, 301, 241, 332, 272
-0.992641, 77, 193, 108, 224
-0.992642, 185, 81, 216, 112
-0.992644, 217, 137, 248, 168
-0.992645, 325, 325, 356, 356
-0.992655, 153, 189, 184, 220
-0.992656, 197, 329, 228, 360
-0.992669, 233, 193, 264, 224
-0.992671, 185, 269, 216, 300
-0.992672, 137, 29, 168, 60
-0.992672, 61, 197, 92, 228
-0.992673, 113, 141, 240, 172
-0.992675, 281, 217, 312, 248
-0.992678, 129, 157, 256, 188
-0.992678, 245, 145, 276, 176
-0.992679, 17, 65, 48, 96
-0.992679, 213, 209, 244, 240
-0.992683, 177, 149, 208, 180
-0.992688, 133, 253, 164, 284
-0.992689, 233, 249, 264, 280
-0.992691, 1, 57, 32, 88
-0.992692, 241, 97, 272, 128
-0.992693, 125, 45, 156, 76
-0.992695, 133, 121, 164, 152
-0.992696, 97, 173, 128, 204
-0.992698, 157, 81, 188, 112
-0.9927, 253, 201, 284, 232
-0.992704, 129, 361, 384, 424
-0.992711, 233, 217, 264, 248
-0.992756, 65, 205, 192, 236
-0.992762, 305, 1, 432, 64
-0.992769, 155, 257, 170, 320
-0.992789, 161, 129, 288, 160
-0.992833, 65, 297, 192, 360
-0.992879, 153, 153, 168, 216
-0.992892, 183, 41, 198, 104
-0.992932, 193, 169, 208, 232
-0.992957, 193, 217, 320, 248
-0.992964, 33, 273, 288, 336
-0.993039, 145, 225, 272, 256
-0.993065, 167, 145, 182, 208
-0.993104, 139, 145, 154, 208
-0.99312, 1, 265, 439, 328
-0.993127, 153, 129, 168, 192
-0.993129, 159, 137, 174, 200
-0.993148, 193, 209, 208, 272
-0.99317, 197, 265, 212, 328
-0.993183, 171, 49, 186, 112
-0.993235, 161, 145, 288, 176
-0.993298, 81, 169, 96, 232
-0.993323, 161, 97, 416, 160
-0.993328, 1, 217, 439, 280
-0.99335, 65, 329, 192, 392
-0.993363, 221, 145, 236, 208
-0.993371, 159, 25, 174, 88
-0.993397, 227, 201, 242, 264
-0.993418, 145, 177, 272, 208
-0.993463, 147, 265, 162, 328
-0.993472, 1, 73, 439, 136
-0.99348, 145, 153, 160, 216
-0.993484, 207, 313, 222, 376
-0.993491, 175, 209, 190, 272
-0.993548, 97, 185, 224, 216
-0.993568, 219, 201, 234, 264
-0.993569, 289, 217, 304, 280
-0.993577, 81, 153, 208, 184
-0.993616, 193, 233, 439, 296
-0.993655, 113, 257, 240, 288
-0.993674, 147, 177, 162, 240
-0.993698, 129, 241, 256, 272
-0.993721, 141, 65, 156, 128
-0.993731, 33, 173, 160, 204
-0.993768, 131, 145, 146, 208
-0.993787, 161, 41, 416, 104
-0.993794, 81, 61, 208, 92
-0.9938, 87, 161, 102, 224
-0.993836, 189, 105, 204, 168
-0.993838, 183, 129, 198, 192
-0.993842, 1, 1, 256, 64
-0.993852, 181, 201, 196, 264
-0.993863, 145, 113, 272, 144
-0.993882, 235, 225, 250, 288
-0.993883, 129, 393, 384, 456
-0.993886, 193, 337, 439, 400
-0.993913, 135, 177, 150, 240
-0.993949, 147, 65, 162, 128
-0.993964, 151, 217, 166, 280
-0.993971, 237, 249, 252, 312
-0.99399, 125, 153, 140, 216
-0.994014, 177, 57, 192, 120
-0.99402, 337, 305, 352, 368
-0.994023, 149, 25, 164, 88
-0.994061, 175, 169, 190, 232
-0.994072, 177, 137, 192, 200
-0.994085, 139, 33, 154, 96
-0.994091, 97, 217, 224, 248
-0.994096, 183, 97, 198, 160
-0.994097, 225, 105, 240, 168
-0.994106, 135, 73, 150, 136
-0.994147, 163, 105, 178, 168
-0.994153, 377, 257, 439, 384
-0.994154, 49, 361, 176, 424
-0.994166, 227, 225, 242, 288
-0.99418, 177, 249, 304, 280
-0.994213, 163, 281, 178, 344
-0.994215, 145, 89, 160, 152
-0.99423, 143, 241, 158, 304
-0.994233, 153, 49, 168, 112
-0.994248, 113, 49, 240, 80
-0.994255, 145, 201, 272, 232
-0.994257, 203, 89, 218, 152
-0.994268, 203, 201, 218, 264
-0.994269, 201, 161, 216, 224
-0.994289, 261, 169, 276, 232
-0.99432, 141, 177, 156, 240
-0.994326, 245, 137, 260, 200
-0.994326, 237, 145, 252, 208
-0.994326, 147, 129, 162, 192
-0.994328, 225, 121, 352, 152
-0.994343, 185, 65, 200, 128
-0.994346, 307, 209, 322, 272
-0.994352, 253, 201, 268, 264
-0.994355, 227, 137, 242, 200
-0.994361, 113, 93, 240, 124
-0.994369, 251, 145, 266, 208
-0.994378, 33, 153, 160, 184
-0.994407, 225, 229, 352, 260
-0.994409, 65, 141, 192, 172
-0.994417, 211, 153, 226, 216
-0.994419, 177, 33, 192, 96
-0.994426, 131, 49, 146, 112
-0.994429, 157, 233, 172, 296
-0.994429, 225, 169, 240, 232
-0.994431, 235, 105, 250, 168
-0.99444, 1, 113, 439, 176
-0.994447, 137, 97, 168, 352
-0.994454, 97, 153, 112, 216
-0.994454, 75, 177, 90, 240
-0.994458, 49, 93, 176, 124
-0.994464, 301, 201, 316, 264
-0.994477, 243, 217, 258, 280
-0.994479, 193, 233, 208, 296
-0.994488, 175, 105, 190, 168
-0.994492, 193, 161, 224, 416
-0.994495, 259, 137, 274, 200
-0.994503, 161, 57, 176, 120
-0.994516, 331, 305, 346, 368
-0.994538, 81, 73, 208, 104
-0.994546, 117, 129, 132, 192
-0.994564, 129, 121, 144, 184
-0.994574, 151, 105, 166, 168
-0.994607, 209, 81, 224, 144
-0.994622, 1, 289, 439, 352
-0.994634, 225, 109, 352, 140
-0.994634, 109, 153, 124, 216
-0.994646, 97, 113, 224, 144
-0.994648, 69, 177, 84, 240
-0.994649, 307, 249, 322, 312
-0.99465, 193, 57, 208, 120
-0.994652, 89, 129, 104, 192
-0.994673, 233, 193, 248, 256
-0.994681, 161, 257, 176, 320
-0.994711, 167, 225, 182, 288
-0.994713, 17, 133, 144, 164
-0.994716, 231, 249, 246, 312
-0.994719, 197, 81, 212, 144
-0.994723, 175, 81, 190, 144
-0.994723, 181, 233, 196, 296
-0.994731, 159, 185, 174, 248
-0.994731, 207, 289, 222, 352
-0.994734, 1, 185, 128, 216
-0.994736, 115, 161, 130, 224
-0.994761, 245, 113, 260, 176
-0.994765, 145, 269, 272, 300
-0.994784, 113, 129, 240, 160
-0.994806, 361, 321, 376, 384
-0.99481, 135, 201, 150, 264
-0.994824, 11, 73, 26, 136
-0.994828, 1, 185, 439, 248
-0.994829, 241, 157, 368, 188
-0.994833, 177, 193, 208, 448
-0.994843, 205, 337, 220, 400
-0.994844, 193, 205, 320, 236
-0.994859, 353, 313, 368, 376
-0.994879, 153, 1, 184, 256
-0.99488, 193, 1, 320, 64
-0.994889, 137, 257, 152, 320
-0.994893, 225, 241, 352, 272
-0.994893, 145, 213, 272, 244
-0.994921, 289, 249, 304, 312
-0.994922, 177, 161, 304, 192
-0.994929, 245, 169, 260, 232
-0.994939, 21, 89, 36, 152
-0.99494, 49, 221, 176, 252
-0.994941, 135, 121, 150, 184
-0.994947, 193, 129, 208, 192
-0.994953, 157, 289, 172, 352
-0.994956, 157, 129, 188, 384
-0.994962, 273, 349, 400, 380
-0.994967, 129, 193, 144, 256
-0.994992, 17, 57, 144, 88
-0.994997, 295, 233, 310, 296
-0.995003, 171, 25, 186, 88
-0.995005, 123, 129, 138, 192
-0.995011, 65, 125, 192, 156
-0.995013, 15, 113, 30, 176
-0.995017, 281, 217, 296, 280
-0.995036, 209, 137, 336, 168
-0.995041, 315, 209, 330, 272
-0.995042, 193, 305, 208, 368
-0.995051, 193, 361, 320, 392
-0.995051, 169, 169, 184, 232
-0.995053, 339, 329, 354, 392
-0.995071, 187, 193, 202, 256
-0.995082, 221, 225, 236, 288
-0.995094, 137, 1, 168, 256
-0.995129, 169, 249, 184, 312
-0.995167, 247, 241, 262, 304
-0.99517, 205, 193, 236, 448
-0.995174, 141, 113, 156, 176
-0.995186, 1, 77, 128, 108
-0.995187, 89, 193, 104, 256
-0.995198, 129, 81, 256, 112
-0.995203, 219, 121, 234, 184
-0.995209, 1, 89, 128, 120
-0.995209, 121, 177, 136, 240
-0.995216, 251, 105, 266, 168
-0.995243, 145, 189, 272, 220
-0.995254, 169, 33, 200, 288
-0.995259, 289, 313, 416, 344
-0.995287, 1, 1, 128, 32
-0.995316, 289, 325, 416, 356
-0.99532, 257, 417, 384, 480
-0.995323, 189, 65, 220, 320
-0.995331, 17, 201, 144, 232
-0.995343, 97, 337, 352, 400
-0.995346, 193, 173, 320, 204
-0.995365, 1, 241, 439, 304
-0.995388, 81, 37, 208, 68
-0.995428, 233, 97, 264, 352
-0.99543, 273, 285, 400, 316
-0.995461, 273, 301, 400, 332
-0.995471, 217, 97, 248, 352
-0.995535, 1, 249, 256, 312
-0.99555, 161, 61, 288, 92
-0.995597, 161, 93, 288, 124
-0.9956, 221, 193, 252, 448
-0.995621, 49, 385, 176, 448
-0.995628, 33, 297, 288, 360
-0.995665, 205, 97, 236, 352
-0.995715, 145, 309, 272, 340
-0.995729, 193, 185, 320, 216
-0.995784, 189, 257, 220, 500
-0.995802, 97, 273, 160, 400
-0.995813, 129, 369, 256, 400
-0.995823, 1, 321, 439, 384
-0.995838, 257, 337, 384, 368
-0.995859, 125, 33, 156, 288
-0.995874, 193, 265, 320, 296
-0.995892, 273, 57, 400, 88
-0.995895, 113, 297, 240, 328
-0.995898, 145, 193, 176, 448
-0.995938, 289, 373, 416, 404
-0.995949, 129, 17, 384, 80
-0.995982, 97, 229, 224, 260
-0.995996, 161, 285, 288, 316
-0.996015, 289, 385, 416, 416
-0.996024, 193, 301, 320, 332
-0.996025, 237, 193, 268, 448
-0.996048, 1, 117, 128, 148
-0.99606, 305, 113, 432, 144
-0.996099, 209, 97, 336, 128
-0.996106, 249, 97, 280, 352
-0.996124, 97, 277, 224, 308
-0.996206, 33, 369, 288, 432
-0.996226, 65, 49, 192, 80
-0.996252, 261, 97, 292, 352
-0.996284, 1, 101, 128, 132
-0.99631, 241, 217, 368, 248
-0.996335, 1, 25, 256, 88
-0.996338, 5, 1, 36, 256
-0.996351, 241, 325, 368, 356
-0.996357, 305, 225, 336, 480
-0.996366, 253, 193, 284, 448
-0.996368, 265, 193, 296, 448
-0.996374, 241, 361, 368, 392
-0.996415, 1, 213, 128, 244
-0.99643, 305, 141, 432, 172
-0.996443, 201, 305, 216, 336
-0.996454, 69, 1, 100, 256
-0.99646, 361, 145, 424, 272
-0.996461, 289, 361, 416, 392
-0.996476, 289, 193, 320, 448
-0.996494, 241, 313, 368, 344
-0.996509, 113, 357, 240, 388
-0.996515, 225, 281, 352, 312
-0.996526, 81, 433, 208, 496
-0.996537, 165, 225, 196, 480
-0.996582, 73, 97, 104, 352
-0.996588, 113, 65, 144, 320
-0.996589, 273, 73, 400, 104
-0.996591, 187, 205, 202, 236
-0.996614, 209, 69, 336, 100
-0.996639, 81, 241, 208, 272
-0.996705, 155, 265, 170, 296
-0.996708, 181, 205, 196, 236
-0.996717, 223, 225, 238, 256
-0.996753, 149, 33, 164, 64
-0.996755, 1, 229, 128, 260
-0.996758, 1, 13, 128, 44
-0.996762, 33, 393, 288, 456
-0.996804, 129, 37, 256, 68
-0.996808, 145, 93, 160, 124
-0.996816, 161, 49, 288, 80
-0.996833, 231, 241, 246, 272
-0.996834, 301, 225, 316, 256
-0.996841, 135, 201, 150, 232
-0.996843, 263, 133, 278, 164
-0.996845, 199, 165, 214, 196
-0.996894, 203, 209, 218, 240
-0.996906, 161, 341, 288, 372
-0.996908, 153, 49, 168, 80
-0.996911, 113, 381, 240, 412
-0.996916, 209, 53, 336, 84
-0.996931, 257, 141, 384, 172
-0.996939, 305, 101, 432, 132
-0.996943, 65, 261, 192, 292
-0.996961, 221, 109, 236, 140
-0.996975, 113, 321, 240, 352
-0.996986, 205, 165, 220, 196
-0.99699, 183, 189, 198, 220
-0.997002, 279, 229, 294, 260
-0.997008, 179, 217, 194, 248
-0.997016, 141, 185, 156, 216
-0.997032, 209, 1, 240, 256
-0.99704, 143, 57, 158, 88
-0.997044, 17, 45, 144, 76
-0.99705, 101, 97, 132, 352
-0.997051, 89, 65, 120, 320
-0.997052, 241, 205, 368, 236
-0.997061, 193, 209, 208, 240
-0.997065, 65, 1, 192, 32
-0.997076, 277, 193, 308, 448
-0.997081, 259, 169, 274, 200
-0.997091, 285, 221, 300, 252
-0.997096, 211, 161, 226, 192
-0.997102, 193, 185, 208, 216
-0.997112, 217, 221, 232, 252
-0.997112, 177, 53, 192, 84
-0.99712, 181, 237, 196, 268
-0.99713, 175, 81, 190, 112
-0.99713, 291, 233, 306, 264
-0.997146, 165, 289, 180, 320
-0.997149, 203, 321, 218, 352
-0.99715, 307, 217, 322, 248
-0.997164, 1, 329, 256, 392
-0.997165, 241, 269, 256, 300
-0.997167, 171, 185, 186, 216
-0.99717, 185, 53, 200, 84
-0.997173, 157, 93, 172, 124
-0.997173, 241, 269, 368, 300
-0.997181, 137, 261, 152, 292
-0.99719, 361, 1, 392, 256
-0.997202, 181, 65, 196, 96
-0.997204, 129, 73, 144, 104
-0.997214, 241, 173, 368, 204
-0.997222, 303, 249, 318, 280
-0.997223, 147, 45, 162, 76
-0.997225, 207, 105, 222, 136
-0.997227, 49, 113, 176, 144
-0.997229, 193, 321, 320, 352
-0.99723, 295, 217, 310, 248
-0.997234, 179, 165, 194, 196
-0.997252, 133, 193, 164, 448
-0.997252, 177, 433, 304, 496
-0.99726, 49, 13, 176, 44
-0.997262, 169, 61, 184, 92
-0.997267, 293, 97, 324, 352
-0.997271, 113, 397, 240, 428
-0.997272, 141, 37, 156, 68
-0.997281, 273, 65, 304, 320
-0.997282, 189, 169, 204, 200
-0.997284, 147, 277, 162, 308
-0.997295, 163, 137, 178, 168
-0.997301, 315, 241, 330, 272
-0.997302, 161, 205, 176, 236
-0.997306, 225, 253, 352, 284
-0.997313, 159, 45, 174, 76
-0.997318, 125, 169, 140, 200
-0.997329, 197, 197, 212, 228
-0.997335, 169, 129, 184, 160
-0.997337, 241, 85, 368, 116
-0.997338, 305, 209, 432, 272
-0.997343, 291, 257, 306, 288
-0.997345, 131, 153, 146, 184
-0.997346, 273, 45, 400, 76
-0.99735, 151, 189, 166, 220
-0.997352, 159, 29, 174, 60
-0.997355, 127, 57, 142, 88
-0.997358, 193, 241, 208, 272
-0.997361, 237, 257, 252, 288
-0.997364, 249, 125, 264, 156
-0.997368, 211, 93, 226, 124
-0.997369, 305, 337, 432, 368
-0.997377, 143, 73, 158, 104
-0.997377, 91, 161, 106, 192
-0.997377, 165, 217, 180, 248
-0.997384, 225, 237, 240, 268
-0.997393, 83, 201, 98, 232
-0.997394, 21, 77, 36, 108
-0.997397, 137, 73, 152, 104
-0.997403, 171, 209, 186, 240
-0.997406, 225, 137, 240, 168
-0.997406, 195, 257, 210, 288
-0.997409, 183, 81, 198, 112
-0.997414, 145, 161, 160, 192
-0.997416, 153, 225, 168, 256
-0.997422, 305, 289, 320, 320
-0.997423, 179, 41, 194, 72
-0.997424, 215, 105, 230, 136
-0.997425, 139, 217, 154, 248
-0.997425, 195, 269, 210, 300
-0.997429, 133, 177, 148, 208
-0.997433, 301, 209, 316, 240
-0.997436, 239, 237, 254, 268
-0.997442, 149, 265, 164, 296
-0.997446, 181, 177, 196, 208
-0.997449, 311, 229, 326, 260
-0.997452, 231, 113, 246, 144
-0.997452, 157, 149, 172, 180
-0.997453, 161, 277, 176, 308
-0.997453, 257, 193, 384, 224
-0.997455, 297, 293, 312, 324
-0.997459, 169, 149, 184, 180
-0.99746, 151, 93, 166, 124
-0.997464, 229, 225, 244, 256
-0.997472, 259, 145, 274, 176
-0.997473, 113, 345, 240, 376
-0.99748, 169, 49, 184, 80
-0.997487, 125, 157, 140, 188
-0.997489, 231, 253, 246, 284
-0.997492, 135, 165, 150, 196
-0.997493, 147, 173, 162, 204
-0.997495, 209, 225, 224, 256
-0.997497, 131, 189, 146, 220
-0.997499, 1, 361, 439, 424
-0.9975, 13, 97, 44, 352
-0.997502, 145, 141, 160, 172
-0.997504, 223, 121, 238, 152
-0.997506, 183, 113, 198, 144
-0.997506, 305, 237, 320, 268
-0.997507, 193, 81, 320, 112
-0.997513, 209, 321, 224, 352
-0.99752, 189, 105, 204, 136
-0.997524, 273, 241, 400, 272
-0.997529, 273, 401, 400, 432
-0.997533, 81, 169, 96, 200
-0.997542, 175, 237, 190, 268
-0.997551, 123, 73, 138, 104
-0.997556, 315, 217, 330, 248
-0.997557, 169, 85, 184, 116
-0.997561, 163, 149, 178, 180
-0.997563, 121, 161, 152, 416
-0.99757, 157, 133, 172, 164
-0.99757, 185, 249, 200, 280
-0.997571, 117, 161, 132, 192
-0.997575, 133, 57, 148, 88
-0.997575, 349, 325, 364, 356
-0.997579, 181, 141, 196, 172
-0.99759, 67, 185, 82, 216
-0.997591, 225, 373, 352, 404
-0.997591, 179, 93, 194, 124
-0.997593, 135, 93, 150, 124
-0.997596, 297, 245, 312, 276
-0.997597, 193, 321, 208, 352
-0.997598, 355, 321, 370, 352
-0.997601, 135, 41, 150, 72
-0.997602, 305, 161, 432, 192
-0.997608, 345, 257, 376, 500
-0.997651, 81, 369, 208, 400
-0.997676, 129, 25, 256, 56
-0.997698, 129, 13, 256, 44
-0.997699, 325, 257, 356, 500
-0.997702, 209, 349, 336, 380
-0.997703, 33, 417, 288, 480
-0.997704, 49, 33, 80, 288
-0.997708, 49, 273, 176, 304
-0.997709, 289, 89, 416, 120
-0.997728, 305, 129, 432, 160
-0.997742, 113, 333, 240, 364
-0.997756, 97, 309, 224, 340
-0.997792, 129, 417, 384, 480
-0.997871, 317, 65, 348, 320
-0.997896, 373, 1, 404, 256
-0.997951, 221, 1, 252, 256
-0.997979, 61, 97, 92, 352
-0.998016, 261, 1, 292, 256
-0.998033, 241, 1, 272, 256
-0.998098, 21, 1, 52, 256
-0.998148, 17, 313, 144, 376
-0.998162, 361, 257, 424, 500
-0.998188, 1, 25, 439, 88
-0.998194, 17, 249, 144, 312
-0.998267, 305, 65, 336, 320
-0.998275, 81, 225, 144, 352
-0.99828, 159, 49, 174, 176
-0.998287, 25, 97, 56, 352
-0.998346, 101, 1, 132, 256
-0.998391, 217, 237, 280, 252
-0.998391, 241, 235, 304, 250
-0.998394, 169, 231, 232, 246
-0.998401, 193, 235, 256, 250
-0.998402, 129, 151, 192, 166
-0.998402, 249, 241, 312, 256
-0.998408, 195, 113, 210, 240
-0.998408, 129, 159, 192, 174
-0.998409, 113, 165, 176, 180
-0.998411, 129, 145, 192, 160
-0.998412, 1, 385, 128, 448
-0.998412, 65, 197, 128, 212
-0.99842, 185, 161, 200, 288
-0.998423, 89, 169, 152, 184
-0.998425, 193, 177, 208, 304
-0.998425, 137, 69, 200, 84
-0.998426, 113, 187, 176, 202
-0.99843, 167, 209, 182, 336
-0.998431, 193, 225, 256, 240
-0.998432, 193, 243, 256, 258
-0.998435, 201, 117, 264, 132
-0.998436, 129, 139, 192, 154
-0.998438, 361, 257, 392, 500
-0.998439, 185, 219, 248, 234
-0.998441, 153, 63, 216, 78
-0.998441, 121, 59, 184, 74
-0.998442, 89, 159, 152, 174
-0.998448, 225, 147, 288, 162
-0.99845, 169, 125, 232, 140
-0.99845, 153, 49, 168, 176
-0.998451, 209, 175, 272, 190
-0.998451, 161, 257, 224, 272
-0.998452, 265, 235, 328, 250
-0.998452, 273, 241, 336, 256
-0.998452, 273, 227, 336, 242
-0.99846, 161, 185, 224, 200
-0.99846, 89, 193, 152, 208
-0.998462, 349, 1, 380, 256
-0.998467, 341, 161, 372, 416
-0.998468, 121, 53, 184, 68
-0.998468, 169, 115, 232, 130
-0.998471, 169, 165, 232, 180
-0.998472, 169, 333, 232, 348
-0.998472, 169, 57, 232, 72
-0.998473, 173, 145, 188, 272
-0.998473, 169, 237, 232, 252
-0.998474, 209, 111, 272, 126
-0.998475, 217, 231, 280, 246
-0.998476, 225, 135, 288, 150
-0.998476, 281, 249, 344, 264
-0.998477, 169, 225, 232, 240
-0.998477, 201, 211, 264, 226
-0.998477, 161, 327, 224, 342
-0.998478, 137, 243, 200, 258
-0.998478, 123, 129, 138, 256
-0.998478, 249, 205, 312, 220
-0.998479, 217, 221, 280, 236
-0.998479, 199, 161, 214, 288
-0.99848, 225, 169, 288, 184
-0.998484, 97, 153, 160, 168
-0.998486, 153, 217, 216, 232
-0.998487, 89, 177, 152, 192
-0.998489, 241, 281, 304, 296
-0.998492, 1, 97, 32, 352
-0.998492, 193, 165, 256, 180
-0.998492, 129, 93, 192, 108
-0.998493, 225, 243, 288, 258
-0.998494, 137, 237, 200, 252
-0.998494, 105, 147, 168, 162
-0.998496, 121, 177, 184, 192
-0.998496, 169, 309, 232, 324
-0.998496, 225, 215, 288, 230
-0.998497, 257, 211, 320, 226
-0.998499, 129, 35, 192, 50
-0.998499, 337, 331, 400, 346
-0.998499, 113, 65, 176, 80
-0.998501, 161, 89, 224, 104
-0.998501, 121, 221, 184, 236
-0.998502, 137, 165, 200, 180
-0.998502, 161, 99, 224, 114
-0.998502, 205, 145, 220, 272
-0.998502, 253, 235, 284, 250
-0.998502, 153, 299, 216, 314
-0.998502, 121, 267, 184, 282
-0.998503, 137, 183, 200, 198
-0.998503, 121, 177, 152, 192
-0.998503, 141, 237, 172, 252
-0.998503, 177, 93, 208, 108
-0.998503, 249, 225, 312, 240
-0.998503, 193, 185, 224, 200
-0.998504, 173, 99, 204, 114
-0.998504, 117, 143, 148, 158
-0.998505, 169, 171, 232, 186
-0.998505, 169, 321, 232, 336
-0.998506, 153, 67, 184, 82
-0.998506, 141, 111, 172, 126
-0.998506, 305, 235, 336, 250
-0.998507, 229, 133, 260, 148
-0.998507, 193, 123, 256, 138
-0.998507, 145, 53, 208, 68
-0.998507, 161, 229, 192, 244
-0.998509, 85, 165, 116, 180
-0.998509, 321, 325, 384, 340
-0.998509, 229, 169, 260, 184
-0.99851, 137, 211, 200, 226
-0.998512, 169, 143, 232, 158
-0.998512, 161, 107, 224, 122
-0.998513, 129, 193, 160, 208
-0.998513, 249, 247, 312, 262
-0.998514, 141, 163, 172, 178
-0.998514, 133, 221, 164, 236
-0.998514, 217, 163, 280, 178
-0.998514, 149, 225, 180, 240
-0.998515, 137, 249, 200, 264
-0.998515, 175, 225, 190, 352
-0.998515, 153, 149, 216, 164
-0.998516, 97, 133, 160, 148
-0.998516, 81, 201, 112, 216
-0.998516, 145, 269, 176, 284
-0.998516, 201, 333, 232, 348
-0.998516, 193, 105, 224, 120
-0.998518, 145, 133, 208, 148
-0.998519, 345, 341, 408, 356
-0.998519, 121, 227, 184, 242
-0.998519, 197, 309, 228, 324
-0.998519, 217, 117, 248, 132
-0.998519, 105, 77, 168, 92
-0.998519, 133, 151, 164, 166
-0.99852, 165, 217, 196, 232
-0.99852, 225, 141, 288, 156
-0.99852, 201, 213, 232, 228
-0.998521, 93, 197, 124, 212
-0.998521, 209, 129, 272, 144
-0.998521, 113, 161, 144, 176
-0.998522, 161, 241, 192, 256
-0.998522, 201, 165, 232, 180
-0.998522, 161, 295, 192, 310
-0.998522, 345, 353, 408, 368
-0.998522, 169, 51, 200, 66
-0.998523, 169, 157, 232, 172
-0.998523, 153, 45, 184, 60
-0.998523, 245, 129, 276, 144
-0.998523, 129, 43, 192, 58
-0.998523, 185, 109, 248, 124
-0.998523, 145, 181, 176, 196
-0.998523, 349, 347, 380, 362
-0.998523, 73, 153, 136, 168
-0.998523, 333, 337, 364, 352
-0.998524, 149, 61, 180, 76
-0.998525, 161, 37, 192, 52
-0.998525, 249, 217, 312, 232
-0.998526, 137, 99, 200, 114
-0.998526, 65, 205, 128, 220
-0.998527, 193, 251, 256, 266
-0.998527, 233, 269, 264, 284
-0.998528, 177, 149, 240, 164
-0.998529, 185, 315, 248, 330
-0.998529, 397, 1, 428, 256
-0.998529, 221, 175, 252, 190
-0.99853, 153, 193, 168, 320
-0.998531, 145, 191, 208, 206
-0.998531, 181, 117, 212, 132
-0.998531, 201, 271, 264, 286
-0.998532, 133, 53, 164, 68
-0.998532, 289, 241, 320, 256
-0.998532, 161, 93, 192, 108
-0.998532, 81, 219, 144, 234
-0.998533, 129, 115, 192, 130
-0.998533, 161, 179, 224, 194
-0.998533, 133, 181, 164, 196
-0.998533, 241, 139, 272, 154
-0.998534, 345, 341, 376, 356
-0.998534, 225, 125, 256, 140
-0.998535, 185, 327, 248, 342
-0.998536, 321, 337, 384, 352
-0.998536, 113, 191, 144, 206
-0.998538, 245, 173, 276, 188
-0.998538, 169, 243, 232, 258
-0.998539, 147, 225, 162, 352
-0.99854, 185, 181, 248, 196
-0.99854, 201, 263, 264, 278
-0.99854, 141, 105, 172, 120
-0.99854, 165, 145, 196, 160
-0.998541, 173, 191, 204, 206
-0.998542, 177, 65, 240, 80
-0.998542, 209, 181, 272, 196
-0.998542, 273, 221, 336, 236
-0.998542, 209, 285, 272, 300
-0.998543, 233, 175, 264, 190
-0.998543, 157, 51, 188, 66
-0.998543, 137, 257, 200, 272
-0.998543, 201, 95, 264, 110
-0.998543, 165, 133, 196, 148
-0.998543, 97, 91, 160, 106
-0.998544, 177, 213, 240, 228
-0.998544, 129, 109, 192, 124
-0.998544, 129, 187, 160, 202
-0.998544, 133, 73, 164, 88
-0.998544, 161, 251, 224, 266
-0.998545, 165, 159, 196, 174
-0.998545, 115, 129, 130, 256
-0.998546, 161, 207, 224, 222
-0.998546, 197, 315, 228, 330
-0.998546, 65, 183, 128, 198
-0.998546, 197, 171, 228, 186
-0.998546, 137, 75, 200, 90
-0.998547, 169, 83, 232, 98
-0.998548, 185, 173, 216, 188
-0.998548, 161, 225, 176, 352
-0.998548, 201, 205, 264, 220
-0.998548, 265, 239, 296, 254
-0.998549, 121, 201, 184, 216
-0.99855, 209, 155, 272, 170
-0.99855, 137, 275, 200, 290
-0.998551, 73, 133, 136, 148
-0.998553, 141, 189, 172, 204
-0.998553, 181, 161, 212, 176
-0.998554, 1, 385, 439, 448
-0.998557, 185, 111, 216, 126
-0.998558, 121, 71, 152, 86
-0.998558, 345, 327, 376, 342
-0.998558, 237, 237, 268, 252
-0.998559, 297, 223, 328, 238
-0.99856, 177, 57, 208, 72
-0.998563, 153, 275, 184, 290
-0.998563, 165, 105, 196, 120
-0.998563, 177, 225, 208, 240
-0.998565, 149, 137, 180, 152
-0.998566, 133, 59, 164, 74
-0.998566, 293, 215, 324, 230
-0.998566, 253, 141, 284, 156
-0.998567, 325, 325, 356, 340
-0.998568, 329, 161, 360, 416
-0.998569, 173, 253, 204, 268
-0.998572, 177, 219, 208, 234
-0.998572, 201, 237, 232, 252
-0.998573, 161, 139, 192, 154
-0.998574, 181, 183, 212, 198
-0.998575, 185, 211, 216, 226
-0.998575, 237, 279, 268, 294
-0.998575, 173, 231, 204, 246
-0.998576, 201, 219, 232, 234
-0.998576, 193, 225, 208, 352
-0.998577, 37, 97, 68, 352
-0.998577, 245, 285, 276, 300
-0.998577, 197, 327, 228, 342
-0.998579, 149, 31, 180, 46
-0.99858, 289, 231, 320, 246
-0.998581, 217, 111, 248, 126
-0.998582, 147, 81, 162, 208
-0.998585, 201, 121, 232, 136
-0.998586, 241, 145, 272, 160
-0.998587, 229, 119, 260, 134
-0.99859, 141, 39, 172, 54
-0.998591, 145, 231, 176, 246
-0.998591, 161, 61, 192, 76
-0.998593, 285, 223, 316, 238
-0.998595, 217, 231, 248, 246
-0.998595, 301, 241, 332, 256
-0.998596, 117, 185, 148, 200
-0.998596, 133, 47, 164, 62
-0.998597, 277, 239, 308, 254
-0.998597, 125, 65, 156, 80
-0.998601, 161, 185, 192, 200
-0.998602, 241, 167, 272, 182
-0.998603, 197, 321, 228, 336
-0.998608, 133, 269, 164, 284
-0.998609, 169, 43, 200, 58
-0.998609, 213, 221, 244, 236
-0.998609, 135, 161, 150, 288
-0.998612, 197, 231, 228, 246
-0.998615, 205, 109, 236, 124
-0.998615, 173, 125, 204, 140
-0.998619, 273, 233, 304, 248
-0.99862, 189, 219, 220, 234
-0.998621, 149, 97, 180, 112
-0.998622, 221, 237, 252, 252
-0.998626, 225, 145, 256, 160
-0.998629, 155, 241, 170, 368
-0.998632, 207, 97, 222, 224
-0.998632, 85, 145, 100, 272
-0.998634, 181, 247, 212, 262
-0.99864, 229, 243, 260, 258
-0.998646, 159, 145, 174, 272
-0.998649, 157, 153, 188, 168
-0.998649, 193, 225, 224, 240
-0.99865, 77, 195, 108, 210
-0.998663, 181, 241, 212, 256
-0.998663, 305, 209, 320, 336
-0.998665, 17, 409, 144, 472
-0.998675, 179, 145, 194, 272
-0.998676, 197, 115, 228, 130
-0.998685, 161, 235, 192, 250
-0.998692, 143, 129, 158, 256
-0.998695, 259, 129, 274, 256
-0.9987, 203, 305, 218, 432
-0.998704, 231, 209, 246, 336
-0.998707, 217, 161, 232, 288
-0.99871, 109, 129, 124, 256
-0.998719, 157, 1, 172, 128
-0.998724, 229, 97, 244, 224
-0.998728, 199, 241, 214, 368
-0.998729, 211, 145, 226, 272
-0.998729, 187, 209, 202, 336
-0.998743, 129, 49, 144, 176
-0.998745, 165, 17, 180, 144
-0.998753, 171, 65, 186, 192
-0.998754, 91, 145, 106, 272
-0.99876, 215, 97, 230, 224
-0.998765, 135, 113, 150, 240
-0.998769, 161, 97, 176, 224
-0.998772, 205, 193, 220, 320
-0.99878, 129, 129, 144, 256
-0.99879, 223, 129, 238, 256
-0.998792, 143, 177, 158, 304
-0.998809, 181, 225, 196, 352
-0.998811, 135, 49, 150, 176
-0.998814, 189, 113, 204, 240
-0.998816, 293, 193, 308, 320
-0.998821, 17, 337, 144, 400
-0.998822, 359, 273, 374, 400
-0.998823, 235, 161, 250, 288
-0.998827, 167, 161, 182, 288
-0.998836, 177, 33, 192, 160
-0.998837, 143, 17, 158, 144
-0.998839, 225, 177, 240, 304
-0.998845, 195, 305, 210, 432
-0.998847, 317, 209, 332, 336
-0.998847, 141, 225, 156, 352
-0.998853, 141, 81, 156, 208
-0.998857, 155, 97, 170, 224
-0.998866, 79, 113, 94, 240
-0.998881, 267, 145, 282, 272
-0.998882, 65, 193, 96, 448
-0.998883, 85, 97, 100, 224
-0.998883, 163, 273, 178, 400
-0.998888, 237, 273, 252, 400
-0.99889, 241, 193, 256, 320
-0.9989, 185, 49, 200, 176
-0.998903, 301, 273, 316, 400
-0.99891, 211, 225, 226, 352
-0.998911, 293, 257, 308, 384
-0.998917, 149, 273, 164, 400
-0.998917, 333, 257, 348, 384
-0.998919, 79, 161, 94, 288
-0.998922, 201, 97, 216, 224
-0.998925, 129, 177, 144, 304
-0.998934, 231, 257, 246, 384
-0.998935, 123, 81, 138, 208
-0.998935, 103, 145, 118, 272
-0.998938, 209, 273, 224, 400
-0.998938, 239, 81, 254, 208
-0.998939, 349, 273, 364, 400
-0.998939, 253, 113, 268, 240
-0.998945, 85, 161, 116, 416
-0.998948, 183, 97, 198, 224
-0.998949, 365, 33, 380, 160
-0.998951, 253, 177, 268, 304
-0.998967, 311, 209, 326, 336
-0.99897, 151, 1, 166, 128
-0.998978, 185, 337, 200, 464
-0.99898, 309, 161, 324, 288
-0.998986, 281, 177, 296, 304
-0.99899, 361, 161, 392, 416
-0.998994, 315, 161, 330, 288
-0.998995, 299, 209, 314, 336
-0.998999, 97, 113, 112, 240
-0.99901, 149, 129, 164, 256
-0.99901, 33, 1, 64, 256
-0.999017, 245, 113, 260, 240
-0.999031, 325, 305, 340, 432
-0.999034, 221, 81, 236, 208
-0.999037, 351, 321, 366, 448
-0.999041, 409, 1, 439, 256
-0.999053, 169, 257, 184, 384
-0.999054, 135, 209, 150, 336
-0.99906, 317, 161, 348, 416
-0.999061, 171, 17, 186, 144
-0.999063, 339, 289, 354, 416
-0.999065, 175, 305, 190, 432
-0.99907, 245, 49, 260, 176
-0.999083, 177, 81, 192, 208
-0.999085, 215, 289, 230, 416
-0.999085, 385, 1, 416, 256
-0.999086, 359, 33, 374, 160
-0.999087, 225, 225, 240, 352
-0.999087, 61, 1, 76, 128
-0.999088, 367, 289, 382, 416
-0.99909, 59, 49, 74, 176
-0.999094, 137, 1, 152, 128
-0.9991, 287, 241, 302, 368
-0.9991, 217, 225, 232, 352
-0.999102, 247, 209, 262, 336
-0.999108, 117, 177, 132, 304
-0.999109, 189, 273, 204, 400
-0.99911, 181, 289, 196, 416
-0.999111, 117, 65, 132, 192
-0.999118, 1, 145, 16, 272
-0.999125, 79, 65, 94, 192
-0.999127, 253, 225, 268, 352
-0.999129, 333, 321, 348, 448
-0.999131, 345, 81, 360, 208
-0.99914, 213, 353, 228, 480
-0.999141, 265, 97, 280, 224
-0.999144, 17, 193, 48, 448
-0.999157, 247, 161, 262, 288
-0.999159, 259, 177, 274, 304
-0.99916, 243, 273, 258, 400
-0.999179, 1, 281, 128, 344
-0.999247, 1, 369, 128, 496
-0.999309, 373, 257, 404, 500
-0.999334, 49, 129, 80, 384
-0.999571, 329, 65, 360, 320
-0.999578, 29, 193, 60, 448
-0.999582, 377, 97, 408, 352
-0.999588, 289, 1, 320, 256
-0.999601, 397, 97, 428, 352
-0.999602, 257, 369, 320, 496
-0.999605, 5, 193, 36, 448
-0.999685, 217, 109, 232, 124
-0.999685, 265, 143, 280, 158
-0.999685, 145, 161, 160, 176
-0.999685, 159, 63, 174, 78
-0.999686, 251, 165, 266, 180
-0.999686, 295, 299, 310, 314
-0.999686, 123, 91, 138, 106
-0.999686, 235, 237, 250, 252
-0.999686, 355, 325, 370, 340
-0.999687, 247, 95, 262, 110
-0.999688, 73, 197, 88, 212
-0.999688, 191, 237, 206, 252
-0.999688, 135, 69, 150, 84
-0.999688, 135, 265, 150, 280
-0.999689, 309, 241, 324, 256
-0.999689, 21, 79, 36, 94
-0.999689, 285, 223, 300, 238
-0.999689, 349, 345, 364, 360
-0.99969, 259, 145, 274, 160
-0.999691, 163, 185, 178, 200
-0.999692, 227, 143, 242, 158
-0.999693, 155, 137, 170, 152
-0.999693, 141, 75, 156, 90
-0.999693, 133, 191, 148, 206
-0.999693, 221, 119, 236, 134
-0.999694, 169, 289, 184, 304
-0.999694, 317, 231, 332, 246
-0.999694, 231, 253, 246, 268
-0.999695, 241, 167, 256, 182
-0.999695, 137, 41, 152, 56
-0.999695, 175, 93, 190, 108
-0.999697, 195, 263, 210, 278
-0.999697, 181, 75, 196, 90
-0.999698, 171, 35, 186, 50
-0.999699, 167, 91, 182, 106
-0.999699, 177, 85, 192, 100
-0.999699, 173, 61, 188, 76
-0.999699, 267, 237, 282, 252
-0.9997, 225, 111, 240, 126
-0.9997, 145, 235, 160, 250
-0.9997, 135, 211, 150, 226
-0.9997, 105, 193, 136, 448
-0.999701, 305, 221, 320, 236
-0.999702, 175, 243, 190, 258
-0.999702, 287, 235, 302, 250
-0.999702, 165, 225, 180, 240
-0.999703, 169, 283, 184, 298
-0.999704, 183, 189, 198, 204
-0.999704, 169, 43, 184, 58
-0.999704, 281, 229, 296, 244
-0.999705, 149, 269, 164, 284
-0.999706, 133, 185, 148, 200
-0.999706, 305, 227, 320, 242
-0.999707, 147, 277, 162, 292
-0.999707, 183, 249, 198, 264
-0.999707, 145, 189, 160, 204
-0.999707, 147, 105, 162, 120
-0.999707, 185, 183, 200, 198
-0.999708, 161, 43, 176, 58
-0.999709, 297, 207, 312, 222
-0.999709, 179, 41, 194, 56
-0.999709, 161, 149, 176, 164
-0.99971, 301, 295, 316, 310
-0.99971, 219, 229, 234, 244
-0.99971, 249, 127, 264, 142
-0.999712, 257, 163, 272, 178
-0.999713, 201, 325, 216, 340
-0.999713, 153, 189, 168, 204
-0.999713, 125, 71, 140, 86
-0.999713, 297, 213, 312, 228
-0.999714, 309, 235, 324, 250
-0.999715, 87, 169, 102, 184
-0.999715, 151, 95, 166, 110
-0.999716, 169, 217, 184, 232
-0.999716, 295, 285, 310, 300
-0.999716, 145, 39, 160, 54
-0.999717, 251, 141, 266, 156
-0.999717, 215, 221, 230, 236
-0.999717, 137, 201, 152, 216
-0.999717, 215, 235, 230, 250
-0.999718, 151, 229, 166, 244
-0.99972, 211, 111, 226, 126
-0.99972, 171, 53, 186, 68
-0.99972, 175, 285, 190, 300
-0.999721, 199, 215, 214, 230
-0.999722, 187, 203, 202, 218
-0.999722, 191, 247, 206, 262
-0.999724, 181, 207, 196, 222
-0.999726, 185, 53, 200, 68
-0.999726, 79, 197, 94, 212
-0.999728, 195, 179, 210, 194
-0.999728, 185, 177, 200, 192
-0.999729, 239, 275, 254, 290
-0.999729, 299, 223, 314, 238
-0.999729, 315, 245, 330, 260
-0.99973, 201, 315, 216, 330
-0.99973, 245, 145, 260, 160
-0.999732, 233, 247, 248, 262
-0.999733, 237, 269, 252, 284
-0.999734, 187, 209, 202, 224
-0.999735, 201, 167, 216, 182
-0.999737, 353, 351, 368, 366
-0.999739, 89, 195, 104, 210
-0.999741, 183, 67, 198, 82
-0.999742, 163, 233, 178, 248
-0.999745, 209, 165, 224, 180
-0.999745, 203, 223, 218, 238
-0.999748, 173, 235, 188, 250
-0.999748, 145, 47, 160, 62
-0.999748, 275, 235, 290, 250
-0.99975, 179, 219, 194, 234
-0.99975, 155, 267, 170, 282
-0.99975, 203, 333, 218, 348
-0.999751, 173, 185, 188, 200
-0.999752, 193, 215, 208, 230
-0.999753, 179, 181, 194, 196
-0.999755, 291, 241, 306, 256
-0.999755, 259, 173, 274, 188
-0.999757, 155, 43, 170, 58
-0.999757, 193, 173, 208, 188
-0.999767, 241, 281, 256, 296
-0.999767, 183, 239, 198, 254
-0.999767, 199, 309, 214, 324
-0.999772, 187, 61, 202, 76
-0.999774, 199, 209, 214, 224
-0.999776, 139, 187, 154, 202
-0.999779, 229, 241, 244, 256
-0.999785, 223, 235, 238, 250
-0.999788, 293, 231, 308, 246
-0.999818, 301, 235, 316, 250
-0.999829, 179, 57, 194, 72
-0.999895, 1, 321, 128, 448
-0.999929, 121, 257, 152, 500
-1, 385, 225, 416, 480
-1.00004, 409, 97, 439, 352
-1.00028, 49, 225, 80, 480
-1.00034, 1, 1, 439, 64
-1.0006, 1, 361, 128, 424
-1.00068, 1, 433, 439, 496
-1.00084, 1, 409, 439, 472
-1.00094, 397, 257, 428, 500
-1.00101, 81, 257, 112, 500
-1.00113, 409, 257, 439, 500
-1.00117, 1, 433, 128, 496
-1.00128, 93, 257, 124, 500
-1.00143, 1, 273, 128, 400
-1.00269, 25, 353, 88, 480
-1.00325, 361, 209, 424, 336
-1.00409, 1, 257, 64, 384
-1.00429, 73, 369, 136, 496
-1.00472, 81, 257, 144, 500
-1.00475, 41, 257, 104, 500
-1.00532, 25, 305, 88, 432
-1.00551, 81, 321, 144, 448
-1.00558, 1, 369, 64, 496
-1.00598, 49, 369, 112, 496
-1.00601, 49, 305, 112, 432
-1.00605, 337, 193, 400, 320
-1.0074, 57, 241, 120, 368
-1.00841, 33, 257, 96, 384
-1.00886, 1, 305, 64, 432
