1955
-0.321572, 1, 1, 500, 375
-0.399745, 1, 1, 256, 375
-0.464761, 1, 1, 500, 256
-0.53844, 1, 1, 256, 256
-0.565558, 1, 97, 500, 352
-0.576262, 97, 1, 352, 375
-0.665708, 257, 1, 500, 375
-0.711685, 97, 65, 352, 320
-0.769684, 1, 97, 256, 352
-0.807331, 257, 1, 500, 256
-0.8252, 17, 1, 144, 375
-0.838925, 17, 1, 144, 256
-0.857185, 81, 1, 208, 375
-0.863177, 17, 97, 144, 352
-0.866203, 65, 1, 192, 256
-0.872287, 1, 1, 500, 128
-0.894734, 113, 1, 240, 256
-0.899508, 1, 81, 500, 208
-0.90587, 337, 1, 464, 375
-0.906081, 1, 17, 256, 144
-0.907906, 369, 1, 496, 256
-0.909605, 129, 1, 256, 375
-0.913131, 289, 1, 416, 375
-0.913629, 1, 33, 128, 160
-0.914871, 209, 65, 336, 320
-0.917835, 97, 97, 224, 352
-0.919454, 321, 1, 448, 256
-0.923076, 81, 1, 208, 128
-0.923628, 241, 1, 368, 375
-0.924341, 193, 1, 320, 375
-0.92585, 161, 65, 288, 320
-0.927579, 257, 65, 384, 320
-0.928441, 1, 65, 256, 192
-0.930945, 105, 1, 168, 128
-0.932217, 33, 33, 96, 160
-0.93293, 65, 33, 128, 160
-0.934565, 33, 129, 160, 256
-0.93868, 81, 49, 208, 176
-0.940172, 1, 161, 256, 288
-0.94043, 9, 33, 72, 160
-0.940966, 97, 81, 352, 208
-0.942102, 17, 81, 144, 208
-0.943164, 129, 1, 192, 128
-0.94486, 89, 97, 152, 224
-0.946577, 97, 145, 160, 272
-0.947518, 33, 177, 160, 304
-0.947525, 97, 17, 352, 144
-0.948196, 57, 129, 120, 256
-0.949471, 89, 49, 152, 112
-0.952026, 73, 193, 136, 320
-0.95207, 25, 41, 88, 104
-0.952082, 1, 113, 256, 240
-0.952603, 89, 49, 152, 176
-0.95305, 129, 1, 256, 128
-0.953873, 33, 241, 160, 368
-0.95453, 225, 65, 480, 192
-0.955979, 89, 137, 152, 200
-0.956514, 97, 161, 160, 224
-0.956645, 33, 161, 96, 288
-0.956746, 89, 289, 152, 352
-0.95755, 1, 129, 64, 256
-0.958194, 89, 241, 152, 368
-0.958362, 129, 33, 192, 96
-0.958537, 113, 49, 176, 176
-0.958792, 57, 81, 120, 144
-0.958875, 89, 265, 152, 328
-0.959924, 113, 9, 176, 72
-0.960356, 49, 49, 112, 112
-0.960378, 41, 81, 104, 208
-0.960442, 89, 9, 152, 72
-0.960626, 1, 225, 256, 352
-0.960683, 65, 81, 128, 208
-0.961342, 129, 81, 256, 208
-0.962374, 25, 209, 88, 336
-0.963166, 33, 185, 96, 248
-0.963193, 369, 17, 496, 144
-0.963284, 97, 73, 160, 136
-0.963571, 257, 17, 500, 144
-0.963765, 97, 1, 160, 256
-0.964339, 105, 185, 168, 248
-0.964997, 81, 97, 208, 224
-0.96505, 57, 33, 120, 288
-0.965536, 1, 41, 128, 104
-0.966075, 353, 97, 480, 352
-0.966137, 385, 1, 448, 128
-0.966153, 1, 177, 500, 304
-0.966666, 93, 33, 124, 160
-0.966991, 1, 81, 64, 208
-0.967098, 33, 1, 96, 256
-0.967327, 137, 65, 200, 192
-0.967414, 65, 113, 128, 176
-0.967622, 17, 89, 80, 152
-0.967835, 1, 49, 64, 112
-0.968188, 1, 89, 128, 152
-0.968576, 337, 65, 464, 192
-0.968808, 65, 41, 192, 104
-0.968972, 73, 225, 136, 288
-0.969118, 81, 161, 208, 288
-0.969132, 321, 17, 448, 144
-0.969198, 97, 161, 352, 288
-0.969731, 161, 65, 224, 128
-0.970128, 93, 105, 124, 168
-0.970151, 193, 97, 448, 352
-0.970284, 113, 1, 144, 128
-0.970556, 1, 33, 64, 288
-0.97079, 57, 169, 120, 232
-0.97083, 121, 177, 184, 304
-0.970917, 89, 113, 152, 176
-0.971103, 33, 169, 64, 232
-0.971248, 257, 81, 384, 208
-0.971292, 129, 1, 160, 128
-0.971374, 29, 33, 60, 160
-0.971446, 9, 193, 72, 256
-0.971541, 305, 97, 432, 352
-0.971816, 85, 73, 116, 136
-0.971818, 81, 33, 112, 160
-0.971872, 13, 49, 44, 176
-0.971916, 137, 57, 200, 120
-0.972183, 97, 81, 128, 208
-0.972302, 33, 153, 160, 216
-0.972389, 49, 225, 112, 352
-0.972511, 77, 49, 108, 112
-0.972521, 13, 65, 44, 128
-0.972645, 57, 25, 120, 88
-0.972743, 113, 313, 176, 375
-0.972782, 73, 129, 136, 375
-0.973042, 369, 65, 432, 192
-0.973194, 93, 41, 124, 104
-0.973207, 97, 241, 352, 368
-0.973248, 65, 137, 128, 200
-0.973434, 153, 17, 216, 144
-0.9735, 1, 65, 128, 128
-0.973527, 49, 1, 176, 64
-0.973618, 81, 65, 208, 128
-0.973685, 17, 113, 144, 176
-0.97389, 21, 89, 52, 152
-0.973988, 177, 81, 304, 208
-0.974015, 393, 1, 456, 64
-0.974113, 33, 129, 64, 256
-0.974144, 97, 129, 160, 375
-0.974266, 241, 81, 304, 208
-0.974388, 25, 161, 88, 224
-0.974438, 1, 49, 32, 176
-0.974443, 185, 73, 248, 136
-0.974455, 1, 169, 64, 232
-0.974494, 33, 113, 96, 176
-0.974517, 129, 17, 160, 80
-0.974625, 49, 265, 112, 328
-0.974771, 17, 225, 80, 288
-0.974868, 17, 185, 144, 248
-0.975213, 33, 193, 64, 256
-0.975216, 65, 33, 96, 160
-0.975243, 1, 129, 64, 192
-0.975264, 81, 225, 208, 352
-0.975287, 141, 17, 172, 80
-0.97536, 101, 129, 132, 192
-0.975391, 361, 1, 424, 128
-0.975524, 141, 1, 172, 128
-0.975605, 65, 233, 96, 296
-0.975849, 65, 49, 96, 112
-0.975911, 1, 129, 500, 256
-0.975922, 21, 129, 52, 192
-0.97607, 137, 9, 200, 72
-0.976086, 185, 81, 248, 208
-0.976107, 117, 145, 148, 272
-0.976267, 117, 9, 148, 72
-0.976319, 41, 33, 72, 160
-0.976384, 1, 65, 32, 128
-0.976452, 125, 161, 156, 224
-0.976491, 65, 201, 128, 264
-0.97652, 409, 17, 472, 144
-0.976606, 105, 49, 136, 112
-0.976676, 345, 65, 408, 192
-0.976701, 25, 65, 88, 128
-0.97673, 217, 81, 280, 208
-0.976953, 89, 313, 152, 375
-0.977192, 25, 49, 56, 112
-0.977235, 113, 49, 144, 176
-0.977535, 9, 89, 40, 152
-0.977573, 41, 137, 104, 200
-0.97785, 121, 41, 152, 104
-0.977864, 49, 1, 112, 375
-0.977886, 113, 33, 240, 96
-0.977929, 41, 209, 104, 272
-0.978028, 73, 73, 104, 136
-0.978113, 161, 65, 224, 192
-0.978221, 21, 113, 52, 240
-0.978274, 1, 177, 64, 304
-0.978374, 17, 217, 144, 280
-0.978793, 65, 313, 192, 375
-0.978852, 129, 161, 192, 224
-0.97893, 53, 177, 84, 304
-0.979007, 313, 81, 376, 208
-0.979104, 25, 1, 88, 375
-0.979167, 337, 81, 400, 144
-0.979276, 49, 41, 80, 104
-0.979301, 241, 33, 368, 160
-0.979355, 113, 265, 144, 328
-0.979376, 73, 225, 104, 352
-0.979793, 153, 33, 216, 96
-0.979826, 193, 33, 320, 160
-0.979953, 121, 1, 184, 256
-0.979977, 233, 89, 296, 152
-0.979982, 273, 81, 336, 208
-0.980008, 297, 89, 360, 152
-0.980025, 109, 161, 140, 224
-0.980054, 45, 201, 76, 264
-0.980065, 1, 225, 500, 352
-0.980073, 409, 81, 472, 208
-0.980164, 433, 81, 496, 208
-0.980171, 141, 41, 172, 104
-0.981128, 1, 25, 64, 88
-0.981208, 129, 81, 192, 144
-0.981266, 369, 73, 432, 136
-0.981339, 201, 33, 264, 160
-0.981652, 1, 1, 64, 375
-0.981664, 33, 241, 160, 304
-0.981691, 77, 81, 108, 208
-0.981743, 125, 281, 156, 344
-0.981757, 189, 73, 220, 136
-0.982001, 109, 209, 140, 336
-0.982067, 17, 129, 80, 375
-0.982108, 53, 33, 84, 160
-0.982122, 265, 89, 328, 152
-0.982215, 33, 273, 160, 336
-0.98237, 97, 265, 128, 328
-0.982413, 433, 17, 496, 144
-0.982582, 65, 177, 96, 304
-0.982606, 37, 41, 68, 104
-0.982622, 81, 177, 208, 240
-0.982713, 385, 1, 448, 256
-0.982941, 105, 129, 136, 256
-0.982993, 73, 1, 136, 375
-0.983007, 97, 9, 224, 72
-0.983061, 97, 193, 128, 320
-0.983123, 81, 89, 208, 152
-0.983171, 329, 17, 392, 144
-0.983196, 45, 177, 76, 240
-0.983322, 393, 73, 456, 136
-0.983364, 125, 81, 156, 208
-0.983401, 81, 129, 112, 256
-0.983509, 113, 233, 176, 296
-0.983557, 97, 73, 128, 136
-0.983701, 113, 281, 176, 344
-0.983782, 117, 185, 148, 248
-0.983782, 45, 225, 76, 288
-0.983871, 177, 1, 240, 128
-0.983874, 25, 17, 88, 80
-0.983879, 145, 65, 272, 128
-0.983992, 105, 1, 136, 64
-0.983995, 209, 65, 272, 128
-0.984032, 289, 89, 416, 152
-0.984065, 41, 177, 72, 304
-0.984092, 65, 113, 192, 176
-0.984191, 85, 177, 116, 304
-0.984194, 425, 1, 488, 64
-0.984222, 417, 73, 480, 136
-0.98423, 273, 33, 336, 160
-0.984336, 41, 241, 104, 304
-0.98448, 153, 1, 184, 128
-0.984521, 249, 33, 312, 160
-0.984536, 145, 33, 208, 288
-0.98456, 169, 57, 200, 120
-0.984605, 9, 97, 40, 224
-0.984701, 109, 241, 140, 304
-0.98487, 121, 1, 184, 375
-0.984871, 369, 1, 496, 64
-0.984953, 61, 209, 92, 272
-0.985061, 29, 177, 60, 304
-0.985171, 417, 97, 480, 160
-0.985352, 85, 161, 116, 224
-0.985411, 209, 89, 272, 152
-0.985598, 101, 217, 132, 280
-0.985714, 81, 281, 208, 344
-0.985787, 73, 265, 104, 328
-0.985938, 77, 121, 108, 184
-0.985941, 361, 1, 424, 256
-0.986092, 217, 65, 280, 320
-0.986129, 233, 65, 296, 128
-0.98615, 385, 1, 416, 128
-0.986301, 113, 257, 176, 320
-0.986373, 109, 73, 140, 136
-0.986406, 77, 25, 108, 88
-0.986411, 33, 217, 64, 280
-0.986508, 65, 25, 96, 88
-0.986521, 137, 313, 168, 375
-0.986583, 137, 129, 200, 256
-0.986639, 129, 161, 160, 288
-0.986644, 421, 1, 452, 128
-0.986711, 337, 73, 464, 136
-0.986728, 297, 57, 360, 120
-0.986747, 377, 33, 440, 96
-0.986789, 141, 65, 172, 192
-0.986802, 193, 65, 256, 320
-0.986902, 97, 1, 160, 375
-0.986914, 257, 65, 320, 128
-0.986942, 57, 185, 88, 248
-0.986951, 105, 97, 136, 160
-0.986954, 305, 33, 368, 160
-0.986977, 401, 1, 432, 64
-0.987038, 33, 81, 64, 144
-0.987047, 129, 241, 256, 368
-0.987053, 153, 73, 184, 136
-0.987098, 121, 241, 152, 368
-0.987235, 157, 41, 188, 104
-0.987295, 49, 129, 112, 375
-0.987392, 1, 17, 128, 80
-0.987418, 49, 297, 112, 360
-0.987505, 397, 1, 428, 128
-0.987547, 81, 249, 208, 312
-0.987653, 369, 9, 432, 72
-0.987669, 145, 9, 272, 72
-0.987824, 385, 97, 448, 160
-0.987926, 225, 89, 352, 152
-0.987965, 93, 185, 124, 248
-0.987993, 13, 41, 44, 104
-0.988014, 117, 137, 148, 200
-0.988149, 137, 161, 168, 224
-0.988199, 429, 1, 460, 64
-0.988238, 409, 1, 440, 128
-0.988296, 1, 305, 128, 368
-0.988365, 169, 33, 200, 160
-0.988388, 25, 49, 88, 80
-0.988461, 289, 57, 416, 120
-0.988575, 81, 137, 208, 200
-0.988585, 177, 89, 304, 152
-0.988596, 321, 57, 384, 120
-0.988602, 169, 65, 232, 320
-0.988645, 97, 169, 160, 200
-0.988787, 81, 225, 112, 288
-0.988821, 33, 81, 64, 208
-0.988919, 97, 193, 160, 320
-0.988952, 97, 185, 160, 216
-0.988958, 217, 73, 248, 136
-0.988976, 201, 73, 232, 136
-0.988986, 41, 17, 72, 80
-0.989011, 157, 17, 188, 80
-0.989012, 89, 73, 152, 104
-0.989021, 193, 65, 320, 128
-0.989036, 273, 89, 304, 152
-0.989166, 89, 153, 152, 184
-0.989174, 9, 1, 40, 128
-0.989193, 21, 153, 52, 216
-0.989224, 65, 217, 192, 280
-0.989255, 89, 273, 152, 304
-0.989257, 93, 241, 124, 368
-0.989289, 1, 41, 32, 104
-0.9893, 241, 65, 368, 128
-0.989303, 345, 57, 408, 120
-0.989438, 237, 89, 268, 152
-0.989448, 177, 25, 208, 88
-0.989462, 353, 1, 416, 375
-0.989463, 273, 65, 336, 320
-0.989486, 89, 301, 152, 332
-0.989503, 469, 1, 500, 64
-0.989532, 249, 65, 312, 320
-0.989541, 57, 53, 120, 84
-0.989589, 65, 73, 320, 136
-0.989616, 161, 89, 224, 152
-0.989625, 121, 129, 184, 375
-0.989635, 5, 113, 36, 176
-0.9897, 81, 133, 144, 164
-0.989722, 245, 81, 276, 208
-0.989753, 81, 97, 112, 160
-0.989779, 225, 33, 288, 160
-0.989821, 113, 241, 176, 368
-0.989882, 153, 305, 216, 368
-0.989889, 169, 81, 232, 112
-0.9899, 97, 161, 128, 224
-0.989927, 129, 65, 160, 128
-0.989943, 121, 41, 184, 72
-0.989953, 57, 93, 120, 124
-0.989999, 25, 25, 56, 88
-0.990117, 129, 81, 192, 112
-0.990138, 121, 21, 184, 52
-0.990207, 81, 49, 144, 80
-0.990211, 97, 9, 160, 40
-0.990277, 353, 49, 480, 112
-0.990299, 25, 201, 88, 232
-0.990379, 9, 93, 72, 124
-0.990405, 105, 25, 136, 88
-0.990415, 17, 61, 80, 92
-0.990426, 57, 129, 88, 256
-0.990435, 89, 289, 152, 320
-0.990468, 25, 37, 88, 68
-0.990485, 229, 81, 260, 208
-0.990488, 425, 1, 488, 256
-0.990505, 1, 49, 256, 112
-0.990529, 45, 113, 76, 240
-0.990529, 57, 173, 120, 204
-0.990532, 73, 121, 136, 152
-0.990543, 133, 193, 164, 256
-0.990569, 129, 305, 256, 368
-0.99058, 21, 185, 52, 248
-0.99059, 97, 37, 160, 68
-0.990607, 25, 189, 88, 220
-0.990658, 57, 81, 120, 112
-0.990678, 121, 1, 184, 32
-0.990702, 81, 261, 144, 292
-0.990709, 305, 65, 368, 320
-0.990715, 61, 225, 92, 352
-0.990764, 377, 65, 408, 192
-0.990811, 329, 65, 360, 192
-0.990826, 49, 41, 112, 72
-0.990827, 365, 81, 396, 144
-0.990833, 337, 65, 400, 320
-0.990861, 177, 41, 240, 104
-0.990901, 137, 69, 200, 100
-0.990902, 113, 53, 176, 84
-0.990916, 161, 97, 224, 128
-0.990937, 81, 109, 144, 140
-0.990942, 377, 1, 440, 375
-0.990952, 121, 169, 184, 200
-0.990953, 33, 137, 96, 168
-0.99096, 313, 1, 376, 375
-0.990975, 25, 177, 88, 208
-0.991011, 41, 125, 104, 156
-0.991037, 105, 201, 168, 232
-0.991066, 93, 289, 124, 352
-0.991068, 373, 17, 404, 144
-0.99107, 181, 65, 212, 192
-0.991077, 145, 21, 208, 52
-0.991081, 37, 145, 68, 208
-0.991092, 45, 225, 76, 352
-0.991119, 9, 105, 72, 136
-0.991187, 1, 133, 64, 164
-0.991191, 41, 113, 72, 176
-0.991197, 97, 85, 160, 116
-0.991201, 129, 89, 256, 152
-0.991205, 201, 81, 232, 208
-0.991214, 57, 257, 120, 288
-0.991224, 69, 97, 100, 160
-0.991243, 369, 97, 496, 160
-0.991261, 105, 313, 168, 344
-0.991264, 17, 217, 80, 248
-0.991275, 401, 49, 432, 176
-0.991303, 341, 81, 372, 144
-0.991336, 201, 93, 264, 124
-0.991339, 33, 81, 96, 112
-0.991362, 73, 1, 136, 32
-0.991375, 137, 225, 200, 352
-0.991376, 57, 189, 120, 220
-0.991387, 1, 49, 64, 80
-0.991388, 57, 237, 120, 268
-0.991404, 1, 89, 500, 152
-0.99141, 329, 89, 360, 152
-0.991416, 317, 65, 348, 192
-0.99142, 301, 89, 332, 152
-0.991437, 73, 221, 136, 252
-0.99151, 401, 1, 464, 32
-0.991525, 97, 21, 160, 52
-0.991525, 57, 269, 120, 300
-0.991565, 241, 93, 304, 124
-0.991579, 57, 209, 120, 240
-0.991591, 365, 65, 396, 192
-0.991614, 93, 313, 124, 375
-0.991636, 81, 249, 144, 280
-0.991643, 193, 81, 256, 112
-0.991661, 49, 29, 112, 60
-0.991691, 141, 73, 172, 136
-0.991694, 153, 65, 184, 192
-0.991737, 145, 33, 208, 64
-0.991783, 9, 165, 72, 196
-0.991805, 217, 49, 248, 176
-0.991816, 337, 85, 400, 116
-0.991854, 369, 81, 432, 112
-0.991857, 17, 229, 80, 260
-0.991859, 145, 9, 208, 40
-0.991874, 1, 189, 64, 220
-0.991876, 81, 61, 144, 92
-0.991878, 81, 77, 208, 108
-0.991882, 1, 145, 64, 176
-0.991888, 105, 209, 168, 272
-0.991896, 81, 237, 144, 268
-0.991905, 49, 225, 112, 256
-0.991929, 57, 137, 120, 168
-0.991969, 189, 1, 220, 128
-0.991972, 27, 89, 42, 152
-0.991984, 161, 61, 224, 92
-0.991989, 433, 17, 464, 144
-0.991999, 169, 81, 200, 144
-0.99201, 233, 1, 296, 375
-0.992017, 417, 81, 448, 208
-0.992027, 353, 33, 416, 96
-0.992032, 113, 65, 176, 96
-0.992032, 429, 81, 460, 208
-0.992034, 257, 81, 288, 208
-0.992034, 273, 81, 304, 208
-0.992044, 49, 1, 112, 64
-0.992051, 265, 97, 328, 128
-0.992076, 53, 17, 84, 80
-0.992082, 129, 137, 192, 200
-0.992086, 89, 17, 120, 80
-0.992091, 93, 129, 124, 160
-0.992105, 17, 117, 80, 148
-0.992106, 113, 285, 176, 316
-0.992128, 353, 81, 384, 208
-0.992133, 125, 165, 156, 196
-0.992143, 41, 69, 104, 100
-0.992143, 1, 177, 64, 208
-0.992156, 425, 97, 488, 128
-0.992184, 413, 1, 444, 64
-0.992187, 353, 25, 480, 88
-0.992201, 297, 93, 360, 124
-0.992202, 105, 185, 136, 248
-0.992203, 1, 201, 64, 232
-0.992211, 1, 73, 64, 104
-0.992231, 57, 109, 120, 140
-0.992241, 97, 97, 160, 128
-0.992255, 29, 49, 60, 80
-0.992262, 133, 21, 164, 52
-0.992264, 113, 257, 176, 288
-0.992265, 89, 117, 120, 148
-0.992274, 21, 129, 52, 160
-0.992276, 41, 161, 104, 192
-0.992282, 49, 313, 112, 344
-0.992291, 73, 33, 136, 64
-0.992293, 129, 189, 192, 220
-0.992296, 257, 1, 320, 375
-0.992297, 129, 161, 256, 224
-0.992302, 81, 325, 144, 356
-0.992312, 61, 257, 92, 320
-0.992314, 401, 49, 464, 112
-0.992315, 393, 13, 456, 44
-0.992325, 193, 1, 256, 375
-0.992359, 389, 65, 420, 192
-0.992372, 377, 65, 408, 128
-0.992377, 389, 73, 420, 136
-0.992387, 85, 77, 116, 108
-0.992388, 129, 345, 192, 375
-0.992389, 33, 193, 64, 224
-0.99239, 13, 89, 44, 120
-0.992392, 385, 29, 448, 60
-0.992398, 1, 33, 64, 64
-0.992404, 57, 285, 120, 316
-0.992406, 17, 49, 144, 80
-0.992414, 25, 249, 88, 280
-0.992432, 45, 217, 76, 248
-0.992432, 425, 1, 488, 32
-0.99245, 105, 177, 136, 208
-0.992458, 317, 89, 348, 152
-0.992481, 33, 25, 288, 88
-0.992482, 93, 129, 124, 256
-0.992487, 281, 1, 344, 375
-0.992491, 145, 45, 208, 76
-0.992492, 401, 89, 464, 120
-0.992503, 89, 89, 120, 120
-0.992505, 49, 149, 112, 180
-0.992512, 33, 93, 96, 124
-0.992517, 65, 161, 128, 192
-0.992536, 377, 93, 440, 124
-0.992548, 113, 157, 176, 188
-0.99255, 65, 233, 96, 264
-0.99256, 121, 17, 152, 48
-0.992565, 273, 85, 336, 116
-0.992569, 33, 181, 64, 212
-0.992574, 109, 265, 140, 296
-0.992588, 313, 81, 376, 112
-0.992604, 129, 177, 160, 208
-0.992611, 113, 137, 176, 168
-0.992615, 121, 285, 152, 316
-0.992617, 353, 81, 384, 144
-0.992621, 133, 33, 164, 64
-0.992625, 137, 297, 200, 328
-0.992625, 33, 205, 64, 236
-0.992639, 129, 1, 160, 32
-0.992641, 113, 1, 144, 32
-0.992646, 21, 101, 52, 132
-0.992653, 73, 77, 104, 108
-0.992653, 101, 1, 132, 32
-0.992664, 101, 109, 132, 140
-0.992671, 181, 81, 212, 112
-0.992676, 121, 41, 152, 72
-0.992678, 401, 101, 464, 132
-0.992684, 145, 325, 208, 356
-0.992701, 113, 301, 176, 332
-0.992701, 53, 45, 84, 76
-0.992711, 105, 213, 168, 244
-0.992728, 21, 113, 52, 144
-0.992729, 261, 89, 292, 152
-0.992737, 137, 57, 200, 88
-0.992737, 97, 73, 128, 104
-0.992739, 41, 45, 72, 76
-0.992753, 93, 49, 124, 80
-0.992761, 105, 125, 168, 156
-0.992763, 369, 9, 432, 40
-0.992764, 9, 101, 40, 132
-0.992765, 113, 333, 176, 364
-0.992768, 161, 81, 192, 112
-0.992773, 65, 245, 96, 276
-0.992781, 149, 17, 180, 48
-0.992787, 101, 141, 132, 172
-0.992797, 49, 333, 112, 364
-0.992798, 221, 97, 252, 160
-0.992801, 25, 89, 56, 120
-0.99281, 53, 229, 84, 260
-0.992813, 113, 165, 144, 196
-0.992818, 33, 261, 96, 292
-0.992828, 33, 221, 64, 252
-0.99284, 117, 181, 148, 212
-0.992843, 87, 49, 102, 112
-0.99285, 25, 157, 56, 188
-0.992858, 193, 69, 256, 100
-0.992858, 113, 273, 176, 304
-0.992865, 105, 49, 136, 80
-0.992869, 9, 69, 40, 100
-0.992873, 117, 153, 148, 184
-0.992877, 105, 153, 136, 184
-0.992884, 225, 81, 288, 112
-0.992884, 25, 149, 88, 180
-0.992884, 137, 97, 200, 128
-0.992889, 425, 85, 488, 116
-0.992891, 81, 49, 112, 80
-0.992897, 105, 109, 168, 140
-0.992903, 49, 345, 112, 375
-0.99291, 197, 77, 228, 108
-0.992923, 89, 137, 120, 200
-0.992926, 53, 185, 84, 216
-0.992926, 81, 209, 144, 240
-0.992934, 217, 93, 248, 124
-0.992937, 93, 165, 124, 196
-0.992942, 101, 289, 132, 320
-0.992946, 249, 81, 312, 112
-0.992954, 113, 245, 176, 276
-0.992961, 137, 193, 168, 224
-0.992965, 361, 97, 424, 160
-0.992982, 113, 105, 176, 168
-0.992989, 93, 301, 124, 332
-0.992995, 93, 265, 124, 296
-0.993002, 37, 33, 68, 64
-0.99301, 85, 65, 116, 96
-0.993013, 69, 269, 100, 300
-0.993017, 53, 205, 84, 236
-0.993017, 69, 53, 100, 84
-0.993029, 77, 89, 108, 120
-0.993031, 109, 253, 140, 284
-0.993032, 245, 89, 276, 120
-0.993036, 109, 129, 140, 160
-0.993036, 145, 1, 208, 375
-0.993039, 285, 81, 316, 208
-0.993051, 89, 329, 120, 360
-0.993054, 17, 65, 32, 128
-0.993066, 389, 17, 420, 80
-0.993071, 61, 217, 92, 248
-0.993072, 25, 145, 56, 176
-0.993082, 25, 61, 56, 92
-0.993084, 29, 169, 60, 200
-0.993086, 89, 101, 120, 132
-0.993089, 97, 277, 128, 308
-0.993097, 145, 73, 176, 104
-0.993098, 125, 297, 156, 328
-0.993099, 121, 273, 152, 304
-0.993111, 99, 73, 114, 136
-0.993114, 73, 133, 104, 164
-0.993116, 5, 49, 36, 80
-0.993126, 101, 37, 132, 68
-0.993127, 77, 313, 108, 344
-0.993131, 441, 1, 472, 64
-0.993137, 145, 29, 176, 60
-0.993137, 133, 313, 164, 344
-0.993142, 177, 93, 208, 124
-0.993146, 1, 185, 256, 248
-0.993148, 161, 33, 192, 64
-0.99315, 89, 201, 120, 232
-0.993151, 73, 113, 104, 144
-0.99316, 27, 57, 42, 120
-0.993161, 41, 137, 72, 168
-0.993164, 21, 189, 52, 220
-0.993167, 189, 97, 220, 128
-0.993168, 205, 89, 236, 120
-0.993172, 109, 61, 140, 92
-0.993177, 129, 57, 160, 88
-0.993181, 149, 49, 180, 80
-0.993183, 61, 73, 92, 104
-0.993185, 101, 221, 132, 252
-0.993187, 1, 113, 32, 144
-0.993189, 125, 73, 156, 104
-0.993203, 261, 93, 292, 124
-0.993203, 41, 233, 72, 264
-0.993207, 81, 225, 112, 256
-0.993217, 9, 125, 40, 156
-0.993223, 69, 37, 100, 68
-0.993232, 61, 73, 92, 136
-0.993242, 109, 277, 140, 308
-0.993244, 81, 289, 112, 320
-0.993247, 1, 89, 32, 120
-0.993248, 161, 49, 192, 80
-0.993251, 69, 257, 100, 288
-0.993251, 365, 85, 396, 116
-0.993257, 79, 49, 94, 112
-0.993262, 229, 97, 260, 128
-0.993263, 141, 5, 172, 36
-0.993265, 329, 89, 360, 120
-0.993271, 401, 1, 464, 375
-0.993272, 129, 281, 256, 344
-0.993275, 85, 177, 116, 208
-0.993283, 157, 65, 188, 96
-0.993298, 25, 37, 56, 68
-0.993305, 149, 85, 180, 116
-0.993306, 117, 141, 148, 172
-0.993307, 85, 189, 116, 220
-0.993308, 129, 149, 160, 180
-0.99331, 141, 293, 172, 324
-0.993315, 97, 61, 128, 92
-0.99332, 17, 49, 48, 80
-0.993321, 73, 65, 104, 96
-0.993321, 109, 73, 140, 104
-0.993322, 277, 93, 308, 124
-0.993328, 353, 89, 384, 120
-0.993329, 289, 93, 320, 124
-0.993331, 77, 237, 108, 268
-0.993332, 37, 93, 68, 124
-0.993333, 13, 161, 44, 288
-0.99334, 13, 201, 44, 232
-0.993354, 173, 25, 204, 56
-0.993379, 1, 49, 500, 112
-0.9934, 445, 81, 476, 208
-0.993423, 105, 289, 136, 352
-0.993494, 177, 33, 304, 96
-0.993498, 97, 49, 112, 112
-0.993502, 1, 17, 500, 80
-0.993532, 301, 81, 332, 208
-0.993547, 341, 81, 372, 208
-0.993564, 139, 161, 154, 224
-0.993614, 65, 97, 320, 160
-0.993633, 433, 1, 496, 375
-0.993648, 17, 97, 144, 128
-0.993665, 133, 9, 148, 72
-0.993689, 181, 49, 212, 112
-0.99369, 45, 193, 60, 256
-0.99369, 409, 73, 440, 136
-0.993706, 81, 201, 112, 264
-0.993827, 125, 305, 156, 368
-0.993828, 49, 153, 80, 216
-0.993837, 41, 169, 56, 232
-0.993842, 33, 121, 48, 184
-0.99386, 33, 165, 160, 196
-0.993907, 89, 73, 104, 136
-0.993911, 17, 133, 144, 164
-0.993935, 329, 57, 360, 120
-0.993958, 205, 97, 236, 160
-0.99396, 141, 17, 156, 80
-0.993964, 285, 89, 316, 152
-0.99404, 429, 89, 460, 152
-0.994095, 65, 45, 192, 76
-0.9941, 449, 33, 480, 160
-0.994103, 249, 89, 280, 152
-0.994107, 457, 73, 488, 136
-0.994131, 77, 289, 108, 352
-0.994183, 185, 97, 248, 160
-0.994199, 205, 33, 236, 160
-0.994232, 105, 97, 120, 160
-0.994251, 129, 185, 192, 248
-0.994272, 229, 65, 260, 128
-0.994293, 341, 33, 372, 160
-0.994316, 321, 1, 448, 64
-0.994322, 257, 65, 288, 128
-0.99436, 55, 201, 70, 264
-0.994364, 17, 193, 144, 224
-0.994373, 137, 281, 200, 344
-0.994377, 305, 33, 432, 96
-0.994387, 21, 209, 52, 272
-0.99439, 125, 9, 140, 72
-0.994395, 177, 1, 208, 64
-0.9944, 1, 85, 128, 116
-0.9944, 33, 89, 48, 152
-0.994401, 1, 61, 128, 92
-0.994416, 161, 1, 224, 64
-0.994444, 75, 233, 90, 296
-0.994453, 225, 73, 480, 136
-0.99451, 65, 81, 96, 208
-0.994548, 129, 81, 256, 112
-0.99456, 1, 129, 256, 192
-0.994564, 125, 41, 140, 104
-0.994567, 357, 57, 388, 120
-0.994578, 95, 113, 110, 176
-0.994581, 85, 249, 116, 312
-0.994595, 33, 241, 160, 272
-0.994642, 17, 181, 144, 212
-0.994654, 17, 109, 144, 140
-0.994655, 425, 33, 488, 96
-0.994656, 461, 81, 492, 208
-0.99467, 1, 161, 256, 224
-0.994673, 169, 1, 232, 375
-0.994681, 135, 33, 150, 96
-0.994688, 129, 137, 160, 200
-0.994697, 17, 153, 144, 184
-0.994729, 441, 97, 472, 160
-0.994731, 107, 41, 122, 104
-0.994741, 21, 89, 36, 152
-0.994782, 33, 41, 48, 104
-0.994804, 17, 205, 144, 236
-0.994816, 123, 145, 138, 208
-0.99488, 285, 65, 316, 128
-0.994902, 429, 57, 460, 120
-0.994912, 69, 49, 84, 112
-0.994919, 33, 221, 160, 252
-0.994926, 1, 1, 256, 64
-0.99498, 17, 121, 144, 152
-0.99498, 185, 17, 248, 80
-0.994998, 401, 25, 464, 88
-0.995035, 469, 97, 500, 160
-0.995037, 457, 97, 488, 160
-0.995038, 47, 169, 62, 232
-0.995079, 149, 17, 164, 80
-0.995091, 27, 113, 42, 176
-0.995091, 113, 225, 240, 288
-0.995138, 81, 89, 208, 120
-0.995164, 193, 97, 224, 160
-0.995196, 141, 145, 172, 272
-0.995246, 121, 249, 136, 312
-0.995247, 129, 49, 384, 112
-0.99526, 81, 65, 208, 96
-0.995265, 229, 33, 260, 160
-0.995266, 9, 65, 24, 128
-0.995274, 141, 41, 156, 104
-0.995281, 3, 65, 18, 128
-0.995286, 33, 233, 288, 296
-0.995296, 37, 1, 68, 256
-0.995366, 119, 1, 134, 64
-0.995401, 113, 97, 176, 224
-0.995401, 361, 17, 392, 144
-0.995404, 65, 177, 192, 208
-0.995462, 129, 161, 144, 224
-0.995487, 49, 33, 176, 64
-0.99551, 39, 193, 54, 256
-0.995519, 65, 321, 192, 352
-0.995523, 33, 185, 48, 248
-0.995547, 63, 41, 78, 104
-0.995551, 97, 1, 352, 64
-0.995555, 49, 13, 176, 44
-0.995569, 127, 265, 142, 328
-0.99564, 97, 33, 224, 64
-0.995645, 469, 33, 500, 160
-0.995665, 33, 313, 288, 375
-0.995668, 81, 1, 208, 32
-0.995673, 49, 41, 64, 104
-0.995673, 113, 49, 128, 112
-0.995699, 285, 33, 316, 160
-0.995718, 81, 301, 208, 332
-0.995722, 105, 73, 120, 136
-0.995729, 249, 33, 280, 160
-0.99574, 57, 41, 72, 104
-0.995782, 33, 289, 288, 352
-0.995784, 209, 93, 336, 124
-0.995791, 1, 209, 256, 272
-0.995864, 39, 49, 54, 112
-0.99588, 65, 333, 192, 364
-0.995893, 81, 241, 96, 304
-0.995894, 159, 41, 174, 104
-0.995903, 177, 81, 304, 112
-0.995904, 37, 145, 52, 208
-0.995913, 119, 41, 134, 104
-0.995943, 65, 345, 192, 375
-0.995966, 115, 145, 130, 208
-0.995967, 79, 73, 94, 136
-0.995973, 149, 41, 164, 104
-0.995991, 21, 1, 52, 256
-0.996053, 69, 233, 84, 296
-0.99607, 99, 161, 114, 224
-0.996083, 111, 257, 126, 320
-0.996085, 117, 225, 132, 288
-0.996089, 85, 33, 116, 288
-0.996121, 1, 37, 128, 68
-0.99614, 53, 177, 68, 240
-0.996141, 109, 161, 124, 224
-0.996176, 21, 113, 36, 176
-0.996184, 257, 93, 384, 124
-0.996212, 93, 145, 108, 208
-0.996215, 133, 281, 148, 344
-0.99624, 305, 33, 336, 160
-0.99624, 33, 257, 160, 288
-0.996243, 155, 17, 170, 80
-0.996258, 101, 121, 116, 184
-0.996265, 81, 189, 208, 220
-0.996272, 33, 73, 160, 104
-0.996325, 193, 97, 448, 160
-0.996327, 33, 1, 160, 32
-0.99635, 91, 281, 106, 344
-0.996354, 115, 121, 130, 184
-0.996376, 33, 265, 288, 328
-0.996418, 15, 97, 30, 160
-0.99643, 65, 121, 192, 152
-0.996442, 89, 113, 104, 176
-0.996456, 113, 73, 128, 136
-0.996463, 145, 93, 272, 124
-0.996464, 273, 33, 304, 160
-0.996487, 95, 25, 110, 88
-0.996494, 103, 185, 118, 248
-0.996535, 111, 217, 126, 280
-0.996544, 197, 73, 212, 136
-0.996568, 129, 137, 144, 200
-0.996581, 173, 57, 188, 120
-0.996597, 9, 33, 40, 288
-0.996618, 87, 77, 102, 108
-0.996631, 229, 81, 244, 144
-0.99665, 77, 25, 92, 88
-0.996667, 59, 17, 74, 80
-0.996675, 133, 241, 164, 368
-0.996678, 129, 137, 256, 200
-0.996682, 61, 33, 92, 288
-0.996724, 65, 277, 192, 308
-0.996738, 121, 289, 136, 352
-0.996739, 401, 1, 416, 64
-0.996753, 95, 313, 110, 375
-0.996771, 73, 1, 104, 256
-0.996774, 69, 25, 84, 88
-0.996783, 191, 73, 206, 136
-0.99679, 147, 313, 162, 375
-0.996792, 133, 57, 148, 120
-0.996795, 65, 149, 192, 180
-0.996797, 125, 129, 156, 375
-0.996809, 83, 25, 98, 88
-0.996821, 205, 73, 220, 136
-0.996838, 321, 89, 448, 120
-0.996845, 139, 289, 154, 352
-0.996849, 185, 65, 200, 128
-0.996855, 129, 21, 256, 52
-0.996857, 31, 153, 46, 216
-0.996863, 93, 77, 108, 108
-0.996876, 97, 101, 224, 132
-0.996898, 45, 17, 60, 80
-0.996899, 165, 81, 180, 144
-0.99691, 371, 81, 386, 144
-0.996916, 159, 65, 174, 128
-0.996923, 239, 89, 254, 152
-0.996969, 109, 137, 124, 200
-0.996977, 407, 1, 422, 64
-0.99699, 95, 117, 110, 148
-0.997008, 213, 81, 228, 144
-0.997009, 37, 217, 52, 280
-0.997017, 161, 17, 176, 80
-0.99702, 113, 1, 144, 256
-0.997031, 107, 109, 122, 140
-0.997032, 145, 169, 160, 232
-0.997032, 19, 41, 34, 104
-0.997038, 129, 61, 256, 92
-0.997047, 7, 89, 22, 152
-0.997047, 97, 289, 112, 352
-0.997064, 115, 177, 130, 240
-0.997074, 53, 17, 68, 80
-0.997075, 179, 73, 194, 136
-0.997109, 115, 289, 130, 352
-0.997111, 33, 297, 160, 328
-0.997113, 23, 137, 38, 200
-0.997113, 431, 1, 446, 64
-0.997114, 165, 57, 180, 120
-0.997116, 69, 209, 84, 272
-0.997116, 57, 225, 72, 288
-0.997118, 33, 129, 48, 160
-0.99712, 111, 97, 126, 160
-0.997123, 33, 65, 48, 128
-0.997124, 325, 17, 356, 144
-0.997133, 261, 33, 292, 160
-0.99714, 33, 97, 64, 352
-0.997142, 281, 89, 296, 152
-0.997142, 79, 201, 94, 264
-0.997155, 3, 41, 18, 104
-0.997159, 1, 309, 128, 340
-0.997163, 101, 25, 116, 88
-0.997165, 85, 265, 100, 328
-0.997176, 85, 217, 100, 280
-0.997185, 13, 41, 28, 104
-0.997191, 17, 269, 144, 300
-0.997197, 89, 129, 120, 375
-0.997197, 29, 89, 44, 120
-0.997199, 89, 25, 104, 88
-0.997211, 73, 73, 88, 136
-0.997212, 131, 185, 146, 248
-0.997229, 245, 89, 260, 152
-0.997233, 135, 137, 150, 200
-0.997239, 45, 137, 60, 200
-0.997243, 39, 25, 54, 88
-0.997267, 81, 165, 208, 196
-0.997271, 349, 81, 364, 144
-0.997275, 133, 161, 148, 192
-0.997276, 123, 157, 138, 188
-0.997281, 47, 217, 62, 280
-0.997308, 35, 49, 50, 80
-0.997322, 145, 17, 160, 48
-0.997323, 127, 1, 142, 32
-0.997325, 369, 25, 496, 56
-0.997357, 129, 149, 144, 180
-0.997357, 55, 205, 70, 236
-0.997357, 17, 249, 80, 312
-0.997375, 33, 225, 64, 352
-0.997388, 127, 41, 142, 72
-0.997388, 129, 25, 384, 88
-0.997408, 43, 173, 58, 204
-0.997412, 125, 1, 156, 256
-0.997429, 113, 201, 240, 264
-0.997443, 129, 257, 256, 320
-0.997445, 145, 1, 176, 256
-0.997447, 129, 1, 256, 32
-0.997453, 51, 193, 66, 224
-0.997472, 345, 9, 408, 72
-0.99748, 97, 257, 224, 288
-0.997484, 35, 189, 50, 220
-0.997497, 113, 265, 128, 296
-0.997512, 369, 97, 496, 128
-0.997518, 49, 33, 80, 288
-0.997525, 115, 173, 130, 204
-0.997537, 25, 113, 40, 144
-0.997568, 57, 45, 72, 76
-0.997574, 389, 1, 420, 256
-0.997581, 21, 97, 52, 352
-0.997584, 117, 1, 132, 32
-0.9976, 77, 77, 92, 108
-0.997614, 99, 73, 114, 104
-0.997618, 125, 173, 140, 204
-0.997621, 137, 17, 152, 48
-0.997628, 113, 45, 240, 76
-0.997652, 99, 93, 114, 124
-0.997655, 241, 81, 368, 112
-0.997661, 51, 41, 66, 72
-0.997664, 49, 181, 64, 212
-0.997685, 65, 133, 192, 164
-0.99769, 81, 289, 208, 320
-0.99772, 185, 81, 200, 112
-0.997721, 41, 45, 56, 76
-0.997742, 23, 89, 38, 120
-0.997743, 141, 193, 172, 320
-0.99775, 109, 177, 124, 208
-0.99776, 139, 185, 154, 216
-0.99776, 139, 165, 154, 196
-0.997762, 47, 213, 62, 244
-0.997783, 105, 129, 120, 160
-0.997784, 175, 81, 190, 112
-0.997785, 81, 201, 208, 232
-0.997794, 143, 33, 158, 64
-0.997796, 113, 97, 144, 352
-0.997799, 65, 49, 80, 80
-0.997801, 101, 113, 116, 144
-0.997804, 97, 237, 224, 268
-0.997812, 119, 49, 134, 80
-0.997813, 21, 69, 36, 100
-0.997816, 97, 169, 352, 232
-0.997817, 115, 125, 130, 156
-0.997829, 151, 21, 166, 52
-0.997831, 129, 13, 144, 44
-0.997834, 135, 37, 150, 68
-0.997839, 135, 1, 150, 32
-0.997839, 57, 217, 72, 248
-0.997843, 113, 49, 128, 80
-0.99786, 153, 33, 168, 64
-0.997863, 97, 33, 128, 288
-0.997867, 321, 77, 448, 108
-0.997871, 369, 13, 496, 44
-0.997873, 25, 101, 40, 132
-0.997873, 27, 129, 42, 160
-0.997879, 107, 53, 122, 84
-0.99788, 31, 113, 46, 144
-0.997891, 1, 285, 128, 316
-0.997913, 133, 285, 148, 316
-0.997924, 101, 49, 116, 80
-0.997925, 95, 305, 110, 336
-0.997934, 3, 69, 18, 100
-0.997942, 35, 93, 50, 124
-0.997944, 43, 33, 58, 64
-0.997944, 29, 53, 44, 84
-0.997945, 113, 177, 240, 208
-0.997945, 143, 1, 158, 32
-0.997956, 125, 137, 140, 168
-0.997963, 101, 129, 132, 375
-0.997964, 225, 49, 480, 112
-0.997974, 83, 261, 98, 292
-0.997978, 125, 269, 140, 300
-0.997978, 43, 201, 58, 232
-0.997979, 191, 81, 206, 112
-0.997982, 105, 97, 120, 128
-0.997988, 77, 225, 92, 256
-0.997994, 85, 89, 100, 120
-0.997994, 117, 149, 132, 180
-0.998, 95, 321, 110, 352
-0.998009, 119, 257, 134, 288
-0.998013, 79, 53, 94, 84
-0.998031, 199, 81, 214, 112
-0.998032, 211, 97, 226, 128
-0.998042, 85, 125, 100, 156
-0.998047, 169, 81, 184, 112
-0.998052, 119, 277, 134, 308
-0.998054, 33, 177, 48, 208
-0.998068, 85, 65, 100, 96
-0.998071, 221, 93, 236, 124
-0.998071, 105, 73, 120, 104
-0.998079, 7, 93, 22, 124
-0.998083, 99, 173, 114, 204
-0.998087, 93, 289, 108, 320
-0.998107, 369, 1, 496, 32
-0.998113, 95, 333, 110, 364
-0.998127, 145, 337, 272, 368
-0.998144, 129, 313, 384, 375
-0.998146, 1, 321, 128, 352
-0.998155, 207, 85, 222, 116
-0.998165, 139, 297, 154, 328
-0.998169, 35, 37, 50, 68
-0.99817, 67, 229, 82, 260
-0.998171, 17, 97, 32, 128
-0.998172, 15, 69, 30, 100
-0.998178, 61, 129, 92, 375
-0.998196, 37, 221, 52, 252
-0.998198, 35, 145, 50, 176
-0.99821, 129, 305, 256, 336
-0.99821, 129, 321, 256, 352
-0.998213, 353, 37, 480, 68
-0.99822, 111, 137, 126, 168
-0.998221, 41, 189, 56, 220
-0.998223, 91, 89, 106, 120
-0.998226, 193, 9, 320, 72
-0.99823, 95, 45, 110, 76
-0.998232, 21, 129, 36, 160
-0.998237, 71, 53, 86, 84
-0.998243, 85, 53, 100, 84
-0.998254, 91, 65, 106, 96
-0.998255, 145, 33, 272, 64
-0.99826, 97, 225, 224, 256
-0.998267, 107, 269, 122, 300
-0.998271, 9, 73, 24, 104
-0.99828, 27, 65, 42, 96
-0.998285, 89, 113, 104, 144
-0.99829, 119, 137, 134, 168
-0.998296, 57, 33, 72, 64
-0.998298, 217, 65, 248, 320
-0.998304, 181, 93, 196, 124
-0.99831, 57, 185, 72, 216
-0.998314, 129, 193, 256, 320
-0.998316, 129, 189, 144, 220
-0.998316, 117, 293, 132, 324
-0.998322, 77, 237, 92, 268
-0.998328, 129, 129, 256, 256
-0.998342, 189, 65, 220, 320
-0.998346, 95, 105, 110, 136
-0.998348, 135, 149, 150, 180
-0.998353, 95, 157, 110, 188
-0.998356, 33, 205, 48, 236
-0.998362, 145, 313, 160, 344
-0.998362, 25, 51, 88, 66
-0.998362, 111, 285, 126, 316
-0.998363, 37, 157, 52, 188
-0.998373, 77, 249, 92, 280
-0.998375, 185, 97, 216, 112
-0.998375, 89, 317, 104, 348
-0.998375, 145, 177, 160, 208
-0.998376, 33, 105, 64, 120
-0.998376, 141, 197, 156, 228
-0.998377, 113, 113, 128, 144
-0.998377, 261, 99, 292, 114
-0.998378, 109, 1, 124, 32
-0.998378, 93, 171, 124, 186
-0.99838, 121, 297, 152, 312
-0.998383, 123, 13, 138, 44
-0.998385, 73, 137, 104, 152
-0.998386, 73, 131, 104, 146
-0.998387, 141, 21, 172, 36
-0.998387, 33, 43, 64, 58
-0.998388, 93, 307, 124, 322
-0.998388, 249, 95, 280, 110
-0.998389, 237, 101, 268, 116
-0.998389, 145, 77, 176, 92
-0.99839, 173, 361, 204, 375
-0.998392, 53, 215, 84, 230
-0.998392, 105, 123, 136, 138
-0.998392, 93, 87, 124, 102
-0.998392, 69, 45, 100, 60
-0.998393, 125, 41, 156, 56
-0.998394, 45, 193, 76, 208
-0.998397, 133, 77, 164, 92
-0.998397, 125, 153, 156, 168
-0.998397, 121, 159, 152, 174
-0.998399, 5, 63, 36, 78
-0.998402, 1, 111, 32, 126
-0.998403, 369, 85, 496, 116
-0.998404, 133, 73, 148, 104
-0.998404, 109, 261, 140, 276
-0.998405, 53, 221, 84, 236
-0.998406, 149, 33, 180, 48
-0.998406, 65, 253, 96, 268
-0.998406, 109, 135, 140, 150
-0.998408, 133, 187, 164, 202
-0.998409, 93, 279, 124, 294
-0.998409, 93, 103, 124, 118
-0.998409, 65, 75, 96, 90
-0.998412, 129, 315, 160, 330
-0.998414, 137, 31, 168, 46
-0.99842, 1, 95, 32, 110
-0.99842, 33, 225, 64, 240
-0.99842, 133, 15, 164, 30
-0.998422, 53, 53, 84, 68
-0.998422, 105, 129, 136, 144
-0.998424, 1, 333, 128, 364
-0.998425, 405, 1, 436, 256
-0.998425, 85, 117, 116, 132
-0.998425, 189, 79, 220, 94
-0.998425, 121, 181, 152, 196
-0.998426, 101, 301, 132, 316
-0.998426, 97, 289, 128, 304
-0.998427, 149, 83, 180, 98
-0.998428, 137, 201, 168, 216
-0.998429, 29, 175, 60, 190
-0.998429, 101, 151, 132, 166
-0.998429, 25, 155, 56, 170
-0.998431, 117, 53, 148, 68
-0.998431, 21, 111, 52, 126
-0.998432, 57, 47, 88, 62
-0.998432, 201, 99, 232, 114
-0.998433, 129, 1, 160, 16
-0.998435, 57, 53, 120, 68
-0.998436, 117, 285, 148, 300
-0.998437, 93, 75, 124, 90
-0.998437, 105, 49, 136, 64
-0.998437, 125, 309, 156, 324
-0.998437, 81, 51, 112, 66
-0.998438, 77, 129, 108, 375
-0.998439, 189, 91, 220, 106
-0.998441, 29, 99, 60, 114
-0.998446, 69, 55, 100, 70
-0.998447, 21, 125, 52, 140
-0.998447, 5, 101, 36, 116
-0.998448, 97, 145, 128, 160
-0.998448, 89, 95, 120, 110
-0.998451, 81, 73, 112, 88
-0.998451, 45, 235, 76, 250
-0.998452, 213, 99, 244, 114
-0.998454, 33, 205, 64, 220
-0.998454, 95, 33, 110, 160
-0.998455, 101, 295, 132, 310
-0.998456, 121, 47, 152, 62
-0.998457, 173, 95, 204, 110
-0.998458, 29, 61, 60, 76
-0.998459, 25, 59, 88, 74
-0.998459, 61, 229, 92, 244
-0.998459, 57, 189, 88, 204
-0.998459, 89, 267, 120, 282
-0.99846, 121, 13, 152, 28
-0.998462, 69, 271, 100, 286
-0.998462, 69, 83, 100, 98
-0.998466, 125, 7, 156, 22
-0.998467, 117, 1, 148, 16
-0.998467, 177, 89, 208, 104
-0.998468, 33, 199, 64, 214
-0.998468, 1, 345, 128, 375
-0.998468, 121, 291, 152, 306
-0.998471, 93, 177, 124, 192
-0.998471, 69, 265, 100, 280
-0.998472, 97, 181, 160, 196
-0.998473, 89, 279, 152, 294
-0.998474, 93, 109, 124, 124
-0.998475, 89, 123, 120, 138
-0.998475, 105, 7, 136, 22
-0.998477, 25, 93, 56, 108
-0.998478, 129, 85, 192, 100
-0.998479, 37, 183, 68, 198
-0.998479, 89, 165, 152, 180
-0.99848, 97, 213, 224, 244
-0.998482, 33, 33, 48, 160
-0.998484, 133, 83, 164, 98
-0.998484, 81, 79, 144, 94
-0.998484, 133, 181, 164, 196
-0.998485, 109, 267, 140, 282
-0.998485, 117, 173, 148, 188
-0.998486, 89, 309, 152, 324
-0.998486, 9, 69, 40, 84
-0.998486, 129, 293, 256, 324
-0.998487, 129, 169, 160, 184
-0.998488, 173, 83, 204, 98
-0.998489, 109, 183, 140, 198
-0.998489, 97, 175, 160, 190
-0.998493, 113, 279, 144, 294
-0.998501, 35, 113, 50, 240
-0.998501, 137, 37, 168, 52
-0.998504, 89, 153, 152, 168
-0.998505, 149, 27, 180, 42
-0.998506, 29, 55, 60, 70
-0.998507, 105, 17, 168, 32
-0.998507, 97, 115, 128, 130
-0.998508, 93, 135, 124, 150
-0.998511, 113, 45, 176, 60
-0.998512, 89, 299, 152, 314
-0.998513, 145, 25, 208, 40
-0.998514, 105, 177, 136, 192
-0.998515, 225, 99, 256, 114
-0.998516, 129, 175, 160, 190
-0.998516, 25, 193, 88, 208
-0.998518, 121, 7, 184, 22
-0.998523, 33, 211, 64, 226
-0.998524, 81, 51, 144, 66
-0.998524, 81, 131, 144, 146
-0.998526, 25, 45, 88, 60
-0.998528, 169, 93, 232, 108
-0.998528, 89, 273, 152, 288
-0.998529, 109, 273, 140, 288
-0.998532, 17, 105, 48, 120
-0.998533, 73, 177, 136, 192
-0.998533, 81, 139, 144, 154
-0.998534, 129, 21, 160, 36
-0.998534, 9, 109, 72, 124
-0.998535, 105, 1, 168, 16
-0.998536, 93, 51, 124, 66
-0.998536, 33, 193, 64, 208
-0.998537, 257, 17, 500, 80
-0.998538, 45, 227, 76, 242
-0.998539, 97, 189, 160, 204
-0.998539, 217, 97, 248, 224
-0.998542, 33, 49, 64, 64
-0.998543, 41, 217, 72, 232
-0.998544, 13, 93, 44, 108
-0.998545, 209, 97, 272, 112
-0.998546, 81, 89, 112, 104
-0.998548, 177, 99, 240, 114
-0.99855, 153, 81, 216, 96
-0.998551, 97, 293, 160, 308
-0.998553, 89, 159, 152, 174
-0.998555, 65, 235, 96, 250
-0.998557, 97, 1, 128, 16
-0.998561, 89, 11, 152, 26
-0.998563, 89, 285, 152, 300
-0.998564, 25, 209, 88, 224
-0.998564, 1, 135, 64, 150
-0.998565, 81, 1, 144, 16
-0.998566, 125, 1, 140, 128
-0.998568, 65, 107, 128, 122
-0.998568, 161, 105, 288, 136
-0.998572, 129, 31, 192, 46
-0.998575, 17, 201, 80, 216
-0.998577, 129, 55, 192, 70
-0.99858, 25, 103, 88, 118
-0.998581, 49, 45, 112, 60
-0.998581, 57, 89, 120, 104
-0.998582, 41, 131, 104, 146
-0.998584, 45, 47, 76, 62
-0.998585, 21, 133, 52, 148
-0.998585, 65, 243, 96, 258
-0.998586, 105, 33, 120, 160
-0.998586, 129, 77, 192, 92
-0.998586, 89, 87, 152, 102
-0.998588, 41, 83, 104, 98
-0.998589, 105, 205, 168, 220
-0.998589, 9, 183, 72, 198
-0.99859, 81, 267, 144, 282
-0.99859, 89, 73, 152, 88
-0.998591, 25, 97, 88, 112
-0.998591, 97, 199, 160, 214
-0.998594, 257, 99, 320, 114
-0.998596, 89, 145, 152, 160
-0.998596, 65, 273, 128, 288
-0.998596, 129, 37, 192, 52
-0.998598, 105, 51, 168, 66
-0.998598, 33, 141, 96, 156
-0.998599, 113, 23, 176, 38
-0.9986, 177, 83, 240, 98
-0.998601, 89, 129, 120, 144
-0.998601, 81, 121, 144, 136
-0.998601, 81, 115, 144, 130
-0.998601, 33, 185, 96, 200
-0.998603, 97, 315, 160, 330
-0.998604, 1, 53, 64, 68
-0.998604, 81, 79, 112, 94
-0.998605, 57, 121, 120, 136
-0.998605, 89, 45, 152, 60
-0.998605, 65, 95, 128, 110
-0.998607, 17, 91, 80, 106
-0.998607, 131, 1, 146, 128
-0.998607, 57, 259, 120, 274
-0.998608, 121, 171, 184, 186
-0.998608, 33, 215, 96, 230
-0.998609, 1, 97, 64, 112
-0.998609, 141, 97, 172, 352
-0.998609, 57, 187, 120, 202
-0.99861, 111, 1, 126, 128
-0.998612, 33, 229, 96, 244
-0.998614, 297, 95, 360, 110
-0.998618, 65, 101, 128, 116
-0.998619, 117, 1, 132, 128
-0.998622, 45, 129, 76, 375
-0.998622, 233, 99, 296, 114
-0.998624, 153, 35, 216, 50
-0.998624, 57, 241, 120, 256
-0.998626, 57, 227, 120, 242
-0.998626, 17, 235, 80, 250
-0.998627, 1, 65, 64, 80
-0.998628, 17, 99, 48, 114
-0.998629, 41, 173, 104, 188
-0.99863, 25, 65, 88, 80
-0.998631, 1, 103, 64, 118
-0.998632, 57, 209, 120, 224
-0.998632, 81, 253, 144, 268
-0.998633, 209, 103, 272, 118
-0.998634, 33, 147, 96, 162
-0.998634, 57, 77, 120, 92
-0.998635, 105, 321, 168, 336
-0.998636, 41, 201, 104, 216
-0.998637, 17, 221, 80, 236
-0.998638, 329, 93, 392, 108
-0.998638, 25, 49, 40, 176
-0.998639, 393, 7, 456, 22
-0.99864, 57, 265, 120, 280
-0.99864, 33, 75, 96, 90
-0.998641, 57, 253, 120, 268
-0.998643, 105, 33, 168, 48
-0.998643, 73, 233, 136, 248
-0.998645, 1, 47, 64, 62
-0.998645, 17, 49, 32, 176
-0.998645, 137, 49, 200, 64
-0.998646, 105, 59, 168, 74
-0.998646, 81, 333, 144, 348
-0.998647, 49, 179, 112, 194
-0.998647, 9, 177, 72, 192
-0.998648, 1, 211, 64, 226
-0.998648, 41, 273, 104, 288
-0.998649, 97, 109, 160, 124
-0.998652, 153, 101, 216, 116
-0.998652, 49, 59, 112, 74
-0.998654, 137, 13, 200, 28
-0.998655, 1, 151, 64, 166
-0.998655, 157, 1, 188, 256
-0.998655, 121, 179, 184, 194
-0.998657, 65, 71, 128, 86
-0.998658, 433, 1, 496, 16
-0.99866, 65, 171, 128, 186
-0.99866, 49, 193, 112, 208
-0.99866, 401, 1, 464, 16
-0.998661, 193, 91, 256, 106
-0.998661, 249, 93, 312, 108
-0.998662, 1, 169, 64, 184
-0.998662, 81, 247, 144, 262
-0.998662, 65, 221, 128, 236
-0.998663, 1, 129, 64, 144
-0.998664, 33, 125, 96, 140
-0.998665, 65, 215, 128, 230
-0.998687, 201, 65, 232, 320
-0.998696, 85, 33, 100, 160
-0.998732, 145, 1, 160, 128
-0.998736, 169, 1, 200, 256
-0.998742, 177, 69, 304, 100
-0.998752, 137, 1, 152, 128
-0.99878, 417, 1, 448, 256
-0.998781, 161, 49, 288, 80
-0.998782, 97, 193, 352, 256
-0.998789, 229, 65, 260, 320
-0.998795, 377, 1, 408, 256
-0.9988, 43, 33, 58, 160
-0.998806, 95, 81, 110, 208
-0.998821, 117, 49, 132, 176
-0.998824, 241, 65, 272, 320
-0.998831, 151, 1, 166, 128
-0.998832, 1, 49, 16, 176
-0.998834, 289, 21, 416, 52
-0.998834, 79, 33, 94, 160
-0.998841, 469, 1, 500, 256
-0.998847, 265, 65, 296, 320
-0.998852, 117, 225, 132, 352
-0.998857, 41, 145, 56, 272
-0.998862, 305, 33, 432, 64
-0.998865, 129, 165, 256, 196
-0.998925, 7, 49, 22, 176
-0.998941, 317, 65, 348, 320
-0.998951, 321, 9, 448, 40
-0.998954, 277, 65, 308, 320
-0.998987, 55, 33, 70, 160
-0.998987, 289, 65, 320, 320
-0.998991, 457, 1, 488, 256
-0.998991, 107, 193, 122, 320
-0.999, 253, 65, 284, 320
-0.999007, 139, 145, 154, 272
-0.999008, 29, 113, 44, 240
-0.999016, 69, 33, 84, 160
-0.999034, 55, 177, 70, 304
-0.999035, 301, 65, 332, 320
-0.999036, 63, 33, 78, 160
-0.99907, 369, 73, 496, 104
-0.999073, 49, 161, 64, 288
-0.999074, 333, 65, 364, 320
-0.999081, 353, 65, 384, 320
-0.999099, 113, 277, 240, 308
-0.999108, 109, 129, 124, 256
-0.999118, 105, 81, 120, 208
-0.999119, 111, 49, 126, 176
-0.99912, 113, 141, 240, 172
-0.99913, 49, 33, 64, 160
-0.999132, 445, 65, 476, 320
-0.999134, 93, 129, 108, 256
-0.999139, 125, 81, 140, 208
-0.999145, 69, 177, 84, 304
-0.999153, 225, 41, 352, 104
-0.999154, 123, 241, 138, 368
-0.999155, 23, 113, 38, 240
-0.999159, 273, 9, 400, 72
-0.999166, 123, 129, 138, 256
-0.999167, 1, 113, 500, 176
-0.999168, 1, 313, 500, 375
-0.999171, 353, 49, 480, 80
-0.999184, 33, 177, 48, 304
-0.99919, 87, 81, 102, 208
-0.999195, 157, 1, 172, 128
-0.999203, 135, 81, 150, 208
-0.99921, 397, 1, 412, 128
-0.999218, 75, 209, 90, 336
-0.999223, 365, 65, 396, 320
-0.999227, 83, 241, 98, 368
-0.999228, 369, 61, 496, 92
-0.999276, 41, 193, 56, 320
-0.999285, 321, 61, 448, 92
-0.99929, 129, 145, 144, 272
-0.999313, 115, 113, 130, 240
-0.999315, 433, 65, 464, 320
-0.99932, 431, 1, 446, 128
-0.999329, 387, 17, 402, 144
-0.999331, 101, 161, 116, 288
-0.999339, 425, 1, 440, 128
-0.999355, 167, 1, 182, 128
-0.999356, 115, 177, 130, 304
-0.999358, 403, 1, 418, 128
-0.999365, 69, 129, 100, 256
-0.999368, 1, 25, 128, 56
-0.999374, 61, 209, 76, 336
-0.999374, 9, 1, 24, 128
-0.999382, 187, 65, 202, 192
-0.999384, 411, 1, 426, 128
-0.999387, 245, 81, 260, 208
-0.999395, 21, 1, 36, 128
-0.999396, 129, 289, 384, 352
-0.999407, 145, 65, 160, 192
-0.999415, 15, 1, 30, 128
-0.999421, 17, 97, 32, 224
-0.999425, 181, 33, 196, 160
-0.999429, 381, 65, 396, 192
-0.99943, 145, 161, 160, 288
-0.999431, 137, 193, 152, 320
-0.999436, 157, 49, 172, 176
-0.999439, 251, 81, 266, 208
-0.99944, 27, 161, 42, 288
-0.999443, 131, 193, 146, 320
-0.999444, 209, 81, 224, 208
-0.999445, 229, 81, 244, 208
-0.999448, 321, 101, 448, 132
-0.999454, 375, 65, 390, 192
-0.999462, 349, 81, 364, 208
-0.999468, 437, 1, 452, 128
-0.999469, 85, 193, 100, 320
-0.999469, 111, 241, 126, 368
-0.999472, 27, 1, 42, 128
-0.999475, 175, 1, 190, 128
-0.999475, 219, 81, 234, 208
-0.999484, 265, 81, 280, 208
-0.999486, 1, 1, 64, 64
-0.999486, 359, 81, 374, 208
-0.999488, 41, 81, 56, 208
-0.999489, 177, 13, 304, 44
-0.999489, 329, 65, 344, 192
-0.999491, 389, 65, 404, 192
-0.999493, 49, 113, 64, 240
-0.999493, 437, 81, 452, 208
-0.999495, 203, 81, 218, 208
-0.999497, 235, 81, 250, 208
-0.999498, 61, 113, 76, 240
-0.999504, 271, 81, 286, 208
-0.999506, 165, 65, 180, 192
-0.999506, 279, 81, 294, 208
-0.999508, 323, 81, 338, 208
-0.999509, 305, 45, 432, 76
-0.999509, 3, 1, 18, 128
-0.999511, 403, 49, 418, 176
-0.999511, 365, 81, 380, 208
-0.999511, 69, 225, 84, 352
-0.999515, 259, 81, 274, 208
-0.999516, 95, 241, 110, 368
-0.999516, 395, 65, 410, 192
-0.999523, 341, 81, 356, 208
-0.999523, 285, 81, 300, 208
-0.999524, 113, 129, 240, 160
-0.999525, 197, 81, 212, 208
-0.999526, 379, 17, 394, 144
-0.999531, 443, 33, 458, 160
-0.999535, 417, 17, 432, 144
-0.999536, 171, 65, 186, 192
-0.999536, 291, 81, 306, 208
-0.999539, 447, 81, 462, 208
-0.999542, 129, 241, 144, 368
-0.999543, 317, 81, 332, 208
-0.999545, 151, 65, 166, 192
-0.999546, 195, 1, 210, 128
-0.999547, 423, 81, 438, 208
-0.999552, 429, 81, 444, 208
-0.999556, 219, 33, 234, 160
-0.999556, 299, 81, 314, 208
-0.999565, 87, 129, 102, 256
-0.999565, 47, 209, 62, 336
-0.999566, 305, 81, 320, 208
-0.999566, 335, 65, 350, 192
-0.999571, 311, 81, 326, 208
-0.999581, 415, 81, 430, 208
-0.999587, 451, 33, 466, 160
-0.999591, 363, 33, 378, 160
-0.999595, 147, 25, 162, 40
-0.999596, 17, 91, 32, 106
-0.999596, 55, 221, 70, 236
-0.999597, 133, 305, 148, 320
-0.999597, 141, 31, 156, 46
-0.999598, 125, 145, 140, 160
-0.999598, 185, 83, 200, 98
-0.999599, 123, 157, 138, 172
-0.999599, 99, 175, 114, 190
-0.999599, 87, 53, 102, 68
-0.9996, 203, 77, 218, 92
-0.9996, 139, 21, 154, 36
-0.9996, 219, 99, 234, 114
-0.999601, 25, 113, 40, 128
-0.999602, 71, 265, 86, 280
-0.999602, 35, 153, 50, 168
-0.999603, 117, 287, 132, 302
-0.999603, 47, 223, 62, 238
-0.999603, 79, 241, 94, 256
-0.999604, 117, 279, 132, 294
-0.999604, 141, 1, 156, 16
-0.999605, 19, 129, 34, 144
-0.999605, 87, 73, 102, 88
-0.999605, 103, 97, 118, 112
-0.999605, 135, 1, 150, 16
-0.999606, 125, 17, 140, 32
-0.999606, 143, 37, 158, 52
-0.999606, 213, 99, 228, 114
-0.999607, 129, 153, 256, 184
-0.999607, 117, 301, 132, 316
-0.999607, 31, 197, 46, 212
-0.999607, 23, 65, 38, 80
-0.999609, 143, 85, 158, 100
-0.999611, 191, 81, 206, 96
-0.999613, 9, 95, 24, 110
-0.999613, 105, 103, 120, 118
-0.999614, 91, 93, 106, 108
-0.999614, 113, 131, 128, 146
-0.999615, 3, 71, 18, 86
-0.999615, 67, 233, 82, 248
-0.999616, 105, 53, 120, 68
-0.999618, 115, 183, 130, 198
-0.999618, 95, 321, 110, 336
-0.999618, 147, 79, 162, 94
-0.99962, 53, 209, 68, 224
-0.999622, 241, 99, 256, 114
-0.999623, 125, 163, 140, 178
-0.999623, 35, 207, 50, 222
-0.999624, 121, 267, 136, 282
-0.999626, 31, 125, 46, 140
-0.999626, 153, 33, 168, 48
-0.999627, 137, 83, 152, 98
-0.999628, 107, 127, 122, 142
-0.999628, 139, 199, 154, 214
-0.999628, 47, 229, 62, 244
-0.999628, 95, 309, 110, 324
-0.999628, 79, 55, 94, 70
-0.999629, 173, 95, 188, 110
-0.999629, 85, 121, 100, 136
-0.99963, 121, 47, 136, 62
-0.999631, 43, 51, 58, 66
-0.999632, 131, 173, 146, 188
-0.999635, 27, 131, 42, 146
-0.999635, 185, 93, 200, 108
-0.999636, 139, 15, 154, 30
-0.999636, 125, 275, 140, 290
-0.99964, 17, 99, 32, 114
-0.999641, 95, 115, 110, 130
-0.999641, 113, 51, 128, 66
-0.999642, 61, 49, 76, 64
-0.999642, 235, 97, 250, 112
-0.999644, 81, 269, 96, 284
-0.999645, 229, 97, 244, 112
-0.999648, 121, 9, 136, 24
-0.999648, 117, 153, 132, 168
-0.999649, 53, 193, 68, 208
-0.999651, 57, 227, 72, 242
-0.999654, 141, 175, 156, 190
-0.999654, 33, 91, 48, 106
-0.999656, 97, 49, 112, 64
-0.999656, 107, 109, 122, 124
-0.999656, 77, 83, 92, 98
-0.999659, 19, 71, 34, 86
-0.999659, 129, 1, 144, 16
-0.999661, 97, 77, 112, 92
-0.999661, 97, 145, 352, 208
-0.999662, 103, 1, 118, 16
-0.999663, 113, 271, 128, 286
-0.999664, 33, 191, 48, 206
-0.999666, 147, 31, 162, 46
-0.999666, 113, 1, 128, 16
-0.999666, 109, 185, 124, 200
-0.999666, 35, 53, 50, 68
-0.999667, 47, 195, 62, 210
-0.999667, 33, 105, 48, 120
-0.999669, 55, 215, 70, 230
-0.99967, 43, 175, 58, 190
-0.999671, 123, 175, 138, 190
-0.999672, 25, 125, 40, 140
-0.999672, 127, 9, 142, 24
-0.999673, 77, 77, 92, 92
-0.999673, 127, 151, 142, 166
-0.999674, 105, 115, 120, 130
-0.999674, 135, 179, 150, 194
-0.999676, 97, 93, 112, 108
-0.999679, 125, 181, 140, 196
-0.999679, 119, 1, 134, 16
-0.999679, 45, 45, 60, 60
-0.999681, 111, 265, 126, 280
-0.999681, 31, 61, 46, 76
-0.999682, 55, 45, 70, 60
-0.999684, 153, 27, 168, 42
-0.999684, 39, 193, 54, 208
-0.999688, 127, 45, 142, 60
-0.999693, 49, 201, 64, 216
-0.999694, 145, 19, 160, 34
-0.999701, 33, 133, 48, 148
-0.999704, 109, 177, 124, 192
-0.999712, 131, 15, 146, 30
-0.999712, 27, 107, 42, 122
-0.999713, 67, 53, 82, 68
-0.999715, 117, 175, 132, 190
-0.999725, 129, 157, 144, 172
-0.999728, 95, 121, 110, 136
-0.999731, 135, 165, 150, 180
-0.999732, 145, 189, 272, 220
-0.999744, 87, 87, 102, 102
-0.999747, 37, 47, 52, 62
-0.999775, 31, 99, 46, 114
-0.999781, 95, 87, 110, 102
-0.999782, 87, 79, 102, 94
-0.999784, 27, 93, 42, 108
-0.999789, 209, 105, 336, 136
-0.999789, 23, 101, 38, 116
-0.999826, 273, 61, 400, 92
-0.999845, 1, 13, 128, 44
-0.999935, 225, 49, 352, 80
-0.999945, 369, 109, 496, 140
-0.999947, 377, 97, 440, 352
-0.999956, 169, 81, 200, 208
-1.00003, 217, 1, 248, 128
-1.00005, 9, 129, 40, 375
-1.00024, 241, 37, 368, 68
-1.00025, 225, 41, 288, 104
-1.00029, 153, 97, 184, 352
-1.00033, 469, 97, 500, 352
-1.00036, 209, 1, 336, 32
-1.00038, 225, 69, 352, 100
-1.0004, 193, 25, 320, 56
-1.00045, 113, 113, 240, 144
-1.00045, 389, 97, 420, 352
-1.00046, 145, 129, 208, 375
-1.00048, 145, 241, 176, 368
-1.0005, 405, 97, 436, 352
-1.00051, 273, 105, 400, 136
-1.00052, 129, 265, 384, 328
-1.00056, 273, 1, 400, 32
-1.00059, 97, 121, 352, 184
-1.00059, 377, 97, 408, 352
-1.00061, 137, 257, 200, 320
-1.00061, 421, 97, 452, 352
-1.00063, 193, 37, 320, 68
-1.00066, 433, 97, 496, 352
-1.00069, 321, 113, 448, 144
-1.0007, 161, 177, 288, 208
-1.00072, 165, 97, 196, 352
-1.00073, 457, 97, 488, 352
-1.00075, 177, 97, 208, 352
-1.00077, 193, 321, 320, 352
-1.00078, 201, 41, 264, 104
-1.00084, 209, 337, 336, 368
-1.00085, 129, 201, 256, 232
-1.00085, 241, 21, 368, 52
-1.00086, 193, 309, 320, 340
-1.0009, 369, 137, 496, 168
-1.0009, 369, 165, 496, 196
-1.00091, 369, 121, 496, 152
-1.00091, 145, 245, 272, 276
-1.00092, 161, 261, 288, 292
-1.00093, 161, 281, 288, 312
-1.00095, 225, 173, 352, 204
-1.00095, 177, 297, 304, 328
-1.00096, 257, 189, 384, 220
-1.00097, 305, 181, 432, 212
-1.00097, 369, 149, 496, 180
-1.00097, 145, 229, 272, 260
-1.00099, 257, 161, 384, 192
-1.001, 321, 153, 448, 184
-1.001, 305, 197, 432, 228
-1.00107, 1, 225, 500, 288
-1.00137, 369, 121, 496, 184
-1.00144, 1, 145, 500, 208
-1.00153, 129, 113, 256, 176
-1.00154, 177, 313, 304, 375
-1.00179, 1, 169, 500, 232
-1.00182, 401, 97, 464, 352
-1.00184, 321, 113, 448, 176
-1.00184, 257, 121, 500, 184
-1.00186, 129, 241, 384, 304
-1.00186, 1, 249, 500, 312
-1.00192, 257, 177, 500, 240
-1.00198, 161, 217, 416, 280
-1.00199, 161, 225, 288, 288
-1.00202, 257, 153, 500, 216
-1.00204, 1, 289, 500, 352
-1.00205, 257, 209, 500, 272
-1.00205, 257, 297, 500, 360
-1.0021, 225, 273, 480, 336
-1.00211, 225, 249, 480, 312
-1.00214, 193, 289, 320, 352
-1.00244, 209, 233, 336, 296
-1.00246, 1, 193, 500, 256
-1.00247, 177, 113, 304, 176
-1.00254, 209, 177, 336, 240
-1.00254, 209, 201, 336, 264
-1.00254, 289, 313, 416, 375
-1.00258, 17, 209, 48, 336
-1.00259, 369, 177, 496, 240
-1.0026, 225, 313, 352, 375
-1.00262, 273, 153, 400, 216
-1.00262, 273, 209, 400, 272
-1.00266, 369, 153, 496, 216
-1.00268, 177, 257, 304, 320
-1.00268, 273, 289, 400, 352
-1.00271, 273, 185, 400, 248
-1.00274, 193, 153, 320, 216
-1.00274, 257, 241, 384, 304
-1.00276, 321, 257, 448, 320
-1.00276, 369, 257, 496, 320
-1.00276, 241, 265, 368, 328
-1.00276, 321, 281, 448, 344
-1.00285, 225, 129, 352, 192
-1.00285, 273, 129, 400, 192
-1.00288, 321, 233, 448, 296
-1.00288, 369, 233, 496, 296
-1.00288, 337, 313, 464, 375
-1.00291, 321, 137, 448, 200
-1.00291, 321, 161, 448, 224
-1.00291, 321, 185, 448, 248
-1.00291, 321, 209, 448, 272
-1.00291, 369, 209, 496, 272
-1.00291, 369, 289, 496, 352
-1.00295, 161, 201, 288, 264
-1.00302, 1, 225, 64, 352
-1.00326, 177, 313, 240, 375
-1.0034, 1, 289, 64, 352
-1.00372, 401, 97, 432, 224
-1.00373, 153, 113, 184, 240
-1.00392, 337, 105, 400, 168
-1.00394, 217, 1, 280, 64
-1.00428, 241, 17, 304, 80
-1.00447, 265, 17, 328, 80
-1.00484, 209, 113, 272, 176
-1.00486, 5, 241, 36, 368
-1.00496, 329, 33, 392, 96
-1.00501, 157, 241, 188, 368
-1.0053, 9, 313, 72, 375
-1.0053, 425, 121, 488, 184
-1.0056, 321, 1, 384, 64
-1.0058, 265, 41, 328, 104
-1.00583, 25, 281, 88, 344
-1.00587, 129, 209, 192, 272
-1.0061, 153, 161, 216, 224
-1.00636, 1, 193, 32, 320
-1.007, 177, 289, 240, 352
-1.00706, 1, 145, 32, 272
-1.00716, 289, 17, 352, 80
-1.00717, 401, 121, 464, 184
-1.00739, 153, 177, 184, 304
-1.00767, 369, 113, 496, 240
-1.00776, 153, 233, 216, 296
-1.00787, 193, 113, 448, 240
-1.0079, 209, 305, 272, 368
-1.00804, 185, 265, 248, 328
-1.00809, 433, 153, 496, 216
-1.00814, 193, 153, 256, 216
-1.00816, 321, 113, 448, 240
-1.00832, 225, 137, 288, 200
-1.00837, 365, 113, 396, 240
-1.00839, 161, 257, 224, 320
-1.00844, 217, 161, 280, 224
-1.00846, 193, 193, 448, 320
-1.00848, 377, 129, 440, 192
-1.00848, 185, 209, 248, 272
-1.00849, 209, 225, 336, 352
-1.00853, 249, 297, 312, 360
-1.00864, 185, 241, 248, 304
-1.00865, 257, 161, 288, 288
-1.00869, 169, 137, 232, 200
-1.00869, 225, 281, 288, 344
-1.00871, 153, 209, 216, 272
-1.00873, 409, 145, 472, 208
-1.00873, 241, 169, 304, 232
-1.00873, 425, 177, 488, 240
-1.00873, 161, 185, 224, 248
-1.00875, 217, 241, 248, 368
-1.00878, 273, 297, 336, 360
-1.0088, 165, 193, 196, 320
-1.00886, 193, 129, 224, 256
-1.00886, 209, 145, 240, 272
-1.00886, 389, 225, 420, 352
-1.00896, 161, 241, 224, 368
-1.00897, 173, 145, 204, 272
-1.00901, 353, 145, 384, 272
-1.00901, 469, 177, 500, 304
-1.00904, 369, 161, 400, 288
-1.00907, 205, 241, 236, 368
-1.00907, 221, 145, 252, 272
-1.00908, 233, 177, 264, 304
-1.00915, 385, 113, 416, 240
-1.00915, 245, 145, 276, 272
-1.00915, 269, 145, 300, 272
-1.00915, 401, 193, 432, 320
-1.00915, 237, 225, 268, 352
-1.00918, 177, 209, 208, 336
-1.00918, 261, 225, 292, 352
-1.00918, 377, 225, 408, 352
-1.00921, 433, 129, 464, 256
-1.00921, 325, 145, 356, 272
-1.00921, 381, 177, 412, 304
-1.00921, 417, 177, 448, 304
-1.00921, 429, 177, 460, 304
-1.00924, 225, 145, 352, 272
-1.00924, 305, 193, 432, 320
-1.00929, 233, 129, 264, 256
-1.00953, 257, 193, 384, 320
-1.0096, 369, 209, 496, 336
-1.00966, 225, 241, 480, 368
-1.00983, 305, 241, 432, 368
-1.00989, 177, 129, 304, 256
-1.00989, 369, 161, 496, 288
-1.01035, 177, 177, 304, 304
-1.01051, 273, 145, 400, 272
-1.01054, 257, 241, 384, 368
-1.01244, 345, 113, 408, 240
-1.01244, 185, 129, 248, 256
-1.01328, 209, 145, 272, 272
-1.01364, 161, 129, 224, 256
-1.01371, 393, 177, 456, 304
-1.01371, 313, 193, 376, 320
-1.0138, 225, 241, 288, 368
-1.01393, 433, 161, 496, 288
-1.01396, 185, 209, 248, 336
-1.014, 385, 113, 448, 240
-1.014, 233, 145, 296, 272
-1.014, 257, 161, 320, 288
-1.01406, 337, 193, 400, 320
-1.01406, 393, 225, 456, 352
-1.01406, 417, 225, 480, 352
-1.01416, 161, 193, 224, 320
-1.01429, 305, 145, 368, 272
-1.01429, 281, 241, 344, 368
-1.01458, 233, 193, 296, 320
-1.01471, 281, 129, 344, 256
-1.01471, 281, 177, 344, 304
-1.01471, 361, 177, 424, 304
-1.01471, 257, 225, 320, 352
-1.01471, 305, 241, 368, 368
-1.01478, 345, 241, 408, 368
-1.01478, 369, 241, 432, 368
-1.01484, 409, 129, 472, 256
-1.01494, 209, 193, 272, 320
