1979
-0.412367, 1, 1, 500, 375
-0.433895, 1, 1, 500, 256
-0.437817, 129, 1, 384, 375
-0.503489, 1, 129, 500, 375
-0.572324, 129, 33, 384, 288
-0.677578, 33, 1, 288, 375
-0.683471, 97, 129, 352, 375
-0.72217, 257, 1, 500, 375
-0.844434, 1, 65, 256, 320
-0.853977, 113, 1, 240, 375
-0.856267, 193, 129, 448, 375
-0.856847, 113, 65, 240, 320
-0.862947, 161, 1, 288, 375
-0.871051, 161, 1, 288, 256
-0.872087, 209, 1, 336, 375
-0.874386, 209, 1, 336, 256
-0.888534, 225, 33, 480, 288
-0.892749, 193, 129, 320, 375
-0.895169, 1, 177, 500, 304
-0.90058, 1, 225, 500, 352
-0.902259, 1, 49, 500, 176
-0.906742, 1, 129, 500, 256
-0.912065, 1, 1, 500, 128
-0.912908, 241, 129, 368, 375
-0.913924, 97, 241, 352, 368
-0.914496, 65, 65, 192, 320
-0.916982, 129, 33, 384, 160
-0.922389, 65, 1, 192, 375
-0.926213, 129, 97, 384, 224
-0.928631, 97, 177, 352, 304
-0.930421, 273, 1, 400, 375
-0.937192, 113, 209, 240, 336
-0.93925, 113, 49, 240, 176
-0.939827, 113, 161, 240, 288
-0.942303, 97, 241, 160, 368
-0.943085, 137, 145, 200, 272
-0.945899, 289, 129, 416, 375
-0.946176, 161, 225, 224, 352
-0.946249, 209, 49, 336, 176
-0.946367, 153, 49, 216, 176
-0.947504, 161, 17, 288, 144
-0.947764, 137, 97, 200, 224
-0.94904, 129, 193, 192, 320
-0.949101, 129, 49, 192, 176
-0.950531, 257, 33, 384, 288
-0.952841, 161, 193, 288, 320
-0.95498, 113, 1, 240, 128
-0.955129, 129, 1, 192, 128
-0.955393, 113, 97, 240, 224
-0.956092, 209, 209, 336, 336
-0.956228, 161, 241, 288, 368
-0.956244, 257, 225, 320, 352
-0.957611, 209, 225, 272, 352
-0.957851, 209, 161, 336, 288
-0.958481, 1, 241, 256, 368
-0.958928, 209, 1, 336, 128
-0.959078, 257, 33, 320, 160
-0.959095, 105, 257, 168, 320
-0.959333, 193, 193, 448, 320
-0.959591, 265, 145, 328, 272
-0.960026, 161, 129, 288, 256
-0.960317, 1, 161, 256, 288
-0.960384, 137, 217, 200, 280
-0.961417, 137, 49, 200, 112
-0.961672, 185, 193, 248, 320
-0.961729, 257, 1, 500, 128
-0.961752, 209, 97, 336, 224
-0.962527, 169, 241, 232, 304
-0.962608, 233, 209, 296, 336
-0.962765, 33, 17, 288, 144
-0.963194, 129, 81, 192, 144
-0.963247, 161, 49, 224, 112
-0.9638, 161, 97, 224, 224
-0.96454, 129, 65, 192, 320
-0.964561, 257, 49, 320, 112
-0.964898, 265, 81, 328, 208
-0.964964, 257, 233, 320, 296
-0.965451, 89, 289, 152, 352
-0.965708, 129, 153, 192, 216
-0.965946, 193, 225, 256, 288
-0.966347, 185, 241, 248, 368
-0.966379, 129, 25, 192, 88
-0.967068, 209, 25, 272, 88
-0.967142, 217, 161, 280, 288
-0.967151, 129, 193, 192, 256
-0.967454, 225, 49, 480, 176
-0.967694, 65, 241, 192, 368
-0.967831, 17, 129, 144, 375
-0.967835, 193, 113, 256, 240
-0.968234, 177, 33, 240, 160
-0.968785, 113, 113, 176, 240
-0.968924, 233, 233, 296, 296
-0.968996, 257, 177, 384, 304
-0.969013, 65, 145, 192, 272
-0.96936, 129, 241, 192, 304
-0.969603, 129, 129, 192, 192
-0.96969, 105, 65, 168, 192
-0.969713, 33, 65, 288, 192
-0.969727, 265, 113, 328, 176
-0.969972, 65, 1, 192, 128
-0.970021, 185, 33, 248, 96
-0.970078, 65, 65, 192, 192
-0.970163, 161, 33, 224, 288
-0.970479, 161, 65, 288, 192
-0.970491, 129, 105, 192, 168
-0.970763, 233, 33, 296, 96
-0.971066, 169, 217, 232, 280
-0.971418, 209, 17, 272, 144
-0.971817, 161, 177, 224, 304
-0.972202, 233, 17, 296, 144
-0.972237, 113, 225, 240, 288
-0.972311, 177, 33, 304, 96
-0.972919, 209, 249, 272, 312
-0.973372, 257, 145, 500, 272
-0.973634, 65, 313, 128, 375
-0.973933, 257, 97, 500, 224
-0.97399, 273, 17, 400, 144
-0.974166, 129, 241, 192, 368
-0.97417, 105, 313, 168, 375
-0.974448, 17, 1, 144, 375
-0.974625, 265, 153, 328, 216
-0.974781, 129, 33, 256, 96
-0.974819, 153, 105, 216, 168
-0.974846, 65, 305, 192, 368
-0.975118, 281, 209, 344, 336
-0.975187, 265, 201, 328, 264
-0.975208, 129, 1, 192, 64
-0.97523, 153, 73, 216, 136
-0.975644, 233, 209, 296, 272
-0.97569, 113, 57, 240, 120
-0.975691, 97, 265, 224, 328
-0.975754, 257, 225, 384, 352
-0.976169, 137, 281, 200, 344
-0.976237, 193, 241, 448, 368
-0.976584, 113, 185, 240, 248
-0.976705, 153, 313, 216, 375
-0.976772, 209, 65, 272, 192
-0.977024, 161, 129, 224, 375
-0.977144, 177, 249, 304, 312
-0.977222, 141, 113, 172, 240
-0.977279, 153, 129, 216, 192
-0.9773, 109, 265, 140, 328
-0.977408, 257, 33, 320, 288
-0.977506, 157, 65, 188, 192
-0.977668, 105, 193, 168, 320
-0.977709, 161, 217, 288, 280
-0.977818, 113, 9, 240, 72
-0.97801, 185, 57, 248, 120
-0.97801, 265, 73, 328, 136
-0.978068, 209, 1, 272, 64
-0.97824, 169, 49, 200, 112
-0.978464, 265, 177, 328, 240
-0.978476, 257, 25, 320, 88
-0.978543, 241, 161, 304, 288
-0.978629, 121, 241, 152, 368
-0.978862, 113, 145, 240, 208
-0.97901, 65, 193, 192, 320
-0.979085, 1, 113, 256, 240
-0.979112, 209, 57, 336, 120
-0.979308, 81, 265, 144, 328
-0.97962, 289, 129, 416, 256
-0.979622, 109, 241, 140, 368
-0.979755, 141, 137, 172, 200
-0.979774, 209, 121, 336, 184
-0.9798, 297, 289, 360, 352
-0.979985, 97, 281, 128, 344
-0.980139, 81, 313, 112, 375
-0.980152, 321, 297, 384, 360
-0.980177, 177, 313, 240, 375
-0.980418, 121, 257, 152, 320
-0.980567, 193, 137, 256, 200
-0.980812, 197, 33, 228, 96
-0.981113, 289, 257, 352, 320
-0.981118, 321, 1, 448, 375
-0.981218, 193, 97, 256, 352
-0.981313, 153, 113, 184, 176
-0.981743, 97, 1, 160, 128
-0.981856, 213, 25, 244, 88
-0.981867, 105, 233, 168, 296
-0.981875, 209, 249, 240, 312
-0.981938, 137, 65, 168, 192
-0.981966, 137, 1, 200, 375
-0.982013, 113, 49, 176, 112
-0.982105, 305, 33, 432, 288
-0.982227, 297, 137, 360, 200
-0.982242, 129, 313, 192, 375
-0.982287, 161, 25, 224, 88
-0.982289, 209, 1, 336, 64
-0.982347, 181, 241, 212, 304
-0.982362, 225, 225, 352, 288
-0.982379, 161, 57, 288, 120
-0.982681, 113, 289, 176, 352
-0.982684, 153, 177, 216, 240
-0.982774, 205, 225, 236, 288
-0.982777, 273, 129, 336, 375
-0.982848, 233, 145, 296, 208
-0.982964, 209, 201, 272, 264
-0.983045, 113, 89, 240, 152
-0.983053, 141, 89, 172, 152
-0.983093, 189, 225, 220, 352
-0.983112, 181, 41, 212, 104
-0.983126, 185, 1, 248, 256
-0.983321, 113, 289, 240, 352
-0.983406, 169, 33, 200, 160
-0.983421, 133, 305, 164, 368
-0.983521, 209, 169, 336, 232
-0.983574, 169, 225, 200, 352
-0.983591, 245, 225, 276, 288
-0.983596, 153, 289, 184, 352
-0.983697, 133, 249, 164, 312
-0.983742, 265, 233, 296, 296
-0.983759, 305, 129, 368, 256
-0.983877, 113, 113, 240, 176
-0.983929, 209, 97, 336, 160
-0.983945, 297, 81, 360, 208
-0.983982, 161, 73, 192, 136
-0.984006, 249, 1, 312, 64
-0.984016, 169, 281, 232, 344
-0.984056, 233, 1, 296, 256
-0.984149, 289, 49, 320, 176
-0.984162, 49, 281, 176, 344
-0.984181, 289, 65, 320, 128
-0.984237, 229, 17, 260, 80
-0.984259, 193, 241, 224, 304
-0.984261, 97, 201, 160, 264
-0.984398, 289, 1, 352, 128
-0.984491, 213, 241, 244, 368
-0.984493, 185, 209, 216, 272
-0.984538, 217, 225, 248, 288
-0.984544, 257, 225, 288, 352
-0.984609, 257, 1, 320, 375
-0.984647, 141, 113, 172, 176
-0.98473, 161, 153, 224, 216
-0.984827, 105, 81, 168, 144
-0.984876, 297, 81, 360, 144
-0.98488, 161, 1, 224, 375
-0.984885, 305, 241, 368, 368
-0.984962, 73, 241, 136, 368
-0.98499, 273, 81, 400, 208
-0.985031, 241, 193, 272, 320
-0.985072, 281, 233, 312, 296
-0.985195, 237, 249, 268, 312
-0.985215, 201, 193, 232, 320
-0.985242, 289, 113, 320, 176
-0.985255, 225, 161, 256, 288
-0.985311, 161, 113, 192, 240
-0.985319, 141, 161, 172, 224
-0.985328, 209, 17, 240, 144
-0.985417, 137, 225, 168, 352
-0.985497, 225, 33, 352, 96
-0.985519, 65, 289, 128, 352
-0.985543, 161, 193, 288, 256
-0.985544, 105, 129, 168, 192
-0.985561, 141, 161, 172, 288
-0.98562, 209, 145, 336, 208
-0.985689, 293, 225, 324, 352
-0.98569, 233, 57, 296, 120
-0.985693, 97, 177, 160, 240
-0.985695, 281, 225, 344, 288
-0.985754, 257, 33, 288, 96
-0.985798, 161, 137, 288, 200
-0.985885, 229, 225, 260, 288
-0.985894, 65, 33, 192, 96
-0.985916, 233, 113, 296, 240
-0.985922, 201, 281, 232, 344
-0.985929, 129, 281, 160, 344
-0.985967, 241, 25, 272, 88
-0.986027, 161, 241, 192, 304
-0.986128, 161, 9, 288, 72
-0.986264, 181, 177, 212, 304
-0.9863, 209, 193, 336, 256
-0.98633, 221, 249, 252, 312
-0.986332, 193, 289, 320, 352
-0.986437, 225, 225, 256, 352
-0.986476, 277, 225, 308, 352
-0.986512, 321, 273, 384, 336
-0.986593, 97, 17, 160, 80
-0.98667, 297, 137, 328, 200
-0.98669, 81, 289, 112, 352
-0.986734, 213, 193, 244, 320
-0.98674, 225, 169, 288, 232
-0.986784, 241, 281, 368, 344
-0.986784, 185, 1, 248, 375
-0.986816, 241, 17, 272, 144
-0.986817, 165, 313, 196, 375
-0.986831, 209, 1, 272, 256
-0.986833, 153, 1, 216, 128
-0.986893, 173, 217, 204, 280
-0.98709, 65, 73, 192, 136
-0.987197, 161, 169, 288, 232
-0.987201, 105, 105, 168, 168
-0.987339, 153, 161, 184, 288
-0.987364, 201, 241, 232, 368
-0.987374, 89, 145, 152, 272
-0.987403, 65, 169, 192, 232
-0.987512, 289, 145, 320, 272
-0.98752, 269, 41, 300, 104
-0.987565, 273, 313, 400, 375
-0.987597, 289, 25, 352, 88
-0.987699, 217, 1, 248, 64
-0.987711, 217, 121, 280, 184
-0.987829, 265, 297, 328, 360
-0.987867, 149, 313, 180, 375
-0.987872, 217, 97, 280, 352
-0.987875, 305, 113, 368, 176
-0.987922, 249, 129, 312, 375
-0.987927, 177, 193, 240, 256
-0.987976, 129, 313, 256, 375
-0.988042, 253, 17, 284, 144
-0.988043, 289, 145, 416, 208
-0.988048, 233, 1, 296, 375
-0.988122, 169, 161, 200, 288
-0.988144, 65, 145, 192, 208
-0.988154, 105, 129, 168, 375
-0.988228, 257, 177, 288, 304
-0.988234, 273, 25, 400, 88
-0.98824, 193, 161, 256, 224
-0.988324, 65, 209, 192, 272
-0.988453, 285, 41, 316, 104
-0.988499, 257, 209, 288, 272
-0.988557, 97, 241, 352, 304
-0.988613, 273, 177, 304, 304
-0.98862, 297, 97, 360, 352
-0.988629, 289, 313, 352, 375
-0.988683, 145, 49, 176, 112
-0.98872, 233, 65, 296, 192
-0.988733, 185, 1, 248, 64
-0.988767, 141, 17, 172, 144
-0.988786, 101, 313, 132, 375
-0.988799, 97, 241, 128, 368
-0.988828, 125, 177, 156, 304
-0.988868, 297, 161, 360, 224
-0.988873, 49, 257, 176, 320
-0.988907, 197, 33, 228, 160
-0.988949, 273, 49, 400, 112
-0.988958, 181, 49, 212, 176
-0.988978, 289, 97, 320, 224
-0.989003, 297, 193, 360, 256
-0.989107, 257, 201, 384, 264
-0.989148, 69, 313, 100, 375
-0.989158, 241, 241, 272, 368
-0.989163, 369, 1, 496, 375
-0.989183, 117, 305, 148, 368
-0.989227, 105, 1, 168, 256
-0.989232, 249, 241, 312, 272
-0.989245, 161, 137, 192, 200
-0.989249, 1, 225, 128, 352
-0.989343, 177, 89, 240, 152
-0.989374, 209, 29, 272, 60
-0.989437, 285, 1, 316, 128
-0.989492, 201, 281, 264, 344
-0.989495, 209, 57, 272, 120
-0.989506, 221, 17, 252, 144
-0.989517, 257, 265, 320, 328
-0.989577, 137, 237, 200, 268
-0.989655, 105, 269, 168, 300
-0.989727, 113, 1, 176, 375
-0.989774, 145, 265, 176, 328
-0.989785, 289, 105, 416, 168
-0.989801, 65, 337, 128, 368
-0.989814, 297, 49, 360, 112
-0.989817, 161, 81, 288, 144
-0.989919, 209, 1, 272, 375
-0.99002, 129, 57, 192, 88
-0.990026, 137, 225, 168, 288
-0.990077, 129, 217, 192, 248
-0.990121, 225, 249, 288, 280
-0.990128, 41, 313, 104, 375
-0.990186, 97, 285, 160, 316
-0.990215, 129, 41, 192, 72
-0.990226, 289, 169, 320, 232
-0.990237, 177, 41, 240, 72
-0.990257, 129, 69, 192, 100
-0.990325, 129, 141, 192, 172
-0.99035, 65, 113, 192, 176
-0.99041, 193, 313, 320, 375
-0.990422, 233, 41, 296, 72
-0.990433, 265, 133, 328, 164
-0.990442, 209, 233, 272, 264
-0.990468, 129, 169, 192, 200
-0.99048, 161, 69, 224, 100
-0.990491, 161, 53, 224, 84
-0.990505, 137, 205, 200, 236
-0.990544, 185, 245, 248, 276
-0.990557, 165, 265, 196, 328
-0.990559, 129, 153, 192, 184
-0.990562, 97, 33, 352, 96
-0.99058, 137, 273, 200, 304
-0.990595, 257, 53, 320, 84
-0.990627, 81, 305, 144, 336
-0.990642, 309, 137, 340, 200
-0.990657, 113, 257, 176, 288
-0.99066, 129, 117, 192, 148
-0.990677, 73, 321, 136, 352
-0.990684, 137, 329, 200, 360
-0.990686, 165, 105, 196, 168
-0.990695, 129, 185, 192, 216
-0.9907, 129, 89, 192, 120
-0.990712, 293, 313, 324, 375
-0.990718, 273, 169, 400, 232
-0.990825, 281, 261, 344, 292
-0.990844, 129, 129, 192, 160
-0.99087, 293, 233, 324, 296
-0.99088, 165, 193, 196, 256
-0.990887, 129, 317, 192, 348
-0.990899, 97, 153, 160, 216
-0.9909, 129, 101, 192, 132
-0.990966, 161, 245, 224, 276
-0.990995, 121, 341, 184, 372
-0.991065, 161, 1, 224, 64
-0.991105, 169, 229, 232, 260
-0.991169, 257, 41, 320, 72
-0.991189, 265, 229, 328, 260
-0.991236, 49, 9, 176, 72
-0.991239, 217, 97, 280, 160
-0.991265, 257, 65, 320, 96
-0.991298, 201, 113, 232, 240
-0.991316, 265, 121, 328, 152
-0.991317, 153, 317, 216, 348
-0.991325, 129, 301, 192, 332
-0.991356, 289, 81, 416, 144
-0.991374, 97, 333, 160, 364
-0.991386, 129, 29, 192, 60
-0.991407, 153, 81, 216, 112
-0.991445, 129, 137, 384, 200
-0.991454, 309, 281, 340, 344
-0.991459, 97, 317, 160, 348
-0.991465, 257, 29, 320, 60
-0.991546, 153, 153, 216, 184
-0.991567, 149, 241, 180, 368
-0.991569, 137, 249, 200, 280
-0.991593, 293, 265, 324, 328
-0.991599, 257, 265, 320, 296
-0.991607, 185, 281, 216, 344
-0.991609, 265, 169, 328, 200
-0.991622, 233, 29, 296, 60
-0.991628, 181, 305, 212, 368
-0.991635, 297, 329, 360, 360
-0.99164, 161, 273, 224, 304
-0.99164, 289, 273, 352, 304
-0.991646, 305, 177, 368, 304
-0.991647, 97, 345, 160, 375
-0.991664, 129, 1, 192, 32
-0.99168, 161, 105, 288, 168
-0.991681, 153, 137, 216, 168
-0.991701, 169, 305, 232, 336
-0.991701, 233, 225, 296, 256
-0.991706, 169, 217, 232, 248
-0.991728, 153, 169, 184, 232
-0.99173, 249, 249, 280, 312
-0.991746, 285, 17, 316, 80
-0.991762, 265, 213, 328, 244
-0.991776, 129, 57, 384, 120
-0.991783, 209, 41, 272, 72
-0.991797, 321, 321, 384, 352
-0.991813, 49, 233, 176, 296
-0.991825, 129, 13, 192, 44
-0.991825, 1, 305, 128, 368
-0.991847, 185, 257, 248, 288
-0.991853, 153, 125, 216, 156
-0.99186, 217, 65, 248, 192
-0.991862, 185, 29, 248, 60
-0.991877, 269, 209, 300, 272
-0.991895, 129, 285, 192, 316
-0.991935, 177, 137, 240, 168
-0.991937, 309, 97, 340, 160
-0.991942, 97, 201, 352, 264
-0.991966, 145, 341, 208, 372
-0.991976, 273, 225, 400, 288
-0.99198, 105, 301, 168, 332
-0.991997, 265, 157, 328, 188
-0.992009, 153, 109, 216, 140
-0.992016, 169, 285, 232, 316
-0.992021, 265, 77, 328, 108
-0.992026, 297, 341, 360, 372
-0.992026, 333, 313, 364, 375
-0.992041, 105, 137, 168, 168
-0.99206, 209, 181, 272, 212
-0.992073, 289, 285, 352, 316
-0.992105, 125, 225, 156, 288
-0.992122, 265, 145, 328, 176
-0.992123, 265, 89, 328, 120
-0.99213, 265, 201, 328, 232
-0.992134, 105, 149, 168, 180
-0.992142, 153, 97, 216, 128
-0.992155, 153, 41, 216, 72
-0.992166, 273, 241, 336, 272
-0.992166, 305, 309, 368, 340
-0.992171, 169, 341, 232, 372
-0.992172, 321, 341, 384, 372
-0.992173, 65, 241, 128, 304
-0.992177, 209, 17, 272, 48
-0.992208, 265, 105, 328, 136
-0.992255, 265, 181, 328, 212
-0.992277, 89, 41, 152, 104
-0.992318, 213, 281, 244, 344
-0.992321, 305, 297, 368, 328
-0.992325, 297, 141, 360, 172
-0.992331, 241, 145, 304, 176
-0.992343, 49, 317, 112, 348
-0.992359, 305, 193, 336, 320
-0.992369, 273, 341, 336, 372
-0.992374, 153, 173, 216, 204
-0.992379, 233, 181, 296, 212
-0.99239, 313, 265, 376, 296
-0.992407, 97, 209, 160, 240
-0.992421, 161, 329, 224, 360
-0.992438, 225, 249, 352, 312
-0.992449, 313, 281, 376, 312
-0.992464, 209, 129, 272, 160
-0.992468, 73, 293, 136, 324
-0.992475, 105, 121, 168, 152
-0.992476, 249, 337, 312, 368
-0.992477, 161, 29, 224, 60
-0.992487, 121, 261, 152, 292
-0.99249, 257, 17, 320, 48
-0.992496, 281, 317, 344, 348
-0.992509, 65, 265, 320, 328
-0.992511, 97, 229, 160, 260
-0.992513, 233, 313, 296, 375
-0.992518, 97, 197, 160, 228
-0.992531, 129, 81, 384, 144
-0.992569, 297, 113, 360, 144
-0.992574, 65, 281, 128, 312
-0.992589, 97, 33, 160, 64
-0.992591, 281, 1, 344, 375
-0.992596, 249, 253, 312, 284
-0.992596, 185, 329, 248, 360
-0.992601, 161, 205, 224, 236
-0.992603, 153, 193, 216, 224
-0.992606, 81, 317, 112, 348
-0.992608, 177, 317, 240, 348
-0.992625, 97, 185, 160, 216
-0.992627, 241, 321, 304, 352
-0.992629, 273, 329, 336, 360
-0.992629, 289, 53, 352, 84
-0.99263, 97, 1, 160, 32
-0.992634, 109, 269, 140, 300
-0.992634, 241, 165, 304, 196
-0.992638, 81, 265, 144, 296
-0.992639, 97, 177, 352, 240
-0.992644, 245, 145, 276, 272
-0.992662, 305, 113, 336, 240
-0.992681, 149, 125, 180, 156
-0.992685, 89, 305, 120, 336
-0.992692, 265, 17, 296, 144
-0.992703, 193, 313, 224, 375
-0.992705, 221, 29, 252, 60
-0.992719, 141, 141, 172, 172
-0.992734, 141, 193, 172, 256
-0.992754, 173, 57, 204, 88
-0.992754, 277, 237, 308, 268
-0.99276, 205, 29, 236, 60
-0.992764, 189, 129, 220, 256
-0.992806, 193, 37, 224, 68
-0.992807, 249, 29, 280, 60
-0.992823, 233, 249, 264, 280
-0.992831, 293, 133, 324, 164
-0.992834, 177, 113, 240, 176
-0.992842, 73, 333, 104, 364
-0.992847, 93, 293, 124, 324
-0.992849, 141, 157, 172, 188
-0.992855, 201, 245, 232, 276
-0.992855, 133, 257, 164, 288
-0.992857, 125, 65, 156, 192
-0.99286, 181, 45, 212, 76
-0.992866, 177, 237, 208, 268
-0.99287, 105, 281, 136, 312
-0.992874, 137, 125, 168, 156
-0.992876, 289, 281, 416, 344
-0.992882, 165, 69, 196, 100
-0.992883, 101, 337, 132, 368
-0.992886, 257, 41, 288, 72
-0.992886, 273, 257, 400, 320
-0.992889, 145, 265, 176, 296
-0.992917, 145, 277, 176, 308
-0.992923, 233, 29, 264, 60
-0.992924, 285, 61, 316, 92
-0.992926, 101, 317, 132, 348
-0.992928, 129, 121, 160, 184
-0.992933, 277, 297, 308, 360
-0.992938, 89, 333, 120, 364
-0.992949, 285, 261, 316, 292
-0.992955, 253, 245, 284, 276
-0.992958, 145, 321, 176, 352
-0.992962, 345, 297, 408, 360
-0.992977, 129, 113, 384, 176
-0.992978, 149, 305, 180, 336
-0.992981, 165, 161, 196, 224
-0.992982, 129, 285, 160, 316
-0.992984, 269, 41, 300, 72
-0.992991, 1, 257, 128, 320
-0.993003, 149, 113, 180, 144
-0.993006, 145, 89, 176, 120
-0.993007, 189, 241, 220, 272
-0.993008, 165, 81, 196, 112
-0.993012, 273, 53, 304, 84
-0.993012, 165, 321, 196, 352
-0.993024, 265, 241, 296, 272
-0.993037, 221, 17, 252, 48
-0.993051, 157, 333, 188, 364
-0.993057, 205, 41, 236, 72
-0.993062, 217, 249, 248, 280
-0.993062, 137, 333, 168, 364
-0.99307, 233, 233, 264, 264
-0.99307, 117, 329, 148, 360
-0.993081, 149, 289, 180, 320
-0.993087, 145, 101, 176, 132
-0.993088, 289, 1, 352, 64
-0.993088, 305, 269, 336, 300
-0.99309, 165, 273, 196, 304
-0.993097, 253, 229, 284, 260
-0.993098, 345, 305, 376, 336
-0.993109, 125, 273, 156, 304
-0.993116, 153, 141, 184, 172
-0.993122, 273, 1, 400, 64
-0.993129, 289, 73, 320, 104
-0.993139, 129, 313, 160, 344
-0.993147, 285, 41, 316, 72
-0.993149, 69, 345, 100, 375
-0.993153, 289, 89, 320, 152
-0.993153, 345, 297, 376, 360
-0.993153, 245, 41, 276, 72
-0.993153, 137, 113, 168, 144
-0.993155, 161, 117, 192, 148
-0.993165, 161, 105, 192, 136
-0.993165, 165, 289, 196, 352
-0.993168, 237, 181, 268, 212
-0.993172, 201, 285, 232, 316
-0.993175, 169, 309, 200, 340
-0.993178, 213, 233, 244, 264
-0.99318, 149, 73, 180, 104
-0.993203, 101, 305, 132, 336
-0.993205, 141, 169, 172, 200
-0.993206, 117, 293, 148, 324
-0.993213, 337, 341, 368, 372
-0.993217, 165, 293, 196, 324
-0.993227, 49, 265, 112, 328
-0.993228, 293, 329, 324, 360
-0.993238, 169, 333, 200, 364
-0.993241, 281, 273, 312, 304
-0.993245, 309, 145, 340, 176
-0.993247, 161, 93, 192, 124
-0.993249, 141, 345, 172, 375
-0.993252, 169, 45, 200, 76
-0.993253, 93, 281, 124, 312
-0.993253, 273, 341, 304, 372
-0.99326, 333, 313, 364, 344
-0.993265, 125, 341, 156, 372
-0.993267, 289, 241, 320, 272
-0.993268, 169, 345, 200, 375
-0.993268, 333, 329, 364, 360
-0.993275, 305, 257, 336, 288
-0.99328, 289, 181, 320, 212
-0.993286, 165, 233, 196, 264
-0.993287, 293, 121, 324, 152
-0.99329, 281, 329, 312, 360
-0.993296, 277, 273, 308, 336
-0.993299, 113, 345, 144, 375
-0.993301, 225, 181, 256, 212
-0.993309, 181, 253, 212, 284
-0.993311, 137, 297, 168, 328
-0.993314, 153, 169, 184, 200
-0.99332, 293, 273, 324, 304
-0.993322, 133, 81, 164, 112
-0.993328, 297, 153, 328, 184
-0.993329, 1, 41, 500, 104
-0.993329, 233, 17, 264, 48
-0.993334, 161, 153, 192, 184
-0.993334, 193, 49, 224, 80
-0.993336, 141, 245, 172, 276
-0.993337, 181, 321, 212, 352
-0.993338, 285, 29, 316, 60
-0.99334, 349, 333, 380, 364
-0.99334, 201, 301, 232, 332
-0.993342, 165, 245, 196, 276
-0.993342, 305, 257, 336, 320
-0.993342, 201, 137, 232, 168
-0.993344, 229, 169, 260, 200
-0.993345, 165, 197, 196, 228
-0.993349, 89, 345, 120, 375
-0.993349, 317, 273, 348, 304
-0.993355, 289, 89, 320, 120
-0.993356, 293, 345, 324, 375
-0.993361, 209, 17, 240, 48
-0.993361, 141, 225, 172, 256
-0.993362, 181, 333, 212, 364
-0.993365, 185, 213, 216, 244
-0.993367, 289, 317, 320, 348
-0.99337, 117, 313, 148, 344
-0.993375, 257, 345, 288, 375
-0.993377, 189, 281, 220, 312
-0.993378, 141, 193, 172, 224
-0.993457, 293, 289, 324, 352
-0.993466, 113, 245, 240, 276
-0.993591, 173, 113, 204, 240
-0.993658, 205, 1, 236, 64
-0.993673, 161, 229, 288, 260
-0.993678, 1, 233, 500, 296
-0.993725, 305, 305, 336, 368
-0.993768, 217, 113, 248, 240
-0.993883, 129, 73, 160, 136
-0.993925, 97, 9, 352, 72
-0.994047, 113, 45, 240, 76
-0.994131, 321, 281, 352, 344
-0.994149, 41, 241, 104, 368
-0.994153, 1, 65, 500, 128
-0.994155, 65, 297, 320, 360
-0.994158, 233, 257, 296, 320
-0.994191, 193, 33, 320, 64
-0.994256, 113, 233, 240, 264
-0.994308, 1, 193, 500, 256
-0.994351, 1, 281, 128, 344
-0.994401, 65, 321, 192, 352
-0.994408, 49, 345, 176, 375
-0.994414, 305, 1, 336, 128
-0.994488, 217, 137, 248, 200
-0.994587, 281, 201, 312, 264
-0.994626, 113, 65, 240, 96
-0.994641, 1, 145, 500, 208
-0.994656, 137, 1, 168, 64
-0.994656, 205, 129, 236, 192
-0.994662, 153, 1, 184, 128
-0.994672, 121, 201, 152, 264
-0.994705, 121, 1, 152, 128
-0.994728, 109, 241, 140, 304
-0.994769, 33, 289, 96, 352
-0.994776, 321, 313, 448, 375
-0.994815, 125, 257, 140, 320
-0.994855, 1, 297, 500, 360
-0.994861, 181, 65, 212, 128
-0.994939, 83, 313, 98, 375
-0.994949, 113, 217, 240, 248
-0.994979, 305, 217, 336, 280
-0.99498, 81, 285, 208, 316
-0.994985, 121, 41, 152, 104
-0.995029, 241, 145, 272, 208
-0.995035, 131, 257, 146, 320
-0.995041, 161, 45, 288, 76
-0.995043, 225, 49, 256, 112
-0.995059, 113, 29, 240, 60
-0.995076, 97, 289, 112, 352
-0.995078, 49, 333, 176, 364
-0.995087, 329, 241, 360, 368
-0.995091, 305, 33, 336, 96
-0.995125, 157, 113, 172, 176
-0.995147, 65, 297, 192, 328
-0.995153, 109, 265, 124, 328
-0.99516, 89, 1, 152, 375
-0.995167, 209, 49, 240, 112
-0.995179, 1, 169, 500, 232
-0.995243, 277, 49, 308, 176
-0.995268, 113, 173, 240, 204
-0.995273, 229, 65, 260, 192
-0.995334, 1, 17, 500, 80
-0.995344, 253, 145, 284, 208
-0.995351, 113, 189, 240, 220
-0.995475, 167, 81, 182, 144
-0.995478, 305, 65, 336, 192
-0.995479, 209, 129, 336, 160
-0.995483, 193, 245, 320, 276
-0.995495, 237, 57, 268, 120
-0.995552, 113, 77, 240, 108
-0.995556, 309, 137, 324, 200
-0.995565, 161, 25, 192, 88
-0.99557, 301, 65, 316, 128
-0.995601, 113, 17, 240, 48
-0.995601, 209, 313, 272, 375
-0.995619, 209, 177, 336, 208
-0.995623, 241, 121, 304, 184
-0.995626, 81, 273, 208, 304
-0.995627, 193, 225, 448, 288
-0.995637, 193, 25, 448, 88
-0.995642, 317, 305, 348, 368
-0.995649, 113, 141, 240, 172
-0.995696, 121, 17, 152, 80
-0.995716, 113, 201, 240, 232
-0.995726, 303, 113, 318, 176
-0.995735, 241, 1, 272, 64
-0.995745, 161, 217, 192, 280
-0.995757, 177, 17, 208, 80
-0.995781, 159, 297, 174, 360
-0.995783, 137, 25, 168, 88
-0.995798, 115, 265, 130, 328
-0.9958, 209, 65, 336, 96
-0.995805, 97, 257, 128, 320
-0.995836, 65, 309, 192, 340
-0.995867, 221, 17, 236, 80
-0.995907, 211, 241, 226, 304
-0.995913, 97, 333, 224, 364
-0.995936, 305, 73, 336, 136
-0.995939, 151, 289, 166, 352
-0.995947, 1, 217, 256, 280
-0.995948, 113, 345, 240, 375
-0.99595, 201, 241, 216, 304
-0.995955, 265, 297, 296, 360
-0.995962, 209, 45, 336, 76
-0.995979, 219, 225, 234, 288
-0.996024, 151, 97, 166, 160
-0.996074, 145, 129, 160, 192
-0.996113, 259, 241, 274, 304
-0.996114, 173, 57, 188, 120
-0.996116, 1, 273, 500, 336
-0.996142, 165, 65, 196, 320
-0.996144, 209, 77, 336, 108
-0.996205, 241, 237, 368, 268
-0.996205, 223, 249, 238, 312
-0.996243, 139, 241, 154, 304
-0.996258, 1, 9, 256, 72
-0.99627, 225, 161, 256, 224
-0.996274, 141, 65, 172, 320
-0.996277, 247, 233, 262, 296
-0.996292, 1, 121, 500, 184
-0.996292, 313, 241, 344, 368
-0.996294, 189, 241, 204, 304
-0.996297, 239, 225, 254, 288
-0.996304, 89, 305, 104, 368
-0.996314, 209, 305, 240, 368
-0.996319, 113, 161, 240, 192
-0.996324, 213, 33, 228, 96
-0.996326, 177, 97, 208, 160
-0.996326, 121, 177, 152, 240
-0.996335, 113, 89, 240, 120
-0.996349, 171, 305, 186, 368
-0.996386, 185, 209, 200, 272
-0.996388, 261, 273, 292, 336
-0.996406, 125, 113, 156, 240
-0.996414, 143, 313, 158, 375
-0.996416, 329, 241, 392, 368
-0.996421, 241, 97, 272, 224
-0.996433, 133, 49, 164, 112
-0.996435, 209, 21, 336, 52
-0.996436, 265, 241, 280, 304
-0.996436, 161, 313, 416, 375
-0.996447, 151, 313, 166, 375
-0.996447, 113, 301, 240, 332
-0.996466, 151, 137, 166, 200
-0.996473, 259, 217, 274, 280
-0.996479, 217, 249, 232, 312
-0.996479, 241, 289, 304, 352
-0.996484, 191, 33, 206, 96
-0.996484, 239, 249, 254, 312
-0.996484, 233, 225, 248, 288
-0.996487, 257, 201, 500, 264
-0.996499, 179, 241, 194, 304
-0.996499, 185, 41, 200, 104
-0.996499, 253, 225, 268, 288
-0.996514, 161, 89, 176, 152
-0.996526, 241, 81, 304, 144
-0.996543, 293, 209, 324, 272
-0.996563, 257, 313, 384, 344
-0.996578, 103, 281, 118, 344
-0.996589, 161, 273, 416, 336
-0.9966, 197, 33, 212, 96
-0.996603, 205, 217, 220, 280
-0.996617, 309, 105, 324, 168
-0.996639, 337, 289, 464, 352
-0.996641, 161, 57, 288, 88
-0.996644, 253, 9, 284, 72
-0.996646, 161, 329, 288, 360
-0.996651, 209, 89, 336, 120
-0.996655, 225, 225, 240, 288
-0.996659, 113, 1, 240, 32
-0.996665, 209, 213, 336, 244
-0.996674, 85, 241, 116, 368
-0.996678, 113, 257, 240, 288
-0.996679, 297, 41, 312, 104
-0.996713, 113, 129, 240, 160
-0.996727, 257, 25, 272, 88
-0.996736, 227, 25, 242, 88
-0.99674, 333, 265, 364, 328
-0.996754, 211, 217, 226, 280
-0.996767, 209, 141, 336, 172
-0.996777, 199, 217, 214, 280
-0.996779, 179, 49, 194, 112
-0.996783, 271, 41, 286, 104
-0.996797, 209, 189, 336, 220
-0.996808, 225, 49, 480, 112
-0.996822, 161, 137, 176, 200
-0.996823, 271, 233, 286, 296
-0.996824, 161, 181, 288, 212
-0.996824, 283, 233, 298, 296
-0.996831, 257, 325, 384, 356
-0.996867, 293, 233, 308, 296
-0.996869, 209, 165, 336, 196
-0.996874, 167, 57, 182, 120
-0.99688, 249, 33, 264, 96
-0.996884, 1, 89, 500, 152
-0.996892, 277, 33, 292, 96
-0.996905, 285, 145, 316, 208
-0.996911, 157, 161, 172, 224
-0.996922, 161, 137, 288, 168
-0.996933, 241, 337, 368, 368
-0.996938, 65, 53, 192, 84
-0.99694, 181, 313, 196, 375
-0.996941, 195, 241, 210, 304
-0.996948, 193, 345, 320, 375
-0.996952, 345, 305, 360, 368
-0.996953, 185, 185, 216, 248
-0.996958, 65, 69, 192, 100
-0.996963, 133, 281, 148, 344
-0.996966, 113, 117, 240, 148
-0.996982, 1, 33, 256, 96
-0.996997, 143, 281, 158, 344
-0.997005, 297, 1, 360, 256
-0.997008, 333, 289, 364, 352
-0.997018, 243, 17, 258, 80
-0.997026, 113, 321, 240, 352
-0.997027, 129, 289, 256, 320
-0.997036, 157, 257, 172, 320
-0.997043, 193, 1, 448, 64
-0.997043, 277, 233, 292, 296
-0.997054, 289, 65, 320, 320
-0.997065, 161, 317, 288, 348
-0.997071, 205, 33, 220, 96
-0.997071, 265, 217, 280, 280
-0.997075, 191, 209, 206, 272
-0.997085, 233, 249, 248, 312
-0.997098, 305, 1, 368, 375
-0.997101, 271, 209, 286, 272
-0.997116, 165, 313, 180, 375
-0.997131, 215, 281, 230, 344
-0.997141, 161, 217, 288, 248
-0.997149, 303, 137, 318, 200
-0.997154, 105, 193, 136, 320
-0.997154, 257, 177, 500, 240
-0.997155, 257, 105, 500, 168
-0.997167, 233, 17, 248, 80
-0.99717, 253, 249, 268, 312
-0.997183, 1, 73, 256, 136
-0.997188, 127, 261, 142, 292
-0.997197, 151, 265, 166, 328
-0.997203, 1, 241, 256, 304
-0.997205, 65, 41, 192, 72
-0.997211, 249, 57, 280, 120
-0.997214, 113, 105, 240, 136
-0.99723, 65, 193, 128, 320
-0.997232, 245, 201, 276, 264
-0.997241, 265, 33, 280, 96
-0.997241, 299, 241, 314, 304
-0.997268, 125, 281, 140, 344
-0.997271, 217, 113, 248, 176
-0.997276, 209, 321, 336, 352
-0.997283, 65, 177, 192, 208
-0.997294, 163, 113, 178, 176
-0.997332, 219, 41, 234, 104
-0.997333, 197, 129, 228, 375
-0.997382, 143, 105, 158, 168
-0.997383, 153, 33, 184, 288
-0.997387, 301, 209, 316, 272
-0.997394, 157, 65, 172, 128
-0.997395, 95, 313, 110, 375
-0.997404, 179, 217, 194, 280
-0.997407, 257, 129, 500, 192
-0.997425, 109, 305, 124, 368
-0.997425, 273, 53, 400, 84
-0.997427, 209, 201, 240, 264
-0.997428, 257, 81, 500, 144
-0.997432, 201, 281, 216, 344
-0.997437, 165, 281, 180, 344
-0.997439, 289, 137, 416, 168
-0.997446, 161, 69, 288, 100
-0.997448, 305, 313, 320, 375
-0.99745, 161, 197, 288, 228
-0.997451, 209, 9, 336, 40
-0.997458, 177, 257, 304, 288
-0.99746, 1, 169, 256, 232
-0.997467, 133, 305, 148, 368
-0.997473, 189, 1, 220, 256
-0.997484, 167, 241, 182, 304
-0.997484, 129, 97, 160, 160
-0.997487, 283, 41, 298, 104
-0.997488, 209, 117, 336, 148
-0.997492, 145, 81, 160, 144
-0.997499, 315, 129, 330, 192
-0.997499, 65, 165, 192, 196
-0.997501, 65, 229, 192, 260
-0.997514, 151, 121, 166, 152
-0.997516, 77, 313, 92, 375
-0.997516, 209, 225, 336, 256
-0.997534, 193, 57, 224, 120
-0.997545, 209, 97, 240, 352
-0.997547, 131, 233, 146, 296
-0.997559, 119, 305, 134, 368
-0.997576, 113, 269, 128, 300
-0.997591, 33, 137, 288, 200
-0.997596, 173, 241, 188, 304
-0.997599, 307, 133, 322, 164
-0.997599, 301, 161, 316, 224
-0.997614, 167, 153, 182, 216
-0.997619, 257, 285, 384, 316
-0.99763, 295, 297, 310, 360
-0.997636, 137, 257, 152, 288
-0.997638, 97, 293, 112, 324
-0.997648, 177, 305, 304, 336
-0.99765, 209, 101, 336, 132
-0.997659, 119, 265, 134, 296
-0.997674, 179, 193, 194, 256
-0.997712, 209, 153, 336, 184
-0.99772, 209, 289, 224, 352
-0.997723, 273, 169, 400, 200
-0.997723, 277, 201, 292, 264
-0.997725, 193, 281, 320, 312
-0.997728, 209, 201, 336, 232
-0.997729, 139, 81, 154, 144
-0.997732, 65, 149, 192, 180
-0.99775, 65, 189, 192, 220
-0.997754, 65, 81, 192, 112
-0.997755, 219, 29, 234, 60
-0.997763, 273, 37, 400, 68
-0.99779, 183, 45, 198, 76
-0.997797, 247, 209, 262, 272
-0.997799, 161, 21, 288, 52
-0.997802, 307, 289, 322, 352
-0.997804, 297, 17, 312, 80
-0.99782, 185, 129, 216, 375
-0.997845, 1, 333, 128, 364
-0.997852, 363, 313, 378, 375
-0.997862, 107, 333, 122, 364
-0.997864, 75, 333, 90, 364
-0.997866, 49, 241, 176, 272
-0.99787, 139, 57, 154, 120
-0.99788, 291, 49, 306, 112
-0.997882, 49, 205, 176, 236
-0.997898, 209, 37, 224, 68
-0.997901, 177, 57, 192, 88
-0.997901, 153, 129, 184, 375
-0.997903, 333, 297, 348, 360
-0.997905, 65, 217, 192, 248
-0.997905, 161, 85, 288, 116
-0.997906, 127, 273, 142, 304
-0.997908, 85, 313, 100, 344
-0.997912, 285, 257, 300, 320
-0.997919, 145, 137, 160, 168
-0.997924, 83, 325, 98, 356
-0.997926, 289, 81, 416, 112
-0.997937, 257, 297, 384, 328
-0.997941, 177, 33, 208, 288
-0.997944, 235, 249, 250, 280
-0.997945, 1, 345, 128, 375
-0.997947, 33, 273, 160, 304
-0.997951, 257, 273, 384, 304
-0.997954, 137, 297, 152, 328
-0.997957, 169, 285, 184, 316
-0.997958, 193, 249, 448, 312
-0.997967, 261, 33, 276, 64
-0.997971, 341, 241, 372, 368
-0.997973, 273, 65, 400, 96
-0.997983, 189, 41, 204, 72
-0.997985, 289, 337, 416, 368
-0.997985, 369, 1, 496, 256
-0.997986, 149, 277, 164, 308
-0.997989, 17, 285, 144, 316
-0.99799, 301, 89, 316, 152
-0.99799, 289, 149, 416, 180
-0.997991, 173, 209, 188, 272
-0.997996, 17, 321, 144, 352
-0.997997, 209, 281, 224, 312
-0.997999, 49, 1, 176, 32
-0.99801, 185, 1, 216, 128
-0.99801, 257, 153, 500, 216
-0.998016, 141, 333, 156, 364
-0.998016, 139, 129, 154, 192
-0.998021, 345, 313, 360, 344
-0.998022, 241, 41, 256, 104
-0.998022, 135, 277, 150, 308
-0.998022, 195, 37, 210, 68
-0.998023, 149, 321, 164, 352
-0.998024, 279, 45, 294, 76
-0.998025, 355, 281, 370, 344
-0.998026, 103, 281, 118, 312
-0.998032, 311, 81, 326, 144
-0.998039, 303, 265, 318, 328
-0.99804, 331, 257, 346, 320
-0.998043, 171, 69, 186, 100
-0.998046, 337, 265, 352, 328
-0.998048, 175, 273, 190, 336
-0.998049, 143, 285, 158, 316
-0.998059, 173, 309, 188, 340
-0.99806, 161, 169, 288, 200
-0.998067, 97, 321, 112, 352
-0.998089, 253, 241, 268, 272
-0.998089, 65, 261, 192, 292
-0.998092, 209, 1, 240, 256
-0.998095, 181, 233, 196, 264
-0.998095, 243, 249, 258, 280
-0.998096, 207, 245, 222, 276
-0.9981, 301, 73, 316, 104
-0.998104, 49, 17, 176, 48
-0.998127, 353, 333, 368, 364
-0.998127, 253, 29, 268, 60
-0.998131, 161, 305, 176, 336
-0.998132, 97, 337, 112, 368
-0.998142, 273, 221, 400, 252
-0.998151, 157, 105, 172, 136
-0.998161, 119, 341, 134, 372
-0.998161, 273, 41, 288, 72
-0.998165, 119, 325, 134, 356
-0.998166, 157, 125, 172, 156
-0.998167, 179, 329, 194, 360
-0.998168, 65, 133, 192, 164
-0.998174, 109, 317, 124, 348
-0.998176, 165, 273, 180, 304
-0.998178, 191, 241, 206, 272
-0.99818, 111, 345, 126, 375
-0.99818, 285, 45, 300, 76
-0.998182, 225, 33, 240, 64
-0.998184, 67, 345, 82, 375
-0.998193, 245, 33, 260, 64
-0.998193, 301, 257, 316, 288
-0.998202, 289, 125, 416, 156
-0.998203, 273, 197, 400, 228
-0.998205, 189, 341, 204, 372
-0.998218, 227, 249, 242, 280
-0.998218, 309, 117, 324, 148
-0.998221, 183, 57, 198, 88
-0.998222, 149, 301, 164, 332
-0.998226, 267, 37, 282, 68
-0.998227, 201, 245, 216, 276
-0.998232, 349, 345, 364, 375
-0.998232, 159, 277, 174, 308
-0.998235, 273, 109, 400, 140
-0.998242, 297, 61, 312, 92
-0.998244, 273, 181, 400, 212
-0.99826, 305, 129, 336, 375
-0.998264, 161, 145, 176, 176
-0.998269, 49, 29, 176, 60
-0.998284, 301, 245, 316, 276
-0.998286, 171, 321, 186, 352
-0.998287, 91, 305, 106, 336
-0.998288, 313, 141, 328, 172
-0.998302, 143, 125, 158, 156
-0.998305, 153, 265, 168, 296
-0.998306, 143, 317, 158, 348
-0.998306, 261, 65, 292, 192
-0.998307, 201, 37, 216, 68
-0.998312, 151, 341, 166, 372
-0.998315, 155, 137, 170, 168
-0.998315, 301, 337, 316, 368
-0.998323, 17, 309, 144, 340
-0.998336, 259, 241, 274, 272
-0.998336, 177, 293, 304, 324
-0.998337, 167, 81, 182, 112
-0.998339, 257, 25, 384, 56
-0.998343, 289, 231, 320, 246
-0.998343, 185, 295, 216, 310
-0.998344, 125, 339, 156, 354
-0.998344, 257, 359, 288, 374
-0.998344, 161, 103, 192, 118
-0.998344, 213, 245, 228, 276
-0.998344, 97, 329, 128, 344
-0.998345, 273, 337, 304, 352
-0.998345, 105, 303, 136, 318
-0.998345, 281, 233, 296, 264
-0.998346, 129, 255, 160, 270
-0.998346, 117, 323, 148, 338
-0.998346, 1, 193, 256, 256
-0.998347, 369, 129, 496, 375
-0.998348, 229, 27, 260, 42
-0.998349, 127, 309, 142, 340
-0.998349, 153, 145, 184, 160
-0.998349, 285, 45, 316, 60
-0.998351, 277, 357, 308, 372
-0.998351, 145, 291, 176, 306
-0.998352, 149, 307, 180, 322
-0.998353, 117, 261, 148, 276
-0.998353, 145, 323, 176, 338
-0.998353, 273, 229, 288, 260
-0.998354, 121, 277, 136, 308
-0.998354, 17, 297, 144, 328
-0.998355, 179, 293, 194, 324
-0.998357, 161, 305, 192, 320
-0.998357, 229, 179, 260, 194
-0.998357, 125, 283, 156, 298
-0.998359, 149, 285, 180, 300
-0.998359, 305, 275, 336, 290
-0.99836, 161, 111, 192, 126
-0.998362, 161, 91, 192, 106
-0.998362, 341, 335, 372, 350
-0.998363, 293, 343, 324, 358
-0.998363, 105, 269, 136, 284
-0.998363, 289, 333, 304, 364
-0.998364, 105, 305, 120, 336
-0.998365, 213, 25, 228, 56
-0.998366, 273, 53, 304, 68
-0.998366, 183, 317, 198, 348
-0.998367, 241, 255, 272, 270
-0.998367, 217, 27, 248, 42
-0.998367, 285, 57, 316, 72
-0.998368, 69, 351, 100, 366
-0.998368, 141, 269, 156, 300
-0.998368, 247, 233, 262, 264
-0.99837, 289, 75, 320, 90
-0.99837, 101, 317, 132, 332
-0.99837, 129, 297, 160, 312
-0.99837, 285, 69, 316, 84
-0.998371, 127, 297, 142, 328
-0.998371, 167, 297, 182, 328
-0.998371, 269, 45, 300, 60
-0.998372, 343, 329, 358, 360
-0.998373, 157, 339, 188, 354
-0.998373, 161, 57, 192, 72
-0.998374, 157, 269, 188, 284
-0.998374, 137, 345, 168, 360
-0.998374, 169, 337, 200, 352
-0.998375, 169, 315, 200, 330
-0.998377, 185, 243, 216, 258
-0.998378, 143, 345, 158, 375
-0.998379, 345, 341, 376, 356
-0.99838, 265, 243, 296, 258
-0.99838, 145, 83, 176, 98
-0.998381, 145, 103, 176, 118
-0.998383, 149, 333, 180, 348
-0.998383, 229, 39, 260, 54
-0.998383, 349, 309, 380, 324
-0.998384, 117, 295, 148, 310
-0.998384, 141, 149, 172, 164
-0.998384, 137, 127, 168, 142
-0.998386, 339, 345, 354, 375
-0.998388, 159, 93, 174, 124
-0.998389, 149, 301, 180, 316
-0.99839, 165, 77, 196, 92
-0.99839, 149, 317, 180, 332
-0.998391, 141, 169, 172, 184
-0.998392, 133, 345, 148, 375
-0.998392, 197, 283, 228, 298
-0.998392, 253, 241, 284, 256
-0.998393, 171, 57, 186, 88
-0.998393, 297, 49, 312, 80
-0.998393, 265, 39, 296, 54
-0.998394, 157, 121, 188, 136
-0.998394, 109, 281, 124, 312
-0.998394, 165, 85, 196, 100
-0.998395, 141, 155, 172, 170
-0.998395, 105, 281, 136, 296
-0.998397, 145, 273, 176, 288
-0.998397, 89, 339, 120, 354
-0.998397, 169, 69, 200, 84
-0.998399, 209, 41, 240, 56
-0.998401, 145, 279, 176, 294
-0.998402, 157, 323, 188, 338
-0.998402, 141, 111, 172, 126
-0.998403, 215, 41, 230, 72
-0.998404, 165, 329, 196, 344
-0.998404, 197, 247, 228, 262
-0.998404, 129, 271, 160, 286
-0.998405, 253, 45, 284, 60
-0.998405, 125, 329, 156, 344
-0.998405, 159, 329, 174, 360
-0.998406, 241, 41, 272, 56
-0.998406, 145, 93, 176, 108
-0.998408, 97, 291, 128, 306
-0.998408, 285, 51, 316, 66
-0.998408, 203, 293, 218, 324
-0.998408, 169, 51, 200, 66
-0.998409, 181, 45, 212, 60
-0.998409, 273, 97, 400, 128
-0.99841, 193, 47, 224, 62
-0.99841, 241, 29, 272, 44
-0.99841, 341, 351, 372, 366
-0.998411, 137, 137, 168, 152
-0.998411, 209, 251, 240, 266
-0.998412, 117, 357, 148, 372
-0.998412, 295, 321, 310, 352
-0.998413, 297, 137, 328, 152
-0.998414, 137, 307, 168, 322
-0.998415, 69, 345, 100, 360
-0.998418, 293, 345, 308, 375
-0.998419, 205, 289, 236, 304
-0.99842, 285, 63, 316, 78
-0.998426, 141, 121, 172, 136
-0.998428, 145, 267, 176, 282
-0.998429, 173, 239, 204, 254
-0.99843, 151, 109, 166, 140
-0.99843, 221, 65, 252, 320
-0.998431, 33, 113, 288, 176
-0.998431, 93, 297, 124, 312
-0.998431, 109, 345, 140, 360
-0.998432, 149, 127, 180, 142
-0.998433, 239, 173, 254, 204
-0.998434, 93, 303, 124, 318
-0.998435, 159, 317, 174, 348
-0.998435, 99, 309, 114, 340
-0.998436, 245, 1, 276, 256
-0.998436, 173, 59, 204, 74
-0.998436, 329, 249, 392, 312
-0.998439, 133, 289, 164, 304
-0.998439, 175, 273, 190, 304
-0.99844, 89, 345, 120, 360
-0.998442, 229, 251, 260, 266
-0.998442, 161, 275, 192, 290
-0.998443, 85, 317, 116, 332
-0.998444, 101, 337, 132, 352
-0.998445, 141, 163, 172, 178
-0.998446, 205, 35, 236, 50
-0.998447, 73, 337, 104, 352
-0.998449, 271, 241, 286, 272
-0.998451, 243, 21, 258, 52
-0.998454, 221, 249, 236, 280
-0.998454, 141, 143, 172, 158
-0.998457, 303, 269, 318, 300
-0.99846, 189, 53, 204, 84
-0.998464, 101, 351, 132, 366
-0.998466, 129, 129, 160, 375
-0.998468, 231, 25, 246, 56
-0.99847, 89, 309, 120, 324
-0.998473, 309, 265, 324, 296
-0.998474, 241, 247, 272, 262
-0.998474, 103, 321, 118, 352
-0.998475, 241, 35, 272, 50
-0.998476, 295, 241, 310, 272
-0.998477, 305, 325, 432, 356
-0.998479, 201, 33, 264, 48
-0.99848, 129, 59, 192, 74
-0.99848, 181, 51, 212, 66
-0.998481, 159, 81, 174, 112
-0.998481, 113, 263, 176, 278
-0.998481, 265, 241, 280, 272
-0.998483, 109, 331, 140, 346
-0.998485, 253, 37, 284, 52
-0.998486, 129, 261, 160, 276
-0.998486, 193, 39, 224, 54
-0.998488, 101, 323, 132, 338
-0.998489, 305, 305, 432, 336
-0.998493, 353, 309, 368, 340
-0.998495, 217, 33, 248, 48
-0.998496, 81, 323, 112, 338
-0.998502, 129, 65, 192, 80
-0.998504, 137, 313, 152, 344
-0.998505, 225, 21, 240, 52
-0.998507, 345, 301, 360, 332
-0.998508, 277, 239, 308, 254
-0.998509, 229, 33, 260, 48
-0.99851, 81, 329, 112, 344
-0.998511, 105, 273, 168, 288
-0.998513, 109, 275, 140, 290
-0.998515, 129, 245, 192, 260
-0.998517, 129, 233, 192, 248
-0.998521, 65, 343, 128, 358
-0.998521, 129, 51, 192, 66
-0.998529, 257, 241, 320, 256
-0.998537, 57, 359, 120, 374
-0.998538, 201, 251, 264, 266
-0.998539, 89, 297, 152, 312
-0.998542, 117, 267, 148, 282
-0.998543, 129, 71, 192, 86
-0.998544, 73, 323, 136, 338
-0.998545, 225, 37, 288, 52
-0.998548, 97, 283, 160, 298
-0.998548, 129, 77, 192, 92
-0.998549, 129, 143, 192, 158
-0.998549, 137, 239, 200, 254
-0.99855, 65, 337, 128, 352
-0.99855, 137, 221, 200, 236
-0.998554, 129, 227, 192, 242
-0.998555, 129, 45, 192, 60
-0.998559, 137, 83, 200, 98
-0.998559, 129, 151, 192, 166
-0.99856, 81, 313, 144, 328
-0.998561, 201, 39, 264, 54
-0.998563, 129, 171, 192, 186
-0.998568, 169, 243, 232, 258
-0.998568, 129, 193, 192, 208
-0.998569, 129, 273, 192, 288
-0.99857, 97, 337, 160, 352
-0.99857, 129, 137, 192, 152
-0.998571, 129, 109, 192, 124
-0.998571, 137, 213, 200, 228
-0.998572, 225, 249, 288, 264
-0.998573, 129, 201, 192, 216
-0.998574, 161, 71, 224, 86
-0.998576, 249, 39, 312, 54
-0.998576, 161, 53, 224, 68
-0.998576, 65, 331, 128, 346
-0.998577, 129, 119, 192, 134
-0.998577, 265, 141, 328, 156
-0.998578, 137, 251, 200, 266
-0.998579, 129, 177, 192, 192
-0.998582, 89, 291, 152, 306
-0.998583, 145, 323, 208, 338
-0.998583, 129, 187, 192, 202
-0.998585, 113, 331, 176, 346
-0.998586, 65, 349, 128, 364
-0.998586, 161, 65, 224, 80
-0.998589, 177, 45, 240, 60
-0.998591, 145, 281, 208, 296
-0.998591, 129, 157, 192, 172
-0.998591, 137, 339, 200, 354
-0.998592, 161, 59, 224, 74
-0.998593, 265, 1, 296, 256
-0.998594, 121, 89, 184, 104
-0.998595, 281, 261, 344, 276
-0.998596, 249, 49, 312, 64
-0.998596, 81, 305, 144, 320
-0.998596, 137, 207, 200, 222
-0.998597, 105, 317, 168, 332
-0.998598, 129, 125, 192, 140
-0.998601, 257, 209, 384, 240
-0.998604, 265, 135, 328, 150
-0.998606, 161, 39, 224, 54
-0.998606, 129, 103, 192, 118
-0.998607, 137, 39, 200, 54
-0.998609, 185, 257, 248, 272
-0.998609, 137, 333, 200, 348
-0.99861, 129, 131, 192, 146
-0.998611, 129, 165, 192, 180
-0.998614, 153, 77, 216, 92
-0.998615, 265, 235, 328, 250
-0.998616, 249, 247, 312, 262
-0.998618, 169, 137, 232, 152
-0.998618, 257, 55, 320, 70
-0.998619, 153, 273, 216, 288
-0.998621, 257, 61, 320, 76
-0.998622, 257, 67, 320, 82
-0.998623, 89, 349, 152, 364
-0.998624, 177, 251, 240, 266
-0.998624, 217, 243, 280, 258
-0.998625, 225, 31, 288, 46
-0.998629, 245, 97, 276, 352
-0.99863, 233, 233, 296, 248
-0.99863, 169, 315, 232, 330
-0.998631, 129, 345, 192, 360
-0.998631, 249, 33, 312, 48
-0.998631, 321, 341, 384, 356
-0.998633, 225, 43, 288, 58
-0.998634, 145, 287, 208, 302
-0.998634, 145, 89, 208, 104
-0.998635, 169, 229, 232, 244
-0.998636, 161, 83, 224, 98
-0.998637, 129, 1, 192, 16
-0.998637, 129, 11, 192, 26
-0.998638, 225, 255, 288, 270
-0.998638, 105, 303, 168, 318
-0.998639, 137, 97, 200, 112
-0.998639, 273, 45, 336, 60
-0.99864, 121, 279, 184, 294
-0.99864, 129, 17, 192, 32
-0.99864, 129, 23, 192, 38
-0.99864, 129, 29, 192, 44
-0.99864, 129, 257, 192, 272
-0.99864, 265, 355, 328, 370
-0.998641, 121, 323, 184, 338
-0.998646, 153, 347, 216, 362
-0.998647, 257, 281, 500, 344
-0.998648, 105, 355, 168, 370
-0.998649, 233, 333, 296, 348
-0.99865, 105, 343, 168, 358
-0.998651, 265, 81, 328, 96
-0.998651, 305, 311, 368, 326
-0.998652, 321, 325, 384, 340
-0.998652, 145, 315, 208, 330
-0.998653, 289, 279, 352, 294
-0.998654, 169, 281, 232, 296
-0.998655, 257, 73, 320, 88
-0.998656, 153, 45, 216, 60
-0.998656, 289, 267, 352, 282
-0.998657, 153, 153, 216, 168
-0.998657, 169, 325, 232, 340
-0.998657, 129, 309, 192, 324
-0.998658, 137, 267, 200, 282
-0.998658, 265, 169, 328, 184
-0.998658, 153, 113, 216, 128
-0.998658, 185, 331, 248, 346
-0.998659, 97, 323, 160, 338
-0.998659, 121, 285, 184, 300
-0.998659, 161, 223, 224, 238
-0.998667, 161, 97, 288, 128
-0.998668, 257, 313, 500, 375
-0.998689, 65, 121, 192, 152
-0.998733, 17, 313, 80, 375
-0.998749, 161, 125, 288, 156
-0.99875, 257, 129, 288, 375
-0.998758, 73, 241, 104, 368
-0.998778, 161, 9, 288, 40
-0.998795, 65, 105, 192, 136
-0.998797, 177, 269, 304, 300
-0.998818, 257, 129, 288, 256
-0.99882, 65, 93, 192, 124
-0.998832, 157, 97, 172, 224
-0.99884, 305, 289, 432, 320
-0.998841, 1, 1, 128, 256
-0.998849, 273, 1, 400, 32
-0.998911, 129, 277, 256, 308
-0.998932, 123, 241, 138, 368
-0.998961, 165, 65, 180, 192
-0.998962, 301, 65, 316, 192
-0.998972, 17, 261, 144, 292
-0.998991, 161, 113, 288, 144
-0.999018, 135, 241, 150, 368
-0.999024, 233, 65, 264, 320
-0.999025, 129, 33, 160, 288
-0.999045, 273, 129, 304, 375
-0.999064, 151, 81, 166, 208
-0.999087, 129, 241, 144, 368
-0.999154, 171, 49, 186, 176
-0.999168, 181, 225, 196, 352
-0.99917, 295, 225, 310, 352
-0.999176, 265, 225, 280, 352
-0.999182, 109, 241, 124, 368
-0.999184, 191, 193, 206, 320
-0.999186, 219, 241, 234, 368
-0.99919, 117, 241, 132, 368
-0.999195, 199, 225, 214, 352
-0.999201, 225, 241, 240, 368
-0.999204, 211, 225, 226, 352
-0.999227, 217, 193, 232, 320
-0.999241, 145, 81, 160, 208
-0.999245, 177, 33, 192, 160
-0.99925, 255, 193, 270, 320
-0.999252, 237, 161, 252, 288
-0.999263, 205, 193, 220, 320
-0.999264, 185, 177, 200, 304
-0.999277, 281, 225, 296, 352
-0.99928, 117, 97, 148, 352
-0.999286, 145, 129, 160, 256
-0.999291, 245, 241, 260, 368
-0.999293, 221, 17, 236, 144
-0.999303, 141, 209, 156, 336
-0.999303, 163, 113, 178, 240
-0.999316, 243, 193, 258, 320
-0.999323, 193, 241, 208, 368
-0.999331, 271, 225, 286, 352
-0.999331, 309, 113, 324, 240
-0.999333, 303, 145, 318, 272
-0.999341, 139, 65, 154, 192
-0.999355, 175, 225, 190, 352
-0.999355, 255, 241, 270, 368
-0.999362, 249, 193, 264, 320
-0.999366, 301, 17, 316, 144
-0.999367, 227, 193, 242, 320
-0.999371, 161, 161, 176, 288
-0.999371, 261, 17, 276, 144
-0.999372, 235, 241, 250, 368
-0.999372, 307, 65, 322, 192
-0.999375, 153, 145, 168, 272
-0.999375, 185, 33, 200, 160
-0.999379, 253, 17, 268, 144
-0.999387, 159, 241, 174, 368
-0.999388, 301, 225, 316, 352
-0.999393, 135, 193, 150, 320
-0.999395, 227, 17, 242, 144
-0.999399, 215, 17, 230, 144
-0.999406, 171, 145, 186, 272
-0.999407, 269, 177, 284, 304
-0.999408, 247, 17, 262, 144
-0.999416, 279, 177, 294, 304
-0.999416, 287, 225, 302, 352
-0.99942, 157, 49, 172, 176
-0.999425, 199, 177, 214, 304
-0.999437, 307, 225, 322, 352
-0.999446, 187, 241, 202, 368
-0.999448, 179, 177, 194, 304
-0.999449, 267, 17, 282, 144
-0.999457, 103, 241, 118, 368
-0.999462, 241, 17, 256, 144
-0.999463, 175, 97, 190, 224
-0.999469, 213, 113, 228, 240
-0.999472, 287, 177, 302, 304
-0.999473, 205, 241, 220, 368
-0.999477, 207, 17, 222, 144
-0.99951, 211, 177, 226, 304
-0.999512, 211, 65, 226, 192
-0.999514, 261, 161, 276, 288
-0.999515, 165, 225, 180, 352
-0.99953, 191, 49, 206, 176
-0.999533, 235, 17, 250, 144
-0.999557, 221, 65, 236, 192
-0.99956, 129, 193, 144, 320
-0.99956, 297, 177, 312, 304
-0.999561, 309, 177, 324, 304
-0.999563, 175, 325, 190, 340
-0.999563, 157, 89, 172, 104
-0.999563, 171, 291, 186, 306
-0.999564, 119, 345, 134, 360
-0.999564, 345, 319, 360, 334
-0.999565, 99, 289, 114, 304
-0.999567, 263, 243, 278, 258
-0.999567, 157, 147, 172, 162
-0.999567, 227, 251, 242, 266
-0.999568, 125, 277, 140, 292
-0.999568, 205, 279, 220, 294
-0.99957, 249, 29, 264, 44
-0.99957, 289, 269, 304, 284
-0.999571, 345, 313, 360, 328
-0.999571, 153, 271, 168, 286
-0.999571, 329, 269, 344, 284
-0.999571, 175, 317, 190, 332
-0.999572, 209, 291, 224, 306
-0.999572, 305, 257, 320, 272
-0.999573, 277, 33, 308, 288
-0.999573, 261, 33, 276, 48
-0.999573, 169, 325, 184, 340
-0.999573, 93, 307, 108, 322
-0.999573, 211, 249, 226, 264
-0.999573, 169, 65, 184, 80
-0.999573, 179, 237, 194, 252
-0.999574, 147, 265, 162, 280
-0.999574, 75, 343, 90, 358
-0.999574, 103, 337, 118, 352
-0.999575, 145, 143, 160, 158
-0.999575, 149, 323, 164, 338
-0.999575, 155, 115, 170, 130
-0.999575, 287, 51, 302, 66
-0.999575, 141, 285, 156, 300
-0.999575, 255, 245, 270, 260
-0.999575, 163, 277, 178, 292
-0.999576, 111, 361, 126, 375
-0.999576, 201, 47, 216, 62
-0.999576, 109, 317, 124, 332
-0.999576, 207, 113, 222, 240
-0.999577, 121, 351, 136, 366
-0.999578, 155, 141, 170, 156
-0.999578, 275, 243, 290, 258
-0.999579, 137, 277, 152, 292
-0.999579, 217, 251, 232, 266
-0.999579, 181, 335, 196, 350
-0.99958, 139, 345, 154, 360
-0.99958, 201, 17, 216, 144
-0.99958, 97, 353, 112, 368
-0.99958, 95, 329, 110, 344
-0.999581, 297, 263, 312, 278
-0.999581, 189, 53, 204, 68
-0.999582, 293, 353, 308, 368
-0.999582, 105, 285, 120, 300
-0.999582, 215, 31, 230, 46
-0.999583, 143, 137, 158, 152
-0.999583, 139, 113, 154, 240
-0.999584, 297, 59, 312, 74
-0.999584, 117, 327, 132, 342
-0.999585, 105, 307, 120, 322
-0.999586, 163, 307, 178, 322
-0.999586, 139, 1, 154, 128
-0.999586, 151, 241, 166, 368
-0.999587, 91, 313, 106, 328
-0.999589, 105, 323, 120, 338
-0.999589, 199, 279, 214, 294
-0.999589, 65, 359, 80, 374
-0.99959, 353, 341, 368, 356
-0.99959, 113, 275, 128, 290
-0.999591, 157, 95, 172, 110
-0.999591, 151, 121, 166, 136
-0.999591, 353, 351, 368, 366
-0.999592, 273, 39, 288, 54
-0.999593, 131, 271, 146, 286
-0.999594, 171, 71, 186, 86
-0.999595, 295, 1, 310, 128
-0.999595, 271, 45, 286, 60
-0.999596, 105, 353, 120, 368
-0.999597, 181, 61, 196, 76
-0.999598, 161, 283, 176, 298
-0.999599, 97, 343, 112, 358
-0.9996, 283, 45, 298, 60
-0.9996, 353, 335, 368, 350
-0.999601, 183, 53, 198, 68
-0.999601, 235, 255, 250, 270
-0.999601, 175, 63, 190, 78
-0.999601, 175, 311, 190, 326
-0.999604, 199, 41, 214, 56
-0.999605, 159, 267, 174, 282
-0.999606, 121, 357, 136, 372
-0.999608, 205, 39, 220, 54
-0.999608, 133, 297, 148, 312
-0.999609, 97, 337, 112, 352
-0.999609, 151, 127, 166, 142
-0.999612, 109, 337, 124, 352
-0.999612, 157, 121, 172, 136
-0.999614, 111, 347, 126, 362
-0.999616, 77, 337, 92, 352
-0.999616, 241, 251, 256, 266
-0.999617, 233, 31, 248, 46
-0.999617, 145, 291, 160, 306
-0.999617, 97, 323, 112, 338
-0.999618, 283, 237, 298, 252
-0.999619, 109, 331, 124, 346
-0.999619, 249, 247, 264, 262
-0.999619, 229, 113, 260, 240
-0.999623, 99, 295, 114, 310
-0.999623, 283, 33, 298, 160
-0.999624, 83, 329, 98, 344
-0.999625, 209, 285, 224, 300
-0.999626, 219, 113, 234, 240
-0.999627, 135, 287, 150, 302
-0.999628, 273, 17, 288, 144
-0.999628, 85, 241, 100, 368
-0.999629, 95, 301, 110, 316
-0.99963, 155, 297, 170, 312
-0.99963, 131, 353, 146, 368
-0.99963, 139, 303, 154, 318
-0.999633, 267, 39, 282, 54
-0.999633, 87, 319, 102, 334
-0.999633, 97, 241, 112, 368
-0.999633, 149, 309, 164, 324
-0.999635, 141, 271, 156, 286
-0.999636, 305, 225, 368, 288
-0.999639, 111, 353, 126, 368
-0.99964, 159, 317, 174, 332
-0.99964, 227, 33, 242, 48
-0.999641, 247, 35, 262, 50
-0.999644, 253, 35, 268, 50
-0.999645, 193, 43, 208, 58
-0.999648, 177, 55, 192, 70
-0.99965, 211, 37, 226, 52
-0.999653, 151, 277, 166, 292
-0.999653, 243, 145, 258, 272
-0.999655, 241, 33, 256, 48
-0.999657, 137, 261, 152, 276
-0.999661, 127, 263, 142, 278
-0.999661, 167, 271, 182, 286
-0.999662, 233, 65, 248, 192
-0.999664, 331, 241, 346, 368
-0.999664, 201, 129, 216, 256
-0.999665, 277, 45, 292, 60
-0.999668, 261, 39, 276, 54
-0.999668, 115, 269, 130, 284
-0.99967, 181, 97, 196, 224
-0.999673, 309, 135, 324, 150
-0.999674, 325, 241, 340, 368
-0.999679, 165, 17, 180, 144
-0.999681, 221, 33, 236, 48
-0.999681, 123, 193, 138, 320
-0.999683, 205, 65, 220, 192
-0.999684, 289, 33, 304, 160
-0.999687, 121, 267, 136, 282
-0.999692, 187, 47, 202, 62
-0.999693, 145, 33, 160, 160
-0.999693, 193, 145, 208, 272
-0.999695, 295, 49, 310, 176
-0.999699, 91, 241, 106, 368
-0.999701, 159, 1, 174, 128
-0.999703, 353, 241, 368, 368
-0.999705, 239, 65, 254, 192
-0.999709, 233, 113, 248, 240
-0.999714, 111, 193, 126, 320
-0.999715, 151, 33, 166, 160
-0.999718, 227, 65, 242, 192
-0.999719, 307, 1, 322, 128
-0.999736, 343, 241, 358, 368
-0.999738, 255, 145, 270, 272
-0.999738, 79, 241, 94, 368
-0.999738, 117, 193, 132, 320
-0.999739, 245, 65, 260, 192
-0.999744, 199, 65, 214, 192
-0.999746, 133, 1, 148, 128
-0.999746, 171, 1, 186, 128
-0.999752, 249, 145, 264, 272
-0.999759, 297, 129, 312, 256
-0.999773, 261, 65, 276, 192
-0.999776, 337, 241, 352, 368
-0.999787, 195, 1, 210, 128
-0.999788, 313, 241, 328, 368
-0.999801, 133, 145, 148, 272
-0.999951, 301, 33, 332, 288
-1.00001, 105, 129, 136, 375
-1.00006, 321, 257, 448, 320
-1.00029, 313, 33, 344, 288
-1.00036, 277, 97, 308, 224
-1.00043, 89, 129, 120, 375
-1.00046, 117, 1, 148, 256
-1.00083, 345, 273, 408, 336
-1.00095, 329, 129, 360, 375
-1.00098, 369, 313, 496, 375
-1.00102, 317, 129, 348, 375
-1.00115, 49, 1, 112, 375
-1.00129, 73, 129, 104, 375
-1.00133, 321, 241, 448, 368
-1.00138, 305, 193, 432, 256
-1.00143, 337, 233, 464, 296
-1.00143, 61, 129, 92, 375
-1.00143, 349, 129, 380, 375
-1.00148, 1, 233, 128, 296
-1.00149, 369, 313, 432, 375
-1.0017, 361, 97, 392, 352
-1.0017, 1, 97, 32, 352
-1.00171, 17, 33, 48, 288
-1.00173, 381, 129, 412, 375
-1.00175, 17, 129, 48, 375
-1.00179, 457, 1, 488, 256
-1.00179, 469, 1, 500, 256
-1.0018, 17, 177, 144, 304
-1.00181, 465, 129, 496, 375
-1.00181, 365, 1, 396, 256
-1.00181, 377, 1, 408, 256
-1.00182, 329, 1, 360, 256
-1.00183, 5, 1, 36, 256
-1.00184, 85, 1, 116, 256
-1.00184, 97, 1, 128, 256
-1.00184, 349, 1, 380, 256
-1.00184, 37, 33, 68, 288
-1.00184, 69, 33, 100, 288
-1.00184, 397, 33, 428, 288
-1.00184, 409, 33, 440, 288
-1.00184, 421, 33, 452, 288
-1.00184, 433, 33, 464, 288
-1.00184, 445, 33, 476, 288
-1.00184, 49, 65, 80, 320
-1.00184, 33, 129, 64, 375
-1.00184, 405, 129, 436, 375
-1.00184, 417, 129, 448, 375
-1.00184, 429, 129, 460, 375
-1.00184, 441, 129, 472, 375
-1.00184, 453, 129, 484, 375
-1.00188, 17, 129, 144, 192
-1.00197, 393, 129, 424, 375
-1.0022, 17, 41, 144, 104
-1.00225, 61, 241, 92, 368
-1.00225, 81, 129, 144, 375
-1.00226, 321, 57, 448, 120
-1.00227, 369, 81, 496, 144
-1.00229, 361, 241, 392, 368
-1.00244, 369, 257, 496, 320
-1.0026, 1, 161, 128, 224
-1.00266, 1, 105, 128, 168
-1.00267, 329, 1, 392, 375
-1.00268, 369, 57, 496, 120
-1.00268, 1, 185, 128, 248
-1.00274, 369, 201, 496, 264
-1.00275, 321, 169, 448, 232
-1.00275, 353, 1, 416, 375
-1.00276, 369, 137, 496, 200
-1.00285, 337, 33, 464, 96
-1.00285, 369, 177, 496, 240
-1.00288, 369, 113, 496, 176
-1.00291, 321, 9, 448, 72
-1.00291, 369, 9, 496, 72
-1.00291, 1, 17, 128, 80
-1.00291, 1, 65, 128, 128
-1.00309, 17, 209, 144, 272
-1.00322, 385, 1, 448, 375
-1.00322, 433, 1, 496, 375
-1.00336, 409, 1, 472, 375
-1.00354, 1, 1, 64, 375
-1.00372, 93, 193, 124, 320
-1.00419, 25, 1, 88, 375
-1.00422, 57, 129, 120, 375
-1.00438, 333, 193, 364, 320
-1.00473, 329, 193, 392, 320
-1.00475, 81, 193, 112, 320
-1.00495, 305, 177, 432, 304
-1.005, 317, 97, 348, 224
-1.0061, 353, 249, 416, 312
-1.00625, 317, 177, 348, 304
-1.0064, 317, 49, 348, 176
-1.00641, 329, 129, 392, 375
-1.00647, 369, 273, 432, 336
-1.00689, 349, 193, 380, 320
-1.00721, 361, 193, 392, 320
-1.00732, 81, 105, 144, 168
-1.00738, 73, 217, 136, 280
-1.00753, 113, 81, 144, 208
-1.00755, 353, 241, 416, 368
-1.00759, 49, 241, 80, 368
-1.00764, 329, 225, 392, 288
-1.00765, 9, 281, 72, 344
-1.00793, 9, 145, 72, 208
-1.00793, 9, 169, 72, 232
-1.00811, 13, 241, 44, 368
-1.00816, 377, 241, 408, 368
-1.00825, 321, 153, 384, 216
-1.00825, 1, 257, 64, 320
-1.00834, 17, 97, 144, 224
-1.00839, 9, 121, 72, 184
-1.00842, 1, 129, 32, 256
-1.00848, 9, 201, 72, 264
-1.00855, 393, 305, 456, 368
-1.00865, 17, 129, 48, 256
-1.00873, 1, 241, 32, 368
-1.00875, 13, 193, 44, 320
-1.00877, 1, 177, 32, 304
-1.00878, 433, 49, 496, 112
-1.0088, 17, 81, 48, 208
-1.00881, 81, 129, 144, 192
-1.00881, 389, 241, 420, 368
-1.00889, 321, 201, 384, 264
-1.00894, 9, 97, 72, 160
-1.00899, 417, 1, 480, 64
-1.00899, 409, 25, 472, 88
-1.00899, 409, 49, 472, 112
-1.00899, 433, 241, 496, 304
-1.00899, 433, 305, 496, 368
-1.00901, 321, 33, 448, 160
-1.00903, 433, 81, 496, 144
-1.00903, 25, 225, 88, 288
-1.00911, 369, 1, 496, 128
-1.00911, 321, 81, 448, 208
-1.0092, 9, 33, 40, 160
-1.00921, 469, 1, 500, 128
-1.00923, 321, 33, 384, 288
-1.00924, 369, 81, 496, 208
-1.00932, 17, 17, 144, 144
-1.00932, 5, 81, 36, 208
-1.00932, 25, 209, 56, 336
-1.00934, 377, 193, 408, 320
-1.00936, 457, 1, 488, 128
-1.00939, 437, 65, 468, 192
-1.00939, 461, 65, 492, 192
-1.00939, 445, 113, 476, 240
-1.00939, 457, 113, 488, 240
-1.00939, 461, 225, 492, 352
-1.0094, 353, 193, 480, 320
-1.0095, 109, 17, 140, 144
-1.0095, 329, 129, 360, 256
-1.0095, 405, 241, 436, 368
-1.00953, 441, 17, 472, 144
-1.00953, 465, 177, 496, 304
-1.00956, 341, 129, 372, 256
-1.00956, 353, 129, 384, 256
-1.00956, 365, 129, 396, 256
-1.00956, 469, 129, 500, 256
-1.00956, 49, 145, 80, 272
-1.00956, 77, 145, 108, 272
-1.00956, 377, 145, 408, 272
-1.00956, 409, 145, 440, 272
-1.00956, 421, 145, 452, 272
-1.00956, 433, 145, 464, 272
-1.00956, 37, 161, 68, 288
-1.00956, 389, 161, 420, 288
-1.00956, 61, 177, 92, 304
-1.00956, 49, 193, 80, 320
-1.00956, 401, 193, 432, 320
-1.00956, 413, 193, 444, 320
-1.00956, 425, 193, 456, 320
-1.00956, 437, 193, 468, 320
-1.00956, 449, 193, 480, 320
-1.00956, 37, 209, 68, 336
-1.00956, 425, 241, 456, 368
-1.00956, 437, 241, 468, 368
-1.00956, 449, 241, 480, 368
-1.00963, 33, 129, 96, 375
-1.01, 353, 129, 416, 375
-1.01012, 81, 33, 144, 288
-1.01023, 17, 33, 80, 288
-1.01028, 369, 241, 496, 368
-1.01032, 369, 145, 496, 272
-1.01043, 433, 33, 496, 288
-1.01062, 409, 1, 472, 256
-1.01062, 433, 129, 496, 375
-1.01071, 377, 129, 440, 375
-1.01086, 57, 1, 120, 256
-1.01086, 361, 1, 424, 256
-1.01086, 385, 33, 448, 288
-1.01086, 409, 129, 472, 375
-1.01088, 321, 81, 384, 208
-1.01102, 81, 97, 144, 224
-1.01119, 1, 129, 64, 375
-1.01188, 353, 193, 416, 320
-1.01218, 377, 241, 440, 368
-1.01273, 9, 129, 72, 256
-1.01296, 1, 177, 64, 304
-1.0134, 41, 193, 104, 320
-1.01351, 1, 81, 64, 208
-1.01365, 313, 33, 376, 160
-1.01406, 409, 65, 472, 192
-1.01416, 73, 17, 136, 144
-1.01422, 1, 33, 64, 160
-1.01435, 409, 17, 472, 144
-1.01435, 433, 81, 496, 208
-1.01435, 433, 209, 496, 336
-1.0144, 17, 241, 80, 368
-1.01442, 409, 113, 472, 240
-1.01465, 25, 81, 88, 208
-1.01465, 345, 145, 408, 272
-1.01465, 433, 161, 496, 288
-1.01471, 25, 33, 88, 160
-1.01478, 49, 1, 112, 128
-1.01478, 361, 1, 424, 128
-1.01478, 385, 17, 448, 144
-1.01478, 433, 17, 496, 144
-1.01478, 337, 33, 400, 160
-1.01478, 49, 49, 112, 176
-1.01478, 361, 49, 424, 176
-1.01478, 385, 65, 448, 192
-1.01478, 57, 97, 120, 224
-1.01478, 361, 97, 424, 224
-1.01478, 385, 113, 448, 240
-1.01478, 41, 145, 104, 272
-1.01478, 385, 161, 448, 288
-1.01478, 409, 193, 472, 320
-1.01478, 409, 241, 472, 368
-1.01863, 65, 145, 128, 272
