1963
-0.4091, 1, 1, 500, 375
-0.432938, 1, 1, 500, 256
-0.54803, 65, 1, 320, 375
-0.567993, 193, 1, 448, 375
-0.630311, 1, 129, 500, 375
-0.636713, 161, 1, 416, 256
-0.769268, 65, 65, 320, 320
-0.811094, 257, 33, 500, 288
-0.876966, 17, 33, 144, 288
-0.881342, 129, 33, 256, 288
-0.885198, 129, 1, 256, 375
-0.886229, 193, 1, 320, 375
-0.887757, 17, 1, 144, 375
-0.888661, 1, 17, 500, 144
-0.892284, 81, 1, 208, 375
-0.899799, 241, 1, 368, 375
-0.900605, 257, 1, 384, 256
-0.901435, 193, 1, 320, 256
-0.905395, 305, 1, 432, 375
-0.910579, 81, 33, 208, 288
-0.912603, 161, 17, 416, 144
-0.914747, 337, 65, 464, 320
-0.918334, 161, 97, 416, 352
-0.919716, 353, 1, 480, 375
-0.925034, 97, 129, 224, 375
-0.925182, 1, 65, 500, 192
-0.932762, 209, 97, 336, 352
-0.934881, 129, 65, 192, 192
-0.935048, 1, 129, 500, 256
-0.936221, 257, 1, 384, 128
-0.936271, 33, 49, 288, 176
-0.942904, 129, 65, 256, 192
-0.944476, 49, 49, 176, 176
-0.946049, 145, 129, 272, 375
-0.946696, 289, 1, 352, 128
-0.946752, 257, 1, 500, 128
-0.948312, 49, 129, 176, 375
-0.950035, 97, 129, 224, 256
-0.950925, 105, 113, 168, 240
-0.951799, 129, 81, 192, 144
-0.952483, 161, 65, 416, 192
-0.952791, 105, 65, 168, 192
-0.953387, 145, 17, 272, 144
-0.954951, 65, 1, 320, 128
-0.955293, 281, 1, 344, 64
-0.957316, 65, 97, 320, 224
-0.95748, 129, 129, 192, 256
-0.957797, 169, 49, 232, 176
-0.958104, 257, 49, 500, 176
-0.958112, 257, 1, 320, 128
-0.958197, 289, 97, 416, 352
-0.958447, 209, 1, 336, 128
-0.959717, 81, 49, 144, 176
-0.960659, 369, 65, 496, 192
-0.961576, 217, 1, 280, 128
-0.962646, 321, 65, 448, 192
-0.963247, 113, 129, 176, 192
-0.963368, 129, 17, 192, 144
-0.964143, 305, 17, 432, 144
-0.964394, 1, 193, 500, 320
-0.965726, 385, 65, 448, 192
-0.965797, 353, 1, 480, 128
-0.96598, 145, 49, 208, 112
-0.966207, 193, 17, 256, 144
-0.966788, 81, 145, 144, 272
-0.966944, 329, 17, 392, 144
-0.967359, 1, 49, 128, 176
-0.968926, 97, 17, 224, 144
-0.969142, 425, 49, 488, 176
-0.969693, 177, 65, 304, 192
-0.970016, 209, 17, 272, 80
-0.970188, 137, 145, 200, 208
-0.970373, 169, 129, 232, 256
-0.97076, 33, 129, 160, 256
-0.970936, 161, 113, 288, 240
-0.970945, 353, 65, 416, 192
-0.97097, 97, 153, 160, 216
-0.971409, 113, 57, 176, 120
-0.971456, 233, 9, 296, 72
-0.972019, 89, 65, 152, 128
-0.972041, 217, 49, 280, 176
-0.972272, 41, 49, 104, 176
-0.972318, 225, 49, 352, 176
-0.972897, 25, 65, 88, 128
-0.973069, 257, 1, 320, 64
-0.973391, 169, 65, 232, 128
-0.973527, 161, 105, 224, 168
-0.973674, 105, 161, 168, 288
-0.973974, 129, 65, 160, 192
-0.974373, 81, 177, 208, 304
-0.974479, 241, 41, 304, 104
-0.974521, 225, 9, 352, 72
-0.9747, 329, 65, 392, 192
-0.975714, 385, 73, 448, 136
-0.976096, 161, 1, 224, 128
-0.976647, 329, 41, 392, 104
-0.976726, 49, 1, 176, 128
-0.976862, 105, 145, 136, 208
-0.976878, 193, 81, 256, 144
-0.97691, 137, 33, 200, 288
-0.978447, 273, 65, 400, 192
-0.978646, 65, 57, 128, 120
-0.978685, 49, 65, 176, 128
-0.978863, 141, 49, 172, 176
-0.978915, 169, 49, 200, 176
-0.978915, 97, 81, 224, 144
-0.979297, 289, 1, 320, 64
-0.979349, 409, 65, 472, 128
-0.979466, 305, 9, 368, 72
-0.979571, 169, 41, 232, 104
-0.979577, 433, 49, 496, 112
-0.979603, 81, 137, 208, 200
-0.979676, 169, 1, 232, 256
-0.979745, 89, 193, 152, 256
-0.979791, 353, 81, 416, 144
-0.97982, 285, 1, 316, 128
-0.979918, 133, 81, 164, 144
-0.980016, 117, 97, 148, 224
-0.980076, 1, 73, 64, 136
-0.980213, 117, 113, 148, 176
-0.980285, 193, 65, 256, 192
-0.980298, 97, 49, 224, 112
-0.98035, 65, 161, 320, 288
-0.980374, 113, 65, 176, 320
-0.980701, 105, 129, 136, 256
-0.980795, 161, 129, 224, 192
-0.980896, 137, 121, 200, 184
-0.980941, 129, 113, 160, 240
-0.980968, 105, 105, 168, 168
-0.981082, 81, 33, 144, 288
-0.981107, 113, 49, 144, 176
-0.981134, 17, 65, 80, 192
-0.981192, 145, 81, 272, 144
-0.981388, 193, 1, 256, 256
-0.98152, 33, 177, 160, 304
-0.981565, 181, 33, 212, 160
-0.981671, 273, 1, 400, 64
-0.981887, 169, 201, 232, 264
-0.98191, 305, 1, 336, 128
-0.981967, 105, 17, 168, 144
-0.982083, 369, 17, 432, 144
-0.982107, 129, 177, 256, 304
-0.982299, 161, 57, 288, 120
-0.982436, 1, 129, 128, 375
-0.982445, 129, 121, 160, 184
-0.982478, 129, 145, 256, 208
-0.982505, 217, 65, 280, 128
-0.982507, 161, 17, 288, 80
-0.982528, 129, 105, 256, 168
-0.982619, 321, 1, 384, 256
-0.982766, 153, 81, 184, 208
-0.982857, 177, 41, 208, 104
-0.982906, 193, 113, 448, 240
-0.982914, 209, 113, 272, 240
-0.982926, 321, 41, 448, 104
-0.98293, 81, 161, 208, 224
-0.982938, 177, 65, 208, 128
-0.982987, 185, 17, 248, 80
-0.983087, 369, 49, 432, 112
-0.983161, 229, 1, 260, 128
-0.983244, 113, 177, 176, 240
-0.983277, 193, 41, 256, 104
-0.983282, 161, 65, 192, 128
-0.983437, 265, 49, 328, 176
-0.983458, 153, 137, 184, 200
-0.983469, 329, 17, 392, 80
-0.983519, 321, 1, 352, 128
-0.983602, 233, 1, 296, 256
-0.98363, 289, 33, 352, 96
-0.983637, 161, 153, 224, 216
-0.983764, 73, 1, 136, 375
-0.983885, 145, 57, 176, 120
-0.984008, 157, 41, 188, 104
-0.984029, 57, 1, 120, 128
-0.984084, 73, 153, 136, 216
-0.98415, 329, 81, 392, 144
-0.984173, 117, 145, 148, 272
-0.984198, 273, 57, 400, 120
-0.984308, 209, 113, 272, 176
-0.984338, 241, 33, 368, 96
-0.984363, 145, 1, 208, 375
-0.984456, 369, 73, 496, 136
-0.984526, 317, 9, 348, 72
-0.984553, 389, 65, 420, 192
-0.984734, 433, 1, 496, 128
-0.984748, 193, 177, 448, 304
-0.984952, 273, 1, 304, 64
-0.985002, 233, 17, 264, 80
-0.985083, 301, 1, 332, 64
-0.985127, 153, 33, 184, 160
-0.985146, 117, 161, 148, 224
-0.985185, 273, 1, 304, 128
-0.985195, 1, 241, 500, 368
-0.985216, 321, 81, 448, 144
-0.985277, 305, 49, 368, 176
-0.985282, 389, 81, 420, 144
-0.985343, 217, 217, 280, 280
-0.985383, 45, 57, 76, 120
-0.985429, 49, 185, 176, 248
-0.985457, 1, 65, 128, 128
-0.98546, 57, 33, 120, 288
-0.985565, 217, 41, 280, 104
-0.985594, 137, 177, 200, 240
-0.985717, 1, 1, 128, 128
-0.985814, 169, 177, 232, 304
-0.985839, 49, 81, 112, 144
-0.985918, 265, 25, 328, 88
-0.985943, 65, 177, 128, 240
-0.985954, 89, 209, 152, 336
-0.985977, 121, 1, 184, 375
-0.986126, 241, 49, 304, 176
-0.986357, 185, 121, 248, 184
-0.986432, 129, 177, 192, 304
-0.986521, 257, 65, 320, 128
-0.986589, 433, 49, 464, 176
-0.986672, 89, 41, 152, 104
-0.986732, 333, 1, 364, 128
-0.986774, 81, 113, 208, 176
-0.986779, 129, 57, 160, 120
-0.986871, 113, 201, 176, 264
-0.986874, 193, 233, 256, 296
-0.986953, 225, 65, 352, 128
-0.987015, 413, 65, 444, 192
-0.987105, 353, 65, 416, 320
-0.987105, 305, 113, 432, 240
-0.987108, 257, 1, 288, 128
-0.987142, 189, 97, 220, 224
-0.987227, 33, 33, 96, 288
-0.987372, 169, 89, 200, 152
-0.987493, 393, 17, 456, 144
-0.987501, 117, 73, 148, 136
-0.987503, 177, 1, 240, 375
-0.987522, 101, 65, 132, 128
-0.98754, 97, 49, 128, 176
-0.98754, 365, 49, 396, 176
-0.987708, 449, 49, 480, 112
-0.987731, 449, 65, 480, 192
-0.987733, 65, 209, 320, 336
-0.98777, 361, 81, 392, 144
-0.987996, 49, 89, 176, 152
-0.988009, 409, 33, 472, 288
-0.988025, 169, 129, 200, 256
-0.988032, 329, 1, 392, 375
-0.988054, 245, 9, 276, 72
-0.988149, 97, 193, 224, 256
-0.988168, 233, 1, 296, 375
-0.988178, 289, 57, 352, 120
-0.988192, 469, 65, 500, 192
-0.9882, 177, 177, 240, 240
-0.988301, 401, 65, 432, 192
-0.98834, 109, 193, 140, 256
-0.988454, 177, 121, 304, 184
-0.98852, 81, 1, 144, 128
-0.988525, 297, 1, 360, 256
-0.988568, 141, 129, 172, 192
-0.988783, 33, 57, 64, 120
-0.98879, 225, 161, 352, 288
-0.988796, 81, 89, 144, 152
-0.988876, 1, 49, 64, 112
-0.988918, 181, 97, 212, 160
-0.988927, 233, 97, 296, 160
-0.988935, 33, 137, 160, 200
-0.988951, 9, 17, 72, 144
-0.988952, 129, 89, 192, 120
-0.989087, 245, 17, 276, 144
-0.989121, 153, 97, 184, 160
-0.989132, 429, 65, 460, 128
-0.989136, 217, 1, 248, 128
-0.989194, 209, 1, 272, 375
-0.989222, 49, 33, 112, 96
-0.989252, 369, 49, 496, 112
-0.989385, 257, 113, 384, 240
-0.989434, 89, 217, 152, 280
-0.989475, 385, 65, 448, 320
-0.989503, 413, 73, 444, 136
-0.989513, 281, 9, 344, 40
-0.989577, 9, 33, 72, 288
-0.989667, 129, 217, 256, 280
-0.989674, 425, 57, 488, 88
-0.989707, 189, 73, 220, 136
-0.989745, 373, 57, 404, 120
-0.989822, 57, 65, 88, 128
-0.989836, 97, 1, 160, 375
-0.989851, 89, 73, 152, 104
-0.989854, 433, 1, 496, 256
-0.989867, 373, 81, 404, 144
-0.989882, 113, 77, 176, 108
-0.989929, 25, 1, 88, 375
-0.989978, 141, 113, 172, 240
-0.990023, 57, 49, 88, 176
-0.990051, 33, 65, 96, 96
-0.990192, 349, 17, 380, 144
-0.990213, 241, 13, 304, 44
-0.990241, 129, 61, 192, 92
-0.990271, 221, 17, 252, 80
-0.990277, 1, 77, 64, 108
-0.99029, 217, 65, 248, 192
-0.990294, 113, 133, 176, 164
-0.990302, 305, 81, 368, 144
-0.990324, 145, 73, 208, 104
-0.990345, 205, 33, 236, 160
-0.990398, 73, 57, 104, 120
-0.990411, 257, 1, 320, 375
-0.990453, 33, 161, 160, 224
-0.990479, 49, 81, 112, 112
-0.990497, 225, 97, 352, 160
-0.990506, 185, 145, 248, 208
-0.990616, 209, 209, 336, 272
-0.990638, 209, 129, 240, 256
-0.990723, 213, 225, 244, 288
-0.990758, 189, 25, 220, 88
-0.990767, 89, 153, 120, 216
-0.990782, 469, 1, 500, 128
-0.990813, 145, 145, 208, 176
-0.990822, 257, 9, 288, 72
-0.990894, 169, 1, 200, 128
-0.990902, 177, 97, 240, 352
-0.990923, 217, 17, 280, 48
-0.990932, 165, 121, 196, 184
-0.990949, 401, 73, 432, 136
-0.990988, 409, 41, 472, 104
-0.991009, 125, 185, 156, 248
-0.991011, 257, 41, 288, 104
-0.991027, 33, 1, 96, 128
-0.99104, 121, 145, 184, 176
-0.991057, 305, 105, 432, 168
-0.99107, 209, 113, 336, 240
-0.991088, 97, 185, 128, 248
-0.991104, 337, 17, 368, 80
-0.991107, 129, 161, 160, 288
-0.991115, 169, 77, 232, 108
-0.991119, 369, 81, 432, 112
-0.991151, 217, 97, 280, 352
-0.991164, 97, 161, 160, 192
-0.991165, 129, 169, 256, 232
-0.991253, 257, 1, 320, 256
-0.991283, 33, 33, 160, 96
-0.991284, 145, 49, 208, 80
-0.991322, 85, 49, 116, 176
-0.991386, 377, 65, 408, 192
-0.991406, 145, 101, 208, 132
-0.991411, 189, 49, 220, 112
-0.991427, 105, 181, 168, 212
-0.991432, 97, 149, 160, 180
-0.991453, 105, 177, 136, 304
-0.991454, 165, 145, 196, 208
-0.991476, 169, 133, 232, 164
-0.991512, 417, 73, 480, 104
-0.991572, 25, 77, 88, 108
-0.991588, 81, 61, 144, 92
-0.991631, 193, 33, 224, 160
-0.991645, 45, 49, 76, 176
-0.991659, 193, 209, 256, 336
-0.991692, 161, 37, 224, 68
-0.991705, 305, 161, 432, 288
-0.991711, 89, 197, 152, 228
-0.991714, 1, 65, 64, 96
-0.991776, 25, 81, 56, 208
-0.991783, 169, 89, 232, 120
-0.991877, 57, 69, 120, 100
-0.991893, 321, 17, 384, 48
-0.991933, 113, 205, 176, 236
-0.991937, 49, 1, 112, 375
-0.991971, 329, 49, 392, 80
-0.991981, 161, 17, 416, 80
-0.992029, 125, 17, 156, 144
-0.992034, 25, 89, 88, 120
-0.992055, 93, 145, 124, 272
-0.992065, 329, 37, 392, 68
-0.992097, 113, 33, 176, 96
-0.992141, 353, 1, 416, 375
-0.992142, 193, 121, 224, 184
-0.992143, 417, 1, 480, 375
-0.992166, 169, 145, 232, 176
-0.992172, 73, 85, 136, 116
-0.992198, 345, 73, 408, 104
-0.992198, 305, 153, 368, 216
-0.992199, 137, 125, 200, 156
-0.992213, 289, 29, 352, 60
-0.992215, 229, 49, 260, 176
-0.992224, 73, 149, 136, 180
-0.992226, 89, 117, 152, 148
-0.992226, 345, 89, 408, 120
-0.992228, 73, 185, 136, 216
-0.992234, 469, 57, 500, 120
-0.992239, 241, 61, 304, 92
-0.99224, 401, 61, 464, 92
-0.992258, 393, 77, 456, 108
-0.992265, 225, 225, 256, 288
-0.992265, 129, 185, 192, 216
-0.992273, 289, 65, 352, 96
-0.992311, 241, 49, 304, 80
-0.992326, 225, 41, 480, 104
-0.992338, 241, 25, 304, 56
-0.992361, 169, 65, 232, 96
-0.992374, 185, 33, 248, 64
-0.992403, 1, 1, 64, 375
-0.99241, 417, 1, 480, 32
-0.992424, 225, 73, 288, 104
-0.992439, 169, 49, 232, 80
-0.992443, 369, 69, 432, 100
-0.992462, 305, 1, 368, 375
-0.992467, 145, 157, 208, 188
-0.99247, 233, 1, 296, 32
-0.992481, 329, 61, 392, 92
-0.992506, 105, 61, 168, 92
-0.992513, 177, 117, 240, 148
-0.992524, 433, 125, 496, 156
-0.992536, 169, 205, 232, 236
-0.992552, 153, 145, 184, 176
-0.992566, 49, 201, 112, 264
-0.992595, 201, 161, 264, 288
-0.9926, 353, 41, 384, 104
-0.992609, 265, 73, 328, 104
-0.992621, 257, 1, 320, 32
-0.992627, 457, 57, 488, 88
-0.992629, 205, 201, 236, 264
-0.992634, 105, 149, 136, 180
-0.992651, 125, 77, 156, 108
-0.992653, 297, 53, 360, 84
-0.99266, 81, 113, 144, 176
-0.992664, 181, 145, 212, 272
-0.992665, 273, 81, 400, 144
-0.992669, 193, 21, 256, 52
-0.992683, 177, 233, 304, 296
-0.992683, 1, 93, 64, 124
-0.9927, 121, 157, 184, 188
-0.992707, 137, 85, 168, 116
-0.992708, 145, 201, 208, 264
-0.99271, 145, 17, 208, 80
-0.992716, 389, 81, 420, 112
-0.992726, 89, 217, 152, 248
-0.992731, 105, 89, 168, 120
-0.992748, 157, 81, 188, 112
-0.992748, 265, 9, 296, 40
-0.992756, 305, 145, 368, 272
-0.99276, 25, 73, 56, 104
-0.992761, 217, 49, 280, 80
-0.992765, 173, 105, 204, 136
-0.992769, 209, 229, 272, 260
-0.99277, 65, 173, 128, 204
-0.992783, 469, 57, 500, 88
-0.992786, 65, 49, 320, 112
-0.992794, 169, 93, 200, 124
-0.9928, 133, 133, 164, 164
-0.992815, 345, 101, 408, 132
-0.992825, 453, 17, 484, 144
-0.992845, 193, 105, 256, 136
-0.992851, 65, 197, 128, 228
-0.992859, 429, 61, 460, 92
-0.992863, 277, 25, 308, 88
-0.992871, 121, 49, 184, 80
-0.992877, 201, 193, 264, 256
-0.99289, 185, 229, 248, 260
-0.992891, 165, 145, 196, 176
-0.992896, 117, 209, 148, 336
-0.992911, 125, 89, 156, 120
-0.992923, 133, 65, 164, 96
-0.992929, 249, 37, 312, 68
-0.992935, 113, 69, 144, 100
-0.992935, 77, 77, 108, 108
-0.992935, 105, 161, 136, 192
-0.992942, 281, 9, 312, 40
-0.992945, 13, 77, 44, 108
-0.992945, 237, 17, 268, 48
-0.992946, 37, 73, 68, 104
-0.992961, 201, 61, 264, 92
-0.992964, 129, 113, 192, 144
-0.99297, 129, 173, 192, 204
-0.992972, 445, 57, 476, 88
-0.992973, 137, 197, 200, 228
-0.992981, 177, 157, 240, 188
-0.992988, 369, 85, 400, 116
-0.992989, 289, 41, 352, 72
-0.992996, 209, 37, 272, 68
-0.992998, 169, 37, 200, 68
-0.993002, 257, 129, 500, 375
-0.993008, 177, 73, 208, 104
-0.99301, 1, 49, 500, 112
-0.993015, 377, 17, 408, 144
-0.993016, 37, 85, 68, 116
-0.993016, 77, 65, 108, 96
-0.99302, 313, 129, 376, 192
-0.993023, 209, 125, 272, 156
-0.993023, 161, 173, 224, 204
-0.993024, 293, 9, 324, 40
-0.993025, 209, 85, 272, 116
-0.993046, 153, 113, 216, 144
-0.993048, 73, 161, 136, 192
-0.99305, 313, 9, 344, 40
-0.993052, 253, 9, 284, 40
-0.993059, 145, 133, 176, 164
-0.993069, 53, 69, 84, 100
-0.993073, 265, 61, 328, 92
-0.993075, 89, 101, 152, 132
-0.993079, 57, 57, 120, 88
-0.993083, 225, 81, 256, 144
-0.993091, 1, 81, 32, 112
-0.993103, 121, 117, 152, 148
-0.993116, 145, 73, 176, 104
-0.993122, 121, 129, 152, 160
-0.993133, 321, 1, 384, 32
-0.993137, 257, 85, 320, 116
-0.993142, 273, 21, 304, 52
-0.993147, 65, 81, 96, 112
-0.993151, 169, 101, 232, 132
-0.993159, 189, 29, 220, 60
-0.993163, 93, 65, 124, 96
-0.993164, 209, 241, 272, 272
-0.993166, 169, 189, 232, 220
-0.993172, 157, 93, 188, 124
-0.99318, 333, 17, 364, 48
-0.993181, 73, 97, 136, 224
-0.99319, 185, 241, 248, 272
-0.993192, 165, 133, 196, 164
-0.993208, 25, 85, 56, 116
-0.993209, 289, 69, 320, 100
-0.993211, 117, 105, 148, 136
-0.993217, 153, 129, 184, 256
-0.993218, 189, 85, 220, 116
-0.993219, 49, 93, 112, 124
-0.993221, 33, 53, 96, 84
-0.993223, 185, 217, 248, 248
-0.993228, 221, 229, 252, 260
-0.99323, 137, 117, 168, 148
-0.993232, 109, 173, 140, 204
-0.993239, 169, 157, 200, 188
-0.99324, 157, 49, 188, 80
-0.993244, 369, 57, 432, 88
-0.993245, 265, 21, 328, 52
-0.993247, 113, 217, 176, 248
-0.993253, 369, 113, 432, 144
-0.993254, 453, 125, 484, 156
-0.993255, 409, 109, 472, 140
-0.99326, 313, 77, 376, 108
-0.99326, 409, 77, 440, 108
-0.993269, 373, 69, 404, 100
-0.993274, 221, 21, 252, 52
-0.993277, 129, 33, 192, 64
-0.993278, 113, 201, 144, 232
-0.993282, 353, 65, 384, 192
-0.993283, 185, 109, 216, 140
-0.993291, 181, 41, 212, 72
-0.993298, 117, 185, 148, 216
-0.993305, 101, 193, 132, 224
-0.99331, 49, 85, 80, 116
-0.993312, 449, 1, 480, 32
-0.993313, 181, 53, 212, 84
-0.99332, 225, 225, 480, 352
-0.993325, 201, 73, 264, 104
-0.993328, 65, 69, 96, 100
-0.993336, 461, 69, 492, 100
-0.993338, 89, 129, 152, 160
-0.993341, 465, 121, 496, 152
-0.993342, 421, 73, 452, 104
-0.993343, 209, 217, 272, 248
-0.993344, 373, 97, 404, 128
-0.99335, 253, 21, 284, 52
-0.993352, 417, 61, 448, 92
-0.993353, 125, 205, 156, 236
-0.993356, 233, 105, 296, 136
-0.99336, 417, 45, 480, 76
-0.993366, 449, 69, 480, 100
-0.993368, 169, 61, 200, 92
-0.99337, 169, 49, 200, 80
-0.99337, 209, 229, 240, 260
-0.993379, 369, 97, 496, 160
-0.993383, 305, 165, 368, 196
-0.993386, 177, 197, 208, 228
-0.993386, 189, 197, 220, 228
-0.993388, 257, 97, 320, 128
-0.993391, 89, 229, 152, 260
-0.993399, 221, 125, 252, 156
-0.9934, 113, 81, 144, 112
-0.9934, 193, 97, 224, 128
-0.993402, 177, 145, 208, 176
-0.993402, 89, 153, 120, 184
-0.993403, 357, 81, 388, 112
-0.99341, 129, 157, 160, 188
-0.993424, 369, 93, 432, 124
-0.993432, 41, 205, 104, 236
-0.993443, 113, 93, 144, 124
-0.993444, 209, 25, 240, 56
-0.993445, 385, 101, 416, 132
-0.99345, 109, 57, 140, 88
-0.993451, 1, 81, 32, 208
-0.993457, 205, 217, 236, 248
-0.993458, 145, 61, 176, 92
-0.993461, 281, 57, 312, 88
-0.993461, 37, 57, 68, 88
-0.993461, 93, 181, 124, 212
-0.993468, 209, 141, 272, 172
-0.99347, 117, 141, 148, 172
-0.993481, 437, 73, 468, 104
-0.993484, 189, 145, 220, 176
-0.993485, 197, 133, 228, 164
-0.993487, 101, 205, 132, 236
-0.993487, 1, 69, 32, 100
-0.993489, 305, 105, 368, 136
-0.993497, 9, 53, 72, 84
-0.993497, 121, 101, 184, 132
-0.993501, 137, 145, 168, 176
-0.993505, 329, 1, 360, 32
-0.993505, 157, 61, 188, 92
-0.993506, 197, 121, 228, 152
-0.993511, 129, 105, 160, 136
-0.993511, 265, 85, 296, 116
-0.993518, 189, 185, 220, 216
-0.993528, 145, 49, 176, 80
-0.99353, 209, 1, 272, 32
-0.993536, 433, 49, 464, 80
-0.993541, 193, 65, 448, 128
-0.993543, 253, 45, 284, 76
-0.993543, 33, 269, 64, 300
-0.993545, 25, 41, 88, 104
-0.993545, 105, 137, 136, 168
-0.993546, 401, 117, 432, 148
-0.993549, 213, 241, 244, 272
-0.99355, 253, 93, 284, 124
-0.993554, 21, 61, 52, 92
-0.993557, 209, 141, 240, 172
-0.993557, 233, 1, 264, 32
-0.993563, 333, 161, 364, 192
-0.993563, 337, 41, 368, 72
-0.993566, 89, 165, 120, 196
-0.993568, 13, 89, 44, 120
-0.993571, 117, 217, 148, 248
-0.993572, 353, 49, 384, 80
-0.993573, 137, 209, 200, 240
-0.993574, 353, 69, 384, 100
-0.993575, 285, 25, 316, 56
-0.993578, 405, 65, 436, 96
-0.993596, 193, 49, 256, 80
-0.993643, 189, 185, 220, 248
-0.993673, 69, 49, 100, 176
-0.993689, 393, 1, 456, 375
-0.993701, 425, 1, 488, 64
-0.993754, 33, 113, 160, 176
-0.993793, 241, 209, 368, 336
-0.993802, 81, 129, 144, 375
-0.993806, 209, 17, 240, 80
-0.993841, 65, 73, 320, 136
-0.993898, 209, 145, 272, 208
-0.993928, 201, 81, 232, 144
-0.993937, 305, 137, 432, 200
-0.993949, 333, 145, 364, 208
-0.993993, 241, 13, 368, 44
-0.994, 117, 49, 148, 112
-0.99408, 201, 169, 264, 232
-0.994107, 257, 137, 384, 200
-0.994157, 89, 65, 120, 128
-0.994161, 281, 1, 344, 375
-0.994252, 21, 73, 52, 136
-0.994256, 241, 57, 272, 120
-0.994287, 145, 193, 272, 256
-0.994362, 345, 105, 408, 168
-0.99437, 201, 81, 232, 208
-0.994414, 441, 1, 472, 128
-0.994474, 81, 145, 208, 176
-0.994479, 81, 217, 208, 280
-0.994517, 321, 17, 448, 80
-0.994523, 221, 49, 252, 112
-0.994604, 221, 121, 252, 184
-0.994682, 17, 69, 144, 100
-0.994699, 353, 113, 480, 240
-0.994732, 57, 161, 120, 288
-0.99477, 129, 73, 144, 136
-0.994816, 65, 77, 192, 108
-0.994861, 393, 17, 424, 144
-0.994863, 5, 65, 36, 128
-0.994875, 205, 137, 236, 200
-0.994883, 97, 105, 352, 168
-0.994885, 185, 153, 216, 216
-0.994893, 281, 145, 344, 208
-0.994897, 81, 25, 208, 88
-0.99491, 161, 225, 288, 352
-0.995012, 209, 49, 240, 112
-0.995033, 233, 97, 296, 224
-0.995042, 225, 233, 352, 296
-0.995052, 1, 89, 128, 152
-0.995082, 257, 89, 320, 152
-0.99509, 13, 81, 44, 208
-0.995126, 193, 21, 320, 52
-0.995155, 285, 57, 316, 120
-0.995157, 111, 137, 126, 200
-0.995165, 213, 81, 244, 144
-0.995214, 197, 145, 228, 272
-0.995324, 217, 209, 280, 336
-0.995411, 183, 33, 198, 96
-0.99544, 257, 161, 384, 224
-0.995445, 429, 33, 460, 96
-0.995451, 193, 177, 320, 240
-0.995469, 17, 209, 144, 272
-0.995475, 1, 185, 128, 248
-0.995518, 137, 81, 152, 144
-0.99552, 389, 57, 420, 120
-0.995543, 293, 1, 308, 64
-0.995552, 97, 97, 224, 128
-0.995562, 225, 89, 480, 152
-0.995632, 105, 41, 136, 104
-0.995634, 273, 49, 304, 112
-0.995646, 287, 1, 302, 64
-0.995732, 245, 97, 276, 160
-0.995763, 69, 81, 100, 144
-0.995774, 409, 17, 440, 144
-0.995821, 161, 85, 288, 116
-0.995847, 353, 121, 480, 184
-0.995899, 177, 153, 304, 216
-0.995946, 141, 105, 172, 168
-0.995982, 129, 145, 160, 208
-0.996007, 453, 113, 484, 176
-0.996021, 333, 65, 364, 192
-0.996026, 117, 217, 148, 280
-0.996029, 297, 97, 360, 224
-0.99606, 65, 65, 192, 96
-0.996075, 65, 129, 320, 192
-0.99608, 177, 65, 192, 128
-0.996103, 445, 1, 476, 64
-0.996121, 433, 121, 496, 184
-0.996134, 17, 81, 144, 112
-0.996143, 289, 65, 320, 192
-0.99618, 225, 201, 256, 264
-0.996191, 315, 1, 330, 64
-0.996199, 273, 29, 400, 60
-0.996253, 153, 49, 168, 112
-0.9963, 273, 73, 400, 104
-0.996303, 257, 17, 500, 80
-0.996312, 393, 81, 408, 144
-0.996346, 65, 17, 320, 80
-0.996347, 321, 177, 384, 240
-0.996351, 81, 181, 208, 212
-0.996355, 369, 57, 496, 88
-0.996361, 177, 193, 208, 256
-0.996375, 51, 57, 66, 120
-0.996376, 333, 113, 364, 240
-0.996394, 129, 97, 144, 160
-0.996411, 305, 105, 368, 168
-0.996429, 321, 61, 448, 92
-0.996436, 117, 65, 132, 128
-0.996463, 169, 1, 200, 256
-0.996465, 129, 61, 256, 92
-0.996477, 289, 25, 320, 88
-0.99648, 299, 1, 314, 64
-0.996509, 257, 81, 288, 208
-0.996512, 305, 169, 432, 232
-0.996524, 45, 57, 60, 120
-0.996524, 113, 73, 240, 104
-0.996539, 205, 193, 236, 320
-0.996552, 137, 1, 168, 128
-0.996556, 225, 161, 288, 288
-0.996573, 5, 33, 36, 160
-0.996581, 281, 1, 296, 64
-0.996609, 139, 121, 154, 184
-0.996622, 225, 225, 240, 288
-0.996627, 187, 73, 202, 136
-0.996642, 81, 133, 208, 164
-0.99666, 129, 145, 256, 176
-0.99667, 155, 129, 170, 192
-0.996671, 169, 225, 232, 288
-0.996696, 113, 1, 240, 64
-0.996699, 177, 89, 192, 152
-0.996709, 369, 25, 496, 88
-0.996712, 133, 121, 148, 184
-0.996724, 63, 57, 78, 120
-0.996729, 117, 145, 132, 208
-0.996739, 129, 109, 256, 140
-0.996742, 147, 49, 162, 112
-0.996758, 113, 157, 240, 188
-0.996758, 421, 17, 452, 144
-0.996767, 217, 249, 280, 312
-0.99678, 65, 1, 96, 128
-0.996802, 57, 41, 88, 104
-0.996803, 123, 161, 138, 224
-0.996809, 33, 177, 160, 208
-0.996817, 321, 81, 448, 112
-0.996828, 265, 81, 296, 144
-0.996829, 159, 49, 174, 112
-0.996838, 141, 177, 172, 240
-0.99685, 345, 129, 408, 192
-0.996863, 81, 193, 208, 224
-0.996864, 163, 137, 178, 200
-0.996864, 141, 153, 172, 216
-0.996871, 365, 1, 396, 128
-0.996881, 305, 1, 320, 64
-0.996898, 145, 133, 272, 164
-0.996903, 145, 41, 272, 72
-0.996916, 241, 41, 368, 72
-0.996924, 169, 17, 200, 80
-0.996927, 167, 49, 182, 112
-0.99693, 225, 65, 352, 96
-0.996936, 113, 169, 240, 200
-0.996936, 385, 73, 400, 136
-0.99694, 369, 77, 496, 108
-0.996947, 257, 185, 384, 248
-0.99695, 413, 73, 428, 136
-0.996964, 243, 9, 258, 72
-0.996978, 185, 97, 200, 160
-0.997005, 125, 65, 156, 320
-0.997014, 163, 73, 178, 136
-0.997019, 113, 1, 144, 128
-0.99702, 419, 73, 434, 136
-0.997026, 331, 9, 346, 72
-0.997032, 171, 81, 186, 144
-0.997039, 453, 1, 468, 64
-0.997044, 433, 25, 496, 88
-0.997063, 45, 33, 76, 96
-0.997075, 273, 61, 400, 92
-0.997079, 241, 81, 272, 208
-0.997084, 111, 193, 126, 256
-0.997092, 113, 225, 176, 288
-0.997101, 251, 1, 266, 64
-0.997111, 453, 49, 468, 112
-0.997128, 157, 73, 172, 136
-0.997149, 193, 9, 320, 40
-0.997149, 1, 105, 256, 168
-0.99715, 241, 1, 368, 32
-0.997176, 57, 57, 72, 120
-0.99718, 137, 57, 152, 120
-0.997198, 259, 9, 274, 72
-0.997202, 17, 93, 144, 124
-0.997207, 109, 33, 140, 288
-0.997224, 305, 201, 432, 264
-0.997225, 369, 105, 432, 168
-0.997237, 129, 49, 144, 112
-0.997242, 337, 81, 368, 144
-0.997242, 161, 185, 192, 248
-0.997244, 237, 17, 252, 80
-0.997245, 375, 81, 390, 144
-0.997253, 225, 53, 352, 84
-0.997255, 369, 117, 496, 148
-0.997257, 105, 153, 120, 216
-0.997258, 161, 73, 288, 104
-0.997265, 321, 1, 336, 64
-0.997267, 111, 145, 126, 176
-0.997306, 403, 81, 418, 144
-0.997316, 33, 33, 64, 160
-0.997318, 33, 233, 160, 296
-0.99733, 73, 57, 88, 120
-0.997332, 1, 81, 500, 144
-0.997334, 143, 81, 158, 144
-0.997339, 25, 185, 88, 248
-0.997361, 241, 225, 304, 288
-0.997365, 289, 25, 304, 88
-0.997383, 17, 57, 144, 88
-0.997392, 17, 97, 80, 160
-0.997404, 433, 73, 496, 136
-0.997404, 77, 1, 108, 128
-0.997455, 65, 193, 320, 256
-0.997458, 177, 61, 304, 92
-0.997465, 161, 257, 288, 320
-0.997477, 123, 105, 138, 168
-0.997495, 129, 121, 256, 152
-0.997495, 145, 97, 272, 128
-0.997499, 147, 121, 162, 184
-0.997508, 275, 9, 290, 72
-0.997523, 329, 1, 360, 256
-0.997539, 485, 57, 500, 120
-0.997542, 219, 217, 234, 280
-0.997549, 177, 177, 304, 304
-0.997557, 377, 105, 408, 168
-0.997563, 123, 209, 138, 272
-0.997569, 123, 65, 138, 128
-0.997578, 193, 105, 208, 168
-0.997581, 225, 257, 352, 320
-0.997591, 373, 57, 388, 120
-0.997605, 39, 73, 54, 136
-0.99761, 1, 265, 128, 328
-0.997618, 173, 33, 188, 96
-0.997636, 431, 57, 446, 120
-0.997656, 103, 65, 118, 128
-0.99766, 267, 9, 282, 72
-0.997666, 151, 89, 166, 152
-0.997667, 33, 165, 160, 196
-0.99767, 39, 73, 54, 104
-0.997675, 121, 185, 136, 248
-0.997677, 97, 33, 128, 288
-0.99768, 1, 25, 500, 88
-0.997686, 185, 153, 200, 216
-0.997691, 105, 185, 120, 248
-0.997693, 129, 185, 144, 248
-0.997697, 57, 129, 120, 192
-0.997706, 473, 57, 488, 88
-0.997712, 137, 81, 152, 112
-0.997712, 159, 141, 174, 172
-0.997713, 209, 1, 240, 256
-0.997718, 279, 41, 294, 104
-0.997719, 193, 217, 448, 280
-0.997723, 127, 73, 142, 104
-0.997733, 33, 217, 288, 280
-0.997746, 45, 1, 76, 128
-0.99775, 33, 73, 48, 104
-0.997753, 197, 1, 228, 256
-0.99777, 409, 49, 440, 112
-0.997774, 321, 49, 448, 80
-0.997785, 367, 49, 382, 112
-0.99779, 305, 97, 432, 128
-0.997791, 199, 81, 214, 144
-0.997792, 387, 97, 402, 160
-0.997795, 479, 57, 494, 120
-0.997796, 191, 49, 206, 112
-0.997801, 445, 65, 460, 128
-0.997807, 213, 145, 228, 208
-0.997814, 281, 9, 296, 40
-0.997817, 257, 209, 384, 272
-0.997824, 175, 89, 190, 120
-0.997826, 17, 49, 48, 112
-0.99783, 341, 9, 356, 72
-0.997831, 461, 41, 476, 104
-0.997847, 321, 257, 448, 320
-0.997858, 145, 33, 176, 96
-0.99786, 465, 57, 480, 88
-0.99787, 111, 161, 126, 224
-0.99787, 129, 101, 144, 132
-0.997882, 161, 113, 176, 176
-0.997884, 169, 85, 184, 116
-0.997886, 213, 25, 228, 88
-0.997887, 181, 97, 196, 128
-0.997888, 329, 161, 392, 288
-0.99789, 459, 57, 474, 88
-0.997895, 439, 65, 454, 128
-0.997906, 165, 145, 180, 176
-0.997915, 129, 85, 144, 116
-0.997929, 393, 81, 408, 112
-0.997941, 137, 129, 200, 375
-0.997946, 223, 17, 238, 80
-0.997952, 171, 121, 186, 184
-0.997957, 137, 33, 168, 288
-0.997962, 173, 193, 204, 320
-0.997967, 465, 117, 480, 148
-0.99797, 185, 37, 200, 68
-0.997973, 193, 73, 208, 136
-0.997973, 289, 209, 416, 336
-0.997977, 25, 77, 40, 108
-0.997978, 11, 73, 26, 136
-0.997979, 259, 33, 274, 96
-0.997982, 305, 201, 368, 264
-0.997983, 231, 225, 246, 288
-0.997984, 469, 33, 500, 96
-0.99799, 383, 89, 398, 120
-0.997992, 79, 57, 94, 120
-0.997994, 113, 85, 240, 116
-0.998001, 177, 137, 192, 200
-0.998002, 287, 9, 302, 40
-0.998005, 91, 57, 106, 120
-0.998012, 187, 101, 202, 132
-0.998013, 105, 89, 136, 152
-0.998017, 131, 113, 146, 144
-0.998021, 171, 141, 186, 172
-0.998024, 97, 49, 224, 80
-0.998026, 85, 57, 100, 120
-0.998027, 257, 85, 384, 116
-0.998033, 181, 149, 196, 180
-0.998036, 425, 73, 440, 136
-0.998047, 479, 57, 494, 88
-0.998054, 111, 65, 126, 128
-0.998054, 129, 209, 256, 240
-0.998056, 233, 81, 248, 144
-0.998069, 81, 73, 96, 104
-0.99807, 209, 113, 240, 176
-0.998071, 147, 145, 162, 208
-0.998074, 289, 17, 416, 48
-0.998083, 367, 73, 382, 136
-0.998087, 245, 33, 276, 96
-0.998104, 249, 25, 264, 88
-0.99811, 193, 41, 320, 72
-0.998113, 467, 49, 482, 112
-0.998117, 33, 201, 160, 232
-0.998123, 153, 137, 168, 168
-0.998127, 453, 57, 468, 88
-0.998128, 251, 13, 266, 44
-0.998131, 395, 57, 410, 120
-0.998132, 473, 57, 488, 120
-0.998146, 157, 77, 172, 108
-0.998147, 145, 133, 160, 164
-0.998152, 1, 57, 16, 120
-0.998155, 225, 81, 240, 144
-0.998164, 119, 69, 134, 100
-0.998166, 87, 65, 102, 96
-0.99817, 133, 209, 164, 272
-0.998171, 275, 9, 290, 40
-0.998173, 127, 129, 142, 192
-0.998177, 207, 121, 222, 184
-0.99818, 119, 41, 134, 104
-0.998186, 157, 33, 188, 288
-0.99819, 225, 105, 352, 136
-0.998192, 223, 225, 238, 256
-0.998203, 97, 65, 112, 128
-0.998213, 137, 185, 152, 248
-0.998215, 33, 189, 160, 220
-0.998216, 19, 77, 34, 108
-0.998216, 317, 33, 348, 96
-0.998217, 71, 81, 86, 144
-0.998231, 305, 1, 432, 32
-0.998255, 175, 153, 190, 184
-0.998255, 45, 73, 60, 104
-0.998257, 33, 153, 160, 184
-0.998263, 179, 185, 194, 248
-0.998269, 33, 65, 48, 128
-0.99827, 137, 121, 152, 152
-0.998271, 357, 1, 388, 256
-0.998287, 43, 85, 58, 116
-0.998289, 117, 121, 132, 184
-0.99829, 73, 71, 104, 86
-0.998291, 33, 95, 64, 110
-0.998291, 117, 145, 148, 160
-0.998293, 293, 9, 308, 40
-0.998293, 221, 127, 252, 142
-0.998294, 169, 55, 200, 70
-0.998294, 341, 1, 372, 256
-0.998295, 333, 23, 364, 38
-0.998295, 273, 241, 400, 304
-0.998296, 89, 157, 120, 172
-0.998297, 389, 79, 420, 94
-0.998298, 117, 153, 148, 168
-0.998299, 165, 139, 196, 154
-0.998299, 449, 73, 480, 88
-0.998302, 117, 201, 148, 216
-0.998303, 21, 93, 52, 108
-0.998303, 217, 21, 248, 36
-0.998304, 193, 109, 224, 124
-0.998304, 61, 207, 92, 222
-0.998305, 337, 41, 368, 104
-0.998305, 137, 145, 168, 160
-0.998306, 51, 85, 66, 116
-0.998306, 273, 25, 304, 40
-0.998306, 149, 135, 180, 150
-0.998307, 121, 215, 152, 230
-0.998307, 417, 79, 448, 94
-0.998308, 397, 117, 428, 132
-0.99831, 245, 13, 260, 44
-0.99831, 201, 135, 232, 150
-0.99831, 209, 229, 240, 244
-0.99831, 377, 79, 408, 94
-0.998311, 89, 95, 120, 110
-0.998311, 149, 69, 164, 100
-0.998312, 1, 79, 32, 94
-0.998313, 177, 69, 208, 84
-0.998313, 129, 113, 160, 128
-0.998314, 129, 107, 160, 122
-0.998316, 133, 123, 164, 138
-0.998316, 221, 241, 252, 256
-0.998316, 93, 191, 124, 206
-0.998317, 285, 65, 316, 80
-0.998317, 11, 77, 26, 108
-0.998317, 177, 113, 208, 128
-0.998318, 113, 209, 144, 224
-0.998319, 357, 85, 388, 100
-0.998319, 345, 145, 360, 208
-0.99832, 97, 197, 128, 212
-0.99832, 145, 61, 176, 76
-0.998322, 179, 161, 194, 224
-0.998323, 89, 69, 120, 84
-0.998324, 129, 75, 160, 90
-0.998325, 105, 181, 136, 196
-0.998327, 129, 181, 256, 212
-0.998327, 161, 99, 192, 114
-0.998328, 45, 65, 76, 80
-0.998328, 65, 153, 320, 216
-0.998328, 281, 113, 344, 176
-0.998328, 373, 97, 404, 112
-0.99833, 117, 93, 148, 108
-0.99833, 129, 63, 160, 78
-0.99833, 145, 81, 176, 96
-0.998332, 221, 231, 252, 246
-0.998333, 185, 103, 216, 118
-0.998333, 157, 49, 188, 64
-0.998335, 431, 61, 446, 92
-0.998337, 73, 207, 104, 222
-0.998338, 141, 75, 172, 90
-0.998338, 1, 137, 500, 200
-0.998339, 469, 73, 500, 88
-0.998339, 331, 33, 346, 96
-0.998342, 117, 101, 148, 116
-0.998343, 169, 145, 184, 208
-0.998343, 109, 129, 140, 375
-0.998344, 41, 71, 72, 86
-0.998344, 109, 187, 140, 202
-0.998345, 189, 43, 220, 58
-0.998345, 191, 25, 206, 88
-0.998346, 113, 195, 144, 210
-0.998347, 289, 73, 320, 88
-0.998349, 449, 123, 480, 138
-0.998351, 299, 57, 314, 120
-0.998351, 169, 75, 200, 90
-0.998352, 245, 21, 276, 36
-0.998353, 117, 117, 148, 132
-0.998354, 157, 69, 188, 84
-0.998354, 185, 1, 216, 256
-0.998355, 145, 93, 176, 108
-0.998355, 121, 87, 152, 102
-0.998356, 61, 71, 92, 86
-0.998359, 333, 17, 364, 32
-0.998359, 109, 171, 140, 186
-0.998359, 213, 201, 228, 264
-0.998362, 453, 1, 484, 16
-0.998362, 133, 69, 148, 100
-0.998363, 109, 69, 140, 84
-0.998363, 137, 133, 168, 148
-0.998364, 169, 157, 200, 172
-0.998364, 209, 225, 336, 256
-0.998364, 177, 151, 208, 166
-0.998365, 17, 85, 48, 100
-0.998365, 117, 111, 148, 126
-0.998366, 85, 85, 116, 100
-0.998366, 157, 91, 188, 106
-0.998366, 405, 81, 436, 96
-0.998367, 173, 101, 204, 116
-0.998367, 349, 17, 380, 80
-0.998368, 265, 19, 296, 34
-0.998369, 143, 185, 158, 248
-0.998369, 457, 129, 488, 144
-0.998369, 173, 45, 188, 76
-0.99837, 327, 13, 342, 44
-0.998371, 143, 65, 158, 96
-0.998371, 297, 177, 360, 240
-0.998371, 121, 125, 152, 140
-0.998371, 33, 271, 64, 286
-0.998372, 129, 217, 144, 280
-0.998374, 185, 49, 200, 80
-0.998375, 173, 81, 204, 96
-0.998375, 301, 9, 332, 24
-0.998379, 25, 77, 56, 92
-0.998379, 1, 89, 16, 152
-0.998381, 257, 9, 272, 40
-0.998381, 441, 67, 472, 82
-0.998382, 37, 85, 52, 116
-0.998384, 191, 185, 206, 248
-0.998385, 75, 77, 90, 108
-0.998385, 305, 109, 432, 140
-0.998385, 125, 133, 156, 148
-0.998386, 181, 69, 196, 100
-0.998388, 169, 47, 200, 62
-0.998389, 267, 41, 282, 104
-0.998393, 89, 77, 104, 108
-0.998396, 61, 85, 92, 100
-0.998396, 189, 37, 220, 52
-0.998398, 429, 71, 460, 86
-0.998399, 145, 29, 272, 60
-0.998399, 39, 269, 54, 300
-0.998399, 133, 69, 164, 84
-0.9984, 77, 93, 108, 108
-0.998404, 383, 77, 398, 108
-0.998405, 465, 67, 496, 82
-0.99841, 169, 93, 200, 108
-0.998411, 149, 141, 180, 156
-0.998415, 313, 11, 344, 26
-0.998415, 429, 61, 460, 76
-0.998415, 297, 209, 360, 336
-0.998417, 241, 1, 272, 256
-0.998419, 105, 165, 136, 180
-0.99842, 29, 87, 60, 102
-0.998421, 17, 33, 48, 160
-0.998421, 193, 113, 448, 176
-0.998422, 163, 81, 178, 112
-0.998422, 61, 91, 92, 106
-0.998424, 41, 89, 72, 104
-0.998426, 373, 81, 388, 112
-0.998427, 101, 121, 132, 184
-0.998428, 13, 79, 44, 94
-0.998431, 281, 11, 312, 26
-0.998431, 453, 67, 484, 82
-0.998432, 173, 41, 204, 56
-0.998433, 449, 59, 480, 74
-0.998434, 461, 123, 492, 138
-0.998435, 229, 19, 260, 34
-0.998437, 485, 57, 500, 88
-0.998437, 269, 9, 284, 40
-0.998438, 389, 85, 420, 100
-0.998438, 165, 151, 196, 166
-0.998439, 469, 61, 500, 76
-0.998441, 369, 87, 400, 102
-0.998441, 285, 21, 300, 52
-0.998442, 157, 85, 188, 100
-0.998442, 1, 85, 32, 100
-0.998445, 173, 107, 204, 122
-0.998448, 445, 53, 460, 84
-0.998452, 209, 81, 336, 112
-0.99846, 73, 87, 104, 102
-0.998462, 253, 65, 284, 128
-0.998466, 137, 139, 168, 154
-0.998466, 105, 159, 136, 174
-0.998468, 93, 65, 108, 96
-0.998478, 241, 15, 272, 30
-0.998479, 165, 145, 196, 160
-0.998479, 73, 79, 104, 94
-0.998479, 129, 93, 192, 108
-0.99848, 75, 65, 90, 96
-0.998481, 101, 1, 132, 128
-0.998483, 113, 221, 240, 252
-0.998484, 119, 205, 134, 236
-0.998484, 101, 149, 132, 164
-0.998484, 177, 113, 304, 144
-0.998489, 107, 189, 122, 220
-0.998492, 281, 233, 344, 296
-0.998493, 261, 13, 292, 28
-0.998501, 149, 85, 164, 116
-0.998501, 125, 81, 156, 96
-0.998506, 321, 225, 448, 288
-0.998508, 133, 87, 164, 102
-0.998511, 177, 137, 192, 168
-0.998513, 321, 9, 336, 40
-0.998513, 241, 17, 304, 32
-0.998516, 273, 11, 336, 26
-0.998517, 81, 109, 208, 140
-0.998518, 425, 33, 456, 288
-0.998521, 225, 241, 352, 272
-0.998528, 263, 9, 278, 40
-0.998528, 299, 65, 314, 96
-0.998532, 471, 117, 486, 148
-0.998532, 305, 313, 432, 375
-0.998533, 69, 65, 84, 96
-0.998535, 5, 77, 20, 108
-0.998537, 49, 91, 112, 106
-0.998539, 457, 1, 472, 32
-0.998539, 179, 41, 194, 72
-0.99854, 159, 129, 174, 160
-0.998541, 485, 69, 500, 100
-0.998542, 345, 177, 408, 240
-0.998542, 153, 149, 184, 164
-0.998545, 33, 71, 96, 86
-0.998545, 301, 49, 332, 176
-0.99855, 113, 141, 176, 156
-0.998551, 99, 65, 114, 96
-0.998553, 425, 59, 488, 74
-0.998554, 129, 87, 192, 102
-0.998554, 193, 113, 208, 144
-0.998557, 337, 37, 464, 68
-0.998559, 129, 75, 192, 90
-0.99856, 191, 37, 206, 68
-0.99856, 151, 57, 166, 88
-0.998563, 249, 11, 312, 26
-0.998563, 49, 85, 112, 100
-0.998567, 137, 133, 152, 164
-0.998567, 129, 147, 192, 162
-0.998568, 145, 155, 208, 170
-0.99857, 9, 87, 72, 102
-0.998572, 235, 17, 250, 48
-0.998574, 433, 67, 496, 82
-0.998578, 129, 69, 192, 84
-0.998581, 217, 21, 280, 36
-0.998583, 113, 81, 176, 96
-0.998584, 125, 209, 140, 240
-0.998585, 81, 69, 144, 84
-0.998587, 1, 79, 64, 94
-0.998587, 417, 73, 480, 88
-0.99859, 89, 81, 152, 96
-0.998592, 129, 99, 192, 114
-0.998594, 145, 81, 208, 96
-0.998596, 73, 93, 136, 108
-0.998597, 105, 87, 168, 102
-0.998598, 97, 185, 160, 200
-0.9986, 289, 281, 416, 344
-0.9986, 171, 101, 186, 132
-0.998601, 81, 205, 208, 236
-0.998603, 169, 151, 232, 166
-0.998605, 31, 85, 46, 116
-0.998606, 113, 197, 128, 228
-0.998609, 89, 75, 152, 90
-0.998609, 33, 141, 160, 172
-0.99861, 169, 39, 232, 54
-0.998613, 385, 81, 448, 96
-0.998617, 153, 89, 216, 104
-0.998618, 161, 47, 224, 62
-0.998618, 145, 59, 208, 74
-0.998619, 407, 113, 422, 144
-0.998619, 25, 77, 88, 92
-0.99862, 101, 149, 116, 180
-0.998621, 257, 145, 384, 176
-0.998622, 111, 169, 126, 200
-0.998622, 439, 53, 454, 84
-0.998623, 161, 145, 224, 160
-0.998624, 61, 69, 76, 100
-0.998625, 305, 69, 320, 100
-0.998626, 97, 149, 160, 164
-0.998627, 73, 87, 136, 102
-0.998629, 121, 161, 136, 192
-0.99863, 49, 79, 112, 94
-0.99863, 97, 167, 160, 182
-0.998631, 433, 1, 496, 16
-0.998631, 97, 175, 160, 190
-0.998632, 145, 53, 208, 68
-0.998633, 97, 159, 160, 174
-0.998633, 73, 203, 136, 218
-0.998633, 455, 69, 470, 100
-0.998634, 369, 105, 496, 136
-0.998635, 177, 145, 304, 176
-0.998637, 137, 141, 200, 156
-0.998638, 131, 125, 146, 156
-0.998641, 241, 23, 304, 38
-0.998642, 165, 129, 180, 160
-0.998643, 397, 65, 428, 320
-0.998644, 9, 67, 72, 82
-0.998645, 479, 69, 494, 100
-0.998645, 169, 95, 232, 110
-0.998646, 33, 33, 64, 288
-0.998649, 233, 105, 264, 168
-0.998655, 465, 69, 480, 100
-0.998655, 289, 17, 352, 32
-0.998658, 289, 73, 352, 88
-0.998658, 361, 85, 424, 100
-0.998661, 105, 191, 168, 206
-0.998664, 281, 25, 344, 40
-0.998664, 73, 197, 136, 212
-0.998666, 57, 85, 72, 116
-0.998666, 329, 57, 392, 72
-0.998667, 169, 83, 232, 98
-0.998667, 153, 103, 216, 118
-0.998667, 281, 145, 344, 272
-0.998668, 337, 13, 352, 44
-0.998668, 289, 31, 352, 46
-0.998668, 73, 149, 136, 164
-0.998669, 145, 135, 208, 150
-0.998671, 269, 1, 300, 256
-0.998671, 57, 69, 120, 84
-0.998672, 217, 15, 280, 30
-0.998673, 425, 123, 488, 138
-0.998675, 113, 201, 176, 216
-0.998675, 297, 67, 360, 82
-0.998676, 97, 119, 160, 134
-0.998676, 121, 119, 184, 134
-0.998676, 105, 131, 168, 146
-0.998677, 225, 117, 352, 148
-0.998677, 169, 139, 232, 154
-0.998678, 89, 1, 120, 128
-0.998678, 329, 41, 392, 56
-0.998678, 113, 207, 176, 222
-0.998679, 177, 101, 240, 116
-0.998679, 321, 27, 384, 42
-0.99868, 1, 93, 64, 108
-0.998681, 257, 67, 320, 82
-0.998683, 313, 9, 328, 40
-0.998684, 345, 79, 408, 94
-0.998684, 177, 89, 240, 104
-0.998685, 329, 51, 392, 66
-0.998685, 241, 57, 304, 72
-0.998686, 175, 77, 190, 108
-0.998687, 185, 77, 248, 92
-0.998688, 453, 25, 484, 88
-0.998688, 137, 129, 200, 144
-0.998688, 169, 59, 232, 74
-0.998689, 289, 37, 352, 52
-0.998689, 169, 53, 232, 68
-0.998692, 321, 33, 384, 48
-0.998692, 145, 41, 208, 56
-0.998692, 409, 65, 472, 80
-0.998692, 193, 31, 256, 46
-0.998693, 129, 189, 192, 204
-0.998693, 221, 177, 252, 304
-0.998693, 329, 89, 392, 104
-0.998693, 129, 105, 192, 120
-0.998693, 33, 65, 96, 80
-0.998693, 403, 81, 418, 112
-0.998693, 105, 63, 168, 78
-0.998694, 113, 213, 176, 228
-0.998695, 297, 11, 360, 26
-0.998695, 369, 73, 432, 88
-0.998695, 121, 153, 184, 168
-0.998696, 289, 61, 352, 76
-0.998698, 25, 95, 88, 110
-0.998699, 143, 81, 158, 112
-0.9987, 209, 241, 272, 256
-0.9987, 105, 69, 168, 84
-0.9987, 433, 129, 496, 144
-0.9987, 129, 183, 192, 198
-0.9987, 299, 9, 314, 40
-0.998701, 221, 113, 252, 240
-0.998701, 201, 59, 264, 74
-0.998701, 409, 79, 472, 94
-0.998701, 273, 5, 336, 20
-0.998703, 65, 187, 128, 202
-0.998704, 185, 45, 248, 60
-0.998704, 201, 53, 264, 68
-0.998705, 423, 77, 438, 108
-0.998705, 81, 61, 96, 92
-0.998705, 321, 21, 384, 36
-0.998706, 153, 109, 216, 124
-0.998706, 165, 97, 180, 128
-0.998707, 129, 195, 192, 210
-0.998707, 225, 97, 256, 352
-0.998708, 161, 73, 224, 88
-0.998709, 73, 159, 136, 174
-0.998709, 249, 29, 312, 44
-0.99871, 49, 97, 112, 112
-0.99871, 241, 49, 304, 64
-0.99871, 177, 133, 240, 148
-0.998711, 329, 67, 392, 82
-0.998711, 233, 75, 296, 90
-0.998711, 89, 215, 152, 230
-0.998712, 459, 121, 474, 152
-0.998712, 77, 205, 92, 236
-0.998713, 73, 209, 136, 224
-0.998713, 225, 83, 288, 98
-0.998713, 169, 209, 232, 224
-0.998713, 193, 111, 256, 126
-0.998713, 137, 47, 200, 62
-0.998715, 65, 179, 128, 194
-0.998715, 151, 125, 166, 156
-0.998715, 329, 73, 392, 88
-0.998716, 161, 33, 224, 48
-0.998718, 53, 73, 68, 104
-0.998724, 193, 193, 448, 256
-0.998727, 159, 93, 174, 124
-0.998727, 85, 33, 116, 288
-0.998728, 37, 61, 52, 92
-0.998729, 101, 173, 116, 204
-0.998732, 257, 1, 288, 256
-0.998735, 49, 217, 176, 248
-0.998742, 33, 269, 48, 300
-0.998745, 409, 81, 424, 112
-0.998747, 293, 61, 308, 92
-0.998756, 161, 45, 176, 76
-0.998764, 161, 157, 288, 188
-0.99877, 369, 249, 496, 312
-0.998771, 387, 101, 402, 132
-0.998771, 221, 1, 252, 256
-0.998773, 201, 225, 232, 288
-0.998784, 317, 145, 348, 272
-0.998788, 307, 9, 322, 40
-0.998788, 209, 129, 336, 160
-0.998791, 409, 65, 440, 320
-0.998795, 33, 241, 96, 304
-0.998798, 21, 33, 52, 288
-0.998798, 139, 65, 154, 192
-0.998801, 447, 65, 462, 96
-0.998802, 141, 161, 172, 288
-0.998803, 27, 65, 42, 96
-0.998804, 117, 149, 132, 180
-0.998829, 369, 65, 400, 320
-0.998832, 329, 97, 392, 352
-0.99884, 305, 129, 432, 160
-0.998848, 129, 197, 256, 228
-0.998851, 381, 65, 412, 320
-0.998871, 185, 33, 200, 160
-0.998908, 181, 121, 212, 184
-0.998919, 145, 241, 272, 272
-0.998937, 45, 1, 76, 256
-0.998956, 61, 33, 92, 288
-0.998958, 437, 33, 468, 288
-0.998961, 257, 161, 384, 192
-0.998972, 209, 161, 240, 224
-0.998981, 111, 129, 126, 256
-0.998995, 181, 97, 212, 352
-0.998999, 393, 113, 456, 176
-0.999, 305, 153, 432, 184
-0.999009, 295, 1, 310, 128
-0.99902, 119, 145, 134, 272
-0.999021, 129, 241, 384, 304
-0.999036, 65, 121, 192, 152
-0.999042, 483, 1, 498, 128
-0.999048, 137, 129, 168, 375
-0.999049, 129, 81, 144, 208
-0.999057, 145, 65, 160, 192
-0.999075, 225, 213, 352, 244
-0.999076, 73, 33, 104, 288
-0.999078, 89, 121, 120, 184
-0.999078, 179, 33, 194, 160
-0.999083, 309, 1, 324, 128
-0.999084, 465, 1, 496, 256
-0.999105, 305, 141, 432, 172
-0.999109, 153, 65, 168, 192
-0.999114, 161, 229, 288, 260
-0.999124, 1, 65, 32, 320
-0.999136, 209, 97, 240, 352
-0.99914, 349, 65, 380, 128
-0.999147, 173, 65, 188, 192
-0.999156, 305, 169, 432, 200
-0.999161, 329, 1, 344, 128
-0.999166, 129, 33, 144, 160
-0.999178, 281, 209, 344, 272
-0.999179, 119, 49, 134, 176
-0.999184, 301, 1, 316, 128
-0.999192, 337, 25, 464, 56
-0.999195, 449, 33, 480, 288
-0.999195, 245, 1, 260, 128
-0.9992, 257, 173, 384, 204
-0.999212, 289, 1, 304, 128
-0.999221, 337, 169, 368, 232
-0.999237, 105, 217, 136, 280
-0.999247, 145, 1, 272, 32
-0.999247, 17, 105, 144, 136
-0.999249, 417, 65, 432, 192
-0.999257, 393, 65, 408, 192
-0.999257, 109, 49, 124, 176
-0.999258, 353, 289, 480, 352
-0.99926, 257, 133, 384, 164
-0.999265, 183, 113, 198, 240
-0.999268, 369, 89, 496, 120
-0.999274, 163, 33, 178, 160
-0.999276, 191, 17, 206, 144
-0.999279, 171, 17, 186, 144
-0.999286, 229, 1, 244, 128
-0.999291, 235, 1, 250, 128
-0.999291, 337, 1, 352, 128
-0.999296, 267, 1, 282, 128
-0.999299, 323, 1, 338, 128
-0.999299, 369, 145, 496, 208
-0.999299, 125, 145, 140, 272
-0.999302, 123, 97, 138, 224
-0.999303, 317, 1, 332, 128
-0.999304, 405, 65, 420, 192
-0.999307, 475, 49, 490, 176
-0.999309, 465, 65, 480, 192
-0.999328, 251, 1, 266, 128
-0.999336, 369, 313, 496, 375
-0.999339, 369, 1, 496, 32
-0.99934, 175, 113, 190, 240
-0.999342, 209, 93, 336, 124
-0.999355, 273, 1, 288, 128
-0.999358, 147, 129, 162, 256
-0.999359, 241, 253, 368, 284
-0.99936, 455, 1, 470, 128
-0.999362, 411, 65, 426, 192
-0.999364, 343, 1, 358, 128
-0.999368, 135, 113, 150, 240
-0.999368, 97, 37, 224, 68
-0.999371, 443, 49, 458, 176
-0.999372, 273, 49, 304, 176
-0.999373, 259, 17, 274, 144
-0.999377, 423, 65, 438, 192
-0.999378, 1, 89, 32, 152
-0.999388, 105, 145, 120, 272
-0.999388, 371, 33, 386, 160
-0.999398, 145, 17, 272, 48
-0.999402, 321, 49, 352, 176
-0.999406, 167, 81, 182, 208
-0.999413, 283, 1, 298, 128
-0.999417, 157, 17, 172, 144
-0.999417, 73, 1, 136, 64
-0.99942, 213, 129, 228, 256
-0.99942, 383, 81, 398, 208
-0.999424, 399, 65, 414, 192
-0.999427, 453, 65, 468, 192
-0.999427, 377, 65, 392, 192
-0.999428, 369, 225, 496, 288
-0.99943, 365, 33, 380, 160
-0.999432, 459, 65, 474, 192
-0.999439, 189, 81, 204, 208
-0.999441, 103, 49, 118, 176
-0.999442, 141, 113, 156, 240
-0.999458, 193, 97, 224, 352
-0.999459, 437, 49, 452, 176
-0.999463, 241, 249, 304, 312
-0.999463, 221, 1, 236, 128
-0.999466, 59, 49, 74, 176
-0.999469, 179, 161, 194, 288
-0.999472, 1, 105, 500, 168
-0.999473, 449, 1, 464, 128
-0.999478, 483, 65, 498, 192
-0.999479, 133, 33, 164, 96
-0.999479, 111, 177, 126, 304
-0.99949, 125, 209, 140, 336
-0.999498, 89, 97, 120, 224
-0.9995, 49, 41, 176, 72
-0.999506, 145, 253, 272, 284
-0.999506, 429, 65, 444, 192
-0.999514, 131, 161, 146, 288
-0.999514, 159, 81, 174, 208
-0.999516, 213, 81, 228, 208
-0.999519, 7, 81, 22, 208
-0.999525, 209, 17, 224, 144
-0.999527, 213, 135, 228, 150
-0.999527, 117, 193, 132, 208
-0.999528, 459, 125, 474, 140
-0.999529, 37, 81, 52, 208
-0.999529, 109, 173, 124, 188
-0.99953, 477, 1, 492, 128
-0.999531, 97, 93, 112, 108
-0.999532, 181, 157, 196, 172
-0.999532, 485, 69, 500, 84
-0.999533, 291, 9, 306, 24
-0.999533, 355, 17, 370, 144
-0.999533, 245, 23, 260, 38
-0.999533, 193, 169, 448, 232
-0.999533, 135, 117, 150, 132
-0.999534, 313, 9, 328, 24
-0.999534, 443, 71, 458, 86
-0.999535, 387, 103, 402, 118
-0.999536, 143, 129, 158, 144
-0.999537, 303, 73, 318, 88
-0.999537, 183, 57, 198, 72
-0.999538, 369, 129, 496, 160
-0.999538, 183, 63, 198, 78
-0.999538, 1, 89, 16, 104
-0.999539, 419, 81, 434, 96
-0.999539, 119, 163, 134, 178
-0.999539, 299, 9, 314, 24
-0.99954, 167, 99, 182, 114
-0.999541, 409, 83, 424, 98
-0.999542, 471, 123, 486, 138
-0.999542, 283, 21, 298, 36
-0.999542, 345, 113, 408, 240
-0.999542, 455, 5, 470, 20
-0.999542, 439, 63, 454, 78
-0.999544, 307, 9, 322, 24
-0.999544, 123, 213, 138, 228
-0.999544, 299, 65, 314, 80
-0.999544, 479, 69, 494, 84
-0.999545, 133, 69, 148, 84
-0.999545, 49, 89, 64, 104
-0.999546, 25, 85, 40, 100
-0.999546, 215, 17, 230, 144
-0.999546, 297, 57, 328, 120
-0.999547, 195, 115, 210, 130
-0.999547, 41, 267, 56, 282
-0.999547, 257, 21, 272, 36
-0.999547, 433, 61, 448, 76
-0.999549, 35, 267, 50, 282
-0.999549, 19, 81, 34, 96
-0.999551, 319, 11, 334, 26
-0.999551, 463, 57, 478, 72
-0.999551, 183, 109, 198, 124
-0.999552, 149, 85, 164, 100
-0.999553, 139, 17, 154, 144
-0.999553, 141, 65, 156, 80
-0.999553, 169, 89, 184, 104
-0.999554, 181, 71, 196, 86
-0.999554, 233, 21, 248, 36
-0.999556, 383, 85, 398, 100
-0.999556, 305, 49, 320, 176
-0.999557, 67, 91, 82, 106
-0.999558, 175, 105, 190, 120
-0.999559, 481, 5, 496, 20
-0.999559, 177, 189, 304, 220
-0.99956, 89, 79, 104, 94
-0.999561, 41, 87, 56, 102
-0.999561, 453, 57, 468, 72
-0.999561, 177, 201, 304, 232
-0.999561, 175, 145, 190, 160
-0.999563, 1, 65, 16, 192
-0.999564, 93, 85, 108, 100
-0.999565, 85, 93, 100, 108
-0.999566, 61, 91, 76, 106
-0.999568, 191, 105, 206, 120
-0.999568, 107, 193, 122, 208
-0.999568, 259, 13, 274, 28
-0.999568, 381, 17, 396, 144
-0.999569, 25, 79, 40, 94
-0.999569, 185, 47, 200, 62
-0.999569, 349, 1, 364, 128
-0.99957, 223, 229, 238, 244
-0.99957, 75, 205, 90, 220
-0.99957, 49, 49, 64, 176
-0.99957, 463, 1, 478, 16
-0.999571, 195, 65, 210, 192
-0.999572, 469, 59, 484, 74
-0.999573, 227, 49, 242, 176
-0.999574, 235, 49, 250, 176
-0.999574, 203, 65, 218, 192
-0.999575, 349, 121, 380, 184
-0.999576, 31, 77, 46, 92
-0.999576, 151, 17, 166, 144
-0.999577, 161, 149, 176, 164
-0.999577, 117, 193, 132, 320
-0.999577, 373, 85, 388, 100
-0.999577, 123, 69, 138, 84
-0.999578, 285, 11, 300, 26
-0.999578, 135, 129, 150, 144
-0.999579, 257, 185, 384, 216
-0.999579, 73, 91, 88, 106
-0.999579, 409, 117, 424, 132
-0.99958, 459, 67, 474, 82
-0.999582, 25, 81, 40, 208
-0.999583, 91, 93, 106, 108
-0.999583, 55, 89, 70, 104
-0.999583, 89, 49, 104, 176
-0.999584, 139, 135, 154, 150
-0.999584, 139, 79, 154, 94
-0.999584, 35, 87, 50, 102
-0.999585, 129, 107, 144, 122
-0.999586, 11, 83, 26, 98
-0.999587, 179, 99, 194, 114
-0.999587, 69, 49, 84, 176
-0.999589, 79, 79, 94, 94
-0.99959, 155, 141, 170, 156
-0.99959, 175, 43, 190, 58
-0.99959, 327, 13, 342, 28
-0.999592, 453, 67, 468, 82
-0.999592, 313, 153, 344, 216
-0.999592, 31, 81, 46, 208
-0.999594, 155, 147, 170, 162
-0.999595, 317, 1, 348, 256
-0.999596, 265, 13, 280, 28
-0.999598, 445, 65, 460, 80
-0.9996, 383, 91, 398, 106
-0.9996, 183, 151, 198, 166
-0.9996, 175, 93, 190, 108
-0.999601, 129, 75, 144, 90
-0.999601, 355, 81, 370, 208
-0.999601, 469, 67, 484, 82
-0.999602, 95, 49, 110, 176
-0.999604, 167, 153, 182, 168
-0.999604, 251, 49, 266, 176
-0.999604, 279, 11, 294, 26
-0.999605, 79, 49, 94, 176
-0.999605, 73, 85, 88, 100
-0.999605, 239, 17, 254, 32
-0.999605, 97, 129, 128, 375
-0.999606, 5, 83, 20, 98
-0.999607, 133, 123, 148, 138
-0.999607, 185, 101, 200, 116
-0.999608, 479, 63, 494, 78
-0.999608, 465, 17, 480, 144
-0.999608, 43, 49, 58, 176
-0.99961, 129, 113, 144, 128
-0.99961, 289, 221, 416, 252
-0.99961, 127, 101, 142, 116
-0.999613, 127, 87, 142, 102
-0.999613, 391, 85, 406, 100
-0.999613, 97, 21, 224, 52
-0.999614, 385, 97, 400, 112
-0.999614, 65, 1, 192, 64
-0.999615, 189, 111, 204, 126
-0.999616, 191, 39, 206, 54
-0.999617, 147, 137, 162, 152
-0.999617, 87, 87, 102, 102
-0.999618, 169, 145, 184, 272
-0.999618, 127, 95, 142, 110
-0.999619, 207, 145, 222, 272
-0.999622, 271, 13, 286, 28
-0.999624, 221, 65, 236, 192
-0.999628, 189, 129, 204, 256
-0.999628, 37, 273, 52, 288
-0.99963, 185, 41, 200, 56
-0.99963, 79, 87, 94, 102
-0.999633, 129, 81, 144, 96
-0.999634, 409, 17, 424, 144
-0.999639, 225, 265, 352, 296
-0.999641, 485, 63, 500, 78
-0.999641, 137, 85, 152, 100
-0.999642, 17, 81, 32, 208
-0.999643, 305, 181, 432, 212
-0.999645, 177, 213, 304, 244
-0.999646, 167, 147, 182, 162
-0.999646, 49, 225, 176, 352
-0.999647, 243, 49, 258, 176
-0.999647, 253, 15, 268, 30
-0.999651, 161, 143, 176, 158
-0.999652, 237, 97, 268, 352
-0.999653, 153, 113, 168, 240
-0.999658, 415, 17, 430, 144
-0.999658, 33, 229, 160, 260
-0.999659, 109, 149, 124, 164
-0.999659, 203, 17, 218, 144
-0.99966, 387, 17, 402, 144
-0.999662, 177, 151, 192, 166
-0.999675, 431, 17, 446, 144
-0.999675, 197, 17, 212, 144
-0.999678, 329, 161, 360, 288
-0.999679, 245, 17, 260, 32
-0.99968, 465, 121, 480, 136
-0.99969, 17, 125, 144, 156
-0.999692, 423, 17, 438, 144
-0.999696, 305, 205, 432, 236
-0.999697, 219, 129, 234, 256
-0.999706, 299, 49, 314, 176
-0.999708, 145, 17, 160, 144
-0.999708, 397, 17, 412, 144
-0.999711, 117, 97, 132, 224
-0.999714, 1, 17, 16, 144
-0.999715, 77, 1, 92, 128
-0.999722, 161, 145, 416, 208
-0.999722, 137, 177, 152, 304
-0.999723, 91, 1, 106, 128
-0.999724, 343, 81, 358, 208
-0.999728, 213, 193, 228, 320
-0.999728, 321, 273, 448, 304
-0.999729, 99, 113, 114, 240
-0.99973, 321, 57, 352, 120
-0.999731, 337, 65, 352, 192
-0.999732, 83, 1, 98, 128
-0.999751, 289, 233, 416, 264
-0.999757, 325, 121, 356, 184
-0.999782, 225, 241, 480, 304
-0.999795, 369, 1, 496, 64
-0.999817, 1, 213, 128, 244
-0.999818, 161, 169, 288, 200
-0.999838, 89, 41, 120, 104
-0.999865, 305, 193, 432, 224
-0.999868, 241, 281, 368, 344
-0.99987, 241, 97, 304, 352
-0.999888, 1, 273, 128, 304
-0.999946, 281, 33, 312, 288
-0.999951, 257, 197, 384, 228
-0.999959, 209, 161, 336, 192
-0.999959, 49, 113, 112, 240
-0.999964, 169, 97, 200, 352
-0.999971, 333, 97, 364, 352
-0.999972, 49, 29, 176, 60
-0.999979, 465, 113, 496, 176
-0.999989, 1, 25, 128, 56
-0.999992, 321, 257, 448, 288
-1, 33, 241, 288, 304
-1.00001, 225, 313, 352, 375
-1.00002, 17, 261, 144, 292
-1.00002, 325, 217, 356, 280
-1.00003, 369, 321, 496, 352
-1.00003, 157, 17, 188, 80
-1.00006, 353, 201, 480, 232
-1.00006, 289, 245, 416, 276
-1.00008, 57, 225, 120, 288
-1.00009, 353, 141, 480, 172
-1.00009, 337, 217, 464, 248
-1.0001, 369, 261, 496, 292
-1.00011, 329, 153, 392, 216
-1.00011, 337, 13, 464, 44
-1.00012, 225, 333, 352, 364
-1.00012, 305, 313, 432, 344
-1.00013, 305, 289, 432, 320
-1.00015, 73, 201, 104, 264
-1.00017, 345, 97, 376, 352
-1.00018, 329, 249, 392, 312
-1.00019, 369, 193, 496, 320
-1.0002, 1, 209, 500, 272
-1.00023, 113, 225, 240, 352
-1.0003, 149, 129, 180, 375
-1.00032, 313, 129, 344, 375
-1.00035, 293, 1, 324, 256
-1.00037, 357, 97, 388, 352
-1.00037, 1, 177, 500, 240
-1.0004, 369, 193, 496, 256
-1.00041, 385, 137, 448, 200
-1.00042, 305, 129, 368, 375
-1.00047, 361, 9, 424, 72
-1.00047, 321, 273, 384, 336
-1.00051, 253, 97, 284, 352
-1.00051, 81, 241, 208, 304
-1.00054, 257, 137, 500, 200
-1.00057, 161, 265, 416, 328
-1.0006, 81, 265, 208, 328
-1.00061, 1, 185, 64, 248
-1.00069, 269, 97, 300, 352
-1.00072, 225, 313, 480, 375
-1.00073, 301, 97, 332, 352
-1.00076, 257, 265, 500, 328
-1.00081, 161, 177, 192, 304
-1.00086, 345, 145, 376, 272
-1.00086, 417, 97, 480, 160
-1.00087, 369, 169, 496, 232
-1.00088, 33, 209, 96, 336
-1.00093, 285, 129, 316, 375
-1.00094, 305, 1, 336, 256
-1.00107, 33, 161, 96, 288
-1.00107, 37, 97, 68, 224
-1.00108, 217, 225, 248, 352
-1.00109, 225, 289, 480, 352
-1.00111, 9, 265, 72, 328
-1.00118, 85, 129, 116, 375
-1.00119, 21, 129, 52, 375
-1.0012, 49, 289, 176, 352
-1.00121, 41, 129, 72, 375
-1.00121, 297, 265, 360, 328
-1.00122, 65, 265, 320, 328
-1.00122, 425, 129, 456, 375
-1.0013, 1, 193, 64, 320
-1.0014, 249, 137, 312, 200
-1.0014, 129, 289, 384, 352
-1.00141, 461, 129, 492, 375
-1.00141, 437, 129, 468, 375
-1.00144, 1, 209, 64, 272
-1.00148, 53, 129, 84, 375
-1.00148, 449, 129, 480, 375
-1.00148, 321, 209, 352, 336
-1.00149, 329, 201, 392, 264
-1.00149, 273, 193, 336, 320
-1.00154, 65, 129, 96, 375
-1.00154, 1, 233, 500, 296
-1.00154, 1, 257, 500, 320
-1.00156, 1, 289, 256, 352
-1.0016, 329, 225, 392, 288
-1.00161, 1, 289, 128, 352
-1.00161, 113, 289, 240, 352
-1.00162, 93, 193, 124, 320
-1.00163, 1, 313, 256, 375
-1.00165, 321, 209, 384, 336
-1.00169, 321, 313, 384, 375
-1.00172, 25, 209, 88, 272
-1.00173, 113, 313, 240, 375
-1.00177, 305, 177, 336, 304
-1.00177, 1, 1, 128, 64
-1.00177, 409, 137, 472, 200
-1.0018, 405, 113, 436, 240
-1.00182, 129, 313, 384, 375
-1.00186, 233, 193, 264, 320
-1.00188, 353, 281, 416, 344
-1.00197, 33, 161, 96, 224
-1.00203, 321, 97, 352, 224
-1.00204, 249, 177, 312, 240
-1.00206, 309, 97, 340, 224
-1.00207, 185, 193, 216, 320
-1.00209, 305, 241, 368, 304
-1.00211, 1, 1, 500, 64
-1.00211, 161, 281, 288, 344
-1.00216, 433, 249, 496, 312
-1.00223, 161, 305, 288, 368
-1.00226, 1, 25, 64, 88
-1.00229, 281, 129, 344, 375
-1.0023, 129, 209, 160, 336
-1.0023, 65, 313, 192, 375
-1.00237, 377, 305, 440, 368
-1.0024, 225, 193, 288, 256
-1.00241, 377, 209, 440, 272
-1.00246, 33, 1, 96, 64
-1.00246, 81, 241, 144, 304
-1.00247, 369, 241, 496, 368
-1.00251, 9, 161, 72, 224
-1.00258, 381, 113, 412, 240
-1.00269, 249, 177, 312, 304
-1.00272, 1, 145, 64, 272
-1.00274, 17, 313, 144, 375
-1.00277, 253, 209, 284, 336
-1.00293, 1, 281, 500, 344
-1.00293, 1, 305, 500, 368
-1.00294, 245, 161, 276, 288
-1.00314, 457, 113, 488, 240
-1.00322, 365, 97, 396, 224
-1.00337, 273, 97, 336, 224
-1.00338, 409, 113, 472, 240
-1.00341, 445, 113, 476, 240
-1.00342, 113, 225, 176, 352
-1.00344, 377, 113, 440, 240
-1.00355, 393, 113, 424, 240
-1.00366, 37, 177, 68, 304
-1.00371, 105, 225, 136, 352
-1.00373, 1, 225, 128, 352
-1.00381, 81, 193, 112, 320
-1.00382, 233, 145, 264, 272
-1.00386, 241, 225, 304, 352
-1.0039, 169, 225, 232, 352
-1.00406, 65, 209, 128, 336
-1.00408, 337, 209, 368, 336
-1.00424, 297, 113, 328, 240
-1.0043, 53, 161, 84, 288
-1.00449, 465, 241, 496, 368
-1.00453, 265, 225, 296, 352
-1.0046, 293, 177, 324, 304
-1.00464, 17, 145, 48, 272
-1.00468, 461, 193, 492, 320
-1.00468, 309, 225, 340, 352
-1.00475, 421, 113, 452, 240
-1.00481, 265, 177, 296, 304
-1.0049, 357, 145, 388, 272
-1.00492, 21, 193, 52, 320
-1.00493, 93, 241, 124, 368
-1.005, 433, 241, 496, 368
-1.00511, 449, 193, 480, 320
-1.00515, 433, 129, 464, 256
-1.00523, 425, 193, 488, 320
-1.00533, 353, 177, 416, 304
-1.00594, 433, 97, 496, 224
-1.00595, 1, 241, 64, 368
-1.00601, 377, 193, 440, 320
-1.00613, 17, 129, 80, 375
-1.00642, 25, 113, 88, 240
-1.00664, 57, 129, 120, 375
-1.00692, 265, 241, 328, 368
-1.00727, 353, 241, 416, 368
-1.00786, 409, 129, 472, 375
-1.00789, 385, 241, 448, 368
-1.00896, 433, 129, 496, 375
-1.00988, 137, 225, 200, 352
-1.01006, 401, 193, 464, 320
-1.01009, 409, 241, 472, 368
-1.0101, 433, 145, 496, 272
