1885
-0.498108, 1, 1, 500, 256
-0.515753, 1, 1, 500, 322
-0.551387, 65, 1, 320, 322
-0.655367, 33, 33, 288, 288
-0.667246, 161, 1, 416, 322
-0.758546, 257, 1, 500, 322
-0.819613, 161, 33, 416, 288
-0.87237, 97, 1, 224, 256
-0.876979, 49, 1, 176, 322
-0.889267, 1, 1, 128, 322
-0.892299, 49, 33, 176, 288
-0.893005, 145, 1, 272, 322
-0.898077, 1, 145, 500, 272
-0.898666, 97, 1, 224, 322
-0.900463, 257, 1, 500, 256
-0.902268, 145, 33, 272, 288
-0.910084, 193, 1, 320, 322
-0.91184, 193, 33, 320, 288
-0.913118, 129, 145, 384, 272
-0.91364, 1, 1, 128, 256
-0.913838, 33, 129, 288, 256
-0.918358, 241, 1, 368, 322
-0.918651, 353, 1, 480, 322
-0.922533, 241, 33, 368, 288
-0.927047, 49, 113, 176, 240
-0.927259, 73, 113, 136, 240
-0.927676, 1, 97, 500, 224
-0.929157, 289, 1, 416, 322
-0.929526, 97, 145, 224, 272
-0.936463, 241, 145, 368, 272
-0.938196, 161, 145, 288, 272
-0.940015, 161, 145, 224, 272
-0.943143, 105, 145, 168, 272
-0.944223, 233, 129, 296, 256
-0.944352, 1, 193, 500, 320
-0.944755, 129, 145, 192, 272
-0.945616, 305, 145, 368, 272
-0.947078, 273, 145, 336, 272
-0.947509, 225, 145, 480, 272
-0.947596, 193, 145, 256, 272
-0.947767, 137, 153, 200, 216
-0.9478, 337, 1, 464, 256
-0.949958, 65, 81, 320, 208
-0.951633, 273, 145, 336, 208
-0.951765, 297, 153, 360, 216
-0.952335, 289, 1, 416, 256
-0.952421, 49, 161, 176, 288
-0.95293, 113, 97, 240, 224
-0.953308, 33, 177, 288, 304
-0.953668, 49, 113, 112, 240
-0.953748, 1, 17, 500, 144
-0.953926, 249, 145, 312, 208
-0.954027, 65, 113, 128, 176
-0.954173, 57, 145, 120, 208
-0.955962, 113, 153, 176, 216
-0.956012, 161, 153, 224, 216
-0.960954, 321, 161, 384, 224
-0.961731, 1, 113, 128, 240
-0.962573, 209, 145, 272, 208
-0.963203, 185, 145, 248, 208
-0.964611, 89, 161, 152, 224
-0.964692, 65, 65, 192, 192
-0.964947, 161, 97, 416, 224
-0.964973, 209, 97, 336, 224
-0.965353, 65, 49, 128, 176
-0.965834, 161, 97, 288, 224
-0.966582, 73, 161, 136, 288
-0.966967, 129, 177, 192, 240
-0.967281, 289, 161, 416, 288
-0.967351, 169, 153, 200, 216
-0.968675, 113, 193, 240, 320
-0.968834, 153, 177, 216, 240
-0.969286, 225, 145, 352, 208
-0.9693, 161, 145, 288, 208
-0.969515, 273, 97, 336, 224
-0.969573, 273, 169, 336, 232
-0.969636, 89, 121, 152, 184
-0.96965, 113, 129, 144, 256
-0.96966, 41, 121, 104, 184
-0.969732, 129, 97, 192, 224
-0.969975, 81, 153, 208, 216
-0.969983, 65, 113, 96, 176
-0.97032, 209, 97, 272, 224
-0.97049, 185, 97, 248, 224
-0.970537, 1, 1, 256, 128
-0.970616, 105, 33, 168, 160
-0.971145, 85, 97, 116, 224
-0.971327, 329, 145, 392, 272
-0.971369, 297, 97, 360, 224
-0.971693, 49, 129, 176, 192
-0.972054, 341, 161, 372, 224
-0.972128, 161, 193, 416, 320
-0.972179, 65, 137, 96, 200
-0.972257, 257, 97, 384, 224
-0.972458, 17, 1, 144, 128
-0.972547, 161, 193, 224, 320
-0.972608, 105, 97, 168, 224
-0.972904, 113, 1, 176, 256
-0.973011, 97, 113, 128, 240
-0.973553, 249, 177, 312, 304
-0.973592, 129, 193, 192, 320
-0.973709, 329, 161, 360, 224
-0.97391, 217, 177, 280, 304
-0.974009, 317, 153, 348, 216
-0.97414, 217, 177, 280, 240
-0.974201, 145, 153, 176, 216
-0.974417, 133, 153, 164, 216
-0.974457, 173, 145, 204, 272
-0.974563, 133, 145, 164, 272
-0.974776, 73, 1, 136, 256
-0.974963, 157, 145, 188, 272
-0.975074, 297, 145, 328, 208
-0.975082, 257, 97, 500, 224
-0.975212, 65, 169, 128, 232
-0.975285, 17, 49, 144, 176
-0.975391, 189, 129, 220, 256
-0.975435, 265, 129, 296, 256
-0.975467, 333, 145, 364, 272
-0.975537, 273, 161, 400, 224
-0.975736, 117, 169, 148, 232
-0.975749, 85, 105, 116, 168
-0.975911, 209, 145, 240, 272
-0.976548, 61, 113, 92, 240
-0.976632, 157, 161, 188, 224
-0.976802, 281, 145, 312, 208
-0.977139, 97, 185, 160, 248
-0.977296, 73, 113, 104, 240
-0.977384, 145, 145, 176, 272
-0.977473, 117, 145, 148, 208
-0.977635, 225, 145, 256, 208
-0.977665, 221, 145, 252, 272
-0.977686, 49, 161, 112, 288
-0.977745, 285, 129, 316, 256
-0.977848, 257, 145, 288, 208
-0.977948, 33, 1, 96, 128
-0.977989, 245, 145, 276, 208
-0.978153, 241, 177, 304, 240
-0.978208, 317, 145, 348, 272
-0.978236, 237, 129, 268, 256
-0.97837, 25, 113, 88, 240
-0.978524, 297, 129, 328, 256
-0.978653, 185, 169, 248, 232
-0.979352, 297, 177, 360, 240
-0.979681, 181, 161, 212, 224
-0.979925, 105, 153, 136, 216
-0.979991, 161, 97, 224, 224
-0.980069, 253, 129, 284, 256
-0.98008, 33, 153, 160, 216
-0.980169, 101, 121, 132, 184
-0.98032, 77, 137, 108, 200
-0.980369, 33, 153, 96, 216
-0.980382, 161, 193, 288, 320
-0.9805, 161, 129, 224, 192
-0.980542, 53, 113, 84, 176
-0.980814, 353, 161, 384, 224
-0.980917, 65, 17, 192, 144
-0.981085, 81, 1, 144, 128
-0.981152, 1, 161, 128, 288
-0.981265, 97, 177, 224, 240
-0.981277, 269, 145, 300, 208
-0.981382, 145, 169, 272, 232
-0.981496, 161, 33, 224, 288
-0.981722, 129, 129, 192, 192
-0.981933, 93, 153, 124, 216
-0.981941, 169, 177, 200, 240
-0.982153, 185, 193, 248, 320
-0.982338, 17, 121, 80, 184
-0.982368, 57, 89, 120, 152
-0.982593, 177, 193, 240, 256
-0.98294, 133, 177, 164, 240
-0.982997, 345, 169, 408, 232
-0.983259, 53, 137, 84, 200
-0.98327, 225, 169, 352, 232
-0.983458, 41, 49, 104, 176
-0.983468, 49, 1, 112, 256
-0.983788, 137, 1, 200, 256
-0.983815, 73, 1, 136, 322
-0.984015, 201, 153, 232, 216
-0.984023, 321, 113, 448, 240
-0.984101, 105, 25, 168, 88
-0.984286, 145, 17, 272, 144
-0.984451, 1, 1, 64, 128
-0.984494, 73, 49, 104, 176
-0.984768, 25, 1, 88, 256
-0.984774, 273, 121, 336, 184
-0.9848, 297, 129, 360, 192
-0.985065, 213, 145, 244, 208
-0.985072, 41, 177, 104, 240
-0.985096, 137, 25, 200, 88
-0.985113, 321, 137, 384, 200
-0.985176, 97, 49, 128, 176
-0.985185, 97, 121, 224, 184
-0.985259, 249, 81, 312, 208
-0.985362, 101, 161, 132, 288
-0.985485, 69, 161, 100, 224
-0.985487, 17, 65, 80, 192
-0.985628, 49, 41, 112, 104
-0.98568, 161, 17, 416, 144
-0.985736, 49, 185, 176, 248
-0.985777, 241, 177, 272, 240
-0.985786, 241, 17, 304, 80
-0.985954, 105, 193, 168, 320
-0.986079, 209, 121, 272, 184
-0.986266, 297, 169, 328, 232
-0.986317, 85, 33, 116, 160
-0.986555, 33, 105, 160, 168
-0.986712, 33, 1, 96, 322
-0.986715, 49, 113, 80, 240
-0.986788, 321, 185, 384, 248
-0.986797, 201, 33, 264, 288
-0.98719, 117, 177, 148, 304
-0.987244, 233, 33, 296, 288
-0.987375, 1, 129, 128, 192
-0.987467, 345, 145, 376, 272
-0.987542, 25, 41, 88, 104
-0.987575, 181, 185, 212, 248
-0.987697, 321, 161, 448, 224
-0.987727, 217, 97, 248, 224
-0.987856, 273, 137, 400, 200
-0.987875, 241, 121, 304, 184
-0.987923, 33, 97, 96, 160
-0.987933, 9, 1, 72, 322
-0.98815, 181, 137, 212, 200
-0.988192, 173, 193, 204, 320
-0.988254, 177, 17, 304, 80
-0.988271, 65, 153, 128, 184
-0.988342, 1, 41, 64, 104
-0.988345, 109, 49, 140, 176
-0.988362, 113, 1, 176, 322
-0.988427, 33, 33, 160, 96
-0.98844, 185, 121, 248, 184
-0.988457, 193, 17, 256, 80
-0.988494, 313, 165, 376, 196
-0.988581, 197, 177, 228, 304
-0.988589, 317, 97, 348, 224
-0.988592, 285, 177, 316, 304
-0.988597, 105, 177, 136, 240
-0.988713, 81, 161, 112, 224
-0.988765, 221, 185, 252, 248
-0.988782, 157, 193, 188, 320
-0.988806, 153, 1, 216, 322
-0.988888, 329, 137, 360, 200
-0.988889, 157, 185, 188, 248
-0.988889, 257, 33, 320, 288
-0.988967, 281, 17, 344, 80
-0.989093, 129, 153, 384, 216
-0.989126, 113, 161, 176, 192
-0.989138, 89, 97, 152, 160
-0.989139, 73, 129, 136, 160
-0.989167, 65, 117, 128, 148
-0.989196, 57, 161, 88, 224
-0.989293, 185, 193, 216, 320
-0.989299, 73, 161, 104, 288
-0.9893, 205, 97, 236, 224
-0.989375, 341, 137, 372, 200
-0.989463, 33, 145, 288, 208
-0.989464, 57, 1, 120, 128
-0.989465, 97, 149, 160, 180
-0.989477, 81, 33, 144, 96
-0.989629, 97, 177, 160, 208
-0.98969, 81, 17, 208, 80
-0.989692, 265, 177, 296, 304
-0.989719, 241, 193, 368, 320
-0.989725, 253, 177, 284, 304
-0.989727, 297, 153, 360, 184
-0.989746, 345, 145, 408, 208
-0.989792, 65, 169, 128, 200
-0.989814, 225, 17, 352, 80
-0.989855, 273, 177, 336, 208
-0.98989, 309, 177, 340, 240
-0.989903, 145, 153, 208, 184
-0.989915, 297, 177, 328, 304
-0.989965, 269, 177, 300, 240
-0.990028, 193, 121, 320, 184
-0.990062, 129, 17, 256, 80
-0.990072, 49, 133, 112, 164
-0.990139, 281, 177, 312, 240
-0.990176, 273, 149, 336, 180
-0.99018, 149, 25, 180, 88
-0.990259, 313, 25, 376, 88
-0.990287, 233, 1, 296, 322
-0.990305, 201, 149, 264, 180
-0.990319, 133, 97, 164, 224
-0.990364, 41, 121, 104, 152
-0.99044, 321, 97, 384, 224
-0.99045, 65, 181, 128, 212
-0.990454, 113, 189, 176, 220
-0.990458, 205, 185, 236, 248
-0.990466, 145, 193, 272, 256
-0.99053, 169, 149, 232, 180
-0.990541, 137, 49, 200, 112
-0.990549, 265, 165, 328, 196
-0.990554, 145, 1, 208, 128
-0.990604, 89, 161, 120, 288
-0.990604, 337, 169, 400, 200
-0.99062, 89, 165, 152, 196
-0.990676, 225, 145, 288, 176
-0.990705, 121, 173, 184, 204
-0.99074, 121, 149, 184, 180
-0.990855, 313, 193, 376, 320
-0.990857, 1, 177, 128, 240
-0.990867, 225, 173, 288, 204
-0.990868, 201, 1, 264, 322
-0.99087, 321, 137, 448, 200
-0.990922, 209, 1, 336, 128
-0.990936, 145, 193, 176, 320
-0.990942, 41, 169, 104, 200
-0.990996, 217, 185, 280, 216
-0.991002, 177, 1, 240, 322
-0.991004, 249, 145, 312, 176
-0.991068, 321, 17, 448, 80
-0.991092, 1, 153, 500, 216
-0.991137, 289, 1, 352, 322
-0.991139, 41, 149, 104, 180
-0.991158, 97, 41, 224, 104
-0.991163, 329, 185, 360, 248
-0.991192, 49, 17, 112, 80
-0.991239, 193, 189, 256, 220
-0.991313, 329, 97, 360, 224
-0.991332, 193, 177, 224, 240
-0.991344, 313, 1, 376, 322
-0.991384, 185, 137, 248, 168
-0.991402, 329, 181, 392, 212
-0.99143, 289, 33, 352, 288
-0.991431, 97, 137, 160, 168
-0.991491, 289, 165, 352, 196
-0.99157, 25, 137, 88, 168
-0.99157, 161, 17, 224, 80
-0.991639, 93, 185, 124, 248
-0.991653, 73, 41, 136, 72
-0.991659, 1, 121, 256, 184
-0.991688, 249, 177, 312, 208
-0.991744, 145, 181, 208, 212
-0.991752, 145, 121, 272, 184
-0.991799, 297, 177, 360, 208
-0.991828, 61, 89, 92, 152
-0.991854, 33, 181, 96, 212
-0.991898, 265, 1, 328, 322
-0.99192, 273, 185, 400, 248
-0.991957, 61, 125, 92, 156
-0.991996, 17, 121, 80, 152
-0.992009, 169, 181, 232, 212
-0.992058, 145, 169, 208, 200
-0.992077, 217, 17, 280, 80
-0.992101, 145, 201, 208, 232
-0.992106, 133, 129, 164, 192
-0.992127, 345, 1, 408, 64
-0.992141, 289, 25, 352, 56
-0.992159, 113, 41, 176, 72
-0.992204, 249, 25, 312, 56
-0.992214, 49, 105, 112, 136
-0.992227, 121, 177, 152, 208
-0.992228, 145, 193, 176, 256
-0.992234, 89, 193, 152, 224
-0.992247, 169, 161, 232, 192
-0.992281, 17, 49, 80, 80
-0.992281, 193, 173, 256, 204
-0.992291, 169, 201, 232, 232
-0.992292, 137, 45, 200, 76
-0.992296, 69, 141, 100, 172
-0.992301, 113, 165, 144, 196
-0.992302, 361, 1, 424, 322
-0.992315, 321, 29, 384, 60
-0.992318, 129, 153, 160, 184
-0.992368, 137, 137, 200, 168
-0.992395, 349, 169, 380, 200
-0.99243, 77, 129, 108, 160
-0.992433, 61, 65, 92, 192
-0.992446, 309, 153, 340, 184
-0.992451, 329, 169, 360, 200
-0.992453, 25, 41, 56, 104
-0.992466, 73, 53, 136, 84
-0.992484, 97, 53, 160, 84
-0.99249, 273, 137, 336, 168
-0.992499, 85, 113, 116, 144
-0.992507, 49, 41, 112, 72
-0.992522, 317, 129, 348, 192
-0.992553, 101, 177, 132, 208
-0.992573, 73, 141, 136, 172
-0.992601, 273, 17, 400, 80
-0.992617, 141, 157, 172, 188
-0.992631, 241, 157, 304, 188
-0.99264, 265, 17, 296, 80
-0.992641, 161, 129, 192, 192
-0.992648, 261, 173, 292, 204
-0.992652, 125, 165, 156, 196
-0.99268, 169, 41, 232, 104
-0.992685, 209, 33, 272, 64
-0.992701, 69, 165, 100, 196
-0.992703, 345, 25, 408, 56
-0.992705, 301, 173, 332, 204
-0.992722, 241, 133, 304, 164
-0.992724, 73, 117, 104, 148
-0.99274, 145, 201, 208, 264
-0.992741, 41, 113, 72, 176
-0.992759, 217, 177, 248, 208
-0.992759, 293, 145, 324, 176
-0.992774, 209, 133, 272, 164
-0.992786, 153, 33, 216, 64
-0.992792, 161, 45, 224, 76
-0.992799, 181, 149, 212, 180
-0.992808, 57, 169, 88, 200
-0.992819, 61, 113, 92, 144
-0.992825, 305, 189, 368, 220
-0.992832, 297, 37, 360, 68
-0.992835, 289, 193, 352, 320
-0.992843, 101, 165, 132, 196
-0.992845, 81, 29, 144, 60
-0.992849, 133, 193, 164, 320
-0.992853, 337, 153, 400, 184
-0.99286, 49, 57, 112, 88
-0.992874, 133, 189, 164, 220
-0.992875, 109, 137, 140, 168
-0.992877, 89, 153, 120, 184
-0.992881, 133, 177, 164, 208
-0.992891, 289, 165, 320, 196
-0.992893, 161, 137, 224, 168
-0.992893, 81, 185, 112, 248
-0.9929, 145, 173, 176, 204
-0.992902, 161, 157, 192, 188
-0.992904, 97, 109, 160, 140
-0.992915, 121, 25, 184, 56
-0.992915, 321, 157, 352, 188
-0.992918, 57, 137, 88, 168
-0.992924, 117, 149, 148, 180
-0.992929, 273, 145, 304, 176
-0.992931, 361, 161, 424, 192
-0.992932, 85, 181, 116, 212
-0.992938, 213, 149, 244, 180
-0.992939, 175, 161, 190, 224
-0.99295, 217, 189, 248, 220
-0.992956, 97, 125, 128, 156
-0.992959, 193, 145, 224, 176
-0.992961, 261, 145, 292, 176
-0.992965, 321, 17, 384, 48
-0.992969, 49, 165, 176, 196
-0.99297, 297, 141, 360, 172
-0.99299, 349, 181, 380, 212
-0.993003, 277, 165, 308, 196
-0.993006, 241, 181, 272, 212
-0.99301, 257, 1, 500, 128
-0.993022, 249, 145, 280, 176
-0.993023, 145, 41, 272, 104
-0.993024, 193, 161, 256, 192
-0.993037, 69, 153, 100, 184
-0.993045, 237, 145, 268, 176
-0.993046, 121, 201, 184, 232
-0.993048, 273, 181, 304, 212
-0.993055, 225, 149, 256, 180
-0.993072, 45, 121, 76, 152
-0.993079, 213, 137, 244, 168
-0.993083, 201, 181, 232, 212
-0.993089, 145, 189, 176, 220
-0.993099, 57, 149, 88, 180
-0.993114, 129, 45, 160, 76
-0.993114, 317, 169, 348, 200
-0.993116, 113, 121, 176, 152
-0.993117, 113, 189, 144, 220
-0.993125, 249, 169, 280, 200
-0.993126, 285, 181, 316, 212
-0.993141, 105, 153, 136, 184
-0.993147, 121, 57, 184, 88
-0.993156, 361, 169, 392, 200
-0.993158, 205, 193, 236, 224
-0.993174, 229, 181, 260, 212
-0.993182, 197, 157, 228, 188
-0.993183, 337, 157, 368, 188
-0.993187, 337, 25, 400, 88
-0.993191, 233, 37, 296, 68
-0.993202, 313, 181, 344, 212
-0.993203, 81, 141, 112, 172
-0.993208, 217, 161, 280, 192
-0.993215, 65, 185, 96, 216
-0.993227, 25, 37, 88, 68
-0.993229, 237, 169, 268, 200
-0.993244, 101, 193, 132, 224
-0.993248, 117, 41, 148, 72
-0.993249, 253, 177, 284, 240
-0.993249, 1, 169, 256, 232
-0.993252, 321, 25, 352, 56
-0.993261, 241, 177, 272, 304
-0.993262, 257, 169, 384, 200
-0.993263, 157, 169, 188, 200
-0.993276, 149, 201, 180, 232
-0.993278, 33, 133, 160, 164
-0.993279, 53, 181, 84, 212
-0.993279, 253, 185, 284, 216
-0.993281, 65, 49, 96, 80
-0.993285, 329, 189, 360, 220
-0.993286, 1, 61, 64, 92
-0.993297, 369, 21, 432, 52
-0.993299, 81, 41, 112, 72
-0.993303, 45, 137, 76, 168
-0.993305, 297, 13, 360, 44
-0.993319, 177, 29, 240, 60
-0.993328, 361, 173, 424, 204
-0.99333, 345, 97, 408, 224
-0.993334, 349, 157, 380, 188
-0.993335, 157, 189, 188, 220
-0.993348, 173, 201, 204, 232
-0.993353, 343, 161, 358, 224
-0.993358, 161, 17, 192, 80
-0.993361, 185, 201, 216, 232
-0.993362, 101, 45, 132, 76
-0.993366, 161, 201, 192, 232
-0.993377, 345, 13, 408, 44
-0.993384, 257, 157, 288, 188
-0.993392, 145, 145, 176, 176
-0.9934, 57, 29, 120, 60
-0.993405, 225, 21, 288, 52
-0.993425, 65, 37, 96, 68
-0.993425, 81, 169, 112, 200
-0.993433, 145, 45, 176, 76
-0.993443, 49, 49, 80, 80
-0.993443, 273, 37, 336, 68
-0.99345, 169, 185, 200, 216
-0.99345, 117, 29, 148, 60
-0.993452, 309, 25, 340, 56
-0.993463, 185, 45, 248, 76
-0.993465, 337, 25, 368, 56
-0.993467, 189, 189, 220, 220
-0.993475, 157, 45, 188, 76
-0.99348, 97, 113, 128, 144
-0.993487, 117, 57, 148, 88
-0.99349, 325, 145, 356, 176
-0.993492, 201, 169, 232, 200
-0.993503, 241, 29, 272, 60
-0.993505, 265, 25, 296, 56
-0.993509, 225, 137, 256, 168
-0.99351, 9, 181, 72, 212
-0.993512, 129, 141, 160, 172
-0.993514, 17, 57, 144, 120
-0.993518, 145, 33, 176, 64
-0.993525, 41, 177, 72, 208
-0.99353, 1, 45, 32, 76
-0.993532, 17, 165, 80, 196
-0.993534, 17, 45, 48, 76
-0.993537, 245, 133, 276, 164
-0.993537, 17, 149, 80, 180
-0.99354, 197, 133, 228, 164
-0.993543, 73, 105, 104, 136
-0.993552, 97, 29, 128, 60
-0.993553, 253, 25, 284, 56
-0.993555, 5, 57, 36, 88
-0.993555, 325, 37, 356, 68
-0.993563, 273, 133, 304, 164
-0.993564, 45, 33, 76, 96
-0.993571, 365, 21, 396, 52
-0.993573, 297, 25, 328, 56
-0.993575, 129, 57, 160, 88
-0.99358, 277, 25, 308, 56
-0.993585, 201, 21, 264, 52
-0.993587, 313, 37, 344, 68
-0.993594, 61, 61, 92, 92
-0.993595, 169, 45, 200, 76
-0.993602, 69, 113, 84, 176
-0.993602, 217, 165, 248, 196
-0.993602, 189, 33, 220, 64
-0.993604, 113, 49, 176, 112
-0.993605, 305, 141, 336, 172
-0.993614, 229, 33, 260, 64
-0.993615, 37, 45, 68, 76
-0.993619, 97, 97, 224, 160
-0.993621, 129, 33, 160, 64
-0.993629, 153, 21, 216, 52
-0.99366, 17, 109, 80, 140
-0.993661, 73, 193, 136, 256
-0.993667, 25, 61, 88, 92
-0.993679, 305, 145, 320, 208
-0.993683, 73, 105, 136, 136
-0.993691, 273, 13, 336, 44
-0.993726, 393, 25, 456, 56
-0.993749, 321, 141, 384, 172
-0.993761, 249, 13, 312, 44
-0.993767, 113, 121, 144, 184
-0.993789, 129, 49, 192, 176
-0.993823, 1, 37, 64, 68
-0.993829, 81, 17, 144, 48
-0.993839, 145, 57, 208, 88
-0.993855, 369, 17, 496, 80
-0.993889, 61, 161, 92, 288
-0.993889, 377, 9, 440, 40
-0.993891, 369, 33, 432, 64
-0.993894, 249, 189, 312, 220
-0.993912, 181, 161, 196, 224
-0.993929, 17, 1, 144, 64
-0.993957, 33, 25, 96, 56
-0.993959, 1, 17, 64, 80
-0.993964, 65, 193, 128, 224
-0.993968, 409, 13, 472, 44
-0.993999, 105, 13, 168, 44
-0.993999, 137, 25, 168, 88
-0.994009, 57, 17, 120, 48
-0.994021, 169, 169, 184, 232
-0.994032, 193, 201, 256, 232
-0.994041, 433, 13, 496, 44
-0.994113, 337, 153, 352, 216
-0.994123, 49, 145, 176, 176
-0.994146, 209, 121, 240, 184
-0.994146, 79, 137, 94, 200
-0.99417, 25, 1, 88, 64
-0.994178, 311, 145, 326, 208
-0.994182, 33, 1, 64, 128
-0.994223, 81, 1, 144, 64
-0.994242, 33, 177, 160, 208
-0.994272, 121, 1, 184, 32
-0.994274, 177, 17, 240, 48
-0.994275, 241, 121, 272, 184
-0.994275, 97, 97, 160, 128
-0.99428, 33, 13, 96, 44
-0.994289, 209, 181, 336, 212
-0.994301, 417, 25, 480, 56
-0.99432, 193, 177, 448, 240
-0.994327, 129, 13, 192, 44
-0.99433, 433, 1, 496, 32
-0.994333, 321, 5, 384, 36
-0.99434, 313, 33, 376, 288
-0.994348, 161, 149, 288, 180
-0.994351, 209, 45, 272, 76
-0.994364, 121, 65, 152, 192
-0.994423, 273, 121, 304, 184
-0.994431, 129, 1, 160, 128
-0.994433, 297, 145, 312, 208
-0.994439, 161, 153, 176, 216
-0.994456, 349, 161, 364, 224
-0.994495, 113, 149, 240, 180
-0.994502, 277, 145, 292, 208
-0.994516, 89, 129, 120, 192
-0.994516, 73, 137, 88, 200
-0.994532, 357, 161, 372, 224
-0.994545, 139, 153, 154, 216
-0.994584, 317, 145, 332, 208
-0.994651, 193, 41, 320, 104
-0.994662, 185, 17, 216, 80
-0.994782, 101, 25, 132, 88
-0.994787, 131, 145, 146, 208
-0.994793, 79, 113, 94, 176
-0.994824, 283, 145, 298, 208
-0.994847, 145, 97, 176, 224
-0.994873, 291, 145, 306, 208
-0.994879, 85, 121, 100, 184
-0.994903, 113, 177, 240, 208
-0.994916, 331, 153, 346, 216
-0.994934, 121, 193, 152, 256
-0.994982, 129, 169, 144, 232
-0.994993, 377, 25, 440, 88
-0.994998, 241, 145, 256, 208
-0.995001, 113, 1, 176, 64
-0.995057, 97, 1, 128, 128
-0.995069, 325, 153, 340, 216
-0.995098, 169, 1, 232, 128
-0.995101, 305, 1, 368, 64
-0.995111, 197, 129, 228, 192
-0.995175, 247, 145, 262, 208
-0.995195, 63, 113, 78, 176
-0.995201, 21, 1, 52, 128
-0.995204, 117, 153, 132, 216
-0.995213, 225, 153, 480, 216
-0.99522, 365, 169, 396, 232
-0.99522, 209, 193, 240, 320
-0.995235, 109, 121, 124, 184
-0.995276, 97, 177, 352, 240
-0.995279, 165, 97, 196, 224
-0.995294, 245, 81, 276, 208
-0.995301, 255, 145, 270, 208
-0.99532, 337, 161, 464, 288
-0.995342, 5, 1, 36, 128
-0.995351, 1, 1, 64, 256
-0.995373, 155, 153, 170, 216
-0.995404, 53, 1, 84, 128
-0.995404, 161, 129, 416, 192
-0.995406, 277, 17, 308, 80
-0.995432, 233, 145, 248, 208
-0.995437, 9, 97, 72, 160
-0.995441, 101, 97, 132, 160
-0.995443, 33, 121, 160, 152
-0.99545, 417, 1, 480, 64
-0.995453, 149, 153, 164, 216
-0.995471, 257, 81, 288, 208
-0.995473, 187, 161, 202, 224
-0.995478, 115, 129, 130, 192
-0.99548, 227, 145, 242, 208
-0.995484, 113, 161, 240, 192
-0.995486, 177, 97, 208, 224
-0.995489, 69, 185, 100, 248
-0.995499, 241, 153, 368, 184
-0.995519, 261, 145, 276, 208
-0.99557, 271, 145, 286, 208
-0.995576, 321, 17, 352, 80
-0.995621, 109, 1, 140, 128
-0.995632, 97, 201, 224, 264
-0.995635, 209, 165, 336, 196
-0.995641, 41, 65, 104, 128
-0.995642, 193, 193, 320, 256
-0.995651, 123, 137, 138, 200
-0.995654, 337, 1, 400, 322
-0.995678, 73, 89, 104, 152
-0.995705, 363, 161, 378, 224
-0.995707, 123, 161, 138, 224
-0.995754, 169, 145, 184, 208
-0.995792, 65, 189, 192, 220
-0.995843, 357, 137, 388, 200
-0.99585, 289, 1, 416, 128
-0.995859, 305, 173, 432, 204
-0.995876, 341, 97, 372, 224
-0.995877, 61, 137, 76, 200
-0.995887, 109, 169, 124, 232
-0.995904, 341, 185, 372, 248
-0.995941, 199, 161, 214, 224
-0.995956, 139, 177, 154, 240
-0.995989, 91, 105, 106, 168
-0.995992, 149, 129, 180, 192
-0.995994, 25, 161, 88, 288
-0.996017, 161, 25, 416, 88
-0.996026, 163, 177, 178, 240
-0.996111, 67, 137, 82, 200
-0.996204, 181, 185, 196, 248
-0.996211, 113, 133, 240, 164
-0.996216, 121, 17, 152, 80
-0.996218, 253, 121, 284, 184
-0.996223, 175, 185, 190, 248
-0.996236, 417, 1, 480, 256
-0.996238, 189, 185, 204, 248
-0.996268, 249, 17, 280, 80
-0.996275, 353, 1, 480, 128
-0.996276, 213, 153, 228, 216
-0.996293, 1, 177, 500, 240
-0.996294, 269, 81, 300, 208
-0.996345, 257, 193, 500, 320
-0.996368, 377, 1, 440, 64
-0.996379, 221, 145, 236, 208
-0.996381, 309, 169, 324, 232
-0.996396, 193, 161, 208, 224
-0.996413, 103, 153, 118, 216
-0.996437, 101, 113, 116, 176
-0.996441, 289, 121, 320, 184
-0.996517, 41, 49, 72, 176
-0.996532, 337, 177, 352, 240
-0.99655, 333, 17, 364, 80
-0.996554, 273, 113, 400, 176
-0.996554, 241, 41, 368, 104
-0.996557, 393, 1, 456, 256
-0.996567, 257, 181, 384, 212
-0.99661, 69, 161, 84, 224
-0.996659, 247, 177, 262, 240
-0.996696, 77, 65, 108, 320
-0.996728, 57, 113, 72, 176
-0.996731, 105, 33, 136, 288
-0.996752, 303, 169, 318, 232
-0.996766, 121, 161, 136, 192
-0.996768, 49, 45, 176, 76
-0.996784, 165, 49, 196, 112
-0.99679, 161, 169, 288, 200
-0.996808, 149, 17, 180, 144
-0.996814, 1, 193, 256, 256
-0.996815, 89, 65, 120, 320
-0.996862, 253, 177, 268, 240
-0.996877, 91, 153, 106, 216
-0.996897, 67, 129, 82, 160
-0.996901, 121, 1, 152, 256
-0.996902, 223, 185, 238, 248
-0.996904, 57, 33, 88, 96
-0.996925, 161, 185, 288, 216
-0.996928, 1, 153, 128, 184
-0.99693, 113, 105, 176, 168
-0.996933, 293, 81, 324, 208
-0.996934, 85, 81, 116, 144
-0.996946, 193, 41, 256, 104
-0.99695, 85, 177, 100, 240
-0.996962, 1, 25, 256, 88
-0.996991, 113, 201, 240, 232
-0.996995, 305, 161, 432, 192
-0.996999, 279, 177, 294, 240
-0.99703, 361, 1, 424, 256
-0.997036, 201, 137, 216, 200
-0.997041, 229, 121, 260, 184
-0.997041, 81, 65, 144, 128
-0.997053, 349, 137, 364, 200
-0.997054, 137, 1, 200, 64
-0.997065, 207, 153, 222, 216
-0.997066, 385, 1, 448, 322
-0.997071, 63, 117, 78, 148
-0.997075, 79, 161, 94, 224
-0.997092, 85, 145, 100, 208
-0.997111, 97, 33, 224, 64
-0.997115, 225, 141, 352, 172
-0.997117, 73, 137, 88, 168
-0.997118, 97, 161, 112, 224
-0.997125, 229, 81, 260, 208
-0.99713, 337, 1, 400, 256
-0.997133, 65, 33, 96, 288
-0.997134, 145, 185, 160, 248
-0.997139, 133, 149, 148, 180
-0.997158, 319, 177, 334, 240
-0.997165, 13, 41, 44, 104
-0.997175, 81, 133, 96, 164
-0.997178, 175, 137, 190, 200
-0.997191, 195, 185, 210, 248
-0.997207, 177, 137, 304, 168
-0.997215, 257, 25, 500, 88
-0.99722, 363, 169, 378, 200
-0.997228, 153, 193, 168, 256
-0.997233, 65, 1, 96, 128
-0.997233, 113, 189, 240, 220
-0.997235, 111, 173, 126, 204
-0.99724, 75, 149, 90, 180
-0.997245, 75, 125, 90, 156
-0.997265, 273, 177, 288, 240
-0.997275, 241, 177, 256, 240
-0.997275, 217, 185, 232, 248
-0.997278, 127, 161, 142, 192
-0.997304, 169, 193, 184, 256
-0.997304, 205, 185, 220, 248
-0.997305, 125, 173, 140, 204
-0.997313, 285, 177, 300, 240
-0.997323, 85, 97, 100, 160
-0.997331, 263, 185, 278, 248
-0.997332, 281, 81, 312, 208
-0.997343, 229, 185, 244, 248
-0.997355, 343, 185, 358, 248
-0.997365, 115, 177, 130, 240
-0.997379, 181, 137, 196, 200
-0.9974, 117, 181, 132, 212
-0.997404, 331, 185, 346, 248
-0.997417, 113, 45, 240, 76
-0.997419, 313, 161, 328, 192
-0.997419, 297, 177, 312, 240
-0.997426, 321, 185, 448, 248
-0.997426, 123, 185, 138, 248
-0.997426, 237, 17, 268, 80
-0.997426, 177, 41, 208, 104
-0.997436, 147, 157, 162, 188
-0.997436, 1, 49, 256, 112
-0.997444, 235, 185, 250, 248
-0.99745, 307, 165, 322, 196
-0.997452, 273, 173, 288, 204
-0.997469, 91, 177, 106, 240
-0.997469, 81, 117, 96, 148
-0.99747, 17, 189, 144, 220
-0.997481, 1, 57, 128, 88
-0.997485, 233, 41, 296, 104
-0.997486, 1, 45, 128, 76
-0.997494, 193, 49, 256, 176
-0.997496, 417, 1, 480, 322
-0.997528, 291, 177, 306, 240
-0.997549, 137, 177, 152, 208
-0.99755, 109, 145, 124, 208
-0.99756, 343, 137, 358, 200
-0.997563, 267, 121, 282, 184
-0.997579, 141, 153, 156, 184
-0.997587, 69, 117, 84, 148
-0.997593, 349, 165, 364, 196
-0.997598, 297, 17, 328, 80
-0.997605, 357, 165, 372, 196
-0.997619, 43, 41, 58, 104
-0.997621, 281, 145, 296, 176
-0.99763, 89, 113, 104, 144
-0.997632, 209, 129, 224, 192
-0.997632, 211, 185, 226, 248
-0.997637, 1, 165, 128, 196
-0.997641, 155, 33, 170, 96
-0.997654, 173, 17, 204, 80
-0.997658, 145, 1, 176, 256
-0.99768, 113, 161, 128, 192
-0.997689, 357, 137, 372, 200
-0.997713, 281, 17, 296, 80
-0.997715, 191, 137, 206, 200
-0.997725, 77, 89, 92, 152
-0.997733, 49, 33, 176, 64
-0.997737, 133, 33, 164, 288
-0.997738, 299, 161, 314, 192
-0.99774, 115, 33, 130, 96
-0.997749, 69, 169, 84, 200
-0.997752, 313, 149, 328, 180
-0.997756, 393, 9, 424, 72
-0.997764, 369, 161, 384, 224
-0.997767, 225, 25, 352, 56
-0.997779, 65, 97, 320, 160
-0.997786, 289, 149, 304, 180
-0.997786, 149, 25, 164, 88
-0.997791, 169, 17, 184, 80
-0.997793, 101, 185, 116, 248
-0.997795, 61, 89, 76, 152
-0.997801, 65, 1, 320, 64
-0.997822, 135, 161, 150, 192
-0.997823, 157, 33, 188, 288
-0.997838, 307, 149, 322, 180
-0.997845, 79, 185, 94, 248
-0.997857, 127, 145, 142, 176
-0.997864, 49, 57, 176, 88
-0.997871, 17, 177, 80, 240
-0.997871, 131, 177, 146, 208
-0.997872, 133, 193, 148, 256
-0.997887, 283, 121, 298, 184
-0.997912, 337, 173, 352, 204
-0.997918, 353, 145, 416, 272
-0.997922, 231, 121, 246, 184
-0.997938, 287, 17, 302, 80
-0.99794, 325, 177, 340, 240
-0.997942, 267, 145, 282, 176
-0.997957, 319, 153, 334, 184
-0.997985, 65, 153, 80, 184
-0.997989, 139, 129, 154, 192
-0.99801, 297, 145, 312, 176
-0.998015, 303, 121, 318, 184
-0.998017, 213, 149, 228, 180
-0.998018, 343, 165, 358, 196
-0.998019, 107, 161, 122, 192
-0.998021, 63, 173, 78, 204
-0.998023, 143, 189, 158, 220
-0.998026, 51, 41, 66, 104
-0.99804, 97, 137, 112, 200
-0.998053, 217, 1, 280, 128
-0.998057, 331, 169, 346, 200
-0.998061, 81, 149, 96, 180
-0.998062, 37, 41, 52, 104
-0.998071, 179, 17, 194, 80
-0.998072, 161, 33, 288, 64
-0.998074, 161, 1, 416, 64
-0.998075, 33, 81, 160, 144
-0.998077, 95, 113, 110, 144
-0.998078, 349, 185, 364, 248
-0.99808, 267, 173, 282, 204
-0.998098, 91, 129, 106, 192
-0.998102, 221, 189, 236, 220
-0.998117, 211, 181, 226, 212
-0.998121, 141, 165, 156, 196
-0.998121, 161, 33, 176, 96
-0.998134, 275, 149, 290, 180
-0.998143, 57, 117, 72, 148
-0.998144, 327, 157, 342, 188
-0.998149, 123, 185, 138, 216
-0.998155, 231, 149, 246, 180
-0.998158, 99, 181, 114, 212
-0.998158, 313, 173, 328, 204
-0.998158, 1, 129, 500, 192
-0.998159, 191, 149, 206, 180
-0.998161, 337, 157, 352, 188
-0.998166, 305, 41, 432, 104
-0.998172, 87, 125, 102, 156
-0.998174, 205, 145, 220, 176
-0.998179, 153, 157, 168, 188
-0.998187, 353, 177, 368, 208
-0.998193, 197, 145, 212, 176
-0.998209, 249, 145, 264, 176
-0.998211, 169, 33, 200, 288
-0.998219, 101, 149, 116, 180
-0.998219, 273, 29, 400, 60
-0.998221, 291, 161, 306, 192
-0.998233, 229, 177, 244, 208
-0.998237, 189, 33, 220, 288
-0.998239, 301, 173, 316, 204
-0.998243, 163, 157, 178, 188
-0.998244, 243, 145, 258, 176
-0.998244, 221, 177, 236, 208
-0.998251, 103, 117, 118, 148
-0.998264, 57, 129, 72, 160
-0.998274, 75, 169, 90, 200
-0.998277, 347, 177, 362, 208
-0.998282, 45, 1, 76, 256
-0.998283, 117, 133, 132, 164
-0.998287, 57, 185, 88, 248
-0.99829, 189, 65, 220, 192
-0.998291, 225, 37, 352, 68
-0.998293, 369, 169, 384, 200
-0.998295, 185, 149, 200, 180
-0.998315, 269, 159, 300, 174
-0.998316, 1, 33, 500, 96
-0.998317, 361, 173, 392, 188
-0.998318, 177, 159, 208, 174
-0.998321, 129, 53, 160, 68
-0.998323, 201, 161, 232, 176
-0.998324, 297, 31, 328, 46
-0.998324, 253, 189, 284, 204
-0.998325, 57, 153, 88, 168
-0.998326, 169, 203, 200, 218
-0.998327, 125, 41, 156, 56
-0.998328, 137, 201, 168, 216
-0.998329, 157, 195, 188, 210
-0.998331, 159, 169, 174, 200
-0.998331, 273, 175, 304, 190
-0.998333, 237, 149, 252, 180
-0.998333, 57, 163, 88, 178
-0.998334, 201, 187, 232, 202
-0.998334, 257, 161, 288, 176
-0.998334, 97, 131, 128, 146
-0.998335, 185, 203, 216, 218
-0.998336, 113, 143, 144, 158
-0.998336, 297, 163, 328, 178
-0.998338, 169, 165, 200, 180
-0.998338, 297, 185, 328, 200
-0.998339, 93, 181, 108, 212
-0.998339, 101, 53, 132, 68
-0.998339, 241, 33, 272, 48
-0.998339, 149, 45, 180, 60
-0.99834, 245, 181, 260, 212
-0.99834, 269, 187, 300, 202
-0.998341, 329, 191, 360, 206
-0.998341, 353, 167, 384, 182
-0.998342, 189, 195, 220, 210
-0.998342, 105, 137, 136, 152
-0.998344, 241, 181, 272, 196
-0.998346, 321, 165, 336, 196
-0.998346, 217, 185, 248, 200
-0.998352, 65, 175, 96, 190
-0.998354, 161, 45, 192, 60
-0.998355, 149, 203, 180, 218
-0.998355, 53, 147, 84, 162
-0.998358, 49, 129, 80, 144
-0.998359, 279, 169, 294, 200
-0.998362, 137, 47, 168, 62
-0.998362, 365, 179, 396, 194
-0.998362, 151, 185, 166, 216
-0.998363, 287, 181, 302, 212
-0.998363, 205, 33, 236, 288
-0.998366, 73, 167, 104, 182
-0.998367, 181, 179, 212, 194
-0.998368, 65, 157, 128, 172
-0.998369, 217, 33, 248, 288
-0.99837, 117, 51, 148, 66
-0.99837, 213, 145, 244, 160
-0.998371, 309, 179, 340, 194
-0.998373, 273, 147, 304, 162
-0.998373, 149, 161, 180, 176
-0.998376, 281, 159, 312, 174
-0.998376, 117, 149, 148, 164
-0.998377, 341, 193, 372, 320
-0.998379, 201, 197, 232, 212
-0.99838, 93, 177, 124, 192
-0.998381, 41, 181, 72, 196
-0.998384, 249, 147, 280, 162
-0.998387, 97, 171, 128, 186
-0.998388, 285, 177, 316, 192
-0.998389, 97, 155, 128, 170
-0.99839, 105, 167, 168, 182
-0.998391, 45, 123, 76, 138
-0.998391, 97, 193, 128, 208
-0.998394, 125, 157, 156, 172
-0.998394, 317, 31, 348, 46
-0.998395, 161, 45, 288, 76
-0.998399, 221, 179, 252, 194
-0.998402, 121, 173, 152, 188
-0.998402, 61, 185, 92, 200
-0.998402, 329, 183, 360, 198
-0.998404, 117, 193, 132, 224
-0.998405, 197, 147, 228, 162
-0.998407, 77, 145, 108, 160
-0.998407, 105, 179, 136, 194
-0.998408, 225, 151, 256, 166
-0.998416, 141, 171, 172, 186
-0.998416, 169, 179, 200, 194
-0.998418, 113, 195, 144, 210
-0.998418, 109, 125, 124, 156
-0.998419, 313, 153, 344, 168
-0.998419, 69, 181, 84, 212
-0.998421, 255, 145, 270, 176
-0.998423, 61, 141, 76, 172
-0.998424, 281, 185, 312, 200
-0.998424, 153, 167, 184, 182
-0.998426, 309, 185, 340, 200
-0.998428, 109, 161, 140, 176
-0.998429, 317, 169, 348, 184
-0.998431, 197, 17, 228, 80
-0.998432, 321, 159, 352, 174
-0.998432, 143, 177, 158, 208
-0.998434, 209, 155, 240, 170
-0.998435, 53, 179, 84, 194
-0.998438, 161, 157, 192, 172
-0.99844, 369, 145, 496, 208
-0.998443, 73, 181, 104, 196
-0.998443, 85, 153, 116, 168
-0.998443, 197, 153, 228, 168
-0.998443, 149, 173, 164, 204
-0.998447, 65, 127, 128, 142
-0.998448, 345, 25, 376, 88
-0.998448, 69, 161, 100, 176
-0.998449, 321, 173, 384, 188
-0.998451, 137, 157, 168, 172
-0.998453, 69, 117, 100, 132
-0.998454, 57, 117, 120, 132
-0.998454, 251, 169, 266, 200
-0.998455, 73, 133, 104, 148
-0.998456, 349, 185, 380, 200
-0.998456, 173, 153, 204, 168
-0.998459, 177, 153, 192, 184
-0.99846, 73, 49, 88, 80
-0.99846, 65, 163, 128, 178
-0.998461, 217, 193, 248, 208
-0.998461, 237, 149, 268, 164
-0.998463, 81, 187, 112, 202
-0.998465, 73, 33, 104, 96
-0.998465, 169, 173, 200, 188
-0.998467, 137, 193, 152, 224
-0.998467, 89, 161, 120, 176
-0.998469, 237, 187, 268, 202
-0.99847, 133, 177, 164, 192
-0.99847, 109, 187, 140, 202
-0.998471, 105, 173, 120, 204
-0.998472, 305, 173, 336, 188
-0.998475, 73, 139, 104, 154
-0.998475, 93, 149, 108, 180
-0.998476, 281, 181, 296, 212
-0.998477, 87, 137, 102, 168
-0.998477, 273, 153, 336, 168
-0.998481, 75, 113, 90, 144
-0.998481, 145, 193, 176, 208
-0.998481, 289, 159, 352, 174
-0.998482, 301, 121, 332, 184
-0.998483, 97, 117, 224, 148
-0.998483, 161, 189, 176, 220
-0.998483, 235, 169, 250, 200
-0.998485, 273, 179, 336, 194
-0.998487, 73, 133, 136, 148
-0.998487, 305, 167, 368, 182
-0.998488, 261, 149, 292, 164
-0.998488, 273, 185, 336, 200
-0.998488, 97, 151, 160, 166
-0.998488, 65, 169, 128, 184
-0.998489, 121, 177, 184, 192
-0.99849, 89, 125, 120, 140
-0.998492, 297, 157, 328, 172
-0.998495, 97, 187, 160, 202
-0.998495, 169, 153, 184, 184
-0.998496, 325, 25, 340, 56
-0.998496, 327, 185, 342, 216
-0.998497, 221, 137, 236, 168
-0.998497, 259, 173, 274, 204
-0.998499, 189, 159, 220, 174
-0.998505, 109, 173, 140, 188
-0.998505, 161, 153, 224, 168
-0.998505, 137, 165, 168, 180
-0.998509, 49, 133, 112, 148
-0.998509, 117, 179, 148, 194
-0.99851, 129, 159, 192, 174
-0.998511, 81, 141, 144, 156
-0.998512, 329, 171, 360, 186
-0.998512, 257, 185, 272, 216
-0.998512, 275, 185, 290, 216
-0.998513, 57, 151, 120, 166
-0.998515, 205, 161, 220, 192
-0.998515, 321, 181, 336, 212
-0.998519, 329, 165, 360, 180
-0.998519, 133, 195, 164, 210
-0.998519, 225, 149, 240, 180
-0.998519, 297, 179, 360, 194
-0.998523, 233, 149, 296, 164
-0.998523, 261, 179, 292, 194
-0.998525, 321, 25, 448, 56
-0.998525, 297, 179, 328, 194
-0.998525, 273, 153, 304, 168
-0.998527, 135, 45, 150, 76
-0.998529, 89, 41, 120, 104
-0.998529, 145, 49, 176, 112
-0.998529, 209, 151, 272, 166
-0.99853, 69, 123, 100, 138
-0.998533, 349, 173, 380, 188
-0.998535, 211, 193, 226, 224
-0.998536, 297, 173, 360, 188
-0.998538, 309, 159, 340, 174
-0.998538, 57, 185, 120, 200
-0.998539, 249, 179, 312, 194
-0.99854, 239, 181, 254, 212
-0.998541, 433, 1, 496, 128
-0.998541, 57, 177, 120, 192
-0.998542, 97, 157, 160, 172
-0.998543, 295, 181, 310, 212
-0.998544, 233, 189, 296, 204
-0.998544, 121, 189, 152, 204
-0.998545, 69, 153, 100, 168
-0.998547, 149, 1, 180, 64
-0.998548, 57, 139, 120, 154
-0.998551, 185, 151, 216, 166
-0.998551, 153, 159, 216, 174
-0.998552, 337, 189, 352, 220
-0.998553, 257, 1, 500, 64
-0.998554, 121, 193, 184, 208
-0.998554, 185, 153, 248, 168
-0.998556, 145, 171, 208, 186
-0.998558, 185, 145, 248, 160
-0.998558, 41, 123, 104, 138
-0.998558, 97, 185, 128, 200
-0.99856, 293, 151, 324, 166
-0.998562, 85, 117, 116, 132
-0.998566, 269, 185, 284, 216
-0.998567, 401, 25, 464, 88
-0.998567, 33, 181, 96, 196
-0.998569, 265, 171, 328, 186
-0.998569, 215, 137, 230, 168
-0.99857, 97, 173, 160, 188
-0.998573, 123, 45, 138, 76
-0.998574, 329, 167, 392, 182
-0.998574, 153, 173, 184, 188
-0.998579, 127, 129, 142, 256
-0.99858, 141, 45, 156, 76
-0.998584, 341, 167, 372, 182
-0.998584, 205, 189, 220, 220
-0.998586, 57, 123, 88, 138
-0.998586, 89, 181, 152, 196
-0.998587, 125, 41, 156, 104
-0.998587, 109, 167, 140, 182
-0.998587, 273, 161, 288, 192
-0.998591, 125, 167, 156, 182
-0.998592, 201, 193, 264, 208
-0.998592, 67, 49, 82, 80
-0.998593, 329, 185, 392, 200
-0.998595, 79, 181, 94, 212
-0.998596, 79, 113, 94, 240
-0.998597, 57, 145, 120, 160
-0.998599, 115, 113, 130, 240
-0.998599, 65, 147, 96, 162
-0.998601, 161, 179, 224, 194
-0.998602, 233, 33, 264, 288
-0.998603, 249, 161, 312, 176
-0.998604, 251, 181, 266, 212
-0.998607, 153, 195, 216, 210
-0.998607, 185, 159, 248, 174
-0.998608, 265, 147, 328, 162
-0.998614, 129, 149, 192, 164
-0.998615, 97, 21, 224, 52
-0.998617, 129, 45, 192, 60
-0.998619, 57, 191, 120, 206
-0.998619, 169, 173, 232, 188
-0.99862, 37, 57, 68, 120
-0.998622, 161, 165, 224, 180
-0.998624, 25, 133, 88, 148
-0.998625, 97, 195, 160, 210
-0.998627, 297, 185, 360, 200
-0.998628, 289, 31, 352, 46
-0.998629, 9, 55, 72, 70
-0.998629, 249, 155, 312, 170
-0.99863, 105, 51, 168, 66
-0.998631, 129, 165, 192, 180
-0.998632, 201, 179, 264, 194
-0.998636, 61, 141, 92, 156
-0.998636, 161, 197, 288, 228
-0.998639, 209, 187, 272, 202
-0.998643, 33, 155, 96, 170
-0.998644, 225, 181, 288, 196
-0.998647, 25, 145, 88, 160
-0.998647, 81, 51, 144, 66
-0.998648, 329, 193, 360, 320
-0.99865, 169, 201, 232, 216
-0.998652, 17, 123, 80, 138
-0.998653, 217, 169, 280, 184
-0.998657, 153, 47, 216, 62
-0.998657, 25, 187, 88, 202
-0.99866, 97, 57, 224, 88
-0.99866, 145, 203, 208, 218
-0.998664, 305, 153, 368, 168
-0.998665, 33, 161, 96, 176
-0.998665, 249, 29, 312, 44
-0.998666, 113, 41, 144, 104
-0.998666, 313, 161, 376, 176
-0.998668, 353, 169, 480, 200
-0.998669, 17, 139, 80, 154
-0.99867, 185, 185, 248, 200
-0.998672, 345, 179, 408, 194
-0.998673, 177, 21, 304, 52
-0.998674, 81, 119, 144, 134
-0.998674, 41, 57, 104, 72
-0.998676, 105, 45, 168, 60
-0.998678, 193, 199, 256, 214
-0.998679, 65, 37, 128, 52
-0.998679, 121, 201, 184, 216
-0.998679, 1, 49, 64, 64
-0.99868, 41, 49, 104, 64
-0.998683, 121, 183, 184, 198
-0.998684, 337, 29, 400, 44
-0.998684, 257, 33, 288, 288
-0.998684, 61, 131, 92, 146
-0.998684, 225, 175, 288, 190
-0.998684, 33, 175, 96, 190
-0.998685, 241, 143, 304, 158
-0.998685, 225, 35, 288, 50
-0.998687, 129, 31, 192, 46
-0.998688, 265, 35, 328, 50
-0.998689, 321, 179, 384, 194
-0.998689, 161, 147, 224, 162
-0.99869, 305, 191, 368, 206
-0.99869, 169, 39, 232, 54
-0.998693, 313, 31, 376, 46
-0.998694, 89, 127, 152, 142
-0.998697, 345, 173, 408, 188
-0.998698, 201, 33, 264, 48
-0.998699, 65, 45, 128, 60
-0.998701, 273, 165, 336, 180
-0.998703, 161, 27, 224, 42
-0.998704, 245, 33, 276, 288
-0.998707, 369, 27, 432, 42
-0.998707, 177, 193, 240, 208
-0.998708, 129, 53, 192, 68
-0.998708, 113, 39, 176, 54
-0.998709, 185, 167, 248, 182
-0.998709, 25, 167, 88, 182
-0.998711, 121, 139, 184, 154
-0.998712, 209, 141, 272, 156
-0.998713, 41, 43, 104, 58
-0.998714, 81, 113, 144, 128
-0.998714, 105, 57, 168, 72
-0.998717, 89, 35, 152, 50
-0.998719, 1, 61, 64, 76
-0.99872, 41, 37, 104, 52
-0.998721, 113, 131, 176, 146
-0.998721, 217, 157, 280, 172
-0.998722, 201, 27, 264, 42
-0.998723, 81, 57, 144, 72
-0.998723, 137, 37, 200, 52
-0.998723, 89, 17, 120, 80
-0.998725, 289, 149, 416, 180
-0.998725, 353, 165, 416, 180
-0.998726, 225, 29, 288, 44
-0.99875, 121, 129, 136, 256
-0.998767, 193, 1, 256, 128
-0.998768, 185, 145, 200, 272
-0.998773, 103, 113, 118, 240
-0.998778, 73, 113, 88, 240
-0.998787, 67, 113, 82, 240
-0.998793, 267, 129, 282, 256
-0.998794, 87, 97, 102, 224
-0.998801, 165, 145, 180, 272
-0.99881, 139, 145, 154, 272
-0.998818, 217, 145, 232, 272
-0.998824, 171, 145, 186, 272
-0.998826, 337, 145, 352, 272
-0.998831, 33, 109, 160, 140
-0.998835, 133, 49, 164, 176
-0.998835, 157, 145, 172, 272
-0.998842, 179, 145, 194, 272
-0.998843, 281, 33, 312, 288
-0.998845, 205, 129, 220, 256
-0.998847, 347, 145, 362, 272
-0.998852, 269, 33, 300, 288
-0.998852, 223, 145, 238, 272
-0.998863, 281, 129, 296, 256
-0.99888, 331, 145, 346, 272
-0.99888, 191, 145, 206, 272
-0.998881, 109, 113, 124, 240
-0.998894, 93, 97, 108, 224
-0.998901, 133, 145, 148, 272
-0.998902, 261, 129, 276, 256
-0.998905, 273, 129, 288, 256
-0.998905, 287, 129, 302, 256
-0.998912, 1, 41, 32, 104
-0.998913, 257, 121, 500, 184
-0.998918, 41, 1, 72, 64
-0.99892, 311, 145, 326, 272
-0.998927, 151, 145, 166, 272
-0.998927, 317, 145, 332, 272
-0.998931, 297, 129, 312, 256
-0.998943, 145, 145, 160, 272
-0.998963, 305, 129, 320, 256
-0.998964, 211, 145, 226, 272
-0.998968, 229, 145, 244, 272
-0.99897, 197, 145, 212, 272
-0.998972, 305, 13, 432, 44
-0.998987, 325, 145, 340, 272
-0.998997, 243, 129, 258, 256
-0.99903, 255, 129, 270, 256
-0.999034, 225, 17, 256, 80
-0.999057, 1, 33, 128, 64
-0.999064, 305, 185, 432, 216
-0.999079, 289, 137, 416, 168
-0.999084, 405, 9, 436, 72
-0.999107, 353, 145, 368, 272
-0.999114, 235, 129, 250, 256
-0.99912, 165, 1, 196, 128
-0.999141, 49, 21, 176, 52
-0.999157, 77, 49, 92, 176
-0.999168, 249, 129, 264, 256
-0.99917, 107, 161, 122, 288
-0.999172, 83, 49, 98, 176
-0.999179, 97, 49, 352, 112
-0.999183, 305, 33, 336, 288
-0.999205, 93, 49, 108, 176
-0.999216, 107, 49, 122, 176
-0.99922, 113, 161, 128, 288
-0.999221, 193, 41, 224, 104
-0.999222, 219, 97, 234, 224
-0.999229, 61, 113, 76, 240
-0.999243, 305, 81, 336, 208
-0.999244, 353, 13, 480, 44
-0.999268, 1, 9, 500, 72
-0.999275, 337, 149, 464, 180
-0.999286, 229, 97, 244, 224
-0.999287, 381, 25, 412, 88
-0.9993, 5, 49, 36, 176
-0.999306, 257, 41, 320, 104
-0.999318, 337, 33, 368, 288
-0.999318, 101, 33, 116, 160
-0.999335, 167, 193, 182, 320
-0.999335, 191, 193, 206, 320
-0.999343, 179, 193, 194, 320
-0.999348, 311, 97, 326, 224
-0.999351, 113, 49, 128, 176
-0.999353, 173, 193, 188, 320
-0.999365, 71, 65, 86, 192
-0.999367, 197, 193, 212, 320
-0.999367, 121, 49, 136, 176
-0.999368, 137, 97, 152, 224
-0.99937, 161, 193, 176, 320
-0.99937, 61, 1, 92, 64
-0.99937, 257, 13, 384, 44
-0.999372, 79, 161, 94, 288
-0.999381, 267, 177, 282, 304
-0.999382, 185, 193, 200, 320
-0.999392, 153, 193, 168, 320
-0.999396, 317, 193, 348, 320
-0.999396, 281, 177, 296, 304
-0.999399, 125, 177, 140, 304
-0.999404, 273, 177, 288, 304
-0.999404, 321, 97, 336, 224
-0.99941, 17, 65, 80, 128
-0.999413, 205, 193, 220, 320
-0.999415, 349, 33, 380, 288
-0.999415, 341, 97, 356, 224
-0.999418, 85, 145, 100, 272
-0.999419, 369, 1, 496, 32
-0.99942, 335, 97, 350, 224
-0.999424, 261, 177, 276, 304
-0.999425, 211, 97, 226, 224
-0.999437, 81, 105, 208, 136
-0.999438, 325, 33, 356, 288
-0.999439, 65, 65, 80, 192
-0.999445, 119, 177, 134, 304
-0.99945, 101, 177, 116, 304
-0.999451, 303, 177, 318, 304
-0.999452, 253, 177, 268, 304
-0.999452, 289, 177, 304, 304
-0.999457, 93, 161, 108, 288
-0.999461, 147, 193, 162, 320
-0.999473, 327, 97, 342, 224
-0.999493, 295, 177, 310, 304
-0.999495, 127, 49, 142, 176
-0.999499, 73, 161, 88, 288
-0.999506, 29, 17, 60, 80
-0.999519, 293, 33, 324, 288
-0.99952, 347, 97, 362, 224
-0.999549, 357, 113, 388, 240
-0.999551, 425, 1, 456, 256
-0.999557, 211, 193, 226, 320
-0.999557, 65, 201, 192, 232
-0.999566, 247, 177, 262, 304
-0.999566, 469, 1, 500, 256
-0.99957, 235, 177, 250, 304
-0.99957, 123, 195, 138, 210
-0.999572, 43, 1, 58, 128
-0.999572, 369, 25, 496, 56
-0.999573, 117, 197, 132, 212
-0.999573, 151, 175, 166, 190
-0.999574, 131, 149, 146, 164
-0.999575, 101, 193, 116, 208
-0.999575, 291, 159, 306, 174
-0.999576, 213, 185, 228, 200
-0.999577, 73, 163, 88, 178
-0.999577, 241, 187, 256, 202
-0.99958, 321, 185, 336, 200
-0.99958, 161, 159, 176, 174
-0.999581, 135, 197, 150, 212
-0.999581, 135, 155, 150, 170
-0.999581, 235, 151, 250, 166
-0.999582, 189, 179, 204, 194
-0.999583, 275, 155, 290, 170
-0.999583, 319, 163, 334, 178
-0.999583, 285, 185, 300, 200
-0.999583, 211, 193, 226, 208
-0.999585, 345, 189, 360, 204
-0.999585, 137, 173, 152, 188
-0.999585, 109, 127, 124, 142
-0.999586, 269, 159, 284, 174
-0.999586, 297, 157, 312, 172
-0.999587, 349, 173, 364, 188
-0.999587, 123, 51, 138, 66
-0.999587, 53, 123, 68, 138
-0.999587, 331, 161, 346, 176
-0.999587, 233, 145, 248, 160
-0.999587, 117, 135, 132, 150
-0.999588, 211, 157, 226, 172
-0.999588, 251, 149, 266, 164
-0.99959, 247, 185, 262, 200
-0.999591, 129, 187, 144, 202
-0.999591, 211, 199, 226, 214
-0.999592, 145, 169, 160, 184
-0.999593, 113, 161, 128, 176
-0.999593, 109, 167, 124, 182
-0.999593, 79, 183, 94, 198
-0.999594, 65, 155, 80, 170
-0.999598, 331, 169, 346, 184
-0.999598, 81, 121, 96, 136
-0.999599, 155, 167, 170, 182
-0.9996, 171, 179, 186, 194
-0.9996, 259, 151, 274, 166
-0.999601, 325, 159, 340, 174
-0.999602, 89, 127, 104, 142
-0.999603, 193, 97, 208, 224
-0.999605, 183, 177, 198, 192
-0.999606, 213, 151, 228, 166
-0.999606, 207, 151, 222, 166
-0.999607, 185, 153, 200, 168
-0.999608, 1, 105, 500, 168
-0.999608, 69, 185, 84, 200
-0.999608, 123, 189, 138, 204
-0.99961, 91, 187, 106, 202
-0.999611, 149, 193, 164, 208
-0.999611, 83, 147, 98, 162
-0.999611, 55, 113, 70, 240
-0.999614, 205, 195, 220, 210
-0.999618, 221, 193, 236, 208
-0.999618, 353, 185, 368, 200
-0.99962, 111, 173, 126, 188
-0.999621, 105, 157, 120, 172
-0.999625, 141, 157, 156, 172
-0.999626, 177, 177, 192, 192
-0.999626, 241, 149, 256, 164
-0.999627, 1, 1, 16, 128
-0.999628, 195, 157, 210, 172
-0.999628, 131, 193, 146, 320
-0.999628, 273, 181, 288, 196
-0.999629, 361, 171, 376, 186
-0.999629, 111, 183, 126, 198
-0.99963, 305, 149, 320, 164
-0.99963, 31, 1, 46, 128
-0.999631, 359, 161, 374, 288
-0.999631, 139, 167, 154, 182
-0.999633, 147, 159, 162, 174
-0.999634, 315, 169, 330, 184
-0.999635, 337, 163, 352, 178
-0.999636, 121, 173, 136, 188
-0.999637, 49, 1, 64, 128
-0.999638, 281, 153, 296, 168
-0.999639, 319, 157, 334, 172
-0.99964, 297, 149, 312, 164
-0.999641, 271, 81, 286, 208
-0.999644, 81, 153, 96, 168
-0.999645, 75, 125, 90, 140
-0.999647, 91, 153, 106, 168
-0.999648, 259, 81, 274, 208
-0.999649, 67, 135, 82, 150
-0.99965, 199, 97, 214, 224
-0.999651, 251, 81, 266, 208
-0.999653, 171, 173, 186, 188
-0.999653, 179, 97, 194, 224
-0.999653, 69, 129, 84, 144
-0.999655, 37, 1, 52, 128
-0.999656, 129, 193, 144, 208
-0.999656, 77, 145, 92, 160
-0.999656, 205, 157, 220, 172
-0.999656, 309, 181, 324, 196
-0.999656, 117, 189, 132, 204
-0.999657, 97, 117, 112, 132
-0.999658, 125, 1, 140, 128
-0.999659, 115, 1, 130, 128
-0.999662, 127, 179, 142, 194
-0.999663, 317, 177, 332, 192
-0.999664, 291, 153, 306, 168
-0.999664, 241, 177, 256, 304
-0.999664, 273, 149, 288, 164
-0.999664, 187, 97, 202, 224
-0.999666, 149, 97, 164, 224
-0.999667, 281, 81, 296, 208
-0.999668, 191, 151, 206, 166
-0.999668, 73, 157, 88, 172
-0.999669, 309, 169, 324, 184
-0.99967, 99, 153, 114, 168
-0.99967, 313, 159, 328, 174
-0.999671, 79, 1, 94, 128
-0.999671, 121, 181, 136, 196
-0.999673, 133, 1, 148, 128
-0.999674, 343, 171, 358, 186
-0.999674, 281, 147, 296, 162
-0.999678, 267, 147, 282, 162
-0.999679, 93, 1, 108, 128
-0.999679, 161, 173, 176, 188
-0.99968, 11, 1, 26, 128
-0.999682, 369, 175, 384, 190
-0.999682, 127, 171, 142, 186
-0.999683, 49, 57, 80, 120
-0.999684, 355, 169, 370, 184
-0.999684, 81, 129, 96, 144
-0.999685, 67, 141, 82, 156
-0.999686, 301, 81, 316, 208
-0.999687, 21, 1, 36, 128
-0.999687, 201, 151, 216, 166
-0.999687, 69, 147, 84, 162
-0.999691, 243, 81, 258, 208
-0.999692, 303, 179, 318, 194
-0.999694, 307, 155, 322, 170
-0.999696, 59, 65, 74, 192
-0.999697, 133, 167, 148, 182
-0.999698, 337, 169, 352, 184
-0.999699, 353, 97, 368, 224
-0.9997, 141, 193, 156, 320
-0.999701, 87, 1, 102, 128
-0.999701, 89, 115, 104, 130
-0.999702, 145, 17, 160, 144
-0.999705, 101, 185, 116, 200
-0.999708, 295, 81, 310, 208
-0.999713, 157, 17, 172, 144
-0.999715, 143, 97, 158, 224
-0.999717, 141, 195, 156, 210
-0.999723, 59, 121, 74, 136
-0.99973, 63, 129, 78, 144
-0.999731, 313, 153, 328, 168
-0.999732, 75, 151, 90, 166
-0.999737, 1, 17, 128, 48
-0.999748, 349, 167, 364, 182
-0.999749, 69, 123, 84, 138
-0.999751, 77, 139, 92, 154
-0.999758, 115, 167, 130, 182
-0.999759, 123, 165, 138, 180
-0.999763, 369, 145, 432, 208
-0.999765, 309, 175, 324, 190
-0.999767, 343, 165, 358, 180
-0.999771, 113, 9, 240, 40
-0.999774, 193, 1, 224, 128
-0.999774, 83, 135, 98, 150
-0.99978, 309, 17, 340, 80
-0.999788, 29, 1, 60, 256
-0.9998, 75, 131, 90, 146
-0.999816, 49, 9, 176, 40
-0.999816, 9, 1, 40, 256
-0.999828, 353, 185, 384, 248
-0.999865, 9, 17, 40, 80
-0.999907, 305, 225, 432, 288
-0.99991, 373, 1, 404, 256
-0.999929, 273, 41, 400, 72
-0.999969, 161, 9, 288, 40
-0.999971, 241, 129, 368, 160
-0.999982, 273, 1, 400, 32
-0.999991, 45, 169, 76, 232
-0.999994, 353, 1, 384, 64
-1, 321, 37, 448, 68
-1.00005, 1, 1, 128, 32
-1.00007, 313, 1, 376, 128
-1.00007, 361, 1, 392, 256
-1.00009, 81, 65, 208, 128
-1.0001, 109, 1, 140, 64
-1.00015, 321, 1, 448, 32
-1.00015, 257, 49, 500, 176
-1.00016, 97, 201, 352, 264
-1.00016, 153, 49, 216, 176
-1.00016, 1, 97, 128, 128
-1.00018, 413, 1, 444, 256
-1.00019, 209, 49, 336, 80
-1.00021, 437, 1, 468, 256
-1.00023, 17, 49, 48, 176
-1.00024, 353, 257, 480, 320
-1.00024, 81, 93, 208, 124
-1.00026, 209, 25, 240, 88
-1.00026, 145, 57, 272, 88
-1.00034, 321, 273, 448, 304
-1.00034, 49, 161, 80, 288
-1.00036, 369, 285, 496, 316
-1.00037, 129, 85, 256, 116
-1.00039, 457, 1, 488, 256
-1.0004, 257, 233, 384, 296
-1.0004, 193, 241, 320, 304
-1.00041, 369, 145, 400, 208
-1.00042, 209, 193, 336, 224
-1.00043, 381, 1, 412, 64
-1.00044, 321, 285, 448, 316
-1.00045, 177, 125, 304, 156
-1.00045, 81, 73, 208, 104
-1.00046, 257, 193, 384, 224
-1.00048, 273, 281, 400, 312
-1.0005, 209, 77, 336, 108
-1.00054, 305, 249, 432, 312
-1.00055, 193, 49, 320, 176
-1.00056, 385, 1, 416, 256
-1.00058, 145, 73, 272, 136
-1.00059, 217, 1, 248, 128
-1.00059, 169, 201, 200, 264
-1.00059, 209, 5, 336, 36
-1.00059, 161, 73, 288, 104
-1.00059, 209, 241, 336, 272
-1.0006, 353, 181, 480, 212
-1.0006, 305, 233, 432, 264
-1.00061, 97, 65, 128, 128
-1.00062, 177, 89, 304, 120
-1.00063, 1, 69, 128, 100
-1.00064, 225, 277, 352, 308
-1.00064, 1, 85, 128, 116
-1.00064, 121, 201, 184, 264
-1.00066, 369, 37, 496, 68
-1.00066, 353, 261, 480, 292
-1.00068, 145, 101, 272, 132
-1.00069, 397, 1, 428, 256
-1.0007, 369, 273, 496, 304
-1.0007, 193, 73, 320, 136
-1.0007, 29, 49, 60, 176
-1.0007, 273, 265, 400, 296
-1.00072, 369, 237, 496, 268
-1.00072, 257, 53, 384, 84
-1.00072, 289, 221, 416, 252
-1.00073, 305, 77, 432, 108
-1.00073, 369, 217, 496, 248
-1.00073, 241, 229, 368, 260
-1.00073, 225, 289, 352, 320
-1.00074, 209, 253, 336, 284
-1.00076, 289, 245, 416, 276
-1.00076, 209, 265, 336, 296
-1.00076, 225, 93, 352, 124
-1.00077, 33, 73, 288, 136
-1.00077, 337, 49, 464, 80
-1.0008, 145, 253, 272, 284
-1.00083, 357, 161, 388, 288
-1.00083, 257, 77, 384, 108
-1.00083, 353, 193, 480, 224
-1.00083, 129, 241, 256, 272
-1.00085, 161, 285, 288, 316
-1.00086, 209, 61, 336, 92
-1.00086, 289, 65, 416, 96
-1.00086, 369, 73, 496, 104
-1.00086, 369, 249, 496, 280
-1.00088, 161, 273, 288, 304
-1.00088, 321, 209, 448, 240
-1.0009, 305, 197, 432, 228
-1.0009, 1, 221, 128, 252
-1.0009, 257, 209, 384, 240
-1.00091, 1, 209, 128, 240
-1.00091, 113, 97, 144, 160
-1.00091, 289, 93, 416, 124
-1.00091, 353, 97, 480, 128
-1.00091, 353, 217, 480, 280
-1.00091, 161, 229, 288, 260
-1.00093, 97, 225, 224, 256
-1.00094, 369, 205, 496, 236
-1.00097, 73, 1, 104, 64
-1.00101, 193, 233, 448, 296
-1.00104, 361, 1, 424, 128
-1.00104, 401, 1, 464, 128
-1.00105, 193, 49, 448, 112
-1.00106, 161, 105, 416, 168
-1.00112, 145, 233, 272, 296
-1.00116, 177, 1, 208, 128
-1.00117, 337, 1, 400, 128
-1.00122, 321, 65, 448, 192
-1.00133, 193, 257, 448, 320
-1.00133, 161, 81, 416, 144
-1.00133, 369, 193, 496, 256
-1.00137, 145, 257, 272, 320
-1.00139, 205, 1, 236, 128
-1.0014, 225, 193, 256, 320
-1.00141, 33, 249, 288, 312
-1.00145, 257, 257, 384, 320
-1.00145, 1, 217, 128, 280
-1.00148, 353, 41, 480, 104
-1.00149, 257, 209, 384, 272
-1.00151, 97, 233, 224, 296
-1.00152, 65, 225, 320, 288
-1.00153, 193, 97, 320, 160
-1.0016, 225, 209, 480, 272
-1.00169, 465, 1, 496, 128
-1.00173, 97, 257, 224, 320
-1.0018, 369, 97, 496, 160
-1.00188, 49, 217, 176, 280
-1.00188, 257, 73, 500, 136
-1.00189, 209, 217, 336, 280
-1.00193, 433, 25, 496, 88
-1.00196, 273, 73, 400, 136
-1.00202, 1, 249, 128, 312
-1.00206, 1, 201, 500, 264
-1.0021, 321, 65, 448, 128
-1.00212, 321, 113, 448, 176
-1.00215, 257, 97, 500, 160
-1.00219, 321, 89, 448, 152
-1.00224, 37, 161, 68, 288
-1.00225, 369, 73, 496, 136
-1.00225, 49, 241, 176, 304
-1.00234, 257, 1, 320, 128
-1.00234, 153, 105, 216, 168
-1.00235, 209, 49, 240, 176
-1.0024, 241, 49, 368, 176
-1.00244, 1, 249, 500, 312
-1.00246, 1, 81, 500, 144
-1.00258, 337, 1, 368, 128
-1.00262, 37, 97, 68, 224
-1.00275, 1, 57, 500, 120
-1.0028, 369, 169, 496, 232
-1.00286, 169, 49, 200, 176
-1.00302, 1, 225, 500, 288
-1.00303, 9, 153, 72, 216
-1.00314, 249, 1, 280, 128
-1.00314, 453, 1, 484, 128
-1.00315, 289, 41, 352, 104
-1.00328, 145, 97, 272, 160
-1.0033, 369, 121, 496, 184
-1.00344, 229, 1, 260, 128
-1.0035, 425, 1, 456, 128
-1.00366, 261, 1, 292, 128
-1.00367, 289, 1, 352, 128
-1.00368, 365, 1, 396, 128
-1.00381, 437, 1, 468, 128
-1.00386, 349, 1, 380, 128
-1.00392, 217, 49, 280, 176
-1.00398, 277, 1, 308, 128
-1.00398, 405, 1, 436, 128
-1.00406, 377, 1, 408, 128
-1.00437, 325, 1, 356, 128
-1.00441, 113, 81, 176, 144
-1.00442, 177, 81, 240, 144
-1.00445, 289, 1, 320, 128
-1.00454, 297, 105, 360, 168
-1.00456, 305, 1, 336, 128
-1.00459, 393, 1, 424, 128
-1.00464, 337, 193, 400, 320
-1.00472, 329, 257, 392, 320
-1.00479, 289, 233, 352, 296
-1.00488, 337, 225, 400, 288
-1.0049, 209, 97, 272, 160
-1.00506, 369, 97, 496, 224
-1.00506, 1, 145, 64, 272
-1.00506, 257, 225, 320, 288
-1.00509, 369, 257, 432, 320
-1.00511, 321, 113, 384, 176
-1.00525, 385, 233, 448, 296
-1.00528, 185, 249, 248, 312
-1.00532, 425, 225, 488, 288
-1.00534, 201, 65, 264, 128
-1.00534, 225, 233, 288, 296
-1.00536, 353, 65, 384, 192
-1.00553, 353, 121, 416, 184
-1.00557, 313, 225, 376, 288
-1.0056, 361, 233, 424, 296
-1.00569, 385, 209, 448, 272
-1.00575, 25, 145, 56, 272
-1.00604, 1, 217, 64, 280
-1.00608, 353, 49, 416, 112
-1.0061, 369, 49, 496, 176
-1.00615, 153, 73, 216, 136
-1.00618, 329, 49, 392, 112
-1.00629, 265, 249, 328, 312
-1.00633, 289, 257, 352, 320
-1.00638, 289, 209, 352, 272
-1.00649, 465, 65, 496, 192
-1.00654, 417, 201, 480, 264
-1.00654, 425, 249, 488, 312
-1.00659, 361, 201, 424, 264
-1.0066, 433, 145, 464, 272
-1.00666, 201, 201, 264, 264
-1.00674, 369, 129, 400, 256
-1.00675, 25, 97, 56, 224
-1.00677, 369, 177, 432, 240
-1.00682, 445, 97, 476, 224
-1.00683, 317, 49, 348, 176
-1.00686, 201, 225, 264, 288
-1.00687, 401, 145, 432, 272
-1.00689, 153, 249, 216, 312
-1.00696, 393, 257, 456, 320
-1.00703, 225, 73, 288, 136
-1.00703, 409, 81, 440, 208
-1.00707, 257, 97, 320, 160
-1.00711, 233, 97, 296, 160
-1.00712, 445, 145, 476, 272
-1.00714, 461, 145, 492, 272
-1.00721, 225, 209, 288, 272
-1.00723, 265, 201, 328, 264
-1.00725, 445, 49, 476, 176
-1.00733, 297, 49, 360, 176
-1.00733, 425, 169, 488, 232
-1.00736, 421, 145, 452, 272
-1.00738, 429, 81, 460, 208
-1.00742, 337, 73, 400, 136
-1.00742, 425, 105, 488, 168
-1.00744, 385, 49, 416, 176
-1.00744, 449, 193, 480, 320
-1.00746, 1, 193, 32, 320
-1.00747, 313, 73, 376, 136
-1.00752, 401, 193, 432, 320
-1.00754, 241, 257, 304, 320
-1.00757, 381, 161, 412, 288
-1.00765, 369, 81, 400, 208
-1.00773, 421, 193, 452, 320
-1.00791, 273, 49, 336, 176
-1.00828, 433, 49, 496, 176
-1.00932, 393, 81, 456, 208
-1.00968, 433, 97, 496, 224
-1.01, 409, 193, 472, 320
-1.01007, 401, 145, 464, 272
-1.01045, 1, 193, 64, 320
-1.01052, 369, 193, 432, 320
-1.01069, 425, 145, 488, 272
-1.01127, 369, 81, 432, 208
-1.01153, 329, 49, 392, 176
-1.01217, 433, 193, 496, 320
-1.0125, 377, 145, 440, 272
