1914
-0.310741, 1, 193, 333, 448
-0.429176, 1, 97, 333, 352
-0.461218, 1, 1, 333, 500
-0.462956, 65, 161, 320, 416
-0.513981, 33, 1, 288, 500
-0.599754, 1, 257, 256, 500
-0.674616, 1, 65, 256, 320
-0.715871, 1, 1, 333, 256
-0.841924, 65, 161, 192, 416
-0.84518, 1, 161, 128, 416
-0.84896, 177, 161, 304, 416
-0.867407, 17, 257, 144, 500
-0.87619, 97, 257, 224, 500
-0.876746, 1, 225, 333, 352
-0.876793, 49, 1, 176, 500
-0.877531, 129, 129, 256, 384
-0.880623, 1, 273, 333, 400
-0.885882, 1, 1, 128, 500
-0.886207, 161, 257, 288, 500
-0.887345, 97, 1, 224, 500
-0.887496, 49, 65, 176, 320
-0.893808, 1, 65, 128, 320
-0.897346, 193, 1, 320, 500
-0.90087, 1, 321, 333, 448
-0.901062, 1, 177, 333, 304
-0.901619, 65, 177, 320, 304
-0.906349, 209, 257, 333, 500
-0.906482, 145, 1, 272, 500
-0.908993, 33, 305, 288, 432
-0.909318, 65, 129, 320, 256
-0.916256, 1, 193, 128, 320
-0.921948, 1, 129, 333, 256
-0.923254, 113, 177, 176, 304
-0.923502, 1, 369, 333, 496
-0.925771, 97, 33, 224, 288
-0.926146, 65, 225, 320, 352
-0.927597, 209, 65, 333, 320
-0.92799, 65, 177, 192, 304
-0.931106, 89, 177, 152, 304
-0.931788, 1, 81, 256, 208
-0.932698, 33, 129, 160, 256
-0.932765, 65, 193, 128, 320
-0.933559, 49, 257, 176, 384
-0.934104, 89, 129, 152, 256
-0.937354, 65, 65, 192, 192
-0.937706, 145, 145, 208, 272
-0.938727, 33, 193, 96, 320
-0.940562, 161, 33, 288, 288
-0.940913, 1, 273, 128, 400
-0.941323, 145, 129, 272, 256
-0.941545, 209, 145, 272, 272
-0.941893, 49, 321, 176, 448
-0.942151, 129, 193, 256, 320
-0.942559, 209, 145, 333, 272
-0.942686, 193, 257, 320, 384
-0.942975, 129, 241, 256, 368
-0.943194, 49, 321, 112, 448
-0.943463, 65, 145, 128, 272
-0.943533, 89, 65, 152, 192
-0.944677, 1, 65, 333, 192
-0.944729, 193, 209, 320, 336
-0.945562, 25, 273, 88, 400
-0.94624, 1, 337, 128, 464
-0.94657, 129, 97, 192, 224
-0.946634, 161, 305, 288, 432
-0.94671, 49, 241, 112, 368
-0.94796, 65, 353, 320, 480
-0.948224, 41, 113, 104, 240
-0.94876, 217, 193, 280, 320
-0.948935, 145, 193, 208, 320
-0.948956, 73, 241, 136, 368
-0.948982, 97, 129, 224, 256
-0.949012, 113, 225, 176, 288
-0.949043, 1, 257, 64, 384
-0.950039, 89, 193, 152, 256
-0.950412, 25, 337, 88, 464
-0.950453, 89, 145, 152, 208
-0.951038, 145, 201, 208, 264
-0.951368, 241, 241, 304, 368
-0.952178, 113, 185, 176, 248
-0.952813, 89, 233, 152, 296
-0.953584, 209, 289, 272, 416
-0.953832, 185, 209, 248, 336
-0.954182, 233, 305, 296, 432
-0.954229, 73, 169, 136, 232
-0.955316, 137, 137, 200, 200
-0.955954, 233, 305, 296, 368
-0.957137, 273, 289, 333, 416
-0.957169, 65, 209, 128, 272
-0.957821, 137, 257, 200, 384
-0.957863, 113, 225, 176, 352
-0.959146, 113, 305, 240, 432
-0.959409, 1, 337, 64, 464
-0.959426, 1, 209, 64, 336
-0.959528, 33, 129, 96, 192
-0.959533, 193, 353, 320, 480
-0.959748, 73, 321, 136, 448
-0.959896, 1, 249, 64, 312
-0.960071, 113, 161, 176, 224
-0.960607, 65, 233, 128, 296
-0.960669, 161, 233, 224, 296
-0.960674, 169, 129, 232, 256
-0.960824, 33, 345, 96, 408
-0.960868, 209, 305, 333, 432
-0.962277, 145, 161, 208, 224
-0.962767, 137, 225, 200, 288
-0.963253, 25, 233, 88, 296
-0.96334, 57, 257, 120, 320
-0.963583, 97, 321, 160, 448
-0.963665, 185, 201, 248, 264
-0.963958, 209, 201, 272, 264
-0.96424, 209, 145, 272, 208
-0.964261, 201, 225, 264, 288
-0.964373, 57, 193, 120, 448
-0.964472, 225, 225, 288, 288
-0.965034, 233, 145, 296, 272
-0.965208, 145, 129, 208, 384
-0.965509, 249, 249, 312, 312
-0.965654, 161, 241, 224, 368
-0.965655, 217, 281, 280, 344
-0.965854, 153, 305, 216, 368
-0.966086, 49, 169, 112, 232
-0.966218, 273, 297, 333, 360
-0.96624, 121, 257, 184, 320
-0.966816, 121, 145, 152, 272
-0.967135, 57, 369, 120, 496
-0.967149, 257, 321, 320, 384
-0.967164, 73, 321, 136, 384
-0.967352, 33, 201, 96, 264
-0.9674, 161, 129, 224, 192
-0.96745, 25, 225, 88, 480
-0.967532, 217, 353, 280, 480
-0.967566, 77, 129, 108, 256
-0.967749, 177, 305, 240, 368
-0.967857, 165, 113, 196, 240
-0.968091, 165, 121, 196, 184
-0.9681, 249, 281, 312, 344
-0.968321, 77, 209, 108, 336
-0.968975, 89, 161, 152, 416
-0.969164, 121, 153, 152, 216
-0.969167, 33, 161, 160, 224
-0.969205, 41, 97, 104, 352
-0.969346, 141, 225, 172, 288
-0.969439, 209, 177, 272, 240
-0.969856, 1, 201, 128, 264
-0.970051, 257, 337, 320, 464
-0.970173, 209, 241, 272, 368
-0.970216, 241, 345, 304, 408
-0.97042, 209, 305, 272, 368
-0.970611, 65, 137, 128, 200
-0.970649, 1, 273, 64, 336
-0.970785, 49, 321, 112, 384
-0.970788, 209, 161, 272, 416
-0.970967, 145, 233, 272, 296
-0.971297, 81, 201, 208, 264
-0.971308, 129, 113, 192, 176
-0.971435, 17, 129, 80, 256
-0.97146, 1, 225, 64, 480
-0.971467, 217, 257, 280, 320
-0.971472, 93, 193, 124, 320
-0.971512, 193, 297, 320, 360
-0.971551, 1, 129, 128, 192
-0.971758, 81, 225, 112, 288
-0.971967, 137, 193, 168, 256
-0.97198, 69, 129, 100, 192
-0.972034, 113, 161, 176, 416
-0.972111, 1, 81, 128, 208
-0.972127, 129, 305, 192, 368
-0.972128, 165, 161, 196, 288
-0.972239, 137, 193, 168, 320
-0.972435, 177, 305, 240, 432
-0.972529, 77, 161, 108, 224
-0.972552, 9, 345, 72, 408
-0.97258, 185, 257, 248, 384
-0.972643, 81, 65, 144, 320
-0.972682, 233, 145, 264, 272
-0.972733, 25, 169, 88, 232
-0.972858, 113, 49, 176, 176
-0.972883, 65, 249, 192, 312
-0.972943, 1, 225, 128, 288
-0.972973, 169, 161, 232, 224
-0.973047, 177, 225, 240, 480
-0.97328, 233, 185, 296, 248
-0.973471, 273, 241, 333, 368
-0.973598, 33, 257, 96, 320
-0.973681, 249, 193, 312, 320
-0.973715, 165, 153, 196, 216
-0.973864, 97, 225, 128, 288
-0.973959, 81, 225, 208, 288
-0.973992, 53, 321, 84, 448
-0.974325, 73, 257, 104, 384
-0.974378, 89, 121, 152, 184
-0.974473, 25, 281, 88, 344
-0.974506, 233, 193, 296, 448
-0.974549, 65, 97, 128, 224
-0.974621, 121, 321, 184, 448
-0.974662, 41, 369, 104, 432
-0.974697, 89, 201, 120, 264
-0.97471, 37, 273, 68, 400
-0.974807, 217, 329, 280, 392
-0.975038, 113, 137, 176, 200
-0.975073, 61, 193, 92, 320
-0.975149, 129, 209, 256, 272
-0.97518, 1, 225, 64, 288
-0.975331, 169, 129, 232, 384
-0.975367, 233, 153, 296, 216
-0.975491, 193, 249, 320, 312
-0.975496, 49, 369, 176, 496
-0.975511, 233, 177, 264, 240
-0.975524, 25, 225, 56, 352
-0.97553, 53, 273, 84, 400
-0.975593, 145, 329, 208, 392
-0.975685, 77, 185, 108, 248
-0.975953, 49, 137, 176, 200
-0.976019, 273, 257, 333, 320
-0.976075, 25, 249, 56, 312
-0.976294, 49, 281, 112, 344
-0.976331, 121, 177, 152, 240
-0.976375, 257, 297, 288, 360
-0.976464, 193, 225, 320, 288
-0.976529, 65, 369, 128, 432
-0.976778, 129, 233, 160, 296
-0.97717, 33, 337, 64, 464
-0.977192, 165, 177, 196, 240
-0.977205, 193, 281, 256, 344
-0.977237, 129, 153, 256, 216
-0.977239, 129, 177, 256, 240
-0.977316, 97, 273, 160, 400
-0.977371, 97, 353, 224, 480
-0.977448, 69, 209, 100, 272
-0.97756, 69, 321, 100, 448
-0.977689, 229, 225, 260, 288
-0.977757, 193, 273, 320, 336
-0.977843, 81, 257, 144, 320
-0.977967, 5, 241, 36, 304
-0.977985, 161, 329, 288, 392
-0.978175, 145, 369, 272, 496
-0.978193, 149, 201, 180, 264
-0.978224, 145, 289, 272, 352
-0.978286, 257, 321, 288, 384
-0.978309, 89, 249, 120, 312
-0.978379, 89, 257, 120, 384
-0.978548, 17, 97, 80, 352
-0.978678, 193, 329, 256, 392
-0.978703, 17, 369, 80, 432
-0.978774, 273, 257, 304, 320
-0.978777, 233, 137, 264, 200
-0.978841, 273, 289, 304, 352
-0.97885, 249, 225, 312, 288
-0.978901, 145, 249, 176, 312
-0.979043, 17, 321, 144, 384
-0.9791, 33, 105, 96, 168
-0.979147, 81, 305, 208, 368
-0.979167, 17, 345, 144, 408
-0.979268, 17, 249, 144, 312
-0.979268, 217, 289, 248, 416
-0.979483, 209, 201, 333, 264
-0.97949, 185, 113, 248, 176
-0.979516, 265, 257, 328, 500
-0.979577, 57, 345, 120, 408
-0.97979, 145, 257, 208, 320
-0.979851, 261, 257, 292, 384
-0.979875, 21, 225, 52, 288
-0.97991, 149, 177, 180, 304
-0.980003, 97, 305, 160, 368
-0.980005, 81, 257, 144, 500
-0.980136, 153, 321, 216, 448
-0.980161, 193, 249, 256, 312
-0.980186, 77, 321, 108, 384
-0.980233, 209, 177, 333, 240
-0.980302, 17, 177, 48, 304
-0.98036, 145, 257, 176, 384
-0.980399, 21, 345, 52, 408
-0.980472, 129, 81, 256, 208
-0.980648, 97, 57, 160, 120
-0.980698, 37, 345, 68, 408
-0.980706, 209, 257, 272, 500
-0.980731, 9, 137, 72, 200
-0.980825, 109, 177, 140, 304
-0.980861, 145, 129, 272, 192
-0.980896, 81, 177, 208, 240
-0.980911, 53, 337, 84, 400
-0.980918, 249, 305, 280, 432
-0.980921, 145, 257, 272, 320
-0.981136, 129, 33, 192, 288
-0.98115, 41, 281, 72, 344
-0.981176, 65, 49, 128, 176
-0.981256, 233, 129, 296, 192
-0.981342, 117, 201, 148, 264
-0.981344, 133, 145, 164, 272
-0.981344, 61, 281, 92, 344
-0.981428, 169, 265, 232, 328
-0.981493, 65, 273, 192, 336
-0.981574, 121, 257, 184, 500
-0.981638, 205, 289, 236, 352
-0.981804, 209, 153, 333, 216
-0.98188, 117, 129, 148, 192
-0.981909, 233, 97, 296, 224
-0.981926, 81, 305, 112, 432
-0.981955, 217, 369, 280, 432
-0.982045, 149, 305, 180, 368
-0.98207, 89, 369, 152, 496
-0.982074, 25, 305, 88, 368
-0.982076, 217, 225, 248, 288
-0.982158, 133, 169, 164, 232
-0.98218, 97, 129, 224, 192
-0.982182, 89, 65, 120, 192
-0.982197, 209, 209, 240, 336
-0.982204, 101, 201, 132, 264
-0.982282, 33, 65, 96, 192
-0.982452, 81, 353, 112, 480
-0.982469, 221, 281, 252, 344
-0.982538, 1, 201, 64, 264
-0.982596, 233, 201, 264, 264
-0.982621, 5, 161, 36, 288
-0.982725, 61, 129, 92, 256
-0.982826, 105, 49, 136, 176
-0.982856, 13, 225, 44, 352
-0.982881, 229, 225, 260, 352
-0.982882, 1, 281, 128, 344
-0.982916, 265, 345, 328, 408
-0.98307, 149, 161, 180, 224
-0.983073, 153, 257, 216, 500
-0.983114, 181, 305, 212, 368
-0.983181, 1, 321, 64, 384
-0.983394, 217, 305, 248, 368
-0.983404, 185, 81, 248, 208
-0.983468, 117, 49, 148, 176
-0.983474, 165, 225, 196, 288
-0.983497, 273, 289, 304, 416
-0.983569, 229, 289, 260, 416
-0.983618, 197, 209, 228, 336
-0.983698, 237, 305, 268, 368
-0.983715, 61, 185, 92, 248
-0.983769, 65, 89, 192, 152
-0.983771, 185, 137, 248, 200
-0.983775, 109, 233, 140, 296
-0.983782, 269, 321, 300, 384
-0.983787, 217, 201, 248, 264
-0.98387, 161, 313, 192, 376
-0.983912, 129, 257, 160, 320
-0.984025, 153, 225, 184, 288
-0.9841, 57, 137, 88, 200
-0.984242, 65, 33, 320, 160
-0.984261, 121, 329, 184, 392
-0.984345, 157, 257, 188, 384
-0.984363, 193, 209, 224, 272
-0.984393, 209, 353, 333, 416
-0.984395, 5, 361, 36, 424
-0.984417, 209, 321, 333, 384
-0.984527, 241, 281, 272, 344
-0.984565, 21, 337, 52, 464
-0.984574, 105, 1, 168, 500
-0.98462, 185, 209, 216, 336
-0.984629, 249, 345, 280, 408
-0.984641, 49, 113, 176, 176
-0.984673, 81, 329, 208, 392
-0.984694, 165, 201, 196, 264
-0.984722, 149, 129, 180, 256
-0.984871, 261, 337, 292, 464
-0.984935, 245, 225, 276, 288
-0.985001, 49, 209, 80, 336
-0.985004, 93, 145, 124, 272
-0.985039, 61, 249, 92, 312
-0.98505, 33, 369, 64, 432
-0.985214, 33, 401, 96, 464
-0.98524, 77, 265, 108, 328
-0.985294, 245, 177, 276, 304
-0.985361, 21, 377, 52, 440
-0.985443, 221, 129, 252, 256
-0.985527, 97, 169, 128, 232
-0.985591, 121, 313, 152, 376
-0.985626, 9, 217, 40, 280
-0.985654, 205, 233, 236, 296
-0.985675, 285, 265, 316, 328
-0.985741, 89, 281, 152, 344
-0.985819, 229, 257, 260, 320
-0.985857, 65, 329, 96, 392
-0.985891, 273, 193, 333, 320
-0.9859, 193, 369, 256, 496
-0.985953, 181, 209, 212, 272
-0.985958, 221, 177, 252, 304
-0.985963, 121, 193, 152, 320
-0.985978, 261, 345, 292, 408
-0.985987, 261, 257, 292, 320
-0.986122, 273, 225, 333, 288
-0.986125, 217, 153, 248, 216
-0.98614, 133, 257, 164, 384
-0.98615, 257, 129, 320, 384
-0.986163, 173, 209, 204, 336
-0.986197, 185, 145, 216, 272
-0.986252, 1, 17, 128, 144
-0.986259, 25, 273, 56, 400
-0.986266, 1, 153, 32, 216
-0.986297, 121, 97, 152, 224
-0.986367, 61, 369, 92, 496
-0.986379, 45, 305, 76, 368
-0.98642, 93, 321, 124, 448
-0.986464, 25, 129, 56, 256
-0.986473, 49, 113, 80, 240
-0.986482, 185, 401, 248, 464
-0.986488, 121, 369, 184, 496
-0.986571, 105, 81, 168, 144
-0.986621, 257, 145, 320, 272
-0.986633, 1, 369, 128, 432
-0.986634, 25, 273, 56, 336
-0.986725, 241, 257, 272, 384
-0.986747, 9, 265, 40, 328
-0.986821, 1, 209, 32, 336
-0.986835, 157, 249, 188, 312
-0.986841, 101, 257, 132, 384
-0.986929, 265, 201, 328, 264
-0.98698, 241, 249, 272, 312
-0.987027, 89, 17, 152, 144
-0.987029, 205, 257, 236, 384
-0.987042, 61, 305, 92, 368
-0.987089, 133, 321, 164, 384
-0.987131, 113, 17, 240, 144
-0.987202, 37, 209, 68, 336
-0.98721, 33, 1, 96, 500
-0.987264, 1, 177, 64, 240
-0.987376, 185, 233, 216, 296
-0.987421, 1, 1, 333, 128
-0.987441, 245, 153, 276, 216
-0.987442, 209, 129, 333, 192
-0.987469, 217, 1, 280, 500
-0.987489, 97, 337, 160, 400
-0.98758, 161, 209, 192, 336
-0.987594, 145, 369, 208, 496
-0.987628, 9, 393, 72, 456
-0.987722, 45, 369, 76, 496
-0.987749, 105, 409, 168, 472
-0.987857, 209, 377, 333, 440
-0.987898, 169, 289, 200, 352
-0.987903, 97, 305, 128, 368
-0.988008, 37, 257, 68, 320
-0.98801, 49, 113, 80, 176
-0.988011, 73, 1, 136, 500
-0.98804, 193, 257, 224, 384
-0.988245, 53, 369, 84, 432
-0.988262, 1, 305, 32, 432
-0.988308, 21, 201, 52, 264
-0.988311, 113, 193, 176, 224
-0.988346, 57, 161, 88, 224
-0.988465, 125, 321, 156, 448
-0.988471, 273, 241, 304, 368
-0.98853, 161, 393, 288, 456
-0.988537, 281, 313, 312, 376
-0.988574, 65, 249, 320, 312
-0.98862, 113, 57, 144, 120
-0.988652, 193, 289, 224, 352
-0.98874, 89, 181, 152, 212
-0.98876, 49, 409, 176, 472
-0.988826, 153, 1, 216, 500
-0.988854, 105, 233, 168, 264
-0.98887, 205, 201, 236, 264
-0.988897, 89, 165, 152, 196
-0.98898, 89, 153, 152, 184
-0.988988, 169, 329, 232, 392
-0.988999, 77, 81, 108, 208
-0.989034, 241, 353, 272, 480
-0.989035, 121, 145, 184, 176
-0.989123, 81, 137, 112, 200
-0.989159, 73, 193, 136, 224
-0.98921, 129, 49, 160, 176
-0.989223, 205, 161, 236, 288
-0.98924, 65, 225, 320, 288
-0.989294, 285, 241, 316, 368
-0.989354, 145, 193, 208, 224
-0.989368, 13, 273, 44, 400
-0.98938, 9, 353, 40, 480
-0.989391, 137, 417, 200, 480
-0.989451, 113, 281, 176, 344
-0.989454, 137, 297, 168, 360
-0.989459, 81, 409, 144, 472
-0.989461, 177, 33, 240, 288
-0.989473, 89, 205, 152, 236
-0.98949, 121, 329, 184, 360
-0.989542, 237, 329, 268, 392
-0.989543, 49, 369, 176, 432
-0.989554, 65, 233, 128, 264
-0.989569, 145, 225, 208, 256
-0.989577, 57, 409, 120, 472
-0.989578, 137, 305, 168, 432
-0.989621, 209, 65, 272, 320
-0.989662, 113, 417, 240, 480
-0.989675, 89, 253, 152, 284
-0.989704, 49, 137, 112, 168
-0.989717, 137, 133, 200, 164
-0.98972, 209, 197, 272, 228
-0.989736, 1, 297, 64, 360
-0.989737, 209, 97, 272, 224
-0.989738, 285, 289, 316, 352
-0.989754, 145, 237, 208, 268
-0.989839, 73, 137, 136, 168
-0.989867, 65, 369, 96, 432
-0.989907, 185, 209, 248, 240
-0.989913, 137, 173, 200, 204
-0.989922, 209, 297, 272, 328
-0.989932, 129, 157, 192, 188
-0.989941, 1, 129, 256, 192
-0.989944, 105, 65, 168, 320
-0.989944, 209, 97, 333, 224
-0.989956, 121, 253, 184, 284
-0.989989, 209, 217, 272, 248
-0.990001, 137, 97, 168, 224
-0.99001, 65, 321, 320, 384
-0.990011, 17, 261, 80, 292
-0.99003, 65, 205, 128, 236
-0.990058, 65, 185, 320, 248
-0.990058, 161, 133, 224, 164
-0.99013, 65, 221, 128, 252
-0.990167, 241, 329, 304, 360
-0.990176, 33, 349, 96, 380
-0.990203, 113, 181, 176, 212
-0.990219, 197, 321, 228, 448
-0.990236, 21, 321, 52, 384
-0.990253, 97, 217, 160, 248
-0.990272, 145, 205, 208, 236
-0.990293, 209, 149, 272, 180
-0.990294, 49, 181, 112, 212
-0.990312, 161, 417, 224, 480
-0.990316, 241, 293, 304, 324
-0.990319, 1, 249, 64, 280
-0.990322, 49, 257, 80, 320
-0.990407, 201, 233, 264, 264
-0.990422, 109, 129, 140, 256
-0.99043, 205, 265, 236, 328
-0.990444, 73, 325, 136, 356
-0.990451, 49, 149, 112, 180
-0.990453, 49, 169, 112, 200
-0.990482, 245, 193, 276, 256
-0.990496, 41, 257, 104, 288
-0.990521, 249, 1, 312, 500
-0.990525, 241, 305, 304, 336
-0.990529, 65, 265, 128, 296
-0.990534, 33, 125, 96, 156
-0.990542, 57, 209, 88, 272
-0.990545, 177, 245, 240, 276
-0.990565, 1, 273, 64, 304
-0.990576, 185, 137, 216, 200
-0.990621, 197, 313, 228, 376
-0.990621, 209, 185, 272, 216
-0.990624, 137, 317, 200, 348
-0.990639, 33, 201, 96, 232
-0.990652, 25, 161, 56, 224
-0.990663, 145, 145, 208, 176
-0.990664, 153, 333, 216, 364
-0.990671, 57, 365, 120, 396
-0.990722, 145, 281, 208, 344
-0.990753, 169, 193, 232, 224
-0.990753, 113, 169, 176, 200
-0.99077, 41, 217, 104, 248
-0.990781, 185, 221, 248, 252
-0.990797, 1, 249, 333, 312
-0.990798, 161, 317, 224, 348
-0.990814, 145, 253, 208, 284
-0.990854, 113, 205, 176, 236
-0.99086, 137, 49, 200, 176
-0.990875, 97, 65, 224, 128
-0.990926, 169, 233, 232, 264
-0.990927, 177, 257, 208, 384
-0.990928, 9, 1, 72, 500
-0.990938, 241, 281, 304, 312
-0.99094, 33, 373, 96, 404
-0.990959, 177, 1, 240, 500
-0.990971, 9, 193, 40, 256
-0.991012, 9, 369, 72, 400
-0.991031, 33, 361, 96, 392
-0.991048, 217, 285, 280, 316
-0.991065, 41, 269, 104, 300
-0.991075, 89, 369, 152, 432
-0.991092, 233, 97, 296, 352
-0.991093, 169, 369, 232, 496
-0.991137, 241, 369, 304, 432
-0.99114, 25, 245, 88, 276
-0.991172, 93, 145, 124, 208
-0.991192, 217, 337, 280, 368
-0.991206, 185, 141, 248, 172
-0.991228, 273, 337, 333, 368
-0.991242, 1, 321, 333, 384
-0.991248, 113, 273, 144, 400
-0.991248, 9, 389, 72, 420
-0.991265, 161, 157, 224, 188
-0.991316, 129, 269, 192, 300
-0.991317, 105, 329, 136, 392
-0.991329, 233, 145, 296, 176
-0.991342, 221, 129, 252, 192
-0.99136, 57, 349, 120, 380
-0.991361, 193, 265, 224, 328
-0.991369, 65, 245, 128, 276
-0.991375, 117, 257, 148, 320
-0.991379, 89, 81, 152, 112
-0.991385, 225, 229, 288, 260
-0.991431, 209, 393, 272, 456
-0.99145, 161, 181, 224, 212
-0.991466, 49, 321, 112, 352
-0.991467, 25, 233, 88, 264
-0.991471, 89, 265, 152, 296
-0.991494, 97, 69, 160, 100
-0.991496, 1, 357, 64, 388
-0.991512, 9, 401, 72, 432
-0.991529, 185, 297, 248, 328
-0.991531, 249, 357, 312, 388
-0.991535, 249, 257, 312, 288
-0.991535, 77, 345, 108, 408
-0.991559, 169, 169, 232, 200
-0.991559, 81, 337, 144, 368
-0.99156, 17, 213, 80, 244
-0.991581, 225, 329, 256, 392
-0.991589, 233, 217, 296, 248
-0.991599, 177, 333, 240, 364
-0.9916, 273, 317, 333, 348
-0.991601, 217, 257, 248, 320
-0.991604, 89, 313, 152, 344
-0.991608, 241, 317, 304, 348
-0.991617, 185, 129, 248, 160
-0.991619, 81, 125, 144, 156
-0.991626, 297, 193, 328, 320
-0.991632, 257, 269, 320, 300
-0.99164, 33, 385, 96, 416
-0.991644, 233, 181, 296, 212
-0.991658, 65, 161, 320, 224
-0.99166, 41, 281, 104, 312
-0.991664, 233, 197, 296, 228
-0.99167, 65, 377, 128, 408
-0.991675, 129, 1, 192, 500
-0.991682, 113, 317, 176, 348
-0.991685, 209, 161, 272, 192
-0.991704, 37, 161, 68, 288
-0.991717, 109, 161, 140, 224
-0.991739, 41, 233, 72, 296
-0.991769, 233, 157, 296, 188
-0.991829, 209, 313, 272, 344
-0.991835, 185, 317, 248, 348
-0.991842, 17, 289, 80, 320
-0.991848, 17, 189, 80, 220
-0.991848, 41, 393, 72, 456
-0.99185, 125, 57, 156, 120
-0.991852, 161, 353, 288, 416
-0.991855, 145, 393, 208, 456
-0.991856, 1, 393, 128, 456
-0.991857, 209, 261, 272, 292
-0.991874, 225, 249, 288, 280
-0.991875, 25, 137, 88, 168
-0.991882, 209, 173, 272, 204
-0.991897, 185, 161, 216, 224
-0.991899, 285, 289, 316, 416
-0.991905, 165, 129, 196, 160
-0.991913, 237, 361, 268, 424
-0.991914, 33, 65, 160, 128
-0.991926, 161, 105, 288, 168
-0.99194, 33, 305, 64, 368
-0.991945, 265, 289, 328, 320
-0.991974, 169, 337, 200, 464
-0.991979, 185, 181, 248, 212
-0.991983, 17, 169, 80, 200
-0.99199, 65, 277, 128, 308
-0.992012, 237, 97, 268, 224
-0.992028, 1, 233, 64, 264
-0.992032, 97, 141, 160, 172
-0.992075, 113, 81, 176, 112
-0.992125, 241, 341, 304, 372
-0.992127, 209, 137, 272, 168
-0.992129, 49, 333, 112, 364
-0.992142, 161, 305, 224, 336
-0.992147, 81, 97, 144, 160
-0.992159, 165, 153, 196, 184
-0.992163, 149, 273, 180, 336
-0.99219, 77, 193, 108, 224
-0.992194, 273, 193, 304, 320
-0.992198, 257, 225, 288, 288
-0.992203, 105, 341, 168, 372
-0.992213, 25, 153, 88, 184
-0.992222, 193, 277, 256, 308
-0.992231, 21, 137, 52, 200
-0.992245, 121, 169, 152, 200
-0.992258, 89, 233, 120, 264
-0.992303, 121, 185, 152, 216
-0.992312, 121, 153, 152, 184
-0.992325, 141, 249, 172, 280
-0.992329, 37, 113, 68, 240
-0.99233, 185, 97, 216, 224
-0.992348, 97, 385, 224, 448
-0.992354, 69, 133, 100, 164
-0.992373, 165, 141, 196, 172
-0.992391, 137, 229, 168, 260
-0.992403, 21, 253, 52, 284
-0.992417, 209, 121, 272, 184
-0.992419, 137, 197, 168, 228
-0.992423, 165, 169, 196, 200
-0.992424, 49, 161, 80, 288
-0.992426, 77, 169, 108, 200
-0.992429, 77, 181, 108, 212
-0.992455, 69, 217, 100, 248
-0.992485, 165, 193, 196, 224
-0.992497, 97, 205, 128, 236
-0.992518, 13, 265, 44, 296
-0.992523, 77, 157, 108, 188
-0.992537, 149, 237, 180, 268
-0.99254, 9, 253, 40, 284
-0.992564, 121, 141, 152, 172
-0.992568, 217, 297, 248, 328
-0.992619, 125, 329, 156, 360
-0.992623, 157, 321, 188, 448
-0.992632, 85, 217, 116, 248
-0.992642, 233, 185, 264, 216
-0.992644, 229, 213, 260, 244
-0.992649, 121, 237, 152, 268
-0.992649, 133, 185, 164, 216
-0.992652, 233, 141, 264, 172
-0.992658, 77, 145, 108, 176
-0.992684, 165, 181, 196, 212
-0.992698, 65, 65, 96, 192
-0.992708, 73, 57, 136, 120
-0.992711, 217, 229, 248, 260
-0.992717, 61, 205, 92, 236
-0.992725, 129, 89, 192, 152
-0.992732, 261, 321, 292, 352
-0.992745, 77, 357, 108, 388
-0.992748, 145, 325, 176, 356
-0.99275, 69, 229, 100, 260
-0.992763, 149, 181, 180, 212
-0.992765, 57, 349, 88, 380
-0.992779, 113, 225, 144, 256
-0.992783, 97, 249, 128, 280
-0.992799, 25, 241, 56, 272
-0.99281, 197, 233, 228, 264
-0.992812, 81, 205, 112, 236
-0.99282, 1, 265, 32, 296
-0.992826, 157, 317, 188, 348
-0.992827, 237, 173, 268, 204
-0.992829, 101, 237, 132, 268
-0.992843, 129, 261, 160, 292
-0.992849, 233, 197, 264, 228
-0.992851, 21, 389, 52, 420
-0.992856, 237, 161, 268, 192
-0.992867, 77, 241, 108, 272
-0.992868, 25, 269, 56, 300
-0.992876, 141, 261, 172, 292
-0.992878, 97, 221, 128, 252
-0.992883, 113, 81, 144, 112
-0.992883, 137, 337, 168, 368
-0.992887, 121, 197, 152, 228
-0.992892, 97, 189, 128, 220
-0.992899, 233, 301, 264, 332
-0.992902, 157, 333, 188, 364
-0.992904, 45, 289, 76, 320
-0.992906, 69, 265, 100, 296
-0.992912, 25, 353, 56, 384
-0.992914, 57, 173, 88, 204
-0.992931, 153, 193, 184, 224
-0.992935, 225, 285, 256, 316
-0.99294, 97, 321, 128, 352
-0.992949, 165, 257, 196, 288
-0.992963, 153, 253, 184, 284
-0.992965, 77, 333, 108, 364
-0.99297, 209, 209, 240, 240
-0.992983, 73, 369, 104, 400
-0.992988, 149, 205, 180, 236
-0.993001, 109, 337, 140, 368
-0.993007, 201, 297, 232, 328
-0.993008, 13, 233, 44, 264
-0.993012, 81, 265, 112, 296
-0.993014, 177, 121, 192, 184
-0.993024, 77, 317, 108, 348
-0.993026, 273, 261, 304, 292
-0.993035, 261, 345, 292, 376
-0.993036, 141, 217, 172, 248
-0.993046, 13, 361, 44, 392
-0.993054, 185, 225, 216, 256
-0.993054, 109, 249, 140, 280
-0.993056, 265, 285, 296, 316
-0.993058, 49, 197, 176, 228
-0.993062, 153, 225, 184, 256
-0.993064, 153, 225, 168, 288
-0.993067, 49, 393, 80, 424
-0.993068, 225, 153, 256, 184
-0.993071, 185, 245, 216, 276
-0.993073, 129, 249, 160, 280
-0.993075, 49, 121, 80, 152
-0.99308, 249, 129, 280, 256
-0.993084, 45, 377, 76, 408
-0.993085, 193, 201, 224, 232
-0.99309, 93, 81, 124, 112
-0.99309, 29, 285, 60, 316
-0.993097, 61, 145, 92, 176
-0.9931, 269, 305, 300, 336
-0.993101, 217, 197, 248, 228
-0.993111, 85, 369, 116, 400
-0.993112, 1, 345, 333, 408
-0.993112, 33, 401, 64, 432
-0.993116, 233, 233, 264, 264
-0.993117, 57, 277, 88, 308
-0.993118, 145, 313, 176, 344
-0.993118, 249, 329, 280, 360
-0.993119, 173, 317, 204, 348
-0.993124, 109, 201, 140, 232
-0.993128, 33, 389, 64, 420
-0.993132, 57, 157, 88, 188
-0.99314, 197, 337, 228, 368
-0.993142, 73, 253, 104, 284
-0.993145, 97, 261, 128, 292
-0.993147, 57, 193, 88, 224
-0.993152, 57, 133, 88, 164
-0.993152, 61, 361, 92, 392
-0.993157, 277, 337, 308, 368
-0.993158, 225, 173, 256, 204
-0.99316, 37, 273, 68, 304
-0.993163, 165, 233, 196, 264
-0.993166, 65, 333, 96, 364
-0.993172, 1, 365, 32, 396
-0.993174, 25, 229, 56, 260
-0.993175, 81, 133, 112, 164
-0.993175, 13, 221, 44, 252
-0.993178, 77, 345, 108, 376
-0.99319, 97, 177, 128, 208
-0.993303, 1, 193, 128, 224
-0.993309, 209, 401, 333, 464
-0.993373, 81, 249, 208, 280
-0.993381, 1, 257, 32, 384
-0.993403, 1, 289, 333, 352
-0.993456, 1, 345, 256, 408
-0.993517, 239, 137, 254, 200
-0.993531, 109, 321, 140, 448
-0.99354, 229, 353, 260, 480
-0.993558, 91, 233, 106, 296
-0.993636, 149, 81, 180, 208
-0.993648, 1, 213, 128, 244
-0.993652, 1, 165, 128, 196
-0.993671, 161, 417, 288, 480
-0.993679, 93, 369, 124, 496
-0.993719, 71, 193, 86, 256
-0.993738, 65, 297, 320, 360
-0.993739, 147, 193, 162, 256
-0.993761, 159, 233, 174, 296
-0.993783, 185, 353, 248, 416
-0.99383, 129, 249, 256, 280
-0.993854, 169, 129, 184, 192
-0.993867, 193, 297, 320, 328
-0.993916, 1, 149, 128, 180
-0.993917, 65, 273, 320, 336
-0.99394, 147, 233, 162, 296
-0.993948, 275, 297, 290, 360
-0.993964, 159, 201, 174, 264
-0.993972, 273, 337, 304, 464
-0.994004, 27, 233, 42, 296
-0.994034, 93, 201, 108, 264
-0.994072, 1, 245, 128, 276
-0.994095, 1, 81, 64, 208
-0.994161, 153, 201, 168, 264
-0.994188, 99, 225, 114, 288
-0.994192, 131, 137, 146, 200
-0.994222, 81, 217, 96, 280
-0.994241, 33, 369, 288, 432
-0.99425, 1, 225, 333, 288
-0.994255, 49, 141, 176, 172
-0.994272, 81, 129, 96, 192
-0.994286, 33, 181, 160, 212
-0.994321, 81, 237, 208, 268
-0.99434, 141, 177, 156, 240
-0.994419, 209, 337, 240, 464
-0.994426, 121, 57, 184, 120
-0.994445, 1, 233, 128, 264
-0.994451, 1, 261, 128, 292
-0.99448, 81, 261, 208, 292
-0.994508, 185, 337, 216, 464
-0.994542, 129, 185, 256, 216
-0.994594, 141, 233, 156, 296
-0.994646, 65, 325, 192, 356
-0.994708, 133, 233, 148, 296
-0.99473, 257, 425, 320, 488
-0.994732, 193, 285, 320, 316
-0.994752, 165, 97, 196, 352
-0.994756, 165, 65, 196, 192
-0.994788, 113, 1, 176, 128
-0.994815, 71, 137, 86, 200
-0.99483, 1, 105, 128, 168
-0.994839, 123, 153, 138, 216
-0.994847, 69, 97, 100, 352
-0.994886, 37, 257, 52, 320
-0.994929, 239, 185, 254, 248
-0.994931, 129, 237, 256, 268
-0.994946, 193, 333, 320, 364
-0.994946, 273, 1, 333, 500
-0.995008, 233, 225, 248, 288
-0.99501, 161, 197, 288, 228
-0.995011, 77, 193, 108, 448
-0.995017, 257, 193, 288, 320
-0.995024, 81, 225, 208, 256
-0.995037, 129, 145, 256, 176
-0.995053, 113, 225, 128, 288
-0.995064, 21, 241, 36, 304
-0.99513, 99, 201, 114, 264
-0.995134, 213, 289, 228, 352
-0.995146, 133, 161, 148, 224
-0.99517, 107, 201, 122, 264
-0.995171, 287, 289, 302, 352
-0.995179, 239, 161, 254, 224
-0.9952, 71, 169, 86, 232
-0.995236, 85, 241, 100, 304
-0.995243, 97, 249, 112, 312
-0.995262, 193, 309, 320, 340
-0.995271, 187, 201, 202, 264
-0.995272, 281, 289, 296, 352
-0.995323, 239, 225, 254, 288
-0.995332, 143, 257, 158, 320
-0.995349, 221, 281, 236, 344
-0.995366, 129, 209, 256, 240
-0.995372, 281, 313, 296, 376
-0.995375, 49, 153, 176, 184
-0.995381, 107, 233, 122, 296
-0.995382, 1, 353, 128, 384
-0.995401, 145, 261, 272, 292
-0.995444, 1, 137, 128, 168
-0.995457, 271, 321, 286, 384
-0.995462, 219, 305, 234, 368
-0.995492, 1, 185, 333, 248
-0.995497, 231, 201, 246, 264
-0.995512, 81, 209, 208, 240
-0.995524, 69, 337, 84, 400
-0.995555, 1, 321, 128, 352
-0.995568, 209, 225, 333, 256
-0.995617, 41, 345, 56, 408
-0.995641, 1, 369, 333, 432
-0.995656, 285, 249, 300, 312
-0.995681, 193, 261, 320, 292
-0.995686, 209, 189, 333, 220
-0.995688, 153, 249, 168, 312
-0.995718, 49, 281, 64, 344
-0.995738, 145, 317, 272, 348
-0.995745, 23, 209, 38, 272
-0.995756, 145, 297, 272, 328
-0.995764, 49, 129, 176, 160
-0.995771, 121, 129, 152, 384
-0.995782, 21, 193, 52, 448
-0.995788, 57, 281, 72, 344
-0.995815, 65, 193, 96, 448
-0.995816, 275, 257, 290, 320
-0.995828, 233, 129, 264, 384
-0.995834, 263, 321, 278, 384
-0.995834, 125, 129, 140, 192
-0.995835, 63, 345, 78, 408
-0.995887, 197, 217, 212, 280
-0.995894, 97, 129, 224, 160
-0.995897, 117, 201, 132, 264
-0.995898, 171, 297, 186, 360
-0.995908, 121, 385, 184, 448
-0.995914, 153, 369, 184, 496
-0.995917, 257, 321, 272, 384
-0.995927, 15, 249, 30, 312
-0.995929, 173, 153, 188, 216
-0.995939, 27, 345, 42, 408
-0.995949, 113, 197, 240, 228
-0.995954, 77, 193, 92, 256
-0.995954, 49, 345, 64, 408
-0.995954, 265, 297, 280, 360
-0.995965, 83, 265, 98, 328
-0.995967, 1, 113, 32, 240
-0.995975, 83, 313, 98, 376
-0.995982, 37, 257, 68, 500
-0.996018, 291, 265, 306, 328
-0.996026, 159, 257, 174, 320
-0.996028, 229, 289, 244, 352
-0.996037, 75, 257, 90, 320
-0.996055, 65, 313, 192, 344
-0.996068, 129, 221, 256, 252
-0.996088, 145, 133, 272, 164
-0.99609, 273, 153, 333, 216
-0.996094, 137, 353, 168, 480
-0.99611, 81, 185, 208, 216
-0.99611, 209, 273, 333, 304
-0.996114, 49, 273, 176, 304
-0.996124, 33, 409, 288, 472
-0.996127, 113, 1, 144, 128
-0.996133, 243, 249, 258, 312
-0.99614, 167, 185, 182, 248
-0.996142, 247, 217, 262, 280
-0.996145, 277, 337, 292, 400
-0.996179, 93, 17, 124, 144
-0.996189, 33, 233, 48, 296
-0.996197, 197, 305, 212, 368
-0.996199, 87, 129, 102, 192
-0.996199, 209, 161, 333, 192
-0.996222, 137, 257, 152, 320
-0.996234, 93, 313, 108, 376
-0.996246, 207, 289, 222, 352
-0.99625, 139, 209, 154, 272
-0.99625, 209, 213, 333, 244
-0.996266, 231, 137, 246, 200
-0.99627, 123, 177, 138, 240
-0.996273, 161, 161, 288, 192
-0.996273, 177, 345, 304, 376
-0.996299, 63, 281, 78, 344
-0.996305, 289, 145, 320, 272
-0.996306, 209, 433, 333, 496
-0.99631, 245, 297, 260, 360
-0.996321, 135, 185, 150, 248
-0.996324, 155, 305, 170, 368
-0.996326, 187, 225, 202, 288
-0.996337, 169, 377, 232, 440
-0.99634, 33, 1, 96, 256
-0.996343, 65, 337, 192, 368
-0.996393, 53, 257, 84, 500
-0.99641, 59, 305, 74, 368
-0.996432, 129, 173, 256, 204
-0.996437, 193, 237, 320, 268
-0.996438, 91, 257, 106, 320
-0.996442, 249, 225, 280, 480
-0.996446, 233, 257, 248, 320
-0.996458, 43, 265, 58, 328
-0.996463, 235, 289, 250, 352
-0.996476, 15, 361, 30, 424
-0.996484, 233, 105, 296, 168
-0.996488, 113, 361, 240, 424
-0.99649, 165, 233, 180, 296
-0.996499, 165, 161, 180, 224
-0.996504, 1, 105, 256, 168
-0.996515, 209, 249, 333, 280
-0.996521, 209, 149, 333, 180
-0.996527, 81, 97, 112, 352
-0.996538, 209, 201, 333, 232
-0.996544, 193, 321, 320, 352
-0.996548, 9, 193, 40, 448
-0.996559, 133, 161, 164, 416
-0.996596, 41, 129, 56, 192
-0.996598, 109, 369, 140, 496
-0.996599, 89, 225, 120, 480
-0.996602, 7, 249, 22, 312
-0.996604, 35, 345, 50, 408
-0.996606, 263, 345, 278, 408
-0.996606, 37, 369, 52, 432
-0.996626, 187, 305, 202, 368
-0.996629, 237, 137, 252, 168
-0.996636, 15, 153, 30, 216
-0.996636, 255, 225, 270, 288
-0.996649, 87, 169, 102, 232
-0.99665, 225, 201, 240, 264
-0.996664, 165, 313, 180, 376
-0.996667, 113, 329, 240, 360
-0.996668, 205, 201, 220, 264
-0.996676, 55, 369, 70, 432
-0.99669, 97, 41, 224, 104
-0.9967, 185, 225, 216, 480
-0.996704, 65, 165, 192, 196
-0.99671, 181, 313, 196, 376
-0.99671, 21, 369, 36, 432
-0.996723, 75, 329, 90, 392
-0.996747, 165, 257, 180, 320
-0.996748, 161, 105, 224, 168
-0.996761, 209, 177, 333, 208
-0.99678, 261, 225, 292, 480
-0.996785, 127, 233, 142, 296
-0.996804, 269, 249, 284, 312
-0.996807, 201, 193, 232, 448
-0.996826, 17, 81, 48, 208
-0.996827, 211, 225, 226, 288
-0.996839, 55, 345, 70, 408
-0.996847, 1, 273, 128, 304
-0.996853, 17, 333, 144, 364
-0.996856, 251, 329, 266, 392
-0.996863, 259, 297, 274, 360
-0.996866, 203, 225, 218, 288
-0.996868, 249, 185, 264, 248
-0.99687, 121, 369, 152, 496
-0.996872, 73, 305, 88, 368
-0.996904, 1, 129, 333, 192
-0.996912, 253, 281, 268, 344
-0.996912, 149, 305, 164, 368
-0.996918, 23, 265, 38, 328
-0.996921, 227, 225, 242, 288
-0.996921, 81, 129, 96, 160
-0.996948, 145, 161, 176, 416
-0.996958, 1, 161, 333, 224
-0.996966, 33, 41, 160, 104
-0.996998, 57, 113, 120, 176
-0.997017, 81, 85, 208, 116
-0.997044, 17, 373, 144, 404
-0.997056, 71, 205, 86, 236
-0.997067, 23, 253, 38, 284
-0.997089, 217, 81, 248, 208
-0.997114, 1, 397, 128, 428
-0.997191, 169, 133, 184, 164
-0.997194, 129, 137, 144, 168
-0.9972, 141, 185, 156, 216
-0.997203, 153, 245, 168, 276
-0.997209, 217, 193, 248, 448
-0.997227, 177, 125, 192, 156
-0.997228, 93, 217, 108, 248
-0.99724, 105, 161, 136, 416
-0.997256, 37, 129, 68, 384
-0.997265, 197, 369, 228, 496
-0.997286, 49, 129, 80, 384
-0.997299, 93, 237, 108, 268
-0.997313, 165, 193, 196, 448
-0.997321, 141, 257, 156, 288
-0.997337, 281, 257, 312, 500
-0.997357, 265, 369, 328, 432
-0.997384, 209, 105, 333, 168
-0.997385, 17, 385, 144, 416
-0.997385, 209, 389, 333, 420
-0.997396, 147, 197, 162, 228
-0.997398, 1, 125, 128, 156
-0.997407, 29, 245, 44, 276
-0.99744, 97, 273, 224, 304
-0.997443, 113, 341, 240, 372
-0.997472, 103, 229, 118, 260
-0.997478, 49, 285, 176, 316
-0.997501, 159, 253, 174, 284
-0.997527, 209, 365, 333, 396
-0.997555, 101, 257, 132, 500
-0.997563, 65, 117, 192, 148
-0.997575, 153, 229, 168, 260
-0.997581, 177, 129, 208, 384
-0.997587, 81, 217, 96, 248
-0.997597, 133, 173, 148, 204
-0.997606, 71, 141, 86, 172
-0.997635, 297, 241, 328, 368
-0.997669, 49, 349, 176, 380
-0.997676, 17, 253, 32, 284
-0.997689, 157, 205, 172, 236
-0.997695, 147, 225, 162, 256
-0.997707, 147, 253, 162, 284
-0.997708, 81, 73, 208, 104
-0.997719, 49, 361, 176, 392
-0.997722, 123, 185, 138, 216
-0.997725, 225, 293, 240, 324
-0.997747, 163, 205, 178, 236
-0.997755, 159, 241, 174, 272
-0.997757, 71, 193, 86, 224
-0.99776, 37, 253, 52, 284
-0.997772, 239, 173, 254, 204
-0.997792, 209, 377, 333, 408
-0.997804, 123, 173, 138, 204
-0.997806, 33, 85, 160, 116
-0.997808, 141, 229, 156, 260
-0.99781, 33, 413, 160, 444
-0.99781, 15, 265, 30, 296
-0.997818, 257, 393, 320, 456
-0.99782, 145, 241, 160, 272
-0.997822, 123, 157, 138, 188
-0.997825, 277, 305, 292, 336
-0.997825, 235, 297, 250, 328
-0.997828, 187, 209, 202, 240
-0.99783, 145, 121, 272, 152
-0.997831, 231, 213, 246, 244
-0.997839, 239, 161, 254, 192
-0.997841, 71, 173, 86, 204
-0.997843, 1, 293, 128, 324
-0.997846, 131, 161, 146, 192
-0.997855, 197, 229, 212, 260
-0.997858, 91, 265, 106, 296
-0.997859, 179, 141, 194, 172
-0.997862, 135, 185, 150, 216
-0.997873, 135, 261, 150, 292
-0.997874, 301, 369, 332, 496
-0.997875, 29, 261, 44, 292
-0.997876, 85, 269, 100, 300
-0.997876, 145, 285, 272, 316
-0.997882, 149, 257, 180, 500
-0.997885, 71, 153, 86, 184
-0.997891, 1, 113, 64, 176
-0.997892, 97, 301, 224, 332
-0.9979, 193, 401, 320, 432
-0.997902, 1, 97, 32, 352
-0.997903, 241, 149, 256, 180
-0.997907, 239, 185, 254, 216
-0.997921, 25, 97, 56, 352
-0.997922, 87, 321, 102, 352
-0.997939, 153, 217, 168, 248
-0.997959, 7, 253, 22, 284
-0.997962, 57, 289, 72, 320
-0.997969, 133, 245, 148, 276
-0.997972, 221, 97, 252, 352
-0.997972, 245, 129, 276, 384
-0.997974, 33, 73, 160, 104
-0.997978, 153, 257, 168, 288
-0.997987, 165, 317, 180, 348
-0.997988, 169, 153, 184, 184
-0.997992, 93, 65, 124, 320
-0.997998, 99, 205, 114, 236
-0.998008, 49, 289, 64, 320
-0.998012, 21, 241, 36, 272
-0.998012, 219, 297, 234, 328
-0.99803, 101, 217, 116, 248
-0.998033, 97, 421, 224, 452
-0.998034, 121, 81, 136, 112
-0.998037, 139, 245, 154, 276
-0.998049, 153, 329, 168, 360
-0.998053, 77, 265, 92, 296
-0.998057, 103, 253, 118, 284
-0.998059, 273, 321, 288, 352
-0.99806, 137, 257, 168, 500
-0.998063, 113, 241, 128, 272
-0.998066, 171, 185, 186, 216
-0.998066, 233, 285, 248, 316
-0.998069, 1, 409, 333, 472
-0.998074, 269, 129, 300, 384
-0.998078, 127, 81, 142, 112
-0.998086, 161, 413, 288, 444
-0.998097, 227, 225, 242, 256
-0.998098, 113, 81, 128, 112
-0.9981, 209, 137, 333, 168
-0.998101, 115, 205, 130, 236
-0.998114, 239, 197, 254, 228
-0.998122, 147, 325, 162, 356
-0.998128, 161, 273, 288, 304
-0.998129, 167, 257, 182, 288
-0.998132, 153, 65, 184, 320
-0.998137, 135, 225, 150, 256
-0.998148, 107, 205, 122, 236
-0.998149, 105, 241, 120, 272
-0.998152, 21, 265, 36, 296
-0.998163, 243, 301, 258, 332
-0.998168, 159, 317, 174, 348
-0.998175, 71, 341, 86, 372
-0.998179, 237, 225, 268, 480
-0.998179, 77, 277, 92, 308
-0.998182, 89, 205, 104, 236
-0.998183, 239, 213, 254, 244
-0.998187, 35, 353, 50, 384
-0.998194, 159, 229, 174, 260
-0.998208, 283, 333, 298, 364
-0.99821, 65, 205, 80, 236
-0.998214, 107, 81, 122, 112
-0.998215, 9, 265, 24, 296
-0.998218, 87, 229, 102, 260
-0.998218, 113, 229, 128, 260
-0.998226, 213, 297, 228, 328
-0.998229, 91, 361, 106, 392
-0.998232, 273, 341, 288, 372
-0.998232, 285, 193, 316, 320
-0.998235, 123, 145, 138, 176
-0.998248, 85, 361, 100, 392
-0.998251, 267, 349, 282, 380
-0.998254, 25, 229, 40, 260
-0.998254, 141, 329, 156, 360
-0.99826, 283, 301, 298, 332
-0.998269, 33, 273, 48, 304
-0.998279, 231, 193, 246, 224
-0.99828, 281, 285, 296, 316
-0.99828, 97, 261, 112, 292
-0.998281, 225, 209, 240, 240
-0.998286, 63, 377, 78, 408
-0.998291, 171, 173, 186, 204
-0.998291, 187, 221, 202, 252
-0.998294, 81, 345, 96, 376
-0.998301, 119, 229, 134, 260
-0.998302, 57, 393, 72, 424
-0.998313, 1, 309, 128, 340
-0.998319, 81, 333, 96, 364
-0.998323, 189, 237, 204, 268
-0.998329, 209, 237, 224, 268
-0.998333, 131, 149, 146, 180
-0.998336, 231, 149, 246, 180
-0.998339, 71, 129, 86, 160
-0.998342, 163, 193, 178, 224
-0.998342, 249, 225, 264, 256
-0.998342, 71, 365, 86, 396
-0.998344, 147, 209, 162, 240
-0.998357, 239, 129, 254, 256
-0.998399, 113, 197, 176, 212
-0.998401, 87, 225, 102, 352
-0.998403, 97, 191, 128, 206
-0.998405, 137, 227, 168, 242
-0.998405, 137, 83, 168, 98
-0.998405, 117, 139, 148, 154
-0.998405, 21, 359, 52, 374
-0.998406, 57, 191, 88, 206
-0.998407, 205, 309, 236, 324
-0.998408, 145, 273, 176, 288
-0.998409, 121, 335, 152, 350
-0.998411, 157, 335, 188, 350
-0.998411, 97, 203, 128, 218
-0.998412, 57, 179, 88, 194
-0.998412, 41, 283, 72, 298
-0.998413, 269, 289, 300, 304
-0.998413, 205, 227, 236, 242
-0.998414, 121, 203, 152, 218
-0.998415, 273, 303, 304, 318
-0.998416, 181, 345, 212, 360
-0.998416, 73, 269, 104, 284
-0.998416, 209, 97, 240, 352
-0.998419, 89, 195, 152, 210
-0.99842, 237, 169, 268, 184
-0.998422, 261, 333, 292, 348
-0.998423, 9, 255, 40, 270
-0.998424, 9, 363, 40, 378
-0.998425, 61, 351, 92, 366
-0.998425, 161, 357, 288, 388
-0.998426, 233, 225, 264, 240
-0.998427, 69, 235, 100, 250
-0.998427, 169, 337, 200, 352
-0.998429, 89, 207, 152, 222
-0.998429, 89, 181, 152, 196
-0.998429, 205, 297, 236, 312
-0.99843, 149, 185, 180, 200
-0.998431, 85, 213, 116, 228
-0.998431, 217, 233, 248, 248
-0.998433, 221, 291, 252, 306
-0.998433, 81, 377, 112, 392
-0.998433, 125, 269, 156, 284
-0.998434, 57, 173, 88, 188
-0.998434, 229, 217, 260, 232
-0.998434, 121, 145, 184, 160
-0.998436, 113, 191, 176, 206
-0.998437, 109, 339, 140, 354
-0.998439, 25, 247, 56, 262
-0.998439, 149, 257, 180, 272
-0.998439, 73, 201, 136, 216
-0.998439, 153, 205, 184, 220
-0.99844, 109, 233, 140, 248
-0.99844, 85, 219, 116, 234
-0.998441, 81, 209, 96, 336
-0.998443, 193, 233, 224, 248
-0.998444, 113, 203, 176, 218
-0.998445, 193, 207, 224, 222
-0.998446, 237, 199, 268, 214
-0.998446, 89, 155, 152, 170
-0.998446, 133, 257, 164, 272
-0.998446, 89, 167, 152, 182
-0.998447, 61, 375, 92, 390
-0.998448, 193, 343, 224, 358
-0.998448, 237, 177, 268, 192
-0.998448, 89, 175, 152, 190
-0.998449, 45, 291, 76, 306
-0.998451, 145, 341, 176, 356
-0.998452, 89, 187, 152, 202
-0.998453, 25, 271, 56, 286
-0.998453, 89, 161, 152, 176
-0.998454, 13, 277, 44, 292
-0.998454, 193, 239, 224, 254
-0.998457, 169, 127, 200, 142
-0.998458, 237, 161, 268, 176
-0.998458, 73, 369, 104, 384
-0.998458, 105, 249, 136, 264
-0.998458, 9, 261, 40, 276
-0.998459, 137, 207, 168, 222
-0.998459, 81, 113, 96, 240
-0.998461, 73, 215, 136, 230
-0.998462, 125, 249, 156, 264
-0.998462, 109, 207, 140, 222
-0.998463, 149, 191, 180, 206
-0.998464, 97, 197, 128, 212
-0.998465, 105, 235, 168, 250
-0.998465, 145, 193, 208, 208
-0.998465, 25, 259, 56, 274
-0.998466, 133, 195, 164, 210
-0.998466, 145, 331, 176, 346
-0.998467, 25, 279, 56, 294
-0.998471, 137, 151, 200, 166
-0.998471, 97, 209, 112, 336
-0.998471, 141, 241, 172, 256
-0.998473, 233, 151, 264, 166
-0.998475, 21, 253, 52, 268
-0.998476, 233, 187, 264, 202
-0.998477, 121, 145, 152, 160
-0.998478, 121, 87, 152, 102
-0.998479, 61, 211, 92, 226
-0.998479, 89, 149, 152, 164
-0.998481, 81, 323, 112, 338
-0.998482, 141, 263, 172, 278
-0.998482, 265, 177, 328, 240
-0.998484, 133, 189, 164, 204
-0.998485, 165, 203, 196, 218
-0.998486, 265, 327, 296, 342
-0.998488, 89, 87, 152, 102
-0.998488, 77, 141, 108, 156
-0.998488, 89, 87, 120, 102
-0.998491, 33, 137, 96, 152
-0.998494, 13, 267, 44, 282
-0.998494, 77, 207, 108, 222
-0.998495, 137, 139, 200, 154
-0.998496, 69, 229, 100, 244
-0.998496, 145, 205, 208, 220
-0.998498, 65, 207, 128, 222
-0.998499, 69, 217, 100, 232
-0.9985, 217, 297, 248, 312
-0.998502, 137, 185, 200, 200
-0.998502, 117, 239, 148, 254
-0.998502, 145, 199, 208, 214
-0.998503, 233, 193, 264, 208
-0.998503, 233, 145, 264, 160
-0.998504, 113, 243, 176, 258
-0.998504, 89, 225, 120, 240
-0.998504, 97, 209, 128, 224
-0.998504, 209, 205, 272, 220
-0.998506, 165, 197, 196, 212
-0.998506, 121, 151, 152, 166
-0.998506, 241, 333, 304, 348
-0.998507, 185, 211, 248, 226
-0.998508, 49, 143, 112, 158
-0.998508, 77, 153, 108, 168
-0.998509, 69, 223, 100, 238
-0.99851, 129, 157, 192, 172
-0.998511, 209, 221, 272, 236
-0.998512, 129, 163, 192, 178
-0.998516, 137, 133, 200, 148
-0.998516, 121, 329, 152, 344
-0.998516, 161, 139, 224, 154
-0.998516, 137, 337, 200, 352
-0.998517, 113, 249, 176, 264
-0.998517, 121, 189, 152, 204
-0.998518, 129, 169, 192, 184
-0.998518, 209, 199, 272, 214
-0.998521, 73, 173, 104, 188
-0.998521, 73, 159, 104, 174
-0.998522, 137, 179, 200, 194
-0.998525, 145, 239, 208, 254
-0.998525, 81, 231, 144, 246
-0.998525, 249, 297, 312, 312
-0.998526, 73, 143, 136, 158
-0.998526, 121, 255, 184, 270
-0.998527, 113, 333, 176, 348
-0.998529, 49, 371, 112, 386
-0.998529, 189, 129, 220, 384
-0.998529, 149, 197, 180, 212
-0.99853, 77, 147, 108, 162
-0.998531, 89, 325, 152, 340
-0.998532, 65, 269, 128, 284
-0.998532, 73, 249, 136, 264
-0.998533, 57, 191, 120, 206
-0.998533, 113, 157, 240, 188
-0.998533, 201, 299, 264, 314
-0.998533, 109, 85, 140, 100
-0.998534, 49, 173, 112, 188
-0.998534, 161, 369, 288, 400
-0.998534, 49, 149, 112, 164
-0.998535, 113, 185, 176, 200
-0.998537, 1, 263, 64, 278
-0.998537, 165, 187, 196, 202
-0.998539, 145, 229, 208, 244
-0.998539, 121, 197, 152, 212
-0.998539, 185, 231, 248, 246
-0.998541, 177, 341, 240, 356
-0.998544, 81, 221, 144, 236
-0.998545, 165, 181, 196, 196
-0.998545, 133, 233, 164, 248
-0.998548, 33, 209, 96, 224
-0.998551, 161, 133, 224, 148
-0.998552, 1, 279, 64, 294
-0.998554, 49, 167, 112, 182
-0.998554, 49, 155, 112, 170
-0.998556, 73, 237, 136, 252
-0.998556, 73, 167, 104, 182
-0.998556, 185, 221, 248, 236
-0.998556, 41, 263, 104, 278
-0.998557, 57, 221, 120, 236
-0.998558, 153, 245, 216, 260
-0.998558, 93, 239, 124, 254
-0.998558, 169, 201, 232, 216
-0.998559, 121, 265, 184, 280
-0.998559, 133, 65, 164, 320
-0.998559, 73, 135, 136, 150
-0.998559, 77, 191, 108, 206
-0.998559, 49, 179, 112, 194
-0.99856, 209, 151, 272, 166
-0.99856, 209, 193, 272, 208
-0.998561, 105, 229, 168, 244
-0.998562, 117, 177, 148, 192
-0.998562, 33, 131, 96, 146
-0.998562, 49, 161, 112, 176
-0.998563, 77, 179, 108, 194
-0.998564, 137, 201, 168, 216
-0.998564, 165, 169, 196, 184
-0.998564, 97, 257, 160, 272
-0.998564, 121, 165, 152, 180
-0.998565, 161, 149, 224, 164
-0.998565, 113, 85, 176, 100
-0.998566, 113, 339, 176, 354
-0.998566, 41, 215, 104, 230
-0.998567, 133, 335, 164, 350
-0.998567, 165, 175, 196, 190
-0.998567, 165, 149, 196, 164
-0.998569, 57, 185, 120, 200
-0.998571, 145, 255, 208, 270
-0.998571, 1, 257, 64, 272
-0.998571, 77, 201, 108, 216
-0.998572, 1, 365, 64, 380
-0.998572, 209, 227, 272, 242
-0.998573, 113, 179, 176, 194
-0.998573, 173, 113, 188, 240
-0.998573, 145, 251, 176, 266
-0.998574, 165, 161, 196, 176
-0.998574, 121, 157, 152, 172
-0.998574, 137, 343, 200, 358
-0.998574, 209, 145, 272, 160
-0.998575, 161, 155, 224, 170
-0.998575, 209, 211, 272, 226
-0.998576, 121, 171, 152, 186
-0.998576, 185, 143, 248, 158
-0.998576, 97, 213, 160, 228
-0.998577, 33, 377, 96, 392
-0.998578, 25, 271, 88, 286
-0.998579, 193, 237, 256, 252
-0.99858, 33, 199, 96, 214
-0.998581, 89, 233, 120, 248
-0.998581, 249, 327, 312, 342
-0.998585, 77, 185, 108, 200
-0.998586, 241, 291, 304, 306
-0.998586, 33, 187, 96, 202
-0.99859, 57, 257, 120, 272
-0.99859, 25, 281, 88, 296
-0.99859, 73, 331, 136, 346
-0.998591, 33, 365, 96, 380
-0.998592, 9, 405, 72, 420
-0.998593, 185, 249, 248, 264
-0.998593, 193, 347, 256, 362
-0.998593, 141, 177, 156, 304
-0.998596, 33, 353, 96, 368
-0.998598, 129, 271, 192, 286
-0.998598, 69, 133, 100, 148
-0.998599, 209, 157, 272, 172
-0.998599, 113, 151, 176, 166
-0.998599, 33, 193, 96, 208
-0.9986, 113, 257, 144, 500
-0.9986, 249, 303, 312, 318
-0.998602, 73, 375, 136, 390
-0.998602, 249, 309, 312, 324
-0.998602, 233, 149, 296, 164
-0.998605, 113, 327, 176, 342
-0.998608, 73, 319, 136, 334
-0.998609, 41, 229, 104, 244
-0.998609, 161, 169, 224, 184
-0.998609, 149, 177, 164, 304
-0.998609, 1, 371, 64, 386
-0.99861, 121, 183, 152, 198
-0.99861, 1, 269, 64, 284
-0.998611, 89, 267, 152, 282
-0.998611, 241, 343, 304, 358
-0.998612, 49, 323, 112, 338
-0.998613, 41, 347, 104, 362
-0.998613, 89, 81, 152, 96
-0.998615, 169, 133, 200, 148
-0.998618, 165, 155, 196, 170
-0.998626, 97, 405, 224, 436
-0.998627, 49, 301, 176, 332
-0.998646, 57, 81, 120, 144
-0.99865, 133, 129, 148, 256
-0.998656, 91, 177, 106, 304
-0.998658, 161, 381, 288, 412
-0.99866, 165, 139, 196, 154
-0.998672, 125, 257, 156, 500
-0.998694, 257, 129, 288, 384
-0.998703, 75, 257, 90, 384
-0.998706, 129, 73, 256, 104
-0.998719, 289, 161, 320, 416
-0.998725, 153, 225, 168, 352
-0.998731, 45, 65, 76, 192
-0.998742, 75, 193, 90, 320
-0.998771, 161, 193, 176, 320
-0.998801, 123, 145, 138, 272
-0.998808, 49, 401, 176, 432
-0.99882, 107, 193, 122, 320
-0.998826, 161, 81, 224, 208
-0.998836, 57, 273, 72, 400
-0.998849, 47, 273, 62, 400
-0.998854, 81, 257, 96, 384
-0.998863, 13, 97, 44, 352
-0.998866, 49, 337, 64, 464
-0.998875, 71, 321, 86, 448
-0.998889, 63, 321, 78, 448
-0.99891, 179, 113, 194, 240
-0.998916, 71, 145, 86, 272
-0.998919, 49, 61, 176, 92
-0.998929, 167, 145, 182, 272
-0.99893, 25, 209, 40, 336
-0.99894, 93, 257, 108, 384
-0.998952, 87, 129, 102, 256
-0.998955, 55, 321, 70, 448
-0.998961, 159, 257, 174, 384
-0.998964, 81, 321, 96, 448
-0.998978, 121, 33, 152, 288
-0.998988, 39, 257, 54, 384
-0.998997, 141, 257, 156, 384
-0.999004, 187, 209, 202, 336
-0.999018, 119, 49, 134, 176
-0.999026, 113, 89, 240, 152
-0.999028, 161, 145, 176, 272
-0.99903, 115, 193, 130, 320
-0.999032, 129, 81, 144, 208
-0.999048, 69, 193, 84, 320
-0.999059, 19, 161, 34, 288
-0.999066, 193, 457, 320, 488
-0.999072, 87, 273, 102, 400
-0.999074, 67, 241, 82, 368
-0.999075, 147, 225, 162, 352
-0.999075, 177, 469, 304, 500
-0.999081, 249, 177, 264, 304
-0.999083, 43, 337, 58, 464
-0.999086, 271, 257, 286, 384
-0.999091, 193, 209, 208, 336
-0.999098, 231, 161, 246, 288
-0.9991, 239, 209, 254, 336
-0.999101, 99, 257, 114, 384
-0.999105, 185, 33, 216, 288
-0.999107, 201, 433, 264, 496
-0.999107, 35, 193, 50, 320
-0.999122, 271, 337, 286, 464
-0.999129, 65, 65, 320, 128
-0.999133, 245, 289, 260, 416
-0.999141, 155, 177, 170, 304
-0.999156, 33, 241, 48, 368
-0.99916, 33, 337, 48, 464
-0.999166, 281, 305, 296, 432
-0.999167, 261, 305, 276, 432
-0.99917, 187, 145, 202, 272
-0.999173, 261, 145, 292, 272
-0.999175, 93, 353, 108, 480
-0.999176, 97, 61, 224, 92
-0.999192, 93, 305, 108, 432
-0.999209, 97, 353, 224, 384
-0.999214, 207, 209, 222, 336
-0.999215, 239, 289, 254, 416
-0.999218, 251, 305, 266, 432
-0.999223, 245, 129, 260, 256
-0.999225, 181, 177, 196, 304
-0.999231, 113, 49, 128, 176
-0.999232, 123, 97, 138, 224
-0.999239, 223, 209, 238, 336
-0.999241, 209, 413, 333, 444
-0.999242, 233, 209, 248, 336
-0.999243, 87, 337, 102, 464
-0.999246, 231, 289, 246, 416
-0.999247, 27, 337, 42, 464
-0.999255, 201, 209, 216, 336
-0.999257, 93, 65, 108, 192
-0.99927, 41, 129, 56, 256
-0.99927, 287, 273, 302, 400
-0.999273, 105, 65, 136, 320
-0.999274, 19, 337, 34, 464
-0.999275, 145, 401, 272, 432
-0.999279, 65, 373, 192, 404
-0.99928, 101, 337, 116, 464
-0.999281, 97, 161, 112, 288
-0.999281, 71, 97, 86, 224
-0.999282, 55, 369, 70, 496
-0.999282, 249, 225, 264, 352
-0.999285, 135, 177, 150, 304
-0.999292, 167, 193, 182, 320
-0.999294, 149, 273, 164, 400
-0.999295, 21, 257, 36, 384
-0.999297, 145, 49, 272, 112
-0.999297, 121, 193, 136, 320
-0.9993, 277, 257, 292, 384
-0.999302, 213, 257, 228, 384
-0.999312, 63, 193, 78, 320
-0.999314, 11, 209, 26, 336
-0.999315, 41, 209, 56, 336
-0.999321, 107, 257, 122, 384
-0.999323, 13, 145, 28, 272
-0.999323, 107, 49, 122, 176
-0.999324, 301, 161, 332, 416
-0.99933, 137, 49, 152, 176
-0.99935, 87, 81, 102, 208
-0.999355, 61, 369, 76, 496
-0.999356, 231, 113, 246, 240
-0.999358, 1, 241, 16, 368
-0.99936, 203, 257, 218, 384
-0.999364, 211, 321, 226, 448
-0.99937, 133, 321, 148, 448
-0.999372, 255, 257, 270, 384
-0.999373, 129, 177, 144, 304
-0.999384, 73, 369, 88, 496
-0.999391, 293, 241, 308, 368
-0.999391, 101, 49, 116, 176
-0.999393, 81, 161, 96, 288
-0.999399, 193, 441, 320, 472
-0.999401, 167, 257, 182, 384
-0.99941, 113, 241, 128, 368
-0.999417, 181, 225, 196, 352
-0.999419, 161, 425, 288, 456
-0.999421, 255, 209, 270, 336
-0.999431, 135, 257, 150, 384
-0.999434, 223, 257, 238, 384
-0.999434, 141, 97, 156, 224
-0.999437, 177, 65, 192, 192
-0.99944, 173, 289, 188, 416
-0.999441, 5, 145, 20, 272
-0.999442, 205, 305, 220, 432
-0.999442, 217, 193, 232, 320
-0.999447, 263, 241, 278, 368
-0.999449, 61, 113, 76, 240
-0.999454, 27, 257, 42, 384
-0.999456, 49, 225, 64, 352
-0.999457, 1, 289, 16, 416
-0.999458, 195, 257, 210, 384
-0.999459, 7, 273, 22, 400
-0.99946, 31, 145, 46, 272
-0.999491, 57, 33, 88, 288
-0.999583, 119, 333, 134, 348
-0.999583, 169, 197, 184, 212
-0.999584, 85, 279, 100, 294
-0.999584, 159, 265, 174, 280
-0.999584, 131, 163, 146, 178
-0.999586, 129, 239, 144, 254
-0.999586, 149, 341, 164, 356
-0.999587, 123, 203, 138, 218
-0.999588, 171, 171, 186, 186
-0.999588, 17, 253, 32, 268
-0.999588, 171, 165, 186, 180
-0.999589, 185, 347, 200, 362
-0.99959, 149, 231, 164, 246
-0.999591, 171, 311, 186, 326
-0.999591, 159, 201, 174, 216
-0.999592, 87, 213, 102, 228
-0.999592, 171, 179, 186, 194
-0.999593, 13, 275, 28, 290
-0.999593, 93, 373, 108, 388
-0.999593, 275, 325, 290, 340
-0.999594, 239, 197, 254, 212
-0.999595, 147, 241, 162, 256
-0.999596, 239, 205, 254, 220
-0.999596, 159, 245, 174, 260
-0.999596, 115, 207, 130, 222
-0.999597, 179, 133, 194, 148
-0.999597, 185, 207, 200, 222
-0.999597, 97, 85, 112, 100
-0.999598, 169, 159, 184, 174
-0.9996, 155, 339, 170, 354
-0.9996, 191, 343, 206, 358
-0.9996, 281, 303, 296, 318
-0.999601, 33, 247, 48, 262
-0.999601, 29, 279, 44, 294
-0.999602, 131, 145, 146, 160
-0.999602, 91, 269, 106, 284
-0.999602, 171, 189, 186, 204
-0.999603, 29, 271, 44, 286
-0.999603, 97, 205, 112, 220
-0.999603, 27, 245, 42, 260
-0.999603, 49, 301, 64, 316
-0.999604, 15, 265, 30, 280
-0.999605, 141, 269, 156, 284
-0.999606, 123, 157, 138, 172
-0.999606, 109, 229, 124, 244
-0.999606, 73, 377, 88, 392
-0.999607, 59, 291, 74, 306
-0.999608, 123, 167, 138, 182
-0.999608, 167, 147, 182, 162
-0.99961, 123, 173, 138, 188
-0.999611, 19, 275, 34, 290
-0.999611, 123, 197, 138, 212
-0.999612, 125, 339, 140, 354
-0.999612, 241, 153, 256, 168
-0.999615, 131, 169, 146, 184
-0.999616, 139, 231, 154, 246
-0.999616, 71, 165, 86, 180
-0.999616, 153, 205, 168, 220
-0.999617, 241, 161, 256, 176
-0.999618, 71, 183, 86, 198
-0.999619, 239, 183, 254, 198
-0.99962, 169, 153, 184, 168
-0.99962, 21, 247, 36, 262
-0.99962, 119, 239, 134, 254
-0.99962, 43, 401, 58, 416
-0.99962, 179, 141, 194, 156
-0.99962, 231, 209, 246, 224
-0.999622, 15, 361, 30, 376
-0.999624, 103, 87, 118, 102
-0.999624, 213, 345, 228, 360
-0.999625, 131, 175, 146, 190
-0.999625, 215, 295, 230, 310
-0.999626, 133, 261, 148, 276
-0.999627, 71, 177, 86, 192
-0.999627, 235, 299, 250, 314
-0.999628, 241, 167, 256, 182
-0.999629, 179, 149, 194, 164
-0.999629, 169, 137, 184, 152
-0.999631, 97, 213, 112, 228
-0.999631, 71, 153, 86, 168
-0.999632, 149, 265, 164, 280
-0.999632, 81, 223, 96, 238
-0.999632, 71, 191, 86, 206
-0.999632, 115, 249, 130, 264
-0.999634, 225, 297, 240, 312
-0.999634, 71, 159, 86, 174
-0.999634, 91, 219, 106, 234
-0.999635, 227, 229, 242, 244
-0.999635, 83, 371, 98, 386
-0.999636, 141, 335, 156, 350
-0.999637, 81, 271, 96, 286
-0.999638, 153, 239, 168, 254
-0.999638, 71, 197, 86, 212
-0.999638, 71, 145, 86, 160
-0.99964, 75, 213, 90, 228
-0.99964, 239, 145, 254, 160
-0.999641, 125, 181, 140, 196
-0.999642, 71, 171, 86, 186
-0.999643, 239, 191, 254, 206
-0.999644, 241, 175, 256, 190
-0.999647, 125, 187, 140, 202
-0.999648, 131, 191, 146, 206
-0.999652, 149, 335, 164, 350
-0.999653, 143, 195, 158, 210
-0.999656, 123, 87, 138, 102
-0.999659, 115, 87, 130, 102
-0.999662, 129, 87, 144, 102
-0.999662, 163, 207, 178, 222
-0.999669, 71, 139, 86, 154
-0.999673, 135, 181, 150, 196
-0.999673, 209, 429, 333, 460
-0.999673, 221, 291, 236, 306
-0.999676, 107, 239, 122, 254
-0.999676, 29, 253, 44, 268
-0.999677, 21, 259, 36, 274
-0.999678, 109, 87, 124, 102
-0.999679, 91, 231, 106, 246
-0.999681, 93, 225, 108, 240
-0.999682, 149, 251, 164, 266
-0.999685, 157, 251, 172, 266
-0.999685, 143, 257, 158, 272
-0.999686, 71, 207, 86, 222
-0.999689, 93, 237, 108, 252
-0.999692, 99, 233, 114, 248
-0.999693, 147, 201, 162, 216
-0.99971, 131, 139, 146, 154
-0.999721, 177, 109, 304, 140
-0.999733, 177, 127, 192, 142
-0.99974, 141, 189, 156, 204
-0.999757, 241, 33, 272, 288
-0.999762, 209, 125, 333, 156
-0.999765, 237, 139, 252, 154
-0.999767, 153, 245, 168, 260
-0.999775, 97, 289, 224, 320
-0.999797, 81, 133, 96, 148
-0.999798, 293, 257, 324, 500
-0.99983, 69, 1, 100, 256
-0.999849, 33, 433, 288, 496
-0.99987, 165, 1, 196, 256
-0.999893, 129, 85, 256, 116
-0.999972, 301, 145, 332, 272
-1.00001, 145, 449, 272, 480
-1.00002, 17, 49, 144, 80
-1.00004, 81, 1, 112, 256
-1.00016, 1, 61, 128, 92
-1.00016, 301, 65, 332, 320
-1.00016, 125, 1, 156, 128
-1.00017, 65, 41, 320, 104
-1.00018, 249, 81, 280, 208
-1.00018, 41, 33, 72, 288
-1.00025, 113, 49, 240, 80
-1.00027, 113, 381, 240, 412
-1.00029, 241, 1, 304, 256
-1.0003, 65, 389, 192, 420
-1.00033, 113, 433, 240, 464
-1.00033, 1, 417, 128, 480
-1.00033, 289, 65, 320, 320
-1.00037, 113, 365, 240, 396
-1.00043, 113, 461, 240, 492
-1.00043, 233, 393, 296, 456
-1.00044, 1, 469, 128, 500
-1.00046, 217, 1, 248, 256
-1.00048, 21, 1, 52, 256
-1.00049, 17, 113, 144, 144
-1.00053, 49, 433, 176, 496
-1.00062, 65, 105, 192, 136
-1.00065, 1, 1, 32, 256
-1.00066, 145, 49, 208, 112
-1.00066, 137, 1, 168, 128
-1.00067, 97, 449, 224, 480
-1.00068, 1, 29, 128, 60
-1.0007, 17, 445, 144, 476
-1.00075, 1, 457, 128, 488
-1.00077, 113, 105, 240, 136
-1.00077, 49, 461, 176, 492
-1.00081, 253, 33, 284, 288
-1.00087, 229, 1, 260, 256
-1.0009, 77, 17, 108, 144
-1.00096, 1, 89, 64, 152
-1.00097, 1, 81, 333, 144
-1.00101, 197, 33, 228, 288
-1.00109, 17, 17, 144, 80
-1.00114, 265, 33, 296, 288
-1.00121, 277, 33, 308, 288
-1.00124, 9, 1, 72, 256
-1.00155, 33, 17, 288, 80
-1.00158, 177, 81, 304, 144
-1.00166, 105, 33, 168, 96
-1.00176, 49, 1, 176, 128
-1.00179, 97, 17, 224, 80
-1.00191, 301, 97, 332, 224
-1.002, 277, 145, 308, 272
-1.0023, 145, 369, 208, 432
-1.00239, 1, 105, 333, 168
-1.00251, 1, 433, 333, 496
-1.00254, 209, 17, 333, 80
-1.00256, 209, 57, 333, 120
-1.00262, 65, 1, 128, 128
-1.00267, 1, 57, 333, 120
-1.00274, 161, 1, 288, 64
-1.00285, 273, 33, 333, 288
-1.00314, 1, 33, 333, 96
-1.00319, 153, 33, 184, 160
-1.0032, 137, 1, 200, 128
-1.00329, 1, 9, 333, 72
-1.00329, 145, 25, 272, 88
-1.00332, 257, 97, 320, 224
-1.00353, 177, 49, 304, 176
-1.00369, 57, 1, 120, 256
-1.00428, 181, 49, 212, 176
-1.00455, 289, 97, 320, 224
-1.00469, 161, 17, 224, 144
-1.0047, 233, 49, 296, 176
-1.00687, 41, 1, 104, 128
-1.00713, 153, 33, 216, 288
-1.00864, 161, 1, 288, 128
-1.00963, 209, 1, 333, 128
-1.01107, 209, 49, 272, 176
-1.01177, 9, 33, 72, 160
-1.01308, 273, 1, 333, 128
-1.0132, 273, 49, 333, 176
-1.01458, 209, 1, 272, 128
-1.01458, 233, 1, 296, 128
-1.01928, 185, 33, 248, 160
