1972
-0.574944, 1, 97, 500, 352
-0.678788, 1, 1, 500, 256
-0.698318, 1, 1, 500, 375
-0.776342, 161, 1, 416, 375
-0.808174, 257, 1, 500, 375
-0.812159, 1, 1, 256, 375
-0.819966, 129, 129, 384, 375
-0.843841, 1, 129, 256, 375
-0.882801, 225, 129, 480, 375
-0.899269, 257, 97, 384, 352
-0.910217, 193, 97, 320, 352
-0.926628, 1, 225, 500, 352
-0.927288, 305, 97, 432, 352
-0.928021, 145, 129, 272, 375
-0.928568, 1, 177, 500, 304
-0.930824, 273, 1, 400, 375
-0.931813, 225, 1, 352, 375
-0.933026, 161, 1, 288, 375
-0.934103, 97, 129, 224, 375
-0.935577, 81, 1, 208, 375
-0.936317, 129, 33, 384, 288
-0.93765, 369, 97, 496, 352
-0.938165, 17, 1, 144, 375
-0.938606, 369, 1, 496, 375
-0.942317, 17, 97, 144, 352
-0.942466, 1, 33, 256, 288
-0.942922, 321, 1, 448, 375
-0.944774, 1, 129, 500, 256
-0.945149, 193, 1, 320, 256
-0.948047, 289, 1, 416, 256
-0.951328, 65, 225, 320, 352
-0.952775, 273, 81, 336, 208
-0.955709, 241, 1, 368, 256
-0.95663, 129, 129, 384, 256
-0.957021, 257, 33, 500, 288
-0.959167, 225, 113, 480, 240
-0.959322, 97, 33, 224, 288
-0.960861, 145, 1, 272, 256
-0.961297, 241, 113, 368, 240
-0.961334, 65, 177, 320, 304
-0.962444, 241, 209, 368, 336
-0.963366, 249, 113, 312, 240
-0.963697, 241, 241, 304, 368
-0.964298, 193, 177, 448, 304
-0.964549, 257, 225, 500, 352
-0.964911, 281, 105, 344, 168
-0.96572, 1, 65, 500, 192
-0.966029, 161, 241, 416, 368
-0.96799, 369, 1, 496, 256
-0.968217, 193, 129, 320, 256
-0.968764, 49, 193, 176, 320
-0.969242, 273, 129, 336, 256
-0.969592, 161, 225, 288, 352
-0.970436, 273, 65, 400, 192
-0.970892, 305, 161, 432, 288
-0.971001, 201, 225, 264, 352
-0.971968, 129, 161, 256, 288
-0.972041, 273, 209, 336, 336
-0.972458, 1, 1, 128, 256
-0.973242, 1, 225, 128, 352
-0.973359, 97, 241, 224, 368
-0.973505, 369, 129, 496, 256
-0.973525, 105, 225, 168, 352
-0.973783, 297, 89, 328, 152
-0.974101, 369, 225, 496, 352
-0.975112, 297, 65, 328, 192
-0.975128, 49, 241, 176, 368
-0.975215, 1, 177, 128, 304
-0.975349, 217, 129, 280, 256
-0.975431, 305, 241, 432, 368
-0.97548, 49, 1, 176, 256
-0.975571, 73, 193, 136, 320
-0.975867, 241, 193, 304, 320
-0.976219, 177, 145, 240, 272
-0.976259, 297, 113, 360, 240
-0.976367, 305, 113, 432, 240
-0.976564, 209, 65, 336, 192
-0.976746, 425, 129, 488, 256
-0.976991, 33, 129, 288, 256
-0.977446, 1, 193, 64, 320
-0.978069, 145, 177, 208, 304
-0.978069, 217, 177, 280, 304
-0.978096, 1, 1, 500, 128
-0.978239, 121, 265, 184, 328
-0.978305, 25, 225, 88, 352
-0.979021, 249, 129, 312, 192
-0.979042, 273, 129, 336, 192
-0.97912, 241, 161, 368, 288
-0.979281, 249, 265, 312, 328
-0.979958, 305, 225, 368, 352
-0.980035, 97, 241, 160, 304
-0.980381, 393, 225, 456, 352
-0.980413, 97, 289, 160, 352
-0.980731, 305, 121, 368, 184
-0.980798, 121, 161, 184, 288
-0.980976, 297, 49, 360, 176
-0.981085, 289, 81, 352, 144
-0.981224, 97, 81, 352, 208
-0.981266, 209, 153, 272, 216
-0.981398, 97, 177, 160, 304
-0.981738, 289, 177, 352, 240
-0.981739, 281, 97, 344, 352
-0.981763, 257, 105, 320, 168
-0.981948, 217, 257, 280, 320
-0.982057, 241, 129, 368, 192
-0.9821, 361, 225, 424, 352
-0.982196, 49, 225, 112, 352
-0.982231, 385, 161, 448, 288
-0.982316, 9, 209, 72, 272
-0.982447, 225, 65, 480, 192
-0.98248, 177, 153, 240, 216
-0.982495, 265, 81, 328, 144
-0.982508, 337, 241, 400, 304
-0.982587, 385, 113, 448, 240
-0.982631, 281, 97, 312, 224
-0.982687, 249, 177, 312, 240
-0.982798, 273, 225, 336, 288
-0.982897, 193, 177, 320, 304
-0.982905, 217, 81, 280, 208
-0.982966, 281, 249, 344, 312
-0.982984, 145, 241, 208, 304
-0.983012, 273, 105, 400, 168
-0.983166, 177, 225, 240, 352
-0.983309, 177, 281, 240, 344
-0.983374, 113, 257, 240, 320
-0.983593, 81, 241, 144, 368
-0.983615, 33, 249, 96, 312
-0.983751, 353, 81, 480, 208
-0.983841, 41, 209, 104, 272
-0.98398, 49, 241, 176, 304
-0.984033, 217, 281, 280, 344
-0.984132, 249, 65, 312, 192
-0.984276, 361, 113, 424, 240
-0.984293, 1, 129, 128, 256
-0.984328, 25, 177, 88, 304
-0.984379, 409, 137, 472, 200
-0.984422, 137, 161, 200, 224
-0.984431, 249, 97, 312, 352
-0.985081, 153, 129, 216, 256
-0.985083, 313, 233, 376, 296
-0.985176, 1, 241, 64, 304
-0.985526, 433, 145, 496, 208
-0.985569, 353, 161, 416, 288
-0.985608, 297, 161, 360, 288
-0.985634, 1, 145, 64, 272
-0.985833, 241, 241, 368, 304
-0.985856, 1, 241, 64, 368
-0.985869, 145, 305, 208, 368
-0.985963, 305, 233, 432, 296
-0.986287, 137, 225, 200, 352
-0.986329, 353, 177, 480, 304
-0.986387, 369, 137, 496, 200
-0.986468, 377, 249, 440, 312
-0.986483, 425, 177, 488, 304
-0.986522, 81, 281, 208, 344
-0.986536, 113, 217, 176, 280
-0.986585, 129, 281, 256, 344
-0.986629, 433, 249, 496, 312
-0.986649, 329, 129, 392, 256
-0.986651, 249, 153, 312, 216
-0.986732, 249, 241, 280, 368
-0.986743, 281, 153, 344, 216
-0.986783, 121, 241, 184, 304
-0.986894, 161, 81, 288, 208
-0.986918, 161, 153, 288, 216
-0.986979, 289, 273, 352, 336
-0.987019, 249, 241, 312, 304
-0.987019, 209, 265, 336, 328
-0.987025, 65, 209, 128, 272
-0.987066, 337, 241, 400, 368
-0.98709, 361, 225, 424, 288
-0.987102, 225, 105, 352, 168
-0.987139, 169, 177, 232, 240
-0.987189, 145, 281, 208, 344
-0.987258, 417, 241, 480, 368
-0.987318, 65, 129, 128, 256
-0.987347, 401, 265, 464, 328
-0.987414, 313, 257, 376, 320
-0.987461, 105, 313, 168, 375
-0.987508, 161, 241, 288, 304
-0.987574, 265, 193, 296, 320
-0.987598, 81, 145, 208, 272
-0.987621, 269, 129, 300, 256
-0.987653, 257, 289, 320, 352
-0.987733, 73, 273, 136, 336
-0.987745, 185, 97, 248, 224
-0.987807, 193, 177, 256, 240
-0.987845, 1, 193, 32, 320
-0.987892, 289, 129, 416, 192
-0.987896, 217, 129, 280, 375
-0.987906, 273, 265, 400, 328
-0.987921, 169, 257, 232, 320
-0.987943, 369, 257, 496, 320
-0.987976, 49, 177, 112, 304
-0.987995, 1, 209, 128, 272
-0.987996, 145, 185, 208, 248
-0.987999, 313, 153, 376, 216
-0.988037, 321, 177, 384, 304
-0.988092, 241, 217, 368, 280
-0.988107, 433, 273, 496, 336
-0.988165, 313, 81, 376, 144
-0.988242, 129, 241, 160, 304
-0.98825, 257, 201, 320, 264
-0.988271, 201, 305, 264, 368
-0.988276, 281, 185, 312, 248
-0.98837, 337, 145, 400, 208
-0.988385, 353, 265, 416, 328
-0.988395, 193, 129, 320, 192
-0.988453, 433, 169, 496, 232
-0.988525, 9, 265, 72, 328
-0.988685, 321, 81, 384, 208
-0.988811, 249, 17, 312, 144
-0.98887, 65, 217, 192, 280
-0.988876, 161, 129, 224, 375
-0.988882, 17, 273, 144, 336
-0.988955, 113, 313, 240, 375
-0.989002, 321, 161, 448, 224
-0.989003, 9, 185, 72, 248
-0.98901, 309, 97, 340, 224
-0.989121, 217, 105, 280, 168
-0.989164, 433, 305, 496, 368
-0.989169, 157, 257, 188, 320
-0.989214, 297, 113, 328, 176
-0.989293, 285, 113, 316, 176
-0.989322, 225, 129, 288, 192
-0.989325, 145, 217, 208, 280
-0.98935, 73, 249, 136, 312
-0.989378, 301, 209, 332, 336
-0.989381, 217, 177, 280, 240
-0.989421, 385, 137, 448, 200
-0.989456, 161, 185, 288, 248
-0.989489, 225, 233, 288, 296
-0.989495, 377, 273, 440, 336
-0.989511, 141, 249, 172, 312
-0.989517, 97, 185, 160, 248
-0.989518, 261, 241, 292, 368
-0.989542, 309, 113, 340, 176
-0.989544, 273, 185, 400, 248
-0.989582, 401, 233, 464, 296
-0.989651, 353, 225, 480, 288
-0.989656, 385, 161, 448, 224
-0.989743, 113, 177, 240, 240
-0.989746, 57, 305, 120, 368
-0.989794, 273, 241, 304, 368
-0.989931, 169, 313, 232, 375
-0.989964, 241, 81, 304, 144
-0.990012, 233, 225, 264, 352
-0.990095, 41, 185, 104, 248
-0.990146, 281, 109, 344, 140
-0.990166, 353, 169, 416, 232
-0.990206, 433, 217, 496, 280
-0.990217, 65, 305, 192, 368
-0.990244, 177, 297, 304, 360
-0.990252, 1, 201, 32, 264
-0.990295, 113, 209, 240, 272
-0.990336, 193, 217, 320, 280
-0.990392, 409, 297, 472, 360
-0.990396, 225, 81, 352, 144
-0.99042, 129, 273, 160, 336
-0.990438, 281, 201, 344, 264
-0.990509, 409, 81, 472, 208
-0.99054, 101, 209, 132, 336
-0.990604, 369, 161, 496, 224
-0.990606, 281, 121, 344, 152
-0.990623, 109, 289, 140, 352
-0.990678, 273, 265, 304, 328
-0.990681, 293, 113, 324, 240
-0.990756, 49, 281, 112, 344
-0.990797, 253, 129, 284, 256
-0.990806, 17, 313, 80, 375
-0.990818, 137, 129, 200, 375
-0.990839, 141, 273, 172, 336
-0.990864, 49, 193, 176, 256
-0.990874, 65, 185, 128, 248
-0.990888, 1, 249, 128, 312
-0.99089, 133, 225, 164, 352
-0.990942, 305, 97, 368, 352
-0.991001, 281, 161, 312, 288
-0.991007, 1, 177, 128, 240
-0.991013, 313, 185, 376, 248
-0.991048, 273, 81, 400, 144
-0.991063, 241, 265, 304, 296
-0.991152, 421, 161, 452, 288
-0.991245, 121, 289, 184, 352
-0.991248, 185, 217, 248, 280
-0.991328, 113, 97, 240, 224
-0.991351, 329, 233, 360, 296
-0.991377, 281, 161, 312, 224
-0.991383, 217, 281, 280, 312
-0.991384, 293, 161, 324, 288
-0.991436, 209, 161, 336, 224
-0.991477, 433, 129, 496, 375
-0.991494, 281, 133, 344, 164
-0.991494, 193, 97, 256, 352
-0.9915, 301, 177, 332, 240
-0.991513, 137, 273, 200, 304
-0.991523, 329, 297, 392, 360
-0.99163, 289, 97, 352, 128
-0.991641, 133, 161, 164, 288
-0.991641, 261, 137, 292, 200
-0.991678, 305, 209, 368, 272
-0.9917, 257, 133, 320, 164
-0.991703, 161, 161, 224, 192
-0.991722, 449, 129, 480, 256
-0.991762, 177, 97, 304, 160
-0.991777, 193, 257, 256, 320
-0.991822, 217, 265, 280, 296
-0.991827, 113, 153, 240, 216
-0.99183, 377, 305, 440, 368
-0.991837, 265, 97, 328, 128
-0.991838, 241, 277, 304, 308
-0.991846, 97, 297, 160, 328
-0.991879, 361, 233, 392, 296
-0.99188, 97, 261, 160, 292
-0.991927, 189, 153, 220, 216
-0.991931, 89, 209, 152, 272
-0.991947, 217, 253, 280, 284
-0.991951, 353, 305, 480, 368
-0.991957, 289, 209, 320, 336
-0.991979, 305, 125, 368, 156
-0.991984, 289, 85, 352, 116
-0.991996, 273, 257, 336, 288
-0.99202, 265, 85, 328, 116
-0.992021, 97, 265, 160, 328
-0.992051, 97, 277, 160, 308
-0.992053, 437, 113, 468, 240
-0.992058, 337, 193, 464, 256
-0.99209, 1, 205, 64, 236
-0.992101, 185, 273, 248, 304
-0.992106, 129, 289, 192, 320
-0.992134, 273, 153, 400, 216
-0.992162, 209, 293, 272, 324
-0.992166, 57, 193, 88, 320
-0.992167, 221, 273, 252, 336
-0.992197, 265, 177, 328, 208
-0.992202, 137, 261, 200, 292
-0.992213, 305, 305, 368, 368
-0.992226, 229, 177, 260, 304
-0.992241, 9, 289, 72, 352
-0.992257, 249, 121, 312, 152
-0.992266, 1, 81, 256, 208
-0.99227, 9, 241, 72, 272
-0.992304, 33, 273, 96, 304
-0.992319, 1, 261, 64, 292
-0.992323, 249, 109, 312, 140
-0.992323, 233, 141, 296, 172
-0.992328, 321, 285, 384, 316
-0.992346, 361, 241, 392, 368
-0.992349, 153, 137, 216, 200
-0.992354, 121, 225, 152, 352
-0.992384, 297, 105, 328, 136
-0.992389, 233, 161, 296, 192
-0.992399, 241, 145, 272, 208
-0.992429, 97, 233, 160, 264
-0.992435, 241, 129, 272, 256
-0.992452, 353, 281, 480, 344
-0.992458, 409, 145, 472, 176
-0.992461, 345, 285, 408, 316
-0.992463, 209, 165, 272, 196
-0.992469, 33, 209, 96, 240
-0.992472, 313, 261, 376, 292
-0.992474, 57, 277, 120, 308
-0.992478, 305, 113, 368, 144
-0.992485, 369, 129, 432, 375
-0.992491, 281, 281, 344, 312
-0.992495, 21, 217, 52, 280
-0.992499, 77, 193, 108, 320
-0.992517, 177, 285, 240, 316
-0.99252, 201, 241, 264, 272
-0.992533, 225, 241, 288, 272
-0.992534, 289, 189, 352, 220
-0.992539, 177, 257, 240, 288
-0.992541, 49, 317, 112, 348
-0.992544, 185, 177, 248, 208
-0.992546, 89, 309, 152, 340
-0.992551, 273, 1, 336, 375
-0.992569, 209, 193, 336, 256
-0.99257, 425, 233, 488, 264
-0.992572, 153, 289, 216, 320
-0.992575, 81, 249, 144, 280
-0.992588, 213, 153, 244, 216
-0.992591, 393, 237, 456, 268
-0.992611, 57, 201, 120, 232
-0.992616, 121, 249, 184, 280
-0.99263, 9, 225, 72, 256
-0.99264, 361, 321, 424, 352
-0.992644, 121, 309, 184, 340
-0.992645, 313, 273, 376, 304
-0.992656, 433, 165, 496, 196
-0.992661, 281, 269, 344, 300
-0.992673, 81, 313, 144, 375
-0.992684, 369, 277, 432, 308
-0.992698, 369, 173, 432, 204
-0.992698, 345, 177, 408, 208
-0.992705, 289, 161, 352, 192
-0.992718, 409, 277, 472, 308
-0.992734, 193, 153, 256, 184
-0.992734, 1, 277, 64, 308
-0.992744, 241, 181, 304, 212
-0.992754, 65, 237, 128, 268
-0.992754, 393, 297, 456, 328
-0.992758, 381, 225, 412, 352
-0.992765, 17, 317, 80, 348
-0.992767, 81, 205, 144, 236
-0.992769, 321, 257, 448, 320
-0.99277, 57, 261, 120, 292
-0.992774, 257, 249, 288, 312
-0.992778, 433, 293, 496, 324
-0.992779, 217, 185, 280, 216
-0.992783, 161, 273, 224, 304
-0.992784, 121, 229, 184, 260
-0.992788, 121, 185, 184, 248
-0.992788, 297, 117, 328, 148
-0.992791, 33, 253, 96, 284
-0.992798, 297, 89, 328, 120
-0.992801, 73, 289, 136, 320
-0.992812, 281, 225, 344, 256
-0.992813, 1, 193, 64, 224
-0.992826, 317, 89, 348, 152
-0.992834, 57, 249, 120, 280
-0.992835, 17, 297, 144, 360
-0.992846, 369, 249, 432, 280
-0.99285, 97, 217, 160, 248
-0.992863, 345, 273, 408, 304
-0.992865, 241, 289, 368, 352
-0.992867, 17, 333, 80, 364
-0.992867, 105, 325, 168, 356
-0.992872, 169, 305, 232, 336
-0.992875, 401, 309, 464, 340
-0.992877, 145, 233, 208, 264
-0.992887, 289, 177, 352, 208
-0.992889, 273, 245, 336, 276
-0.9929, 49, 225, 112, 256
-0.9929, 337, 329, 400, 360
-0.992903, 329, 233, 392, 264
-0.99291, 89, 189, 152, 220
-0.992919, 329, 165, 392, 196
-0.992942, 13, 241, 44, 304
-0.992948, 241, 289, 304, 320
-0.992952, 137, 169, 200, 200
-0.992956, 273, 145, 336, 176
-0.992957, 313, 101, 376, 132
-0.992957, 345, 249, 408, 280
-0.992958, 177, 245, 240, 276
-0.992973, 273, 217, 304, 280
-0.992975, 409, 249, 472, 280
-0.992976, 369, 289, 432, 320
-0.992978, 401, 209, 432, 336
-0.99298, 313, 249, 376, 280
-0.992981, 369, 309, 432, 340
-0.992989, 25, 285, 88, 316
-0.992995, 225, 281, 256, 312
-0.992997, 369, 137, 432, 168
-0.992997, 329, 297, 392, 328
-0.992999, 41, 337, 104, 368
-0.993014, 193, 229, 256, 260
-0.993025, 417, 265, 480, 296
-0.993025, 13, 193, 44, 320
-0.993027, 113, 341, 176, 372
-0.993044, 145, 309, 208, 340
-0.993046, 65, 169, 192, 232
-0.993048, 409, 185, 472, 248
-0.993048, 33, 193, 96, 224
-0.99305, 257, 201, 320, 232
-0.993057, 417, 177, 480, 208
-0.993057, 289, 293, 352, 324
-0.993062, 141, 273, 172, 304
-0.993064, 73, 217, 136, 248
-0.993073, 129, 281, 160, 312
-0.993074, 153, 161, 184, 288
-0.993088, 353, 313, 416, 375
-0.993091, 305, 57, 368, 120
-0.993093, 393, 157, 456, 188
-0.9931, 33, 237, 96, 268
-0.993101, 1, 289, 64, 320
-0.993103, 261, 261, 292, 292
-0.993105, 297, 153, 328, 216
-0.993106, 329, 145, 392, 176
-0.993106, 149, 209, 180, 336
-0.993111, 321, 105, 448, 168
-0.993113, 321, 33, 448, 160
-0.993116, 249, 265, 280, 296
-0.993117, 353, 237, 416, 268
-0.993119, 361, 153, 424, 184
-0.99312, 117, 241, 148, 304
-0.99312, 337, 129, 400, 375
-0.993132, 345, 345, 408, 375
-0.993155, 361, 137, 424, 200
-0.993158, 421, 249, 452, 312
-0.993185, 213, 225, 244, 352
-0.993199, 273, 125, 304, 156
-0.993207, 281, 193, 312, 224
-0.993224, 173, 281, 204, 344
-0.993235, 317, 125, 348, 156
-0.993254, 245, 277, 276, 308
-0.993254, 9, 273, 40, 304
-0.99326, 261, 137, 292, 168
-0.993264, 117, 177, 148, 304
-0.993282, 273, 129, 304, 192
-0.993285, 9, 261, 40, 292
-0.993295, 337, 113, 400, 176
-0.993297, 225, 161, 256, 192
-0.993298, 125, 261, 156, 292
-0.993318, 21, 273, 52, 304
-0.993323, 281, 137, 312, 168
-0.993323, 205, 281, 236, 312
-0.993335, 153, 269, 184, 300
-0.993336, 221, 269, 252, 300
-0.993339, 133, 309, 164, 340
-0.993342, 149, 233, 180, 264
-0.993343, 141, 253, 172, 284
-0.993345, 313, 101, 344, 132
-0.99335, 1, 201, 32, 232
-0.993356, 117, 293, 148, 324
-0.993363, 273, 269, 304, 300
-0.993366, 273, 173, 304, 204
-0.993367, 101, 277, 132, 308
-0.993379, 165, 257, 196, 288
-0.993379, 149, 309, 180, 340
-0.993383, 273, 257, 304, 288
-0.993394, 129, 293, 160, 324
-0.993401, 325, 261, 356, 292
-0.993402, 285, 137, 316, 200
-0.993402, 33, 269, 64, 300
-0.993403, 281, 205, 312, 236
-0.993404, 317, 113, 348, 144
-0.993405, 25, 205, 56, 236
-0.993408, 417, 181, 448, 212
-0.993416, 297, 189, 328, 220
-0.993419, 105, 249, 136, 280
-0.99342, 153, 169, 184, 200
-0.993428, 237, 153, 268, 184
-0.993428, 145, 293, 176, 324
-0.993437, 285, 105, 316, 136
-0.99344, 429, 309, 460, 340
-0.99344, 373, 241, 404, 304
-0.99344, 213, 293, 244, 324
-0.993444, 321, 225, 352, 352
-0.993447, 429, 145, 460, 176
-0.993448, 229, 241, 260, 272
-0.993448, 293, 177, 324, 208
-0.993449, 285, 125, 316, 156
-0.993452, 361, 281, 392, 312
-0.993455, 249, 141, 280, 172
-0.993457, 73, 209, 104, 240
-0.993463, 37, 313, 68, 344
-0.993464, 89, 201, 120, 232
-0.993466, 441, 297, 472, 328
-0.993466, 229, 253, 260, 284
-0.993469, 165, 269, 196, 300
-0.993472, 125, 233, 156, 264
-0.993474, 309, 265, 340, 296
-0.993474, 373, 289, 404, 320
-0.993474, 253, 185, 284, 216
-0.993475, 249, 253, 280, 284
-0.993475, 85, 261, 116, 292
-0.993477, 225, 293, 256, 324
-0.993478, 341, 273, 372, 304
-0.993478, 209, 269, 240, 300
-0.993479, 285, 85, 316, 116
-0.99348, 233, 265, 264, 296
-0.993481, 113, 281, 144, 312
-0.993483, 5, 249, 36, 280
-0.993484, 53, 317, 84, 348
-0.993484, 369, 329, 400, 360
-0.993488, 101, 289, 132, 320
-0.993489, 129, 249, 160, 280
-0.993489, 273, 245, 304, 276
-0.99349, 361, 253, 392, 284
-0.993491, 13, 201, 44, 232
-0.993492, 33, 193, 64, 224
-0.993497, 41, 209, 72, 240
-0.993497, 97, 233, 128, 264
-0.993498, 153, 245, 184, 276
-0.993498, 349, 233, 380, 264
-0.993503, 197, 157, 228, 188
-0.993503, 21, 261, 52, 292
-0.993509, 373, 177, 404, 208
-0.99351, 465, 165, 496, 196
-0.993512, 89, 277, 120, 308
-0.993512, 213, 149, 244, 180
-0.993513, 25, 249, 56, 280
-0.993514, 177, 161, 208, 192
-0.993515, 269, 153, 300, 184
-0.993515, 85, 221, 116, 252
-0.993515, 349, 345, 380, 375
-0.993516, 309, 89, 340, 120
-0.993516, 465, 241, 496, 272
-0.993516, 113, 321, 144, 352
-0.993517, 293, 213, 324, 244
-0.993518, 61, 201, 92, 232
-0.993519, 261, 241, 292, 272
-0.993522, 165, 169, 196, 200
-0.993523, 209, 177, 240, 208
-0.993525, 93, 189, 124, 220
-0.993527, 409, 209, 472, 272
-0.993529, 217, 245, 248, 276
-0.99353, 261, 281, 292, 312
-0.993531, 321, 129, 352, 192
-0.993531, 33, 233, 64, 264
-0.993532, 273, 225, 304, 256
-0.993533, 465, 261, 496, 292
-0.993533, 357, 265, 388, 296
-0.993536, 129, 321, 160, 352
-0.993537, 425, 237, 456, 268
-0.993538, 393, 173, 424, 204
-0.993539, 225, 189, 256, 220
-0.993541, 137, 229, 168, 260
-0.993544, 281, 285, 312, 316
-0.993546, 189, 309, 220, 340
-0.993549, 381, 249, 412, 280
-0.993551, 225, 113, 256, 240
-0.993552, 361, 293, 392, 324
-0.993554, 241, 185, 272, 216
-0.993556, 329, 277, 360, 308
-0.993558, 105, 217, 136, 248
-0.993564, 113, 265, 144, 296
-0.993564, 425, 277, 456, 308
-0.993566, 453, 269, 484, 300
-0.993567, 193, 249, 224, 280
-0.993567, 57, 329, 88, 360
-0.993569, 301, 285, 332, 316
-0.993602, 369, 113, 400, 240
-0.993662, 249, 193, 280, 320
-0.993679, 273, 241, 304, 304
-0.99373, 201, 129, 264, 192
-0.993745, 205, 145, 236, 272
-0.993787, 169, 241, 200, 304
-0.993792, 413, 113, 444, 240
-0.993818, 81, 241, 112, 368
-0.993833, 297, 1, 360, 256
-0.993935, 213, 297, 244, 360
-0.993964, 57, 241, 88, 304
-0.993976, 441, 137, 472, 200
-0.993978, 265, 81, 296, 208
-0.99399, 209, 257, 240, 320
-0.994009, 1, 265, 32, 328
-0.99404, 265, 1, 328, 256
-0.99404, 101, 209, 132, 272
-0.994067, 117, 209, 148, 272
-0.994088, 313, 257, 344, 320
-0.994099, 145, 129, 272, 192
-0.9941, 181, 249, 212, 312
-0.994103, 161, 161, 192, 224
-0.994115, 341, 241, 372, 304
-0.994138, 193, 17, 320, 144
-0.994138, 193, 241, 224, 368
-0.994151, 281, 297, 344, 360
-0.994177, 401, 233, 432, 296
-0.994194, 393, 113, 424, 240
-0.994254, 409, 161, 440, 288
-0.994299, 289, 313, 416, 375
-0.994335, 33, 241, 64, 304
-0.994335, 325, 273, 356, 336
-0.994353, 81, 129, 208, 192
-0.994366, 293, 201, 324, 264
-0.99438, 65, 201, 96, 264
-0.994404, 305, 289, 432, 352
-0.994418, 369, 113, 496, 176
-0.994421, 229, 249, 260, 312
-0.994423, 177, 129, 240, 192
-0.994457, 177, 153, 208, 216
-0.994491, 321, 129, 352, 256
-0.994502, 369, 145, 400, 208
-0.994519, 377, 113, 440, 176
-0.994564, 129, 217, 160, 280
-0.994581, 393, 129, 456, 375
-0.994614, 305, 1, 368, 375
-0.99466, 309, 233, 340, 296
-0.994677, 249, 57, 312, 120
-0.994698, 165, 145, 196, 272
-0.994708, 225, 305, 288, 368
-0.994713, 113, 233, 240, 296
-0.994741, 1, 161, 64, 224
-0.994765, 85, 201, 116, 264
-0.994767, 189, 145, 220, 272
-0.994784, 161, 281, 192, 344
-0.994832, 457, 153, 488, 216
-0.994842, 269, 161, 300, 224
-0.994875, 297, 225, 328, 288
-0.99489, 197, 177, 228, 240
-0.994902, 145, 305, 176, 368
-0.994903, 289, 209, 416, 272
-0.994938, 45, 185, 76, 248
-0.99494, 229, 153, 260, 216
-0.99494, 253, 177, 284, 240
-0.99495, 29, 241, 60, 368
-0.994964, 389, 257, 420, 320
-0.994982, 129, 153, 384, 216
-0.995014, 245, 265, 276, 328
-0.995038, 89, 1, 152, 375
-0.995073, 1, 153, 128, 216
-0.995128, 369, 161, 400, 288
-0.995134, 125, 297, 156, 360
-0.995149, 1, 225, 32, 288
-0.995211, 225, 129, 480, 192
-0.995237, 277, 33, 308, 160
-0.995242, 405, 257, 436, 320
-0.995244, 201, 145, 232, 208
-0.995254, 337, 1, 400, 375
-0.99528, 353, 289, 416, 352
-0.995293, 349, 129, 380, 256
-0.995303, 97, 33, 352, 160
-0.995303, 317, 177, 348, 304
-0.995306, 233, 273, 264, 336
-0.995308, 413, 209, 444, 336
-0.99532, 249, 1, 312, 375
-0.995344, 177, 1, 240, 375
-0.995368, 81, 129, 144, 375
-0.995393, 273, 97, 304, 160
-0.995415, 113, 145, 176, 208
-0.995433, 465, 209, 496, 336
-0.995452, 337, 217, 400, 280
-0.995453, 97, 249, 352, 312
-0.995464, 137, 177, 168, 240
-0.995507, 193, 249, 448, 312
-0.99554, 1, 241, 32, 368
-0.995544, 105, 129, 168, 375
-0.995552, 145, 1, 208, 375
-0.995557, 429, 137, 460, 200
-0.995569, 65, 97, 192, 224
-0.995606, 69, 241, 100, 368
-0.995613, 117, 265, 148, 328
-0.995613, 333, 225, 364, 352
-0.995638, 385, 161, 416, 288
-0.995644, 157, 305, 188, 368
-0.995651, 409, 161, 472, 224
-0.995689, 97, 185, 128, 248
-0.995695, 257, 129, 384, 160
-0.995698, 305, 145, 336, 272
-0.995704, 417, 225, 448, 288
-0.995705, 17, 129, 80, 375
-0.99572, 425, 113, 456, 240
-0.995728, 433, 81, 496, 208
-0.995739, 37, 193, 68, 320
-0.995753, 305, 57, 432, 120
-0.995758, 277, 289, 308, 352
-0.995768, 385, 193, 448, 256
-0.995787, 73, 161, 136, 224
-0.995799, 317, 49, 348, 176
-0.995799, 41, 209, 72, 272
-0.995799, 209, 1, 272, 375
-0.995801, 433, 161, 464, 288
-0.995836, 49, 145, 112, 208
-0.995849, 69, 265, 100, 328
-0.995865, 425, 225, 456, 352
-0.995878, 181, 241, 212, 368
-0.995893, 1, 241, 256, 304
-0.995895, 125, 177, 156, 240
-0.995915, 273, 33, 336, 160
-0.995926, 373, 265, 404, 328
-0.995959, 289, 281, 320, 344
-0.996003, 469, 241, 500, 304
-0.996016, 273, 117, 400, 148
-0.996024, 129, 97, 192, 224
-0.996029, 129, 225, 384, 288
-0.99605, 469, 137, 500, 200
-0.996078, 217, 33, 280, 288
-0.996098, 145, 225, 176, 288
-0.996113, 225, 297, 256, 360
-0.99612, 297, 97, 312, 160
-0.99616, 41, 1, 104, 375
-0.996166, 1, 145, 32, 272
-0.996179, 97, 273, 352, 336
-0.996187, 313, 153, 344, 216
-0.996191, 261, 201, 292, 264
-0.996195, 309, 97, 324, 160
-0.996216, 169, 225, 200, 352
-0.996222, 425, 297, 456, 360
-0.996232, 201, 281, 232, 344
-0.996251, 9, 305, 40, 368
-0.996255, 225, 313, 352, 375
-0.996285, 193, 273, 448, 336
-0.996309, 69, 225, 100, 288
-0.996326, 449, 241, 480, 304
-0.996332, 409, 1, 472, 375
-0.996347, 303, 81, 318, 144
-0.996355, 285, 81, 316, 144
-0.996355, 89, 113, 152, 240
-0.996357, 89, 193, 120, 320
-0.996371, 1, 217, 256, 280
-0.99639, 409, 113, 472, 176
-0.9964, 45, 241, 76, 304
-0.996402, 337, 137, 368, 200
-0.99644, 173, 185, 204, 248
-0.996446, 157, 233, 188, 296
-0.996465, 421, 273, 452, 336
-0.996503, 377, 1, 440, 375
-0.996519, 209, 125, 336, 156
-0.996527, 275, 137, 290, 200
-0.996546, 17, 265, 48, 328
-0.996587, 433, 121, 496, 184
-0.996589, 469, 161, 500, 224
-0.996589, 437, 265, 468, 328
-0.996598, 461, 129, 492, 256
-0.996611, 229, 273, 244, 336
-0.996618, 209, 185, 336, 216
-0.99664, 33, 161, 288, 224
-0.996651, 93, 289, 124, 352
-0.996653, 57, 281, 88, 344
-0.996661, 1, 1, 64, 375
-0.996662, 225, 177, 480, 240
-0.996692, 25, 193, 56, 320
-0.996694, 1, 129, 128, 192
-0.996732, 369, 169, 400, 232
-0.996734, 257, 281, 288, 344
-0.996747, 381, 297, 412, 360
-0.996754, 253, 225, 284, 288
-0.996769, 225, 105, 352, 136
-0.996778, 437, 169, 468, 232
-0.996788, 313, 65, 344, 128
-0.996792, 81, 225, 112, 288
-0.996821, 357, 257, 388, 320
-0.996824, 225, 265, 352, 296
-0.99684, 41, 265, 72, 328
-0.996843, 21, 193, 52, 256
-0.996852, 315, 113, 330, 176
-0.996852, 397, 161, 428, 288
-0.996869, 105, 257, 136, 320
-0.996884, 177, 145, 208, 272
-0.996891, 1, 273, 256, 336
-0.996912, 297, 257, 328, 320
-0.996913, 161, 165, 288, 196
-0.996914, 465, 305, 496, 368
-0.996916, 11, 201, 26, 264
-0.996943, 437, 233, 468, 296
-0.996946, 193, 193, 224, 320
-0.996946, 209, 285, 336, 316
-0.996954, 193, 57, 320, 120
-0.996956, 97, 297, 352, 360
-0.996976, 417, 137, 448, 200
-0.997, 289, 281, 416, 312
-0.997002, 369, 273, 496, 304
-0.997004, 153, 249, 168, 312
-0.997008, 173, 313, 204, 375
-0.997033, 161, 261, 288, 292
-0.997039, 417, 161, 448, 224
-0.997053, 385, 129, 416, 192
-0.997054, 233, 201, 296, 264
-0.997055, 321, 81, 448, 144
-0.997057, 13, 241, 44, 368
-0.997064, 129, 177, 256, 208
-0.997073, 119, 273, 134, 336
-0.997076, 353, 193, 416, 256
-0.997126, 381, 113, 412, 240
-0.997131, 129, 129, 384, 192
-0.997149, 129, 177, 384, 240
-0.997159, 299, 193, 314, 256
-0.997161, 405, 281, 436, 344
-0.997165, 217, 177, 248, 240
-0.997165, 291, 113, 306, 176
-0.997183, 241, 81, 272, 208
-0.997188, 217, 161, 248, 288
-0.9972, 273, 181, 400, 212
-0.99722, 337, 129, 368, 256
-0.997225, 293, 177, 308, 240
-0.997244, 1, 273, 128, 304
-0.997244, 129, 277, 256, 308
-0.997277, 337, 285, 464, 316
-0.997284, 245, 153, 260, 216
-0.997284, 257, 225, 500, 288
-0.997299, 113, 289, 128, 352
-0.9973, 113, 1, 176, 375
-0.997319, 269, 129, 284, 192
-0.997329, 5, 193, 20, 256
-0.997341, 305, 177, 320, 240
-0.997346, 225, 237, 352, 268
-0.997368, 143, 241, 158, 304
-0.997372, 273, 105, 400, 136
-0.997374, 241, 253, 368, 284
-0.997395, 257, 313, 500, 375
-0.997397, 257, 313, 320, 375
-0.997404, 305, 253, 432, 284
-0.997411, 65, 1, 128, 375
-0.997421, 289, 265, 304, 328
-0.997425, 305, 265, 432, 296
-0.997425, 349, 81, 380, 208
-0.997426, 49, 233, 176, 264
-0.997427, 457, 81, 488, 208
-0.997427, 205, 97, 236, 224
-0.997456, 281, 137, 296, 200
-0.997461, 193, 137, 320, 168
-0.99747, 113, 289, 240, 320
-0.997472, 127, 289, 142, 352
-0.997476, 129, 245, 256, 276
-0.997476, 293, 65, 324, 320
-0.997481, 161, 257, 176, 320
-0.997503, 113, 313, 240, 344
-0.997504, 41, 241, 72, 368
-0.997509, 17, 145, 48, 272
-0.997515, 89, 137, 152, 200
-0.997531, 241, 225, 368, 256
-0.997536, 345, 177, 376, 304
-0.997541, 241, 1, 304, 256
-0.997554, 269, 249, 284, 312
-0.997557, 223, 281, 238, 344
-0.997561, 1, 217, 500, 280
-0.997569, 19, 201, 34, 264
-0.997581, 53, 241, 84, 368
-0.997592, 303, 85, 318, 116
-0.997594, 65, 245, 192, 276
-0.997598, 241, 141, 368, 172
-0.997608, 325, 121, 340, 184
-0.997621, 177, 249, 304, 280
-0.997624, 81, 277, 208, 308
-0.997633, 17, 221, 144, 252
-0.997635, 17, 225, 32, 288
-0.997655, 353, 141, 480, 172
-0.997661, 369, 157, 496, 188
-0.997666, 281, 177, 296, 240
-0.997671, 49, 329, 176, 360
-0.997688, 337, 129, 352, 192
-0.997691, 321, 257, 336, 320
-0.9977, 97, 201, 352, 264
-0.997711, 331, 233, 346, 296
-0.997722, 49, 301, 176, 332
-0.997725, 153, 281, 168, 344
-0.997728, 1, 177, 500, 240
-0.997737, 271, 161, 286, 224
-0.997741, 209, 173, 336, 204
-0.997743, 1, 253, 128, 284
-0.997763, 281, 97, 312, 352
-0.997764, 239, 153, 254, 216
-0.997779, 321, 233, 336, 296
-0.997785, 169, 161, 184, 224
-0.997787, 157, 305, 172, 368
-0.997788, 113, 265, 240, 296
-0.997792, 225, 93, 352, 124
-0.997794, 1, 257, 500, 320
-0.997796, 129, 241, 144, 304
-0.9978, 35, 217, 50, 280
-0.9978, 369, 241, 496, 272
-0.997801, 129, 105, 256, 168
-0.997818, 237, 241, 252, 304
-0.997826, 1, 297, 256, 360
-0.997827, 133, 273, 148, 336
-0.997829, 281, 265, 296, 328
-0.99783, 321, 97, 336, 160
-0.997832, 129, 233, 256, 264
-0.997842, 49, 257, 176, 288
-0.997863, 123, 249, 138, 312
-0.997863, 223, 257, 238, 320
-0.997865, 305, 237, 432, 268
-0.997868, 179, 281, 194, 344
-0.997878, 353, 173, 480, 204
-0.99789, 147, 265, 162, 328
-0.997891, 49, 193, 176, 224
-0.997897, 261, 145, 276, 208
-0.997898, 1, 185, 256, 248
-0.9979, 137, 241, 152, 304
-0.997904, 97, 193, 224, 224
-0.997909, 25, 225, 40, 288
-0.997911, 275, 265, 290, 328
-0.997921, 437, 225, 468, 352
-0.997934, 417, 249, 432, 312
-0.997937, 293, 201, 308, 264
-0.99794, 177, 161, 192, 224
-0.997954, 251, 145, 266, 208
-0.997956, 297, 1, 360, 128
-0.99796, 65, 209, 192, 240
-0.997967, 287, 177, 302, 240
-0.997967, 47, 241, 62, 304
-0.997967, 97, 345, 224, 375
-0.997969, 273, 169, 400, 200
-0.997973, 191, 153, 206, 216
-0.997974, 235, 281, 250, 344
-0.997976, 17, 285, 144, 316
-0.997983, 449, 193, 480, 320
-0.997985, 299, 105, 314, 136
-0.997986, 111, 225, 126, 288
-0.997994, 277, 241, 292, 304
-0.997998, 103, 201, 118, 264
-0.998002, 161, 289, 288, 320
-0.998009, 345, 137, 360, 200
-0.998017, 309, 105, 324, 136
-0.998018, 177, 273, 304, 304
-0.99802, 183, 161, 198, 224
-0.998022, 41, 241, 56, 304
-0.998025, 327, 257, 342, 320
-0.99803, 25, 201, 40, 264
-0.998034, 225, 153, 352, 184
-0.998038, 161, 193, 288, 224
-0.998044, 289, 293, 416, 324
-0.998049, 343, 233, 358, 296
-0.99806, 321, 329, 448, 360
-0.998062, 81, 145, 112, 272
-0.998064, 273, 217, 288, 280
-0.998071, 121, 217, 136, 280
-0.998074, 349, 233, 364, 296
-0.998076, 163, 161, 178, 224
-0.998077, 139, 217, 154, 280
-0.998083, 353, 33, 480, 96
-0.998086, 217, 297, 232, 360
-0.998095, 353, 253, 480, 284
-0.998095, 331, 129, 346, 192
-0.998105, 161, 81, 224, 208
-0.998109, 1, 193, 128, 224
-0.99811, 215, 145, 230, 208
-0.998112, 161, 153, 288, 184
-0.998116, 455, 137, 470, 200
-0.998122, 1, 257, 16, 320
-0.998141, 295, 265, 310, 328
-0.998141, 141, 273, 156, 304
-0.998145, 297, 73, 312, 136
-0.998148, 305, 129, 432, 160
-0.998149, 81, 181, 208, 212
-0.998149, 311, 185, 326, 248
-0.998161, 377, 65, 440, 192
-0.998161, 11, 241, 26, 304
-0.998164, 283, 225, 298, 288
-0.998172, 273, 89, 400, 120
-0.998177, 187, 257, 202, 320
-0.99818, 375, 241, 390, 304
-0.998183, 277, 113, 292, 176
-0.998186, 291, 289, 306, 352
-0.998195, 337, 105, 352, 168
-0.998196, 1, 313, 128, 344
-0.998201, 167, 281, 182, 344
-0.998208, 211, 177, 226, 240
-0.998209, 241, 213, 368, 244
-0.998211, 17, 209, 144, 240
-0.998212, 161, 221, 288, 252
-0.998213, 315, 153, 330, 216
-0.998228, 193, 209, 320, 240
-0.998229, 295, 121, 310, 152
-0.998229, 69, 249, 84, 312
-0.998234, 205, 153, 220, 216
-0.998238, 427, 137, 442, 200
-0.998238, 73, 201, 88, 264
-0.998238, 95, 201, 110, 264
-0.998242, 309, 73, 324, 136
-0.99825, 317, 185, 332, 248
-0.998252, 117, 249, 132, 312
-0.998253, 143, 289, 158, 352
-0.998256, 233, 153, 248, 216
-0.998259, 305, 217, 320, 280
-0.998266, 461, 153, 476, 216
-0.99827, 149, 225, 164, 288
-0.998277, 225, 267, 256, 282
-0.998277, 9, 271, 40, 286
-0.998278, 53, 213, 84, 228
-0.998278, 261, 257, 292, 272
-0.998278, 341, 283, 372, 298
-0.998278, 357, 269, 388, 284
-0.998279, 131, 209, 146, 272
-0.99828, 361, 331, 392, 346
-0.99828, 369, 297, 400, 312
-0.99828, 277, 105, 308, 120
-0.99828, 285, 99, 316, 114
-0.998281, 137, 243, 168, 258
-0.998281, 271, 185, 286, 248
-0.998281, 273, 247, 304, 262
-0.998282, 313, 277, 344, 292
-0.998282, 69, 289, 100, 304
-0.998283, 317, 249, 348, 264
-0.998283, 37, 269, 68, 284
-0.998284, 281, 215, 312, 230
-0.998284, 165, 285, 196, 300
-0.998285, 5, 249, 36, 264
-0.998285, 85, 247, 116, 262
-0.998285, 297, 197, 328, 212
-0.998285, 165, 269, 196, 284
-0.998286, 65, 243, 96, 258
-0.998286, 273, 119, 304, 134
-0.998287, 73, 273, 104, 288
-0.998287, 341, 277, 372, 292
-0.998287, 201, 275, 232, 290
-0.998287, 197, 179, 228, 194
-0.998288, 49, 341, 176, 372
-0.998288, 229, 261, 260, 276
-0.998288, 209, 267, 240, 282
-0.998288, 177, 189, 208, 204
-0.998288, 317, 119, 348, 134
-0.998289, 69, 207, 100, 222
-0.998289, 309, 89, 340, 104
-0.998289, 217, 251, 248, 266
-0.99829, 417, 289, 448, 304
-0.99829, 277, 139, 308, 154
-0.99829, 385, 261, 416, 276
-0.99829, 357, 277, 388, 292
-0.998291, 273, 271, 304, 286
-0.998291, 229, 249, 244, 312
-0.998291, 181, 163, 212, 178
-0.998291, 1, 279, 32, 294
-0.998292, 113, 265, 144, 280
-0.998292, 69, 279, 100, 294
-0.998292, 149, 255, 180, 270
-0.998292, 281, 209, 312, 224
-0.998292, 361, 339, 392, 354
-0.998292, 273, 187, 304, 202
-0.998292, 237, 269, 268, 284
-0.998293, 45, 263, 76, 278
-0.998294, 273, 127, 304, 142
-0.998294, 349, 299, 380, 314
-0.998295, 69, 257, 100, 272
-0.998295, 59, 249, 74, 312
-0.998295, 113, 283, 144, 298
-0.998295, 101, 235, 132, 250
-0.998296, 289, 185, 304, 216
-0.998296, 273, 261, 304, 276
-0.998296, 129, 277, 160, 292
-0.998297, 129, 319, 160, 334
-0.998298, 93, 203, 124, 218
-0.998298, 89, 277, 120, 292
-0.998299, 281, 89, 312, 104
-0.998299, 253, 279, 284, 294
-0.9983, 89, 319, 120, 334
-0.9983, 109, 275, 140, 290
-0.9983, 405, 255, 436, 270
-0.9983, 229, 163, 260, 178
-0.9983, 153, 277, 184, 292
-0.998301, 225, 293, 256, 308
-0.998301, 133, 267, 164, 282
-0.998302, 349, 247, 380, 262
-0.998302, 89, 271, 120, 286
-0.998302, 137, 285, 168, 300
-0.998302, 25, 273, 56, 288
-0.998303, 5, 243, 36, 258
-0.998303, 85, 261, 116, 276
-0.998303, 81, 309, 112, 324
-0.998303, 311, 117, 326, 148
-0.998303, 97, 287, 128, 302
-0.998303, 33, 241, 48, 304
-0.998304, 41, 201, 56, 264
-0.998304, 273, 17, 400, 144
-0.998304, 241, 261, 272, 276
-0.998305, 101, 267, 132, 282
-0.998305, 261, 251, 292, 266
-0.998305, 93, 191, 124, 206
-0.998306, 57, 261, 88, 276
-0.998306, 313, 111, 344, 126
-0.998306, 289, 129, 320, 144
-0.998306, 165, 275, 196, 290
-0.998308, 297, 189, 328, 204
-0.998308, 277, 113, 308, 128
-0.998309, 269, 261, 284, 292
-0.99831, 97, 257, 128, 272
-0.99831, 337, 271, 368, 286
-0.998311, 129, 253, 160, 268
-0.998313, 197, 281, 228, 296
-0.998313, 9, 259, 40, 274
-0.998313, 209, 295, 240, 310
-0.998315, 313, 103, 344, 118
-0.998315, 265, 141, 296, 156
-0.998316, 121, 271, 152, 286
-0.998317, 337, 243, 368, 258
-0.998319, 125, 261, 156, 276
-0.998319, 85, 239, 116, 254
-0.99832, 205, 287, 236, 302
-0.998321, 145, 271, 176, 286
-0.998322, 57, 235, 88, 250
-0.998324, 109, 293, 140, 308
-0.998324, 237, 281, 268, 296
-0.998324, 257, 153, 500, 216
-0.998324, 209, 175, 240, 190
-0.998327, 81, 287, 112, 302
-0.998327, 281, 203, 312, 218
-0.998327, 317, 133, 348, 148
-0.998329, 145, 261, 176, 276
-0.99833, 325, 263, 356, 278
-0.998332, 83, 225, 98, 288
-0.998332, 193, 249, 208, 312
-0.998334, 297, 123, 328, 138
-0.998334, 169, 165, 200, 180
-0.998335, 165, 261, 196, 276
-0.998338, 225, 287, 256, 302
-0.99834, 225, 297, 352, 328
-0.998342, 467, 153, 482, 216
-0.998343, 241, 49, 368, 112
-0.998344, 435, 257, 450, 320
-0.998344, 281, 193, 312, 208
-0.998346, 317, 127, 348, 142
-0.998347, 69, 267, 100, 282
-0.998348, 261, 265, 292, 280
-0.99835, 49, 269, 80, 284
-0.99835, 433, 177, 448, 240
-0.998352, 241, 275, 272, 290
-0.998354, 269, 137, 284, 168
-0.998356, 55, 201, 70, 264
-0.998358, 429, 241, 444, 304
-0.998359, 477, 161, 492, 224
-0.99836, 49, 317, 176, 348
-0.998361, 221, 275, 252, 290
-0.998366, 161, 301, 288, 332
-0.998366, 369, 233, 384, 296
-0.998367, 273, 133, 304, 148
-0.99837, 305, 65, 336, 320
-0.99837, 225, 281, 256, 296
-0.998371, 249, 267, 280, 282
-0.998374, 205, 177, 220, 240
-0.998374, 65, 281, 80, 344
-0.998377, 225, 305, 240, 368
-0.99838, 333, 177, 364, 304
-0.998384, 145, 345, 272, 375
-0.998387, 227, 153, 242, 216
-0.998387, 113, 325, 240, 356
-0.998389, 293, 197, 308, 228
-0.998392, 159, 233, 174, 296
-0.998395, 111, 249, 126, 312
-0.998396, 357, 233, 372, 296
-0.998397, 275, 137, 290, 168
-0.998397, 295, 137, 310, 200
-0.998398, 97, 165, 224, 196
-0.9984, 297, 89, 328, 104
-0.998403, 13, 281, 28, 344
-0.998403, 251, 265, 266, 296
-0.998405, 19, 305, 34, 368
-0.998411, 471, 241, 486, 304
-0.998417, 241, 281, 256, 312
-0.998421, 209, 281, 240, 296
-0.998425, 65, 221, 192, 252
-0.998431, 1, 233, 128, 264
-0.998441, 133, 285, 148, 316
-0.998448, 269, 129, 300, 375
-0.99845, 235, 273, 250, 304
-0.998452, 1, 129, 500, 192
-0.998454, 297, 99, 328, 114
-0.998454, 297, 209, 312, 240
-0.998454, 297, 117, 328, 132
-0.998455, 285, 133, 300, 164
-0.998455, 337, 297, 464, 328
-0.998455, 231, 285, 246, 316
-0.998481, 281, 165, 296, 196
-0.998487, 273, 333, 400, 364
-0.998497, 297, 111, 328, 126
-0.998504, 225, 201, 480, 264
-0.998512, 241, 197, 368, 228
-0.998525, 301, 189, 316, 220
-0.998531, 49, 105, 176, 168
-0.998545, 281, 123, 344, 138
-0.998546, 65, 105, 320, 168
-0.998546, 257, 261, 272, 292
-0.998565, 309, 89, 324, 120
-0.998565, 263, 261, 278, 292
-0.998566, 297, 105, 328, 120
-0.998567, 281, 111, 344, 126
-0.99857, 281, 129, 344, 144
-0.998573, 257, 1, 384, 64
-0.998582, 49, 121, 112, 184
-0.998583, 25, 129, 88, 256
-0.998585, 281, 117, 344, 132
-0.998589, 227, 265, 242, 296
-0.998591, 201, 281, 264, 296
-0.998594, 281, 105, 344, 120
-0.998603, 27, 273, 42, 304
-0.998606, 247, 281, 262, 312
-0.998609, 177, 113, 304, 144
-0.998617, 281, 135, 344, 150
-0.998619, 369, 89, 496, 152
-0.998623, 151, 273, 166, 304
-0.998625, 249, 281, 312, 296
-0.998625, 209, 209, 272, 272
-0.998628, 209, 275, 272, 290
-0.998631, 257, 97, 288, 352
-0.998633, 257, 273, 272, 304
-0.998633, 73, 287, 136, 302
-0.998634, 289, 99, 352, 114
-0.998635, 113, 301, 240, 332
-0.998635, 1, 329, 128, 360
-0.998637, 193, 1, 448, 128
-0.998639, 353, 57, 480, 120
-0.99864, 297, 89, 312, 120
-0.998643, 31, 205, 46, 236
-0.998644, 25, 269, 88, 284
-0.998645, 57, 259, 120, 274
-0.998649, 97, 269, 160, 284
-0.998649, 49, 271, 112, 286
-0.99865, 57, 239, 120, 254
-0.99865, 257, 137, 320, 152
-0.998651, 121, 291, 184, 306
-0.998652, 97, 255, 160, 270
-0.998654, 137, 269, 200, 284
-0.998654, 49, 287, 112, 302
-0.998654, 249, 271, 312, 286
-0.998655, 241, 265, 304, 280
-0.998656, 275, 261, 290, 292
-0.998656, 177, 281, 240, 296
-0.998657, 265, 97, 328, 112
-0.998657, 241, 269, 256, 300
-0.998659, 225, 281, 288, 296
-0.99866, 289, 87, 352, 102
-0.998662, 105, 161, 136, 288
-0.998663, 249, 131, 312, 146
-0.998666, 209, 291, 272, 306
-0.998666, 221, 277, 236, 308
-0.998667, 129, 263, 192, 278
-0.998667, 273, 267, 336, 282
-0.998669, 275, 149, 290, 180
-0.99867, 1, 259, 64, 274
-0.998672, 217, 267, 280, 282
-0.998672, 265, 89, 328, 104
-0.998672, 217, 259, 280, 274
-0.998674, 89, 293, 152, 308
-0.998674, 249, 103, 312, 118
-0.998674, 25, 261, 40, 292
-0.998675, 161, 169, 224, 184
-0.998675, 169, 271, 232, 286
-0.998676, 105, 275, 168, 290
-0.998676, 305, 129, 368, 144
-0.998676, 337, 345, 464, 375
-0.998677, 249, 111, 312, 126
-0.998677, 73, 267, 136, 282
-0.998679, 305, 113, 368, 128
-0.998679, 49, 265, 112, 280
-0.998679, 25, 261, 88, 276
-0.99868, 153, 261, 216, 276
-0.998681, 49, 251, 112, 266
-0.998681, 33, 279, 96, 294
-0.998681, 169, 289, 232, 304
-0.998682, 57, 245, 120, 260
-0.998682, 81, 239, 144, 254
-0.998682, 209, 299, 272, 314
-0.998682, 249, 125, 312, 140
-0.998682, 313, 119, 376, 134
-0.998683, 65, 277, 128, 292
-0.998684, 265, 261, 328, 276
-0.998684, 139, 261, 154, 292
-0.998686, 169, 163, 232, 178
-0.998687, 313, 243, 376, 258
-0.998687, 321, 185, 448, 216
-0.998687, 305, 107, 368, 122
-0.998687, 1, 197, 64, 212
-0.998687, 25, 251, 88, 266
-0.998688, 57, 231, 120, 246
-0.998689, 81, 261, 144, 276
-0.998689, 33, 241, 96, 256
-0.99869, 321, 271, 384, 286
-0.99869, 313, 251, 376, 266
-0.99869, 289, 93, 352, 108
-0.998691, 249, 117, 312, 132
-0.998691, 1, 243, 64, 258
-0.998692, 377, 259, 440, 274
-0.998693, 233, 287, 296, 302
-0.998693, 297, 277, 360, 292
-0.998693, 81, 245, 144, 260
-0.998693, 193, 251, 256, 266
-0.998694, 137, 285, 200, 300
-0.998694, 65, 193, 128, 208
-0.998694, 305, 135, 368, 150
-0.998694, 321, 257, 384, 272
-0.998695, 9, 287, 72, 302
-0.998695, 165, 129, 196, 375
-0.998696, 137, 183, 200, 198
-0.998697, 409, 277, 472, 292
-0.998697, 137, 275, 200, 290
-0.998697, 233, 151, 296, 166
-0.998699, 257, 143, 320, 158
-0.9987, 33, 235, 96, 250
-0.9987, 177, 185, 240, 200
-0.9987, 113, 285, 176, 300
-0.998701, 217, 253, 280, 268
-0.998701, 349, 225, 380, 352
-0.998701, 73, 203, 136, 218
-0.998701, 121, 257, 184, 272
-0.998701, 1, 273, 64, 288
-0.998702, 289, 247, 352, 262
-0.998702, 401, 295, 464, 310
-0.998703, 289, 197, 352, 212
-0.998703, 321, 293, 384, 308
-0.998704, 257, 193, 320, 208
-0.998705, 89, 299, 152, 314
-0.998705, 353, 275, 416, 290
-0.998706, 97, 211, 160, 226
-0.998706, 361, 253, 424, 268
-0.998706, 193, 179, 256, 194
-0.998706, 361, 297, 424, 312
-0.998706, 105, 361, 168, 375
-0.998707, 5, 201, 20, 232
-0.998707, 409, 147, 472, 162
-0.998708, 65, 289, 192, 320
-0.998708, 289, 241, 352, 256
-0.998709, 353, 335, 416, 350
-0.998709, 1, 237, 64, 252
-0.99871, 113, 321, 176, 336
-0.99871, 433, 317, 496, 332
-0.998711, 241, 255, 304, 270
-0.998711, 345, 265, 408, 280
-0.998711, 185, 265, 248, 280
-0.998712, 329, 277, 392, 292
-0.998712, 369, 283, 432, 298
-0.998712, 321, 299, 384, 314
-0.998713, 417, 283, 480, 298
-0.998713, 385, 265, 448, 280
-0.998713, 105, 277, 120, 308
-0.998713, 153, 189, 216, 204
-0.998714, 105, 235, 168, 250
-0.998714, 385, 289, 448, 304
-0.998714, 329, 169, 392, 184
-0.998714, 273, 297, 336, 312
-0.998714, 345, 245, 408, 260
-0.998715, 425, 269, 488, 284
-0.998715, 417, 349, 480, 364
-0.998715, 297, 189, 360, 204
-0.998715, 17, 321, 80, 336
-0.998715, 329, 183, 392, 198
-0.998716, 49, 205, 112, 220
-0.998721, 145, 249, 160, 280
-0.998723, 299, 177, 314, 208
-0.998727, 287, 173, 302, 204
-0.998729, 321, 121, 336, 152
-0.998738, 353, 317, 480, 348
-0.998741, 193, 325, 320, 356
-0.998749, 131, 265, 146, 296
-0.998753, 289, 309, 416, 340
-0.998758, 19, 261, 34, 292
-0.99876, 223, 293, 238, 324
-0.998769, 143, 229, 158, 260
-0.99877, 101, 189, 116, 220
-0.998794, 443, 305, 458, 336
-0.998794, 321, 225, 448, 256
-0.998796, 291, 133, 306, 164
-0.998796, 161, 265, 176, 296
-0.998796, 263, 273, 278, 304
-0.9988, 157, 293, 172, 324
-0.998803, 139, 289, 154, 320
-0.998805, 271, 181, 286, 212
-0.998807, 11, 277, 26, 308
-0.998807, 21, 273, 36, 304
-0.998808, 289, 121, 304, 152
-0.998808, 1, 129, 256, 192
-0.99881, 319, 105, 334, 136
-0.998813, 345, 277, 360, 308
-0.998817, 167, 257, 182, 288
-0.998819, 163, 169, 178, 200
-0.998822, 257, 345, 384, 375
-0.998825, 241, 153, 256, 184
-0.998826, 87, 209, 102, 240
-0.998828, 23, 201, 38, 232
-0.998829, 289, 157, 416, 188
-0.99883, 231, 161, 246, 192
-0.99883, 241, 241, 256, 272
-0.998834, 369, 189, 496, 220
-0.998841, 93, 201, 108, 232
-0.998848, 483, 169, 498, 200
-0.998848, 127, 281, 142, 312
-0.998852, 219, 249, 234, 280
-0.998856, 321, 133, 336, 164
-0.998858, 97, 149, 224, 180
-0.998858, 283, 269, 298, 300
-0.998859, 447, 293, 462, 324
-0.998862, 279, 249, 294, 280
-0.998866, 469, 97, 500, 352
-0.99887, 177, 233, 304, 264
-0.998871, 125, 261, 140, 292
-0.998871, 33, 269, 48, 300
-0.998873, 107, 293, 122, 324
-0.998875, 7, 245, 22, 276
-0.998876, 145, 293, 160, 324
-0.998879, 173, 257, 188, 288
-0.998881, 433, 1, 496, 375
-0.998883, 147, 261, 162, 292
-0.998886, 257, 105, 500, 168
-0.998887, 1, 253, 16, 284
-0.998887, 153, 309, 168, 340
-0.99889, 305, 141, 432, 172
-0.998896, 47, 313, 62, 344
-0.998896, 263, 141, 278, 172
-0.998896, 221, 97, 252, 352
-0.998898, 13, 257, 28, 288
-0.998898, 47, 205, 62, 236
-0.998899, 135, 309, 150, 340
-0.998901, 281, 153, 296, 184
-0.998903, 13, 205, 28, 236
-0.998904, 429, 181, 444, 212
-0.998906, 93, 221, 108, 252
-0.998907, 169, 245, 184, 276
-0.99891, 305, 201, 320, 232
-0.998911, 417, 181, 432, 212
-0.998914, 167, 269, 182, 300
-0.998915, 337, 9, 464, 72
-0.998917, 373, 329, 388, 360
-0.998919, 329, 261, 344, 292
-0.998921, 277, 189, 292, 220
-0.998926, 173, 165, 188, 196
-0.998931, 369, 129, 496, 160
-0.998932, 287, 105, 302, 136
-0.998933, 249, 293, 264, 324
-0.998935, 125, 321, 140, 352
-0.998936, 121, 249, 136, 280
-0.998936, 321, 265, 336, 296
-0.998937, 99, 277, 114, 308
-0.998941, 301, 17, 332, 144
-0.998946, 131, 249, 146, 280
-0.998948, 273, 321, 400, 352
-0.998948, 143, 185, 158, 216
-0.99895, 295, 165, 310, 196
-0.998952, 51, 325, 66, 356
-0.998954, 161, 125, 288, 156
-0.998957, 99, 233, 114, 264
-0.998958, 77, 209, 92, 240
-0.998959, 151, 285, 166, 316
-0.99896, 147, 309, 162, 340
-0.998961, 435, 145, 450, 176
-0.998962, 261, 245, 276, 276
-0.998962, 225, 245, 240, 276
-0.998962, 187, 269, 202, 300
-0.998963, 21, 245, 36, 276
-0.998965, 99, 293, 114, 324
-0.998966, 289, 25, 416, 88
-0.998967, 215, 285, 230, 316
-0.99897, 453, 241, 484, 368
-0.998971, 153, 177, 168, 208
-0.998979, 53, 237, 68, 268
-0.99898, 469, 165, 484, 196
-0.998981, 467, 257, 482, 288
-0.998984, 251, 253, 266, 284
-0.998987, 327, 129, 342, 160
-0.998987, 479, 237, 494, 268
-0.998987, 133, 297, 148, 328
-0.998987, 315, 93, 330, 124
-0.999001, 225, 81, 352, 112
-0.999014, 137, 113, 200, 176
-0.999019, 303, 65, 318, 192
-0.999019, 329, 81, 360, 208
-0.999023, 113, 221, 240, 252
-0.999028, 49, 157, 176, 188
-0.999031, 297, 65, 312, 192
-0.999046, 193, 345, 320, 375
-0.999062, 129, 205, 256, 236
-0.999068, 309, 81, 324, 208
-0.999129, 193, 313, 320, 344
-0.999141, 145, 141, 272, 172
-0.999142, 369, 329, 496, 360
-0.999158, 457, 97, 488, 352
-0.999166, 1, 301, 128, 332
-0.999171, 353, 65, 416, 192
-0.999173, 1, 341, 128, 372
-0.999181, 209, 1, 336, 64
-0.999193, 201, 129, 232, 375
-0.999195, 33, 1, 160, 64
-0.999196, 153, 129, 184, 375
-0.9992, 161, 33, 224, 288
-0.999228, 1, 313, 500, 375
-0.999241, 275, 129, 290, 256
-0.999245, 381, 129, 412, 375
-0.999251, 317, 97, 348, 352
-0.999275, 295, 113, 310, 240
-0.999282, 1, 129, 32, 375
-0.999283, 1, 97, 128, 160
-0.999286, 273, 77, 400, 108
-0.9993, 7, 193, 22, 320
-0.999314, 257, 225, 272, 352
-0.99932, 251, 225, 266, 352
-0.99932, 245, 97, 276, 352
-0.999321, 289, 113, 304, 240
-0.999321, 369, 229, 496, 260
-0.999323, 269, 129, 284, 256
-0.999325, 329, 33, 392, 288
-0.999326, 113, 1, 240, 64
-0.999335, 181, 193, 212, 320
-0.999342, 33, 169, 160, 200
-0.999354, 289, 213, 416, 244
-0.999366, 1, 193, 16, 320
-0.999371, 1, 281, 500, 344
-0.999384, 357, 177, 388, 304
-0.999387, 241, 309, 368, 340
-0.999411, 283, 129, 298, 256
-0.999416, 57, 129, 120, 375
-0.999416, 303, 129, 318, 256
-0.999428, 357, 97, 388, 352
-0.999429, 1, 157, 128, 188
-0.999432, 385, 33, 448, 288
-0.999435, 271, 193, 286, 320
-0.999436, 315, 97, 330, 224
-0.999458, 185, 129, 216, 375
-0.999459, 17, 181, 144, 212
-0.999463, 225, 65, 256, 192
-0.999465, 283, 241, 298, 368
-0.999468, 263, 225, 278, 352
-0.99947, 13, 97, 44, 352
-0.999484, 427, 145, 442, 272
-0.999484, 13, 193, 28, 320
-0.999493, 9, 243, 24, 258
-0.999494, 83, 287, 98, 302
-0.999494, 277, 185, 292, 200
-0.999494, 43, 269, 58, 284
-0.999495, 87, 267, 102, 282
-0.999495, 223, 249, 238, 264
-0.999495, 209, 271, 224, 286
-0.999495, 361, 339, 376, 354
-0.999495, 149, 263, 164, 278
-0.999495, 3, 279, 18, 294
-0.999496, 77, 251, 92, 266
-0.999496, 251, 265, 266, 280
-0.999496, 119, 273, 134, 288
-0.999496, 215, 173, 230, 188
-0.999497, 135, 261, 150, 276
-0.999497, 275, 133, 290, 148
-0.999497, 105, 277, 120, 292
-0.999497, 77, 257, 92, 272
-0.999497, 207, 179, 222, 194
-0.999497, 103, 257, 118, 272
-0.999497, 251, 283, 266, 298
-0.999497, 23, 259, 38, 274
-0.999499, 87, 253, 102, 268
-0.999499, 319, 271, 334, 286
-0.999499, 165, 267, 180, 282
-0.999499, 313, 125, 328, 140
-0.999499, 129, 291, 144, 306
-0.999499, 29, 265, 44, 280
-0.999499, 215, 295, 230, 310
-0.9995, 281, 171, 296, 186
-0.9995, 157, 261, 172, 276
-0.9995, 63, 261, 78, 276
-0.9995, 151, 285, 166, 300
-0.999501, 271, 191, 286, 206
-0.999501, 161, 173, 176, 188
-0.999501, 131, 361, 146, 375
-0.999502, 239, 267, 254, 282
-0.999502, 323, 259, 338, 274
-0.999502, 49, 265, 64, 280
-0.999502, 95, 271, 110, 286
-0.999502, 101, 319, 116, 334
-0.999503, 125, 273, 140, 288
-0.999503, 241, 275, 256, 290
-0.999503, 97, 253, 112, 268
-0.999503, 157, 273, 172, 288
-0.999503, 393, 97, 424, 352
-0.999503, 59, 267, 74, 282
-0.999504, 281, 159, 296, 174
-0.999504, 147, 279, 162, 294
-0.999505, 1, 153, 500, 216
-0.999505, 169, 273, 184, 288
-0.999506, 275, 153, 290, 168
-0.999507, 109, 267, 124, 282
-0.999507, 95, 225, 110, 352
-0.999507, 295, 131, 310, 146
-0.999508, 259, 261, 274, 276
-0.999508, 71, 265, 86, 280
-0.999508, 289, 197, 416, 228
-0.999508, 23, 271, 38, 286
-0.999508, 69, 257, 84, 272
-0.999508, 167, 169, 182, 184
-0.999508, 297, 89, 312, 104
-0.999509, 167, 261, 182, 276
-0.999509, 119, 285, 134, 300
-0.99951, 17, 25, 144, 88
-0.99951, 93, 261, 108, 276
-0.99951, 123, 293, 138, 308
-0.99951, 159, 267, 174, 282
-0.99951, 321, 121, 336, 136
-0.999511, 89, 287, 104, 302
-0.999511, 313, 99, 328, 114
-0.999511, 79, 265, 94, 280
-0.999513, 297, 213, 312, 228
-0.999513, 95, 289, 110, 304
-0.999513, 265, 143, 280, 158
-0.999513, 127, 225, 142, 352
-0.999514, 259, 279, 274, 294
-0.999514, 97, 191, 112, 206
-0.999515, 111, 225, 126, 352
-0.999515, 277, 199, 292, 214
-0.999515, 187, 187, 202, 202
-0.999515, 9, 201, 24, 216
-0.999516, 297, 119, 312, 134
-0.999516, 139, 251, 154, 266
-0.999516, 101, 265, 116, 280
-0.999516, 245, 269, 260, 284
-0.999516, 217, 289, 232, 304
-0.999516, 129, 265, 144, 280
-0.999517, 143, 261, 158, 276
-0.999517, 297, 187, 312, 202
-0.999517, 273, 1, 304, 256
-0.999518, 285, 135, 300, 150
-0.999519, 227, 291, 242, 306
-0.999519, 57, 259, 72, 274
-0.999519, 317, 107, 332, 122
-0.99952, 309, 89, 324, 104
-0.99952, 225, 275, 240, 290
-0.999521, 1, 247, 16, 262
-0.999523, 71, 193, 86, 320
-0.999523, 285, 183, 300, 198
-0.999524, 295, 207, 310, 222
-0.999524, 301, 83, 316, 98
-0.999525, 219, 271, 234, 286
-0.999526, 257, 271, 272, 286
-0.999526, 289, 105, 304, 120
-0.999527, 149, 257, 164, 272
-0.999528, 5, 145, 20, 272
-0.999528, 71, 271, 86, 286
-0.999529, 321, 127, 336, 142
-0.999529, 309, 209, 324, 336
-0.99953, 297, 111, 312, 126
-0.99953, 1, 201, 16, 216
-0.999531, 269, 137, 284, 152
-0.999531, 65, 269, 80, 284
-0.999532, 291, 201, 306, 216
-0.999534, 295, 125, 310, 140
-0.999535, 299, 193, 314, 320
-0.999536, 277, 193, 292, 208
-0.999536, 1, 1, 128, 128
-0.999536, 279, 145, 294, 160
-0.999537, 211, 281, 226, 296
-0.999537, 219, 281, 234, 296
-0.999538, 59, 193, 74, 320
-0.999541, 309, 113, 324, 128
-0.999542, 271, 261, 286, 276
-0.999543, 251, 271, 266, 286
-0.999543, 113, 129, 144, 375
-0.999544, 221, 297, 236, 312
-0.999544, 235, 275, 250, 290
-0.999544, 103, 209, 118, 336
-0.999546, 433, 161, 448, 288
-0.999546, 455, 129, 470, 256
-0.999548, 261, 129, 276, 256
-0.999549, 293, 177, 308, 304
-0.999553, 287, 189, 302, 204
-0.999554, 291, 195, 306, 210
-0.999554, 417, 209, 432, 336
-0.999555, 265, 265, 280, 280
-0.999555, 239, 241, 254, 368
-0.999557, 301, 199, 316, 214
-0.999557, 245, 241, 260, 368
-0.999557, 121, 193, 136, 320
-0.999559, 307, 99, 322, 114
-0.99956, 269, 241, 284, 368
-0.99956, 299, 193, 314, 208
-0.999562, 311, 119, 326, 134
-0.999563, 227, 225, 242, 352
-0.999565, 249, 277, 264, 292
-0.999568, 231, 283, 246, 298
-0.999569, 243, 145, 258, 272
-0.999569, 439, 113, 454, 240
-0.999573, 309, 129, 324, 256
-0.999575, 79, 193, 94, 320
-0.999576, 367, 129, 382, 256
-0.999576, 299, 99, 314, 114
-0.99958, 277, 193, 292, 320
-0.99958, 275, 139, 290, 154
-0.99958, 307, 105, 322, 120
-0.999583, 239, 281, 254, 296
-0.999587, 407, 209, 422, 336
-0.999589, 373, 241, 388, 368
-0.99959, 161, 1, 288, 64
-0.999591, 299, 105, 314, 120
-0.999591, 225, 281, 240, 296
-0.999593, 417, 145, 432, 272
-0.999593, 381, 225, 396, 352
-0.999593, 137, 161, 152, 288
-0.999593, 147, 225, 162, 352
-0.999593, 317, 225, 332, 352
-0.999596, 135, 225, 150, 352
-0.999597, 165, 161, 180, 288
-0.999597, 275, 241, 290, 368
-0.999598, 285, 193, 300, 320
-0.999599, 229, 177, 244, 304
-0.9996, 195, 145, 210, 272
-0.999605, 221, 129, 236, 256
-0.999605, 153, 193, 168, 320
-0.999607, 433, 113, 448, 240
-0.999609, 235, 129, 250, 256
-0.999609, 449, 113, 464, 240
-0.99961, 321, 113, 336, 240
-0.999616, 255, 129, 270, 256
-0.999617, 329, 97, 360, 352
-0.999619, 201, 145, 216, 272
-0.999619, 309, 33, 324, 160
-0.999622, 461, 129, 476, 256
-0.999622, 133, 129, 164, 375
-0.999623, 289, 241, 304, 368
-0.999624, 111, 177, 126, 304
-0.999624, 69, 145, 100, 272
-0.999625, 197, 193, 212, 320
-0.999625, 195, 241, 210, 368
-0.999629, 343, 129, 358, 256
-0.99963, 65, 193, 80, 320
-0.99963, 321, 117, 448, 148
-0.99963, 185, 225, 200, 352
-0.999631, 227, 129, 242, 256
-0.999633, 317, 1, 348, 256
-0.999634, 377, 129, 392, 256
-0.99964, 317, 177, 332, 304
-0.999641, 385, 113, 400, 240
-0.999641, 129, 81, 256, 144
-0.999642, 147, 177, 162, 304
-0.999643, 319, 49, 334, 176
-0.999645, 327, 225, 342, 352
-0.999645, 249, 129, 264, 256
-0.999646, 407, 145, 422, 272
-0.999647, 339, 225, 354, 352
-0.999648, 241, 193, 256, 320
-0.99965, 121, 241, 136, 368
-0.999651, 97, 177, 112, 304
-0.999655, 129, 177, 144, 304
-0.999657, 303, 89, 318, 104
-0.999657, 11, 145, 26, 272
-0.999658, 445, 129, 476, 375
-0.999658, 215, 145, 230, 272
-0.999658, 327, 113, 342, 240
-0.999658, 221, 177, 236, 304
-0.999659, 277, 81, 292, 208
-0.999662, 1, 241, 16, 368
-0.999666, 267, 81, 282, 208
-0.999671, 385, 161, 400, 288
-0.999673, 397, 225, 412, 352
-0.999673, 367, 241, 382, 368
-0.999676, 161, 97, 416, 160
-0.999677, 333, 209, 348, 336
-0.999678, 257, 177, 272, 304
-0.999682, 159, 225, 174, 352
-0.999683, 69, 241, 84, 368
-0.999683, 89, 193, 104, 320
-0.999684, 25, 241, 40, 368
-0.999685, 303, 17, 318, 144
-0.999686, 391, 161, 406, 288
-0.999686, 19, 209, 34, 336
-0.999688, 369, 217, 496, 248
-0.999692, 31, 241, 46, 368
-0.999693, 243, 97, 258, 224
-0.999694, 369, 129, 400, 375
-0.999694, 141, 225, 156, 352
-0.999695, 265, 177, 280, 304
-0.999695, 159, 161, 174, 288
-0.999696, 89, 241, 104, 368
-0.999696, 393, 113, 408, 240
-0.999697, 353, 129, 368, 256
-0.999698, 171, 129, 186, 256
-0.999698, 333, 113, 348, 240
-0.999699, 323, 177, 338, 304
-0.9997, 287, 65, 302, 192
-0.999701, 439, 161, 454, 288
-0.999703, 209, 145, 224, 272
-0.999703, 433, 193, 496, 256
-0.999705, 209, 225, 224, 352
-0.999706, 169, 225, 184, 352
-0.999707, 25, 193, 40, 320
-0.999707, 295, 241, 310, 368
-0.999714, 431, 209, 446, 336
-0.999717, 189, 145, 204, 272
-0.999718, 361, 129, 376, 256
-0.999718, 461, 177, 476, 304
-0.99972, 423, 209, 438, 336
-0.999737, 345, 97, 376, 352
-0.999763, 337, 201, 464, 232
-0.999804, 173, 97, 204, 224
-0.999823, 233, 97, 264, 352
-0.999848, 113, 121, 240, 152
-0.999856, 25, 129, 56, 375
-0.999879, 97, 137, 224, 168
-0.999894, 85, 129, 116, 375
-0.999909, 273, 61, 400, 92
-0.999913, 129, 109, 256, 140
-0.999919, 129, 93, 256, 124
-0.999927, 93, 145, 124, 272
-0.999933, 369, 117, 496, 148
-0.999955, 429, 65, 460, 192
-0.999958, 1, 73, 128, 136
-0.99996, 177, 25, 304, 88
-0.99996, 37, 129, 68, 375
-0.999961, 409, 129, 440, 375
-0.999972, 433, 97, 464, 352
-0.999979, 337, 69, 464, 100
-0.999999, 49, 65, 176, 128
-1, 305, 29, 432, 60
-1.00001, 177, 101, 304, 132
-1.00002, 1, 145, 128, 176
-1.00005, 281, 49, 344, 112
-1.00006, 101, 129, 132, 375
-1.00009, 209, 33, 240, 288
-1.00011, 225, 1, 256, 256
-1.00011, 117, 129, 148, 256
-1.00014, 145, 97, 176, 224
-1.00015, 241, 1, 272, 256
-1.00017, 369, 33, 496, 160
-1.00021, 169, 33, 200, 288
-1.00021, 421, 129, 452, 375
-1.00022, 49, 145, 80, 272
-1.00022, 69, 129, 100, 375
-1.00023, 377, 33, 408, 288
-1.00024, 121, 1, 184, 256
-1.00026, 433, 97, 496, 160
-1.00029, 153, 1, 184, 256
-1.00029, 253, 81, 284, 208
-1.00032, 409, 65, 440, 192
-1.00038, 193, 97, 224, 224
-1.00038, 261, 1, 292, 256
-1.00041, 65, 25, 192, 88
-1.00041, 257, 81, 500, 144
-1.00043, 417, 33, 480, 288
-1.00043, 5, 1, 36, 256
-1.00044, 181, 33, 212, 288
-1.00046, 49, 129, 80, 375
-1.00053, 461, 1, 492, 256
-1.00053, 445, 33, 476, 288
-1.00053, 329, 1, 360, 256
-1.00054, 341, 1, 372, 256
-1.00058, 193, 33, 224, 288
-1.0006, 241, 25, 368, 88
-1.00065, 361, 1, 392, 256
-1.00068, 129, 1, 384, 64
-1.00072, 109, 33, 140, 288
-1.00072, 389, 1, 420, 256
-1.00073, 141, 33, 172, 288
-1.00074, 113, 57, 240, 120
-1.00076, 421, 33, 452, 288
-1.00077, 61, 33, 92, 288
-1.00077, 49, 1, 80, 256
-1.00078, 161, 41, 416, 104
-1.00079, 405, 33, 436, 288
-1.00079, 321, 33, 384, 160
-1.0008, 89, 33, 120, 288
-1.00083, 1, 105, 500, 168
-1.00086, 433, 1, 464, 256
-1.00088, 33, 1, 288, 64
-1.00089, 161, 73, 416, 136
-1.00093, 193, 1, 256, 256
-1.00095, 33, 33, 64, 288
-1.00096, 33, 25, 288, 88
-1.00099, 1, 17, 256, 144
-1.001, 129, 1, 160, 256
-1.001, 1, 49, 128, 112
-1.00101, 257, 1, 500, 64
-1.00101, 77, 33, 108, 288
-1.00104, 257, 57, 500, 120
-1.00107, 113, 25, 240, 88
-1.00109, 257, 25, 500, 88
-1.00111, 65, 49, 320, 112
-1.00113, 33, 81, 288, 144
-1.00116, 1, 33, 64, 288
-1.00123, 65, 49, 192, 176
-1.00127, 17, 1, 48, 256
-1.00134, 361, 33, 424, 288
-1.00137, 97, 1, 224, 128
-1.00141, 37, 145, 68, 272
-1.00155, 289, 17, 320, 144
-1.00158, 373, 65, 404, 192
-1.00163, 133, 113, 164, 240
-1.0017, 385, 65, 416, 192
-1.00172, 441, 65, 472, 192
-1.00179, 49, 1, 176, 128
-1.00203, 157, 97, 188, 224
-1.00212, 81, 65, 112, 192
-1.00228, 145, 1, 272, 128
-1.00235, 313, 1, 344, 128
-1.00237, 1, 17, 500, 80
-1.00238, 1, 97, 64, 224
-1.00243, 1, 81, 500, 144
-1.00254, 41, 33, 104, 288
-1.00257, 469, 81, 500, 208
-1.00259, 397, 65, 428, 192
-1.0026, 361, 65, 392, 192
-1.00264, 1, 57, 500, 120
-1.00271, 193, 49, 256, 176
-1.00278, 105, 113, 136, 240
-1.00279, 17, 81, 144, 208
-1.00294, 225, 33, 288, 160
-1.00308, 113, 49, 240, 176
-1.0031, 329, 33, 360, 160
-1.00319, 57, 97, 88, 224
-1.00322, 1, 97, 32, 224
-1.00329, 209, 49, 240, 176
-1.00343, 69, 97, 100, 224
-1.00378, 5, 1, 36, 128
-1.00393, 105, 1, 168, 128
-1.00405, 73, 33, 136, 160
-1.00405, 17, 97, 48, 224
-1.00412, 353, 1, 416, 128
-1.00417, 93, 97, 124, 224
-1.00454, 425, 17, 488, 144
-1.00467, 49, 65, 112, 192
-1.00473, 201, 1, 264, 128
-1.00492, 81, 33, 144, 288
-1.00513, 145, 1, 208, 128
-1.00571, 25, 65, 88, 192
-1.00617, 33, 1, 96, 128
-1.00626, 121, 49, 184, 176
-1.00626, 401, 1, 464, 128
-1.00692, 1, 1, 64, 128
-1.00766, 177, 1, 240, 128
-1.00775, 97, 49, 160, 176
-1.00782, 377, 1, 440, 128
-1.00817, 1, 49, 64, 176
