1956
-0.409123, 1, 1, 500, 375
-0.464613, 1, 129, 500, 375
-0.518822, 97, 1, 352, 375
-0.529029, 1, 33, 500, 288
-0.614457, 257, 1, 500, 375
-0.657388, 1, 1, 256, 375
-0.691845, 129, 33, 384, 288
-0.753335, 129, 129, 384, 375
-0.774072, 1, 129, 256, 375
-0.776218, 257, 97, 500, 352
-0.830182, 1, 33, 256, 288
-0.851816, 257, 1, 500, 256
-0.88606, 113, 1, 240, 375
-0.89345, 97, 65, 224, 320
-0.901396, 1, 209, 500, 336
-0.904284, 305, 1, 432, 375
-0.905847, 1, 161, 500, 288
-0.913601, 145, 65, 272, 320
-0.914641, 1, 113, 500, 240
-0.91705, 273, 97, 400, 352
-0.921995, 209, 97, 336, 352
-0.92339, 193, 1, 320, 375
-0.923402, 337, 65, 464, 320
-0.92537, 257, 1, 384, 256
-0.927379, 353, 1, 480, 375
-0.927973, 65, 1, 192, 375
-0.928982, 1, 65, 500, 192
-0.929774, 129, 65, 384, 192
-0.931996, 257, 1, 384, 375
-0.932314, 1, 1, 128, 375
-0.934959, 49, 129, 176, 375
-0.935254, 193, 241, 448, 368
-0.936358, 209, 1, 336, 256
-0.939495, 65, 129, 320, 256
-0.942078, 1, 1, 500, 128
-0.943087, 65, 177, 320, 304
-0.943751, 17, 33, 144, 288
-0.945162, 129, 17, 384, 144
-0.947935, 161, 177, 416, 304
-0.949784, 113, 129, 240, 256
-0.950001, 153, 65, 216, 192
-0.952385, 1, 225, 256, 352
-0.953649, 1, 129, 128, 375
-0.954973, 129, 129, 192, 256
-0.955879, 257, 97, 500, 224
-0.956336, 1, 65, 256, 192
-0.95688, 129, 81, 256, 208
-0.956897, 177, 145, 240, 272
-0.957602, 289, 145, 352, 272
-0.958413, 257, 49, 500, 176
-0.960256, 369, 241, 496, 368
-0.96092, 193, 113, 320, 240
-0.961478, 97, 225, 352, 352
-0.9615, 257, 145, 500, 272
-0.961598, 161, 113, 416, 240
-0.962363, 129, 81, 192, 208
-0.96301, 257, 1, 500, 128
-0.963805, 273, 225, 400, 352
-0.964607, 129, 241, 256, 368
-0.964786, 145, 177, 272, 304
-0.965568, 401, 225, 464, 352
-0.965869, 97, 129, 160, 256
-0.965902, 81, 225, 208, 352
-0.96616, 273, 33, 400, 160
-0.966181, 65, 145, 192, 272
-0.966277, 81, 81, 208, 208
-0.966464, 137, 177, 200, 304
-0.966664, 257, 193, 500, 320
-0.968152, 193, 177, 320, 304
-0.968282, 1, 17, 256, 144
-0.968576, 273, 177, 400, 304
-0.96895, 337, 241, 400, 368
-0.96906, 121, 145, 184, 208
-0.969224, 161, 225, 224, 288
-0.969607, 145, 257, 208, 320
-0.96978, 97, 33, 224, 160
-0.969867, 145, 33, 272, 160
-0.969967, 177, 65, 240, 192
-0.970021, 153, 225, 216, 352
-0.970364, 105, 193, 168, 320
-0.970556, 409, 233, 472, 296
-0.970744, 177, 225, 240, 352
-0.970771, 137, 201, 200, 264
-0.970926, 281, 49, 344, 176
-0.970926, 289, 225, 352, 352
-0.971081, 177, 153, 240, 216
-0.971234, 281, 161, 344, 224
-0.97212, 153, 161, 216, 224
-0.972271, 273, 97, 400, 224
-0.972555, 321, 241, 448, 368
-0.972921, 313, 193, 376, 320
-0.973315, 153, 113, 216, 240
-0.973419, 169, 281, 232, 344
-0.973455, 289, 193, 352, 256
-0.973956, 249, 97, 312, 224
-0.974037, 153, 73, 216, 136
-0.974122, 209, 225, 336, 352
-0.974183, 225, 49, 352, 176
-0.974658, 177, 185, 240, 248
-0.975069, 137, 1, 200, 128
-0.975339, 17, 225, 144, 352
-0.975573, 121, 129, 184, 375
-0.975672, 137, 121, 200, 184
-0.975679, 369, 193, 496, 320
-0.975962, 73, 177, 136, 304
-0.976032, 433, 209, 496, 336
-0.97604, 81, 233, 144, 296
-0.976143, 289, 305, 352, 368
-0.976541, 377, 241, 440, 368
-0.976733, 97, 209, 160, 272
-0.976742, 209, 81, 272, 208
-0.976892, 321, 1, 448, 128
-0.97726, 105, 81, 168, 208
-0.977366, 321, 97, 448, 224
-0.97744, 161, 121, 224, 184
-0.97745, 121, 233, 184, 296
-0.977543, 193, 257, 256, 320
-0.977568, 97, 153, 160, 216
-0.977617, 153, 65, 216, 320
-0.977807, 321, 177, 448, 304
-0.977871, 433, 201, 496, 264
-0.977922, 81, 225, 144, 352
-0.978255, 337, 49, 464, 176
-0.978396, 281, 225, 344, 288
-0.978628, 121, 265, 184, 328
-0.978704, 113, 33, 176, 160
-0.978807, 113, 89, 176, 152
-0.978809, 193, 1, 320, 128
-0.97886, 345, 257, 408, 320
-0.97916, 289, 33, 352, 96
-0.97924, 369, 1, 432, 128
-0.979306, 305, 217, 368, 280
-0.979336, 257, 33, 320, 160
-0.979576, 329, 97, 392, 224
-0.979578, 161, 17, 224, 144
-0.979732, 313, 33, 376, 160
-0.979762, 281, 1, 344, 128
-0.979778, 289, 273, 352, 336
-0.979997, 129, 169, 192, 232
-0.980075, 377, 265, 440, 328
-0.980091, 433, 233, 496, 296
-0.980135, 97, 145, 224, 208
-0.980306, 281, 97, 344, 224
-0.980316, 201, 113, 264, 176
-0.980363, 281, 121, 344, 184
-0.980514, 313, 297, 376, 360
-0.980532, 113, 113, 176, 176
-0.980736, 185, 209, 248, 272
-0.980956, 217, 89, 280, 152
-0.98119, 201, 209, 264, 336
-0.981529, 289, 1, 352, 256
-0.981862, 369, 49, 432, 176
-0.982095, 185, 17, 248, 144
-0.982199, 385, 233, 448, 296
-0.98231, 345, 289, 408, 352
-0.982552, 17, 161, 144, 288
-0.982658, 97, 129, 160, 375
-0.982928, 125, 113, 156, 240
-0.983007, 49, 33, 176, 160
-0.98308, 153, 49, 216, 112
-0.983119, 345, 49, 408, 176
-0.983123, 313, 241, 376, 304
-0.983301, 17, 97, 144, 224
-0.983335, 161, 97, 224, 160
-0.983411, 113, 241, 176, 368
-0.983446, 185, 97, 248, 352
-0.983451, 73, 177, 136, 240
-0.983461, 81, 177, 208, 240
-0.983465, 289, 129, 352, 375
-0.983613, 173, 201, 204, 264
-0.983637, 137, 289, 200, 352
-0.98368, 385, 305, 448, 368
-0.983691, 273, 249, 400, 312
-0.983716, 81, 201, 208, 264
-0.983725, 177, 65, 208, 192
-0.983806, 145, 145, 176, 208
-0.983808, 145, 129, 176, 256
-0.983837, 345, 313, 408, 375
-0.983983, 193, 281, 256, 344
-0.984235, 273, 225, 400, 288
-0.984311, 97, 49, 224, 112
-0.984315, 337, 257, 464, 320
-0.984397, 129, 113, 256, 176
-0.98444, 177, 73, 240, 136
-0.984504, 193, 137, 320, 200
-0.984526, 129, 169, 256, 232
-0.984624, 149, 217, 180, 280
-0.98467, 121, 33, 184, 288
-0.98467, 157, 65, 188, 192
-0.984694, 345, 1, 408, 128
-0.984699, 313, 241, 376, 368
-0.98473, 169, 257, 232, 320
-0.984788, 129, 265, 256, 328
-0.984892, 193, 233, 320, 296
-0.984926, 81, 265, 144, 328
-0.985065, 73, 201, 136, 264
-0.985078, 145, 81, 272, 144
-0.985086, 249, 209, 312, 336
-0.985178, 145, 81, 176, 208
-0.985201, 289, 249, 352, 312
-0.985273, 201, 129, 264, 256
-0.985315, 425, 273, 488, 336
-0.985337, 401, 273, 464, 336
-0.985338, 305, 97, 368, 224
-0.985343, 329, 217, 392, 280
-0.985362, 241, 89, 304, 152
-0.985477, 209, 281, 336, 344
-0.985657, 161, 145, 192, 272
-0.985659, 81, 241, 208, 304
-0.985721, 149, 209, 180, 336
-0.985785, 161, 193, 192, 320
-0.985791, 97, 185, 160, 248
-0.985804, 257, 161, 320, 288
-0.985833, 273, 41, 400, 104
-0.985888, 145, 233, 272, 296
-0.985903, 345, 105, 408, 168
-0.98593, 129, 297, 256, 360
-0.986022, 297, 161, 328, 288
-0.986054, 121, 49, 184, 112
-0.986076, 369, 65, 432, 128
-0.986144, 193, 257, 320, 320
-0.986293, 369, 233, 496, 296
-0.986323, 97, 73, 224, 136
-0.986329, 281, 97, 344, 160
-0.986346, 193, 201, 320, 264
-0.986361, 49, 265, 112, 328
-0.986384, 333, 193, 364, 320
-0.986404, 201, 185, 264, 248
-0.986452, 129, 201, 256, 264
-0.986467, 153, 1, 216, 375
-0.986478, 401, 97, 464, 160
-0.986483, 337, 313, 464, 375
-0.986543, 293, 233, 324, 296
-0.986603, 129, 145, 160, 208
-0.98662, 293, 161, 324, 224
-0.986676, 161, 209, 192, 272
-0.986757, 137, 177, 168, 304
-0.986806, 209, 169, 336, 232
-0.986815, 201, 137, 264, 200
-0.98687, 41, 209, 104, 336
-0.986877, 157, 161, 188, 224
-0.986886, 113, 289, 176, 352
-0.987005, 321, 281, 448, 344
-0.987047, 249, 121, 312, 184
-0.987108, 289, 9, 352, 72
-0.987129, 145, 145, 272, 208
-0.987178, 273, 305, 400, 368
-0.987225, 209, 289, 240, 352
-0.987266, 197, 145, 228, 208
-0.98734, 305, 97, 432, 160
-0.987347, 409, 297, 472, 360
-0.987362, 85, 217, 116, 280
-0.98739, 185, 49, 248, 112
-0.987416, 201, 129, 232, 256
-0.987419, 433, 161, 496, 288
-0.987493, 329, 217, 360, 280
-0.987606, 173, 17, 204, 144
-0.987631, 305, 81, 368, 144
-0.987638, 113, 145, 144, 272
-0.987639, 177, 177, 208, 240
-0.987646, 121, 65, 152, 192
-0.987699, 281, 57, 344, 120
-0.987741, 137, 193, 168, 256
-0.987814, 193, 305, 320, 368
-0.98791, 209, 305, 272, 368
-0.98791, 257, 185, 384, 248
-0.988135, 137, 225, 168, 288
-0.988196, 293, 33, 324, 160
-0.988239, 65, 265, 192, 328
-0.988245, 157, 273, 188, 336
-0.98825, 217, 281, 280, 344
-0.988258, 185, 233, 248, 296
-0.988299, 369, 97, 496, 224
-0.988351, 409, 209, 472, 272
-0.988452, 209, 225, 240, 352
-0.988462, 369, 281, 496, 344
-0.988468, 401, 1, 464, 128
-0.988482, 141, 121, 172, 184
-0.988485, 257, 161, 320, 224
-0.988485, 81, 289, 144, 352
-0.988549, 161, 241, 192, 304
-0.98858, 117, 145, 148, 208
-0.988595, 17, 161, 144, 224
-0.98863, 129, 1, 192, 375
-0.98877, 209, 113, 336, 176
-0.988792, 161, 57, 288, 120
-0.98886, 345, 97, 408, 352
-0.988879, 257, 1, 320, 256
-0.988882, 173, 177, 204, 304
-0.988914, 369, 97, 496, 160
-0.988924, 185, 305, 248, 368
-0.989008, 121, 209, 152, 336
-0.989046, 329, 193, 360, 256
-0.98905, 81, 177, 112, 304
-0.989138, 89, 241, 120, 304
-0.989142, 81, 81, 144, 208
-0.989158, 225, 89, 352, 152
-0.989307, 273, 273, 400, 336
-0.989332, 369, 1, 496, 128
-0.989355, 181, 233, 212, 296
-0.989356, 345, 73, 408, 136
-0.989396, 157, 185, 188, 248
-0.989464, 305, 137, 368, 200
-0.98947, 225, 305, 256, 368
-0.989608, 193, 65, 224, 192
-0.989665, 273, 153, 400, 216
-0.989671, 145, 25, 208, 88
-0.98974, 401, 49, 464, 176
-0.989789, 289, 1, 352, 375
-0.98981, 57, 225, 120, 288
-0.989817, 153, 121, 184, 184
-0.989824, 17, 265, 144, 328
-0.989839, 133, 225, 164, 352
-0.989874, 337, 65, 464, 128
-0.989876, 93, 225, 124, 352
-0.989884, 153, 81, 184, 144
-0.989904, 33, 185, 160, 248
-0.989917, 393, 273, 424, 336
-0.989991, 229, 281, 260, 344
-0.990092, 369, 89, 432, 152
-0.990104, 209, 33, 272, 160
-0.990114, 213, 177, 244, 240
-0.990168, 293, 113, 324, 240
-0.990202, 421, 225, 452, 288
-0.990211, 165, 241, 196, 368
-0.990215, 193, 185, 224, 248
-0.990231, 249, 209, 312, 272
-0.990269, 201, 105, 232, 168
-0.990277, 125, 113, 156, 176
-0.990326, 305, 17, 432, 80
-0.990402, 265, 25, 328, 88
-0.990413, 181, 153, 212, 216
-0.990416, 81, 121, 208, 184
-0.990423, 257, 273, 320, 336
-0.990463, 337, 209, 464, 272
-0.990463, 213, 265, 244, 328
-0.990516, 217, 113, 248, 176
-0.990535, 153, 237, 216, 268
-0.990535, 337, 193, 400, 320
-0.990538, 137, 285, 200, 316
-0.990538, 161, 253, 224, 284
-0.990573, 17, 225, 144, 288
-0.990574, 249, 49, 312, 112
-0.990597, 297, 25, 328, 88
-0.990602, 321, 17, 384, 80
-0.990617, 313, 41, 376, 104
-0.990622, 161, 269, 224, 300
-0.990646, 249, 129, 312, 375
-0.990664, 433, 297, 496, 360
-0.990673, 293, 49, 324, 112
-0.990717, 353, 33, 416, 96
-0.990722, 177, 237, 240, 268
-0.990743, 185, 145, 216, 272
-0.990745, 141, 257, 172, 320
-0.990751, 321, 97, 384, 352
-0.990762, 421, 209, 452, 336
-0.990793, 321, 233, 448, 296
-0.990803, 33, 241, 96, 304
-0.990855, 65, 289, 192, 352
-0.990873, 433, 209, 464, 336
-0.990881, 313, 105, 376, 168
-0.990924, 249, 241, 312, 304
-0.990934, 169, 297, 232, 328
-0.990937, 141, 1, 172, 128
-0.990967, 137, 257, 200, 288
-0.990982, 273, 73, 400, 136
-0.990985, 337, 1, 400, 375
-0.990998, 281, 165, 344, 196
-0.990999, 153, 1, 184, 128
-0.991009, 409, 177, 472, 304
-0.991025, 153, 201, 216, 232
-0.991026, 289, 33, 352, 64
-0.991028, 153, 189, 216, 220
-0.991031, 137, 177, 200, 208
-0.991038, 293, 193, 324, 256
-0.991054, 361, 249, 392, 312
-0.991066, 185, 261, 248, 292
-0.991066, 169, 285, 232, 316
-0.9911, 93, 169, 124, 232
-0.99111, 153, 225, 216, 256
-0.991121, 185, 73, 216, 136
-0.991123, 193, 225, 256, 256
-0.991131, 105, 201, 136, 264
-0.99116, 321, 177, 352, 304
-0.991165, 73, 129, 136, 256
-0.991192, 297, 209, 328, 336
-0.991203, 161, 157, 224, 188
-0.99123, 137, 165, 200, 196
-0.991245, 249, 89, 280, 152
-0.991259, 177, 33, 304, 96
-0.991279, 281, 185, 344, 216
-0.991301, 169, 153, 200, 216
-0.991337, 113, 173, 176, 204
-0.99134, 177, 1, 240, 256
-0.99135, 193, 249, 256, 280
-0.991352, 221, 209, 252, 336
-0.991356, 329, 193, 392, 256
-0.991358, 433, 97, 496, 352
-0.991359, 249, 185, 312, 248
-0.991374, 89, 129, 152, 192
-0.991395, 129, 221, 192, 252
-0.991399, 313, 265, 376, 328
-0.991402, 137, 269, 200, 300
-0.991425, 377, 257, 408, 320
-0.991446, 309, 129, 340, 256
-0.991477, 17, 289, 144, 352
-0.991504, 117, 81, 148, 144
-0.991523, 209, 225, 272, 288
-0.991524, 153, 213, 216, 244
-0.99154, 305, 121, 432, 184
-0.99158, 121, 189, 184, 220
-0.991585, 405, 249, 436, 312
-0.991603, 177, 169, 240, 200
-0.991619, 393, 257, 456, 288
-0.991622, 113, 145, 176, 176
-0.991645, 281, 205, 344, 236
-0.991669, 177, 185, 240, 216
-0.991672, 145, 297, 208, 328
-0.991731, 97, 209, 160, 240
-0.991738, 129, 245, 192, 276
-0.991745, 105, 233, 168, 264
-0.991749, 1, 313, 64, 375
-0.991749, 161, 77, 224, 108
-0.99175, 65, 229, 128, 260
-0.991754, 89, 173, 152, 204
-0.991759, 89, 73, 152, 136
-0.991789, 409, 269, 472, 300
-0.991837, 137, 141, 200, 172
-0.991838, 81, 185, 144, 216
-0.991838, 409, 237, 472, 268
-0.991848, 281, 225, 344, 256
-0.991857, 185, 273, 248, 304
-0.991873, 85, 193, 116, 256
-0.99188, 369, 121, 432, 184
-0.991894, 293, 137, 324, 200
-0.991903, 173, 113, 204, 240
-0.99191, 305, 161, 336, 224
-0.991913, 193, 285, 256, 316
-0.991928, 289, 341, 352, 372
-0.991937, 297, 301, 360, 332
-0.991946, 361, 1, 424, 375
-0.99197, 121, 205, 184, 236
-0.99199, 329, 333, 392, 364
-0.991995, 129, 121, 384, 184
-0.991999, 425, 221, 488, 252
-0.992001, 169, 265, 200, 328
-0.992011, 305, 217, 368, 248
-0.992027, 105, 221, 168, 252
-0.992064, 113, 161, 176, 192
-0.992078, 289, 269, 352, 300
-0.992085, 373, 241, 404, 368
-0.992093, 201, 81, 232, 144
-0.992103, 209, 89, 272, 120
-0.992127, 281, 237, 344, 268
-0.992189, 129, 85, 192, 116
-0.992191, 133, 65, 164, 192
-0.992198, 425, 1, 488, 128
-0.992201, 281, 153, 344, 184
-0.992205, 121, 297, 184, 328
-0.992206, 337, 257, 400, 288
-0.992212, 97, 197, 160, 228
-0.992212, 113, 117, 176, 148
-0.992212, 81, 269, 144, 300
-0.992235, 177, 1, 240, 375
-0.992237, 185, 213, 248, 244
-0.992239, 313, 1, 376, 256
-0.992248, 113, 285, 176, 316
-0.992249, 121, 97, 184, 128
-0.992262, 161, 305, 224, 368
-0.99227, 193, 197, 256, 228
-0.992282, 209, 309, 272, 340
-0.992288, 289, 257, 352, 288
-0.992291, 185, 153, 248, 184
-0.992295, 161, 105, 224, 136
-0.992299, 361, 193, 424, 320
-0.992302, 281, 129, 344, 160
-0.992327, 201, 237, 264, 268
-0.992342, 209, 65, 272, 128
-0.992346, 169, 297, 200, 360
-0.992355, 193, 109, 256, 140
-0.992356, 169, 93, 232, 124
-0.992357, 209, 125, 272, 156
-0.992359, 457, 241, 488, 368
-0.992372, 369, 269, 432, 300
-0.992387, 329, 289, 392, 320
-0.992388, 281, 141, 344, 172
-0.992396, 305, 241, 368, 272
-0.992396, 89, 1, 152, 375
-0.992403, 193, 297, 256, 328
-0.992405, 73, 129, 136, 375
-0.992407, 121, 129, 184, 160
-0.992411, 289, 321, 352, 352
-0.992424, 393, 281, 456, 312
-0.99243, 433, 245, 496, 276
-0.99243, 97, 297, 160, 328
-0.992434, 289, 285, 352, 316
-0.992435, 101, 161, 132, 288
-0.992438, 1, 249, 64, 312
-0.992445, 433, 261, 496, 292
-0.992458, 81, 285, 144, 316
-0.992463, 33, 217, 96, 280
-0.992464, 281, 53, 344, 84
-0.992468, 105, 77, 168, 108
-0.992489, 217, 105, 280, 136
-0.992502, 97, 25, 224, 88
-0.992506, 129, 233, 192, 264
-0.99252, 201, 137, 264, 168
-0.992524, 137, 97, 200, 160
-0.992552, 165, 73, 196, 136
-0.992569, 73, 213, 136, 244
-0.992579, 225, 257, 256, 320
-0.992581, 173, 41, 204, 104
-0.992602, 441, 257, 472, 320
-0.992611, 361, 257, 424, 288
-0.992617, 73, 241, 136, 272
-0.99262, 369, 297, 432, 328
-0.99263, 353, 97, 416, 224
-0.99263, 369, 101, 432, 132
-0.992647, 113, 273, 176, 304
-0.992655, 153, 125, 216, 156
-0.992659, 281, 117, 344, 148
-0.992663, 241, 101, 304, 132
-0.992672, 337, 113, 400, 144
-0.992676, 65, 97, 192, 160
-0.992677, 281, 21, 344, 52
-0.992677, 257, 17, 384, 80
-0.992679, 117, 193, 148, 256
-0.992712, 193, 225, 224, 288
-0.992714, 137, 309, 200, 340
-0.992716, 337, 41, 464, 104
-0.992724, 377, 341, 440, 372
-0.992724, 433, 233, 496, 264
-0.992726, 433, 49, 496, 176
-0.99274, 305, 97, 368, 128
-0.992742, 305, 229, 368, 260
-0.992749, 345, 345, 408, 375
-0.992755, 433, 297, 496, 328
-0.99278, 89, 161, 152, 192
-0.992784, 185, 25, 248, 88
-0.992785, 113, 261, 176, 292
-0.99279, 409, 225, 440, 352
-0.992793, 41, 265, 104, 296
-0.992797, 161, 137, 224, 168
-0.992805, 401, 309, 464, 340
-0.992813, 153, 45, 216, 76
-0.992819, 377, 325, 440, 356
-0.992822, 377, 129, 440, 375
-0.992824, 433, 209, 496, 240
-0.992828, 265, 105, 328, 136
-0.99284, 65, 201, 128, 232
-0.992847, 137, 153, 200, 184
-0.992856, 249, 89, 312, 120
-0.992858, 185, 57, 248, 88
-0.99286, 185, 317, 248, 348
-0.992867, 57, 281, 120, 312
-0.992882, 193, 17, 224, 144
-0.992898, 281, 89, 344, 120
-0.992911, 433, 285, 496, 316
-0.992917, 305, 185, 368, 216
-0.992921, 177, 193, 208, 224
-0.992927, 1, 313, 128, 375
-0.992931, 329, 309, 392, 340
-0.992955, 153, 293, 184, 324
-0.992956, 49, 65, 176, 128
-0.992968, 117, 173, 148, 204
-0.992976, 157, 197, 188, 228
-0.992985, 165, 181, 196, 212
-0.992994, 161, 241, 192, 272
-0.993001, 137, 193, 168, 224
-0.993014, 89, 273, 120, 336
-0.993025, 185, 193, 216, 320
-0.993028, 137, 177, 168, 208
-0.993034, 165, 277, 196, 308
-0.993035, 293, 165, 324, 196
-0.993042, 181, 217, 212, 248
-0.993058, 141, 169, 172, 232
-0.993059, 137, 205, 168, 236
-0.993067, 93, 233, 124, 264
-0.993074, 101, 181, 132, 212
-0.993074, 353, 241, 384, 368
-0.993081, 329, 201, 360, 232
-0.993091, 161, 253, 192, 284
-0.993104, 189, 205, 220, 236
-0.993105, 169, 205, 200, 236
-0.993107, 193, 153, 224, 184
-0.993119, 165, 289, 196, 320
-0.99312, 329, 217, 360, 248
-0.993122, 165, 265, 196, 296
-0.993126, 153, 281, 184, 312
-0.993128, 225, 309, 256, 340
-0.993137, 145, 237, 176, 268
-0.993138, 181, 241, 212, 272
-0.993139, 181, 261, 212, 292
-0.993149, 213, 97, 244, 224
-0.993154, 149, 181, 180, 212
-0.993161, 17, 137, 144, 200
-0.993163, 213, 301, 244, 332
-0.993165, 181, 229, 212, 260
-0.993166, 357, 17, 388, 144
-0.993171, 129, 165, 160, 196
-0.993172, 149, 225, 180, 256
-0.993174, 133, 217, 164, 248
-0.993188, 113, 193, 144, 224
-0.993189, 125, 189, 156, 220
-0.993192, 153, 213, 184, 244
-0.993195, 201, 109, 232, 140
-0.993198, 213, 125, 244, 156
-0.993199, 293, 33, 324, 64
-0.993199, 97, 201, 352, 264
-0.993205, 97, 169, 128, 200
-0.993214, 93, 193, 124, 224
-0.993217, 437, 265, 468, 296
-0.99322, 89, 213, 120, 244
-0.993228, 165, 165, 196, 196
-0.993228, 141, 297, 172, 328
-0.99323, 257, 113, 384, 176
-0.993231, 121, 153, 152, 184
-0.993235, 145, 145, 176, 176
-0.993238, 149, 249, 180, 280
-0.993246, 181, 257, 212, 320
-0.993247, 213, 161, 244, 288
-0.993254, 177, 181, 208, 212
-0.993263, 161, 229, 192, 260
-0.993267, 449, 193, 480, 320
-0.993271, 293, 241, 324, 272
-0.993275, 297, 269, 328, 300
-0.993279, 137, 133, 168, 164
-0.99328, 433, 105, 496, 168
-0.993285, 109, 161, 140, 192
-0.993296, 197, 225, 228, 256
-0.9933, 129, 229, 160, 260
-0.993303, 193, 237, 224, 268
-0.993303, 125, 205, 156, 236
-0.993305, 161, 305, 192, 336
-0.993307, 393, 117, 424, 148
-0.993307, 205, 189, 236, 220
-0.993308, 145, 165, 176, 196
-0.993309, 105, 153, 136, 216
-0.993313, 81, 225, 112, 256
-0.993316, 305, 161, 368, 224
-0.993318, 133, 153, 164, 184
-0.993321, 109, 229, 140, 260
-0.993323, 361, 225, 424, 288
-0.993324, 193, 193, 224, 224
-0.993327, 181, 273, 212, 304
-0.993336, 133, 245, 164, 276
-0.993337, 405, 261, 436, 292
-0.993343, 129, 293, 160, 324
-0.993344, 265, 305, 328, 368
-0.993344, 325, 189, 356, 220
-0.993348, 209, 321, 240, 352
-0.993355, 217, 113, 248, 144
-0.993356, 441, 253, 472, 284
-0.993357, 293, 225, 324, 256
-0.993358, 153, 269, 184, 300
-0.993366, 125, 113, 156, 144
-0.99337, 205, 145, 236, 176
-0.99337, 105, 213, 136, 244
-0.993371, 89, 273, 120, 304
-0.993371, 177, 285, 208, 316
-0.993373, 149, 85, 180, 116
-0.993373, 177, 77, 208, 108
-0.993374, 225, 265, 256, 296
-0.993374, 173, 301, 204, 332
-0.993379, 401, 1, 464, 375
-0.99338, 81, 237, 112, 268
-0.993381, 217, 289, 248, 320
-0.993382, 77, 281, 108, 344
-0.993386, 293, 213, 324, 244
-0.99339, 113, 121, 144, 184
-0.993391, 293, 201, 324, 232
-0.993393, 317, 217, 348, 248
-0.993399, 293, 177, 324, 208
-0.993402, 385, 265, 416, 296
-0.993416, 77, 241, 108, 304
-0.993416, 157, 153, 188, 184
-0.993417, 141, 261, 172, 292
-0.993418, 201, 257, 232, 288
-0.993418, 381, 297, 412, 360
-0.99342, 425, 233, 456, 264
-0.993421, 1, 241, 500, 304
-0.993421, 301, 149, 332, 180
-0.993421, 117, 93, 148, 124
-0.993421, 333, 229, 364, 260
-0.993426, 189, 169, 220, 200
-0.993428, 293, 257, 324, 288
-0.993428, 213, 209, 244, 240
-0.993434, 209, 177, 240, 208
-0.993435, 1, 209, 64, 336
-0.993435, 317, 201, 348, 264
-0.993438, 81, 285, 112, 316
-0.99344, 181, 157, 212, 188
-0.99344, 369, 257, 400, 288
-0.993441, 93, 253, 124, 284
-0.993443, 293, 189, 324, 220
-0.993445, 117, 249, 148, 280
-0.993448, 77, 269, 108, 300
-0.993448, 357, 105, 388, 136
-0.99345, 121, 169, 152, 232
-0.993451, 209, 229, 240, 260
-0.993453, 129, 305, 160, 336
-0.993455, 141, 281, 172, 312
-0.993458, 77, 213, 108, 244
-0.993459, 353, 9, 416, 72
-0.993462, 225, 237, 256, 268
-0.993463, 161, 81, 192, 112
-0.993463, 353, 253, 384, 284
-0.993466, 209, 137, 240, 200
-0.993466, 169, 217, 200, 248
-0.993473, 293, 53, 324, 84
-0.993474, 425, 273, 456, 304
-0.993477, 293, 117, 324, 148
-0.993478, 201, 97, 232, 128
-0.993479, 397, 277, 428, 308
-0.993483, 141, 97, 172, 128
-0.993486, 189, 181, 220, 212
-0.993486, 89, 181, 120, 212
-0.993488, 177, 169, 208, 200
-0.993488, 397, 1, 428, 32
-0.993491, 201, 213, 232, 244
-0.993543, 177, 9, 304, 72
-0.993547, 293, 89, 324, 152
-0.993557, 425, 313, 456, 375
-0.993571, 129, 81, 384, 144
-0.993634, 141, 89, 172, 152
-0.993641, 225, 233, 256, 296
-0.99368, 209, 65, 336, 128
-0.993684, 129, 169, 384, 232
-0.993686, 281, 209, 312, 336
-0.993694, 17, 41, 144, 104
-0.993706, 97, 33, 160, 288
-0.993767, 141, 297, 172, 360
-0.993775, 109, 97, 140, 224
-0.993844, 309, 25, 340, 88
-0.993877, 313, 1, 376, 375
-0.99388, 205, 209, 236, 272
-0.993958, 225, 41, 352, 104
-0.993985, 213, 313, 244, 375
-0.993993, 441, 217, 472, 280
-0.994015, 385, 1, 448, 64
-0.994015, 89, 105, 152, 168
-0.994021, 305, 129, 336, 192
-0.99404, 217, 257, 280, 320
-0.994055, 33, 289, 96, 352
-0.994065, 225, 113, 288, 176
-0.994077, 1, 17, 128, 144
-0.994087, 129, 41, 384, 104
-0.994091, 249, 1, 312, 375
-0.994103, 365, 65, 396, 128
-0.994114, 225, 225, 288, 352
-0.994117, 349, 249, 380, 312
-0.994119, 421, 281, 452, 344
-0.994173, 321, 129, 352, 256
-0.994208, 345, 1, 408, 256
-0.99421, 437, 289, 468, 352
-0.994232, 165, 129, 196, 192
-0.994241, 301, 305, 332, 368
-0.994328, 369, 1, 496, 64
-0.994333, 309, 17, 340, 144
-0.994375, 25, 161, 88, 288
-0.994445, 129, 145, 384, 208
-0.994468, 345, 33, 376, 160
-0.994473, 25, 313, 88, 375
-0.994481, 361, 65, 392, 192
-0.994531, 209, 33, 272, 288
-0.994543, 101, 225, 132, 288
-0.994564, 121, 257, 152, 320
-0.994593, 257, 241, 500, 304
-0.994594, 309, 225, 340, 352
-0.994619, 401, 1, 464, 256
-0.994622, 381, 1, 412, 128
-0.994627, 341, 297, 372, 360
-0.994639, 125, 233, 156, 296
-0.99467, 357, 281, 388, 344
-0.994684, 405, 273, 436, 336
-0.994691, 353, 73, 384, 136
-0.994701, 397, 241, 428, 368
-0.994743, 385, 241, 416, 368
-0.99478, 409, 305, 440, 368
-0.994782, 409, 1, 440, 128
-0.994792, 105, 177, 136, 240
-0.994794, 445, 241, 476, 368
-0.994876, 397, 49, 428, 176
-0.994877, 129, 225, 384, 288
-0.994882, 401, 121, 432, 184
-0.994901, 1, 193, 500, 256
-0.994906, 457, 281, 488, 344
-0.995079, 337, 185, 464, 248
-0.995111, 1, 273, 256, 336
-0.995124, 193, 281, 448, 344
-0.995128, 81, 225, 112, 352
-0.99514, 209, 1, 272, 375
-0.995152, 81, 313, 208, 375
-0.995155, 313, 313, 344, 375
-0.99517, 461, 201, 492, 264
-0.995233, 193, 241, 224, 368
-0.995265, 393, 97, 424, 160
-0.99529, 297, 257, 328, 320
-0.995306, 461, 225, 492, 288
-0.995384, 461, 177, 492, 304
-0.995438, 245, 65, 276, 192
-0.995462, 433, 1, 496, 375
-0.99549, 65, 249, 320, 312
-0.995491, 369, 289, 400, 352
-0.995555, 409, 65, 472, 128
-0.995567, 293, 113, 324, 176
-0.995579, 249, 1, 312, 64
-0.995629, 101, 249, 132, 312
-0.995647, 257, 177, 500, 240
-0.995654, 1, 49, 256, 112
-0.995677, 373, 49, 404, 176
-0.995682, 357, 97, 388, 160
-0.995692, 329, 305, 360, 368
-0.995702, 1, 281, 500, 344
-0.995737, 225, 129, 288, 256
-0.995745, 129, 89, 160, 152
-0.995752, 205, 241, 236, 304
-0.995775, 257, 105, 500, 168
-0.995785, 73, 33, 136, 288
-0.995837, 125, 17, 156, 144
-0.995864, 1, 217, 500, 280
-0.995883, 1, 289, 64, 352
-0.995889, 129, 17, 384, 80
-0.995937, 305, 81, 336, 208
-0.995938, 409, 97, 472, 224
-0.995959, 257, 313, 500, 375
-0.995972, 377, 33, 440, 96
-0.995988, 193, 281, 224, 344
-0.99599, 97, 249, 224, 280
-0.996015, 257, 217, 500, 280
-0.996032, 341, 193, 356, 256
-0.996046, 81, 201, 208, 232
-0.996079, 353, 305, 384, 368
-0.9961, 341, 217, 372, 280
-0.996104, 81, 229, 208, 260
-0.996112, 81, 181, 208, 212
-0.996145, 33, 225, 288, 288
-0.996149, 137, 313, 200, 375
-0.99617, 193, 49, 224, 112
-0.996173, 33, 1, 96, 375
-0.996194, 129, 297, 256, 328
-0.996201, 153, 145, 168, 208
-0.996224, 33, 177, 288, 240
-0.996228, 17, 113, 144, 176
-0.99624, 1, 73, 256, 136
-0.996243, 33, 297, 288, 360
-0.996246, 237, 113, 268, 176
-0.996256, 137, 145, 152, 208
-0.996261, 1, 169, 500, 232
-0.996274, 129, 305, 384, 368
-0.996314, 101, 273, 132, 336
-0.996317, 145, 145, 160, 208
-0.996332, 157, 305, 188, 368
-0.996343, 49, 313, 112, 375
-0.996353, 217, 129, 280, 375
-0.996381, 173, 209, 188, 272
-0.996388, 257, 49, 500, 112
-0.996396, 145, 81, 272, 112
-0.996455, 1, 153, 256, 216
-0.996458, 185, 1, 248, 64
-0.996469, 179, 209, 194, 272
-0.99647, 1, 113, 256, 176
-0.996476, 49, 177, 112, 240
-0.99648, 97, 213, 224, 244
-0.996506, 317, 145, 348, 208
-0.996507, 321, 225, 352, 352
-0.99651, 1, 145, 500, 208
-0.996512, 97, 281, 224, 312
-0.99652, 81, 169, 208, 200
-0.996521, 113, 141, 240, 172
-0.996523, 153, 121, 168, 184
-0.996531, 21, 305, 52, 368
-0.996556, 113, 153, 240, 184
-0.996566, 281, 161, 312, 288
-0.996586, 97, 1, 224, 64
-0.996617, 221, 281, 236, 344
-0.996634, 97, 273, 352, 336
-0.996636, 125, 161, 156, 288
-0.996645, 337, 241, 368, 368
-0.996652, 129, 185, 256, 216
-0.996679, 1, 121, 500, 184
-0.996682, 425, 257, 456, 320
-0.996696, 229, 185, 244, 248
-0.996699, 281, 257, 312, 320
-0.996706, 295, 233, 310, 296
-0.99673, 313, 241, 344, 304
-0.996732, 65, 265, 192, 296
-0.996745, 145, 265, 272, 296
-0.996763, 147, 121, 162, 184
-0.996769, 215, 129, 230, 192
-0.996773, 129, 233, 256, 264
-0.996782, 65, 33, 128, 160
-0.996786, 341, 97, 372, 224
-0.996829, 73, 49, 136, 112
-0.996831, 131, 145, 146, 208
-0.996844, 257, 241, 384, 272
-0.996848, 185, 209, 200, 272
-0.996851, 219, 305, 234, 368
-0.996854, 105, 225, 120, 288
-0.996856, 369, 261, 496, 292
-0.996862, 317, 177, 348, 240
-0.996863, 101, 169, 116, 232
-0.996864, 457, 249, 488, 312
-0.996867, 1, 41, 500, 104
-0.996872, 153, 1, 216, 64
-0.996879, 257, 73, 500, 136
-0.996885, 277, 193, 308, 256
-0.996888, 369, 249, 496, 280
-0.996897, 173, 169, 188, 232
-0.99691, 201, 177, 232, 304
-0.996919, 299, 161, 314, 224
-0.996921, 385, 65, 416, 192
-0.996929, 221, 209, 252, 272
-0.99693, 145, 253, 272, 284
-0.996945, 193, 137, 320, 168
-0.996949, 65, 293, 192, 324
-0.996961, 273, 253, 400, 284
-0.996967, 193, 209, 208, 272
-0.996976, 257, 25, 500, 88
-0.996979, 161, 249, 416, 312
-0.997015, 165, 225, 180, 288
-0.997027, 369, 121, 496, 184
-0.997028, 105, 209, 136, 336
-0.997035, 97, 61, 224, 92
-0.997038, 161, 281, 176, 344
-0.997044, 97, 77, 224, 108
-0.997054, 159, 241, 174, 304
-0.997065, 205, 193, 220, 256
-0.997067, 195, 153, 210, 216
-0.99707, 411, 249, 426, 312
-0.997113, 393, 249, 424, 312
-0.997114, 145, 281, 272, 312
-0.997114, 129, 169, 256, 200
-0.997118, 357, 17, 388, 80
-0.997126, 345, 105, 376, 168
-0.99714, 235, 193, 250, 256
-0.997145, 193, 253, 320, 284
-0.997174, 99, 225, 114, 288
-0.997176, 111, 161, 126, 224
-0.997188, 177, 233, 192, 296
-0.997189, 141, 121, 156, 184
-0.997192, 151, 233, 166, 296
-0.997195, 159, 129, 174, 192
-0.997195, 121, 153, 136, 216
-0.997204, 273, 53, 400, 84
-0.99721, 135, 121, 150, 184
-0.997218, 213, 97, 228, 160
-0.99723, 89, 33, 152, 160
-0.997236, 205, 145, 220, 208
-0.997237, 225, 305, 240, 368
-0.997242, 17, 285, 144, 316
-0.99725, 167, 153, 182, 216
-0.99725, 433, 281, 448, 344
-0.99727, 97, 49, 224, 80
-0.997271, 229, 281, 244, 344
-0.997295, 1, 201, 256, 264
-0.997295, 153, 257, 168, 320
-0.997299, 17, 241, 144, 272
-0.997311, 237, 233, 252, 296
-0.997334, 161, 217, 288, 248
-0.997335, 129, 309, 256, 340
-0.997337, 209, 169, 336, 200
-0.997339, 345, 217, 360, 280
-0.997347, 273, 293, 400, 324
-0.997347, 195, 185, 210, 248
-0.997349, 57, 1, 120, 375
-0.997352, 193, 149, 320, 180
-0.997355, 33, 181, 160, 212
-0.997356, 209, 305, 336, 336
-0.997359, 273, 37, 400, 68
-0.997361, 121, 73, 136, 136
-0.997363, 125, 129, 156, 375
-0.997365, 107, 201, 122, 264
-0.997367, 167, 257, 182, 320
-0.997371, 183, 185, 198, 248
-0.997385, 1, 305, 500, 368
-0.997387, 335, 193, 350, 256
-0.997396, 179, 265, 194, 328
-0.997404, 145, 105, 272, 136
-0.99743, 189, 65, 204, 128
-0.997436, 225, 113, 352, 144
-0.997439, 273, 109, 400, 140
-0.997443, 97, 193, 112, 256
-0.997457, 281, 113, 312, 240
-0.997459, 157, 65, 188, 320
-0.997462, 445, 225, 460, 288
-0.997463, 83, 257, 98, 320
-0.997465, 273, 305, 400, 336
-0.997466, 321, 237, 448, 268
-0.997479, 1, 25, 256, 88
-0.997484, 133, 217, 148, 280
-0.997486, 321, 253, 448, 284
-0.997492, 145, 125, 272, 156
-0.997492, 137, 129, 168, 375
-0.997492, 221, 169, 236, 232
-0.997505, 153, 201, 168, 264
-0.997511, 421, 233, 436, 296
-0.997514, 163, 193, 178, 256
-0.997516, 273, 89, 400, 120
-0.997516, 91, 241, 106, 304
-0.997519, 69, 241, 100, 368
-0.997523, 227, 233, 242, 296
-0.997526, 17, 89, 144, 152
-0.997532, 369, 113, 496, 144
-0.997537, 113, 93, 240, 124
-0.997542, 369, 281, 496, 312
-0.997545, 173, 273, 188, 336
-0.997547, 209, 205, 336, 236
-0.99755, 193, 93, 320, 124
-0.997556, 113, 185, 128, 248
-0.997557, 433, 97, 496, 224
-0.997557, 87, 281, 102, 344
-0.997563, 299, 17, 314, 80
-0.997581, 391, 265, 406, 328
-0.997581, 235, 273, 250, 336
-0.997583, 147, 257, 162, 320
-0.997587, 175, 73, 190, 136
-0.997589, 257, 193, 384, 224
-0.997591, 209, 241, 336, 272
-0.997593, 439, 225, 454, 288
-0.9976, 221, 105, 236, 168
-0.9976, 309, 177, 340, 304
-0.997603, 225, 161, 256, 288
-0.997604, 431, 305, 446, 368
-0.99762, 281, 1, 312, 128
-0.997623, 211, 153, 226, 216
-0.99763, 383, 257, 398, 320
-0.997633, 189, 233, 204, 296
-0.997645, 193, 181, 320, 212
-0.997645, 209, 293, 336, 324
-0.997647, 257, 205, 384, 236
-0.997654, 183, 233, 198, 296
-0.997658, 211, 289, 226, 352
-0.997665, 185, 161, 200, 224
-0.997666, 401, 273, 416, 336
-0.997671, 179, 161, 194, 224
-0.997684, 161, 153, 176, 216
-0.997684, 301, 257, 316, 320
-0.997684, 305, 121, 432, 152
-0.997684, 143, 233, 158, 296
-0.997686, 49, 253, 176, 284
-0.997688, 129, 201, 256, 232
-0.997688, 423, 281, 438, 344
-0.99769, 391, 297, 406, 360
-0.997695, 119, 121, 134, 184
-0.997696, 147, 201, 162, 264
-0.997723, 205, 113, 220, 176
-0.997723, 95, 265, 110, 328
-0.997726, 159, 217, 174, 280
-0.997729, 171, 233, 186, 296
-0.997731, 307, 25, 322, 88
-0.997734, 177, 33, 208, 288
-0.997735, 273, 333, 400, 364
-0.997745, 159, 81, 174, 144
-0.997745, 337, 97, 464, 128
-0.997754, 227, 209, 242, 272
-0.997754, 297, 41, 312, 104
-0.997755, 147, 97, 162, 160
-0.997756, 125, 121, 140, 184
-0.997758, 257, 221, 384, 252
-0.997763, 217, 201, 232, 264
-0.997767, 445, 249, 460, 312
-0.997775, 141, 209, 156, 272
-0.997775, 375, 249, 390, 312
-0.997779, 193, 229, 320, 260
-0.997792, 201, 217, 216, 280
-0.997794, 167, 289, 182, 352
-0.997795, 237, 113, 268, 240
-0.997796, 187, 41, 202, 104
-0.997798, 321, 301, 448, 332
-0.997803, 1, 65, 128, 128
-0.997813, 317, 153, 332, 216
-0.997815, 257, 1, 500, 64
-0.997817, 49, 217, 176, 248
-0.99782, 65, 153, 192, 184
-0.997821, 221, 225, 236, 288
-0.997829, 295, 209, 310, 272
-0.997832, 241, 129, 368, 160
-0.997836, 117, 209, 132, 272
-0.997842, 111, 225, 126, 288
-0.997843, 153, 281, 168, 344
-0.99785, 273, 345, 400, 375
-0.99786, 1, 337, 128, 368
-0.997861, 231, 305, 246, 368
-0.99787, 131, 241, 146, 304
-0.997871, 183, 73, 198, 136
-0.997876, 165, 81, 180, 144
-0.997888, 453, 209, 468, 272
-0.997898, 65, 89, 192, 120
-0.997899, 469, 97, 500, 224
-0.997904, 113, 249, 128, 312
-0.997904, 273, 25, 400, 56
-0.997908, 1, 273, 128, 304
-0.997916, 329, 209, 344, 272
-0.997935, 313, 145, 376, 272
-0.997936, 353, 249, 368, 312
-0.997937, 139, 265, 154, 328
-0.99794, 325, 145, 340, 208
-0.997951, 273, 157, 400, 188
-0.997959, 187, 273, 202, 336
-0.997961, 423, 305, 438, 368
-0.997981, 165, 129, 180, 192
-0.997983, 209, 265, 336, 296
-0.998001, 125, 265, 140, 328
-0.998008, 257, 153, 500, 216
-0.998009, 91, 185, 106, 248
-0.998018, 169, 281, 184, 312
-0.998027, 211, 185, 226, 248
-0.99803, 223, 305, 238, 336
-0.998032, 337, 193, 352, 224
-0.998033, 129, 193, 144, 256
-0.998037, 133, 265, 148, 328
-0.998037, 295, 265, 310, 328
-0.998042, 369, 1, 400, 128
-0.998043, 369, 301, 496, 332
-0.998063, 221, 321, 236, 352
-0.998075, 97, 129, 224, 160
-0.998082, 1, 17, 500, 80
-0.998097, 175, 237, 190, 268
-0.998099, 105, 233, 120, 264
-0.998107, 17, 205, 144, 236
-0.99811, 289, 265, 416, 296
-0.998119, 109, 49, 140, 176
-0.998126, 175, 265, 190, 296
-0.998128, 345, 193, 376, 320
-0.998133, 189, 217, 204, 248
-0.998135, 165, 249, 180, 280
-0.998147, 369, 237, 496, 268
-0.998158, 317, 65, 348, 192
-0.998168, 369, 321, 496, 352
-0.998169, 179, 181, 194, 212
-0.998177, 197, 209, 212, 240
-0.99818, 181, 169, 196, 200
-0.998183, 161, 45, 288, 76
-0.998188, 193, 193, 320, 224
-0.99819, 209, 217, 336, 248
-0.998198, 97, 113, 128, 240
-0.998202, 141, 33, 172, 288
-0.998205, 17, 229, 144, 260
-0.998208, 179, 193, 194, 224
-0.998222, 273, 169, 400, 200
-0.998231, 113, 129, 144, 375
-0.998235, 199, 225, 214, 256
-0.998236, 119, 173, 134, 204
-0.998238, 297, 129, 328, 375
-0.99824, 177, 57, 304, 88
-0.998243, 193, 281, 320, 312
-0.998245, 167, 293, 182, 324
-0.998254, 191, 229, 206, 260
-0.998257, 321, 341, 448, 372
-0.998263, 33, 193, 160, 224
-0.998264, 189, 197, 204, 228
-0.998265, 175, 169, 190, 200
-0.99827, 165, 157, 180, 188
-0.998281, 175, 249, 190, 280
-0.998285, 169, 233, 184, 264
-0.998304, 187, 181, 202, 212
-0.998309, 225, 271, 256, 286
-0.998309, 153, 235, 184, 250
-0.998309, 89, 281, 120, 296
-0.99831, 193, 297, 224, 312
-0.99831, 161, 159, 192, 174
-0.99831, 109, 229, 140, 244
-0.99831, 117, 155, 148, 170
-0.99831, 325, 197, 356, 212
-0.99831, 105, 177, 136, 192
-0.998311, 109, 241, 140, 256
-0.998311, 101, 171, 132, 186
-0.998311, 105, 165, 136, 180
-0.998312, 217, 137, 248, 152
-0.998312, 157, 225, 188, 240
-0.998312, 137, 231, 168, 246
-0.998312, 115, 189, 130, 220
-0.998313, 177, 299, 208, 314
-0.998313, 409, 279, 440, 294
-0.998314, 149, 241, 180, 256
-0.998314, 189, 213, 220, 228
-0.998314, 317, 219, 348, 234
-0.998314, 393, 277, 424, 292
-0.998314, 189, 151, 220, 166
-0.998315, 137, 133, 168, 148
-0.998315, 117, 211, 148, 226
-0.998315, 401, 271, 432, 286
-0.998315, 113, 199, 144, 214
-0.998316, 293, 221, 324, 236
-0.998316, 221, 289, 252, 304
-0.998316, 97, 207, 128, 222
-0.998316, 145, 289, 176, 304
-0.998317, 293, 227, 324, 242
-0.998317, 213, 177, 244, 192
-0.998318, 145, 155, 176, 170
-0.998318, 201, 185, 232, 200
-0.998318, 153, 193, 184, 208
-0.998319, 137, 241, 168, 256
-0.998319, 197, 233, 228, 248
-0.99832, 185, 255, 216, 270
-0.99832, 185, 225, 216, 240
-0.99832, 297, 265, 328, 280
-0.99832, 165, 209, 196, 224
-0.998322, 177, 263, 208, 278
-0.998322, 357, 291, 388, 306
-0.998322, 159, 297, 174, 328
-0.998322, 189, 193, 220, 208
-0.998323, 169, 309, 200, 324
-0.998323, 181, 219, 212, 234
-0.998324, 133, 159, 164, 174
-0.998324, 389, 271, 420, 286
-0.998325, 217, 189, 248, 204
-0.998325, 133, 201, 164, 216
-0.998326, 329, 209, 360, 224
-0.998326, 117, 191, 148, 206
-0.998327, 193, 125, 320, 156
-0.998327, 293, 173, 324, 188
-0.998327, 161, 255, 192, 270
-0.998328, 149, 219, 180, 234
-0.998328, 161, 261, 192, 276
-0.998328, 209, 321, 240, 336
-0.998328, 133, 215, 164, 230
-0.99833, 129, 187, 160, 202
-0.99833, 361, 257, 392, 272
-0.99833, 213, 183, 244, 198
-0.998331, 293, 35, 324, 50
-0.998331, 153, 209, 184, 224
-0.998332, 89, 243, 120, 258
-0.998332, 153, 249, 184, 264
-0.998332, 109, 235, 140, 250
-0.998332, 177, 177, 208, 192
-0.998333, 149, 311, 180, 326
-0.998333, 169, 221, 200, 236
-0.998335, 161, 273, 192, 288
-0.998336, 293, 179, 324, 194
-0.998337, 165, 293, 196, 308
-0.998337, 205, 111, 236, 126
-0.998337, 97, 193, 128, 208
-0.998337, 441, 257, 472, 272
-0.998338, 197, 239, 228, 254
-0.99834, 157, 167, 188, 182
-0.998341, 89, 229, 120, 244
-0.998342, 209, 301, 240, 316
-0.998344, 153, 199, 184, 214
-0.998345, 161, 287, 192, 302
-0.998345, 201, 215, 232, 230
-0.998345, 169, 167, 200, 182
-0.998345, 189, 199, 220, 214
-0.998345, 145, 301, 176, 316
-0.998346, 169, 203, 200, 218
-0.998347, 295, 241, 310, 272
-0.998348, 201, 153, 232, 168
-0.998348, 141, 207, 172, 222
-0.998349, 213, 131, 244, 146
-0.998349, 1, 169, 128, 200
-0.998349, 321, 289, 448, 320
-0.99835, 181, 231, 212, 246
-0.99835, 117, 169, 148, 184
-0.998351, 165, 195, 196, 210
-0.998351, 181, 185, 212, 200
-0.998352, 161, 215, 192, 230
-0.998352, 81, 275, 112, 290
-0.998353, 137, 195, 168, 210
-0.998353, 215, 113, 230, 144
-0.998353, 221, 301, 252, 316
-0.998354, 99, 217, 114, 248
-0.998354, 145, 173, 176, 188
-0.998355, 141, 147, 172, 162
-0.998355, 177, 247, 208, 262
-0.998356, 117, 177, 148, 192
-0.998356, 273, 181, 400, 212
-0.998356, 117, 185, 148, 200
-0.998356, 209, 295, 240, 310
-0.998357, 177, 213, 208, 228
-0.998358, 169, 189, 200, 204
-0.998359, 181, 229, 196, 260
-0.998361, 293, 271, 324, 286
-0.998361, 181, 213, 196, 244
-0.998364, 329, 215, 360, 230
-0.998365, 165, 299, 196, 314
-0.998366, 97, 37, 224, 68
-0.998366, 145, 187, 176, 202
-0.998366, 129, 153, 160, 168
-0.998366, 157, 187, 188, 202
-0.998367, 177, 239, 208, 254
-0.998367, 273, 281, 400, 312
-0.998367, 161, 281, 192, 296
-0.998369, 161, 241, 192, 256
-0.998369, 175, 285, 190, 316
-0.998371, 153, 295, 184, 310
-0.998373, 293, 167, 324, 182
-0.998373, 149, 179, 180, 194
-0.998374, 189, 157, 220, 172
-0.998374, 171, 213, 186, 244
-0.998374, 155, 237, 170, 268
-0.998377, 117, 161, 148, 176
-0.998377, 297, 1, 328, 256
-0.998378, 129, 179, 160, 194
-0.99838, 153, 145, 168, 176
-0.998382, 129, 171, 160, 186
-0.998382, 213, 309, 244, 324
-0.998382, 181, 207, 212, 222
-0.998384, 209, 33, 336, 64
-0.998386, 157, 173, 188, 188
-0.998387, 161, 69, 288, 100
-0.998388, 167, 269, 182, 300
-0.998388, 89, 237, 120, 252
-0.998398, 157, 265, 172, 296
-0.998402, 157, 305, 188, 320
-0.998403, 329, 221, 360, 236
-0.998403, 135, 153, 150, 184
-0.998403, 177, 195, 208, 210
-0.998403, 185, 281, 200, 312
-0.998405, 165, 181, 196, 196
-0.998408, 137, 165, 168, 180
-0.998413, 209, 213, 224, 244
-0.998414, 187, 165, 202, 196
-0.998421, 173, 189, 188, 220
-0.998423, 201, 245, 216, 276
-0.998424, 81, 305, 208, 336
-0.998424, 217, 305, 232, 336
-0.998425, 41, 129, 104, 375
-0.998426, 165, 221, 180, 252
-0.998429, 199, 197, 214, 228
-0.998432, 97, 229, 112, 260
-0.998441, 289, 317, 416, 348
-0.998441, 161, 181, 176, 212
-0.998446, 195, 185, 210, 216
-0.998451, 97, 105, 224, 136
-0.99846, 193, 81, 320, 112
-0.998461, 169, 177, 184, 208
-0.998462, 107, 273, 122, 304
-0.998471, 163, 169, 178, 200
-0.998473, 189, 33, 220, 288
-0.998475, 149, 245, 164, 276
-0.998476, 25, 33, 88, 160
-0.998479, 49, 17, 176, 80
-0.998487, 227, 233, 242, 264
-0.998487, 157, 285, 172, 316
-0.998489, 1, 89, 500, 152
-0.998493, 209, 317, 336, 348
-0.998495, 157, 165, 172, 196
-0.998496, 177, 241, 208, 368
-0.998503, 117, 265, 132, 296
-0.998503, 161, 193, 176, 224
-0.998503, 235, 217, 250, 248
-0.998504, 143, 193, 158, 224
-0.998507, 147, 177, 162, 208
-0.998508, 137, 177, 152, 208
-0.998509, 181, 257, 196, 288
-0.99851, 153, 185, 168, 216
-0.99851, 137, 189, 152, 220
-0.998511, 231, 197, 246, 228
-0.998513, 385, 177, 448, 304
-0.998521, 343, 213, 358, 244
-0.998521, 107, 245, 122, 276
-0.998522, 209, 149, 224, 180
-0.998525, 297, 265, 312, 296
-0.998529, 227, 185, 242, 216
-0.99853, 215, 317, 230, 348
-0.998534, 17, 297, 144, 328
-0.998537, 349, 65, 380, 320
-0.998541, 109, 221, 124, 252
-0.998541, 113, 173, 128, 204
-0.998544, 97, 117, 224, 148
-0.998551, 131, 197, 146, 228
-0.998556, 137, 175, 200, 190
-0.998557, 233, 289, 248, 320
-0.998559, 125, 177, 140, 208
-0.998562, 273, 77, 400, 108
-0.998563, 221, 113, 236, 144
-0.998563, 169, 299, 232, 314
-0.998563, 227, 317, 242, 348
-0.998564, 233, 301, 248, 332
-0.998566, 185, 269, 200, 300
-0.998573, 177, 297, 192, 328
-0.998575, 129, 169, 192, 184
-0.998575, 129, 153, 144, 184
-0.998576, 155, 253, 170, 284
-0.998579, 207, 189, 222, 220
-0.998582, 159, 205, 174, 236
-0.998582, 161, 261, 224, 276
-0.998582, 139, 141, 154, 172
-0.998582, 443, 253, 458, 284
-0.998584, 321, 109, 448, 140
-0.99859, 171, 201, 186, 232
-0.998592, 153, 283, 216, 298
-0.998593, 321, 225, 448, 256
-0.998594, 137, 289, 152, 320
-0.998594, 151, 221, 166, 252
-0.998594, 177, 289, 240, 304
-0.998595, 177, 175, 240, 190
-0.998599, 209, 45, 336, 76
-0.998599, 161, 255, 224, 270
-0.9986, 137, 303, 200, 318
-0.998601, 177, 183, 240, 198
-0.998603, 337, 205, 352, 236
-0.998604, 221, 189, 236, 220
-0.998606, 137, 181, 200, 196
-0.998608, 185, 245, 200, 276
-0.998608, 151, 297, 166, 328
-0.998608, 161, 169, 224, 184
-0.998608, 185, 227, 248, 242
-0.998609, 191, 249, 206, 280
-0.998611, 137, 267, 200, 282
-0.998612, 137, 293, 200, 308
-0.998613, 103, 181, 118, 212
-0.998614, 169, 305, 232, 320
-0.998616, 281, 37, 344, 52
-0.998616, 153, 245, 216, 260
-0.998619, 321, 277, 448, 308
-0.998621, 281, 187, 344, 202
-0.998621, 161, 159, 224, 174
-0.998624, 137, 189, 200, 204
-0.998626, 185, 281, 248, 296
-0.998626, 401, 97, 464, 352
-0.998627, 145, 221, 208, 236
-0.998627, 129, 287, 192, 302
-0.998627, 177, 189, 240, 204
-0.998629, 281, 165, 344, 180
-0.99863, 113, 151, 176, 166
-0.99863, 145, 277, 208, 292
-0.998631, 169, 235, 232, 250
-0.998631, 147, 145, 162, 176
-0.998631, 109, 193, 124, 224
-0.998632, 121, 261, 184, 276
-0.998632, 161, 205, 224, 220
-0.998633, 337, 41, 464, 72
-0.998633, 65, 233, 128, 248
-0.998635, 113, 193, 176, 208
-0.998636, 113, 183, 176, 198
-0.998637, 209, 201, 224, 232
-0.99864, 337, 293, 400, 308
-0.99864, 185, 253, 248, 268
-0.99864, 281, 195, 344, 210
-0.998641, 167, 305, 182, 336
-0.998641, 153, 213, 216, 228
-0.998642, 289, 269, 352, 284
-0.998642, 281, 225, 344, 240
-0.998644, 281, 155, 344, 170
-0.998645, 225, 205, 240, 236
-0.998645, 121, 199, 184, 214
-0.998646, 161, 271, 224, 286
-0.998646, 281, 213, 344, 228
-0.998646, 289, 345, 352, 360
-0.998647, 145, 133, 160, 164
-0.998647, 89, 185, 152, 200
-0.998647, 281, 179, 344, 194
-0.998648, 321, 85, 448, 116
-0.998648, 161, 237, 176, 268
-0.998649, 193, 115, 256, 130
-0.99865, 161, 197, 224, 212
-0.99865, 185, 155, 248, 170
-0.99865, 145, 229, 208, 244
-0.998652, 145, 309, 208, 324
-0.998652, 161, 81, 224, 96
-0.998654, 289, 303, 352, 318
-0.998654, 421, 1, 452, 128
-0.998654, 121, 205, 184, 220
-0.998654, 185, 265, 248, 280
-0.998655, 281, 219, 344, 234
-0.998655, 81, 193, 144, 208
-0.998656, 93, 269, 108, 300
-0.998656, 177, 219, 240, 234
-0.998656, 225, 129, 480, 192
-0.998657, 113, 129, 176, 144
-0.998658, 193, 301, 256, 316
-0.998658, 121, 309, 184, 324
-0.998658, 73, 277, 136, 292
-0.998659, 337, 257, 400, 272
-0.998659, 89, 233, 152, 248
-0.998659, 409, 239, 472, 254
-0.998659, 201, 233, 264, 248
-0.998661, 129, 159, 192, 174
-0.998661, 417, 233, 480, 248
-0.998662, 177, 213, 240, 228
-0.998662, 185, 273, 248, 288
-0.998663, 133, 217, 148, 248
-0.998663, 393, 261, 456, 276
-0.998663, 89, 177, 152, 192
-0.998663, 149, 281, 164, 312
-0.998663, 147, 161, 162, 192
-0.998665, 131, 185, 146, 216
-0.998665, 185, 247, 248, 262
-0.998665, 81, 209, 144, 224
-0.998666, 281, 171, 344, 186
-0.998666, 159, 217, 174, 248
-0.998667, 113, 299, 176, 314
-0.998667, 281, 249, 344, 264
-0.998668, 333, 217, 348, 248
-0.998668, 175, 225, 190, 256
-0.998668, 161, 153, 224, 168
-0.998668, 393, 267, 456, 282
-0.998668, 305, 217, 368, 232
-0.998669, 401, 249, 464, 264
-0.998669, 281, 207, 344, 222
-0.99867, 113, 273, 176, 288
-0.99867, 127, 285, 142, 316
-0.998671, 281, 235, 344, 250
-0.998672, 409, 277, 472, 292
-0.998673, 281, 201, 344, 216
-0.998673, 153, 147, 216, 162
-0.998674, 97, 203, 160, 218
-0.998674, 73, 263, 136, 278
-0.998675, 177, 241, 240, 256
-0.998676, 433, 227, 496, 242
-0.998677, 199, 149, 214, 180
-0.998677, 221, 125, 236, 156
-0.998677, 185, 259, 248, 274
-0.998677, 121, 279, 184, 294
-0.998678, 289, 259, 352, 274
-0.998679, 137, 253, 200, 268
-0.998679, 153, 107, 216, 122
-0.99868, 201, 221, 264, 236
-0.998681, 97, 169, 160, 184
-0.998681, 113, 293, 176, 308
-0.998681, 73, 257, 136, 272
-0.998682, 289, 43, 352, 58
-0.998682, 281, 149, 344, 164
-0.998682, 113, 213, 176, 228
-0.998683, 321, 329, 448, 360
-0.998683, 209, 91, 272, 106
-0.998683, 377, 279, 440, 294
-0.998683, 105, 223, 168, 238
-0.998684, 289, 275, 352, 290
-0.998684, 193, 109, 256, 124
-0.998685, 125, 33, 156, 288
-0.998685, 289, 309, 352, 324
-0.998686, 129, 145, 192, 160
-0.998686, 193, 199, 256, 214
-0.998687, 313, 299, 376, 314
-0.998687, 113, 267, 176, 282
-0.998687, 121, 135, 184, 150
-0.998687, 113, 255, 176, 270
-0.998688, 401, 255, 464, 270
-0.998688, 81, 239, 144, 254
-0.998688, 121, 97, 184, 112
-0.998688, 289, 351, 352, 366
-0.998688, 305, 247, 368, 262
-0.998689, 281, 143, 344, 158
-0.998689, 113, 177, 176, 192
-0.998689, 105, 239, 168, 254
-0.998689, 207, 225, 222, 256
-0.99869, 153, 197, 168, 228
-0.998691, 81, 285, 144, 300
-0.998691, 105, 163, 168, 178
-0.998691, 113, 79, 176, 94
-0.998692, 409, 285, 472, 300
-0.998692, 131, 169, 146, 200
-0.998692, 305, 227, 368, 242
-0.998692, 113, 123, 176, 138
-0.998693, 145, 221, 160, 252
-0.998696, 297, 33, 312, 64
-0.9987, 241, 141, 368, 172
-0.998701, 433, 265, 448, 296
-0.998703, 99, 241, 114, 272
-0.998704, 125, 205, 140, 236
-0.998705, 139, 209, 154, 240
-0.998705, 469, 225, 500, 352
-0.998709, 193, 261, 208, 292
-0.998712, 147, 257, 162, 288
-0.998715, 211, 305, 226, 336
-0.998719, 131, 229, 146, 260
-0.998723, 213, 97, 228, 128
-0.998723, 85, 269, 100, 300
-0.998723, 145, 297, 160, 328
-0.998734, 305, 133, 432, 164
-0.998741, 273, 65, 400, 96
-0.998753, 161, 33, 288, 64
-0.998792, 1, 325, 128, 356
-0.998799, 409, 49, 440, 176
-0.998801, 49, 77, 176, 108
-0.998814, 337, 213, 464, 244
-0.998822, 201, 97, 232, 352
-0.998826, 1, 217, 128, 248
-0.998855, 101, 129, 132, 375
-0.998859, 337, 61, 464, 92
-0.998916, 9, 1, 72, 375
-0.998929, 305, 145, 432, 176
-0.998964, 17, 45, 144, 76
-0.998969, 369, 225, 496, 256
-0.99898, 209, 329, 336, 360
-0.998983, 17, 141, 144, 172
-0.99899, 181, 129, 212, 375
-0.999005, 209, 21, 336, 52
-0.999005, 369, 333, 496, 364
-0.999011, 321, 73, 448, 104
-0.999022, 1, 1, 256, 64
-0.999044, 321, 1, 352, 256
-0.999058, 321, 153, 448, 216
-0.999083, 241, 97, 272, 352
-0.999113, 389, 129, 420, 375
-0.999143, 89, 129, 120, 375
-0.999144, 337, 97, 368, 352
-0.999196, 135, 129, 150, 256
-0.999197, 389, 193, 420, 320
-0.99926, 151, 129, 166, 256
-0.99927, 145, 129, 160, 256
-0.999272, 145, 81, 160, 208
-0.999275, 173, 65, 188, 192
-0.999278, 121, 145, 136, 272
-0.999285, 325, 97, 356, 352
-0.99929, 1, 65, 500, 128
-0.999293, 433, 1, 464, 128
-0.999304, 341, 177, 356, 304
-0.999305, 187, 65, 202, 192
-0.999308, 69, 193, 100, 320
-0.999312, 179, 65, 194, 192
-0.999317, 159, 65, 174, 192
-0.999324, 175, 209, 190, 336
-0.999325, 121, 65, 136, 192
-0.999332, 127, 129, 142, 256
-0.999341, 285, 33, 316, 288
-0.999345, 213, 129, 244, 375
-0.999345, 155, 209, 170, 336
-0.999346, 167, 241, 182, 368
-0.999352, 273, 65, 304, 192
-0.999353, 97, 161, 112, 288
-0.999363, 169, 129, 200, 375
-0.99937, 325, 1, 356, 128
-0.99937, 213, 81, 228, 208
-0.999371, 105, 33, 136, 288
-0.999372, 235, 193, 250, 320
-0.999376, 175, 161, 190, 288
-0.999379, 187, 17, 202, 144
-0.999389, 161, 225, 176, 352
-0.999391, 105, 209, 120, 336
-0.999391, 211, 129, 226, 256
-0.999392, 147, 209, 162, 336
-0.999398, 201, 145, 216, 272
-0.999399, 159, 129, 174, 256
-0.999401, 167, 65, 182, 192
-0.999402, 329, 65, 360, 192
-0.999402, 139, 209, 154, 336
-0.999406, 129, 209, 144, 336
-0.999407, 301, 145, 316, 272
-0.99941, 151, 81, 166, 208
-0.999416, 103, 145, 118, 272
-0.999421, 193, 49, 208, 176
-0.999424, 181, 17, 196, 144
-0.999434, 115, 145, 130, 272
-0.999434, 155, 1, 170, 128
-0.999437, 169, 113, 184, 240
-0.99944, 181, 161, 196, 288
-0.99944, 385, 241, 400, 368
-0.999443, 1, 9, 128, 72
-0.999444, 297, 1, 312, 128
-0.999445, 189, 209, 204, 336
-0.999448, 295, 145, 310, 272
-0.999463, 127, 81, 142, 208
-0.999467, 175, 17, 190, 144
-0.999469, 135, 81, 150, 208
-0.99947, 169, 161, 184, 288
-0.99947, 163, 177, 178, 304
-0.999476, 233, 241, 248, 368
-0.999484, 361, 65, 392, 320
-0.999486, 217, 129, 232, 256
-0.999487, 295, 193, 310, 320
-0.9995, 141, 1, 156, 128
-0.9995, 181, 209, 196, 336
-0.999502, 207, 81, 222, 208
-0.999503, 189, 145, 204, 272
-0.999505, 109, 161, 124, 288
-0.999511, 445, 241, 460, 368
-0.999514, 99, 225, 114, 352
-0.999517, 331, 177, 346, 304
-0.99952, 199, 159, 214, 174
-0.99952, 97, 239, 112, 254
-0.99952, 213, 297, 228, 312
-0.999521, 145, 305, 160, 320
-0.999521, 195, 195, 210, 210
-0.999521, 221, 329, 236, 344
-0.999521, 213, 191, 228, 206
-0.999521, 303, 209, 318, 336
-0.999522, 433, 273, 448, 288
-0.999522, 137, 185, 152, 200
-0.999522, 225, 225, 240, 240
-0.999522, 127, 169, 142, 184
-0.999522, 227, 325, 242, 340
-0.999523, 223, 181, 238, 196
-0.999523, 301, 271, 316, 286
-0.999523, 139, 143, 154, 158
-0.999523, 207, 193, 222, 208
-0.999523, 145, 167, 160, 182
-0.999523, 423, 279, 438, 294
-0.999523, 129, 175, 144, 190
-0.999523, 113, 183, 128, 198
-0.999523, 157, 171, 172, 186
-0.999523, 301, 263, 316, 278
-0.999524, 399, 143, 414, 158
-0.999524, 211, 209, 226, 224
-0.999524, 221, 187, 236, 202
-0.999524, 191, 171, 206, 186
-0.999525, 99, 225, 114, 240
-0.999525, 113, 173, 128, 188
-0.999525, 155, 183, 170, 198
-0.999525, 223, 121, 238, 136
-0.999525, 91, 283, 106, 298
-0.999526, 183, 291, 198, 306
-0.999527, 179, 303, 194, 318
-0.999527, 169, 283, 184, 298
-0.999528, 125, 157, 140, 172
-0.999528, 181, 177, 196, 192
-0.999528, 137, 179, 152, 194
-0.999528, 201, 199, 216, 214
-0.999528, 225, 217, 240, 232
-0.999528, 215, 185, 230, 200
-0.999528, 105, 185, 120, 200
-0.999528, 155, 309, 170, 324
-0.999528, 189, 201, 204, 216
-0.999529, 185, 161, 200, 176
-0.999529, 163, 283, 178, 298
-0.999529, 141, 157, 156, 172
-0.99953, 213, 127, 228, 142
-0.99953, 209, 153, 224, 168
-0.99953, 145, 141, 160, 156
-0.999531, 189, 195, 204, 210
-0.999531, 201, 205, 216, 220
-0.999531, 179, 213, 194, 228
-0.999531, 431, 209, 446, 336
-0.999531, 199, 221, 214, 236
-0.999532, 119, 169, 134, 184
-0.999532, 197, 237, 212, 252
-0.999532, 171, 181, 186, 196
-0.999533, 203, 209, 218, 336
-0.999533, 85, 287, 100, 302
-0.999533, 119, 183, 134, 198
-0.999533, 159, 163, 174, 178
-0.999533, 147, 173, 162, 188
-0.999533, 197, 177, 212, 192
-0.999533, 407, 277, 422, 292
-0.999533, 201, 191, 216, 206
-0.999533, 177, 235, 192, 250
-0.999535, 137, 173, 152, 188
-0.999535, 227, 237, 242, 252
-0.999535, 189, 187, 204, 202
-0.999535, 153, 147, 168, 162
-0.999536, 167, 305, 182, 320
-0.999536, 193, 225, 208, 240
-0.999536, 217, 111, 232, 126
-0.999536, 375, 241, 390, 368
-0.999537, 155, 295, 170, 310
-0.999537, 107, 179, 122, 194
-0.999537, 373, 97, 404, 224
-0.999537, 403, 269, 418, 284
-0.999537, 219, 295, 234, 310
-0.999537, 445, 259, 460, 274
-0.999539, 295, 271, 310, 286
-0.999539, 115, 97, 130, 224
-0.99954, 195, 183, 210, 198
-0.999541, 137, 167, 152, 182
-0.999541, 201, 185, 216, 200
-0.999541, 203, 151, 218, 166
-0.999541, 461, 129, 492, 375
-0.999542, 113, 189, 128, 204
-0.999542, 199, 243, 214, 258
-0.999542, 109, 235, 124, 250
-0.999542, 293, 245, 308, 260
-0.999544, 217, 117, 232, 132
-0.999544, 117, 281, 132, 296
-0.999544, 233, 303, 248, 318
-0.999545, 195, 231, 210, 246
-0.999545, 135, 159, 150, 174
-0.999545, 175, 285, 190, 300
-0.999545, 99, 185, 114, 200
-0.999546, 209, 179, 224, 194
-0.999547, 173, 267, 188, 282
-0.999547, 337, 205, 352, 220
-0.999549, 205, 211, 220, 226
-0.999549, 229, 191, 244, 206
-0.999549, 309, 1, 340, 256
-0.999551, 341, 215, 356, 230
-0.999551, 111, 199, 126, 214
-0.999551, 111, 209, 126, 224
-0.999552, 167, 171, 182, 186
-0.999552, 223, 311, 238, 326
-0.999553, 97, 231, 112, 246
-0.999553, 195, 189, 210, 204
-0.999554, 221, 127, 236, 142
-0.999556, 207, 187, 222, 202
-0.999556, 233, 313, 248, 328
-0.999557, 173, 295, 188, 310
-0.999557, 167, 299, 182, 314
-0.999557, 227, 319, 242, 334
-0.999557, 227, 225, 242, 352
-0.999559, 177, 183, 192, 198
-0.999562, 169, 165, 184, 180
-0.999562, 469, 49, 500, 176
-0.999562, 331, 219, 346, 234
-0.999563, 177, 167, 192, 182
-0.999563, 163, 157, 178, 172
-0.999565, 339, 195, 354, 210
-0.999565, 107, 229, 122, 244
-0.999567, 219, 301, 234, 316
-0.999568, 173, 301, 188, 316
-0.999569, 167, 291, 182, 306
-0.99957, 131, 153, 146, 168
-0.99957, 179, 113, 194, 240
-0.999572, 147, 33, 162, 160
-0.999572, 405, 97, 436, 352
-0.999572, 217, 49, 248, 176
-0.999575, 187, 179, 202, 194
-0.999575, 343, 221, 358, 236
-0.999576, 311, 1, 326, 128
-0.999576, 367, 1, 382, 128
-0.999579, 103, 241, 118, 256
-0.999581, 221, 317, 236, 332
-0.999581, 411, 241, 426, 368
-0.999582, 93, 209, 108, 336
-0.999584, 321, 129, 336, 256
-0.999586, 195, 193, 210, 320
-0.999586, 369, 1, 432, 256
-0.999587, 139, 149, 154, 164
-0.999587, 117, 225, 132, 352
-0.999587, 307, 145, 322, 272
-0.999588, 195, 129, 210, 256
-0.99959, 161, 299, 176, 314
-0.999591, 449, 193, 464, 320
-0.999591, 165, 17, 180, 144
-0.999591, 351, 225, 366, 352
-0.999591, 421, 209, 436, 336
-0.999591, 355, 33, 370, 160
-0.999592, 213, 241, 228, 368
-0.999595, 103, 235, 118, 250
-0.999602, 383, 33, 398, 160
-0.999603, 83, 193, 98, 320
-0.999604, 217, 33, 248, 288
-0.999604, 391, 241, 406, 368
-0.999605, 229, 177, 244, 304
-0.999607, 253, 81, 268, 208
-0.999608, 221, 209, 236, 336
-0.999612, 321, 225, 336, 352
-0.999613, 409, 1, 440, 256
-0.999613, 303, 33, 318, 160
-0.999614, 215, 321, 230, 336
-0.999614, 323, 177, 338, 304
-0.999615, 439, 209, 454, 336
-0.999615, 337, 1, 368, 256
-0.999621, 313, 113, 328, 240
-0.999624, 297, 49, 312, 176
-0.999624, 201, 97, 216, 224
-0.999629, 459, 241, 474, 368
-0.999631, 223, 113, 238, 240
-0.999635, 91, 161, 106, 288
-0.999636, 309, 97, 340, 352
-0.999638, 315, 225, 330, 352
-0.99964, 359, 241, 374, 368
-0.999642, 483, 209, 498, 336
-0.999642, 197, 1, 212, 128
-0.999648, 377, 97, 408, 352
-0.999649, 211, 177, 226, 304
-0.999654, 205, 49, 236, 176
-0.999656, 367, 241, 382, 368
-0.999657, 83, 241, 98, 368
-0.999664, 297, 97, 312, 224
-0.999666, 123, 209, 138, 336
-0.99967, 373, 33, 388, 160
-0.99967, 261, 81, 276, 208
-0.999673, 295, 241, 310, 368
-0.999677, 321, 49, 336, 176
-0.999678, 333, 129, 348, 256
-0.99968, 221, 323, 236, 338
-0.999684, 317, 1, 332, 128
-0.999687, 243, 225, 258, 352
-0.999696, 459, 193, 474, 320
-0.999697, 135, 1, 150, 128
-0.999705, 313, 161, 328, 288
-0.999707, 307, 81, 322, 208
-0.999707, 361, 17, 376, 144
-0.999707, 327, 129, 342, 256
-0.99971, 195, 241, 210, 368
-0.99971, 409, 49, 424, 176
-0.999716, 477, 209, 492, 336
-0.999718, 435, 1, 450, 128
-0.99972, 451, 241, 466, 368
-0.99972, 127, 33, 142, 160
-0.99972, 345, 225, 360, 352
-0.999722, 331, 225, 346, 352
-0.999723, 291, 1, 306, 128
-0.999725, 395, 1, 410, 128
-0.999728, 389, 49, 404, 176
-0.999733, 49, 113, 112, 240
-0.999738, 385, 97, 448, 224
-0.999816, 393, 1, 424, 128
-0.999834, 277, 129, 308, 375
-0.999839, 441, 97, 472, 352
-0.999929, 49, 161, 112, 288
-0.99994, 469, 1, 500, 256
-0.999968, 409, 97, 440, 224
-0.999994, 445, 1, 476, 128
-1.00002, 77, 129, 108, 375
-1.00003, 397, 1, 428, 256
-1.00009, 429, 49, 460, 176
-1.00013, 225, 113, 256, 240
-1.00013, 253, 65, 284, 320
-1.00015, 201, 1, 232, 256
-1.00017, 233, 241, 264, 368
-1.00019, 273, 1, 304, 256
-1.00022, 257, 97, 288, 224
-1.00024, 457, 1, 488, 128
-1.00024, 421, 1, 452, 256
-1.00027, 25, 241, 56, 368
-1.00027, 417, 97, 448, 352
-1.00029, 85, 129, 116, 256
-1.00033, 389, 113, 420, 240
-1.00044, 229, 65, 260, 320
-1.00047, 457, 1, 488, 256
-1.00047, 97, 33, 128, 160
-1.00048, 453, 49, 484, 176
-1.00049, 81, 33, 112, 288
-1.00055, 369, 145, 496, 272
-1.00055, 93, 33, 124, 288
-1.00056, 25, 1, 56, 256
-1.00057, 37, 1, 68, 256
-1.00059, 381, 1, 412, 256
-1.00061, 429, 129, 460, 375
-1.00065, 433, 1, 464, 256
-1.00072, 445, 1, 476, 256
-1.00074, 17, 129, 48, 375
-1.00078, 241, 1, 272, 256
-1.00083, 61, 1, 92, 256
-1.00085, 29, 97, 60, 352
-1.00089, 357, 193, 388, 320
-1.00092, 41, 129, 72, 375
-1.00104, 9, 1, 40, 256
-1.00104, 49, 1, 80, 256
-1.0011, 61, 97, 92, 352
-1.00126, 5, 129, 36, 375
-1.00135, 457, 97, 488, 224
-1.00147, 25, 1, 88, 256
-1.0015, 337, 145, 400, 272
-1.00152, 265, 97, 296, 352
-1.00159, 373, 193, 404, 320
-1.0016, 369, 161, 496, 224
-1.00163, 433, 1, 496, 256
-1.0019, 341, 145, 372, 272
-1.00222, 409, 177, 440, 304
-1.00237, 425, 161, 456, 288
-1.00238, 437, 161, 468, 288
-1.00238, 229, 65, 260, 192
-1.00244, 1, 129, 64, 375
-1.00255, 13, 225, 44, 352
-1.00259, 25, 113, 88, 240
-1.0026, 41, 241, 72, 368
-1.00271, 441, 49, 472, 176
-1.00278, 109, 1, 140, 128
-1.00284, 1, 241, 32, 368
-1.00287, 445, 97, 476, 224
-1.00288, 25, 17, 56, 144
-1.00291, 73, 129, 104, 256
-1.00323, 225, 177, 288, 304
-1.00327, 49, 1, 112, 256
-1.00338, 1, 17, 64, 144
-1.00505, 233, 33, 296, 288
-1.00511, 1, 1, 64, 256
-1.00554, 1, 161, 64, 288
-1.0064, 1, 113, 64, 240
-1.00672, 1, 65, 64, 192
-1.01027, 233, 33, 296, 160
-1.01189, 361, 145, 424, 272
