1960
-0.0395597, 1, 1, 500, 375
-0.279875, 1, 97, 500, 352
-0.28829, 97, 1, 352, 375
-0.29308, 1, 1, 256, 375
-0.352181, 193, 1, 448, 375
-0.387657, 1, 1, 500, 256
-0.491858, 65, 65, 320, 320
-0.502523, 193, 97, 448, 352
-0.635929, 193, 1, 448, 256
-0.800781, 33, 1, 160, 375
-0.819332, 97, 1, 224, 375
-0.829017, 33, 33, 160, 288
-0.830318, 97, 129, 224, 375
-0.832498, 161, 65, 288, 320
-0.83364, 97, 33, 224, 288
-0.836695, 177, 1, 304, 375
-0.839411, 321, 1, 448, 375
-0.850146, 17, 129, 144, 375
-0.855021, 257, 129, 384, 375
-0.855237, 225, 1, 352, 375
-0.855339, 273, 1, 400, 375
-0.857998, 1, 65, 500, 192
-0.857998, 1, 113, 500, 240
-0.859851, 305, 97, 432, 352
-0.861011, 209, 129, 336, 375
-0.868995, 337, 1, 464, 256
-0.873777, 273, 1, 400, 256
-0.878435, 369, 1, 496, 375
-0.878492, 225, 1, 352, 256
-0.882294, 1, 161, 500, 288
-0.882508, 161, 65, 416, 192
-0.88329, 1, 17, 500, 144
-0.887513, 33, 49, 288, 176
-0.889039, 353, 97, 480, 352
-0.893072, 65, 145, 320, 272
-0.899013, 1, 225, 500, 352
-0.903369, 161, 113, 416, 240
-0.907093, 161, 1, 416, 128
-0.909112, 1, 193, 256, 320
-0.913418, 145, 49, 272, 176
-0.914629, 65, 97, 320, 224
-0.916615, 97, 129, 160, 256
-0.916838, 145, 113, 272, 240
-0.918377, 257, 49, 500, 176
-0.918584, 65, 49, 192, 176
-0.918879, 161, 161, 416, 288
-0.919903, 257, 113, 500, 240
-0.922541, 161, 209, 416, 336
-0.923758, 177, 129, 240, 256
-0.923784, 81, 129, 208, 256
-0.926107, 57, 161, 120, 288
-0.92684, 1, 177, 128, 304
-0.927782, 65, 1, 320, 128
-0.92823, 121, 129, 184, 256
-0.928827, 97, 177, 224, 304
-0.929067, 257, 33, 384, 160
-0.92949, 105, 49, 168, 176
-0.930143, 65, 81, 128, 208
-0.930146, 369, 1, 496, 128
-0.930208, 193, 49, 256, 176
-0.93115, 217, 65, 280, 192
-0.93183, 257, 145, 384, 272
-0.932815, 177, 161, 304, 288
-0.933465, 169, 65, 232, 192
-0.93367, 81, 177, 144, 304
-0.933722, 257, 1, 500, 128
-0.934068, 257, 161, 500, 288
-0.934115, 209, 17, 336, 144
-0.934209, 1, 145, 64, 272
-0.938058, 1, 129, 128, 256
-0.938079, 193, 97, 320, 224
-0.938149, 81, 33, 144, 160
-0.938487, 321, 97, 448, 224
-0.939147, 121, 137, 184, 200
-0.939341, 33, 177, 96, 304
-0.939341, 49, 177, 176, 304
-0.939511, 217, 113, 280, 240
-0.939857, 257, 209, 500, 336
-0.939877, 49, 1, 112, 128
-0.939923, 305, 161, 432, 288
-0.93995, 97, 185, 160, 248
-0.939978, 105, 177, 168, 304
-0.940018, 153, 121, 216, 184
-0.940066, 145, 1, 272, 128
-0.940372, 1, 241, 256, 368
-0.940388, 129, 49, 192, 176
-0.9404, 145, 145, 208, 272
-0.940563, 17, 225, 144, 352
-0.94111, 89, 161, 152, 224
-0.941478, 193, 1, 256, 128
-0.941662, 345, 97, 408, 224
-0.941674, 145, 97, 208, 224
-0.941683, 241, 97, 304, 224
-0.942191, 217, 17, 280, 144
-0.942445, 1, 1, 128, 128
-0.942919, 209, 41, 272, 104
-0.943481, 337, 49, 464, 176
-0.943702, 257, 225, 384, 352
-0.944041, 65, 161, 128, 224
-0.94406, 353, 49, 416, 176
-0.944101, 1, 65, 128, 192
-0.944613, 33, 97, 96, 224
-0.944634, 137, 169, 200, 232
-0.944736, 81, 1, 208, 128
-0.944757, 57, 241, 120, 368
-0.945357, 57, 185, 120, 248
-0.945423, 153, 145, 216, 208
-0.945645, 185, 73, 248, 136
-0.945858, 265, 17, 328, 144
-0.946015, 313, 17, 376, 144
-0.946114, 249, 41, 312, 104
-0.946155, 393, 1, 456, 128
-0.946549, 169, 17, 232, 144
-0.946876, 9, 169, 72, 232
-0.947158, 185, 41, 248, 104
-0.947625, 57, 257, 120, 320
-0.948178, 137, 193, 200, 256
-0.9484, 177, 161, 240, 224
-0.948608, 81, 233, 144, 296
-0.949133, 225, 65, 288, 128
-0.949288, 249, 145, 312, 272
-0.949528, 329, 177, 392, 304
-0.949544, 97, 137, 160, 200
-0.949812, 273, 41, 336, 104
-0.950342, 81, 225, 144, 352
-0.950415, 209, 209, 336, 336
-0.950466, 161, 49, 224, 112
-0.950685, 9, 193, 72, 320
-0.951325, 161, 97, 224, 160
-0.951462, 89, 49, 152, 112
-0.951544, 113, 161, 176, 224
-0.952278, 209, 161, 272, 288
-0.952339, 241, 81, 368, 208
-0.953182, 297, 41, 360, 104
-0.954067, 177, 129, 240, 192
-0.954445, 225, 89, 288, 152
-0.954473, 345, 105, 408, 168
-0.954615, 105, 209, 168, 272
-0.95464, 33, 177, 96, 240
-0.954652, 9, 193, 72, 256
-0.9549, 153, 193, 216, 320
-0.955053, 201, 113, 264, 176
-0.955315, 273, 145, 336, 272
-0.955447, 33, 273, 96, 336
-0.955691, 41, 153, 104, 216
-0.955787, 417, 1, 480, 64
-0.955866, 225, 209, 288, 336
-0.956013, 369, 161, 432, 288
-0.956167, 65, 225, 192, 352
-0.956479, 425, 1, 488, 128
-0.956587, 241, 17, 304, 144
-0.956857, 393, 17, 456, 80
-0.957429, 265, 217, 328, 280
-0.957493, 321, 209, 448, 336
-0.957578, 65, 137, 128, 200
-0.957636, 305, 161, 368, 288
-0.957743, 209, 145, 272, 208
-0.957772, 393, 65, 456, 192
-0.957868, 321, 49, 384, 112
-0.957904, 121, 57, 184, 120
-0.958059, 33, 225, 96, 352
-0.95808, 17, 49, 80, 176
-0.958154, 169, 185, 232, 248
-0.958479, 353, 57, 416, 120
-0.958746, 33, 217, 96, 280
-0.958891, 305, 225, 368, 352
-0.958926, 353, 225, 416, 352
-0.959288, 265, 65, 328, 128
-0.959311, 97, 33, 160, 288
-0.959322, 321, 1, 448, 128
-0.959382, 249, 137, 312, 200
-0.959391, 185, 177, 248, 304
-0.959439, 65, 1, 128, 256
-0.959734, 185, 65, 248, 320
-0.959799, 369, 1, 432, 128
-0.959919, 57, 209, 120, 272
-0.959942, 193, 233, 256, 296
-0.960074, 289, 65, 352, 192
-0.960121, 1, 217, 64, 280
-0.960592, 369, 113, 432, 240
-0.961252, 9, 97, 72, 224
-0.961254, 121, 113, 184, 176
-0.961332, 225, 113, 288, 176
-0.961441, 137, 1, 200, 128
-0.961466, 57, 281, 120, 344
-0.961667, 281, 209, 344, 336
-0.961801, 41, 65, 104, 320
-0.961877, 105, 225, 168, 352
-0.962071, 145, 73, 208, 136
-0.962328, 185, 209, 248, 272
-0.962346, 25, 1, 88, 128
-0.962351, 297, 233, 360, 296
-0.962505, 353, 233, 416, 296
-0.962635, 233, 217, 296, 280
-0.962795, 177, 41, 304, 104
-0.9629, 113, 129, 144, 256
-0.962931, 217, 169, 280, 232
-0.963042, 25, 241, 88, 304
-0.963069, 377, 209, 440, 336
-0.963203, 233, 17, 296, 80
-0.963326, 9, 145, 72, 208
-0.96335, 145, 65, 208, 320
-0.963412, 81, 273, 144, 336
-0.963506, 369, 193, 432, 256
-0.963587, 265, 65, 328, 192
-0.963656, 153, 121, 184, 184
-0.963784, 345, 25, 408, 88
-0.963834, 241, 177, 304, 240
-0.964161, 321, 97, 384, 224
-0.96428, 273, 145, 336, 208
-0.964516, 109, 153, 140, 216
-0.964649, 129, 129, 160, 256
-0.964754, 249, 193, 312, 320
-0.964916, 121, 81, 184, 144
-0.964929, 241, 41, 272, 104
-0.965053, 113, 225, 240, 352
-0.965363, 121, 33, 184, 288
-0.965485, 17, 129, 80, 375
-0.965704, 225, 65, 256, 192
-0.965813, 369, 113, 496, 240
-0.965881, 177, 89, 304, 152
-0.966024, 353, 161, 480, 288
-0.966064, 65, 129, 128, 375
-0.966236, 81, 169, 208, 232
-0.966447, 329, 217, 392, 280
-0.966565, 329, 161, 392, 224
-0.966678, 129, 193, 192, 320
-0.966734, 177, 65, 304, 128
-0.967053, 9, 33, 72, 288
-0.967136, 369, 33, 432, 96
-0.96723, 109, 177, 140, 304
-0.967467, 57, 81, 120, 144
-0.967552, 57, 233, 120, 296
-0.967564, 33, 153, 160, 216
-0.967581, 73, 249, 104, 312
-0.967586, 97, 225, 128, 288
-0.967595, 173, 113, 204, 176
-0.967614, 221, 41, 252, 104
-0.967627, 225, 41, 352, 104
-0.967648, 33, 185, 160, 248
-0.967736, 385, 81, 448, 144
-0.967777, 109, 185, 140, 248
-0.96786, 145, 217, 208, 280
-0.967909, 225, 65, 288, 320
-0.96798, 53, 129, 84, 256
-0.968051, 265, 1, 328, 64
-0.96809, 193, 33, 224, 160
-0.968106, 181, 113, 212, 240
-0.968134, 141, 169, 172, 232
-0.96815, 353, 81, 416, 144
-0.968236, 289, 169, 352, 232
-0.968306, 345, 97, 408, 352
-0.968381, 89, 129, 152, 375
-0.96846, 161, 113, 288, 176
-0.968492, 189, 41, 220, 104
-0.968508, 361, 169, 424, 232
-0.968657, 409, 41, 472, 104
-0.968666, 89, 193, 120, 320
-0.968674, 265, 241, 328, 304
-0.969001, 161, 225, 288, 352
-0.969029, 165, 65, 196, 192
-0.969041, 201, 225, 264, 352
-0.969191, 177, 137, 208, 200
-0.969211, 129, 145, 160, 208
-0.969233, 97, 137, 224, 200
-0.969302, 81, 193, 208, 256
-0.969397, 1, 161, 32, 288
-0.969422, 277, 41, 308, 104
-0.96945, 37, 177, 68, 240
-0.969484, 257, 65, 384, 128
-0.96952, 33, 1, 96, 64
-0.969572, 217, 193, 280, 256
-0.969576, 237, 65, 268, 128
-0.969607, 97, 65, 224, 128
-0.969636, 17, 129, 48, 256
-0.969674, 65, 33, 128, 96
-0.969699, 377, 225, 440, 288
-0.969781, 113, 129, 144, 192
-0.969908, 265, 193, 328, 256
-0.969999, 205, 65, 236, 192
-0.970078, 189, 97, 220, 160
-0.970134, 257, 41, 288, 104
-0.970136, 21, 153, 52, 216
-0.970246, 93, 161, 124, 224
-0.970298, 345, 1, 408, 256
-0.970322, 9, 241, 72, 368
-0.970379, 81, 209, 144, 272
-0.970392, 85, 233, 116, 296
-0.970405, 53, 153, 84, 216
-0.970698, 161, 113, 192, 240
-0.970708, 125, 193, 156, 256
-0.970735, 289, 17, 352, 144
-0.970792, 153, 145, 184, 208
-0.970816, 229, 17, 260, 144
-0.970832, 81, 225, 208, 288
-0.970891, 337, 257, 400, 320
-0.970935, 297, 137, 360, 200
-0.971047, 121, 129, 184, 375
-0.971156, 433, 25, 496, 88
-0.97134, 225, 65, 256, 128
-0.97135, 141, 145, 172, 208
-0.971397, 125, 49, 156, 176
-0.971462, 89, 257, 120, 320
-0.971467, 305, 193, 368, 256
-0.971496, 17, 257, 144, 320
-0.971574, 321, 49, 448, 112
-0.971577, 293, 41, 324, 104
-0.971588, 61, 177, 92, 240
-0.97167, 245, 65, 276, 192
-0.971714, 249, 97, 312, 352
-0.971735, 205, 73, 236, 136
-0.971799, 217, 241, 280, 304
-0.97182, 113, 49, 144, 176
-0.971852, 57, 1, 88, 128
-0.971879, 321, 113, 448, 176
-0.972015, 189, 73, 220, 136
-0.972085, 377, 57, 440, 120
-0.97212, 81, 73, 144, 136
-0.972145, 305, 41, 336, 104
-0.972174, 105, 1, 168, 128
-0.972266, 153, 177, 184, 240
-0.972268, 209, 17, 272, 80
-0.972289, 121, 177, 152, 304
-0.972302, 33, 57, 96, 120
-0.972304, 49, 57, 176, 120
-0.972355, 241, 249, 304, 312
-0.972382, 69, 161, 100, 288
-0.972453, 333, 41, 364, 104
-0.972498, 193, 257, 256, 320
-0.972499, 257, 113, 320, 176
-0.972535, 93, 185, 124, 248
-0.972615, 329, 225, 392, 352
-0.972615, 225, 113, 256, 240
-0.97262, 129, 177, 256, 240
-0.972728, 177, 65, 208, 192
-0.972869, 129, 169, 160, 232
-0.972869, 101, 33, 132, 160
-0.972914, 369, 209, 496, 336
-0.97294, 41, 161, 72, 288
-0.97301, 273, 41, 400, 104
-0.973049, 145, 153, 272, 216
-0.973127, 257, 153, 384, 216
-0.973142, 321, 25, 384, 88
-0.973248, 329, 73, 392, 136
-0.973257, 121, 33, 184, 96
-0.973449, 289, 17, 352, 80
-0.973484, 205, 41, 236, 104
-0.973536, 369, 97, 432, 352
-0.973563, 193, 121, 224, 184
-0.973642, 249, 81, 280, 144
-0.973654, 41, 153, 72, 216
-0.973658, 61, 257, 92, 320
-0.973752, 209, 201, 336, 264
-0.973877, 321, 41, 352, 104
-0.973881, 129, 41, 256, 104
-0.973998, 17, 233, 144, 296
-0.974038, 321, 129, 384, 375
-0.974045, 209, 153, 336, 216
-0.974062, 93, 145, 124, 272
-0.974098, 205, 113, 236, 240
-0.97418, 1, 1, 64, 128
-0.97419, 241, 17, 272, 144
-0.974203, 193, 185, 256, 248
-0.974218, 205, 129, 236, 192
-0.974225, 297, 113, 360, 240
-0.974236, 17, 281, 144, 344
-0.974261, 41, 129, 104, 192
-0.974333, 65, 1, 128, 375
-0.974338, 141, 129, 172, 256
-0.974448, 165, 177, 196, 240
-0.974478, 321, 25, 448, 88
-0.974502, 361, 49, 392, 176
-0.974558, 177, 41, 208, 104
-0.974564, 65, 113, 128, 176
-0.974616, 149, 65, 180, 192
-0.974651, 101, 41, 132, 104
-0.974666, 73, 185, 104, 248
-0.974666, 321, 145, 448, 208
-0.974749, 433, 1, 464, 64
-0.974773, 225, 89, 256, 152
-0.974816, 225, 129, 352, 192
-0.974834, 361, 145, 424, 208
-0.974925, 369, 25, 496, 88
-0.974952, 9, 41, 72, 104
-0.975051, 209, 233, 336, 296
-0.975073, 1, 169, 32, 232
-0.975129, 81, 17, 112, 144
-0.975218, 433, 49, 496, 176
-0.975335, 209, 1, 240, 128
-0.975349, 401, 209, 464, 336
-0.975376, 9, 1, 72, 375
-0.975391, 393, 145, 456, 272
-0.97541, 113, 49, 144, 112
-0.975448, 345, 49, 376, 112
-0.975465, 109, 225, 140, 288
-0.975475, 33, 297, 96, 360
-0.975495, 225, 1, 352, 64
-0.975507, 269, 129, 300, 256
-0.975527, 393, 1, 456, 256
-0.975544, 137, 193, 168, 256
-0.975652, 261, 137, 292, 200
-0.975715, 105, 233, 168, 296
-0.975815, 369, 113, 432, 176
-0.975845, 341, 113, 372, 240
-0.975877, 177, 89, 208, 152
-0.975947, 77, 65, 108, 192
-0.975981, 329, 145, 360, 272
-0.975989, 105, 1, 168, 375
-0.97604, 169, 233, 232, 296
-0.976085, 237, 105, 268, 168
-0.976093, 257, 17, 288, 80
-0.976103, 433, 57, 496, 120
-0.976117, 41, 1, 104, 375
-0.976184, 129, 225, 256, 288
-0.97619, 69, 225, 100, 352
-0.976209, 229, 129, 260, 192
-0.976276, 81, 161, 112, 224
-0.976279, 97, 137, 128, 200
-0.976446, 421, 1, 452, 64
-0.97648, 177, 225, 240, 352
-0.976493, 113, 113, 240, 176
-0.976514, 217, 265, 280, 328
-0.976551, 365, 73, 396, 136
-0.976568, 257, 97, 288, 224
-0.976675, 173, 17, 204, 144
-0.976698, 145, 25, 208, 88
-0.976718, 29, 145, 60, 272
-0.976719, 225, 233, 256, 296
-0.976742, 161, 201, 288, 264
-0.976843, 17, 209, 48, 272
-0.976914, 53, 177, 84, 304
-0.976923, 337, 129, 400, 192
-0.976924, 49, 193, 80, 256
-0.97696, 433, 1, 464, 128
-0.976975, 9, 65, 72, 128
-0.976985, 37, 81, 68, 208
-0.977005, 129, 57, 160, 120
-0.977036, 297, 65, 360, 128
-0.977048, 165, 137, 196, 200
-0.977073, 89, 33, 120, 96
-0.977082, 1, 257, 64, 320
-0.97714, 101, 249, 132, 312
-0.977215, 25, 105, 88, 168
-0.977236, 57, 57, 120, 120
-0.977304, 329, 193, 392, 256
-0.977321, 1, 57, 128, 120
-0.977328, 173, 65, 204, 128
-0.977358, 49, 33, 176, 96
-0.977425, 369, 49, 496, 112
-0.97743, 205, 153, 236, 216
-0.977461, 345, 113, 376, 176
-0.977498, 77, 65, 108, 128
-0.977502, 289, 1, 352, 256
-0.977613, 353, 89, 384, 152
-0.9777, 153, 1, 216, 375
-0.977707, 189, 145, 220, 208
-0.977755, 277, 145, 308, 208
-0.977765, 237, 161, 268, 288
-0.977767, 381, 49, 412, 176
-0.977772, 285, 209, 316, 272
-0.977776, 345, 1, 408, 375
-0.977808, 17, 177, 48, 240
-0.977862, 41, 49, 104, 176
-0.977937, 369, 9, 432, 72
-0.978017, 237, 113, 268, 240
-0.978049, 193, 129, 224, 256
-0.978066, 101, 81, 132, 208
-0.978085, 65, 281, 96, 344
-0.978085, 337, 1, 400, 128
-0.978128, 285, 145, 316, 272
-0.978175, 185, 1, 248, 375
-0.978203, 189, 185, 220, 248
-0.97824, 97, 97, 160, 160
-0.978274, 33, 209, 160, 272
-0.978281, 337, 81, 464, 144
-0.978327, 309, 161, 340, 288
-0.978361, 305, 113, 368, 176
-0.978396, 65, 257, 192, 320
-0.978454, 41, 25, 104, 88
-0.978491, 1, 225, 32, 288
-0.978528, 357, 217, 388, 280
-0.97853, 209, 233, 240, 296
-0.978538, 137, 49, 168, 176
-0.978542, 141, 177, 172, 304
-0.978544, 273, 193, 400, 256
-0.978577, 217, 161, 248, 288
-0.978578, 201, 209, 232, 272
-0.978711, 273, 65, 304, 128
-0.978759, 1, 17, 128, 80
-0.978837, 177, 1, 304, 64
-0.978849, 385, 97, 416, 224
-0.978881, 153, 201, 184, 264
-0.978893, 209, 1, 272, 375
-0.978905, 177, 177, 304, 240
-0.979034, 81, 145, 112, 272
-0.979043, 101, 225, 132, 352
-0.979116, 297, 129, 360, 375
-0.979159, 317, 209, 348, 336
-0.979167, 57, 225, 88, 352
-0.979171, 273, 129, 336, 375
-0.979178, 369, 1, 432, 256
-0.979236, 161, 57, 192, 120
-0.979251, 385, 105, 416, 168
-0.979344, 129, 89, 256, 152
-0.979352, 73, 225, 104, 288
-0.979364, 385, 145, 448, 208
-0.979374, 353, 97, 384, 224
-0.979385, 97, 17, 224, 80
-0.979413, 221, 209, 252, 336
-0.979414, 401, 225, 464, 288
-0.979473, 293, 137, 324, 200
-0.979539, 129, 1, 192, 375
-0.979549, 253, 17, 284, 144
-0.979552, 273, 217, 400, 280
-0.979554, 397, 17, 428, 144
-0.979559, 241, 1, 304, 375
-0.979573, 53, 289, 84, 352
-0.979584, 361, 257, 424, 320
-0.97959, 193, 81, 224, 208
-0.979596, 105, 257, 168, 320
-0.97962, 285, 1, 316, 128
-0.979628, 269, 17, 300, 144
-0.979695, 1, 81, 32, 208
-0.979725, 241, 105, 368, 168
-0.979738, 1, 89, 64, 152
-0.979764, 417, 1, 448, 128
-0.979827, 333, 145, 364, 208
-0.979885, 113, 1, 144, 128
-0.979914, 217, 113, 248, 176
-0.979959, 1, 145, 32, 208
-0.979962, 261, 177, 292, 240
-0.979993, 249, 145, 280, 208
-0.980041, 433, 1, 496, 256
-0.98021, 357, 177, 388, 304
-0.980218, 113, 73, 144, 136
-0.980348, 169, 201, 200, 264
-0.980361, 341, 17, 372, 144
-0.980441, 297, 1, 360, 375
-0.980465, 365, 49, 396, 112
-0.980637, 305, 209, 336, 336
-0.980679, 401, 201, 432, 264
-0.980728, 257, 241, 384, 304
-0.98082, 125, 217, 156, 280
-0.980851, 101, 65, 132, 128
-0.980853, 321, 217, 448, 280
-0.980929, 65, 97, 96, 224
-0.980986, 369, 1, 496, 64
-0.981024, 265, 177, 296, 304
-0.981044, 165, 161, 196, 288
-0.981062, 385, 25, 416, 88
-0.981127, 321, 177, 448, 240
-0.981159, 209, 257, 336, 320
-0.981166, 301, 233, 332, 296
-0.981241, 377, 241, 408, 304
-0.981303, 309, 17, 340, 144
-0.981368, 461, 1, 492, 128
-0.981422, 137, 121, 168, 184
-0.981483, 409, 9, 440, 72
-0.981497, 369, 153, 496, 216
-0.981506, 273, 225, 304, 288
-0.981625, 249, 161, 280, 288
-0.981705, 313, 233, 344, 296
-0.981737, 241, 1, 272, 64
-0.981821, 41, 273, 72, 336
-0.981856, 261, 65, 292, 128
-0.981856, 381, 169, 412, 232
-0.981866, 225, 153, 256, 216
-0.981868, 289, 209, 320, 336
-0.981884, 49, 129, 176, 192
-0.981913, 1, 33, 32, 160
-0.981944, 141, 217, 172, 280
-0.981948, 249, 241, 312, 368
-0.981967, 321, 1, 384, 375
-0.981993, 29, 209, 60, 272
-0.982009, 445, 1, 476, 64
-0.982127, 69, 17, 100, 144
-0.982148, 465, 9, 496, 72
-0.98216, 265, 113, 296, 176
-0.982165, 365, 193, 396, 256
-0.982221, 181, 161, 212, 288
-0.982224, 273, 17, 400, 80
-0.982229, 33, 225, 64, 352
-0.982268, 85, 241, 116, 368
-0.98235, 321, 33, 384, 288
-0.982357, 385, 49, 416, 112
-0.982386, 1, 201, 32, 264
-0.982463, 53, 81, 84, 208
-0.98252, 161, 97, 192, 160
-0.982529, 249, 105, 280, 168
-0.982569, 377, 81, 408, 144
-0.982598, 397, 1, 428, 64
-0.982638, 353, 241, 480, 304
-0.982677, 393, 145, 424, 208
-0.982735, 273, 65, 304, 192
-0.982776, 177, 161, 208, 224
-0.982823, 269, 1, 300, 64
-0.982871, 45, 241, 76, 368
-0.982988, 361, 225, 392, 352
-0.983039, 25, 81, 56, 208
-0.983114, 297, 161, 328, 288
-0.983125, 233, 209, 264, 336
-0.983166, 297, 17, 328, 144
-0.983279, 273, 1, 336, 375
-0.983319, 401, 65, 432, 192
-0.983401, 33, 81, 160, 144
-0.983418, 113, 225, 144, 352
-0.983551, 81, 89, 208, 152
-0.983754, 369, 1, 432, 375
-0.983869, 249, 1, 312, 256
-0.98387, 113, 249, 240, 312
-0.983969, 397, 145, 428, 272
-0.984082, 445, 1, 476, 128
-0.984172, 65, 289, 192, 352
-0.984264, 153, 161, 184, 288
-0.984275, 249, 209, 280, 336
-0.984287, 13, 177, 44, 304
-0.984344, 225, 177, 352, 240
-0.984411, 373, 97, 404, 224
-0.984986, 433, 161, 496, 288
-0.984988, 25, 33, 56, 160
-0.985028, 273, 129, 400, 192
-0.98503, 321, 1, 448, 64
-0.985156, 157, 17, 188, 144
-0.985236, 377, 225, 408, 352
-0.985259, 277, 193, 308, 320
-0.985268, 161, 265, 288, 328
-0.985371, 329, 17, 360, 144
-0.985679, 1, 129, 128, 192
-0.985886, 205, 209, 236, 336
-0.985923, 393, 1, 456, 375
-0.985939, 89, 81, 120, 208
-0.985977, 381, 177, 412, 304
-0.986117, 265, 225, 296, 352
-0.986242, 325, 65, 356, 192
-0.986353, 345, 161, 376, 288
-0.986426, 305, 249, 432, 312
-0.986525, 17, 305, 144, 368
-0.986728, 193, 177, 224, 304
-0.986767, 401, 97, 464, 352
-0.986846, 433, 1, 496, 375
-0.98689, 129, 41, 384, 104
-0.987099, 161, 145, 224, 176
-0.987134, 65, 65, 320, 128
-0.987249, 329, 193, 360, 320
-0.987306, 369, 129, 496, 192
-0.987324, 397, 193, 428, 320
-0.987419, 341, 65, 372, 192
-0.987458, 145, 129, 208, 160
-0.987478, 45, 1, 76, 128
-0.98749, 13, 81, 44, 208
-0.98756, 193, 113, 448, 176
-0.987584, 13, 33, 44, 160
-0.987684, 9, 165, 72, 196
-0.987813, 413, 65, 444, 192
-0.98782, 433, 97, 496, 224
-0.987842, 105, 137, 168, 168
-0.987854, 137, 201, 200, 232
-0.987905, 293, 65, 324, 192
-0.987924, 137, 189, 200, 220
-0.987934, 65, 137, 320, 200
-0.987972, 205, 161, 236, 288
-0.988021, 89, 181, 152, 212
-0.988084, 1, 65, 500, 128
-0.988133, 49, 173, 112, 204
-0.988156, 121, 157, 184, 188
-0.988156, 65, 177, 320, 240
-0.988218, 89, 161, 152, 192
-0.988238, 161, 153, 416, 216
-0.988256, 177, 133, 240, 164
-0.988397, 201, 117, 264, 148
-0.988405, 185, 153, 248, 184
-0.988435, 105, 193, 168, 224
-0.988462, 161, 157, 224, 188
-0.988471, 129, 141, 192, 172
-0.988497, 341, 209, 372, 336
-0.988512, 105, 217, 168, 248
-0.988562, 161, 117, 224, 148
-0.988583, 201, 133, 264, 164
-0.988588, 153, 173, 216, 204
-0.988626, 145, 213, 208, 244
-0.988663, 153, 65, 216, 96
-0.988673, 129, 177, 192, 208
-0.988711, 9, 185, 72, 216
-0.988711, 409, 209, 440, 336
-0.988723, 369, 177, 496, 240
-0.988729, 369, 145, 400, 272
-0.988802, 193, 101, 256, 132
-0.988806, 81, 229, 144, 260
-0.988818, 177, 205, 240, 236
-0.988828, 161, 185, 224, 216
-0.988849, 41, 153, 104, 184
-0.988887, 65, 193, 128, 224
-0.9889, 425, 241, 488, 368
-0.988919, 193, 65, 448, 128
-0.988921, 57, 281, 120, 312
-0.988923, 65, 245, 128, 276
-0.988949, 65, 257, 128, 288
-0.989025, 257, 137, 320, 168
-0.989049, 185, 73, 248, 104
-0.989088, 161, 89, 416, 152
-0.989114, 65, 161, 128, 192
-0.989128, 209, 149, 272, 180
-0.989188, 185, 85, 248, 116
-0.9892, 49, 9, 176, 72
-0.989205, 113, 65, 176, 96
-0.98921, 177, 217, 240, 248
-0.989212, 1, 41, 500, 104
-0.989218, 57, 269, 120, 300
-0.98925, 225, 117, 288, 148
-0.989251, 169, 49, 232, 80
-0.989256, 125, 225, 156, 352
-0.989261, 273, 229, 336, 260
-0.98929, 193, 165, 256, 196
-0.989307, 17, 105, 144, 168
-0.989377, 33, 293, 96, 324
-0.989429, 189, 225, 220, 352
-0.989431, 121, 125, 184, 156
-0.989446, 305, 49, 368, 80
-0.989485, 105, 205, 168, 236
-0.989489, 225, 89, 288, 120
-0.989497, 321, 273, 448, 336
-0.989501, 97, 201, 352, 264
-0.989511, 281, 145, 344, 176
-0.989527, 233, 141, 296, 172
-0.989546, 345, 173, 408, 204
-0.989567, 129, 77, 192, 108
-0.989577, 193, 229, 256, 260
-0.989582, 65, 141, 128, 172
-0.989626, 249, 153, 312, 184
-0.989643, 89, 149, 152, 180
-0.989648, 193, 245, 256, 276
-0.989652, 297, 237, 360, 268
-0.989667, 265, 245, 328, 276
-0.989704, 217, 249, 280, 280
-0.989708, 193, 225, 448, 288
-0.989727, 137, 53, 200, 84
-0.989728, 25, 281, 88, 312
-0.989753, 241, 69, 304, 100
-0.989785, 345, 117, 408, 148
-0.989785, 249, 181, 312, 212
-0.989786, 209, 69, 272, 100
-0.989806, 161, 89, 224, 120
-0.989807, 425, 49, 456, 176
-0.989819, 225, 129, 288, 160
-0.989843, 345, 57, 408, 88
-0.989877, 321, 65, 384, 96
-0.989879, 233, 105, 296, 136
-0.989899, 17, 241, 80, 272
-0.989918, 89, 241, 152, 272
-0.989935, 225, 261, 288, 292
-0.989986, 353, 245, 416, 276
-0.989989, 41, 257, 104, 288
-0.990005, 241, 45, 304, 76
-0.990037, 145, 225, 208, 256
-0.990106, 369, 193, 432, 224
-0.990124, 417, 1, 480, 32
-0.990124, 365, 1, 396, 128
-0.990145, 393, 21, 456, 52
-0.990158, 89, 77, 152, 108
-0.990166, 257, 265, 384, 328
-0.990184, 33, 185, 96, 216
-0.990204, 185, 189, 248, 220
-0.990207, 193, 257, 256, 288
-0.990217, 169, 101, 232, 132
-0.990219, 461, 49, 492, 176
-0.990243, 217, 173, 280, 204
-0.990257, 209, 45, 272, 76
-0.990264, 337, 261, 400, 292
-0.990279, 289, 89, 416, 152
-0.990285, 161, 77, 224, 108
-0.990293, 345, 105, 408, 136
-0.990308, 33, 201, 96, 232
-0.990312, 393, 9, 456, 40
-0.990317, 377, 1, 408, 128
-0.99032, 81, 49, 144, 80
-0.990322, 97, 125, 160, 156
-0.990329, 417, 29, 480, 60
-0.990332, 393, 37, 456, 68
-0.990339, 17, 153, 80, 184
-0.990347, 417, 17, 480, 48
-0.990381, 97, 113, 352, 176
-0.990381, 41, 245, 104, 276
-0.990393, 57, 233, 120, 264
-0.990395, 369, 217, 432, 248
-0.9904, 281, 173, 344, 204
-0.990414, 25, 269, 88, 300
-0.990426, 89, 65, 152, 96
-0.990465, 217, 229, 280, 260
-0.990467, 281, 49, 344, 80
-0.990469, 65, 205, 128, 236
-0.990473, 249, 193, 312, 224
-0.990478, 209, 193, 272, 224
-0.990493, 241, 33, 304, 64
-0.990504, 353, 37, 416, 68
-0.990532, 57, 85, 120, 116
-0.990538, 145, 1, 176, 128
-0.990549, 281, 185, 344, 216
-0.990563, 249, 125, 312, 156
-0.99057, 25, 141, 88, 172
-0.990573, 81, 269, 144, 300
-0.990604, 249, 229, 312, 260
-0.990647, 241, 249, 304, 280
-0.990673, 417, 41, 480, 72
-0.990687, 281, 217, 344, 248
-0.990692, 49, 217, 112, 248
-0.990701, 281, 69, 344, 100
-0.990706, 225, 41, 480, 104
-0.990725, 377, 233, 440, 264
-0.990728, 385, 85, 448, 116
-0.990772, 257, 169, 320, 200
-0.990775, 305, 133, 368, 164
-0.990858, 329, 241, 392, 272
-0.99087, 369, 105, 496, 168
-0.990954, 369, 209, 496, 272
-0.990988, 65, 89, 320, 152
-0.991132, 153, 241, 216, 368
-0.991264, 33, 25, 288, 88
-0.991304, 193, 193, 448, 256
-0.991434, 1, 209, 256, 272
-0.99153, 65, 233, 320, 296
-0.991593, 193, 249, 448, 312
-0.991709, 145, 125, 272, 156
-0.991774, 149, 133, 180, 164
-0.991846, 105, 177, 136, 208
-0.991911, 1, 209, 500, 272
-0.991938, 141, 193, 172, 224
-0.991954, 1, 153, 500, 216
-0.991984, 97, 161, 128, 192
-0.991989, 161, 129, 192, 160
-0.991997, 109, 161, 140, 192
-0.992038, 169, 145, 200, 176
-0.992064, 85, 253, 116, 284
-0.992064, 29, 165, 60, 196
-0.992072, 93, 241, 124, 272
-0.992078, 109, 189, 140, 220
-0.992096, 173, 133, 204, 164
-0.992102, 133, 145, 164, 176
-0.992105, 1, 121, 500, 184
-0.992105, 57, 185, 88, 216
-0.992112, 1, 185, 500, 248
-0.992119, 113, 137, 240, 168
-0.992136, 149, 145, 180, 176
-0.992139, 121, 173, 152, 204
-0.992139, 153, 157, 184, 188
-0.992152, 185, 145, 216, 176
-0.992174, 257, 145, 500, 208
-0.992175, 73, 249, 104, 280
-0.992183, 261, 137, 292, 168
-0.992187, 103, 185, 118, 248
-0.992203, 165, 201, 196, 232
-0.992207, 113, 133, 144, 164
-0.992213, 17, 169, 48, 200
-0.992213, 113, 273, 240, 336
-0.992215, 261, 177, 292, 208
-0.992223, 177, 161, 208, 192
-0.992229, 185, 89, 216, 120
-0.992239, 153, 177, 184, 208
-0.992245, 93, 181, 124, 212
-0.992248, 181, 117, 212, 148
-0.992255, 165, 177, 196, 208
-0.992256, 209, 289, 336, 352
-0.992256, 205, 133, 236, 164
-0.992266, 121, 161, 152, 192
-0.992269, 205, 157, 236, 188
-0.992273, 293, 141, 324, 172
-0.992274, 73, 277, 104, 308
-0.992283, 225, 153, 256, 184
-0.992298, 141, 205, 172, 236
-0.9923, 41, 177, 72, 208
-0.992305, 197, 97, 228, 128
-0.992318, 177, 49, 208, 80
-0.992328, 285, 225, 316, 256
-0.99233, 309, 233, 340, 264
-0.992344, 5, 185, 36, 216
-0.992345, 81, 237, 112, 268
-0.992357, 201, 85, 232, 116
-0.992358, 125, 201, 156, 232
-0.992359, 105, 45, 136, 76
-0.992359, 49, 165, 80, 196
-0.99236, 105, 253, 136, 284
-0.992361, 57, 273, 88, 304
-0.992366, 229, 117, 260, 148
-0.992368, 93, 269, 124, 300
-0.992374, 245, 253, 276, 284
-0.992375, 189, 133, 220, 164
-0.992383, 81, 177, 208, 208
-0.992383, 97, 229, 128, 260
-0.992389, 273, 289, 400, 352
-0.992391, 157, 61, 188, 92
-0.992392, 129, 185, 160, 216
-0.992394, 5, 169, 36, 200
-0.992396, 201, 117, 232, 148
-0.992417, 217, 245, 248, 276
-0.992419, 153, 193, 184, 224
-0.992421, 193, 137, 320, 168
-0.992424, 233, 249, 264, 280
-0.992427, 269, 45, 300, 76
-0.992439, 169, 117, 200, 148
-0.99244, 253, 101, 284, 132
-0.992444, 141, 165, 172, 196
-0.992448, 201, 73, 232, 104
-0.992449, 165, 73, 196, 104
-0.99245, 1, 189, 128, 220
-0.992466, 425, 1, 456, 32
-0.992468, 81, 189, 112, 220
-0.992471, 217, 233, 248, 264
-0.992472, 9, 245, 40, 276
-0.992474, 161, 69, 288, 100
-0.992475, 177, 65, 208, 96
-0.992478, 349, 53, 380, 84
-0.992483, 1, 233, 500, 296
-0.992487, 337, 49, 368, 80
-0.992488, 241, 125, 272, 156
-0.992496, 209, 101, 240, 132
-0.992508, 213, 69, 244, 100
-0.99251, 53, 149, 84, 180
-0.992512, 329, 157, 360, 188
-0.992514, 241, 137, 272, 168
-0.992514, 101, 149, 132, 180
-0.992517, 365, 85, 396, 116
-0.992526, 365, 57, 396, 88
-0.992531, 241, 69, 272, 100
-0.992536, 189, 157, 220, 188
-0.992537, 177, 105, 208, 136
-0.99254, 161, 113, 288, 144
-0.992541, 73, 261, 104, 292
-0.992547, 237, 85, 268, 116
-0.992549, 257, 169, 500, 232
-0.99255, 121, 149, 152, 180
-0.992551, 33, 1, 288, 64
-0.992551, 141, 181, 172, 212
-0.992557, 201, 145, 232, 176
-0.992558, 245, 45, 276, 76
-0.992558, 69, 189, 100, 220
-0.992563, 113, 237, 144, 268
-0.992565, 461, 33, 492, 64
-0.992568, 225, 265, 256, 296
-0.992573, 243, 41, 258, 104
-0.99258, 221, 85, 252, 116
-0.992585, 361, 253, 392, 284
-0.99259, 65, 289, 96, 320
-0.992592, 177, 77, 208, 108
-0.992594, 353, 109, 384, 140
-0.992597, 277, 137, 308, 168
-0.992602, 189, 185, 220, 216
-0.992602, 165, 189, 196, 220
-0.992603, 129, 17, 384, 80
-0.992603, 161, 93, 288, 124
-0.99261, 113, 77, 144, 108
-0.992612, 113, 57, 144, 88
-0.992614, 105, 265, 136, 296
-0.992614, 85, 225, 116, 256
-0.992617, 165, 161, 196, 192
-0.992618, 297, 237, 328, 268
-0.992624, 297, 221, 328, 252
-0.992626, 253, 69, 284, 100
-0.99263, 29, 237, 60, 268
-0.992631, 125, 61, 156, 92
-0.992632, 77, 177, 108, 208
-0.992636, 277, 157, 308, 188
-0.992642, 365, 97, 396, 128
-0.992646, 77, 77, 108, 108
-0.992648, 377, 249, 408, 280
-0.992651, 29, 177, 60, 208
-0.992661, 261, 29, 292, 60
-0.992663, 361, 169, 392, 200
-0.992663, 37, 153, 68, 184
-0.992666, 225, 133, 256, 164
-0.992666, 345, 65, 376, 96
-0.992666, 241, 113, 272, 144
-0.992671, 201, 241, 232, 272
-0.992671, 265, 253, 296, 284
-0.992673, 273, 225, 304, 256
-0.992689, 105, 161, 120, 224
-0.992769, 119, 161, 134, 224
-0.992773, 249, 41, 264, 104
-0.992793, 97, 221, 224, 252
-0.992816, 433, 97, 496, 352
-0.992872, 189, 113, 204, 176
-0.9929, 79, 241, 94, 304
-0.992901, 257, 41, 272, 104
-0.992914, 173, 177, 188, 240
-0.992924, 133, 177, 148, 240
-0.992969, 183, 121, 198, 184
-0.992991, 97, 161, 112, 224
-0.993031, 225, 41, 240, 104
-0.993038, 239, 65, 254, 128
-0.993059, 39, 153, 54, 216
-0.993107, 65, 257, 320, 320
-0.993124, 101, 225, 116, 288
-0.993125, 1, 1, 500, 64
-0.993166, 65, 141, 192, 172
-0.993176, 157, 121, 172, 184
-0.993182, 189, 89, 204, 152
-0.993255, 49, 189, 176, 220
-0.99327, 171, 145, 186, 208
-0.993285, 213, 41, 228, 104
-0.993286, 131, 153, 146, 216
-0.993292, 233, 65, 248, 128
-0.993305, 111, 217, 126, 280
-0.993318, 193, 185, 320, 216
-0.993338, 73, 249, 88, 312
-0.99334, 147, 137, 162, 200
-0.993341, 33, 201, 160, 232
-0.993348, 113, 169, 128, 232
-0.993359, 97, 153, 224, 184
-0.993364, 157, 177, 172, 240
-0.99338, 257, 49, 384, 80
-0.993411, 235, 41, 250, 104
-0.993419, 17, 165, 144, 196
-0.993428, 265, 41, 280, 104
-0.993432, 165, 121, 180, 184
-0.993436, 283, 41, 298, 104
-0.993455, 275, 41, 290, 104
-0.993459, 111, 241, 126, 304
-0.993479, 49, 65, 176, 96
-0.993485, 181, 81, 196, 144
-0.993497, 97, 65, 224, 96
-0.993506, 257, 89, 500, 152
-0.99354, 161, 49, 288, 80
-0.993543, 7, 177, 22, 240
-0.993558, 191, 137, 206, 200
-0.993561, 143, 169, 158, 232
-0.993561, 241, 141, 368, 172
-0.993606, 257, 17, 500, 80
-0.993622, 193, 149, 320, 180
-0.993624, 81, 201, 208, 232
-0.993631, 1, 245, 128, 276
-0.993634, 245, 65, 260, 128
-0.993635, 1, 233, 128, 264
-0.993647, 219, 41, 234, 104
-0.993657, 65, 177, 80, 240
-0.993668, 113, 189, 240, 220
-0.993676, 127, 129, 142, 192
-0.993706, 197, 145, 212, 208
-0.993706, 335, 41, 350, 104
-0.993716, 111, 137, 126, 200
-0.993719, 289, 41, 304, 104
-0.993721, 81, 233, 208, 264
-0.993739, 305, 41, 320, 104
-0.993748, 81, 53, 208, 84
-0.993751, 17, 285, 144, 316
-0.993761, 369, 265, 496, 328
-0.993766, 177, 129, 192, 192
-0.993793, 241, 245, 368, 276
-0.993795, 311, 225, 326, 288
-0.993796, 155, 153, 170, 216
-0.993801, 15, 185, 30, 248
-0.993812, 193, 41, 208, 104
-0.993816, 125, 153, 140, 216
-0.993831, 85, 233, 100, 296
-0.993832, 209, 229, 336, 260
-0.993839, 161, 153, 176, 216
-0.993847, 201, 121, 216, 184
-0.993885, 205, 49, 220, 112
-0.993892, 345, 121, 360, 184
-0.993895, 299, 41, 314, 104
-0.9939, 131, 201, 146, 264
-0.993936, 171, 113, 186, 176
-0.99394, 227, 65, 242, 128
-0.993962, 121, 129, 136, 192
-0.993979, 321, 117, 448, 148
-0.993984, 51, 169, 66, 232
-0.993988, 187, 41, 202, 104
-0.994001, 21, 169, 36, 232
-0.994009, 197, 73, 212, 136
-0.994025, 221, 65, 236, 128
-0.994036, 273, 233, 400, 264
-0.994036, 123, 185, 138, 248
-0.994044, 109, 193, 124, 256
-0.994084, 61, 145, 76, 208
-0.994086, 113, 81, 240, 112
-0.994088, 329, 41, 344, 104
-0.994103, 97, 125, 224, 156
-0.994114, 181, 201, 196, 264
-0.994117, 17, 273, 144, 304
-0.994136, 161, 173, 288, 204
-0.994143, 131, 57, 146, 120
-0.994148, 167, 169, 182, 232
-0.994149, 1, 97, 500, 160
-0.994158, 241, 129, 368, 160
-0.994164, 209, 73, 224, 136
-0.994194, 139, 145, 154, 208
-0.99421, 95, 233, 110, 296
-0.994219, 189, 65, 204, 128
-0.994231, 71, 177, 86, 240
-0.994235, 179, 153, 194, 216
-0.994235, 121, 49, 136, 112
-0.994249, 199, 41, 214, 104
-0.994267, 321, 41, 336, 104
-0.994277, 369, 45, 496, 76
-0.994287, 177, 81, 304, 112
-0.994331, 223, 233, 238, 296
-0.994334, 215, 65, 230, 128
-0.99434, 311, 41, 326, 104
-0.99435, 33, 153, 48, 216
-0.994351, 251, 65, 266, 128
-0.994353, 27, 169, 42, 232
-0.994353, 341, 41, 356, 104
-0.994366, 119, 233, 134, 296
-0.994373, 145, 149, 272, 180
-0.994375, 59, 185, 74, 248
-0.994392, 257, 69, 384, 100
-0.994392, 257, 161, 384, 192
-0.994399, 289, 209, 304, 272
-0.994414, 187, 161, 202, 224
-0.994427, 321, 61, 448, 92
-0.994428, 105, 249, 120, 312
-0.99443, 45, 161, 60, 224
-0.994436, 89, 257, 104, 320
-0.99445, 7, 201, 22, 264
-0.99445, 17, 297, 144, 328
-0.994464, 273, 185, 400, 216
-0.994479, 139, 193, 154, 256
-0.994486, 161, 201, 288, 232
-0.99449, 61, 265, 76, 328
-0.994496, 151, 177, 166, 240
-0.994498, 179, 177, 194, 240
-0.994503, 23, 145, 38, 208
-0.994505, 105, 33, 136, 288
-0.994505, 353, 105, 368, 168
-0.994513, 167, 193, 182, 256
-0.994564, 201, 97, 216, 160
-0.994582, 281, 177, 296, 240
-0.994588, 69, 153, 84, 216
-0.994588, 17, 257, 144, 288
-0.994592, 367, 49, 382, 112
-0.994598, 1, 281, 256, 344
-0.994603, 97, 185, 112, 248
-0.994608, 341, 153, 356, 216
-0.994641, 231, 233, 246, 296
-0.994642, 69, 281, 84, 344
-0.994652, 1, 113, 256, 176
-0.994654, 33, 177, 160, 208
-0.994658, 267, 121, 282, 184
-0.994669, 257, 145, 272, 208
-0.99469, 321, 145, 448, 176
-0.994726, 239, 89, 254, 152
-0.994731, 145, 193, 160, 256
-0.994734, 409, 1, 424, 64
-0.994754, 1, 169, 16, 232
-0.994755, 273, 197, 400, 228
-0.994765, 287, 177, 302, 240
-0.994766, 89, 1, 120, 256
-0.994777, 275, 65, 290, 128
-0.994778, 281, 145, 296, 208
-0.99478, 7, 225, 22, 288
-0.994796, 233, 89, 248, 152
-0.994798, 193, 245, 320, 276
-0.994803, 321, 129, 448, 160
-0.994812, 189, 185, 204, 248
-0.994827, 195, 105, 210, 168
-0.994835, 347, 41, 362, 104
-0.994835, 173, 65, 204, 320
-0.994839, 259, 65, 274, 128
-0.994843, 387, 97, 402, 160
-0.994843, 283, 209, 298, 272
-0.994958, 337, 173, 464, 204
-0.994964, 129, 237, 256, 268
-0.994976, 77, 1, 108, 256
-0.995106, 133, 33, 164, 288
-0.995121, 161, 289, 288, 352
-0.995132, 161, 225, 288, 256
-0.995152, 289, 173, 416, 204
-0.995157, 369, 21, 496, 52
-0.995169, 145, 161, 272, 192
-0.995228, 49, 65, 80, 320
-0.995237, 189, 97, 220, 352
-0.995256, 81, 33, 208, 64
-0.995257, 209, 69, 336, 100
-0.995259, 209, 37, 336, 68
-0.995259, 209, 217, 336, 248
-0.995267, 33, 53, 160, 84
-0.995305, 321, 233, 448, 264
-0.995345, 193, 125, 320, 156
-0.995359, 1, 149, 128, 180
-0.995359, 241, 117, 368, 148
-0.995359, 1, 33, 128, 64
-0.995375, 209, 173, 336, 204
-0.995421, 369, 9, 496, 40
-0.995484, 89, 129, 120, 375
-0.995487, 97, 165, 224, 196
-0.995493, 49, 221, 176, 252
-0.995506, 65, 313, 192, 375
-0.995514, 37, 33, 68, 288
-0.995518, 321, 217, 448, 248
-0.99555, 289, 245, 416, 276
-0.995565, 121, 33, 152, 288
-0.995611, 157, 33, 188, 288
-0.995613, 353, 73, 480, 104
-0.99566, 321, 33, 448, 64
-0.995672, 1, 77, 128, 108
-0.995672, 65, 277, 192, 308
-0.995688, 145, 213, 272, 244
-0.995689, 177, 257, 304, 288
-0.99569, 65, 1, 96, 256
-0.995709, 201, 65, 232, 320
-0.995742, 25, 65, 56, 320
-0.995748, 349, 97, 380, 352
-0.99579, 273, 217, 400, 248
-0.995798, 321, 157, 448, 188
-0.995813, 5, 33, 36, 288
-0.995821, 113, 93, 240, 124
-0.99585, 193, 273, 448, 336
-0.995865, 113, 109, 240, 140
-0.995869, 209, 49, 336, 80
-0.995875, 237, 65, 268, 320
-0.995905, 353, 249, 480, 280
-0.995934, 209, 205, 336, 236
-0.995957, 225, 257, 352, 288
-0.995968, 369, 65, 400, 320
-0.995968, 305, 49, 432, 80
-0.995988, 61, 97, 92, 352
-0.99603, 105, 129, 136, 375
-0.996104, 97, 253, 224, 284
-0.996108, 209, 5, 336, 36
-0.996114, 241, 105, 368, 136
-0.996162, 249, 65, 280, 320
-0.996193, 289, 261, 416, 292
-0.996255, 49, 245, 176, 276
-0.996264, 321, 189, 448, 220
-0.996292, 1, 281, 500, 344
-0.996325, 145, 33, 176, 288
-0.99634, 321, 13, 448, 44
-0.996344, 225, 33, 256, 288
-0.996365, 369, 157, 496, 188
-0.996375, 257, 21, 384, 52
-0.996377, 213, 129, 244, 375
-0.99638, 1, 213, 128, 244
-0.996388, 321, 205, 448, 236
-0.99639, 37, 129, 68, 375
-0.996392, 65, 77, 192, 108
-0.99642, 353, 89, 480, 120
-0.996425, 155, 129, 170, 160
-0.996426, 49, 129, 176, 160
-0.996427, 337, 129, 368, 375
-0.996433, 209, 161, 336, 192
-0.996461, 311, 233, 326, 264
-0.996535, 385, 33, 416, 288
-0.996541, 199, 149, 214, 180
-0.996546, 77, 97, 108, 352
-0.996552, 1, 65, 128, 96
-0.996567, 145, 17, 272, 48
-0.99658, 131, 157, 146, 188
-0.996584, 121, 169, 136, 200
-0.996616, 65, 265, 192, 296
-0.996673, 13, 129, 44, 375
-0.996681, 149, 137, 164, 168
-0.996683, 269, 129, 300, 375
-0.996685, 183, 101, 198, 132
-0.996691, 189, 137, 204, 168
-0.996693, 257, 37, 384, 68
-0.996715, 105, 177, 120, 208
-0.99672, 117, 129, 148, 375
-0.996752, 161, 37, 288, 68
-0.996752, 161, 273, 288, 304
-0.996769, 31, 165, 46, 196
-0.996769, 97, 229, 112, 260
-0.996773, 129, 129, 160, 375
-0.996785, 199, 97, 214, 128
-0.996796, 257, 93, 384, 124
-0.996798, 1, 21, 128, 52
-0.996813, 17, 309, 144, 340
-0.996817, 63, 185, 78, 216
-0.996837, 81, 261, 96, 292
-0.996846, 163, 125, 178, 156
-0.996847, 87, 237, 102, 268
-0.996858, 107, 225, 122, 256
-0.996858, 119, 149, 134, 180
-0.996872, 243, 117, 258, 148
-0.99688, 257, 81, 384, 112
-0.996885, 185, 1, 216, 256
-0.996896, 41, 161, 56, 192
-0.9969, 75, 281, 90, 312
-0.996902, 97, 181, 112, 212
-0.996905, 269, 133, 284, 164
-0.996907, 23, 165, 38, 196
-0.996908, 139, 145, 154, 176
-0.996909, 49, 9, 176, 40
-0.996913, 111, 173, 126, 204
-0.996916, 171, 181, 186, 212
-0.996917, 177, 129, 192, 160
-0.996918, 161, 145, 176, 176
-0.996921, 105, 189, 120, 220
-0.996934, 183, 133, 198, 164
-0.996947, 131, 177, 146, 208
-0.996954, 81, 245, 96, 276
-0.996963, 321, 105, 448, 136
-0.996963, 171, 145, 186, 176
-0.996973, 285, 129, 316, 375
-0.996974, 369, 33, 496, 64
-0.996978, 125, 157, 140, 188
-0.996981, 85, 277, 100, 308
-0.996982, 7, 185, 22, 216
-0.996992, 183, 121, 198, 152
-0.996995, 113, 265, 240, 296
-0.997008, 209, 189, 224, 220
-0.997009, 191, 105, 206, 136
-0.997033, 17, 169, 32, 200
-0.997039, 33, 89, 160, 120
-0.997039, 165, 177, 180, 208
-0.997043, 397, 1, 428, 256
-0.997045, 173, 117, 188, 148
-0.997055, 95, 245, 110, 276
-0.997059, 75, 189, 90, 220
-0.997064, 157, 181, 172, 212
-0.997068, 369, 57, 496, 88
-0.997081, 221, 241, 236, 272
-0.997094, 65, 289, 192, 320
-0.997111, 305, 73, 432, 104
-0.997115, 171, 169, 186, 200
-0.997116, 167, 69, 182, 100
-0.997117, 133, 201, 148, 232
-0.997119, 193, 93, 208, 124
-0.997129, 49, 153, 176, 184
-0.99713, 1, 129, 32, 375
-0.997132, 49, 173, 64, 204
-0.997136, 75, 245, 90, 276
-0.997144, 165, 193, 180, 224
-0.997146, 349, 1, 380, 256
-0.997148, 171, 53, 186, 84
-0.997153, 161, 161, 176, 192
-0.997157, 167, 157, 182, 188
-0.997162, 209, 269, 336, 300
-0.997168, 109, 161, 124, 192
-0.99717, 225, 225, 240, 256
-0.997176, 177, 173, 192, 204
-0.997177, 149, 149, 164, 180
-0.997179, 305, 1, 336, 256
-0.997187, 141, 185, 156, 216
-0.997188, 13, 245, 28, 276
-0.997192, 157, 129, 188, 375
-0.997192, 187, 89, 202, 120
-0.997195, 117, 181, 132, 212
-0.997199, 181, 149, 196, 180
-0.997201, 155, 141, 170, 172
-0.997203, 393, 129, 424, 375
-0.997204, 417, 225, 432, 256
-0.997212, 193, 157, 208, 188
-0.997215, 179, 201, 194, 232
-0.997215, 123, 125, 138, 156
-0.997221, 97, 161, 112, 192
-0.997221, 413, 33, 444, 288
-0.997226, 233, 117, 248, 148
-0.99723, 211, 117, 226, 148
-0.997248, 221, 137, 236, 168
-0.997249, 177, 81, 192, 112
-0.997253, 225, 129, 256, 375
-0.997258, 187, 157, 202, 188
-0.997261, 149, 165, 164, 196
-0.997266, 301, 137, 316, 168
-0.997269, 287, 185, 302, 216
-0.997272, 9, 205, 24, 236
-0.997278, 227, 153, 242, 184
-0.997279, 193, 125, 208, 156
-0.99728, 369, 57, 384, 88
-0.997286, 19, 241, 34, 272
-0.997287, 201, 85, 216, 116
-0.997291, 171, 133, 186, 164
-0.997291, 369, 129, 496, 160
-0.997308, 293, 217, 308, 248
-0.997308, 131, 145, 146, 176
-0.997309, 103, 241, 118, 272
-0.997312, 177, 189, 192, 220
-0.997317, 285, 221, 300, 252
-0.997318, 303, 225, 318, 256
-0.99732, 377, 253, 392, 284
-0.997322, 217, 153, 232, 184
-0.997322, 145, 201, 160, 232
-0.997331, 109, 137, 124, 168
-0.997341, 31, 177, 46, 208
-0.997347, 87, 249, 102, 280
-0.997347, 365, 105, 380, 136
-0.997355, 73, 177, 88, 208
-0.997356, 369, 229, 496, 260
-0.997361, 123, 193, 138, 224
-0.997364, 395, 241, 410, 272
-0.997365, 257, 1, 384, 32
-0.997367, 317, 233, 332, 264
-0.99737, 109, 245, 124, 276
-0.997381, 385, 253, 400, 284
-0.997383, 181, 213, 196, 244
-0.997387, 289, 153, 304, 184
-0.997393, 195, 137, 210, 168
-0.997394, 155, 165, 170, 196
-0.997413, 147, 181, 162, 212
-0.997414, 91, 281, 106, 312
-0.997415, 103, 161, 118, 192
-0.99742, 207, 85, 222, 116
-0.997421, 441, 1, 472, 256
-0.997425, 369, 185, 496, 216
-0.997431, 213, 1, 244, 256
-0.997434, 81, 181, 96, 212
-0.997435, 351, 113, 366, 144
-0.997439, 1, 177, 16, 208
-0.997445, 381, 241, 396, 272
-0.997447, 65, 289, 80, 320
-0.997447, 113, 229, 128, 260
-0.997461, 115, 49, 130, 80
-0.997467, 233, 101, 248, 132
-0.997471, 211, 153, 226, 184
-0.997471, 75, 261, 90, 292
-0.997473, 439, 1, 454, 32
-0.997475, 97, 281, 352, 344
-0.99748, 359, 53, 374, 84
-0.997481, 63, 145, 78, 176
-0.997491, 305, 237, 320, 268
-0.997493, 349, 49, 364, 80
-0.997497, 13, 185, 28, 216
-0.997502, 261, 33, 292, 288
-0.997509, 1, 305, 256, 368
-0.997522, 325, 129, 356, 375
-0.997552, 369, 101, 496, 132
-0.997555, 293, 33, 324, 288
-0.997619, 209, 93, 336, 124
-0.997621, 297, 129, 328, 375
-0.997647, 141, 129, 172, 375
-0.9977, 241, 313, 368, 375
-0.997811, 381, 129, 412, 375
-0.997913, 1, 257, 500, 320
-0.997916, 453, 1, 484, 256
-0.997925, 429, 1, 460, 256
-0.998017, 469, 1, 500, 256
-0.998027, 281, 33, 312, 288
-0.998082, 337, 1, 368, 256
-0.998109, 309, 129, 340, 375
-0.998121, 321, 297, 448, 360
-0.99825, 405, 129, 436, 375
-0.998337, 73, 183, 136, 198
-0.998338, 105, 143, 168, 158
-0.998346, 113, 305, 240, 368
-0.998347, 129, 149, 192, 164
-0.998348, 123, 113, 138, 240
-0.998353, 153, 133, 216, 148
-0.998359, 317, 1, 348, 256
-0.998362, 113, 187, 176, 202
-0.998365, 137, 141, 200, 156
-0.998368, 105, 135, 168, 150
-0.998371, 137, 209, 200, 224
-0.998373, 33, 179, 96, 194
-0.998375, 97, 195, 160, 210
-0.998375, 129, 131, 192, 146
-0.998376, 161, 149, 224, 164
-0.998381, 73, 243, 136, 258
-0.998382, 177, 95, 240, 110
-0.998382, 153, 125, 216, 140
-0.998384, 257, 141, 320, 156
-0.998387, 193, 313, 320, 375
-0.998394, 129, 197, 192, 212
-0.998398, 49, 195, 112, 210
-0.998402, 105, 151, 168, 166
-0.998402, 9, 177, 72, 192
-0.998403, 161, 189, 224, 204
-0.998404, 73, 195, 136, 210
-0.998404, 137, 189, 200, 204
-0.998404, 89, 189, 152, 204
-0.998413, 129, 155, 192, 170
-0.998416, 161, 119, 224, 134
-0.998416, 201, 99, 264, 114
-0.998417, 153, 165, 216, 180
-0.998418, 9, 169, 72, 184
-0.998418, 113, 169, 176, 184
-0.998421, 133, 129, 148, 256
-0.998422, 73, 249, 136, 264
-0.998422, 161, 143, 224, 158
-0.998423, 169, 155, 232, 170
-0.998425, 137, 203, 200, 218
-0.998425, 89, 163, 152, 178
-0.998428, 89, 173, 152, 188
-0.99843, 177, 89, 240, 104
-0.99843, 153, 183, 216, 198
-0.99843, 187, 81, 202, 208
-0.99843, 97, 227, 160, 242
-0.998431, 177, 165, 240, 180
-0.998432, 193, 137, 256, 152
-0.998433, 49, 173, 112, 188
-0.998434, 177, 131, 240, 146
-0.998436, 241, 71, 304, 86
-0.998436, 73, 257, 136, 272
-0.998439, 49, 185, 112, 200
-0.99844, 225, 99, 288, 114
-0.99844, 65, 153, 128, 168
-0.998443, 97, 181, 160, 196
-0.998446, 137, 221, 200, 236
-0.998447, 201, 119, 264, 134
-0.998447, 121, 163, 184, 178
-0.998448, 81, 237, 144, 252
-0.998449, 249, 149, 312, 164
-0.998449, 65, 283, 128, 298
-0.99845, 9, 183, 72, 198
-0.998451, 145, 215, 208, 230
-0.998451, 57, 293, 120, 308
-0.998453, 129, 179, 192, 194
-0.998454, 25, 151, 88, 166
-0.998454, 217, 65, 232, 192
-0.998457, 201, 189, 264, 204
-0.998459, 169, 209, 232, 224
-0.998459, 41, 159, 104, 174
-0.998459, 153, 175, 216, 190
-0.99846, 209, 89, 272, 104
-0.998462, 177, 125, 240, 140
-0.998465, 57, 203, 120, 218
-0.998467, 185, 111, 248, 126
-0.998468, 225, 255, 288, 270
-0.998468, 193, 265, 256, 280
-0.998469, 297, 241, 360, 256
-0.99847, 57, 271, 120, 286
-0.998471, 169, 195, 232, 210
-0.998472, 187, 129, 202, 256
-0.998473, 25, 291, 88, 306
-0.998473, 1, 247, 64, 262
-0.998474, 225, 131, 288, 146
-0.998475, 209, 153, 272, 168
-0.998475, 281, 235, 344, 250
-0.998475, 107, 177, 122, 304
-0.998475, 185, 105, 248, 120
-0.998477, 185, 229, 248, 244
-0.998478, 249, 47, 312, 62
-0.998479, 345, 173, 408, 188
-0.99848, 225, 105, 288, 120
-0.99848, 225, 47, 288, 62
-0.998481, 185, 49, 248, 64
-0.998482, 161, 113, 224, 128
-0.998482, 113, 73, 176, 88
-0.998483, 129, 63, 192, 78
-0.998483, 89, 201, 152, 216
-0.998483, 153, 69, 216, 84
-0.998485, 113, 205, 176, 220
-0.998486, 273, 225, 336, 240
-0.998489, 89, 157, 152, 172
-0.998491, 185, 239, 248, 254
-0.998491, 65, 145, 128, 160
-0.998492, 289, 49, 352, 64
-0.998493, 105, 219, 168, 234
-0.998493, 393, 9, 456, 24
-0.998493, 417, 1, 480, 16
-0.998494, 113, 161, 128, 288
-0.998495, 97, 243, 160, 258
-0.998496, 161, 203, 224, 218
-0.998497, 117, 33, 132, 160
-0.998499, 257, 231, 320, 246
-0.9985, 249, 187, 312, 202
-0.998501, 345, 117, 408, 132
-0.998502, 225, 261, 288, 276
-0.998503, 321, 69, 384, 84
-0.998505, 73, 263, 136, 278
-0.998506, 9, 189, 72, 204
-0.998506, 65, 167, 128, 182
-0.998506, 193, 249, 256, 264
-0.998508, 201, 271, 264, 286
-0.998509, 273, 147, 336, 162
-0.998509, 353, 255, 416, 270
-0.998512, 345, 45, 408, 60
-0.998513, 201, 127, 264, 142
-0.998513, 257, 243, 320, 258
-0.998514, 25, 241, 88, 256
-0.998514, 177, 173, 240, 188
-0.998515, 361, 101, 424, 116
-0.998516, 249, 193, 312, 208
-0.998517, 265, 249, 328, 264
-0.998518, 181, 129, 196, 256
-0.998518, 67, 129, 82, 256
-0.998519, 417, 39, 480, 54
-0.998519, 361, 201, 424, 216
-0.998521, 49, 247, 112, 262
-0.998522, 353, 93, 416, 108
-0.998522, 225, 247, 288, 262
-0.998522, 105, 67, 168, 82
-0.998523, 233, 143, 296, 158
-0.998524, 81, 81, 144, 96
-0.998524, 369, 235, 432, 250
-0.998531, 79, 177, 94, 304
-0.998534, 5, 173, 36, 188
-0.998534, 253, 89, 284, 104
-0.998534, 293, 149, 324, 164
-0.998536, 137, 219, 168, 234
-0.998537, 177, 159, 208, 174
-0.998537, 65, 263, 96, 278
-0.998537, 469, 29, 500, 44
-0.998538, 421, 1, 452, 16
-0.998538, 193, 143, 224, 158
-0.998538, 205, 121, 236, 136
-0.998539, 185, 89, 216, 104
-0.99854, 289, 233, 320, 248
-0.998541, 173, 171, 204, 186
-0.998542, 61, 295, 92, 310
-0.998542, 153, 211, 184, 226
-0.998542, 249, 97, 280, 112
-0.998543, 197, 87, 228, 102
-0.998543, 217, 249, 248, 264
-0.998543, 229, 65, 244, 192
-0.998544, 141, 177, 172, 192
-0.998544, 113, 57, 144, 72
-0.998545, 17, 241, 48, 256
-0.998545, 213, 47, 244, 62
-0.998547, 85, 277, 116, 292
-0.998547, 253, 103, 284, 118
-0.998547, 93, 249, 124, 264
-0.998547, 277, 143, 308, 158
-0.998547, 25, 167, 56, 182
-0.998547, 109, 183, 140, 198
-0.998547, 261, 187, 292, 202
-0.998548, 153, 199, 184, 214
-0.998548, 59, 129, 74, 256
-0.998549, 245, 261, 276, 276
-0.998549, 117, 143, 148, 158
-0.998551, 101, 47, 132, 62
-0.998551, 167, 129, 182, 256
-0.998552, 277, 157, 308, 172
-0.998552, 185, 151, 216, 166
-0.998553, 169, 119, 200, 134
-0.998553, 365, 107, 396, 122
-0.998554, 257, 251, 288, 266
-0.998555, 197, 191, 228, 206
-0.998556, 253, 135, 284, 150
-0.998556, 193, 159, 224, 174
-0.998557, 165, 187, 196, 202
-0.998557, 49, 167, 80, 182
-0.998558, 361, 255, 392, 270
-0.998558, 97, 275, 128, 290
-0.998559, 1, 179, 32, 194
-0.998559, 317, 237, 348, 252
-0.998559, 153, 185, 184, 200
-0.998559, 353, 113, 384, 128
-0.99856, 201, 133, 232, 148
-0.998561, 221, 151, 252, 166
-0.998562, 133, 137, 164, 152
-0.998562, 289, 223, 320, 238
-0.998562, 77, 81, 108, 96
-0.998563, 233, 271, 264, 286
-0.998563, 171, 49, 186, 176
-0.998564, 169, 65, 200, 80
-0.998564, 229, 91, 260, 106
-0.998564, 89, 261, 120, 276
-0.998565, 193, 109, 224, 124
-0.998566, 113, 133, 144, 148
-0.998567, 237, 97, 268, 112
-0.998568, 109, 165, 140, 180
-0.998568, 169, 83, 200, 98
-0.998569, 165, 205, 196, 220
-0.99857, 123, 161, 138, 288
-0.998572, 161, 75, 192, 90
-0.998576, 73, 195, 104, 210
-0.998576, 93, 175, 124, 190
-0.998577, 181, 165, 212, 180
-0.998578, 53, 181, 84, 196
-0.99858, 265, 149, 296, 164
-0.99858, 7, 161, 22, 288
-0.998581, 9, 249, 40, 264
-0.998582, 101, 243, 132, 258
-0.998583, 185, 127, 216, 142
-0.998586, 109, 171, 140, 186
-0.998586, 165, 197, 196, 212
-0.998588, 157, 179, 188, 194
-0.998588, 121, 165, 152, 180
-0.998589, 81, 255, 112, 270
-0.998589, 89, 193, 120, 208
-0.998589, 145, 193, 176, 208
-0.99859, 413, 7, 444, 22
-0.998591, 117, 151, 148, 166
-0.998591, 57, 187, 88, 202
-0.998592, 125, 193, 156, 208
-0.998592, 125, 187, 156, 202
-0.998593, 185, 137, 216, 152
-0.998594, 225, 131, 256, 146
-0.998595, 173, 149, 204, 164
-0.998595, 101, 195, 132, 210
-0.998596, 205, 159, 236, 174
-0.998596, 305, 239, 336, 254
-0.998599, 141, 183, 172, 198
-0.998602, 157, 173, 188, 188
-0.998603, 69, 287, 100, 302
-0.998608, 121, 171, 152, 186
-0.998609, 97, 237, 128, 252
-0.998611, 97, 183, 128, 198
-0.998612, 223, 49, 238, 176
-0.998615, 189, 101, 220, 116
-0.998617, 205, 93, 236, 108
-0.998617, 189, 115, 220, 130
-0.998617, 41, 177, 72, 192
-0.998618, 129, 159, 160, 174
-0.998618, 109, 159, 140, 174
-0.998619, 143, 145, 158, 272
-0.99862, 57, 289, 88, 304
-0.998622, 97, 163, 128, 178
-0.998623, 265, 81, 280, 208
-0.998624, 289, 141, 320, 156
-0.998626, 77, 185, 108, 200
-0.998626, 53, 161, 68, 288
-0.998633, 69, 257, 100, 272
-0.998638, 189, 95, 220, 110
-0.998638, 153, 69, 184, 84
-0.998641, 33, 183, 64, 198
-0.998642, 181, 143, 212, 158
-0.998643, 173, 135, 204, 150
-0.998644, 265, 141, 296, 156
-0.998646, 97, 227, 128, 242
-0.998646, 37, 161, 68, 176
-0.998646, 149, 145, 180, 160
-0.998648, 193, 297, 448, 360
-0.998651, 137, 203, 168, 218
-0.998656, 13, 179, 44, 194
-0.998657, 101, 189, 132, 204
-0.998659, 57, 193, 88, 208
-0.998659, 195, 129, 210, 256
-0.998662, 161, 125, 192, 140
-0.998662, 133, 149, 164, 164
-0.998664, 137, 143, 168, 158
-0.998666, 161, 113, 176, 240
-0.998671, 153, 131, 184, 146
-0.998674, 177, 65, 192, 192
-0.998678, 157, 65, 172, 192
-0.998679, 101, 193, 116, 320
-0.998681, 109, 177, 140, 192
-0.998682, 129, 177, 144, 304
-0.998682, 77, 247, 108, 262
-0.998684, 81, 241, 112, 256
-0.99869, 193, 65, 208, 192
-0.998691, 209, 33, 224, 160
-0.998692, 199, 49, 214, 176
-0.998694, 73, 1, 88, 128
-0.998698, 115, 113, 130, 240
-0.9987, 123, 49, 138, 176
-0.998704, 309, 209, 324, 336
-0.998713, 291, 145, 306, 272
-0.998715, 93, 177, 108, 304
-0.998717, 43, 145, 58, 272
-0.998728, 367, 49, 382, 176
-0.99873, 173, 129, 188, 256
-0.99873, 149, 139, 180, 154
-0.998731, 169, 141, 200, 156
-0.998738, 259, 65, 274, 192
-0.998745, 111, 49, 126, 176
-0.998746, 243, 17, 258, 144
-0.998747, 429, 97, 460, 352
-0.998754, 249, 81, 264, 208
-0.998778, 237, 17, 252, 144
-0.99878, 405, 1, 420, 128
-0.998787, 225, 113, 240, 240
-0.99879, 285, 129, 300, 256
-0.998791, 177, 1, 192, 128
-0.998793, 165, 49, 180, 176
-0.9988, 115, 209, 130, 336
-0.998801, 133, 49, 148, 176
-0.998803, 271, 97, 286, 224
-0.998804, 241, 65, 256, 192
-0.998806, 349, 113, 364, 240
-0.998816, 13, 161, 28, 288
-0.998821, 1, 161, 16, 288
-0.998827, 73, 241, 88, 368
-0.998837, 187, 33, 202, 160
-0.998844, 105, 33, 120, 160
-0.998848, 83, 17, 98, 144
-0.998852, 23, 129, 38, 256
-0.99886, 33, 129, 48, 256
-0.998862, 101, 145, 116, 272
-0.998866, 141, 49, 156, 176
-0.998867, 343, 113, 358, 240
-0.99887, 257, 17, 272, 144
-0.998872, 153, 129, 168, 256
-0.998873, 439, 1, 454, 128
-0.998879, 249, 33, 264, 160
-0.998882, 239, 113, 254, 240
-0.998884, 85, 177, 100, 304
-0.998886, 89, 241, 104, 368
-0.998887, 221, 1, 236, 128
-0.998891, 319, 161, 334, 288
-0.998895, 73, 81, 88, 208
-0.998903, 73, 161, 88, 288
-0.998906, 447, 1, 462, 128
-0.998909, 359, 33, 374, 160
-0.99891, 279, 129, 294, 256
-0.998911, 263, 17, 278, 144
-0.998912, 235, 65, 250, 192
-0.99892, 63, 81, 78, 208
-0.998921, 65, 177, 80, 304
-0.998923, 89, 17, 104, 144
-0.998925, 355, 97, 370, 224
-0.998927, 107, 129, 122, 256
-0.998927, 231, 113, 246, 240
-0.998951, 219, 113, 234, 240
-0.998957, 193, 177, 208, 304
-0.99896, 107, 225, 122, 352
-0.998963, 335, 145, 350, 272
-0.998963, 231, 17, 246, 144
-0.998966, 49, 81, 64, 208
-0.99897, 315, 17, 330, 144
-0.99898, 201, 97, 216, 224
-0.998983, 309, 161, 324, 288
-0.998985, 97, 17, 112, 144
-0.998986, 283, 177, 298, 304
-0.998989, 59, 177, 74, 304
-0.99899, 61, 1, 76, 128
-0.998992, 103, 81, 118, 208
-0.998995, 399, 65, 414, 192
-0.998996, 377, 33, 392, 160
-0.998998, 215, 1, 230, 128
-0.999006, 209, 97, 224, 224
-0.999007, 433, 1, 448, 128
-0.999011, 179, 177, 194, 304
-0.999014, 315, 225, 330, 352
-0.999014, 135, 177, 150, 304
-0.999018, 463, 1, 478, 128
-0.999029, 405, 113, 420, 240
-0.999032, 301, 161, 316, 288
-0.999038, 419, 1, 434, 128
-0.999058, 393, 97, 408, 224
-0.999059, 83, 225, 98, 352
-0.999059, 5, 33, 20, 160
-0.999059, 391, 49, 406, 176
-0.99906, 95, 129, 110, 256
-0.999063, 225, 161, 240, 288
-0.999066, 329, 161, 344, 288
-0.999067, 61, 241, 76, 368
-0.999068, 185, 177, 200, 304
-0.999072, 325, 17, 340, 144
-0.999075, 33, 81, 48, 208
-0.999077, 147, 49, 162, 176
-0.999079, 265, 129, 280, 256
-0.999079, 259, 161, 274, 288
-0.99908, 309, 17, 324, 144
-0.99909, 397, 17, 412, 144
-0.999093, 67, 1, 82, 128
-0.999258, 369, 297, 496, 360
-0.999468, 465, 97, 496, 352
-0.999534, 445, 97, 476, 352
-0.999643, 417, 129, 448, 375
-0.999712, 225, 237, 240, 252
-0.999712, 183, 139, 198, 154
-0.999713, 223, 149, 238, 164
-0.999713, 139, 157, 154, 172
-0.999715, 247, 271, 262, 286
-0.999715, 181, 119, 196, 134
-0.999716, 271, 139, 286, 154
-0.999716, 105, 187, 120, 202
-0.999717, 167, 199, 182, 214
-0.999718, 85, 271, 100, 286
-0.999718, 177, 187, 192, 202
-0.999718, 147, 183, 162, 198
-0.999719, 7, 185, 22, 200
-0.999719, 119, 161, 134, 176
-0.999719, 259, 143, 274, 158
-0.99972, 129, 191, 144, 206
-0.99972, 309, 245, 324, 260
-0.999723, 121, 195, 136, 210
-0.999723, 85, 277, 100, 292
-0.999723, 77, 247, 92, 262
-0.999723, 117, 231, 132, 246
-0.999723, 203, 121, 218, 136
-0.999724, 189, 117, 204, 132
-0.999724, 171, 137, 186, 152
-0.999724, 159, 153, 174, 168
-0.999725, 431, 1, 446, 16
-0.999725, 187, 145, 202, 160
-0.999725, 159, 177, 174, 192
-0.999725, 101, 237, 116, 252
-0.999726, 193, 145, 208, 160
-0.999726, 21, 171, 36, 186
-0.999727, 265, 143, 280, 158
-0.999727, 241, 271, 256, 286
-0.999728, 291, 161, 306, 176
-0.999729, 237, 115, 252, 130
-0.999729, 121, 173, 136, 188
-0.999731, 171, 131, 186, 146
-0.999731, 155, 213, 170, 228
-0.999731, 63, 197, 78, 212
-0.999731, 175, 175, 190, 190
-0.999733, 85, 241, 100, 256
-0.999733, 99, 197, 114, 212
-0.999734, 71, 187, 86, 202
-0.999734, 159, 139, 174, 154
-0.999734, 105, 179, 120, 194
-0.999735, 183, 163, 198, 178
-0.999735, 159, 159, 174, 174
-0.999735, 35, 181, 50, 196
-0.999737, 291, 219, 306, 234
-0.999738, 119, 243, 134, 258
-0.999739, 227, 131, 242, 146
-0.999739, 165, 139, 180, 154
-0.999739, 269, 251, 284, 266
-0.999741, 249, 97, 264, 112
-0.999741, 195, 167, 210, 182
-0.999741, 193, 93, 208, 108
-0.999742, 211, 123, 226, 138
-0.999742, 149, 157, 164, 172
-0.999744, 41, 179, 56, 194
-0.999745, 163, 205, 178, 220
-0.999745, 111, 245, 126, 260
-0.999746, 19, 179, 34, 194
-0.999746, 281, 183, 296, 198
-0.999747, 179, 203, 194, 218
-0.999747, 145, 189, 160, 204
-0.999748, 131, 181, 146, 196
-0.999749, 41, 161, 56, 176
-0.999749, 97, 243, 112, 258
-0.99975, 49, 175, 64, 190
-0.999751, 287, 153, 302, 168
-0.999752, 177, 131, 192, 146
-0.999752, 89, 257, 104, 272
-0.999753, 153, 183, 168, 198
-0.999754, 367, 107, 382, 122
-0.999754, 111, 237, 126, 252
-0.999754, 171, 123, 186, 138
-0.999754, 99, 185, 114, 200
-0.999754, 29, 167, 44, 182
-0.999755, 161, 133, 176, 148
-0.999755, 175, 117, 190, 132
-0.999756, 283, 227, 298, 242
-0.999756, 165, 151, 180, 166
-0.999756, 61, 189, 76, 204
-0.999756, 261, 255, 276, 270
-0.999757, 105, 193, 120, 208
-0.999758, 171, 77, 186, 92
-0.99976, 83, 251, 98, 266
-0.999761, 131, 155, 146, 170
-0.999761, 297, 223, 312, 238
-0.999761, 191, 137, 206, 152
-0.999762, 75, 283, 90, 298
-0.999763, 277, 141, 292, 156
-0.999763, 201, 159, 216, 174
-0.999764, 177, 83, 192, 98
-0.999764, 65, 183, 80, 198
-0.999765, 169, 193, 184, 208
-0.999766, 177, 139, 192, 154
-0.999766, 315, 237, 330, 252
-0.999767, 91, 277, 106, 292
-0.999768, 211, 207, 226, 222
-0.999769, 191, 161, 206, 176
-0.999771, 109, 141, 124, 156
-0.999772, 171, 145, 186, 160
-0.999773, 97, 191, 112, 206
-0.999776, 157, 147, 172, 162
-0.999778, 85, 283, 100, 298
-0.999783, 197, 153, 212, 168
-0.999784, 65, 291, 80, 306
-0.999784, 125, 167, 140, 182
-0.999785, 179, 181, 194, 196
-0.999785, 155, 129, 170, 144
-0.999787, 165, 145, 180, 160
-0.999789, 303, 141, 318, 156
-0.99979, 169, 185, 184, 200
-0.999791, 169, 175, 184, 190
-0.999792, 265, 135, 280, 150
-0.999793, 59, 183, 74, 198
-0.999797, 151, 139, 166, 154
-0.999798, 73, 253, 88, 268
-0.999798, 199, 99, 214, 114
-0.999798, 119, 155, 134, 170
-0.999799, 137, 151, 152, 166
-0.999803, 115, 169, 130, 184
-0.999805, 209, 189, 224, 204
-0.999808, 79, 257, 94, 272
-0.999809, 47, 181, 62, 196
-0.99982, 107, 225, 122, 240
-0.999822, 145, 147, 160, 162
-0.999848, 183, 133, 198, 148
-0.99986, 97, 305, 352, 368
-0.99986, 129, 161, 144, 176
-1.00014, 1, 305, 500, 368
-1.00175, 129, 241, 192, 368
