1949
-0.234369, 1, 1, 500, 375
-0.351342, 33, 1, 288, 375
-0.368822, 193, 1, 448, 375
-0.371718, 1, 1, 500, 256
-0.42536, 1, 97, 500, 352
-0.615111, 65, 33, 320, 288
-0.616904, 225, 1, 480, 256
-0.653238, 225, 129, 480, 375
-0.688339, 129, 129, 384, 375
-0.714248, 33, 129, 288, 375
-0.828531, 81, 1, 208, 375
-0.83759, 289, 1, 416, 375
-0.838965, 161, 1, 288, 375
-0.843265, 65, 33, 192, 288
-0.844452, 305, 1, 432, 256
-0.846075, 65, 129, 192, 375
-0.85162, 17, 65, 144, 320
-0.853502, 33, 1, 160, 375
-0.854664, 145, 97, 272, 352
-0.854958, 209, 1, 336, 375
-0.855025, 369, 1, 496, 375
-0.855629, 369, 1, 496, 256
-0.867438, 225, 65, 352, 320
-0.883918, 177, 1, 304, 256
-0.885175, 113, 1, 240, 256
-0.889591, 337, 129, 464, 375
-0.890907, 1, 129, 500, 256
-0.892939, 1, 49, 500, 176
-0.905071, 1, 241, 500, 368
-0.907121, 289, 129, 416, 375
-0.907362, 65, 177, 320, 304
-0.908799, 1, 49, 256, 176
-0.915653, 1, 177, 500, 304
-0.918754, 193, 225, 448, 352
-0.921441, 65, 97, 320, 224
-0.925821, 257, 161, 500, 288
-0.927685, 193, 225, 320, 352
-0.927773, 97, 225, 352, 352
-0.928355, 193, 33, 448, 160
-0.929763, 65, 145, 192, 272
-0.930185, 161, 97, 416, 224
-0.932131, 97, 49, 352, 176
-0.932951, 217, 225, 280, 352
-0.933559, 1, 65, 128, 192
-0.934589, 201, 49, 264, 176
-0.935555, 249, 241, 312, 368
-0.935816, 17, 65, 80, 192
-0.936273, 193, 49, 320, 176
-0.936531, 113, 113, 240, 240
-0.937113, 97, 49, 224, 176
-0.937204, 73, 49, 136, 176
-0.937773, 161, 145, 416, 272
-0.939008, 17, 113, 144, 240
-0.939109, 145, 49, 272, 176
-0.939665, 145, 241, 272, 368
-0.940681, 1, 241, 256, 368
-0.940836, 73, 161, 136, 288
-0.940885, 145, 193, 272, 320
-0.940908, 153, 49, 216, 176
-0.941389, 161, 97, 288, 224
-0.941489, 185, 241, 248, 368
-0.94213, 241, 225, 368, 352
-0.942805, 257, 81, 500, 208
-0.943374, 161, 241, 224, 368
-0.943964, 105, 113, 168, 240
-0.944094, 49, 49, 176, 176
-0.944293, 241, 49, 368, 176
-0.944856, 233, 33, 296, 160
-0.945548, 121, 49, 184, 176
-0.945866, 249, 193, 312, 320
-0.947235, 257, 49, 320, 176
-0.947272, 177, 49, 240, 176
-0.947708, 65, 97, 192, 224
-0.947722, 209, 97, 336, 224
-0.947884, 289, 33, 416, 160
-0.948478, 97, 49, 160, 176
-0.948518, 41, 97, 104, 224
-0.9488, 209, 113, 272, 176
-0.9489, 201, 113, 264, 240
-0.949941, 169, 97, 232, 224
-0.949977, 369, 17, 496, 144
-0.950849, 65, 225, 192, 352
-0.951013, 185, 113, 248, 176
-0.951172, 273, 209, 336, 336
-0.951476, 65, 113, 128, 240
-0.951603, 217, 257, 280, 320
-0.951686, 377, 97, 440, 224
-0.952358, 1, 1, 500, 128
-0.952444, 297, 33, 360, 160
-0.952756, 225, 113, 288, 240
-0.952901, 417, 17, 480, 144
-0.953132, 161, 145, 288, 272
-0.953326, 17, 161, 144, 288
-0.953671, 289, 209, 416, 336
-0.953895, 1, 113, 64, 240
-0.953919, 57, 161, 120, 224
-0.954396, 65, 217, 128, 280
-0.954584, 233, 233, 296, 296
-0.954884, 249, 105, 312, 168
-0.955187, 265, 265, 328, 328
-0.955857, 97, 161, 160, 288
-0.956025, 209, 137, 272, 200
-0.956685, 49, 161, 112, 288
-0.957041, 177, 257, 240, 320
-0.957139, 33, 177, 96, 240
-0.957254, 353, 161, 416, 288
-0.957256, 169, 289, 232, 352
-0.957296, 289, 113, 416, 240
-0.957301, 129, 97, 192, 224
-0.957576, 385, 145, 448, 272
-0.957629, 369, 193, 496, 320
-0.957654, 1, 113, 64, 176
-0.95774, 137, 249, 200, 312
-0.958028, 329, 17, 392, 144
-0.958112, 377, 193, 440, 320
-0.958511, 161, 113, 224, 176
-0.958608, 89, 137, 152, 200
-0.958738, 129, 177, 192, 304
-0.959332, 81, 169, 144, 232
-0.959389, 289, 241, 352, 304
-0.959403, 225, 177, 288, 304
-0.959674, 401, 153, 464, 216
-0.959678, 257, 97, 320, 224
-0.960375, 393, 17, 456, 144
-0.960399, 209, 145, 336, 272
-0.960465, 369, 129, 496, 256
-0.960471, 377, 145, 440, 208
-0.960727, 425, 113, 488, 240
-0.960885, 49, 105, 112, 168
-0.961166, 41, 49, 104, 176
-0.961167, 25, 73, 88, 136
-0.961929, 353, 113, 416, 240
-0.962018, 57, 137, 120, 200
-0.962069, 233, 281, 296, 344
-0.96257, 113, 129, 176, 192
-0.962842, 185, 137, 248, 200
-0.962931, 57, 65, 120, 128
-0.963027, 233, 129, 296, 192
-0.963145, 161, 145, 224, 208
-0.963435, 257, 233, 320, 296
-0.963664, 321, 161, 448, 288
-0.96368, 25, 97, 88, 160
-0.963809, 433, 225, 496, 352
-0.963907, 193, 193, 256, 320
-0.963915, 321, 233, 384, 296
-0.964295, 57, 193, 120, 256
-0.964299, 193, 297, 256, 360
-0.96432, 17, 145, 80, 208
-0.964453, 25, 145, 88, 272
-0.964614, 89, 233, 152, 296
-0.964772, 113, 65, 176, 128
-0.964886, 329, 33, 392, 96
-0.964889, 81, 209, 144, 336
-0.965024, 105, 225, 168, 352
-0.965085, 361, 33, 424, 160
-0.965091, 369, 81, 496, 208
-0.965648, 241, 257, 304, 320
-0.96568, 153, 193, 216, 320
-0.965911, 177, 145, 240, 272
-0.96599, 249, 49, 312, 112
-0.966111, 153, 145, 216, 272
-0.966123, 105, 33, 168, 288
-0.96613, 369, 241, 496, 368
-0.966424, 65, 33, 128, 288
-0.966482, 401, 25, 464, 88
-0.966824, 377, 1, 440, 256
-0.96696, 401, 97, 464, 224
-0.96697, 137, 241, 200, 368
-0.967019, 17, 209, 144, 336
-0.967141, 137, 41, 200, 104
-0.967154, 209, 233, 272, 296
-0.967518, 313, 225, 376, 352
-0.967685, 161, 257, 288, 320
-0.967723, 321, 1, 384, 256
-0.967824, 409, 241, 472, 368
-0.967853, 33, 1, 288, 128
-0.968086, 433, 145, 496, 208
-0.968504, 145, 113, 272, 176
-0.968564, 73, 97, 136, 160
-0.968593, 145, 273, 208, 336
-0.968788, 337, 257, 400, 320
-0.968831, 113, 241, 176, 304
-0.969163, 81, 129, 208, 192
-0.969977, 329, 113, 392, 240
-0.970089, 385, 257, 448, 320
-0.970121, 49, 169, 80, 232
-0.970231, 121, 153, 184, 216
-0.97033, 425, 1, 488, 256
-0.970411, 49, 169, 176, 232
-0.970688, 137, 113, 200, 176
-0.970824, 257, 129, 320, 192
-0.971036, 185, 89, 248, 152
-0.971071, 113, 105, 176, 168
-0.971142, 153, 65, 216, 128
-0.971152, 377, 169, 440, 232
-0.971162, 409, 265, 472, 328
-0.971263, 177, 65, 240, 128
-0.971404, 209, 281, 336, 344
-0.971415, 117, 233, 148, 296
-0.971535, 89, 57, 152, 120
-0.971547, 249, 145, 312, 272
-0.971556, 233, 49, 264, 176
-0.971671, 137, 225, 200, 288
-0.971766, 289, 129, 352, 256
-0.971799, 257, 289, 320, 352
-0.971801, 245, 225, 276, 352
-0.97191, 401, 1, 464, 256
-0.971953, 209, 113, 336, 176
-0.972006, 1, 105, 128, 168
-0.972229, 213, 241, 244, 368
-0.972244, 417, 177, 480, 240
-0.972309, 425, 65, 488, 192
-0.972412, 281, 49, 344, 112
-0.972539, 17, 145, 144, 208
-0.972575, 189, 257, 220, 320
-0.972693, 273, 161, 400, 288
-0.972718, 225, 89, 288, 152
-0.972877, 217, 57, 280, 120
-0.972977, 385, 241, 448, 368
-0.972988, 17, 17, 80, 144
-0.973034, 265, 225, 296, 352
-0.973044, 177, 137, 304, 200
-0.973077, 77, 145, 108, 272
-0.973113, 129, 49, 160, 176
-0.973176, 209, 233, 336, 296
-0.9732, 161, 41, 224, 104
-0.97324, 353, 161, 416, 224
-0.973254, 25, 65, 88, 320
-0.973279, 249, 33, 312, 288
-0.973342, 225, 113, 256, 176
-0.973585, 57, 65, 88, 192
-0.973586, 229, 233, 260, 296
-0.973634, 197, 113, 228, 176
-0.973731, 105, 177, 168, 240
-0.97383, 9, 169, 72, 232
-0.973842, 225, 97, 288, 352
-0.973975, 161, 33, 224, 288
-0.973986, 113, 265, 176, 328
-0.973994, 409, 161, 472, 288
-0.973996, 377, 121, 440, 184
-0.974015, 305, 41, 368, 104
-0.974022, 33, 201, 96, 264
-0.974039, 185, 233, 248, 296
-0.974083, 345, 1, 408, 256
-0.974155, 297, 177, 360, 304
-0.974182, 13, 81, 44, 208
-0.974198, 1, 33, 64, 288
-0.974199, 213, 49, 244, 176
-0.974344, 233, 241, 264, 368
-0.974359, 193, 49, 224, 176
-0.974441, 249, 49, 280, 176
-0.97446, 297, 217, 360, 280
-0.974471, 249, 129, 280, 192
-0.974544, 161, 177, 224, 240
-0.974572, 161, 281, 288, 344
-0.974675, 1, 65, 64, 128
-0.974697, 213, 113, 244, 176
-0.974745, 281, 33, 344, 288
-0.974748, 401, 129, 464, 192
-0.974807, 265, 273, 296, 336
-0.974819, 361, 257, 424, 320
-0.974847, 313, 257, 376, 320
-0.97495, 129, 241, 160, 304
-0.97497, 245, 257, 276, 320
-0.974994, 121, 129, 184, 375
-0.974995, 169, 281, 200, 344
-0.975015, 77, 161, 108, 224
-0.975076, 289, 273, 352, 336
-0.975083, 337, 225, 400, 352
-0.975238, 49, 145, 80, 272
-0.975246, 161, 49, 192, 176
-0.975309, 189, 241, 220, 368
-0.97535, 53, 105, 84, 168
-0.975409, 209, 193, 272, 256
-0.97544, 109, 49, 140, 176
-0.975494, 237, 121, 268, 184
-0.975515, 81, 49, 112, 176
-0.975522, 273, 249, 400, 312
-0.975543, 385, 113, 416, 240
-0.975735, 233, 113, 264, 240
-0.975755, 101, 161, 132, 288
-0.975897, 281, 281, 312, 344
-0.975902, 225, 1, 352, 128
-0.975963, 281, 233, 312, 296
-0.975976, 377, 25, 440, 88
-0.97601, 181, 281, 212, 344
-0.976028, 89, 129, 152, 375
-0.976098, 361, 241, 424, 368
-0.976154, 25, 49, 56, 176
-0.976171, 241, 49, 368, 112
-0.976176, 129, 217, 256, 280
-0.976186, 265, 33, 296, 160
-0.976247, 201, 241, 232, 368
-0.976269, 181, 49, 212, 176
-0.976339, 261, 233, 292, 296
-0.976344, 37, 65, 68, 192
-0.976393, 65, 129, 128, 375
-0.976433, 433, 265, 496, 328
-0.976438, 1, 161, 64, 288
-0.976464, 201, 33, 264, 288
-0.976494, 265, 201, 328, 264
-0.976541, 353, 129, 416, 192
-0.976543, 145, 97, 176, 224
-0.976551, 277, 209, 308, 336
-0.976579, 145, 129, 208, 375
-0.976582, 249, 233, 280, 296
-0.976627, 113, 153, 240, 216
-0.97666, 241, 209, 304, 272
-0.976678, 61, 185, 92, 248
-0.976854, 193, 289, 224, 352
-0.976901, 249, 105, 280, 168
-0.976978, 113, 249, 240, 312
-0.977008, 241, 153, 304, 216
-0.977013, 185, 209, 248, 272
-0.977165, 345, 225, 408, 288
-0.977172, 329, 145, 392, 208
-0.977178, 93, 145, 124, 208
-0.977222, 177, 249, 208, 312
-0.977227, 49, 225, 112, 352
-0.977274, 261, 105, 292, 168
-0.977279, 321, 33, 448, 96
-0.977345, 213, 265, 244, 328
-0.977357, 181, 113, 212, 176
-0.977435, 281, 313, 344, 375
-0.97747, 201, 265, 232, 328
-0.977641, 65, 161, 96, 224
-0.977689, 217, 305, 280, 368
-0.977815, 281, 113, 344, 176
-0.977869, 433, 121, 496, 184
-0.97795, 1, 17, 128, 144
-0.977959, 225, 145, 352, 208
-0.978035, 33, 225, 160, 288
-0.978152, 89, 1, 152, 375
-0.978182, 69, 97, 100, 224
-0.978224, 353, 41, 416, 104
-0.978227, 361, 97, 424, 352
-0.978337, 81, 1, 208, 128
-0.978356, 277, 257, 308, 320
-0.97839, 217, 297, 248, 360
-0.978404, 385, 129, 448, 375
-0.978426, 201, 1, 264, 128
-0.978434, 425, 33, 488, 96
-0.978487, 289, 81, 352, 208
-0.978491, 101, 225, 132, 288
-0.978512, 153, 89, 216, 152
-0.978554, 137, 1, 200, 256
-0.978635, 469, 33, 500, 160
-0.978673, 69, 49, 100, 176
-0.978712, 101, 121, 132, 184
-0.978804, 1, 65, 32, 192
-0.978819, 209, 257, 336, 320
-0.978951, 9, 113, 40, 176
-0.978958, 25, 121, 88, 184
-0.978983, 281, 137, 344, 200
-0.979094, 113, 145, 144, 208
-0.979193, 329, 121, 392, 184
-0.979239, 113, 193, 240, 256
-0.979251, 97, 105, 224, 168
-0.979273, 225, 257, 256, 320
-0.979289, 281, 49, 312, 176
-0.979299, 257, 225, 384, 288
-0.979319, 369, 265, 496, 328
-0.979403, 65, 65, 192, 128
-0.979457, 209, 161, 272, 224
-0.979475, 45, 73, 76, 136
-0.979484, 385, 161, 416, 224
-0.979508, 229, 193, 260, 320
-0.979676, 141, 113, 172, 176
-0.979681, 77, 201, 108, 264
-0.979703, 369, 233, 432, 296
-0.97974, 97, 49, 128, 176
-0.979753, 165, 241, 196, 368
-0.979763, 41, 137, 72, 200
-0.979788, 185, 185, 248, 248
-0.97979, 105, 209, 168, 272
-0.97986, 221, 97, 252, 224
-0.979906, 261, 129, 292, 192
-0.979915, 209, 201, 336, 264
-0.98001, 129, 193, 192, 256
-0.980038, 153, 1, 216, 375
-0.980117, 293, 241, 324, 304
-0.98019, 281, 129, 344, 375
-0.980195, 373, 113, 404, 240
-0.980234, 21, 105, 52, 168
-0.98024, 113, 161, 144, 288
-0.98025, 49, 97, 176, 160
-0.980255, 145, 297, 208, 360
-0.980286, 369, 1, 432, 375
-0.980348, 289, 121, 416, 184
-0.980354, 161, 1, 288, 128
-0.980391, 377, 193, 440, 256
-0.980408, 97, 97, 128, 224
-0.980505, 185, 129, 248, 375
-0.980593, 257, 1, 320, 128
-0.980633, 37, 97, 68, 160
-0.980637, 405, 113, 436, 240
-0.98066, 1, 201, 128, 264
-0.980723, 177, 241, 208, 368
-0.980787, 113, 289, 240, 352
-0.980842, 297, 33, 328, 160
-0.980854, 209, 89, 336, 152
-0.980881, 165, 113, 196, 240
-0.980891, 281, 25, 344, 88
-0.980973, 321, 241, 352, 304
-0.980999, 369, 137, 496, 200
-0.981031, 353, 185, 416, 248
-0.981091, 81, 137, 112, 200
-0.981092, 185, 161, 248, 224
-0.981104, 225, 305, 352, 368
-0.98111, 65, 97, 96, 160
-0.981135, 305, 105, 368, 168
-0.981143, 225, 1, 288, 256
-0.981191, 141, 249, 172, 312
-0.981194, 193, 49, 320, 112
-0.981201, 109, 113, 140, 240
-0.981224, 49, 193, 176, 256
-0.981228, 65, 1, 128, 375
-0.981289, 61, 145, 92, 272
-0.981321, 289, 145, 416, 208
-0.981385, 69, 65, 100, 128
-0.981485, 397, 145, 428, 208
-0.981488, 409, 17, 440, 144
-0.981508, 233, 297, 264, 360
-0.981536, 245, 209, 276, 272
-0.981616, 1, 177, 128, 240
-0.981624, 433, 89, 496, 152
-0.98163, 185, 137, 216, 200
-0.981639, 385, 97, 448, 160
-0.981683, 205, 297, 236, 360
-0.981777, 333, 33, 364, 160
-0.981787, 161, 257, 192, 320
-0.981859, 149, 177, 180, 304
-0.981886, 401, 1, 464, 375
-0.981904, 369, 25, 496, 88
-0.981914, 9, 73, 40, 136
-0.981945, 213, 137, 244, 200
-0.981992, 249, 97, 280, 224
-0.982015, 53, 145, 84, 208
-0.982043, 201, 193, 232, 320
-0.982072, 213, 193, 244, 320
-0.982103, 449, 17, 480, 144
-0.982105, 113, 113, 144, 176
-0.982127, 129, 225, 160, 352
-0.982165, 249, 281, 280, 344
-0.982198, 289, 273, 416, 336
-0.982228, 25, 113, 56, 240
-0.982251, 129, 177, 160, 304
-0.982308, 353, 161, 480, 224
-0.982313, 301, 225, 332, 352
-0.98234, 1, 89, 64, 152
-0.982345, 65, 257, 192, 320
-0.982375, 409, 25, 440, 88
-0.982401, 397, 257, 428, 320
-0.982403, 329, 1, 392, 375
-0.982414, 1, 65, 128, 128
-0.982466, 149, 49, 180, 176
-0.982469, 193, 65, 224, 128
-0.982499, 113, 65, 240, 128
-0.982517, 309, 249, 340, 312
-0.982527, 89, 161, 120, 288
-0.982538, 161, 161, 288, 224
-0.982581, 153, 65, 184, 128
-0.982641, 161, 153, 192, 216
-0.982653, 425, 1, 488, 375
-0.982695, 181, 113, 212, 240
-0.982706, 221, 145, 252, 272
-0.982745, 193, 185, 224, 248
-0.982762, 469, 81, 500, 208
-0.982772, 333, 233, 364, 296
-0.982789, 389, 33, 420, 160
-0.982797, 101, 169, 132, 232
-0.982813, 213, 57, 244, 120
-0.98283, 265, 41, 296, 104
-0.982844, 193, 1, 256, 375
-0.982854, 209, 225, 240, 288
-0.982857, 305, 193, 368, 256
-0.982914, 137, 1, 200, 128
-0.982943, 257, 81, 320, 144
-0.982949, 317, 33, 348, 160
-0.983029, 297, 265, 328, 328
-0.983107, 337, 225, 464, 288
-0.983115, 25, 193, 88, 320
-0.983117, 37, 113, 68, 240
-0.983146, 305, 1, 368, 375
-0.983168, 81, 225, 208, 288
-0.983183, 409, 129, 472, 375
-0.983192, 253, 161, 284, 288
-0.983193, 273, 1, 336, 375
-0.983207, 329, 41, 360, 104
-0.983225, 377, 121, 408, 184
-0.983259, 381, 161, 412, 288
-0.98326, 145, 225, 176, 352
-0.98333, 305, 145, 368, 208
-0.983348, 361, 33, 392, 96
-0.983372, 89, 169, 120, 232
-0.983392, 421, 25, 452, 88
-0.983397, 29, 73, 60, 136
-0.983423, 429, 153, 460, 216
-0.983457, 237, 145, 268, 208
-0.983477, 257, 129, 320, 375
-0.983523, 321, 65, 384, 192
-0.98357, 329, 177, 392, 304
-0.983593, 169, 1, 232, 128
-0.983661, 369, 17, 400, 144
-0.983682, 121, 97, 152, 224
-0.98372, 433, 241, 496, 304
-0.983799, 233, 49, 264, 112
-0.983811, 217, 1, 280, 375
-0.983962, 209, 113, 240, 240
-0.983983, 89, 217, 120, 280
-0.983997, 349, 33, 380, 96
-0.984065, 285, 105, 316, 168
-0.984071, 81, 1, 144, 128
-0.984089, 421, 17, 452, 144
-0.984206, 133, 97, 164, 224
-0.984212, 373, 161, 404, 224
-0.984286, 65, 137, 96, 200
-0.984319, 409, 233, 472, 296
-0.984328, 57, 73, 88, 136
-0.984354, 353, 17, 416, 80
-0.984355, 101, 57, 132, 120
-0.98443, 345, 17, 376, 144
-0.984457, 253, 49, 284, 112
-0.984498, 273, 177, 336, 240
-0.984522, 125, 137, 156, 200
-0.984525, 129, 1, 192, 375
-0.984547, 145, 89, 272, 152
-0.984556, 173, 145, 204, 208
-0.984581, 241, 185, 304, 248
-0.984658, 273, 25, 400, 88
-0.984706, 437, 17, 468, 144
-0.984755, 409, 265, 440, 328
-0.984768, 361, 113, 392, 240
-0.984772, 309, 49, 340, 112
-0.984777, 217, 33, 280, 96
-0.98478, 397, 169, 428, 232
-0.984782, 309, 281, 340, 344
-0.984821, 409, 145, 440, 208
-0.984827, 161, 225, 224, 288
-0.984835, 421, 129, 452, 256
-0.984864, 113, 1, 176, 128
-0.984885, 349, 225, 380, 288
-0.984889, 233, 209, 264, 272
-0.984898, 161, 121, 192, 184
-0.984947, 249, 313, 312, 375
-0.985005, 81, 193, 144, 256
-0.985026, 181, 65, 212, 128
-0.985041, 125, 57, 156, 120
-0.985069, 357, 17, 388, 144
-0.985083, 165, 41, 196, 104
-0.985115, 1, 113, 32, 240
-0.985119, 205, 89, 236, 152
-0.985145, 385, 41, 416, 104
-0.985151, 317, 225, 348, 352
-0.985156, 197, 137, 228, 200
-0.98517, 97, 209, 128, 336
-0.985184, 81, 65, 112, 128
-0.985197, 289, 177, 416, 240
-0.985255, 289, 209, 320, 336
-0.985259, 261, 97, 292, 224
-0.985287, 193, 41, 256, 104
-0.985416, 137, 65, 168, 128
-0.985451, 229, 89, 260, 152
-0.985507, 161, 305, 288, 368
-0.985515, 273, 105, 304, 168
-0.985537, 193, 89, 224, 152
-0.985557, 385, 281, 448, 344
-0.985572, 293, 49, 324, 112
-0.985607, 89, 257, 152, 320
-0.985637, 193, 97, 224, 224
-0.98565, 433, 177, 496, 304
-0.985834, 337, 185, 464, 248
-0.985912, 41, 1, 104, 128
-0.985974, 433, 177, 464, 240
-0.986019, 25, 169, 56, 232
-0.986026, 249, 1, 312, 375
-0.986031, 161, 193, 288, 256
-0.986081, 369, 257, 400, 320
-0.986091, 153, 97, 184, 160
-0.98615, 181, 193, 212, 320
-0.98618, 209, 185, 240, 248
-0.986194, 61, 193, 92, 320
-0.98621, 441, 33, 472, 96
-0.986211, 465, 105, 496, 168
-0.986216, 257, 153, 288, 216
-0.986267, 337, 97, 400, 352
-0.986282, 157, 177, 188, 240
-0.986332, 77, 193, 108, 320
-0.986384, 209, 177, 336, 240
-0.986572, 437, 257, 468, 320
-0.986634, 437, 225, 468, 352
-0.986665, 241, 177, 272, 304
-0.98669, 225, 137, 256, 200
-0.986723, 365, 121, 396, 184
-0.986744, 449, 145, 480, 208
-0.986782, 37, 185, 68, 248
-0.9869, 345, 249, 376, 312
-0.986913, 281, 161, 312, 288
-0.986999, 289, 97, 320, 224
-0.987044, 281, 209, 312, 272
-0.987179, 113, 209, 144, 336
-0.987197, 393, 161, 424, 288
-0.987252, 81, 97, 112, 224
-0.987396, 289, 97, 416, 160
-0.987416, 33, 1, 96, 375
-0.987877, 421, 193, 452, 320
-0.987891, 305, 129, 368, 375
-0.987941, 353, 113, 480, 176
-0.988035, 457, 81, 488, 208
-0.9881, 65, 129, 320, 192
-0.988257, 257, 277, 320, 308
-0.988319, 433, 129, 496, 375
-0.988387, 113, 41, 240, 104
-0.988475, 161, 193, 192, 320
-0.988557, 409, 177, 440, 304
-0.988585, 417, 241, 448, 368
-0.988627, 465, 225, 496, 352
-0.988651, 321, 249, 448, 312
-0.988658, 25, 105, 88, 136
-0.988726, 33, 161, 64, 288
-0.988731, 265, 177, 296, 304
-0.988751, 301, 129, 332, 256
-0.988913, 209, 137, 272, 168
-0.988919, 265, 265, 328, 296
-0.988953, 145, 277, 208, 308
-0.988993, 453, 225, 484, 352
-0.989027, 289, 201, 416, 264
-0.989059, 1, 105, 256, 168
-0.989074, 329, 241, 360, 368
-0.989172, 105, 245, 168, 276
-0.989182, 65, 169, 128, 200
-0.989189, 185, 105, 248, 136
-0.989193, 265, 237, 328, 268
-0.989202, 161, 137, 224, 168
-0.989248, 9, 1, 72, 375
-0.989256, 13, 33, 44, 160
-0.98927, 305, 297, 432, 360
-0.989339, 49, 209, 112, 240
-0.989356, 469, 129, 500, 256
-0.989364, 57, 153, 120, 184
-0.989376, 177, 253, 240, 284
-0.989429, 209, 149, 272, 180
-0.989459, 377, 241, 408, 368
-0.989478, 377, 145, 440, 176
-0.989509, 217, 245, 280, 276
-0.989556, 225, 105, 288, 136
-0.989565, 161, 281, 416, 344
-0.989585, 129, 257, 192, 288
-0.989617, 153, 289, 216, 320
-0.989626, 41, 165, 104, 196
-0.989655, 369, 161, 400, 288
-0.989659, 225, 25, 352, 88
-0.9897, 33, 177, 96, 208
-0.989702, 241, 225, 304, 256
-0.989703, 337, 37, 400, 68
-0.989737, 121, 137, 184, 168
-0.989786, 241, 141, 304, 172
-0.989798, 177, 117, 240, 148
-0.989818, 201, 121, 264, 152
-0.989829, 81, 225, 144, 256
-0.989835, 225, 257, 288, 288
-0.989837, 401, 33, 464, 64
-0.989866, 297, 273, 360, 304
-0.989877, 137, 117, 200, 148
-0.989884, 441, 113, 472, 240
-0.989898, 385, 269, 448, 300
-0.989905, 153, 257, 216, 288
-0.989924, 241, 53, 304, 84
-0.989976, 273, 73, 400, 136
-0.989978, 305, 229, 368, 260
-0.990007, 229, 1, 260, 128
-0.990012, 217, 233, 280, 264
-0.990015, 241, 241, 304, 272
-0.990031, 337, 81, 464, 144
-0.990038, 377, 169, 440, 200
-0.990073, 57, 221, 120, 252
-0.990076, 113, 125, 176, 156
-0.990103, 89, 149, 152, 180
-0.990133, 1, 117, 64, 148
-0.990142, 185, 141, 248, 172
-0.990218, 193, 129, 448, 192
-0.990246, 265, 289, 328, 320
-0.990261, 389, 241, 420, 368
-0.990263, 257, 129, 320, 160
-0.990301, 161, 105, 416, 168
-0.990313, 425, 81, 456, 208
-0.990319, 161, 185, 224, 216
-0.990335, 249, 253, 312, 284
-0.990335, 409, 261, 472, 292
-0.990348, 33, 189, 96, 220
-0.99036, 97, 257, 352, 320
-0.990381, 89, 173, 152, 204
-0.99041, 185, 297, 248, 328
-0.990415, 153, 153, 216, 184
-0.990437, 273, 141, 336, 172
-0.990449, 185, 197, 248, 228
-0.990454, 233, 129, 296, 160
-0.990492, 297, 241, 360, 272
-0.9905, 169, 269, 232, 300
-0.990513, 57, 185, 120, 216
-0.99055, 89, 65, 152, 96
-0.990555, 65, 141, 128, 172
-0.990558, 57, 101, 120, 132
-0.990623, 193, 225, 256, 256
-0.990637, 321, 9, 448, 72
-0.990639, 257, 109, 320, 140
-0.990643, 209, 57, 272, 88
-0.990644, 89, 125, 152, 156
-0.990668, 281, 49, 344, 80
-0.990674, 201, 257, 264, 288
-0.990682, 105, 233, 168, 264
-0.990691, 49, 121, 112, 152
-0.990706, 377, 157, 440, 188
-0.990708, 305, 253, 368, 284
-0.990709, 233, 117, 296, 148
-0.990736, 209, 209, 272, 240
-0.990761, 225, 277, 288, 308
-0.990773, 49, 41, 176, 104
-0.990775, 329, 257, 392, 288
-0.990781, 197, 145, 228, 272
-0.990798, 281, 225, 344, 256
-0.990799, 417, 149, 480, 180
-0.990847, 369, 297, 496, 360
-0.990851, 361, 265, 424, 296
-0.990874, 401, 161, 464, 192
-0.990901, 89, 137, 152, 168
-0.990913, 289, 285, 352, 316
-0.990938, 225, 297, 288, 328
-0.990939, 113, 313, 240, 375
-0.99095, 73, 237, 136, 268
-0.990952, 297, 121, 360, 152
-0.990964, 65, 65, 128, 96
-0.990967, 33, 185, 288, 248
-0.990988, 185, 61, 248, 92
-0.991003, 1, 129, 64, 160
-0.99101, 185, 153, 248, 184
-0.991012, 353, 149, 416, 180
-0.991012, 297, 141, 360, 172
-0.991022, 17, 165, 80, 196
-0.99103, 161, 105, 224, 136
-0.991057, 161, 197, 224, 228
-0.99106, 249, 157, 312, 188
-0.991073, 113, 173, 176, 204
-0.991083, 153, 65, 216, 96
-0.991086, 345, 129, 408, 160
-0.991089, 377, 253, 440, 284
-0.991091, 277, 97, 308, 224
-0.991102, 129, 189, 192, 220
-0.991103, 1, 41, 128, 104
-0.991115, 65, 281, 192, 344
-0.991121, 25, 149, 88, 180
-0.991178, 129, 105, 192, 136
-0.99118, 317, 177, 348, 304
-0.991181, 405, 241, 436, 368
-0.9912, 225, 257, 480, 320
-0.99126, 401, 173, 464, 204
-0.991263, 105, 261, 168, 292
-0.991265, 201, 185, 264, 216
-0.991269, 129, 245, 192, 276
-0.991281, 377, 133, 440, 164
-0.991307, 161, 153, 416, 216
-0.99132, 313, 41, 376, 72
-0.991331, 281, 301, 344, 332
-0.991364, 25, 117, 88, 148
-0.991389, 113, 69, 176, 100
-0.99143, 217, 93, 280, 124
-0.99143, 177, 209, 240, 240
-0.991435, 369, 37, 432, 68
-0.991452, 113, 161, 176, 192
-0.991461, 161, 233, 416, 296
-0.991478, 209, 1, 240, 128
-0.991492, 305, 217, 368, 248
-0.991501, 41, 137, 104, 168
-0.991509, 137, 177, 200, 208
-0.991513, 433, 37, 496, 68
-0.991527, 217, 221, 280, 252
-0.99154, 1, 141, 64, 172
-0.991549, 161, 301, 224, 332
-0.99155, 417, 137, 480, 168
-0.991554, 209, 197, 272, 228
-0.991557, 137, 53, 200, 84
-0.991561, 337, 229, 400, 260
-0.991567, 49, 17, 80, 144
-0.991589, 105, 185, 168, 216
-0.991595, 353, 25, 416, 56
-0.991602, 161, 25, 288, 88
-0.991604, 305, 81, 336, 208
-0.991611, 257, 153, 500, 216
-0.991618, 353, 173, 416, 204
-0.991641, 25, 93, 88, 124
-0.991651, 357, 177, 388, 304
-0.99173, 337, 177, 368, 304
-0.991803, 1, 129, 64, 375
-0.991809, 313, 129, 344, 256
-0.991829, 33, 153, 288, 216
-0.991883, 409, 65, 440, 192
-0.991928, 301, 177, 332, 304
-0.992016, 433, 177, 464, 304
-0.992097, 333, 129, 364, 256
-0.992146, 245, 241, 276, 272
-0.99219, 53, 165, 84, 196
-0.992233, 65, 217, 320, 280
-0.992234, 137, 249, 168, 280
-0.992263, 281, 281, 312, 312
-0.992304, 121, 241, 152, 272
-0.992318, 197, 253, 228, 284
-0.99232, 365, 65, 396, 192
-0.992353, 93, 221, 124, 252
-0.992357, 269, 277, 300, 308
-0.992358, 45, 177, 76, 208
-0.992367, 469, 93, 500, 124
-0.992377, 33, 109, 64, 140
-0.992404, 253, 137, 284, 168
-0.992405, 237, 129, 268, 160
-0.99242, 177, 257, 208, 288
-0.99242, 177, 273, 304, 304
-0.992438, 13, 129, 44, 256
-0.99244, 225, 105, 256, 136
-0.992442, 53, 197, 84, 228
-0.992446, 73, 153, 104, 184
-0.992447, 105, 229, 136, 260
-0.992452, 93, 157, 124, 188
-0.992471, 145, 117, 176, 148
-0.992474, 17, 117, 48, 148
-0.992482, 209, 149, 240, 180
-0.992483, 301, 269, 332, 300
-0.992497, 241, 145, 272, 176
-0.992498, 233, 233, 264, 264
-0.9925, 157, 277, 188, 308
-0.992505, 377, 65, 408, 192
-0.992512, 53, 105, 84, 136
-0.992528, 189, 201, 220, 232
-0.992543, 229, 249, 260, 280
-0.992564, 61, 153, 92, 184
-0.992565, 205, 105, 236, 136
-0.99257, 169, 133, 200, 164
-0.992584, 377, 153, 408, 184
-0.992586, 73, 209, 104, 240
-0.992602, 269, 49, 300, 80
-0.992604, 209, 137, 240, 168
-0.992605, 69, 101, 100, 132
-0.992606, 157, 257, 188, 288
-0.992609, 105, 153, 136, 184
-0.99261, 221, 137, 252, 168
-0.992618, 221, 117, 252, 148
-0.992619, 197, 65, 228, 96
-0.99262, 217, 249, 248, 280
-0.992629, 261, 225, 292, 256
-0.992633, 69, 173, 100, 204
-0.992642, 93, 169, 124, 200
-0.992646, 1, 265, 500, 328
-0.992646, 253, 105, 284, 136
-0.992653, 333, 41, 364, 72
-0.992653, 177, 273, 208, 304
-0.992662, 201, 197, 232, 228
-0.992663, 105, 169, 136, 200
-0.992663, 285, 265, 316, 296
-0.99267, 37, 17, 68, 144
-0.992671, 253, 277, 284, 308
-0.992673, 193, 137, 224, 168
-0.992674, 417, 149, 448, 180
-0.992677, 193, 105, 224, 136
-0.992677, 369, 33, 400, 64
-0.992683, 265, 265, 296, 296
-0.992685, 305, 281, 336, 312
-0.992696, 397, 145, 428, 176
-0.992704, 229, 53, 260, 84
-0.992706, 173, 117, 204, 148
-0.992722, 233, 117, 264, 148
-0.992724, 349, 37, 380, 68
-0.992731, 217, 213, 248, 244
-0.992731, 309, 241, 340, 272
-0.992731, 145, 261, 176, 292
-0.992735, 165, 289, 196, 320
-0.992738, 185, 125, 216, 156
-0.992739, 257, 237, 288, 268
-0.992741, 93, 133, 124, 164
-0.992742, 377, 141, 408, 172
-0.992743, 161, 149, 192, 180
-0.992743, 61, 185, 92, 216
-0.992755, 389, 265, 420, 296
-0.992762, 253, 57, 284, 88
-0.992766, 181, 293, 212, 324
-0.99277, 285, 133, 316, 164
-0.992774, 85, 145, 116, 176
-0.992774, 369, 261, 400, 292
-0.992779, 41, 189, 72, 220
-0.992784, 133, 125, 164, 156
-0.992787, 281, 241, 312, 272
-0.992789, 81, 165, 112, 196
-0.992791, 213, 297, 244, 328
-0.992793, 33, 69, 64, 100
-0.992797, 417, 29, 448, 60
-0.992799, 413, 265, 444, 296
-0.9928, 265, 137, 296, 168
-0.992802, 117, 121, 148, 152
-0.992806, 357, 253, 388, 284
-0.992808, 265, 121, 296, 152
-0.992812, 385, 169, 416, 200
-0.992813, 213, 57, 244, 88
-0.992813, 165, 189, 196, 220
-0.992818, 289, 229, 320, 260
-0.992818, 293, 281, 324, 312
-0.992822, 261, 253, 292, 284
-0.992824, 425, 261, 456, 292
-0.992825, 241, 217, 272, 248
-0.99283, 5, 125, 36, 156
-0.992831, 313, 49, 344, 80
-0.992832, 305, 137, 336, 168
-0.992837, 273, 297, 304, 328
-0.992842, 145, 133, 176, 164
-0.992846, 221, 229, 252, 260
-0.992847, 321, 281, 352, 312
-0.992849, 161, 121, 192, 152
-0.992849, 301, 293, 332, 324
-0.99285, 389, 41, 420, 72
-0.992851, 137, 105, 168, 136
-0.992852, 61, 217, 92, 248
-0.992853, 185, 189, 216, 220
-0.992853, 209, 117, 240, 148
-0.992858, 53, 121, 84, 152
-0.992859, 201, 297, 232, 328
-0.99286, 313, 229, 344, 260
-0.992871, 125, 137, 156, 168
-0.992879, 49, 153, 80, 184
-0.99288, 249, 257, 280, 288
-0.992886, 341, 253, 372, 284
-0.992892, 105, 129, 136, 160
-0.992892, 245, 117, 276, 148
-0.992892, 117, 229, 148, 260
-0.992895, 221, 153, 252, 184
-0.9929, 229, 261, 260, 292
-0.992904, 417, 161, 448, 192
-0.992904, 397, 169, 428, 200
-0.992904, 41, 141, 72, 172
-0.992911, 241, 157, 272, 188
-0.992993, 1, 65, 256, 128
-0.993087, 145, 121, 272, 152
-0.993118, 1, 249, 256, 312
-0.993173, 1, 145, 500, 208
-0.99321, 81, 149, 208, 180
-0.993271, 113, 253, 240, 284
-0.993298, 225, 241, 352, 272
-0.993338, 209, 133, 336, 164
-0.993372, 33, 165, 160, 196
-0.993378, 177, 109, 304, 140
-0.993387, 81, 137, 208, 168
-0.993548, 185, 265, 200, 328
-0.993568, 161, 49, 416, 112
-0.993697, 257, 33, 500, 96
-0.993724, 65, 181, 192, 212
-0.993765, 145, 149, 272, 180
-0.993798, 193, 185, 448, 248
-0.993814, 177, 245, 304, 276
-0.993834, 1, 121, 128, 152
-0.993895, 225, 117, 352, 148
-0.994004, 257, 105, 500, 168
-0.994005, 177, 261, 304, 292
-0.994017, 17, 105, 144, 136
-0.994059, 61, 169, 76, 232
-0.994075, 161, 137, 288, 168
-0.994153, 321, 37, 448, 68
-0.994168, 1, 177, 500, 240
-0.994207, 201, 113, 216, 176
-0.994217, 207, 113, 222, 176
-0.994229, 97, 145, 112, 208
-0.994233, 1, 241, 500, 304
-0.994316, 129, 305, 384, 368
-0.994353, 151, 249, 166, 312
-0.994377, 369, 1, 496, 64
-0.994378, 191, 249, 206, 312
-0.994421, 141, 241, 156, 304
-0.99446, 225, 129, 240, 192
-0.994461, 193, 113, 208, 176
-0.994469, 255, 105, 270, 168
-0.994487, 235, 113, 250, 176
-0.994499, 33, 153, 160, 184
-0.99453, 155, 97, 170, 160
-0.994536, 161, 297, 288, 328
-0.994547, 71, 177, 86, 240
-0.994555, 273, 237, 400, 268
-0.994598, 161, 209, 416, 272
-0.994615, 117, 225, 132, 288
-0.994633, 289, 137, 416, 168
-0.994657, 241, 113, 256, 176
-0.994675, 133, 241, 148, 304
-0.994689, 289, 125, 416, 156
-0.994694, 227, 257, 242, 320
-0.9947, 33, 137, 160, 168
-0.994704, 243, 233, 258, 296
-0.994749, 97, 125, 224, 156
-0.994758, 251, 129, 266, 192
-0.994776, 65, 73, 80, 136
-0.994781, 129, 265, 256, 296
-0.99479, 225, 297, 240, 360
-0.994799, 205, 257, 220, 320
-0.994802, 353, 57, 480, 120
-0.994804, 225, 145, 352, 176
-0.994811, 123, 145, 138, 208
-0.994824, 61, 97, 76, 160
-0.99483, 179, 273, 194, 336
-0.994835, 259, 129, 274, 192
-0.994847, 369, 137, 496, 168
-0.994855, 251, 233, 266, 296
-0.994877, 1, 209, 500, 272
-0.994882, 287, 281, 302, 344
-0.994892, 249, 257, 264, 320
-0.994897, 275, 265, 290, 328
-0.994907, 229, 233, 244, 296
-0.994908, 187, 289, 202, 352
-0.99493, 193, 289, 208, 352
-0.994938, 209, 285, 336, 316
-0.994956, 265, 129, 280, 192
-0.994961, 217, 265, 232, 328
-0.994964, 237, 233, 252, 296
-0.994986, 273, 253, 400, 284
-0.994987, 107, 217, 122, 280
-0.995015, 219, 297, 234, 360
-0.995029, 17, 249, 144, 312
-0.995032, 261, 241, 276, 304
-0.995043, 59, 73, 74, 136
-0.995054, 231, 297, 246, 360
-0.995058, 301, 257, 316, 320
-0.995062, 129, 285, 256, 316
-0.995064, 197, 257, 212, 320
-0.995074, 113, 161, 240, 192
-0.995096, 225, 297, 352, 328
-0.9951, 213, 113, 228, 176
-0.995102, 13, 113, 28, 176
-0.995106, 369, 269, 496, 300
-0.995107, 225, 229, 352, 260
-0.995122, 55, 161, 70, 224
-0.995123, 79, 161, 94, 224
-0.995139, 211, 257, 226, 320
-0.995141, 33, 297, 288, 360
-0.995144, 225, 257, 352, 288
-0.995145, 401, 137, 416, 200
-0.995159, 353, 149, 480, 180
-0.995185, 49, 161, 64, 224
-0.995191, 379, 121, 394, 184
-0.995195, 257, 281, 500, 344
-0.995201, 223, 233, 238, 296
-0.995202, 223, 105, 238, 168
-0.995213, 33, 193, 160, 224
-0.995215, 179, 249, 194, 312
-0.995227, 237, 297, 252, 360
-0.995229, 1, 273, 256, 336
-0.995232, 177, 189, 304, 220
-0.995253, 295, 257, 310, 320
-0.99526, 173, 273, 188, 336
-0.995278, 257, 225, 500, 288
-0.995292, 209, 57, 336, 88
-0.995303, 267, 233, 282, 296
-0.995311, 71, 73, 86, 136
-0.995326, 225, 105, 352, 136
-0.995327, 83, 201, 98, 264
-0.995344, 369, 33, 496, 64
-0.995353, 1, 105, 500, 168
-0.995359, 107, 57, 122, 120
-0.99536, 205, 289, 220, 352
-0.995368, 389, 153, 404, 216
-0.995379, 353, 165, 480, 196
-0.99538, 287, 257, 302, 320
-0.995381, 73, 153, 88, 216
-0.995388, 111, 129, 126, 192
-0.995419, 97, 217, 112, 280
-0.995428, 273, 225, 400, 256
-0.995444, 129, 197, 256, 228
-0.995447, 51, 137, 66, 200
-0.995453, 131, 137, 146, 200
-0.995457, 235, 49, 250, 112
-0.995462, 67, 97, 82, 160
-0.995473, 89, 169, 104, 232
-0.995478, 301, 233, 316, 296
-0.99549, 281, 273, 296, 336
-0.995492, 267, 105, 282, 168
-0.995506, 1, 49, 500, 112
-0.995534, 125, 225, 140, 288
-0.995543, 117, 145, 132, 208
-0.995548, 261, 105, 276, 168
-0.995553, 293, 233, 308, 296
-0.995555, 243, 257, 258, 320
-0.995555, 155, 129, 170, 192
-0.995557, 1, 121, 16, 184
-0.995566, 81, 197, 208, 228
-0.995576, 49, 65, 176, 96
-0.995584, 103, 129, 118, 192
-0.995587, 171, 41, 186, 104
-0.995588, 241, 45, 368, 76
-0.9956, 97, 241, 224, 272
-0.995606, 399, 169, 414, 232
-0.995606, 261, 273, 276, 336
-0.995622, 283, 233, 298, 296
-0.995624, 19, 65, 34, 128
-0.995624, 255, 257, 270, 320
-0.995634, 275, 105, 290, 168
-0.99564, 199, 289, 214, 352
-0.995647, 289, 281, 416, 312
-0.99566, 233, 257, 248, 320
-0.995664, 201, 185, 216, 248
-0.995664, 257, 1, 384, 64
-0.995671, 365, 1, 396, 256
-0.995681, 213, 297, 228, 360
-0.995685, 401, 1, 432, 256
-0.995692, 155, 65, 170, 128
-0.995697, 289, 149, 416, 180
-0.995698, 243, 297, 258, 360
-0.995705, 191, 137, 206, 200
-0.995706, 65, 193, 80, 256
-0.995718, 225, 157, 352, 188
-0.995726, 129, 109, 256, 140
-0.99574, 161, 65, 176, 128
-0.995743, 49, 237, 176, 268
-0.995751, 381, 1, 412, 256
-0.995761, 183, 65, 198, 128
-0.995771, 63, 145, 78, 208
-0.995774, 239, 137, 254, 200
-0.995779, 413, 257, 428, 320
-0.995782, 233, 153, 248, 216
-0.995784, 89, 193, 104, 256
-0.99579, 197, 65, 212, 128
-0.995792, 337, 41, 352, 104
-0.99581, 115, 65, 130, 128
-0.995817, 313, 233, 328, 296
-0.995822, 331, 249, 346, 312
-0.995823, 91, 145, 106, 208
-0.995831, 293, 281, 308, 344
-0.995835, 123, 113, 138, 176
-0.995849, 111, 153, 126, 216
-0.995851, 481, 89, 496, 152
-0.995855, 129, 113, 144, 176
-0.995862, 407, 161, 422, 224
-0.995863, 241, 209, 256, 272
-0.995864, 273, 265, 400, 296
-0.995867, 129, 65, 256, 96
-0.995872, 191, 65, 206, 128
-0.995876, 269, 273, 284, 336
-0.995887, 351, 33, 366, 96
-0.99589, 249, 105, 264, 168
-0.995901, 351, 217, 366, 280
-0.995902, 33, 225, 160, 256
-0.995924, 439, 265, 454, 328
-0.995926, 249, 297, 264, 360
-0.995946, 51, 185, 66, 248
-0.995951, 31, 73, 46, 136
-0.995953, 341, 249, 356, 312
-0.995958, 177, 233, 304, 264
-0.995958, 225, 57, 240, 120
-0.996045, 97, 65, 128, 320
-0.996117, 437, 1, 468, 256
-0.996177, 113, 185, 240, 216
-0.996223, 177, 97, 304, 128
-0.996223, 369, 257, 496, 288
-0.996231, 413, 1, 444, 256
-0.996249, 81, 265, 208, 296
-0.996255, 1, 69, 128, 100
-0.996263, 465, 1, 496, 256
-0.996305, 321, 265, 448, 296
-0.996307, 33, 33, 64, 288
-0.996339, 65, 101, 192, 132
-0.996397, 121, 33, 152, 288
-0.996426, 209, 201, 336, 232
-0.996438, 97, 81, 352, 144
-0.996445, 333, 1, 364, 256
-0.996445, 353, 1, 384, 256
-0.996487, 1, 213, 128, 244
-0.996526, 273, 101, 400, 132
-0.996536, 337, 245, 464, 276
-0.996562, 17, 181, 144, 212
-0.996566, 113, 209, 240, 240
-0.996566, 61, 33, 92, 288
-0.996589, 273, 113, 400, 144
-0.996596, 353, 177, 480, 208
-0.996607, 113, 173, 240, 204
-0.996662, 257, 81, 500, 144
-0.996669, 49, 249, 176, 280
-0.996676, 109, 33, 140, 288
-0.996678, 425, 1, 456, 256
-0.996682, 165, 33, 196, 288
-0.996695, 225, 313, 480, 375
-0.996699, 289, 181, 416, 212
-0.99671, 81, 33, 112, 288
-0.996713, 225, 65, 256, 320
-0.996718, 449, 1, 480, 256
-0.996737, 297, 33, 328, 288
-0.996777, 153, 129, 184, 375
-0.996787, 261, 1, 292, 256
-0.99679, 285, 33, 316, 288
-0.996801, 241, 65, 272, 320
-0.996814, 305, 169, 432, 200
-0.99682, 321, 229, 448, 260
-0.996835, 177, 217, 304, 248
-0.996876, 49, 117, 176, 148
-0.996889, 225, 217, 352, 248
-0.996923, 225, 313, 352, 344
-0.996942, 273, 33, 304, 288
-0.996943, 5, 33, 36, 288
-0.996961, 65, 33, 320, 96
-0.996969, 17, 33, 48, 288
-0.996986, 193, 169, 320, 200
-0.997009, 353, 217, 480, 248
-0.99701, 337, 125, 464, 156
-0.997027, 49, 97, 80, 352
-0.997028, 181, 33, 212, 288
-0.997036, 385, 97, 416, 352
-0.997051, 259, 241, 274, 272
-0.997052, 193, 45, 320, 76
-0.997071, 369, 97, 400, 352
-0.997089, 145, 33, 176, 288
-0.997099, 1, 81, 500, 144
-0.997102, 133, 33, 164, 288
-0.997123, 273, 33, 400, 64
-0.99714, 113, 97, 240, 128
-0.997152, 81, 277, 208, 308
-0.997156, 289, 49, 416, 80
-0.997166, 65, 209, 192, 240
-0.997168, 261, 97, 292, 352
-0.997172, 369, 93, 496, 124
-0.997178, 155, 109, 170, 140
-0.99719, 257, 197, 384, 228
-0.997193, 481, 97, 496, 128
-0.997212, 353, 109, 480, 140
-0.997235, 243, 125, 258, 156
-0.997247, 177, 313, 304, 344
-0.997262, 153, 253, 168, 284
-0.997283, 75, 153, 90, 184
-0.99729, 255, 133, 270, 164
-0.997302, 369, 281, 496, 312
-0.997307, 249, 113, 264, 144
-0.997308, 113, 53, 240, 84
-0.997309, 225, 269, 352, 300
-0.997317, 101, 221, 116, 252
-0.997321, 185, 273, 200, 304
-0.997326, 277, 273, 292, 304
-0.997328, 147, 249, 162, 280
-0.997331, 211, 137, 226, 168
-0.997333, 61, 165, 76, 196
-0.99735, 471, 93, 486, 124
-0.997372, 317, 33, 348, 288
-0.997373, 223, 137, 238, 168
-0.997384, 247, 233, 262, 264
-0.997396, 45, 177, 60, 208
-0.997402, 81, 221, 208, 252
-0.997404, 205, 141, 220, 172
-0.99741, 255, 145, 270, 176
-0.997421, 131, 241, 146, 272
-0.997424, 263, 137, 278, 168
-0.997426, 197, 1, 228, 256
-0.997434, 309, 141, 324, 172
-0.997455, 141, 245, 156, 276
-0.997461, 253, 237, 268, 268
-0.99748, 105, 153, 120, 184
-0.997482, 289, 293, 416, 324
-0.997483, 51, 185, 66, 216
-0.997495, 315, 277, 330, 308
-0.997499, 97, 149, 112, 180
-0.997512, 315, 229, 330, 260
-0.997513, 33, 261, 160, 292
-0.997514, 203, 201, 218, 232
-0.997515, 391, 153, 406, 184
-0.997517, 125, 129, 156, 375
-0.99752, 241, 229, 256, 260
-0.99752, 369, 253, 384, 284
-0.99752, 255, 225, 270, 256
-0.997527, 31, 109, 46, 140
-0.997536, 201, 97, 232, 352
-0.997541, 301, 285, 316, 316
-0.997545, 241, 213, 256, 244
-0.997551, 229, 105, 244, 136
-0.997557, 249, 129, 264, 160
-0.997558, 95, 217, 110, 248
-0.997558, 233, 149, 248, 180
-0.997559, 213, 1, 244, 256
-0.997561, 93, 161, 108, 192
-0.997566, 89, 213, 104, 244
-0.997571, 61, 153, 76, 184
-0.997575, 69, 157, 84, 188
-0.997576, 75, 101, 90, 132
-0.997576, 209, 205, 224, 236
-0.997577, 235, 137, 250, 168
-0.997579, 129, 229, 256, 260
-0.99758, 73, 201, 88, 232
-0.997588, 397, 97, 428, 352
-0.997597, 243, 145, 258, 176
-0.997597, 87, 149, 102, 180
-0.997599, 109, 129, 140, 375
-0.997601, 115, 229, 130, 260
-0.997603, 141, 129, 172, 375
-0.997604, 305, 213, 432, 244
-0.997605, 61, 185, 76, 216
-0.997605, 239, 113, 254, 144
-0.997605, 193, 285, 208, 316
-0.997605, 113, 297, 240, 328
-0.997606, 237, 253, 252, 284
-0.997613, 107, 221, 122, 252
-0.997633, 249, 141, 264, 172
-0.997643, 197, 253, 212, 284
-0.997643, 337, 189, 464, 220
-0.997645, 51, 173, 66, 204
-0.997656, 371, 33, 386, 64
-0.997657, 187, 117, 202, 148
-0.997659, 81, 165, 96, 196
-0.997667, 63, 105, 78, 136
-0.997676, 387, 41, 402, 72
-0.997676, 191, 197, 206, 228
-0.997676, 235, 217, 250, 248
-0.997677, 391, 141, 406, 172
-0.997682, 273, 49, 288, 80
-0.997686, 213, 97, 244, 352
-0.997691, 279, 137, 294, 168
-0.997691, 293, 281, 308, 312
-0.997695, 301, 273, 316, 304
-0.997699, 111, 153, 126, 184
-0.997702, 71, 189, 86, 220
-0.997708, 151, 265, 166, 296
-0.99771, 97, 137, 112, 168
-0.997715, 159, 257, 174, 288
-0.997715, 179, 257, 194, 288
-0.997723, 103, 165, 118, 196
-0.997723, 213, 105, 228, 136
-0.997724, 383, 141, 398, 172
-0.997725, 121, 229, 136, 260
-0.997729, 57, 105, 72, 136
-0.997731, 357, 33, 372, 64
-0.997732, 111, 165, 126, 196
-0.997735, 303, 149, 318, 180
-0.997737, 155, 129, 170, 160
-0.997739, 65, 305, 192, 368
-0.997741, 117, 165, 132, 196
-0.997743, 121, 153, 136, 184
-0.997745, 81, 153, 96, 184
-0.997749, 299, 113, 314, 144
-0.997756, 309, 281, 324, 312
-0.997756, 271, 277, 286, 308
-0.997758, 321, 277, 336, 308
-0.997768, 161, 117, 176, 148
-0.997769, 219, 249, 234, 280
-0.997769, 181, 129, 212, 375
-0.997773, 269, 105, 284, 136
-0.997774, 257, 89, 384, 120
-0.997777, 17, 93, 144, 124
-0.997778, 265, 229, 280, 260
-0.99778, 81, 205, 96, 236
-0.997781, 191, 257, 206, 288
-0.997784, 369, 229, 496, 260
-0.997786, 39, 109, 54, 140
-0.997788, 219, 105, 234, 136
-0.997804, 199, 189, 214, 220
-0.997805, 225, 325, 352, 356
-0.997808, 77, 189, 92, 220
-0.997814, 219, 57, 234, 88
-0.997817, 309, 129, 324, 160
-0.997822, 255, 57, 270, 88
-0.997822, 75, 169, 90, 200
-0.997823, 397, 133, 412, 164
-0.997829, 293, 185, 308, 216
-0.997835, 321, 25, 448, 56
-0.997837, 319, 49, 334, 80
-0.997842, 73, 129, 104, 375
-0.997843, 165, 129, 196, 375
-0.997844, 209, 253, 224, 284
-0.997845, 3, 121, 18, 152
-0.997853, 221, 117, 236, 148
-0.997855, 169, 185, 184, 216
-0.99787, 179, 277, 194, 308
-0.997871, 191, 273, 206, 304
-0.997872, 21, 117, 36, 148
-0.997875, 1, 137, 16, 168
-0.997877, 421, 265, 436, 296
-0.997877, 417, 97, 448, 352
-0.997878, 15, 113, 30, 144
-0.997885, 465, 93, 480, 124
-0.997885, 287, 265, 302, 296
-0.997889, 335, 41, 350, 72
-0.997894, 269, 241, 284, 272
-0.997895, 287, 277, 302, 308
-0.99791, 217, 137, 232, 168
-0.997914, 137, 125, 152, 156
-0.997916, 1, 297, 500, 360
-0.997918, 53, 145, 68, 176
-0.997942, 305, 129, 336, 375
-0.997969, 317, 129, 348, 375
-0.997975, 369, 301, 496, 332
-0.997994, 369, 21, 496, 52
-0.998034, 225, 181, 352, 212
-0.998089, 281, 129, 312, 375
-0.99811, 49, 1, 80, 256
-0.998113, 1, 237, 128, 268
-0.998138, 353, 205, 480, 236
-0.99815, 353, 129, 384, 375
-0.998204, 81, 309, 208, 340
-0.998226, 209, 85, 336, 116
-0.998248, 65, 297, 192, 328
-0.998267, 193, 69, 320, 100
-0.99829, 85, 129, 116, 375
-0.998345, 257, 9, 500, 72
-0.998369, 129, 309, 256, 340
-0.998379, 145, 329, 272, 360
-0.998389, 353, 81, 480, 112
-0.998392, 105, 253, 168, 268
-0.998409, 293, 129, 324, 375
-0.99841, 273, 305, 400, 336
-0.998424, 25, 113, 88, 128
-0.998434, 265, 277, 328, 292
-0.998439, 193, 111, 256, 126
-0.99844, 177, 255, 240, 270
-0.998444, 377, 273, 440, 288
-0.998448, 265, 239, 328, 254
-0.998455, 257, 285, 320, 300
-0.99846, 225, 247, 288, 262
-0.99846, 197, 157, 228, 172
-0.998461, 253, 59, 284, 74
-0.998461, 205, 255, 236, 270
-0.998461, 1, 121, 64, 136
-0.998462, 225, 231, 256, 246
-0.998462, 161, 261, 192, 276
-0.998463, 173, 157, 204, 172
-0.998463, 181, 203, 212, 218
-0.998464, 213, 151, 244, 166
-0.998464, 313, 281, 344, 296
-0.998465, 37, 129, 68, 375
-0.998465, 65, 153, 128, 168
-0.998465, 233, 137, 264, 152
-0.998466, 181, 197, 212, 212
-0.998466, 361, 267, 392, 282
-0.998467, 73, 169, 136, 184
-0.998467, 385, 149, 448, 164
-0.998468, 73, 71, 104, 86
-0.998468, 113, 147, 144, 162
-0.998468, 401, 33, 464, 48
-0.998468, 161, 289, 192, 304
-0.998469, 345, 39, 408, 54
-0.998469, 173, 281, 204, 296
-0.998469, 69, 155, 100, 170
-0.998471, 85, 101, 116, 116
-0.998471, 421, 271, 452, 286
-0.998471, 49, 159, 112, 174
-0.998472, 153, 283, 184, 298
-0.998472, 49, 211, 112, 226
-0.998472, 153, 293, 216, 308
-0.998472, 281, 287, 312, 302
-0.998473, 201, 149, 264, 164
-0.998473, 201, 149, 232, 164
-0.998473, 221, 217, 252, 232
-0.998474, 101, 157, 132, 172
-0.998475, 333, 43, 364, 58
-0.998475, 153, 117, 184, 132
-0.998475, 229, 259, 260, 274
-0.998476, 241, 109, 304, 124
-0.998476, 257, 293, 288, 308
-0.998477, 181, 293, 212, 308
-0.998477, 197, 67, 228, 82
-0.998477, 305, 147, 336, 162
-0.998477, 45, 201, 76, 216
-0.998477, 161, 153, 192, 168
-0.998478, 121, 139, 184, 154
-0.998479, 181, 287, 212, 302
-0.99848, 257, 291, 320, 306
-0.998483, 313, 243, 344, 258
-0.998484, 53, 175, 84, 190
-0.998485, 49, 217, 112, 232
-0.998485, 145, 261, 208, 276
-0.998486, 145, 133, 176, 148
-0.998486, 297, 153, 328, 168
-0.998486, 461, 103, 492, 118
-0.998487, 201, 267, 232, 282
-0.998487, 217, 117, 248, 132
-0.998488, 177, 155, 240, 170
-0.998488, 113, 177, 144, 192
-0.998488, 201, 299, 232, 314
-0.998489, 17, 115, 48, 130
-0.99849, 41, 105, 104, 120
-0.998491, 221, 55, 252, 70
-0.998492, 65, 147, 128, 162
-0.998492, 425, 149, 456, 164
-0.998493, 41, 177, 104, 192
-0.998494, 293, 261, 324, 276
-0.998494, 117, 255, 148, 270
-0.998495, 245, 247, 276, 262
-0.998495, 81, 233, 144, 248
-0.998495, 25, 71, 56, 86
-0.998495, 377, 267, 440, 282
-0.998496, 393, 269, 424, 284
-0.998497, 385, 45, 416, 60
-0.998497, 237, 237, 268, 252
-0.998497, 125, 67, 156, 82
-0.998497, 233, 129, 264, 144
-0.998498, 285, 233, 316, 248
-0.998498, 113, 145, 176, 160
-0.998499, 153, 155, 216, 170
-0.9985, 409, 271, 440, 286
-0.9985, 201, 251, 264, 266
-0.9985, 233, 59, 264, 74
-0.9985, 249, 137, 280, 152
-0.998502, 137, 127, 200, 142
-0.998502, 89, 159, 120, 174
-0.998502, 229, 249, 260, 264
-0.998503, 209, 203, 240, 218
-0.998504, 105, 247, 168, 262
-0.998504, 145, 273, 176, 288
-0.998504, 241, 233, 304, 248
-0.998504, 53, 159, 84, 174
-0.998505, 193, 123, 256, 138
-0.998505, 301, 285, 332, 300
-0.998506, 209, 59, 272, 74
-0.998506, 141, 119, 172, 134
-0.998506, 269, 285, 300, 300
-0.998506, 161, 25, 416, 88
-0.998507, 241, 53, 304, 68
-0.998509, 153, 137, 216, 152
-0.998509, 241, 147, 304, 162
-0.998509, 73, 169, 104, 184
-0.99851, 61, 129, 92, 375
-0.99851, 69, 207, 100, 222
-0.99851, 265, 235, 296, 250
-0.998511, 253, 143, 284, 158
-0.998512, 217, 115, 280, 130
-0.998513, 121, 259, 184, 274
-0.998513, 193, 255, 224, 270
-0.998514, 333, 253, 364, 268
-0.998514, 57, 223, 120, 238
-0.998514, 261, 107, 292, 122
-0.998515, 301, 291, 332, 306
-0.998515, 273, 309, 304, 324
-0.998515, 57, 195, 88, 210
-0.998515, 237, 147, 268, 162
-0.998516, 89, 67, 152, 82
-0.998517, 41, 181, 72, 196
-0.998517, 41, 189, 72, 204
-0.998517, 321, 93, 448, 124
-0.998518, 381, 167, 412, 182
-0.998518, 349, 37, 380, 52
-0.998519, 205, 109, 236, 124
-0.998519, 161, 147, 224, 162
-0.998519, 89, 221, 120, 236
-0.998519, 281, 233, 344, 248
-0.998519, 201, 209, 232, 224
-0.99852, 241, 155, 272, 170
-0.99852, 249, 257, 312, 272
-0.998521, 301, 279, 332, 294
-0.998522, 29, 111, 60, 126
-0.998522, 89, 241, 152, 256
-0.998524, 257, 153, 320, 168
-0.998524, 97, 129, 160, 144
-0.998525, 401, 145, 432, 160
-0.998525, 361, 259, 392, 274
-0.998525, 257, 169, 384, 200
-0.998526, 265, 263, 328, 278
-0.998526, 209, 137, 272, 152
-0.998527, 41, 153, 104, 168
-0.998527, 401, 269, 464, 284
-0.998528, 241, 241, 304, 256
-0.998528, 89, 181, 152, 196
-0.998529, 233, 53, 264, 68
-0.99853, 193, 203, 224, 218
-0.99853, 297, 237, 328, 252
-0.998531, 205, 221, 236, 236
-0.998531, 269, 49, 300, 64
-0.998531, 89, 149, 152, 164
-0.998533, 81, 151, 112, 166
-0.998533, 81, 139, 144, 154
-0.998533, 373, 267, 404, 282
-0.998534, 217, 225, 248, 240
-0.998534, 65, 103, 128, 118
-0.998534, 217, 61, 248, 76
-0.998536, 353, 267, 416, 282
-0.998537, 185, 155, 216, 170
-0.998539, 113, 239, 144, 254
-0.998539, 377, 163, 440, 178
-0.99854, 33, 183, 96, 198
-0.99854, 49, 169, 112, 184
-0.998541, 77, 213, 108, 228
-0.998541, 349, 253, 380, 268
-0.998541, 165, 125, 196, 140
-0.998541, 81, 159, 144, 174
-0.998542, 417, 31, 448, 46
-0.998545, 377, 171, 440, 186
-0.998545, 273, 269, 336, 284
-0.998546, 41, 205, 104, 220
-0.998547, 313, 249, 376, 264
-0.998547, 129, 179, 192, 194
-0.998548, 153, 123, 184, 138
-0.998548, 361, 149, 424, 164
-0.998549, 129, 133, 192, 148
-0.998549, 217, 219, 280, 234
-0.99855, 145, 191, 208, 206
-0.998551, 369, 37, 400, 52
-0.998552, 201, 155, 264, 170
-0.998553, 153, 69, 216, 84
-0.998554, 49, 107, 80, 122
-0.998555, 217, 251, 248, 266
-0.998555, 177, 267, 240, 282
-0.998555, 145, 251, 208, 266
-0.998556, 169, 201, 232, 216
-0.998557, 69, 161, 100, 176
-0.998558, 53, 169, 84, 184
-0.998558, 273, 147, 336, 162
-0.998559, 377, 155, 440, 170
-0.998559, 177, 117, 240, 132
-0.998559, 257, 129, 320, 144
-0.998559, 425, 103, 488, 118
-0.998559, 65, 175, 128, 190
-0.99856, 285, 239, 316, 254
-0.998561, 297, 239, 360, 254
-0.998561, 145, 281, 208, 296
-0.998562, 281, 281, 312, 296
-0.998562, 145, 275, 208, 290
-0.998562, 69, 105, 100, 120
-0.998563, 93, 167, 124, 182
-0.998563, 137, 287, 200, 302
-0.998563, 105, 233, 136, 248
-0.998563, 169, 195, 232, 210
-0.998565, 93, 151, 124, 166
-0.998565, 265, 245, 328, 260
-0.998567, 97, 85, 224, 116
-0.998567, 249, 59, 312, 74
-0.998567, 225, 259, 288, 274
-0.998567, 233, 121, 296, 136
-0.998569, 169, 261, 232, 276
-0.998569, 377, 143, 440, 158
-0.998569, 321, 45, 384, 60
-0.99857, 41, 143, 104, 158
-0.99857, 321, 255, 384, 270
-0.998571, 193, 299, 256, 314
-0.998571, 61, 201, 92, 216
-0.998572, 81, 227, 144, 242
-0.998572, 17, 107, 80, 122
-0.998573, 201, 213, 264, 228
-0.998573, 153, 105, 216, 120
-0.998574, 57, 185, 120, 200
-0.998574, 465, 97, 496, 112
-0.998574, 409, 149, 472, 164
-0.998574, 137, 269, 200, 284
-0.998574, 297, 151, 360, 166
-0.998574, 13, 121, 44, 136
-0.998574, 433, 151, 496, 166
-0.998575, 185, 225, 248, 240
-0.998576, 281, 49, 344, 64
-0.998577, 257, 139, 320, 154
-0.998577, 233, 141, 296, 156
-0.998577, 241, 227, 304, 242
-0.998578, 65, 67, 128, 82
-0.998578, 289, 251, 352, 266
-0.998579, 137, 149, 200, 164
-0.998581, 137, 121, 200, 136
-0.998581, 41, 199, 104, 214
-0.998582, 181, 259, 212, 274
-0.998582, 177, 215, 240, 230
-0.998582, 1, 115, 64, 130
-0.998582, 297, 279, 360, 294
-0.998583, 73, 215, 136, 230
-0.998584, 401, 177, 464, 192
-0.998584, 141, 257, 172, 272
-0.998585, 9, 73, 72, 88
-0.998585, 265, 297, 328, 312
-0.998585, 209, 235, 272, 250
-0.998587, 161, 123, 224, 138
-0.998587, 425, 263, 488, 278
-0.998587, 233, 155, 296, 170
-0.998592, 45, 195, 76, 210
-0.998593, 97, 227, 128, 242
-0.998596, 225, 111, 256, 126
-0.998598, 125, 245, 156, 260
-0.998598, 249, 241, 280, 256
-0.998602, 1, 121, 32, 136
-0.998617, 265, 277, 296, 292
-0.998626, 1, 57, 128, 88
-0.998626, 129, 251, 160, 266
-0.998644, 257, 57, 500, 120
-0.998684, 15, 81, 30, 208
-0.998689, 273, 77, 400, 108
-0.9987, 161, 85, 288, 116
-0.998705, 245, 49, 260, 176
-0.998712, 241, 337, 368, 368
-0.998724, 277, 225, 292, 352
-0.998746, 333, 129, 364, 375
-0.998751, 429, 129, 460, 375
-0.998757, 251, 241, 266, 368
-0.998761, 449, 97, 480, 352
-0.998765, 251, 49, 266, 176
-0.998769, 203, 241, 218, 368
-0.998786, 5, 65, 20, 192
-0.998786, 243, 209, 258, 336
-0.998788, 257, 49, 272, 176
-0.99879, 207, 49, 222, 176
-0.9988, 237, 241, 252, 368
-0.9988, 387, 113, 402, 240
-0.998813, 273, 33, 288, 160
-0.998816, 201, 49, 216, 176
-0.998839, 235, 49, 250, 176
-0.998845, 195, 49, 210, 176
-0.99885, 73, 65, 88, 192
-0.998855, 263, 49, 278, 176
-0.998856, 123, 49, 138, 176
-0.998858, 477, 17, 492, 144
-0.998868, 157, 49, 172, 176
-0.998868, 261, 241, 276, 368
-0.99888, 149, 49, 164, 176
-0.998881, 225, 49, 240, 176
-0.998882, 117, 49, 132, 176
-0.998884, 229, 241, 244, 368
-0.998889, 123, 97, 138, 224
-0.998893, 181, 49, 196, 176
-0.998898, 241, 97, 256, 224
-0.9989, 483, 33, 498, 160
-0.9989, 105, 161, 120, 288
-0.998901, 217, 49, 232, 176
-0.998907, 285, 193, 300, 320
-0.998914, 303, 49, 318, 176
-0.998914, 71, 145, 86, 272
-0.998915, 253, 193, 268, 320
-0.998917, 81, 145, 96, 272
-0.998919, 57, 65, 72, 192
-0.998923, 197, 241, 212, 368
-0.998923, 471, 33, 486, 160
-0.998928, 271, 225, 286, 352
-0.99893, 79, 49, 94, 176
-0.99893, 63, 145, 78, 272
-0.998936, 25, 65, 40, 192
-0.998945, 187, 49, 202, 176
-0.998946, 235, 97, 250, 224
-0.998955, 399, 113, 414, 240
-0.998956, 133, 49, 148, 176
-0.998964, 223, 225, 238, 352
-0.998964, 461, 17, 476, 144
-0.998967, 279, 33, 294, 160
-0.99897, 43, 65, 58, 192
-0.99897, 175, 49, 190, 176
-0.998972, 213, 241, 228, 368
-0.998972, 297, 49, 312, 176
-0.998973, 291, 49, 306, 176
-0.998979, 97, 49, 112, 176
-0.998984, 107, 49, 122, 176
-0.998997, 309, 49, 324, 176
-0.999006, 85, 49, 100, 176
-0.999007, 1, 129, 32, 375
-0.999014, 207, 193, 222, 320
-0.999015, 57, 145, 72, 272
-0.999019, 123, 145, 138, 272
-0.999021, 31, 49, 46, 176
-0.999022, 251, 129, 266, 256
-0.999025, 389, 33, 404, 160
-0.999028, 379, 113, 394, 240
-0.999037, 357, 17, 372, 144
-0.999037, 153, 97, 168, 224
-0.999042, 167, 49, 182, 176
-0.999052, 67, 65, 82, 192
-0.999059, 51, 113, 66, 240
-0.999059, 393, 113, 408, 240
-0.999062, 99, 161, 114, 288
-0.999072, 177, 113, 192, 240
-0.999074, 189, 241, 204, 368
-0.999075, 183, 241, 198, 368
-0.999077, 109, 113, 124, 240
-0.99908, 115, 97, 130, 224
-0.99908, 91, 49, 106, 176
-0.999081, 37, 49, 52, 176
-0.999081, 471, 81, 486, 208
-0.999084, 117, 145, 132, 272
-0.999087, 477, 81, 492, 208
-0.99909, 143, 49, 158, 176
-0.999093, 409, 113, 424, 240
-0.999095, 265, 193, 280, 320
-0.999097, 343, 33, 358, 160
-0.999098, 409, 17, 424, 144
-0.9991, 49, 65, 64, 192
-0.999103, 133, 177, 148, 304
-0.999103, 87, 145, 102, 272
-0.999107, 291, 209, 306, 336
-0.999109, 399, 33, 414, 160
-0.999116, 423, 17, 438, 144
-0.999116, 431, 17, 446, 144
-0.999124, 201, 193, 216, 320
-0.999125, 461, 129, 492, 375
-0.999131, 317, 33, 332, 160
-0.999132, 351, 17, 366, 144
-0.999135, 337, 33, 352, 160
-0.999138, 173, 241, 188, 368
-0.999139, 259, 193, 274, 320
-0.999141, 455, 17, 470, 144
-0.999147, 399, 161, 414, 288
-0.999147, 129, 129, 144, 256
-0.999149, 229, 193, 244, 320
-0.999153, 79, 97, 94, 224
-0.999154, 265, 97, 280, 224
-0.999158, 45, 129, 60, 256
-0.999165, 209, 113, 224, 240
-0.999166, 385, 161, 400, 288
-0.999167, 153, 241, 168, 368
-0.999171, 161, 113, 176, 240
-0.999171, 391, 161, 406, 288
-0.999173, 325, 225, 340, 352
-0.999174, 303, 97, 318, 224
-0.999177, 323, 33, 338, 160
-0.999178, 285, 33, 300, 160
-0.99918, 373, 113, 388, 240
-0.999182, 429, 97, 444, 224
-0.999184, 485, 81, 500, 208
-0.999185, 319, 241, 334, 368
-0.999187, 159, 225, 174, 352
-0.999189, 229, 129, 244, 256
-0.99919, 377, 17, 392, 144
-0.999191, 441, 17, 456, 144
-0.999193, 331, 33, 346, 160
-0.999193, 95, 113, 110, 240
-0.999194, 417, 17, 432, 144
-0.999195, 371, 17, 386, 144
-0.999235, 17, 129, 48, 375
-0.999531, 1, 9, 500, 72
-0.999645, 183, 259, 198, 274
-0.999645, 413, 35, 428, 50
-0.999645, 153, 253, 168, 268
-0.999645, 179, 125, 194, 140
-0.999645, 51, 185, 66, 200
-0.999646, 79, 103, 94, 118
-0.999647, 83, 209, 98, 224
-0.999647, 345, 253, 360, 268
-0.999648, 89, 159, 104, 174
-0.999648, 215, 201, 230, 216
-0.999649, 429, 149, 444, 164
-0.999649, 201, 297, 216, 312
-0.999651, 187, 195, 202, 210
-0.999651, 93, 229, 108, 244
-0.999652, 315, 293, 330, 308
-0.999653, 213, 209, 228, 224
-0.999653, 203, 255, 218, 270
-0.999654, 239, 59, 254, 74
-0.999654, 379, 263, 394, 278
-0.999654, 75, 171, 90, 186
-0.999654, 119, 255, 134, 270
-0.999655, 81, 161, 96, 176
-0.999655, 283, 53, 298, 68
-0.999655, 471, 93, 486, 108
-0.999655, 205, 201, 220, 216
-0.999657, 319, 51, 334, 66
-0.999657, 279, 139, 294, 154
-0.999657, 129, 139, 144, 154
-0.999657, 189, 285, 204, 300
-0.999658, 255, 161, 270, 176
-0.999658, 159, 261, 174, 276
-0.999659, 225, 251, 240, 266
-0.99966, 305, 233, 320, 248
-0.99966, 235, 249, 250, 264
-0.999662, 115, 149, 130, 164
-0.999662, 107, 65, 122, 80
-0.999662, 51, 195, 66, 210
-0.999662, 45, 191, 60, 206
-0.999663, 301, 291, 316, 306
-0.999664, 339, 43, 354, 58
-0.999664, 219, 61, 234, 76
-0.999665, 369, 265, 384, 280
-0.999665, 389, 269, 404, 284
-0.999665, 145, 249, 160, 264
-0.999666, 185, 157, 200, 172
-0.999666, 257, 245, 272, 260
-0.999668, 87, 153, 102, 168
-0.999668, 63, 107, 78, 122
-0.999668, 75, 201, 90, 216
-0.999669, 75, 155, 90, 170
-0.99967, 351, 255, 366, 270
-0.99967, 179, 157, 194, 172
-0.99967, 273, 49, 288, 64
-0.999671, 231, 227, 246, 242
-0.999672, 113, 167, 128, 182
-0.999672, 281, 313, 296, 328
-0.999673, 311, 149, 326, 164
-0.999673, 107, 157, 122, 172
-0.999674, 133, 241, 148, 256
-0.999674, 241, 119, 256, 134
-0.999676, 49, 177, 64, 192
-0.999677, 193, 257, 208, 272
-0.999677, 61, 157, 76, 172
-0.999677, 295, 237, 310, 252
-0.999678, 97, 151, 112, 166
-0.999678, 185, 127, 200, 142
-0.999678, 195, 203, 210, 218
-0.999679, 219, 219, 234, 234
-0.99968, 201, 155, 216, 170
-0.999681, 357, 257, 372, 272
-0.999682, 425, 269, 440, 284
-0.999682, 467, 105, 482, 120
-0.999683, 213, 215, 228, 230
-0.999684, 371, 37, 386, 52
-0.999684, 311, 241, 326, 256
-0.999684, 71, 105, 86, 120
-0.999684, 235, 53, 250, 68
-0.999685, 245, 129, 260, 144
-0.999686, 13, 121, 28, 136
-0.999686, 123, 235, 138, 250
-0.999686, 473, 105, 488, 120
-0.999686, 379, 39, 394, 54
-0.999686, 387, 43, 402, 58
-0.999687, 479, 93, 494, 108
-0.999689, 161, 123, 176, 138
-0.999689, 193, 291, 208, 306
-0.999689, 263, 137, 278, 152
-0.999691, 249, 147, 264, 162
-0.999691, 291, 281, 306, 296
-0.999692, 155, 115, 170, 130
-0.999692, 81, 169, 96, 184
-0.999692, 289, 235, 304, 250
-0.999693, 401, 139, 416, 154
-0.999693, 155, 123, 170, 138
-0.999694, 271, 247, 286, 262
-0.999696, 485, 99, 500, 114
-0.999699, 45, 185, 60, 200
-0.999701, 233, 151, 248, 166
-0.999701, 107, 151, 122, 166
-0.999702, 277, 275, 292, 290
-0.999704, 75, 161, 90, 176
-0.999704, 81, 155, 96, 170
-0.999707, 303, 153, 318, 168
-0.999707, 61, 187, 76, 202
-0.999707, 415, 267, 430, 282
-0.999709, 155, 105, 170, 120
-0.999711, 301, 239, 316, 254
-0.999712, 263, 241, 278, 256
-0.999713, 7, 121, 22, 136
-0.999714, 29, 113, 44, 128
-0.999715, 203, 207, 218, 222
-0.999717, 153, 259, 168, 274
-0.999718, 251, 239, 266, 254
-0.999723, 369, 257, 384, 272
-0.999725, 255, 133, 270, 148
-0.999726, 137, 247, 152, 262
-0.999727, 357, 37, 372, 52
-0.999729, 19, 119, 34, 134
-0.999729, 109, 227, 124, 242
-0.99973, 471, 99, 486, 114
-0.999731, 91, 215, 106, 230
-0.999733, 69, 161, 84, 176
-0.999734, 127, 241, 142, 256
-0.999737, 69, 199, 84, 214
-0.999737, 147, 255, 162, 270
-0.999744, 117, 233, 132, 248
-0.999755, 101, 221, 116, 236
-0.99976, 257, 239, 272, 254
-0.999761, 253, 155, 268, 170
-0.999772, 477, 99, 492, 114
-1.00002, 113, 17, 240, 80
-1.00036, 161, 1, 416, 64
-1.00098, 65, 1, 192, 64
-1.00111, 65, 9, 320, 72
-1.00132, 1, 313, 128, 375
-1.00151, 177, 1, 304, 64
-1.00161, 1, 281, 128, 344
-1.00184, 17, 17, 144, 80
-1.00964, 1, 209, 64, 336
-1.01123, 25, 241, 88, 368
