2011
-0.152941, 1, 1, 500, 424
-0.236549, 129, 1, 384, 424
-0.326828, 1, 1, 500, 256
-0.355171, 1, 1, 256, 424
-0.367966, 225, 1, 480, 424
-0.427491, 1, 161, 500, 416
-0.525406, 129, 1, 384, 256
-0.578233, 1, 1, 256, 256
-0.579066, 65, 161, 320, 416
-0.590339, 225, 33, 480, 288
-0.666674, 161, 161, 416, 416
-0.750902, 257, 129, 500, 384
-0.822294, 241, 1, 368, 256
-0.832172, 241, 1, 368, 424
-0.833975, 161, 1, 288, 424
-0.840491, 177, 1, 304, 256
-0.842114, 49, 1, 176, 424
-0.850944, 353, 1, 480, 424
-0.851292, 113, 1, 240, 424
-0.851373, 1, 1, 500, 128
-0.858104, 129, 1, 256, 256
-0.859604, 289, 1, 416, 424
-0.865347, 33, 65, 160, 320
-0.86574, 97, 161, 224, 416
-0.86602, 1, 49, 500, 176
-0.867032, 1, 289, 500, 416
-0.876583, 289, 1, 416, 256
-0.878055, 193, 1, 448, 128
-0.879719, 369, 1, 496, 256
-0.881223, 209, 161, 336, 416
-0.883789, 65, 289, 320, 416
-0.885184, 289, 161, 416, 416
-0.886658, 1, 1, 128, 424
-0.890354, 369, 161, 496, 416
-0.890844, 161, 129, 288, 384
-0.892236, 1, 113, 500, 240
-0.894205, 1, 161, 128, 416
-0.896477, 81, 65, 208, 320
-0.899694, 129, 49, 384, 176
-0.90332, 33, 1, 288, 128
-0.905931, 1, 241, 500, 368
-0.906762, 33, 65, 288, 192
-0.90811, 161, 273, 416, 400
-0.910359, 49, 161, 176, 416
-0.911877, 241, 33, 368, 160
-0.912391, 1, 177, 500, 304
-0.912517, 129, 113, 384, 240
-0.914674, 249, 1, 312, 128
-0.914785, 257, 289, 500, 416
-0.915114, 193, 1, 320, 128
-0.915637, 145, 289, 272, 416
-0.916887, 17, 289, 144, 416
-0.917661, 305, 1, 432, 128
-0.919928, 209, 1, 272, 128
-0.921408, 369, 1, 496, 128
-0.921913, 73, 289, 136, 416
-0.9221, 225, 49, 480, 176
-0.922288, 433, 1, 496, 128
-0.923484, 161, 49, 288, 176
-0.923559, 33, 113, 160, 240
-0.92547, 345, 1, 408, 128
-0.925501, 297, 33, 360, 160
-0.925612, 1, 113, 256, 240
-0.925839, 177, 1, 240, 128
-0.927124, 129, 1, 256, 128
-0.927145, 41, 81, 104, 208
-0.927903, 1, 81, 64, 208
-0.929613, 209, 273, 336, 400
-0.929674, 1, 1, 64, 128
-0.929759, 1, 65, 128, 192
-0.930669, 81, 241, 208, 368
-0.931137, 97, 289, 160, 416
-0.931234, 81, 97, 208, 224
-0.932669, 289, 289, 352, 416
-0.932766, 65, 289, 192, 416
-0.932922, 33, 241, 288, 368
-0.933182, 257, 289, 320, 416
-0.934912, 241, 49, 304, 112
-0.935625, 241, 49, 304, 176
-0.935671, 273, 1, 336, 128
-0.938276, 49, 49, 176, 176
-0.938449, 297, 41, 360, 104
-0.939003, 273, 49, 336, 176
-0.939376, 25, 1, 88, 128
-0.939409, 153, 289, 216, 416
-0.939569, 137, 113, 200, 240
-0.93997, 177, 49, 240, 176
-0.940084, 65, 161, 320, 288
-0.940116, 177, 57, 240, 120
-0.940393, 393, 17, 456, 144
-0.94043, 257, 241, 500, 368
-0.940784, 1, 1, 128, 128
-0.941342, 113, 241, 176, 368
-0.941846, 185, 289, 248, 416
-0.942203, 257, 289, 384, 416
-0.942698, 201, 49, 264, 176
-0.943254, 273, 193, 400, 320
-0.943985, 81, 97, 144, 224
-0.944508, 289, 321, 352, 384
-0.944665, 225, 113, 480, 240
-0.944776, 305, 273, 432, 400
-0.94496, 161, 97, 224, 224
-0.945231, 153, 49, 216, 176
-0.945509, 225, 273, 288, 400
-0.945539, 273, 81, 400, 208
-0.945585, 225, 193, 480, 320
-0.946694, 25, 289, 88, 416
-0.946946, 321, 1, 384, 128
-0.946959, 369, 1, 432, 128
-0.947207, 433, 1, 496, 64
-0.947298, 113, 97, 176, 224
-0.947659, 89, 241, 152, 368
-0.947788, 209, 97, 336, 224
-0.947937, 121, 289, 184, 416
-0.948037, 161, 241, 288, 368
-0.948248, 129, 225, 384, 352
-0.948253, 129, 97, 256, 224
-0.949156, 177, 1, 240, 64
-0.949376, 49, 1, 176, 128
-0.949627, 113, 49, 240, 176
-0.949733, 361, 257, 424, 384
-0.949775, 97, 161, 160, 288
-0.950463, 305, 353, 368, 416
-0.950951, 329, 273, 392, 400
-0.951174, 33, 81, 96, 144
-0.951298, 169, 33, 232, 96
-0.951567, 249, 241, 312, 368
-0.951905, 57, 129, 120, 256
-0.95243, 273, 97, 336, 224
-0.952435, 169, 241, 232, 368
-0.952577, 401, 1, 464, 64
-0.952684, 369, 65, 496, 192
-0.953156, 265, 329, 328, 392
-0.954029, 201, 81, 264, 144
-0.9541, 1, 1, 64, 64
-0.954377, 41, 105, 104, 168
-0.954464, 353, 273, 480, 400
-0.954928, 137, 1, 200, 128
-0.955036, 113, 353, 176, 416
-0.955213, 321, 49, 384, 176
-0.955276, 9, 97, 72, 160
-0.955459, 209, 225, 336, 352
-0.956052, 97, 161, 224, 288
-0.956217, 17, 241, 144, 368
-0.956251, 89, 353, 152, 416
-0.956451, 321, 49, 448, 176
-0.956685, 377, 65, 440, 192
-0.956915, 201, 57, 264, 120
-0.957097, 361, 265, 424, 328
-0.95813, 257, 305, 320, 368
-0.958497, 49, 273, 112, 400
-0.958502, 65, 1, 128, 128
-0.958502, 105, 153, 168, 216
-0.958693, 249, 97, 312, 224
-0.958695, 1, 129, 64, 256
-0.958717, 385, 273, 448, 400
-0.959025, 137, 177, 200, 304
-0.959095, 161, 97, 224, 160
-0.959264, 265, 41, 328, 104
-0.959266, 57, 153, 120, 216
-0.959276, 137, 241, 200, 368
-0.959299, 145, 177, 272, 304
-0.959314, 265, 353, 328, 416
-0.959496, 217, 273, 280, 336
-0.959523, 297, 1, 360, 256
-0.959943, 257, 1, 320, 256
-0.960136, 97, 249, 160, 312
-0.960189, 257, 273, 320, 336
-0.960227, 33, 129, 96, 192
-0.960307, 121, 105, 184, 168
-0.960513, 273, 177, 336, 304
-0.960595, 305, 65, 368, 128
-0.960842, 289, 129, 416, 256
-0.960969, 369, 73, 432, 136
-0.960974, 137, 129, 200, 192
-0.960976, 225, 177, 352, 304
-0.961006, 65, 321, 128, 384
-0.961017, 89, 113, 152, 176
-0.961022, 169, 313, 232, 376
-0.961026, 1, 129, 64, 192
-0.961082, 273, 65, 336, 128
-0.961084, 193, 97, 256, 224
-0.961619, 97, 177, 160, 240
-0.961645, 161, 273, 224, 336
-0.96171, 129, 49, 192, 176
-0.961754, 297, 97, 360, 224
-0.961899, 41, 281, 104, 344
-0.96226, 313, 329, 376, 392
-0.962282, 241, 41, 368, 104
-0.962304, 337, 177, 464, 304
-0.96231, 81, 289, 144, 352
-0.962841, 201, 241, 264, 368
-0.963418, 353, 1, 416, 64
-0.963756, 265, 1, 328, 64
-0.963965, 97, 49, 160, 176
-0.964132, 25, 1, 88, 64
-0.96457, 193, 49, 320, 112
-0.964629, 129, 297, 192, 360
-0.964873, 393, 25, 456, 88
-0.965024, 153, 73, 216, 136
-0.96512, 201, 1, 264, 64
-0.965255, 257, 241, 384, 368
-0.965287, 305, 1, 368, 64
-0.965479, 137, 153, 200, 216
-0.965615, 433, 345, 496, 408
-0.965619, 293, 1, 324, 128
-0.96569, 329, 1, 392, 64
-0.965693, 261, 1, 292, 128
-0.965859, 185, 1, 216, 64
-0.966072, 249, 73, 312, 136
-0.966291, 161, 1, 224, 256
-0.966307, 73, 177, 136, 304
-0.966614, 329, 81, 392, 144
-0.966641, 281, 1, 312, 128
-0.966712, 81, 89, 144, 152
-0.966732, 1, 353, 64, 416
-0.966788, 433, 65, 496, 192
-0.96696, 145, 25, 208, 88
-0.967009, 217, 33, 280, 96
-0.967166, 169, 145, 232, 272
-0.967173, 345, 177, 408, 304
-0.967229, 73, 49, 136, 176
-0.967287, 257, 97, 320, 160
-0.967421, 289, 105, 352, 168
-0.967521, 281, 297, 344, 360
-0.967535, 409, 49, 472, 112
-0.967612, 241, 353, 304, 416
-0.967637, 193, 33, 224, 96
-0.967684, 221, 1, 252, 128
-0.967796, 41, 361, 104, 424
-0.967875, 33, 161, 160, 288
-0.967922, 297, 177, 360, 304
-0.967986, 113, 81, 176, 144
-0.968029, 273, 241, 336, 368
-0.968038, 241, 177, 304, 304
-0.968162, 25, 129, 88, 256
-0.968165, 17, 81, 48, 208
-0.968305, 265, 289, 296, 416
-0.968496, 193, 289, 256, 352
-0.968541, 361, 313, 424, 376
-0.968584, 161, 81, 288, 144
-0.968696, 249, 1, 280, 128
-0.968716, 33, 129, 160, 192
-0.968735, 289, 313, 320, 376
-0.968838, 1, 73, 64, 136
-0.968948, 225, 225, 288, 352
-0.968968, 5, 1, 36, 128
-0.969034, 81, 289, 208, 352
-0.969093, 113, 1, 176, 128
-0.969124, 465, 1, 496, 128
-0.969131, 433, 73, 496, 136
-0.969247, 305, 41, 336, 104
-0.96934, 73, 65, 136, 128
-0.969481, 185, 33, 216, 160
-0.969564, 269, 41, 300, 104
-0.969714, 329, 289, 392, 352
-0.969737, 337, 337, 400, 400
-0.969763, 145, 321, 272, 384
-0.969797, 349, 1, 380, 128
-0.969889, 301, 353, 332, 416
-0.969903, 217, 297, 280, 360
-0.970024, 177, 1, 304, 64
-0.970037, 369, 1, 496, 64
-0.970153, 81, 289, 112, 416
-0.970194, 209, 281, 336, 344
-0.970212, 65, 97, 192, 160
-0.97023, 81, 137, 144, 200
-0.970233, 137, 353, 200, 416
-0.970243, 97, 313, 160, 376
-0.970283, 193, 33, 256, 96
-0.970556, 137, 273, 200, 336
-0.970595, 241, 65, 368, 128
-0.970726, 97, 289, 128, 416
-0.970779, 117, 289, 148, 416
-0.970788, 29, 81, 60, 208
-0.970838, 377, 241, 408, 368
-0.970846, 201, 1, 232, 128
-0.970859, 281, 185, 344, 248
-0.970945, 313, 313, 344, 376
-0.970995, 217, 321, 280, 384
-0.971054, 233, 1, 296, 256
-0.971224, 145, 129, 208, 384
-0.971278, 1, 289, 64, 416
-0.971286, 277, 273, 308, 400
-0.971292, 233, 1, 296, 64
-0.971349, 233, 1, 264, 128
-0.971412, 225, 305, 352, 368
-0.971488, 353, 65, 416, 192
-0.971573, 33, 33, 96, 288
-0.971591, 113, 273, 176, 336
-0.971603, 385, 1, 416, 128
-0.971644, 377, 1, 440, 64
-0.971652, 5, 81, 36, 208
-0.971686, 181, 33, 212, 96
-0.971723, 193, 289, 224, 416
-0.971841, 49, 81, 80, 208
-0.971842, 373, 257, 404, 320
-0.971873, 329, 57, 392, 120
-0.972195, 329, 225, 392, 352
-0.972238, 49, 361, 176, 424
-0.972261, 161, 281, 288, 344
-0.972273, 293, 273, 324, 400
-0.972297, 145, 97, 176, 224
-0.972305, 289, 41, 416, 104
-0.972389, 401, 209, 464, 336
-0.972426, 9, 65, 72, 320
-0.972477, 129, 41, 256, 104
-0.972486, 293, 57, 324, 120
-0.972496, 121, 353, 152, 416
-0.972496, 377, 209, 440, 336
-0.972575, 325, 33, 356, 96
-0.972729, 441, 345, 472, 408
-0.972758, 185, 33, 248, 288
-0.972826, 193, 313, 256, 376
-0.972952, 369, 289, 432, 352
-0.972962, 121, 177, 184, 240
-0.973068, 33, 169, 96, 232
-0.973091, 25, 305, 88, 368
-0.973092, 369, 225, 496, 352
-0.973116, 113, 81, 240, 144
-0.973167, 121, 129, 184, 384
-0.973167, 453, 1, 484, 128
-0.97317, 305, 1, 432, 64
-0.973228, 305, 273, 432, 336
-0.973297, 141, 353, 172, 416
-0.973323, 1, 89, 128, 152
-0.973401, 369, 25, 496, 88
-0.973442, 53, 1, 84, 128
-0.973447, 329, 1, 360, 128
-0.973477, 121, 57, 184, 120
-0.973495, 57, 81, 88, 144
-0.973678, 145, 1, 208, 64
-0.973725, 65, 1, 128, 64
-0.973741, 257, 161, 320, 416
-0.973794, 157, 289, 188, 416
-0.973805, 257, 145, 320, 208
-0.973869, 49, 57, 176, 120
-0.973923, 5, 1, 36, 64
-0.974019, 161, 129, 224, 192
-0.974075, 309, 289, 340, 416
-0.974077, 281, 361, 312, 424
-0.974141, 5, 89, 36, 152
-0.974166, 257, 41, 288, 104
-0.97417, 73, 265, 136, 328
-0.974236, 81, 113, 112, 240
-0.97444, 205, 65, 236, 128
-0.974462, 217, 289, 248, 416
-0.974491, 273, 329, 400, 392
-0.974594, 281, 49, 312, 176
-0.974609, 313, 1, 344, 128
-0.974645, 257, 249, 320, 312
-0.974673, 57, 129, 120, 192
-0.974677, 49, 329, 176, 392
-0.974693, 61, 97, 92, 224
-0.97471, 17, 329, 80, 392
-0.974758, 153, 177, 216, 240
-0.974784, 441, 1, 472, 128
-0.974792, 1, 321, 128, 384
-0.974843, 205, 289, 236, 416
-0.974848, 41, 81, 72, 144
-0.974992, 289, 353, 416, 416
-0.975127, 125, 113, 156, 240
-0.975214, 113, 113, 240, 176
-0.975266, 337, 313, 400, 376
-0.975326, 405, 17, 436, 144
-0.975328, 1, 153, 64, 216
-0.975402, 281, 273, 344, 336
-0.975435, 17, 297, 144, 360
-0.975444, 65, 265, 192, 328
-0.975542, 281, 49, 312, 112
-0.975563, 65, 345, 128, 408
-0.975568, 101, 241, 132, 368
-0.975588, 185, 265, 248, 328
-0.97564, 385, 1, 448, 256
-0.975715, 225, 73, 288, 136
-0.975735, 281, 97, 344, 352
-0.975768, 409, 81, 472, 144
-0.975776, 269, 313, 300, 376
-0.975789, 281, 97, 312, 224
-0.975795, 65, 225, 128, 352
-0.975832, 241, 49, 272, 176
-0.975873, 177, 161, 240, 416
-0.975889, 145, 321, 208, 384
-0.975911, 257, 121, 320, 184
-0.975914, 125, 65, 156, 192
-0.976012, 433, 49, 496, 112
-0.976067, 201, 49, 232, 176
-0.976122, 49, 153, 176, 216
-0.976124, 297, 49, 328, 176
-0.976151, 429, 1, 460, 64
-0.976154, 117, 305, 148, 368
-0.97626, 129, 289, 160, 416
-0.976327, 241, 329, 304, 392
-0.976348, 433, 25, 496, 88
-0.976363, 389, 281, 420, 344
-0.976379, 1, 345, 128, 408
-0.976413, 209, 97, 336, 160
-0.976458, 185, 105, 248, 168
-0.976563, 241, 1, 368, 64
-0.976566, 289, 281, 320, 344
-0.976573, 369, 1, 400, 128
-0.976688, 313, 1, 344, 64
-0.976714, 73, 177, 136, 240
-0.976835, 353, 353, 384, 416
-0.976951, 369, 49, 496, 112
-0.977023, 113, 241, 144, 368
-0.977042, 177, 177, 240, 240
-0.977115, 329, 97, 392, 224
-0.977155, 225, 97, 288, 224
-0.977182, 257, 177, 320, 240
-0.977304, 385, 49, 448, 112
-0.977327, 289, 81, 416, 144
-0.977339, 129, 33, 192, 288
-0.977505, 465, 1, 496, 64
-0.977566, 333, 329, 364, 392
-0.977567, 185, 193, 248, 320
-0.977616, 401, 65, 464, 192
-0.977687, 97, 353, 224, 416
-0.977738, 205, 41, 236, 104
-0.977861, 245, 41, 276, 104
-0.977877, 185, 57, 216, 120
-0.977912, 233, 249, 296, 312
-0.977937, 181, 289, 212, 416
-0.977942, 21, 89, 52, 152
-0.977946, 161, 113, 288, 176
-0.977952, 405, 1, 436, 64
-0.977967, 429, 17, 460, 144
-0.978037, 125, 81, 156, 144
-0.978091, 129, 161, 160, 224
-0.978126, 73, 105, 104, 168
-0.978134, 269, 289, 300, 352
-0.978157, 209, 329, 336, 392
-0.978168, 305, 305, 432, 368
-0.978232, 105, 177, 136, 240
-0.978263, 269, 49, 300, 176
-0.978286, 385, 161, 448, 288
-0.978308, 241, 1, 304, 424
-0.978317, 229, 289, 260, 416
-0.978355, 145, 49, 208, 112
-0.978384, 297, 241, 360, 368
-0.978433, 449, 1, 480, 64
-0.978447, 181, 97, 212, 224
-0.978452, 209, 353, 336, 416
-0.978467, 389, 257, 420, 384
-0.978488, 33, 289, 64, 416
-0.978526, 433, 289, 496, 416
-0.9786, 417, 1, 480, 256
-0.978621, 369, 81, 496, 144
-0.978626, 177, 241, 208, 368
-0.978634, 197, 297, 228, 360
-0.978719, 253, 289, 284, 416
-0.978778, 237, 241, 268, 368
-0.97881, 45, 113, 76, 176
-0.978819, 385, 1, 416, 64
-0.978862, 337, 129, 464, 256
-0.978884, 73, 65, 104, 192
-0.978894, 109, 353, 140, 416
-0.979013, 241, 273, 272, 336
-0.979029, 57, 97, 120, 352
-0.97903, 97, 321, 128, 384
-0.979123, 241, 65, 272, 128
-0.979133, 129, 161, 160, 288
-0.979183, 253, 321, 284, 384
-0.9792, 89, 1, 152, 128
-0.979205, 293, 1, 324, 64
-0.979223, 169, 289, 200, 416
-0.979252, 337, 57, 368, 120
-0.979266, 113, 145, 240, 208
-0.979331, 225, 297, 256, 360
-0.979331, 1, 1, 128, 64
-0.979341, 297, 1, 360, 424
-0.979361, 261, 1, 292, 64
-0.979361, 417, 1, 448, 64
-0.979393, 49, 1, 80, 64
-0.979414, 297, 161, 360, 224
-0.979454, 329, 1, 360, 64
-0.979468, 141, 113, 172, 176
-0.979525, 85, 297, 116, 360
-0.979555, 197, 1, 228, 64
-0.979576, 213, 281, 244, 344
-0.979616, 345, 65, 408, 320
-0.979688, 33, 1, 64, 128
-0.979729, 145, 257, 272, 320
-0.979773, 257, 241, 288, 368
-0.979821, 121, 249, 184, 312
-0.979824, 5, 121, 36, 184
-0.979838, 89, 65, 152, 320
-0.979886, 433, 81, 464, 144
-0.979893, 177, 1, 240, 424
-0.979951, 161, 113, 192, 240
-0.979967, 233, 105, 296, 168
-0.980068, 97, 265, 128, 328
-0.980088, 401, 345, 464, 408
-0.980101, 253, 49, 284, 176
-0.98015, 297, 81, 328, 144
-0.980157, 353, 273, 480, 336
-0.980167, 289, 337, 320, 400
-0.980189, 337, 161, 400, 416
-0.980194, 1, 49, 64, 112
-0.980252, 169, 105, 200, 168
-0.980288, 285, 161, 316, 224
-0.980306, 213, 49, 244, 176
-0.98031, 145, 89, 176, 152
-0.980321, 173, 1, 204, 128
-0.980338, 17, 273, 144, 336
-0.980358, 313, 65, 344, 128
-0.98036, 333, 49, 364, 176
-0.980435, 105, 289, 136, 352
-0.98046, 389, 49, 420, 176
-0.980507, 213, 241, 244, 368
-0.980516, 225, 73, 256, 136
-0.980519, 17, 1, 48, 128
-0.980568, 153, 1, 216, 424
-0.98059, 77, 153, 108, 216
-0.980597, 417, 17, 448, 144
-0.980609, 41, 225, 104, 352
-0.980627, 113, 257, 144, 320
-0.980636, 117, 153, 148, 216
-0.980769, 145, 257, 176, 384
-0.980804, 113, 129, 176, 192
-0.980808, 457, 73, 488, 136
-0.980842, 285, 193, 316, 320
-0.98087, 81, 1, 208, 64
-0.980888, 97, 313, 224, 376
-0.980936, 121, 321, 184, 384
-0.980949, 181, 105, 212, 168
-0.981028, 337, 193, 464, 256
-0.981032, 65, 41, 128, 104
-0.981082, 353, 49, 416, 112
-0.981131, 341, 1, 372, 64
-0.981226, 241, 25, 304, 88
-0.981272, 209, 1, 240, 64
-0.981362, 301, 321, 332, 384
-0.981416, 209, 65, 272, 320
-0.981431, 353, 321, 480, 384
-0.981433, 321, 177, 384, 304
-0.981437, 109, 113, 140, 240
-0.981464, 1, 153, 128, 216
-0.981466, 405, 25, 436, 88
-0.981502, 321, 33, 384, 288
-0.981598, 105, 161, 136, 288
-0.981622, 313, 361, 344, 424
-0.981626, 285, 113, 316, 176
-0.981705, 193, 25, 320, 88
-0.981709, 273, 1, 336, 424
-0.981744, 89, 241, 120, 368
-0.981774, 337, 81, 368, 144
-0.981776, 33, 161, 96, 416
-0.981804, 233, 129, 296, 384
-0.98192, 257, 65, 288, 128
-0.981935, 65, 161, 96, 224
-0.982019, 273, 337, 304, 400
-0.982055, 301, 289, 332, 352
-0.982093, 401, 57, 432, 120
-0.982105, 193, 257, 320, 320
-0.98215, 185, 281, 216, 344
-0.982163, 89, 177, 120, 304
-0.982202, 97, 161, 160, 416
-0.982225, 97, 169, 224, 232
-0.982254, 17, 113, 48, 176
-0.982276, 373, 313, 404, 376
-0.982382, 125, 329, 156, 392
-0.982465, 65, 145, 96, 272
-0.982467, 169, 25, 200, 88
-0.982517, 69, 81, 100, 144
-0.982568, 293, 33, 324, 96
-0.982579, 165, 281, 196, 344
-0.982653, 361, 273, 392, 400
-0.982705, 257, 185, 384, 248
-0.98274, 153, 177, 184, 304
-0.982745, 61, 361, 92, 424
-0.982759, 125, 129, 156, 192
-0.982766, 321, 225, 448, 352
-0.982832, 433, 25, 464, 88
-0.982861, 125, 249, 156, 312
-0.982947, 453, 353, 484, 416
-0.982975, 213, 313, 244, 376
-0.983022, 125, 1, 156, 128
-0.983027, 245, 297, 276, 360
-0.983108, 261, 257, 292, 320
-0.983112, 145, 265, 176, 328
-0.983316, 201, 1, 264, 424
-0.98334, 269, 65, 300, 128
-0.983344, 389, 65, 420, 128
-0.983361, 305, 161, 368, 416
-0.983396, 165, 321, 196, 384
-0.983448, 409, 257, 472, 384
-0.983562, 185, 305, 216, 368
-0.983563, 265, 129, 296, 256
-0.983566, 5, 353, 36, 416
-0.983578, 241, 289, 272, 416
-0.983594, 353, 345, 480, 408
-0.983607, 305, 105, 336, 168
-0.983612, 201, 161, 264, 416
-0.983694, 61, 137, 92, 200
-0.983708, 137, 49, 168, 176
-0.983743, 177, 145, 304, 208
-0.983755, 373, 177, 404, 304
-0.983792, 393, 1, 456, 424
-0.983941, 257, 105, 384, 168
-0.983975, 225, 241, 256, 368
-0.984028, 73, 1, 104, 128
-0.984031, 129, 105, 160, 168
-0.98406, 273, 97, 304, 160
-0.98406, 161, 49, 192, 176
-0.984075, 217, 49, 248, 112
-0.984076, 193, 145, 256, 272
-0.984089, 225, 273, 256, 336
-0.984161, 193, 241, 224, 368
-0.984162, 69, 289, 100, 416
-0.984169, 105, 1, 168, 424
-0.984206, 61, 105, 92, 168
-0.984221, 309, 97, 340, 224
-0.984276, 61, 49, 92, 176
-0.984281, 373, 65, 404, 192
-0.984295, 129, 1, 256, 64
-0.984312, 373, 81, 404, 144
-0.984313, 49, 1, 112, 424
-0.984359, 93, 97, 124, 224
-0.984413, 237, 1, 268, 64
-0.98442, 257, 257, 384, 320
-0.984442, 177, 177, 208, 240
-0.984443, 257, 281, 288, 344
-0.984454, 289, 145, 320, 272
-0.984507, 1, 65, 128, 128
-0.984509, 257, 281, 384, 344
-0.984517, 193, 89, 224, 152
-0.98461, 353, 249, 480, 312
-0.984697, 193, 97, 224, 224
-0.984765, 17, 345, 48, 408
-0.984861, 401, 289, 432, 352
-0.984891, 145, 145, 176, 208
-0.984898, 165, 65, 196, 128
-0.984954, 297, 169, 328, 232
-0.984979, 333, 353, 364, 416
-0.985037, 229, 49, 260, 176
-0.985042, 33, 129, 64, 256
-0.985086, 49, 177, 176, 240
-0.9851, 361, 129, 424, 256
-0.985187, 25, 1, 88, 424
-0.985261, 445, 49, 476, 112
-0.985276, 273, 225, 304, 352
-0.985297, 145, 169, 272, 232
-0.985306, 97, 241, 224, 304
-0.985344, 289, 161, 416, 224
-0.985345, 49, 33, 176, 96
-0.985518, 373, 289, 404, 416
-0.985639, 321, 1, 384, 424
-0.985709, 425, 193, 488, 320
-0.985739, 165, 241, 196, 368
-0.985841, 5, 129, 36, 256
-0.985859, 209, 121, 336, 184
-0.985874, 321, 289, 352, 416
-0.986035, 145, 1, 176, 128
-0.986078, 353, 297, 480, 360
-0.986212, 117, 177, 148, 304
-0.986318, 361, 1, 424, 424
-0.986467, 1, 41, 128, 104
-0.986481, 361, 177, 392, 304
-0.986494, 333, 289, 364, 416
-0.986565, 81, 1, 144, 424
-0.986628, 209, 177, 336, 240
-0.986767, 313, 49, 344, 176
-0.986783, 49, 273, 80, 400
-0.98681, 133, 241, 164, 368
-0.986891, 273, 177, 304, 304
-0.987011, 57, 1, 120, 256
-0.987086, 141, 161, 172, 288
-0.987209, 49, 177, 112, 304
-0.987242, 273, 233, 400, 296
-0.987251, 173, 49, 204, 176
-0.987359, 161, 41, 416, 104
-0.987656, 385, 177, 416, 304
-0.987744, 241, 57, 304, 88
-0.987768, 129, 1, 192, 424
-0.987841, 49, 129, 80, 256
-0.987982, 189, 177, 220, 304
-0.988001, 145, 361, 272, 424
-0.98804, 401, 273, 432, 400
-0.988054, 129, 313, 384, 376
-0.988096, 465, 65, 496, 192
-0.988187, 177, 65, 240, 96
-0.988189, 149, 49, 180, 176
-0.9882, 281, 345, 344, 376
-0.988244, 161, 193, 224, 320
-0.988406, 241, 45, 304, 76
-0.988422, 225, 145, 352, 208
-0.988433, 361, 161, 424, 416
-0.98844, 417, 1, 480, 424
-0.988448, 105, 1, 136, 128
-0.988471, 109, 65, 140, 192
-0.98852, 297, 49, 360, 80
-0.98854, 453, 65, 484, 192
-0.988546, 225, 313, 480, 376
-0.988555, 297, 357, 360, 388
-0.988578, 161, 1, 416, 64
-0.98859, 225, 393, 288, 424
-0.988619, 209, 53, 272, 84
-0.988703, 289, 317, 352, 348
-0.988717, 153, 117, 216, 148
-0.988732, 217, 177, 280, 304
-0.988734, 233, 69, 296, 100
-0.988736, 1, 297, 256, 360
-0.988759, 265, 393, 328, 424
-0.988784, 305, 37, 368, 68
-0.988788, 17, 129, 48, 256
-0.988799, 401, 17, 464, 48
-0.988802, 105, 177, 168, 208
-0.988813, 185, 393, 248, 424
-0.988858, 161, 1, 192, 128
-0.98888, 361, 285, 424, 316
-0.988892, 165, 177, 196, 304
-0.988924, 205, 97, 236, 224
-0.988944, 177, 53, 240, 84
-0.988963, 1, 1, 64, 424
-0.98899, 337, 169, 464, 232
-0.988991, 161, 37, 224, 68
-0.989026, 145, 393, 208, 424
-0.989041, 233, 277, 296, 308
-0.989082, 433, 9, 496, 40
-0.989135, 289, 329, 352, 360
-0.989146, 265, 333, 328, 364
-0.989154, 209, 69, 272, 100
-0.989163, 33, 241, 160, 304
-0.989166, 441, 49, 472, 176
-0.989219, 377, 81, 440, 112
-0.989233, 201, 81, 264, 112
-0.989237, 465, 289, 496, 416
-0.989243, 281, 85, 344, 116
-0.989265, 257, 33, 500, 96
-0.989274, 113, 389, 176, 420
-0.989275, 161, 289, 416, 352
-0.989297, 321, 353, 384, 384
-0.989322, 257, 281, 320, 312
-0.989325, 297, 97, 328, 224
-0.989348, 177, 81, 240, 112
-0.989356, 153, 105, 216, 136
-0.989373, 41, 145, 104, 176
-0.989401, 177, 317, 240, 348
-0.989401, 41, 109, 104, 140
-0.989574, 129, 337, 384, 400
-0.989578, 9, 101, 72, 132
-0.989611, 361, 273, 424, 304
-0.98964, 137, 189, 200, 220
-0.989689, 177, 9, 240, 40
-0.989702, 273, 45, 336, 76
-0.989743, 321, 85, 384, 116
-0.989788, 1, 133, 64, 164
-0.989794, 137, 165, 200, 196
-0.989795, 33, 89, 96, 120
-0.989801, 297, 369, 360, 400
-0.989804, 1, 373, 64, 404
-0.98982, 281, 97, 344, 128
-0.989835, 273, 61, 336, 92
-0.989836, 305, 341, 368, 372
-0.989865, 257, 321, 320, 352
-0.989904, 81, 133, 144, 164
-0.989905, 1, 41, 500, 104
-0.989923, 89, 297, 152, 328
-0.989926, 297, 73, 360, 104
-0.989948, 113, 353, 176, 384
-0.989982, 1, 9, 64, 40
-0.989991, 49, 121, 112, 152
-0.989992, 33, 57, 288, 120
-0.989993, 257, 353, 500, 416
-0.990002, 121, 137, 184, 168
-0.99002, 249, 81, 312, 112
-0.990026, 81, 185, 144, 216
-0.990056, 33, 373, 96, 404
-0.990145, 265, 189, 328, 220
-0.990145, 265, 357, 328, 388
-0.990159, 177, 109, 240, 140
-0.99018, 121, 293, 184, 324
-0.990192, 105, 197, 168, 228
-0.990195, 113, 109, 176, 140
-0.990206, 409, 69, 472, 100
-0.990211, 425, 353, 488, 384
-0.990223, 113, 93, 176, 124
-0.990241, 153, 89, 216, 120
-0.990281, 369, 297, 432, 328
-0.990307, 177, 93, 240, 124
-0.990314, 161, 65, 416, 128
-0.990316, 57, 389, 120, 420
-0.99033, 265, 381, 328, 412
-0.990337, 417, 89, 480, 120
-0.990349, 329, 341, 392, 372
-0.990369, 393, 29, 456, 60
-0.990374, 249, 97, 312, 128
-0.990388, 313, 189, 376, 220
-0.990409, 161, 297, 224, 328
-0.990421, 153, 137, 216, 168
-0.990442, 65, 333, 128, 364
-0.990457, 297, 61, 360, 92
-0.99049, 217, 333, 280, 364
-0.990491, 97, 253, 160, 284
-0.990524, 89, 117, 152, 148
-0.990533, 137, 177, 200, 208
-0.990544, 425, 365, 488, 396
-0.990557, 201, 41, 264, 72
-0.990574, 97, 373, 160, 404
-0.990596, 289, 137, 416, 200
-0.990599, 241, 341, 304, 372
-0.990604, 321, 97, 384, 128
-0.990606, 81, 97, 144, 128
-0.990606, 9, 89, 72, 120
-0.990613, 25, 9, 88, 40
-0.99062, 353, 341, 416, 372
-0.990623, 65, 173, 128, 204
-0.990667, 1, 345, 256, 408
-0.990673, 161, 285, 224, 316
-0.990685, 201, 93, 264, 124
-0.990686, 225, 257, 480, 320
-0.990704, 9, 113, 72, 144
-0.990706, 97, 273, 160, 304
-0.99071, 401, 197, 464, 228
-0.99073, 89, 385, 152, 416
-0.990734, 73, 317, 136, 348
-0.99074, 129, 281, 192, 312
-0.990742, 113, 333, 176, 364
-0.990743, 353, 85, 416, 116
-0.990766, 233, 317, 296, 348
-0.990775, 57, 281, 120, 312
-0.990778, 185, 273, 248, 304
-0.990794, 329, 329, 392, 360
-0.990798, 401, 5, 464, 36
-0.990803, 65, 201, 128, 232
-0.990814, 129, 309, 192, 340
-0.990832, 289, 389, 352, 420
-0.990838, 257, 297, 320, 328
-0.990855, 201, 321, 264, 352
-0.99086, 121, 125, 184, 156
-0.990879, 209, 281, 272, 312
-0.990893, 345, 393, 408, 424
-0.990904, 361, 9, 424, 40
-0.990908, 433, 77, 496, 108
-0.990924, 369, 261, 432, 292
-0.990944, 137, 77, 200, 108
-0.990965, 89, 285, 152, 316
-0.990969, 265, 309, 328, 340
-0.99097, 81, 145, 144, 176
-0.990997, 257, 269, 320, 300
-0.991017, 233, 289, 296, 320
-0.991114, 1, 121, 256, 184
-0.991133, 1, 161, 64, 416
-0.991136, 65, 33, 320, 96
-0.991235, 33, 321, 288, 384
-0.991295, 1, 1, 256, 64
-0.991444, 1, 1, 500, 64
-0.99166, 257, 1, 500, 64
-0.991716, 97, 193, 224, 256
-0.991743, 161, 193, 288, 256
-0.991998, 213, 393, 244, 424
-0.992033, 1, 225, 64, 352
-0.992051, 97, 361, 352, 424
-0.992062, 353, 217, 480, 280
-0.992064, 1, 337, 500, 400
-0.992078, 1, 81, 256, 144
-0.992091, 273, 393, 304, 424
-0.992135, 441, 349, 472, 380
-0.992151, 201, 393, 232, 424
-0.992185, 185, 393, 216, 424
-0.992207, 193, 393, 320, 424
-0.99221, 237, 393, 268, 424
-0.992219, 161, 393, 192, 424
-0.992251, 249, 393, 280, 424
-0.992251, 193, 53, 320, 84
-0.992267, 141, 393, 172, 424
-0.99227, 193, 37, 224, 68
-0.992271, 289, 341, 320, 372
-0.992276, 285, 49, 316, 80
-0.992288, 161, 81, 288, 112
-0.992298, 321, 37, 352, 68
-0.992305, 97, 153, 352, 216
-0.992327, 285, 393, 316, 424
-0.992332, 65, 265, 320, 328
-0.992356, 125, 389, 156, 420
-0.992364, 297, 389, 328, 420
-0.992368, 109, 185, 140, 216
-0.992374, 305, 361, 336, 392
-0.992389, 265, 57, 296, 88
-0.99239, 265, 41, 296, 72
-0.992404, 225, 393, 256, 424
-0.992437, 177, 37, 208, 68
-0.992439, 377, 261, 408, 292
-0.992441, 173, 393, 204, 424
-0.992448, 201, 53, 232, 84
-0.992461, 1, 361, 500, 424
-0.992465, 189, 1, 204, 64
-0.992472, 313, 317, 344, 348
-0.992485, 305, 45, 336, 76
-0.992494, 245, 61, 276, 92
-0.992499, 53, 89, 84, 120
-0.992507, 1, 113, 32, 144
-0.992514, 265, 333, 296, 364
-0.992514, 169, 117, 200, 148
-0.992519, 337, 349, 368, 380
-0.992529, 273, 349, 304, 380
-0.992534, 253, 45, 284, 76
-0.992538, 121, 361, 152, 392
-0.992539, 329, 49, 360, 80
-0.992542, 185, 185, 216, 216
-0.992545, 1, 97, 32, 128
-0.992546, 393, 77, 424, 108
-0.992548, 293, 377, 324, 408
-0.992552, 241, 277, 272, 308
-0.992563, 261, 393, 292, 424
-0.992566, 97, 185, 128, 216
-0.992568, 133, 189, 164, 220
-0.992569, 253, 333, 284, 364
-0.99257, 237, 77, 268, 108
-0.992578, 289, 277, 320, 308
-0.992579, 185, 89, 216, 120
-0.992579, 221, 65, 252, 96
-0.99259, 205, 65, 236, 96
-0.992603, 1, 73, 500, 136
-0.992606, 149, 189, 180, 220
-0.992608, 189, 53, 220, 84
-0.99261, 69, 105, 100, 136
-0.992619, 169, 189, 200, 220
-0.992619, 273, 321, 304, 352
-0.992621, 281, 65, 312, 96
-0.992625, 297, 317, 328, 348
-0.992634, 257, 281, 500, 344
-0.992636, 293, 85, 324, 116
-0.992636, 181, 129, 212, 160
-0.992639, 349, 353, 380, 384
-0.992641, 293, 61, 324, 92
-0.992644, 257, 73, 500, 136
-0.992649, 5, 9, 36, 40
-0.99265, 409, 17, 440, 48
-0.992665, 129, 113, 384, 176
-0.992668, 209, 77, 240, 108
-0.99268, 141, 169, 172, 200
-0.992684, 185, 313, 216, 344
-0.992685, 393, 285, 424, 316
-0.992685, 105, 345, 136, 376
-0.992687, 269, 185, 300, 216
-0.992688, 109, 393, 140, 424
-0.992691, 197, 305, 228, 336
-0.992692, 333, 361, 364, 392
-0.992693, 129, 137, 160, 168
-0.992693, 117, 285, 148, 316
-0.992702, 1, 145, 256, 208
-0.992706, 145, 277, 176, 308
-0.992708, 217, 321, 248, 352
-0.992709, 185, 101, 216, 132
-0.992709, 97, 329, 128, 360
-0.992715, 209, 197, 240, 228
-0.992724, 289, 189, 320, 220
-0.992728, 129, 349, 160, 380
-0.992731, 13, 97, 44, 128
-0.992736, 101, 293, 132, 324
-0.992738, 69, 141, 100, 172
-0.992739, 425, 9, 456, 40
-0.992739, 185, 9, 216, 40
-0.99274, 313, 89, 344, 120
-0.992741, 281, 361, 312, 392
-0.992746, 205, 89, 236, 120
-0.992751, 369, 197, 400, 228
-0.992754, 121, 177, 152, 208
-0.992764, 305, 305, 336, 336
-0.992766, 309, 33, 340, 64
-0.992766, 225, 85, 256, 116
-0.992766, 293, 305, 324, 336
-0.992772, 169, 325, 200, 356
-0.992781, 433, 373, 464, 404
-0.992784, 145, 121, 176, 152
-0.992785, 93, 197, 124, 228
-0.992786, 289, 329, 320, 360
-0.992788, 113, 217, 240, 280
-0.992795, 121, 157, 152, 188
-0.992797, 317, 197, 348, 228
-0.992803, 1, 81, 32, 112
-0.992805, 381, 297, 412, 328
-0.992807, 81, 301, 112, 332
-0.992808, 337, 89, 368, 120
-0.992814, 77, 129, 108, 160
-0.992821, 465, 81, 496, 112
-0.992821, 49, 9, 80, 40
-0.992825, 197, 197, 228, 228
-0.992828, 353, 85, 384, 116
-0.992829, 161, 133, 192, 164
-0.992829, 413, 5, 444, 36
-0.992836, 341, 337, 372, 368
-0.992837, 25, 89, 56, 120
-0.992838, 297, 101, 328, 132
-0.992838, 301, 185, 332, 216
-0.992844, 153, 109, 184, 140
-0.992845, 373, 85, 404, 116
-0.992845, 33, 217, 160, 280
-0.992852, 313, 345, 344, 376
-0.992857, 409, 77, 440, 108
-0.992861, 113, 197, 144, 228
-0.992861, 65, 197, 96, 228
-0.992862, 25, 109, 56, 140
-0.992869, 97, 393, 224, 424
-0.992869, 41, 89, 72, 120
-0.99287, 361, 341, 392, 372
-0.99287, 285, 173, 316, 204
-0.992872, 41, 377, 72, 408
-0.992874, 165, 309, 196, 340
-0.993055, 145, 325, 272, 356
-0.993104, 25, 177, 88, 304
-0.993125, 65, 105, 192, 136
-0.993142, 257, 41, 384, 72
-0.99323, 273, 209, 400, 272
-0.993314, 195, 33, 210, 96
-0.993321, 225, 113, 480, 176
-0.993336, 33, 149, 160, 180
-0.993339, 241, 53, 368, 84
-0.993368, 209, 201, 336, 264
-0.993381, 161, 69, 288, 100
-0.993398, 145, 393, 272, 424
-0.993406, 217, 49, 232, 112
-0.993417, 141, 153, 156, 216
-0.993426, 205, 33, 220, 96
-0.993487, 81, 313, 208, 344
-0.993543, 369, 145, 496, 208
-0.993604, 369, 113, 496, 176
-0.993636, 273, 77, 400, 108
-0.993647, 273, 349, 400, 380
-0.993662, 393, 161, 456, 416
-0.993664, 225, 65, 352, 96
-0.993665, 81, 93, 208, 124
-0.993667, 295, 361, 310, 424
-0.993723, 65, 125, 192, 156
-0.993736, 209, 285, 336, 316
-0.993755, 1, 105, 500, 168
-0.993802, 161, 277, 288, 308
-0.993846, 283, 41, 298, 104
-0.993862, 193, 97, 320, 128
-0.993889, 161, 233, 288, 296
-0.993925, 445, 1, 460, 64
-0.993926, 65, 81, 80, 144
-0.99393, 203, 1, 218, 64
-0.993931, 189, 33, 204, 96
-0.993937, 1, 177, 128, 240
-0.993945, 97, 281, 224, 312
-0.99396, 305, 297, 432, 328
-0.993965, 145, 361, 160, 424
-0.993988, 65, 137, 192, 168
-0.99403, 309, 41, 324, 104
-0.994057, 1, 313, 500, 376
-0.99406, 113, 73, 240, 104
-0.994092, 129, 185, 384, 248
-0.994105, 241, 329, 368, 360
-0.994106, 197, 1, 212, 64
-0.994108, 145, 309, 272, 340
-0.994146, 7, 1, 22, 64
-0.994146, 295, 57, 310, 120
-0.99416, 7, 113, 22, 176
-0.994228, 33, 373, 160, 404
-0.994232, 353, 77, 480, 108
-0.994235, 209, 297, 336, 328
-0.994248, 273, 89, 400, 120
-0.994257, 129, 45, 256, 76
-0.994267, 341, 41, 356, 104
-0.99427, 113, 137, 240, 168
-0.994278, 405, 1, 420, 64
-0.994282, 241, 393, 368, 424
-0.994282, 49, 341, 176, 372
-0.994323, 369, 21, 496, 52
-0.994353, 443, 337, 458, 400
-0.994382, 1, 321, 128, 352
-0.994383, 145, 297, 272, 328
-0.994386, 123, 361, 138, 424
-0.994403, 49, 81, 176, 112
-0.994404, 209, 77, 336, 108
-0.994422, 1, 169, 256, 232
-0.994448, 305, 285, 432, 316
-0.994454, 137, 353, 152, 416
-0.994473, 129, 185, 256, 216
-0.994483, 307, 353, 322, 416
-0.994508, 265, 321, 280, 384
-0.994514, 439, 1, 454, 64
-0.994525, 113, 109, 240, 140
-0.994527, 247, 57, 262, 120
-0.99453, 177, 41, 304, 72
-0.994531, 133, 145, 148, 208
-0.994539, 107, 321, 122, 384
-0.99456, 257, 41, 272, 104
-0.994575, 275, 41, 290, 104
-0.994575, 315, 1, 330, 64
-0.994582, 161, 117, 288, 148
-0.994602, 81, 325, 208, 356
-0.994608, 263, 41, 278, 104
-0.994612, 225, 313, 352, 344
-0.994617, 355, 353, 370, 416
-0.994619, 81, 293, 208, 324
-0.994641, 369, 9, 496, 40
-0.994648, 1, 117, 128, 148
-0.994652, 1, 281, 500, 344
-0.99466, 145, 337, 272, 368
-0.994666, 337, 1, 352, 64
-0.994667, 15, 89, 30, 152
-0.994669, 1, 129, 500, 192
-0.994686, 1, 89, 128, 120
-0.994686, 33, 161, 160, 192
-0.994687, 331, 1, 346, 64
-0.994688, 33, 285, 160, 316
-0.99469, 321, 1, 336, 64
-0.99469, 225, 189, 352, 220
-0.994706, 415, 1, 430, 64
-0.994708, 403, 281, 418, 344
-0.994716, 1, 105, 128, 136
-0.994726, 183, 33, 198, 96
-0.994755, 131, 361, 146, 424
-0.994765, 113, 121, 240, 152
-0.994799, 455, 1, 470, 64
-0.994815, 289, 49, 304, 112
-0.994816, 289, 353, 304, 416
-0.994832, 17, 137, 144, 168
-0.994841, 305, 105, 432, 168
-0.994844, 321, 193, 448, 224
-0.994856, 177, 9, 304, 40
-0.994856, 133, 121, 148, 184
-0.994858, 305, 281, 320, 344
-0.994858, 47, 89, 62, 152
-0.994865, 151, 353, 166, 416
-0.994876, 269, 33, 284, 96
-0.994913, 59, 81, 74, 144
-0.994948, 301, 1, 332, 256
-0.994952, 431, 1, 446, 64
-0.99496, 97, 269, 224, 300
-0.994964, 97, 305, 112, 368
-0.994985, 53, 81, 68, 144
-0.995, 235, 289, 250, 352
-0.99503, 451, 345, 466, 408
-0.995031, 225, 233, 480, 296
-0.995036, 311, 313, 326, 376
-0.995042, 479, 1, 494, 64
-0.995066, 65, 1, 80, 64
-0.995082, 313, 353, 328, 416
-0.995093, 49, 353, 176, 384
-0.995111, 301, 313, 316, 376
-0.995118, 305, 273, 432, 304
-0.995118, 291, 321, 306, 384
-0.99512, 129, 93, 256, 124
-0.995125, 227, 289, 242, 352
-0.995133, 329, 313, 344, 376
-0.995148, 207, 297, 222, 360
-0.995164, 177, 185, 304, 216
-0.995168, 41, 121, 56, 184
-0.99517, 315, 33, 330, 96
-0.995177, 81, 189, 208, 220
-0.995181, 369, 33, 496, 64
-0.995181, 269, 1, 300, 256
-0.995199, 183, 9, 198, 72
-0.9952, 211, 41, 226, 104
-0.995206, 241, 105, 368, 136
-0.995215, 305, 57, 432, 88
-0.995237, 307, 1, 322, 64
-0.995239, 369, 65, 496, 96
-0.995245, 265, 1, 280, 64
-0.995264, 209, 1, 224, 64
-0.995268, 353, 285, 480, 316
-0.995282, 7, 89, 22, 152
-0.995284, 71, 81, 86, 144
-0.995292, 433, 241, 496, 368
-0.995297, 49, 273, 176, 304
-0.995306, 145, 57, 272, 88
-0.995331, 399, 1, 414, 64
-0.995337, 335, 33, 350, 96
-0.99534, 97, 89, 352, 152
-0.99535, 17, 297, 144, 328
-0.995354, 119, 305, 134, 368
-0.995356, 113, 337, 128, 400
-0.995378, 283, 281, 298, 344
-0.99538, 375, 257, 390, 320
-0.99538, 1, 353, 128, 384
-0.995391, 437, 353, 452, 416
-0.995404, 281, 1, 296, 64
-0.99541, 139, 121, 154, 184
-0.995446, 275, 1, 290, 64
-0.995459, 143, 73, 158, 136
-0.995462, 327, 33, 342, 96
-0.995473, 305, 45, 432, 76
-0.995477, 273, 373, 400, 404
-0.995497, 345, 1, 360, 64
-0.995503, 447, 81, 462, 144
-0.995503, 301, 169, 316, 232
-0.995515, 341, 73, 356, 136
-0.99552, 273, 361, 400, 392
-0.995528, 79, 161, 94, 224
-0.995535, 117, 361, 132, 424
-0.995552, 113, 153, 240, 184
-0.995556, 241, 65, 256, 128
-0.995556, 303, 41, 318, 104
-0.995564, 321, 309, 448, 340
-0.995569, 17, 309, 144, 340
-0.995572, 305, 9, 432, 40
-0.995572, 113, 257, 128, 320
-0.995576, 183, 105, 198, 168
-0.995576, 49, 385, 176, 416
-0.995581, 161, 197, 288, 228
-0.995586, 297, 273, 312, 336
-0.995595, 225, 381, 352, 412
-0.995596, 97, 169, 224, 200
-0.995617, 35, 81, 50, 144
-0.995627, 181, 1, 212, 256
-0.995632, 87, 113, 102, 176
-0.995637, 245, 273, 260, 336
-0.995639, 21, 89, 36, 152
-0.995644, 349, 49, 364, 112
-0.995651, 127, 81, 142, 144
-0.995678, 217, 1, 232, 64
-0.995678, 1, 9, 128, 40
-0.995705, 101, 329, 116, 392
-0.995722, 275, 297, 290, 360
-0.995727, 1, 177, 500, 240
-0.995734, 255, 273, 270, 336
-0.995742, 257, 177, 500, 240
-0.995742, 209, 273, 336, 304
-0.99575, 317, 313, 332, 376
-0.995752, 197, 281, 212, 344
-0.995755, 397, 273, 412, 336
-0.995757, 65, 69, 192, 100
-0.995759, 259, 1, 274, 64
-0.995767, 361, 345, 376, 408
-0.99577, 353, 89, 480, 120
-0.995774, 335, 321, 350, 384
-0.995779, 191, 177, 206, 240
-0.995781, 161, 265, 288, 296
-0.995784, 321, 33, 336, 96
-0.995789, 403, 49, 418, 112
-0.995791, 281, 33, 312, 288
-0.995796, 189, 57, 204, 120
-0.995796, 301, 65, 316, 128
-0.995802, 305, 33, 432, 64
-0.995807, 193, 1, 224, 256
-0.99581, 249, 1, 264, 64
-0.995812, 177, 133, 304, 164
-0.995812, 227, 321, 242, 384
-0.995834, 289, 73, 304, 136
-0.995834, 273, 185, 400, 216
-0.995841, 209, 341, 336, 372
-0.995856, 277, 321, 292, 384
-0.995857, 49, 53, 176, 84
-0.995859, 289, 393, 416, 424
-0.995865, 225, 233, 352, 296
-0.995866, 291, 1, 306, 64
-0.995867, 47, 129, 62, 192
-0.995869, 5, 65, 20, 128
-0.995872, 375, 305, 390, 368
-0.995883, 377, 81, 392, 144
-0.995896, 425, 1, 440, 64
-0.995901, 283, 353, 298, 416
-0.995912, 319, 345, 334, 408
-0.995924, 217, 281, 232, 344
-0.995956, 433, 97, 496, 352
-0.996003, 97, 341, 224, 372
-0.996005, 49, 177, 176, 208
-0.996007, 325, 1, 356, 256
-0.996047, 289, 161, 320, 416
-0.996056, 257, 281, 384, 312
-0.996058, 257, 1, 288, 256
-0.996083, 1, 333, 128, 364
-0.996083, 1, 153, 500, 216
-0.996129, 97, 257, 224, 288
-0.996145, 433, 129, 496, 256
-0.996146, 369, 53, 496, 84
-0.9962, 1, 393, 128, 424
-0.996219, 209, 117, 336, 148
-0.996244, 257, 297, 384, 328
-0.996263, 353, 353, 480, 384
-0.996288, 125, 129, 156, 384
-0.996311, 65, 241, 320, 304
-0.996317, 81, 201, 208, 232
-0.996324, 353, 297, 480, 328
-0.996327, 113, 33, 240, 64
-0.996349, 113, 381, 240, 412
-0.99635, 193, 153, 448, 216
-0.996399, 257, 205, 384, 236
-0.99641, 273, 313, 400, 344
-0.996431, 97, 361, 224, 392
-0.996436, 353, 273, 480, 304
-0.99644, 225, 357, 352, 388
-0.996542, 401, 1, 432, 256
-0.996571, 161, 129, 192, 384
-0.996574, 61, 33, 92, 288
-0.996579, 239, 393, 254, 424
-0.996595, 245, 33, 276, 288
-0.996621, 49, 37, 176, 68
-0.996622, 145, 161, 176, 416
-0.996627, 49, 9, 176, 40
-0.996628, 177, 145, 304, 176
-0.996637, 37, 65, 68, 320
-0.996651, 277, 161, 308, 416
-0.996673, 97, 217, 352, 280
-0.996685, 205, 1, 236, 256
-0.99673, 433, 1, 464, 256
-0.996762, 161, 29, 288, 60
-0.996764, 229, 393, 244, 424
-0.99677, 209, 369, 336, 400
-0.996773, 193, 393, 208, 424
-0.996778, 149, 393, 164, 424
-0.996787, 369, 201, 496, 232
-0.996798, 287, 393, 302, 424
-0.996798, 185, 393, 200, 424
-0.996833, 277, 393, 292, 424
-0.996837, 251, 393, 266, 424
-0.996842, 203, 393, 218, 424
-0.996843, 267, 333, 282, 364
-0.996846, 181, 161, 212, 416
-0.996848, 289, 337, 416, 368
-0.996864, 77, 129, 108, 384
-0.996877, 169, 1, 200, 256
-0.996887, 289, 101, 416, 132
-0.996891, 141, 393, 156, 424
-0.996894, 155, 393, 170, 424
-0.996909, 225, 177, 352, 208
-0.996916, 161, 393, 176, 424
-0.996917, 257, 209, 500, 272
-0.996944, 177, 209, 304, 240
-0.996978, 137, 65, 168, 320
-0.996981, 321, 21, 448, 52
-0.996982, 97, 57, 224, 88
-0.996985, 409, 145, 472, 272
-0.997009, 5, 101, 20, 132
-0.997012, 213, 393, 228, 424
-0.997013, 177, 173, 304, 204
-0.997013, 369, 341, 496, 372
-0.997024, 175, 393, 190, 424
-0.997024, 353, 353, 368, 384
-0.997032, 49, 261, 176, 292
-0.99704, 297, 393, 312, 424
-0.99706, 13, 65, 44, 320
-0.997062, 313, 1, 344, 256
-0.997082, 265, 393, 280, 424
-0.997121, 223, 393, 238, 424
-0.997132, 265, 129, 296, 384
-0.997153, 217, 69, 232, 100
-0.997177, 25, 65, 56, 320
-0.997177, 303, 381, 318, 412
-0.997251, 1, 65, 32, 320
-0.997252, 115, 177, 130, 208
-0.997258, 255, 49, 270, 80
-0.997262, 205, 37, 220, 68
-0.997269, 377, 65, 408, 320
-0.997284, 111, 189, 126, 220
-0.99729, 453, 345, 468, 376
-0.997297, 303, 393, 318, 424
-0.99731, 149, 65, 180, 320
-0.997317, 285, 349, 300, 380
-0.997379, 115, 393, 130, 424
-0.997382, 193, 37, 208, 68
-0.997382, 139, 353, 154, 384
-0.99739, 167, 393, 182, 424
-0.997393, 265, 41, 280, 72
-0.997408, 283, 45, 298, 76
-0.99741, 341, 41, 356, 72
-0.997414, 287, 189, 302, 220
-0.997422, 321, 33, 336, 64
-0.997422, 153, 189, 168, 220
-0.997423, 445, 349, 460, 380
-0.997435, 307, 41, 322, 72
-0.997436, 245, 393, 260, 424
-0.997436, 147, 185, 162, 216
-0.99744, 289, 49, 304, 80
-0.997442, 301, 189, 316, 220
-0.997457, 199, 189, 214, 220
-0.997464, 181, 121, 196, 152
-0.997465, 305, 309, 320, 340
-0.99747, 313, 389, 328, 420
-0.997491, 133, 141, 148, 172
-0.997497, 199, 37, 214, 68
-0.9975, 141, 169, 156, 200
-0.997501, 403, 73, 418, 104
-0.997514, 295, 61, 310, 92
-0.997515, 105, 393, 120, 424
-0.997524, 275, 41, 290, 72
-0.997528, 125, 393, 140, 424
-0.997529, 133, 385, 148, 416
-0.997538, 185, 189, 200, 220
-0.997539, 109, 177, 124, 208
-0.997544, 365, 65, 396, 320
-0.997547, 73, 1, 104, 256
-0.997552, 377, 161, 408, 416
-0.997567, 207, 301, 222, 332
-0.997575, 249, 57, 264, 88
-0.997578, 185, 37, 200, 68
-0.997581, 217, 57, 232, 88
-0.997588, 331, 193, 346, 224
-0.997599, 293, 189, 308, 220
-0.997602, 1, 209, 500, 272
-0.997602, 67, 89, 82, 120
-0.997605, 103, 333, 118, 364
-0.997613, 327, 37, 342, 68
-0.997615, 5, 117, 20, 148
-0.997622, 163, 185, 178, 216
-0.997635, 305, 61, 320, 92
-0.997636, 421, 1, 452, 256
-0.997642, 305, 353, 320, 384
-0.997651, 193, 161, 224, 416
-0.997652, 97, 333, 112, 364
-0.997656, 363, 349, 378, 380
-0.997663, 233, 33, 264, 288
-0.997666, 213, 161, 244, 416
-0.997668, 173, 189, 188, 220
-0.997675, 137, 153, 152, 184
-0.997676, 61, 89, 76, 120
-0.997677, 183, 109, 198, 140
-0.997686, 405, 25, 420, 56
-0.997687, 333, 37, 348, 68
-0.997694, 271, 393, 286, 424
-0.997695, 219, 197, 234, 228
-0.997696, 349, 65, 380, 320
-0.997697, 7, 9, 22, 40
-0.997701, 113, 345, 128, 376
-0.99771, 313, 37, 328, 68
-0.997711, 301, 49, 316, 80
-0.997712, 271, 57, 286, 88
-0.997719, 141, 189, 156, 220
-0.997722, 437, 9, 452, 40
-0.997724, 381, 393, 396, 424
-0.997725, 213, 45, 228, 76
-0.997726, 191, 185, 206, 216
-0.997727, 89, 129, 104, 160
-0.997731, 175, 121, 190, 152
-0.997733, 121, 185, 136, 216
-0.997746, 281, 185, 296, 216
-0.997748, 245, 197, 260, 228
-0.99775, 109, 329, 124, 360
-0.997757, 147, 361, 162, 392
-0.997764, 91, 197, 106, 228
-0.997769, 305, 97, 336, 352
-0.99777, 245, 161, 276, 416
-0.997771, 457, 73, 472, 104
-0.997772, 411, 17, 426, 48
-0.997775, 125, 85, 140, 116
-0.997783, 461, 353, 476, 384
-0.997796, 113, 129, 144, 384
-0.9978, 445, 197, 460, 228
-0.997802, 61, 129, 92, 384
-0.997803, 167, 129, 182, 160
-0.997804, 353, 369, 368, 400
-0.997805, 155, 349, 170, 380
-0.99781, 13, 97, 28, 128
-0.997816, 299, 321, 314, 352
-0.997818, 337, 1, 368, 256
-0.997823, 159, 109, 174, 140
-0.997823, 135, 185, 150, 216
-0.997829, 55, 89, 70, 120
-0.99783, 69, 181, 84, 212
-0.997831, 227, 321, 242, 352
-0.997839, 81, 141, 96, 172
-0.99784, 311, 185, 326, 216
-0.99784, 317, 365, 332, 396
-0.997842, 101, 185, 116, 216
-0.99785, 283, 61, 298, 92
-0.997855, 323, 313, 338, 344
-0.997855, 207, 197, 222, 228
-0.997862, 295, 361, 310, 392
-0.997862, 179, 189, 194, 220
-0.997865, 85, 197, 100, 228
-0.997865, 243, 73, 258, 104
-0.997869, 199, 53, 214, 84
-0.997871, 33, 193, 288, 256
-0.997875, 409, 73, 424, 104
-0.997881, 5, 85, 20, 116
-0.997925, 1, 257, 500, 320
-0.997938, 49, 65, 80, 320
-0.997941, 453, 33, 484, 288
-0.998034, 389, 33, 420, 288
-0.998054, 45, 161, 76, 416
-0.99806, 217, 65, 248, 320
-0.998136, 229, 161, 260, 416
-0.998141, 465, 65, 496, 320
-0.99829, 125, 33, 156, 288
-0.998302, 389, 161, 420, 416
-0.998332, 89, 97, 120, 352
-0.998341, 97, 181, 160, 196
-0.998347, 241, 59, 304, 74
-0.998352, 281, 353, 344, 368
-0.998371, 289, 1, 304, 128
-0.998376, 253, 1, 268, 128
-0.998387, 217, 63, 280, 78
-0.998403, 213, 1, 228, 128
-0.998411, 321, 161, 352, 416
-0.998413, 241, 47, 304, 62
-0.998416, 177, 65, 240, 80
-0.998419, 297, 39, 360, 54
-0.998423, 321, 359, 384, 374
-0.998423, 257, 65, 320, 80
-0.998423, 297, 363, 360, 378
-0.998425, 257, 339, 320, 354
-0.998427, 281, 347, 344, 362
-0.998428, 217, 75, 280, 90
-0.998429, 401, 19, 464, 34
-0.998429, 177, 81, 240, 96
-0.99843, 305, 351, 368, 366
-0.998437, 297, 1, 312, 128
-0.998438, 209, 87, 272, 102
-0.998439, 177, 57, 240, 72
-0.998447, 177, 319, 240, 334
-0.998447, 233, 69, 296, 84
-0.998448, 257, 289, 320, 304
-0.998449, 259, 1, 274, 128
-0.998449, 153, 107, 216, 122
-0.998449, 113, 33, 144, 288
-0.99845, 297, 369, 360, 384
-0.998456, 209, 57, 272, 72
-0.998457, 149, 191, 180, 206
-0.998458, 169, 313, 200, 328
-0.998458, 213, 323, 244, 338
-0.998459, 137, 395, 168, 410
-0.998459, 289, 319, 352, 334
-0.998459, 437, 89, 468, 104
-0.998459, 301, 199, 332, 214
-0.99846, 301, 365, 332, 380
-0.998461, 57, 89, 88, 104
-0.998462, 341, 347, 372, 362
-0.998463, 441, 359, 472, 374
-0.998463, 273, 395, 304, 410
-0.998463, 281, 191, 312, 206
-0.998463, 273, 405, 304, 420
-0.998463, 301, 377, 332, 392
-0.998464, 361, 285, 424, 300
-0.998464, 161, 133, 192, 148
-0.998464, 269, 331, 300, 346
-0.998464, 309, 403, 340, 418
-0.998466, 329, 51, 360, 66
-0.998467, 217, 81, 280, 96
-0.998468, 433, 201, 464, 216
-0.998468, 289, 327, 352, 342
-0.998468, 297, 339, 360, 354
-0.998469, 381, 201, 412, 216
-0.998469, 317, 49, 348, 64
-0.99847, 297, 61, 360, 76
-0.99847, 293, 87, 324, 102
-0.99847, 217, 199, 248, 214
-0.99847, 197, 199, 228, 214
-0.998471, 49, 9, 80, 24
-0.998471, 233, 279, 296, 294
-0.998472, 281, 77, 312, 92
-0.998472, 337, 353, 368, 368
-0.998473, 349, 365, 380, 380
-0.998473, 1, 121, 32, 136
-0.998474, 417, 201, 448, 216
-0.998474, 249, 55, 280, 70
-0.998474, 121, 253, 152, 268
-0.998474, 225, 63, 256, 78
-0.998474, 97, 341, 128, 356
-0.998474, 181, 137, 212, 152
-0.998476, 297, 107, 328, 122
-0.998476, 257, 347, 320, 362
-0.998476, 209, 69, 272, 84
-0.998476, 189, 317, 220, 332
-0.998477, 153, 113, 216, 128
-0.998477, 257, 395, 288, 410
-0.998478, 397, 201, 428, 216
-0.998478, 289, 333, 320, 348
-0.99848, 169, 191, 200, 206
-0.99848, 281, 71, 312, 86
-0.99848, 289, 281, 320, 296
-0.998482, 49, 109, 112, 124
-0.998482, 305, 51, 368, 66
-0.998482, 1, 109, 32, 124
-0.998482, 77, 201, 108, 216
-0.998482, 241, 333, 304, 348
-0.998483, 369, 401, 400, 416
-0.998483, 177, 71, 240, 86
-0.998483, 293, 313, 324, 328
-0.998485, 181, 395, 212, 410
-0.998485, 117, 201, 148, 216
-0.998485, 117, 291, 148, 306
-0.998485, 1, 9, 64, 24
-0.998486, 221, 395, 252, 410
-0.998486, 129, 201, 160, 216
-0.998486, 193, 405, 224, 420
-0.998487, 117, 181, 148, 196
-0.998488, 153, 101, 216, 116
-0.998488, 461, 353, 492, 368
-0.998488, 453, 81, 484, 96
-0.998488, 253, 341, 284, 356
-0.998488, 381, 307, 412, 322
-0.998488, 161, 39, 224, 54
-0.998488, 207, 1, 222, 128
-0.998488, 283, 1, 298, 128
-0.998489, 277, 201, 308, 216
-0.998489, 361, 279, 424, 294
-0.998489, 129, 151, 160, 166
-0.99849, 113, 113, 176, 128
-0.99849, 197, 49, 228, 64
-0.998491, 13, 375, 44, 390
-0.998491, 281, 101, 344, 116
-0.998491, 257, 283, 320, 298
-0.998491, 177, 395, 240, 410
-0.998492, 265, 349, 296, 364
-0.998492, 205, 71, 236, 86
-0.998492, 1, 101, 32, 116
-0.998493, 225, 395, 288, 410
-0.998495, 221, 87, 252, 102
-0.998495, 285, 63, 316, 78
-0.998495, 137, 357, 168, 372
-0.998495, 303, 1, 318, 128
-0.998496, 185, 91, 216, 106
-0.998496, 293, 405, 324, 420
-0.998497, 305, 51, 336, 66
-0.998497, 377, 261, 408, 276
-0.998497, 185, 105, 216, 120
-0.998498, 81, 153, 144, 168
-0.998498, 265, 359, 328, 374
-0.998499, 129, 159, 160, 174
-0.998499, 441, 347, 472, 362
-0.9985, 189, 9, 220, 24
-0.9985, 161, 395, 192, 410
-0.9985, 237, 85, 268, 100
-0.9985, 265, 329, 328, 344
-0.9985, 369, 303, 432, 318
-0.998501, 353, 89, 384, 104
-0.998501, 297, 69, 360, 84
-0.998501, 189, 39, 220, 54
-0.998501, 65, 107, 96, 122
-0.998502, 413, 17, 444, 32
-0.998502, 205, 79, 236, 94
-0.998503, 173, 129, 204, 144
-0.998504, 153, 119, 216, 134
-0.998504, 125, 361, 156, 376
-0.998506, 297, 45, 360, 60
-0.998506, 241, 75, 304, 90
-0.998506, 277, 51, 308, 66
-0.998506, 317, 37, 348, 52
-0.998506, 41, 149, 104, 164
-0.998508, 297, 333, 360, 348
-0.998508, 369, 295, 432, 310
-0.998509, 377, 81, 440, 96
-0.998509, 289, 345, 320, 360
-0.99851, 5, 9, 36, 24
-0.99851, 217, 51, 280, 66
-0.99851, 349, 359, 380, 374
-0.99851, 145, 395, 208, 410
-0.998512, 105, 199, 168, 214
-0.998512, 113, 353, 176, 368
-0.998512, 77, 143, 108, 158
-0.998513, 321, 345, 384, 360
-0.998514, 417, 91, 480, 106
-0.998514, 177, 9, 240, 24
-0.998514, 1, 95, 32, 110
-0.998514, 113, 359, 176, 374
-0.998515, 177, 101, 240, 116
-0.998515, 9, 113, 72, 128
-0.998516, 297, 59, 328, 74
-0.998516, 205, 65, 236, 80
-0.998516, 153, 129, 216, 144
-0.998517, 273, 59, 336, 74
-0.998517, 425, 355, 488, 370
-0.998517, 281, 107, 344, 122
-0.998517, 121, 389, 152, 404
-0.998518, 293, 323, 324, 338
-0.998518, 241, 81, 304, 96
-0.998518, 177, 87, 240, 102
-0.998518, 185, 99, 216, 114
-0.998518, 233, 285, 296, 300
-0.998518, 177, 109, 240, 124
-0.99852, 317, 201, 348, 216
-0.99852, 433, 9, 496, 24
-0.99852, 273, 53, 336, 68
-0.99852, 275, 289, 290, 416
-0.99852, 369, 201, 400, 216
-0.99852, 465, 83, 496, 98
-0.998521, 329, 89, 392, 104
-0.998521, 137, 169, 200, 184
-0.998522, 113, 187, 176, 202
-0.998522, 297, 375, 360, 390
-0.998522, 1, 145, 64, 160
-0.998523, 377, 201, 440, 216
-0.998523, 273, 201, 336, 216
-0.998524, 293, 47, 324, 62
-0.998525, 285, 395, 316, 410
-0.998525, 161, 95, 224, 110
-0.998526, 385, 403, 416, 418
-0.998526, 297, 81, 360, 96
-0.998526, 9, 107, 72, 122
-0.998527, 113, 91, 176, 106
-0.998527, 89, 291, 152, 306
-0.998528, 305, 405, 368, 420
-0.998528, 49, 121, 112, 136
-0.998528, 333, 361, 364, 376
-0.998529, 137, 137, 200, 152
-0.99853, 301, 385, 332, 400
-0.998531, 113, 107, 176, 122
-0.998532, 425, 361, 488, 376
-0.998532, 225, 69, 256, 84
-0.998533, 245, 61, 276, 76
-0.998534, 113, 345, 176, 360
-0.998534, 177, 51, 240, 66
-0.998534, 97, 201, 128, 216
-0.998534, 49, 127, 112, 142
-0.998534, 137, 191, 200, 206
-0.998534, 329, 351, 392, 366
-0.998535, 241, 53, 304, 68
-0.998535, 245, 73, 276, 88
-0.998536, 249, 93, 312, 108
-0.998536, 7, 1, 22, 128
-0.998536, 89, 301, 152, 316
-0.998536, 273, 341, 304, 356
-0.998537, 249, 87, 312, 102
-0.998537, 265, 395, 328, 410
-0.998537, 321, 99, 384, 114
-0.998538, 121, 151, 184, 166
-0.998538, 297, 359, 328, 374
-0.998538, 369, 87, 432, 102
-0.99854, 111, 289, 126, 416
-0.998541, 269, 289, 284, 416
-0.998541, 301, 371, 332, 386
-0.998541, 97, 389, 160, 404
-0.998542, 137, 181, 200, 196
-0.998542, 105, 405, 168, 420
-0.998542, 201, 395, 264, 410
-0.998543, 261, 45, 292, 60
-0.998543, 201, 55, 232, 70
-0.998544, 329, 337, 392, 352
-0.998544, 289, 339, 320, 354
-0.998544, 65, 201, 128, 216
-0.998545, 273, 41, 336, 56
-0.998545, 201, 93, 264, 108
-0.998545, 89, 135, 152, 150
-0.998546, 41, 157, 104, 172
-0.998547, 113, 119, 176, 134
-0.998547, 265, 59, 296, 74
-0.998547, 281, 87, 344, 102
-0.998547, 33, 377, 96, 392
-0.998547, 9, 129, 72, 144
-0.998547, 9, 119, 72, 134
-0.998547, 193, 395, 224, 410
-0.998548, 113, 299, 176, 314
-0.99855, 49, 115, 112, 130
-0.998551, 81, 115, 144, 130
-0.998551, 271, 1, 286, 128
-0.998552, 33, 387, 96, 402
-0.998553, 257, 335, 288, 350
-0.998553, 345, 405, 408, 420
-0.998553, 17, 91, 80, 106
-0.998554, 353, 353, 384, 368
-0.998554, 225, 75, 256, 90
-0.998556, 241, 79, 272, 94
-0.998557, 245, 67, 276, 82
-0.998557, 313, 319, 344, 334
-0.998557, 219, 1, 234, 128
-0.998558, 247, 1, 262, 128
-0.998559, 265, 1, 280, 128
-0.998565, 313, 353, 344, 368
-0.998565, 393, 79, 424, 94
-0.998571, 1, 115, 32, 130
-0.998581, 289, 351, 320, 366
-0.998583, 11, 81, 26, 208
-0.998602, 241, 1, 256, 128
-0.998606, 285, 57, 316, 72
-0.998618, 349, 1, 364, 128
-0.998621, 101, 161, 132, 416
-0.998626, 47, 81, 62, 208
-0.998632, 85, 97, 100, 224
-0.998637, 341, 1, 356, 128
-0.998639, 277, 1, 292, 128
-0.998639, 225, 1, 240, 128
-0.998642, 209, 289, 224, 416
-0.998645, 21, 81, 36, 208
-0.998652, 105, 181, 136, 196
-0.998661, 441, 353, 472, 368
-0.998668, 395, 1, 410, 128
-0.998669, 479, 1, 494, 128
-0.998674, 385, 113, 448, 240
-0.998683, 281, 289, 296, 416
-0.998704, 57, 81, 72, 208
-0.998709, 65, 1, 80, 128
-0.998711, 301, 257, 316, 384
-0.998715, 121, 289, 136, 416
-0.99872, 235, 1, 250, 128
-0.998723, 105, 289, 120, 416
-0.998727, 401, 1, 416, 128
-0.998728, 95, 289, 110, 416
-0.998733, 457, 1, 472, 128
-0.998734, 231, 289, 246, 416
-0.998736, 385, 241, 400, 368
-0.998738, 27, 81, 42, 208
-0.998738, 41, 81, 56, 208
-0.99874, 69, 65, 84, 192
-0.998744, 295, 49, 310, 176
-0.998745, 165, 289, 180, 416
-0.998745, 291, 257, 306, 384
-0.998747, 309, 1, 324, 128
-0.998777, 377, 241, 392, 368
-0.998782, 451, 1, 466, 128
-0.998786, 189, 33, 204, 160
-0.998788, 195, 289, 210, 416
-0.998793, 319, 289, 334, 416
-0.998803, 33, 81, 48, 208
-0.99881, 355, 1, 370, 128
-0.998819, 135, 289, 150, 416
-0.99883, 407, 1, 422, 128
-0.998831, 5, 81, 20, 208
-0.998833, 65, 113, 80, 240
-0.998835, 89, 289, 104, 416
-0.998837, 383, 1, 398, 128
-0.99884, 289, 49, 304, 176
-0.998841, 201, 289, 216, 416
-0.998841, 79, 97, 94, 224
-0.998845, 215, 289, 230, 416
-0.998854, 389, 1, 404, 128
-0.998857, 215, 49, 230, 176
-0.99886, 197, 33, 212, 160
-0.998861, 315, 1, 330, 128
-0.998866, 159, 289, 174, 416
-0.998869, 109, 241, 124, 368
-0.998869, 171, 289, 186, 416
-0.998869, 153, 97, 168, 224
-0.998891, 263, 289, 278, 416
-0.998903, 391, 241, 406, 368
-0.998903, 137, 129, 152, 256
-0.998906, 377, 1, 392, 128
-0.998911, 463, 1, 478, 128
-0.998912, 281, 49, 296, 176
-0.998912, 137, 65, 152, 192
-0.998913, 225, 289, 240, 416
-0.998914, 365, 161, 396, 416
-0.998914, 181, 1, 196, 128
-0.998918, 261, 49, 276, 176
-0.998928, 103, 241, 118, 368
-0.998928, 335, 1, 350, 128
-0.998929, 469, 1, 484, 128
-0.99894, 369, 1, 384, 128
-0.998941, 39, 1, 54, 128
-0.998941, 131, 129, 146, 256
-0.998946, 401, 257, 416, 384
-0.998948, 49, 1, 64, 128
-0.998952, 301, 49, 316, 176
-0.998957, 83, 289, 98, 416
-0.998957, 147, 97, 162, 224
-0.998969, 249, 49, 264, 176
-0.998976, 25, 1, 40, 128
-0.998977, 423, 17, 438, 144
-0.998981, 145, 289, 160, 416
-0.998985, 293, 177, 308, 304
-0.998987, 297, 97, 312, 224
-0.998988, 165, 113, 180, 240
-0.99899, 127, 65, 142, 192
-0.998997, 31, 1, 46, 128
-0.999001, 17, 1, 32, 128
-0.999006, 57, 1, 72, 128
-0.999006, 333, 161, 364, 416
-0.999006, 363, 1, 378, 128
-0.999013, 181, 289, 196, 416
-0.999015, 127, 289, 142, 416
-0.999017, 39, 289, 54, 416
-0.999026, 445, 1, 460, 128
-0.999028, 91, 113, 106, 240
-0.999037, 255, 49, 270, 176
-0.99904, 307, 273, 322, 400
-0.999041, 433, 17, 448, 144
-0.999058, 281, 129, 296, 256
-0.999058, 257, 289, 272, 416
-0.999059, 313, 289, 328, 416
-0.99906, 197, 129, 212, 256
-0.999061, 303, 129, 318, 256
-0.999061, 143, 145, 158, 272
-0.999062, 115, 241, 130, 368
-0.999065, 205, 65, 220, 192
-0.999067, 325, 289, 340, 416
-0.999069, 85, 145, 100, 272
-0.999069, 243, 49, 258, 176
-0.999079, 291, 97, 306, 224
-0.999084, 237, 241, 252, 368
-0.999089, 159, 97, 174, 224
-0.999092, 121, 241, 136, 368
-0.999093, 71, 113, 86, 240
-0.999095, 171, 129, 186, 256
-0.99935, 17, 161, 48, 416
-0.999411, 349, 161, 380, 416
-0.999438, 33, 161, 64, 416
-0.999487, 101, 33, 132, 288
-0.999523, 5, 161, 36, 416
-0.999638, 111, 191, 126, 206
-0.999639, 315, 201, 330, 216
-0.999639, 289, 55, 304, 70
-0.999639, 427, 91, 442, 106
-0.99964, 301, 59, 316, 74
-0.99964, 113, 345, 128, 360
-0.99964, 67, 89, 82, 104
-0.99964, 189, 317, 204, 332
-0.99964, 215, 57, 230, 72
-0.999641, 457, 347, 472, 362
-0.999641, 381, 303, 396, 318
-0.999642, 173, 197, 188, 212
-0.999642, 141, 183, 156, 198
-0.999642, 235, 395, 250, 410
-0.999642, 115, 405, 130, 420
-0.999642, 177, 191, 192, 206
-0.999643, 281, 201, 296, 216
-0.999643, 419, 9, 434, 24
-0.999643, 13, 115, 28, 130
-0.999643, 263, 45, 278, 60
-0.999643, 305, 199, 320, 214
-0.999644, 269, 201, 284, 216
-0.999645, 221, 395, 236, 410
-0.999646, 259, 201, 274, 216
-0.999647, 117, 201, 132, 216
-0.999648, 359, 347, 374, 362
-0.999648, 451, 341, 466, 356
-0.999648, 397, 201, 412, 216
-0.999648, 361, 201, 376, 216
-0.999649, 309, 311, 324, 326
-0.999651, 225, 201, 240, 216
-0.999651, 87, 199, 102, 214
-0.999652, 295, 395, 310, 410
-0.999653, 63, 9, 78, 24
-0.999654, 339, 41, 354, 56
-0.999654, 193, 9, 208, 24
-0.999654, 293, 67, 308, 82
-0.999654, 445, 87, 460, 102
-0.999654, 325, 201, 340, 216
-0.999655, 303, 65, 318, 80
-0.999655, 151, 201, 166, 216
-0.999655, 353, 369, 368, 384
-0.999656, 455, 353, 470, 368
-0.999657, 141, 171, 156, 186
-0.999658, 195, 405, 210, 420
-0.999658, 343, 405, 358, 420
-0.999659, 103, 337, 118, 352
-0.999659, 275, 197, 290, 212
-0.999661, 225, 323, 240, 338
-0.999661, 203, 395, 218, 410
-0.999661, 289, 345, 304, 360
-0.999661, 463, 349, 478, 364
-0.999662, 185, 407, 200, 422
-0.999662, 197, 395, 212, 410
-0.999662, 183, 113, 198, 128
-0.999662, 325, 109, 340, 124
-0.999663, 469, 355, 484, 370
-0.999663, 253, 201, 268, 216
-0.999663, 319, 403, 334, 418
-0.999663, 305, 385, 320, 400
-0.999664, 123, 199, 138, 214
-0.999665, 257, 49, 272, 64
-0.999665, 213, 395, 228, 410
-0.999666, 219, 199, 234, 214
-0.999666, 139, 359, 154, 374
-0.999668, 449, 113, 464, 128
-0.99967, 439, 203, 454, 218
-0.99967, 133, 389, 148, 404
-0.999671, 5, 91, 20, 106
-0.999671, 335, 405, 350, 420
-0.999672, 287, 199, 302, 214
-0.999672, 67, 143, 82, 158
-0.999673, 413, 87, 428, 102
-0.999674, 351, 197, 366, 212
-0.999675, 89, 1, 120, 256
-0.999675, 405, 79, 420, 94
-0.999677, 5, 117, 20, 132
-0.999677, 7, 9, 22, 24
-0.999677, 469, 81, 484, 96
-0.999678, 185, 401, 200, 416
-0.999679, 309, 405, 324, 420
-0.99968, 241, 395, 256, 410
-0.999681, 163, 191, 178, 206
-0.999682, 217, 79, 232, 94
-0.999682, 455, 115, 470, 130
-0.999682, 387, 405, 402, 420
-0.999683, 389, 201, 404, 216
-0.999685, 287, 405, 302, 420
-0.999685, 197, 201, 212, 216
-0.999685, 209, 201, 224, 216
-0.999686, 311, 41, 326, 56
-0.999686, 461, 355, 476, 370
-0.999687, 227, 395, 242, 410
-0.999688, 217, 71, 232, 86
-0.99969, 133, 149, 148, 164
-0.99969, 445, 353, 460, 368
-0.99969, 283, 351, 298, 366
-0.99969, 369, 405, 384, 420
-0.999691, 349, 405, 364, 420
-0.999692, 381, 403, 396, 418
-0.999693, 5, 103, 20, 118
-0.999693, 277, 395, 292, 410
-0.999694, 133, 201, 148, 216
-0.999694, 277, 403, 292, 418
-0.999694, 139, 157, 154, 172
-0.999695, 107, 181, 122, 196
-0.999696, 111, 201, 126, 216
-0.999698, 235, 405, 250, 420
-0.999699, 287, 395, 302, 410
-0.9997, 431, 201, 446, 216
-0.999704, 105, 405, 120, 420
-0.999704, 331, 201, 346, 216
-0.999708, 399, 403, 414, 418
-0.999709, 175, 395, 190, 410
-0.999712, 125, 403, 140, 418
-0.999713, 421, 199, 436, 214
-0.999715, 353, 359, 368, 374
-0.999716, 445, 201, 460, 216
-0.999716, 401, 161, 432, 416
-0.999718, 445, 347, 460, 362
-0.999722, 267, 341, 282, 356
-0.999724, 393, 405, 408, 420
-0.999727, 151, 405, 166, 420
-0.999727, 243, 201, 258, 216
-0.99973, 143, 201, 158, 216
-0.999731, 375, 403, 390, 418
-0.999734, 267, 335, 282, 350
-0.999743, 241, 405, 256, 420
-0.999747, 451, 347, 466, 362
-0.999747, 189, 395, 204, 410
-0.999756, 5, 109, 20, 124
-0.999782, 357, 353, 372, 368
-0.999938, 1, 217, 256, 280
-1, 437, 97, 468, 352
-1.00002, 417, 97, 448, 352
-1.00015, 465, 161, 496, 416
-1.00056, 449, 161, 480, 416
-1.00228, 1, 233, 500, 296
-1.01547, 1, 177, 64, 304
