1884
-0.219527, 1, 1, 500, 333
-0.288653, 1, 65, 500, 320
-0.39492, 129, 1, 384, 333
-0.457798, 1, 1, 256, 333
-0.512468, 97, 1, 352, 256
-0.521897, 225, 1, 480, 333
-0.575046, 193, 33, 448, 288
-0.602861, 1, 65, 256, 320
-0.815634, 65, 33, 192, 288
-0.833487, 49, 1, 176, 333
-0.846017, 209, 1, 336, 256
-0.849887, 225, 1, 352, 333
-0.85346, 145, 65, 272, 320
-0.86375, 1, 129, 500, 256
-0.864959, 17, 1, 144, 256
-0.866741, 145, 1, 272, 333
-0.889995, 33, 81, 288, 208
-0.891673, 1, 1, 128, 333
-0.891746, 1, 65, 500, 192
-0.89177, 257, 65, 384, 320
-0.892747, 129, 81, 384, 208
-0.895462, 97, 1, 224, 333
-0.901793, 1, 177, 500, 304
-0.904429, 33, 129, 288, 256
-0.904877, 193, 129, 448, 256
-0.905744, 129, 33, 384, 160
-0.908321, 1, 17, 500, 144
-0.910343, 273, 1, 400, 333
-0.920568, 49, 65, 176, 192
-0.920568, 113, 113, 240, 240
-0.924816, 369, 1, 496, 333
-0.925011, 161, 129, 288, 256
-0.925309, 57, 113, 120, 240
-0.926911, 49, 113, 176, 240
-0.926984, 209, 33, 336, 160
-0.927213, 369, 65, 496, 320
-0.928149, 81, 161, 208, 288
-0.929988, 1, 113, 128, 240
-0.931251, 153, 129, 216, 256
-0.931647, 33, 33, 288, 160
-0.931986, 201, 129, 264, 256
-0.933985, 241, 145, 304, 272
-0.934776, 113, 113, 176, 240
-0.936226, 321, 1, 448, 333
-0.937043, 137, 81, 200, 208
-0.937475, 113, 65, 176, 192
-0.940522, 305, 65, 432, 320
-0.941466, 89, 129, 152, 256
-0.941778, 225, 81, 352, 208
-0.943308, 225, 65, 480, 192
-0.943838, 209, 161, 336, 288
-0.943978, 233, 1, 296, 128
-0.944077, 1, 177, 256, 304
-0.945464, 81, 49, 144, 176
-0.945876, 225, 17, 480, 144
-0.946284, 273, 129, 400, 256
-0.946386, 145, 65, 272, 192
-0.947974, 177, 129, 240, 256
-0.948021, 17, 97, 80, 224
-0.949071, 57, 65, 120, 192
-0.949141, 297, 97, 360, 224
-0.949702, 129, 177, 256, 304
-0.949845, 97, 65, 224, 192
-0.950253, 201, 81, 264, 208
-0.950289, 33, 161, 160, 288
-0.951875, 81, 177, 144, 304
-0.953129, 321, 129, 384, 256
-0.953373, 89, 185, 152, 248
-0.953412, 137, 113, 200, 176
-0.953645, 97, 177, 352, 304
-0.953844, 225, 177, 480, 304
-0.954151, 169, 177, 232, 304
-0.954262, 57, 121, 120, 184
-0.954868, 369, 177, 496, 304
-0.954998, 225, 97, 288, 224
-0.956043, 193, 153, 256, 216
-0.956186, 113, 145, 176, 208
-0.956489, 49, 209, 112, 333
-0.956613, 33, 97, 96, 160
-0.957086, 81, 41, 144, 104
-0.957263, 129, 161, 192, 288
-0.957389, 257, 1, 320, 128
-0.957989, 241, 17, 304, 80
-0.958022, 241, 145, 304, 208
-0.958171, 57, 145, 120, 208
-0.958386, 249, 1, 312, 256
-0.958773, 281, 49, 344, 176
-0.959407, 89, 161, 152, 224
-0.959461, 201, 177, 264, 304
-0.959889, 201, 129, 264, 192
-0.959927, 417, 177, 480, 304
-0.960592, 81, 129, 144, 192
-0.960676, 33, 209, 160, 333
-0.960791, 89, 33, 152, 288
-0.960998, 25, 161, 88, 288
-0.961551, 161, 177, 224, 240
-0.963034, 393, 177, 456, 304
-0.963165, 1, 65, 128, 192
-0.963233, 425, 185, 488, 248
-0.963368, 17, 137, 80, 200
-0.963368, 401, 185, 464, 248
-0.963652, 145, 89, 208, 152
-0.963827, 145, 137, 208, 200
-0.96402, 57, 89, 120, 152
-0.96429, 265, 169, 328, 232
-0.964783, 169, 137, 232, 200
-0.965046, 65, 17, 192, 144
-0.965136, 49, 193, 112, 256
-0.965498, 113, 121, 176, 184
-0.965637, 137, 161, 200, 224
-0.966294, 129, 1, 256, 128
-0.966386, 49, 73, 176, 136
-0.966921, 81, 209, 144, 272
-0.967044, 361, 177, 424, 304
-0.967105, 265, 145, 328, 272
-0.967229, 169, 81, 232, 208
-0.967635, 121, 65, 184, 320
-0.967808, 193, 129, 224, 256
-0.967835, 49, 161, 112, 288
-0.967896, 257, 97, 320, 224
-0.967913, 121, 193, 184, 256
-0.967949, 177, 153, 304, 216
-0.96795, 321, 145, 448, 272
-0.968097, 161, 113, 224, 176
-0.968253, 313, 137, 376, 200
-0.968258, 49, 169, 112, 232
-0.968969, 81, 169, 208, 232
-0.969328, 9, 113, 72, 176
-0.969546, 145, 129, 272, 192
-0.969638, 217, 161, 280, 224
-0.969641, 157, 81, 188, 208
-0.969674, 201, 185, 264, 248
-0.969714, 369, 129, 496, 256
-0.969716, 169, 201, 232, 264
-0.969737, 17, 169, 80, 232
-0.969786, 145, 65, 208, 320
-0.969835, 113, 73, 176, 136
-0.969863, 65, 65, 128, 320
-0.970243, 177, 129, 208, 256
-0.97029, 49, 121, 176, 184
-0.970626, 97, 113, 128, 240
-0.970711, 273, 81, 400, 208
-0.970987, 297, 65, 360, 320
-0.971201, 113, 209, 176, 333
-0.971322, 69, 113, 100, 176
-0.971355, 33, 49, 96, 176
-0.97136, 209, 49, 336, 112
-0.971764, 201, 65, 264, 320
-0.971786, 129, 105, 256, 168
-0.971925, 273, 161, 304, 224
-0.972059, 281, 97, 344, 160
-0.972177, 89, 121, 120, 184
-0.97238, 233, 49, 296, 112
-0.972443, 369, 185, 432, 248
-0.972567, 193, 97, 256, 160
-0.972625, 369, 185, 496, 248
-0.972775, 33, 161, 160, 224
-0.972795, 49, 193, 176, 256
-0.973012, 225, 97, 352, 160
-0.97304, 225, 49, 288, 176
-0.97328, 241, 169, 304, 232
-0.973311, 97, 145, 224, 208
-0.973461, 205, 129, 236, 256
-0.973515, 81, 1, 144, 333
-0.973597, 249, 129, 280, 256
-0.973639, 137, 65, 168, 192
-0.973659, 65, 65, 128, 128
-0.974022, 113, 217, 176, 280
-0.974082, 177, 209, 304, 333
-0.974297, 157, 89, 188, 152
-0.974577, 57, 89, 88, 152
-0.974577, 233, 113, 264, 240
-0.97472, 225, 121, 288, 184
-0.974861, 65, 81, 96, 208
-0.975025, 105, 17, 168, 144
-0.975221, 197, 145, 228, 208
-0.97523, 265, 49, 328, 112
-0.97527, 109, 129, 140, 256
-0.975335, 189, 177, 220, 240
-0.97535, 225, 1, 288, 256
-0.975402, 113, 169, 176, 232
-0.975528, 101, 161, 132, 224
-0.975548, 125, 145, 156, 208
-0.975615, 273, 145, 400, 208
-0.97563, 121, 129, 152, 256
-0.975682, 193, 177, 224, 304
-0.975843, 261, 153, 292, 216
-0.975855, 101, 129, 132, 192
-0.976019, 145, 81, 176, 144
-0.976162, 145, 81, 272, 144
-0.97637, 141, 145, 172, 272
-0.976454, 233, 89, 296, 152
-0.976465, 85, 33, 116, 160
-0.97654, 209, 25, 336, 88
-0.97663, 1, 97, 128, 160
-0.976697, 225, 73, 352, 136
-0.976738, 125, 65, 156, 192
-0.976746, 345, 129, 408, 256
-0.97683, 217, 145, 248, 272
-0.977465, 369, 129, 432, 256
-0.97768, 257, 49, 320, 176
-0.97775, 81, 1, 144, 128
-0.977757, 41, 217, 104, 280
-0.977863, 41, 65, 104, 320
-0.977879, 249, 145, 280, 208
-0.977936, 145, 201, 208, 264
-0.978039, 433, 129, 496, 256
-0.978051, 161, 129, 192, 256
-0.978181, 261, 1, 292, 128
-0.978316, 257, 121, 384, 184
-0.97832, 329, 161, 392, 224
-0.978517, 177, 185, 304, 248
-0.978683, 265, 145, 328, 208
-0.978733, 225, 129, 256, 192
-0.978755, 77, 113, 108, 240
-0.97886, 45, 97, 76, 224
-0.978875, 113, 201, 240, 264
-0.979023, 169, 97, 200, 160
-0.979053, 145, 209, 208, 333
-0.97911, 265, 73, 328, 136
-0.979111, 57, 193, 88, 256
-0.979124, 69, 73, 100, 136
-0.979148, 185, 153, 216, 216
-0.979297, 197, 201, 228, 264
-0.9793, 405, 185, 436, 248
-0.979362, 245, 177, 276, 304
-0.97937, 109, 65, 140, 192
-0.979509, 297, 49, 328, 176
-0.979905, 1, 185, 128, 248
-0.979917, 193, 209, 256, 272
-0.979925, 193, 129, 320, 192
-0.979995, 305, 105, 368, 168
-0.980071, 157, 113, 188, 176
-0.980101, 265, 9, 296, 72
-0.98011, 273, 1, 336, 256
-0.980125, 273, 169, 400, 232
-0.980139, 441, 185, 472, 248
-0.98021, 233, 193, 296, 320
-0.980315, 305, 33, 432, 160
-0.980327, 237, 137, 268, 200
-0.980398, 85, 49, 116, 112
-0.980446, 193, 73, 256, 136
-0.980459, 137, 185, 168, 248
-0.980557, 153, 161, 184, 224
-0.980623, 113, 177, 144, 240
-0.980659, 285, 161, 316, 224
-0.980659, 121, 201, 152, 264
-0.980663, 57, 1, 120, 333
-0.980677, 393, 129, 456, 256
-0.980688, 241, 193, 304, 256
-0.980737, 145, 57, 272, 120
-0.980793, 177, 177, 208, 240
-0.980823, 173, 81, 204, 208
-0.980884, 317, 97, 348, 224
-0.980886, 185, 129, 216, 192
-0.98089, 89, 105, 152, 168
-0.980908, 297, 145, 360, 272
-0.980932, 93, 185, 124, 248
-0.981173, 225, 161, 352, 224
-0.981176, 129, 17, 192, 144
-0.981206, 97, 161, 128, 288
-0.981226, 137, 121, 168, 184
-0.981286, 45, 161, 76, 224
-0.981349, 49, 97, 176, 160
-0.981412, 257, 1, 320, 333
-0.981448, 249, 17, 280, 80
-0.981508, 417, 185, 448, 248
-0.981618, 429, 185, 460, 248
-0.981668, 25, 209, 88, 333
-0.981679, 209, 137, 240, 200
-0.981697, 169, 89, 232, 152
-0.981698, 17, 201, 80, 264
-0.9817, 33, 73, 96, 136
-0.981815, 113, 137, 144, 200
-0.981822, 177, 65, 240, 320
-0.981854, 241, 17, 272, 144
-0.981866, 105, 49, 168, 112
-0.98193, 17, 65, 80, 320
-0.981945, 217, 1, 280, 333
-0.982078, 305, 73, 368, 136
-0.982145, 317, 97, 348, 160
-0.982201, 225, 209, 352, 333
-0.982282, 361, 145, 424, 208
-0.98229, 65, 49, 192, 112
-0.982311, 97, 81, 224, 144
-0.98232, 281, 145, 312, 272
-0.982381, 1, 137, 128, 200
-0.982467, 41, 97, 72, 160
-0.982503, 81, 209, 208, 333
-0.982507, 89, 73, 152, 136
-0.982516, 349, 145, 380, 208
-0.982546, 45, 137, 76, 200
-0.982557, 129, 169, 256, 232
-0.982572, 153, 137, 184, 200
-0.982655, 349, 129, 380, 256
-0.982772, 293, 49, 324, 112
-0.982789, 33, 217, 160, 280
-0.982841, 261, 145, 292, 272
-0.983091, 165, 161, 196, 224
-0.983119, 137, 1, 200, 333
-0.983151, 17, 17, 144, 144
-0.98318, 173, 137, 204, 200
-0.983287, 53, 161, 84, 288
-0.983356, 229, 249, 260, 312
-0.983403, 117, 177, 148, 304
-0.983452, 77, 137, 108, 200
-0.983715, 81, 193, 112, 320
-0.983726, 289, 169, 352, 232
-0.983732, 177, 177, 208, 304
-0.98375, 129, 73, 160, 136
-0.983776, 209, 241, 272, 304
-0.983803, 337, 137, 368, 200
-0.983911, 441, 177, 472, 304
-0.983926, 273, 1, 304, 128
-0.984034, 237, 105, 268, 168
-0.984065, 137, 145, 168, 208
-0.984157, 337, 81, 464, 208
-0.984287, 461, 185, 492, 248
-0.984309, 65, 161, 96, 288
-0.98431, 221, 65, 252, 192
-0.984371, 89, 89, 120, 152
-0.984433, 33, 97, 64, 224
-0.984436, 57, 113, 88, 176
-0.984468, 97, 49, 128, 176
-0.984478, 77, 209, 108, 272
-0.984479, 241, 233, 272, 296
-0.984567, 229, 161, 260, 288
-0.984586, 241, 169, 272, 232
-0.984648, 389, 185, 420, 248
-0.984682, 105, 1, 168, 333
-0.984747, 321, 177, 448, 240
-0.984799, 301, 81, 332, 144
-0.984819, 177, 105, 304, 168
-0.984873, 289, 129, 352, 192
-0.984883, 185, 33, 248, 160
-0.984898, 237, 49, 268, 112
-0.984918, 345, 185, 408, 248
-0.984947, 161, 209, 288, 272
-0.984971, 57, 209, 88, 333
-0.985088, 9, 89, 72, 152
-0.985126, 401, 161, 464, 224
-0.985159, 105, 33, 136, 96
-0.985178, 149, 185, 180, 248
-0.985181, 333, 129, 364, 256
-0.985244, 265, 25, 328, 88
-0.985333, 421, 177, 452, 304
-0.985343, 145, 193, 176, 320
-0.985374, 197, 121, 228, 184
-0.985417, 129, 193, 160, 320
-0.985547, 325, 129, 356, 192
-0.985548, 201, 177, 232, 240
-0.985639, 257, 193, 320, 320
-0.985666, 469, 193, 500, 320
-0.985667, 153, 33, 216, 160
-0.985673, 25, 1, 88, 333
-0.985769, 337, 177, 400, 304
-0.985794, 277, 25, 308, 88
-0.985949, 193, 273, 320, 333
-0.985974, 297, 169, 328, 232
-0.986171, 153, 33, 184, 160
-0.986172, 233, 225, 296, 288
-0.986247, 161, 241, 288, 304
-0.986266, 257, 185, 288, 248
-0.986305, 17, 49, 144, 112
-0.986383, 237, 73, 268, 136
-0.986436, 409, 177, 440, 304
-0.986444, 1, 145, 64, 272
-0.986492, 321, 65, 384, 320
-0.986495, 69, 177, 100, 240
-0.986528, 181, 105, 212, 168
-0.986668, 221, 153, 252, 216
-0.986726, 21, 105, 52, 168
-0.986989, 397, 177, 428, 304
-0.986997, 353, 145, 480, 208
-0.987049, 73, 33, 104, 160
-0.987181, 293, 145, 324, 272
-0.987183, 321, 49, 384, 176
-0.987221, 453, 177, 484, 304
-0.987307, 201, 265, 264, 328
-0.987341, 17, 113, 48, 240
-0.987392, 377, 185, 408, 248
-0.987438, 229, 273, 260, 333
-0.987579, 113, 65, 144, 128
-0.987579, 57, 217, 88, 280
-0.987585, 57, 169, 88, 232
-0.987786, 129, 89, 384, 152
-0.987787, 109, 17, 140, 144
-0.987854, 285, 33, 316, 160
-0.987939, 157, 177, 188, 304
-0.98797, 281, 1, 344, 333
-0.988038, 305, 97, 336, 224
-0.988063, 69, 209, 100, 333
-0.988082, 261, 97, 292, 224
-0.98817, 57, 17, 120, 144
-0.988196, 137, 273, 200, 333
-0.9882, 209, 25, 272, 88
-0.98823, 385, 177, 416, 304
-0.988329, 25, 273, 88, 333
-0.988372, 425, 161, 488, 224
-0.988422, 289, 65, 416, 128
-0.98844, 365, 161, 396, 288
-0.988465, 169, 65, 232, 128
-0.98849, 81, 129, 144, 160
-0.988493, 361, 169, 392, 232
-0.9885, 185, 81, 216, 208
-0.988534, 241, 21, 304, 52
-0.988585, 57, 117, 120, 148
-0.98862, 161, 129, 416, 192
-0.988636, 297, 273, 360, 333
-0.988662, 257, 121, 320, 184
-0.988691, 209, 241, 336, 304
-0.988694, 153, 141, 216, 172
-0.988741, 257, 169, 320, 200
-0.988754, 117, 41, 148, 104
-0.988775, 329, 113, 392, 176
-0.988788, 5, 113, 36, 240
-0.988818, 305, 41, 368, 104
-0.988857, 113, 149, 176, 180
-0.988863, 65, 137, 320, 200
-0.988877, 9, 113, 40, 176
-0.988955, 225, 185, 352, 248
-0.988967, 433, 209, 496, 272
-0.988968, 145, 113, 208, 144
-0.989069, 129, 65, 384, 128
-0.989097, 161, 181, 224, 212
-0.9891, 201, 49, 264, 112
-0.989115, 277, 185, 308, 248
-0.989125, 133, 217, 164, 280
-0.989165, 89, 197, 152, 228
-0.989169, 25, 105, 88, 136
-0.98918, 49, 205, 112, 236
-0.989207, 193, 129, 256, 160
-0.989217, 169, 1, 232, 333
-0.989255, 353, 81, 416, 208
-0.989281, 89, 181, 152, 212
-0.98934, 305, 89, 432, 152
-0.989376, 9, 49, 72, 176
-0.989454, 33, 89, 288, 152
-0.989469, 425, 189, 488, 220
-0.989484, 193, 1, 256, 333
-0.989488, 145, 169, 208, 200
-0.989492, 409, 273, 472, 333
-0.989501, 205, 177, 236, 304
-0.989513, 129, 33, 256, 96
-0.989527, 185, 201, 216, 264
-0.989532, 225, 141, 288, 172
-0.989539, 145, 197, 208, 228
-0.989547, 233, 165, 296, 196
-0.989554, 237, 65, 268, 192
-0.989569, 89, 169, 152, 200
-0.989585, 289, 41, 416, 104
-0.989633, 129, 49, 192, 112
-0.989635, 409, 209, 472, 272
-0.989643, 289, 17, 352, 80
-0.989653, 273, 273, 336, 333
-0.989662, 1, 113, 256, 176
-0.989708, 57, 141, 120, 172
-0.989715, 201, 181, 264, 212
-0.989734, 125, 121, 156, 184
-0.989745, 13, 153, 44, 216
-0.989784, 369, 209, 496, 272
-0.9899, 49, 173, 112, 204
-0.989909, 201, 81, 232, 208
-0.989914, 49, 129, 112, 160
-0.989916, 113, 113, 144, 176
-0.989935, 329, 273, 392, 333
-0.989939, 121, 125, 184, 156
-0.989955, 217, 193, 248, 320
-0.989988, 401, 185, 464, 216
-0.990018, 57, 145, 88, 208
-0.990037, 81, 57, 144, 88
-0.99006, 177, 153, 240, 184
-0.990067, 209, 113, 240, 176
-0.990138, 353, 121, 416, 184
-0.990154, 273, 181, 336, 212
-0.990159, 89, 161, 120, 224
-0.990195, 201, 141, 264, 172
-0.990204, 17, 121, 80, 152
-0.990216, 105, 209, 168, 240
-0.990245, 161, 129, 224, 160
-0.990258, 33, 121, 64, 184
-0.990294, 225, 153, 288, 184
-0.990295, 81, 209, 144, 240
-0.990305, 169, 193, 232, 224
-0.990317, 49, 193, 112, 224
-0.99032, 193, 169, 448, 232
-0.990333, 257, 157, 320, 188
-0.990346, 129, 81, 192, 112
-0.990374, 105, 77, 168, 108
-0.990385, 241, 273, 304, 333
-0.990397, 121, 161, 184, 192
-0.9905, 113, 173, 176, 204
-0.990514, 57, 161, 120, 192
-0.990531, 257, 1, 384, 64
-0.990543, 157, 65, 188, 128
-0.990559, 17, 149, 80, 180
-0.990582, 329, 105, 360, 168
-0.990608, 169, 205, 232, 236
-0.990625, 169, 169, 232, 200
-0.990625, 121, 185, 184, 216
-0.990627, 121, 197, 184, 228
-0.99063, 201, 153, 264, 184
-0.99063, 393, 201, 456, 232
-0.990641, 201, 165, 264, 196
-0.990641, 97, 41, 352, 104
-0.990688, 165, 185, 196, 248
-0.990689, 81, 45, 144, 76
-0.99069, 89, 209, 120, 272
-0.990691, 249, 33, 312, 64
-0.990715, 177, 141, 240, 172
-0.990717, 237, 25, 268, 88
-0.990719, 249, 145, 312, 176
-0.990748, 17, 137, 80, 168
-0.990782, 281, 169, 344, 200
-0.99081, 233, 177, 296, 208
-0.990824, 281, 105, 344, 136
-0.990875, 293, 137, 324, 200
-0.990876, 49, 105, 112, 136
-0.990941, 193, 109, 256, 140
-0.990958, 321, 113, 384, 144
-0.990963, 1, 161, 256, 224
-0.990987, 65, 85, 128, 116
-0.990988, 361, 185, 424, 216
-0.990992, 45, 193, 76, 256
-0.990998, 33, 217, 96, 248
-0.990998, 17, 225, 80, 288
-0.991043, 25, 189, 88, 220
-0.99105, 129, 265, 256, 328
-0.991069, 153, 153, 216, 184
-0.99108, 65, 73, 128, 104
-0.991086, 129, 209, 192, 240
-0.991091, 145, 101, 208, 132
-0.991096, 1, 113, 500, 176
-0.991121, 57, 41, 120, 104
-0.991129, 273, 129, 304, 192
-0.991163, 169, 117, 232, 148
-0.991168, 105, 137, 168, 168
-0.991177, 273, 85, 336, 116
-0.991225, 313, 141, 376, 172
-0.99125, 17, 165, 80, 196
-0.991253, 329, 89, 392, 152
-0.991254, 305, 1, 368, 128
-0.991287, 121, 113, 184, 144
-0.991303, 461, 129, 492, 256
-0.99131, 49, 273, 112, 333
-0.991313, 33, 41, 96, 104
-0.99132, 289, 125, 352, 156
-0.991328, 225, 217, 352, 280
-0.991347, 73, 221, 136, 252
-0.991367, 241, 265, 368, 328
-0.991369, 321, 165, 384, 196
-0.991383, 25, 93, 88, 124
-0.991384, 25, 153, 56, 216
-0.991449, 97, 161, 352, 224
-0.991472, 381, 129, 412, 256
-0.991505, 233, 101, 296, 132
-0.991521, 1, 153, 500, 216
-0.99153, 129, 137, 192, 168
-0.991544, 273, 73, 336, 104
-0.991547, 1, 109, 64, 140
-0.991583, 225, 73, 288, 104
-0.991587, 233, 49, 296, 80
-0.991588, 217, 89, 248, 152
-0.991591, 261, 129, 292, 192
-0.991607, 105, 65, 168, 96
-0.991611, 193, 193, 256, 224
-0.991645, 425, 65, 488, 320
-0.991658, 201, 225, 264, 256
-0.991663, 81, 141, 144, 172
-0.991671, 265, 57, 328, 88
-0.991677, 173, 73, 204, 136
-0.991709, 353, 273, 416, 333
-0.991723, 161, 1, 288, 64
-0.991736, 213, 177, 244, 240
-0.991737, 353, 149, 416, 180
-0.991744, 229, 225, 260, 288
-0.991768, 225, 61, 288, 92
-0.991794, 101, 73, 132, 136
-0.991806, 373, 145, 404, 208
-0.991822, 225, 89, 288, 120
-0.991822, 425, 201, 488, 232
-0.99184, 305, 73, 368, 104
-0.991854, 97, 117, 160, 148
-0.991856, 33, 65, 288, 128
-0.991873, 41, 145, 72, 272
-0.991897, 73, 49, 104, 112
-0.9919, 225, 117, 288, 148
-0.991919, 321, 193, 448, 320
-0.991921, 337, 121, 464, 184
-0.991922, 133, 17, 164, 144
-0.991938, 193, 89, 256, 120
-0.991941, 217, 129, 280, 160
-0.991941, 385, 273, 448, 333
-0.991942, 281, 193, 344, 320
-0.991951, 337, 81, 368, 208
-0.991962, 233, 189, 296, 220
-0.991973, 169, 105, 232, 136
-0.991999, 245, 257, 276, 320
-0.992003, 17, 177, 80, 208
-0.992052, 25, 289, 88, 320
-0.992053, 225, 201, 256, 264
-0.992059, 257, 45, 320, 76
-0.992066, 41, 229, 104, 260
-0.992104, 89, 157, 152, 188
-0.992115, 201, 237, 264, 268
-0.992146, 89, 125, 120, 156
-0.992179, 101, 165, 132, 196
-0.992203, 189, 177, 220, 208
-0.992216, 193, 65, 256, 96
-0.992229, 49, 173, 176, 204
-0.992245, 137, 281, 200, 312
-0.99225, 285, 169, 316, 200
-0.992262, 201, 1, 264, 64
-0.992264, 105, 221, 168, 252
-0.992275, 297, 93, 360, 124
-0.992276, 241, 225, 304, 256
-0.99229, 249, 169, 280, 200
-0.992298, 321, 153, 384, 184
-0.992314, 273, 161, 304, 192
-0.992315, 169, 93, 232, 124
-0.99232, 201, 33, 264, 64
-0.992332, 209, 213, 272, 244
-0.992335, 1, 97, 64, 128
-0.992343, 361, 169, 424, 200
-0.992346, 81, 273, 208, 333
-0.992359, 1, 1, 64, 333
-0.992366, 297, 57, 360, 88
-0.992374, 153, 113, 184, 144
-0.992384, 197, 141, 228, 172
-0.99241, 245, 141, 276, 172
-0.99242, 209, 297, 272, 328
-0.992446, 249, 133, 312, 164
-0.992446, 369, 65, 432, 320
-0.992463, 313, 129, 376, 160
-0.992463, 261, 17, 292, 48
-0.992466, 257, 1, 384, 128
-0.992477, 113, 225, 240, 288
-0.992494, 241, 9, 304, 40
-0.992501, 281, 153, 344, 184
-0.992518, 401, 285, 464, 316
-0.992519, 369, 205, 432, 236
-0.992525, 169, 81, 232, 112
-0.992536, 177, 217, 240, 248
-0.99254, 197, 201, 228, 232
-0.992541, 97, 265, 160, 328
-0.992541, 81, 25, 208, 88
-0.992548, 289, 45, 352, 76
-0.992549, 101, 129, 132, 160
-0.992553, 173, 169, 204, 200
-0.992564, 69, 113, 100, 144
-0.992571, 121, 25, 184, 88
-0.992575, 45, 73, 76, 136
-0.992575, 261, 173, 292, 204
-0.992586, 253, 153, 284, 184
-0.99259, 429, 185, 460, 216
-0.99259, 377, 209, 440, 272
-0.992591, 249, 281, 312, 312
-0.992601, 185, 141, 216, 172
-0.992605, 141, 149, 172, 180
-0.992607, 233, 157, 264, 188
-0.992621, 209, 141, 240, 172
-0.99263, 409, 185, 440, 216
-0.992641, 341, 141, 372, 172
-0.992649, 337, 273, 464, 333
-0.992651, 189, 157, 220, 188
-0.992665, 229, 137, 260, 168
-0.992675, 189, 189, 220, 220
-0.992677, 149, 193, 180, 224
-0.992692, 173, 197, 204, 228
-0.992693, 53, 49, 84, 176
-0.992698, 97, 1, 128, 128
-0.992698, 69, 209, 100, 240
-0.992701, 45, 101, 76, 132
-0.992703, 173, 133, 204, 164
-0.992705, 153, 157, 184, 188
-0.992709, 197, 129, 228, 160
-0.992716, 241, 249, 304, 312
-0.992737, 133, 197, 164, 228
-0.992742, 57, 213, 88, 244
-0.992746, 297, 173, 328, 204
-0.992752, 153, 133, 184, 164
-0.992754, 177, 181, 208, 212
-0.992757, 441, 189, 472, 220
-0.992764, 277, 97, 308, 224
-0.992768, 81, 185, 112, 248
-0.99277, 121, 209, 152, 240
-0.992774, 273, 177, 304, 208
-0.992779, 313, 113, 344, 144
-0.992798, 325, 109, 356, 140
-0.992804, 89, 209, 120, 240
-0.992807, 249, 25, 280, 56
-0.992807, 57, 105, 88, 136
-0.992812, 201, 189, 232, 220
-0.992813, 161, 93, 192, 124
-0.992815, 113, 181, 144, 212
-0.99282, 169, 109, 200, 140
-0.992822, 241, 229, 272, 260
-0.992826, 33, 101, 64, 132
-0.992832, 245, 193, 276, 256
-0.992834, 49, 249, 112, 312
-0.992844, 121, 145, 152, 176
-0.992848, 237, 53, 268, 84
-0.992858, 49, 181, 80, 212
-0.992866, 61, 173, 92, 204
-0.992869, 93, 193, 124, 224
-0.992877, 457, 189, 488, 220
-0.99288, 161, 177, 192, 208
-0.992884, 201, 153, 232, 184
-0.992892, 69, 225, 100, 256
-0.992898, 137, 185, 168, 216
-0.992898, 113, 65, 144, 96
-0.992905, 293, 69, 324, 100
-0.992907, 185, 129, 216, 160
-0.99291, 249, 121, 280, 184
-0.992911, 317, 97, 348, 128
-0.992912, 397, 185, 428, 216
-0.992926, 97, 181, 128, 212
-0.992926, 201, 177, 232, 208
-0.992927, 65, 85, 96, 116
-0.992932, 353, 161, 384, 192
-0.992947, 113, 97, 176, 160
-0.992948, 249, 181, 280, 212
-0.992949, 73, 129, 104, 160
-0.992951, 77, 73, 108, 104
-0.992952, 405, 201, 436, 232
-0.992953, 121, 157, 152, 188
-0.992954, 49, 161, 80, 192
-0.99296, 161, 193, 192, 224
-0.992961, 45, 217, 76, 280
-0.992964, 273, 21, 304, 52
-0.992968, 141, 209, 172, 240
-0.992975, 181, 117, 212, 148
-0.992975, 233, 81, 264, 112
-0.992983, 281, 149, 312, 180
-0.992986, 221, 153, 252, 184
-0.992989, 45, 145, 76, 176
-0.99299, 237, 177, 268, 208
-0.992991, 41, 113, 72, 144
-0.992994, 141, 137, 172, 168
-0.992997, 45, 129, 76, 160
-0.992999, 237, 241, 268, 272
-0.993001, 305, 93, 336, 124
-0.993004, 129, 169, 160, 200
-0.993011, 237, 97, 268, 128
-0.993014, 285, 181, 316, 212
-0.993017, 285, 45, 316, 76
-0.993018, 149, 177, 180, 208
-0.993019, 113, 197, 144, 228
-0.99302, 69, 197, 100, 228
-0.993029, 81, 221, 112, 252
-0.993034, 225, 233, 256, 264
-0.993053, 145, 81, 176, 112
-0.993055, 185, 205, 216, 236
-0.993059, 69, 233, 100, 296
-0.993059, 329, 133, 360, 164
-0.993065, 169, 121, 200, 152
-0.993066, 265, 149, 296, 180
-0.993067, 385, 185, 416, 216
-0.993077, 89, 141, 120, 172
-0.993081, 125, 77, 156, 108
-0.993082, 241, 41, 272, 72
-0.993083, 293, 57, 324, 88
-0.993095, 57, 225, 88, 256
-0.993098, 213, 181, 244, 212
-0.993099, 17, 117, 48, 148
-0.993107, 101, 37, 132, 68
-0.99311, 409, 161, 440, 224
-0.993126, 157, 205, 188, 236
-0.993129, 133, 125, 164, 156
-0.993133, 277, 33, 308, 64
-0.993133, 57, 197, 88, 228
-0.993136, 33, 185, 160, 216
-0.993139, 237, 301, 268, 332
-0.993142, 237, 65, 268, 96
-0.993143, 237, 125, 268, 156
-0.993143, 113, 133, 144, 164
-0.993147, 217, 129, 248, 160
-0.993151, 141, 113, 172, 144
-0.993158, 97, 17, 352, 80
-0.993159, 429, 201, 460, 232
-0.993159, 121, 221, 152, 252
-0.993162, 113, 181, 240, 212
-0.993163, 157, 145, 188, 176
-0.993164, 317, 125, 348, 156
-0.993172, 125, 181, 156, 212
-0.993176, 233, 281, 264, 312
-0.993184, 345, 65, 408, 320
-0.993272, 117, 225, 148, 288
-0.993291, 113, 193, 240, 224
-0.993292, 49, 197, 176, 228
-0.993295, 193, 161, 320, 192
-0.993359, 1, 265, 64, 328
-0.993381, 1, 209, 64, 333
-0.993382, 437, 129, 468, 256
-0.993401, 265, 193, 328, 256
-0.993405, 257, 145, 500, 208
-0.993465, 73, 233, 136, 296
-0.993468, 1, 177, 32, 240
-0.993515, 313, 1, 376, 333
-0.993517, 33, 137, 160, 168
-0.993523, 209, 61, 336, 92
-0.993531, 421, 161, 452, 224
-0.993554, 1, 117, 128, 148
-0.993579, 1, 73, 128, 136
-0.993627, 81, 161, 208, 192
-0.993645, 321, 201, 448, 264
-0.99366, 121, 17, 152, 144
-0.993686, 405, 129, 436, 256
-0.993696, 217, 225, 248, 288
-0.99372, 393, 129, 424, 256
-0.993724, 33, 1, 96, 128
-0.993727, 167, 89, 182, 152
-0.993731, 33, 265, 160, 328
-0.993742, 129, 41, 160, 104
-0.99376, 193, 41, 448, 104
-0.993762, 185, 233, 248, 296
-0.993812, 145, 97, 272, 128
-0.993815, 225, 101, 352, 132
-0.993835, 195, 169, 210, 232
-0.993905, 161, 145, 288, 176
-0.993918, 369, 113, 400, 240
-0.993946, 115, 129, 130, 192
-0.993957, 1, 177, 500, 240
-0.993966, 145, 157, 272, 188
-0.993969, 209, 49, 336, 80
-0.993989, 353, 1, 416, 333
-0.994, 49, 121, 176, 152
-0.994003, 161, 181, 288, 212
-0.994011, 49, 241, 176, 304
-0.994031, 201, 153, 216, 216
-0.994048, 1, 89, 500, 152
-0.994069, 209, 77, 336, 108
-0.994125, 65, 89, 80, 152
-0.99414, 401, 1, 464, 333
-0.994144, 21, 129, 52, 192
-0.994151, 129, 129, 256, 160
-0.994165, 417, 129, 448, 256
-0.994181, 207, 137, 222, 200
-0.994184, 17, 25, 144, 88
-0.99421, 225, 105, 480, 168
-0.994236, 145, 109, 272, 140
-0.994237, 33, 161, 160, 192
-0.994245, 87, 113, 102, 176
-0.994255, 161, 81, 176, 144
-0.994285, 129, 137, 144, 200
-0.994287, 225, 73, 480, 136
-0.994298, 1, 185, 256, 248
-0.994338, 317, 73, 348, 136
-0.994338, 49, 209, 176, 240
-0.994372, 113, 145, 240, 176
-0.994383, 173, 33, 204, 160
-0.994404, 369, 185, 496, 216
-0.994423, 393, 65, 456, 320
-0.994432, 449, 209, 480, 272
-0.99444, 273, 169, 400, 200
-0.994445, 209, 201, 240, 264
-0.994451, 1, 161, 32, 288
-0.994484, 321, 49, 352, 176
-0.99449, 1, 173, 128, 204
-0.994493, 287, 161, 302, 224
-0.994505, 239, 257, 254, 320
-0.994517, 209, 37, 336, 68
-0.99454, 263, 145, 278, 208
-0.994594, 49, 17, 112, 80
-0.994618, 71, 81, 86, 144
-0.994619, 93, 137, 108, 200
-0.994626, 193, 145, 208, 208
-0.994627, 129, 33, 160, 288
-0.994637, 1, 153, 32, 216
-0.994681, 273, 153, 400, 184
-0.99473, 271, 153, 286, 216
-0.994746, 199, 129, 214, 192
-0.994751, 99, 121, 114, 184
-0.994761, 175, 97, 190, 160
-0.99477, 65, 81, 192, 112
-0.994774, 225, 121, 352, 152
-0.994804, 107, 129, 122, 192
-0.994852, 249, 81, 280, 208
-0.994876, 97, 1, 128, 256
-0.994899, 253, 17, 268, 80
-0.994913, 425, 1, 488, 333
-0.994935, 409, 185, 424, 248
-0.994952, 45, 209, 76, 333
-0.994959, 209, 89, 336, 120
-0.994976, 181, 169, 196, 232
-0.994996, 153, 81, 168, 144
-0.995036, 61, 185, 76, 248
-0.995038, 277, 161, 292, 224
-0.995063, 175, 169, 190, 232
-0.995066, 97, 117, 224, 148
-0.995119, 59, 137, 74, 200
-0.995123, 113, 209, 240, 240
-0.995124, 49, 69, 176, 100
-0.995152, 243, 233, 258, 296
-0.995156, 125, 185, 140, 248
-0.995176, 253, 137, 268, 200
-0.995177, 449, 129, 480, 256
-0.995196, 89, 201, 104, 264
-0.995212, 433, 233, 496, 296
-0.995212, 169, 257, 232, 320
-0.995217, 203, 177, 218, 240
-0.995234, 245, 137, 260, 200
-0.995236, 289, 273, 416, 333
-0.995259, 49, 149, 176, 180
-0.995267, 447, 185, 462, 248
-0.995269, 257, 137, 384, 168
-0.995279, 369, 201, 496, 232
-0.995282, 145, 85, 272, 116
-0.995285, 61, 161, 76, 224
-0.995302, 159, 105, 174, 168
-0.995307, 225, 173, 352, 204
-0.995308, 167, 129, 182, 192
-0.995319, 145, 73, 272, 104
-0.99535, 239, 145, 254, 208
-0.995381, 241, 49, 256, 112
-0.995392, 131, 193, 146, 256
-0.995413, 69, 193, 84, 256
-0.995416, 241, 1, 272, 256
-0.995417, 1, 209, 128, 240
-0.995431, 81, 113, 96, 176
-0.995432, 103, 161, 118, 224
-0.995453, 1, 241, 128, 304
-0.995453, 45, 97, 60, 160
-0.995455, 293, 161, 308, 224
-0.995455, 117, 33, 148, 288
-0.995457, 213, 145, 228, 208
-0.995468, 305, 57, 320, 120
-0.995469, 77, 73, 92, 136
-0.99551, 187, 185, 202, 248
-0.995527, 117, 161, 132, 224
-0.995535, 233, 209, 264, 333
-0.995544, 77, 33, 108, 288
-0.995556, 137, 185, 152, 248
-0.995598, 1, 65, 500, 128
-0.995611, 267, 9, 282, 72
-0.99562, 81, 105, 208, 136
-0.995635, 97, 201, 352, 264
-0.995641, 121, 137, 136, 200
-0.995644, 315, 89, 330, 152
-0.995647, 393, 249, 456, 312
-0.995662, 455, 185, 470, 248
-0.995669, 137, 249, 200, 312
-0.995671, 143, 153, 158, 216
-0.995684, 209, 141, 336, 172
-0.995692, 419, 185, 434, 248
-0.995694, 237, 233, 252, 296
-0.995695, 177, 193, 304, 224
-0.995707, 353, 137, 368, 200
-0.995728, 135, 145, 150, 208
-0.99576, 143, 177, 158, 240
-0.995764, 145, 169, 272, 200
-0.995765, 433, 257, 496, 320
-0.995798, 435, 185, 450, 248
-0.995825, 233, 137, 248, 200
-0.995832, 59, 89, 74, 152
-0.995844, 301, 161, 316, 224
-0.995845, 153, 121, 168, 184
-0.995866, 1, 209, 256, 272
-0.995867, 143, 73, 158, 136
-0.995869, 187, 137, 202, 200
-0.995873, 35, 105, 50, 168
-0.99589, 1, 65, 32, 192
-0.995891, 145, 65, 176, 320
-0.995901, 327, 97, 342, 160
-0.995913, 245, 273, 260, 333
-0.995917, 377, 1, 440, 333
-0.995926, 73, 273, 136, 333
-0.99594, 33, 221, 160, 252
-0.995947, 177, 129, 304, 160
-0.995956, 193, 21, 320, 52
-0.995962, 61, 209, 76, 272
-0.995962, 81, 133, 208, 164
-0.995998, 229, 65, 260, 320
-0.996008, 53, 113, 68, 176
-0.996018, 261, 1, 292, 256
-0.996025, 93, 113, 108, 176
-0.996026, 425, 185, 440, 248
-0.996032, 363, 153, 378, 216
-0.996041, 193, 121, 208, 184
-0.996042, 153, 145, 168, 208
-0.996044, 1, 105, 128, 136
-0.996069, 441, 185, 456, 248
-0.996081, 307, 169, 322, 232
-0.996087, 239, 113, 254, 176
-0.996091, 79, 201, 94, 264
-0.996099, 89, 49, 104, 112
-0.996122, 295, 41, 310, 104
-0.996139, 197, 201, 212, 264
-0.996145, 123, 41, 138, 104
-0.996145, 281, 1, 312, 256
-0.996154, 105, 241, 168, 304
-0.996158, 137, 225, 200, 288
-0.996166, 403, 185, 418, 248
-0.996174, 97, 185, 112, 248
-0.996189, 205, 201, 220, 264
-0.99619, 253, 161, 268, 224
-0.9962, 397, 185, 412, 248
-0.996212, 285, 25, 300, 88
-0.996216, 193, 17, 448, 80
-0.996239, 41, 49, 72, 176
-0.996245, 285, 193, 316, 320
-0.996252, 337, 129, 352, 192
-0.996253, 369, 241, 496, 304
-0.996265, 297, 33, 328, 288
-0.996273, 369, 169, 384, 232
-0.996275, 161, 225, 224, 288
-0.996285, 53, 137, 68, 200
-0.996302, 241, 21, 368, 52
-0.996308, 267, 185, 282, 248
-0.99631, 173, 129, 188, 192
-0.996324, 175, 73, 190, 136
-0.996361, 321, 97, 336, 160
-0.996364, 245, 161, 260, 224
-0.996373, 273, 9, 288, 72
-0.996378, 155, 185, 170, 248
-0.996386, 169, 169, 184, 232
-0.996407, 333, 105, 348, 168
-0.996407, 1, 197, 128, 228
-0.99641, 347, 137, 362, 200
-0.996415, 261, 9, 276, 72
-0.996421, 137, 73, 152, 136
-0.996432, 75, 113, 90, 176
-0.996433, 369, 249, 432, 312
-0.996438, 209, 177, 224, 240
-0.996462, 249, 233, 264, 296
-0.996465, 185, 65, 216, 320
-0.996465, 289, 97, 320, 224
-0.996484, 465, 185, 480, 248
-0.996485, 111, 161, 126, 224
-0.996492, 149, 185, 164, 248
-0.996513, 209, 1, 336, 64
-0.996519, 273, 177, 400, 304
-0.996529, 117, 33, 132, 96
-0.99653, 137, 217, 152, 280
-0.996531, 21, 113, 36, 176
-0.996544, 97, 17, 160, 80
-0.996553, 91, 121, 106, 152
-0.996558, 25, 153, 40, 216
-0.996566, 239, 73, 254, 136
-0.996571, 53, 169, 68, 232
-0.996587, 139, 121, 154, 184
-0.996592, 129, 161, 144, 224
-0.996603, 181, 105, 196, 168
-0.996603, 163, 153, 178, 216
-0.996604, 1, 149, 128, 180
-0.996643, 311, 65, 326, 128
-0.996649, 145, 113, 160, 176
-0.996651, 159, 129, 174, 192
-0.996688, 247, 33, 262, 96
-0.996697, 305, 177, 336, 304
-0.996706, 69, 113, 84, 176
-0.996712, 161, 209, 288, 240
-0.99673, 187, 161, 202, 224
-0.996782, 257, 193, 500, 256
-0.996793, 321, 185, 448, 216
-0.996807, 353, 209, 416, 272
-0.99688, 165, 65, 196, 320
-0.996887, 205, 141, 220, 172
-0.996917, 349, 81, 380, 208
-0.996939, 305, 113, 432, 144
-0.99695, 145, 61, 272, 92
-0.996959, 225, 185, 352, 216
-0.996968, 337, 149, 464, 180
-0.996968, 65, 33, 96, 288
-0.996975, 1, 41, 500, 104
-0.996993, 21, 65, 52, 192
-0.997, 199, 141, 214, 172
-0.997006, 289, 89, 416, 120
-0.99705, 49, 93, 176, 124
-0.99712, 333, 113, 348, 144
-0.997133, 181, 169, 196, 200
-0.997152, 101, 125, 116, 156
-0.997156, 203, 177, 218, 208
-0.997163, 1, 201, 500, 264
-0.997169, 161, 273, 288, 304
-0.99719, 61, 161, 76, 192
-0.997205, 323, 109, 338, 140
-0.99724, 321, 249, 384, 312
-0.997251, 289, 73, 416, 104
-0.997254, 65, 57, 192, 88
-0.997274, 277, 161, 292, 192
-0.997283, 305, 249, 432, 312
-0.997293, 37, 65, 68, 320
-0.997332, 247, 165, 262, 196
-0.997332, 345, 249, 408, 312
-0.997352, 313, 89, 328, 120
-0.997353, 203, 193, 218, 224
-0.997359, 273, 41, 400, 72
-0.99736, 299, 169, 314, 200
-0.997373, 89, 213, 104, 244
-0.997385, 205, 65, 236, 320
-0.9974, 253, 25, 268, 56
-0.997403, 309, 33, 340, 160
-0.99741, 261, 145, 276, 176
-0.997413, 255, 169, 270, 200
-0.99743, 81, 221, 208, 252
-0.997436, 211, 141, 226, 172
-0.997455, 159, 113, 174, 144
-0.997458, 239, 233, 254, 264
-0.997458, 45, 101, 60, 132
-0.99747, 203, 129, 218, 160
-0.99747, 129, 221, 256, 252
-0.997472, 17, 289, 144, 320
-0.997477, 129, 141, 144, 172
-0.997478, 161, 241, 288, 272
-0.997483, 243, 49, 258, 80
-0.997487, 273, 201, 400, 264
-0.997499, 209, 277, 336, 308
-0.997509, 201, 153, 216, 184
-0.997518, 353, 173, 480, 204
-0.997539, 103, 165, 118, 196
-0.997548, 69, 89, 84, 120
-0.99755, 265, 173, 280, 204
-0.997577, 193, 137, 208, 168
-0.997583, 171, 109, 186, 140
-0.997588, 137, 145, 152, 176
-0.997594, 239, 249, 254, 280
-0.997599, 317, 65, 348, 320
-0.997606, 289, 169, 304, 200
-0.997609, 249, 301, 264, 332
-0.997621, 35, 105, 50, 136
-0.997621, 193, 161, 208, 192
-0.997624, 263, 13, 278, 44
-0.997628, 195, 193, 210, 224
-0.997649, 271, 173, 286, 204
-0.997656, 201, 205, 216, 236
-0.997662, 443, 185, 458, 216
-0.997666, 239, 265, 254, 296
-0.997667, 253, 141, 268, 172
-0.997669, 129, 189, 144, 220
-0.997673, 161, 285, 288, 316
-0.99768, 17, 57, 144, 88
-0.997681, 137, 201, 152, 232
-0.997687, 359, 145, 374, 176
-0.997688, 89, 133, 104, 164
-0.997697, 451, 189, 466, 220
-0.997701, 249, 229, 264, 260
-0.997706, 153, 153, 168, 184
-0.997711, 419, 185, 434, 216
-0.997717, 177, 101, 192, 132
-0.997728, 295, 41, 310, 72
-0.997728, 289, 249, 352, 312
-0.997735, 83, 117, 98, 148
-0.99774, 319, 93, 334, 124
-0.997741, 169, 93, 184, 124
-0.99775, 59, 97, 74, 128
-0.997751, 191, 173, 206, 204
-0.997754, 53, 109, 68, 140
-0.997755, 409, 185, 424, 216
-0.997757, 307, 173, 322, 204
-0.997759, 269, 153, 284, 184
-0.997762, 307, 69, 322, 100
-0.997764, 431, 185, 446, 216
-0.997768, 463, 185, 478, 216
-0.997768, 165, 113, 180, 144
-0.997774, 353, 141, 368, 172
-0.997776, 209, 181, 224, 212
-0.99778, 61, 213, 76, 244
-0.997784, 61, 173, 76, 204
-0.997791, 197, 181, 212, 212
-0.997807, 111, 161, 126, 192
-0.997808, 183, 181, 198, 212
-0.997818, 65, 45, 192, 76
-0.997821, 285, 25, 300, 56
-0.997823, 153, 113, 168, 144
-0.997824, 209, 193, 224, 224
-0.997825, 81, 229, 96, 260
-0.997834, 57, 145, 72, 176
-0.997834, 175, 169, 190, 200
-0.997836, 277, 17, 292, 48
-0.99784, 273, 181, 400, 212
-0.997859, 71, 217, 86, 248
-0.997862, 305, 101, 432, 132
-0.997864, 283, 161, 298, 192
-0.997865, 99, 177, 114, 208
-0.997866, 165, 129, 180, 160
-0.997879, 67, 109, 82, 140
-0.997884, 29, 209, 60, 333
-0.997885, 119, 169, 134, 200
-0.997889, 33, 233, 160, 264
-0.997904, 289, 53, 416, 84
-0.997904, 253, 157, 268, 188
-0.997908, 425, 185, 440, 216
-0.997915, 479, 193, 494, 224
-0.997915, 457, 185, 472, 216
-0.997917, 131, 205, 146, 236
-0.99792, 159, 157, 174, 188
-0.997921, 347, 141, 362, 172
-0.997926, 161, 33, 288, 64
-0.997936, 277, 177, 292, 208
-0.997936, 135, 185, 150, 216
-0.997941, 363, 157, 378, 188
-0.997943, 239, 117, 254, 148
-0.997951, 317, 105, 332, 136
-0.997953, 113, 133, 128, 164
-0.997957, 337, 137, 464, 168
-0.99796, 369, 169, 384, 200
-0.997964, 95, 193, 110, 224
-0.997966, 147, 153, 162, 184
-0.997968, 195, 209, 210, 240
-0.997971, 107, 129, 122, 160
-0.997975, 437, 185, 452, 216
-0.997976, 247, 141, 262, 172
-0.997977, 79, 205, 94, 236
-0.997978, 53, 169, 68, 200
-0.997983, 237, 77, 252, 108
-0.997988, 249, 177, 264, 208
-0.997994, 353, 161, 480, 192
-0.997998, 241, 281, 256, 312
-0.998, 231, 137, 246, 168
-0.998001, 209, 241, 336, 272
-0.998001, 83, 217, 98, 248
-0.998003, 485, 201, 500, 232
-0.998014, 145, 205, 160, 236
-0.998025, 209, 129, 224, 160
-0.998026, 61, 185, 76, 216
-0.99803, 335, 133, 350, 164
-0.998032, 249, 41, 264, 72
-0.998035, 49, 65, 80, 320
-0.998037, 129, 273, 384, 333
-0.99804, 167, 161, 182, 192
-0.998042, 189, 193, 204, 224
-0.998044, 121, 137, 136, 168
-0.998048, 289, 157, 304, 188
-0.99805, 177, 189, 192, 220
-0.998052, 403, 185, 418, 216
-0.998054, 95, 133, 110, 164
-0.998054, 143, 169, 158, 200
-0.99806, 301, 53, 316, 84
-0.998064, 261, 161, 276, 192
-0.998073, 1, 65, 32, 320
-0.998087, 17, 45, 144, 76
-0.998104, 1, 93, 128, 124
-0.998105, 241, 265, 368, 296
-0.998123, 209, 217, 336, 248
-0.998134, 1, 41, 256, 104
-0.998162, 161, 261, 288, 292
-0.998164, 321, 125, 448, 156
-0.998168, 97, 69, 224, 100
-0.9982, 145, 49, 272, 80
-0.998204, 25, 65, 56, 320
-0.998212, 13, 161, 44, 288
-0.998212, 9, 65, 72, 128
-0.998228, 193, 301, 320, 332
-0.998237, 9, 209, 40, 333
-0.998245, 305, 297, 432, 328
-0.998284, 297, 1, 328, 128
-0.998311, 1, 17, 500, 80
-0.998348, 273, 125, 400, 156
-0.998371, 57, 133, 120, 148
-0.998372, 369, 213, 496, 244
-0.998388, 321, 205, 448, 236
-0.998389, 217, 65, 248, 320
-0.99839, 329, 65, 360, 320
-0.998401, 81, 137, 144, 152
-0.998403, 81, 285, 208, 316
-0.998406, 89, 213, 120, 228
-0.998407, 93, 139, 124, 154
-0.998407, 65, 219, 96, 234
-0.998408, 145, 157, 176, 172
-0.998408, 225, 229, 352, 260
-0.998408, 449, 189, 480, 204
-0.998408, 465, 195, 496, 210
-0.998408, 145, 213, 176, 228
-0.998409, 73, 83, 104, 98
-0.99841, 201, 209, 232, 224
-0.998412, 93, 187, 124, 202
-0.998412, 153, 165, 184, 180
-0.998412, 253, 145, 284, 160
-0.998413, 113, 157, 144, 172
-0.998413, 221, 137, 252, 152
-0.998416, 117, 75, 148, 90
-0.998416, 137, 185, 168, 200
-0.998417, 85, 225, 116, 240
-0.998417, 161, 183, 224, 198
-0.998418, 109, 183, 140, 198
-0.998418, 185, 153, 216, 168
-0.998418, 77, 119, 108, 134
-0.998419, 309, 179, 340, 194
-0.998419, 53, 219, 84, 234
-0.99842, 177, 177, 208, 192
-0.99842, 305, 109, 336, 124
-0.998421, 41, 187, 72, 202
-0.998421, 61, 151, 92, 166
-0.998421, 65, 129, 96, 144
-0.998422, 229, 229, 260, 244
-0.998422, 37, 159, 68, 174
-0.998423, 237, 99, 268, 114
-0.998424, 233, 179, 264, 194
-0.998424, 229, 159, 260, 174
-0.998425, 293, 65, 324, 80
-0.998425, 69, 213, 100, 228
-0.998425, 273, 179, 304, 194
-0.998425, 241, 27, 304, 42
-0.998426, 25, 161, 56, 176
-0.998426, 205, 185, 236, 200
-0.998427, 113, 205, 144, 220
-0.998427, 181, 201, 212, 216
-0.99843, 21, 119, 52, 134
-0.998432, 249, 25, 280, 40
-0.998432, 169, 109, 200, 124
-0.998433, 149, 191, 180, 206
-0.998435, 133, 213, 164, 228
-0.998436, 49, 173, 80, 188
-0.998437, 229, 239, 260, 254
-0.998437, 153, 131, 184, 146
-0.998438, 273, 167, 304, 182
-0.998442, 133, 81, 164, 96
-0.998442, 49, 143, 80, 158
-0.998444, 173, 207, 204, 222
-0.998444, 429, 187, 460, 202
-0.998444, 121, 205, 184, 220
-0.998444, 349, 159, 380, 174
-0.998444, 269, 185, 300, 200
-0.998445, 145, 115, 208, 130
-0.998445, 173, 135, 204, 150
-0.998445, 241, 235, 272, 250
-0.998446, 237, 53, 268, 68
-0.998446, 57, 123, 120, 138
-0.998447, 121, 211, 184, 226
-0.998448, 185, 131, 216, 146
-0.998448, 149, 205, 180, 220
-0.998448, 253, 157, 284, 172
-0.99845, 201, 193, 232, 208
-0.998451, 45, 121, 76, 136
-0.998451, 469, 205, 500, 220
-0.998452, 89, 185, 152, 200
-0.998454, 33, 113, 96, 128
-0.998454, 197, 137, 228, 152
-0.998454, 157, 181, 188, 196
-0.998454, 261, 173, 292, 188
-0.998457, 141, 151, 172, 166
-0.998458, 93, 193, 124, 208
-0.998458, 49, 207, 112, 222
-0.998459, 201, 181, 264, 196
-0.998459, 133, 191, 164, 206
-0.99846, 133, 199, 164, 214
-0.998462, 145, 141, 208, 156
-0.998462, 249, 169, 280, 184
-0.998462, 61, 113, 92, 128
-0.998462, 25, 107, 88, 122
-0.998463, 61, 163, 92, 178
-0.998464, 241, 21, 304, 36
-0.998465, 77, 231, 108, 246
-0.998466, 255, 129, 270, 256
-0.998467, 93, 203, 124, 218
-0.998467, 289, 183, 320, 198
-0.998467, 433, 201, 496, 216
-0.998468, 233, 87, 264, 102
-0.998468, 129, 147, 160, 162
-0.998468, 101, 161, 132, 176
-0.998468, 213, 155, 244, 170
-0.998469, 121, 217, 152, 232
-0.99847, 73, 201, 104, 216
-0.998471, 241, 181, 304, 196
-0.998472, 193, 155, 256, 170
-0.998473, 317, 107, 348, 122
-0.998474, 49, 167, 80, 182
-0.998474, 197, 203, 228, 218
-0.998475, 89, 205, 152, 220
-0.998476, 57, 143, 120, 158
-0.998476, 161, 189, 224, 204
-0.998476, 341, 143, 372, 158
-0.998478, 257, 175, 320, 190
-0.998479, 49, 191, 112, 206
-0.99848, 413, 203, 444, 218
-0.99848, 89, 199, 152, 214
-0.99848, 33, 107, 64, 122
-0.99848, 273, 181, 336, 196
-0.998481, 193, 137, 256, 152
-0.998481, 249, 163, 312, 178
-0.998481, 145, 199, 208, 214
-0.998481, 65, 225, 96, 240
-0.998481, 17, 121, 80, 136
-0.998482, 301, 93, 332, 108
-0.998482, 89, 213, 152, 228
-0.998485, 185, 207, 216, 222
-0.998487, 145, 115, 176, 130
-0.99849, 153, 149, 216, 164
-0.998491, 237, 63, 268, 78
-0.998491, 209, 149, 240, 164
-0.998492, 49, 149, 80, 164
-0.998492, 233, 157, 296, 172
-0.998492, 73, 207, 104, 222
-0.998493, 285, 169, 316, 184
-0.998493, 181, 187, 212, 202
-0.998495, 157, 113, 188, 128
-0.998497, 425, 203, 456, 218
-0.998497, 97, 169, 160, 184
-0.998499, 161, 177, 224, 192
-0.998499, 461, 189, 492, 204
-0.998502, 37, 113, 68, 128
-0.998502, 137, 181, 200, 196
-0.998505, 241, 163, 272, 178
-0.998505, 57, 173, 120, 188
-0.998506, 45, 101, 76, 116
-0.998506, 185, 141, 216, 156
-0.998508, 105, 81, 168, 96
-0.998508, 65, 135, 96, 150
-0.998509, 173, 171, 204, 186
-0.998511, 241, 143, 272, 158
-0.998512, 241, 33, 304, 48
-0.998513, 401, 203, 464, 218
-0.998513, 325, 113, 356, 128
-0.998516, 145, 205, 208, 220
-0.998517, 57, 117, 120, 132
-0.998517, 145, 171, 208, 186
-0.998518, 93, 127, 124, 142
-0.998518, 249, 41, 312, 56
-0.998519, 185, 131, 248, 146
-0.998519, 53, 107, 84, 122
-0.99852, 113, 149, 176, 164
-0.998521, 203, 129, 218, 256
-0.998521, 57, 213, 120, 228
-0.998521, 189, 193, 220, 208
-0.998524, 89, 179, 152, 194
-0.998524, 195, 129, 210, 256
-0.998524, 89, 193, 152, 208
-0.998526, 297, 177, 328, 192
-0.998526, 133, 207, 164, 222
-0.998526, 97, 163, 160, 178
-0.998528, 257, 183, 288, 198
-0.998531, 113, 217, 176, 232
-0.998532, 217, 149, 280, 164
-0.998532, 57, 165, 120, 180
-0.998532, 113, 179, 176, 194
-0.998533, 33, 135, 96, 150
-0.998534, 49, 179, 112, 194
-0.998534, 45, 131, 76, 146
-0.998534, 9, 115, 72, 130
-0.998534, 169, 183, 200, 198
-0.998536, 197, 143, 228, 158
-0.998538, 265, 161, 296, 176
-0.998539, 49, 185, 112, 200
-0.99854, 265, 169, 328, 184
-0.99854, 201, 187, 264, 202
-0.998541, 169, 207, 232, 222
-0.998542, 1, 69, 128, 100
-0.998543, 185, 149, 248, 164
-0.998543, 233, 173, 296, 188
-0.998545, 253, 151, 284, 166
-0.998546, 25, 169, 88, 184
-0.998546, 217, 165, 280, 180
-0.998547, 217, 141, 280, 156
-0.998552, 113, 157, 176, 172
-0.998552, 121, 191, 184, 206
-0.998553, 81, 131, 144, 146
-0.998553, 49, 201, 112, 216
-0.998553, 189, 179, 220, 194
-0.998553, 101, 113, 116, 240
-0.998554, 121, 135, 184, 150
-0.998555, 245, 181, 276, 196
-0.998558, 89, 143, 152, 158
-0.998559, 193, 123, 256, 138
-0.998559, 345, 65, 376, 320
-0.998559, 49, 223, 112, 238
-0.99856, 169, 199, 232, 214
-0.998562, 17, 81, 144, 112
-0.998563, 153, 155, 216, 170
-0.998565, 49, 155, 80, 170
-0.998566, 113, 233, 240, 264
-0.998568, 145, 135, 208, 150
-0.998569, 101, 173, 132, 188
-0.99857, 33, 129, 96, 144
-0.998572, 153, 65, 168, 192
-0.998573, 217, 1, 248, 128
-0.998573, 169, 141, 232, 156
-0.998574, 73, 221, 136, 236
-0.998574, 129, 165, 192, 180
-0.998575, 65, 75, 128, 90
-0.998575, 281, 109, 344, 124
-0.998575, 353, 285, 480, 316
-0.998578, 201, 175, 264, 190
-0.998578, 193, 143, 256, 158
-0.998579, 145, 109, 208, 124
-0.998579, 197, 151, 228, 166
-0.998579, 81, 51, 144, 66
-0.998581, 121, 143, 184, 158
-0.998581, 57, 157, 120, 172
-0.998582, 169, 171, 232, 186
-0.998583, 265, 77, 328, 92
-0.998586, 409, 187, 472, 202
-0.998587, 105, 123, 168, 138
-0.998589, 65, 85, 128, 100
-0.998589, 17, 151, 80, 166
-0.998589, 101, 167, 132, 182
-0.998589, 17, 143, 80, 158
-0.998592, 105, 135, 136, 150
-0.998592, 433, 191, 496, 206
-0.998593, 265, 67, 328, 82
-0.998593, 201, 229, 264, 244
-0.998593, 153, 129, 216, 144
-0.998593, 281, 123, 344, 138
-0.998594, 137, 217, 200, 232
-0.998596, 193, 111, 256, 126
-0.998596, 57, 91, 120, 106
-0.998598, 145, 211, 208, 226
-0.998601, 17, 187, 80, 202
-0.998601, 9, 137, 72, 152
-0.998602, 81, 57, 144, 72
-0.998602, 105, 129, 168, 144
-0.998603, 17, 159, 80, 174
-0.998603, 225, 87, 288, 102
-0.998603, 257, 55, 320, 70
-0.998604, 9, 127, 72, 142
-0.998605, 249, 47, 312, 62
-0.998605, 153, 123, 216, 138
-0.998606, 225, 121, 288, 136
-0.998606, 225, 75, 288, 90
-0.998607, 121, 199, 184, 214
-0.998607, 313, 141, 376, 156
-0.998608, 185, 193, 248, 208
-0.998612, 273, 97, 336, 112
-0.998612, 273, 91, 336, 106
-0.998612, 161, 9, 288, 40
-0.998613, 89, 75, 152, 90
-0.998614, 81, 69, 144, 84
-0.998614, 297, 181, 360, 196
-0.998615, 193, 161, 256, 176
-0.998615, 305, 113, 368, 128
-0.998616, 193, 187, 224, 202
-0.998617, 1, 109, 64, 124
-0.998617, 225, 65, 288, 80
-0.998618, 193, 199, 256, 214
-0.998618, 281, 175, 344, 190
-0.998639, 245, 161, 260, 288
-0.998648, 85, 133, 116, 148
-0.998653, 147, 65, 162, 192
-0.998653, 257, 9, 384, 40
-0.998662, 1, 233, 256, 296
-0.998668, 113, 297, 240, 328
-0.998671, 261, 17, 292, 32
-0.9987, 163, 65, 178, 192
-0.998702, 261, 129, 276, 256
-0.998714, 125, 129, 140, 256
-0.998714, 97, 33, 224, 64
-0.998724, 353, 273, 480, 304
-0.998744, 189, 129, 204, 256
-0.998761, 257, 301, 384, 332
-0.998765, 209, 129, 224, 256
-0.998772, 33, 277, 160, 308
-0.998774, 107, 113, 122, 240
-0.998799, 135, 129, 150, 256
-0.998817, 139, 65, 154, 192
-0.998834, 77, 65, 92, 192
-0.998853, 167, 113, 182, 240
-0.998855, 173, 113, 188, 240
-0.998864, 247, 209, 262, 333
-0.998865, 225, 273, 480, 333
-0.998869, 133, 65, 148, 192
-0.998877, 153, 113, 168, 240
-0.99888, 119, 129, 134, 256
-0.998886, 209, 289, 336, 320
-0.99889, 209, 253, 336, 284
-0.998891, 179, 129, 194, 256
-0.998891, 141, 145, 156, 272
-0.998899, 83, 49, 98, 176
-0.998919, 241, 33, 256, 160
-0.998931, 97, 93, 224, 124
-0.998932, 91, 33, 106, 160
-0.998946, 265, 1, 328, 64
-0.998948, 253, 177, 268, 304
-0.998951, 113, 129, 128, 256
-0.998952, 169, 65, 184, 192
-0.998953, 127, 49, 142, 176
-0.998957, 1, 273, 500, 333
-0.99896, 159, 113, 174, 240
-0.998968, 29, 145, 60, 272
-0.998969, 99, 161, 114, 288
-0.998977, 265, 1, 280, 128
-0.99898, 17, 301, 144, 332
-0.998986, 305, 285, 432, 316
-0.998992, 239, 113, 254, 240
-0.998993, 95, 113, 110, 240
-0.999, 147, 145, 162, 272
-0.999009, 145, 21, 272, 52
-0.999012, 199, 177, 214, 304
-0.999012, 107, 33, 122, 160
-0.999022, 113, 269, 240, 300
-0.999027, 273, 201, 400, 232
-0.999031, 239, 177, 254, 304
-0.999031, 61, 161, 76, 288
-0.999039, 89, 129, 104, 256
-0.999041, 91, 193, 106, 320
-0.999045, 215, 129, 230, 256
-0.999055, 297, 145, 312, 272
-0.999055, 67, 65, 82, 192
-0.999059, 275, 1, 290, 128
-0.999061, 61, 97, 76, 224
-0.999078, 175, 65, 190, 192
-0.99908, 101, 33, 116, 160
-0.999082, 315, 81, 330, 208
-0.999082, 355, 129, 370, 256
-0.999102, 67, 145, 82, 272
-0.999112, 17, 33, 144, 64
-0.999121, 145, 209, 160, 333
-0.999125, 125, 177, 140, 304
-0.999128, 135, 209, 150, 333
-0.999131, 53, 97, 68, 224
-0.999133, 113, 65, 128, 192
-0.999133, 225, 145, 240, 272
-0.999137, 293, 33, 308, 160
-0.999139, 247, 113, 262, 240
-0.99914, 485, 193, 500, 320
-0.999143, 267, 129, 282, 256
-0.99915, 325, 97, 340, 224
-0.99916, 121, 49, 136, 176
-0.999164, 285, 17, 300, 144
-0.999165, 85, 209, 100, 333
-0.999172, 343, 129, 358, 256
-0.999178, 233, 113, 248, 240
-0.99918, 33, 97, 48, 224
-0.999182, 77, 209, 92, 333
-0.999183, 369, 297, 496, 328
-0.999191, 477, 177, 492, 304
-0.999195, 153, 161, 168, 288
-0.9992, 309, 65, 324, 192
-0.9992, 209, 177, 224, 304
-0.999215, 463, 177, 478, 304
-0.999216, 453, 177, 468, 304
-0.999216, 377, 65, 408, 320
-0.999217, 1, 265, 256, 328
-0.999218, 185, 81, 200, 208
-0.999219, 303, 49, 318, 176
-0.999223, 45, 97, 60, 224
-0.999235, 409, 177, 424, 304
-0.999235, 419, 177, 434, 304
-0.999245, 349, 129, 364, 256
-0.999248, 251, 17, 266, 144
-0.999252, 25, 113, 40, 240
-0.999255, 15, 113, 30, 240
-0.999257, 437, 177, 452, 304
-0.999258, 259, 1, 274, 128
-0.999259, 431, 177, 446, 304
-0.999267, 283, 145, 298, 272
-0.999268, 363, 145, 378, 272
-0.99927, 195, 81, 210, 208
-0.999281, 13, 65, 44, 320
-0.999283, 233, 65, 248, 192
-0.999283, 305, 225, 432, 288
-0.999283, 191, 177, 206, 304
-0.999284, 371, 161, 386, 288
-0.999288, 257, 241, 384, 304
-0.999292, 1, 225, 500, 288
-0.999293, 71, 209, 86, 333
-0.999294, 33, 1, 160, 64
-0.999295, 277, 145, 292, 272
-0.999296, 39, 97, 54, 224
-0.999297, 89, 81, 104, 208
-0.999302, 403, 177, 418, 304
-0.999303, 469, 65, 500, 320
-0.999303, 443, 177, 458, 304
-0.999305, 177, 229, 304, 260
-0.999309, 469, 177, 484, 304
-0.999315, 159, 161, 174, 288
-0.999316, 337, 129, 352, 256
-0.999322, 83, 113, 98, 240
-0.99933, 353, 261, 480, 292
-0.999338, 397, 177, 412, 304
-0.999342, 425, 177, 440, 304
-0.999357, 105, 161, 120, 288
-0.999358, 389, 65, 420, 320
-0.999385, 303, 145, 318, 272
-0.999391, 381, 177, 396, 304
-0.999396, 117, 1, 132, 128
-0.999397, 391, 177, 406, 304
-0.999404, 97, 225, 352, 288
-0.999405, 331, 97, 346, 224
-0.999407, 55, 145, 70, 272
-0.999407, 357, 65, 388, 320
-0.999408, 291, 129, 306, 256
-0.99941, 73, 145, 88, 272
-0.999416, 167, 161, 182, 288
-0.999419, 119, 177, 134, 304
-0.999434, 209, 81, 224, 208
-0.999435, 233, 177, 248, 304
-0.999437, 253, 81, 268, 208
-0.999438, 263, 177, 278, 304
-0.999438, 201, 81, 216, 208
-0.999439, 151, 17, 166, 144
-0.999443, 457, 65, 488, 320
-0.999445, 337, 81, 352, 208
-0.999453, 177, 177, 192, 304
-0.999454, 151, 209, 166, 333
-0.999457, 261, 81, 276, 208
-0.999468, 63, 209, 78, 333
-0.999469, 273, 97, 288, 224
-0.999506, 209, 205, 336, 236
-0.999508, 257, 285, 384, 316
-0.999517, 97, 1, 224, 64
-0.999544, 193, 249, 448, 312
-0.999554, 289, 29, 416, 60
-0.999557, 401, 65, 432, 320
-0.999581, 65, 301, 192, 332
-0.999585, 417, 65, 448, 320
-0.999595, 429, 65, 460, 320
-0.999605, 441, 65, 472, 320
-0.999613, 369, 225, 496, 256
-0.999615, 305, 273, 432, 304
-0.999618, 225, 217, 480, 280
-0.999622, 301, 173, 316, 188
-0.999623, 263, 163, 278, 178
-0.999624, 469, 191, 484, 206
-0.999624, 169, 83, 184, 98
-0.999624, 189, 181, 204, 196
-0.999625, 169, 185, 184, 200
-0.999625, 263, 183, 278, 198
-0.999626, 131, 201, 146, 216
-0.999626, 187, 189, 202, 204
-0.999626, 299, 55, 314, 70
-0.999627, 235, 135, 250, 150
-0.999627, 253, 315, 268, 330
-0.999627, 105, 167, 120, 182
-0.999627, 279, 187, 294, 202
-0.999628, 95, 195, 110, 210
-0.999628, 263, 153, 278, 168
-0.999628, 325, 125, 340, 140
-0.999629, 151, 115, 166, 130
-0.999629, 95, 203, 110, 218
-0.99963, 409, 203, 424, 218
-0.99963, 199, 193, 214, 208
-0.99963, 239, 63, 254, 78
-0.999634, 155, 185, 170, 200
-0.999634, 57, 119, 72, 134
-0.999635, 179, 105, 194, 120
-0.999635, 127, 215, 142, 230
-0.999636, 279, 163, 294, 178
-0.999637, 89, 227, 104, 242
-0.999637, 239, 263, 254, 278
-0.999637, 293, 43, 308, 58
-0.999639, 257, 161, 272, 176
-0.99964, 253, 181, 268, 196
-0.99964, 307, 67, 322, 82
-0.99964, 253, 25, 268, 40
-0.99964, 201, 187, 216, 202
-0.999641, 263, 173, 278, 188
-0.999641, 215, 153, 230, 168
-0.999641, 239, 257, 254, 272
-0.999643, 175, 167, 190, 182
-0.999643, 205, 179, 220, 194
-0.999643, 251, 143, 266, 158
-0.999643, 27, 113, 42, 128
-0.999643, 207, 203, 222, 218
-0.999643, 149, 207, 164, 222
-0.999644, 477, 201, 492, 216
-0.999645, 195, 203, 210, 218
-0.999645, 237, 119, 252, 134
-0.999645, 105, 137, 120, 152
-0.999645, 243, 179, 258, 194
-0.999645, 433, 203, 448, 218
-0.999646, 271, 185, 286, 200
-0.999646, 195, 133, 210, 148
-0.999647, 55, 137, 70, 152
-0.999647, 81, 231, 96, 246
-0.999648, 195, 151, 210, 166
-0.999649, 139, 147, 154, 162
-0.999649, 333, 113, 348, 128
-0.999649, 249, 305, 264, 320
-0.99965, 59, 215, 74, 230
-0.999651, 127, 141, 142, 156
-0.999651, 65, 93, 80, 108
-0.999652, 239, 269, 254, 284
-0.999653, 65, 153, 80, 168
-0.999653, 245, 141, 260, 156
-0.999654, 129, 209, 144, 224
-0.999654, 363, 159, 378, 174
-0.999655, 59, 157, 74, 172
-0.999655, 159, 159, 174, 174
-0.999655, 249, 159, 264, 174
-0.999655, 59, 125, 74, 140
-0.999656, 73, 227, 88, 242
-0.999657, 183, 171, 198, 186
-0.999658, 307, 171, 322, 186
-0.999658, 247, 229, 262, 244
-0.999659, 321, 103, 336, 118
-0.999659, 137, 209, 152, 224
-0.999659, 283, 27, 298, 42
-0.999661, 355, 145, 370, 160
-0.999661, 99, 135, 114, 150
-0.999661, 91, 213, 106, 228
-0.999662, 175, 111, 190, 126
-0.999663, 475, 193, 490, 208
-0.999663, 241, 231, 256, 246
-0.999664, 337, 135, 352, 150
-0.999664, 195, 209, 210, 224
-0.999665, 79, 223, 94, 238
-0.999666, 191, 175, 206, 190
-0.999668, 51, 111, 66, 126
-0.999668, 453, 191, 468, 206
-0.999669, 63, 143, 78, 158
-0.99967, 485, 205, 500, 220
-0.99967, 241, 241, 256, 256
-0.99967, 239, 251, 254, 266
-0.999671, 177, 183, 192, 198
-0.999672, 275, 19, 290, 34
-0.999673, 55, 151, 70, 166
-0.999674, 61, 167, 76, 182
-0.999674, 257, 145, 272, 160
-0.999675, 243, 51, 258, 66
-0.999675, 463, 189, 478, 204
-0.999676, 199, 181, 214, 196
-0.999676, 207, 151, 222, 166
-0.99968, 137, 203, 152, 218
-0.999683, 133, 145, 148, 160
-0.999692, 211, 197, 226, 212
-0.999693, 327, 117, 342, 132
-0.999697, 35, 107, 50, 122
-0.9997, 263, 147, 278, 162
-0.999703, 195, 187, 210, 202
-0.999705, 201, 205, 216, 220
-0.999706, 265, 17, 280, 32
-0.999709, 321, 109, 336, 124
-0.999712, 183, 183, 198, 198
-0.999712, 37, 113, 52, 128
-0.999715, 109, 131, 124, 146
-0.999716, 33, 249, 160, 280
-0.999717, 315, 181, 330, 196
-0.999719, 111, 163, 126, 178
-0.99972, 195, 145, 210, 160
-0.999721, 257, 213, 384, 244
-0.999721, 309, 177, 324, 192
-0.999725, 45, 103, 60, 118
-0.999725, 305, 217, 432, 248
-0.999727, 59, 131, 74, 146
-0.999727, 205, 193, 220, 208
-0.999732, 315, 91, 330, 106
-0.999736, 209, 145, 224, 160
-0.999742, 101, 127, 116, 142
-0.999752, 201, 153, 216, 168
-0.999762, 327, 111, 342, 126
-0.999772, 89, 133, 104, 148
-0.999778, 207, 185, 222, 200
-0.999787, 201, 141, 216, 156
-0.999836, 185, 25, 248, 88
-0.999869, 97, 249, 352, 312
-0.999873, 113, 257, 240, 288
-0.999925, 73, 17, 136, 80
-1.00009, 93, 209, 124, 333
-1.00021, 257, 193, 288, 320
-1.00028, 105, 209, 136, 333
-1.00034, 1, 17, 256, 80
-1.00087, 1, 249, 500, 312
-1.00112, 229, 17, 260, 144
-1.00122, 273, 193, 304, 320
-1.00136, 369, 81, 496, 144
-1.00168, 305, 17, 432, 80
-1.00225, 369, 33, 496, 96
-1.00228, 349, 209, 380, 333
-1.00252, 369, 57, 496, 120
-1.00268, 329, 209, 360, 333
-1.00271, 369, 9, 496, 72
-1.00279, 321, 145, 352, 272
-1.00301, 61, 1, 92, 128
-1.00309, 185, 33, 216, 160
-1.00316, 281, 1, 344, 128
-1.00322, 269, 49, 300, 176
-1.00329, 313, 209, 376, 333
-1.00375, 361, 65, 392, 192
-1.00409, 369, 209, 400, 333
-1.00505, 17, 17, 48, 144
-1.0051, 29, 17, 60, 144
-1.00526, 321, 1, 352, 128
-1.00527, 317, 209, 348, 333
-1.00555, 333, 33, 364, 160
-1.00586, 45, 1, 76, 128
-1.00618, 209, 1, 272, 128
-1.00674, 445, 81, 476, 208
-1.00713, 381, 81, 412, 208
-1.00715, 369, 17, 496, 144
-1.00722, 429, 49, 460, 176
-1.00732, 469, 81, 500, 208
-1.00755, 457, 49, 488, 176
-1.00769, 401, 81, 464, 208
-1.00784, 1, 17, 32, 144
-1.00786, 441, 33, 472, 160
-1.00795, 417, 49, 448, 176
-1.00852, 1, 1, 64, 128
-1.0087, 433, 49, 496, 176
-1.01123, 401, 33, 464, 160
-1.01143, 425, 1, 488, 128
-1.01217, 377, 81, 440, 208
-1.01308, 377, 33, 440, 160
-1.01487, 353, 1, 416, 128
-1.01912, 329, 1, 392, 128
