1892
-0.400772, 1, 1, 500, 329
-0.448702, 1, 65, 500, 320
-0.674834, 65, 1, 320, 329
-0.715633, 257, 1, 500, 329
-0.739277, 257, 65, 500, 320
-0.788997, 161, 1, 416, 329
-0.840783, 129, 65, 384, 320
-0.845059, 33, 65, 288, 320
-0.873194, 129, 1, 256, 329
-0.889877, 113, 1, 240, 256
-0.893638, 81, 1, 208, 329
-0.898488, 369, 1, 496, 329
-0.899881, 1, 113, 500, 240
-0.902115, 1, 209, 500, 329
-0.911285, 161, 65, 288, 320
-0.913318, 353, 65, 480, 320
-0.916481, 1, 161, 500, 288
-0.921371, 177, 1, 304, 329
-0.921731, 1, 49, 500, 176
-0.922004, 65, 1, 192, 256
-0.925788, 145, 1, 208, 128
-0.935416, 273, 1, 400, 329
-0.93612, 321, 1, 448, 329
-0.937337, 273, 65, 400, 320
-0.939552, 129, 1, 256, 128
-0.940414, 417, 193, 480, 320
-0.940562, 209, 65, 336, 320
-0.941, 257, 193, 500, 320
-0.941218, 33, 209, 288, 329
-0.942731, 33, 1, 160, 329
-0.945015, 1, 1, 500, 128
-0.947192, 137, 25, 200, 88
-0.947847, 129, 65, 256, 192
-0.949526, 129, 177, 384, 304
-0.950154, 257, 113, 500, 240
-0.950216, 121, 49, 184, 176
-0.950779, 1, 113, 256, 240
-0.950977, 145, 49, 208, 176
-0.952945, 121, 1, 184, 128
-0.953734, 137, 1, 200, 64
-0.953751, 353, 193, 480, 320
-0.95397, 129, 113, 384, 240
-0.954439, 1, 65, 128, 320
-0.955375, 225, 1, 352, 329
-0.955738, 353, 113, 480, 240
-0.956582, 81, 33, 208, 160
-0.95727, 433, 97, 496, 224
-0.959407, 97, 209, 224, 329
-0.959621, 425, 121, 488, 184
-0.960999, 305, 209, 432, 329
-0.96153, 433, 145, 496, 272
-0.961798, 169, 1, 232, 128
-0.962207, 129, 113, 256, 240
-0.964141, 33, 161, 288, 288
-0.96424, 145, 113, 208, 240
-0.964415, 321, 209, 384, 329
-0.964778, 121, 49, 184, 112
-0.964992, 193, 113, 320, 240
-0.965933, 49, 209, 176, 329
-0.965983, 97, 33, 352, 160
-0.966064, 81, 113, 208, 240
-0.966177, 169, 49, 232, 176
-0.966286, 137, 161, 200, 288
-0.966878, 129, 161, 256, 288
-0.96708, 425, 97, 488, 160
-0.967188, 257, 177, 384, 304
-0.967336, 1, 177, 64, 304
-0.967378, 273, 113, 400, 240
-0.967423, 433, 201, 496, 264
-0.96785, 433, 233, 496, 296
-0.968203, 145, 121, 208, 184
-0.968432, 105, 17, 168, 80
-0.968449, 393, 209, 456, 329
-0.968859, 121, 209, 184, 329
-0.968955, 97, 209, 160, 329
-0.969184, 1, 233, 64, 296
-0.969301, 465, 97, 496, 224
-0.969333, 173, 1, 204, 128
-0.969347, 297, 113, 360, 240
-0.970148, 1, 49, 256, 176
-0.971064, 145, 1, 176, 128
-0.971348, 353, 193, 416, 320
-0.971502, 449, 177, 480, 304
-0.971623, 145, 1, 208, 256
-0.971706, 369, 65, 496, 192
-0.971989, 81, 161, 208, 288
-0.972115, 305, 249, 368, 312
-0.972323, 289, 161, 352, 288
-0.972408, 273, 249, 336, 312
-0.972494, 185, 25, 248, 88
-0.972685, 185, 113, 248, 240
-0.972725, 433, 65, 496, 320
-0.973054, 145, 209, 272, 329
-0.973064, 161, 1, 192, 128
-0.973114, 465, 113, 496, 176
-0.973132, 1, 209, 128, 329
-0.973204, 173, 17, 204, 80
-0.973245, 433, 169, 496, 232
-0.97332, 129, 217, 192, 280
-0.973385, 465, 153, 496, 216
-0.973505, 409, 225, 472, 288
-0.973546, 465, 161, 496, 288
-0.97359, 153, 57, 216, 120
-0.973777, 161, 25, 224, 88
-0.973954, 289, 169, 352, 232
-0.974143, 209, 161, 336, 288
-0.974416, 401, 145, 464, 272
-0.974474, 265, 113, 328, 240
-0.974609, 409, 201, 472, 264
-0.974824, 433, 145, 496, 208
-0.974861, 453, 81, 484, 208
-0.974887, 425, 73, 488, 136
-0.974922, 73, 209, 136, 329
-0.974971, 137, 241, 200, 304
-0.974999, 121, 1, 184, 256
-0.975384, 145, 209, 208, 329
-0.975409, 329, 233, 392, 296
-0.975511, 437, 193, 468, 320
-0.975526, 441, 57, 472, 120
-0.975603, 141, 1, 172, 64
-0.975741, 97, 81, 160, 208
-0.975823, 129, 25, 256, 88
-0.975846, 105, 249, 168, 312
-0.975861, 105, 225, 168, 288
-0.975874, 1, 257, 64, 320
-0.976238, 225, 113, 288, 240
-0.976239, 353, 209, 416, 272
-0.976317, 157, 25, 188, 88
-0.976668, 161, 225, 224, 288
-0.976736, 169, 1, 232, 64
-0.976814, 81, 233, 144, 296
-0.976824, 129, 1, 256, 64
-0.976903, 321, 113, 384, 240
-0.976965, 249, 241, 312, 304
-0.977161, 453, 129, 484, 192
-0.977495, 169, 177, 232, 304
-0.977691, 297, 209, 360, 329
-0.977823, 177, 49, 304, 176
-0.978561, 25, 193, 88, 320
-0.978566, 153, 1, 184, 64
-0.978811, 457, 241, 488, 304
-0.978834, 149, 49, 180, 176
-0.978845, 25, 249, 88, 312
-0.978904, 313, 161, 376, 288
-0.978922, 469, 233, 500, 296
-0.978963, 33, 113, 160, 240
-0.979017, 177, 49, 240, 112
-0.97909, 141, 25, 172, 88
-0.979114, 121, 113, 184, 240
-0.979228, 313, 177, 376, 240
-0.979315, 377, 113, 440, 240
-0.979376, 441, 113, 472, 240
-0.979519, 49, 225, 176, 288
-0.979713, 329, 209, 392, 272
-0.979803, 369, 241, 496, 304
-0.979856, 385, 241, 448, 304
-0.980127, 425, 49, 488, 176
-0.980157, 453, 89, 484, 152
-0.980376, 305, 161, 432, 288
-0.980534, 129, 113, 256, 176
-0.980543, 257, 249, 384, 312
-0.980576, 145, 233, 272, 296
-0.980598, 17, 161, 144, 288
-0.980601, 433, 265, 496, 328
-0.980691, 449, 185, 480, 248
-0.980749, 409, 153, 472, 216
-0.980825, 409, 65, 472, 320
-0.980857, 185, 113, 248, 176
-0.981038, 441, 113, 472, 176
-0.981052, 353, 241, 416, 304
-0.981081, 97, 33, 160, 160
-0.981172, 409, 97, 472, 224
-0.981233, 9, 233, 40, 296
-0.981234, 57, 233, 120, 296
-0.981405, 305, 241, 432, 304
-0.981516, 265, 169, 328, 232
-0.982031, 297, 225, 360, 288
-0.982043, 129, 49, 256, 112
-0.98215, 177, 49, 208, 176
-0.982174, 97, 233, 224, 296
-0.982443, 1, 1, 256, 128
-0.982572, 165, 65, 196, 192
-0.982813, 189, 25, 220, 88
-0.982834, 1, 241, 128, 304
-0.982866, 469, 209, 500, 329
-0.982891, 25, 225, 88, 288
-0.982896, 189, 1, 220, 128
-0.983042, 169, 1, 232, 256
-0.983148, 385, 209, 448, 272
-0.983155, 177, 145, 240, 208
-0.983182, 453, 129, 484, 256
-0.983427, 193, 233, 320, 296
-0.983436, 225, 249, 288, 312
-0.983594, 265, 113, 328, 176
-0.98367, 161, 113, 192, 240
-0.983731, 145, 1, 208, 329
-0.983875, 265, 161, 328, 288
-0.983901, 305, 113, 336, 240
-0.98411, 209, 209, 336, 329
-0.984164, 353, 201, 480, 264
-0.984172, 209, 153, 272, 216
-0.984188, 81, 33, 208, 96
-0.984211, 353, 113, 416, 240
-0.984248, 445, 241, 476, 304
-0.984316, 49, 113, 112, 240
-0.984317, 81, 9, 208, 72
-0.984457, 409, 249, 472, 312
-0.984533, 149, 121, 180, 184
-0.984622, 97, 209, 224, 272
-0.984687, 189, 49, 220, 112
-0.984761, 305, 217, 432, 280
-0.984765, 369, 113, 496, 176
-0.984804, 441, 49, 472, 176
-0.985077, 113, 161, 176, 288
-0.985155, 429, 81, 460, 144
-0.985188, 97, 41, 160, 104
-0.985236, 137, 161, 200, 224
-0.985358, 317, 249, 348, 312
-0.985401, 401, 177, 464, 240
-0.98549, 225, 65, 480, 192
-0.985526, 353, 73, 480, 136
-0.985661, 437, 201, 468, 264
-0.985676, 1, 185, 64, 248
-0.985747, 189, 1, 220, 64
-0.985755, 49, 209, 112, 329
-0.985852, 305, 169, 336, 232
-0.985888, 257, 177, 384, 240
-0.985916, 113, 161, 240, 224
-0.985955, 209, 257, 336, 320
-0.985976, 305, 257, 336, 320
-0.986046, 209, 81, 240, 208
-0.986088, 129, 89, 256, 152
-0.98615, 377, 113, 440, 176
-0.986217, 193, 153, 320, 216
-0.986233, 465, 49, 496, 176
-0.986336, 401, 113, 464, 176
-0.986345, 177, 57, 208, 120
-0.986348, 193, 65, 256, 192
-0.986359, 129, 225, 160, 288
-0.986407, 289, 113, 352, 176
-0.986487, 401, 81, 464, 144
-0.986491, 49, 121, 176, 184
-0.986497, 41, 129, 104, 192
-0.986537, 149, 113, 180, 240
-0.986613, 349, 233, 380, 296
-0.986672, 337, 185, 400, 248
-0.986679, 217, 113, 280, 176
-0.9867, 121, 209, 152, 329
-0.98673, 133, 49, 164, 176
-0.986758, 465, 89, 496, 152
-0.986782, 353, 153, 480, 216
-0.98696, 425, 209, 456, 329
-0.987008, 133, 1, 164, 128
-0.98702, 285, 241, 316, 304
-0.987028, 185, 89, 248, 152
-0.987049, 333, 241, 364, 304
-0.987162, 273, 209, 336, 329
-0.987196, 49, 249, 176, 312
-0.9872, 81, 57, 208, 120
-0.987399, 469, 209, 500, 272
-0.987457, 121, 1, 184, 329
-0.987542, 161, 161, 192, 288
-0.987704, 177, 1, 304, 128
-0.987707, 293, 113, 324, 240
-0.987716, 433, 225, 464, 288
-0.98775, 289, 65, 352, 320
-0.987768, 21, 233, 52, 296
-0.987836, 161, 121, 192, 184
-0.987905, 141, 49, 172, 112
-0.987907, 133, 249, 164, 312
-0.987922, 409, 209, 440, 329
-0.987978, 241, 225, 368, 288
-0.988029, 145, 241, 176, 304
-0.98803, 441, 89, 472, 152
-0.988038, 149, 161, 180, 288
-0.988042, 141, 209, 172, 329
-0.988057, 185, 225, 248, 288
-0.988071, 201, 249, 264, 312
-0.988121, 1, 177, 32, 304
-0.988143, 169, 1, 232, 329
-0.988182, 117, 233, 148, 296
-0.988223, 177, 81, 304, 144
-0.988271, 329, 257, 392, 320
-0.988307, 177, 129, 208, 256
-0.988402, 425, 1, 488, 329
-0.98841, 353, 209, 384, 329
-0.988425, 113, 257, 240, 320
-0.988429, 145, 29, 208, 60
-0.988433, 13, 209, 44, 329
-0.988523, 453, 65, 484, 128
-0.988554, 429, 145, 460, 272
-0.988567, 209, 49, 240, 112
-0.988647, 293, 113, 324, 176
-0.988653, 9, 257, 40, 320
-0.988726, 145, 137, 272, 200
-0.988733, 441, 153, 472, 216
-0.988764, 465, 177, 496, 240
-0.988786, 1, 209, 64, 272
-0.988874, 105, 89, 168, 152
-0.988939, 157, 57, 188, 120
-0.988979, 305, 145, 368, 208
-0.989084, 217, 153, 248, 216
-0.989087, 365, 193, 396, 320
-0.989104, 209, 33, 240, 160
-0.989113, 321, 65, 448, 192
-0.989114, 189, 49, 220, 176
-0.989142, 137, 9, 200, 40
-0.989151, 97, 65, 160, 320
-0.989166, 297, 233, 328, 296
-0.989199, 113, 145, 176, 208
-0.989205, 153, 209, 184, 329
-0.989211, 297, 201, 360, 264
-0.989297, 105, 233, 136, 296
-0.9893, 361, 209, 392, 272
-0.989348, 329, 209, 360, 329
-0.989503, 209, 25, 240, 88
-0.989521, 321, 113, 352, 240
-0.989532, 433, 49, 496, 112
-0.989548, 157, 241, 188, 304
-0.98956, 193, 161, 256, 288
-0.989624, 217, 129, 248, 256
-0.98963, 305, 161, 336, 288
-0.989631, 385, 145, 448, 208
-0.989633, 145, 45, 208, 76
-0.989666, 433, 113, 496, 144
-0.989699, 293, 161, 324, 224
-0.989707, 281, 173, 344, 204
-0.989761, 249, 209, 312, 329
-0.98978, 233, 113, 264, 240
-0.989807, 413, 241, 444, 304
-0.989834, 157, 217, 188, 280
-0.989935, 425, 129, 488, 160
-0.989956, 273, 241, 304, 304
-0.989993, 137, 129, 168, 256
-0.989996, 65, 145, 192, 208
-0.990013, 425, 229, 488, 260
-0.990055, 81, 81, 144, 144
-0.99009, 141, 217, 172, 280
-0.990111, 209, 81, 240, 144
-0.990163, 249, 265, 312, 328
-0.990231, 453, 161, 484, 224
-0.990308, 121, 49, 184, 80
-0.990329, 449, 209, 480, 272
-0.990381, 81, 161, 144, 288
-0.9904, 145, 209, 272, 272
-0.990412, 17, 237, 80, 268
-0.990433, 145, 57, 208, 88
-0.99045, 177, 49, 304, 112
-0.990473, 433, 245, 496, 276
-0.99053, 229, 113, 260, 176
-0.990534, 305, 177, 432, 240
-0.990538, 81, 257, 144, 320
-0.99055, 397, 209, 428, 329
-0.990586, 129, 17, 160, 80
-0.99062, 121, 121, 184, 184
-0.990628, 121, 61, 184, 92
-0.990632, 153, 201, 216, 264
-0.99069, 353, 177, 480, 240
-0.990745, 189, 113, 220, 240
-0.990748, 265, 65, 328, 320
-0.990755, 121, 249, 184, 280
-0.990855, 105, 25, 168, 56
-0.990871, 433, 165, 496, 196
-0.990885, 433, 81, 496, 112
-0.990897, 401, 225, 464, 256
-0.990904, 57, 241, 120, 272
-0.99091, 265, 145, 328, 208
-0.990957, 305, 169, 368, 200
-0.990973, 425, 141, 488, 172
-0.990977, 105, 37, 168, 68
-0.990995, 233, 153, 296, 216
-0.991018, 193, 17, 256, 144
-0.991027, 409, 109, 472, 140
-0.991034, 97, 209, 128, 329
-0.991037, 169, 25, 232, 56
-0.991057, 185, 41, 248, 72
-0.991065, 273, 225, 336, 288
-0.991084, 257, 177, 320, 208
-0.991089, 1, 249, 64, 280
-0.9911, 33, 65, 160, 192
-0.991125, 97, 253, 160, 284
-0.991152, 281, 161, 312, 224
-0.991219, 73, 33, 136, 160
-0.99122, 425, 193, 488, 224
-0.991224, 433, 65, 496, 96
-0.991226, 181, 225, 212, 288
-0.991262, 125, 49, 156, 112
-0.991313, 145, 89, 208, 152
-0.991319, 225, 209, 288, 329
-0.991319, 281, 185, 344, 216
-0.991326, 209, 113, 336, 176
-0.99136, 433, 97, 496, 128
-0.991367, 33, 225, 64, 288
-0.991369, 297, 89, 360, 152
-0.991372, 65, 253, 128, 284
-0.9914, 65, 233, 320, 296
-0.99141, 257, 201, 384, 264
-0.991416, 105, 13, 168, 44
-0.991441, 185, 53, 248, 84
-0.991461, 169, 233, 200, 296
-0.991483, 433, 177, 496, 208
-0.991494, 105, 237, 168, 268
-0.991515, 169, 13, 232, 44
-0.991518, 433, 217, 496, 248
-0.99154, 289, 261, 352, 292
-0.991543, 1, 217, 128, 280
-0.99157, 169, 165, 232, 196
-0.991623, 429, 65, 460, 192
-0.991641, 401, 237, 464, 268
-0.991677, 353, 225, 416, 256
-0.991678, 281, 161, 344, 192
-0.991684, 313, 181, 376, 212
-0.991699, 197, 89, 228, 152
-0.991721, 361, 185, 424, 248
-0.991738, 253, 233, 284, 296
-0.991745, 465, 265, 496, 328
-0.991745, 25, 253, 88, 284
-0.991763, 273, 245, 336, 276
-0.991818, 81, 237, 144, 268
-0.991858, 341, 177, 372, 240
-0.991861, 97, 53, 160, 84
-0.991878, 145, 165, 208, 196
-0.991886, 337, 241, 400, 272
-0.991893, 177, 25, 304, 88
-0.991905, 401, 213, 464, 244
-0.991919, 433, 153, 496, 184
-0.991927, 193, 165, 256, 196
-0.991937, 401, 241, 432, 304
-0.99196, 257, 257, 320, 288
-0.991962, 169, 1, 232, 32
-0.991968, 241, 241, 304, 272
-0.992009, 105, 77, 168, 108
-0.992011, 209, 65, 272, 320
-0.992025, 145, 149, 208, 180
-0.992026, 257, 165, 320, 196
-0.992027, 233, 257, 296, 288
-0.992029, 313, 233, 376, 264
-0.992034, 161, 249, 224, 312
-0.992039, 217, 165, 280, 196
-0.992047, 361, 241, 392, 304
-0.992048, 317, 177, 348, 304
-0.992056, 257, 241, 500, 304
-0.992078, 289, 113, 352, 144
-0.992081, 145, 241, 208, 272
-0.992087, 377, 225, 440, 256
-0.992093, 293, 265, 324, 328
-0.992095, 317, 177, 348, 240
-0.992098, 169, 65, 232, 96
-0.992109, 137, 129, 168, 192
-0.992112, 169, 233, 232, 264
-0.992128, 313, 249, 376, 280
-0.992143, 1, 261, 64, 292
-0.992162, 97, 1, 160, 329
-0.992192, 425, 205, 488, 236
-0.992198, 209, 177, 272, 208
-0.9922, 137, 117, 200, 148
-0.99222, 425, 201, 456, 264
-0.992231, 145, 221, 208, 252
-0.992266, 433, 273, 496, 304
-0.992268, 209, 253, 272, 284
-0.992271, 97, 201, 160, 264
-0.992272, 217, 113, 248, 176
-0.992277, 409, 93, 472, 124
-0.992281, 145, 69, 208, 100
-0.992296, 93, 233, 124, 296
-0.992326, 469, 125, 500, 156
-0.992328, 321, 105, 448, 168
-0.992335, 401, 193, 464, 224
-0.992341, 109, 209, 140, 329
-0.992344, 453, 101, 484, 132
-0.992369, 341, 177, 372, 304
-0.992373, 465, 169, 496, 200
-0.992375, 177, 117, 240, 148
-0.992377, 329, 213, 392, 244
-0.992395, 193, 153, 256, 184
-0.992401, 1, 265, 128, 328
-0.992404, 453, 117, 484, 148
-0.992412, 369, 265, 496, 328
-0.992435, 441, 109, 472, 140
-0.992438, 353, 265, 416, 328
-0.992444, 173, 17, 204, 48
-0.99245, 25, 177, 56, 304
-0.992454, 121, 169, 184, 200
-0.992461, 121, 1, 152, 128
-0.992465, 297, 277, 360, 308
-0.99248, 293, 173, 324, 204
-0.992484, 153, 85, 216, 116
-0.992489, 413, 113, 444, 240
-0.992496, 409, 65, 472, 96
-0.992499, 209, 1, 240, 64
-0.992535, 453, 189, 484, 220
-0.992536, 385, 65, 448, 320
-0.992546, 257, 109, 320, 140
-0.992552, 321, 201, 384, 232
-0.992554, 305, 173, 336, 204
-0.992559, 293, 161, 324, 288
-0.992562, 441, 121, 472, 152
-0.992563, 137, 129, 200, 160
-0.992595, 169, 153, 232, 184
-0.992596, 273, 153, 400, 216
-0.992606, 409, 181, 472, 212
-0.992622, 401, 121, 464, 152
-0.992627, 153, 29, 184, 60
-0.99263, 377, 237, 440, 268
-0.992634, 141, 49, 172, 80
-0.992643, 217, 241, 280, 272
-0.992643, 441, 65, 472, 96
-0.992657, 401, 77, 464, 108
-0.992663, 49, 97, 176, 160
-0.992663, 161, 257, 288, 320
-0.992679, 437, 229, 468, 260
-0.992689, 469, 237, 500, 268
-0.992709, 173, 49, 204, 80
-0.992711, 469, 113, 500, 144
-0.992724, 1, 221, 64, 252
-0.992728, 173, 29, 204, 60
-0.992741, 97, 113, 160, 176
-0.992743, 377, 241, 408, 304
-0.992746, 465, 149, 496, 180
-0.992746, 265, 121, 328, 152
-0.992753, 141, 9, 172, 40
-0.992755, 301, 113, 332, 144
-0.992756, 361, 281, 424, 312
-0.992766, 449, 77, 480, 108
-0.992768, 161, 177, 288, 240
-0.99277, 453, 129, 484, 160
-0.992776, 345, 173, 408, 204
-0.992777, 121, 225, 184, 256
-0.992786, 1, 237, 32, 268
-0.992797, 13, 233, 44, 264
-0.9928, 257, 273, 320, 304
-0.992818, 121, 157, 184, 188
-0.992826, 141, 29, 172, 60
-0.992828, 173, 5, 204, 36
-0.992834, 105, 265, 168, 296
-0.992835, 105, 249, 136, 280
-0.992837, 121, 89, 184, 120
-0.992839, 13, 249, 44, 280
-0.992844, 321, 277, 384, 308
-0.992845, 161, 9, 192, 40
-0.992853, 409, 161, 472, 192
-0.992857, 385, 157, 448, 188
-0.992859, 81, 73, 144, 104
-0.992861, 193, 225, 224, 288
-0.992861, 117, 245, 148, 276
-0.992863, 441, 97, 472, 128
-0.992864, 177, 89, 240, 120
-0.992871, 105, 1, 168, 32
-0.992887, 353, 213, 416, 244
-0.992896, 453, 141, 484, 172
-0.992898, 437, 85, 468, 116
-0.992901, 189, 53, 220, 84
-0.992901, 197, 177, 228, 304
-0.992903, 313, 261, 376, 292
-0.992904, 325, 217, 356, 280
-0.992923, 465, 181, 496, 212
-0.992942, 117, 257, 148, 288
-0.992942, 185, 253, 248, 284
-0.992946, 153, 57, 184, 88
-0.992947, 397, 217, 428, 280
-0.992948, 209, 117, 272, 148
-0.992949, 149, 145, 180, 208
-0.992956, 425, 233, 456, 264
-0.992965, 233, 177, 296, 208
-0.992973, 281, 173, 312, 204
-0.992979, 305, 185, 336, 216
-0.992981, 457, 245, 488, 276
-0.992986, 133, 253, 164, 284
-0.992991, 193, 21, 256, 52
-0.993012, 189, 29, 220, 60
-0.993023, 217, 165, 248, 196
-0.993025, 453, 89, 484, 120
-0.993028, 105, 121, 168, 152
-0.993036, 177, 65, 208, 96
-0.993042, 189, 41, 220, 72
-0.993046, 465, 137, 496, 168
-0.993047, 453, 177, 484, 208
-0.993054, 129, 265, 192, 328
-0.993057, 161, 253, 224, 284
-0.993062, 81, 85, 144, 116
-0.993064, 181, 209, 212, 329
-0.993066, 45, 241, 76, 304
-0.993071, 449, 229, 480, 260
-0.993074, 153, 45, 184, 76
-0.993077, 241, 65, 304, 320
-0.993079, 429, 109, 460, 140
-0.993097, 41, 153, 104, 216
-0.993098, 389, 241, 420, 304
-0.993098, 321, 173, 352, 204
-0.993098, 469, 93, 500, 124
-0.993104, 25, 173, 88, 204
-0.99311, 173, 121, 204, 184
-0.993118, 233, 273, 296, 304
-0.993122, 385, 281, 448, 312
-0.993123, 165, 65, 196, 96
-0.993134, 189, 17, 220, 48
-0.993134, 293, 185, 324, 216
-0.993138, 49, 125, 112, 156
-0.993148, 209, 73, 240, 104
-0.993149, 185, 105, 248, 136
-0.993153, 337, 209, 368, 272
-0.993155, 429, 177, 460, 240
-0.993159, 101, 237, 132, 268
-0.993163, 309, 261, 340, 292
-0.993172, 209, 53, 240, 84
-0.993173, 289, 113, 320, 144
-0.993174, 369, 17, 496, 144
-0.993181, 305, 161, 336, 192
-0.993183, 469, 57, 500, 120
-0.993189, 341, 237, 372, 268
-0.99319, 1, 181, 64, 212
-0.993191, 305, 105, 336, 168
-0.993193, 465, 265, 496, 296
-0.993193, 441, 173, 472, 204
-0.993194, 217, 145, 280, 176
-0.993197, 41, 157, 104, 188
-0.993199, 185, 185, 248, 216
-0.993199, 125, 49, 156, 80
-0.9932, 1, 273, 64, 304
-0.993202, 453, 33, 484, 160
-0.993202, 193, 1, 256, 64
-0.993206, 145, 249, 176, 280
-0.993208, 209, 41, 240, 72
-0.993208, 401, 49, 464, 176
-0.99321, 145, 121, 176, 152
-0.993211, 409, 281, 472, 312
-0.993222, 193, 269, 256, 300
-0.993222, 169, 161, 200, 192
-0.993229, 429, 73, 460, 104
-0.993237, 305, 245, 336, 276
-0.99324, 153, 157, 184, 188
-0.99324, 429, 121, 460, 152
-0.993248, 209, 29, 240, 60
-0.993248, 241, 113, 304, 176
-0.99325, 189, 85, 220, 116
-0.993255, 261, 257, 292, 320
-0.993256, 453, 153, 484, 184
-0.993258, 313, 117, 344, 148
-0.993259, 409, 225, 440, 256
-0.993262, 281, 257, 312, 288
-0.993262, 189, 165, 220, 196
-0.993262, 297, 261, 328, 292
-0.993269, 469, 81, 500, 112
-0.993273, 1, 249, 32, 280
-0.993273, 125, 17, 156, 48
-0.993278, 209, 85, 240, 116
-0.993278, 209, 181, 240, 212
-0.993283, 361, 225, 392, 256
-0.993283, 317, 185, 348, 216
-0.993291, 9, 261, 40, 292
-0.993293, 93, 253, 124, 284
-0.993293, 325, 249, 356, 280
-0.993295, 169, 169, 232, 232
-0.993298, 141, 65, 172, 96
-0.993301, 433, 133, 464, 164
-0.993302, 85, 241, 116, 272
-0.993304, 453, 65, 484, 96
-0.993308, 149, 169, 180, 200
-0.993309, 269, 257, 300, 288
-0.99331, 25, 233, 56, 264
-0.993311, 129, 37, 160, 68
-0.993311, 437, 241, 468, 272
-0.993314, 165, 209, 196, 329
-0.993327, 209, 17, 240, 48
-0.993329, 45, 237, 76, 268
-0.993332, 249, 241, 280, 272
-0.993333, 185, 229, 216, 260
-0.993336, 125, 233, 156, 264
-0.993338, 441, 185, 472, 216
-0.993342, 413, 237, 444, 268
-0.993345, 305, 265, 432, 328
-0.993346, 293, 161, 324, 192
-0.993346, 397, 225, 428, 256
-0.993346, 189, 5, 220, 36
-0.993349, 229, 161, 260, 192
-0.993351, 121, 257, 152, 320
-0.993356, 433, 53, 464, 84
-0.993359, 465, 225, 496, 256
-0.993363, 241, 233, 272, 296
-0.993366, 205, 165, 236, 196
-0.993379, 73, 245, 104, 276
-0.993385, 217, 153, 248, 184
-0.993389, 293, 245, 324, 276
-0.993392, 117, 85, 148, 116
-0.993395, 125, 61, 156, 92
-0.993401, 281, 245, 312, 276
-0.993402, 197, 73, 228, 104
-0.993403, 453, 273, 484, 304
-0.993405, 57, 237, 88, 268
-0.993409, 433, 217, 464, 248
-0.993415, 425, 89, 456, 120
-0.993419, 149, 145, 180, 176
-0.99342, 1, 161, 128, 224
-0.99342, 257, 65, 384, 192
-0.993424, 173, 237, 204, 268
-0.993522, 257, 113, 384, 176
-0.993559, 477, 113, 492, 176
-0.993583, 249, 89, 312, 152
-0.993646, 1, 185, 32, 248
-0.993654, 281, 113, 312, 240
-0.993666, 209, 81, 272, 144
-0.993756, 129, 45, 256, 76
-0.993788, 377, 193, 408, 320
-0.993827, 33, 249, 64, 312
-0.993832, 113, 185, 240, 248
-0.993936, 333, 113, 364, 240
-0.993987, 1, 233, 500, 296
-0.994098, 49, 209, 112, 272
-0.994098, 73, 209, 136, 272
-0.994108, 13, 209, 44, 272
-0.994119, 477, 153, 492, 216
-0.994162, 409, 209, 440, 272
-0.994168, 209, 177, 336, 240
-0.99419, 353, 113, 384, 240
-0.994209, 241, 217, 304, 280
-0.994306, 49, 121, 80, 184
-0.994322, 353, 49, 480, 112
-0.994335, 193, 153, 224, 216
-0.994342, 185, 113, 216, 176
-0.994349, 193, 209, 320, 272
-0.994361, 129, 33, 256, 64
-0.994397, 281, 265, 312, 328
-0.994405, 225, 49, 288, 176
-0.994448, 429, 113, 460, 176
-0.994477, 1, 113, 500, 176
-0.994508, 121, 49, 152, 176
-0.994537, 401, 1, 464, 329
-0.994562, 209, 173, 336, 204
-0.994584, 467, 97, 482, 160
-0.994599, 459, 97, 474, 160
-0.994602, 77, 209, 108, 329
-0.994662, 167, 25, 182, 88
-0.994671, 1, 209, 500, 272
-0.994679, 229, 153, 260, 216
-0.994686, 187, 17, 202, 80
-0.994708, 413, 113, 444, 176
-0.994722, 467, 121, 482, 184
-0.994726, 353, 161, 416, 224
-0.994745, 177, 1, 304, 64
-0.994764, 17, 245, 144, 276
-0.994769, 313, 65, 376, 320
-0.994794, 33, 121, 288, 184
-0.994803, 57, 249, 88, 312
-0.994809, 349, 209, 380, 272
-0.994863, 129, 57, 256, 88
-0.99489, 117, 25, 148, 88
-0.994907, 33, 17, 160, 80
-0.994912, 185, 193, 248, 256
-0.994915, 49, 113, 80, 240
-0.994925, 163, 1, 178, 64
-0.994972, 45, 209, 76, 329
-0.994985, 453, 105, 468, 168
-0.994985, 229, 233, 260, 296
-0.995001, 1, 161, 500, 224
-0.995004, 161, 257, 416, 320
-0.995051, 301, 137, 332, 200
-0.995054, 73, 97, 136, 224
-0.99508, 153, 1, 168, 64
-0.995085, 483, 105, 498, 168
-0.995092, 175, 1, 190, 64
-0.995101, 469, 241, 484, 304
-0.995104, 73, 169, 136, 232
-0.995118, 321, 153, 352, 216
-0.995121, 49, 161, 112, 288
-0.995137, 1, 121, 128, 184
-0.995175, 17, 161, 80, 224
-0.99518, 193, 1, 256, 329
-0.995182, 365, 113, 396, 240
-0.995186, 449, 201, 464, 264
-0.995196, 143, 1, 158, 64
-0.995201, 81, 233, 112, 296
-0.99521, 459, 241, 474, 304
-0.995212, 113, 169, 176, 232
-0.995212, 161, 25, 176, 88
-0.995216, 361, 65, 424, 320
-0.995234, 17, 193, 144, 256
-0.995246, 161, 233, 416, 296
-0.995263, 353, 225, 480, 256
-0.995272, 1, 257, 256, 320
-0.995283, 57, 257, 120, 320
-0.995345, 257, 209, 500, 272
-0.995352, 65, 233, 192, 264
-0.995413, 73, 65, 136, 320
-0.995426, 147, 25, 162, 88
-0.995426, 117, 209, 148, 272
-0.995437, 13, 233, 28, 296
-0.995443, 181, 25, 196, 88
-0.995452, 129, 21, 256, 52
-0.995466, 485, 145, 500, 208
-0.995469, 481, 233, 496, 296
-0.995493, 459, 129, 474, 192
-0.995497, 201, 185, 232, 248
-0.995505, 149, 97, 180, 160
-0.995531, 433, 249, 464, 312
-0.995536, 321, 105, 384, 168
-0.995545, 121, 193, 184, 256
-0.995551, 205, 113, 236, 176
-0.995574, 467, 169, 482, 232
-0.995574, 65, 209, 96, 329
-0.995576, 313, 65, 376, 192
-0.995578, 447, 81, 462, 144
-0.995585, 25, 113, 88, 240
-0.995591, 453, 265, 484, 328
-0.995602, 475, 233, 490, 296
-0.995609, 273, 173, 400, 204
-0.995614, 485, 177, 500, 240
-0.995616, 129, 165, 256, 196
-0.995617, 97, 249, 224, 280
-0.995631, 129, 9, 256, 40
-0.995642, 177, 201, 208, 264
-0.995649, 463, 73, 478, 136
-0.995664, 445, 57, 460, 120
-0.995707, 209, 25, 272, 88
-0.995742, 161, 145, 192, 208
-0.995748, 1, 137, 500, 200
-0.995762, 81, 17, 144, 80
-0.995768, 1, 209, 256, 272
-0.995783, 175, 33, 190, 96
-0.995788, 297, 1, 360, 329
-0.995791, 309, 105, 324, 168
-0.995797, 65, 49, 128, 112
-0.995799, 153, 25, 168, 88
-0.9958, 439, 73, 454, 136
-0.99586, 455, 177, 470, 240
-0.995864, 345, 113, 408, 176
-0.995872, 443, 201, 458, 264
-0.995889, 257, 169, 500, 232
-0.995931, 169, 1, 184, 64
-0.995951, 187, 41, 202, 104
-0.995963, 369, 245, 496, 276
-0.995968, 245, 113, 276, 240
-0.995982, 33, 153, 288, 216
-0.996019, 385, 209, 416, 272
-0.996029, 129, 209, 384, 272
-0.996065, 225, 245, 352, 276
-0.996091, 181, 1, 196, 64
-0.996096, 81, 41, 208, 72
-0.996097, 1, 257, 500, 320
-0.996156, 381, 113, 412, 240
-0.996158, 451, 57, 466, 120
-0.99616, 241, 257, 272, 320
-0.996186, 49, 257, 176, 288
-0.99621, 341, 233, 356, 296
-0.996211, 429, 57, 460, 120
-0.996216, 445, 65, 476, 320
-0.996221, 257, 185, 384, 216
-0.996222, 181, 161, 212, 224
-0.996223, 157, 1, 188, 256
-0.996224, 177, 161, 304, 192
-0.996235, 217, 233, 248, 296
-0.996249, 151, 121, 166, 184
-0.996256, 141, 25, 156, 88
-0.996283, 225, 113, 480, 176
-0.996293, 353, 1, 416, 329
-0.996299, 81, 25, 208, 56
-0.996311, 341, 265, 372, 328
-0.996323, 13, 161, 44, 288
-0.99636, 321, 241, 448, 272
-0.996379, 129, 153, 384, 216
-0.996379, 453, 241, 468, 304
-0.996395, 205, 241, 236, 304
-0.996395, 205, 129, 236, 256
-0.996423, 209, 225, 272, 288
-0.996446, 129, 117, 256, 148
-0.996455, 421, 153, 452, 216
-0.996475, 273, 89, 400, 152
-0.996488, 129, 69, 256, 100
-0.9965, 193, 257, 320, 288
-0.996504, 129, 113, 384, 176
-0.996549, 305, 209, 336, 329
-0.996554, 241, 177, 304, 240
-0.996557, 461, 177, 476, 240
-0.99657, 309, 161, 324, 224
-0.996588, 1, 185, 500, 248
-0.99659, 457, 73, 472, 136
-0.996594, 303, 257, 318, 320
-0.996596, 369, 85, 496, 116
-0.996605, 81, 13, 208, 44
-0.996619, 329, 249, 344, 312
-0.996635, 241, 261, 368, 292
-0.996637, 269, 113, 300, 240
-0.996641, 473, 89, 488, 152
-0.996642, 293, 241, 308, 304
-0.996645, 433, 65, 464, 320
-0.996647, 469, 65, 500, 320
-0.99667, 309, 257, 324, 320
-0.996688, 19, 233, 34, 296
-0.996692, 337, 25, 464, 88
-0.996697, 471, 145, 486, 208
-0.996708, 385, 265, 448, 328
-0.996709, 165, 57, 180, 120
-0.996735, 145, 245, 272, 276
-0.996744, 173, 1, 204, 256
-0.996788, 303, 113, 318, 176
-0.996814, 455, 117, 470, 148
-0.996816, 137, 225, 152, 288
-0.996832, 81, 53, 208, 84
-0.996842, 347, 241, 362, 304
-0.996846, 315, 257, 330, 320
-0.996864, 315, 161, 330, 224
-0.996866, 181, 57, 196, 120
-0.99687, 285, 241, 300, 304
-0.996875, 329, 1, 392, 329
-0.996903, 377, 1, 440, 329
-0.99691, 143, 225, 158, 288
-0.996926, 323, 249, 338, 312
-0.996943, 73, 1, 136, 329
-0.996962, 137, 249, 152, 312
-0.996965, 149, 241, 164, 304
-0.996968, 441, 225, 456, 288
-0.996969, 97, 33, 352, 96
-0.996978, 303, 161, 318, 224
-0.996983, 209, 81, 224, 144
-0.996988, 449, 105, 464, 136
-0.996993, 1, 257, 128, 288
-0.996997, 159, 49, 174, 112
-0.997014, 145, 233, 272, 264
-0.997022, 423, 241, 438, 304
-0.997026, 369, 121, 496, 152
-0.997027, 335, 233, 350, 296
-0.997038, 155, 241, 170, 304
-0.997039, 301, 233, 316, 296
-0.99707, 141, 1, 172, 256
-0.997074, 249, 65, 312, 192
-0.997074, 217, 17, 232, 80
-0.997078, 225, 1, 288, 329
-0.997084, 353, 233, 368, 296
-0.997089, 49, 121, 176, 152
-0.99709, 479, 201, 494, 264
-0.997092, 353, 209, 480, 240
-0.997096, 143, 249, 158, 312
-0.997097, 307, 233, 322, 296
-0.997106, 13, 257, 28, 320
-0.997126, 97, 221, 224, 252
-0.997127, 81, 65, 208, 96
-0.997132, 7, 233, 22, 296
-0.997134, 217, 41, 232, 104
-0.997138, 1, 89, 500, 152
-0.99714, 65, 177, 192, 240
-0.997149, 129, 153, 256, 184
-0.997153, 73, 113, 136, 176
-0.997154, 313, 137, 328, 200
-0.997154, 305, 225, 432, 256
-0.99716, 337, 65, 400, 320
-0.997169, 193, 209, 256, 329
-0.997172, 447, 241, 462, 304
-0.997172, 113, 89, 240, 120
-0.997172, 369, 161, 496, 192
-0.997186, 177, 121, 192, 184
-0.997192, 229, 121, 244, 184
-0.997192, 235, 121, 250, 184
-0.997194, 157, 121, 172, 184
-0.997216, 193, 25, 208, 88
-0.997216, 97, 9, 352, 72
-0.997217, 477, 137, 492, 168
-0.997232, 465, 121, 480, 152
-0.997251, 217, 161, 280, 288
-0.997252, 447, 105, 462, 168
-0.997252, 171, 57, 186, 120
-0.997277, 171, 217, 186, 280
-0.99728, 153, 49, 168, 112
-0.997284, 111, 233, 126, 296
-0.997287, 115, 49, 130, 112
-0.997287, 165, 241, 180, 304
-0.997294, 151, 145, 166, 208
-0.99731, 455, 153, 470, 216
-0.997313, 315, 233, 330, 296
-0.997315, 171, 241, 186, 304
-0.997329, 429, 241, 444, 304
-0.997341, 127, 225, 142, 288
-0.997346, 149, 217, 164, 280
-0.997347, 479, 177, 494, 240
-0.99735, 279, 241, 294, 304
-0.997359, 485, 81, 500, 144
-0.997363, 469, 201, 484, 264
-0.99738, 455, 105, 470, 136
-0.997382, 465, 145, 480, 208
-0.997402, 301, 113, 316, 144
-0.997411, 145, 129, 160, 192
-0.997417, 369, 101, 496, 132
-0.99743, 257, 265, 500, 328
-0.997432, 477, 153, 492, 184
-0.997433, 303, 173, 318, 204
-0.997437, 81, 165, 208, 196
-0.997443, 185, 13, 200, 44
-0.997451, 479, 117, 494, 148
-0.997454, 177, 77, 304, 108
-0.997461, 361, 225, 376, 288
-0.997466, 471, 113, 486, 144
-0.99747, 211, 241, 226, 304
-0.997472, 1, 233, 128, 264
-0.997482, 187, 65, 202, 128
-0.997482, 485, 201, 500, 264
-0.99749, 417, 241, 432, 304
-0.997492, 257, 277, 384, 308
-0.997495, 257, 233, 384, 264
-0.997499, 367, 209, 382, 272
-0.997502, 317, 113, 332, 176
-0.997503, 1, 129, 64, 256
-0.997504, 445, 161, 460, 224
-0.997505, 465, 101, 480, 132
-0.997514, 225, 89, 352, 152
-0.997517, 321, 281, 448, 312
-0.997519, 485, 113, 500, 144
-0.997527, 121, 233, 136, 296
-0.997532, 447, 225, 462, 256
-0.997532, 147, 49, 162, 112
-0.997548, 129, 177, 256, 208
-0.997553, 317, 65, 348, 192
-0.997554, 273, 233, 288, 296
-0.99756, 455, 93, 470, 124
-0.99756, 267, 233, 282, 296
-0.997568, 161, 177, 416, 240
-0.997579, 439, 121, 454, 184
-0.997589, 155, 217, 170, 280
-0.997592, 163, 121, 178, 184
-0.997593, 361, 193, 376, 256
-0.99761, 445, 73, 460, 104
-0.99761, 471, 125, 486, 156
-0.997624, 177, 233, 192, 296
-0.997625, 13, 245, 28, 276
-0.997634, 137, 1, 152, 64
-0.997667, 141, 49, 156, 112
-0.997673, 455, 201, 470, 264
-0.997673, 257, 113, 288, 240
-0.997675, 435, 241, 450, 304
-0.997682, 175, 13, 190, 44
-0.99769, 451, 61, 466, 92
-0.997692, 121, 49, 136, 112
-0.997695, 297, 169, 312, 200
-0.997699, 353, 197, 480, 228
-0.997704, 465, 181, 480, 212
-0.997709, 187, 53, 202, 84
-0.997727, 311, 113, 326, 144
-0.997735, 209, 49, 272, 112
-0.99774, 445, 85, 460, 116
-0.997747, 49, 105, 112, 168
-0.997764, 209, 185, 336, 216
-0.997777, 15, 233, 30, 264
-0.997797, 143, 37, 158, 68
-0.997807, 143, 49, 158, 80
-0.997809, 455, 189, 470, 220
-0.997827, 453, 73, 468, 104
-0.997828, 467, 141, 482, 172
-0.997828, 209, 273, 336, 304
-0.99783, 353, 161, 384, 288
-0.997845, 449, 117, 464, 148
-0.997847, 273, 249, 400, 280
-0.997854, 277, 209, 308, 329
-0.997862, 129, 129, 256, 160
-0.997865, 221, 33, 252, 160
-0.997867, 273, 161, 400, 192
-0.99787, 185, 25, 200, 56
-0.997873, 441, 225, 456, 256
-0.99789, 257, 145, 500, 208
-0.997916, 485, 125, 500, 156
-0.997917, 21, 245, 36, 276
-0.99792, 309, 173, 324, 204
-0.997923, 129, 141, 256, 172
-0.997944, 321, 129, 448, 192
-0.997946, 443, 109, 458, 140
-0.99795, 401, 57, 464, 120
-0.997951, 485, 141, 500, 172
-0.997956, 1, 33, 256, 96
-0.997968, 453, 229, 468, 260
-0.997972, 165, 25, 180, 56
-0.997976, 289, 261, 416, 292
-0.997977, 475, 165, 490, 196
-0.997979, 457, 65, 488, 320
-0.997987, 1, 9, 256, 72
-0.997993, 193, 117, 320, 148
-0.997997, 121, 249, 136, 280
-0.998012, 151, 45, 166, 76
-0.998012, 159, 49, 174, 80
-0.998015, 65, 153, 192, 184
-0.998025, 369, 133, 496, 164
-0.998039, 61, 113, 92, 240
-0.998052, 321, 173, 448, 204
-0.998054, 143, 25, 158, 56
-0.998054, 97, 265, 224, 296
-0.998055, 287, 173, 302, 204
-0.998058, 1, 177, 128, 208
-0.998059, 485, 101, 500, 132
-0.99806, 111, 253, 126, 284
-0.998063, 417, 161, 448, 288
-0.998081, 209, 33, 240, 288
-0.998081, 273, 89, 336, 152
-0.998092, 481, 237, 496, 268
-0.998104, 459, 77, 474, 108
-0.998111, 177, 57, 304, 88
-0.998113, 157, 9, 172, 40
-0.998115, 273, 197, 400, 228
-0.998119, 337, 65, 400, 192
-0.99812, 305, 185, 432, 216
-0.998126, 301, 65, 332, 192
-0.998131, 139, 253, 154, 284
-0.99814, 131, 257, 146, 288
-0.99815, 21, 233, 36, 264
-0.998155, 433, 225, 448, 256
-0.998156, 273, 213, 400, 244
-0.998156, 485, 181, 500, 212
-0.998158, 129, 89, 384, 152
-0.99816, 147, 9, 162, 40
-0.998163, 169, 57, 184, 88
-0.998168, 159, 25, 174, 56
-0.998182, 13, 257, 28, 288
-0.998189, 185, 1, 200, 32
-0.998191, 369, 273, 496, 304
-0.998204, 329, 153, 392, 216
-0.998207, 441, 237, 456, 268
-0.998209, 437, 69, 452, 100
-0.998212, 469, 169, 484, 200
-0.998223, 315, 165, 330, 196
-0.998227, 1, 41, 500, 104
-0.998227, 461, 133, 476, 164
-0.998233, 301, 65, 332, 320
-0.998236, 33, 97, 288, 160
-0.998238, 217, 165, 232, 196
-0.998242, 345, 89, 408, 152
-0.998244, 393, 113, 424, 240
-0.998249, 443, 57, 458, 88
-0.998258, 439, 89, 454, 120
-0.998261, 307, 185, 322, 216
-0.998263, 249, 1, 312, 329
-0.998266, 447, 205, 462, 236
-0.998267, 1, 9, 500, 72
-0.998268, 141, 9, 156, 40
-0.998281, 455, 177, 470, 208
-0.998283, 317, 177, 332, 208
-0.998284, 171, 29, 186, 60
-0.998286, 149, 25, 164, 56
-0.998295, 361, 229, 376, 260
-0.998298, 317, 113, 332, 144
-0.998303, 129, 1, 160, 256
-0.99831, 463, 89, 478, 120
-0.998313, 7, 237, 22, 268
-0.99832, 49, 65, 112, 320
-0.998321, 153, 57, 168, 88
-0.998324, 321, 117, 448, 148
-0.998325, 435, 237, 450, 268
-0.998336, 177, 25, 192, 56
-0.998339, 163, 9, 178, 40
-0.99834, 125, 55, 156, 70
-0.998341, 441, 185, 472, 200
-0.998341, 129, 255, 160, 270
-0.998341, 209, 33, 240, 48
-0.998341, 69, 249, 100, 264
-0.998342, 197, 85, 228, 100
-0.998342, 153, 169, 184, 184
-0.998345, 25, 253, 56, 268
-0.998346, 201, 93, 232, 108
-0.998346, 111, 241, 126, 272
-0.998347, 153, 91, 184, 106
-0.998347, 469, 249, 500, 264
-0.998348, 189, 67, 220, 82
-0.998348, 473, 241, 488, 272
-0.998349, 181, 163, 212, 178
-0.998349, 285, 119, 316, 134
-0.99835, 1, 57, 256, 120
-0.998351, 445, 247, 476, 262
-0.998351, 189, 17, 220, 32
-0.998354, 129, 39, 160, 54
-0.998355, 169, 13, 184, 44
-0.998355, 141, 37, 172, 52
-0.998356, 125, 91, 156, 106
-0.998356, 205, 187, 236, 202
-0.998357, 209, 39, 240, 54
-0.998358, 209, 49, 240, 64
-0.99836, 209, 167, 240, 182
-0.99836, 209, 67, 240, 82
-0.99836, 209, 81, 240, 96
-0.99836, 189, 65, 204, 96
-0.998361, 429, 111, 460, 126
-0.998361, 165, 167, 196, 182
-0.998363, 453, 143, 484, 158
-0.998364, 145, 125, 176, 140
-0.998364, 173, 91, 204, 106
-0.998365, 417, 245, 448, 260
-0.998365, 125, 61, 156, 76
-0.998366, 209, 73, 240, 88
-0.998366, 457, 243, 488, 258
-0.998367, 153, 67, 184, 82
-0.998368, 193, 41, 224, 56
-0.99837, 433, 61, 464, 76
-0.99837, 209, 55, 240, 70
-0.998371, 89, 253, 120, 268
-0.998372, 209, 61, 240, 76
-0.998373, 325, 249, 356, 264
-0.998373, 161, 27, 192, 42
-0.998374, 179, 1, 194, 32
-0.998377, 289, 113, 320, 128
-0.998378, 189, 35, 220, 50
-0.998381, 13, 245, 44, 260
-0.998382, 469, 85, 500, 100
-0.998383, 21, 235, 52, 250
-0.998384, 209, 85, 224, 116
-0.998385, 161, 89, 288, 120
-0.998385, 217, 183, 248, 198
-0.998386, 293, 187, 324, 202
-0.998388, 429, 127, 460, 142
-0.99839, 197, 55, 228, 70
-0.99839, 323, 173, 338, 204
-0.998392, 141, 25, 172, 40
-0.998392, 295, 181, 310, 212
-0.998394, 209, 87, 240, 102
-0.998397, 153, 163, 184, 178
-0.9984, 467, 245, 482, 276
-0.998401, 437, 83, 468, 98
-0.998401, 165, 11, 196, 26
-0.998401, 173, 41, 204, 56
-0.998402, 453, 199, 484, 214
-0.998403, 305, 177, 336, 192
-0.998404, 273, 175, 304, 190
-0.998406, 145, 35, 208, 50
-0.998406, 173, 67, 204, 82
-0.998406, 465, 159, 496, 174
-0.998406, 13, 257, 44, 272
-0.998407, 453, 137, 484, 152
-0.998407, 141, 51, 172, 66
-0.998411, 465, 101, 496, 116
-0.998411, 429, 75, 460, 90
-0.998414, 175, 57, 190, 88
-0.998415, 281, 185, 312, 200
-0.998415, 141, 63, 172, 78
-0.99842, 189, 29, 220, 44
-0.998421, 189, 47, 220, 62
-0.998422, 453, 187, 484, 202
-0.998423, 469, 95, 500, 110
-0.998424, 297, 121, 328, 136
-0.998424, 117, 259, 148, 274
-0.998425, 177, 55, 208, 70
-0.998426, 305, 171, 336, 186
-0.998428, 427, 237, 442, 268
-0.998428, 185, 1, 216, 256
-0.998431, 421, 239, 452, 254
-0.998432, 141, 11, 172, 26
-0.998432, 189, 91, 220, 106
-0.998434, 173, 21, 204, 36
-0.998434, 105, 255, 136, 270
-0.998434, 469, 109, 500, 124
-0.998434, 151, 121, 166, 152
-0.998435, 121, 77, 136, 108
-0.998435, 183, 37, 198, 68
-0.998437, 433, 227, 464, 242
-0.998437, 465, 169, 496, 184
-0.998438, 163, 65, 178, 96
-0.99844, 1, 247, 32, 262
-0.99844, 117, 249, 148, 264
-0.998443, 433, 121, 464, 136
-0.998443, 147, 249, 162, 280
-0.998444, 449, 129, 464, 160
-0.998444, 293, 209, 324, 329
-0.998445, 177, 11, 208, 26
-0.998447, 437, 89, 468, 104
-0.998448, 433, 237, 464, 252
-0.998449, 289, 179, 320, 194
-0.998451, 33, 41, 160, 104
-0.998451, 455, 129, 470, 160
-0.998452, 465, 147, 496, 162
-0.998452, 203, 165, 218, 196
-0.998452, 321, 261, 336, 292
-0.998454, 465, 139, 496, 154
-0.998457, 155, 153, 170, 184
-0.998458, 471, 101, 486, 132
-0.998459, 9, 237, 40, 252
-0.998461, 141, 31, 172, 46
-0.998462, 189, 61, 220, 76
-0.998462, 443, 121, 458, 152
-0.998473, 453, 193, 484, 208
-0.998475, 141, 57, 172, 72
-0.998475, 469, 119, 500, 134
-0.998475, 437, 95, 468, 110
-0.998476, 441, 133, 472, 148
-0.998479, 441, 67, 472, 82
-0.998483, 153, 61, 184, 76
-0.998483, 145, 59, 208, 74
-0.998483, 173, 27, 204, 42
-0.998484, 153, 33, 184, 48
-0.998486, 191, 9, 206, 40
-0.998488, 141, 45, 172, 60
-0.998489, 465, 153, 496, 168
-0.998493, 453, 93, 484, 108
-0.998494, 105, 249, 120, 280
-0.998495, 437, 105, 468, 120
-0.998496, 183, 65, 198, 96
-0.998498, 353, 185, 480, 216
-0.998498, 311, 261, 326, 292
-0.998498, 449, 85, 480, 100
-0.998499, 441, 75, 472, 90
-0.9985, 485, 153, 500, 184
-0.998501, 13, 251, 44, 266
-0.998503, 441, 115, 472, 130
-0.998505, 173, 61, 204, 76
-0.998507, 355, 233, 370, 264
-0.998509, 217, 17, 232, 48
-0.998509, 433, 133, 496, 148
-0.99851, 479, 105, 494, 136
-0.99851, 295, 113, 310, 144
-0.99851, 465, 181, 496, 196
-0.998511, 129, 105, 256, 136
-0.998512, 281, 175, 344, 190
-0.998517, 417, 127, 480, 142
-0.998518, 469, 127, 500, 142
-0.998518, 217, 29, 232, 60
-0.998518, 485, 165, 500, 196
-0.998521, 469, 239, 500, 254
-0.998524, 105, 41, 168, 56
-0.998524, 137, 11, 200, 26
-0.998528, 145, 47, 208, 62
-0.998533, 121, 63, 184, 78
-0.998533, 173, 35, 204, 50
-0.998535, 457, 119, 488, 134
-0.998536, 145, 41, 208, 56
-0.998537, 1, 269, 128, 300
-0.998541, 433, 79, 496, 94
-0.998541, 307, 101, 322, 132
-0.998542, 145, 27, 208, 42
-0.998542, 433, 117, 496, 132
-0.998543, 105, 55, 168, 70
-0.998544, 293, 173, 324, 188
-0.998544, 433, 237, 496, 252
-0.998545, 145, 53, 208, 68
-0.998545, 301, 115, 332, 130
-0.998547, 217, 41, 232, 72
-0.998549, 469, 133, 500, 148
-0.998549, 121, 29, 184, 44
-0.998549, 173, 69, 188, 100
-0.998549, 465, 175, 496, 190
-0.998552, 461, 245, 476, 276
-0.998555, 425, 139, 488, 154
-0.998557, 433, 97, 496, 112
-0.998557, 81, 255, 144, 270
-0.998557, 433, 87, 496, 102
-0.998559, 337, 69, 464, 100
-0.998561, 155, 169, 170, 200
-0.998564, 161, 165, 176, 196
-0.998564, 453, 101, 484, 116
-0.998565, 137, 21, 200, 36
-0.998566, 217, 73, 232, 104
-0.998566, 451, 245, 466, 276
-0.998568, 105, 49, 168, 64
-0.998569, 169, 27, 232, 42
-0.998573, 145, 269, 272, 300
-0.998576, 273, 1, 336, 329
-0.99858, 185, 47, 248, 62
-0.998581, 223, 165, 238, 196
-0.998581, 305, 261, 320, 292
-0.998582, 401, 227, 464, 242
-0.998582, 217, 5, 232, 36
-0.998583, 433, 179, 496, 194
-0.998585, 185, 61, 248, 76
-0.998588, 1, 237, 64, 252
-0.998589, 225, 161, 352, 192
-0.998589, 1, 255, 64, 270
-0.998592, 433, 231, 496, 246
-0.998592, 217, 177, 248, 304
-0.998594, 425, 107, 488, 122
-0.998594, 33, 133, 160, 164
-0.998594, 433, 169, 496, 184
-0.998595, 121, 35, 184, 50
-0.998596, 409, 239, 472, 254
-0.998597, 433, 73, 496, 88
-0.998597, 41, 249, 104, 264
-0.998598, 453, 131, 484, 146
-0.9986, 185, 33, 248, 48
-0.9986, 121, 253, 184, 268
-0.998603, 425, 199, 488, 214
-0.998604, 477, 113, 492, 240
-0.998607, 89, 249, 152, 264
-0.998608, 445, 121, 476, 136
-0.998608, 425, 145, 488, 160
-0.998609, 305, 171, 368, 186
-0.998611, 281, 169, 344, 184
-0.998612, 281, 181, 344, 196
-0.998613, 185, 41, 248, 56
-0.998613, 185, 55, 248, 70
-0.998613, 169, 9, 232, 24
-0.998613, 187, 1, 202, 128
-0.998614, 121, 91, 184, 106
-0.998616, 145, 65, 208, 80
-0.998616, 17, 249, 80, 264
-0.998617, 145, 167, 208, 182
-0.998619, 261, 209, 292, 329
-0.99862, 425, 193, 488, 208
-0.998621, 369, 285, 496, 316
-0.998623, 145, 161, 208, 176
-0.998623, 105, 21, 168, 36
-0.998624, 121, 69, 184, 84
-0.998626, 153, 91, 216, 106
-0.998627, 409, 121, 472, 136
-0.998629, 257, 171, 320, 186
-0.99863, 169, 165, 232, 180
-0.998631, 417, 247, 480, 262
-0.998631, 441, 127, 472, 142
-0.998632, 457, 111, 488, 126
-0.998632, 377, 65, 440, 192
-0.998634, 145, 257, 272, 288
-0.998634, 289, 119, 352, 134
-0.998635, 147, 1, 162, 128
-0.998636, 313, 251, 376, 266
-0.998638, 25, 255, 88, 270
-0.998638, 185, 21, 248, 36
-0.998639, 305, 179, 368, 194
-0.998641, 433, 163, 496, 178
-0.998645, 225, 181, 288, 196
-0.998648, 305, 185, 368, 200
-0.998651, 105, 15, 168, 30
-0.998652, 425, 185, 488, 200
-0.998653, 257, 177, 320, 192
-0.998655, 201, 183, 264, 198
-0.998655, 105, 85, 168, 100
-0.998656, 265, 113, 328, 128
-0.998658, 385, 245, 448, 260
-0.99866, 177, 159, 240, 174
-0.99866, 169, 67, 232, 82
-0.99866, 177, 93, 240, 108
-0.998661, 65, 247, 128, 262
-0.998662, 409, 95, 472, 110
-0.998662, 193, 167, 256, 182
-0.998664, 173, 1, 188, 128
-0.998666, 273, 187, 336, 202
-0.998666, 57, 255, 120, 270
-0.998667, 169, 15, 232, 30
-0.998668, 1, 261, 64, 276
-0.998669, 97, 27, 160, 42
-0.99867, 289, 113, 352, 128
-0.99867, 425, 205, 488, 220
-0.998671, 409, 133, 472, 148
-0.998671, 337, 247, 400, 262
-0.998671, 377, 237, 440, 252
-0.998671, 97, 61, 160, 76
-0.998672, 457, 125, 488, 140
-0.998672, 17, 243, 80, 258
-0.998672, 353, 225, 416, 240
-0.998673, 137, 125, 200, 140
-0.998674, 105, 259, 168, 274
-0.998676, 177, 237, 240, 252
-0.998676, 209, 249, 272, 264
-0.998678, 401, 221, 464, 236
-0.998678, 329, 281, 392, 296
-0.998679, 313, 241, 376, 256
-0.998681, 401, 201, 464, 216
-0.998682, 25, 237, 88, 252
-0.998683, 289, 249, 352, 264
-0.998683, 297, 279, 360, 294
-0.998684, 433, 225, 496, 240
-0.998685, 329, 223, 392, 238
-0.998687, 1, 229, 64, 244
-0.998688, 409, 115, 472, 130
-0.998688, 105, 9, 168, 24
-0.998688, 409, 101, 472, 116
-0.99869, 353, 233, 416, 248
-0.99869, 233, 245, 296, 260
-0.998691, 401, 89, 464, 104
-0.998691, 321, 215, 384, 230
-0.998692, 97, 33, 160, 48
-0.998692, 161, 245, 224, 260
-0.998692, 177, 45, 304, 76
-0.998695, 81, 261, 144, 276
-0.998695, 81, 241, 144, 256
-0.998695, 97, 91, 160, 106
-0.998696, 137, 141, 200, 156
-0.998696, 281, 161, 312, 288
-0.998697, 401, 195, 464, 210
-0.998697, 485, 177, 500, 304
-0.998697, 137, 247, 200, 262
-0.998697, 337, 241, 400, 256
-0.998699, 137, 5, 200, 20
-0.9987, 233, 169, 296, 184
-0.998701, 273, 277, 336, 292
-0.998701, 353, 283, 416, 298
-0.998701, 433, 157, 496, 172
-0.998704, 353, 261, 480, 292
-0.998708, 159, 1, 174, 128
-0.998709, 37, 161, 68, 288
-0.998712, 453, 193, 468, 320
-0.998727, 81, 1, 208, 32
-0.998733, 461, 177, 476, 304
-0.998736, 485, 97, 500, 224
-0.998736, 467, 97, 482, 224
-0.998755, 17, 221, 144, 252
-0.998757, 447, 193, 462, 320
-0.998773, 179, 17, 194, 144
-0.99878, 153, 1, 168, 128
-0.998789, 109, 65, 140, 192
-0.998801, 461, 113, 476, 240
-0.998802, 369, 173, 496, 204
-0.998822, 165, 1, 180, 128
-0.998841, 313, 113, 328, 240
-0.998864, 49, 109, 176, 140
-0.998874, 177, 1, 304, 32
-0.998896, 177, 29, 304, 60
-0.9989, 9, 137, 72, 200
-0.998907, 469, 161, 484, 288
-0.998933, 455, 113, 470, 240
-0.998939, 241, 117, 368, 148
-0.99895, 33, 165, 160, 196
-0.998983, 441, 209, 456, 329
-0.999003, 193, 233, 320, 264
-0.999009, 461, 65, 476, 192
-0.999046, 153, 49, 168, 176
-0.99905, 451, 49, 466, 176
-0.99905, 187, 49, 202, 176
-0.999054, 163, 49, 178, 176
-0.999064, 49, 1, 112, 329
-0.999073, 9, 1, 72, 329
-0.999077, 177, 149, 304, 180
-0.999088, 177, 105, 304, 136
-0.999089, 197, 33, 228, 288
-0.999096, 173, 65, 188, 192
-0.9991, 1, 185, 256, 248
-0.999101, 477, 161, 492, 288
-0.99911, 307, 113, 322, 240
-0.999113, 225, 89, 480, 152
-0.999143, 65, 93, 192, 124
-0.999162, 81, 141, 208, 172
-0.999163, 353, 149, 480, 180
-0.999185, 141, 1, 156, 128
-0.999191, 147, 49, 162, 176
-0.999194, 177, 221, 304, 252
-0.999195, 181, 65, 196, 192
-0.999196, 153, 161, 168, 288
-0.999211, 97, 209, 224, 240
-0.999215, 97, 57, 352, 120
-0.999223, 33, 29, 160, 60
-0.999225, 151, 113, 166, 240
-0.999232, 319, 113, 334, 240
-0.999236, 157, 113, 172, 240
-0.99924, 17, 153, 144, 184
-0.999242, 177, 113, 192, 240
-0.999268, 177, 17, 304, 48
-0.999283, 113, 65, 144, 320
-0.999285, 299, 113, 314, 240
-0.999293, 217, 1, 232, 128
-0.999295, 289, 105, 416, 136
-0.999295, 435, 161, 450, 288
-0.9993, 423, 209, 438, 329
-0.999301, 329, 161, 360, 288
-0.999307, 289, 65, 320, 320
-0.99931, 435, 209, 450, 329
-0.99931, 33, 49, 160, 80
-0.999314, 33, 1, 160, 32
-0.999319, 163, 113, 178, 240
-0.999332, 33, 17, 160, 48
-0.999341, 231, 113, 246, 240
-0.999344, 363, 209, 378, 329
-0.999345, 141, 65, 156, 192
-0.999349, 417, 65, 448, 320
-0.999351, 169, 161, 184, 288
-0.999355, 313, 65, 344, 320
-0.999358, 175, 161, 190, 288
-0.99936, 429, 209, 444, 329
-0.999365, 159, 161, 174, 288
-0.999365, 445, 113, 460, 240
-0.999366, 13, 177, 28, 304
-0.999372, 471, 209, 486, 329
-0.999372, 417, 209, 432, 329
-0.999372, 49, 177, 176, 208
-0.999378, 315, 161, 330, 288
-0.99938, 171, 113, 186, 240
-0.999381, 125, 209, 140, 329
-0.999391, 193, 1, 208, 128
-0.999395, 159, 209, 174, 329
-0.999395, 181, 161, 196, 288
-0.999398, 145, 113, 160, 240
-0.999398, 5, 177, 20, 304
-0.999402, 183, 113, 198, 240
-0.999413, 369, 193, 384, 320
-0.999414, 143, 209, 158, 329
-0.999415, 337, 209, 352, 329
-0.999416, 161, 189, 288, 220
-0.999417, 149, 209, 164, 329
-0.999426, 21, 177, 36, 304
-0.999427, 485, 49, 500, 176
-0.999428, 209, 65, 224, 192
-0.99943, 189, 113, 204, 240
-0.999432, 411, 209, 426, 329
-0.999446, 165, 209, 180, 329
-0.999457, 479, 209, 494, 329
-0.999467, 217, 49, 232, 176
-0.999476, 309, 161, 324, 288
-0.999477, 441, 161, 456, 288
-0.999481, 137, 209, 152, 329
-0.999481, 249, 209, 280, 329
-0.999484, 131, 209, 146, 329
-0.999485, 117, 65, 132, 192
-0.999487, 173, 209, 188, 329
-0.999494, 237, 113, 252, 240
-0.999495, 401, 193, 416, 320
-0.999496, 473, 65, 488, 192
-0.999496, 467, 49, 482, 176
-0.999497, 479, 49, 494, 176
-0.999498, 1, 281, 128, 312
-0.9995, 331, 209, 346, 329
-0.999504, 121, 161, 152, 288
-0.999513, 439, 65, 454, 192
-0.999513, 355, 209, 370, 329
-0.999515, 111, 209, 126, 329
-0.999516, 225, 129, 240, 256
-0.999535, 325, 113, 340, 240
-0.99954, 225, 149, 352, 180
-0.999543, 207, 1, 222, 128
-0.999545, 195, 113, 210, 240
-0.999546, 361, 161, 376, 288
-0.999547, 187, 161, 202, 288
-0.99955, 49, 269, 176, 300
-0.999555, 147, 161, 162, 288
-0.999556, 223, 81, 238, 208
-0.999561, 193, 91, 208, 106
-0.999561, 315, 169, 330, 184
-0.999562, 213, 187, 228, 202
-0.999562, 187, 23, 202, 38
-0.999563, 159, 31, 174, 46
-0.999565, 169, 67, 184, 82
-0.999565, 181, 33, 196, 48
-0.999565, 477, 105, 492, 120
-0.999566, 211, 91, 226, 106
-0.999566, 149, 125, 164, 140
-0.999567, 187, 29, 202, 44
-0.999567, 461, 79, 476, 94
-0.999567, 303, 111, 318, 126
-0.999567, 317, 179, 332, 194
-0.999567, 215, 97, 230, 224
-0.999569, 375, 193, 390, 320
-0.999571, 205, 129, 220, 256
-0.999575, 301, 123, 316, 138
-0.999575, 21, 235, 36, 250
-0.999575, 469, 177, 484, 192
-0.999575, 461, 87, 476, 102
-0.999576, 143, 41, 158, 56
-0.999576, 289, 185, 304, 200
-0.999576, 285, 179, 300, 194
-0.999576, 121, 91, 136, 106
-0.999577, 181, 63, 196, 78
-0.999578, 133, 257, 148, 272
-0.999578, 175, 67, 190, 82
-0.999578, 455, 181, 470, 196
-0.999578, 199, 91, 214, 106
-0.999579, 435, 75, 450, 90
-0.999581, 475, 241, 490, 256
-0.999581, 485, 181, 500, 196
-0.999581, 443, 97, 458, 112
-0.999582, 443, 111, 458, 126
-0.999582, 297, 179, 312, 194
-0.999583, 213, 181, 228, 196
-0.999584, 391, 209, 406, 329
-0.999585, 115, 1, 130, 128
-0.999585, 173, 9, 188, 24
-0.999586, 441, 71, 456, 86
-0.999587, 163, 61, 178, 76
-0.999587, 181, 25, 196, 40
-0.999587, 127, 259, 142, 274
-0.999588, 151, 61, 166, 76
-0.999588, 361, 113, 376, 240
-0.999588, 193, 49, 208, 176
-0.999589, 455, 193, 470, 208
-0.999592, 459, 101, 474, 116
-0.999592, 311, 119, 326, 134
-0.999593, 427, 239, 442, 254
-0.999593, 439, 123, 454, 138
-0.999593, 385, 209, 400, 329
-0.999593, 33, 177, 48, 304
-0.999594, 143, 61, 158, 76
-0.999595, 309, 65, 324, 192
-0.999597, 445, 65, 460, 192
-0.999597, 319, 65, 334, 192
-0.999597, 465, 187, 480, 202
-0.999598, 477, 111, 492, 126
-0.999598, 21, 251, 36, 266
-0.9996, 147, 35, 162, 50
-0.999601, 323, 161, 338, 288
-0.999602, 467, 107, 482, 122
-0.999603, 141, 33, 156, 48
-0.999603, 117, 255, 132, 270
-0.999604, 447, 227, 462, 242
-0.999604, 435, 239, 450, 254
-0.999604, 41, 177, 56, 304
-0.999604, 333, 113, 348, 240
-0.999606, 455, 81, 470, 96
-0.999607, 291, 113, 306, 240
-0.999607, 205, 91, 220, 106
-0.999607, 485, 123, 500, 138
-0.999607, 225, 105, 352, 136
-0.999608, 15, 255, 30, 270
-0.999608, 469, 95, 484, 110
-0.999608, 301, 161, 316, 288
-0.99961, 321, 129, 448, 160
-0.99961, 193, 129, 320, 160
-0.999611, 451, 65, 466, 80
-0.999612, 481, 239, 496, 254
-0.999615, 455, 187, 470, 202
-0.999617, 105, 209, 120, 329
-0.999617, 171, 33, 186, 48
-0.999619, 179, 11, 194, 26
-0.999621, 367, 113, 382, 240
-0.999622, 237, 65, 268, 320
-0.999622, 179, 209, 194, 329
-0.999623, 243, 113, 258, 240
-0.999623, 151, 45, 166, 60
-0.999624, 157, 59, 172, 74
-0.999625, 297, 117, 312, 132
-0.999625, 145, 55, 160, 70
-0.999626, 427, 113, 442, 240
-0.999626, 291, 179, 306, 194
-0.999626, 441, 237, 456, 252
-0.999626, 467, 143, 482, 158
-0.999627, 329, 161, 344, 288
-0.999627, 27, 177, 42, 304
-0.999629, 187, 57, 202, 72
-0.99963, 285, 113, 300, 240
-0.999631, 143, 27, 158, 42
-0.999631, 485, 115, 500, 130
-0.999632, 337, 57, 464, 88
-0.999633, 225, 197, 352, 228
-0.999634, 441, 105, 456, 120
-0.999637, 447, 73, 462, 88
-0.999638, 485, 143, 500, 158
-0.999639, 143, 47, 158, 62
-0.999639, 169, 61, 184, 76
-0.999641, 187, 63, 202, 78
-0.999642, 185, 11, 200, 26
-0.999642, 461, 93, 476, 108
-0.999645, 187, 35, 202, 50
-0.999645, 455, 87, 470, 102
-0.999646, 413, 65, 444, 192
-0.999646, 175, 61, 190, 76
-0.999647, 205, 177, 220, 304
-0.999648, 295, 173, 310, 188
-0.999648, 343, 209, 358, 329
-0.999648, 467, 137, 482, 152
-0.999649, 15, 247, 30, 262
-0.99965, 445, 127, 460, 142
-0.99965, 465, 101, 480, 116
-0.999651, 303, 175, 318, 190
-0.999652, 481, 135, 496, 150
-0.999653, 455, 95, 470, 110
-0.999654, 475, 169, 490, 184
-0.999655, 257, 65, 288, 320
-0.999656, 79, 209, 94, 329
-0.999657, 453, 73, 468, 88
-0.999657, 451, 133, 466, 148
-0.999657, 67, 209, 82, 329
-0.999658, 119, 209, 134, 329
-0.999662, 449, 115, 464, 130
-0.999664, 185, 17, 200, 32
-0.999665, 443, 87, 458, 102
-0.999665, 49, 189, 176, 220
-0.999666, 447, 121, 462, 136
-0.999666, 123, 33, 138, 160
-0.999667, 249, 113, 264, 240
-0.999669, 339, 113, 354, 240
-0.999669, 33, 17, 160, 144
-0.999671, 73, 209, 88, 329
-0.999672, 485, 129, 500, 144
-0.999672, 473, 137, 488, 152
-0.999673, 449, 89, 464, 104
-0.999674, 13, 237, 28, 252
-0.999675, 449, 103, 464, 118
-0.999681, 461, 137, 476, 152
-0.999685, 321, 161, 448, 192
-0.999685, 471, 115, 486, 130
-0.999686, 165, 29, 180, 44
-0.999688, 273, 65, 304, 320
-0.999695, 303, 117, 318, 132
-0.999697, 473, 121, 488, 136
-0.999697, 479, 125, 494, 140
-0.999703, 461, 109, 476, 124
-0.999704, 477, 155, 492, 170
-0.999705, 447, 81, 462, 96
-0.999705, 479, 119, 494, 134
-0.999705, 477, 163, 492, 178
-0.99971, 309, 113, 324, 128
-0.999716, 451, 109, 466, 124
-0.999723, 449, 95, 464, 110
-0.999731, 471, 131, 486, 146
-0.999733, 461, 119, 476, 134
-0.999736, 441, 77, 456, 92
-0.999749, 467, 125, 482, 140
-0.999753, 477, 145, 492, 160
-0.999754, 455, 119, 470, 134
-0.999769, 289, 65, 320, 192
-0.999774, 33, 77, 160, 108
-0.999785, 451, 127, 466, 142
-0.999803, 405, 65, 436, 320
-0.999815, 221, 65, 252, 320
-0.999819, 465, 131, 480, 146
-0.999822, 373, 65, 404, 320
-0.999823, 457, 131, 472, 146
-0.999829, 321, 81, 448, 112
-0.999843, 325, 65, 356, 320
-0.999857, 457, 125, 472, 140
-0.99988, 81, 77, 208, 108
-0.999883, 97, 65, 128, 320
-0.999896, 145, 209, 272, 240
-0.999934, 337, 65, 368, 320
-0.999964, 377, 89, 440, 152
-0.999967, 33, 293, 160, 324
-0.999974, 221, 81, 252, 208
-1.00001, 385, 65, 416, 320
-1.00001, 97, 277, 224, 308
-1.00002, 209, 89, 336, 120
-1.00003, 273, 193, 336, 256
-1.00003, 357, 65, 388, 320
-1.00006, 241, 129, 368, 160
-1.00007, 113, 189, 240, 220
-1.00009, 441, 1, 472, 128
-1.00012, 241, 293, 368, 324
-1.00014, 321, 297, 448, 328
-1.00016, 1, 121, 128, 152
-1.00017, 73, 65, 104, 320
-1.00018, 125, 113, 156, 240
-1.00022, 1, 89, 128, 152
-1.00024, 33, 209, 160, 240
-1.00024, 209, 185, 272, 248
-1.00025, 85, 65, 116, 320
-1.00026, 233, 65, 264, 192
-1.00032, 49, 65, 80, 320
-1.00033, 337, 45, 464, 76
-1.00033, 49, 281, 176, 312
-1.00039, 145, 281, 272, 312
-1.00043, 13, 65, 44, 320
-1.00045, 61, 65, 92, 320
-1.00046, 225, 1, 288, 64
-1.00046, 73, 113, 104, 240
-1.0005, 9, 105, 72, 168
-1.00051, 273, 65, 336, 192
-1.00054, 257, 41, 500, 104
-1.00064, 377, 161, 440, 288
-1.00064, 1, 65, 500, 128
-1.00065, 105, 1, 136, 128
-1.00073, 69, 161, 100, 288
-1.00076, 225, 49, 352, 112
-1.00083, 105, 161, 136, 288
-1.00084, 237, 193, 268, 320
-1.00084, 1, 65, 32, 320
-1.00088, 257, 17, 384, 80
-1.00099, 257, 65, 500, 128
-1.00099, 37, 65, 68, 320
-1.001, 345, 65, 376, 192
-1.00103, 85, 113, 116, 240
-1.00112, 257, 9, 500, 72
-1.00115, 25, 33, 56, 288
-1.00126, 49, 161, 80, 288
-1.00128, 369, 1, 496, 64
-1.00131, 305, 49, 432, 112
-1.0014, 41, 177, 104, 240
-1.00141, 25, 65, 88, 320
-1.00147, 305, 1, 432, 64
-1.00152, 397, 161, 428, 288
-1.00153, 65, 145, 128, 208
-1.00157, 241, 161, 304, 288
-1.00163, 433, 1, 496, 128
-1.00169, 321, 81, 384, 144
-1.00178, 469, 1, 500, 128
-1.00184, 25, 201, 88, 264
-1.00186, 109, 113, 140, 240
-1.00186, 429, 17, 460, 144
-1.00191, 245, 65, 276, 192
-1.00199, 37, 113, 68, 240
-1.00215, 277, 65, 308, 192
-1.00219, 85, 161, 116, 288
-1.0022, 1, 129, 32, 256
-1.00226, 49, 65, 112, 192
-1.00236, 269, 161, 300, 288
-1.00246, 397, 65, 428, 192
-1.00247, 97, 49, 128, 176
-1.00252, 373, 65, 404, 192
-1.00269, 65, 65, 96, 192
-1.00289, 1, 65, 64, 320
-1.00289, 225, 17, 480, 144
-1.003, 385, 65, 416, 192
-1.00313, 17, 65, 144, 128
-1.00318, 361, 65, 392, 192
-1.00333, 333, 65, 364, 192
-1.00333, 97, 113, 128, 240
-1.0035, 257, 65, 288, 192
-1.00361, 25, 97, 56, 224
-1.00361, 53, 65, 84, 192
-1.00379, 225, 1, 288, 128
-1.00444, 321, 17, 448, 144
-1.00445, 257, 161, 288, 288
-1.00466, 225, 17, 352, 144
-1.00516, 9, 65, 72, 192
-1.00574, 273, 17, 400, 144
-1.00937, 377, 17, 440, 144
-1.01096, 353, 17, 416, 144
-1.01103, 401, 1, 464, 128
-1.01125, 313, 17, 376, 144
-1.01433, 257, 17, 320, 144
-1.0147, 41, 17, 104, 144
-1.01511, 289, 17, 352, 144
-1.01587, 9, 17, 72, 144
