1881
-0.285984, 1, 1, 500, 333
-0.410547, 257, 1, 500, 333
-0.448863, 1, 1, 500, 256
-0.547888, 225, 1, 480, 256
-0.548712, 161, 1, 416, 333
-0.578009, 33, 1, 288, 333
-0.708691, 129, 1, 384, 256
-0.782735, 33, 1, 288, 256
-0.855564, 305, 1, 432, 333
-0.861011, 289, 1, 416, 256
-0.861218, 225, 1, 352, 256
-0.867186, 225, 1, 352, 333
-0.877663, 369, 65, 496, 320
-0.885482, 353, 1, 480, 333
-0.890803, 177, 1, 304, 333
-0.890923, 177, 1, 304, 256
-0.897459, 1, 97, 500, 224
-0.904114, 113, 1, 240, 333
-0.906168, 129, 65, 256, 320
-0.914531, 65, 1, 192, 256
-0.915721, 1, 177, 500, 304
-0.918576, 225, 97, 480, 224
-0.920771, 1, 49, 500, 176
-0.922195, 257, 33, 500, 160
-0.923598, 65, 1, 192, 333
-0.924977, 1, 1, 500, 128
-0.933498, 161, 145, 416, 272
-0.934066, 225, 97, 352, 224
-0.935447, 33, 113, 288, 240
-0.939232, 161, 1, 416, 128
-0.942259, 1, 1, 128, 333
-0.942385, 161, 193, 416, 320
-0.942811, 129, 97, 384, 224
-0.943403, 33, 161, 288, 288
-0.944011, 353, 129, 480, 256
-0.945285, 425, 97, 488, 224
-0.946146, 97, 49, 352, 176
-0.949001, 289, 33, 416, 160
-0.949652, 257, 145, 500, 272
-0.949747, 209, 145, 336, 272
-0.950108, 305, 97, 432, 224
-0.952494, 177, 81, 304, 208
-0.952599, 1, 1, 128, 256
-0.95366, 161, 145, 288, 272
-0.953676, 281, 97, 344, 224
-0.953815, 401, 113, 464, 240
-0.953887, 289, 177, 416, 304
-0.953972, 209, 113, 272, 240
-0.954378, 313, 161, 376, 288
-0.95474, 313, 185, 376, 248
-0.955476, 249, 97, 312, 224
-0.955961, 257, 105, 320, 168
-0.95628, 225, 137, 288, 200
-0.956421, 193, 1, 320, 128
-0.956915, 33, 1, 288, 128
-0.957345, 369, 33, 432, 160
-0.957657, 209, 161, 272, 224
-0.958853, 241, 1, 368, 128
-0.959076, 233, 105, 296, 168
-0.959421, 409, 49, 472, 176
-0.960017, 369, 33, 432, 96
-0.960295, 257, 193, 500, 320
-0.960819, 129, 97, 256, 224
-0.962512, 169, 129, 232, 256
-0.962536, 225, 193, 352, 320
-0.962951, 313, 17, 376, 144
-0.963025, 353, 113, 416, 240
-0.963219, 1, 129, 64, 256
-0.963262, 289, 105, 352, 168
-0.963322, 185, 145, 248, 208
-0.963387, 281, 33, 344, 160
-0.963563, 353, 65, 480, 192
-0.963786, 337, 33, 400, 96
-0.964042, 1, 145, 128, 272
-0.964044, 257, 177, 320, 240
-0.964054, 113, 113, 176, 240
-0.964391, 81, 113, 208, 240
-0.965673, 377, 113, 440, 240
-0.965791, 209, 97, 272, 160
-0.96585, 185, 65, 248, 192
-0.965946, 241, 1, 304, 128
-0.966097, 305, 113, 368, 240
-0.966202, 225, 49, 352, 176
-0.966291, 145, 113, 208, 240
-0.966888, 289, 177, 352, 304
-0.967362, 289, 73, 352, 136
-0.967849, 129, 33, 256, 160
-0.967889, 265, 145, 328, 272
-0.967891, 329, 97, 392, 224
-0.968082, 337, 1, 400, 64
-0.968271, 217, 161, 280, 288
-0.968332, 433, 145, 496, 272
-0.968745, 257, 65, 320, 320
-0.96875, 345, 177, 408, 304
-0.969174, 409, 81, 472, 144
-0.969233, 65, 161, 192, 288
-0.969239, 217, 185, 280, 248
-0.96931, 297, 209, 360, 272
-0.96932, 353, 177, 480, 304
-0.969396, 249, 129, 312, 192
-0.969421, 233, 1, 296, 256
-0.969635, 425, 105, 488, 168
-0.969844, 241, 177, 304, 304
-0.969957, 457, 97, 488, 224
-0.970039, 401, 121, 464, 184
-0.970228, 297, 25, 360, 88
-0.970558, 177, 121, 240, 184
-0.970831, 257, 17, 320, 80
-0.970931, 33, 129, 96, 256
-0.970938, 217, 65, 280, 192
-0.970996, 393, 161, 456, 288
-0.971119, 1, 97, 128, 224
-0.971187, 193, 1, 256, 128
-0.971359, 329, 97, 392, 160
-0.971369, 337, 33, 400, 160
-0.971742, 281, 1, 344, 256
-0.972195, 369, 1, 432, 256
-0.972291, 177, 169, 240, 232
-0.97234, 345, 209, 408, 272
-0.973233, 369, 105, 432, 168
-0.97331, 241, 81, 304, 144
-0.973437, 233, 161, 296, 224
-0.973622, 65, 65, 192, 192
-0.973691, 137, 129, 200, 192
-0.973845, 369, 57, 432, 120
-0.974053, 457, 97, 488, 160
-0.974106, 217, 153, 248, 216
-0.974399, 225, 113, 352, 176
-0.974748, 1, 65, 256, 192
-0.974917, 337, 145, 368, 272
-0.974968, 433, 65, 496, 320
-0.974978, 217, 1, 280, 128
-0.975063, 321, 161, 384, 224
-0.975106, 253, 105, 284, 168
-0.97524, 177, 1, 240, 64
-0.975309, 1, 193, 128, 320
-0.975313, 209, 137, 336, 200
-0.975369, 297, 1, 360, 64
-0.975689, 273, 209, 336, 272
-0.975729, 321, 209, 384, 272
-0.975735, 269, 97, 300, 160
-0.975771, 57, 145, 120, 272
-0.975904, 89, 161, 152, 224
-0.976116, 229, 129, 260, 192
-0.976176, 233, 9, 296, 72
-0.976219, 81, 161, 144, 288
-0.976224, 193, 161, 256, 288
-0.97628, 257, 49, 320, 176
-0.976284, 265, 81, 328, 144
-0.976286, 281, 97, 312, 160
-0.976343, 177, 105, 304, 168
-0.976522, 273, 129, 336, 192
-0.976683, 177, 193, 304, 320
-0.976821, 321, 209, 384, 333
-0.976953, 65, 169, 128, 232
-0.977131, 261, 145, 292, 208
-0.977159, 201, 121, 264, 184
-0.977199, 289, 9, 416, 72
-0.977508, 313, 57, 376, 120
-0.977512, 161, 1, 224, 256
-0.97753, 241, 161, 368, 224
-0.977589, 289, 185, 352, 248
-0.977623, 1, 209, 256, 333
-0.977679, 289, 193, 416, 256
-0.9778, 361, 161, 424, 224
-0.977808, 297, 137, 360, 200
-0.977999, 153, 33, 216, 160
-0.978028, 345, 185, 408, 248
-0.978081, 305, 161, 432, 224
-0.978081, 161, 169, 288, 232
-0.978174, 213, 129, 244, 192
-0.978321, 273, 97, 400, 160
-0.978325, 237, 105, 268, 168
-0.978361, 321, 33, 448, 96
-0.978365, 433, 145, 496, 208
-0.978375, 353, 17, 480, 144
-0.978405, 273, 153, 336, 216
-0.978439, 161, 145, 224, 208
-0.978525, 265, 41, 328, 104
-0.978559, 225, 185, 352, 248
-0.978691, 273, 33, 400, 96
-0.978786, 129, 105, 192, 168
-0.978845, 301, 209, 332, 272
-0.978978, 369, 81, 432, 144
-0.978994, 469, 97, 500, 224
-0.979119, 121, 161, 184, 288
-0.979125, 49, 17, 176, 144
-0.979347, 305, 65, 368, 192
-0.97946, 229, 129, 260, 256
-0.979489, 353, 105, 480, 168
-0.979523, 269, 177, 300, 240
-0.979531, 453, 145, 484, 272
-0.979583, 397, 33, 428, 96
-0.979591, 217, 129, 248, 256
-0.9796, 225, 89, 352, 152
-0.979693, 325, 97, 356, 224
-0.979697, 245, 185, 276, 248
-0.979736, 161, 145, 288, 208
-0.979802, 273, 57, 400, 120
-0.979819, 277, 121, 308, 184
-0.979821, 337, 121, 400, 184
-0.979888, 13, 129, 44, 256
-0.979898, 453, 177, 484, 240
-0.979969, 209, 1, 272, 256
-0.980135, 177, 9, 304, 72
-0.98027, 153, 1, 216, 64
-0.980312, 409, 65, 472, 320
-0.980351, 245, 153, 276, 216
-0.980368, 337, 145, 368, 208
-0.98043, 397, 33, 428, 160
-0.980471, 433, 169, 496, 232
-0.980497, 361, 9, 424, 72
-0.98053, 353, 161, 480, 224
-0.980653, 409, 145, 472, 208
-0.980702, 129, 121, 256, 184
-0.980913, 105, 137, 168, 200
-0.980943, 337, 65, 400, 128
-0.980983, 241, 129, 272, 192
-0.981018, 329, 1, 392, 256
-0.981046, 113, 161, 240, 288
-0.981124, 221, 105, 252, 168
-0.981274, 185, 89, 248, 152
-0.981297, 257, 193, 288, 256
-0.981394, 149, 113, 180, 240
-0.981421, 369, 161, 432, 288
-0.981496, 285, 97, 316, 224
-0.981577, 89, 113, 152, 240
-0.981689, 257, 81, 288, 208
-0.981693, 305, 1, 368, 256
-0.981734, 225, 17, 352, 80
-0.981763, 105, 113, 168, 176
-0.981873, 317, 185, 348, 248
-0.981968, 293, 105, 324, 168
-0.981995, 137, 153, 200, 216
-0.98218, 377, 129, 440, 192
-0.982241, 113, 1, 176, 256
-0.982337, 341, 17, 372, 80
-0.982349, 257, 129, 288, 256
-0.982366, 249, 201, 312, 264
-0.982415, 273, 1, 336, 333
-0.982428, 337, 185, 368, 248
-0.982473, 469, 161, 500, 224
-0.982477, 193, 57, 256, 120
-0.982515, 353, 185, 480, 248
-0.982526, 305, 121, 432, 184
-0.982578, 217, 65, 280, 128
-0.982603, 289, 49, 352, 112
-0.982659, 445, 97, 476, 224
-0.982696, 365, 33, 396, 96
-0.982757, 161, 97, 192, 224
-0.982758, 353, 81, 480, 144
-0.982826, 369, 1, 432, 333
-0.982828, 321, 161, 352, 288
-0.982834, 273, 81, 304, 208
-0.98284, 257, 81, 288, 144
-0.982848, 409, 113, 440, 240
-0.982929, 257, 137, 384, 200
-0.982939, 349, 161, 380, 288
-0.983028, 357, 209, 388, 272
-0.983035, 265, 193, 328, 320
-0.983053, 273, 217, 400, 280
-0.98313, 41, 161, 104, 224
-0.98316, 385, 33, 416, 96
-0.983342, 309, 105, 340, 168
-0.983352, 365, 1, 396, 64
-0.983494, 297, 1, 360, 333
-0.983532, 353, 129, 480, 192
-0.983537, 237, 81, 268, 208
-0.983574, 401, 105, 432, 168
-0.983589, 129, 1, 256, 64
-0.983592, 185, 1, 248, 256
-0.983609, 201, 1, 264, 64
-0.983705, 385, 153, 448, 216
-0.983766, 177, 193, 304, 256
-0.983892, 137, 113, 168, 240
-0.983933, 433, 193, 496, 320
-0.983957, 229, 169, 260, 232
-0.983975, 105, 65, 168, 192
-0.983976, 305, 25, 336, 88
-0.98399, 269, 129, 300, 256
-0.984158, 265, 121, 296, 184
-0.984184, 409, 169, 472, 232
-0.984246, 1, 177, 64, 304
-0.984459, 401, 57, 432, 120
-0.984517, 145, 161, 208, 288
-0.984519, 297, 81, 328, 144
-0.98455, 441, 161, 472, 288
-0.984574, 325, 113, 356, 176
-0.984646, 217, 177, 248, 240
-0.984677, 161, 81, 288, 144
-0.984711, 209, 49, 336, 112
-0.984727, 353, 113, 384, 240
-0.984796, 277, 1, 308, 128
-0.984857, 321, 57, 448, 120
-0.984873, 317, 33, 348, 96
-0.984917, 81, 145, 208, 208
-0.984981, 93, 161, 124, 224
-0.985009, 433, 97, 464, 224
-0.985081, 17, 65, 80, 192
-0.985259, 349, 129, 380, 192
-0.98526, 217, 1, 280, 333
-0.985273, 129, 65, 192, 192
-0.985533, 225, 209, 352, 272
-0.985536, 413, 121, 444, 184
-0.985612, 241, 1, 304, 333
-0.985837, 329, 41, 360, 104
-0.985967, 337, 209, 464, 272
-0.985993, 137, 137, 168, 200
-0.986005, 353, 33, 384, 96
-0.986007, 205, 169, 236, 232
-0.986099, 313, 17, 344, 144
-0.986166, 369, 57, 400, 120
-0.98619, 97, 89, 160, 152
-0.986207, 185, 193, 248, 256
-0.986235, 209, 1, 240, 64
-0.986247, 289, 17, 320, 144
-0.986253, 345, 1, 408, 333
-0.986274, 225, 81, 256, 208
-0.986367, 245, 161, 276, 288
-0.986416, 1, 49, 128, 176
-0.98646, 393, 1, 456, 333
-0.986525, 73, 193, 136, 256
-0.986601, 289, 17, 320, 80
-0.986627, 313, 97, 344, 224
-0.986656, 349, 185, 380, 248
-0.986666, 325, 9, 356, 72
-0.986802, 357, 97, 388, 160
-0.986831, 349, 153, 380, 216
-0.986845, 57, 97, 120, 224
-0.986849, 1, 161, 128, 224
-0.986914, 425, 193, 488, 256
-0.98702, 81, 153, 112, 216
-0.987061, 201, 137, 232, 200
-0.987092, 257, 169, 288, 232
-0.987111, 409, 33, 472, 96
-0.987211, 309, 193, 340, 320
-0.98723, 289, 145, 320, 272
-0.987254, 193, 25, 256, 88
-0.987258, 217, 1, 248, 128
-0.987384, 409, 65, 440, 192
-0.98742, 25, 129, 56, 256
-0.98746, 365, 33, 396, 160
-0.987504, 1, 129, 32, 256
-0.98752, 273, 17, 304, 80
-0.987601, 345, 217, 376, 280
-0.987638, 297, 65, 328, 192
-0.987643, 205, 145, 236, 272
-0.987665, 113, 161, 176, 224
-0.987681, 281, 177, 312, 240
-0.987741, 325, 153, 356, 216
-0.987757, 245, 81, 276, 144
-0.98782, 49, 193, 112, 320
-0.987824, 337, 121, 368, 184
-0.98801, 177, 1, 240, 333
-0.988051, 81, 209, 144, 333
-0.988082, 65, 169, 192, 232
-0.988271, 49, 137, 112, 200
-0.988277, 469, 145, 500, 272
-0.988319, 325, 17, 356, 144
-0.988338, 369, 105, 400, 168
-0.988402, 81, 121, 208, 184
-0.988427, 161, 129, 192, 192
-0.988459, 233, 81, 264, 144
-0.988471, 337, 97, 368, 224
-0.988493, 81, 129, 144, 192
-0.98851, 341, 1, 372, 128
-0.988542, 141, 105, 172, 168
-0.988609, 441, 169, 472, 232
-0.988616, 341, 49, 372, 176
-0.988622, 17, 185, 144, 248
-0.98864, 337, 193, 368, 320
-0.988673, 289, 201, 320, 264
-0.988694, 401, 57, 464, 120
-0.988715, 301, 17, 332, 144
-0.988742, 433, 217, 496, 280
-0.988756, 41, 129, 72, 256
-0.988801, 293, 57, 324, 120
-0.988814, 361, 185, 392, 248
-0.988851, 105, 1, 168, 128
-0.988851, 341, 49, 372, 112
-0.988864, 153, 65, 216, 128
-0.988922, 373, 169, 404, 232
-0.988927, 441, 193, 472, 256
-0.988932, 341, 89, 372, 152
-0.988937, 469, 97, 500, 160
-0.988942, 277, 73, 308, 136
-0.988968, 81, 65, 144, 192
-0.988978, 273, 153, 304, 216
-0.989044, 421, 113, 452, 240
-0.989065, 265, 1, 296, 128
-0.98913, 173, 145, 204, 208
-0.989215, 201, 65, 232, 192
-0.989216, 313, 209, 344, 272
-0.989249, 369, 177, 400, 304
-0.989309, 397, 97, 428, 224
-0.989316, 453, 201, 484, 264
-0.989328, 257, 105, 320, 136
-0.989393, 469, 185, 500, 248
-0.989401, 309, 81, 340, 144
-0.989403, 233, 105, 296, 136
-0.98954, 349, 209, 380, 333
-0.989546, 321, 1, 384, 333
-0.989567, 113, 185, 176, 248
-0.989572, 205, 1, 236, 128
-0.989579, 289, 105, 352, 136
-0.989591, 49, 1, 176, 64
-0.989617, 77, 145, 108, 272
-0.989639, 25, 193, 88, 320
-0.989706, 409, 217, 472, 280
-0.989711, 385, 113, 416, 240
-0.989754, 217, 185, 280, 216
-0.98977, 209, 173, 272, 204
-0.989825, 317, 57, 348, 120
-0.989856, 57, 129, 88, 256
-0.989858, 113, 73, 240, 136
-0.989866, 169, 177, 232, 304
-0.989886, 261, 17, 292, 80
-0.989932, 149, 145, 180, 208
-0.990009, 453, 153, 484, 216
-0.990025, 445, 113, 476, 176
-0.990085, 269, 177, 300, 304
-0.990098, 409, 109, 472, 140
-0.990137, 241, 57, 304, 120
-0.990144, 137, 1, 200, 256
-0.990168, 369, 97, 400, 224
-0.990187, 429, 161, 460, 288
-0.990209, 121, 113, 152, 240
-0.990238, 49, 193, 112, 256
-0.990242, 297, 205, 360, 236
-0.990256, 153, 41, 216, 104
-0.990291, 433, 97, 464, 160
-0.990303, 233, 93, 296, 124
-0.990336, 113, 177, 240, 240
-0.990346, 221, 9, 252, 72
-0.990348, 381, 33, 412, 160
-0.990362, 217, 149, 280, 180
-0.990371, 301, 113, 332, 240
-0.990389, 385, 225, 448, 288
-0.990447, 369, 45, 432, 76
-0.990447, 137, 65, 168, 192
-0.99047, 217, 209, 280, 272
-0.990473, 129, 113, 192, 144
-0.990478, 49, 157, 112, 188
-0.990492, 241, 169, 304, 200
-0.990495, 409, 121, 472, 152
-0.990498, 217, 177, 248, 304
-0.990515, 433, 105, 496, 136
-0.990557, 441, 145, 472, 208
-0.990559, 389, 153, 420, 216
-0.990562, 217, 137, 280, 168
-0.990574, 153, 105, 216, 168
-0.990583, 257, 93, 320, 124
-0.990604, 321, 185, 384, 216
-0.990616, 81, 177, 112, 240
-0.990627, 249, 117, 312, 148
-0.990661, 321, 101, 384, 132
-0.990666, 249, 197, 312, 228
-0.990676, 1, 1, 128, 128
-0.990731, 313, 17, 376, 48
-0.990755, 213, 81, 244, 208
-0.990786, 369, 109, 432, 140
-0.990814, 185, 145, 248, 176
-0.990833, 113, 97, 240, 160
-0.990837, 21, 81, 52, 208
-0.990861, 177, 157, 240, 188
-0.990887, 209, 161, 272, 192
-0.990901, 225, 125, 288, 156
-0.990952, 305, 233, 368, 296
-0.990971, 381, 9, 412, 72
-0.990974, 345, 209, 408, 240
-0.990975, 337, 1, 400, 32
-0.990978, 185, 173, 248, 204
-0.991041, 17, 157, 80, 188
-0.991059, 209, 93, 272, 124
-0.99106, 393, 193, 456, 256
-0.991063, 377, 61, 440, 92
-0.991081, 1, 145, 64, 208
-0.991093, 129, 81, 192, 144
-0.991137, 257, 177, 288, 304
-0.991146, 337, 33, 400, 64
-0.991152, 25, 49, 88, 112
-0.991163, 377, 209, 440, 333
-0.991164, 373, 193, 404, 256
-0.991174, 273, 125, 336, 156
-0.991178, 169, 133, 232, 164
-0.991185, 97, 209, 224, 333
-0.991214, 193, 1, 224, 64
-0.99122, 381, 97, 412, 160
-0.991232, 417, 1, 480, 333
-0.991237, 401, 97, 464, 128
-0.991248, 433, 165, 496, 196
-0.991253, 285, 145, 316, 208
-0.99126, 69, 161, 100, 224
-0.991272, 125, 137, 156, 200
-0.991277, 305, 185, 336, 248
-0.991299, 417, 89, 448, 152
-0.991301, 333, 209, 364, 272
-0.991304, 265, 21, 328, 52
-0.991319, 313, 33, 376, 64
-0.991323, 217, 13, 280, 44
-0.991328, 145, 161, 208, 192
-0.991332, 209, 109, 272, 140
-0.991338, 369, 33, 432, 64
-0.991342, 237, 9, 268, 72
-0.991354, 369, 41, 496, 104
-0.991363, 125, 97, 156, 160
-0.991372, 193, 97, 448, 160
-0.991389, 241, 17, 304, 48
-0.991393, 353, 1, 480, 64
-0.99141, 289, 25, 352, 56
-0.991422, 257, 185, 320, 216
-0.991428, 313, 5, 376, 36
-0.991429, 257, 157, 320, 188
-0.991432, 289, 41, 352, 72
-0.991434, 105, 9, 168, 72
-0.991436, 233, 177, 264, 304
-0.991475, 433, 49, 496, 176
-0.991491, 249, 137, 312, 168
-0.991492, 153, 121, 216, 152
-0.991518, 89, 157, 152, 188
-0.991531, 201, 197, 264, 228
-0.991542, 233, 1, 264, 128
-0.991542, 193, 145, 448, 208
-0.991554, 433, 117, 496, 148
-0.991557, 177, 1, 240, 32
-0.991562, 329, 89, 360, 152
-0.991563, 273, 209, 336, 240
-0.991566, 137, 161, 168, 224
-0.991579, 65, 97, 192, 160
-0.991598, 281, 93, 344, 124
-0.991609, 337, 13, 400, 44
-0.991622, 105, 101, 168, 132
-0.991625, 313, 117, 376, 148
-0.991641, 1, 129, 128, 192
-0.991646, 433, 81, 496, 144
-0.991657, 57, 189, 120, 220
-0.991659, 409, 169, 472, 200
-0.991671, 89, 169, 152, 200
-0.991676, 121, 161, 152, 224
-0.991678, 89, 217, 152, 280
-0.991717, 89, 1, 152, 256
-0.991718, 297, 137, 360, 168
-0.991729, 433, 177, 496, 208
-0.991758, 305, 157, 368, 188
-0.99177, 409, 137, 472, 168
-0.991776, 65, 17, 128, 144
-0.991781, 153, 1, 216, 32
-0.991782, 389, 129, 420, 192
-0.991793, 313, 89, 376, 120
-0.991793, 345, 105, 408, 136
-0.991795, 233, 33, 296, 96
-0.991803, 321, 197, 384, 228
-0.991804, 105, 113, 168, 144
-0.99186, 401, 157, 464, 188
-0.991862, 353, 1, 384, 64
-0.99187, 201, 121, 264, 152
-0.991872, 225, 197, 288, 228
-0.991875, 265, 49, 328, 80
-0.991903, 65, 169, 128, 200
-0.991912, 353, 17, 384, 144
-0.991913, 353, 57, 416, 88
-0.991915, 273, 137, 336, 168
-0.991922, 221, 81, 252, 144
-0.991927, 281, 173, 344, 204
-0.991928, 137, 149, 200, 180
-0.991933, 269, 101, 300, 132
-0.991941, 297, 193, 360, 224
-0.991945, 329, 157, 392, 188
-0.991968, 153, 1, 216, 333
-0.991984, 329, 173, 392, 204
-0.992, 453, 193, 484, 320
-0.992009, 369, 185, 432, 248
-0.992012, 353, 193, 416, 224
-0.992017, 137, 101, 200, 132
-0.992018, 321, 217, 384, 248
-0.992023, 225, 49, 288, 80
-0.992033, 385, 125, 448, 156
-0.99204, 289, 13, 352, 44
-0.992064, 169, 193, 232, 224
-0.992067, 145, 137, 208, 168
-0.992093, 297, 129, 328, 192
-0.992117, 337, 141, 400, 172
-0.992145, 65, 1, 128, 64
-0.992146, 329, 61, 392, 92
-0.992148, 189, 129, 220, 192
-0.992163, 65, 169, 320, 232
-0.992171, 377, 157, 440, 188
-0.992171, 113, 173, 176, 204
-0.992197, 313, 45, 376, 76
-0.992214, 289, 301, 352, 332
-0.992225, 321, 293, 384, 324
-0.992226, 297, 221, 360, 252
-0.992227, 457, 101, 488, 132
-0.992228, 81, 25, 208, 88
-0.992243, 377, 73, 440, 104
-0.992248, 369, 97, 432, 128
-0.992272, 161, 173, 224, 204
-0.992292, 81, 181, 144, 212
-0.992295, 337, 89, 400, 120
-0.992297, 193, 57, 256, 88
-0.992297, 193, 13, 256, 44
-0.99231, 129, 125, 192, 156
-0.992318, 337, 117, 400, 148
-0.99234, 169, 109, 232, 140
-0.992347, 217, 81, 280, 112
-0.992359, 289, 61, 352, 92
-0.99237, 193, 185, 256, 216
-0.992379, 161, 41, 288, 104
-0.99238, 217, 169, 248, 200
-0.992397, 281, 101, 312, 132
-0.992411, 293, 105, 324, 136
-0.99242, 393, 161, 424, 288
-0.992424, 281, 149, 344, 180
-0.992428, 257, 105, 288, 136
-0.992444, 81, 249, 208, 312
-0.992455, 1, 169, 64, 232
-0.992466, 413, 41, 444, 104
-0.992478, 257, 93, 288, 124
-0.992502, 209, 105, 240, 168
-0.992518, 353, 153, 416, 184
-0.992519, 301, 209, 332, 240
-0.992525, 297, 77, 360, 108
-0.992536, 305, 169, 368, 200
-0.992543, 321, 129, 384, 160
-0.992549, 97, 1, 160, 333
-0.99255, 433, 149, 496, 180
-0.992554, 105, 125, 168, 156
-0.992567, 97, 137, 128, 200
-0.992569, 353, 169, 416, 200
-0.99257, 465, 137, 496, 200
-0.992574, 193, 81, 256, 112
-0.992582, 393, 49, 456, 80
-0.992584, 113, 217, 176, 280
-0.992591, 421, 65, 452, 192
-0.992599, 409, 181, 472, 212
-0.992599, 1, 145, 64, 176
-0.992604, 17, 193, 80, 224
-0.992605, 89, 261, 152, 292
-0.992605, 41, 169, 104, 200
-0.992615, 161, 193, 416, 256
-0.992622, 433, 193, 496, 224
-0.992622, 453, 177, 484, 208
-0.992626, 321, 233, 448, 296
-0.992643, 265, 185, 296, 216
-0.992646, 397, 81, 428, 144
-0.992652, 257, 117, 288, 148
-0.992656, 469, 165, 500, 196
-0.992674, 261, 169, 292, 200
-0.992695, 241, 105, 272, 136
-0.992702, 249, 189, 280, 220
-0.992727, 181, 1, 212, 64
-0.992727, 245, 169, 276, 200
-0.992728, 161, 145, 192, 272
-0.992737, 153, 105, 184, 168
-0.992746, 181, 1, 212, 128
-0.992752, 465, 177, 496, 208
-0.99276, 397, 109, 428, 140
-0.992764, 277, 113, 308, 144
-0.992772, 129, 1, 192, 128
-0.992773, 265, 157, 296, 188
-0.992781, 213, 201, 244, 264
-0.9928, 337, 153, 368, 184
-0.992818, 97, 89, 352, 152
-0.99282, 81, 157, 112, 188
-0.992822, 441, 217, 472, 280
-0.992836, 241, 93, 272, 124
-0.992843, 217, 185, 248, 216
-0.992849, 233, 125, 264, 156
-0.992857, 141, 101, 172, 132
-0.992858, 401, 53, 432, 84
-0.992863, 229, 93, 260, 124
-0.992865, 193, 25, 448, 88
-0.992877, 305, 109, 336, 140
-0.992881, 217, 145, 248, 176
-0.992888, 65, 157, 96, 188
-0.992891, 441, 161, 472, 192
-0.992894, 337, 165, 368, 196
-0.992923, 145, 113, 176, 144
-0.992925, 81, 209, 208, 272
-0.992931, 457, 165, 488, 196
-0.992934, 313, 205, 344, 236
-0.992937, 161, 113, 192, 144
-0.992938, 397, 41, 428, 72
-0.992939, 321, 105, 352, 136
-0.992948, 269, 89, 300, 120
-0.992948, 373, 201, 404, 232
-0.992952, 217, 125, 248, 156
-0.992954, 97, 49, 224, 112
-0.992957, 353, 209, 384, 240
-0.992959, 261, 145, 292, 176
-0.992968, 345, 1, 376, 32
-0.992971, 261, 197, 292, 228
-0.99298, 1, 249, 128, 312
-0.992981, 333, 141, 364, 172
-0.992988, 401, 65, 432, 96
-0.992989, 129, 1, 192, 333
-0.993001, 41, 249, 104, 312
-0.993004, 301, 93, 332, 124
-0.993007, 409, 121, 440, 152
-0.99301, 17, 157, 48, 188
-0.993011, 329, 181, 360, 212
-0.993014, 249, 137, 280, 168
-0.993017, 305, 29, 336, 60
-0.993022, 237, 181, 268, 212
-0.993022, 65, 145, 320, 208
-0.993025, 289, 89, 320, 120
-0.993028, 141, 165, 172, 196
-0.993033, 229, 113, 260, 144
-0.993034, 329, 9, 360, 40
-0.993036, 453, 201, 484, 232
-0.99304, 53, 157, 84, 188
-0.993042, 341, 221, 372, 252
-0.993046, 285, 21, 316, 52
-0.993047, 41, 157, 72, 188
-0.993053, 229, 169, 260, 200
-0.993062, 385, 73, 416, 136
-0.993066, 29, 157, 60, 188
-0.993069, 197, 169, 228, 200
-0.993074, 89, 161, 120, 288
-0.993078, 209, 1, 240, 32
-0.993079, 453, 189, 484, 220
-0.993083, 329, 117, 360, 148
-0.993091, 269, 17, 300, 48
-0.993091, 193, 161, 224, 224
-0.993091, 197, 181, 228, 212
-0.993095, 253, 13, 284, 44
-0.9931, 361, 105, 392, 136
-0.993107, 345, 21, 376, 52
-0.993108, 349, 33, 380, 64
-0.99311, 441, 177, 472, 208
-0.993114, 253, 33, 284, 160
-0.993115, 77, 169, 108, 200
-0.993115, 49, 209, 176, 333
-0.99312, 349, 157, 380, 188
-0.993125, 369, 41, 400, 72
-0.993127, 5, 157, 36, 188
-0.993132, 233, 149, 264, 180
-0.993134, 213, 201, 244, 232
-0.993136, 245, 149, 276, 180
-0.993139, 289, 209, 320, 240
-0.99314, 345, 137, 376, 168
-0.993147, 341, 97, 372, 128
-0.993151, 317, 193, 348, 224
-0.993153, 249, 201, 280, 232
-0.993154, 273, 125, 304, 156
-0.993156, 93, 157, 124, 188
-0.993156, 341, 205, 372, 236
-0.993162, 273, 141, 304, 172
-0.993162, 325, 161, 356, 192
-0.993168, 437, 121, 468, 152
-0.99318, 213, 157, 244, 188
-0.993186, 217, 113, 248, 144
-0.993194, 217, 101, 248, 132
-0.993194, 137, 133, 168, 164
-0.993196, 317, 61, 348, 92
-0.9932, 385, 41, 416, 72
-0.993201, 277, 177, 308, 208
-0.993201, 365, 189, 396, 220
-0.993206, 201, 129, 232, 160
-0.993219, 237, 137, 268, 168
-0.993224, 225, 13, 256, 44
-0.99323, 173, 157, 204, 188
-0.993232, 245, 117, 276, 148
-0.993236, 417, 105, 448, 136
-0.993242, 241, 13, 272, 44
-0.993243, 121, 157, 152, 188
-0.993244, 329, 37, 360, 68
-0.993252, 341, 109, 372, 140
-0.993255, 457, 113, 488, 144
-0.993257, 341, 69, 372, 100
-0.993263, 85, 189, 116, 220
-0.993266, 161, 145, 192, 176
-0.993267, 229, 193, 260, 256
-0.993279, 201, 157, 232, 188
-0.993288, 153, 129, 184, 160
-0.99329, 277, 165, 308, 196
-0.993291, 101, 169, 132, 200
-0.993292, 285, 125, 316, 156
-0.993293, 169, 1, 200, 32
-0.993293, 329, 129, 360, 160
-0.993294, 317, 13, 348, 44
-0.993295, 329, 205, 360, 236
-0.993298, 413, 49, 444, 80
-0.993306, 129, 1, 384, 64
-0.993306, 329, 21, 360, 52
-0.993307, 197, 9, 228, 40
-0.993307, 261, 129, 292, 160
-0.993326, 65, 105, 128, 168
-0.993352, 369, 233, 496, 296
-0.993387, 193, 121, 448, 184
-0.993391, 1, 65, 64, 128
-0.993595, 129, 9, 192, 72
-0.993637, 69, 97, 100, 224
-0.993739, 313, 145, 344, 208
-0.993746, 225, 49, 480, 112
-0.993753, 457, 49, 488, 176
-0.993762, 1, 33, 500, 96
-0.993765, 325, 209, 356, 333
-0.993766, 433, 121, 464, 184
-0.993799, 357, 65, 388, 128
-0.993823, 241, 101, 368, 132
-0.993835, 249, 1, 280, 64
-0.993842, 401, 129, 432, 192
-0.993901, 145, 177, 208, 240
-0.993901, 185, 49, 216, 176
-0.993923, 1, 153, 500, 216
-0.993923, 193, 1, 224, 128
-0.99397, 173, 129, 204, 256
-0.994024, 149, 161, 180, 288
-0.99404, 345, 233, 408, 296
-0.994073, 193, 169, 448, 232
-0.994098, 17, 273, 144, 333
-0.994102, 97, 121, 352, 184
-0.994178, 297, 161, 360, 224
-0.99424, 417, 17, 448, 144
-0.994253, 231, 129, 246, 192
-0.99429, 57, 65, 120, 128
-0.994303, 297, 209, 328, 333
-0.994311, 149, 65, 180, 192
-0.994362, 73, 249, 136, 312
-0.994391, 221, 153, 236, 216
-0.994458, 41, 1, 104, 333
-0.994461, 17, 97, 144, 160
-0.994524, 17, 217, 144, 280
-0.994526, 57, 33, 120, 96
-0.994538, 275, 97, 290, 160
-0.994553, 193, 129, 224, 256
-0.994555, 257, 113, 384, 144
-0.994572, 281, 89, 296, 152
-0.994586, 249, 105, 264, 168
-0.994607, 17, 177, 48, 304
-0.994614, 193, 105, 320, 136
-0.994618, 113, 249, 176, 312
-0.994632, 237, 129, 252, 192
-0.994686, 9, 193, 72, 256
-0.994746, 459, 177, 474, 240
-0.994753, 209, 193, 336, 224
-0.994759, 273, 213, 400, 244
-0.994801, 25, 129, 88, 192
-0.994806, 305, 37, 432, 68
-0.99483, 33, 1, 288, 64
-0.994841, 441, 49, 472, 176
-0.994844, 41, 89, 104, 152
-0.994865, 409, 1, 472, 128
-0.994875, 225, 169, 352, 200
-0.994886, 129, 209, 256, 272
-0.994936, 193, 93, 320, 124
-0.994951, 1, 49, 128, 112
-0.994957, 109, 1, 140, 128
-0.994957, 1, 185, 500, 248
-0.994987, 305, 105, 432, 136
-0.995007, 289, 201, 416, 232
-0.99502, 261, 185, 276, 248
-0.995032, 161, 177, 288, 208
-0.995053, 121, 1, 152, 128
-0.995058, 341, 145, 356, 208
-0.995106, 401, 9, 464, 72
-0.995131, 1, 9, 500, 72
-0.995134, 1, 57, 500, 120
-0.995139, 257, 185, 384, 216
-0.995166, 263, 105, 278, 168
-0.995173, 247, 129, 262, 192
-0.99524, 353, 109, 480, 140
-0.99526, 239, 105, 254, 168
-0.995261, 257, 73, 500, 136
-0.995264, 1, 81, 32, 208
-0.995279, 161, 49, 192, 176
-0.995288, 231, 153, 246, 216
-0.995312, 77, 193, 108, 320
-0.995318, 73, 273, 136, 333
-0.995341, 219, 129, 234, 192
-0.995376, 413, 41, 428, 104
-0.995387, 97, 65, 160, 128
-0.995442, 257, 193, 500, 256
-0.995453, 33, 25, 160, 88
-0.99548, 49, 1, 112, 256
-0.995505, 209, 117, 336, 148
-0.995524, 219, 177, 234, 240
-0.995533, 257, 113, 272, 176
-0.995539, 1, 161, 128, 192
-0.995541, 255, 161, 270, 224
-0.995577, 459, 105, 474, 168
-0.995594, 209, 145, 336, 176
-0.995596, 33, 65, 288, 128
-0.995613, 471, 97, 486, 160
-0.995622, 33, 73, 160, 136
-0.995623, 25, 25, 88, 88
-0.995633, 337, 165, 464, 196
-0.995637, 363, 33, 378, 96
-0.995637, 269, 97, 284, 160
-0.995637, 225, 129, 240, 192
-0.995646, 293, 97, 308, 160
-0.995651, 257, 157, 384, 188
-0.995665, 273, 9, 400, 40
-0.995669, 305, 209, 320, 272
-0.995686, 145, 101, 272, 132
-0.995692, 365, 185, 380, 248
-0.995695, 273, 89, 400, 120
-0.995704, 337, 265, 464, 328
-0.995745, 305, 189, 432, 220
-0.995748, 279, 121, 294, 184
-0.995752, 381, 177, 412, 304
-0.995778, 353, 121, 480, 152
-0.995798, 225, 1, 480, 64
-0.995833, 85, 97, 116, 224
-0.995837, 357, 209, 372, 272
-0.995837, 209, 205, 336, 236
-0.995844, 337, 205, 464, 236
-0.995861, 453, 65, 484, 320
-0.995862, 307, 81, 322, 144
-0.995862, 177, 165, 304, 196
-0.995867, 121, 161, 152, 288
-0.995893, 1, 105, 500, 168
-0.995907, 339, 33, 354, 96
-0.995917, 273, 241, 400, 304
-0.995919, 129, 57, 192, 120
-0.995929, 25, 1, 88, 64
-0.995962, 177, 13, 304, 44
-0.995969, 287, 89, 302, 152
-0.995978, 353, 65, 384, 192
-0.99598, 297, 1, 328, 256
-0.995997, 287, 113, 302, 176
-0.996021, 105, 145, 136, 272
-0.996032, 299, 105, 314, 168
-0.996053, 225, 105, 240, 168
-0.996056, 255, 137, 270, 200
-0.996059, 265, 1, 296, 256
-0.996065, 279, 161, 294, 224
-0.996071, 65, 1, 128, 333
-0.996073, 213, 169, 228, 232
-0.996074, 349, 153, 364, 216
-0.996078, 383, 33, 398, 96
-0.996085, 1, 1, 128, 64
-0.9961, 453, 177, 468, 240
-0.996102, 169, 1, 200, 128
-0.996104, 273, 21, 400, 52
-0.996109, 369, 177, 496, 208
-0.996133, 121, 33, 184, 96
-0.996135, 319, 105, 334, 168
-0.996143, 407, 25, 422, 88
-0.996161, 193, 217, 448, 280
-0.996191, 469, 65, 500, 320
-0.996235, 313, 81, 328, 144
-0.996235, 323, 193, 338, 256
-0.996237, 315, 201, 330, 264
-0.996238, 353, 25, 368, 88
-0.996242, 65, 201, 320, 264
-0.996246, 353, 93, 480, 124
-0.996266, 267, 161, 282, 224
-0.996273, 125, 65, 156, 192
-0.996273, 485, 153, 500, 216
-0.996275, 213, 145, 228, 208
-0.996281, 255, 193, 270, 256
-0.996288, 285, 65, 316, 320
-0.996297, 309, 1, 340, 256
-0.99631, 341, 113, 356, 176
-0.996311, 331, 185, 346, 248
-0.996321, 363, 209, 378, 272
-0.996322, 269, 137, 284, 200
-0.996333, 465, 97, 480, 160
-0.996341, 355, 185, 370, 248
-0.996351, 415, 113, 430, 176
-0.996353, 91, 153, 106, 216
-0.996369, 351, 129, 366, 192
-0.996373, 397, 1, 428, 256
-0.996384, 307, 105, 322, 168
-0.996391, 257, 125, 384, 156
-0.996412, 369, 33, 384, 96
-0.996414, 65, 157, 192, 188
-0.996418, 393, 33, 408, 96
-0.996445, 97, 113, 224, 144
-0.996446, 17, 17, 80, 144
-0.996452, 267, 193, 282, 256
-0.996479, 333, 33, 348, 96
-0.996486, 393, 257, 456, 320
-0.996486, 129, 161, 256, 192
-0.996487, 209, 129, 336, 160
-0.996509, 5, 177, 36, 304
-0.996521, 237, 169, 252, 232
-0.996536, 137, 161, 168, 288
-0.996546, 377, 33, 392, 96
-0.996548, 245, 169, 260, 232
-0.996549, 185, 153, 200, 216
-0.996554, 417, 241, 480, 304
-0.996554, 301, 17, 316, 80
-0.996568, 369, 149, 496, 180
-0.996576, 173, 81, 204, 208
-0.99659, 97, 161, 112, 224
-0.996597, 361, 265, 424, 328
-0.996605, 129, 1, 256, 32
-0.996609, 321, 61, 448, 92
-0.996614, 129, 49, 384, 112
-0.996617, 379, 1, 394, 64
-0.996623, 329, 105, 344, 168
-0.996624, 209, 181, 336, 212
-0.996627, 245, 1, 276, 256
-0.996627, 313, 105, 328, 168
-0.996628, 305, 177, 432, 208
-0.99666, 285, 193, 316, 320
-0.996663, 363, 97, 378, 160
-0.996663, 465, 177, 480, 240
-0.996679, 221, 1, 236, 64
-0.99669, 305, 153, 432, 184
-0.996693, 139, 129, 154, 192
-0.996694, 281, 105, 296, 136
-0.996697, 231, 105, 246, 168
-0.996697, 97, 25, 352, 88
-0.996703, 161, 189, 288, 220
-0.996705, 347, 17, 362, 80
-0.996723, 321, 49, 448, 80
-0.996746, 93, 209, 124, 333
-0.996747, 327, 33, 342, 96
-0.996747, 359, 1, 374, 64
-0.996753, 261, 137, 276, 200
-0.996779, 231, 177, 246, 240
-0.996789, 299, 201, 314, 264
-0.996799, 255, 81, 270, 144
-0.9968, 317, 25, 332, 88
-0.996814, 257, 145, 384, 176
-0.996815, 295, 17, 310, 80
-0.996829, 261, 161, 276, 224
-0.996842, 263, 81, 278, 144
-0.996847, 17, 193, 144, 224
-0.996859, 147, 137, 162, 200
-0.996859, 145, 113, 272, 144
-0.996866, 273, 49, 400, 80
-0.996884, 129, 125, 256, 156
-0.996886, 161, 149, 288, 180
-0.996889, 273, 185, 288, 248
-0.996892, 209, 81, 336, 112
-0.996906, 321, 1, 448, 32
-0.996946, 409, 105, 424, 168
-0.996956, 455, 201, 470, 264
-0.996964, 349, 185, 364, 248
-0.996989, 479, 161, 494, 224
-0.996991, 353, 193, 480, 224
-0.996991, 273, 161, 288, 224
-0.996996, 287, 101, 302, 132
-0.997041, 351, 217, 366, 280
-0.997045, 405, 161, 436, 288
-0.997046, 369, 97, 384, 160
-0.997047, 457, 153, 472, 216
-0.99705, 285, 177, 300, 240
-0.997062, 305, 117, 432, 148
-0.99707, 177, 145, 192, 208
-0.997072, 91, 177, 106, 240
-0.997072, 469, 49, 500, 176
-0.997095, 309, 33, 324, 96
-0.997097, 301, 81, 316, 144
-0.9971, 335, 97, 350, 160
-0.997101, 85, 161, 100, 224
-0.997119, 275, 9, 290, 72
-0.99713, 129, 137, 256, 168
-0.997131, 337, 185, 352, 248
-0.997133, 467, 153, 482, 216
-0.997144, 161, 201, 288, 232
-0.997152, 9, 1, 72, 333
-0.997162, 401, 33, 416, 96
-0.997169, 1, 129, 500, 192
-0.997175, 129, 89, 256, 120
-0.997176, 351, 105, 366, 168
-0.997187, 225, 49, 352, 80
-0.997189, 453, 105, 468, 168
-0.99719, 77, 17, 108, 144
-0.997191, 273, 93, 288, 124
-0.997199, 225, 17, 352, 48
-0.9972, 287, 145, 302, 208
-0.997202, 273, 73, 288, 136
-0.997202, 345, 41, 360, 104
-0.997203, 81, 177, 208, 208
-0.997213, 213, 193, 228, 256
-0.997221, 307, 57, 322, 120
-0.997241, 285, 17, 300, 80
-0.997247, 153, 137, 168, 200
-0.997255, 1, 33, 64, 96
-0.997258, 413, 65, 428, 128
-0.997274, 49, 273, 112, 333
-0.997286, 363, 65, 378, 128
-0.997293, 221, 1, 252, 256
-0.997295, 177, 121, 192, 184
-0.997306, 375, 105, 390, 168
-0.99731, 225, 217, 352, 248
-0.99731, 339, 9, 354, 72
-0.997312, 321, 217, 448, 248
-0.997317, 1, 25, 256, 88
-0.997326, 1, 81, 500, 144
-0.997332, 225, 177, 240, 240
-0.997333, 369, 209, 384, 272
-0.997365, 421, 121, 436, 184
-0.997368, 227, 9, 242, 72
-0.997376, 321, 73, 448, 104
-0.997379, 331, 153, 346, 216
-0.997382, 1, 121, 256, 184
-0.997389, 145, 113, 160, 176
-0.997392, 65, 101, 192, 132
-0.997454, 311, 209, 326, 240
-0.997455, 33, 81, 64, 208
-0.997472, 275, 105, 290, 136
-0.997473, 1, 149, 128, 180
-0.997474, 441, 65, 472, 320
-0.997483, 233, 1, 264, 256
-0.997485, 279, 93, 294, 124
-0.997506, 45, 177, 76, 304
-0.997526, 273, 225, 400, 256
-0.997526, 305, 209, 320, 240
-0.997549, 297, 101, 312, 132
-0.99757, 259, 189, 274, 220
-0.997608, 485, 169, 500, 200
-0.997609, 221, 169, 236, 200
-0.997613, 273, 73, 400, 104
-0.997633, 219, 145, 234, 176
-0.997654, 221, 185, 236, 216
-0.997668, 269, 105, 284, 136
-0.997688, 1, 209, 500, 272
-0.997709, 177, 53, 304, 84
-0.997724, 239, 113, 254, 144
-0.99773, 353, 133, 480, 164
-0.99774, 197, 1, 228, 256
-0.997746, 469, 101, 484, 132
-0.997759, 97, 193, 224, 224
-0.997767, 33, 193, 64, 320
-0.99778, 65, 193, 96, 320
-0.997782, 205, 193, 236, 320
-0.997784, 263, 101, 278, 132
-0.997795, 459, 105, 474, 136
-0.997798, 265, 185, 280, 216
-0.997805, 81, 1, 208, 32
-0.997812, 65, 1, 96, 128
-0.997813, 303, 105, 318, 136
-0.997819, 413, 113, 428, 144
-0.99782, 257, 33, 384, 64
-0.997827, 193, 69, 320, 100
-0.997827, 49, 49, 176, 112
-0.997828, 381, 1, 412, 256
-0.997829, 343, 153, 358, 184
-0.997843, 459, 177, 474, 208
-0.997848, 305, 133, 432, 164
-0.997852, 321, 13, 448, 44
-0.997864, 441, 209, 472, 333
-0.997868, 163, 113, 178, 144
-0.997878, 265, 173, 280, 204
-0.99788, 209, 29, 336, 60
-0.997886, 81, 157, 96, 188
-0.997899, 249, 105, 264, 136
-0.997911, 357, 1, 388, 256
-0.997913, 213, 173, 228, 204
-0.997916, 145, 65, 176, 320
-0.997918, 361, 213, 376, 244
-0.99792, 235, 169, 250, 200
-0.997923, 417, 161, 448, 288
-0.997932, 273, 61, 400, 92
-0.997941, 269, 149, 284, 180
-0.997945, 453, 169, 468, 200
-0.997957, 297, 113, 312, 144
-0.997958, 215, 185, 230, 216
-0.99796, 413, 49, 428, 80
-0.997964, 345, 1, 376, 256
-0.997966, 109, 81, 140, 208
-0.997984, 257, 101, 272, 132
-0.997992, 279, 165, 294, 196
-0.997993, 259, 157, 274, 188
-0.997996, 369, 45, 496, 76
-0.998009, 177, 177, 208, 304
-0.998028, 467, 177, 482, 208
-0.998029, 233, 125, 248, 156
-0.99803, 279, 117, 294, 148
-0.998035, 65, 145, 192, 176
-0.998059, 409, 1, 440, 256
-0.998073, 259, 137, 274, 168
-0.998075, 41, 17, 104, 144
-0.998075, 321, 65, 352, 320
-0.998078, 331, 101, 346, 132
-0.998079, 231, 137, 246, 168
-0.998082, 349, 145, 364, 176
-0.998082, 289, 113, 304, 144
-0.998084, 225, 137, 240, 168
-0.998088, 87, 157, 102, 188
-0.998092, 1, 89, 256, 152
-0.998097, 233, 93, 248, 124
-0.998098, 321, 109, 336, 140
-0.998101, 355, 205, 370, 236
-0.998111, 213, 157, 228, 188
-0.998111, 75, 157, 90, 188
-0.998113, 355, 217, 370, 248
-0.998114, 247, 93, 262, 124
-0.998118, 105, 193, 136, 320
-0.998125, 369, 1, 400, 256
-0.998126, 353, 21, 368, 52
-0.998127, 241, 169, 256, 200
-0.99813, 263, 113, 278, 144
-0.998137, 253, 125, 268, 156
-0.998141, 57, 81, 88, 208
-0.998144, 129, 77, 256, 108
-0.998148, 311, 93, 326, 124
-0.998157, 239, 93, 254, 124
-0.998166, 479, 165, 494, 196
-0.998177, 27, 157, 42, 188
-0.998184, 129, 13, 256, 44
-0.998184, 53, 157, 68, 188
-0.998185, 97, 213, 224, 244
-0.998193, 351, 165, 366, 196
-0.998195, 235, 149, 250, 180
-0.998197, 321, 25, 448, 56
-0.998197, 259, 169, 274, 200
-0.998199, 309, 105, 324, 136
-0.9982, 133, 1, 164, 256
-0.998202, 177, 1, 304, 32
-0.998204, 21, 157, 36, 188
-0.998209, 161, 33, 288, 64
-0.99821, 343, 165, 358, 196
-0.998213, 181, 157, 196, 188
-0.998216, 227, 169, 242, 200
-0.998216, 59, 157, 74, 188
-0.998217, 317, 201, 332, 232
-0.998218, 261, 89, 276, 120
-0.99822, 429, 65, 460, 320
-0.998221, 341, 117, 356, 148
-0.998233, 151, 101, 166, 132
-0.998239, 265, 197, 280, 228
-0.998245, 455, 197, 470, 228
-0.998251, 161, 1, 192, 256
-0.998251, 217, 133, 232, 164
-0.998256, 215, 1, 230, 32
-0.998257, 225, 5, 352, 36
-0.998268, 449, 157, 464, 188
-0.998273, 289, 301, 416, 332
-0.998275, 461, 189, 476, 220
-0.998276, 113, 149, 240, 180
-0.998279, 255, 89, 270, 120
-0.998281, 299, 209, 314, 240
-0.998282, 245, 117, 260, 148
-0.998282, 219, 201, 234, 232
-0.998288, 333, 113, 348, 144
-0.998293, 239, 129, 254, 160
-0.998295, 65, 273, 192, 333
-0.998299, 253, 185, 268, 216
-0.998304, 33, 157, 48, 188
-0.998305, 315, 109, 330, 140
-0.998305, 323, 193, 338, 224
-0.998309, 305, 93, 320, 124
-0.998312, 275, 153, 290, 184
-0.998313, 47, 157, 62, 188
-0.998316, 89, 169, 104, 200
-0.998322, 367, 209, 382, 240
-0.998328, 267, 137, 282, 168
-0.998334, 33, 5, 160, 36
-0.998335, 219, 157, 234, 188
-0.998337, 485, 157, 500, 188
-0.998339, 187, 157, 202, 188
-0.998341, 251, 169, 266, 200
-0.998342, 273, 189, 288, 220
-0.998344, 93, 157, 108, 188
-0.998348, 121, 1, 152, 256
-0.998356, 1, 121, 128, 152
-0.998356, 271, 173, 286, 204
-0.99836, 41, 157, 56, 188
-0.998361, 15, 157, 30, 188
-0.998362, 369, 197, 400, 212
-0.998363, 365, 9, 396, 24
-0.998363, 221, 107, 252, 122
-0.998364, 257, 93, 288, 108
-0.998365, 13, 161, 44, 176
-0.998366, 281, 177, 296, 208
-0.998366, 281, 315, 312, 330
-0.998369, 205, 191, 236, 206
-0.99837, 309, 25, 324, 56
-0.99837, 417, 117, 448, 132
-0.99837, 109, 263, 140, 278
-0.99837, 273, 167, 304, 182
-0.998371, 193, 173, 224, 188
-0.998371, 233, 133, 264, 148
-0.998371, 257, 125, 288, 140
-0.998374, 241, 185, 272, 200
-0.998375, 133, 253, 164, 268
-0.998376, 217, 177, 248, 192
-0.998377, 333, 43, 364, 58
-0.998377, 1, 157, 16, 188
-0.998378, 141, 109, 156, 140
-0.998378, 181, 173, 212, 188
-0.998379, 325, 149, 356, 164
-0.998379, 97, 269, 128, 284
-0.998379, 145, 213, 272, 244
-0.998379, 369, 233, 496, 264
-0.998379, 217, 119, 248, 134
-0.99838, 225, 153, 240, 184
-0.99838, 29, 161, 60, 176
-0.99838, 217, 133, 248, 148
-0.99838, 377, 41, 392, 72
-0.998381, 401, 57, 432, 72
-0.998381, 237, 143, 268, 158
-0.998381, 145, 107, 176, 122
-0.998382, 361, 105, 392, 120
-0.998382, 461, 169, 492, 184
-0.998383, 249, 105, 312, 120
-0.998383, 49, 89, 176, 120
-0.998385, 253, 203, 284, 218
-0.998385, 65, 157, 80, 188
-0.998385, 329, 11, 360, 26
-0.998385, 405, 127, 436, 142
-0.998386, 345, 143, 376, 158
-0.998387, 277, 95, 308, 110
-0.998387, 181, 9, 212, 24
-0.998388, 265, 149, 296, 164
-0.998389, 361, 39, 392, 54
-0.998389, 305, 105, 336, 120
-0.998389, 453, 163, 484, 178
-0.998389, 337, 101, 352, 132
-0.998389, 341, 211, 372, 226
-0.998389, 201, 167, 232, 182
-0.99839, 345, 1, 376, 16
-0.99839, 157, 143, 188, 158
-0.998391, 253, 183, 284, 198
-0.998391, 345, 35, 376, 50
-0.998392, 289, 89, 304, 120
-0.998392, 245, 111, 276, 126
-0.998393, 301, 207, 332, 222
-0.998394, 181, 161, 212, 176
-0.998394, 237, 15, 268, 30
-0.998394, 249, 137, 264, 168
-0.998396, 221, 5, 236, 36
-0.998396, 289, 115, 320, 130
-0.998396, 265, 117, 296, 132
-0.998397, 97, 53, 224, 84
-0.998398, 233, 103, 264, 118
-0.9984, 213, 203, 244, 218
-0.998401, 345, 7, 376, 22
-0.998402, 329, 187, 360, 202
-0.998402, 429, 173, 460, 188
-0.998402, 469, 187, 500, 202
-0.998402, 411, 37, 426, 68
-0.998403, 265, 17, 296, 32
-0.998403, 453, 189, 484, 204
-0.998403, 361, 211, 392, 226
-0.998405, 457, 111, 488, 126
-0.998405, 41, 161, 72, 176
-0.998406, 337, 161, 368, 176
-0.998407, 217, 189, 248, 204
-0.998407, 205, 5, 236, 20
-0.998409, 277, 21, 308, 36
-0.998411, 65, 157, 96, 172
-0.998411, 261, 193, 292, 208
-0.998411, 413, 65, 428, 96
-0.998413, 401, 119, 432, 134
-0.998413, 287, 153, 302, 184
-0.998413, 401, 65, 432, 80
-0.998414, 249, 15, 280, 30
-0.998414, 331, 185, 346, 216
-0.998415, 321, 45, 352, 60
-0.998415, 337, 109, 368, 124
-0.998416, 277, 121, 308, 136
-0.998416, 145, 165, 160, 196
-0.998417, 9, 157, 24, 188
-0.998417, 345, 149, 376, 164
-0.998417, 217, 13, 248, 28
-0.998418, 225, 143, 256, 158
-0.998418, 89, 165, 120, 180
-0.998419, 363, 101, 378, 132
-0.998419, 389, 197, 404, 228
-0.99842, 397, 45, 428, 60
-0.99842, 145, 175, 176, 190
-0.998422, 265, 173, 296, 188
-0.998423, 337, 179, 368, 194
-0.998423, 469, 175, 500, 190
-0.998424, 293, 219, 324, 234
-0.998424, 397, 111, 428, 126
-0.998426, 437, 165, 468, 180
-0.998429, 321, 109, 352, 124
-0.99843, 213, 147, 244, 162
-0.998433, 293, 25, 324, 40
-0.998433, 281, 109, 344, 124
-0.998433, 465, 165, 480, 196
-0.998435, 475, 101, 490, 132
-0.998435, 237, 121, 268, 136
-0.998438, 401, 51, 432, 66
-0.998438, 349, 1, 364, 32
-0.998438, 225, 183, 256, 198
-0.998439, 245, 149, 276, 164
-0.998447, 437, 179, 468, 194
-0.998448, 53, 161, 84, 176
-0.99845, 441, 171, 472, 186
-0.998455, 265, 187, 296, 202
-0.998455, 373, 203, 404, 218
-0.998458, 341, 223, 372, 238
-0.99846, 341, 217, 372, 232
-0.998463, 265, 99, 296, 114
-0.998463, 453, 183, 484, 198
-0.998465, 313, 209, 344, 224
-0.998467, 161, 169, 192, 184
-0.998467, 33, 181, 160, 212
-0.998467, 297, 213, 360, 228
-0.998469, 289, 213, 320, 228
-0.99847, 337, 155, 368, 170
-0.998472, 233, 127, 264, 142
-0.998474, 409, 119, 472, 134
-0.998474, 49, 161, 112, 176
-0.998474, 281, 107, 312, 122
-0.998475, 217, 125, 248, 140
-0.998476, 65, 163, 96, 178
-0.998476, 321, 115, 352, 130
-0.998484, 313, 207, 376, 222
-0.998488, 145, 169, 176, 184
-0.998488, 217, 171, 248, 186
-0.998491, 265, 157, 296, 172
-0.998492, 309, 111, 340, 126
-0.998501, 257, 111, 288, 126
-0.998501, 141, 113, 172, 128
-0.998504, 157, 115, 188, 130
-0.998505, 65, 17, 192, 48
-0.998505, 249, 193, 280, 208
-0.998506, 209, 185, 272, 200
-0.998506, 409, 111, 472, 126
-0.998513, 353, 217, 384, 232
-0.998517, 277, 115, 308, 130
-0.998518, 97, 29, 224, 60
-0.998518, 417, 175, 480, 190
-0.998523, 245, 105, 276, 120
-0.998524, 249, 115, 312, 130
-0.998527, 49, 113, 176, 144
-0.998527, 129, 117, 192, 132
-0.99853, 281, 103, 344, 118
-0.998532, 225, 15, 288, 30
-0.998535, 77, 161, 108, 176
-0.998538, 249, 99, 312, 114
-0.998538, 161, 173, 224, 188
-0.998541, 465, 181, 496, 196
-0.998544, 209, 149, 272, 164
-0.998546, 409, 125, 472, 140
-0.998546, 217, 107, 280, 122
-0.998548, 293, 105, 324, 120
-0.99855, 277, 101, 308, 116
-0.998552, 25, 161, 88, 176
-0.998553, 273, 215, 336, 230
-0.998553, 321, 189, 384, 204
-0.998555, 97, 97, 128, 224
-0.998563, 433, 107, 496, 122
-0.998564, 89, 167, 152, 182
-0.998565, 185, 175, 248, 190
-0.998568, 209, 123, 272, 138
-0.998569, 65, 225, 320, 288
-0.998569, 225, 193, 288, 208
-0.998571, 369, 111, 432, 126
-0.998571, 225, 241, 352, 304
-0.998573, 337, 41, 400, 56
-0.998575, 209, 173, 272, 188
-0.998575, 257, 105, 288, 120
-0.998577, 113, 111, 176, 126
-0.998578, 273, 115, 336, 130
-0.998578, 289, 47, 352, 62
-0.99858, 329, 105, 392, 120
-0.998582, 225, 95, 288, 110
-0.998584, 433, 181, 496, 196
-0.998587, 145, 167, 208, 182
-0.998587, 345, 217, 408, 232
-0.998588, 301, 213, 332, 228
-0.998589, 433, 163, 496, 178
-0.99859, 209, 65, 240, 320
-0.998592, 457, 105, 488, 120
-0.998592, 369, 43, 432, 58
-0.998593, 337, 7, 400, 22
-0.998594, 249, 123, 312, 138
-0.998595, 169, 181, 232, 196
-0.998596, 233, 149, 296, 164
-0.998596, 377, 69, 440, 84
-0.998597, 177, 163, 240, 178
-0.998598, 153, 115, 216, 130
-0.998598, 377, 59, 440, 74
-0.998599, 225, 139, 288, 154
-0.9986, 369, 35, 432, 50
-0.9986, 177, 7, 240, 22
-0.9986, 353, 205, 416, 220
-0.998601, 49, 167, 112, 182
-0.998601, 369, 49, 432, 64
-0.998602, 409, 135, 472, 150
-0.998603, 73, 161, 136, 176
-0.998603, 209, 129, 272, 144
-0.998604, 305, 219, 368, 234
-0.998604, 353, 211, 416, 226
-0.998606, 313, 7, 376, 22
-0.998607, 321, 183, 384, 198
-0.998607, 333, 1, 364, 256
-0.998607, 249, 143, 312, 158
-0.998608, 269, 107, 300, 122
-0.998609, 1, 161, 64, 176
-0.99861, 449, 177, 480, 192
-0.99861, 433, 119, 496, 134
-0.998611, 313, 43, 376, 58
-0.998611, 433, 113, 496, 128
-0.998611, 369, 117, 432, 132
-0.998612, 265, 25, 328, 40
-0.998612, 249, 157, 312, 172
-0.998612, 337, 35, 400, 50
-0.998612, 169, 143, 232, 158
-0.998614, 409, 167, 472, 182
-0.998614, 129, 175, 192, 190
-0.998614, 49, 193, 112, 208
-0.998615, 233, 129, 296, 144
-0.998615, 337, 155, 400, 170
-0.998616, 401, 105, 464, 120
-0.998616, 345, 161, 408, 176
-0.998617, 337, 111, 400, 126
-0.998617, 329, 1, 392, 16
-0.998619, 321, 49, 384, 64
-0.998621, 185, 13, 248, 28
-0.998621, 313, 37, 376, 52
-0.998622, 289, 207, 352, 222
-0.998623, 369, 103, 432, 118
-0.998623, 217, 117, 280, 132
-0.998624, 337, 13, 400, 28
-0.998625, 257, 187, 320, 202
-0.998627, 201, 143, 264, 158
-0.998627, 377, 163, 440, 178
-0.998628, 329, 201, 392, 216
-0.998628, 265, 209, 328, 224
-0.998628, 217, 167, 280, 182
-0.998629, 297, 19, 360, 34
-0.998629, 185, 169, 248, 184
-0.99863, 201, 203, 264, 218
-0.998631, 233, 179, 296, 194
-0.998632, 149, 1, 180, 128
-0.998633, 201, 191, 264, 206
-0.998634, 313, 113, 376, 128
-0.998634, 209, 101, 272, 116
-0.998635, 305, 103, 368, 118
-0.998635, 121, 169, 184, 184
-0.998636, 249, 17, 312, 32
-0.998637, 313, 25, 376, 40
-0.998637, 121, 257, 184, 272
-0.998638, 273, 127, 336, 142
-0.998639, 329, 57, 392, 72
-0.998639, 233, 173, 296, 188
-0.99864, 289, 41, 352, 56
-0.998641, 153, 123, 216, 138
-0.998642, 185, 129, 248, 144
-0.998644, 137, 109, 200, 124
-0.998644, 185, 149, 248, 164
-0.998644, 289, 53, 352, 68
-0.998644, 145, 1, 208, 16
-0.998646, 265, 51, 328, 66
-0.998646, 401, 157, 464, 172
-0.998646, 409, 183, 472, 198
-0.998647, 209, 179, 272, 194
-0.998649, 433, 169, 496, 184
-0.998649, 113, 41, 240, 72
-0.998649, 313, 225, 376, 240
-0.998649, 321, 295, 384, 310
-0.998649, 257, 201, 320, 216
-0.998652, 105, 105, 168, 120
-0.998652, 313, 13, 376, 28
-0.998656, 25, 195, 88, 210
-0.998656, 193, 55, 256, 70
-0.998656, 433, 187, 496, 202
-0.998656, 273, 121, 336, 136
-0.998657, 185, 135, 248, 150
-0.998657, 233, 203, 296, 218
-0.998664, 461, 97, 476, 224
-0.998671, 113, 65, 240, 96
-0.998671, 1, 73, 128, 104
-0.998704, 177, 33, 208, 288
-0.998742, 201, 209, 264, 333
-0.998745, 177, 217, 304, 280
-0.998756, 133, 17, 164, 144
-0.998778, 1, 249, 256, 312
-0.998799, 1, 249, 128, 280
-0.998827, 289, 237, 416, 268
-0.998836, 1, 21, 128, 52
-0.99884, 369, 57, 496, 88
-0.998854, 455, 97, 470, 224
-0.998855, 467, 97, 482, 224
-0.99886, 341, 129, 356, 256
-0.998881, 321, 285, 448, 316
-0.99889, 225, 241, 480, 304
-0.998921, 411, 33, 426, 160
-0.998935, 1, 97, 128, 128
-0.998958, 49, 217, 176, 248
-0.998971, 331, 97, 346, 224
-0.998972, 93, 1, 124, 128
-0.998973, 475, 97, 490, 224
-0.998979, 223, 145, 238, 272
-0.99898, 33, 205, 160, 236
-0.998988, 49, 77, 176, 108
-0.998998, 369, 29, 496, 60
-0.999003, 347, 145, 362, 272
-0.999024, 369, 217, 496, 248
-0.999029, 81, 261, 208, 292
-0.999044, 49, 33, 176, 64
-0.999047, 455, 145, 470, 272
-0.999067, 33, 273, 160, 304
-0.99907, 17, 129, 32, 256
-0.99908, 449, 113, 464, 240
-0.999086, 5, 1, 36, 128
-0.999092, 413, 97, 428, 224
-0.999092, 229, 129, 244, 256
-0.999095, 289, 97, 304, 224
-0.999101, 417, 49, 432, 176
-0.999105, 155, 113, 170, 240
-0.999119, 217, 113, 232, 240
-0.999123, 353, 161, 368, 288
-0.99913, 23, 129, 38, 256
-0.999151, 81, 125, 208, 156
-0.99916, 49, 241, 176, 272
-0.999163, 241, 113, 256, 240
-0.999163, 277, 129, 292, 256
-0.99917, 447, 177, 462, 304
-0.999173, 283, 81, 298, 208
-0.999178, 481, 97, 496, 224
-0.999183, 223, 81, 238, 208
-0.999189, 317, 17, 332, 144
-0.99919, 247, 97, 262, 224
-0.999192, 335, 161, 350, 288
-0.9992, 241, 301, 368, 332
-0.999204, 273, 81, 288, 208
-0.999206, 1, 33, 128, 64
-0.999209, 285, 1, 300, 128
-0.999216, 317, 97, 332, 224
-0.99922, 295, 97, 310, 224
-0.999222, 279, 1, 294, 128
-0.999228, 161, 113, 176, 240
-0.999234, 221, 1, 236, 128
-0.999238, 235, 113, 250, 240
-0.999242, 241, 273, 368, 333
-0.999247, 1, 57, 128, 88
-0.999248, 253, 145, 268, 272
-0.999251, 325, 17, 340, 144
-0.999256, 461, 145, 476, 272
-0.999259, 421, 113, 436, 240
-0.999267, 283, 129, 298, 256
-0.999286, 259, 129, 274, 256
-0.999289, 301, 97, 316, 224
-0.99929, 325, 97, 340, 224
-0.99929, 363, 17, 378, 144
-0.999296, 247, 145, 262, 272
-0.999302, 1, 137, 128, 168
-0.999308, 341, 177, 356, 304
-0.999314, 273, 1, 288, 128
-0.999315, 253, 81, 268, 208
-0.999323, 267, 81, 282, 208
-0.999325, 359, 177, 374, 304
-0.999326, 311, 17, 326, 144
-0.999328, 327, 177, 342, 304
-0.999333, 241, 65, 256, 192
-0.999333, 149, 97, 164, 224
-0.999342, 303, 17, 318, 144
-0.999346, 369, 253, 496, 284
-0.999348, 11, 129, 26, 256
-0.999348, 471, 145, 486, 272
-0.999349, 293, 17, 308, 144
-0.999354, 341, 81, 356, 208
-0.99936, 31, 129, 46, 256
-0.999361, 261, 81, 276, 208
-0.999364, 427, 113, 442, 240
-0.999365, 435, 113, 450, 240
-0.999373, 307, 65, 322, 192
-0.999374, 271, 129, 286, 256
-0.999375, 385, 33, 400, 160
-0.999375, 289, 265, 416, 328
-0.999375, 37, 129, 52, 256
-0.999379, 359, 113, 374, 240
-0.99938, 229, 65, 244, 192
-0.999382, 81, 129, 96, 256
-0.99939, 1, 233, 500, 296
-0.999392, 55, 129, 70, 256
-0.999401, 225, 229, 352, 260
-0.999401, 241, 241, 368, 272
-0.999401, 317, 177, 332, 304
-0.999401, 235, 65, 250, 192
-0.999405, 49, 65, 176, 96
-0.999407, 43, 129, 58, 256
-0.999413, 227, 1, 242, 128
-0.999415, 347, 97, 362, 224
-0.999416, 353, 209, 368, 333
-0.99942, 143, 113, 158, 240
-0.999422, 61, 129, 76, 256
-0.999428, 311, 193, 326, 320
-0.99943, 443, 97, 458, 224
-0.999436, 217, 177, 232, 304
-0.999436, 365, 97, 380, 224
-0.99944, 335, 49, 350, 176
-0.999447, 289, 145, 304, 272
-0.999447, 347, 193, 362, 320
-0.99945, 369, 33, 384, 160
-0.999451, 391, 33, 406, 160
-0.999452, 71, 129, 86, 256
-0.999459, 137, 113, 152, 240
-0.999461, 49, 129, 64, 256
-0.999463, 307, 113, 322, 240
-0.999464, 165, 65, 180, 192
-0.999467, 149, 145, 164, 272
-0.999468, 265, 145, 280, 272
-0.999469, 259, 177, 274, 304
-0.99947, 407, 81, 422, 208
-0.999472, 1, 285, 128, 316
-0.999488, 279, 177, 294, 304
-0.99949, 369, 177, 384, 304
-0.99949, 351, 1, 366, 128
-0.999492, 33, 261, 160, 292
-0.999493, 223, 193, 238, 320
-0.999496, 191, 1, 206, 128
-0.999498, 405, 17, 420, 144
-0.999505, 377, 17, 392, 144
-0.999508, 87, 145, 102, 272
-0.99951, 213, 65, 228, 192
-0.999511, 397, 113, 412, 240
-0.999512, 391, 209, 406, 333
-0.999512, 267, 1, 282, 128
-0.999513, 3, 129, 18, 256
-0.999522, 183, 145, 198, 272
-0.999528, 175, 97, 190, 224
-0.999528, 233, 1, 248, 128
-0.999532, 381, 97, 396, 224
-0.999534, 391, 113, 406, 240
-0.999535, 405, 129, 420, 256
-0.999536, 235, 161, 250, 288
-0.999537, 159, 65, 174, 192
-0.99954, 457, 193, 472, 320
-0.999543, 373, 81, 388, 208
-0.999545, 301, 145, 316, 272
-0.999546, 423, 65, 438, 192
-0.999554, 245, 1, 260, 128
-0.999554, 241, 161, 256, 288
-0.999554, 353, 113, 368, 240
-0.999561, 229, 177, 244, 304
-0.999562, 71, 157, 86, 172
-0.999563, 279, 151, 294, 166
-0.999563, 253, 143, 268, 158
-0.999563, 355, 223, 370, 238
-0.999564, 185, 1, 200, 128
-0.999564, 357, 1, 372, 128
-0.999565, 229, 125, 244, 140
-0.999565, 463, 175, 478, 190
-0.999565, 223, 203, 238, 218
-0.999565, 451, 187, 466, 202
-0.999566, 239, 107, 254, 122
-0.999566, 217, 169, 232, 184
-0.999566, 485, 159, 500, 174
-0.999567, 251, 15, 266, 30
-0.999568, 267, 175, 282, 190
-0.999568, 413, 65, 428, 80
-0.999569, 277, 19, 292, 34
-0.999569, 335, 47, 350, 62
-0.99957, 241, 143, 256, 158
-0.99957, 341, 47, 356, 62
-0.999571, 349, 157, 364, 172
-0.999572, 17, 133, 32, 148
-0.999573, 267, 155, 282, 170
-0.999574, 263, 203, 278, 218
-0.999574, 279, 119, 294, 134
-0.999574, 281, 177, 296, 192
-0.999575, 273, 149, 288, 164
-0.999575, 81, 229, 208, 260
-0.999577, 413, 121, 428, 136
-0.999578, 231, 149, 246, 164
-0.999578, 459, 181, 474, 196
-0.99958, 257, 111, 272, 126
-0.999581, 151, 169, 166, 184
-0.999581, 49, 49, 176, 80
-0.999581, 149, 111, 164, 126
-0.999581, 351, 1, 366, 16
-0.999582, 155, 117, 170, 132
-0.999583, 91, 161, 106, 176
-0.999586, 309, 27, 324, 42
-0.999586, 47, 161, 62, 176
-0.999586, 259, 149, 274, 164
-0.999587, 341, 179, 356, 194
-0.999588, 443, 181, 458, 196
-0.999588, 265, 111, 280, 126
-0.999588, 213, 177, 228, 192
-0.999588, 313, 103, 328, 118
-0.999588, 469, 175, 484, 190
-0.999589, 97, 165, 112, 180
-0.99959, 251, 127, 266, 142
-0.99959, 297, 115, 312, 130
-0.999591, 331, 187, 346, 202
-0.999591, 53, 161, 68, 176
-0.999592, 421, 127, 436, 142
-0.999593, 231, 143, 246, 158
-0.999593, 355, 211, 370, 226
-0.999594, 257, 187, 272, 202
-0.999595, 387, 203, 402, 218
-0.999596, 273, 97, 288, 112
-0.999596, 239, 119, 254, 134
-0.999597, 433, 173, 448, 188
-0.999598, 331, 107, 346, 122
-0.9996, 183, 163, 198, 178
-0.999601, 341, 109, 356, 124
-0.999601, 161, 169, 176, 184
-0.999601, 325, 113, 340, 128
-0.999602, 267, 149, 282, 164
-0.999602, 337, 115, 352, 130
-0.999602, 411, 47, 426, 62
-0.999603, 313, 111, 328, 126
-0.999603, 365, 211, 380, 226
-0.999603, 289, 313, 304, 328
-0.999603, 257, 195, 272, 210
-0.999604, 411, 115, 426, 130
-0.999605, 317, 207, 332, 222
-0.999606, 277, 171, 292, 186
-0.999607, 279, 157, 294, 172
-0.999609, 319, 109, 334, 124
-0.999612, 273, 155, 288, 170
-0.999612, 225, 143, 240, 158
-0.999612, 413, 55, 428, 70
-0.999612, 247, 103, 262, 118
-0.999613, 219, 147, 234, 162
-0.999613, 159, 175, 174, 190
-0.999614, 457, 189, 472, 204
-0.999615, 141, 109, 156, 124
-0.999615, 215, 187, 230, 202
-0.999616, 307, 109, 322, 124
-0.999619, 343, 159, 358, 174
-0.999619, 309, 217, 324, 232
-0.99962, 59, 161, 74, 176
-0.99962, 73, 163, 88, 178
-0.999621, 299, 107, 314, 122
-0.999621, 267, 187, 282, 202
-0.999623, 299, 215, 314, 230
-0.999624, 349, 151, 364, 166
-0.999627, 349, 219, 364, 234
-0.999627, 229, 167, 244, 182
-0.999628, 461, 107, 476, 122
-0.999628, 1, 85, 128, 116
-0.999629, 221, 187, 236, 202
-0.99963, 83, 159, 98, 174
-0.99963, 219, 175, 234, 190
-0.999632, 353, 273, 480, 304
-0.999638, 109, 1, 140, 256
-0.999639, 241, 125, 256, 140
-0.99964, 65, 161, 80, 176
-0.99964, 269, 103, 284, 118
-0.999643, 449, 167, 464, 182
-0.999644, 217, 193, 232, 208
-0.99965, 235, 127, 250, 142
-0.999652, 361, 217, 376, 232
-0.999652, 325, 107, 340, 122
-0.999659, 311, 211, 326, 226
-0.999659, 161, 115, 176, 130
-0.99966, 287, 101, 302, 116
-0.999662, 443, 175, 458, 190
-0.999668, 279, 113, 294, 128
-0.999668, 45, 65, 76, 192
-0.99967, 289, 115, 304, 130
-0.999678, 457, 175, 472, 190
-0.999679, 263, 105, 278, 120
-0.999679, 471, 183, 486, 198
-0.99968, 451, 173, 466, 188
-0.999683, 1, 273, 256, 333
-0.999688, 331, 113, 346, 128
-0.999692, 293, 105, 308, 120
-0.999698, 275, 105, 290, 120
-0.999702, 287, 109, 302, 124
-0.999705, 223, 169, 238, 184
-0.999705, 263, 193, 278, 208
-0.999712, 481, 181, 496, 196
-0.999718, 279, 99, 294, 114
-0.999719, 465, 181, 480, 196
-0.999725, 253, 105, 268, 120
-0.999726, 271, 111, 286, 126
-0.999732, 469, 103, 484, 118
-0.999744, 355, 217, 370, 232
-0.999748, 81, 1, 112, 256
-0.999798, 281, 107, 296, 122
-0.999803, 305, 211, 320, 226
-0.999852, 69, 1, 100, 256
-0.999857, 93, 1, 124, 256
-1.00024, 129, 233, 256, 296
-1.00033, 257, 273, 500, 333
-1.00034, 401, 209, 464, 333
-1.00035, 41, 1, 72, 256
-1.00061, 5, 1, 36, 256
-1.00064, 57, 1, 88, 256
-1.00065, 1, 257, 500, 320
-1.00073, 97, 273, 352, 333
-1.00075, 17, 33, 48, 288
-1.00103, 29, 33, 60, 288
-1.00122, 9, 1, 72, 256
-1.00124, 97, 249, 352, 312
-1.00129, 193, 273, 320, 333
-1.00144, 129, 257, 256, 320
-1.00166, 121, 209, 184, 333
-1.00266, 177, 249, 304, 312
-1.00432, 145, 209, 208, 333
-1.01368, 433, 1, 496, 128
