1879
-0.383059, 1, 1, 500, 256
-0.405121, 1, 1, 500, 335
-0.509627, 1, 1, 256, 335
-0.539763, 225, 1, 480, 335
-0.570467, 257, 1, 500, 256
-0.62026, 129, 1, 384, 335
-0.625504, 33, 65, 288, 320
-0.647169, 161, 1, 416, 256
-0.851856, 305, 1, 432, 335
-0.853323, 49, 1, 176, 256
-0.861315, 353, 1, 480, 256
-0.862048, 129, 65, 256, 320
-0.867865, 33, 1, 160, 335
-0.867941, 305, 33, 432, 288
-0.870813, 177, 65, 304, 320
-0.873122, 353, 1, 480, 335
-0.874205, 225, 1, 352, 256
-0.87432, 1, 65, 128, 320
-0.876907, 81, 1, 208, 335
-0.886809, 1, 129, 500, 256
-0.893868, 1, 33, 500, 160
-0.895607, 225, 1, 352, 335
-0.904585, 177, 1, 304, 335
-0.907848, 129, 1, 256, 335
-0.908346, 225, 113, 480, 240
-0.909759, 257, 193, 500, 320
-0.910307, 161, 65, 416, 192
-0.9109, 1, 177, 500, 304
-0.911864, 97, 161, 352, 288
-0.914098, 1, 145, 256, 272
-0.915006, 1, 81, 500, 208
-0.922281, 129, 113, 384, 240
-0.924711, 33, 81, 288, 208
-0.928974, 33, 17, 288, 144
-0.929721, 321, 113, 448, 240
-0.931631, 257, 33, 500, 160
-0.931944, 41, 1, 104, 128
-0.932566, 1, 193, 256, 320
-0.932678, 273, 177, 336, 304
-0.933073, 177, 161, 304, 288
-0.935299, 369, 33, 496, 160
-0.938135, 369, 97, 496, 224
-0.93844, 209, 97, 272, 224
-0.938583, 369, 161, 496, 288
-0.938593, 17, 33, 144, 160
-0.938627, 433, 113, 496, 240
-0.938751, 233, 161, 296, 288
-0.939042, 425, 17, 488, 144
-0.939193, 321, 49, 448, 176
-0.940514, 417, 161, 480, 288
-0.940812, 17, 129, 144, 256
-0.941013, 425, 65, 488, 192
-0.941236, 241, 177, 368, 304
-0.941281, 321, 193, 448, 320
-0.941368, 113, 113, 240, 240
-0.942331, 337, 113, 400, 240
-0.942667, 17, 1, 80, 128
-0.943244, 65, 49, 192, 176
-0.943542, 209, 97, 336, 224
-0.943691, 377, 193, 440, 320
-0.943739, 273, 129, 400, 256
-0.943787, 41, 65, 104, 192
-0.945053, 161, 97, 288, 224
-0.945105, 313, 129, 376, 256
-0.945882, 161, 209, 416, 335
-0.947132, 377, 113, 440, 240
-0.947473, 169, 129, 232, 256
-0.948466, 193, 161, 256, 288
-0.949605, 177, 81, 240, 208
-0.951471, 169, 121, 232, 184
-0.951737, 425, 81, 488, 144
-0.952053, 321, 1, 448, 128
-0.952428, 65, 113, 192, 240
-0.952822, 337, 49, 400, 176
-0.953286, 337, 121, 400, 184
-0.953431, 337, 161, 400, 288
-0.95355, 49, 113, 112, 240
-0.953627, 17, 49, 80, 176
-0.954205, 233, 97, 296, 224
-0.954494, 401, 1, 464, 128
-0.954585, 153, 209, 216, 335
-0.95476, 17, 177, 80, 304
-0.954929, 17, 177, 144, 304
-0.95509, 65, 177, 192, 304
-0.955144, 1, 1, 64, 64
-0.955668, 193, 209, 320, 335
-0.955743, 17, 81, 144, 208
-0.955978, 73, 33, 136, 160
-0.956144, 137, 113, 200, 240
-0.95728, 401, 113, 464, 240
-0.957371, 297, 177, 360, 304
-0.957685, 113, 161, 240, 288
-0.957936, 273, 193, 336, 256
-0.958406, 97, 193, 160, 320
-0.958504, 113, 209, 240, 335
-0.958671, 425, 17, 488, 80
-0.958691, 161, 49, 288, 176
-0.95881, 233, 153, 296, 216
-0.9589, 209, 113, 272, 176
-0.959036, 41, 33, 104, 96
-0.959111, 113, 65, 240, 192
-0.959612, 81, 145, 144, 272
-0.959649, 305, 201, 368, 264
-0.960109, 137, 161, 200, 288
-0.960517, 257, 129, 320, 256
-0.960545, 433, 161, 496, 224
-0.960739, 377, 1, 440, 128
-0.960965, 401, 65, 464, 192
-0.961143, 369, 209, 496, 335
-0.961157, 17, 25, 80, 88
-0.961785, 137, 209, 200, 272
-0.96202, 337, 1, 400, 128
-0.962251, 137, 65, 200, 192
-0.963105, 25, 1, 88, 64
-0.963216, 321, 225, 384, 288
-0.963216, 105, 145, 168, 272
-0.963266, 417, 105, 480, 168
-0.963509, 257, 153, 320, 216
-0.963527, 49, 161, 112, 288
-0.963748, 385, 113, 448, 176
-0.964039, 41, 65, 104, 128
-0.964318, 329, 209, 392, 335
-0.964326, 425, 41, 488, 104
-0.964359, 241, 49, 368, 176
-0.964459, 65, 65, 128, 128
-0.964505, 177, 89, 240, 152
-0.964653, 25, 129, 88, 256
-0.965662, 169, 145, 232, 208
-0.965733, 353, 41, 416, 104
-0.96582, 81, 81, 144, 208
-0.965837, 345, 185, 408, 248
-0.965869, 201, 145, 264, 208
-0.96596, 401, 209, 464, 335
-0.966589, 385, 185, 448, 248
-0.966775, 33, 201, 96, 264
-0.966821, 241, 209, 304, 335
-0.967035, 209, 169, 272, 232
-0.967719, 281, 161, 344, 224
-0.967933, 313, 177, 376, 240
-0.967958, 433, 129, 496, 192
-0.968089, 113, 1, 176, 64
-0.968228, 81, 41, 144, 104
-0.968286, 233, 177, 296, 240
-0.968318, 385, 33, 448, 96
-0.968358, 369, 49, 432, 176
-0.968677, 445, 81, 476, 208
-0.968828, 153, 233, 216, 296
-0.968892, 9, 49, 72, 112
-0.968981, 161, 113, 288, 176
-0.968994, 321, 153, 384, 216
-0.969103, 113, 193, 176, 256
-0.969349, 177, 33, 240, 160
-0.969594, 457, 81, 488, 208
-0.969681, 137, 153, 200, 216
-0.969772, 121, 209, 184, 335
-0.969817, 13, 1, 44, 64
-0.969998, 433, 209, 496, 335
-0.970152, 49, 209, 112, 335
-0.97021, 193, 193, 256, 256
-0.970256, 281, 217, 344, 280
-0.970602, 469, 113, 500, 240
-0.970608, 461, 81, 492, 144
-0.97075, 337, 33, 400, 288
-0.970778, 137, 121, 200, 184
-0.970809, 241, 265, 304, 328
-0.971028, 129, 1, 384, 128
-0.971078, 369, 1, 432, 64
-0.971263, 45, 1, 76, 128
-0.971335, 265, 249, 328, 312
-0.971516, 265, 153, 296, 216
-0.97152, 49, 129, 112, 192
-0.971533, 369, 97, 496, 160
-0.971697, 25, 1, 56, 128
-0.971866, 401, 153, 464, 216
-0.971888, 345, 217, 408, 280
-0.972055, 49, 169, 112, 232
-0.972173, 321, 121, 448, 184
-0.972222, 249, 161, 280, 288
-0.972227, 25, 1, 88, 256
-0.972249, 49, 33, 112, 288
-0.972269, 65, 1, 192, 128
-0.972402, 137, 273, 200, 335
-0.972423, 25, 1, 56, 64
-0.972442, 57, 65, 88, 192
-0.972499, 233, 113, 296, 176
-0.972501, 113, 65, 176, 192
-0.972612, 313, 249, 376, 312
-0.972637, 329, 129, 360, 256
-0.972671, 353, 209, 416, 335
-0.972757, 289, 129, 352, 256
-0.972827, 201, 89, 264, 152
-0.97289, 361, 121, 424, 184
-0.972993, 445, 89, 476, 152
-0.973073, 321, 193, 448, 256
-0.973165, 33, 49, 160, 112
-0.973197, 445, 161, 476, 288
-0.973203, 217, 209, 280, 335
-0.973212, 249, 97, 280, 224
-0.973272, 17, 1, 144, 64
-0.973371, 169, 185, 232, 248
-0.973424, 177, 209, 240, 335
-0.973545, 369, 41, 496, 104
-0.973549, 441, 1, 472, 128
-0.973595, 233, 225, 296, 288
-0.973644, 73, 177, 136, 240
-0.973657, 425, 1, 488, 256
-0.973663, 57, 1, 120, 64
-0.973731, 401, 1, 464, 64
-0.973812, 257, 153, 384, 216
-0.973951, 321, 49, 384, 112
-0.974454, 193, 153, 320, 216
-0.974495, 129, 153, 256, 216
-0.974511, 249, 201, 312, 264
-0.97458, 273, 1, 336, 256
-0.974691, 257, 193, 384, 256
-0.974742, 17, 25, 144, 88
-0.974877, 113, 121, 176, 184
-0.974939, 465, 121, 496, 184
-0.97496, 377, 145, 440, 208
-0.974972, 457, 129, 488, 256
-0.974973, 345, 145, 408, 208
-0.974978, 193, 177, 320, 240
-0.975026, 193, 225, 256, 288
-0.975062, 273, 1, 400, 128
-0.975165, 81, 153, 144, 216
-0.975235, 129, 217, 256, 280
-0.975235, 237, 161, 268, 288
-0.975237, 385, 57, 448, 120
-0.975266, 213, 153, 244, 216
-0.975282, 265, 161, 296, 288
-0.975327, 177, 201, 304, 264
-0.975332, 285, 177, 316, 304
-0.975366, 217, 113, 248, 240
-0.975391, 217, 1, 280, 256
-0.97541, 285, 161, 316, 224
-0.97543, 433, 161, 464, 288
-0.975453, 297, 177, 328, 304
-0.975507, 341, 113, 372, 240
-0.975536, 25, 129, 88, 192
-0.975565, 17, 225, 80, 288
-0.975637, 5, 1, 36, 128
-0.975764, 241, 217, 368, 280
-0.975855, 217, 257, 280, 320
-0.975883, 409, 177, 472, 240
-0.975929, 153, 1, 216, 64
-0.976024, 377, 1, 440, 256
-0.976044, 281, 185, 312, 248
-0.97605, 9, 177, 72, 240
-0.976144, 433, 1, 464, 64
-0.976231, 229, 97, 260, 224
-0.976297, 9, 201, 72, 264
-0.976341, 197, 113, 228, 176
-0.976357, 25, 25, 56, 88
-0.976494, 89, 129, 152, 192
-0.976515, 49, 137, 176, 200
-0.976587, 369, 17, 496, 80
-0.976602, 465, 1, 496, 64
-0.976665, 97, 233, 160, 296
-0.976675, 321, 153, 448, 216
-0.976748, 309, 193, 340, 320
-0.976761, 89, 1, 152, 256
-0.976761, 113, 129, 240, 192
-0.976797, 105, 169, 168, 232
-0.976931, 5, 25, 36, 88
-0.976966, 345, 273, 408, 335
-0.977094, 41, 1, 72, 64
-0.977192, 73, 65, 104, 128
-0.977314, 89, 1, 152, 64
-0.977339, 153, 65, 216, 320
-0.977378, 373, 41, 404, 104
-0.977443, 53, 81, 84, 144
-0.977447, 313, 121, 376, 184
-0.977511, 325, 193, 356, 256
-0.977573, 257, 225, 320, 288
-0.977674, 69, 65, 100, 192
-0.97775, 225, 161, 256, 288
-0.977821, 49, 249, 112, 312
-0.977822, 469, 49, 500, 176
-0.977849, 65, 201, 192, 264
-0.977858, 401, 273, 464, 335
-0.977876, 57, 17, 88, 144
-0.97789, 21, 177, 52, 304
-0.977896, 353, 65, 416, 128
-0.977907, 161, 209, 224, 272
-0.977919, 457, 17, 488, 144
-0.977968, 53, 41, 84, 104
-0.977982, 321, 81, 384, 144
-0.978012, 25, 153, 88, 216
-0.978062, 257, 129, 320, 192
-0.978071, 413, 177, 444, 304
-0.978207, 149, 201, 180, 264
-0.978304, 273, 241, 400, 304
-0.97844, 257, 129, 384, 192
-0.978497, 369, 257, 432, 320
-0.9785, 241, 1, 304, 256
-0.978514, 49, 105, 112, 168
-0.978696, 401, 241, 464, 304
-0.978731, 429, 113, 460, 240
-0.978767, 369, 121, 400, 184
-0.978781, 181, 121, 212, 184
-0.978908, 445, 17, 476, 80
-0.978928, 433, 89, 464, 152
-0.979011, 345, 1, 408, 64
-0.979099, 165, 209, 196, 272
-0.979128, 205, 81, 236, 208
-0.979173, 369, 121, 496, 184
-0.979233, 73, 113, 104, 240
-0.979466, 213, 113, 244, 176
-0.979468, 369, 97, 400, 224
-0.979491, 289, 217, 416, 280
-0.979557, 145, 1, 272, 128
-0.979569, 73, 1, 104, 128
-0.979599, 337, 65, 464, 128
-0.979621, 113, 273, 176, 335
-0.979646, 205, 145, 236, 272
-0.979681, 209, 105, 336, 168
-0.979698, 193, 265, 320, 328
-0.979829, 309, 217, 340, 280
-0.979953, 17, 73, 144, 136
-0.980025, 177, 1, 240, 256
-0.980025, 193, 265, 256, 328
-0.980068, 137, 193, 168, 256
-0.980099, 349, 121, 380, 184
-0.980106, 313, 49, 376, 176
-0.980114, 321, 1, 384, 64
-0.980128, 45, 209, 76, 272
-0.980137, 353, 113, 384, 240
-0.980177, 353, 97, 416, 160
-0.980252, 245, 153, 276, 216
-0.980258, 309, 193, 340, 256
-0.980264, 177, 233, 304, 296
-0.980293, 129, 193, 256, 256
-0.980438, 65, 1, 192, 64
-0.980449, 225, 153, 256, 216
-0.980449, 89, 201, 152, 264
-0.980489, 417, 17, 448, 80
-0.980521, 433, 1, 496, 335
-0.98054, 349, 193, 380, 256
-0.980561, 469, 161, 500, 224
-0.980631, 269, 177, 300, 240
-0.980731, 29, 201, 60, 264
-0.98078, 1, 129, 64, 256
-0.980792, 137, 73, 200, 136
-0.980814, 289, 273, 352, 335
-0.98082, 25, 97, 88, 160
-0.980845, 113, 41, 176, 104
-0.980892, 217, 49, 280, 176
-0.980933, 33, 177, 64, 304
-0.981026, 129, 241, 256, 304
-0.98104, 369, 169, 496, 232
-0.981047, 41, 129, 72, 256
-0.981052, 329, 153, 360, 216
-0.981178, 181, 129, 212, 256
-0.981179, 445, 57, 476, 120
-0.981227, 193, 97, 224, 224
-0.981242, 97, 273, 224, 335
-0.981336, 49, 177, 176, 240
-0.981355, 381, 177, 412, 304
-0.98138, 17, 209, 144, 272
-0.981385, 49, 225, 112, 288
-0.981386, 17, 113, 144, 176
-0.981407, 169, 257, 232, 320
-0.981449, 469, 161, 500, 288
-0.981466, 457, 57, 488, 120
-0.98151, 397, 193, 428, 320
-0.981543, 401, 1, 464, 256
-0.981577, 377, 209, 440, 272
-0.981578, 125, 121, 156, 184
-0.981659, 289, 209, 320, 272
-0.981825, 121, 33, 184, 288
-0.981881, 17, 73, 80, 136
-0.981923, 433, 137, 464, 200
-0.981941, 373, 49, 404, 176
-0.981962, 65, 113, 192, 176
-0.981962, 373, 1, 404, 128
-0.982105, 273, 129, 304, 192
-0.982107, 361, 41, 392, 104
-0.982107, 413, 113, 444, 176
-0.982112, 73, 209, 136, 335
-0.982114, 133, 129, 164, 256
-0.982123, 161, 65, 288, 128
-0.982156, 121, 17, 184, 144
-0.982207, 465, 209, 496, 335
-0.982232, 113, 105, 240, 168
-0.982238, 89, 1, 152, 335
-0.982256, 197, 145, 228, 208
-0.98227, 345, 249, 408, 312
-0.982297, 229, 121, 260, 184
-0.982335, 57, 201, 120, 264
-0.982338, 409, 129, 472, 192
-0.982355, 297, 1, 360, 256
-0.982449, 137, 97, 200, 160
-0.982565, 177, 217, 208, 280
-0.982581, 469, 49, 500, 112
-0.982598, 37, 177, 68, 240
-0.982598, 329, 217, 360, 280
-0.982598, 305, 1, 432, 64
-0.98264, 1, 1, 64, 256
-0.982647, 261, 129, 292, 192
-0.98265, 433, 161, 464, 224
-0.982693, 425, 1, 456, 128
-0.982727, 333, 121, 364, 184
-0.982753, 369, 233, 496, 296
-0.982774, 129, 233, 192, 296
-0.982832, 269, 209, 300, 335
-0.982837, 397, 193, 428, 256
-0.982851, 305, 89, 432, 152
-0.982873, 149, 193, 180, 320
-0.982921, 141, 129, 172, 192
-0.982927, 445, 121, 476, 184
-0.982947, 253, 265, 284, 328
-0.98299, 93, 41, 124, 104
-0.98299, 217, 177, 248, 240
-0.983045, 377, 81, 440, 144
-0.98306, 249, 233, 280, 296
-0.983074, 417, 209, 480, 272
-0.983088, 41, 57, 72, 120
-0.9831, 117, 1, 148, 64
-0.98317, 269, 201, 300, 264
-0.983234, 289, 265, 416, 328
-0.983353, 305, 41, 432, 104
-0.983367, 369, 233, 432, 296
-0.983394, 121, 113, 152, 240
-0.983433, 393, 121, 424, 184
-0.983462, 341, 153, 372, 216
-0.983466, 65, 25, 192, 88
-0.98348, 101, 161, 132, 288
-0.983493, 125, 169, 156, 232
-0.983507, 321, 193, 352, 320
-0.983531, 289, 241, 352, 304
-0.983547, 445, 161, 476, 224
-0.983571, 65, 233, 192, 296
-0.983617, 289, 113, 352, 176
-0.983662, 73, 273, 136, 335
-0.983669, 433, 65, 464, 192
-0.983685, 329, 25, 392, 88
-0.983754, 337, 193, 368, 256
-0.983792, 141, 273, 172, 335
-0.983793, 337, 1, 400, 335
-0.983818, 193, 225, 224, 288
-0.983849, 393, 113, 424, 240
-0.983892, 169, 65, 232, 128
-0.983944, 57, 1, 120, 335
-0.98398, 225, 241, 352, 304
-0.984056, 357, 33, 388, 160
-0.984147, 177, 1, 240, 64
-0.984158, 49, 177, 80, 240
-0.984183, 113, 33, 144, 160
-0.984233, 425, 265, 488, 328
-0.984235, 201, 89, 232, 152
-0.984239, 57, 201, 88, 264
-0.984251, 277, 129, 308, 256
-0.984281, 417, 49, 448, 176
-0.984298, 225, 201, 288, 264
-0.984313, 145, 185, 208, 248
-0.984324, 369, 145, 496, 208
-0.984332, 89, 177, 120, 240
-0.984389, 1, 161, 128, 224
-0.984399, 369, 265, 496, 328
-0.984405, 101, 1, 132, 64
-0.984479, 69, 161, 100, 224
-0.984509, 165, 113, 196, 240
-0.984556, 341, 49, 372, 176
-0.984583, 137, 49, 200, 112
-0.984587, 193, 265, 224, 328
-0.984599, 293, 185, 324, 248
-0.984622, 161, 89, 288, 152
-0.984638, 261, 97, 292, 224
-0.984649, 65, 73, 192, 136
-0.984704, 29, 49, 60, 176
-0.984751, 373, 97, 404, 160
-0.984778, 153, 129, 184, 256
-0.984787, 113, 145, 176, 208
-0.984796, 81, 49, 112, 176
-0.984836, 97, 49, 224, 112
-0.984855, 73, 233, 136, 296
-0.98486, 445, 209, 476, 335
-0.984879, 409, 113, 440, 240
-0.984932, 469, 1, 500, 128
-0.985146, 113, 81, 240, 144
-0.9852, 257, 49, 384, 112
-0.985219, 153, 225, 184, 288
-0.985219, 365, 193, 396, 320
-0.985242, 129, 233, 160, 296
-0.985285, 89, 145, 120, 208
-0.985329, 269, 225, 300, 288
-0.985337, 381, 177, 412, 240
-0.985347, 113, 129, 144, 192
-0.985381, 205, 193, 236, 256
-0.985383, 73, 97, 136, 160
-0.98541, 409, 185, 440, 248
-0.985436, 241, 273, 368, 335
-0.985453, 281, 137, 344, 200
-0.985491, 249, 89, 280, 152
-0.985505, 25, 1, 88, 335
-0.985524, 193, 209, 224, 335
-0.985538, 349, 217, 380, 280
-0.98555, 153, 25, 216, 88
-0.985557, 133, 65, 164, 192
-0.985633, 1, 1, 32, 64
-0.985744, 197, 169, 228, 232
-0.985762, 241, 113, 272, 176
-0.985847, 309, 257, 340, 320
-0.985857, 181, 89, 212, 152
-0.985884, 133, 193, 164, 320
-0.985928, 289, 81, 352, 208
-0.985962, 145, 265, 272, 328
-0.986043, 1, 137, 128, 200
-0.986084, 325, 249, 356, 312
-0.986101, 161, 65, 192, 192
-0.986127, 381, 129, 412, 256
-0.986214, 265, 265, 296, 328
-0.986247, 373, 17, 404, 80
-0.986251, 57, 145, 88, 272
-0.986264, 149, 249, 180, 312
-0.986299, 1, 1, 64, 335
-0.986336, 69, 193, 100, 256
-0.98634, 125, 193, 156, 256
-0.986355, 293, 273, 324, 335
-0.986385, 321, 241, 448, 304
-0.98641, 229, 97, 260, 160
-0.986417, 105, 161, 136, 224
-0.986434, 45, 49, 76, 176
-0.98645, 77, 1, 108, 64
-0.986475, 329, 81, 360, 208
-0.986602, 121, 161, 152, 288
-0.986646, 249, 209, 280, 335
-0.9867, 137, 153, 168, 216
-0.986706, 257, 49, 288, 176
-0.986762, 209, 129, 336, 192
-0.986771, 37, 25, 68, 88
-0.986778, 57, 1, 88, 64
-0.986786, 29, 49, 60, 112
-0.9868, 349, 161, 380, 288
-0.986852, 393, 41, 424, 104
-0.986866, 333, 177, 364, 304
-0.98698, 177, 81, 208, 208
-0.987051, 73, 161, 104, 288
-0.987052, 97, 17, 160, 144
-0.987071, 369, 273, 400, 335
-0.987197, 313, 145, 344, 272
-0.987208, 225, 81, 352, 144
-0.987252, 177, 1, 240, 335
-0.987255, 433, 65, 464, 128
-0.987297, 1, 233, 128, 296
-0.98732, 169, 113, 200, 176
-0.987341, 53, 153, 84, 216
-0.987345, 289, 249, 320, 312
-0.987354, 9, 177, 40, 304
-0.987367, 45, 177, 76, 304
-0.987539, 49, 273, 176, 335
-0.98754, 237, 209, 268, 335
-0.987544, 373, 153, 404, 216
-0.987578, 165, 161, 196, 288
-0.987592, 361, 217, 392, 280
-0.98761, 153, 1, 216, 128
-0.987635, 361, 241, 392, 304
-0.987656, 17, 169, 48, 232
-0.987757, 89, 145, 120, 272
-0.987759, 381, 121, 412, 184
-0.987824, 113, 41, 144, 104
-0.98785, 69, 121, 100, 184
-0.987886, 137, 1, 200, 335
-0.98797, 213, 89, 244, 152
-0.987981, 157, 129, 188, 192
-0.987984, 161, 1, 192, 64
-0.987992, 421, 185, 452, 248
-0.988065, 209, 1, 272, 335
-0.988161, 209, 233, 240, 296
-0.988169, 193, 145, 224, 272
-0.988179, 369, 209, 496, 272
-0.988282, 81, 209, 112, 335
-0.988612, 233, 1, 296, 335
-0.98876, 273, 193, 336, 224
-0.988883, 113, 1, 176, 335
-0.988924, 405, 1, 436, 128
-0.988986, 389, 17, 420, 144
-0.989016, 97, 161, 352, 224
-0.98908, 201, 117, 264, 148
-0.989111, 17, 1, 80, 32
-0.989129, 169, 125, 232, 156
-0.989149, 213, 209, 244, 335
-0.989238, 93, 33, 124, 160
-0.98924, 65, 129, 320, 192
-0.989244, 273, 205, 336, 236
-0.989255, 109, 209, 140, 335
-0.989262, 249, 157, 312, 188
-0.989297, 113, 1, 240, 64
-0.989359, 9, 41, 72, 72
-0.989383, 17, 29, 80, 60
-0.989478, 337, 125, 400, 156
-0.989505, 145, 221, 208, 252
-0.989521, 225, 209, 256, 335
-0.989531, 257, 145, 500, 208
-0.989578, 385, 9, 448, 40
-0.989655, 21, 113, 52, 240
-0.989669, 433, 165, 496, 196
-0.989679, 425, 209, 456, 335
-0.989683, 49, 65, 112, 96
-0.989724, 17, 17, 80, 48
-0.989738, 305, 209, 368, 240
-0.989749, 201, 33, 232, 160
-0.98975, 17, 197, 80, 228
-0.989806, 417, 109, 480, 140
-0.989813, 241, 173, 304, 204
-0.989815, 305, 225, 368, 256
-0.989836, 177, 109, 240, 140
-0.989853, 417, 21, 480, 52
-0.989883, 353, 45, 416, 76
-0.989894, 93, 81, 124, 208
-0.989924, 249, 185, 312, 216
-0.98993, 161, 121, 416, 184
-0.989971, 137, 289, 200, 320
-0.989989, 225, 117, 288, 148
-0.989995, 1, 185, 128, 248
-0.99, 49, 53, 112, 84
-0.990012, 273, 1, 336, 335
-0.990032, 273, 165, 336, 196
-0.990041, 73, 69, 136, 100
-0.99008, 105, 197, 168, 228
-0.990089, 161, 285, 224, 316
-0.990121, 181, 193, 212, 320
-0.990128, 425, 49, 488, 80
-0.990205, 425, 97, 488, 128
-0.990207, 225, 161, 288, 192
-0.990212, 281, 221, 344, 252
-0.990222, 369, 197, 432, 228
-0.990228, 257, 25, 384, 88
-0.990236, 305, 193, 368, 224
-0.990261, 177, 149, 240, 180
-0.990262, 137, 145, 200, 176
-0.990295, 425, 61, 488, 92
-0.990296, 89, 181, 152, 212
-0.990302, 129, 209, 192, 240
-0.990334, 433, 9, 496, 40
-0.990389, 49, 205, 112, 236
-0.990412, 149, 65, 180, 192
-0.990423, 433, 121, 496, 152
-0.990428, 409, 189, 472, 220
-0.990439, 345, 209, 376, 335
-0.990446, 137, 273, 200, 304
-0.990481, 289, 253, 352, 284
-0.990481, 385, 125, 448, 156
-0.990499, 181, 33, 212, 160
-0.990501, 241, 33, 272, 160
-0.990502, 281, 237, 344, 268
-0.990559, 113, 25, 240, 88
-0.990586, 89, 161, 152, 192
-0.990596, 217, 173, 280, 204
-0.990597, 341, 1, 372, 128
-0.990605, 41, 21, 104, 52
-0.990612, 225, 149, 288, 180
-0.990648, 201, 129, 264, 160
-0.99066, 57, 1, 120, 32
-0.99066, 337, 225, 400, 256
-0.990662, 97, 69, 160, 100
-0.990662, 257, 229, 320, 260
-0.990665, 41, 77, 104, 108
-0.990675, 409, 1, 472, 32
-0.990689, 193, 301, 256, 332
-0.990692, 41, 33, 104, 64
-0.99071, 385, 45, 448, 76
-0.990716, 121, 301, 184, 332
-0.990726, 1, 53, 64, 84
-0.990758, 289, 181, 352, 212
-0.990763, 145, 129, 208, 160
-0.990805, 361, 125, 424, 156
-0.990829, 313, 245, 376, 276
-0.990829, 377, 1, 440, 335
-0.99084, 73, 53, 136, 84
-0.990851, 289, 269, 352, 300
-0.990869, 57, 173, 120, 204
-0.990879, 401, 33, 464, 64
-0.99088, 25, 57, 88, 88
-0.990889, 345, 193, 408, 224
-0.990905, 41, 129, 104, 160
-0.990909, 25, 209, 88, 240
-0.990928, 289, 153, 352, 184
-0.990935, 385, 185, 448, 216
-0.990942, 25, 141, 88, 172
-0.990965, 89, 221, 152, 252
-0.990967, 137, 165, 200, 196
-0.990991, 33, 73, 288, 136
-0.990992, 365, 145, 396, 272
-0.990993, 401, 157, 464, 188
-0.990999, 345, 213, 408, 244
-0.991012, 177, 161, 240, 192
-0.991029, 389, 65, 420, 192
-0.991063, 321, 49, 384, 80
-0.991063, 97, 261, 160, 292
-0.991081, 33, 185, 96, 216
-0.991092, 153, 233, 216, 264
-0.991095, 385, 89, 448, 120
-0.991114, 1, 241, 64, 272
-0.991123, 257, 269, 320, 300
-0.991131, 337, 65, 400, 96
-0.991131, 129, 197, 192, 228
-0.991136, 121, 69, 184, 100
-0.991142, 425, 77, 488, 108
-0.991161, 17, 129, 80, 160
-0.991163, 433, 37, 496, 68
-0.991169, 97, 57, 160, 88
-0.991183, 65, 229, 128, 260
-0.991185, 233, 229, 296, 260
-0.99121, 161, 209, 416, 272
-0.991218, 337, 245, 400, 276
-0.991238, 385, 137, 448, 168
-0.991239, 161, 97, 416, 160
-0.991244, 49, 217, 112, 248
-0.991272, 17, 229, 80, 260
-0.991275, 177, 137, 240, 168
-0.991276, 201, 149, 264, 180
-0.991284, 217, 65, 248, 192
-0.991285, 145, 113, 208, 144
-0.991319, 57, 193, 120, 224
-0.991334, 385, 173, 448, 204
-0.991337, 345, 153, 408, 184
-0.99135, 177, 221, 240, 252
-0.991351, 313, 265, 376, 296
-0.991352, 201, 161, 264, 192
-0.991357, 65, 269, 128, 300
-0.99136, 113, 173, 176, 204
-0.991371, 177, 93, 240, 124
-0.991383, 249, 145, 312, 176
-0.991398, 217, 105, 280, 136
-0.991414, 353, 301, 416, 332
-0.991431, 209, 1, 272, 128
-0.991431, 113, 241, 176, 272
-0.99144, 385, 57, 448, 88
-0.991446, 329, 141, 392, 172
-0.991452, 257, 281, 320, 312
-0.991473, 161, 185, 416, 248
-0.991475, 153, 257, 216, 288
-0.991479, 217, 273, 280, 304
-0.991484, 113, 277, 176, 308
-0.991505, 65, 81, 128, 112
-0.991519, 393, 113, 456, 144
-0.99153, 241, 201, 304, 232
-0.991538, 161, 41, 288, 104
-0.991949, 409, 1, 472, 335
-0.992004, 297, 129, 328, 256
-0.992015, 257, 49, 500, 112
-0.992017, 469, 121, 500, 152
-0.992031, 297, 1, 360, 335
-0.992043, 281, 161, 312, 192
-0.992058, 313, 1, 376, 128
-0.992122, 285, 193, 316, 224
-0.992124, 241, 49, 304, 176
-0.99216, 1, 193, 256, 256
-0.992251, 265, 153, 296, 184
-0.99227, 13, 13, 44, 44
-0.992273, 257, 193, 500, 256
-0.992302, 41, 9, 72, 40
-0.992326, 1, 161, 256, 224
-0.992336, 25, 17, 56, 48
-0.992361, 257, 1, 500, 64
-0.992364, 25, 29, 56, 60
-0.992365, 221, 113, 252, 144
-0.992369, 25, 5, 56, 36
-0.99237, 453, 9, 484, 40
-0.992385, 149, 273, 180, 304
-0.992402, 77, 69, 108, 100
-0.992443, 45, 21, 76, 52
-0.992458, 465, 9, 496, 40
-0.992465, 273, 185, 304, 216
-0.992478, 233, 117, 264, 148
-0.99248, 121, 209, 152, 335
-0.992487, 457, 121, 488, 152
-0.992493, 57, 13, 88, 44
-0.992505, 329, 209, 360, 240
-0.992514, 461, 105, 492, 136
-0.992519, 53, 73, 84, 104
-0.992519, 209, 113, 240, 144
-0.992523, 1, 5, 32, 36
-0.992524, 285, 181, 316, 212
-0.992529, 13, 25, 44, 56
-0.99253, 313, 217, 344, 248
-0.99254, 177, 125, 208, 156
-0.992542, 37, 209, 68, 240
-0.992543, 1, 17, 32, 48
-0.992553, 137, 197, 168, 228
-0.992558, 197, 125, 228, 156
-0.992566, 301, 209, 332, 240
-0.992576, 13, 1, 44, 32
-0.992583, 257, 89, 500, 152
-0.992588, 301, 197, 332, 228
-0.992589, 57, 85, 88, 116
-0.99259, 441, 13, 472, 44
-0.992591, 261, 165, 292, 196
-0.992607, 437, 97, 468, 128
-0.992607, 257, 105, 384, 168
-0.992608, 165, 209, 196, 335
-0.992612, 141, 285, 172, 316
-0.992628, 85, 49, 116, 80
-0.992641, 29, 41, 60, 72
-0.992641, 53, 61, 84, 92
-0.992642, 25, 201, 56, 232
-0.992651, 309, 273, 340, 304
-0.992664, 213, 125, 244, 156
-0.992667, 17, 49, 48, 176
-0.992668, 273, 173, 304, 204
-0.992673, 9, 37, 40, 68
-0.992674, 97, 49, 128, 80
-0.992678, 69, 5, 100, 36
-0.99268, 253, 269, 284, 300
-0.992683, 109, 113, 140, 240
-0.992683, 145, 213, 176, 244
-0.992691, 461, 49, 492, 80
-0.992694, 281, 233, 312, 264
-0.992696, 225, 153, 256, 184
-0.9927, 373, 45, 404, 76
-0.992702, 157, 209, 188, 240
-0.992704, 117, 177, 148, 208
-0.992705, 89, 69, 120, 100
-0.992709, 341, 129, 372, 160
-0.992712, 313, 193, 344, 224
-0.992715, 141, 129, 172, 160
-0.992723, 173, 217, 204, 248
-0.99273, 273, 201, 304, 232
-0.992733, 317, 205, 348, 236
-0.992733, 197, 301, 228, 332
-0.992734, 469, 165, 500, 196
-0.992743, 413, 113, 444, 144
-0.992749, 185, 305, 216, 335
-0.992751, 117, 161, 148, 192
-0.992757, 373, 125, 404, 156
-0.992758, 329, 197, 360, 228
-0.992764, 213, 149, 244, 180
-0.992766, 425, 101, 456, 132
-0.99277, 165, 229, 196, 260
-0.992775, 357, 225, 388, 256
-0.992776, 37, 197, 68, 228
-0.992786, 429, 21, 460, 52
-0.992789, 409, 13, 440, 44
-0.992791, 33, 221, 64, 252
-0.992792, 109, 69, 140, 100
-0.992792, 81, 269, 112, 300
-0.992794, 125, 125, 156, 156
-0.992798, 81, 1, 112, 32
-0.992804, 125, 189, 156, 220
-0.992806, 449, 97, 480, 128
-0.992815, 1, 185, 500, 248
-0.992816, 25, 181, 56, 212
-0.992818, 57, 209, 88, 240
-0.99282, 253, 105, 284, 136
-0.992823, 245, 161, 276, 192
-0.992823, 361, 45, 392, 76
-0.992825, 345, 225, 376, 256
-0.992825, 201, 137, 232, 168
-0.992834, 265, 229, 296, 260
-0.992837, 1, 73, 500, 136
-0.992839, 417, 29, 448, 60
-0.99284, 193, 113, 224, 144
-0.992846, 341, 209, 372, 240
-0.992848, 49, 49, 80, 80
-0.992849, 121, 305, 152, 335
-0.99285, 317, 257, 348, 288
-0.992851, 213, 161, 244, 192
-0.992855, 49, 33, 80, 64
-0.992859, 417, 185, 448, 216
-0.992862, 253, 149, 284, 180
-0.992863, 189, 285, 220, 316
-0.992864, 445, 165, 476, 196
-0.99287, 101, 177, 132, 208
-0.992874, 301, 225, 332, 256
-0.992879, 329, 165, 360, 196
-0.992882, 449, 109, 480, 140
-0.992885, 429, 77, 460, 108
-0.992894, 393, 125, 424, 156
-0.992895, 433, 169, 464, 200
-0.992901, 329, 225, 360, 256
-0.992909, 201, 93, 232, 124
-0.992917, 333, 245, 364, 276
-0.992918, 129, 233, 160, 264
-0.992928, 461, 85, 492, 116
-0.992929, 133, 297, 164, 328
-0.992929, 13, 193, 44, 224
-0.992931, 449, 85, 480, 116
-0.992936, 289, 205, 320, 236
-0.992938, 397, 197, 428, 228
-0.992941, 277, 149, 308, 180
-0.992944, 69, 57, 100, 88
-0.992944, 93, 165, 124, 196
-0.992947, 329, 129, 360, 160
-0.99295, 245, 117, 276, 148
-0.99295, 21, 229, 52, 260
-0.992954, 269, 213, 300, 244
-0.992958, 33, 97, 288, 160
-0.992992, 1, 225, 256, 288
-0.992995, 169, 1, 200, 128
-0.992996, 305, 129, 432, 160
-0.993057, 369, 117, 496, 148
-0.993067, 1, 161, 500, 224
-0.993087, 97, 209, 128, 335
-0.993118, 225, 1, 352, 128
-0.993122, 1, 265, 128, 328
-0.993203, 57, 193, 88, 320
-0.993208, 27, 1, 42, 64
-0.993223, 161, 121, 288, 152
-0.993454, 257, 169, 500, 232
-0.993462, 33, 69, 160, 100
-0.993476, 1, 1, 128, 32
-0.993479, 257, 1, 384, 64
-0.993528, 33, 41, 288, 104
-0.993602, 1, 9, 256, 72
-0.993713, 33, 49, 160, 80
-0.993733, 459, 81, 474, 144
-0.993762, 241, 193, 368, 224
-0.993799, 257, 241, 500, 304
-0.993805, 293, 161, 308, 224
-0.993835, 369, 57, 496, 88
-0.993879, 5, 129, 36, 256
-0.993973, 221, 153, 236, 216
-0.994015, 345, 209, 360, 272
-0.99405, 1, 241, 500, 304
-0.994053, 283, 185, 298, 248
-0.994058, 97, 233, 352, 296
-0.994062, 217, 1, 248, 128
-0.994081, 257, 25, 500, 88
-0.994083, 257, 121, 500, 184
-0.994165, 273, 161, 400, 192
-0.994261, 225, 113, 240, 176
-0.994273, 473, 81, 488, 144
-0.994308, 1, 97, 500, 160
-0.994362, 49, 1, 64, 64
-0.994387, 483, 41, 498, 104
-0.994443, 273, 225, 400, 256
-0.994499, 261, 1, 292, 128
-0.9945, 217, 89, 232, 152
-0.994515, 241, 213, 368, 244
-0.99453, 81, 69, 208, 100
-0.99457, 49, 157, 176, 188
-0.99457, 257, 217, 500, 280
-0.994571, 215, 121, 230, 184
-0.994588, 289, 193, 416, 224
-0.994604, 97, 257, 352, 320
-0.994612, 205, 121, 220, 184
-0.994625, 177, 149, 304, 180
-0.994636, 301, 185, 316, 248
-0.994641, 275, 153, 290, 216
-0.994657, 455, 1, 470, 64
-0.99466, 37, 9, 52, 72
-0.99468, 129, 137, 256, 168
-0.99469, 1, 217, 500, 280
-0.994726, 469, 121, 484, 184
-0.994739, 305, 141, 432, 172
-0.994747, 237, 81, 252, 144
-0.994749, 229, 49, 260, 176
-0.994756, 293, 193, 308, 256
-0.994785, 197, 121, 212, 184
-0.994787, 43, 201, 58, 264
-0.994799, 289, 213, 416, 244
-0.994809, 157, 1, 188, 128
-0.994811, 447, 1, 462, 64
-0.994846, 369, 45, 496, 76
-0.994851, 193, 169, 320, 200
-0.994858, 441, 81, 456, 144
-0.994879, 49, 169, 176, 200
-0.994898, 73, 65, 88, 128
-0.99491, 385, 121, 400, 184
-0.99492, 201, 97, 216, 160
-0.994942, 209, 57, 336, 120
-0.994943, 153, 257, 168, 320
-0.994947, 227, 153, 242, 216
-0.994947, 81, 141, 208, 172
-0.994999, 193, 265, 448, 328
-0.995009, 63, 81, 78, 144
-0.995013, 37, 201, 52, 264
-0.995033, 1, 41, 500, 104
-0.995036, 129, 149, 256, 180
-0.995116, 1, 33, 128, 64
-0.995125, 209, 273, 336, 304
-0.995125, 161, 65, 416, 128
-0.995128, 481, 1, 496, 64
-0.99514, 307, 241, 322, 304
-0.995156, 449, 89, 464, 152
-0.995166, 461, 121, 476, 184
-0.995173, 473, 41, 488, 104
-0.995173, 299, 161, 314, 224
-0.995176, 263, 257, 278, 320
-0.995192, 265, 153, 280, 216
-0.995197, 51, 25, 66, 88
-0.995204, 237, 1, 252, 64
-0.99521, 353, 5, 480, 36
-0.995211, 307, 193, 322, 256
-0.995221, 97, 221, 224, 252
-0.995226, 367, 41, 382, 104
-0.995237, 321, 165, 448, 196
-0.995263, 345, 121, 360, 184
-0.99527, 17, 1, 32, 64
-0.995272, 467, 81, 482, 144
-0.995283, 353, 97, 480, 128
-0.995306, 339, 201, 354, 264
-0.995316, 287, 161, 302, 224
-0.995318, 113, 285, 240, 316
-0.995321, 147, 265, 162, 328
-0.995323, 17, 137, 144, 168
-0.995323, 437, 145, 452, 208
-0.995336, 189, 121, 204, 184
-0.995346, 475, 121, 490, 184
-0.995354, 161, 273, 288, 304
-0.995363, 385, 41, 400, 104
-0.995364, 213, 169, 228, 232
-0.995365, 273, 173, 400, 204
-0.995368, 215, 145, 230, 208
-0.99537, 27, 25, 42, 88
-0.99537, 351, 193, 366, 256
-0.995378, 17, 81, 144, 112
-0.995394, 321, 177, 448, 208
-0.995399, 335, 121, 350, 184
-0.995413, 257, 73, 272, 136
-0.995418, 57, 201, 72, 264
-0.995428, 369, 33, 496, 64
-0.99543, 277, 177, 292, 240
-0.995436, 465, 1, 480, 64
-0.995454, 315, 249, 330, 312
-0.995454, 17, 117, 144, 148
-0.995457, 55, 49, 70, 112
-0.995462, 343, 153, 358, 216
-0.995475, 353, 153, 480, 184
-0.995483, 151, 193, 166, 256
-0.995488, 43, 1, 58, 64
-0.995496, 53, 81, 68, 144
-0.99554, 319, 217, 334, 280
-0.995553, 225, 253, 352, 284
-0.995563, 17, 181, 144, 212
-0.995566, 225, 225, 352, 256
-0.995567, 217, 1, 232, 64
-0.995595, 333, 201, 348, 264
-0.995601, 185, 97, 200, 160
-0.995607, 123, 1, 138, 64
-0.995608, 209, 181, 336, 212
-0.995621, 145, 193, 160, 256
-0.995625, 1, 17, 16, 80
-0.995627, 239, 153, 254, 216
-0.995629, 113, 125, 240, 156
-0.995631, 49, 221, 176, 252
-0.99564, 145, 229, 272, 260
-0.995649, 259, 153, 274, 216
-0.995656, 337, 17, 464, 48
-0.99567, 351, 121, 366, 184
-0.995674, 145, 241, 160, 304
-0.995678, 485, 161, 500, 224
-0.995699, 207, 257, 222, 320
-0.99571, 231, 81, 246, 144
-0.995724, 199, 217, 214, 280
-0.995733, 81, 57, 96, 120
-0.995736, 441, 57, 456, 120
-0.995737, 481, 121, 496, 184
-0.99574, 379, 41, 394, 104
-0.995744, 317, 193, 332, 256
-0.995745, 441, 1, 456, 64
-0.995748, 223, 81, 238, 144
-0.995757, 1, 273, 500, 335
-0.995759, 241, 149, 368, 180
-0.995763, 1, 217, 128, 248
-0.995763, 317, 97, 348, 224
-0.995782, 373, 41, 388, 104
-0.99579, 129, 161, 256, 192
-0.995802, 207, 97, 222, 160
-0.995815, 233, 153, 248, 216
-0.995822, 1, 169, 128, 200
-0.995822, 415, 193, 430, 256
-0.995823, 357, 121, 372, 184
-0.995832, 177, 137, 304, 168
-0.995851, 65, 41, 80, 104
-0.995859, 275, 129, 290, 192
-0.995862, 69, 1, 100, 256
-0.995874, 215, 265, 230, 328
-0.99588, 191, 97, 206, 160
-0.995898, 47, 57, 62, 120
-0.995909, 101, 1, 116, 64
-0.995916, 337, 225, 464, 256
-0.995928, 33, 1, 64, 256
-0.995929, 401, 49, 432, 176
-0.995941, 337, 201, 464, 232
-0.99596, 369, 129, 496, 160
-0.995961, 309, 265, 324, 328
-0.995977, 157, 201, 172, 264
-0.995978, 65, 129, 192, 160
-0.995979, 369, 85, 496, 116
-0.995982, 81, 209, 208, 240
-0.995985, 193, 209, 320, 240
-0.995989, 481, 97, 496, 160
-0.996004, 427, 1, 442, 64
-0.996005, 97, 305, 224, 335
-0.996007, 425, 185, 440, 248
-0.996022, 327, 185, 342, 248
-0.996027, 375, 241, 390, 304
-0.996033, 305, 49, 432, 80
-0.996042, 1, 153, 128, 184
-0.996044, 59, 1, 74, 64
-0.996047, 353, 289, 480, 320
-0.99605, 449, 161, 464, 224
-0.996056, 177, 209, 192, 272
-0.996057, 373, 265, 388, 328
-0.996065, 337, 189, 464, 220
-0.996083, 59, 137, 74, 200
-0.996091, 257, 265, 384, 296
-0.996094, 473, 9, 488, 72
-0.996105, 209, 117, 336, 148
-0.996112, 369, 165, 496, 196
-0.996116, 359, 193, 374, 256
-0.996125, 161, 9, 288, 72
-0.996127, 57, 161, 72, 224
-0.99613, 1, 13, 128, 44
-0.996132, 247, 153, 262, 216
-0.996136, 161, 109, 288, 140
-0.996139, 367, 121, 382, 184
-0.996147, 155, 225, 170, 288
-0.99615, 179, 113, 194, 176
-0.996151, 177, 289, 304, 320
-0.996171, 127, 121, 142, 184
-0.996177, 53, 113, 68, 176
-0.996182, 283, 137, 298, 200
-0.996196, 137, 193, 152, 256
-0.996197, 149, 1, 164, 64
-0.996199, 253, 153, 268, 216
-0.996201, 5, 49, 36, 176
-0.996206, 49, 197, 176, 228
-0.996207, 271, 177, 286, 240
-0.996226, 419, 1, 434, 64
-0.99623, 177, 73, 304, 104
-0.996231, 305, 273, 432, 304
-0.996232, 9, 25, 24, 88
-0.996232, 443, 25, 458, 88
-0.996303, 305, 61, 432, 92
-0.996318, 49, 17, 176, 48
-0.996318, 81, 57, 208, 88
-0.996334, 177, 301, 304, 332
-0.996349, 1, 121, 500, 184
-0.996352, 289, 241, 416, 272
-0.996376, 93, 1, 124, 256
-0.996381, 445, 1, 476, 256
-0.996393, 241, 137, 368, 168
-0.996416, 369, 177, 496, 208
-0.996433, 465, 1, 496, 256
-0.996434, 161, 93, 288, 124
-0.996436, 57, 33, 88, 288
-0.996441, 177, 261, 304, 292
-0.996466, 145, 217, 272, 248
-0.996469, 305, 285, 432, 316
-0.996495, 337, 213, 464, 244
-0.99653, 257, 1, 288, 256
-0.996535, 369, 69, 496, 100
-0.996562, 337, 301, 464, 332
-0.996579, 193, 237, 320, 268
-0.996586, 241, 1, 272, 256
-0.996602, 161, 1, 416, 64
-0.996645, 161, 197, 288, 228
-0.996686, 97, 113, 224, 144
-0.996714, 293, 185, 308, 216
-0.996758, 17, 97, 144, 128
-0.996764, 209, 105, 336, 136
-0.996776, 1, 229, 128, 260
-0.996801, 225, 73, 352, 104
-0.996833, 471, 121, 486, 152
-0.996847, 81, 45, 208, 76
-0.996865, 293, 161, 308, 192
-0.996871, 113, 273, 240, 304
-0.996877, 287, 189, 302, 220
-0.996906, 1, 197, 128, 228
-0.996918, 129, 261, 256, 292
-0.99692, 257, 277, 384, 308
-0.996942, 289, 253, 416, 284
-0.996946, 113, 241, 240, 272
-0.996952, 1, 273, 256, 335
-0.99698, 321, 77, 448, 108
-0.996985, 305, 1, 432, 32
-0.996989, 133, 17, 164, 144
-0.99701, 129, 25, 384, 88
-0.997011, 337, 253, 464, 284
-0.997013, 69, 209, 100, 335
-0.997029, 293, 173, 308, 204
-0.997066, 357, 33, 388, 288
-0.997082, 257, 57, 384, 88
-0.997091, 329, 65, 360, 320
-0.997091, 65, 233, 192, 264
-0.997093, 213, 65, 244, 320
-0.997099, 369, 141, 496, 172
-0.997103, 145, 281, 160, 312
-0.997143, 37, 201, 52, 232
-0.997145, 81, 1, 112, 256
-0.997147, 321, 33, 352, 160
-0.997155, 225, 113, 240, 144
-0.99717, 473, 1, 488, 32
-0.997177, 287, 161, 302, 192
-0.997181, 235, 105, 250, 136
-0.997189, 65, 17, 80, 48
-0.99719, 479, 121, 494, 152
-0.9972, 287, 173, 302, 204
-0.997202, 369, 269, 496, 300
-0.99722, 257, 305, 384, 335
-0.997227, 65, 181, 192, 212
-0.997248, 75, 9, 90, 40
-0.997254, 65, 281, 192, 312
-0.997258, 201, 1, 232, 256
-0.997274, 49, 37, 64, 68
-0.997281, 77, 61, 92, 92
-0.997286, 269, 1, 300, 256
-0.997287, 153, 269, 168, 300
-0.997303, 47, 5, 62, 36
-0.997314, 217, 117, 232, 148
-0.99732, 457, 5, 472, 36
-0.997342, 313, 205, 328, 236
-0.997342, 209, 33, 336, 96
-0.997343, 137, 297, 152, 328
-0.997348, 5, 1, 36, 256
-0.99735, 257, 85, 384, 116
-0.997353, 353, 237, 480, 268
-0.997357, 1, 249, 256, 312
-0.99736, 217, 105, 232, 136
-0.997367, 209, 9, 336, 72
-0.997373, 93, 265, 108, 296
-0.997375, 321, 117, 448, 148
-0.997382, 241, 289, 368, 320
-0.997389, 225, 1, 256, 256
-0.997389, 241, 105, 256, 136
-0.99739, 471, 49, 486, 80
-0.997396, 339, 197, 354, 228
-0.99741, 63, 81, 78, 112
-0.997412, 241, 237, 368, 268
-0.997414, 429, 1, 460, 256
-0.997417, 461, 117, 476, 148
-0.997425, 315, 265, 330, 296
-0.997426, 81, 1, 96, 32
-0.997437, 299, 193, 314, 224
-0.997437, 393, 1, 424, 256
-0.997441, 323, 217, 338, 248
-0.997445, 49, 1, 176, 32
-0.997449, 43, 213, 58, 244
-0.997458, 217, 149, 232, 180
-0.997462, 165, 33, 196, 288
-0.997476, 369, 1, 400, 256
-0.997476, 479, 1, 494, 32
-0.997477, 281, 1, 312, 256
-0.997481, 19, 1, 34, 32
-0.997487, 25, 37, 40, 68
-0.997492, 45, 65, 76, 320
-0.997495, 195, 305, 210, 335
-0.997497, 203, 305, 218, 335
-0.997499, 27, 17, 42, 48
-0.9975, 281, 201, 296, 232
-0.997505, 277, 169, 292, 200
-0.997505, 227, 149, 242, 180
-0.997514, 239, 117, 254, 148
-0.997516, 259, 105, 274, 136
-0.997516, 97, 81, 224, 112
-0.997525, 345, 129, 360, 160
-0.997529, 37, 29, 52, 60
-0.997531, 37, 1, 52, 32
-0.997532, 217, 21, 232, 52
-0.997536, 57, 113, 72, 144
-0.997537, 53, 61, 68, 92
-0.997538, 275, 153, 290, 184
-0.99754, 209, 125, 224, 156
-0.997541, 201, 121, 216, 152
-0.997557, 205, 257, 220, 288
-0.997561, 265, 161, 280, 192
-0.997578, 309, 277, 324, 308
-0.997579, 233, 117, 248, 148
-0.99758, 27, 5, 42, 36
-0.997585, 145, 61, 272, 92
-0.997587, 59, 21, 74, 52
-0.997587, 1, 17, 500, 80
-0.997591, 211, 293, 226, 324
-0.997592, 485, 121, 500, 152
-0.997594, 305, 101, 432, 132
-0.997594, 269, 149, 284, 180
-0.997596, 247, 113, 262, 144
-0.997606, 317, 217, 332, 248
-0.997609, 469, 109, 484, 140
-0.997611, 307, 193, 322, 224
-0.997621, 143, 293, 158, 324
-0.997625, 237, 9, 252, 40
-0.997633, 65, 245, 192, 276
-0.997637, 31, 205, 46, 236
-0.997649, 311, 253, 326, 284
-0.997651, 129, 305, 144, 335
-0.997651, 129, 185, 256, 216
-0.997662, 221, 161, 236, 192
-0.997663, 149, 197, 164, 228
-0.997669, 447, 13, 462, 44
-0.997676, 21, 1, 52, 256
-0.997678, 419, 189, 434, 220
-0.997678, 467, 9, 482, 40
-0.997679, 49, 25, 64, 56
-0.997681, 345, 209, 360, 240
-0.997682, 321, 197, 336, 228
-0.997686, 217, 9, 232, 40
-0.997686, 53, 77, 68, 108
-0.997693, 35, 189, 50, 220
-0.997694, 217, 89, 232, 120
-0.997698, 429, 105, 444, 136
-0.997701, 67, 65, 82, 96
-0.997704, 151, 281, 166, 312
-0.997705, 127, 125, 142, 156
-0.997706, 349, 229, 364, 260
-0.997709, 465, 129, 480, 160
-0.997709, 59, 205, 74, 236
-0.997717, 185, 1, 216, 256
-0.997728, 97, 53, 112, 84
-0.99773, 289, 13, 416, 44
-0.997731, 99, 69, 114, 100
-0.997732, 265, 269, 280, 300
-0.997734, 185, 125, 200, 156
-0.997739, 93, 69, 108, 100
-0.997739, 53, 1, 68, 32
-0.997741, 37, 221, 52, 252
-0.997745, 57, 125, 72, 156
-0.997752, 425, 185, 440, 216
-0.997759, 287, 201, 302, 232
-0.997764, 211, 109, 226, 140
-0.997765, 17, 29, 32, 60
-0.997766, 141, 193, 156, 224
-0.997769, 441, 21, 456, 52
-0.99777, 451, 89, 466, 120
-0.997773, 53, 93, 68, 124
-0.997782, 191, 125, 206, 156
-0.997785, 333, 209, 348, 240
-0.997788, 321, 261, 336, 292
-0.997792, 261, 73, 276, 104
-0.997794, 113, 197, 240, 228
-0.9978, 313, 193, 328, 224
-0.997802, 155, 249, 170, 280
-0.997813, 69, 77, 84, 108
-0.997816, 111, 181, 126, 212
-0.997818, 279, 189, 294, 220
-0.997819, 481, 49, 496, 80
-0.99782, 1, 257, 128, 288
-0.99783, 357, 225, 372, 256
-0.997838, 113, 33, 144, 288
-0.99784, 167, 221, 182, 252
-0.997841, 477, 109, 492, 140
-0.997842, 215, 273, 230, 304
-0.997843, 37, 17, 52, 48
-0.997845, 237, 161, 252, 192
-0.997847, 65, 97, 192, 128
-0.997848, 5, 25, 20, 56
-0.997852, 305, 37, 432, 68
-0.997854, 27, 49, 42, 80
-0.997862, 227, 161, 242, 192
-0.997867, 147, 257, 162, 288
-0.997869, 347, 197, 362, 228
-0.997879, 145, 33, 176, 288
-0.997895, 129, 9, 256, 40
-0.997916, 81, 261, 208, 292
-0.99792, 33, 269, 160, 300
-0.997951, 381, 65, 412, 320
-0.997972, 161, 249, 288, 280
-0.998053, 341, 65, 372, 320
-0.998208, 309, 1, 340, 256
-0.99829, 409, 65, 440, 320
-0.9984, 273, 195, 336, 210
-0.998413, 209, 121, 272, 136
-0.998425, 1, 29, 64, 44
-0.998427, 133, 33, 164, 288
-0.998438, 177, 131, 240, 146
-0.998449, 273, 205, 336, 220
-0.998451, 245, 233, 276, 248
-0.998452, 261, 153, 292, 168
-0.998452, 165, 215, 196, 230
-0.998452, 357, 221, 388, 236
-0.998453, 65, 163, 96, 178
-0.998453, 453, 91, 484, 106
-0.998453, 85, 17, 116, 32
-0.998453, 301, 257, 332, 272
-0.998454, 433, 161, 464, 176
-0.998454, 101, 43, 132, 58
-0.998455, 261, 227, 292, 242
-0.998455, 309, 273, 340, 288
-0.998457, 285, 179, 316, 194
-0.998457, 169, 129, 200, 144
-0.998457, 469, 165, 500, 180
-0.998458, 97, 181, 128, 196
-0.998458, 361, 249, 392, 264
-0.998459, 45, 21, 76, 36
-0.99846, 113, 321, 144, 335
-0.998461, 433, 21, 464, 36
-0.998461, 65, 17, 96, 32
-0.998462, 25, 1, 56, 16
-0.998462, 161, 73, 192, 88
-0.998463, 317, 267, 348, 282
-0.998463, 461, 111, 492, 126
-0.998464, 129, 305, 160, 320
-0.998464, 25, 197, 56, 212
-0.998465, 321, 197, 352, 212
-0.998465, 337, 247, 368, 262
-0.998465, 93, 49, 124, 64
-0.998465, 133, 195, 164, 210
-0.998467, 41, 9, 72, 24
-0.998468, 417, 9, 480, 24
-0.998468, 461, 99, 492, 114
-0.998469, 149, 279, 180, 294
-0.998469, 429, 9, 460, 24
-0.99847, 233, 167, 296, 182
-0.99847, 181, 225, 212, 240
-0.998471, 301, 203, 332, 218
-0.998471, 329, 211, 360, 226
-0.998471, 17, 21, 80, 36
-0.998473, 37, 1, 68, 16
-0.998473, 237, 167, 268, 182
-0.998473, 413, 117, 444, 132
-0.998474, 265, 161, 296, 176
-0.998475, 45, 37, 76, 52
-0.998475, 137, 295, 168, 310
-0.998477, 57, 91, 88, 106
-0.998477, 341, 131, 372, 146
-0.998477, 17, 3, 80, 18
-0.998478, 177, 125, 240, 140
-0.998478, 353, 49, 416, 64
-0.998479, 57, 211, 88, 226
-0.998479, 161, 137, 224, 152
-0.99848, 293, 233, 324, 248
-0.99848, 25, 233, 56, 248
-0.99848, 425, 105, 488, 120
-0.998481, 25, 203, 56, 218
-0.998481, 17, 47, 80, 62
-0.998483, 269, 241, 300, 256
-0.998483, 265, 235, 328, 250
-0.998483, 89, 269, 120, 284
-0.998484, 17, 239, 48, 254
-0.998485, 41, 73, 104, 88
-0.998486, 265, 173, 296, 188
-0.998488, 73, 79, 104, 94
-0.998489, 137, 137, 200, 152
-0.99849, 121, 315, 152, 330
-0.998491, 1, 33, 32, 48
-0.998491, 145, 287, 208, 302
-0.998493, 241, 173, 304, 188
-0.998494, 165, 137, 196, 152
-0.998495, 257, 237, 288, 252
-0.998495, 297, 225, 360, 240
-0.998496, 197, 283, 228, 298
-0.998497, 25, 35, 56, 50
-0.998497, 457, 5, 488, 20
-0.998497, 465, 19, 496, 34
-0.998498, 305, 203, 368, 218
-0.998498, 113, 185, 144, 200
-0.9985, 437, 99, 468, 114
-0.9985, 353, 127, 416, 142
-0.998501, 337, 225, 400, 240
-0.998501, 321, 221, 352, 236
-0.998502, 425, 65, 488, 80
-0.998502, 317, 245, 348, 260
-0.998503, 177, 119, 240, 134
-0.998504, 25, 33, 88, 48
-0.998506, 45, 211, 76, 226
-0.998506, 297, 197, 360, 212
-0.998507, 457, 123, 488, 138
-0.998507, 9, 49, 40, 64
-0.998508, 37, 203, 68, 218
-0.998509, 341, 225, 372, 240
-0.99851, 41, 23, 104, 38
-0.998511, 177, 285, 208, 300
-0.998512, 1, 15, 64, 30
-0.998513, 1, 41, 64, 56
-0.998514, 25, 15, 88, 30
-0.998514, 253, 271, 284, 286
-0.998515, 165, 231, 196, 246
-0.998516, 469, 129, 500, 144
-0.998516, 45, 55, 76, 70
-0.998517, 185, 135, 216, 150
-0.998518, 461, 105, 492, 120
-0.998518, 121, 215, 184, 230
-0.998518, 313, 203, 344, 218
-0.998519, 73, 73, 104, 88
-0.998519, 53, 69, 84, 84
-0.998521, 97, 71, 160, 86
-0.998522, 277, 233, 308, 248
-0.998523, 313, 215, 376, 230
-0.998523, 25, 209, 88, 224
-0.998524, 293, 209, 324, 224
-0.998525, 41, 79, 104, 94
-0.998525, 209, 115, 272, 130
-0.998527, 137, 73, 200, 88
-0.998527, 33, 225, 96, 240
-0.998527, 417, 25, 480, 40
-0.998528, 25, 203, 88, 218
-0.998528, 1, 13, 32, 28
-0.998529, 73, 67, 136, 82
-0.998529, 249, 229, 312, 244
-0.998529, 273, 155, 304, 170
-0.998529, 13, 41, 44, 56
-0.998531, 1, 199, 64, 214
-0.998531, 193, 165, 256, 180
-0.998531, 217, 121, 248, 136
-0.998531, 45, 27, 76, 42
-0.998531, 201, 127, 264, 142
-0.998531, 273, 195, 304, 210
-0.998532, 41, 67, 104, 82
-0.998532, 409, 191, 472, 206
-0.998533, 57, 17, 120, 32
-0.998533, 225, 165, 256, 180
-0.998533, 213, 129, 244, 144
-0.998533, 177, 305, 240, 320
-0.998534, 73, 67, 104, 82
-0.998534, 41, 1, 104, 16
-0.998535, 153, 129, 216, 144
-0.998535, 65, 73, 128, 88
-0.998535, 205, 141, 236, 156
-0.998535, 401, 119, 464, 134
-0.998535, 463, 81, 478, 208
-0.998536, 181, 311, 212, 326
-0.998537, 137, 231, 200, 246
-0.998537, 393, 13, 456, 28
-0.998537, 257, 163, 320, 178
-0.998538, 385, 191, 448, 206
-0.998538, 25, 197, 88, 212
-0.998539, 285, 203, 316, 218
-0.998539, 25, 7, 56, 22
-0.998539, 409, 113, 472, 128
-0.998539, 445, 13, 476, 28
-0.998539, 305, 231, 368, 246
-0.99854, 461, 53, 492, 68
-0.998541, 369, 197, 432, 212
-0.998541, 49, 203, 112, 218
-0.998541, 29, 47, 60, 62
-0.998542, 17, 9, 80, 24
-0.998542, 297, 239, 328, 254
-0.998543, 105, 49, 136, 64
-0.998544, 273, 201, 304, 216
-0.998545, 201, 131, 232, 146
-0.998545, 169, 285, 232, 300
-0.998545, 281, 243, 344, 258
-0.998546, 329, 131, 392, 146
-0.998546, 137, 221, 200, 236
-0.998546, 121, 303, 184, 318
-0.998547, 161, 145, 224, 160
-0.998548, 433, 19, 496, 34
-0.998549, 97, 193, 160, 208
-0.998549, 401, 197, 464, 212
-0.99855, 185, 305, 216, 320
-0.998551, 57, 23, 88, 38
-0.998551, 21, 23, 52, 38
-0.998552, 357, 227, 388, 242
-0.998553, 201, 141, 264, 156
-0.998554, 469, 123, 500, 138
-0.998556, 433, 3, 496, 18
-0.998557, 13, 31, 44, 46
-0.998558, 201, 301, 264, 316
-0.998558, 425, 83, 488, 98
-0.998558, 145, 285, 176, 300
-0.998558, 41, 15, 72, 30
-0.998559, 433, 165, 496, 180
-0.998559, 305, 245, 368, 260
-0.998559, 89, 165, 152, 180
-0.99856, 137, 143, 200, 158
-0.998561, 417, 33, 480, 48
-0.998561, 1, 35, 64, 50
-0.998561, 13, 7, 44, 22
-0.998562, 217, 233, 280, 248
-0.998564, 181, 129, 212, 144
-0.998564, 41, 51, 104, 66
-0.998565, 49, 173, 112, 188
-0.998565, 25, 29, 56, 44
-0.998566, 17, 235, 80, 250
-0.998566, 425, 99, 488, 114
-0.998566, 273, 181, 336, 196
-0.998568, 261, 167, 292, 182
-0.998569, 53, 85, 84, 100
-0.998569, 301, 197, 332, 212
-0.998569, 13, 1, 44, 16
-0.99857, 25, 41, 56, 56
-0.998571, 25, 13, 56, 28
-0.998571, 281, 251, 344, 266
-0.998571, 425, 89, 488, 104
-0.998572, 65, 179, 128, 194
-0.998572, 281, 211, 344, 226
-0.998572, 249, 201, 312, 216
-0.998573, 313, 209, 376, 224
-0.998573, 81, 51, 144, 66
-0.998574, 313, 267, 376, 282
-0.998574, 225, 151, 288, 166
-0.998576, 41, 57, 104, 72
-0.998576, 121, 209, 184, 224
-0.998577, 49, 267, 112, 282
-0.998577, 5, 23, 36, 38
-0.998578, 469, 11, 500, 26
-0.998578, 385, 93, 448, 108
-0.998578, 57, 229, 120, 244
-0.998579, 249, 191, 312, 206
-0.998579, 89, 229, 152, 244
-0.99858, 345, 197, 408, 212
-0.998581, 169, 163, 232, 178
-0.998581, 425, 55, 488, 70
-0.998581, 89, 187, 152, 202
-0.998582, 233, 161, 296, 176
-0.998582, 57, 209, 120, 224
-0.998582, 41, 135, 104, 150
-0.998583, 65, 79, 128, 94
-0.998584, 137, 79, 200, 94
-0.998585, 217, 173, 280, 188
-0.998585, 385, 49, 448, 64
-0.998586, 129, 281, 192, 296
-0.998586, 161, 231, 224, 246
-0.998586, 225, 127, 288, 142
-0.998587, 9, 59, 72, 74
-0.998588, 89, 223, 152, 238
-0.998588, 129, 295, 192, 310
-0.998589, 73, 173, 136, 188
-0.998589, 65, 165, 128, 180
-0.998589, 377, 7, 440, 22
-0.99859, 9, 241, 72, 256
-0.99859, 249, 267, 312, 282
-0.998591, 345, 55, 408, 70
-0.998591, 25, 85, 88, 100
-0.998592, 469, 81, 484, 208
-0.998592, 257, 245, 320, 260
-0.998593, 237, 119, 268, 134
-0.998595, 53, 75, 84, 90
-0.998611, 197, 125, 228, 140
-0.998617, 281, 163, 312, 178
-0.998622, 13, 17, 44, 32
-0.998634, 33, 23, 64, 38
-0.99864, 477, 81, 492, 208
-0.998645, 483, 113, 498, 240
-0.998674, 315, 177, 330, 304
-0.998685, 285, 195, 316, 210
-0.9987, 443, 1, 458, 128
-0.998706, 217, 81, 232, 208
-0.998715, 447, 161, 462, 288
-0.998715, 345, 129, 360, 256
-0.998751, 227, 97, 242, 224
-0.998755, 61, 1, 76, 128
-0.99876, 259, 81, 274, 208
-0.99878, 59, 65, 74, 192
-0.998781, 479, 1, 494, 128
-0.998789, 473, 1, 488, 128
-0.998791, 309, 177, 324, 304
-0.998796, 271, 161, 286, 288
-0.998802, 79, 1, 94, 128
-0.998812, 71, 65, 86, 192
-0.998822, 299, 177, 314, 304
-0.998823, 241, 81, 256, 208
-0.998837, 425, 177, 440, 304
-0.998841, 351, 113, 366, 240
-0.998843, 241, 161, 256, 288
-0.998848, 145, 193, 160, 320
-0.998853, 33, 161, 48, 288
-0.998856, 53, 1, 68, 128
-0.998858, 417, 177, 432, 304
-0.998859, 47, 49, 62, 176
-0.998873, 255, 161, 270, 288
-0.998881, 285, 177, 300, 304
-0.998886, 441, 65, 456, 192
-0.998887, 253, 97, 268, 224
-0.998894, 233, 97, 248, 224
-0.998895, 293, 1, 324, 256
-0.998896, 265, 161, 280, 288
-0.998901, 337, 97, 352, 224
-0.998905, 293, 177, 308, 304
-0.998905, 449, 81, 464, 208
-0.998907, 449, 1, 464, 128
-0.99891, 27, 1, 42, 128
-0.998912, 53, 81, 68, 208
-0.998915, 277, 177, 292, 304
-0.998915, 231, 161, 246, 288
-0.998918, 483, 49, 498, 176
-0.998919, 69, 17, 84, 144
-0.99892, 39, 193, 54, 320
-0.998923, 473, 129, 488, 256
-0.99893, 43, 1, 58, 128
-0.998932, 393, 177, 408, 304
-0.998937, 217, 129, 232, 256
-0.998937, 249, 145, 264, 272
-0.998945, 89, 161, 104, 288
-0.998953, 217, 1, 232, 128
-0.99897, 457, 81, 472, 208
-0.998972, 17, 1, 32, 128
-0.998987, 1, 1, 16, 128
-0.998988, 369, 1, 384, 128
-0.99901, 201, 97, 216, 224
-0.999013, 385, 49, 400, 176
-0.999016, 81, 49, 96, 176
-0.99902, 467, 145, 482, 272
-0.999024, 459, 129, 474, 256
-0.999024, 485, 1, 500, 128
-0.999029, 223, 145, 238, 272
-0.999033, 153, 193, 168, 320
-0.999042, 185, 97, 200, 224
-0.999043, 385, 97, 400, 224
-0.999051, 47, 161, 62, 288
-0.999057, 247, 81, 262, 208
-0.999062, 455, 1, 470, 128
-0.999063, 467, 33, 482, 160
-0.999066, 437, 113, 452, 240
-0.99907, 385, 1, 400, 128
-0.999078, 341, 177, 356, 304
-0.999079, 239, 1, 254, 128
-0.999082, 97, 209, 112, 335
-0.999088, 453, 145, 468, 272
-0.99909, 127, 113, 142, 240
-0.99909, 461, 17, 476, 144
-0.999092, 357, 113, 372, 240
-0.999095, 441, 161, 456, 288
-0.999099, 379, 193, 394, 320
-0.99911, 277, 129, 292, 256
-0.999113, 321, 193, 336, 320
-0.999117, 35, 1, 50, 128
-0.999118, 387, 161, 402, 288
-0.999124, 431, 161, 446, 288
-0.999125, 207, 97, 222, 224
-0.999128, 65, 65, 80, 192
-0.999128, 27, 49, 42, 176
-0.999135, 81, 97, 96, 224
-0.999136, 473, 193, 488, 320
-0.999142, 101, 161, 116, 288
-0.999149, 119, 129, 134, 256
-0.999152, 27, 161, 42, 288
-0.999155, 375, 113, 390, 240
-0.999157, 195, 129, 210, 256
-0.999158, 467, 193, 482, 320
-0.999161, 331, 161, 346, 288
-0.999164, 485, 161, 500, 288
-0.999174, 337, 49, 352, 176
-0.999186, 379, 33, 394, 160
-0.999195, 423, 129, 438, 256
-0.999201, 283, 129, 298, 256
-0.999202, 345, 65, 360, 192
-0.999206, 135, 145, 150, 272
-0.999207, 141, 145, 156, 272
-0.999207, 411, 193, 426, 320
-0.99921, 361, 65, 376, 192
-0.999214, 7, 1, 22, 128
-0.999216, 161, 129, 176, 256
-0.99922, 159, 177, 174, 304
-0.999221, 367, 49, 382, 176
-0.999222, 87, 113, 102, 240
-0.999232, 135, 65, 150, 192
-0.999233, 179, 81, 194, 208
-0.999234, 127, 65, 142, 192
-0.99924, 365, 113, 380, 240
-0.999243, 267, 1, 282, 128
-0.999244, 207, 145, 222, 272
-0.999245, 437, 17, 452, 144
-0.999248, 113, 177, 128, 304
-0.999249, 457, 193, 472, 320
-0.99925, 347, 177, 362, 304
-0.999256, 261, 209, 276, 335
-0.999257, 175, 145, 190, 272
-0.999266, 479, 161, 494, 288
-0.999267, 395, 113, 410, 240
-0.999271, 61, 161, 76, 288
-0.999273, 203, 209, 218, 335
-0.999659, 37, 29, 52, 44
-0.99966, 83, 65, 98, 80
-0.99966, 203, 299, 218, 314
-0.99966, 197, 133, 212, 148
-0.999661, 237, 79, 252, 94
-0.999661, 299, 297, 314, 312
-0.999661, 113, 181, 128, 196
-0.999661, 257, 119, 272, 134
-0.999662, 477, 5, 492, 20
-0.999662, 51, 217, 66, 232
-0.999664, 217, 29, 232, 44
-0.999665, 141, 235, 156, 250
-0.999665, 133, 301, 148, 316
-0.999665, 309, 253, 324, 268
-0.999665, 175, 285, 190, 300
-0.999666, 475, 123, 490, 138
-0.999666, 179, 129, 194, 144
-0.999666, 461, 123, 476, 138
-0.999667, 241, 119, 256, 134
-0.999667, 37, 19, 52, 34
-0.999667, 237, 7, 252, 22
-0.999667, 205, 313, 220, 328
-0.999668, 9, 23, 24, 38
-0.999671, 337, 209, 352, 224
-0.999671, 35, 9, 50, 24
-0.999673, 37, 35, 52, 50
-0.999673, 37, 211, 52, 226
-0.999673, 37, 217, 52, 232
-0.999674, 205, 133, 220, 148
-0.999674, 77, 71, 92, 86
-0.999674, 461, 7, 476, 22
-0.999675, 9, 29, 24, 44
-0.999675, 27, 21, 42, 36
-0.999676, 191, 133, 206, 148
-0.999676, 17, 17, 32, 32
-0.999678, 345, 131, 360, 146
-0.999678, 69, 15, 84, 30
-0.999678, 53, 79, 68, 94
-0.999678, 441, 83, 456, 98
-0.999679, 325, 261, 340, 276
-0.999679, 321, 267, 336, 282
-0.99968, 51, 51, 66, 66
-0.99968, 49, 33, 64, 48
-0.999681, 77, 5, 92, 20
-0.999681, 67, 83, 82, 98
-0.999682, 199, 321, 214, 335
-0.999682, 219, 129, 234, 144
-0.999683, 263, 273, 278, 288
-0.999683, 301, 195, 316, 210
-0.999684, 315, 275, 330, 290
-0.999684, 35, 3, 50, 18
-0.999685, 293, 177, 308, 192
-0.999686, 93, 273, 108, 288
-0.999687, 25, 235, 40, 250
-0.999687, 419, 7, 434, 22
-0.999688, 471, 7, 486, 22
-0.999688, 317, 219, 332, 234
-0.999689, 357, 227, 372, 242
-0.999689, 45, 1, 60, 16
-0.999691, 471, 105, 486, 120
-0.999691, 327, 217, 342, 232
-0.999691, 287, 183, 302, 198
-0.999692, 217, 89, 232, 104
-0.999692, 217, 23, 232, 38
-0.999692, 31, 231, 46, 246
-0.999692, 61, 85, 76, 100
-0.999694, 305, 203, 320, 218
-0.999694, 83, 1, 98, 16
-0.999696, 269, 163, 284, 178
-0.999696, 31, 203, 46, 218
-0.999698, 59, 211, 74, 226
-0.999698, 215, 141, 230, 156
-0.999699, 225, 119, 240, 134
-0.999699, 261, 71, 276, 86
-0.9997, 121, 319, 136, 334
-0.9997, 99, 47, 114, 62
-0.999701, 315, 269, 330, 284
-0.999701, 441, 89, 456, 104
-0.999701, 221, 147, 236, 162
-0.999702, 53, 89, 68, 104
-0.999702, 357, 317, 372, 332
-0.999702, 215, 123, 230, 138
-0.999703, 17, 1, 32, 16
-0.999703, 203, 127, 218, 142
-0.999703, 283, 195, 298, 210
-0.999704, 317, 203, 332, 218
-0.999705, 27, 13, 42, 28
-0.999706, 27, 41, 42, 56
-0.999706, 467, 131, 482, 146
-0.999707, 287, 177, 302, 192
-0.999708, 67, 77, 82, 92
-0.999709, 291, 307, 306, 322
-0.99971, 281, 321, 296, 335
-0.999711, 153, 273, 168, 288
-0.999711, 469, 121, 484, 136
-0.999712, 261, 265, 276, 280
-0.999712, 67, 21, 82, 36
-0.999713, 285, 201, 300, 216
-0.999713, 19, 7, 34, 22
-0.999714, 25, 1, 40, 16
-0.999715, 193, 311, 208, 326
-0.999715, 45, 221, 60, 236
-0.999716, 213, 131, 228, 146
-0.999716, 315, 257, 330, 272
-0.999721, 43, 213, 58, 228
-0.999725, 151, 279, 166, 294
-0.999726, 483, 7, 498, 22
-0.999726, 311, 281, 326, 296
-0.999731, 195, 127, 210, 142
-0.999737, 311, 203, 326, 218
-0.999741, 469, 15, 484, 30
-0.999744, 285, 315, 300, 330
-0.999745, 27, 7, 42, 22
-0.999746, 147, 285, 162, 300
-0.999746, 115, 321, 130, 335
-0.99975, 75, 11, 90, 26
-0.999751, 209, 125, 224, 140
-0.999756, 37, 205, 52, 220
-0.99976, 37, 197, 52, 212
-0.999765, 307, 197, 322, 212
-0.999768, 185, 129, 200, 144
-0.99977, 199, 307, 214, 322
-0.999773, 139, 299, 154, 314
-0.999774, 131, 307, 146, 322
-0.999778, 93, 267, 108, 282
-0.999783, 143, 293, 158, 308
-0.999787, 125, 313, 140, 328
-0.99979, 293, 163, 308, 178
-0.999811, 293, 193, 308, 208
-0.999818, 313, 197, 328, 212
-1.00072, 265, 81, 328, 208
-1.00164, 233, 1, 296, 128
-1.00172, 281, 1, 344, 128
-1.00343, 257, 1, 320, 128
