1966
-0.110992, 1, 1, 500, 375
-0.341243, 1, 1, 500, 256
-0.420336, 129, 1, 384, 375
-0.428448, 257, 1, 500, 375
-0.43918, 1, 1, 256, 375
-0.463575, 1, 129, 500, 375
-0.547824, 1, 1, 256, 256
-0.564685, 97, 1, 352, 256
-0.618602, 225, 1, 480, 256
-0.658971, 1, 97, 256, 352
-0.74075, 257, 129, 500, 375
-0.75079, 161, 129, 416, 375
-0.834707, 65, 1, 192, 256
-0.84558, 353, 1, 480, 375
-0.847337, 33, 1, 160, 375
-0.850327, 1, 1, 128, 256
-0.852254, 161, 1, 288, 375
-0.853417, 81, 1, 208, 375
-0.859194, 113, 1, 240, 256
-0.86233, 305, 1, 432, 256
-0.86663, 1, 17, 500, 144
-0.867093, 305, 1, 432, 375
-0.870076, 241, 1, 368, 375
-0.873367, 225, 1, 352, 256
-0.876988, 161, 1, 288, 256
-0.87843, 353, 33, 480, 288
-0.889022, 369, 129, 496, 375
-0.892282, 1, 97, 128, 352
-0.897129, 97, 129, 224, 375
-0.90233, 1, 17, 256, 144
-0.903804, 161, 97, 288, 352
-0.906903, 1, 81, 500, 208
-0.910733, 49, 97, 176, 352
-0.911624, 289, 97, 416, 352
-0.913185, 129, 17, 384, 144
-0.913395, 1, 129, 500, 256
-0.91542, 1, 193, 500, 320
-0.916414, 1, 1, 128, 128
-0.918355, 193, 177, 448, 304
-0.921904, 1, 65, 256, 192
-0.922773, 65, 33, 192, 160
-0.924917, 1, 241, 500, 368
-0.924936, 113, 17, 240, 144
-0.926497, 121, 1, 184, 128
-0.927157, 57, 1, 120, 128
-0.927584, 1, 81, 128, 208
-0.928016, 177, 1, 304, 128
-0.929116, 97, 1, 160, 128
-0.931616, 241, 97, 368, 352
-0.932759, 225, 17, 480, 144
-0.932885, 129, 81, 384, 208
-0.93444, 153, 17, 216, 144
-0.934554, 81, 49, 144, 176
-0.93486, 49, 65, 112, 192
-0.936139, 1, 113, 256, 240
-0.936726, 25, 17, 88, 144
-0.93807, 257, 129, 500, 256
-0.939233, 25, 81, 88, 208
-0.939467, 185, 1, 248, 128
-0.941142, 241, 17, 368, 144
-0.941391, 1, 17, 64, 144
-0.941893, 1, 65, 64, 192
-0.941919, 225, 225, 480, 352
-0.942011, 33, 97, 96, 160
-0.944638, 129, 81, 256, 208
-0.94702, 209, 1, 272, 64
-0.947567, 57, 81, 120, 144
-0.947582, 177, 81, 240, 208
-0.947746, 65, 81, 192, 208
-0.948228, 89, 65, 152, 128
-0.948319, 417, 145, 480, 272
-0.948419, 305, 129, 432, 256
-0.949428, 353, 225, 416, 352
-0.949558, 281, 17, 344, 144
-0.94971, 105, 65, 168, 192
-0.949759, 129, 225, 384, 352
-0.949868, 321, 17, 384, 144
-0.950744, 289, 17, 416, 144
-0.951091, 377, 209, 440, 336
-0.951521, 33, 225, 288, 352
-0.951809, 233, 17, 296, 144
-0.951838, 113, 41, 176, 104
-0.951938, 185, 1, 248, 64
-0.952053, 337, 33, 464, 160
-0.952064, 9, 81, 72, 144
-0.952972, 273, 177, 400, 304
-0.952973, 209, 1, 272, 128
-0.953951, 145, 17, 208, 80
-0.954255, 1, 161, 256, 288
-0.954617, 233, 1, 296, 64
-0.95548, 353, 241, 480, 368
-0.955768, 369, 145, 496, 272
-0.956263, 225, 161, 352, 288
-0.957019, 89, 17, 152, 80
-0.957175, 425, 65, 488, 192
-0.957727, 129, 49, 192, 176
-0.958159, 97, 129, 352, 256
-0.958842, 97, 177, 352, 304
-0.958852, 177, 89, 240, 152
-0.959253, 297, 161, 360, 288
-0.95983, 121, 17, 184, 80
-0.960063, 9, 105, 72, 168
-0.96037, 153, 81, 216, 208
-0.960519, 1, 129, 128, 256
-0.960716, 161, 225, 288, 352
-0.960858, 393, 33, 456, 160
-0.961226, 409, 161, 472, 224
-0.961288, 353, 193, 480, 320
-0.961438, 377, 225, 440, 288
-0.961473, 1, 129, 64, 192
-0.961523, 313, 33, 376, 96
-0.961556, 1, 25, 64, 88
-0.961558, 377, 161, 440, 288
-0.96313, 353, 281, 416, 344
-0.96372, 65, 17, 128, 80
-0.963837, 369, 249, 432, 312
-0.964387, 137, 41, 200, 104
-0.964392, 265, 145, 328, 272
-0.964406, 25, 57, 88, 120
-0.964518, 17, 1, 80, 64
-0.964546, 345, 33, 408, 160
-0.964929, 257, 17, 320, 144
-0.965024, 433, 1, 496, 128
-0.965073, 1, 113, 64, 240
-0.965128, 65, 57, 128, 120
-0.965377, 121, 1, 152, 128
-0.965566, 377, 201, 440, 264
-0.965674, 77, 1, 108, 128
-0.965708, 273, 25, 336, 88
-0.96606, 193, 161, 256, 288
-0.966347, 305, 65, 368, 192
-0.966492, 89, 41, 152, 104
-0.96701, 433, 57, 496, 120
-0.967149, 177, 1, 304, 64
-0.967185, 81, 1, 144, 256
-0.967201, 73, 113, 136, 240
-0.967368, 177, 65, 304, 192
-0.96741, 81, 49, 208, 112
-0.967537, 225, 65, 480, 192
-0.967553, 201, 65, 264, 192
-0.967774, 73, 105, 136, 168
-0.967847, 201, 25, 264, 88
-0.967897, 129, 81, 192, 144
-0.968149, 17, 81, 144, 144
-0.968193, 169, 25, 232, 88
-0.968195, 417, 33, 480, 288
-0.968284, 93, 1, 124, 128
-0.968493, 161, 225, 224, 352
-0.96867, 409, 49, 472, 112
-0.968696, 65, 81, 96, 144
-0.968729, 25, 241, 88, 368
-0.968834, 337, 33, 400, 96
-0.969063, 209, 161, 272, 224
-0.969066, 369, 41, 432, 104
-0.969078, 153, 81, 216, 144
-0.96922, 13, 81, 44, 144
-0.969522, 257, 65, 384, 192
-0.969805, 1, 113, 128, 176
-0.969843, 25, 105, 56, 168
-0.970064, 241, 25, 304, 88
-0.970107, 193, 209, 256, 336
-0.970112, 121, 1, 184, 256
-0.970328, 1, 121, 32, 184
-0.970352, 41, 1, 104, 64
-0.970451, 129, 33, 160, 96
-0.970528, 109, 41, 140, 104
-0.970584, 25, 289, 88, 352
-0.970713, 201, 73, 264, 136
-0.970832, 33, 81, 64, 144
-0.970881, 377, 169, 440, 232
-0.971092, 57, 1, 120, 256
-0.971094, 153, 121, 216, 184
-0.971169, 257, 1, 320, 64
-0.97118, 17, 81, 48, 208
-0.97125, 241, 1, 272, 64
-0.971277, 313, 153, 376, 216
-0.971405, 197, 9, 228, 72
-0.971444, 153, 25, 184, 88
-0.971487, 217, 1, 248, 64
-0.971578, 409, 129, 472, 375
-0.971707, 129, 33, 256, 96
-0.971735, 77, 73, 108, 136
-0.971737, 273, 169, 336, 232
-0.971892, 393, 113, 456, 240
-0.972111, 53, 97, 84, 160
-0.972124, 5, 81, 36, 208
-0.972219, 345, 305, 408, 368
-0.972263, 65, 97, 192, 160
-0.972292, 93, 65, 124, 128
-0.972372, 177, 17, 208, 80
-0.972484, 241, 241, 368, 368
-0.972538, 145, 1, 176, 128
-0.972556, 305, 161, 432, 224
-0.972724, 305, 81, 432, 208
-0.972814, 249, 1, 312, 256
-0.97283, 133, 1, 164, 128
-0.97285, 105, 1, 136, 128
-0.972944, 85, 49, 116, 176
-0.973001, 189, 1, 220, 128
-0.97301, 113, 9, 240, 72
-0.973033, 401, 193, 432, 256
-0.973133, 229, 1, 260, 64
-0.973212, 281, 65, 344, 128
-0.973243, 253, 1, 284, 64
-0.973292, 173, 17, 204, 144
-0.973323, 17, 33, 80, 288
-0.973334, 161, 177, 288, 304
-0.973505, 81, 129, 208, 256
-0.973716, 1, 9, 128, 72
-0.973767, 105, 49, 136, 176
-0.973851, 49, 9, 176, 72
-0.973968, 273, 97, 336, 224
-0.974044, 65, 313, 128, 375
-0.974078, 313, 113, 376, 240
-0.974104, 241, 25, 368, 88
-0.974136, 1, 49, 128, 112
-0.974151, 97, 97, 160, 160
-0.97416, 141, 25, 172, 88
-0.974198, 233, 65, 296, 128
-0.974224, 93, 9, 124, 72
-0.974276, 33, 313, 96, 375
-0.974356, 385, 33, 448, 288
-0.974389, 209, 113, 336, 240
-0.974519, 185, 113, 248, 176
-0.97463, 409, 193, 472, 320
-0.974713, 289, 225, 416, 352
-0.974786, 433, 161, 496, 224
-0.974822, 145, 129, 208, 256
-0.974861, 29, 273, 60, 336
-0.974872, 33, 121, 96, 184
-0.974931, 49, 113, 112, 240
-0.974934, 157, 1, 188, 128
-0.975032, 117, 17, 148, 80
-0.975149, 421, 161, 452, 224
-0.975183, 65, 73, 192, 136
-0.975218, 249, 169, 312, 232
-0.975224, 17, 1, 48, 128
-0.975332, 73, 65, 104, 192
-0.975334, 113, 225, 240, 352
-0.975365, 345, 145, 408, 272
-0.97544, 53, 17, 84, 144
-0.975573, 193, 1, 256, 256
-0.975578, 53, 81, 84, 208
-0.975583, 369, 97, 496, 224
-0.975601, 389, 193, 420, 320
-0.975701, 421, 145, 452, 272
-0.975889, 209, 281, 272, 344
-0.976015, 13, 105, 44, 168
-0.976046, 121, 57, 152, 120
-0.976107, 65, 1, 96, 128
-0.97613, 353, 145, 416, 208
-0.976158, 369, 33, 432, 160
-0.976383, 213, 17, 244, 144
-0.97646, 385, 129, 448, 375
-0.976538, 177, 65, 304, 128
-0.976558, 165, 17, 196, 80
-0.976653, 181, 81, 212, 144
-0.976655, 217, 225, 280, 352
-0.976658, 321, 41, 448, 104
-0.976669, 145, 129, 272, 256
-0.976721, 297, 177, 360, 240
-0.976721, 185, 225, 248, 288
-0.976786, 105, 65, 136, 128
-0.976912, 37, 1, 68, 128
-0.976968, 321, 313, 384, 375
-0.976971, 385, 137, 448, 200
-0.976973, 217, 113, 280, 240
-0.977064, 193, 305, 256, 368
-0.977198, 41, 33, 104, 96
-0.97731, 377, 209, 408, 336
-0.977349, 57, 137, 120, 200
-0.977378, 41, 105, 72, 168
-0.9775, 65, 241, 192, 368
-0.977521, 313, 57, 376, 120
-0.977605, 233, 1, 264, 128
-0.977844, 5, 17, 36, 144
-0.977963, 321, 33, 352, 96
-0.978015, 345, 257, 408, 320
-0.978063, 325, 17, 356, 144
-0.978081, 1, 273, 64, 336
-0.978119, 217, 1, 280, 256
-0.978144, 365, 241, 396, 368
-0.978234, 305, 1, 368, 256
-0.978253, 309, 17, 340, 144
-0.978263, 129, 89, 256, 152
-0.978294, 253, 17, 284, 144
-0.97849, 97, 41, 128, 104
-0.978569, 177, 65, 240, 128
-0.978602, 353, 1, 416, 256
-0.978685, 305, 145, 336, 272
-0.978757, 141, 49, 172, 176
-0.978814, 409, 137, 472, 200
-0.978921, 433, 1, 496, 64
-0.979055, 433, 1, 496, 375
-0.979067, 33, 81, 64, 208
-0.97921, 369, 49, 496, 112
-0.979264, 205, 81, 236, 144
-0.979382, 177, 25, 304, 88
-0.979445, 1, 241, 64, 368
-0.979466, 337, 137, 464, 200
-0.979553, 193, 193, 256, 256
-0.979594, 81, 113, 112, 176
-0.979699, 169, 1, 232, 256
-0.979767, 69, 1, 100, 64
-0.979977, 409, 1, 472, 375
-0.980008, 1, 137, 128, 200
-0.980139, 433, 161, 464, 224
-0.980185, 1, 129, 32, 256
-0.980207, 269, 17, 300, 144
-0.98023, 293, 17, 324, 144
-0.980262, 13, 57, 44, 120
-0.980322, 369, 113, 432, 240
-0.980475, 401, 177, 432, 304
-0.980477, 377, 273, 440, 336
-0.980502, 321, 177, 384, 304
-0.980509, 393, 217, 424, 280
-0.980577, 53, 73, 84, 136
-0.980638, 437, 145, 468, 272
-0.980642, 241, 1, 368, 64
-0.980661, 1, 49, 64, 112
-0.980964, 201, 1, 264, 375
-0.980986, 89, 313, 152, 375
-0.980993, 433, 129, 496, 375
-0.981067, 225, 65, 352, 128
-0.981081, 241, 25, 272, 88
-0.981231, 21, 129, 52, 192
-0.981234, 345, 17, 376, 144
-0.981247, 201, 33, 232, 160
-0.98126, 401, 241, 464, 368
-0.981317, 41, 265, 104, 328
-0.981364, 225, 169, 352, 232
-0.98138, 301, 25, 332, 88
-0.981402, 261, 25, 292, 88
-0.9815, 409, 169, 440, 232
-0.981518, 249, 65, 280, 128
-0.981541, 413, 137, 444, 200
-0.981542, 217, 161, 248, 224
-0.981563, 105, 17, 136, 80
-0.981566, 81, 145, 144, 208
-0.981597, 49, 297, 80, 360
-0.981619, 337, 273, 464, 336
-0.981635, 265, 1, 296, 64
-0.98165, 201, 81, 232, 208
-0.981684, 81, 17, 112, 80
-0.981717, 185, 281, 248, 344
-0.981775, 201, 161, 232, 288
-0.981782, 377, 1, 440, 375
-0.981884, 233, 297, 296, 360
-0.98199, 425, 97, 456, 224
-0.98199, 25, 17, 56, 80
-0.982025, 369, 161, 496, 224
-0.982054, 81, 1, 144, 375
-0.98214, 365, 33, 396, 96
-0.982161, 321, 297, 448, 360
-0.982168, 5, 17, 36, 80
-0.982215, 133, 57, 164, 120
-0.98222, 409, 185, 472, 248
-0.98223, 233, 145, 296, 208
-0.98223, 161, 233, 224, 296
-0.982258, 369, 265, 400, 328
-0.982278, 117, 49, 148, 176
-0.982422, 37, 297, 68, 360
-0.982459, 161, 265, 224, 328
-0.982466, 445, 65, 476, 192
-0.98249, 1, 1, 64, 375
-0.98255, 153, 49, 184, 176
-0.982587, 97, 113, 160, 240
-0.982591, 393, 249, 456, 312
-0.982596, 229, 25, 260, 88
-0.982657, 233, 177, 296, 304
-0.982681, 145, 1, 208, 256
-0.982708, 381, 233, 412, 296
-0.982714, 69, 313, 100, 375
-0.982726, 1, 313, 128, 375
-0.982731, 217, 185, 280, 248
-0.982801, 1, 97, 32, 160
-0.982839, 341, 33, 372, 96
-0.982854, 329, 1, 392, 256
-0.982863, 169, 1, 232, 375
-0.982894, 153, 49, 184, 112
-0.982903, 221, 145, 252, 272
-0.983114, 121, 129, 184, 375
-0.983148, 345, 177, 408, 240
-0.983149, 273, 57, 400, 120
-0.983155, 41, 1, 72, 64
-0.983162, 1, 73, 32, 136
-0.983175, 353, 1, 416, 375
-0.9832, 281, 17, 312, 144
-0.983222, 437, 49, 468, 112
-0.983342, 181, 105, 212, 168
-0.983346, 145, 97, 208, 352
-0.98342, 273, 1, 336, 256
-0.983423, 185, 161, 248, 224
-0.983435, 273, 145, 336, 208
-0.983451, 129, 9, 160, 72
-0.983452, 469, 1, 500, 128
-0.983498, 281, 1, 344, 64
-0.98351, 201, 33, 232, 96
-0.983552, 161, 233, 288, 296
-0.983665, 417, 225, 448, 288
-0.983729, 173, 65, 204, 192
-0.983749, 185, 49, 216, 176
-0.983769, 453, 57, 484, 120
-0.983833, 1, 145, 32, 208
-0.983847, 305, 185, 432, 248
-0.983885, 129, 49, 160, 176
-0.983945, 65, 121, 192, 184
-0.983945, 353, 201, 416, 264
-0.984048, 421, 185, 452, 248
-0.984071, 161, 89, 192, 152
-0.984106, 169, 161, 232, 288
-0.984141, 433, 33, 496, 96
-0.984149, 297, 297, 360, 360
-0.98418, 73, 41, 104, 104
-0.98422, 97, 177, 224, 304
-0.984236, 85, 41, 116, 104
-0.984245, 417, 33, 448, 160
-0.98426, 465, 57, 496, 120
-0.98426, 193, 81, 224, 144
-0.984339, 85, 97, 116, 224
-0.984372, 241, 1, 304, 375
-0.984386, 217, 97, 280, 160
-0.984392, 225, 89, 256, 152
-0.984452, 285, 25, 316, 88
-0.984458, 129, 305, 256, 368
-0.984492, 85, 145, 116, 208
-0.984554, 225, 65, 288, 192
-0.984563, 353, 209, 480, 272
-0.984648, 353, 225, 416, 288
-0.984669, 257, 73, 320, 136
-0.98467, 289, 1, 352, 375
-0.98469, 25, 57, 56, 120
-0.984728, 457, 1, 488, 128
-0.984773, 357, 273, 388, 336
-0.984815, 425, 49, 456, 112
-0.984828, 261, 177, 292, 240
-0.984837, 101, 97, 132, 224
-0.984917, 401, 129, 432, 256
-0.984933, 165, 41, 196, 104
-0.984946, 329, 241, 392, 368
-0.984954, 405, 41, 436, 104
-0.98501, 33, 241, 64, 368
-0.985025, 121, 129, 184, 256
-0.98504, 105, 129, 168, 192
-0.985114, 469, 65, 500, 192
-0.985191, 49, 241, 112, 368
-0.98523, 25, 129, 88, 256
-0.985241, 321, 281, 384, 344
-0.985312, 305, 1, 368, 64
-0.985405, 409, 25, 472, 88
-0.985466, 193, 89, 320, 152
-0.98554, 49, 289, 176, 352
-0.985574, 169, 113, 200, 176
-0.98558, 221, 97, 252, 224
-0.985634, 421, 193, 452, 320
-0.985705, 145, 113, 272, 176
-0.985708, 429, 33, 460, 160
-0.985749, 337, 249, 464, 312
-0.985819, 169, 305, 232, 368
-0.985844, 361, 17, 424, 80
-0.985933, 273, 297, 400, 360
-0.985938, 113, 1, 176, 375
-0.985961, 257, 49, 320, 112
-0.986017, 237, 65, 268, 128
-0.986017, 93, 105, 124, 168
-0.98611, 337, 65, 400, 128
-0.986141, 309, 161, 340, 224
-0.986157, 273, 193, 336, 256
-0.986164, 185, 97, 216, 224
-0.986187, 309, 65, 340, 128
-0.986197, 273, 25, 304, 88
-0.986207, 129, 57, 256, 120
-0.986233, 137, 297, 200, 360
-0.986256, 49, 241, 80, 368
-0.98629, 445, 1, 476, 128
-0.986301, 329, 9, 392, 72
-0.986301, 65, 121, 96, 184
-0.986307, 393, 33, 424, 160
-0.986339, 209, 225, 272, 288
-0.986379, 49, 289, 112, 352
-0.986388, 65, 313, 192, 375
-0.986425, 161, 145, 224, 208
-0.986501, 369, 241, 400, 304
-0.986515, 341, 297, 372, 360
-0.98666, 377, 41, 408, 104
-0.986662, 141, 1, 172, 64
-0.986674, 113, 313, 176, 375
-0.986685, 409, 225, 440, 352
-0.986725, 409, 225, 472, 288
-0.98674, 217, 25, 248, 88
-0.986761, 357, 297, 388, 360
-0.986771, 197, 177, 228, 240
-0.986805, 377, 113, 440, 176
-0.986814, 49, 1, 112, 375
-0.986821, 357, 145, 388, 208
-0.98686, 405, 33, 436, 160
-0.986868, 129, 121, 192, 184
-0.986919, 289, 17, 416, 80
-0.986962, 281, 161, 312, 224
-0.987059, 401, 145, 432, 208
-0.987094, 469, 145, 500, 272
-0.987103, 353, 33, 384, 96
-0.987145, 41, 129, 104, 375
-0.987164, 317, 145, 348, 272
-0.987214, 457, 65, 488, 192
-0.987222, 457, 145, 488, 272
-0.987246, 277, 1, 308, 64
-0.987248, 177, 97, 240, 352
-0.987274, 389, 193, 420, 256
-0.987346, 265, 1, 328, 375
-0.987394, 1, 41, 32, 104
-0.987448, 177, 41, 208, 104
-0.987451, 209, 185, 240, 248
-0.987476, 265, 65, 296, 128
-0.98751, 305, 241, 368, 368
-0.98754, 225, 193, 352, 256
-0.987548, 353, 185, 480, 248
-0.987556, 321, 1, 384, 375
-0.987561, 177, 289, 304, 352
-0.987603, 97, 33, 352, 96
-0.987666, 321, 65, 352, 192
-0.987694, 469, 161, 500, 224
-0.987724, 177, 161, 304, 224
-0.987743, 257, 145, 384, 208
-0.987808, 153, 1, 184, 64
-0.987827, 145, 257, 272, 320
-0.987984, 369, 25, 496, 88
-0.987988, 293, 145, 324, 272
-0.988016, 145, 1, 208, 375
-0.988036, 241, 193, 304, 256
-0.988046, 241, 129, 304, 256
-0.988094, 25, 1, 88, 375
-0.988192, 49, 145, 176, 208
-0.988192, 89, 97, 152, 352
-0.988217, 41, 105, 104, 136
-0.988245, 401, 257, 432, 320
-0.988261, 129, 29, 192, 60
-0.988293, 385, 17, 448, 80
-0.988295, 389, 41, 420, 104
-0.988312, 369, 1, 496, 64
-0.988313, 289, 233, 416, 296
-0.988326, 293, 169, 324, 232
-0.988385, 49, 273, 80, 336
-0.988404, 193, 137, 256, 200
-0.988416, 1, 289, 128, 352
-0.988432, 57, 93, 120, 124
-0.988446, 257, 273, 384, 336
-0.98845, 1, 81, 256, 144
-0.988468, 313, 129, 376, 192
-0.988483, 453, 161, 484, 224
-0.988486, 425, 121, 456, 184
-0.988561, 357, 17, 388, 144
-0.988574, 345, 153, 376, 216
-0.988586, 33, 241, 96, 304
-0.988588, 201, 49, 264, 112
-0.988626, 345, 121, 408, 184
-0.988681, 13, 129, 44, 256
-0.988681, 25, 117, 88, 148
-0.988726, 177, 225, 208, 352
-0.988734, 81, 73, 144, 104
-0.988758, 201, 153, 232, 216
-0.988777, 1, 109, 64, 140
-0.988791, 41, 249, 72, 312
-0.988803, 137, 249, 200, 312
-0.988831, 433, 137, 496, 200
-0.988851, 189, 33, 220, 96
-0.988912, 469, 1, 500, 64
-0.988955, 25, 89, 88, 120
-0.989035, 89, 5, 152, 36
-0.98904, 105, 41, 168, 72
-0.989086, 1, 249, 64, 312
-0.989156, 57, 1, 120, 32
-0.989156, 385, 169, 416, 232
-0.989196, 241, 217, 304, 280
-0.989217, 217, 225, 248, 352
-0.989222, 209, 57, 240, 120
-0.989223, 113, 17, 176, 48
-0.989245, 89, 313, 120, 375
-0.989248, 225, 305, 352, 368
-0.989252, 113, 97, 144, 224
-0.989301, 97, 1, 352, 64
-0.98932, 1, 193, 64, 320
-0.989321, 89, 25, 152, 56
-0.989323, 1, 129, 64, 375
-0.989353, 25, 1, 88, 32
-0.989376, 409, 165, 472, 196
-0.989392, 153, 97, 184, 224
-0.989403, 1, 33, 500, 96
-0.989425, 233, 49, 264, 176
-0.989427, 105, 57, 168, 88
-0.989478, 273, 193, 336, 320
-0.98948, 129, 89, 160, 152
-0.989492, 229, 153, 260, 216
-0.989504, 241, 177, 304, 208
-0.989534, 65, 57, 320, 120
-0.989565, 153, 21, 216, 52
-0.989606, 389, 281, 420, 344
-0.989625, 309, 97, 340, 224
-0.989649, 377, 33, 408, 160
-0.989657, 193, 1, 256, 32
-0.989673, 289, 1, 320, 64
-0.989685, 281, 73, 344, 104
-0.98981, 65, 21, 128, 52
-0.989821, 273, 209, 400, 272
-0.98983, 177, 101, 240, 132
-0.989845, 1, 121, 64, 152
-0.989867, 377, 213, 440, 244
-0.989918, 169, 85, 232, 116
-0.989931, 209, 173, 272, 204
-0.989933, 57, 81, 120, 112
-0.989948, 217, 1, 280, 32
-0.989951, 377, 225, 440, 256
-0.989957, 321, 65, 448, 128
-0.989993, 81, 61, 144, 92
-0.990014, 201, 129, 264, 375
-0.990029, 177, 193, 304, 256
-0.990033, 193, 85, 256, 116
-0.990042, 233, 73, 296, 104
-0.990059, 209, 185, 272, 216
-0.990066, 249, 189, 312, 220
-0.990098, 281, 173, 344, 204
-0.990101, 9, 21, 72, 52
-0.990114, 169, 113, 232, 144
-0.990131, 1, 89, 64, 120
-0.990153, 193, 209, 224, 336
-0.990171, 89, 345, 152, 375
-0.990205, 209, 73, 272, 104
-0.99024, 113, 281, 240, 344
-0.99026, 305, 69, 368, 100
-0.990278, 129, 49, 192, 80
-0.990318, 361, 269, 424, 300
-0.990325, 177, 17, 240, 48
-0.990368, 353, 285, 416, 316
-0.990389, 145, 137, 272, 200
-0.990428, 409, 53, 472, 84
-0.990433, 125, 97, 156, 224
-0.990435, 49, 265, 176, 328
-0.990435, 433, 57, 496, 88
-0.990447, 17, 77, 80, 108
-0.990476, 369, 241, 432, 272
-0.990483, 257, 113, 384, 240
-0.990484, 41, 13, 104, 44
-0.990494, 257, 69, 320, 100
-0.990602, 257, 33, 500, 96
-0.990602, 409, 73, 472, 136
-0.99061, 185, 33, 248, 64
-0.990611, 361, 129, 424, 375
-0.990657, 161, 41, 224, 72
-0.990683, 393, 241, 424, 368
-0.990693, 369, 45, 432, 76
-0.990696, 377, 201, 440, 232
-0.990717, 281, 185, 344, 216
-0.99072, 377, 297, 440, 360
-0.990728, 201, 257, 264, 320
-0.990763, 33, 129, 96, 160
-0.990796, 137, 225, 200, 352
-0.990797, 369, 253, 432, 284
-0.990814, 425, 1, 488, 32
-0.990825, 209, 225, 336, 288
-0.99083, 145, 89, 208, 120
-0.990846, 321, 241, 384, 304
-0.990851, 169, 293, 232, 324
-0.990882, 1, 1, 256, 64
-0.990885, 113, 345, 176, 375
-0.990888, 81, 89, 144, 120
-0.990902, 257, 81, 320, 112
-0.990919, 49, 141, 112, 172
-0.990924, 401, 273, 464, 336
-0.990941, 129, 5, 192, 36
-0.990949, 289, 57, 352, 88
-0.990951, 209, 33, 272, 64
-0.990957, 173, 113, 204, 240
-0.990963, 205, 209, 236, 336
-0.991002, 385, 181, 448, 212
-0.991003, 345, 309, 408, 340
-0.991018, 321, 37, 384, 68
-0.991021, 193, 229, 256, 260
-0.991071, 201, 97, 264, 128
-0.991119, 1, 1, 64, 32
-0.991124, 305, 193, 336, 320
-0.991133, 337, 325, 400, 356
-0.991167, 209, 293, 272, 324
-0.991172, 57, 69, 120, 100
-0.991188, 81, 37, 144, 68
-0.9912, 65, 317, 128, 348
-0.991204, 241, 1, 304, 32
-0.991206, 297, 33, 360, 64
-0.991219, 241, 225, 304, 352
-0.991231, 345, 297, 408, 328
-0.991235, 201, 13, 264, 44
-0.99125, 25, 129, 56, 256
-0.991278, 57, 337, 120, 368
-0.991311, 1, 61, 64, 92
-0.991317, 329, 65, 392, 96
-0.991319, 17, 225, 144, 352
-0.991328, 185, 185, 248, 216
-0.991331, 385, 169, 448, 200
-0.991342, 1, 133, 64, 164
-0.991368, 1, 177, 128, 304
-0.9914, 17, 33, 80, 64
-0.991422, 81, 149, 144, 180
-0.991428, 81, 49, 144, 80
-0.991438, 273, 81, 400, 144
-0.991448, 73, 113, 104, 240
-0.991451, 329, 337, 392, 368
-0.991454, 313, 53, 376, 84
-0.991459, 145, 113, 208, 144
-0.991463, 225, 177, 480, 240
-0.991467, 161, 73, 224, 104
-0.991481, 105, 73, 168, 104
-0.991497, 377, 281, 440, 312
-0.991528, 345, 41, 408, 72
-0.991551, 265, 129, 296, 256
-0.991561, 33, 313, 96, 344
-0.991567, 305, 325, 368, 356
-0.99157, 249, 29, 312, 60
-0.99158, 313, 165, 376, 196
-0.991586, 337, 273, 400, 304
-0.991586, 81, 109, 144, 140
-0.991626, 121, 93, 184, 124
-0.991637, 1, 105, 256, 168
-0.991645, 233, 61, 296, 92
-0.991704, 185, 281, 248, 312
-0.991704, 217, 85, 280, 116
-0.991724, 177, 149, 240, 180
-0.991729, 41, 29, 104, 60
-0.991741, 113, 233, 240, 296
-0.991758, 73, 241, 136, 368
-0.991762, 73, 121, 136, 152
-0.991772, 385, 269, 448, 300
-0.991779, 17, 289, 80, 320
-0.991789, 9, 269, 72, 300
-0.991795, 57, 49, 120, 80
-0.991827, 433, 165, 496, 196
-0.991842, 361, 165, 424, 196
-0.991857, 185, 305, 248, 336
-0.99187, 177, 313, 304, 375
-0.991881, 97, 161, 160, 288
-0.99191, 385, 157, 448, 188
-0.991914, 273, 33, 336, 64
-0.991921, 153, 1, 216, 32
-0.991962, 345, 153, 408, 184
-0.99197, 5, 129, 36, 160
-0.991984, 25, 301, 88, 332
-0.991993, 409, 193, 472, 224
-0.992016, 137, 125, 200, 156
-0.992024, 85, 1, 116, 32
-0.992068, 97, 145, 224, 208
-0.992071, 29, 109, 60, 140
-0.992072, 229, 225, 260, 352
-0.992088, 225, 305, 288, 336
-0.992096, 129, 77, 192, 108
-0.9921, 17, 117, 48, 148
-0.992103, 353, 201, 416, 232
-0.992114, 281, 337, 344, 368
-0.992121, 89, 325, 152, 356
-0.992141, 337, 97, 400, 352
-0.99218, 45, 93, 76, 124
-0.992189, 117, 21, 148, 52
-0.99222, 161, 65, 416, 128
-0.9923, 337, 113, 464, 176
-0.992324, 121, 45, 152, 76
-0.992345, 93, 61, 124, 92
-0.992359, 185, 161, 216, 288
-0.992362, 401, 197, 432, 228
-0.99239, 217, 1, 248, 32
-0.992397, 65, 81, 96, 112
-0.992408, 133, 37, 164, 68
-0.992414, 373, 145, 404, 272
-0.992415, 89, 21, 120, 52
-0.99243, 109, 53, 140, 84
-0.992437, 5, 141, 36, 172
-0.992451, 245, 177, 276, 208
-0.992459, 77, 73, 108, 104
-0.992472, 157, 29, 188, 60
-0.992472, 25, 85, 56, 116
-0.992477, 65, 1, 96, 32
-0.992497, 417, 165, 448, 196
-0.992504, 137, 97, 168, 224
-0.992516, 145, 33, 176, 64
-0.992516, 101, 5, 132, 36
-0.992522, 353, 241, 384, 368
-0.992534, 185, 105, 216, 136
-0.992552, 365, 193, 396, 320
-0.992556, 113, 1, 144, 32
-0.992562, 169, 25, 200, 56
-0.992579, 281, 77, 312, 108
-0.992582, 237, 73, 268, 104
-0.992583, 329, 145, 360, 272
-0.992593, 89, 149, 120, 180
-0.992596, 65, 129, 128, 375
-0.992598, 13, 81, 44, 112
-0.992609, 193, 1, 448, 64
-0.992614, 17, 21, 48, 52
-0.992617, 77, 93, 108, 124
-0.992643, 397, 209, 428, 240
-0.992653, 137, 13, 168, 44
-0.992659, 305, 73, 336, 104
-0.992661, 61, 105, 92, 136
-0.992675, 1, 25, 256, 88
-0.992676, 181, 21, 212, 52
-0.992682, 369, 273, 400, 304
-0.992693, 117, 65, 148, 96
-0.9927, 49, 301, 80, 332
-0.992702, 89, 85, 120, 116
-0.992708, 257, 65, 288, 96
-0.992711, 141, 53, 172, 84
-0.992713, 37, 293, 68, 324
-0.992714, 173, 113, 204, 144
-0.992724, 45, 1, 76, 32
-0.992725, 429, 165, 460, 196
-0.992732, 17, 65, 48, 96
-0.992734, 257, 181, 288, 212
-0.992739, 105, 73, 136, 104
-0.992739, 21, 129, 52, 160
-0.992741, 17, 9, 48, 40
-0.992743, 225, 113, 352, 176
-0.992751, 41, 113, 72, 144
-0.992757, 237, 193, 268, 224
-0.992758, 153, 49, 184, 80
-0.992759, 217, 85, 248, 116
-0.992762, 89, 341, 120, 372
-0.992763, 201, 13, 232, 44
-0.992768, 173, 41, 204, 72
-0.992772, 293, 73, 324, 104
-0.992776, 365, 285, 396, 316
-0.992776, 273, 177, 304, 208
-0.992789, 461, 61, 492, 92
-0.99279, 33, 1, 64, 32
-0.992795, 49, 313, 80, 344
-0.992796, 29, 273, 60, 304
-0.992797, 401, 185, 432, 216
-0.992799, 201, 185, 232, 216
-0.99281, 221, 177, 252, 208
-0.992821, 257, 1, 288, 32
-0.992827, 65, 13, 96, 44
-0.992834, 129, 57, 160, 88
-0.992836, 185, 37, 216, 68
-0.992839, 1, 81, 32, 112
-0.992843, 57, 93, 88, 124
-0.992845, 205, 1, 236, 32
-0.992851, 69, 313, 100, 344
-0.992855, 205, 85, 236, 116
-0.992857, 313, 57, 344, 88
-0.992859, 77, 13, 108, 44
-0.99286, 105, 345, 136, 375
-0.992864, 229, 1, 260, 32
-0.992869, 413, 49, 444, 80
-0.992875, 5, 69, 36, 100
-0.992877, 1, 117, 32, 148
-0.992885, 189, 81, 220, 112
-0.99289, 17, 105, 48, 136
-0.992893, 105, 17, 136, 48
-0.992893, 433, 53, 464, 84
-0.992895, 217, 33, 248, 64
-0.992899, 205, 33, 236, 64
-0.992904, 417, 177, 448, 208
-0.992906, 381, 241, 412, 272
-0.992908, 5, 1, 36, 32
-0.992908, 281, 65, 312, 96
-0.992909, 101, 33, 132, 64
-0.992913, 233, 173, 264, 204
-0.992913, 217, 73, 248, 104
-0.992915, 393, 221, 424, 252
-0.992917, 5, 21, 36, 52
-0.99292, 5, 101, 36, 132
-0.99292, 445, 57, 476, 88
-0.992926, 225, 97, 256, 128
-0.99293, 89, 73, 120, 104
-0.992935, 401, 173, 432, 204
-0.992935, 373, 261, 404, 292
-0.992938, 69, 141, 100, 172
-0.992938, 89, 145, 120, 272
-0.99294, 25, 261, 56, 292
-0.992948, 37, 305, 68, 336
-0.992949, 361, 153, 392, 184
-0.99296, 301, 61, 332, 92
-0.992964, 325, 57, 356, 88
-0.992967, 73, 125, 104, 156
-0.992978, 317, 69, 348, 100
-0.992984, 329, 69, 360, 100
-0.992992, 373, 41, 404, 72
-0.992994, 285, 185, 316, 216
-0.992994, 345, 157, 376, 188
-0.992995, 397, 45, 428, 76
-0.992995, 245, 1, 276, 32
-0.992998, 225, 189, 256, 220
-0.993001, 413, 97, 444, 224
-0.993006, 5, 57, 36, 88
-0.993009, 209, 169, 240, 200
-0.993009, 269, 77, 300, 108
-0.99301, 225, 153, 480, 216
-0.99302, 213, 13, 244, 44
-0.993021, 213, 189, 244, 220
-0.993022, 33, 97, 64, 128
-0.993023, 121, 33, 152, 64
-0.993027, 1, 9, 128, 40
-0.993029, 269, 193, 300, 224
-0.993031, 33, 17, 64, 48
-0.993046, 81, 209, 208, 272
-0.993084, 143, 33, 158, 96
-0.993105, 115, 41, 130, 104
-0.99317, 257, 201, 500, 264
-0.993257, 123, 41, 138, 104
-0.993263, 65, 33, 192, 64
-0.993265, 113, 21, 240, 52
-0.993277, 1, 9, 500, 72
-0.993312, 49, 81, 176, 112
-0.99332, 129, 185, 256, 248
-0.99332, 41, 193, 104, 320
-0.993381, 27, 105, 42, 168
-0.993484, 281, 129, 312, 256
-0.993509, 35, 97, 50, 160
-0.993524, 239, 1, 254, 64
-0.993528, 159, 25, 174, 88
-0.993548, 1, 93, 128, 124
-0.993569, 161, 305, 416, 368
-0.993602, 1, 65, 128, 96
-0.993669, 369, 305, 496, 368
-0.9937, 77, 81, 92, 144
-0.993708, 49, 13, 176, 44
-0.993713, 245, 177, 276, 304
-0.993715, 247, 1, 262, 64
-0.993719, 213, 9, 228, 72
-0.99372, 89, 65, 104, 128
-0.993722, 313, 129, 376, 375
-0.993742, 129, 89, 384, 152
-0.993747, 99, 57, 114, 120
-0.993747, 345, 97, 408, 224
-0.993764, 257, 1, 272, 64
-0.993765, 257, 177, 288, 304
-0.993784, 193, 265, 320, 328
-0.993785, 47, 89, 62, 152
-0.993796, 1, 117, 128, 148
-0.993915, 129, 33, 144, 96
-0.993916, 233, 145, 264, 272
-0.993921, 219, 1, 234, 64
-0.993922, 193, 241, 448, 304
-0.993924, 209, 137, 336, 200
-0.993924, 1, 73, 500, 136
-0.99393, 55, 89, 70, 152
-0.993957, 69, 89, 84, 152
-0.99398, 41, 273, 56, 336
-0.993981, 187, 17, 202, 80
-0.993981, 177, 17, 192, 80
-0.994031, 7, 121, 22, 184
-0.994054, 199, 9, 214, 72
-0.994067, 263, 1, 278, 64
-0.994098, 129, 137, 384, 200
-0.994107, 81, 169, 208, 232
-0.994107, 151, 25, 166, 88
-0.99411, 193, 1, 320, 32
-0.994115, 193, 281, 448, 344
-0.994118, 105, 57, 120, 120
-0.99413, 65, 297, 320, 360
-0.994137, 47, 289, 62, 352
-0.994142, 107, 17, 122, 80
-0.994149, 1, 145, 16, 208
-0.994153, 91, 1, 106, 64
-0.994223, 137, 33, 152, 96
-0.994227, 113, 89, 240, 120
-0.994231, 165, 25, 180, 88
-0.994238, 207, 9, 222, 72
-0.994238, 29, 73, 44, 136
-0.994255, 1, 81, 128, 112
-0.994264, 113, 37, 240, 68
-0.99428, 177, 81, 304, 112
-0.994285, 281, 97, 344, 352
-0.994302, 83, 73, 98, 136
-0.994322, 85, 1, 100, 64
-0.994323, 19, 113, 34, 176
-0.99436, 1, 297, 500, 360
-0.994373, 97, 49, 224, 80
-0.99441, 1, 129, 128, 160
-0.994421, 65, 69, 192, 100
-0.994434, 1, 177, 128, 240
-0.994434, 233, 1, 248, 64
-0.994445, 97, 257, 224, 320
-0.994448, 171, 17, 186, 80
-0.99448, 193, 17, 208, 80
-0.994497, 49, 177, 176, 304
-0.994499, 225, 73, 352, 104
-0.994505, 1, 153, 256, 216
-0.994573, 1, 105, 128, 136
-0.994581, 1, 153, 500, 216
-0.994586, 65, 1, 192, 32
-0.994609, 63, 89, 78, 152
-0.994636, 23, 65, 38, 128
-0.994639, 423, 161, 438, 224
-0.994671, 233, 97, 264, 224
-0.994676, 41, 97, 56, 160
-0.994703, 33, 49, 160, 80
-0.994725, 23, 1, 38, 64
-0.994738, 133, 9, 148, 72
-0.994769, 1, 121, 16, 184
-0.994787, 273, 69, 400, 100
-0.994827, 269, 1, 284, 64
-0.994854, 17, 25, 144, 56
-0.994883, 123, 65, 138, 128
-0.994889, 17, 81, 32, 144
-0.994905, 87, 113, 102, 176
-0.994912, 95, 81, 110, 144
-0.994928, 161, 13, 288, 44
-0.994957, 49, 109, 176, 140
-0.994982, 1, 209, 500, 272
-0.995003, 1, 141, 128, 172
-0.995024, 13, 121, 28, 184
-0.995039, 111, 65, 126, 128
-0.995044, 337, 89, 464, 152
-0.995057, 77, 1, 92, 64
-0.995057, 401, 201, 416, 264
-0.995095, 121, 17, 136, 80
-0.995112, 97, 169, 352, 232
-0.995136, 79, 121, 94, 184
-0.99514, 273, 121, 400, 184
-0.995154, 1, 129, 500, 192
-0.995169, 257, 57, 500, 120
-0.995189, 145, 177, 208, 304
-0.995239, 1, 241, 256, 304
-0.995244, 337, 45, 464, 76
-0.995256, 165, 225, 196, 352
-0.99526, 65, 97, 192, 128
-0.995275, 161, 109, 288, 140
-0.995279, 113, 1, 240, 32
-0.995308, 135, 57, 150, 120
-0.99532, 225, 1, 240, 64
-0.995324, 255, 25, 270, 88
-0.995326, 385, 145, 416, 272
-0.995345, 377, 249, 392, 312
-0.995391, 221, 161, 236, 224
-0.995394, 193, 81, 208, 144
-0.995408, 177, 81, 192, 144
-0.995429, 329, 33, 344, 96
-0.995446, 319, 25, 334, 88
-0.995454, 113, 17, 128, 80
-0.995454, 153, 49, 168, 112
-0.995466, 407, 185, 422, 248
-0.995486, 21, 25, 36, 88
-0.995497, 395, 217, 410, 280
-0.995513, 81, 345, 208, 375
-0.995517, 97, 17, 112, 80
-0.995528, 91, 137, 106, 200
-0.995536, 183, 81, 198, 144
-0.995548, 161, 33, 288, 64
-0.995553, 117, 65, 132, 128
-0.99556, 35, 257, 50, 320
-0.995579, 265, 25, 280, 88
-0.995583, 437, 161, 452, 224
-0.995628, 369, 57, 496, 88
-0.995638, 357, 145, 388, 272
-0.995645, 183, 105, 198, 168
-0.995661, 193, 181, 320, 212
-0.995666, 73, 241, 104, 368
-0.99567, 85, 1, 116, 256
-0.995671, 129, 57, 144, 120
-0.995674, 19, 137, 34, 200
-0.995692, 375, 33, 390, 96
-0.995695, 413, 161, 428, 224
-0.995697, 91, 41, 106, 104
-0.995705, 431, 161, 446, 224
-0.995708, 35, 73, 50, 136
-0.995717, 355, 297, 370, 360
-0.995723, 71, 305, 86, 368
-0.995734, 161, 217, 416, 280
-0.995737, 207, 81, 222, 144
-0.995742, 231, 81, 246, 144
-0.995743, 255, 57, 270, 120
-0.995744, 419, 137, 434, 200
-0.995745, 313, 25, 328, 88
-0.99575, 341, 65, 372, 192
-0.995761, 209, 29, 336, 60
-0.995765, 15, 17, 30, 80
-0.995767, 425, 33, 456, 288
-0.995784, 249, 65, 280, 192
-0.995792, 31, 129, 46, 192
-0.9958, 387, 225, 402, 288
-0.995833, 429, 129, 444, 192
-0.99584, 47, 265, 62, 328
-0.995842, 177, 41, 192, 104
-0.995846, 141, 57, 156, 120
-0.99586, 1, 257, 128, 320
-0.995871, 11, 81, 26, 144
-0.995875, 275, 1, 290, 64
-0.99588, 363, 281, 378, 344
-0.995881, 105, 1, 136, 256
-0.995888, 341, 241, 372, 368
-0.995892, 337, 149, 464, 180
-0.995904, 453, 49, 468, 112
-0.995918, 5, 1, 36, 256
-0.995927, 145, 293, 272, 324
-0.995929, 357, 153, 372, 216
-0.995936, 349, 313, 364, 375
-0.99594, 213, 33, 228, 96
-0.995953, 335, 33, 350, 96
-0.995959, 161, 113, 416, 176
-0.995985, 177, 69, 304, 100
-0.995987, 25, 137, 40, 200
-0.995995, 17, 49, 32, 112
-0.996026, 27, 33, 42, 96
-0.996028, 121, 145, 152, 272
-0.996032, 1, 209, 128, 272
-0.996044, 441, 49, 456, 112
-0.996047, 369, 265, 384, 328
-0.996049, 127, 9, 142, 72
-0.996065, 257, 305, 500, 368
-0.996069, 45, 1, 60, 64
-0.996069, 417, 41, 432, 104
-0.996069, 121, 1, 152, 256
-0.996072, 1, 129, 256, 192
-0.996072, 305, 173, 432, 204
-0.996081, 53, 289, 68, 352
-0.996084, 249, 73, 264, 136
-0.996086, 1, 177, 500, 240
-0.996089, 165, 1, 180, 64
-0.996112, 177, 113, 192, 176
-0.996122, 3, 57, 18, 120
-0.996125, 287, 25, 302, 88
-0.996128, 245, 25, 260, 88
-0.996147, 289, 37, 416, 68
-0.996155, 459, 57, 474, 120
-0.996155, 231, 25, 246, 88
-0.996161, 279, 25, 294, 88
-0.996163, 479, 57, 494, 120
-0.996164, 171, 41, 186, 104
-0.996171, 241, 97, 304, 352
-0.996172, 343, 33, 358, 96
-0.996173, 1, 257, 500, 320
-0.996174, 17, 37, 144, 68
-0.996193, 457, 33, 488, 288
-0.996211, 1, 97, 500, 160
-0.996219, 33, 313, 160, 344
-0.996235, 445, 33, 476, 288
-0.996246, 177, 233, 304, 264
-0.996253, 225, 1, 256, 256
-0.996263, 33, 273, 288, 336
-0.996267, 241, 177, 368, 208
-0.996276, 1, 233, 500, 296
-0.996294, 405, 33, 436, 288
-0.99631, 241, 225, 272, 352
-0.996322, 353, 229, 480, 260
-0.99633, 469, 33, 500, 288
-0.996352, 293, 81, 324, 208
-0.996367, 129, 193, 384, 256
-0.996433, 321, 65, 448, 96
-0.996447, 417, 129, 448, 375
-0.996457, 225, 61, 352, 92
-0.996458, 337, 277, 464, 308
-0.99647, 21, 125, 36, 156
-0.996472, 21, 241, 52, 368
-0.996486, 305, 161, 432, 192
-0.996521, 65, 121, 192, 152
-0.996537, 81, 325, 208, 356
-0.996549, 337, 197, 464, 228
-0.996552, 113, 65, 240, 96
-0.996559, 369, 1, 496, 32
-0.996569, 25, 1, 56, 256
-0.99657, 69, 1, 100, 256
-0.996611, 129, 209, 256, 272
-0.996615, 101, 145, 132, 272
-0.996709, 369, 165, 496, 196
-0.99671, 337, 289, 464, 320
-0.996712, 345, 129, 376, 256
-0.996718, 255, 69, 270, 100
-0.996725, 49, 241, 176, 304
-0.996761, 33, 345, 160, 375
-0.99679, 177, 305, 304, 336
-0.996809, 337, 265, 464, 296
-0.996816, 321, 309, 448, 340
-0.996833, 133, 1, 164, 256
-0.996859, 245, 1, 276, 256
-0.99686, 145, 317, 272, 348
-0.996862, 257, 129, 500, 192
-0.99687, 157, 1, 188, 256
-0.9969, 17, 97, 48, 352
-0.996949, 17, 177, 48, 304
-0.996964, 9, 125, 24, 156
-0.996977, 97, 109, 224, 140
-0.996987, 257, 1, 288, 256
-0.996991, 421, 169, 436, 200
-0.996993, 385, 1, 416, 256
-0.996993, 59, 93, 74, 124
-0.99702, 33, 113, 48, 144
-0.997025, 81, 133, 208, 164
-0.997034, 1, 333, 128, 364
-0.997048, 161, 93, 288, 124
-0.997063, 53, 97, 68, 128
-0.99707, 225, 85, 352, 116
-0.997077, 115, 53, 130, 84
-0.997077, 17, 81, 32, 112
-0.997085, 353, 241, 480, 272
-0.997096, 433, 225, 464, 352
-0.997103, 113, 77, 240, 108
-0.997134, 177, 169, 304, 200
-0.997134, 39, 109, 54, 140
-0.997141, 87, 1, 102, 32
-0.997165, 1, 153, 16, 184
-0.997166, 109, 57, 124, 88
-0.997168, 71, 85, 86, 116
-0.997173, 293, 193, 324, 320
-0.997179, 25, 113, 40, 144
-0.997181, 1, 233, 128, 296
-0.997183, 99, 1, 114, 32
-0.997183, 161, 281, 288, 312
-0.99719, 305, 185, 432, 216
-0.997193, 133, 21, 148, 52
-0.997194, 65, 89, 80, 120
-0.997201, 1, 177, 256, 240
-0.99721, 185, 109, 200, 140
-0.997211, 47, 105, 62, 136
-0.997217, 201, 1, 232, 256
-0.997217, 129, 45, 144, 76
-0.997224, 95, 69, 110, 100
-0.997231, 277, 1, 308, 256
-0.997239, 101, 61, 116, 92
-0.997245, 241, 325, 368, 356
-0.997259, 77, 81, 92, 112
-0.997268, 213, 1, 244, 256
-0.997268, 441, 129, 472, 375
-0.997274, 353, 253, 480, 284
-0.997275, 27, 81, 42, 112
-0.997275, 123, 49, 138, 80
-0.997276, 83, 77, 98, 108
-0.997285, 89, 73, 104, 104
-0.997295, 129, 337, 256, 368
-0.997297, 321, 321, 448, 352
-0.997316, 145, 37, 160, 68
-0.99732, 97, 293, 224, 324
-0.997337, 117, 17, 132, 48
-0.997338, 325, 1, 356, 256
-0.997348, 61, 241, 92, 368
-0.997353, 75, 1, 90, 32
-0.99736, 145, 121, 272, 152
-0.997366, 233, 85, 248, 116
-0.997378, 105, 1, 120, 32
-0.997397, 177, 113, 192, 144
-0.997397, 91, 145, 106, 176
-0.997397, 429, 129, 460, 375
-0.997398, 145, 189, 272, 220
-0.997417, 37, 269, 52, 300
-0.997418, 163, 29, 178, 60
-0.997425, 125, 21, 140, 52
-0.997428, 153, 33, 168, 64
-0.997437, 49, 301, 176, 332
-0.997451, 105, 21, 120, 52
-0.997461, 21, 9, 36, 40
-0.997468, 49, 145, 176, 176
-0.997474, 273, 301, 400, 332
-0.997475, 135, 41, 150, 72
-0.997475, 145, 249, 272, 280
-0.997487, 1, 133, 16, 164
-0.997506, 421, 241, 452, 368
-0.997511, 321, 209, 448, 240
-0.997512, 465, 129, 496, 375
-0.997512, 249, 65, 312, 192
-0.997514, 257, 165, 384, 196
-0.99752, 401, 129, 432, 375
-0.997541, 43, 277, 58, 308
-0.997545, 97, 241, 352, 304
-0.997548, 49, 293, 64, 324
-0.997555, 263, 69, 278, 100
-0.997556, 289, 53, 416, 84
-0.99757, 289, 233, 416, 264
-0.997582, 93, 1, 108, 32
-0.997586, 247, 181, 262, 212
-0.997592, 113, 305, 240, 336
-0.997595, 249, 69, 264, 100
-0.997603, 57, 1, 88, 256
-0.997604, 87, 21, 102, 52
-0.997607, 173, 25, 188, 56
-0.997613, 119, 29, 134, 60
-0.997623, 257, 25, 384, 56
-0.997627, 41, 1, 56, 32
-0.99763, 21, 101, 36, 132
-0.997631, 21, 25, 36, 56
-0.997631, 369, 185, 496, 216
-0.997633, 23, 69, 38, 100
-0.997636, 111, 21, 126, 52
-0.997637, 241, 1, 368, 32
-0.997639, 191, 109, 206, 140
-0.99765, 125, 33, 140, 64
-0.997653, 313, 1, 344, 256
-0.997669, 145, 1, 176, 256
-0.997671, 317, 193, 348, 320
-0.997672, 453, 129, 484, 375
-0.997677, 293, 185, 308, 216
-0.997677, 169, 1, 200, 256
-0.99768, 11, 1, 26, 32
-0.997684, 431, 165, 446, 196
-0.997685, 219, 169, 234, 200
-0.997686, 219, 185, 234, 216
-0.997688, 225, 197, 352, 228
-0.997695, 221, 1, 236, 32
-0.997696, 405, 197, 420, 228
-0.997701, 361, 153, 376, 184
-0.997709, 33, 289, 160, 320
-0.997712, 413, 181, 428, 212
-0.997715, 305, 69, 320, 100
-0.997727, 129, 9, 144, 40
-0.997738, 391, 225, 406, 256
-0.997743, 115, 41, 130, 72
-0.997743, 185, 21, 200, 52
-0.997745, 283, 73, 298, 104
-0.997753, 15, 129, 30, 160
-0.997764, 193, 325, 320, 356
-0.997765, 337, 1, 368, 256
-0.997767, 259, 197, 274, 228
-0.997771, 179, 25, 194, 56
-0.997773, 29, 17, 44, 48
-0.9978, 257, 185, 272, 216
-0.99781, 5, 97, 36, 352
-0.997812, 241, 337, 368, 368
-0.997816, 397, 209, 412, 240
-0.997834, 47, 89, 62, 120
-0.997834, 241, 249, 368, 312
-0.997835, 389, 289, 404, 320
-0.997839, 33, 217, 288, 280
-0.997839, 373, 1, 404, 256
-0.997846, 289, 333, 416, 364
-0.997852, 257, 285, 384, 316
-0.997853, 81, 9, 96, 40
-0.997858, 111, 9, 126, 40
-0.997861, 35, 129, 50, 160
-0.997863, 51, 305, 66, 336
-0.997868, 139, 57, 154, 88
-0.997872, 37, 257, 52, 288
-0.997873, 15, 117, 30, 148
-0.997873, 69, 1, 84, 32
-0.997875, 401, 81, 432, 208
-0.997876, 193, 293, 320, 324
-0.997876, 1, 301, 128, 332
-0.997881, 273, 273, 400, 304
-0.997884, 299, 77, 314, 108
-0.997885, 27, 137, 42, 168
-0.997892, 111, 73, 126, 104
-0.997893, 125, 65, 140, 96
-0.997895, 49, 281, 64, 312
-0.997896, 145, 49, 272, 80
-0.997902, 387, 237, 402, 268
-0.997904, 1, 117, 16, 148
-0.997907, 353, 1, 384, 256
-0.997914, 197, 17, 212, 48
-0.997915, 119, 69, 134, 100
-0.997924, 301, 1, 332, 256
-0.997926, 369, 213, 496, 244
-0.997928, 213, 181, 228, 212
-0.997931, 49, 117, 64, 148
-0.997932, 211, 13, 226, 44
-0.997944, 327, 65, 342, 96
-0.997952, 81, 121, 96, 152
-0.997953, 191, 21, 206, 52
-0.997954, 131, 61, 146, 92
-0.997959, 105, 77, 120, 108
-0.99796, 381, 249, 396, 280
-0.997964, 155, 49, 170, 80
-0.997966, 289, 73, 304, 104
-0.997969, 147, 53, 162, 84
-0.997969, 459, 57, 474, 88
-0.997973, 83, 93, 98, 124
-0.997974, 43, 121, 58, 152
-0.997976, 229, 1, 244, 32
-0.997981, 277, 77, 292, 108
-0.997983, 473, 61, 488, 92
-0.997989, 165, 45, 180, 76
-0.997992, 55, 113, 70, 144
-0.997993, 171, 117, 186, 148
-0.997995, 305, 249, 432, 280
-0.997997, 15, 25, 30, 56
-0.997999, 19, 57, 34, 88
-0.998, 289, 1, 320, 256
-0.998001, 203, 17, 218, 48
-0.998002, 207, 93, 222, 124
-0.998003, 225, 173, 240, 204
-0.998007, 47, 1, 62, 32
-0.99801, 93, 17, 108, 48
-0.998011, 265, 189, 280, 220
-0.998014, 179, 41, 194, 72
-0.998014, 57, 305, 72, 336
-0.998026, 105, 241, 168, 368
-0.998083, 1, 153, 128, 184
-0.998098, 41, 33, 72, 288
-0.9981, 289, 221, 416, 252
-0.998109, 181, 1, 212, 256
-0.998125, 241, 313, 368, 344
-0.998127, 209, 113, 336, 144
-0.998144, 169, 97, 200, 352
-0.998152, 97, 177, 224, 208
-0.998167, 181, 97, 212, 352
-0.998222, 273, 81, 400, 112
-0.99823, 225, 49, 352, 80
-0.998251, 209, 13, 336, 44
-0.99826, 305, 345, 432, 375
-0.998267, 161, 133, 288, 164
-0.998269, 337, 133, 464, 164
-0.998285, 29, 97, 60, 352
-0.998296, 209, 221, 336, 252
-0.9983, 385, 129, 416, 375
-0.998306, 281, 177, 312, 304
-0.998336, 101, 1, 116, 128
-0.998337, 97, 153, 224, 184
-0.998408, 1, 165, 128, 196
-0.998416, 25, 1, 88, 16
-0.998418, 433, 55, 464, 70
-0.998418, 53, 1, 84, 16
-0.998419, 37, 305, 68, 320
-0.998419, 177, 293, 208, 308
-0.99842, 257, 73, 288, 88
-0.99842, 193, 17, 224, 32
-0.99842, 385, 241, 416, 256
-0.99842, 5, 23, 36, 38
-0.998421, 421, 53, 452, 68
-0.998422, 393, 223, 424, 238
-0.998422, 101, 67, 132, 82
-0.998424, 137, 15, 168, 30
-0.998424, 217, 9, 248, 24
-0.998426, 181, 21, 212, 36
-0.998426, 165, 119, 196, 134
-0.998427, 141, 37, 172, 52
-0.998427, 221, 33, 252, 48
-0.998428, 289, 181, 320, 196
-0.998428, 113, 281, 240, 312
-0.998428, 13, 91, 44, 106
-0.998429, 73, 99, 104, 114
-0.998429, 65, 315, 96, 330
-0.99843, 145, 261, 272, 292
-0.99843, 381, 291, 412, 306
-0.99843, 49, 303, 80, 318
-0.998431, 113, 71, 144, 86
-0.998431, 5, 119, 36, 134
-0.998432, 449, 59, 480, 74
-0.998432, 205, 13, 236, 28
-0.998433, 81, 147, 112, 162
-0.998433, 25, 265, 56, 280
-0.998434, 89, 155, 120, 170
-0.998434, 469, 65, 500, 80
-0.998435, 1, 85, 32, 100
-0.998435, 257, 3, 288, 18
-0.998435, 281, 197, 312, 212
-0.998435, 257, 189, 288, 204
-0.998436, 1, 127, 64, 142
-0.998437, 389, 231, 420, 246
-0.998438, 1, 159, 32, 174
-0.998438, 289, 83, 320, 98
-0.998438, 81, 93, 112, 108
-0.998438, 69, 1, 100, 16
-0.998438, 301, 179, 332, 194
-0.998443, 33, 285, 64, 300
-0.998445, 361, 65, 392, 80
-0.998445, 101, 5, 132, 20
-0.998448, 209, 35, 240, 50
-0.998449, 269, 193, 300, 208
-0.998449, 17, 139, 48, 154
-0.998449, 129, 43, 160, 58
-0.998449, 233, 7, 264, 22
-0.99845, 105, 77, 136, 92
-0.99845, 113, 41, 144, 56
-0.99845, 157, 47, 188, 62
-0.99845, 249, 81, 280, 96
-0.998453, 77, 21, 108, 36
-0.998454, 89, 87, 120, 102
-0.998454, 401, 213, 432, 228
-0.998454, 9, 89, 72, 104
-0.998456, 29, 275, 60, 290
-0.998457, 45, 317, 76, 332
-0.998457, 41, 91, 72, 106
-0.998457, 129, 31, 160, 46
-0.998458, 49, 105, 80, 120
-0.998459, 357, 157, 388, 172
-0.998459, 181, 39, 212, 54
-0.998462, 125, 49, 156, 64
-0.998463, 37, 297, 68, 312
-0.998464, 25, 105, 88, 120
-0.998466, 1, 127, 32, 142
-0.998467, 65, 1, 128, 16
-0.998468, 25, 1, 56, 16
-0.99847, 193, 37, 224, 52
-0.99847, 365, 287, 396, 302
-0.998471, 105, 15, 136, 30
-0.998472, 25, 125, 88, 140
-0.998474, 13, 29, 44, 44
-0.998474, 1, 115, 64, 130
-0.998475, 265, 81, 328, 96
-0.998477, 193, 85, 224, 100
-0.998478, 309, 185, 340, 200
-0.99848, 177, 115, 208, 130
-0.99848, 289, 77, 352, 92
-0.99848, 81, 73, 144, 88
-0.998482, 225, 191, 256, 206
-0.998482, 401, 207, 432, 222
-0.998483, 401, 191, 432, 206
-0.998483, 369, 29, 496, 60
-0.998484, 105, 29, 168, 44
-0.998484, 81, 77, 112, 92
-0.998484, 25, 125, 56, 140
-0.998485, 417, 171, 448, 186
-0.998485, 169, 43, 200, 58
-0.998486, 193, 1, 256, 16
-0.998486, 209, 93, 240, 108
-0.998486, 65, 85, 128, 100
-0.998487, 17, 97, 80, 112
-0.998487, 337, 67, 400, 82
-0.998488, 25, 135, 88, 150
-0.998488, 293, 187, 324, 202
-0.99849, 105, 59, 168, 74
-0.998492, 349, 67, 380, 82
-0.998493, 49, 101, 112, 116
-0.998494, 49, 309, 80, 324
-0.998494, 237, 195, 268, 210
-0.998495, 113, 55, 144, 70
-0.998495, 89, 37, 152, 52
-0.998495, 81, 3, 112, 18
-0.998496, 233, 77, 296, 92
-0.998497, 17, 23, 48, 38
-0.998497, 313, 71, 376, 86
-0.998498, 89, 67, 152, 82
-0.9985, 95, 1, 110, 128
-0.9985, 21, 119, 52, 134
-0.998502, 113, 51, 176, 66
-0.998503, 73, 79, 136, 94
-0.998503, 281, 185, 344, 200
-0.998504, 1, 1, 64, 16
-0.998504, 313, 73, 344, 88
-0.998505, 41, 95, 104, 110
-0.998505, 213, 1, 244, 16
-0.998505, 73, 83, 104, 98
-0.998505, 337, 69, 368, 84
-0.998506, 41, 1, 72, 16
-0.998506, 61, 9, 92, 24
-0.998506, 89, 69, 120, 84
-0.998507, 281, 189, 312, 204
-0.998508, 53, 93, 84, 108
-0.998508, 377, 231, 440, 246
-0.998508, 129, 19, 192, 34
-0.998509, 129, 37, 192, 52
-0.99851, 93, 21, 124, 36
-0.998511, 169, 85, 232, 100
-0.998511, 49, 107, 112, 122
-0.998512, 217, 87, 248, 102
-0.998515, 225, 97, 352, 128
-0.998515, 33, 85, 96, 100
-0.998516, 353, 287, 416, 302
-0.998517, 213, 187, 244, 202
-0.998517, 53, 99, 84, 114
-0.998518, 17, 15, 48, 30
-0.998518, 377, 225, 440, 240
-0.99852, 1, 1, 32, 16
-0.998521, 65, 89, 96, 104
-0.998522, 193, 187, 256, 202
-0.998523, 209, 77, 272, 92
-0.998523, 241, 71, 304, 86
-0.998524, 101, 61, 132, 76
-0.998524, 5, 61, 36, 76
-0.998524, 325, 71, 356, 86
-0.998525, 25, 7, 88, 22
-0.998525, 265, 79, 296, 94
-0.998526, 369, 249, 432, 264
-0.998527, 209, 7, 272, 22
-0.998528, 117, 21, 148, 36
-0.998528, 129, 165, 256, 196
-0.998529, 49, 161, 176, 192
-0.998529, 301, 73, 332, 88
-0.99853, 193, 35, 256, 50
-0.998531, 113, 43, 176, 58
-0.998531, 401, 201, 432, 216
-0.998531, 85, 13, 116, 28
-0.998533, 5, 133, 36, 148
-0.998534, 41, 113, 104, 128
-0.998535, 5, 143, 36, 158
-0.998535, 33, 119, 96, 134
-0.998536, 369, 255, 432, 270
-0.998536, 225, 1, 256, 16
-0.998537, 29, 113, 60, 128
-0.998538, 1, 31, 64, 46
-0.998538, 361, 269, 424, 284
-0.998539, 113, 31, 144, 46
-0.998539, 361, 275, 424, 290
-0.998539, 97, 17, 160, 32
-0.998539, 89, 353, 152, 368
-0.99854, 169, 115, 232, 130
-0.99854, 17, 133, 48, 148
-0.99854, 87, 1, 102, 128
-0.998542, 25, 85, 56, 100
-0.998542, 121, 361, 184, 375
-0.998545, 73, 19, 136, 34
-0.998547, 37, 107, 68, 122
-0.998547, 225, 1, 288, 16
-0.998548, 1, 133, 64, 148
-0.99855, 89, 53, 152, 68
-0.998551, 177, 107, 240, 122
-0.998551, 89, 7, 152, 22
-0.998553, 277, 77, 308, 92
-0.998553, 265, 75, 328, 90
-0.998553, 377, 237, 440, 252
-0.998553, 9, 23, 72, 38
-0.998554, 353, 293, 416, 308
-0.998555, 273, 261, 400, 292
-0.998556, 131, 1, 146, 128
-0.998556, 361, 263, 424, 278
-0.998556, 185, 109, 216, 124
-0.998557, 1, 109, 64, 124
-0.998558, 385, 207, 448, 222
-0.998559, 249, 179, 312, 194
-0.998559, 369, 243, 432, 258
-0.99856, 377, 217, 440, 232
-0.99856, 201, 187, 232, 202
-0.99856, 25, 77, 88, 92
-0.998561, 57, 7, 120, 22
-0.998562, 161, 91, 224, 106
-0.998562, 233, 187, 296, 202
-0.998563, 161, 45, 224, 60
-0.998563, 81, 61, 144, 76
-0.998563, 225, 233, 352, 264
-0.998564, 169, 293, 232, 308
-0.998565, 49, 79, 112, 94
-0.998565, 1, 83, 64, 98
-0.998565, 107, 1, 122, 128
-0.998565, 81, 91, 144, 106
-0.998566, 193, 85, 256, 100
-0.998568, 17, 65, 32, 192
-0.998568, 353, 281, 416, 296
-0.998568, 237, 79, 268, 94
-0.99857, 201, 97, 264, 112
-0.998572, 129, 59, 192, 74
-0.998574, 289, 77, 320, 92
-0.998575, 305, 25, 432, 56
-0.998575, 65, 67, 128, 82
-0.998575, 217, 33, 280, 48
-0.998578, 153, 31, 216, 46
-0.998579, 145, 51, 208, 66
-0.99858, 249, 1, 312, 16
-0.998581, 417, 167, 480, 182
-0.998582, 193, 233, 256, 248
-0.998582, 41, 13, 104, 28
-0.998583, 81, 25, 144, 40
-0.998584, 233, 83, 296, 98
-0.998584, 1, 103, 64, 118
-0.998584, 73, 13, 136, 28
-0.998585, 425, 59, 488, 74
-0.998586, 121, 65, 184, 80
-0.998586, 89, 1, 152, 16
-0.998589, 289, 71, 352, 86
-0.998589, 177, 101, 240, 116
-0.99859, 57, 73, 120, 88
-0.99859, 105, 73, 168, 88
-0.998591, 377, 171, 440, 186
-0.998591, 81, 43, 144, 58
-0.998593, 417, 1, 480, 16
-0.998594, 345, 157, 408, 172
-0.998594, 129, 95, 192, 110
-0.998595, 345, 311, 408, 326
-0.998595, 1, 63, 64, 78
-0.998597, 329, 39, 392, 54
-0.998597, 377, 47, 440, 62
-0.998597, 201, 91, 264, 106
-0.998598, 297, 63, 360, 78
-0.998598, 29, 33, 44, 160
-0.998599, 289, 179, 352, 194
-0.9986, 89, 85, 152, 100
-0.9986, 373, 129, 404, 375
-0.9986, 1, 121, 64, 136
-0.998602, 169, 39, 232, 54
-0.998602, 73, 31, 136, 46
-0.998602, 193, 13, 256, 28
-0.998603, 81, 345, 144, 360
-0.998603, 169, 299, 232, 314
-0.998604, 337, 329, 400, 344
-0.998605, 97, 79, 160, 94
-0.998605, 353, 43, 416, 58
-0.998607, 361, 177, 424, 192
-0.998607, 217, 181, 280, 196
-0.998608, 105, 347, 168, 362
-0.998609, 73, 97, 136, 112
-0.998609, 161, 25, 224, 40
-0.998611, 65, 319, 128, 334
-0.998617, 245, 73, 276, 88
-0.998637, 255, 17, 270, 144
-0.998638, 13, 83, 44, 98
-0.998645, 189, 1, 204, 128
-0.998655, 241, 97, 272, 352
-0.998655, 13, 127, 44, 142
-0.998664, 117, 97, 148, 352
-0.998683, 93, 65, 108, 192
-0.99869, 75, 1, 90, 128
-0.998692, 183, 1, 198, 128
-0.998695, 157, 1, 172, 128
-0.998705, 49, 129, 80, 375
-0.998713, 113, 17, 128, 144
-0.998714, 125, 17, 140, 144
-0.998717, 149, 1, 164, 128
-0.998722, 269, 177, 300, 304
-0.99874, 21, 1, 36, 128
-0.998749, 195, 17, 210, 144
-0.998752, 81, 1, 96, 128
-0.998756, 129, 237, 256, 268
-0.998761, 257, 81, 500, 144
-0.998766, 81, 249, 208, 280
-0.998769, 245, 1, 260, 128
-0.998785, 23, 49, 38, 176
-0.998789, 11, 65, 26, 192
-0.998795, 157, 129, 188, 375
-0.998797, 31, 81, 46, 208
-0.998799, 101, 129, 132, 375
-0.998804, 119, 17, 134, 144
-0.998814, 69, 1, 84, 128
-0.998816, 145, 153, 272, 184
-0.998827, 77, 49, 92, 176
-0.998833, 485, 1, 500, 128
-0.998835, 99, 49, 114, 176
-0.998845, 141, 33, 156, 160
-0.998854, 105, 49, 120, 176
-0.998861, 129, 129, 160, 375
-0.998862, 21, 113, 36, 240
-0.998864, 313, 145, 328, 272
-0.998874, 425, 145, 440, 272
-0.998875, 397, 193, 412, 320
-0.998875, 163, 1, 178, 128
-0.998889, 329, 17, 344, 144
-0.99889, 273, 133, 400, 164
-0.998905, 57, 33, 72, 160
-0.998914, 171, 1, 186, 128
-0.99892, 319, 145, 334, 272
-0.998921, 225, 17, 240, 144
-0.998921, 345, 177, 376, 304
-0.998925, 157, 145, 188, 272
-0.998925, 385, 225, 400, 352
-0.998927, 205, 17, 220, 144
-0.998928, 221, 161, 236, 288
-0.998941, 87, 49, 102, 176
-0.998945, 353, 81, 480, 112
-0.998945, 265, 17, 280, 144
-0.998958, 289, 149, 416, 180
-0.998966, 315, 17, 330, 144
-0.998977, 35, 1, 50, 128
-0.998978, 41, 241, 56, 368
-0.99898, 69, 65, 84, 192
-0.998988, 3, 97, 18, 224
-0.99899, 227, 97, 242, 224
-0.998997, 165, 49, 180, 176
-0.998997, 175, 49, 190, 176
-0.998999, 391, 209, 406, 336
-0.998999, 201, 97, 232, 352
-0.999003, 335, 17, 350, 144
-0.99902, 301, 97, 332, 352
-0.999021, 37, 81, 52, 208
-0.999031, 285, 17, 300, 144
-0.999035, 321, 17, 336, 144
-0.999039, 307, 145, 322, 272
-0.999041, 301, 17, 316, 144
-0.999045, 235, 1, 250, 128
-0.999046, 79, 97, 94, 224
-0.999049, 441, 145, 456, 272
-0.99905, 149, 49, 164, 176
-0.999053, 185, 49, 200, 176
-0.999056, 177, 1, 192, 128
-0.999061, 403, 177, 418, 304
-0.999064, 213, 17, 228, 144
-0.999067, 13, 113, 28, 240
-0.999073, 435, 145, 450, 272
-0.999073, 63, 1, 78, 128
-0.999085, 73, 161, 136, 288
-0.999092, 219, 1, 234, 128
-0.999095, 101, 97, 116, 224
-0.999103, 379, 241, 394, 368
-0.999105, 341, 17, 356, 144
-0.999112, 431, 97, 446, 224
-0.999116, 155, 49, 170, 176
-0.999117, 61, 97, 92, 352
-0.999119, 51, 65, 66, 192
-0.999127, 229, 97, 260, 352
-0.999128, 41, 1, 56, 128
-0.999129, 191, 65, 206, 192
-0.99913, 123, 65, 138, 192
-0.999134, 279, 17, 294, 144
-0.999135, 217, 97, 248, 352
-0.999139, 215, 161, 230, 288
-0.999144, 293, 17, 308, 144
-0.999159, 369, 241, 384, 368
-0.999173, 347, 17, 362, 144
-0.999177, 197, 81, 212, 208
-0.999182, 325, 161, 340, 288
-0.999182, 47, 225, 62, 352
-0.999183, 15, 17, 30, 144
-0.999193, 479, 65, 494, 192
-0.999198, 133, 65, 148, 192
-0.999207, 85, 97, 100, 224
-0.999208, 479, 1, 494, 128
-0.999208, 437, 97, 452, 224
-0.999215, 1, 49, 16, 176
-0.999218, 357, 17, 372, 144
-0.999218, 273, 17, 288, 144
-0.999226, 109, 97, 124, 224
-0.999227, 459, 49, 474, 176
-0.999231, 137, 145, 168, 272
-0.999232, 441, 33, 456, 160
-0.99924, 429, 33, 444, 160
-0.999243, 221, 113, 236, 240
-0.999246, 145, 97, 176, 352
-0.999248, 309, 17, 324, 144
-0.999252, 45, 81, 60, 208
-0.999255, 453, 65, 468, 192
-0.999259, 471, 1, 486, 128
-0.999262, 49, 1, 64, 128
-0.999266, 95, 113, 110, 240
-0.999279, 407, 33, 422, 160
-0.999282, 63, 65, 78, 192
-0.999284, 461, 145, 476, 272
-0.999285, 453, 1, 468, 128
-0.999286, 421, 33, 436, 160
-0.999286, 473, 65, 488, 192
-0.999293, 201, 161, 216, 288
-0.999293, 165, 97, 180, 224
-0.999294, 425, 97, 440, 224
-0.999295, 447, 145, 462, 272
-0.999302, 417, 177, 432, 304
-0.999304, 139, 81, 154, 208
-0.999305, 477, 145, 492, 272
-0.999309, 81, 97, 112, 352
-0.999311, 459, 1, 474, 128
-0.999318, 455, 145, 470, 272
-0.999318, 471, 145, 486, 272
-0.999321, 485, 145, 500, 272
-0.999333, 467, 49, 482, 176
-0.999335, 227, 145, 242, 272
-0.999336, 447, 65, 462, 192
-0.999337, 401, 33, 416, 160
-0.999352, 361, 129, 392, 375
-0.999621, 115, 57, 130, 72
-0.999622, 89, 21, 104, 36
-0.999622, 87, 11, 102, 26
-0.999622, 9, 139, 24, 154
-0.999623, 485, 67, 500, 82
-0.999623, 237, 191, 252, 206
-0.999626, 101, 21, 116, 36
-0.999627, 99, 3, 114, 18
-0.999627, 391, 231, 406, 246
-0.999627, 69, 311, 84, 326
-0.999628, 19, 127, 34, 142
-0.999628, 233, 97, 248, 112
-0.999628, 265, 241, 328, 368
-0.999629, 127, 39, 142, 54
-0.999629, 25, 87, 40, 102
-0.99963, 395, 223, 410, 238
-0.99963, 289, 191, 304, 206
-0.999631, 19, 119, 34, 134
-0.999631, 193, 39, 208, 54
-0.999631, 117, 69, 132, 84
-0.999632, 121, 53, 136, 68
-0.999633, 403, 209, 418, 224
-0.999633, 177, 43, 192, 58
-0.999633, 257, 79, 272, 94
-0.999634, 21, 59, 36, 74
-0.999634, 185, 107, 200, 122
-0.999635, 45, 279, 60, 294
-0.999635, 185, 41, 200, 56
-0.999635, 219, 167, 234, 182
-0.999635, 237, 1, 252, 16
-0.999635, 99, 67, 114, 82
-0.999635, 263, 65, 278, 80
-0.999636, 105, 3, 120, 18
-0.999636, 37, 113, 52, 128
-0.999636, 413, 185, 428, 200
-0.999636, 93, 71, 108, 86
-0.999636, 1, 1, 16, 16
-0.999636, 39, 275, 54, 290
-0.999637, 127, 21, 142, 36
-0.999637, 163, 47, 178, 62
-0.999638, 109, 61, 124, 76
-0.999638, 67, 7, 82, 22
-0.999639, 59, 313, 74, 328
-0.999639, 345, 69, 360, 84
-0.999639, 127, 63, 142, 78
-0.99964, 171, 45, 186, 60
-0.99964, 13, 83, 28, 98
-0.99964, 225, 189, 240, 204
-0.999642, 405, 203, 420, 218
-0.999642, 83, 23, 98, 38
-0.999643, 423, 177, 438, 192
-0.999643, 63, 1, 78, 16
-0.999643, 59, 97, 74, 112
-0.999644, 241, 79, 256, 94
-0.999645, 87, 75, 102, 90
-0.999645, 81, 79, 96, 94
-0.999645, 171, 117, 186, 132
-0.999646, 49, 107, 64, 122
-0.999647, 333, 71, 348, 86
-0.999647, 17, 91, 32, 106
-0.999647, 3, 161, 18, 176
-0.999648, 357, 161, 372, 176
-0.999648, 351, 67, 366, 82
-0.999648, 141, 57, 156, 72
-0.999649, 93, 147, 108, 162
-0.99965, 299, 77, 314, 92
-0.999651, 47, 285, 62, 300
-0.999652, 21, 31, 36, 46
-0.999653, 135, 59, 150, 74
-0.999655, 111, 17, 126, 32
-0.999656, 49, 293, 64, 308
-0.999656, 147, 53, 162, 68
-0.999656, 211, 189, 226, 204
-0.999656, 73, 85, 88, 100
-0.999656, 107, 23, 122, 38
-0.999657, 83, 159, 98, 174
-0.999658, 221, 7, 236, 22
-0.999658, 37, 269, 52, 284
-0.999659, 21, 13, 36, 28
-0.999659, 233, 85, 248, 100
-0.999659, 295, 189, 310, 204
-0.99966, 65, 91, 80, 106
-0.99966, 53, 305, 68, 320
-0.999661, 287, 151, 302, 166
-0.999661, 157, 49, 172, 64
-0.999662, 51, 299, 66, 314
-0.999663, 7, 131, 22, 146
-0.999663, 39, 261, 54, 276
-0.999665, 53, 101, 68, 116
-0.999665, 259, 201, 274, 216
-0.999667, 21, 21, 36, 36
-0.999667, 43, 109, 58, 124
-0.99967, 49, 91, 64, 106
-0.999671, 177, 111, 192, 126
-0.999674, 311, 75, 326, 90
-0.999675, 339, 69, 354, 84
-0.999676, 1, 63, 16, 78
-0.999677, 117, 21, 132, 36
-0.999677, 31, 83, 46, 98
-0.999685, 51, 1, 66, 16
-0.999686, 287, 79, 302, 94
-0.999686, 253, 195, 268, 210
-0.999687, 327, 71, 342, 86
-0.999689, 73, 5, 88, 20
-0.999691, 85, 5, 100, 20
-0.999691, 263, 77, 278, 92
-0.999692, 201, 187, 216, 202
-0.999692, 361, 155, 376, 170
-0.999695, 293, 77, 308, 92
-0.999695, 317, 73, 332, 88
-0.9997, 13, 127, 28, 142
-0.999704, 345, 129, 376, 375
-0.999706, 273, 81, 288, 96
-0.999707, 133, 19, 148, 34
-0.99971, 281, 79, 296, 94
-0.99971, 191, 109, 206, 124
-0.999712, 19, 133, 34, 148
-0.999713, 247, 77, 262, 92
-0.999716, 1, 149, 16, 164
-0.999722, 41, 1, 56, 16
-0.999722, 305, 75, 320, 90
-0.999727, 25, 81, 40, 96
-0.999728, 117, 31, 132, 46
-0.999731, 229, 1, 244, 16
-0.999732, 25, 125, 40, 140
-0.999748, 19, 83, 34, 98
-0.999759, 217, 187, 232, 202
-0.999761, 257, 67, 272, 82
-0.999785, 177, 117, 192, 132
-0.999798, 185, 113, 200, 128
-0.999804, 419, 171, 434, 186
-0.999853, 253, 73, 268, 88
-0.9999, 313, 97, 344, 352
-0.999921, 289, 97, 320, 352
-1.00013, 121, 177, 184, 304
-1.00016, 325, 129, 356, 375
-1.00017, 261, 97, 292, 352
-1.00038, 257, 105, 500, 168
-1.001, 277, 129, 308, 375
-1.00145, 433, 241, 496, 368
-1.00233, 433, 193, 496, 320
