1891
-0.703626, 1, 33, 500, 288
-0.780781, 161, 1, 416, 336
-0.80934, 1, 1, 500, 336
-0.832121, 65, 1, 320, 336
-0.836194, 257, 1, 500, 336
-0.892569, 97, 65, 352, 320
-0.920928, 225, 65, 480, 320
-0.929971, 209, 1, 336, 336
-0.93877, 225, 65, 352, 320
-0.941101, 273, 1, 400, 336
-0.942433, 161, 1, 288, 336
-0.948779, 273, 65, 400, 320
-0.953087, 225, 193, 352, 320
-0.954549, 129, 193, 384, 320
-0.95589, 177, 65, 304, 320
-0.956779, 321, 1, 448, 336
-0.958601, 1, 193, 500, 320
-0.961329, 273, 193, 336, 320
-0.962665, 321, 65, 448, 320
-0.964877, 225, 193, 480, 320
-0.964935, 113, 1, 240, 336
-0.966219, 225, 145, 480, 272
-0.966287, 129, 65, 256, 320
-0.969399, 281, 201, 344, 264
-0.969517, 241, 193, 304, 320
-0.971034, 129, 145, 384, 272
-0.972175, 1, 145, 500, 272
-0.972313, 241, 145, 368, 272
-0.972449, 369, 1, 496, 336
-0.973129, 273, 193, 400, 320
-0.974971, 1, 97, 500, 224
-0.975929, 257, 185, 320, 248
-0.976415, 289, 169, 352, 232
-0.976477, 177, 193, 304, 320
-0.977385, 241, 145, 304, 272
-0.977455, 297, 161, 360, 288
-0.977588, 65, 1, 192, 336
-0.977636, 273, 225, 336, 288
-0.97868, 33, 193, 288, 320
-0.980248, 17, 1, 144, 336
-0.980272, 225, 209, 352, 272
-0.980542, 305, 201, 368, 264
-0.980616, 313, 209, 376, 336
-0.980814, 193, 129, 320, 256
-0.980905, 81, 65, 208, 320
-0.983239, 1, 49, 500, 176
-0.983301, 369, 33, 496, 288
-0.983445, 241, 209, 304, 272
-0.983493, 289, 145, 416, 272
-0.983602, 217, 193, 280, 320
-0.983717, 305, 209, 336, 272
-0.984516, 301, 193, 332, 320
-0.985332, 257, 249, 320, 312
-0.98553, 33, 145, 288, 272
-0.98559, 225, 185, 352, 248
-0.985787, 317, 201, 348, 264
-0.985839, 225, 97, 480, 224
-0.986049, 225, 233, 352, 296
-0.986444, 289, 193, 320, 320
-0.986651, 273, 145, 336, 272
-0.986726, 217, 145, 280, 272
-0.986899, 281, 249, 344, 312
-0.987149, 313, 233, 376, 296
-0.987178, 273, 193, 400, 256
-0.987451, 293, 201, 324, 264
-0.98783, 257, 161, 320, 224
-0.988018, 65, 97, 320, 224
-0.988176, 301, 169, 332, 232
-0.988957, 233, 185, 296, 248
-0.989169, 273, 241, 400, 304
-0.989371, 145, 145, 272, 272
-0.98952, 217, 217, 280, 280
-0.989581, 225, 161, 352, 224
-0.98973, 321, 193, 352, 320
-0.989733, 249, 193, 280, 320
-0.989843, 1, 1, 500, 128
-0.98992, 273, 217, 400, 280
-0.990366, 161, 193, 288, 256
-0.990564, 313, 161, 376, 224
-0.990636, 273, 193, 304, 320
-0.990667, 33, 65, 160, 320
-0.990683, 313, 169, 344, 232
-0.990902, 225, 145, 288, 208
-0.991071, 277, 201, 308, 264
-0.991146, 273, 169, 400, 232
-0.99118, 233, 241, 296, 304
-0.991376, 273, 273, 336, 336
-0.991393, 177, 217, 304, 280
-0.991469, 321, 193, 448, 320
-0.991476, 241, 97, 368, 224
-0.991601, 297, 213, 360, 244
-0.991606, 265, 137, 328, 200
-0.991695, 265, 205, 328, 236
-0.991876, 321, 161, 384, 288
-0.991999, 313, 145, 344, 272
-0.99203, 297, 201, 360, 232
-0.992185, 289, 65, 352, 320
-0.992194, 225, 257, 352, 320
-0.992219, 209, 193, 272, 256
-0.992275, 273, 249, 336, 280
-0.992309, 273, 233, 336, 264
-0.992322, 273, 193, 336, 224
-0.992479, 249, 193, 312, 224
-0.992513, 273, 169, 336, 200
-0.9926, 285, 233, 316, 296
-0.992635, 241, 65, 304, 320
-0.992729, 297, 169, 360, 200
-0.992749, 249, 181, 312, 212
-0.992755, 301, 233, 332, 296
-0.992811, 273, 221, 336, 252
-0.992826, 321, 233, 384, 264
-0.992838, 273, 261, 336, 292
-0.992869, 241, 245, 304, 276
-0.992918, 241, 213, 304, 244
-0.992992, 329, 209, 360, 272
-0.992998, 261, 209, 292, 336
-0.993036, 249, 225, 312, 256
-0.993067, 273, 145, 400, 208
-0.993117, 317, 201, 348, 232
-0.99312, 297, 209, 328, 240
-0.993122, 241, 261, 304, 292
-0.993137, 209, 169, 272, 232
-0.993146, 289, 181, 352, 212
-0.99316, 273, 273, 336, 304
-0.993184, 233, 165, 296, 196
-0.993203, 257, 145, 288, 272
-0.993206, 209, 209, 272, 240
-0.993246, 285, 205, 316, 236
-0.993246, 309, 217, 340, 248
-0.993251, 297, 193, 328, 224
-0.993252, 297, 225, 360, 256
-0.993322, 265, 157, 328, 188
-0.993331, 209, 181, 272, 212
-0.993341, 225, 193, 288, 224
-0.993343, 225, 153, 288, 184
-0.99335, 289, 225, 320, 256
-0.993364, 225, 229, 288, 260
-0.993386, 297, 237, 360, 268
-0.993388, 313, 157, 376, 188
-0.993432, 305, 165, 336, 196
-0.993449, 177, 161, 304, 224
-0.993472, 313, 257, 376, 288
-0.993473, 305, 233, 336, 264
-0.99349, 329, 233, 360, 264
-0.993507, 325, 213, 356, 244
-0.993518, 277, 225, 308, 256
-0.993542, 249, 273, 312, 304
-0.993552, 217, 241, 280, 272
-0.993569, 273, 237, 304, 268
-0.993574, 285, 193, 316, 224
-0.993586, 305, 269, 368, 300
-0.993616, 273, 209, 304, 240
-0.993626, 265, 257, 296, 288
-0.993627, 301, 181, 332, 212
-0.993629, 313, 149, 344, 180
-0.993632, 253, 189, 284, 220
-0.99364, 257, 213, 288, 244
-0.993654, 245, 241, 276, 272
-0.993659, 293, 169, 324, 200
-0.993673, 285, 249, 316, 280
-0.993673, 313, 189, 376, 220
-0.993676, 289, 237, 320, 268
-0.993684, 281, 177, 312, 208
-0.993692, 241, 209, 272, 240
-0.993694, 269, 185, 300, 216
-0.993696, 317, 165, 348, 196
-0.993699, 233, 189, 264, 220
-0.993699, 329, 213, 392, 244
-0.993706, 257, 165, 288, 196
-0.993709, 269, 173, 300, 204
-0.993713, 65, 245, 128, 276
-0.993722, 273, 197, 304, 228
-0.993735, 301, 273, 332, 304
-0.993747, 261, 245, 292, 276
-0.993749, 321, 201, 384, 232
-0.99375, 321, 257, 352, 288
-0.993752, 225, 141, 288, 172
-0.993753, 325, 245, 356, 276
-0.993754, 301, 257, 332, 288
-0.993756, 229, 217, 260, 248
-0.993758, 289, 277, 320, 308
-0.993759, 257, 225, 288, 256
-0.993765, 321, 233, 352, 296
-0.993765, 305, 245, 336, 276
-0.993766, 313, 177, 344, 208
-0.99377, 209, 169, 272, 200
-0.993778, 229, 201, 260, 232
-0.993779, 317, 189, 348, 220
-0.993784, 233, 177, 264, 208
-0.993788, 313, 269, 344, 300
-0.993788, 277, 273, 308, 304
-0.993797, 217, 253, 280, 284
-0.993801, 225, 229, 256, 260
-0.993803, 337, 221, 368, 252
-0.993809, 253, 201, 284, 232
-0.993822, 221, 177, 252, 208
-0.993825, 221, 189, 252, 220
-0.993826, 245, 221, 276, 252
-0.993828, 57, 233, 120, 264
-0.993831, 281, 261, 312, 292
-0.993838, 281, 145, 344, 176
-0.993844, 221, 165, 252, 196
-0.993844, 317, 233, 348, 264
-0.993849, 333, 145, 364, 176
-0.99385, 333, 161, 364, 192
-0.993851, 245, 177, 276, 208
-0.99387, 281, 161, 312, 192
-0.99387, 253, 185, 284, 248
-0.993873, 225, 241, 256, 272
-0.993878, 257, 177, 288, 208
-0.993882, 257, 153, 288, 184
-0.993883, 329, 185, 360, 216
-0.993884, 221, 145, 252, 176
-0.993895, 69, 237, 100, 268
-0.993905, 289, 157, 352, 188
-0.993907, 341, 233, 372, 264
-0.993913, 241, 165, 272, 196
-0.993918, 265, 269, 296, 300
-0.993927, 329, 201, 360, 232
-0.993931, 245, 265, 276, 296
-0.99394, 81, 249, 112, 280
-0.993941, 217, 209, 248, 240
-0.993946, 249, 253, 280, 284
-0.993947, 321, 225, 448, 288
-0.993948, 345, 209, 376, 240
-0.99395, 225, 133, 256, 164
-0.993968, 201, 221, 264, 252
-0.993968, 201, 149, 264, 180
-0.993969, 225, 253, 256, 284
-0.993974, 241, 137, 272, 168
-0.993974, 81, 233, 112, 264
-0.993982, 241, 153, 272, 184
-0.993985, 217, 265, 280, 296
-0.993985, 349, 221, 380, 252
-0.993987, 341, 197, 372, 228
-0.993994, 201, 177, 232, 208
-0.993995, 313, 137, 344, 168
-0.993997, 209, 221, 240, 252
-0.994005, 225, 129, 288, 160
-0.994006, 201, 197, 232, 228
-0.99401, 225, 113, 256, 144
-0.994013, 93, 245, 124, 276
-0.994014, 201, 149, 232, 180
-0.994017, 253, 141, 284, 172
-0.994018, 329, 173, 360, 204
-0.994019, 61, 253, 92, 284
-0.994021, 81, 233, 144, 264
-0.994024, 209, 233, 240, 264
-0.994026, 329, 133, 360, 164
-0.994026, 205, 117, 236, 148
-0.994026, 201, 165, 232, 196
-0.99403, 273, 149, 304, 180
-0.994031, 201, 137, 264, 168
-0.994031, 201, 209, 232, 240
-0.994036, 237, 253, 268, 284
-0.994041, 205, 133, 236, 164
-0.994042, 297, 145, 328, 272
-0.99405, 97, 261, 128, 292
-0.994053, 241, 125, 272, 156
-0.994054, 81, 221, 112, 252
-0.994055, 301, 153, 332, 184
-0.994057, 321, 137, 384, 168
-0.994058, 357, 233, 388, 264
-0.994061, 253, 277, 284, 308
-0.994062, 313, 121, 344, 152
-0.994062, 269, 161, 300, 192
-0.994069, 49, 245, 80, 276
-0.99407, 361, 221, 392, 252
-0.994071, 313, 281, 344, 312
-0.994072, 389, 221, 420, 252
-0.994073, 205, 105, 236, 136
-0.994074, 225, 101, 256, 132
-0.994075, 301, 285, 332, 316
-0.99408, 93, 233, 124, 264
-0.994081, 389, 193, 420, 224
-0.994082, 253, 129, 284, 160
-0.994083, 253, 117, 284, 148
-0.994085, 269, 137, 300, 168
-0.994087, 233, 265, 264, 296
-0.994087, 273, 285, 304, 316
-0.994091, 377, 229, 408, 260
-0.994099, 209, 245, 240, 276
-0.994105, 105, 245, 136, 276
-0.994106, 65, 225, 96, 256
-0.994109, 389, 233, 420, 264
-0.994111, 241, 113, 272, 144
-0.994114, 193, 245, 256, 276
-0.994118, 185, 125, 216, 156
-0.99412, 205, 93, 236, 124
-0.994121, 349, 173, 380, 204
-0.99413, 209, 137, 336, 200
-0.994182, 265, 125, 328, 156
-0.994199, 257, 145, 320, 176
-0.994218, 185, 161, 248, 192
-0.994221, 225, 117, 288, 148
-0.994228, 321, 245, 384, 276
-0.994247, 193, 197, 256, 228
-0.994264, 269, 145, 300, 272
-0.994265, 57, 221, 120, 252
-0.994266, 289, 177, 320, 240
-0.994274, 57, 257, 120, 288
-0.994276, 185, 181, 248, 212
-0.994276, 169, 149, 232, 180
-0.994282, 273, 285, 336, 316
-0.994282, 269, 177, 300, 240
-0.994301, 193, 233, 256, 264
-0.994302, 185, 125, 248, 156
-0.994309, 209, 101, 272, 132
-0.994315, 185, 209, 248, 240
-0.994317, 81, 221, 144, 252
-0.994351, 201, 113, 264, 144
-0.994351, 41, 245, 104, 276
-0.99437, 81, 261, 144, 292
-0.994395, 305, 125, 368, 156
-0.994398, 257, 109, 320, 140
-0.994412, 345, 233, 408, 264
-0.994422, 97, 249, 160, 280
-0.994427, 353, 221, 416, 252
-0.994436, 161, 81, 288, 208
-0.994461, 169, 137, 232, 168
-0.994461, 97, 209, 160, 240
-0.994465, 321, 177, 384, 208
-0.994484, 297, 281, 360, 312
-0.994486, 337, 157, 400, 188
-0.994494, 33, 233, 96, 264
-0.994508, 193, 257, 256, 288
-0.994523, 345, 201, 408, 232
-0.994531, 233, 105, 296, 136
-0.994534, 209, 89, 272, 120
-0.994552, 297, 113, 360, 144
-0.994554, 57, 233, 120, 296
-0.994555, 169, 113, 232, 144
-0.994557, 233, 93, 296, 124
-0.994562, 329, 193, 392, 256
-0.994569, 337, 189, 400, 220
-0.99457, 57, 209, 120, 240
-0.994572, 129, 193, 256, 320
-0.994591, 369, 233, 432, 264
-0.994599, 169, 93, 232, 124
-0.994601, 169, 193, 232, 224
-0.994604, 97, 197, 160, 228
-0.994627, 269, 233, 300, 296
-0.99464, 209, 77, 272, 108
-0.99464, 153, 161, 216, 192
-0.994666, 281, 101, 344, 132
-0.994669, 337, 121, 400, 152
-0.994672, 225, 277, 288, 308
-0.994674, 161, 125, 224, 156
-0.994679, 305, 101, 368, 132
-0.994679, 169, 225, 232, 256
-0.99468, 1, 285, 64, 316
-0.994687, 257, 97, 320, 128
-0.994687, 345, 169, 408, 200
-0.994692, 377, 217, 440, 248
-0.994692, 113, 225, 176, 256
-0.994695, 153, 173, 216, 204
-0.994698, 25, 277, 88, 308
-0.9947, 369, 197, 432, 228
-0.994711, 169, 81, 232, 112
-0.994719, 209, 57, 272, 88
-0.994719, 113, 149, 176, 180
-0.994724, 57, 197, 120, 228
-0.994734, 233, 81, 296, 112
-0.994734, 145, 137, 208, 168
-0.994747, 25, 265, 88, 296
-0.994747, 121, 129, 184, 160
-0.994748, 193, 49, 448, 176
-0.994771, 97, 185, 160, 216
-0.994776, 169, 241, 232, 272
-0.994779, 249, 285, 312, 316
-0.994783, 145, 149, 208, 180
-0.994786, 185, 69, 248, 100
-0.994786, 121, 109, 184, 140
-0.994799, 17, 245, 80, 276
-0.99481, 97, 169, 160, 200
-0.994812, 305, 89, 368, 120
-0.994812, 337, 109, 400, 140
-0.994818, 401, 245, 464, 276
-0.994831, 401, 229, 464, 260
-0.99485, 209, 241, 272, 304
-0.994874, 297, 113, 360, 240
-0.994967, 281, 1, 344, 336
-0.995246, 245, 217, 276, 280
-0.995279, 161, 137, 288, 200
-0.995395, 81, 193, 208, 320
-0.995424, 129, 217, 384, 280
-0.995452, 233, 201, 264, 264
-0.995635, 225, 113, 352, 176
-0.995637, 321, 113, 384, 240
-0.995693, 257, 97, 320, 224
-0.995702, 265, 65, 328, 320
-0.995707, 233, 177, 264, 304
-0.995734, 289, 145, 352, 208
-0.995752, 177, 241, 304, 304
-0.995865, 249, 1, 312, 336
-0.995897, 313, 137, 344, 200
-0.995972, 313, 137, 376, 200
-0.995978, 321, 201, 448, 264
-0.996098, 325, 145, 356, 272
-0.996143, 305, 257, 368, 320
-0.996164, 321, 177, 448, 240
-0.996172, 257, 161, 288, 224
-0.996183, 209, 121, 272, 184
-0.996184, 225, 209, 480, 272
-0.996204, 209, 1, 272, 336
-0.996285, 209, 97, 272, 224
-0.996328, 273, 265, 400, 328
-0.996367, 225, 233, 352, 264
-0.996381, 333, 193, 364, 320
-0.996389, 245, 145, 276, 272
-0.996444, 225, 209, 352, 240
-0.99653, 321, 65, 384, 320
-0.996542, 315, 209, 330, 272
-0.99657, 265, 201, 296, 264
-0.996583, 129, 193, 384, 256
-0.996693, 323, 193, 338, 256
-0.996819, 297, 201, 312, 264
-0.996893, 65, 49, 320, 176
-0.996945, 225, 189, 352, 220
-0.996991, 217, 65, 280, 320
-0.996999, 241, 221, 368, 252
-0.997068, 81, 209, 208, 272
-0.997068, 309, 209, 324, 272
-0.997096, 225, 233, 480, 296
-0.997139, 193, 177, 256, 304
-0.997144, 333, 201, 348, 264
-0.997181, 129, 169, 256, 232
-0.997218, 225, 185, 480, 248
-0.997275, 285, 145, 316, 272
-0.997302, 129, 161, 384, 224
-0.997315, 305, 1, 368, 336
-0.997325, 225, 249, 352, 280
-0.997393, 225, 161, 480, 224
-0.997451, 303, 209, 318, 272
-0.997464, 305, 257, 336, 320
-0.997471, 273, 197, 400, 228
-0.997484, 291, 201, 306, 264
-0.997502, 329, 1, 392, 336
-0.997512, 161, 113, 288, 176
-0.997556, 307, 185, 322, 248
-0.997594, 305, 121, 432, 184
-0.997607, 321, 169, 336, 232
-0.99767, 129, 137, 384, 200
-0.997676, 97, 241, 352, 304
-0.997677, 313, 169, 328, 232
-0.997847, 257, 249, 288, 312
-0.997855, 327, 169, 342, 232
-0.997886, 81, 185, 208, 248
-0.997921, 233, 129, 264, 256
-0.997938, 33, 217, 288, 280
-0.997946, 325, 233, 340, 296
-0.997972, 273, 209, 400, 240
-0.997974, 305, 233, 432, 264
-0.997994, 229, 177, 260, 240
-0.997995, 251, 193, 266, 256
-0.998023, 325, 153, 356, 216
-0.998042, 301, 177, 316, 240
-0.998059, 225, 177, 352, 208
-0.99814, 285, 201, 300, 264
-0.99816, 97, 261, 128, 276
-0.998161, 225, 143, 256, 158
-0.998161, 241, 235, 272, 250
-0.998161, 253, 161, 284, 176
-0.998161, 281, 279, 312, 294
-0.998162, 273, 197, 304, 212
-0.998162, 329, 145, 360, 160
-0.998163, 225, 239, 256, 254
-0.998165, 69, 247, 100, 262
-0.998166, 241, 167, 272, 182
-0.998167, 329, 201, 360, 216
-0.998168, 193, 221, 320, 252
-0.998168, 309, 279, 340, 294
-0.998169, 217, 211, 248, 226
-0.998169, 333, 167, 364, 182
-0.99817, 225, 151, 256, 166
-0.998171, 253, 213, 284, 228
-0.998171, 261, 179, 292, 194
-0.998171, 245, 185, 276, 200
-0.998172, 241, 173, 272, 188
-0.998172, 329, 209, 360, 224
-0.998173, 249, 241, 280, 256
-0.998173, 233, 179, 264, 194
-0.998174, 313, 147, 344, 162
-0.998174, 285, 185, 316, 200
-0.998175, 281, 261, 312, 276
-0.998175, 321, 261, 352, 276
-0.998177, 245, 227, 276, 242
-0.998177, 325, 195, 356, 210
-0.998177, 313, 153, 344, 168
-0.998178, 281, 273, 312, 288
-0.998178, 341, 233, 372, 248
-0.998178, 269, 269, 300, 284
-0.998179, 225, 245, 256, 260
-0.998179, 341, 227, 372, 242
-0.99818, 333, 151, 364, 166
-0.99818, 225, 157, 256, 172
-0.99818, 245, 221, 276, 236
-0.99818, 229, 227, 260, 242
-0.99818, 285, 249, 316, 264
-0.998181, 221, 217, 252, 232
-0.998182, 85, 259, 116, 274
-0.998183, 221, 167, 252, 182
-0.998184, 233, 219, 264, 234
-0.998187, 221, 173, 252, 188
-0.998187, 245, 253, 276, 268
-0.998187, 73, 259, 104, 274
-0.998187, 313, 191, 344, 206
-0.998188, 321, 267, 352, 282
-0.998188, 257, 185, 288, 200
-0.998188, 281, 169, 312, 184
-0.998189, 257, 167, 288, 182
-0.998192, 325, 175, 356, 190
-0.998192, 333, 161, 364, 176
-0.998192, 301, 267, 332, 282
-0.998193, 257, 235, 288, 250
-0.998193, 285, 191, 316, 206
-0.998194, 221, 187, 252, 202
-0.998195, 317, 273, 348, 288
-0.998195, 329, 221, 360, 236
-0.998196, 245, 247, 276, 262
-0.998198, 313, 173, 344, 188
-0.998199, 221, 179, 252, 194
-0.9982, 233, 187, 264, 202
-0.9982, 273, 249, 400, 280
-0.998201, 297, 235, 328, 250
-0.998201, 253, 191, 284, 206
-0.998201, 221, 193, 252, 208
-0.998201, 289, 243, 320, 258
-0.998202, 249, 201, 280, 216
-0.998203, 241, 213, 272, 228
-0.998203, 317, 167, 348, 182
-0.998203, 281, 175, 312, 190
-0.998203, 301, 273, 332, 288
-0.998203, 313, 227, 344, 242
-0.998204, 225, 261, 352, 292
-0.998204, 305, 257, 336, 272
-0.998205, 321, 255, 352, 270
-0.998209, 221, 201, 252, 216
-0.99821, 229, 211, 260, 226
-0.99821, 285, 255, 316, 270
-0.99821, 313, 161, 344, 176
-0.99821, 325, 243, 356, 258
-0.998212, 305, 251, 336, 266
-0.998212, 265, 263, 296, 278
-0.998213, 257, 221, 288, 236
-0.998213, 297, 279, 328, 294
-0.998214, 269, 203, 300, 218
-0.998215, 269, 251, 300, 266
-0.998216, 261, 173, 292, 188
-0.998217, 273, 183, 304, 198
-0.998218, 273, 239, 304, 254
-0.998218, 265, 213, 296, 228
-0.998219, 325, 249, 356, 264
-0.998223, 293, 179, 324, 194
-0.998223, 249, 207, 280, 222
-0.998224, 257, 227, 288, 242
-0.998225, 285, 215, 316, 230
-0.99823, 285, 197, 316, 212
-0.998231, 309, 221, 340, 236
-0.998231, 301, 173, 332, 188
-0.998234, 269, 245, 300, 260
-0.998234, 233, 205, 264, 220
-0.998237, 313, 181, 344, 196
-0.998237, 305, 245, 336, 260
-0.998238, 265, 257, 296, 272
-0.998239, 233, 193, 264, 208
-0.99824, 277, 209, 308, 224
-0.998246, 309, 239, 340, 254
-0.998248, 277, 221, 308, 236
-0.99825, 329, 227, 360, 242
-0.998251, 161, 197, 288, 228
-0.998252, 233, 199, 264, 214
-0.998253, 301, 189, 332, 204
-0.998257, 313, 197, 344, 212
-0.998261, 269, 233, 300, 248
-0.998262, 289, 233, 304, 296
-0.998266, 321, 215, 352, 230
-0.998268, 305, 167, 336, 182
-0.998272, 309, 233, 340, 248
-0.998272, 301, 227, 332, 242
-0.998273, 329, 235, 360, 250
-0.998281, 307, 161, 322, 224
-0.998285, 285, 237, 316, 252
-0.998288, 281, 203, 312, 218
-0.998296, 309, 215, 340, 230
-0.998298, 297, 195, 328, 210
-0.998299, 297, 215, 328, 230
-0.998304, 297, 221, 328, 236
-0.998308, 301, 207, 332, 222
-0.998309, 317, 209, 348, 224
-0.998312, 277, 227, 308, 242
-0.99832, 129, 233, 256, 296
-0.998323, 317, 203, 348, 218
-0.998324, 339, 209, 354, 272
-0.998332, 289, 229, 320, 244
-0.998362, 301, 201, 332, 216
-0.998363, 319, 257, 334, 320
-0.998373, 289, 209, 320, 224
-0.998438, 269, 161, 284, 224
-0.998441, 273, 185, 400, 216
-0.998455, 49, 233, 176, 296
-0.998468, 295, 177, 310, 240
-0.9985, 331, 225, 346, 288
-0.998509, 303, 209, 318, 240
-0.998511, 261, 217, 276, 280
-0.998512, 225, 137, 480, 200
-0.998518, 177, 265, 304, 328
-0.998535, 269, 185, 284, 248
-0.998536, 295, 241, 310, 304
-0.998554, 279, 209, 294, 272
-0.998572, 315, 233, 330, 296
-0.998578, 313, 205, 328, 236
-0.998593, 177, 209, 304, 240
-0.998593, 289, 203, 352, 218
-0.998599, 275, 169, 290, 232
-0.998609, 221, 193, 252, 320
-0.99861, 161, 89, 288, 152
-0.998613, 265, 209, 328, 224
-0.998616, 323, 197, 338, 228
-0.998622, 317, 145, 332, 208
-0.998623, 225, 165, 352, 196
-0.998632, 325, 137, 340, 200
-0.998639, 81, 161, 208, 224
-0.998644, 309, 217, 324, 248
-0.99865, 273, 169, 400, 200
-0.998653, 1, 233, 128, 296
-0.998657, 333, 169, 348, 232
-0.998661, 177, 233, 304, 264
-0.998663, 289, 209, 352, 224
-0.998667, 281, 243, 344, 258
-0.99867, 249, 201, 312, 216
-0.998673, 297, 217, 360, 232
-0.998679, 245, 209, 260, 272
-0.998683, 281, 231, 344, 246
-0.998692, 273, 221, 336, 236
-0.998695, 281, 249, 344, 264
-0.998695, 281, 257, 344, 272
-0.998697, 281, 197, 344, 212
-0.9987, 281, 237, 344, 252
-0.998701, 273, 169, 336, 184
-0.998702, 249, 225, 312, 240
-0.998702, 273, 267, 336, 282
-0.998707, 297, 169, 360, 184
-0.998708, 249, 185, 312, 200
-0.998713, 249, 195, 312, 210
-0.998715, 273, 177, 336, 192
-0.998718, 273, 215, 336, 230
-0.998719, 297, 223, 360, 238
-0.998725, 313, 203, 376, 218
-0.998725, 313, 237, 376, 252
-0.998725, 241, 251, 304, 266
-0.998727, 241, 261, 304, 276
-0.998727, 241, 231, 304, 246
-0.998731, 313, 211, 376, 226
-0.998736, 241, 245, 304, 260
-0.998737, 297, 177, 360, 192
-0.998738, 249, 219, 312, 234
-0.998739, 289, 191, 352, 206
-0.99874, 273, 273, 336, 288
-0.998742, 293, 225, 308, 256
-0.998749, 241, 237, 304, 252
-0.998752, 305, 229, 368, 244
-0.998753, 241, 213, 304, 228
-0.998753, 233, 175, 296, 190
-0.998756, 241, 267, 304, 282
-0.998756, 33, 193, 288, 256
-0.998758, 209, 221, 272, 236
-0.998759, 241, 207, 304, 222
-0.998759, 273, 279, 336, 294
-0.998762, 233, 169, 296, 184
-0.998764, 313, 163, 376, 178
-0.998765, 313, 243, 376, 258
-0.998765, 209, 185, 272, 200
-0.998766, 305, 197, 368, 212
-0.998767, 225, 159, 288, 174
-0.998767, 257, 163, 320, 178
-0.998767, 193, 217, 256, 280
-0.998768, 209, 197, 272, 212
-0.998769, 297, 205, 312, 236
-0.998769, 209, 207, 272, 222
-0.998769, 209, 191, 272, 206
-0.998769, 257, 177, 272, 240
-0.998772, 209, 215, 272, 230
-0.998772, 209, 227, 272, 242
-0.998774, 313, 249, 376, 264
-0.998774, 313, 259, 376, 274
-0.998775, 225, 153, 288, 168
-0.998775, 289, 185, 352, 200
-0.998777, 209, 233, 272, 248
-0.99878, 217, 253, 280, 268
-0.99878, 305, 269, 368, 284
-0.998783, 249, 275, 312, 290
-0.998784, 225, 145, 288, 160
-0.998784, 57, 245, 120, 260
-0.998785, 209, 179, 272, 194
-0.998786, 273, 261, 400, 292
-0.998787, 57, 235, 120, 250
-0.998788, 225, 139, 288, 154
-0.998789, 57, 259, 120, 274
-0.99879, 209, 239, 272, 254
-0.99879, 305, 275, 368, 290
-0.99879, 337, 227, 400, 242
-0.998793, 217, 247, 280, 262
-0.998794, 321, 151, 384, 166
-0.998795, 233, 265, 296, 328
-0.998796, 329, 217, 392, 232
-0.998796, 225, 257, 480, 320
-0.998796, 281, 145, 344, 160
-0.998798, 1, 287, 64, 302
-0.998798, 321, 143, 384, 158
-0.998799, 25, 283, 88, 298
-0.9988, 217, 263, 280, 278
-0.9988, 289, 163, 352, 178
-0.9988, 201, 157, 264, 172
-0.9988, 201, 165, 264, 180
-0.998801, 201, 151, 264, 166
-0.998801, 209, 173, 272, 188
-0.998804, 321, 157, 384, 172
-0.998805, 265, 285, 328, 300
-0.998806, 81, 241, 144, 256
-0.998806, 81, 259, 144, 274
-0.998807, 225, 133, 288, 148
-0.998807, 201, 145, 264, 160
-0.998808, 65, 253, 128, 268
-0.998809, 193, 247, 256, 262
-0.998809, 289, 151, 352, 166
-0.998809, 321, 171, 384, 186
-0.998809, 313, 191, 376, 206
-0.998811, 65, 265, 128, 280
-0.998813, 81, 235, 144, 250
-0.998813, 265, 139, 328, 154
-0.998813, 337, 235, 400, 250
-0.998814, 305, 221, 432, 252
-0.998814, 329, 197, 392, 212
-0.998815, 297, 281, 360, 296
-0.998815, 209, 119, 272, 134
-0.998815, 271, 233, 286, 296
-0.998816, 209, 125, 272, 140
-0.998816, 289, 157, 352, 172
-0.998817, 257, 157, 320, 172
-0.998817, 201, 139, 264, 154
-0.998817, 257, 151, 320, 166
-0.998818, 185, 173, 248, 188
-0.998819, 337, 211, 400, 226
-0.99882, 217, 269, 280, 284
-0.99882, 185, 181, 248, 196
-0.998821, 81, 247, 144, 262
-0.998821, 209, 113, 272, 128
-0.998821, 185, 187, 248, 202
-0.998821, 313, 185, 376, 200
-0.998822, 169, 157, 232, 172
-0.998822, 337, 205, 400, 220
-0.998822, 257, 145, 320, 160
-0.998824, 233, 125, 296, 140
-0.998825, 89, 253, 152, 268
-0.998825, 57, 229, 120, 244
-0.998825, 257, 133, 320, 148
-0.998826, 169, 163, 232, 178
-0.998826, 301, 233, 316, 296
-0.998826, 233, 117, 296, 132
-0.998827, 169, 151, 232, 166
-0.998827, 209, 107, 272, 122
-0.998828, 89, 225, 152, 240
-0.998829, 89, 219, 152, 234
-0.998829, 193, 253, 256, 268
-0.998829, 185, 215, 248, 230
-0.998829, 321, 177, 384, 192
-0.998829, 185, 197, 248, 212
-0.998832, 285, 177, 300, 240
-0.998834, 225, 273, 352, 304
-0.998849, 283, 249, 298, 312
-0.998858, 271, 209, 286, 272
-0.998862, 315, 217, 330, 248
-0.998869, 329, 233, 344, 264
-0.998875, 209, 153, 336, 184
-0.998875, 161, 185, 288, 216
-0.998895, 309, 249, 324, 312
-0.998928, 337, 213, 352, 244
-0.998941, 291, 205, 306, 236
-0.998945, 263, 177, 278, 240
-0.99895, 319, 165, 334, 196
-0.998957, 297, 193, 312, 224
-0.998965, 307, 197, 322, 228
-0.998967, 299, 225, 314, 256
-0.998984, 325, 177, 356, 240
-0.998996, 313, 273, 328, 336
-0.998999, 263, 249, 278, 312
-0.999003, 277, 233, 292, 296
-0.999005, 287, 229, 302, 260
-0.999008, 241, 141, 368, 172
-0.999032, 303, 273, 318, 336
-0.999037, 313, 165, 328, 196
-0.999045, 329, 201, 344, 232
-0.999046, 225, 113, 480, 176
-0.999047, 305, 157, 432, 188
-0.999052, 263, 153, 278, 216
-0.999062, 345, 217, 360, 280
-0.999075, 145, 221, 272, 252
-0.999085, 305, 169, 320, 200
-0.999087, 271, 213, 286, 244
-0.999094, 281, 225, 296, 256
-0.999097, 319, 229, 334, 260
-0.999123, 293, 237, 308, 268
-0.999137, 257, 153, 384, 184
-0.999149, 289, 273, 320, 336
-0.999154, 81, 137, 208, 200
-0.999155, 161, 173, 288, 204
-0.999167, 323, 257, 338, 288
-0.999168, 255, 225, 270, 288
-0.999175, 327, 245, 342, 276
-0.999175, 305, 65, 336, 320
-0.999179, 275, 169, 290, 200
-0.999179, 321, 217, 336, 248
-0.999182, 333, 145, 348, 208
-0.999184, 323, 181, 338, 212
-0.999186, 311, 137, 326, 200
-0.999187, 291, 189, 306, 220
-0.999187, 241, 177, 272, 240
-0.999189, 269, 165, 284, 196
-0.999203, 339, 185, 354, 248
-0.999204, 325, 149, 340, 180
-0.999205, 253, 201, 268, 232
-0.999213, 287, 217, 302, 248
-0.999214, 315, 269, 330, 300
-0.999222, 327, 213, 342, 244
-0.999235, 343, 221, 358, 252
-0.999238, 317, 181, 332, 212
-0.999251, 297, 273, 312, 336
-0.999256, 261, 213, 276, 244
-0.999258, 287, 249, 302, 280
-0.999276, 129, 113, 384, 176
-0.99929, 313, 257, 328, 288
-0.999294, 309, 269, 324, 300
-0.999295, 285, 205, 300, 236
-0.999295, 245, 169, 260, 232
-0.999298, 321, 245, 336, 276
-0.999304, 283, 193, 298, 224
-0.999308, 251, 213, 266, 244
-0.99931, 257, 225, 288, 288
-0.999312, 313, 193, 328, 224
-0.999313, 305, 233, 320, 264
-0.999316, 347, 193, 362, 256
-0.999334, 329, 177, 344, 208
-0.999334, 321, 145, 448, 208
-0.999337, 185, 1, 248, 336
-0.999341, 319, 193, 334, 320
-0.999344, 273, 181, 288, 212
-0.999346, 303, 185, 318, 216
-0.999347, 333, 161, 348, 192
-0.999351, 113, 113, 240, 176
-0.999354, 335, 229, 350, 260
-0.99936, 279, 237, 294, 268
-0.999361, 311, 281, 326, 312
-0.999369, 273, 233, 288, 264
-0.99937, 337, 145, 368, 272
-0.99937, 337, 201, 352, 232
-0.999373, 267, 249, 282, 280
-0.999375, 321, 269, 336, 300
-0.999376, 325, 177, 340, 304
-0.999377, 321, 209, 448, 240
-0.99938, 291, 193, 306, 320
-0.999381, 261, 225, 276, 256
-0.999382, 245, 213, 260, 244
-0.999382, 303, 277, 318, 308
-0.999385, 297, 277, 312, 308
-0.999387, 325, 165, 340, 196
-0.999391, 259, 177, 274, 208
-0.999396, 161, 161, 288, 192
-0.999398, 283, 215, 298, 230
-0.999399, 279, 205, 294, 236
-0.999399, 315, 173, 330, 188
-0.999399, 291, 273, 306, 336
-0.9994, 305, 81, 432, 208
-0.9994, 255, 195, 270, 210
-0.9994, 339, 205, 354, 220
-0.9994, 261, 233, 276, 248
-0.9994, 281, 243, 296, 258
-0.999401, 331, 215, 346, 230
-0.999401, 337, 235, 352, 250
-0.999401, 275, 171, 290, 186
-0.999401, 321, 225, 336, 240
-0.999402, 277, 205, 292, 220
-0.999402, 319, 279, 334, 294
-0.999403, 247, 189, 262, 204
-0.999403, 309, 195, 324, 210
-0.999404, 261, 227, 276, 242
-0.999404, 333, 173, 348, 188
-0.999404, 303, 193, 318, 320
-0.999404, 285, 265, 300, 280
-0.999405, 23, 281, 38, 296
-0.999405, 347, 215, 362, 230
-0.999405, 301, 279, 316, 294
-0.999405, 305, 175, 320, 190
-0.999405, 317, 187, 332, 202
-0.999406, 311, 229, 326, 260
-0.999406, 269, 231, 284, 246
-0.999408, 251, 209, 266, 224
-0.999409, 255, 189, 270, 220
-0.999409, 245, 211, 260, 226
-0.999409, 291, 245, 306, 260
-0.999409, 319, 249, 334, 264
-0.99941, 89, 259, 104, 274
-0.99941, 269, 213, 284, 228
-0.999411, 277, 213, 292, 228
-0.999411, 251, 235, 266, 250
-0.999411, 237, 201, 252, 264
-0.999411, 325, 259, 340, 274
-0.999412, 273, 185, 288, 200
-0.999412, 269, 167, 284, 182
-0.999413, 275, 219, 290, 234
-0.999413, 345, 231, 360, 246
-0.999413, 303, 181, 318, 196
-0.999413, 253, 203, 268, 218
-0.999413, 263, 181, 278, 196
-0.999414, 285, 259, 300, 274
-0.999414, 293, 195, 308, 210
-0.999415, 293, 187, 308, 202
-0.999415, 313, 281, 328, 296
-0.999415, 83, 259, 98, 274
-0.999416, 245, 189, 260, 220
-0.999416, 285, 261, 300, 292
-0.999416, 35, 281, 50, 296
-0.999416, 251, 229, 266, 260
-0.999416, 275, 233, 290, 248
-0.999417, 323, 265, 338, 280
-0.999418, 251, 215, 266, 230
-0.999418, 291, 213, 306, 228
-0.999418, 245, 195, 260, 210
-0.999418, 315, 235, 330, 250
-0.999419, 331, 167, 346, 182
-0.999419, 339, 213, 354, 228
-0.99942, 333, 193, 348, 208
-0.99942, 287, 251, 302, 266
-0.99942, 299, 195, 314, 210
-0.99942, 327, 209, 342, 224
-0.99942, 311, 209, 326, 336
-0.99942, 261, 221, 276, 236
-0.999421, 311, 269, 326, 284
-0.999421, 245, 205, 260, 220
-0.999421, 95, 261, 110, 276
-0.999422, 323, 183, 338, 198
-0.999423, 325, 167, 340, 182
-0.999423, 321, 175, 336, 190
-0.999423, 315, 259, 330, 274
-0.999423, 293, 177, 308, 208
-0.999423, 295, 181, 310, 196
-0.999424, 321, 273, 336, 288
-0.999424, 305, 237, 320, 252
-0.999424, 283, 207, 298, 222
-0.999424, 277, 177, 292, 192
-0.999425, 313, 275, 328, 290
-0.999425, 307, 279, 322, 294
-0.999426, 285, 181, 300, 196
-0.999427, 337, 199, 352, 214
-0.99943, 325, 215, 340, 230
-0.999431, 327, 253, 342, 268
-0.999431, 327, 175, 342, 190
-0.999431, 311, 179, 326, 194
-0.999431, 273, 225, 288, 240
-0.999431, 315, 245, 330, 276
-0.999431, 285, 201, 300, 216
-0.999432, 317, 181, 332, 196
-0.999432, 339, 225, 354, 240
-0.999432, 327, 159, 342, 174
-0.999434, 307, 187, 322, 202
-0.999434, 337, 219, 352, 234
-0.999434, 333, 229, 348, 244
-0.999435, 329, 245, 344, 260
-0.999436, 305, 169, 320, 184
-0.999437, 317, 199, 332, 214
-0.999437, 313, 167, 328, 182
-0.999438, 33, 287, 48, 302
-0.999438, 315, 225, 330, 240
-0.999439, 301, 215, 316, 230
-0.999441, 319, 243, 334, 258
-0.999442, 323, 193, 338, 208
-0.999444, 319, 167, 334, 182
-0.999444, 325, 239, 340, 254
-0.999444, 329, 203, 344, 218
-0.999447, 299, 237, 314, 252
-0.999448, 273, 273, 400, 304
-0.999449, 333, 189, 348, 220
-0.999451, 349, 213, 364, 244
-0.999451, 247, 201, 262, 232
-0.999451, 295, 223, 310, 238
-0.999451, 281, 233, 296, 248
-0.999452, 311, 177, 326, 208
-0.999452, 327, 229, 342, 244
-0.999453, 299, 173, 314, 204
-0.999454, 309, 227, 324, 242
-0.999456, 301, 201, 316, 216
-0.999456, 285, 193, 300, 320
-0.999457, 287, 237, 302, 252
-0.999459, 27, 287, 42, 302
-0.999462, 305, 221, 320, 236
-0.999462, 307, 201, 322, 216
-0.999463, 231, 217, 246, 280
-0.999464, 145, 245, 272, 276
-0.999464, 333, 209, 348, 224
-0.999465, 267, 225, 282, 256
-0.999465, 269, 161, 284, 288
-0.999466, 303, 231, 318, 246
-0.999468, 299, 237, 314, 268
-0.999469, 319, 211, 334, 226
-0.99947, 317, 205, 332, 220
-0.999471, 319, 217, 334, 232
-0.999471, 313, 161, 328, 288
-0.999472, 283, 227, 298, 242
-0.999474, 297, 193, 312, 320
-0.999475, 311, 207, 326, 222
-0.999477, 315, 193, 330, 208
-0.999478, 289, 207, 304, 222
-0.999478, 233, 121, 296, 184
-0.999478, 289, 227, 304, 242
-0.999479, 331, 235, 346, 250
-0.999481, 321, 233, 336, 248
-0.999481, 225, 89, 352, 152
-0.999483, 293, 235, 308, 250
-0.999483, 241, 201, 256, 232
-0.999483, 285, 221, 300, 236
-0.99949, 267, 185, 282, 216
-0.999491, 337, 233, 352, 296
-0.999491, 261, 265, 276, 296
-0.999492, 271, 201, 286, 232
-0.999493, 277, 257, 292, 320
-0.999501, 269, 137, 284, 200
-0.999502, 161, 137, 288, 168
-0.999503, 303, 209, 318, 224
-0.999504, 293, 201, 308, 216
-0.999505, 161, 149, 288, 180
-0.999507, 343, 201, 358, 232
-0.999514, 249, 233, 264, 296
-0.999518, 323, 199, 338, 214
-0.999521, 331, 193, 346, 320
-0.999524, 307, 215, 322, 230
-0.99953, 313, 219, 328, 234
-0.999538, 285, 273, 300, 304
-0.999538, 49, 257, 176, 320
-0.999541, 281, 177, 296, 208
-0.999542, 261, 237, 276, 268
-0.999545, 257, 177, 272, 304
-0.999546, 313, 213, 328, 228
-0.999547, 295, 229, 310, 244
-0.999549, 297, 207, 312, 222
-0.999551, 251, 193, 266, 320
-0.999554, 265, 153, 280, 184
-0.999558, 263, 165, 278, 196
-0.999561, 247, 177, 262, 208
-0.999561, 337, 145, 464, 272
-0.999563, 273, 245, 288, 276
-0.999564, 279, 265, 294, 296
-0.999567, 349, 229, 364, 260
-0.999572, 95, 253, 110, 284
-0.999576, 319, 145, 334, 176
-0.999578, 293, 261, 308, 292
-0.999581, 73, 193, 136, 320
-0.999582, 333, 145, 348, 272
-0.999586, 341, 233, 356, 264
-0.999588, 275, 209, 290, 336
-0.999588, 261, 189, 276, 220
-0.999593, 307, 157, 322, 188
-0.999593, 225, 145, 240, 208
-0.999596, 265, 201, 280, 232
-0.999599, 293, 65, 324, 320
-0.9996, 321, 197, 448, 228
-0.999601, 263, 193, 278, 320
-0.999601, 225, 157, 240, 188
-0.999604, 319, 145, 334, 272
-0.999605, 291, 273, 306, 304
-0.99961, 287, 177, 302, 208
-0.999612, 335, 141, 350, 172
-0.999615, 95, 233, 110, 296
-0.999618, 303, 265, 318, 296
-0.999621, 193, 145, 256, 208
-0.999622, 301, 145, 316, 272
-0.999625, 87, 237, 102, 268
-0.999626, 129, 265, 384, 328
-0.999628, 337, 193, 352, 320
-0.999628, 231, 225, 246, 256
-0.999629, 235, 205, 250, 236
-0.999636, 325, 65, 356, 320
-0.999643, 221, 233, 236, 264
-0.999645, 283, 165, 298, 196
-0.999645, 225, 145, 240, 176
-0.999648, 177, 257, 304, 288
-0.999654, 235, 193, 250, 224
-0.999655, 33, 209, 160, 272
-0.999658, 225, 209, 240, 240
-0.99966, 83, 233, 98, 296
-0.999661, 313, 153, 328, 184
-0.999661, 325, 129, 340, 256
-0.999662, 225, 189, 240, 220
-0.999662, 237, 177, 252, 240
-0.999664, 317, 121, 332, 184
-0.999669, 247, 241, 262, 272
-0.999669, 245, 225, 260, 256
-0.99967, 245, 193, 260, 320
-0.999672, 225, 177, 240, 208
-0.999674, 257, 249, 272, 280
-0.999674, 355, 233, 370, 264
-0.999675, 93, 237, 108, 268
-0.999676, 307, 145, 322, 272
-0.999677, 263, 145, 278, 272
-0.99968, 225, 133, 240, 164
-0.999681, 49, 233, 176, 264
-0.999681, 245, 65, 276, 320
-0.999684, 237, 173, 252, 204
-0.999684, 71, 233, 86, 264
-0.999684, 229, 237, 244, 268
-0.999686, 27, 285, 42, 316
-0.999686, 339, 189, 354, 220
-0.999689, 281, 249, 296, 280
-0.999694, 233, 97, 296, 224
-0.999694, 87, 249, 102, 280
-0.999695, 239, 225, 254, 256
-0.999698, 221, 221, 236, 252
-0.999698, 273, 65, 304, 320
-0.9997, 269, 209, 284, 336
-0.999704, 317, 257, 348, 320
-0.999706, 283, 273, 298, 336
-0.999712, 221, 209, 236, 272
-0.999712, 279, 161, 294, 288
-0.999713, 337, 217, 400, 280
-0.999714, 305, 137, 320, 200
-0.999717, 275, 145, 290, 208
-0.999726, 295, 145, 310, 272
-0.999728, 257, 113, 320, 176
-0.999733, 305, 97, 432, 160
-0.999734, 241, 125, 368, 156
-0.999739, 225, 185, 240, 248
-0.99974, 229, 65, 260, 320
-0.999747, 321, 185, 448, 216
-0.999754, 1, 225, 500, 288
-0.999755, 243, 233, 258, 296
-0.999763, 343, 145, 358, 272
-0.999766, 247, 145, 262, 272
-0.999769, 161, 125, 288, 156
-0.99977, 325, 257, 340, 320
-0.999772, 305, 145, 432, 176
-0.999782, 257, 249, 272, 312
-0.999786, 285, 145, 300, 272
-0.999791, 225, 233, 240, 296
-0.999796, 257, 129, 272, 256
-0.999797, 339, 129, 354, 192
-0.999799, 81, 197, 208, 228
-0.999801, 221, 145, 252, 272
-0.999811, 313, 113, 328, 240
-0.999812, 225, 121, 240, 184
-0.999813, 73, 257, 136, 320
-0.999816, 351, 233, 366, 296
-0.999817, 257, 153, 272, 216
-0.999823, 333, 121, 348, 184
-0.999829, 343, 209, 358, 336
-0.99984, 277, 265, 308, 328
-0.999855, 353, 201, 368, 264
-0.99986, 275, 113, 290, 240
-0.999868, 227, 209, 242, 336
-0.999873, 89, 233, 104, 296
-0.999874, 225, 145, 240, 272
-0.999874, 349, 161, 364, 288
-0.999878, 81, 185, 208, 216
-0.999879, 71, 225, 86, 288
-0.999879, 239, 161, 254, 288
-0.999887, 269, 113, 284, 240
-0.999897, 81, 221, 208, 252
-0.999901, 193, 65, 256, 320
-0.999903, 49, 245, 176, 276
-0.999909, 233, 177, 248, 304
-0.999914, 263, 97, 278, 224
-0.999919, 369, 193, 496, 256
-0.999922, 129, 209, 256, 240
-0.999923, 247, 97, 262, 224
-0.999928, 299, 153, 314, 216
-0.99993, 77, 225, 92, 288
-0.999932, 229, 225, 260, 288
-0.999932, 305, 133, 432, 164
-0.999941, 307, 97, 322, 224
-0.999942, 219, 177, 234, 304
-0.999943, 357, 225, 372, 288
-0.999943, 103, 193, 118, 320
-0.999953, 95, 209, 110, 336
-0.999954, 333, 97, 348, 224
-0.999954, 247, 145, 262, 208
-0.999957, 239, 209, 254, 336
-0.999959, 355, 177, 370, 304
-0.999959, 225, 97, 240, 224
-0.999964, 225, 97, 240, 160
-0.999969, 349, 209, 364, 336
-0.999978, 33, 169, 288, 232
-0.999978, 339, 97, 354, 224
-0.999983, 161, 113, 288, 144
-1.00001, 235, 113, 250, 240
-1.00001, 257, 113, 384, 144
-1.00002, 81, 209, 208, 240
-1.00002, 291, 97, 306, 224
-1.00002, 361, 161, 376, 288
-1.00002, 343, 161, 358, 224
-1.00002, 103, 257, 118, 320
-1.00002, 225, 49, 240, 176
-1.00002, 113, 173, 240, 204
-1.00002, 235, 145, 250, 208
-1.00003, 269, 257, 284, 320
-1.00003, 1, 169, 500, 232
-1.00003, 101, 233, 116, 296
-1.00003, 1, 249, 128, 280
-1.00003, 319, 97, 334, 224
-1.00003, 349, 113, 364, 240
-1.00003, 361, 209, 376, 336
-1.00003, 83, 209, 98, 336
-1.00003, 197, 145, 212, 272
-1.00004, 301, 97, 316, 224
-1.00004, 177, 269, 304, 300
-1.00004, 367, 209, 382, 336
-1.00004, 263, 121, 278, 184
-1.00004, 385, 209, 400, 336
-1.00005, 197, 97, 212, 224
-1.00005, 241, 285, 368, 316
-1.00005, 377, 209, 392, 336
-1.00005, 73, 209, 88, 336
-1.00006, 221, 201, 252, 264
-1.00006, 249, 49, 264, 176
-1.00006, 281, 97, 296, 224
-1.00006, 33, 265, 160, 296
-1.00006, 381, 161, 396, 288
-1.00007, 241, 113, 256, 240
-1.00007, 117, 177, 132, 304
-1.00007, 197, 193, 212, 320
-1.00007, 325, 81, 340, 208
-1.00007, 203, 129, 218, 256
-1.00007, 249, 105, 264, 168
-1.00007, 371, 145, 386, 272
-1.00007, 341, 49, 356, 176
-1.00008, 215, 97, 230, 224
-1.00008, 203, 177, 218, 304
-1.00008, 95, 161, 110, 288
-1.00008, 109, 177, 124, 304
-1.00008, 385, 225, 400, 288
-1.00008, 347, 65, 362, 192
-1.00009, 235, 113, 250, 176
-1.00009, 255, 49, 270, 176
-1.00009, 293, 153, 308, 216
-1.00009, 403, 209, 418, 336
-1.00009, 327, 113, 342, 176
-1.00009, 213, 193, 228, 320
-1.00009, 237, 65, 252, 192
-1.00009, 113, 233, 240, 264
-1.00009, 291, 17, 306, 144
-1.00009, 395, 145, 410, 272
-1.00009, 391, 209, 406, 336
-1.0001, 199, 49, 214, 176
-1.0001, 167, 193, 182, 320
-1.0001, 347, 113, 362, 176
-1.0001, 65, 233, 80, 296
-1.0001, 103, 145, 118, 272
-1.0001, 189, 177, 204, 304
-1.0001, 361, 97, 376, 224
-1.0001, 97, 209, 112, 272
-1.0001, 171, 145, 186, 272
-1.00011, 371, 97, 386, 224
-1.00011, 169, 65, 184, 192
-1.00011, 89, 209, 104, 336
-1.00011, 197, 161, 212, 224
-1.00011, 387, 161, 402, 288
-1.00011, 405, 145, 420, 272
-1.00011, 363, 225, 378, 288
-1.00011, 81, 161, 208, 192
-1.00011, 283, 153, 298, 216
-1.00012, 251, 265, 266, 328
-1.00012, 209, 113, 336, 144
-1.00012, 269, 65, 284, 192
-1.00012, 317, 33, 332, 160
-1.00012, 381, 113, 396, 240
-1.00012, 299, 49, 314, 176
-1.00012, 403, 97, 418, 224
-1.00012, 173, 193, 188, 320
-1.00013, 367, 49, 382, 176
-1.00013, 409, 209, 424, 336
-1.00013, 335, 49, 350, 176
-1.00013, 127, 193, 142, 320
-1.00013, 67, 209, 82, 336
-1.00013, 353, 221, 480, 252
-1.00013, 207, 65, 222, 192
-1.00013, 261, 49, 276, 176
-1.00013, 255, 1, 270, 128
-1.00013, 353, 65, 368, 192
-1.00013, 231, 65, 246, 192
-1.00014, 397, 209, 412, 336
-1.00014, 219, 233, 234, 296
-1.00014, 321, 173, 448, 204
-1.00014, 275, 65, 290, 192
-1.00014, 329, 33, 344, 160
-1.00014, 285, 17, 300, 144
-1.00014, 391, 97, 406, 224
-1.00014, 243, 49, 258, 176
-1.00014, 309, 33, 324, 160
-1.00015, 439, 81, 454, 208
-1.00015, 189, 97, 204, 224
-1.00015, 355, 129, 370, 256
-1.00015, 163, 129, 178, 256
-1.00015, 429, 161, 444, 288
-1.00015, 257, 65, 288, 320
-1.00015, 215, 49, 230, 176
-1.00015, 211, 145, 226, 272
-1.00015, 441, 161, 456, 288
-1.00016, 179, 209, 194, 336
-1.00016, 377, 225, 392, 288
-1.00017, 337, 65, 368, 320
-1.00017, 209, 97, 272, 160
-1.00017, 385, 193, 400, 256
-1.00018, 245, 265, 260, 328
-1.00018, 197, 209, 212, 272
-1.00019, 361, 201, 376, 264
-1.00019, 231, 193, 246, 256
-1.0002, 371, 225, 386, 288
-1.0002, 161, 101, 288, 132
-1.0002, 197, 121, 212, 184
-1.00021, 345, 137, 360, 200
-1.00021, 275, 113, 290, 176
-1.00022, 193, 285, 320, 316
-1.00022, 353, 1, 416, 336
-1.00022, 113, 149, 240, 180
-1.00022, 113, 137, 240, 168
-1.00023, 81, 233, 144, 296
-1.00023, 197, 89, 212, 152
-1.00023, 1, 201, 500, 264
-1.00024, 339, 105, 354, 168
-1.00024, 257, 101, 384, 132
-1.00025, 97, 245, 224, 276
-1.00025, 305, 121, 432, 152
-1.00026, 371, 201, 386, 264
-1.00026, 97, 257, 112, 320
-1.00026, 225, 73, 240, 136
-1.00026, 73, 209, 136, 272
-1.00026, 253, 129, 268, 192
-1.00027, 161, 1, 224, 336
-1.00027, 81, 257, 208, 288
-1.00027, 109, 257, 124, 320
-1.00028, 241, 49, 368, 176
-1.00029, 75, 265, 90, 328
-1.00029, 185, 121, 248, 184
-1.0003, 103, 209, 118, 272
-1.0003, 113, 125, 240, 156
-1.0003, 237, 225, 252, 288
-1.00031, 1, 233, 128, 264
-1.00032, 347, 89, 362, 152
-1.00032, 219, 257, 234, 320
-1.00033, 193, 185, 208, 248
-1.00033, 401, 225, 416, 288
-1.00033, 1, 129, 256, 192
-1.00035, 321, 245, 448, 276
-1.00036, 209, 101, 336, 132
-1.00038, 33, 221, 160, 252
-1.00039, 333, 97, 364, 224
-1.00039, 65, 81, 320, 144
-1.0004, 113, 113, 240, 144
-1.00042, 245, 97, 276, 224
-1.00042, 369, 217, 496, 280
-1.00046, 205, 65, 236, 320
-1.00047, 253, 137, 284, 200
-1.00047, 113, 89, 240, 152
-1.00049, 217, 65, 248, 320
-1.0005, 33, 209, 160, 240
-1.0005, 369, 189, 496, 220
-1.0005, 225, 89, 480, 152
-1.0005, 369, 177, 496, 208
-1.00051, 369, 201, 496, 232
-1.00052, 81, 129, 208, 256
-1.00052, 369, 161, 496, 192
-1.00053, 301, 137, 332, 200
-1.00054, 305, 109, 432, 140
-1.00054, 369, 129, 496, 160
-1.00055, 113, 101, 240, 132
-1.00056, 1, 249, 256, 312
-1.00056, 193, 89, 320, 120
-1.00058, 113, 73, 240, 104
-1.00058, 369, 141, 496, 172
-1.00059, 65, 173, 192, 204
-1.00061, 33, 185, 160, 248
-1.00062, 129, 257, 256, 288
-1.00062, 349, 33, 380, 288
-1.00062, 161, 61, 288, 92
-1.00063, 113, 85, 240, 116
-1.00064, 65, 121, 192, 152
-1.00064, 33, 193, 160, 224
-1.00064, 65, 137, 192, 168
-1.00065, 161, 73, 288, 104
-1.00066, 233, 153, 264, 216
-1.00066, 145, 281, 272, 312
-1.00068, 113, 61, 240, 92
-1.00069, 369, 69, 496, 100
-1.00071, 225, 297, 352, 328
-1.00072, 113, 25, 240, 56
-1.00072, 353, 233, 480, 264
-1.00072, 289, 285, 416, 316
-1.00072, 113, 45, 240, 76
-1.00072, 241, 61, 368, 92
-1.00073, 369, 129, 496, 192
-1.00074, 177, 65, 304, 128
-1.00074, 65, 149, 192, 180
-1.00075, 369, 117, 496, 148
-1.00075, 257, 89, 384, 120
-1.00075, 113, 13, 240, 44
-1.00076, 17, 181, 144, 212
-1.00076, 81, 277, 208, 308
-1.00077, 17, 165, 144, 196
-1.00077, 129, 269, 256, 300
-1.00077, 289, 61, 416, 92
-1.00077, 65, 85, 192, 116
-1.0008, 241, 49, 368, 80
-1.0008, 241, 73, 368, 104
-1.00081, 193, 45, 320, 76
-1.00081, 65, 109, 192, 140
-1.00081, 193, 17, 320, 48
-1.00081, 193, 29, 320, 60
-1.00082, 369, 153, 496, 216
-1.00082, 337, 93, 464, 124
-1.00083, 369, 57, 496, 88
-1.00085, 333, 129, 364, 192
-1.00085, 369, 33, 400, 288
-1.00085, 289, 49, 416, 80
-1.00086, 1, 105, 256, 168
-1.00086, 113, 1, 240, 32
-1.00086, 193, 1, 320, 32
-1.00086, 161, 57, 416, 120
-1.00087, 289, 73, 416, 104
-1.00087, 321, 265, 448, 296
-1.00087, 65, 73, 192, 104
-1.00087, 289, 37, 416, 68
-1.00088, 289, 13, 416, 44
-1.00088, 177, 297, 304, 328
-1.00089, 289, 1, 416, 32
-1.00091, 97, 257, 224, 320
-1.00094, 113, 57, 240, 120
-1.00095, 281, 145, 312, 208
-1.00098, 1, 145, 500, 208
-1.00098, 185, 169, 248, 232
-1.00101, 221, 153, 252, 216
-1.00102, 193, 65, 224, 320
-1.00105, 181, 65, 212, 320
-1.00105, 161, 33, 416, 96
-1.00105, 121, 1, 184, 336
-1.00107, 269, 153, 300, 216
-1.0011, 389, 33, 420, 288
-1.0011, 361, 225, 424, 288
-1.00112, 105, 65, 136, 320
-1.00115, 65, 57, 320, 120
-1.00115, 113, 33, 240, 96
-1.00116, 289, 73, 416, 136
-1.00118, 169, 65, 200, 320
-1.0012, 409, 65, 440, 320
-1.00122, 241, 241, 272, 304
-1.00123, 125, 65, 156, 320
-1.00123, 97, 1, 160, 336
-1.00126, 341, 193, 372, 256
-1.00126, 89, 65, 120, 320
-1.00127, 157, 65, 188, 320
-1.00128, 341, 225, 372, 288
-1.00131, 385, 1, 448, 336
-1.00133, 345, 161, 408, 288
-1.00133, 369, 105, 496, 168
-1.00136, 225, 57, 352, 120
-1.00138, 169, 145, 232, 208
-1.00139, 113, 1, 240, 64
-1.00139, 257, 65, 500, 128
-1.00139, 65, 25, 320, 88
-1.00142, 161, 9, 416, 72
-1.00142, 425, 65, 456, 320
-1.00144, 1, 121, 500, 184
-1.00144, 77, 65, 108, 320
-1.00144, 337, 137, 400, 200
-1.00145, 1, 265, 128, 328
-1.00148, 145, 65, 176, 320
-1.00149, 97, 209, 160, 272
-1.00149, 177, 33, 304, 160
-1.00149, 161, 25, 288, 88
-1.0015, 437, 65, 468, 320
-1.00152, 257, 33, 500, 96
-1.00154, 449, 33, 480, 288
-1.00158, 33, 161, 160, 224
-1.00161, 349, 161, 380, 288
-1.00162, 65, 65, 96, 320
-1.00162, 209, 161, 240, 288
-1.00163, 33, 1, 288, 64
-1.00163, 465, 33, 496, 288
-1.00165, 185, 129, 248, 256
-1.00165, 257, 9, 500, 72
-1.00165, 209, 17, 336, 80
-1.00165, 369, 65, 496, 128
-1.00169, 97, 177, 160, 304
-1.00169, 49, 65, 80, 320
-1.00169, 185, 193, 248, 256
-1.0017, 221, 97, 252, 224
-1.00178, 297, 113, 360, 176
-1.00181, 1, 273, 256, 336
-1.00182, 65, 113, 192, 176
-1.00183, 21, 65, 52, 320
-1.00183, 225, 129, 256, 192
-1.00184, 37, 33, 68, 288
-1.00184, 1, 65, 32, 320
-1.00189, 161, 1, 416, 128
-1.0019, 65, 89, 192, 152
-1.00191, 289, 49, 416, 112
-1.00193, 289, 17, 416, 80
-1.00195, 1, 97, 500, 160
-1.00205, 65, 1, 128, 336
-1.00209, 69, 225, 100, 288
-1.00213, 369, 241, 496, 304
-1.00213, 257, 89, 320, 152
-1.00216, 273, 97, 304, 224
-1.00219, 417, 1, 480, 336
-1.00219, 49, 65, 176, 128
-1.00221, 185, 97, 248, 160
-1.00221, 97, 185, 160, 248
-1.00222, 305, 97, 336, 224
-1.00225, 33, 9, 160, 72
-1.00225, 33, 41, 160, 104
-1.00226, 33, 137, 160, 200
-1.0023, 369, 1, 496, 64
-1.00232, 321, 249, 448, 312
-1.00233, 81, 233, 112, 296
-1.00236, 17, 113, 144, 176
-1.00239, 321, 113, 384, 176
-1.00239, 161, 1, 288, 64
-1.00239, 217, 233, 248, 296
-1.00242, 369, 41, 496, 104
-1.00249, 209, 265, 272, 328
-1.00252, 89, 209, 120, 336
-1.00262, 369, 265, 496, 328
-1.00265, 209, 201, 240, 264
-1.00276, 337, 209, 400, 336
-1.00286, 201, 97, 232, 224
-1.00287, 1, 73, 500, 136
-1.00287, 261, 97, 292, 224
-1.00288, 1, 89, 128, 152
-1.00291, 1, 65, 128, 128
-1.00293, 217, 177, 248, 240
-1.00294, 353, 193, 416, 256
-1.00294, 345, 209, 376, 336
-1.00303, 245, 265, 276, 328
-1.00304, 185, 241, 248, 304
-1.00306, 113, 81, 240, 208
-1.0031, 233, 97, 296, 160
-1.00311, 1, 41, 500, 104
-1.00312, 41, 1, 104, 336
-1.00316, 233, 81, 264, 208
-1.00318, 1, 249, 500, 312
-1.00322, 345, 65, 408, 320
-1.00322, 225, 105, 256, 168
-1.00324, 17, 1, 80, 336
-1.00324, 241, 129, 272, 192
-1.00326, 33, 161, 160, 288
-1.00329, 225, 73, 288, 136
-1.0033, 1, 209, 128, 336
-1.0033, 1, 1, 500, 64
-1.0033, 1, 273, 500, 336
-1.00334, 49, 257, 112, 320
-1.00335, 337, 169, 400, 232
-1.00336, 105, 233, 168, 296
-1.0034, 281, 65, 344, 192
-1.00347, 201, 225, 232, 288
-1.00349, 161, 121, 224, 184
-1.0035, 209, 49, 272, 176
-1.0035, 101, 177, 132, 304
-1.00357, 377, 201, 440, 264
-1.00358, 205, 113, 236, 176
-1.00362, 33, 233, 96, 296
-1.00364, 93, 225, 124, 288
-1.0037, 321, 273, 448, 336
-1.00377, 169, 65, 232, 320
-1.0038, 281, 89, 344, 152
-1.00393, 317, 81, 348, 208
-1.00397, 241, 105, 272, 168
-1.00397, 201, 209, 232, 336
-1.00398, 305, 89, 368, 152
-1.00398, 201, 137, 232, 200
-1.00398, 201, 169, 232, 232
-1.00407, 57, 185, 120, 248
-1.00407, 353, 97, 480, 224
-1.00409, 201, 73, 264, 136
-1.0041, 65, 1, 320, 128
-1.00411, 389, 161, 420, 288
-1.00415, 97, 257, 160, 320
-1.00416, 357, 209, 388, 336
-1.00418, 369, 193, 400, 256
-1.00418, 357, 225, 388, 288
-1.00421, 369, 209, 400, 336
-1.00421, 289, 33, 416, 160
-1.00423, 93, 249, 124, 312
-1.0043, 313, 113, 344, 176
-1.0043, 169, 217, 232, 280
-1.00432, 261, 113, 292, 176
-1.00438, 193, 161, 224, 288
-1.0044, 289, 97, 320, 224
-1.0044, 369, 193, 496, 320
-1.00441, 185, 81, 248, 208
-1.00444, 369, 145, 400, 272
-1.00453, 389, 201, 420, 264
-1.00454, 153, 169, 216, 232
-1.00455, 205, 89, 236, 152
-1.00456, 57, 241, 88, 304
-1.00457, 369, 225, 400, 288
-1.0046, 225, 81, 256, 144
-1.00462, 265, 273, 296, 336
-1.00464, 337, 169, 368, 232
-1.00464, 233, 49, 296, 176
-1.00465, 273, 113, 304, 176
-1.00465, 225, 33, 256, 160
-1.00474, 121, 105, 184, 168
-1.00475, 69, 209, 100, 336
-1.00475, 385, 209, 416, 336
-1.00477, 385, 225, 416, 288
-1.00477, 169, 177, 232, 304
-1.00477, 361, 209, 424, 336
-1.00486, 97, 161, 160, 224
-1.00488, 209, 41, 272, 104
-1.0049, 337, 65, 400, 192
-1.00492, 113, 33, 240, 160
-1.00493, 353, 201, 384, 264
-1.00502, 161, 97, 224, 160
-1.00502, 333, 105, 364, 168
-1.00505, 245, 49, 276, 176
-1.00506, 249, 65, 312, 128
-1.00511, 181, 97, 212, 224
-1.00516, 105, 225, 136, 288
-1.00516, 229, 249, 260, 312
-1.00516, 113, 137, 176, 200
-1.00519, 81, 209, 112, 272
-1.00519, 81, 161, 112, 288
-1.00525, 169, 73, 232, 136
-1.00527, 345, 105, 408, 168
-1.00529, 261, 49, 292, 176
-1.0053, 369, 161, 432, 224
-1.0053, 257, 1, 500, 128
-1.00532, 105, 257, 136, 320
-1.00535, 349, 81, 380, 208
-1.00539, 305, 65, 368, 128
-1.0054, 205, 49, 236, 176
-1.00541, 281, 65, 344, 128
-1.00541, 313, 65, 376, 192
-1.00543, 181, 177, 212, 304
-1.00551, 169, 145, 200, 272
-1.00553, 401, 209, 464, 272
-1.00557, 193, 105, 224, 168
-1.00562, 401, 233, 464, 296
-1.00562, 285, 33, 316, 160
-1.00564, 161, 113, 224, 240
-1.00566, 145, 145, 208, 208
-1.00567, 137, 201, 200, 264
-1.00569, 185, 41, 248, 104
-1.00571, 389, 161, 420, 224
-1.00574, 113, 177, 144, 304
-1.00574, 253, 89, 284, 152
-1.00581, 97, 65, 160, 320
-1.00585, 389, 113, 420, 240
-1.0059, 289, 89, 320, 152
-1.00594, 369, 129, 432, 192
-1.00594, 177, 97, 208, 160
-1.00598, 369, 81, 400, 208
-1.00599, 405, 177, 436, 304
-1.00599, 73, 265, 104, 328
-1.00601, 101, 185, 132, 248
-1.00601, 241, 33, 304, 96
-1.00602, 273, 49, 304, 176
-1.00604, 169, 97, 200, 224
-1.00607, 369, 65, 432, 320
-1.00608, 333, 49, 364, 176
-1.00609, 157, 177, 188, 304
-1.00611, 177, 121, 208, 184
-1.00614, 49, 209, 112, 336
-1.00615, 73, 161, 136, 224
-1.00615, 121, 161, 184, 224
-1.00617, 41, 209, 104, 272
-1.00618, 281, 33, 344, 96
-1.00619, 161, 193, 224, 256
-1.00619, 181, 209, 212, 272
-1.00622, 205, 65, 236, 128
-1.00622, 193, 201, 224, 264
-1.00623, 125, 209, 156, 336
-1.00624, 409, 121, 472, 184
-1.00624, 89, 137, 152, 200
-1.00625, 169, 209, 200, 336
-1.00626, 349, 33, 380, 160
-1.00629, 165, 137, 196, 200
-1.0063, 181, 153, 212, 216
-1.00632, 365, 113, 396, 176
-1.00632, 389, 129, 420, 192
-1.00634, 25, 257, 88, 320
-1.00634, 401, 129, 432, 256
-1.00636, 113, 81, 176, 144
-1.00638, 313, 89, 344, 152
-1.00639, 301, 105, 332, 168
-1.00642, 305, 49, 336, 176
-1.00643, 149, 185, 180, 248
-1.00643, 369, 145, 432, 272
-1.00645, 337, 65, 400, 128
-1.00647, 81, 177, 112, 240
-1.00649, 173, 177, 204, 240
-1.00649, 165, 113, 196, 176
-1.0065, 349, 121, 380, 184
-1.0065, 349, 145, 380, 208
-1.0065, 101, 161, 132, 224
-1.00653, 353, 49, 480, 176
-1.00653, 65, 65, 192, 192
-1.00653, 229, 57, 260, 120
-1.00653, 125, 217, 156, 280
-1.00655, 169, 201, 200, 264
-1.00655, 381, 65, 412, 192
-1.00656, 273, 1, 304, 128
-1.00658, 157, 65, 188, 192
-1.00659, 49, 161, 112, 224
-1.00659, 121, 65, 184, 320
-1.00661, 249, 65, 280, 128
-1.00661, 205, 249, 236, 312
-1.00663, 177, 49, 208, 176
-1.00664, 333, 81, 364, 144
-1.00666, 365, 33, 396, 160
-1.00666, 125, 129, 156, 256
-1.00668, 97, 113, 160, 176
-1.00669, 277, 89, 308, 152
-1.00669, 349, 169, 380, 232
-1.0067, 189, 129, 220, 192
-1.00673, 425, 161, 456, 288
-1.00673, 65, 65, 128, 320
-1.00675, 337, 241, 400, 304
-1.00676, 57, 209, 88, 336
-1.00677, 317, 33, 348, 160
-1.00678, 157, 161, 188, 224
-1.00681, 157, 209, 188, 272
-1.00684, 121, 161, 152, 224
-1.00685, 437, 161, 468, 288
-1.00689, 225, 33, 256, 96
-1.00689, 405, 201, 436, 264
-1.0069, 157, 129, 188, 256
-1.00691, 17, 209, 80, 272
-1.00691, 425, 233, 488, 296
-1.00692, 425, 81, 456, 208
-1.00694, 369, 137, 400, 200
-1.00694, 409, 169, 472, 232
-1.00694, 129, 225, 192, 288
-1.00695, 405, 225, 436, 288
-1.00696, 361, 81, 424, 144
-1.00698, 149, 137, 180, 200
-1.007, 353, 89, 384, 152
-1.007, 209, 17, 272, 80
-1.007, 313, 41, 376, 104
-1.00701, 205, 41, 236, 104
-1.00701, 385, 89, 416, 152
-1.00703, 193, 81, 224, 144
-1.00705, 125, 241, 156, 304
-1.00706, 145, 113, 176, 240
-1.00709, 101, 129, 132, 256
-1.00709, 181, 233, 212, 296
-1.0071, 145, 41, 208, 104
-1.0071, 113, 49, 176, 112
-1.0071, 401, 89, 464, 152
-1.00711, 405, 153, 436, 216
-1.00718, 121, 137, 152, 200
-1.00719, 297, 1, 328, 128
-1.00719, 361, 41, 424, 104
-1.0072, 269, 65, 300, 128
-1.00721, 65, 201, 96, 264
-1.00723, 177, 73, 208, 136
-1.00723, 377, 113, 408, 176
-1.00723, 121, 185, 152, 248
-1.00723, 145, 73, 208, 136
-1.00725, 193, 49, 224, 176
-1.00728, 337, 41, 400, 104
-1.00732, 441, 97, 472, 224
-1.00733, 81, 81, 144, 144
-1.00736, 145, 65, 208, 320
-1.00736, 253, 1, 284, 128
-1.00739, 257, 49, 320, 176
-1.00741, 125, 81, 156, 208
-1.00742, 297, 9, 360, 72
-1.00743, 401, 65, 464, 320
-1.00746, 241, 9, 304, 72
-1.00747, 145, 161, 176, 288
-1.00749, 9, 233, 72, 296
-1.0075, 225, 1, 352, 128
-1.00753, 185, 33, 248, 160
-1.00753, 49, 161, 112, 288
-1.00754, 81, 57, 144, 120
-1.00755, 417, 209, 448, 336
-1.00758, 401, 49, 464, 112
-1.00758, 433, 89, 496, 152
-1.00759, 437, 209, 468, 336
-1.0076, 409, 145, 472, 208
-1.00763, 433, 129, 496, 192
-1.00765, 69, 161, 100, 288
-1.00765, 113, 129, 144, 256
-1.00765, 185, 17, 248, 80
-1.00767, 401, 81, 432, 208
-1.00767, 393, 257, 456, 320
-1.00768, 149, 17, 180, 144
-1.00769, 161, 65, 224, 192
-1.0077, 113, 25, 176, 88
-1.0077, 161, 241, 224, 304
-1.0077, 449, 145, 480, 272
-1.00771, 201, 1, 232, 128
-1.00772, 369, 105, 432, 168
-1.00778, 165, 17, 196, 144
-1.00781, 449, 49, 480, 176
-1.00786, 241, 1, 272, 128
-1.00786, 65, 137, 128, 200
-1.00786, 385, 193, 448, 320
-1.00788, 345, 113, 408, 240
-1.00788, 361, 249, 424, 312
-1.00789, 433, 33, 464, 160
-1.00792, 381, 17, 412, 144
-1.00793, 369, 1, 432, 64
-1.00795, 161, 17, 224, 80
-1.00795, 417, 33, 448, 160
-1.00797, 397, 1, 428, 128
-1.008, 337, 1, 368, 128
-1.00802, 281, 17, 344, 144
-1.00806, 73, 113, 136, 176
-1.00808, 177, 1, 208, 128
-1.00808, 145, 65, 176, 192
-1.0081, 49, 1, 176, 128
-1.00812, 113, 113, 176, 240
-1.00814, 433, 169, 496, 232
-1.00815, 121, 193, 184, 320
-1.00816, 129, 33, 160, 160
-1.00818, 449, 209, 480, 336
-1.00819, 33, 113, 160, 240
-1.00822, 109, 81, 140, 208
-1.00824, 413, 81, 444, 208
-1.00832, 137, 209, 168, 336
-1.00833, 413, 129, 444, 256
-1.00835, 213, 1, 244, 128
-1.00838, 53, 161, 84, 288
-1.00847, 241, 1, 304, 128
-1.00847, 137, 81, 200, 208
-1.00853, 445, 1, 476, 128
-1.00853, 105, 33, 136, 160
-1.00859, 465, 81, 496, 208
-1.00864, 117, 1, 148, 128
-1.00865, 469, 177, 500, 304
-1.00875, 89, 113, 120, 240
-1.00881, 189, 1, 220, 128
-1.00881, 45, 209, 76, 336
-1.00894, 469, 129, 500, 256
-1.00894, 353, 1, 480, 128
-1.00897, 465, 1, 496, 128
-1.0091, 453, 97, 484, 224
-1.00918, 25, 65, 88, 320
-1.00918, 85, 33, 116, 160
-1.00919, 369, 97, 432, 224
-1.0092, 425, 65, 488, 320
-1.00921, 89, 129, 152, 256
-1.00922, 409, 161, 472, 288
-1.00931, 77, 97, 108, 224
-1.0094, 17, 49, 144, 176
-1.00947, 41, 161, 72, 288
-1.00956, 17, 161, 48, 288
-1.00956, 29, 161, 60, 288
-1.00956, 9, 209, 40, 336
-1.00956, 21, 209, 52, 336
-1.00956, 33, 209, 64, 336
-1.00964, 337, 17, 400, 144
-1.00971, 409, 113, 472, 240
-1.0098, 305, 17, 368, 144
-1.00987, 145, 161, 208, 288
-1.00988, 25, 177, 88, 304
-1.00994, 121, 33, 184, 160
-1.01045, 1, 1, 128, 128
-1.01068, 1, 65, 64, 320
-1.01072, 89, 65, 152, 192
-1.01084, 209, 1, 272, 128
-1.01088, 425, 209, 488, 336
-1.0112, 401, 65, 464, 192
-1.01136, 361, 49, 424, 176
-1.01143, 57, 113, 120, 240
-1.01159, 161, 1, 224, 128
-1.01163, 433, 81, 496, 208
-1.01163, 145, 209, 208, 336
-1.01198, 433, 145, 496, 272
-1.0124, 369, 1, 432, 128
-1.01273, 401, 1, 464, 128
-1.01296, 433, 33, 496, 160
-1.01344, 81, 17, 144, 144
-1.014, 49, 49, 112, 176
-1.01471, 49, 1, 112, 128
-1.01478, 1, 17, 64, 144
-1.01478, 25, 17, 88, 144
-1.01478, 9, 65, 72, 192
-1.01478, 33, 97, 96, 224
-1.01478, 9, 113, 72, 240
-1.01478, 1, 161, 64, 288
-1.01478, 1, 209, 64, 336
-1.01882, 1, 65, 256, 320
