1924
-0.73425, 1, 225, 333, 480
-0.765251, 1, 1, 333, 256
-0.783643, 1, 97, 333, 352
-0.862862, 1, 1, 333, 500
-0.902934, 65, 1, 320, 500
-0.96776, 1, 369, 333, 496
-0.969388, 65, 353, 320, 480
-0.969598, 33, 1, 160, 500
-0.970349, 113, 1, 240, 500
-0.972189, 129, 257, 256, 500
-0.973094, 81, 337, 208, 464
-0.974087, 193, 1, 320, 500
-0.974395, 81, 257, 208, 500
-0.97743, 129, 337, 192, 464
-0.977588, 17, 257, 144, 500
-0.981885, 177, 257, 304, 500
-0.982264, 145, 337, 272, 464
-0.982505, 137, 353, 200, 416
-0.982737, 113, 353, 176, 416
-0.983084, 105, 353, 168, 480
-0.984889, 145, 377, 208, 440
-0.98497, 1, 321, 333, 448
-0.988361, 137, 353, 168, 480
-0.989081, 113, 377, 176, 440
-0.989156, 153, 369, 216, 496
-0.990661, 137, 353, 168, 416
-0.991004, 1, 273, 333, 400
-0.991293, 177, 337, 240, 464
-0.991347, 33, 353, 160, 480
-0.991401, 153, 353, 184, 480
-0.991472, 1, 305, 256, 432
-0.991502, 161, 353, 224, 416
-0.991547, 121, 381, 184, 412
-0.991767, 153, 353, 184, 416
-0.991996, 145, 385, 208, 416
-0.992312, 97, 377, 160, 408
-0.992483, 129, 361, 192, 392
-0.992506, 129, 397, 192, 428
-0.992511, 125, 369, 156, 496
-0.992905, 105, 365, 168, 396
-0.993028, 145, 373, 208, 404
-0.993159, 153, 397, 216, 428
-0.99316, 121, 349, 184, 380
-0.993163, 97, 389, 160, 420
-0.993184, 89, 353, 152, 416
-0.993194, 161, 389, 192, 420
-0.993207, 149, 381, 180, 412
-0.993212, 89, 377, 152, 440
-0.99325, 137, 361, 168, 392
-0.993267, 129, 381, 160, 412
-0.993345, 149, 349, 180, 380
-0.993385, 169, 369, 200, 496
-0.993443, 149, 393, 180, 424
-0.993511, 149, 365, 180, 396
-0.993536, 145, 349, 208, 380
-0.993545, 129, 349, 160, 380
-0.993549, 125, 369, 156, 400
-0.993549, 161, 377, 192, 408
-0.993551, 117, 381, 148, 412
-0.993643, 113, 365, 144, 396
-0.993649, 153, 361, 216, 392
-0.993683, 137, 393, 168, 424
-0.993694, 169, 377, 232, 408
-0.993701, 173, 389, 204, 420
-0.993705, 165, 361, 196, 392
-0.993726, 93, 377, 124, 408
-0.99374, 137, 409, 200, 440
-0.993768, 177, 405, 240, 436
-0.993793, 177, 393, 240, 424
-0.993804, 165, 401, 196, 432
-0.993828, 149, 337, 180, 368
-0.993842, 153, 409, 184, 440
-0.993843, 49, 161, 176, 416
-0.993843, 97, 161, 224, 416
-0.993856, 177, 377, 208, 408
-0.993859, 81, 385, 112, 416
-0.993863, 145, 197, 176, 228
-0.993869, 133, 189, 164, 220
-0.993874, 145, 109, 176, 140
-0.993875, 97, 389, 128, 420
-0.993885, 177, 357, 208, 388
-0.993891, 145, 185, 176, 216
-0.993893, 117, 353, 148, 384
-0.9939, 133, 117, 164, 148
-0.9939, 145, 121, 176, 152
-0.993907, 133, 221, 164, 252
-0.993911, 133, 129, 164, 160
-0.993914, 145, 209, 176, 240
-0.993916, 133, 177, 164, 208
-0.993921, 133, 105, 164, 136
-0.993922, 129, 337, 160, 368
-0.993923, 97, 349, 160, 380
-0.993925, 145, 165, 176, 196
-0.993925, 133, 209, 164, 240
-0.993926, 145, 141, 176, 172
-0.993931, 105, 377, 136, 408
-0.993937, 145, 221, 176, 252
-0.993938, 145, 153, 176, 184
-0.993939, 81, 361, 144, 392
-0.993939, 133, 233, 164, 264
-0.993946, 137, 161, 200, 192
-0.993946, 177, 401, 208, 432
-0.993949, 165, 413, 196, 444
-0.993953, 133, 145, 164, 176
-0.993953, 133, 165, 164, 196
-0.993955, 145, 97, 176, 128
-0.993956, 137, 177, 200, 208
-0.993968, 165, 349, 196, 380
-0.99397, 133, 93, 164, 124
-0.993979, 121, 393, 152, 424
-0.993982, 137, 409, 168, 440
-0.99399, 137, 141, 200, 172
-0.993994, 97, 417, 128, 448
-0.993997, 145, 233, 176, 264
-0.994003, 113, 165, 176, 196
-0.994013, 105, 353, 136, 384
-0.994019, 205, 413, 236, 444
-0.994021, 113, 141, 176, 172
-0.994024, 137, 129, 200, 160
-0.994024, 137, 193, 200, 224
-0.994027, 109, 397, 140, 428
-0.994027, 81, 397, 112, 428
-0.994037, 73, 393, 136, 424
-0.99404, 117, 417, 148, 448
-0.994043, 221, 401, 252, 432
-0.994044, 113, 153, 176, 184
-0.994046, 217, 413, 248, 444
-0.994048, 185, 389, 216, 420
-0.994052, 177, 345, 208, 376
-0.994055, 113, 129, 176, 160
-0.99406, 113, 185, 176, 216
-0.994063, 137, 205, 200, 236
-0.994068, 73, 373, 104, 404
-0.994068, 201, 397, 232, 428
-0.99407, 145, 85, 176, 116
-0.994075, 89, 361, 120, 392
-0.994085, 125, 405, 156, 436
-0.994089, 113, 201, 176, 232
-0.99409, 85, 413, 116, 444
-0.994091, 65, 381, 128, 412
-0.994092, 97, 401, 128, 432
-0.994101, 245, 409, 276, 440
-0.994102, 233, 357, 264, 388
-0.994106, 277, 461, 308, 492
-0.994108, 185, 441, 216, 472
-0.994109, 101, 365, 132, 396
-0.994111, 153, 421, 184, 452
-0.994116, 177, 417, 208, 448
-0.994116, 245, 357, 276, 388
-0.99412, 205, 357, 236, 388
-0.99412, 265, 357, 296, 388
-0.99412, 69, 385, 100, 416
-0.994122, 149, 325, 180, 356
-0.994123, 133, 245, 164, 276
-0.994125, 137, 421, 168, 452
-0.994125, 177, 429, 208, 460
-0.99413, 221, 357, 252, 388
-0.994131, 293, 357, 324, 388
-0.994132, 189, 357, 220, 388
-0.994133, 137, 325, 168, 356
-0.994133, 65, 453, 96, 484
-0.994135, 133, 81, 164, 112
-0.994139, 17, 433, 48, 464
-0.99414, 165, 437, 196, 468
-0.994141, 113, 217, 176, 248
-0.994141, 281, 357, 312, 388
-0.994141, 237, 453, 268, 484
-0.994142, 77, 445, 108, 476
-0.994143, 105, 401, 168, 432
-0.994143, 205, 449, 236, 480
-0.994144, 217, 453, 248, 484
-0.994145, 117, 445, 148, 476
-0.994147, 265, 409, 296, 440
-0.994147, 97, 433, 128, 464
-0.994147, 145, 245, 176, 276
-0.994147, 77, 361, 108, 392
-0.99415, 33, 421, 64, 452
-0.994152, 93, 349, 124, 380
-0.994152, 253, 397, 284, 428
-0.994152, 45, 445, 76, 476
-0.994155, 149, 313, 180, 344
-0.994158, 233, 401, 264, 432
-0.994159, 197, 437, 228, 468
-0.994159, 265, 457, 296, 488
-0.994159, 229, 469, 260, 500
-0.99416, 217, 441, 248, 472
-0.994161, 85, 433, 116, 464
-0.994161, 97, 445, 128, 476
-0.994161, 249, 461, 280, 492
-0.994162, 137, 117, 200, 148
-0.994164, 97, 417, 160, 448
-0.994165, 117, 433, 148, 464
-0.994167, 293, 457, 324, 488
-0.99417, 13, 421, 44, 452
-0.99417, 153, 433, 184, 464
-0.994172, 1, 353, 32, 384
-0.994173, 145, 289, 272, 416
-0.994174, 117, 341, 148, 372
-0.994174, 45, 357, 76, 388
-0.994174, 253, 421, 284, 452
-0.994176, 45, 433, 76, 464
-0.994176, 145, 469, 176, 500
-0.994177, 297, 401, 328, 432
-0.994178, 61, 353, 92, 384
-0.994178, 17, 357, 48, 388
-0.994179, 165, 425, 196, 456
-0.994203, 113, 117, 176, 148
-0.994211, 129, 229, 192, 260
-0.994211, 81, 361, 208, 424
-0.99424, 137, 93, 200, 124
-0.994248, 137, 105, 200, 136
-0.994257, 177, 353, 240, 384
-0.994276, 113, 105, 176, 136
-0.994292, 113, 93, 176, 124
-0.994297, 137, 217, 200, 248
-0.994388, 73, 417, 136, 448
-0.994411, 217, 413, 280, 444
-0.994418, 145, 337, 208, 368
-0.994448, 225, 401, 288, 432
-0.994459, 105, 337, 168, 368
-0.994463, 177, 365, 240, 396
-0.994463, 153, 421, 216, 452
-0.994476, 193, 417, 256, 448
-0.994484, 113, 241, 176, 272
-0.994487, 65, 405, 128, 436
-0.994489, 97, 385, 224, 448
-0.994527, 161, 161, 288, 416
-0.994538, 149, 305, 180, 432
-0.994549, 241, 357, 304, 388
-0.994578, 201, 357, 264, 388
-0.994594, 265, 357, 328, 388
-0.994628, 153, 229, 216, 260
-0.994646, 129, 421, 192, 452
-0.994646, 241, 453, 304, 484
-0.994648, 137, 241, 200, 272
-0.994648, 17, 445, 80, 476
-0.99465, 57, 357, 120, 388
-0.994651, 193, 437, 256, 468
-0.994656, 153, 433, 216, 464
-0.994674, 1, 433, 64, 464
-0.994687, 113, 81, 176, 112
-0.99469, 65, 449, 128, 480
-0.994692, 249, 397, 312, 428
-0.994695, 137, 81, 200, 112
-0.994698, 89, 457, 152, 488
-0.9947, 41, 373, 104, 404
-0.994703, 113, 449, 176, 480
-0.994716, 105, 433, 168, 464
-0.994726, 1, 417, 64, 448
-0.994729, 73, 345, 136, 376
-0.994729, 49, 393, 112, 424
-0.994731, 41, 441, 104, 472
-0.994731, 153, 449, 216, 480
-0.994731, 201, 449, 264, 480
-0.994731, 209, 465, 272, 496
-0.994736, 273, 397, 333, 428
-0.994737, 273, 457, 333, 488
-0.994739, 73, 437, 136, 468
-0.994742, 17, 357, 80, 388
-0.994747, 1, 457, 64, 488
-0.994747, 169, 461, 232, 492
-0.994755, 41, 453, 104, 484
-0.994762, 177, 341, 240, 372
-0.994763, 113, 253, 176, 284
-0.994765, 249, 409, 312, 440
-0.994778, 233, 469, 296, 500
-0.994783, 129, 433, 192, 464
-0.994784, 137, 253, 200, 284
-0.994792, 89, 241, 152, 272
-0.994794, 129, 465, 192, 496
-0.994802, 257, 425, 320, 456
-0.994807, 33, 429, 96, 460
-0.994807, 97, 229, 160, 260
-0.994825, 225, 441, 288, 472
-0.99483, 201, 393, 264, 424
-0.994838, 201, 345, 264, 376
-0.994838, 257, 345, 320, 376
-0.994843, 41, 417, 104, 448
-0.994849, 177, 449, 240, 480
-0.994849, 145, 377, 176, 440
-0.994864, 9, 393, 72, 424
-0.994869, 273, 409, 333, 440
-0.994883, 225, 345, 288, 376
-0.994888, 1, 345, 64, 376
-0.99489, 233, 425, 296, 456
-0.994896, 41, 345, 104, 376
-0.994896, 257, 437, 320, 468
-0.994896, 137, 269, 200, 300
-0.994911, 153, 321, 216, 352
-0.994932, 113, 265, 176, 296
-0.99494, 241, 385, 304, 416
-0.994942, 273, 469, 333, 500
-0.994945, 25, 469, 88, 500
-0.994948, 129, 309, 192, 340
-0.994953, 89, 469, 152, 500
-0.994963, 65, 461, 128, 492
-0.994995, 201, 369, 264, 400
-0.994999, 89, 217, 152, 248
-0.995002, 1, 381, 64, 412
-0.99501, 113, 321, 176, 352
-0.995016, 137, 281, 200, 312
-0.995026, 265, 385, 328, 416
-0.995028, 233, 369, 296, 400
-0.995031, 129, 297, 192, 328
-0.995031, 209, 381, 272, 412
-0.995219, 105, 305, 168, 432
-0.99525, 81, 337, 144, 464
-0.995514, 157, 377, 188, 440
-0.995716, 129, 353, 256, 416
-0.995784, 33, 353, 160, 416
-0.995862, 65, 289, 192, 416
-0.995898, 145, 329, 208, 392
-0.995972, 149, 329, 180, 392
-0.996018, 65, 1, 192, 256
-0.996164, 153, 321, 216, 448
-0.996235, 193, 337, 320, 464
-0.996303, 145, 401, 208, 464
-0.996367, 49, 385, 176, 448
-0.99647, 113, 337, 144, 464
-0.996633, 105, 329, 168, 392
-0.996672, 1, 65, 333, 192
-0.996801, 147, 353, 162, 416
-0.996816, 81, 409, 208, 472
-0.996816, 113, 65, 240, 320
-0.996837, 1, 17, 333, 144
-0.996874, 181, 353, 212, 480
-0.996959, 137, 305, 168, 432
-0.997024, 165, 353, 196, 416
-0.997057, 169, 377, 232, 440
-0.997187, 17, 1, 144, 256
-0.997209, 145, 377, 272, 440
-0.997664, 125, 321, 156, 448
-0.997679, 161, 377, 176, 440
-0.997684, 153, 353, 168, 416
-0.997802, 97, 393, 224, 424
-0.997859, 101, 337, 132, 464
-0.997862, 177, 1, 304, 256
-0.997882, 155, 377, 170, 440
-0.997917, 81, 381, 208, 412
-0.997917, 121, 401, 184, 464
-0.997955, 141, 353, 156, 416
-0.997974, 169, 377, 184, 440
-0.997985, 151, 329, 166, 392
-0.997985, 169, 353, 184, 416
-0.99799, 177, 353, 304, 416
-0.998018, 161, 353, 176, 416
-0.998029, 129, 377, 160, 440
-0.998123, 241, 413, 272, 428
-0.998124, 177, 379, 208, 394
-0.998124, 77, 379, 108, 394
-0.998125, 181, 437, 212, 452
-0.998125, 89, 419, 120, 434
-0.998125, 149, 341, 180, 356
-0.998125, 97, 357, 128, 372
-0.998126, 165, 435, 196, 450
-0.998127, 89, 413, 120, 428
-0.998128, 133, 409, 164, 424
-0.998129, 81, 405, 112, 420
-0.998129, 165, 417, 196, 432
-0.998129, 121, 243, 152, 258
-0.998129, 117, 413, 148, 428
-0.998131, 225, 451, 256, 466
-0.998131, 117, 351, 148, 366
-0.998131, 145, 1, 208, 500
-0.998132, 117, 399, 148, 414
-0.998133, 105, 363, 136, 378
-0.998137, 117, 419, 148, 434
-0.998137, 209, 419, 240, 434
-0.998137, 181, 363, 212, 378
-0.998138, 77, 397, 108, 412
-0.998139, 177, 369, 208, 384
-0.99814, 145, 241, 176, 256
-0.99814, 101, 413, 132, 428
-0.998143, 145, 85, 176, 100
-0.998143, 133, 85, 164, 100
-0.998143, 225, 407, 256, 422
-0.998144, 177, 411, 208, 426
-0.998144, 101, 419, 132, 434
-0.998145, 57, 337, 120, 464
-0.998146, 89, 397, 120, 412
-0.998147, 153, 417, 184, 432
-0.998148, 133, 97, 164, 112
-0.998149, 1, 161, 128, 416
-0.998152, 145, 235, 176, 250
-0.998152, 133, 243, 164, 258
-0.998152, 137, 415, 168, 430
-0.998153, 145, 97, 176, 112
-0.998154, 133, 153, 164, 168
-0.998154, 105, 373, 136, 388
-0.998155, 201, 411, 232, 426
-0.998156, 133, 223, 164, 238
-0.998156, 133, 91, 164, 106
-0.998156, 133, 173, 164, 188
-0.998157, 137, 403, 168, 418
-0.998158, 149, 403, 180, 418
-0.998158, 133, 179, 164, 194
-0.998158, 145, 179, 176, 194
-0.998159, 133, 217, 164, 232
-0.998159, 145, 91, 176, 106
-0.998159, 217, 413, 248, 428
-0.99816, 161, 355, 192, 370
-0.99816, 145, 103, 176, 118
-0.99816, 145, 153, 176, 168
-0.998161, 145, 173, 176, 188
-0.998161, 133, 167, 164, 182
-0.998162, 153, 347, 184, 362
-0.998162, 133, 211, 164, 226
-0.998163, 133, 203, 164, 218
-0.998163, 133, 145, 164, 160
-0.998163, 133, 135, 164, 150
-0.998164, 145, 167, 176, 182
-0.998164, 173, 405, 204, 420
-0.998165, 133, 127, 164, 142
-0.998165, 133, 161, 164, 176
-0.998165, 145, 229, 176, 244
-0.998166, 133, 107, 164, 122
-0.998166, 149, 409, 180, 424
-0.998167, 101, 397, 132, 412
-0.998167, 133, 185, 164, 200
-0.998167, 145, 159, 176, 174
-0.998168, 93, 379, 124, 394
-0.998168, 145, 133, 176, 148
-0.998169, 145, 185, 176, 200
-0.998169, 145, 143, 176, 158
-0.998169, 133, 121, 164, 136
-0.99817, 145, 213, 176, 228
-0.998172, 145, 125, 176, 140
-0.998173, 145, 205, 176, 220
-0.998173, 177, 397, 208, 412
-0.998173, 145, 191, 176, 206
-0.998174, 145, 221, 176, 236
-0.998174, 133, 115, 164, 130
-0.998176, 145, 119, 176, 134
-0.998176, 133, 191, 164, 206
-0.998179, 133, 197, 164, 212
-0.998179, 129, 349, 160, 364
-0.99818, 165, 371, 196, 386
-0.998181, 133, 231, 164, 246
-0.998181, 77, 385, 108, 400
-0.998184, 177, 357, 208, 372
-0.998187, 145, 109, 176, 124
-0.998187, 105, 379, 136, 394
-0.998188, 161, 411, 192, 426
-0.998189, 145, 197, 176, 212
-0.99819, 177, 385, 208, 400
-0.998195, 109, 357, 140, 372
-0.998195, 81, 391, 112, 406
-0.998196, 161, 377, 192, 392
-0.998196, 105, 385, 136, 400
-0.998197, 117, 373, 148, 388
-0.998199, 113, 393, 144, 408
-0.998203, 133, 397, 164, 412
-0.998206, 157, 361, 188, 376
-0.998211, 133, 237, 164, 252
-0.998213, 161, 401, 192, 416
-0.998215, 89, 385, 120, 400
-0.998222, 149, 373, 180, 388
-0.998229, 117, 385, 148, 400
-0.99824, 129, 391, 160, 406
-0.998242, 129, 367, 160, 382
-0.998245, 117, 363, 148, 378
-0.998246, 97, 391, 128, 406
-0.998247, 149, 367, 180, 382
-0.998248, 169, 363, 200, 378
-0.998248, 177, 391, 208, 406
-0.998256, 145, 397, 176, 412
-0.998261, 147, 349, 162, 380
-0.998264, 121, 379, 152, 394
-0.998265, 105, 1, 168, 500
-0.998266, 153, 381, 168, 412
-0.998271, 149, 353, 180, 368
-0.998272, 209, 161, 333, 416
-0.99829, 161, 383, 192, 398
-0.998292, 149, 379, 180, 394
-0.998292, 141, 391, 172, 406
-0.9983, 129, 385, 160, 400
-0.998307, 129, 355, 160, 370
-0.998323, 145, 359, 176, 374
-0.998339, 165, 389, 196, 404
-0.99835, 133, 361, 164, 376
-0.998358, 17, 305, 144, 432
-0.998378, 133, 377, 164, 392
-0.998381, 165, 395, 196, 410
-0.998388, 149, 385, 180, 400
-0.998388, 133, 377, 148, 408
-0.998398, 153, 391, 184, 406
-0.998401, 33, 409, 160, 472
-0.998425, 169, 385, 184, 416
-0.998431, 125, 353, 156, 416
-0.998474, 161, 385, 176, 416
-0.998477, 137, 177, 200, 240
-0.998496, 113, 153, 176, 216
-0.998496, 169, 321, 200, 448
-0.998544, 129, 289, 192, 416
-0.998545, 137, 137, 200, 200
-0.9986, 129, 353, 144, 416
-0.998607, 143, 381, 158, 412
-0.998616, 139, 361, 154, 392
-0.998622, 145, 393, 208, 408
-0.998624, 1, 385, 128, 448
-0.998636, 137, 387, 200, 402
-0.998648, 175, 361, 190, 424
-0.99867, 105, 387, 168, 402
-0.998678, 177, 401, 304, 464
-0.998678, 113, 361, 240, 392
-0.998688, 121, 381, 184, 396
-0.99869, 137, 361, 200, 376
-0.998693, 149, 377, 164, 440
-0.998712, 137, 399, 200, 414
-0.998713, 113, 353, 144, 416
-0.998715, 113, 393, 176, 408
-0.998718, 135, 369, 150, 432
-0.998718, 153, 349, 168, 380
-0.998721, 145, 381, 208, 396
-0.998721, 137, 355, 200, 370
-0.998725, 113, 361, 176, 376
-0.998728, 169, 393, 232, 408
-0.998734, 97, 379, 160, 394
-0.998737, 89, 393, 152, 408
-0.998746, 121, 367, 184, 382
-0.998746, 161, 387, 224, 402
-0.998753, 105, 355, 168, 370
-0.998753, 121, 373, 184, 388
-0.998767, 123, 353, 138, 416
-0.998769, 149, 393, 164, 424
-0.998772, 129, 409, 256, 472
-0.998777, 153, 375, 216, 390
-0.998777, 81, 387, 144, 402
-0.998786, 145, 367, 208, 382
-0.998786, 89, 363, 152, 378
-0.998789, 113, 399, 176, 414
-0.998789, 137, 405, 200, 420
-0.99879, 161, 401, 224, 416
-0.998793, 169, 381, 232, 396
-0.998793, 165, 373, 180, 404
-0.998795, 177, 409, 240, 424
-0.998796, 137, 173, 200, 188
-0.998796, 57, 385, 120, 400
-0.998797, 137, 141, 200, 156
-0.998797, 137, 411, 200, 426
-0.998798, 137, 161, 200, 176
-0.998798, 149, 89, 164, 152
-0.998799, 81, 357, 144, 372
-0.9988, 137, 147, 200, 162
-0.9988, 137, 153, 200, 168
-0.998801, 137, 127, 200, 142
-0.998801, 137, 167, 200, 182
-0.998801, 137, 189, 200, 204
-0.998801, 137, 195, 200, 210
-0.998801, 137, 201, 200, 216
-0.998801, 137, 207, 200, 222
-0.998801, 129, 237, 192, 252
-0.998801, 113, 135, 176, 150
-0.998801, 113, 141, 176, 156
-0.998802, 137, 135, 200, 150
-0.998802, 137, 213, 200, 228
-0.998803, 137, 183, 200, 198
-0.998803, 113, 165, 176, 180
-0.998803, 113, 155, 176, 170
-0.998805, 113, 149, 176, 164
-0.998805, 113, 175, 176, 190
-0.998805, 113, 127, 176, 142
-0.998805, 113, 189, 176, 204
-0.998805, 113, 195, 176, 210
-0.998805, 113, 201, 176, 216
-0.998805, 113, 207, 176, 222
-0.998806, 137, 219, 200, 234
-0.998808, 113, 213, 176, 228
-0.998808, 113, 219, 176, 234
-0.998809, 137, 229, 200, 244
-0.998809, 113, 181, 176, 196
-0.99881, 113, 229, 176, 244
-0.998811, 137, 121, 200, 136
-0.998812, 97, 373, 160, 388
-0.998812, 65, 393, 128, 408
-0.998816, 97, 413, 160, 428
-0.998816, 161, 357, 224, 372
-0.998816, 113, 121, 176, 136
-0.998816, 137, 115, 200, 130
-0.998817, 137, 91, 200, 106
-0.998818, 137, 103, 200, 118
-0.998818, 137, 109, 200, 124
-0.998819, 137, 347, 200, 362
-0.998819, 81, 337, 208, 400
-0.998819, 185, 387, 248, 402
-0.99882, 137, 97, 200, 112
-0.998821, 113, 115, 176, 130
-0.998822, 113, 103, 176, 118
-0.998822, 113, 109, 176, 124
-0.998822, 89, 399, 152, 414
-0.998822, 185, 415, 248, 430
-0.998822, 217, 411, 280, 426
-0.998822, 113, 91, 176, 106
-0.998823, 73, 379, 136, 394
-0.998823, 175, 389, 190, 420
-0.998824, 113, 97, 176, 112
-0.998826, 145, 417, 208, 432
-0.998827, 113, 245, 176, 260
-0.998827, 81, 419, 144, 434
-0.998828, 177, 365, 240, 380
-0.998829, 113, 349, 176, 364
-0.99883, 147, 365, 162, 396
-0.998831, 121, 419, 184, 434
-0.998832, 113, 405, 176, 420
-0.998833, 113, 85, 176, 100
-0.998834, 1, 435, 64, 450
-0.998834, 137, 85, 200, 100
-0.998835, 153, 437, 216, 452
-0.998836, 57, 409, 120, 424
-0.998838, 185, 401, 248, 416
-0.998839, 41, 379, 104, 394
-0.998839, 177, 431, 240, 446
-0.99884, 145, 393, 272, 424
-0.99884, 97, 239, 160, 254
-0.998841, 65, 441, 128, 456
-0.998841, 73, 373, 136, 388
-0.998841, 25, 437, 88, 452
-0.998842, 209, 417, 272, 432
-0.998842, 153, 431, 216, 446
-0.998842, 217, 451, 280, 466
-0.998842, 233, 479, 296, 494
-0.998843, 217, 405, 280, 420
-0.998843, 225, 469, 288, 484
-0.998844, 193, 441, 256, 456
-0.998844, 161, 443, 224, 458
-0.998844, 129, 439, 192, 454
-0.998844, 153, 235, 216, 250
-0.998845, 89, 447, 152, 462
-0.998845, 89, 407, 152, 422
-0.998845, 121, 433, 184, 448
-0.998845, 257, 477, 320, 492
-0.998846, 137, 243, 200, 258
-0.998847, 57, 415, 120, 430
-0.998847, 25, 431, 88, 446
-0.998848, 177, 371, 240, 386
-0.998848, 137, 253, 200, 268
-0.998848, 97, 427, 160, 442
-0.998848, 49, 399, 112, 414
-0.998849, 233, 485, 296, 500
-0.998849, 161, 351, 224, 366
-0.998849, 65, 455, 128, 470
-0.998849, 209, 485, 272, 500
-0.99885, 33, 447, 96, 462
-0.99885, 129, 471, 192, 486
-0.99885, 177, 449, 240, 464
-0.998892, 171, 373, 186, 404
-0.998904, 129, 365, 144, 396
-0.998966, 143, 329, 158, 392
-0.998968, 143, 81, 158, 144
-0.998971, 171, 361, 186, 392
-0.999007, 141, 349, 156, 380
-0.999042, 129, 329, 160, 392
-0.99905, 145, 161, 160, 224
-0.999055, 163, 397, 178, 428
-0.99907, 159, 373, 174, 404
-0.999073, 147, 337, 162, 368
-0.999077, 153, 361, 168, 392
-0.999085, 97, 405, 224, 436
-0.999094, 177, 377, 192, 408
-0.999095, 113, 193, 176, 256
-0.999097, 157, 397, 172, 428
-0.999122, 141, 377, 156, 440
-0.99914, 177, 357, 192, 388
-0.999143, 127, 377, 142, 408
-0.999163, 113, 129, 176, 192
-0.999171, 99, 353, 114, 416
-0.999177, 113, 353, 128, 416
-0.999181, 151, 185, 166, 248
-0.9992, 149, 101, 164, 132
-0.999215, 65, 365, 192, 396
-0.999223, 123, 365, 138, 396
-0.999241, 129, 377, 144, 440
-0.999251, 151, 225, 166, 288
-0.999257, 115, 377, 130, 408
-0.999262, 145, 137, 160, 200
-0.99928, 153, 333, 168, 364
-0.999281, 169, 397, 184, 428
-0.999305, 139, 397, 154, 428
-0.999305, 149, 113, 164, 176
-0.999305, 165, 361, 180, 392
-0.999323, 101, 381, 116, 412
-0.999324, 151, 237, 166, 268
-0.999326, 107, 385, 122, 448
-0.999337, 149, 89, 164, 120
-0.999341, 93, 381, 108, 412
-0.999349, 143, 97, 158, 128
-0.999357, 151, 249, 166, 312
-0.999362, 129, 381, 256, 412
-0.999375, 175, 385, 190, 448
-0.999376, 117, 377, 148, 440
-0.999381, 167, 409, 182, 440
-0.999389, 149, 113, 164, 144
-0.999391, 145, 185, 160, 216
-0.999393, 143, 337, 158, 464
-0.999394, 149, 155, 164, 170
-0.999395, 145, 169, 160, 184
-0.999395, 145, 331, 160, 346
-0.999395, 171, 349, 186, 380
-0.999395, 131, 241, 146, 256
-0.999395, 145, 199, 160, 214
-0.999396, 91, 395, 106, 410
-0.999396, 145, 275, 160, 290
-0.999396, 161, 371, 176, 386
-0.999397, 145, 339, 160, 354
-0.999397, 49, 393, 176, 424
-0.999397, 171, 403, 186, 418
-0.999398, 151, 295, 166, 310
-0.999398, 151, 329, 166, 344
-0.999398, 145, 175, 160, 190
-0.999398, 159, 401, 174, 416
-0.999399, 145, 185, 160, 248
-0.999399, 145, 257, 160, 272
-0.999399, 151, 253, 166, 268
-0.999399, 137, 237, 152, 252
-0.9994, 179, 399, 194, 414
-0.9994, 151, 261, 166, 276
-0.9994, 151, 169, 166, 184
-0.9994, 155, 181, 170, 196
-0.9994, 151, 301, 166, 316
-0.9994, 129, 355, 144, 370
-0.9994, 113, 393, 128, 408
-0.999401, 145, 283, 160, 298
-0.999401, 157, 409, 172, 424
-0.999401, 145, 249, 160, 264
-0.999401, 121, 359, 136, 374
-0.999402, 173, 353, 188, 480
-0.999402, 151, 289, 166, 304
-0.999402, 145, 269, 160, 284
-0.999403, 143, 121, 158, 136
-0.999404, 111, 381, 126, 396
-0.999404, 153, 415, 168, 430
-0.999404, 143, 133, 158, 148
-0.999405, 151, 163, 166, 178
-0.999405, 145, 263, 160, 278
-0.999405, 217, 411, 232, 426
-0.999406, 165, 401, 180, 416
-0.999406, 149, 129, 164, 160
-0.999406, 151, 283, 166, 298
-0.999407, 143, 115, 158, 130
-0.999407, 149, 143, 164, 158
-0.999407, 151, 277, 166, 292
-0.999407, 145, 163, 160, 178
-0.999409, 145, 193, 160, 208
-0.999409, 151, 267, 166, 282
-0.999409, 145, 243, 160, 258
-0.999409, 143, 127, 158, 142
-0.999409, 161, 359, 176, 374
-0.99941, 145, 181, 160, 196
-0.999411, 145, 223, 160, 238
-0.999411, 151, 335, 166, 350
-0.999412, 149, 137, 164, 152
-0.999412, 137, 353, 152, 480
-0.999413, 119, 379, 134, 394
-0.999413, 151, 245, 166, 260
-0.999413, 149, 131, 164, 146
-0.999414, 125, 375, 140, 390
-0.999416, 141, 347, 156, 362
-0.999416, 143, 109, 158, 124
-0.999416, 145, 237, 160, 252
-0.999417, 151, 223, 166, 238
-0.999418, 145, 187, 160, 202
-0.999418, 151, 197, 166, 212
-0.999419, 149, 123, 164, 138
-0.999419, 93, 389, 108, 404
-0.99942, 145, 225, 160, 288
-0.999421, 143, 101, 158, 116
-0.999422, 143, 95, 158, 110
-0.999422, 169, 369, 184, 384
-0.999422, 171, 357, 186, 372
-0.999423, 223, 411, 238, 426
-0.999424, 121, 381, 136, 412
-0.999424, 151, 197, 166, 228
-0.999425, 143, 85, 158, 100
-0.999425, 137, 81, 200, 208
-0.999426, 119, 377, 134, 440
-0.999426, 107, 391, 122, 406
-0.999426, 159, 361, 174, 392
-0.999427, 151, 373, 166, 388
-0.999427, 133, 393, 148, 408
-0.999427, 101, 381, 116, 396
-0.999428, 151, 187, 166, 202
-0.999428, 125, 365, 140, 380
-0.999429, 93, 383, 108, 398
-0.999429, 93, 377, 108, 440
-0.999429, 125, 389, 140, 404
-0.99943, 149, 115, 164, 130
-0.999431, 149, 93, 164, 108
-0.999431, 147, 345, 162, 360
-0.999432, 145, 229, 160, 244
-0.999432, 145, 257, 160, 320
-0.999433, 155, 161, 170, 224
-0.999433, 219, 417, 234, 432
-0.999434, 149, 99, 164, 114
-0.999434, 133, 353, 148, 384
-0.999436, 137, 355, 152, 370
-0.999437, 141, 383, 156, 398
-0.999439, 119, 389, 134, 404
-0.99944, 153, 347, 168, 362
-0.99944, 161, 377, 176, 392
-0.99944, 177, 361, 192, 376
-0.999441, 151, 229, 166, 244
-0.999441, 149, 87, 164, 102
-0.999442, 145, 229, 160, 260
-0.999444, 101, 377, 116, 440
-0.999444, 17, 433, 144, 496
-0.999445, 151, 365, 166, 380
-0.999446, 113, 387, 128, 402
-0.999447, 139, 395, 154, 410
-0.999447, 129, 383, 144, 398
-0.999447, 169, 375, 184, 390
-0.999448, 151, 239, 166, 254
-0.999451, 135, 387, 150, 402
-0.999451, 149, 105, 164, 120
-0.999451, 113, 225, 176, 480
-0.999452, 153, 399, 168, 414
-0.999452, 131, 367, 146, 382
-0.999452, 151, 225, 166, 256
-0.999458, 141, 337, 156, 368
-0.999459, 181, 393, 196, 408
-0.99946, 101, 389, 116, 404
-0.999465, 151, 305, 166, 368
-0.999466, 145, 363, 160, 378
-0.999466, 151, 273, 166, 336
-0.999467, 177, 401, 192, 432
-0.999469, 143, 113, 158, 176
-0.999469, 177, 385, 192, 400
-0.999471, 135, 345, 150, 408
-0.999472, 153, 379, 168, 394
-0.999473, 145, 173, 160, 204
-0.999476, 131, 361, 146, 376
-0.999476, 151, 281, 166, 312
-0.999477, 151, 253, 166, 284
-0.99948, 151, 265, 166, 296
-0.99948, 153, 353, 168, 368
-0.999484, 171, 363, 186, 378
-0.999484, 159, 409, 174, 440
-0.999484, 143, 85, 158, 116
-0.999485, 145, 241, 160, 272
-0.999486, 143, 109, 158, 140
-0.999486, 151, 165, 166, 196
-0.999488, 167, 353, 182, 480
-0.999491, 141, 371, 156, 386
-0.999492, 145, 395, 160, 410
-0.999494, 143, 121, 158, 152
-0.999495, 173, 397, 188, 412
-0.999498, 131, 377, 146, 392
-0.999498, 159, 395, 174, 410
-0.9995, 151, 359, 166, 374
-0.9995, 147, 379, 162, 394
-0.999501, 145, 265, 160, 296
-0.999503, 181, 389, 196, 420
-0.999505, 151, 387, 166, 402
-0.999506, 171, 381, 186, 396
-0.999509, 133, 389, 148, 420
-0.999515, 155, 185, 170, 216
-0.999515, 93, 393, 108, 424
-0.999516, 147, 351, 162, 366
-0.999528, 139, 361, 154, 376
-0.99953, 145, 281, 160, 312
-0.999531, 161, 383, 176, 398
-0.999534, 151, 393, 166, 408
-0.999534, 167, 395, 182, 410
-0.999536, 151, 401, 166, 464
-0.999537, 137, 377, 152, 392
-0.999543, 145, 161, 160, 192
-0.999545, 131, 353, 146, 480
-0.999545, 129, 329, 256, 392
-0.999547, 121, 353, 136, 384
-0.999548, 143, 389, 158, 404
-0.999552, 145, 197, 160, 228
-0.999558, 145, 217, 160, 248
-0.999559, 107, 345, 122, 408
-0.999561, 157, 389, 172, 404
-0.999563, 161, 349, 176, 380
-0.999564, 143, 133, 158, 164
-0.999565, 151, 149, 166, 180
-0.999565, 175, 391, 190, 406
-0.999567, 117, 365, 132, 396
-0.999567, 109, 373, 124, 404
-0.999568, 153, 409, 168, 440
-0.999571, 179, 337, 194, 464
-0.999574, 155, 213, 170, 244
-0.999575, 145, 281, 160, 344
-0.999575, 129, 349, 256, 380
-0.999576, 153, 321, 168, 448
-0.999578, 145, 253, 160, 284
-0.999586, 145, 145, 160, 176
-0.999587, 173, 413, 188, 444
-0.999588, 33, 381, 160, 412
-0.999591, 145, 357, 160, 372
-0.999596, 147, 325, 162, 356
-0.999597, 151, 293, 166, 324
-0.999604, 145, 405, 272, 436
-0.999605, 151, 137, 166, 200
-0.999606, 105, 393, 120, 424
-0.999607, 151, 313, 166, 344
-0.999607, 49, 353, 176, 384
-0.999612, 87, 381, 102, 412
-0.999616, 219, 409, 234, 440
-0.999627, 115, 353, 130, 384
-0.999635, 145, 293, 160, 324
-0.999636, 167, 389, 182, 404
-0.999639, 89, 353, 104, 416
-0.99964, 145, 305, 160, 368
-0.999642, 145, 409, 160, 440
-0.999645, 127, 353, 142, 384
-0.999647, 107, 417, 122, 448
-0.999649, 145, 305, 160, 336
-0.999657, 167, 305, 182, 432
-0.999671, 65, 385, 320, 448
-0.999678, 225, 409, 240, 440
-0.99968, 175, 337, 190, 400
-0.99968, 17, 329, 144, 392
-0.999691, 183, 401, 198, 432
-0.999693, 159, 353, 174, 480
-0.999693, 111, 389, 126, 420
-0.999693, 1, 161, 333, 288
-0.999693, 1, 209, 333, 336
-0.999694, 167, 401, 182, 464
-0.999698, 137, 113, 200, 176
-0.999699, 179, 345, 194, 376
-0.999701, 129, 329, 144, 392
-0.999705, 131, 237, 146, 268
-0.999708, 125, 353, 140, 480
-0.999708, 137, 229, 152, 260
-0.99971, 121, 417, 136, 448
-0.999713, 127, 389, 142, 420
-0.999716, 129, 417, 144, 448
-0.999719, 115, 417, 130, 448
-0.999721, 219, 401, 234, 464
-0.999722, 177, 381, 304, 412
-0.999722, 135, 409, 150, 440
-0.999726, 147, 289, 162, 416
-0.999729, 149, 369, 164, 496
-0.999733, 99, 409, 114, 440
-0.999738, 89, 409, 152, 472
-0.999742, 113, 337, 128, 464
-0.999751, 181, 361, 196, 424
-0.999757, 97, 417, 224, 448
-0.99976, 145, 257, 208, 500
-0.999761, 161, 329, 176, 392
-0.999764, 119, 393, 134, 424
-0.999766, 109, 361, 124, 392
-0.999766, 119, 337, 134, 464
-0.999767, 95, 369, 110, 400
-0.999769, 135, 341, 150, 372
-0.999771, 65, 353, 320, 416
-0.999772, 179, 413, 194, 444
-0.999777, 149, 81, 164, 208
-0.999779, 225, 397, 240, 428
-0.999782, 143, 401, 158, 464
-0.999783, 141, 289, 156, 416
-0.999785, 105, 409, 120, 472
-0.999792, 169, 329, 184, 392
-0.999796, 95, 353, 110, 480
-0.999797, 83, 353, 98, 416
-0.999797, 113, 385, 128, 448
-0.999801, 183, 357, 198, 388
-0.999801, 131, 305, 146, 432
-0.999807, 129, 401, 144, 432
-0.99981, 153, 77, 168, 108
-0.999813, 137, 201, 200, 264
-0.999813, 145, 433, 272, 496
-0.999817, 103, 369, 118, 400
-0.99982, 213, 413, 228, 444
-0.99982, 87, 393, 102, 424
-0.999822, 245, 401, 260, 432
-0.999822, 173, 305, 188, 432
-0.999823, 101, 337, 116, 464
-0.999823, 145, 129, 160, 256
-0.999825, 217, 397, 232, 428
-0.999826, 287, 461, 302, 492
-0.999827, 187, 385, 202, 416
-0.999827, 97, 433, 224, 496
-0.999828, 99, 393, 114, 424
-0.999829, 107, 337, 122, 464
-0.999831, 255, 409, 270, 440
-0.999846, 207, 357, 222, 388
-0.999846, 237, 357, 252, 388
-0.999848, 101, 421, 116, 452
-0.99985, 141, 317, 156, 348
-0.999852, 185, 433, 200, 464
-0.999853, 87, 361, 102, 392
-0.999853, 247, 357, 262, 388
-0.999855, 139, 145, 154, 176
-0.999855, 151, 129, 166, 256
-0.999855, 211, 401, 226, 432
-0.999858, 143, 81, 158, 208
-0.999858, 129, 409, 144, 472
-0.999869, 121, 329, 136, 392
-0.999877, 133, 225, 164, 480
-0.999882, 125, 305, 140, 432
-0.999889, 135, 393, 150, 456
-0.999892, 151, 193, 166, 320
-0.999894, 89, 353, 104, 480
-0.999898, 145, 209, 160, 336
-0.999923, 179, 289, 194, 416
-0.999939, 151, 241, 166, 368
-0.999944, 159, 305, 174, 432
-0.999947, 83, 337, 98, 464
-0.999952, 185, 337, 200, 464
-0.999967, 161, 417, 288, 448
-0.999991, 149, 65, 164, 128
-0.999994, 157, 401, 172, 464
-0.999998, 87, 385, 102, 448
-0.999999, 69, 353, 84, 480
-1.00001, 75, 337, 90, 464
-1.00001, 25, 337, 40, 464
-1.00001, 3, 337, 18, 464
-1.00002, 111, 409, 126, 472
-1.00002, 247, 353, 262, 480
-1.00002, 279, 353, 294, 480
-1.00002, 299, 353, 314, 480
-1.00002, 113, 289, 128, 416
-1.00002, 201, 353, 216, 480
-1.00002, 191, 353, 206, 480
-1.00002, 95, 305, 110, 432
-1.00002, 227, 353, 242, 480
-1.00003, 259, 353, 274, 480
-1.00003, 11, 337, 26, 464
-1.00003, 311, 353, 326, 480
-1.00003, 119, 409, 134, 472
-1.00003, 235, 337, 250, 464
-1.00004, 293, 353, 308, 480
-1.00004, 151, 33, 166, 160
-1.00004, 59, 353, 74, 480
-1.00004, 19, 353, 34, 480
-1.00004, 35, 337, 50, 464
-1.00004, 253, 337, 268, 464
-1.00004, 47, 353, 62, 480
-1.00004, 211, 337, 226, 464
-1.00004, 285, 337, 300, 464
-1.00005, 225, 393, 240, 456
-1.00005, 271, 337, 286, 464
-1.00005, 305, 353, 320, 480
-1.00005, 317, 353, 332, 480
-1.00006, 175, 409, 190, 472
-1.00006, 41, 337, 56, 464
-1.00006, 53, 337, 68, 464
-1.00006, 241, 337, 256, 464
-1.00006, 221, 337, 236, 464
-1.00007, 119, 289, 134, 416
-1.00007, 49, 405, 176, 436
-1.00007, 143, 33, 158, 160
-1.00007, 139, 57, 154, 120
-1.00007, 201, 353, 216, 416
-1.00008, 265, 337, 280, 464
-1.00008, 89, 305, 104, 432
-1.00008, 105, 289, 120, 416
-1.00009, 149, 257, 180, 500
-1.00009, 157, 241, 172, 368
-1.0001, 229, 305, 244, 432
-1.0001, 155, 81, 170, 208
-1.0001, 195, 353, 210, 416
-1.0001, 99, 409, 114, 472
-1.00011, 209, 377, 333, 440
-1.00011, 193, 305, 208, 432
-1.00011, 201, 305, 216, 432
-1.00011, 181, 337, 196, 400
-1.00011, 11, 409, 26, 472
-1.00011, 279, 305, 294, 432
-1.00011, 309, 305, 324, 432
-1.00011, 177, 353, 304, 384
-1.00011, 59, 305, 74, 432
-1.00012, 295, 305, 310, 432
-1.00012, 185, 289, 200, 416
-1.00012, 75, 289, 90, 416
-1.00012, 19, 305, 34, 432
-1.00012, 317, 305, 332, 432
-1.00012, 47, 417, 62, 480
-1.00012, 251, 289, 266, 416
-1.00012, 69, 305, 84, 432
-1.00013, 241, 289, 256, 416
-1.00013, 269, 289, 284, 416
-1.00013, 1, 397, 128, 428
-1.00013, 259, 305, 274, 432
-1.00013, 157, 161, 172, 288
-1.00013, 9, 289, 24, 416
-1.00013, 163, 257, 178, 384
-1.00013, 213, 353, 228, 416
-1.00013, 47, 305, 62, 432
-1.00013, 303, 305, 318, 432
-1.00014, 235, 289, 250, 416
-1.00014, 25, 289, 40, 416
-1.00014, 53, 289, 68, 416
-1.00014, 35, 289, 50, 416
-1.00014, 209, 289, 224, 416
-1.00014, 287, 289, 302, 416
-1.00014, 317, 353, 332, 416
-1.00014, 3, 289, 18, 416
-1.00015, 287, 353, 302, 416
-1.00015, 217, 289, 232, 416
-1.00015, 83, 289, 98, 416
-1.00015, 187, 353, 202, 416
-1.00015, 207, 353, 222, 416
-1.00015, 171, 257, 186, 384
-1.00015, 17, 401, 32, 464
-1.00015, 1, 353, 128, 384
-1.00016, 285, 385, 300, 448
-1.00016, 19, 425, 34, 488
-1.00016, 137, 89, 200, 152
-1.00016, 41, 289, 56, 416
-1.00016, 49, 417, 176, 448
-1.00016, 223, 289, 238, 416
-1.00016, 277, 353, 292, 416
-1.00017, 163, 209, 178, 336
-1.00017, 139, 129, 154, 256
-1.00017, 137, 65, 152, 192
-1.00017, 135, 417, 150, 480
-1.00018, 269, 353, 284, 416
-1.00018, 59, 417, 74, 480
-1.00019, 259, 353, 274, 416
-1.00019, 219, 353, 234, 416
-1.0002, 169, 193, 184, 320
-1.0002, 69, 345, 84, 408
-1.0002, 65, 341, 192, 372
-1.0002, 183, 385, 198, 448
-1.0002, 255, 401, 270, 464
-1.00021, 161, 113, 176, 240
-1.00021, 1, 409, 256, 472
-1.00021, 213, 393, 228, 456
-1.00021, 133, 209, 148, 336
-1.00021, 91, 257, 106, 384
-1.00022, 139, 241, 154, 368
-1.00022, 185, 353, 248, 416
-1.00022, 139, 193, 154, 320
-1.00022, 131, 161, 146, 288
-1.00022, 249, 409, 264, 472
-1.00022, 59, 257, 74, 384
-1.00022, 137, 321, 152, 384
-1.00022, 293, 353, 308, 416
-1.00022, 15, 257, 30, 384
-1.00022, 157, 33, 172, 160
-1.00022, 47, 257, 62, 384
-1.00022, 169, 145, 184, 272
-1.00023, 177, 241, 192, 368
-1.00023, 53, 425, 68, 488
-1.00023, 67, 257, 82, 384
-1.00023, 77, 353, 92, 416
-1.00023, 235, 353, 250, 416
-1.00023, 113, 81, 176, 208
-1.00023, 127, 257, 142, 384
-1.00023, 121, 193, 136, 320
-1.00023, 261, 257, 276, 384
-1.00023, 227, 353, 242, 416
-1.00023, 201, 257, 216, 384
-1.00023, 297, 257, 312, 384
-1.00023, 1, 433, 16, 496
-1.00024, 163, 161, 178, 288
-1.00024, 97, 257, 112, 384
-1.00024, 275, 257, 290, 384
-1.00024, 309, 353, 324, 416
-1.00024, 25, 425, 40, 488
-1.00025, 249, 353, 264, 416
-1.00025, 15, 353, 30, 416
-1.00025, 113, 329, 128, 392
-1.00026, 201, 425, 216, 488
-1.00026, 25, 353, 40, 416
-1.00026, 93, 425, 108, 488
-1.00027, 39, 353, 54, 416
-1.00028, 177, 329, 304, 392
-1.00028, 41, 425, 56, 488
-1.00029, 99, 329, 114, 392
-1.00029, 157, 281, 172, 344
-1.00029, 31, 345, 46, 408
-1.00029, 51, 345, 66, 408
-1.00029, 161, 369, 288, 400
-1.0003, 113, 129, 176, 256
-1.0003, 303, 353, 318, 416
-1.0003, 279, 385, 294, 448
-1.0003, 9, 353, 24, 416
-1.00031, 1, 113, 333, 240
-1.00031, 209, 401, 333, 432
-1.00031, 61, 353, 76, 416
-1.00032, 25, 401, 40, 464
-1.00032, 291, 401, 306, 464
-1.00032, 205, 385, 220, 448
-1.00032, 147, 425, 162, 488
-1.00033, 31, 409, 46, 472
-1.00033, 155, 113, 170, 176
-1.00034, 195, 433, 210, 496
-1.00034, 243, 353, 258, 416
-1.00034, 175, 313, 190, 376
-1.00035, 1, 445, 128, 476
-1.00035, 189, 425, 204, 488
-1.00036, 297, 385, 312, 448
-1.00036, 129, 453, 256, 484
-1.00036, 209, 461, 333, 492
-1.00036, 113, 105, 176, 168
-1.00037, 3, 353, 18, 416
-1.00038, 1, 433, 128, 464
-1.00039, 97, 353, 128, 416
-1.0004, 57, 353, 120, 416
-1.00043, 161, 469, 288, 500
-1.00043, 1, 369, 128, 400
-1.00045, 145, 437, 272, 468
-1.00046, 177, 341, 304, 372
-1.00046, 169, 377, 200, 440
-1.00047, 81, 437, 208, 468
-1.00048, 209, 433, 333, 464
-1.00049, 81, 353, 112, 480
-1.00049, 177, 449, 304, 480
-1.00051, 1, 409, 128, 440
-1.00052, 65, 449, 192, 480
-1.00057, 161, 257, 192, 500
-1.0006, 133, 65, 164, 320
-1.00063, 209, 413, 333, 444
-1.00065, 121, 257, 152, 500
-1.00066, 101, 257, 132, 500
-1.00066, 57, 377, 120, 440
-1.00066, 137, 129, 200, 256
-1.00066, 177, 401, 240, 464
-1.00067, 1, 341, 128, 372
-1.00068, 1, 421, 128, 452
-1.00068, 65, 461, 192, 492
-1.00069, 209, 365, 333, 396
-1.00071, 145, 97, 176, 352
-1.00075, 65, 329, 320, 392
-1.00075, 81, 1, 144, 500
-1.0008, 17, 457, 144, 488
-1.0008, 145, 193, 176, 256
-1.00081, 1, 469, 128, 500
-1.00082, 73, 257, 104, 500
-1.00085, 65, 113, 192, 144
-1.00085, 113, 113, 240, 144
-1.00085, 113, 465, 240, 496
-1.00086, 149, 401, 180, 464
-1.00089, 145, 101, 272, 132
-1.0009, 113, 337, 240, 368
-1.00091, 49, 273, 176, 304
-1.00091, 209, 433, 333, 496
-1.00092, 65, 101, 192, 132
-1.00092, 129, 269, 256, 300
-1.00096, 129, 257, 256, 288
-1.00096, 65, 285, 192, 316
-1.00096, 145, 285, 272, 316
-1.00096, 145, 213, 272, 244
-1.00097, 49, 261, 176, 292
-1.00099, 145, 81, 176, 208
-1.00099, 65, 213, 192, 244
-1.00099, 65, 225, 192, 256
-1.00099, 113, 225, 240, 256
-1.00099, 177, 257, 208, 500
-1.00101, 145, 321, 272, 352
-1.00101, 97, 325, 224, 356
-1.00103, 17, 105, 144, 136
-1.00103, 81, 197, 208, 228
-1.00103, 129, 197, 256, 228
-1.00103, 65, 249, 192, 280
-1.00103, 113, 89, 240, 120
-1.00103, 65, 149, 192, 180
-1.00103, 161, 149, 288, 180
-1.00103, 97, 161, 224, 192
-1.00103, 145, 161, 272, 192
-1.00103, 65, 185, 192, 216
-1.00103, 161, 185, 288, 216
-1.00103, 97, 297, 224, 328
-1.00103, 145, 297, 272, 328
-1.00103, 145, 309, 272, 340
-1.00103, 65, 313, 192, 344
-1.00104, 1, 433, 256, 496
-1.00104, 65, 89, 192, 120
-1.00105, 89, 257, 120, 500
-1.00105, 129, 245, 256, 276
-1.00106, 17, 93, 144, 124
-1.00106, 161, 225, 288, 256
-1.00106, 65, 137, 192, 168
-1.00106, 113, 137, 240, 168
-1.00106, 161, 137, 288, 168
-1.00106, 65, 173, 192, 204
-1.00106, 113, 173, 240, 204
-1.00106, 161, 173, 288, 204
-1.00106, 33, 201, 160, 232
-1.00106, 17, 249, 144, 280
-1.00107, 49, 325, 176, 356
-1.00107, 209, 85, 333, 116
-1.00107, 209, 97, 333, 128
-1.00107, 209, 109, 333, 140
-1.00107, 1, 117, 128, 148
-1.00107, 209, 121, 333, 152
-1.00107, 65, 125, 192, 156
-1.00107, 113, 125, 240, 156
-1.00107, 161, 125, 288, 156
-1.00107, 17, 129, 144, 160
-1.00107, 209, 133, 333, 164
-1.00107, 17, 141, 144, 172
-1.00107, 209, 145, 333, 176
-1.00107, 17, 153, 144, 184
-1.00107, 209, 157, 333, 188
-1.00107, 17, 165, 144, 196
-1.00107, 209, 169, 333, 200
-1.00107, 17, 177, 144, 208
-1.00107, 209, 181, 333, 212
-1.00107, 17, 189, 144, 220
-1.00107, 209, 193, 333, 224
-1.00107, 209, 205, 333, 236
-1.00107, 17, 213, 144, 244
-1.00107, 209, 217, 333, 248
-1.00107, 17, 225, 144, 256
-1.00107, 209, 229, 333, 260
-1.00107, 33, 237, 160, 268
-1.00107, 81, 237, 208, 268
-1.00107, 209, 241, 333, 272
-1.00107, 209, 253, 333, 284
-1.00107, 1, 261, 128, 292
-1.00107, 209, 265, 333, 296
-1.00107, 1, 273, 128, 304
-1.00107, 209, 277, 333, 308
-1.00107, 17, 285, 144, 316
-1.00107, 209, 289, 333, 320
-1.00107, 33, 297, 160, 328
-1.00107, 209, 301, 333, 332
-1.00107, 17, 309, 144, 340
-1.00107, 209, 313, 333, 344
-1.00107, 1, 321, 128, 352
-1.00107, 209, 325, 333, 356
-1.00116, 57, 1, 120, 500
-1.00117, 265, 257, 296, 500
-1.00118, 201, 257, 232, 500
-1.00121, 221, 257, 252, 500
-1.00121, 65, 313, 192, 376
-1.00124, 9, 257, 40, 500
-1.00124, 153, 1, 184, 256
-1.00124, 189, 257, 220, 500
-1.00126, 249, 257, 280, 500
-1.00126, 285, 257, 316, 500
-1.00127, 301, 257, 332, 500
-1.00128, 21, 257, 52, 500
-1.00128, 41, 257, 72, 500
-1.0013, 61, 257, 92, 500
-1.00133, 89, 385, 120, 448
-1.00134, 201, 1, 264, 500
-1.00134, 233, 257, 264, 500
-1.00138, 89, 257, 152, 500
-1.00139, 133, 193, 164, 256
-1.00145, 33, 1, 96, 500
-1.00149, 121, 65, 152, 320
-1.00152, 113, 81, 176, 144
-1.00154, 225, 1, 288, 500
-1.00156, 145, 89, 176, 152
-1.0016, 1, 409, 333, 472
-1.0016, 133, 105, 164, 168
-1.00169, 161, 161, 192, 416
-1.0017, 57, 401, 120, 464
-1.0017, 1, 385, 333, 448
-1.00173, 181, 305, 212, 432
-1.00173, 81, 161, 112, 416
-1.00173, 193, 161, 224, 416
-1.00174, 9, 1, 72, 500
-1.00174, 49, 161, 80, 416
-1.00174, 145, 129, 176, 256
-1.00175, 29, 161, 60, 416
-1.00175, 109, 161, 140, 416
-1.00176, 121, 161, 152, 416
-1.00176, 61, 161, 92, 416
-1.00176, 229, 161, 260, 416
-1.00176, 5, 161, 36, 416
-1.00176, 249, 161, 280, 416
-1.00177, 1, 353, 333, 416
-1.00177, 165, 401, 196, 464
-1.00178, 109, 1, 140, 256
-1.00178, 173, 161, 204, 416
-1.00178, 209, 161, 240, 416
-1.00178, 93, 161, 124, 416
-1.00179, 17, 161, 48, 416
-1.00179, 265, 161, 296, 416
-1.0018, 277, 161, 308, 416
-1.0018, 165, 65, 196, 320
-1.00181, 145, 153, 176, 216
-1.00181, 177, 329, 240, 392
-1.00181, 73, 1, 104, 256
-1.00181, 85, 1, 116, 256
-1.00181, 97, 1, 128, 256
-1.00181, 257, 1, 288, 256
-1.00181, 269, 1, 300, 256
-1.00182, 133, 169, 164, 232
-1.00184, 301, 1, 332, 256
-1.00184, 145, 121, 176, 184
-1.00184, 1, 65, 32, 320
-1.00184, 13, 65, 44, 320
-1.00184, 25, 65, 56, 320
-1.00184, 37, 65, 68, 320
-1.00184, 49, 65, 80, 320
-1.00184, 61, 65, 92, 320
-1.00184, 185, 65, 216, 320
-1.00184, 197, 65, 228, 320
-1.00184, 209, 65, 240, 320
-1.00184, 221, 65, 252, 320
-1.00184, 233, 65, 264, 320
-1.00184, 245, 65, 276, 320
-1.00184, 289, 65, 320, 320
-1.00184, 301, 97, 332, 352
-1.00185, 289, 161, 320, 416
-1.00186, 137, 177, 200, 304
-1.00187, 65, 113, 320, 176
-1.00188, 133, 81, 164, 208
-1.00196, 1, 305, 256, 368
-1.00197, 65, 89, 320, 152
-1.00202, 177, 1, 240, 500
-1.00202, 101, 385, 132, 448
-1.00202, 113, 217, 176, 280
-1.00204, 257, 1, 320, 500
-1.00204, 273, 353, 333, 416
-1.00206, 65, 49, 320, 112
-1.00207, 9, 345, 72, 408
-1.00209, 9, 409, 72, 472
-1.00212, 65, 1, 320, 64
-1.00212, 65, 25, 320, 88
-1.00212, 33, 137, 288, 200
-1.00212, 65, 161, 320, 224
-1.00212, 65, 185, 320, 248
-1.00212, 65, 209, 320, 272
-1.00212, 65, 233, 320, 296
-1.00212, 65, 257, 320, 320
-1.00212, 65, 281, 320, 344
-1.00214, 137, 225, 200, 288
-1.00214, 133, 81, 164, 144
-1.00221, 133, 129, 164, 256
-1.00225, 65, 81, 192, 144
-1.00225, 225, 353, 288, 416
-1.00227, 113, 73, 240, 136
-1.0023, 65, 257, 192, 320
-1.00237, 209, 401, 272, 464
-1.00242, 97, 217, 224, 280
-1.00244, 65, 105, 192, 168
-1.00244, 113, 105, 240, 168
-1.00244, 65, 193, 192, 256
-1.00244, 145, 193, 272, 256
-1.00244, 145, 249, 272, 312
-1.00244, 113, 273, 240, 336
-1.00248, 69, 337, 100, 464
-1.00254, 129, 49, 256, 112
-1.00254, 177, 353, 208, 416
-1.00256, 273, 353, 333, 480
-1.00257, 177, 305, 304, 368
-1.00258, 133, 145, 164, 208
-1.00259, 49, 49, 176, 112
-1.00268, 65, 169, 192, 232
-1.00268, 145, 169, 272, 232
-1.00268, 49, 217, 176, 280
-1.0027, 1, 433, 333, 496
-1.00271, 161, 273, 288, 336
-1.00273, 73, 329, 136, 392
-1.00274, 145, 225, 272, 288
-1.00276, 33, 1, 160, 64
-1.00276, 81, 1, 208, 64
-1.00276, 161, 89, 288, 152
-1.00276, 1, 105, 128, 168
-1.00276, 17, 241, 144, 304
-1.00276, 65, 281, 192, 344
-1.00278, 193, 425, 256, 488
-1.00279, 1, 329, 333, 392
-1.00279, 241, 353, 304, 480
-1.00281, 77, 353, 108, 416
-1.00283, 65, 25, 192, 88
-1.00283, 113, 25, 240, 88
-1.00285, 17, 73, 144, 136
-1.00288, 65, 145, 192, 208
-1.00288, 113, 145, 240, 208
-1.00288, 161, 145, 288, 208
-1.0029, 105, 409, 136, 472
-1.00291, 161, 17, 288, 80
-1.00291, 209, 17, 333, 80
-1.00291, 1, 25, 128, 88
-1.00291, 209, 41, 333, 104
-1.00291, 1, 49, 128, 112
-1.00291, 209, 65, 333, 128
-1.00291, 209, 89, 333, 152
-1.00291, 209, 113, 333, 176
-1.00291, 161, 121, 288, 184
-1.00291, 209, 137, 333, 200
-1.00291, 17, 145, 144, 208
-1.00291, 209, 161, 333, 224
-1.00291, 17, 169, 144, 232
-1.00291, 209, 185, 333, 248
-1.00291, 17, 193, 144, 256
-1.00291, 209, 209, 333, 272
-1.00291, 1, 217, 128, 280
-1.00291, 209, 233, 333, 296
-1.00291, 209, 257, 333, 320
-1.00291, 17, 281, 144, 344
-1.00291, 209, 281, 333, 344
-1.00296, 113, 289, 144, 416
-1.00297, 17, 305, 144, 368
-1.00304, 33, 353, 96, 416
-1.00306, 113, 65, 176, 320
-1.00308, 137, 97, 200, 352
-1.00309, 113, 297, 240, 360
-1.0032, 145, 177, 176, 304
-1.00328, 33, 353, 96, 480
-1.00331, 145, 217, 176, 280
-1.00334, 169, 425, 232, 488
-1.00344, 133, 217, 164, 280
-1.00345, 25, 433, 88, 496
-1.00347, 1, 337, 64, 464
-1.00348, 249, 353, 312, 416
-1.00354, 249, 385, 312, 448
-1.00358, 137, 401, 168, 464
-1.00361, 113, 177, 176, 304
-1.00361, 249, 409, 312, 472
-1.00362, 233, 353, 264, 480
-1.00363, 133, 177, 164, 304
-1.00363, 9, 353, 40, 480
-1.00364, 121, 425, 184, 488
-1.00378, 1, 89, 333, 152
-1.0038, 49, 425, 112, 488
-1.00381, 1, 273, 333, 336
-1.00384, 1, 65, 333, 128
-1.00384, 1, 305, 333, 368
-1.00386, 1, 121, 333, 184
-1.00386, 1, 225, 333, 288
-1.00387, 1, 9, 333, 72
-1.00387, 1, 33, 333, 96
-1.00387, 1, 153, 333, 216
-1.00387, 1, 177, 333, 240
-1.00387, 1, 201, 333, 264
-1.00388, 1, 249, 333, 312
-1.00389, 181, 385, 212, 448
-1.00395, 173, 329, 204, 392
-1.00395, 57, 353, 88, 480
-1.00397, 77, 377, 108, 440
-1.004, 217, 353, 280, 480
-1.00401, 93, 409, 124, 472
-1.00406, 29, 337, 60, 464
-1.0041, 145, 425, 208, 488
-1.00417, 301, 337, 332, 464
-1.00419, 1, 433, 64, 496
-1.00428, 273, 433, 333, 496
-1.00435, 125, 409, 156, 472
-1.00436, 101, 289, 132, 416
-1.00436, 41, 337, 72, 464
-1.00437, 41, 329, 104, 392
-1.0044, 113, 241, 176, 304
-1.00441, 257, 337, 288, 464
-1.00443, 209, 289, 333, 416
-1.00445, 161, 273, 192, 400
-1.00447, 281, 337, 312, 464
-1.00449, 213, 337, 244, 464
-1.00454, 205, 353, 236, 416
-1.00468, 149, 305, 180, 368
-1.0048, 1, 417, 32, 480
-1.00483, 9, 385, 72, 448
-1.00485, 213, 401, 244, 464
-1.00488, 217, 433, 280, 496
-1.00492, 245, 353, 276, 480
-1.00495, 89, 305, 120, 432
-1.00496, 281, 353, 312, 416
-1.00499, 301, 353, 332, 416
-1.005, 81, 433, 144, 496
-1.00502, 209, 329, 272, 392
-1.00503, 269, 353, 300, 480
-1.00508, 125, 273, 156, 400
-1.00511, 161, 329, 192, 392
-1.00511, 209, 377, 272, 440
-1.00515, 145, 305, 208, 368
-1.00517, 17, 425, 48, 488
-1.00518, 153, 65, 216, 128
-1.00523, 225, 353, 256, 416
-1.00523, 33, 417, 64, 480
-1.00528, 265, 329, 328, 392
-1.0053, 245, 353, 276, 416
-1.00533, 41, 257, 104, 500
-1.00534, 193, 337, 224, 464
-1.00534, 45, 417, 76, 480
-1.00536, 265, 353, 296, 416
-1.00539, 273, 401, 333, 464
-1.00541, 169, 257, 232, 500
-1.00542, 125, 33, 156, 160
-1.00542, 25, 345, 56, 408
-1.00543, 249, 433, 312, 496
-1.00544, 133, 241, 164, 304
-1.00545, 197, 425, 228, 488
-1.00547, 189, 353, 220, 416
-1.00548, 81, 289, 144, 416
-1.0055, 133, 225, 164, 352
-1.0055, 265, 385, 296, 448
-1.00554, 225, 393, 256, 456
-1.00556, 289, 393, 320, 456
-1.00556, 153, 33, 184, 160
-1.00557, 201, 393, 232, 456
-1.00558, 241, 329, 304, 392
-1.00558, 105, 305, 168, 368
-1.00565, 245, 417, 276, 480
-1.00567, 53, 345, 84, 408
-1.00568, 177, 409, 208, 472
-1.00569, 273, 377, 333, 440
-1.00571, 33, 393, 96, 456
-1.00574, 105, 329, 136, 392
-1.00576, 13, 345, 44, 408
-1.00578, 65, 353, 96, 416
-1.00588, 5, 305, 36, 432
-1.00588, 233, 305, 264, 432
-1.00593, 153, 65, 184, 128
-1.00595, 137, 249, 200, 312
-1.00596, 37, 345, 68, 408
-1.00596, 185, 433, 216, 496
-1.00599, 97, 57, 160, 120
-1.00601, 145, 425, 176, 488
-1.00602, 89, 329, 120, 392
-1.00602, 13, 401, 44, 464
-1.0061, 1, 353, 32, 416
-1.0061, 145, 241, 176, 304
-1.00612, 277, 401, 308, 464
-1.00615, 145, 225, 176, 352
-1.00619, 161, 425, 192, 488
-1.00629, 245, 385, 276, 448
-1.00633, 9, 321, 72, 384
-1.00638, 89, 433, 120, 496
-1.0064, 209, 257, 272, 500
-1.00641, 57, 425, 88, 488
-1.00646, 117, 433, 148, 496
-1.00647, 253, 289, 284, 416
-1.00648, 33, 257, 288, 384
-1.00649, 225, 433, 256, 496
-1.00652, 53, 305, 84, 432
-1.00654, 129, 305, 160, 368
-1.00655, 73, 289, 104, 416
-1.00656, 125, 57, 156, 120
-1.00659, 117, 321, 148, 384
-1.0066, 281, 289, 312, 416
-1.0066, 17, 305, 48, 432
-1.00661, 273, 257, 333, 500
-1.00662, 25, 305, 88, 432
-1.00667, 281, 425, 312, 488
-1.00672, 65, 257, 128, 500
-1.00673, 73, 329, 104, 392
-1.00675, 153, 1, 216, 256
-1.00677, 201, 329, 232, 392
-1.00677, 193, 289, 224, 416
-1.00677, 297, 289, 328, 416
-1.00678, 173, 433, 204, 496
-1.00684, 221, 289, 252, 416
-1.00684, 269, 305, 300, 432
-1.00684, 105, 433, 136, 496
-1.00692, 301, 329, 332, 392
-1.00695, 73, 417, 104, 480
-1.00695, 233, 329, 264, 392
-1.00698, 233, 305, 296, 432
-1.00701, 249, 329, 280, 392
-1.00703, 281, 329, 312, 392
-1.00703, 133, 433, 164, 496
-1.00706, 221, 329, 252, 392
-1.00709, 209, 425, 240, 488
-1.00709, 209, 289, 240, 416
-1.00711, 33, 321, 64, 384
-1.00714, 257, 409, 288, 472
-1.00715, 265, 329, 296, 392
-1.00717, 185, 329, 216, 392
-1.00721, 17, 321, 48, 384
-1.00724, 113, 225, 176, 352
-1.00727, 17, 257, 80, 500
-1.00727, 249, 257, 312, 500
-1.00727, 1, 393, 32, 456
-1.00728, 45, 321, 76, 384
-1.00728, 41, 289, 72, 416
-1.0073, 137, 281, 200, 344
-1.00731, 57, 321, 88, 384
-1.00731, 29, 273, 60, 400
-1.00734, 25, 393, 56, 456
-1.00734, 301, 401, 332, 464
-1.00735, 161, 305, 192, 368
-1.00735, 257, 433, 288, 496
-1.00741, 45, 393, 76, 456
-1.00742, 145, 273, 176, 336
-1.00744, 153, 33, 216, 160
-1.00748, 5, 321, 36, 384
-1.00748, 177, 289, 240, 416
-1.00753, 201, 305, 264, 432
-1.00758, 113, 265, 176, 328
-1.0076, 277, 377, 308, 440
-1.00762, 49, 289, 112, 416
-1.00765, 61, 401, 92, 464
-1.00769, 269, 425, 300, 488
-1.0077, 89, 241, 152, 304
-1.00775, 213, 377, 244, 440
-1.00776, 137, 225, 200, 352
-1.0078, 97, 33, 160, 160
-1.00789, 301, 377, 332, 440
-1.00797, 301, 433, 332, 496
-1.00799, 177, 257, 208, 384
-1.00801, 65, 241, 192, 368
-1.00801, 13, 377, 44, 440
-1.00802, 257, 305, 320, 432
-1.00808, 65, 33, 320, 160
-1.00809, 89, 209, 152, 272
-1.0081, 113, 217, 144, 280
-1.00811, 157, 209, 188, 272
-1.00813, 153, 273, 216, 400
-1.00817, 65, 81, 320, 208
-1.00817, 157, 161, 188, 224
-1.00817, 89, 185, 152, 248
-1.0082, 121, 241, 152, 304
-1.00823, 169, 281, 200, 344
-1.00828, 1, 257, 128, 384
-1.00829, 121, 81, 152, 144
-1.00831, 137, 41, 200, 104
-1.00831, 161, 209, 224, 272
-1.00833, 129, 281, 160, 344
-1.00835, 121, 177, 152, 304
-1.00836, 161, 241, 224, 304
-1.0084, 145, 41, 176, 104
-1.00844, 9, 257, 40, 384
-1.00847, 85, 257, 116, 384
-1.0085, 157, 281, 188, 344
-1.00852, 157, 129, 188, 256
-1.00854, 157, 185, 188, 248
-1.00855, 161, 265, 224, 328
-1.00859, 141, 33, 172, 160
-1.00859, 161, 185, 224, 248
-1.00861, 89, 81, 152, 144
-1.00862, 61, 257, 92, 384
-1.00865, 113, 193, 144, 256
-1.00868, 61, 377, 92, 440
-1.0087, 157, 257, 188, 320
-1.00877, 145, 241, 272, 368
-1.0088, 161, 161, 224, 224
-1.00882, 129, 65, 256, 192
-1.00885, 89, 265, 152, 328
-1.00887, 113, 33, 176, 96
-1.00889, 89, 65, 152, 320
-1.00891, 49, 305, 112, 368
-1.00892, 169, 209, 200, 336
-1.00894, 109, 177, 140, 304
-1.00895, 157, 177, 188, 304
-1.00896, 177, 305, 240, 368
-1.00897, 113, 129, 144, 256
-1.00903, 269, 257, 300, 384
-1.00908, 157, 81, 188, 208
-1.00908, 233, 257, 264, 384
-1.0091, 161, 121, 224, 184
-1.00914, 89, 121, 152, 184
-1.00917, 65, 97, 192, 224
-1.00921, 201, 305, 264, 368
-1.00924, 161, 97, 224, 160
-1.00924, 185, 281, 248, 344
-1.00924, 9, 289, 72, 352
-1.00929, 57, 161, 120, 224
-1.00929, 81, 161, 144, 224
-1.00929, 201, 161, 264, 224
-1.00929, 17, 169, 80, 232
-1.00929, 225, 169, 288, 232
-1.00929, 249, 169, 312, 232
-1.00929, 273, 169, 333, 232
-1.00929, 41, 185, 104, 248
-1.00929, 65, 185, 128, 248
-1.00929, 201, 185, 264, 248
-1.00929, 17, 193, 80, 256
-1.00929, 225, 193, 288, 256
-1.00929, 249, 193, 312, 256
-1.00929, 273, 193, 333, 256
-1.00929, 41, 209, 104, 272
-1.00929, 65, 209, 128, 272
-1.00929, 201, 209, 264, 272
-1.00929, 17, 217, 80, 280
-1.00929, 225, 217, 288, 280
-1.00929, 249, 217, 312, 280
-1.00929, 273, 217, 333, 280
-1.00929, 41, 233, 104, 296
-1.00929, 65, 233, 128, 296
-1.00929, 201, 233, 264, 296
-1.00929, 17, 241, 80, 304
-1.00929, 225, 241, 288, 304
-1.00929, 249, 241, 312, 304
-1.00929, 273, 241, 333, 304
-1.00929, 41, 257, 104, 320
-1.00929, 65, 257, 128, 320
-1.00929, 201, 257, 264, 320
-1.00929, 17, 265, 80, 328
-1.00929, 225, 265, 288, 328
-1.00929, 249, 265, 312, 328
-1.00929, 273, 265, 333, 328
-1.00929, 41, 281, 104, 344
-1.00929, 65, 281, 128, 344
-1.00929, 225, 289, 288, 352
-1.00929, 249, 289, 312, 352
-1.00929, 273, 289, 333, 352
-1.00931, 117, 225, 148, 352
-1.00932, 173, 161, 204, 288
-1.00933, 121, 81, 152, 208
-1.00939, 185, 33, 216, 160
-1.00939, 209, 33, 240, 160
-1.00939, 57, 49, 88, 176
-1.00939, 81, 49, 112, 176
-1.00939, 193, 81, 224, 208
-1.00939, 205, 81, 236, 208
-1.00939, 65, 97, 96, 224
-1.00939, 77, 97, 108, 224
-1.0094, 129, 17, 256, 144
-1.00951, 157, 225, 188, 352
-1.00953, 57, 1, 88, 128
-1.00953, 69, 1, 100, 128
-1.00953, 81, 1, 112, 128
-1.00953, 165, 33, 196, 160
-1.00953, 105, 81, 136, 208
-1.00953, 173, 113, 204, 240
-1.00953, 97, 209, 128, 336
-1.00953, 33, 49, 160, 176
-1.00953, 113, 113, 240, 240
-1.00956, 253, 113, 284, 240
-1.00956, 265, 113, 296, 240
-1.00956, 277, 113, 308, 240
-1.00956, 289, 113, 320, 240
-1.00956, 301, 113, 332, 240
-1.00956, 1, 161, 32, 288
-1.00956, 13, 161, 44, 288
-1.00956, 25, 161, 56, 288
-1.00956, 37, 161, 68, 288
-1.00956, 49, 161, 80, 288
-1.00956, 61, 161, 92, 288
-1.00956, 73, 161, 104, 288
-1.00956, 85, 161, 116, 288
-1.00956, 97, 161, 128, 288
-1.00956, 193, 161, 224, 288
-1.00956, 205, 161, 236, 288
-1.00956, 217, 161, 248, 288
-1.00956, 229, 161, 260, 288
-1.00956, 241, 161, 272, 288
-1.00956, 253, 161, 284, 288
-1.00956, 265, 161, 296, 288
-1.00956, 277, 161, 308, 288
-1.00956, 289, 161, 320, 288
-1.00956, 301, 161, 332, 288
-1.00956, 1, 209, 32, 336
-1.00956, 13, 209, 44, 336
-1.00956, 25, 209, 56, 336
-1.00956, 37, 209, 68, 336
-1.00956, 49, 209, 80, 336
-1.00956, 61, 209, 92, 336
-1.00956, 73, 209, 104, 336
-1.00956, 85, 209, 116, 336
-1.00956, 193, 209, 224, 336
-1.00956, 205, 209, 236, 336
-1.00956, 217, 209, 248, 336
-1.00956, 229, 209, 260, 336
-1.00956, 241, 209, 272, 336
-1.00956, 253, 209, 284, 336
-1.00956, 265, 209, 296, 336
-1.00956, 277, 209, 308, 336
-1.00956, 289, 209, 320, 336
-1.00956, 301, 209, 332, 336
-1.0096, 209, 17, 333, 144
-1.00981, 1, 289, 64, 416
-1.00989, 33, 1, 160, 128
-1.00989, 97, 193, 224, 320
-1.00989, 145, 193, 272, 320
-1.00995, 161, 161, 224, 416
-1.00996, 57, 161, 120, 416
-1.00996, 209, 81, 333, 208
-1.01, 33, 129, 288, 256
-1.01002, 49, 161, 176, 288
-1.01012, 81, 161, 144, 416
-1.01019, 81, 17, 208, 144
-1.01028, 201, 161, 264, 416
-1.01032, 25, 161, 88, 416
-1.01032, 1, 113, 128, 240
-1.01032, 161, 145, 288, 272
-1.01038, 1, 161, 128, 288
-1.01038, 209, 161, 333, 288
-1.01038, 17, 209, 144, 336
-1.01038, 209, 209, 333, 336
-1.01038, 65, 209, 320, 336
-1.01039, 257, 161, 320, 416
-1.01042, 1, 161, 64, 416
-1.01046, 217, 1, 280, 256
-1.01046, 241, 1, 304, 256
-1.01051, 225, 161, 288, 416
-1.01066, 65, 1, 128, 256
-1.01082, 177, 65, 240, 320
-1.01086, 17, 65, 80, 320
-1.01086, 41, 65, 104, 320
-1.01086, 273, 65, 333, 320
-1.01288, 25, 257, 88, 384
-1.01357, 161, 145, 224, 272
-1.0136, 89, 161, 152, 288
-1.01367, 129, 33, 192, 160
-1.01386, 233, 257, 296, 384
-1.01386, 257, 257, 320, 384
-1.01387, 81, 209, 144, 336
-1.01387, 169, 209, 232, 336
-1.01392, 201, 257, 264, 384
-1.01428, 89, 113, 152, 240
-1.01451, 161, 97, 224, 224
-1.01478, 177, 1, 240, 128
-1.01478, 1, 17, 64, 144
-1.01478, 25, 17, 88, 144
-1.01478, 49, 17, 112, 144
-1.01478, 73, 17, 136, 144
-1.01478, 201, 17, 264, 144
-1.01478, 225, 17, 288, 144
-1.01478, 249, 17, 312, 144
-1.01478, 273, 17, 333, 144
-1.01478, 177, 49, 240, 176
-1.01478, 1, 65, 64, 192
-1.01478, 25, 65, 88, 192
-1.01478, 49, 65, 112, 192
-1.01478, 73, 65, 136, 192
-1.01478, 201, 65, 264, 192
-1.01478, 225, 65, 288, 192
-1.01478, 249, 65, 312, 192
-1.01478, 273, 65, 333, 192
-1.01478, 17, 113, 80, 240
-1.01478, 41, 113, 104, 240
-1.01478, 65, 113, 128, 240
-1.01478, 201, 113, 264, 240
-1.01478, 225, 113, 288, 240
-1.01478, 249, 113, 312, 240
-1.01478, 273, 113, 333, 240
-1.01478, 17, 161, 80, 288
-1.01478, 41, 161, 104, 288
-1.01478, 65, 161, 128, 288
-1.01478, 201, 161, 264, 288
-1.01478, 225, 161, 288, 288
-1.01478, 249, 161, 312, 288
-1.01478, 273, 161, 333, 288
-1.01478, 9, 209, 72, 336
-1.01478, 33, 209, 96, 336
-1.01478, 57, 209, 120, 336
-1.01478, 201, 209, 264, 336
-1.01478, 225, 209, 288, 336
-1.01478, 249, 209, 312, 336
-1.01478, 273, 209, 333, 336
-1.04072, 1, 257, 256, 500
-1.07664, 33, 1, 288, 256
-1.08658, 33, 161, 288, 416
