1847
-0.467814, 65, 1, 320, 336
-0.491353, 1, 65, 448, 320
-0.576933, 1, 1, 448, 336
-0.586086, 161, 1, 416, 336
-0.636889, 97, 65, 352, 320
-0.784497, 1, 33, 256, 288
-0.849339, 177, 1, 304, 336
-0.849661, 161, 1, 288, 256
-0.85465, 193, 33, 448, 288
-0.901102, 1, 193, 448, 320
-0.909542, 81, 33, 208, 288
-0.911713, 129, 1, 256, 336
-0.914923, 97, 145, 352, 272
-0.915838, 81, 1, 208, 336
-0.915996, 209, 65, 336, 320
-0.917826, 1, 145, 448, 272
-0.922854, 97, 193, 352, 320
-0.927587, 225, 1, 352, 336
-0.93252, 129, 65, 384, 192
-0.93536, 273, 1, 400, 336
-0.935442, 1, 97, 448, 224
-0.937231, 257, 33, 384, 288
-0.938704, 1, 49, 448, 176
-0.943292, 1, 177, 256, 304
-0.948548, 129, 17, 384, 144
-0.949224, 177, 49, 304, 176
-0.949728, 193, 129, 320, 256
-0.952482, 145, 1, 272, 128
-0.953896, 1, 97, 256, 224
-0.954907, 1, 49, 256, 176
-0.956057, 249, 161, 312, 288
-0.957406, 129, 209, 192, 336
-0.960155, 97, 209, 224, 336
-0.962067, 145, 193, 272, 320
-0.962366, 121, 225, 184, 288
-0.962582, 249, 113, 312, 240
-0.963102, 33, 1, 288, 128
-0.963122, 49, 177, 176, 304
-0.963411, 33, 65, 160, 320
-0.963516, 97, 113, 224, 240
-0.96567, 257, 81, 384, 208
-0.966318, 33, 1, 160, 336
-0.966517, 249, 209, 312, 336
-0.966874, 89, 241, 152, 304
-0.967443, 249, 153, 312, 216
-0.967744, 185, 1, 248, 128
-0.968166, 225, 33, 288, 160
-0.968379, 193, 209, 320, 336
-0.968614, 153, 209, 216, 336
-0.968751, 193, 113, 448, 240
-0.96976, 153, 129, 216, 256
-0.969914, 105, 209, 168, 336
-0.970669, 273, 177, 400, 304
-0.971509, 177, 49, 240, 176
-0.971816, 129, 49, 256, 176
-0.97184, 193, 209, 448, 336
-0.971996, 129, 265, 192, 328
-0.972263, 193, 161, 448, 288
-0.973016, 217, 81, 280, 208
-0.973763, 145, 97, 272, 224
-0.973921, 177, 145, 240, 272
-0.974284, 177, 105, 240, 168
-0.974852, 153, 65, 216, 192
-0.975039, 225, 137, 288, 200
-0.975473, 145, 145, 272, 272
-0.975603, 305, 65, 432, 320
-0.975732, 65, 241, 128, 304
-0.975969, 145, 217, 208, 280
-0.976004, 1, 1, 448, 128
-0.976073, 217, 1, 280, 256
-0.976279, 41, 233, 104, 296
-0.976492, 81, 225, 208, 288
-0.976492, 113, 257, 240, 320
-0.976958, 193, 1, 320, 128
-0.977143, 273, 177, 336, 304
-0.97715, 217, 113, 280, 176
-0.977376, 265, 113, 328, 176
-0.977878, 193, 1, 256, 256
-0.978286, 49, 249, 176, 312
-0.978332, 233, 89, 296, 152
-0.978337, 129, 161, 192, 288
-0.978385, 153, 121, 216, 184
-0.978486, 249, 233, 312, 296
-0.978575, 89, 265, 152, 328
-0.978799, 153, 17, 216, 144
-0.979114, 153, 257, 216, 320
-0.979266, 273, 81, 336, 208
-0.979266, 225, 129, 288, 256
-0.979272, 177, 137, 304, 200
-0.979371, 49, 193, 112, 320
-0.97944, 273, 129, 400, 256
-0.979504, 133, 233, 164, 296
-0.979712, 177, 97, 304, 160
-0.979802, 265, 113, 296, 240
-0.979875, 89, 161, 152, 288
-0.979911, 277, 161, 308, 288
-0.980113, 97, 161, 224, 288
-0.980295, 177, 153, 240, 216
-0.980515, 321, 1, 448, 336
-0.98052, 17, 233, 80, 296
-0.980524, 149, 209, 180, 336
-0.980845, 65, 265, 128, 328
-0.98112, 185, 97, 248, 224
-0.981428, 129, 113, 192, 240
-0.981494, 249, 257, 312, 320
-0.981522, 193, 161, 320, 224
-0.981559, 281, 273, 344, 336
-0.981738, 161, 209, 192, 336
-0.981948, 161, 73, 224, 136
-0.982114, 81, 65, 208, 192
-0.982167, 249, 65, 312, 320
-0.98228, 1, 193, 128, 320
-0.982407, 265, 121, 296, 184
-0.982666, 257, 177, 320, 240
-0.982832, 113, 241, 144, 304
-0.982891, 265, 209, 328, 272
-0.983113, 89, 217, 152, 280
-0.983155, 153, 145, 216, 208
-0.983223, 289, 177, 352, 240
-0.983238, 177, 129, 240, 192
-0.98333, 281, 161, 312, 224
-0.983646, 277, 81, 308, 208
-0.983705, 225, 41, 288, 104
-0.983782, 177, 65, 304, 128
-0.983909, 289, 249, 352, 312
-0.984092, 133, 209, 164, 336
-0.984237, 249, 49, 312, 176
-0.984306, 93, 241, 124, 304
-0.984347, 81, 1, 208, 128
-0.984412, 161, 33, 288, 96
-0.984563, 289, 129, 352, 256
-0.984671, 193, 273, 320, 336
-0.984722, 153, 97, 216, 160
-0.98475, 25, 209, 88, 336
-0.984759, 129, 257, 160, 320
-0.984765, 161, 49, 224, 112
-0.984782, 253, 137, 284, 200
-0.985036, 161, 65, 224, 320
-0.985151, 49, 209, 112, 272
-0.985154, 129, 217, 256, 280
-0.985184, 1, 249, 128, 312
-0.985186, 153, 249, 184, 312
-0.985247, 177, 177, 240, 240
-0.985356, 225, 1, 288, 336
-0.985414, 145, 225, 176, 288
-0.985479, 169, 233, 232, 296
-0.985483, 193, 249, 320, 312
-0.985755, 257, 121, 384, 184
-0.985915, 157, 217, 188, 280
-0.985947, 269, 161, 300, 224
-0.986033, 273, 177, 400, 240
-0.986072, 233, 65, 296, 128
-0.986193, 145, 193, 208, 256
-0.986215, 145, 9, 272, 72
-0.986357, 289, 201, 352, 264
-0.986422, 177, 257, 240, 320
-0.986436, 185, 113, 216, 176
-0.986498, 165, 257, 196, 320
-0.986629, 289, 225, 352, 288
-0.986698, 33, 217, 160, 280
-0.986744, 257, 33, 384, 160
-0.986807, 165, 129, 196, 192
-0.986836, 161, 25, 224, 88
-0.986866, 49, 273, 176, 336
-0.986945, 161, 105, 192, 168
-0.987052, 137, 65, 200, 320
-0.987083, 169, 209, 232, 272
-0.987217, 193, 185, 320, 248
-0.987294, 289, 153, 352, 216
-0.987473, 97, 145, 224, 208
-0.987501, 17, 273, 80, 336
-0.987532, 201, 17, 264, 80
-0.987614, 129, 65, 256, 128
-0.987628, 49, 193, 176, 256
-0.987765, 129, 97, 256, 160
-0.987809, 257, 97, 288, 160
-0.987857, 225, 265, 288, 328
-0.98786, 201, 1, 264, 336
-0.988, 273, 273, 400, 336
-0.988108, 273, 201, 400, 264
-0.988276, 193, 225, 320, 288
-0.988315, 257, 49, 288, 176
-0.988339, 273, 89, 336, 152
-0.988354, 177, 193, 240, 320
-0.988369, 165, 129, 196, 256
-0.988384, 177, 49, 208, 176
-0.988436, 249, 1, 312, 336
-0.988444, 265, 161, 296, 288
-0.988538, 97, 169, 224, 232
-0.988607, 193, 65, 256, 128
-0.988677, 97, 121, 224, 184
-0.988694, 81, 241, 112, 304
-0.989032, 41, 273, 104, 336
-0.989063, 121, 209, 152, 336
-0.989093, 145, 193, 272, 256
-0.989096, 241, 113, 304, 176
-0.989133, 117, 265, 148, 328
-0.989164, 241, 241, 368, 304
-0.989346, 205, 1, 236, 128
-0.989504, 129, 49, 192, 176
-0.989511, 277, 89, 308, 152
-0.989582, 129, 105, 192, 168
-0.9896, 181, 145, 212, 272
-0.989653, 201, 137, 264, 200
-0.989686, 297, 209, 360, 336
-0.989715, 289, 161, 320, 288
-0.989725, 177, 1, 240, 336
-0.989782, 81, 97, 208, 160
-0.989833, 273, 153, 400, 216
-0.989882, 173, 97, 204, 160
-0.989967, 173, 193, 204, 320
-0.989991, 257, 97, 384, 160
-0.989999, 161, 81, 192, 208
-0.990086, 253, 129, 284, 256
-0.990178, 97, 265, 128, 328
-0.990289, 105, 193, 168, 256
-0.990357, 105, 265, 168, 296
-0.990364, 141, 273, 172, 336
-0.990509, 265, 65, 328, 128
-0.990574, 129, 257, 192, 288
-0.990636, 185, 97, 216, 224
-0.990669, 81, 57, 208, 120
-0.990708, 257, 73, 384, 136
-0.990834, 169, 209, 200, 272
-0.990864, 249, 157, 312, 188
-0.990936, 89, 249, 152, 280
-0.990951, 185, 161, 216, 224
-0.990956, 225, 49, 352, 112
-0.990962, 217, 193, 280, 320
-0.990992, 233, 97, 296, 128
-0.991103, 137, 73, 200, 136
-0.991172, 169, 113, 232, 144
-0.991181, 37, 233, 68, 296
-0.991187, 81, 261, 144, 292
-0.991221, 249, 169, 312, 200
-0.99128, 277, 113, 308, 176
-0.991304, 225, 145, 288, 176
-0.991309, 113, 217, 144, 280
-0.99131, 145, 169, 208, 232
-0.991316, 209, 225, 272, 288
-0.991329, 257, 137, 320, 168
-0.991517, 129, 277, 192, 308
-0.991528, 129, 121, 384, 184
-0.991585, 193, 101, 256, 132
-0.991598, 65, 245, 128, 276
-0.991731, 129, 225, 192, 256
-0.991733, 161, 101, 224, 132
-0.991763, 177, 137, 240, 168
-0.991775, 57, 257, 120, 288
-0.991795, 65, 273, 320, 336
-0.99188, 257, 253, 320, 284
-0.991883, 89, 285, 152, 316
-0.991903, 185, 153, 248, 184
-0.991915, 97, 301, 160, 332
-0.99194, 225, 157, 288, 188
-0.991942, 97, 217, 352, 280
-0.991947, 97, 161, 352, 224
-0.991976, 229, 17, 260, 144
-0.991987, 177, 169, 240, 200
-0.992004, 129, 89, 384, 152
-0.992036, 281, 209, 312, 336
-0.99204, 105, 237, 168, 268
-0.992052, 193, 41, 256, 104
-0.992058, 129, 65, 384, 128
-0.992069, 225, 109, 288, 140
-0.992088, 177, 125, 240, 156
-0.992108, 129, 297, 192, 328
-0.992112, 145, 141, 208, 172
-0.992114, 257, 241, 320, 272
-0.992171, 145, 213, 208, 244
-0.992198, 217, 1, 248, 128
-0.992218, 249, 269, 312, 300
-0.99225, 281, 209, 312, 272
-0.992259, 209, 133, 272, 164
-0.992259, 1, 273, 128, 336
-0.992262, 201, 273, 264, 336
-0.992302, 201, 89, 264, 152
-0.992323, 289, 173, 352, 204
-0.992357, 137, 125, 200, 156
-0.992387, 69, 233, 100, 296
-0.992398, 153, 257, 216, 288
-0.992403, 257, 229, 320, 260
-0.992427, 289, 245, 352, 276
-0.992447, 177, 233, 208, 296
-0.992447, 33, 241, 96, 272
-0.99245, 153, 273, 216, 304
-0.992453, 245, 81, 276, 208
-0.992466, 293, 177, 324, 240
-0.992468, 281, 273, 344, 304
-0.992476, 201, 113, 264, 144
-0.992477, 1, 233, 256, 296
-0.992487, 281, 301, 344, 332
-0.992507, 289, 257, 352, 288
-0.99251, 289, 193, 352, 224
-0.992514, 129, 193, 384, 256
-0.992517, 289, 161, 352, 192
-0.992536, 33, 257, 96, 288
-0.992546, 297, 209, 328, 336
-0.992573, 225, 121, 288, 152
-0.992582, 9, 253, 72, 284
-0.992612, 145, 153, 208, 184
-0.992615, 201, 49, 232, 176
-0.99262, 161, 1, 224, 64
-0.992625, 289, 205, 352, 236
-0.992629, 249, 181, 312, 212
-0.992635, 289, 233, 352, 264
-0.992657, 57, 269, 120, 300
-0.992658, 33, 229, 96, 260
-0.992658, 265, 213, 328, 244
-0.99266, 81, 233, 144, 264
-0.99267, 233, 193, 296, 256
-0.992671, 161, 89, 224, 120
-0.992683, 17, 249, 48, 312
-0.992694, 137, 109, 200, 140
-0.9927, 169, 205, 232, 236
-0.992702, 129, 201, 192, 232
-0.992705, 81, 273, 144, 304
-0.992715, 249, 125, 312, 156
-0.99272, 21, 273, 52, 336
-0.992724, 161, 69, 224, 100
-0.992731, 177, 261, 240, 292
-0.992751, 129, 237, 192, 268
-0.992753, 297, 249, 328, 312
-0.992762, 249, 201, 312, 232
-0.992786, 169, 305, 232, 336
-0.992799, 225, 53, 288, 84
-0.992806, 97, 221, 160, 252
-0.992809, 289, 221, 352, 252
-0.992825, 161, 57, 224, 88
-0.992832, 281, 289, 344, 320
-0.992838, 153, 41, 216, 72
-0.99286, 273, 149, 336, 180
-0.992864, 109, 261, 140, 292
-0.992872, 273, 113, 336, 144
-0.992881, 193, 289, 256, 320
-0.992882, 245, 33, 276, 160
-0.992888, 153, 29, 216, 60
-0.992915, 233, 85, 296, 116
-0.992922, 129, 269, 160, 300
-0.992924, 177, 181, 240, 212
-0.992929, 225, 273, 288, 304
-0.992948, 161, 129, 192, 160
-0.992948, 277, 165, 308, 196
-0.992949, 265, 133, 296, 164
-0.992989, 157, 257, 188, 288
-0.992996, 161, 1, 224, 32
-0.993002, 193, 17, 256, 48
-0.993025, 97, 245, 128, 276
-0.99303, 265, 157, 296, 188
-0.993058, 145, 161, 272, 224
-0.993064, 137, 189, 200, 220
-0.993065, 145, 261, 176, 292
-0.993066, 293, 273, 324, 336
-0.993069, 181, 113, 212, 144
-0.993077, 273, 101, 336, 132
-0.993083, 177, 193, 240, 224
-0.993085, 89, 265, 120, 296
-0.99309, 129, 281, 160, 312
-0.993093, 153, 225, 216, 256
-0.993105, 133, 305, 164, 336
-0.993109, 161, 117, 192, 148
-0.993111, 73, 209, 136, 336
-0.993115, 253, 153, 284, 184
-0.993122, 169, 245, 232, 276
-0.993122, 113, 289, 144, 320
-0.993124, 109, 249, 140, 280
-0.993129, 173, 101, 204, 132
-0.993131, 17, 305, 80, 336
-0.993143, 209, 173, 272, 204
-0.993145, 25, 269, 88, 300
-0.993156, 233, 65, 296, 96
-0.993158, 281, 137, 312, 200
-0.99317, 177, 257, 208, 320
-0.993171, 73, 305, 136, 336
-0.993177, 137, 229, 168, 260
-0.993185, 65, 145, 128, 272
-0.993193, 125, 253, 156, 284
-0.993194, 97, 249, 352, 312
-0.993195, 153, 165, 216, 196
-0.993202, 277, 113, 308, 144
-0.99321, 225, 41, 288, 72
-0.993211, 137, 81, 200, 112
-0.993213, 265, 77, 328, 108
-0.993216, 77, 261, 108, 292
-0.99323, 97, 193, 224, 256
-0.993234, 249, 113, 312, 144
-0.993239, 137, 97, 200, 128
-0.993267, 165, 213, 196, 244
-0.993286, 137, 69, 200, 100
-0.993289, 281, 177, 312, 208
-0.993291, 185, 165, 216, 196
-0.993293, 125, 241, 156, 272
-0.993295, 169, 141, 200, 172
-0.993296, 81, 249, 112, 280
-0.99332, 117, 305, 148, 336
-0.993326, 257, 113, 288, 144
-0.993336, 257, 101, 288, 132
-0.993336, 149, 221, 180, 252
-0.993339, 225, 109, 256, 140
-0.99334, 153, 13, 216, 44
-0.99334, 253, 137, 284, 168
-0.993347, 277, 101, 308, 132
-0.99335, 145, 1, 208, 336
-0.993355, 173, 257, 204, 288
-0.993363, 81, 33, 208, 96
-0.993369, 137, 49, 200, 112
-0.993374, 209, 257, 272, 288
-0.99339, 289, 113, 320, 240
-0.993393, 281, 233, 312, 264
-0.993397, 57, 221, 120, 252
-0.993404, 217, 285, 280, 316
-0.993405, 297, 165, 328, 196
-0.993406, 1, 261, 32, 292
-0.993409, 133, 293, 164, 324
-0.993409, 65, 257, 96, 288
-0.993412, 177, 305, 208, 336
-0.993412, 141, 281, 172, 312
-0.993414, 249, 289, 312, 320
-0.993419, 297, 241, 328, 272
-0.993423, 193, 113, 224, 144
-0.993428, 181, 125, 212, 156
-0.993432, 297, 253, 328, 284
-0.993434, 281, 221, 312, 252
-0.993442, 65, 177, 128, 208
-0.993451, 49, 261, 80, 292
-0.993461, 301, 185, 332, 216
-0.993468, 297, 205, 328, 236
-0.993474, 1, 273, 64, 304
-0.993475, 237, 105, 268, 136
-0.993481, 169, 269, 200, 300
-0.993483, 297, 201, 328, 264
-0.993484, 297, 225, 328, 256
-0.993491, 281, 201, 312, 232
-0.993497, 277, 245, 308, 276
-0.993498, 293, 277, 324, 308
-0.993515, 189, 137, 220, 168
-0.993519, 265, 145, 296, 176
-0.993522, 185, 153, 216, 184
-0.993522, 13, 257, 44, 288
-0.993523, 201, 101, 232, 132
-0.993525, 197, 149, 228, 180
-0.99353, 65, 177, 128, 240
-0.99353, 161, 105, 192, 136
-0.993531, 145, 177, 208, 208
-0.993535, 161, 89, 192, 120
-0.993537, 225, 285, 256, 316
-0.99354, 293, 153, 324, 184
-0.993541, 213, 293, 244, 324
-0.993546, 265, 89, 328, 120
-0.993548, 9, 241, 72, 272
-0.993551, 293, 289, 324, 320
-0.993551, 233, 257, 296, 288
-0.993554, 265, 65, 328, 96
-0.993554, 277, 125, 308, 156
-0.993555, 61, 269, 92, 300
-0.993556, 213, 101, 244, 132
-0.993558, 241, 133, 272, 164
-0.99356, 297, 265, 328, 296
-0.99356, 281, 189, 312, 220
-0.993561, 173, 153, 204, 184
-0.993564, 237, 277, 268, 308
-0.993565, 193, 301, 256, 332
-0.993567, 65, 205, 128, 236
-0.993567, 177, 29, 240, 60
-0.99357, 41, 301, 104, 332
-0.993572, 169, 293, 232, 324
-0.993573, 281, 153, 312, 184
-0.993575, 81, 237, 112, 268
-0.993578, 105, 273, 136, 304
-0.993583, 53, 193, 84, 320
-0.993584, 161, 61, 192, 92
-0.993586, 193, 89, 256, 120
-0.993586, 137, 249, 168, 280
-0.993588, 137, 57, 200, 88
-0.99359, 249, 265, 280, 296
-0.993592, 189, 301, 220, 332
-0.993596, 157, 273, 188, 304
-0.993599, 117, 273, 148, 304
-0.993601, 161, 245, 192, 276
-0.993607, 49, 225, 80, 256
-0.993608, 177, 245, 208, 276
-0.993611, 93, 217, 124, 280
-0.993611, 265, 53, 328, 84
-0.993612, 209, 153, 240, 184
-0.993612, 161, 77, 192, 108
-0.993617, 177, 205, 208, 236
-0.993618, 121, 213, 184, 244
-0.993621, 201, 297, 232, 328
-0.993622, 117, 225, 148, 256
-0.993627, 277, 89, 308, 120
-0.993634, 33, 241, 64, 272
-0.993634, 241, 93, 272, 124
-0.993635, 225, 241, 288, 272
-0.993637, 289, 301, 320, 332
-0.993637, 201, 29, 264, 60
-0.993638, 37, 257, 68, 288
-0.993638, 277, 233, 308, 296
-0.993658, 193, 273, 256, 304
-0.993661, 241, 145, 272, 176
-0.993663, 281, 257, 312, 288
-0.993664, 145, 305, 176, 336
-0.993665, 281, 269, 312, 300
-0.993665, 205, 17, 236, 48
-0.993667, 253, 53, 284, 84
-0.993668, 137, 213, 168, 244
-0.993673, 213, 281, 244, 312
-0.993678, 105, 305, 136, 336
-0.993679, 297, 225, 328, 288
-0.993683, 69, 245, 100, 276
-0.993687, 157, 305, 188, 336
-0.993689, 257, 89, 288, 120
-0.99369, 185, 101, 216, 132
-0.993691, 161, 41, 192, 72
-0.993692, 21, 245, 52, 276
-0.993696, 45, 237, 76, 268
-0.993698, 201, 285, 232, 316
-0.9937, 161, 25, 192, 56
-0.993702, 37, 273, 68, 304
-0.993707, 249, 41, 280, 72
-0.993708, 49, 273, 80, 304
-0.993711, 305, 285, 368, 316
-0.993711, 249, 305, 312, 336
-0.993712, 269, 305, 300, 336
-0.993718, 185, 61, 248, 92
-0.993718, 149, 245, 180, 276
-0.99372, 97, 209, 160, 240
-0.99372, 245, 253, 276, 284
-0.993724, 261, 261, 292, 292
-0.993724, 233, 169, 264, 200
-0.993729, 89, 181, 152, 212
-0.993729, 65, 261, 192, 292
-0.993734, 53, 249, 84, 280
-0.993738, 229, 265, 260, 296
-0.993739, 233, 217, 296, 248
-0.993739, 173, 89, 204, 120
-0.993741, 161, 225, 192, 256
-0.993742, 121, 33, 184, 64
-0.993747, 25, 273, 56, 304
-0.993822, 301, 161, 332, 288
-0.993837, 245, 113, 276, 176
-0.993905, 1, 273, 32, 336
-0.993933, 193, 1, 224, 128
-0.994193, 1, 209, 448, 272
-0.994285, 49, 225, 80, 288
-0.994289, 177, 137, 208, 200
-0.994305, 201, 249, 264, 312
-0.994352, 197, 97, 228, 224
-0.994396, 269, 129, 284, 192
-0.994416, 289, 249, 416, 312
-0.994498, 33, 113, 288, 176
-0.994553, 81, 9, 208, 72
-0.99458, 1, 209, 256, 272
-0.994587, 129, 41, 384, 104
-0.994631, 129, 1, 192, 128
-0.994647, 133, 209, 164, 272
-0.99468, 161, 81, 192, 144
-0.994718, 301, 153, 332, 216
-0.994784, 37, 273, 68, 336
-0.994797, 85, 265, 116, 328
-0.994805, 161, 33, 192, 160
-0.994824, 65, 193, 96, 320
-0.994867, 1, 233, 448, 296
-0.994872, 49, 129, 176, 256
-0.994885, 189, 137, 220, 200
-0.995043, 257, 73, 288, 136
-0.99505, 229, 113, 260, 176
-0.995074, 1, 249, 32, 312
-0.995163, 173, 73, 204, 136
-0.9952, 33, 137, 288, 200
-0.995203, 161, 141, 288, 172
-0.995206, 1, 265, 448, 328
-0.995263, 49, 273, 80, 336
-0.995298, 153, 161, 184, 288
-0.995323, 201, 1, 232, 64
-0.995344, 249, 41, 312, 104
-0.995391, 177, 153, 304, 184
-0.995449, 1, 177, 256, 240
-0.99549, 201, 169, 264, 232
-0.995655, 81, 249, 208, 280
-0.995693, 137, 233, 152, 296
-0.995694, 281, 185, 312, 248
-0.995699, 293, 169, 308, 232
-0.9957, 121, 25, 184, 88
-0.995807, 129, 257, 144, 320
-0.995816, 253, 41, 284, 104
-0.995829, 109, 177, 140, 304
-0.995853, 113, 277, 240, 308
-0.995864, 161, 125, 288, 156
-0.995901, 1, 209, 64, 336
-0.995911, 161, 57, 192, 120
-0.995947, 1, 73, 256, 136
-0.995951, 281, 33, 344, 288
-0.995955, 277, 33, 308, 160
-0.995984, 121, 169, 184, 232
-0.996083, 209, 25, 336, 88
-0.996108, 225, 17, 288, 80
-0.996185, 273, 65, 304, 128
-0.99622, 97, 17, 352, 80
-0.996232, 193, 1, 320, 64
-0.996236, 121, 1, 184, 336
-0.996254, 313, 273, 376, 336
-0.996281, 273, 33, 336, 160
-0.996293, 1, 177, 448, 240
-0.996295, 145, 257, 272, 288
-0.996305, 111, 241, 126, 304
-0.996309, 97, 241, 112, 304
-0.996339, 275, 121, 290, 184
-0.996343, 89, 169, 152, 232
-0.996365, 177, 113, 304, 144
-0.996399, 193, 165, 320, 196
-0.996407, 281, 1, 344, 336
-0.996417, 177, 257, 192, 320
-0.996423, 257, 161, 288, 224
-0.996457, 145, 77, 272, 108
-0.996529, 269, 209, 300, 336
-0.996537, 151, 257, 166, 320
-0.996541, 69, 265, 100, 328
-0.996549, 189, 49, 220, 176
-0.996584, 177, 97, 304, 128
-0.996605, 1, 253, 128, 284
-0.996607, 289, 225, 416, 288
-0.996611, 193, 285, 320, 316
-0.996615, 241, 137, 368, 168
-0.996631, 105, 241, 120, 304
-0.996634, 169, 249, 184, 312
-0.996653, 123, 241, 138, 304
-0.996686, 271, 89, 286, 152
-0.996688, 41, 209, 72, 336
-0.996693, 131, 233, 146, 296
-0.996717, 149, 225, 164, 288
-0.996719, 145, 265, 160, 328
-0.996738, 281, 161, 296, 224
-0.996741, 117, 249, 132, 312
-0.996747, 263, 129, 278, 192
-0.996782, 113, 289, 240, 320
-0.996787, 267, 153, 282, 216
-0.996807, 287, 161, 302, 224
-0.996811, 143, 233, 158, 296
-0.996818, 33, 49, 288, 112
-0.996827, 213, 49, 244, 176
-0.996858, 141, 161, 172, 288
-0.996864, 91, 241, 106, 304
-0.996877, 273, 153, 288, 216
-0.996898, 173, 209, 188, 272
-0.996902, 137, 265, 152, 328
-0.996917, 33, 169, 160, 232
-0.996949, 193, 169, 448, 232
-0.996967, 193, 253, 320, 284
-0.996976, 145, 193, 176, 256
-0.997015, 113, 305, 240, 336
-0.997028, 179, 129, 194, 192
-0.997049, 197, 113, 228, 176
-0.997081, 145, 65, 272, 96
-0.997124, 273, 193, 400, 224
-0.997131, 155, 225, 170, 288
-0.997142, 257, 25, 384, 88
-0.997148, 193, 177, 320, 208
-0.997159, 165, 97, 180, 160
-0.997161, 165, 185, 196, 248
-0.997161, 57, 249, 88, 312
-0.997171, 33, 225, 160, 256
-0.997196, 209, 273, 336, 304
-0.997206, 129, 109, 256, 140
-0.997225, 237, 33, 268, 96
-0.997228, 1, 137, 448, 200
-0.997237, 165, 33, 196, 96
-0.997245, 161, 269, 288, 300
-0.997247, 49, 301, 176, 332
-0.997283, 49, 213, 176, 244
-0.997285, 193, 241, 448, 304
-0.997286, 273, 181, 400, 212
-0.997299, 49, 285, 176, 316
-0.997301, 321, 273, 448, 336
-0.997314, 177, 297, 304, 328
-0.997329, 161, 41, 288, 72
-0.99733, 241, 125, 368, 156
-0.997345, 173, 113, 188, 176
-0.99735, 33, 273, 160, 304
-0.997351, 85, 233, 100, 296
-0.997359, 93, 161, 124, 288
-0.997363, 163, 249, 178, 312
-0.997365, 161, 205, 288, 236
-0.997391, 81, 197, 208, 228
-0.997393, 161, 53, 288, 84
-0.997395, 97, 145, 224, 176
-0.997403, 101, 265, 116, 328
-0.997451, 157, 249, 172, 312
-0.997468, 273, 169, 400, 200
-0.997471, 161, 217, 176, 280
-0.997481, 183, 233, 198, 296
-0.99749, 47, 233, 62, 296
-0.997509, 273, 205, 400, 236
-0.997512, 129, 221, 256, 252
-0.997519, 177, 185, 208, 248
-0.997526, 193, 189, 320, 220
-0.997528, 257, 293, 384, 324
-0.997528, 145, 21, 272, 52
-0.997528, 209, 1, 240, 256
-0.997546, 121, 1, 184, 64
-0.997573, 97, 129, 224, 160
-0.997576, 17, 241, 144, 272
-0.997599, 81, 237, 208, 268
-0.997601, 185, 145, 200, 208
-0.997602, 117, 193, 148, 256
-0.997627, 97, 173, 224, 204
-0.997627, 225, 25, 256, 88
-0.997637, 273, 217, 400, 248
-0.997639, 1, 97, 448, 160
-0.997644, 167, 217, 182, 280
-0.997649, 283, 137, 298, 200
-0.997668, 277, 97, 292, 160
-0.997671, 25, 273, 40, 336
-0.997678, 25, 161, 88, 288
-0.997688, 273, 265, 400, 296
-0.99771, 11, 273, 26, 336
-0.997721, 221, 1, 252, 256
-0.997733, 1, 257, 16, 320
-0.997751, 199, 105, 214, 168
-0.997768, 253, 249, 284, 312
-0.997772, 129, 93, 256, 124
-0.997773, 101, 217, 116, 280
-0.997792, 97, 185, 224, 216
-0.997793, 145, 9, 272, 40
-0.997795, 281, 257, 312, 320
-0.997806, 109, 265, 124, 328
-0.997811, 133, 209, 148, 272
-0.997814, 261, 153, 276, 216
-0.997815, 57, 1, 120, 336
-0.997818, 257, 305, 384, 336
-0.997849, 265, 33, 296, 288
-0.99785, 209, 201, 336, 232
-0.997853, 241, 149, 368, 180
-0.997859, 193, 217, 320, 248
-0.997859, 97, 157, 224, 188
-0.997866, 117, 225, 132, 288
-0.997874, 277, 65, 308, 320
-0.99788, 245, 1, 276, 256
-0.997897, 185, 113, 200, 176
-0.9979, 65, 65, 128, 320
-0.997929, 257, 113, 384, 144
-0.997937, 19, 249, 34, 312
-0.997938, 205, 137, 236, 200
-0.997945, 273, 277, 400, 308
-0.997954, 25, 209, 88, 272
-0.997964, 267, 137, 282, 168
-0.998002, 209, 241, 336, 272
-0.998003, 273, 253, 400, 284
-0.998028, 193, 145, 448, 208
-0.998043, 29, 249, 44, 312
-0.998046, 193, 121, 208, 184
-0.998056, 127, 289, 142, 320
-0.998058, 95, 265, 110, 328
-0.998065, 73, 233, 88, 296
-0.998069, 177, 233, 192, 296
-0.99807, 129, 161, 160, 288
-0.998073, 209, 1, 224, 64
-0.998088, 193, 217, 448, 280
-0.998089, 79, 233, 94, 296
-0.998097, 165, 73, 180, 136
-0.998097, 111, 261, 126, 292
-0.998097, 303, 177, 318, 240
-0.998097, 41, 233, 56, 296
-0.99812, 209, 229, 336, 260
-0.998136, 175, 89, 190, 152
-0.998141, 37, 273, 52, 336
-0.998152, 11, 249, 26, 312
-0.998155, 257, 129, 272, 192
-0.998159, 81, 89, 208, 120
-0.998162, 273, 233, 400, 264
-0.998168, 193, 265, 448, 328
-0.998171, 161, 33, 192, 288
-0.998177, 135, 301, 150, 332
-0.998181, 193, 65, 320, 96
-0.998201, 295, 273, 310, 336
-0.998213, 147, 261, 162, 292
-0.998218, 129, 261, 144, 292
-0.998225, 97, 209, 224, 240
-0.998227, 179, 209, 194, 272
-0.998232, 93, 261, 108, 292
-0.998238, 271, 101, 286, 132
-0.998247, 221, 273, 252, 336
-0.998247, 81, 77, 208, 108
-0.998251, 171, 273, 186, 336
-0.998252, 137, 273, 152, 304
-0.998255, 297, 225, 328, 240
-0.998255, 61, 255, 92, 270
-0.998256, 121, 229, 152, 244
-0.998257, 125, 217, 140, 280
-0.998257, 137, 275, 168, 290
-0.998259, 193, 155, 224, 170
-0.998259, 285, 159, 316, 174
-0.998259, 161, 87, 192, 102
-0.998259, 249, 131, 280, 146
-0.99826, 181, 301, 212, 316
-0.99826, 161, 105, 192, 120
-0.99826, 233, 113, 248, 176
-0.99826, 297, 213, 328, 228
-0.998261, 117, 257, 148, 272
-0.998261, 297, 273, 328, 288
-0.998262, 281, 185, 312, 200
-0.998263, 261, 131, 292, 146
-0.998263, 229, 285, 260, 300
-0.998264, 177, 317, 208, 332
-0.998264, 293, 279, 324, 294
-0.998264, 65, 271, 96, 286
-0.998264, 173, 253, 188, 284
-0.998265, 281, 197, 312, 212
-0.998265, 281, 191, 312, 206
-0.998265, 281, 213, 312, 228
-0.998266, 281, 229, 312, 244
-0.998267, 281, 205, 312, 220
-0.998268, 289, 137, 304, 200
-0.998268, 181, 143, 212, 158
-0.998269, 241, 111, 272, 126
-0.998269, 113, 289, 144, 304
-0.998269, 301, 197, 332, 212
-0.99827, 177, 123, 208, 138
-0.998271, 281, 223, 312, 238
-0.998271, 51, 273, 66, 336
-0.998271, 209, 151, 240, 166
-0.998272, 281, 241, 312, 256
-0.998272, 265, 89, 280, 152
-0.998272, 221, 291, 252, 306
-0.998272, 297, 219, 328, 234
-0.998272, 181, 265, 212, 280
-0.998273, 1, 9, 256, 72
-0.998273, 297, 205, 328, 220
-0.998274, 245, 141, 276, 156
-0.998274, 165, 147, 196, 162
-0.998274, 297, 267, 328, 282
-0.998276, 257, 113, 288, 128
-0.998276, 181, 131, 212, 146
-0.998279, 257, 101, 288, 116
-0.998279, 129, 241, 160, 256
-0.99828, 277, 253, 308, 268
-0.99828, 189, 119, 220, 134
-0.99828, 161, 223, 192, 238
-0.99828, 281, 235, 312, 250
-0.998281, 189, 149, 220, 164
-0.998281, 121, 271, 152, 286
-0.998282, 297, 237, 328, 252
-0.998282, 185, 163, 216, 178
-0.998282, 5, 315, 36, 330
-0.998282, 277, 101, 308, 116
-0.998282, 173, 257, 204, 272
-0.998282, 173, 271, 204, 286
-0.998283, 281, 179, 312, 194
-0.998283, 301, 183, 332, 198
-0.998284, 297, 231, 328, 246
-0.998285, 53, 273, 84, 288
-0.998285, 301, 189, 332, 204
-0.998285, 133, 301, 164, 316
-0.998286, 137, 293, 168, 308
-0.998286, 257, 125, 288, 140
-0.998286, 209, 295, 240, 310
-0.998286, 281, 247, 312, 262
-0.998287, 273, 131, 304, 146
-0.998288, 297, 173, 328, 188
-0.998288, 31, 273, 46, 336
-0.99829, 157, 115, 188, 130
-0.99829, 213, 17, 244, 80
-0.998291, 297, 243, 328, 258
-0.998291, 121, 313, 152, 328
-0.998291, 277, 107, 308, 122
-0.998292, 145, 267, 176, 282
-0.998292, 105, 259, 136, 274
-0.998292, 297, 257, 328, 272
-0.998293, 173, 105, 204, 120
-0.998294, 181, 137, 212, 152
-0.998295, 25, 317, 56, 332
-0.998296, 297, 249, 328, 264
-0.998297, 145, 229, 176, 244
-0.998297, 197, 113, 228, 128
-0.998298, 185, 111, 216, 126
-0.998298, 169, 113, 184, 144
-0.998301, 61, 225, 76, 288
-0.998302, 17, 273, 32, 336
-0.998303, 53, 265, 84, 280
-0.998303, 73, 247, 104, 262
-0.998304, 53, 225, 68, 288
-0.998304, 197, 303, 228, 318
-0.998304, 157, 321, 188, 336
-0.998307, 133, 235, 164, 250
-0.998308, 69, 265, 100, 280
-0.998309, 165, 217, 196, 232
-0.99831, 269, 157, 284, 188
-0.998312, 249, 151, 280, 166
-0.998312, 89, 271, 120, 286
-0.998313, 225, 109, 256, 124
-0.998314, 129, 257, 160, 272
-0.998314, 261, 145, 292, 160
-0.998315, 257, 119, 288, 134
-0.998316, 133, 309, 164, 324
-0.998316, 277, 117, 308, 132
-0.998317, 281, 173, 312, 188
-0.998318, 93, 249, 124, 264
-0.998318, 91, 217, 106, 280
-0.998318, 277, 125, 308, 140
-0.998322, 293, 165, 324, 180
-0.998323, 293, 201, 308, 264
-0.998327, 185, 307, 216, 322
-0.998329, 177, 117, 208, 132
-0.99833, 133, 315, 164, 330
-0.998331, 261, 137, 292, 152
-0.998333, 145, 321, 176, 336
-0.998334, 145, 261, 176, 276
-0.998336, 189, 25, 220, 88
-0.998336, 161, 121, 192, 136
-0.998336, 81, 117, 208, 148
-0.998338, 183, 185, 198, 248
-0.998341, 57, 273, 72, 336
-0.998343, 81, 65, 208, 96
-0.998344, 73, 253, 104, 268
-0.998345, 269, 161, 300, 176
-0.998347, 191, 145, 206, 208
-0.998348, 165, 141, 196, 156
-0.998352, 1, 73, 448, 136
-0.998352, 101, 245, 116, 276
-0.998352, 145, 169, 272, 200
-0.998353, 233, 1, 264, 256
-0.998353, 185, 169, 216, 184
-0.998355, 123, 261, 138, 292
-0.998359, 35, 241, 50, 304
-0.998366, 93, 257, 124, 272
-0.998366, 157, 273, 172, 336
-0.998367, 133, 269, 164, 284
-0.998368, 113, 319, 144, 334
-0.998369, 257, 157, 288, 172
-0.99837, 121, 265, 152, 280
-0.998372, 73, 259, 104, 274
-0.998378, 161, 129, 192, 144
-0.998382, 133, 263, 164, 278
-0.998383, 293, 169, 308, 200
-0.998383, 285, 165, 300, 196
-0.998385, 123, 265, 138, 328
-0.998386, 97, 265, 128, 280
-0.998386, 273, 167, 304, 182
-0.998389, 85, 257, 100, 320
-0.998389, 173, 111, 204, 126
-0.998391, 117, 295, 148, 310
-0.998398, 81, 225, 208, 256
-0.998399, 161, 257, 192, 272
-0.998408, 125, 285, 156, 300
-0.998409, 193, 77, 320, 108
-0.998412, 229, 233, 260, 296
-0.998414, 43, 273, 58, 336
-0.998416, 125, 321, 156, 336
-0.998417, 161, 135, 192, 150
-0.998422, 85, 263, 116, 278
-0.998428, 261, 153, 276, 184
-0.998431, 145, 245, 272, 276
-0.998435, 257, 101, 384, 132
-0.998437, 279, 113, 294, 144
-0.99844, 237, 105, 252, 136
-0.998441, 9, 321, 40, 336
-0.998448, 249, 1, 312, 128
-0.998449, 293, 129, 324, 192
-0.998449, 199, 113, 214, 144
-0.998454, 173, 125, 188, 156
-0.998455, 183, 257, 198, 320
-0.998464, 233, 65, 264, 192
-0.998464, 295, 137, 310, 200
-0.998471, 273, 117, 288, 148
-0.99848, 117, 253, 132, 284
-0.998481, 225, 209, 256, 336
-0.998484, 277, 161, 292, 192
-0.998485, 107, 217, 122, 280
-0.998485, 111, 249, 126, 280
-0.998495, 81, 105, 208, 136
-0.998512, 101, 265, 116, 296
-0.998514, 95, 249, 110, 280
-0.998519, 175, 269, 190, 300
-0.99852, 193, 97, 208, 160
-0.998521, 109, 265, 140, 280
-0.998525, 139, 209, 154, 272
-0.998525, 303, 153, 318, 216
-0.998527, 127, 249, 142, 280
-0.998537, 129, 233, 256, 264
-0.99854, 241, 81, 368, 112
-0.998541, 197, 1, 228, 256
-0.998544, 77, 257, 92, 320
-0.998545, 1, 305, 128, 336
-0.99855, 89, 265, 152, 280
-0.998556, 201, 33, 232, 96
-0.998558, 137, 261, 200, 276
-0.998559, 205, 97, 220, 160
-0.998561, 245, 89, 276, 152
-0.998573, 81, 193, 112, 320
-0.998574, 291, 233, 306, 296
-0.998592, 245, 177, 276, 304
-0.998592, 161, 111, 224, 126
-0.998594, 241, 69, 368, 100
-0.998599, 271, 57, 286, 120
-0.998605, 69, 265, 84, 328
-0.998605, 133, 241, 148, 272
-0.998606, 225, 155, 288, 170
-0.998606, 233, 107, 296, 122
-0.998607, 181, 1, 212, 256
-0.998614, 113, 321, 176, 336
-0.998614, 249, 165, 312, 180
-0.998615, 129, 267, 192, 282
-0.998618, 261, 141, 276, 172
-0.998618, 283, 89, 298, 152
-0.998618, 217, 149, 280, 164
-0.998625, 137, 253, 152, 284
-0.998627, 65, 263, 128, 278
-0.99863, 249, 171, 312, 186
-0.99863, 63, 265, 78, 296
-0.998632, 169, 119, 232, 134
-0.998633, 193, 109, 256, 124
-0.998634, 257, 145, 320, 160
-0.99864, 177, 151, 240, 166
-0.998642, 145, 229, 160, 260
-0.998642, 49, 177, 176, 208
-0.998644, 161, 9, 192, 72
-0.998655, 65, 269, 128, 284
-0.998657, 297, 249, 312, 312
-0.998658, 177, 141, 240, 156
-0.998658, 49, 257, 112, 272
-0.998658, 177, 173, 240, 188
-0.998659, 209, 53, 336, 84
-0.998659, 121, 285, 184, 300
-0.998662, 89, 321, 152, 336
-0.998662, 89, 259, 152, 274
-0.998663, 129, 301, 192, 316
-0.998664, 257, 139, 320, 154
-0.998665, 167, 257, 182, 288
-0.998665, 63, 257, 78, 320
-0.998666, 257, 269, 320, 284
-0.998666, 303, 201, 318, 264
-0.998667, 257, 255, 320, 270
-0.998667, 233, 117, 296, 132
-0.998668, 161, 105, 224, 120
-0.998669, 239, 105, 254, 168
-0.998669, 257, 249, 320, 264
-0.998669, 201, 115, 264, 130
-0.998672, 89, 293, 152, 308
-0.998672, 17, 319, 80, 334
-0.998672, 179, 257, 194, 288
-0.998676, 177, 131, 240, 146
-0.998676, 217, 143, 280, 158
-0.998676, 249, 159, 312, 174
-0.998676, 257, 177, 320, 192
-0.998678, 113, 261, 176, 276
-0.998679, 233, 101, 296, 116
-0.99868, 257, 263, 320, 278
-0.99868, 185, 157, 248, 172
-0.998682, 167, 121, 182, 184
-0.998683, 257, 239, 320, 254
-0.998683, 131, 277, 146, 308
-0.998683, 137, 227, 200, 242
-0.998683, 231, 105, 246, 136
-0.998684, 165, 49, 180, 112
-0.998684, 277, 65, 292, 128
-0.998684, 129, 279, 192, 294
-0.998684, 289, 173, 352, 188
-0.998684, 289, 245, 352, 260
-0.998685, 81, 239, 144, 254
-0.998686, 289, 183, 352, 198
-0.998687, 137, 125, 200, 140
-0.998689, 145, 145, 208, 160
-0.998689, 289, 251, 352, 266
-0.998689, 281, 165, 344, 180
-0.99869, 177, 167, 240, 182
-0.998691, 289, 193, 352, 208
-0.998692, 249, 275, 312, 290
-0.998692, 33, 243, 96, 258
-0.998693, 225, 137, 288, 152
-0.998694, 289, 257, 352, 272
-0.998695, 129, 315, 192, 330
-0.998697, 41, 263, 104, 278
-0.998697, 17, 255, 80, 270
-0.998697, 177, 125, 240, 140
-0.998697, 225, 129, 288, 144
-0.998697, 177, 305, 240, 320
-0.998698, 65, 251, 128, 266
-0.998698, 249, 207, 312, 222
-0.998699, 137, 131, 200, 146
-0.998699, 289, 239, 352, 254
-0.998699, 193, 109, 208, 140
-0.998699, 289, 267, 352, 282
-0.9987, 41, 235, 104, 250
-0.9987, 249, 185, 312, 200
-0.998701, 137, 233, 200, 248
-0.998701, 257, 233, 320, 248
-0.998702, 289, 199, 352, 214
-0.998702, 113, 255, 176, 270
-0.998702, 289, 213, 352, 228
-0.998704, 105, 271, 168, 286
-0.998704, 137, 321, 200, 336
-0.998704, 89, 249, 152, 264
-0.998704, 161, 219, 224, 234
-0.998705, 289, 273, 352, 288
-0.998705, 161, 75, 224, 90
-0.998705, 289, 205, 352, 220
-0.998705, 137, 137, 200, 152
-0.998707, 257, 191, 320, 206
-0.998707, 257, 133, 320, 148
-0.998708, 121, 309, 184, 324
-0.998708, 185, 103, 248, 118
-0.998709, 89, 315, 152, 330
-0.99871, 273, 111, 336, 126
-0.99871, 137, 273, 200, 288
-0.998711, 113, 291, 176, 306
-0.998711, 145, 153, 208, 168
-0.998711, 215, 9, 230, 72
-0.998712, 41, 269, 104, 284
-0.998712, 161, 99, 224, 114
-0.998712, 137, 255, 200, 270
-0.998712, 265, 117, 328, 132
-0.998713, 169, 271, 232, 286
-0.998713, 145, 307, 208, 322
-0.998713, 265, 227, 328, 242
-0.998713, 65, 245, 128, 260
-0.998714, 97, 227, 160, 242
-0.998714, 289, 233, 352, 248
-0.998714, 161, 257, 224, 272
-0.998714, 225, 169, 288, 232
-0.998715, 137, 205, 200, 220
-0.998715, 281, 285, 344, 300
-0.998715, 153, 165, 216, 180
-0.998715, 161, 81, 224, 96
-0.998715, 249, 201, 312, 216
-0.998715, 89, 233, 152, 248
-0.998716, 129, 119, 192, 134
-0.998716, 281, 309, 344, 324
-0.998716, 25, 249, 88, 264
-0.998717, 193, 299, 256, 314
-0.998717, 67, 217, 82, 280
-0.998717, 257, 215, 320, 230
-0.998718, 169, 213, 232, 228
-0.998719, 257, 151, 320, 166
-0.998719, 89, 287, 152, 302
-0.998719, 153, 41, 216, 56
-0.998719, 177, 179, 240, 194
-0.99872, 165, 101, 180, 132
-0.99872, 1, 49, 448, 112
-0.99872, 289, 219, 352, 234
-0.99872, 233, 123, 296, 138
-0.998721, 281, 279, 344, 294
-0.998721, 161, 69, 224, 84
-0.998721, 257, 221, 320, 236
-0.998722, 281, 159, 344, 174
-0.998722, 289, 225, 352, 240
-0.998724, 161, 1, 224, 16
-0.998725, 161, 93, 224, 108
-0.998725, 97, 53, 224, 84
-0.998726, 25, 275, 88, 290
-0.998726, 281, 291, 344, 306
-0.998731, 257, 241, 272, 304
-0.998733, 61, 253, 76, 284
-0.998736, 233, 25, 248, 88
-0.998738, 241, 145, 272, 208
-0.998742, 237, 265, 268, 328
-0.998745, 139, 229, 154, 260
-0.998748, 179, 137, 194, 168
-0.998753, 175, 101, 190, 132
-0.998754, 225, 17, 240, 80
-0.998755, 189, 157, 204, 188
-0.99876, 143, 281, 158, 312
-0.998763, 189, 273, 204, 336
-0.998768, 173, 213, 188, 244
-0.998779, 273, 129, 288, 160
-0.998782, 205, 137, 220, 200
-0.9988, 9, 261, 24, 292
-0.998803, 185, 89, 216, 152
-0.998806, 177, 185, 192, 248
-0.998807, 127, 193, 142, 256
-0.998814, 273, 97, 288, 224
-0.998823, 163, 125, 178, 156
-0.998837, 117, 265, 132, 296
-0.998839, 137, 289, 152, 320
-0.998841, 87, 253, 102, 284
-0.998843, 145, 181, 272, 212
-0.998848, 3, 261, 18, 292
-0.998849, 157, 257, 172, 288
-0.998857, 71, 257, 86, 288
-0.998858, 57, 249, 72, 312
-0.99886, 265, 49, 280, 112
-0.998871, 267, 117, 282, 148
-0.998873, 289, 73, 304, 136
-0.998877, 127, 305, 142, 336
-0.99888, 167, 217, 182, 248
-0.99888, 149, 249, 164, 280
-0.99888, 151, 225, 166, 256
-0.998882, 207, 33, 222, 96
-0.998885, 295, 181, 310, 212
-0.998889, 163, 113, 178, 144
-0.998889, 199, 101, 214, 132
-0.998891, 89, 65, 152, 320
-0.998903, 235, 249, 250, 312
-0.998907, 81, 41, 208, 72
-0.998912, 145, 193, 272, 224
-0.998912, 97, 1, 224, 32
-0.998913, 57, 265, 72, 296
-0.998918, 287, 153, 302, 184
-0.998919, 281, 101, 296, 132
-0.998922, 183, 149, 198, 180
-0.998922, 187, 297, 202, 328
-0.998925, 231, 89, 246, 152
-0.998934, 247, 249, 262, 312
-0.998938, 145, 305, 160, 336
-0.998946, 1, 209, 64, 272
-0.998948, 203, 1, 218, 64
-0.998955, 205, 109, 220, 140
-0.998963, 119, 241, 134, 272
-0.998966, 303, 165, 318, 196
-0.99897, 189, 265, 220, 328
-0.998971, 181, 89, 196, 152
-0.998975, 161, 221, 176, 252
-0.998977, 223, 273, 238, 336
-0.998979, 133, 225, 148, 256
-0.998983, 185, 209, 216, 336
-0.998983, 149, 277, 164, 308
-0.998988, 81, 217, 112, 280
-0.998988, 291, 293, 306, 324
-0.998988, 239, 25, 254, 88
-0.998989, 51, 257, 66, 288
-0.99899, 3, 233, 18, 296
-0.998993, 15, 257, 30, 288
-0.998997, 251, 33, 266, 96
-0.998999, 209, 89, 240, 152
-0.999001, 121, 177, 136, 240
-0.999006, 303, 197, 318, 228
-0.999009, 151, 209, 166, 336
-0.999009, 165, 65, 180, 96
-0.999011, 183, 121, 198, 152
-0.999012, 303, 185, 318, 216
-0.999028, 125, 273, 140, 304
-0.999032, 291, 305, 306, 336
-0.999034, 77, 257, 92, 288
-0.99904, 87, 265, 102, 296
-0.999049, 109, 169, 140, 232
-0.999053, 69, 269, 84, 300
-0.999054, 43, 237, 58, 268
-0.999056, 293, 217, 308, 248
-0.999058, 181, 269, 196, 300
-0.999061, 49, 233, 64, 264
-0.999064, 181, 301, 196, 332
-0.999065, 175, 113, 190, 144
-0.999069, 255, 133, 270, 164
-0.999073, 279, 125, 294, 156
-0.999074, 121, 285, 136, 316
-0.999077, 289, 157, 416, 188
-0.999084, 181, 205, 196, 236
-0.999089, 189, 169, 204, 200
-0.999092, 279, 149, 294, 180
-0.999092, 279, 81, 294, 208
-0.9991, 235, 281, 250, 312
-0.999104, 243, 101, 258, 132
-0.999105, 235, 93, 250, 124
-0.999109, 177, 33, 208, 96
-0.999111, 141, 217, 156, 248
-0.999114, 87, 237, 102, 268
-0.999115, 267, 81, 282, 208
-0.999128, 321, 97, 448, 160
-0.999132, 285, 301, 300, 332
-0.999136, 291, 161, 306, 288
-0.999137, 297, 157, 312, 188
-0.999137, 161, 209, 176, 336
-0.999142, 195, 297, 210, 328
-0.999146, 165, 89, 180, 120
-0.999146, 25, 253, 40, 284
-0.999147, 289, 129, 352, 192
-0.999147, 81, 237, 96, 268
-0.999148, 241, 277, 256, 308
-0.999151, 299, 273, 314, 304
-0.999157, 57, 225, 72, 256
-0.999159, 293, 205, 308, 236
-0.999161, 81, 17, 208, 48
-0.999168, 217, 149, 232, 180
-0.999173, 187, 133, 202, 164
-0.999174, 153, 273, 184, 336
-0.999177, 155, 245, 170, 276
-0.999177, 229, 285, 244, 316
-0.999178, 37, 245, 52, 276
-0.999183, 31, 249, 46, 280
-0.999184, 247, 273, 262, 304
-0.999184, 223, 281, 238, 312
-0.999186, 185, 249, 200, 280
-0.999186, 255, 145, 270, 176
-0.999188, 229, 93, 244, 124
-0.999194, 165, 53, 180, 84
-0.999194, 207, 289, 222, 320
-0.999198, 293, 233, 308, 264
-0.999198, 173, 209, 188, 336
-0.999198, 215, 285, 230, 316
-0.9992, 269, 265, 300, 328
-0.999212, 277, 145, 292, 272
-0.999224, 145, 209, 160, 336
-0.999225, 97, 29, 224, 60
-0.999242, 49, 137, 176, 200
-0.999256, 283, 145, 298, 272
-0.999285, 241, 41, 368, 72
-0.999303, 139, 209, 154, 336
-0.999313, 165, 49, 180, 176
-0.999322, 167, 193, 182, 320
-0.999328, 241, 241, 272, 304
-0.999344, 271, 145, 286, 272
-0.999352, 241, 129, 272, 256
-0.999365, 257, 53, 384, 84
-0.999392, 133, 193, 148, 320
-0.999401, 33, 1, 96, 336
-0.999402, 223, 1, 238, 128
-0.999408, 293, 113, 308, 240
-0.999415, 213, 1, 228, 128
-0.999416, 177, 129, 192, 256
-0.999418, 149, 33, 180, 288
-0.999421, 265, 129, 280, 256
-0.999436, 179, 193, 194, 320
-0.999436, 265, 233, 296, 296
-0.999447, 199, 97, 214, 224
-0.999457, 33, 189, 160, 220
-0.999463, 193, 13, 320, 44
-0.999471, 189, 159, 204, 174
-0.999472, 51, 267, 66, 282
-0.999472, 183, 305, 198, 320
-0.999472, 295, 183, 310, 198
-0.999473, 239, 113, 254, 128
-0.999473, 217, 297, 232, 312
-0.999473, 185, 65, 216, 128
-0.999473, 255, 273, 270, 288
-0.999474, 81, 239, 96, 254
-0.999474, 175, 105, 190, 120
-0.999475, 53, 231, 68, 246
-0.999475, 135, 229, 150, 244
-0.999475, 91, 243, 106, 258
-0.999475, 63, 255, 78, 270
-0.999475, 109, 319, 124, 334
-0.999476, 301, 167, 316, 182
-0.999476, 281, 109, 296, 124
-0.999476, 75, 255, 90, 270
-0.999476, 193, 1, 320, 32
-0.999476, 201, 299, 216, 314
-0.999476, 125, 259, 140, 274
-0.999477, 165, 221, 180, 236
-0.999478, 165, 105, 180, 120
-0.999478, 249, 277, 264, 292
-0.999478, 157, 259, 172, 274
-0.999478, 303, 197, 318, 212
-0.999479, 195, 165, 210, 180
-0.999479, 177, 319, 192, 334
-0.999479, 21, 315, 36, 330
-0.999481, 171, 275, 186, 290
-0.999481, 95, 269, 110, 284
-0.999481, 67, 273, 82, 288
-0.999482, 147, 281, 162, 296
-0.999482, 9, 315, 24, 330
-0.999482, 207, 113, 222, 128
-0.999483, 167, 257, 182, 272
-0.999483, 223, 295, 238, 310
-0.999483, 79, 247, 94, 262
-0.999483, 265, 149, 280, 164
-0.999485, 243, 281, 258, 296
-0.999485, 155, 227, 170, 242
-0.999486, 59, 261, 74, 276
-0.999486, 143, 313, 158, 328
-0.999487, 235, 287, 250, 302
-0.999487, 29, 317, 44, 332
-0.999488, 13, 321, 28, 336
-0.999488, 195, 301, 210, 316
-0.999489, 77, 263, 92, 278
-0.999489, 115, 265, 130, 280
-0.999489, 265, 127, 280, 142
-0.99949, 183, 263, 198, 278
-0.999491, 177, 141, 192, 156
-0.999491, 171, 123, 186, 138
-0.999491, 191, 117, 206, 132
-0.999491, 147, 271, 162, 286
-0.999492, 265, 143, 280, 158
-0.999493, 295, 177, 310, 192
-0.999493, 233, 115, 248, 130
-0.999494, 121, 291, 136, 306
-0.999495, 183, 311, 198, 326
-0.999495, 163, 133, 178, 148
-0.999496, 171, 217, 186, 232
-0.999496, 3, 321, 18, 336
-0.999496, 229, 291, 244, 306
-0.999497, 173, 129, 188, 144
-0.999499, 95, 251, 110, 266
-0.9995, 111, 259, 126, 274
-0.999501, 119, 257, 134, 272
-0.999501, 69, 255, 84, 270
-0.999501, 149, 229, 164, 244
-0.999502, 171, 321, 186, 336
-0.999502, 133, 269, 148, 284
-0.999503, 139, 283, 154, 298
-0.999504, 259, 149, 274, 164
-0.999504, 189, 303, 204, 318
-0.999504, 85, 245, 100, 260
-0.999504, 71, 265, 86, 280
-0.999504, 277, 125, 292, 140
-0.999505, 269, 33, 284, 160
-0.999506, 67, 193, 82, 320
-0.999507, 183, 145, 198, 272
-0.999507, 139, 295, 154, 310
-0.999509, 137, 237, 152, 252
-0.999509, 95, 257, 110, 272
-0.99951, 273, 113, 288, 128
-0.999511, 231, 107, 246, 122
-0.999512, 151, 259, 166, 274
-0.999513, 65, 261, 80, 276
-0.999516, 137, 301, 152, 316
-0.999517, 121, 265, 136, 280
-0.999521, 177, 271, 192, 286
-0.999522, 271, 119, 286, 134
-0.999522, 87, 261, 102, 276
-0.999523, 143, 319, 158, 334
-0.999523, 281, 115, 296, 130
-0.999524, 275, 131, 290, 146
-0.999525, 199, 119, 214, 134
-0.999525, 143, 233, 158, 248
-0.999525, 173, 135, 188, 150
-0.999527, 117, 321, 132, 336
-0.999527, 59, 267, 74, 282
-0.999528, 263, 33, 278, 160
-0.999529, 85, 253, 100, 268
-0.999529, 69, 177, 100, 240
-0.99953, 133, 285, 148, 300
-0.99953, 139, 273, 154, 288
-0.99953, 137, 309, 152, 324
-0.999531, 201, 113, 216, 128
-0.999533, 293, 171, 308, 186
-0.999538, 261, 155, 276, 170
-0.999541, 229, 17, 244, 144
-0.999542, 103, 257, 118, 272
-0.999544, 189, 165, 204, 180
-0.999544, 65, 267, 80, 282
-0.999548, 175, 111, 190, 126
-0.999549, 287, 97, 302, 224
-0.999549, 189, 97, 204, 224
-0.999549, 101, 269, 116, 284
-0.99955, 147, 265, 162, 280
-0.99955, 165, 111, 180, 126
-0.999551, 281, 165, 296, 180
-0.999553, 273, 103, 288, 118
-0.999554, 193, 1, 448, 64
-0.999554, 61, 209, 92, 272
-0.999558, 169, 117, 184, 132
-0.999558, 207, 1, 222, 128
-0.99956, 271, 159, 286, 174
-0.99956, 127, 319, 142, 334
-0.999561, 129, 293, 144, 308
-0.999562, 127, 193, 142, 320
-0.999565, 205, 49, 220, 176
-0.999565, 195, 111, 210, 126
-0.999566, 297, 65, 328, 320
-0.999569, 173, 257, 188, 272
-0.99957, 135, 315, 150, 330
-0.99957, 239, 17, 254, 144
-0.99957, 237, 107, 252, 122
-0.999572, 287, 167, 302, 182
-0.999574, 337, 273, 400, 336
-0.999574, 99, 263, 114, 278
-0.999574, 269, 135, 284, 150
-0.999577, 259, 145, 274, 272
-0.999581, 303, 161, 318, 288
-0.999587, 127, 287, 142, 302
-0.999588, 135, 321, 150, 336
-0.999592, 137, 263, 152, 278
-0.999595, 191, 49, 206, 176
-0.999601, 261, 81, 276, 208
-0.999607, 55, 209, 70, 336
-0.999617, 19, 321, 34, 336
-0.99962, 305, 1, 368, 336
-0.999623, 93, 263, 108, 278
-0.999628, 175, 49, 190, 176
-0.999629, 127, 265, 142, 280
-0.999631, 109, 265, 124, 280
-0.999633, 217, 241, 248, 304
-0.999634, 245, 17, 260, 144
-0.99964, 73, 161, 88, 288
-0.999651, 61, 193, 76, 320
-0.999653, 185, 49, 200, 176
-0.999659, 293, 209, 308, 336
-0.999663, 33, 201, 160, 232
-0.999664, 199, 49, 214, 176
-0.999664, 189, 145, 204, 272
-0.999677, 113, 193, 128, 320
-0.999679, 257, 33, 272, 160
-0.999679, 253, 97, 268, 224
-0.999683, 99, 193, 114, 320
-0.999693, 321, 109, 448, 140
-0.999705, 185, 193, 200, 320
-0.999707, 107, 193, 122, 320
-0.999709, 297, 161, 312, 288
-0.999713, 159, 161, 174, 288
-0.999716, 171, 113, 186, 240
-0.999724, 251, 17, 266, 144
-0.999725, 321, 281, 448, 312
-0.99973, 47, 209, 62, 336
-0.999733, 299, 209, 314, 336
-0.999738, 151, 161, 166, 288
-0.999738, 277, 33, 292, 160
-0.99974, 299, 113, 314, 240
-0.999743, 119, 193, 134, 320
-0.999744, 195, 145, 210, 272
-0.999747, 219, 49, 234, 176
-0.999756, 73, 209, 88, 336
-0.999757, 149, 49, 180, 176
-0.999758, 201, 1, 216, 128
-0.99976, 79, 161, 94, 288
-0.99976, 93, 209, 124, 336
-0.999761, 213, 49, 228, 176
-0.999762, 73, 145, 104, 272
-0.999765, 165, 97, 180, 224
-0.999772, 193, 25, 320, 56
-0.999776, 165, 145, 180, 272
-0.999781, 85, 177, 100, 304
-0.999783, 205, 97, 220, 224
-0.999783, 165, 1, 180, 128
-0.999785, 141, 161, 156, 288
-0.999786, 193, 145, 224, 272
-0.999788, 287, 209, 302, 336
-0.999789, 1, 213, 128, 244
-0.999812, 195, 1, 210, 128
-0.999823, 41, 209, 56, 336
-0.999826, 243, 177, 258, 304
-0.999829, 241, 29, 368, 60
-0.99984, 67, 145, 82, 272
-0.999843, 159, 33, 174, 160
-0.99985, 251, 193, 266, 320
-0.999854, 189, 1, 204, 128
-0.999858, 293, 65, 308, 192
-0.999859, 125, 145, 140, 272
-0.99986, 183, 97, 198, 224
-0.999862, 117, 145, 132, 272
-0.999864, 241, 1, 368, 64
-0.999864, 1, 285, 128, 316
-0.999865, 273, 209, 288, 336
-0.999865, 91, 161, 106, 288
-0.999876, 131, 145, 146, 272
-0.999877, 237, 209, 252, 336
-0.999879, 229, 65, 244, 192
-0.999881, 111, 145, 126, 272
-0.99989, 265, 177, 280, 304
-0.999896, 35, 193, 50, 320
-0.999896, 229, 209, 244, 336
-0.999898, 233, 81, 264, 144
-0.999899, 235, 65, 250, 192
-0.999903, 59, 145, 74, 272
-0.999903, 281, 193, 296, 320
-0.999907, 103, 145, 118, 272
-0.999908, 247, 81, 262, 208
-0.999914, 79, 209, 94, 336
-0.999915, 305, 113, 320, 240
-0.999915, 1, 193, 128, 256
-0.999917, 217, 145, 248, 208
-0.999921, 93, 209, 108, 336
-0.999921, 313, 145, 328, 272
-0.999924, 159, 81, 174, 208
-0.999927, 183, 1, 198, 128
-0.999937, 175, 1, 190, 128
-0.999938, 241, 65, 256, 192
-0.999938, 239, 129, 254, 256
-0.999938, 201, 145, 216, 272
-0.999938, 309, 209, 324, 336
-0.999941, 191, 209, 206, 336
-0.999946, 97, 145, 112, 272
-0.999954, 315, 193, 330, 320
-0.999956, 375, 145, 390, 272
-0.999956, 257, 193, 272, 320
-0.999958, 211, 113, 226, 240
-0.999962, 215, 209, 230, 336
-0.999964, 253, 145, 268, 272
-0.999964, 247, 129, 262, 256
-0.999972, 321, 169, 448, 232
-0.999981, 299, 65, 314, 192
-0.999981, 51, 161, 66, 288
-0.999985, 415, 97, 430, 224
-0.999986, 283, 33, 298, 160
-0.999989, 173, 1, 204, 128
-0.999992, 219, 97, 234, 224
-0.999997, 223, 209, 238, 336
-1.00001, 29, 193, 44, 320
-1.00001, 203, 193, 218, 320
-1.00001, 379, 97, 394, 224
-1.00001, 233, 113, 248, 240
-1.00002, 89, 1, 152, 336
-1.00003, 321, 97, 448, 224
-1.00005, 257, 1, 288, 128
-1.00006, 313, 249, 376, 312
-1.00006, 1, 177, 128, 208
-1.00008, 49, 137, 176, 168
-1.00008, 289, 65, 320, 192
-1.00009, 321, 121, 448, 184
-1.00012, 301, 113, 332, 240
-1.00012, 49, 165, 176, 196
-1.00013, 217, 113, 248, 176
-1.00013, 317, 273, 348, 336
-1.00016, 93, 65, 124, 320
-1.00016, 321, 269, 448, 300
-1.00017, 113, 65, 144, 320
-1.00017, 305, 293, 432, 324
-1.0002, 49, 53, 176, 84
-1.00023, 133, 65, 164, 320
-1.00024, 113, 65, 176, 320
-1.00027, 321, 181, 448, 212
-1.00029, 321, 125, 448, 156
-1.0003, 305, 93, 432, 124
-1.00033, 73, 65, 104, 320
-1.00033, 209, 201, 272, 264
-1.00035, 205, 257, 236, 320
-1.00037, 305, 305, 432, 336
-1.00047, 273, 49, 400, 112
-1.00048, 189, 1, 220, 64
-1.0005, 321, 169, 448, 200
-1.0005, 369, 97, 432, 160
-1.0005, 245, 169, 276, 232
-1.00051, 321, 77, 448, 108
-1.00051, 321, 141, 448, 172
-1.00053, 149, 97, 180, 160
-1.00055, 213, 41, 244, 104
-1.00057, 321, 197, 448, 228
-1.00057, 321, 193, 448, 256
-1.00057, 49, 29, 176, 60
-1.00059, 53, 145, 84, 272
-1.00063, 41, 177, 104, 240
-1.00064, 241, 17, 368, 48
-1.00065, 321, 145, 448, 208
-1.00065, 217, 65, 248, 128
-1.00066, 61, 65, 92, 320
-1.00066, 345, 161, 408, 224
-1.00067, 1, 165, 128, 196
-1.00067, 49, 153, 176, 184
-1.00068, 9, 1, 72, 336
-1.00071, 321, 61, 448, 92
-1.00072, 1, 105, 128, 136
-1.00073, 321, 253, 448, 284
-1.00073, 321, 241, 448, 272
-1.00074, 321, 73, 448, 136
-1.00075, 321, 225, 448, 256
-1.00075, 1, 93, 128, 124
-1.00076, 221, 97, 252, 224
-1.00076, 49, 65, 80, 320
-1.00077, 273, 33, 336, 96
-1.00078, 1, 1, 128, 32
-1.00079, 1, 21, 128, 52
-1.00079, 1, 33, 128, 64
-1.00079, 1, 45, 128, 76
-1.0008, 1, 61, 128, 92
-1.0008, 201, 145, 264, 272
-1.0008, 1, 121, 128, 152
-1.00087, 197, 89, 228, 152
-1.00089, 121, 145, 184, 208
-1.00091, 321, 49, 448, 112
-1.00098, 37, 65, 68, 320
-1.00099, 309, 33, 340, 288
-1.00102, 1, 145, 128, 208
-1.00107, 17, 185, 80, 248
-1.00111, 145, 1, 176, 128
-1.00114, 417, 33, 448, 288
-1.00115, 405, 65, 436, 320
-1.00116, 321, 209, 448, 336
-1.00116, 253, 225, 284, 288
-1.00119, 357, 65, 388, 320
-1.00119, 289, 65, 352, 128
-1.00122, 345, 65, 376, 320
-1.00123, 145, 17, 176, 80
-1.00124, 197, 65, 228, 128
-1.00125, 1, 25, 448, 88
-1.00128, 377, 65, 408, 320
-1.00128, 161, 161, 192, 224
-1.00134, 229, 145, 260, 208
-1.00135, 369, 121, 432, 184
-1.00141, 333, 33, 364, 288
-1.00143, 377, 97, 440, 224
-1.00144, 17, 65, 48, 320
-1.00146, 33, 105, 160, 168
-1.00148, 361, 1, 424, 336
-1.00149, 393, 1, 424, 256
-1.00152, 237, 201, 268, 264
-1.00153, 321, 65, 352, 320
-1.00156, 29, 209, 60, 336
-1.00157, 221, 89, 252, 152
-1.00157, 93, 177, 124, 240
-1.00163, 321, 137, 384, 200
-1.00167, 213, 209, 244, 336
-1.0017, 1, 1, 128, 64
-1.0017, 1, 49, 128, 112
-1.0017, 269, 209, 300, 272
-1.00176, 1, 25, 128, 88
-1.00176, 1, 81, 128, 144
-1.00177, 1, 65, 32, 320
-1.00178, 149, 57, 180, 120
-1.00186, 257, 209, 288, 336
-1.00188, 393, 89, 424, 152
-1.00195, 1, 1, 448, 64
-1.002, 81, 177, 112, 240
-1.00201, 197, 161, 228, 224
-1.00208, 229, 57, 260, 120
-1.00208, 249, 17, 312, 80
-1.00218, 1, 113, 128, 240
-1.00218, 385, 1, 448, 336
-1.00221, 149, 129, 180, 192
-1.0023, 229, 145, 260, 272
-1.00234, 57, 153, 120, 216
-1.0024, 53, 185, 84, 248
-1.00243, 209, 97, 240, 224
-1.00243, 201, 209, 232, 336
-1.00244, 361, 145, 392, 272
-1.00246, 181, 209, 212, 272
-1.00247, 305, 25, 432, 88
-1.00259, 41, 65, 104, 320
-1.00261, 25, 225, 56, 288
-1.00265, 313, 209, 344, 336
-1.00265, 57, 97, 120, 224
-1.00267, 297, 89, 328, 152
-1.00268, 273, 33, 304, 96
-1.00272, 205, 145, 236, 272
-1.00275, 113, 49, 176, 112
-1.0028, 329, 1, 392, 336
-1.00281, 41, 161, 72, 288
-1.00283, 369, 145, 432, 208
-1.00297, 305, 1, 432, 64
-1.003, 305, 49, 432, 176
-1.00305, 17, 193, 48, 320
-1.00312, 85, 113, 116, 240
-1.00317, 313, 145, 376, 272
-1.00321, 305, 65, 368, 320
-1.00327, 377, 97, 408, 224
-1.00333, 321, 209, 384, 336
-1.00335, 405, 97, 436, 224
-1.00336, 313, 209, 376, 272
-1.00343, 369, 169, 432, 232
-1.00346, 321, 145, 448, 272
-1.00348, 57, 17, 120, 80
-1.0035, 377, 273, 440, 336
-1.00363, 313, 185, 376, 248
-1.00377, 345, 161, 408, 288
-1.00384, 393, 81, 424, 208
-1.004, 313, 161, 344, 288
-1.00404, 113, 81, 176, 144
-1.00406, 417, 65, 448, 192
-1.00409, 353, 73, 416, 136
-1.00409, 345, 121, 408, 184
-1.00415, 217, 145, 248, 272
-1.00416, 385, 73, 448, 136
-1.0042, 357, 97, 388, 224
-1.00421, 109, 129, 140, 256
-1.00422, 373, 145, 404, 272
-1.00428, 337, 249, 400, 312
-1.00438, 25, 113, 88, 240
-1.00466, 65, 97, 96, 224
-1.00471, 5, 193, 36, 320
-1.00472, 33, 153, 96, 216
-1.00473, 377, 65, 440, 320
-1.00478, 349, 209, 380, 336
-1.0048, 345, 209, 408, 336
-1.00482, 301, 65, 332, 192
-1.00492, 361, 193, 392, 320
-1.00502, 321, 161, 384, 224
-1.0052, 17, 65, 80, 320
-1.00526, 149, 113, 180, 240
-1.00532, 353, 193, 416, 256
-1.00534, 97, 113, 128, 240
-1.00534, 57, 97, 120, 160
-1.00543, 345, 97, 408, 160
-1.00544, 25, 9, 88, 72
-1.00544, 57, 41, 120, 104
-1.00548, 297, 17, 328, 144
-1.00548, 329, 97, 392, 224
-1.00552, 81, 145, 144, 208
-1.00555, 377, 249, 440, 312
-1.0056, 57, 65, 120, 128
-1.0056, 313, 65, 376, 128
-1.00567, 33, 33, 96, 96
-1.0057, 33, 33, 160, 160
-1.00571, 297, 41, 360, 104
-1.00571, 321, 113, 384, 176
-1.00575, 369, 145, 432, 272
-1.0058, 345, 129, 376, 256
-1.00584, 29, 161, 60, 288
-1.00603, 57, 129, 120, 192
-1.00606, 297, 97, 360, 160
-1.00615, 321, 89, 384, 152
-1.00617, 401, 33, 432, 160
-1.0062, 353, 97, 416, 224
-1.00624, 325, 209, 356, 336
-1.00634, 337, 217, 400, 280
-1.00635, 41, 113, 72, 240
-1.00641, 1, 161, 64, 288
-1.00645, 329, 33, 392, 288
-1.0065, 385, 145, 416, 272
-1.00661, 337, 209, 368, 336
-1.00675, 33, 129, 96, 192
-1.00687, 377, 193, 440, 256
-1.00688, 373, 209, 404, 336
-1.00698, 313, 113, 344, 240
-1.00698, 345, 81, 376, 208
-1.007, 333, 65, 364, 192
-1.00701, 53, 81, 84, 208
-1.00704, 389, 33, 420, 160
-1.0071, 25, 105, 88, 168
-1.00714, 413, 17, 444, 144
-1.00714, 89, 73, 152, 136
-1.00719, 89, 1, 152, 64
-1.00719, 89, 25, 152, 88
-1.00719, 89, 49, 152, 112
-1.00724, 57, 33, 120, 160
-1.00726, 9, 145, 72, 208
-1.00731, 365, 49, 396, 176
-1.00733, 377, 49, 408, 176
-1.00733, 81, 97, 144, 224
-1.00734, 129, 113, 160, 240
-1.00735, 73, 33, 104, 160
-1.00737, 89, 97, 152, 160
-1.00741, 353, 65, 416, 320
-1.0076, 389, 209, 420, 336
-1.00776, 417, 113, 448, 240
-1.00784, 105, 113, 168, 240
-1.00784, 409, 209, 440, 336
-1.00784, 97, 17, 128, 144
-1.00789, 29, 1, 60, 128
-1.00793, 25, 1, 88, 128
-1.00796, 305, 1, 432, 128
-1.00798, 321, 65, 352, 192
-1.008, 329, 145, 360, 272
-1.00804, 137, 49, 168, 176
-1.00821, 313, 17, 344, 144
-1.00838, 57, 1, 88, 128
-1.0084, 353, 49, 416, 176
-1.00841, 353, 33, 384, 160
-1.00849, 85, 17, 116, 144
-1.00852, 117, 81, 148, 208
-1.00853, 41, 1, 72, 128
-1.00859, 329, 17, 360, 144
-1.00871, 85, 65, 116, 192
-1.00877, 397, 145, 428, 272
-1.00884, 97, 65, 128, 192
-1.00885, 341, 1, 372, 128
-1.00887, 41, 65, 72, 192
-1.00888, 29, 81, 60, 208
-1.00894, 1, 1, 32, 128
-1.00921, 13, 1, 44, 128
-1.0093, 17, 145, 48, 272
-1.00951, 305, 81, 368, 208
-1.00987, 377, 49, 440, 176
-1.01062, 369, 209, 432, 336
-1.01069, 89, 33, 152, 160
-1.01091, 297, 33, 360, 160
-1.01194, 33, 65, 96, 192
-1.01215, 1, 1, 64, 128
-1.01273, 1, 81, 64, 208
-1.01338, 329, 33, 392, 160
-1.01347, 377, 1, 440, 128
-1.01471, 353, 1, 416, 128
