1982
-0.464003, 1, 1, 256, 375
-0.520035, 1, 1, 500, 256
-0.555819, 1, 1, 500, 375
-0.581538, 1, 97, 500, 352
-0.62248, 97, 1, 352, 375
-0.623149, 1, 129, 256, 375
-0.70006, 33, 1, 288, 256
-0.830023, 97, 97, 352, 352
-0.831391, 49, 1, 176, 375
-0.854495, 1, 1, 128, 375
-0.855175, 65, 129, 192, 375
-0.85967, 17, 1, 144, 256
-0.864814, 17, 129, 144, 375
-0.870666, 193, 1, 448, 375
-0.872766, 113, 1, 240, 375
-0.878378, 65, 1, 192, 256
-0.893633, 97, 225, 352, 352
-0.894666, 129, 1, 384, 256
-0.89559, 129, 129, 256, 375
-0.899837, 1, 241, 500, 368
-0.906009, 113, 1, 240, 256
-0.91009, 1, 161, 256, 288
-0.916328, 1, 161, 500, 288
-0.92085, 49, 129, 176, 256
-0.921605, 97, 177, 224, 304
-0.922314, 145, 193, 208, 320
-0.923246, 161, 1, 288, 375
-0.926604, 81, 145, 144, 272
-0.927523, 113, 161, 176, 288
-0.928286, 57, 193, 120, 320
-0.929599, 33, 129, 96, 256
-0.929677, 33, 177, 160, 304
-0.929677, 1, 113, 500, 240
-0.930046, 1, 1, 500, 128
-0.930179, 1, 209, 256, 336
-0.933018, 161, 1, 288, 256
-0.933764, 177, 129, 304, 375
-0.933995, 129, 225, 256, 352
-0.934014, 193, 225, 320, 352
-0.93457, 89, 209, 152, 336
-0.938083, 57, 129, 120, 256
-0.940568, 97, 177, 352, 304
-0.94069, 1, 113, 256, 240
-0.942929, 121, 209, 184, 336
-0.944405, 217, 225, 280, 352
-0.944747, 97, 241, 160, 304
-0.944886, 65, 225, 192, 352
-0.944941, 1, 1, 256, 128
-0.945336, 33, 177, 96, 304
-0.947151, 185, 225, 248, 352
-0.947867, 137, 145, 200, 272
-0.948846, 193, 241, 448, 368
-0.949117, 161, 241, 224, 368
-0.949471, 65, 153, 128, 216
-0.949724, 121, 225, 184, 288
-0.949906, 121, 153, 184, 216
-0.950422, 33, 145, 96, 208
-0.950764, 97, 1, 352, 128
-0.951684, 17, 225, 144, 352
-0.952171, 9, 161, 72, 288
-0.952493, 353, 1, 480, 256
-0.952657, 41, 169, 104, 232
-0.952724, 97, 129, 224, 256
-0.952964, 433, 1, 496, 128
-0.953237, 145, 177, 272, 304
-0.953502, 81, 1, 208, 128
-0.954436, 121, 249, 184, 312
-0.955573, 57, 217, 120, 280
-0.955886, 25, 201, 88, 264
-0.956529, 369, 1, 496, 375
-0.956787, 257, 241, 320, 368
-0.95722, 81, 209, 144, 272
-0.95723, 137, 193, 200, 256
-0.957412, 161, 249, 224, 312
-0.957594, 1, 1, 64, 128
-0.958873, 209, 241, 272, 304
-0.960418, 89, 177, 152, 240
-0.961426, 1, 129, 128, 256
-0.961867, 97, 137, 160, 200
-0.961932, 185, 249, 248, 312
-0.962026, 417, 17, 480, 80
-0.962446, 153, 225, 216, 288
-0.963196, 57, 129, 120, 192
-0.963821, 113, 113, 176, 240
-0.964049, 25, 1, 88, 128
-0.96415, 1, 161, 64, 224
-0.964373, 257, 257, 320, 320
-0.965052, 81, 129, 144, 375
-0.965219, 49, 193, 112, 256
-0.965348, 193, 1, 256, 128
-0.96536, 129, 1, 192, 128
-0.965402, 33, 1, 160, 128
-0.965414, 169, 177, 232, 304
-0.965614, 45, 137, 76, 200
-0.965622, 257, 281, 320, 344
-0.965647, 185, 273, 248, 336
-0.966022, 145, 1, 272, 128
-0.96614, 209, 1, 336, 375
-0.966286, 49, 161, 176, 224
-0.966331, 141, 249, 172, 312
-0.966623, 25, 1, 88, 256
-0.966846, 97, 265, 160, 328
-0.966889, 49, 241, 112, 304
-0.967124, 169, 1, 232, 128
-0.967238, 225, 129, 480, 375
-0.967429, 41, 129, 104, 375
-0.968393, 33, 185, 160, 248
-0.968496, 233, 249, 296, 312
-0.968564, 145, 161, 208, 224
-0.968672, 133, 177, 164, 304
-0.969384, 129, 137, 160, 200
-0.969452, 57, 129, 88, 256
-0.969574, 97, 217, 224, 280
-0.9696, 113, 177, 176, 240
-0.969663, 129, 273, 192, 336
-0.969713, 33, 225, 160, 288
-0.96988, 25, 121, 88, 184
-0.970042, 65, 241, 128, 368
-0.970207, 17, 81, 144, 208
-0.970225, 113, 241, 240, 304
-0.970321, 193, 297, 256, 360
-0.970335, 17, 137, 144, 200
-0.97046, 161, 273, 224, 336
-0.970559, 117, 161, 148, 288
-0.970918, 273, 1, 400, 375
-0.971277, 105, 201, 168, 264
-0.971533, 177, 241, 304, 304
-0.971607, 89, 97, 152, 224
-0.971611, 25, 233, 88, 296
-0.971757, 257, 129, 384, 375
-0.971884, 65, 249, 192, 312
-0.972097, 73, 17, 136, 144
-0.972136, 81, 1, 144, 256
-0.972149, 141, 225, 172, 352
-0.972304, 241, 241, 368, 368
-0.972355, 41, 1, 104, 64
-0.972495, 105, 129, 168, 375
-0.972554, 33, 225, 96, 352
-0.972665, 65, 265, 128, 328
-0.972813, 217, 289, 280, 352
-0.972842, 37, 209, 68, 272
-0.972884, 153, 193, 184, 320
-0.972938, 229, 225, 260, 352
-0.973115, 81, 185, 208, 248
-0.973168, 105, 1, 168, 128
-0.973338, 41, 161, 72, 288
-0.973526, 129, 241, 160, 304
-0.97362, 165, 177, 196, 304
-0.973661, 121, 1, 184, 64
-0.973734, 1, 1, 64, 64
-0.973735, 409, 1, 472, 128
-0.97376, 193, 1, 320, 128
-0.973939, 225, 1, 288, 64
-0.973972, 65, 137, 192, 200
-0.97405, 57, 81, 120, 208
-0.974068, 133, 209, 164, 272
-0.974425, 49, 1, 112, 128
-0.974555, 73, 145, 104, 272
-0.974676, 213, 233, 244, 296
-0.974721, 57, 1, 120, 256
-0.974728, 33, 145, 64, 208
-0.974844, 117, 233, 148, 296
-0.974888, 109, 137, 140, 200
-0.97502, 193, 249, 224, 312
-0.97503, 69, 193, 100, 320
-0.975216, 9, 113, 72, 240
-0.975231, 53, 185, 84, 248
-0.975636, 149, 145, 180, 272
-0.975679, 449, 1, 480, 64
-0.975714, 141, 153, 172, 216
-0.975823, 137, 129, 200, 375
-0.975849, 153, 257, 184, 320
-0.975956, 97, 113, 352, 240
-0.976013, 89, 145, 120, 272
-0.976026, 209, 273, 336, 336
-0.976266, 97, 161, 224, 224
-0.976285, 73, 1, 136, 64
-0.976415, 113, 273, 240, 336
-0.976475, 233, 241, 264, 304
-0.976558, 165, 169, 196, 232
-0.976653, 217, 281, 248, 344
-0.976772, 113, 1, 176, 256
-0.976967, 57, 1, 120, 375
-0.97707, 61, 217, 92, 280
-0.977175, 205, 265, 236, 328
-0.977229, 153, 233, 184, 296
-0.977258, 305, 129, 432, 375
-0.977306, 193, 225, 224, 352
-0.977316, 73, 241, 136, 304
-0.977327, 33, 33, 96, 96
-0.977329, 1, 65, 500, 192
-0.977332, 137, 1, 200, 256
-0.977368, 125, 265, 156, 328
-0.977459, 205, 225, 236, 352
-0.977464, 105, 161, 136, 288
-0.977647, 153, 185, 184, 248
-0.977701, 33, 81, 96, 208
-0.97772, 121, 209, 152, 336
-0.977721, 89, 1, 152, 375
-0.97779, 45, 113, 76, 240
-0.977836, 93, 137, 124, 200
-0.977922, 137, 129, 168, 256
-0.977948, 25, 169, 56, 232
-0.977987, 117, 113, 148, 240
-0.978329, 117, 169, 148, 232
-0.978386, 93, 225, 124, 288
-0.978387, 49, 209, 80, 272
-0.978431, 73, 25, 136, 88
-0.978733, 101, 249, 132, 312
-0.978796, 465, 1, 496, 64
-0.978805, 185, 9, 248, 72
-0.978867, 193, 193, 448, 320
-0.978905, 161, 201, 224, 264
-0.979095, 153, 153, 184, 216
-0.979173, 185, 225, 248, 288
-0.979331, 297, 225, 360, 352
-0.97934, 41, 177, 72, 240
-0.979345, 1, 161, 128, 224
-0.979413, 29, 145, 60, 272
-0.979454, 69, 137, 100, 200
-0.97963, 469, 1, 500, 128
-0.979703, 209, 265, 272, 328
-0.979731, 113, 1, 176, 375
-0.979796, 285, 265, 316, 328
-0.979854, 57, 129, 88, 192
-0.979868, 65, 273, 192, 336
-0.97992, 445, 1, 476, 128
-0.97992, 73, 209, 104, 272
-0.979956, 109, 241, 140, 368
-0.97998, 97, 1, 160, 64
-0.979985, 1, 217, 64, 280
-0.980103, 65, 81, 192, 208
-0.980117, 13, 1, 44, 64
-0.980148, 57, 177, 88, 304
-0.980163, 93, 193, 124, 320
-0.980267, 257, 313, 320, 375
-0.980295, 1, 1, 64, 256
-0.980312, 229, 289, 260, 352
-0.980354, 209, 1, 336, 256
-0.980365, 61, 1, 92, 64
-0.980654, 1, 41, 64, 104
-0.980656, 113, 1, 240, 64
-0.980845, 129, 193, 256, 256
-0.980921, 253, 225, 284, 352
-0.980975, 169, 257, 200, 320
-0.980989, 161, 1, 288, 64
-0.981032, 49, 1, 176, 64
-0.98105, 169, 201, 200, 264
-0.981056, 257, 249, 288, 312
-0.98108, 217, 313, 280, 375
-0.981144, 53, 241, 84, 304
-0.98116, 9, 209, 72, 336
-0.98118, 1, 1, 128, 64
-0.981189, 129, 169, 160, 232
-0.98123, 53, 161, 84, 224
-0.981399, 9, 1, 40, 128
-0.981521, 41, 233, 72, 296
-0.981546, 1, 137, 64, 200
-0.981548, 209, 297, 336, 360
-0.981745, 145, 297, 272, 360
-0.981844, 101, 113, 132, 240
-0.981851, 17, 249, 144, 312
-0.981902, 161, 1, 224, 64
-0.982017, 85, 201, 116, 264
-0.982102, 369, 17, 496, 144
-0.982181, 65, 161, 96, 224
-0.982224, 97, 297, 160, 360
-0.982248, 169, 169, 232, 232
-0.982273, 25, 1, 88, 375
-0.98229, 105, 25, 168, 88
-0.982547, 121, 129, 184, 192
-0.98262, 289, 305, 352, 368
-0.982936, 49, 25, 176, 88
-0.983001, 41, 1, 72, 128
-0.983109, 133, 1, 164, 64
-0.983216, 217, 225, 248, 352
-0.98339, 217, 1, 280, 128
-0.983424, 169, 225, 200, 288
-0.983465, 193, 177, 256, 304
-0.9836, 141, 1, 172, 128
-0.983682, 241, 225, 272, 352
-0.983692, 457, 1, 488, 128
-0.983726, 145, 217, 272, 280
-0.983852, 169, 297, 232, 360
-0.983983, 153, 281, 184, 344
-0.984021, 101, 177, 132, 240
-0.984064, 249, 1, 312, 64
-0.984102, 29, 1, 60, 128
-0.984314, 169, 129, 232, 256
-0.984434, 1, 193, 64, 256
-0.984485, 109, 209, 140, 272
-0.984539, 21, 145, 52, 208
-0.984799, 209, 1, 336, 64
-0.984812, 129, 297, 192, 360
-0.984813, 173, 225, 204, 352
-0.984821, 285, 241, 316, 368
-0.984947, 153, 241, 184, 368
-0.984957, 169, 1, 200, 128
-0.984976, 17, 129, 80, 375
-0.985088, 201, 1, 232, 128
-0.985091, 81, 209, 112, 336
-0.98512, 1, 113, 64, 176
-0.985126, 289, 225, 416, 352
-0.985261, 177, 1, 208, 64
-0.985384, 121, 209, 152, 272
-0.985501, 97, 241, 128, 368
-0.985537, 165, 129, 196, 256
-0.98555, 137, 1, 200, 375
-0.98559, 97, 297, 224, 360
-0.985648, 113, 257, 144, 320
-0.985774, 1, 1, 64, 375
-0.98582, 169, 1, 232, 256
-0.98584, 1, 33, 128, 96
-0.9859, 81, 129, 112, 192
-0.985944, 73, 185, 104, 248
-0.986069, 1, 113, 128, 176
-0.986116, 269, 241, 300, 368
-0.986131, 225, 249, 352, 312
-0.986194, 137, 97, 200, 224
-0.986309, 461, 25, 492, 88
-0.986342, 161, 265, 288, 328
-0.986366, 193, 1, 448, 128
-0.98639, 177, 177, 208, 304
-0.986399, 145, 209, 176, 272
-0.986582, 113, 81, 240, 208
-0.986643, 273, 257, 304, 320
-0.986746, 49, 305, 176, 368
-0.986761, 69, 97, 100, 224
-0.986765, 217, 177, 280, 304
-0.986798, 221, 257, 252, 320
-0.986818, 297, 281, 360, 344
-0.986854, 217, 217, 280, 280
-0.986904, 445, 25, 476, 88
-0.986914, 41, 209, 72, 336
-0.986937, 161, 129, 288, 256
-0.987056, 241, 281, 272, 344
-0.987209, 145, 137, 208, 200
-0.987259, 289, 313, 320, 375
-0.987329, 157, 1, 188, 128
-0.987351, 181, 249, 212, 312
-0.987383, 213, 1, 244, 128
-0.987484, 241, 177, 304, 304
-0.987507, 57, 313, 120, 375
-0.987591, 97, 241, 352, 304
-0.987767, 189, 225, 220, 288
-0.987899, 25, 225, 56, 288
-0.98791, 25, 1, 56, 64
-0.987934, 217, 305, 248, 368
-0.987943, 297, 257, 360, 320
-0.988018, 53, 1, 84, 128
-0.988027, 161, 169, 288, 232
-0.988041, 85, 249, 116, 312
-0.988067, 265, 193, 328, 320
-0.988082, 105, 145, 168, 176
-0.988101, 73, 1, 104, 64
-0.988172, 97, 261, 160, 292
-0.988184, 273, 305, 400, 368
-0.988188, 161, 1, 224, 375
-0.988203, 157, 209, 188, 272
-0.988232, 81, 25, 112, 88
-0.988234, 85, 169, 116, 232
-0.9884, 189, 1, 220, 128
-0.988446, 1, 313, 128, 375
-0.988477, 245, 241, 276, 304
-0.988501, 97, 113, 160, 176
-0.98852, 209, 177, 336, 304
-0.988526, 149, 129, 180, 192
-0.988547, 225, 1, 256, 128
-0.98857, 129, 161, 192, 192
-0.988574, 1, 201, 256, 264
-0.988583, 97, 17, 128, 144
-0.988613, 41, 141, 104, 172
-0.988631, 37, 113, 68, 176
-0.988758, 25, 157, 88, 188
-0.988863, 25, 121, 56, 184
-0.988879, 89, 133, 152, 164
-0.988881, 97, 25, 224, 88
-0.988941, 49, 233, 112, 264
-0.988951, 425, 17, 456, 80
-0.988953, 65, 149, 128, 180
-0.988955, 129, 25, 192, 88
-0.988972, 161, 1, 192, 64
-0.988981, 109, 113, 140, 176
-0.988991, 85, 273, 116, 336
-0.989009, 113, 137, 240, 200
-0.989033, 169, 257, 232, 288
-0.989061, 129, 257, 192, 288
-0.989099, 49, 201, 112, 232
-0.989167, 65, 137, 128, 168
-0.98928, 161, 129, 224, 375
-0.989303, 33, 185, 96, 216
-0.989305, 33, 213, 96, 244
-0.989352, 369, 1, 496, 64
-0.98937, 369, 33, 496, 96
-0.989412, 129, 273, 192, 304
-0.989438, 37, 33, 68, 96
-0.989457, 417, 49, 480, 176
-0.989494, 81, 225, 144, 256
-0.989502, 121, 245, 184, 276
-0.989559, 257, 177, 384, 304
-0.98956, 49, 113, 176, 176
-0.989572, 97, 249, 160, 280
-0.98963, 433, 9, 496, 40
-0.989649, 273, 257, 400, 320
-0.989656, 145, 1, 176, 64
-0.989708, 201, 241, 264, 272
-0.989752, 249, 1, 280, 64
-0.989766, 185, 269, 248, 300
-0.989784, 41, 245, 104, 276
-0.989814, 429, 1, 460, 128
-0.989816, 265, 1, 296, 64
-0.989824, 229, 1, 260, 64
-0.989893, 65, 161, 128, 192
-0.98993, 1, 169, 256, 232
-0.989936, 417, 1, 480, 256
-0.989939, 97, 157, 160, 188
-0.989974, 17, 145, 80, 176
-0.989982, 69, 1, 100, 128
-0.989985, 141, 273, 172, 336
-0.989992, 65, 245, 128, 276
-0.989999, 201, 289, 264, 320
-0.990033, 129, 197, 192, 228
-0.990049, 289, 281, 416, 344
-0.990064, 197, 297, 228, 360
-0.990085, 57, 289, 120, 352
-0.990147, 121, 217, 184, 248
-0.990149, 145, 237, 208, 268
-0.99017, 137, 185, 200, 216
-0.990186, 25, 233, 88, 264
-0.990189, 41, 129, 104, 160
-0.990195, 113, 173, 176, 204
-0.990205, 57, 105, 120, 168
-0.990206, 33, 169, 96, 200
-0.990257, 269, 289, 300, 352
-0.990261, 153, 281, 216, 312
-0.990278, 217, 9, 248, 72
-0.990341, 177, 169, 208, 232
-0.990352, 121, 233, 184, 264
-0.990352, 121, 1, 152, 64
-0.990418, 185, 129, 248, 375
-0.990427, 17, 129, 48, 256
-0.990514, 1, 225, 256, 288
-0.99053, 301, 297, 332, 360
-0.990553, 17, 313, 80, 375
-0.99057, 161, 269, 224, 300
-0.990607, 417, 25, 480, 56
-0.99061, 57, 177, 120, 208
-0.990615, 73, 197, 136, 228
-0.99063, 9, 25, 40, 88
-0.990634, 129, 1, 160, 128
-0.990636, 57, 257, 120, 288
-0.990644, 1, 169, 64, 200
-0.990701, 141, 177, 172, 240
-0.990719, 281, 289, 312, 352
-0.990729, 49, 1, 80, 64
-0.990774, 129, 285, 192, 316
-0.990804, 177, 289, 240, 320
-0.990812, 1, 145, 256, 208
-0.990818, 153, 1, 216, 32
-0.990835, 117, 25, 148, 88
-0.990838, 169, 245, 232, 276
-0.990855, 265, 289, 328, 320
-0.99091, 225, 1, 288, 32
-0.990951, 97, 273, 160, 304
-0.990991, 81, 209, 144, 240
-0.991005, 225, 249, 288, 280
-0.991043, 257, 325, 320, 356
-0.991048, 225, 281, 288, 312
-0.991067, 169, 193, 232, 224
-0.991103, 113, 185, 176, 216
-0.991114, 173, 281, 204, 344
-0.991118, 81, 181, 144, 212
-0.991118, 25, 201, 88, 232
-0.99113, 201, 225, 232, 288
-0.991134, 185, 301, 248, 332
-0.991166, 17, 273, 144, 336
-0.991184, 249, 261, 312, 292
-0.991193, 233, 333, 296, 364
-0.991238, 89, 97, 120, 224
-0.991242, 89, 237, 152, 268
-0.991247, 205, 9, 236, 72
-0.99125, 185, 201, 248, 264
-0.991286, 145, 209, 208, 240
-0.991305, 137, 173, 200, 204
-0.991336, 133, 297, 164, 360
-0.991361, 89, 169, 152, 200
-0.99137, 1, 157, 64, 188
-0.991395, 273, 233, 400, 296
-0.991408, 73, 249, 104, 312
-0.991411, 57, 221, 120, 252
-0.991431, 409, 13, 472, 44
-0.991467, 65, 33, 96, 96
-0.991468, 113, 17, 144, 144
-0.991472, 73, 29, 136, 60
-0.991499, 105, 205, 168, 236
-0.991534, 129, 149, 192, 180
-0.991537, 153, 13, 216, 44
-0.991537, 229, 313, 260, 375
-0.991566, 113, 25, 176, 56
-0.991571, 33, 273, 288, 336
-0.991627, 25, 1, 88, 32
-0.991628, 33, 33, 96, 64
-0.991631, 1, 45, 64, 76
-0.991644, 177, 13, 240, 44
-0.991653, 209, 329, 272, 360
-0.991672, 121, 9, 184, 40
-0.991712, 161, 181, 224, 212
-0.991715, 1, 1, 64, 32
-0.991721, 97, 201, 128, 264
-0.991744, 161, 225, 224, 256
-0.991788, 257, 273, 320, 304
-0.991789, 209, 177, 240, 304
-0.991808, 17, 125, 80, 156
-0.991809, 209, 261, 272, 292
-0.991811, 65, 125, 128, 156
-0.991813, 185, 281, 216, 344
-0.991821, 49, 1, 112, 32
-0.991822, 153, 157, 216, 188
-0.991823, 433, 41, 496, 104
-0.991829, 257, 301, 320, 332
-0.991834, 17, 249, 80, 280
-0.991834, 193, 177, 224, 304
-0.99184, 25, 41, 56, 104
-0.991857, 45, 145, 76, 176
-0.991859, 201, 1, 264, 32
-0.991865, 97, 25, 128, 88
-0.991887, 241, 313, 304, 344
-0.991925, 249, 225, 312, 288
-0.991929, 1, 197, 64, 228
-0.991939, 189, 253, 220, 284
-0.991941, 225, 297, 288, 328
-0.991963, 297, 265, 360, 296
-0.991967, 265, 345, 328, 375
-0.991983, 73, 305, 136, 336
-0.992005, 129, 137, 192, 168
-0.992021, 9, 217, 72, 248
-0.992025, 177, 1, 240, 32
-0.992038, 1, 233, 64, 264
-0.992145, 257, 1, 384, 64
-0.992147, 73, 13, 136, 44
-0.992153, 465, 1, 496, 32
-0.992161, 129, 265, 384, 328
-0.992164, 153, 333, 216, 364
-0.992209, 201, 13, 264, 44
-0.992227, 97, 325, 160, 356
-0.992228, 149, 257, 180, 288
-0.992231, 65, 269, 128, 300
-0.992243, 37, 213, 68, 244
-0.992255, 141, 269, 172, 300
-0.992263, 121, 329, 184, 360
-0.992269, 201, 313, 264, 344
-0.992301, 57, 137, 88, 168
-0.992302, 153, 157, 184, 188
-0.992309, 85, 17, 116, 144
-0.992317, 129, 245, 160, 276
-0.992324, 281, 253, 344, 284
-0.992325, 185, 337, 248, 368
-0.992345, 33, 97, 64, 224
-0.992347, 41, 233, 72, 264
-0.992356, 273, 313, 336, 344
-0.992359, 213, 285, 244, 316
-0.992402, 209, 241, 240, 272
-0.992408, 1, 29, 64, 60
-0.99243, 69, 233, 100, 264
-0.992445, 433, 37, 496, 68
-0.992452, 1, 1, 32, 64
-0.992453, 49, 21, 112, 52
-0.992458, 1, 181, 64, 212
-0.992458, 153, 293, 216, 324
-0.992461, 297, 301, 360, 332
-0.992463, 65, 321, 128, 352
-0.992464, 137, 145, 168, 176
-0.992468, 49, 33, 80, 96
-0.992487, 241, 345, 304, 375
-0.992492, 449, 9, 480, 40
-0.992497, 225, 289, 256, 320
-0.992501, 109, 253, 140, 284
-0.992515, 45, 185, 76, 216
-0.992518, 105, 289, 168, 320
-0.99253, 89, 1, 120, 64
-0.992549, 97, 297, 352, 360
-0.992551, 125, 257, 156, 288
-0.992571, 97, 297, 128, 360
-0.992571, 469, 13, 500, 44
-0.992572, 65, 281, 128, 312
-0.992575, 57, 233, 88, 264
-0.992587, 93, 245, 124, 276
-0.992611, 157, 193, 188, 224
-0.992614, 97, 13, 160, 44
-0.992615, 25, 153, 56, 184
-0.992617, 209, 269, 240, 300
-0.992622, 173, 189, 204, 220
-0.992624, 289, 341, 352, 372
-0.99263, 297, 289, 360, 320
-0.992634, 161, 177, 192, 208
-0.992636, 97, 273, 128, 336
-0.992646, 33, 317, 96, 348
-0.992647, 45, 157, 76, 188
-0.992652, 153, 237, 184, 268
-0.992668, 409, 57, 472, 120
-0.99267, 97, 1, 160, 32
-0.992684, 125, 157, 156, 188
-0.992686, 73, 193, 104, 224
-0.992686, 1, 49, 64, 176
-0.992695, 45, 133, 76, 164
-0.992703, 109, 133, 140, 164
-0.992704, 137, 25, 200, 56
-0.992712, 141, 165, 172, 196
-0.992718, 169, 273, 200, 304
-0.992718, 25, 173, 56, 204
-0.992724, 1, 317, 64, 348
-0.992729, 265, 1, 328, 32
-0.992735, 113, 257, 240, 288
-0.992743, 153, 281, 184, 312
-0.992745, 89, 129, 120, 160
-0.99276, 89, 157, 120, 188
-0.992762, 313, 345, 376, 375
-0.992762, 457, 25, 488, 56
-0.992776, 89, 233, 120, 264
-0.99278, 49, 221, 80, 252
-0.992791, 69, 145, 100, 176
-0.992793, 37, 245, 68, 276
-0.992804, 125, 141, 156, 172
-0.99281, 129, 269, 160, 300
-0.992814, 141, 177, 172, 208
-0.992828, 61, 221, 92, 252
-0.992828, 41, 173, 72, 204
-0.992838, 1, 149, 128, 180
-0.992843, 53, 245, 84, 276
-0.992847, 85, 145, 116, 176
-0.992848, 73, 245, 104, 276
-0.992854, 193, 289, 224, 320
-0.992872, 57, 177, 88, 208
-0.992876, 261, 253, 292, 284
-0.992878, 137, 225, 168, 256
-0.992882, 117, 169, 148, 200
-0.992895, 173, 177, 204, 208
-0.992898, 153, 97, 184, 224
-0.992916, 285, 321, 316, 352
-0.992917, 69, 133, 100, 164
-0.992918, 49, 245, 176, 276
-0.992919, 469, 25, 500, 56
-0.992929, 197, 265, 228, 296
-0.992943, 101, 145, 132, 176
-0.992943, 197, 241, 228, 272
-0.992949, 89, 193, 120, 224
-0.992951, 73, 221, 104, 252
-0.992956, 131, 233, 146, 296
-0.99296, 101, 161, 132, 192
-0.992964, 233, 1, 264, 32
-0.99297, 177, 1, 208, 32
-0.992978, 189, 9, 220, 72
-0.992981, 57, 205, 88, 236
-0.992983, 17, 257, 80, 320
-0.992987, 281, 265, 312, 296
-0.992991, 33, 201, 64, 232
-0.993003, 117, 237, 148, 268
-0.993005, 353, 97, 480, 352
-0.993006, 9, 1, 40, 32
-0.993007, 141, 245, 172, 276
-0.993007, 141, 9, 172, 40
-0.993013, 173, 249, 204, 280
-0.993013, 125, 217, 156, 248
-0.993023, 229, 273, 260, 304
-0.993027, 241, 329, 272, 360
-0.99303, 169, 205, 200, 236
-0.993034, 229, 305, 260, 336
-0.99304, 141, 289, 172, 320
-0.993045, 169, 261, 200, 292
-0.993052, 73, 181, 104, 212
-0.99306, 201, 253, 232, 284
-0.993066, 241, 245, 272, 276
-0.993068, 65, 165, 96, 196
-0.993069, 213, 297, 244, 328
-0.993084, 265, 333, 296, 364
-0.993087, 145, 193, 176, 224
-0.993089, 137, 257, 168, 288
-0.993092, 309, 225, 340, 352
-0.993094, 213, 257, 244, 288
-0.9931, 285, 277, 316, 308
-0.993103, 33, 141, 64, 172
-0.993113, 93, 181, 124, 212
-0.993114, 9, 145, 40, 208
-0.993116, 221, 1, 252, 32
-0.993119, 129, 173, 160, 204
-0.993119, 253, 333, 284, 364
-0.99312, 229, 241, 260, 272
-0.99312, 429, 17, 460, 48
-0.993127, 173, 237, 204, 268
-0.993136, 85, 213, 116, 244
-0.993138, 153, 5, 184, 36
-0.993139, 125, 281, 156, 312
-0.993144, 289, 289, 320, 320
-0.993144, 73, 29, 104, 60
-0.99316, 153, 205, 184, 236
-0.99316, 1, 249, 256, 312
-0.993165, 165, 13, 196, 44
-0.993171, 181, 281, 212, 312
-0.993171, 57, 149, 88, 180
-0.993173, 113, 149, 144, 180
-0.993175, 297, 313, 328, 344
-0.993183, 185, 241, 216, 272
-0.993186, 113, 225, 144, 256
-0.993187, 69, 209, 100, 240
-0.993192, 57, 125, 88, 156
-0.993192, 165, 1, 196, 32
-0.993195, 169, 137, 232, 200
-0.993197, 237, 289, 268, 320
-0.993198, 181, 201, 212, 232
-0.99321, 9, 161, 40, 192
-0.993211, 461, 37, 492, 68
-0.993211, 89, 29, 120, 60
-0.993212, 29, 233, 60, 264
-0.993213, 9, 41, 40, 72
-0.99322, 249, 1, 280, 32
-0.993226, 129, 9, 160, 40
-0.993228, 161, 145, 288, 208
-0.99323, 81, 257, 112, 288
-0.993231, 445, 21, 476, 52
-0.993235, 45, 145, 60, 208
-0.993236, 61, 33, 92, 64
-0.993242, 49, 161, 176, 192
-0.993276, 133, 129, 148, 192
-0.993293, 129, 25, 160, 88
-0.993372, 97, 217, 352, 280
-0.993384, 41, 265, 104, 328
-0.993413, 109, 1, 140, 64
-0.993464, 53, 225, 84, 352
-0.993482, 81, 189, 208, 220
-0.993574, 25, 193, 56, 256
-0.993611, 1, 249, 500, 312
-0.993624, 49, 149, 176, 180
-0.993627, 49, 137, 176, 168
-0.99363, 139, 241, 154, 304
-0.993657, 85, 313, 116, 375
-0.993715, 129, 81, 160, 208
-0.993721, 129, 113, 160, 176
-0.993778, 33, 17, 288, 80
-0.993789, 193, 217, 320, 280
-0.993826, 149, 249, 164, 312
-0.993868, 289, 1, 352, 64
-0.993884, 55, 209, 70, 272
-0.993914, 213, 241, 228, 304
-0.993927, 289, 1, 416, 256
-0.993933, 129, 269, 256, 300
-0.993941, 113, 237, 240, 268
-0.993981, 65, 173, 192, 204
-0.993986, 33, 205, 160, 236
-0.994008, 135, 209, 150, 272
-0.994009, 393, 1, 456, 64
-0.994021, 49, 225, 176, 256
-0.994033, 29, 249, 60, 312
-0.994046, 185, 1, 248, 375
-0.994061, 177, 245, 304, 276
-0.994101, 177, 177, 192, 240
-0.994118, 167, 241, 182, 304
-0.99412, 29, 193, 60, 320
-0.994144, 125, 153, 140, 216
-0.994146, 33, 185, 160, 216
-0.994154, 45, 185, 60, 248
-0.994173, 225, 177, 256, 304
-0.994274, 69, 113, 100, 176
-0.994294, 139, 145, 154, 208
-0.994311, 51, 137, 66, 200
-0.994347, 37, 153, 52, 216
-0.994355, 69, 153, 84, 216
-0.994368, 113, 285, 240, 316
-0.994438, 129, 1, 384, 64
-0.994442, 231, 281, 246, 344
-0.994446, 1, 9, 500, 72
-0.994449, 165, 145, 196, 208
-0.99447, 369, 57, 496, 120
-0.994474, 57, 137, 72, 200
-0.994497, 65, 65, 320, 192
-0.99451, 93, 113, 124, 176
-0.994527, 31, 145, 46, 208
-0.994536, 149, 225, 164, 288
-0.994544, 209, 285, 336, 316
-0.994562, 165, 153, 180, 216
-0.994568, 171, 161, 186, 224
-0.994583, 321, 17, 448, 80
-0.994585, 161, 241, 176, 304
-0.994598, 233, 217, 264, 280
-0.9946, 377, 33, 440, 96
-0.994617, 219, 233, 234, 296
-0.994629, 65, 265, 192, 296
-0.99466, 141, 209, 156, 272
-0.994712, 193, 265, 320, 296
-0.994714, 141, 265, 156, 328
-0.99472, 309, 273, 340, 336
-0.994732, 63, 145, 78, 208
-0.99475, 145, 145, 160, 208
-0.994787, 37, 177, 52, 240
-0.99479, 155, 153, 170, 216
-0.994823, 1, 273, 500, 336
-0.994833, 303, 281, 318, 344
-0.99484, 155, 249, 170, 312
-0.99485, 457, 1, 472, 64
-0.994864, 225, 273, 240, 336
-0.994868, 1, 161, 128, 192
-0.994896, 97, 113, 224, 176
-0.994903, 41, 209, 56, 272
-0.994962, 127, 129, 142, 192
-0.994969, 147, 169, 162, 232
-0.994975, 49, 209, 64, 272
-0.995019, 425, 1, 488, 375
-0.995032, 321, 17, 448, 144
-0.995038, 69, 129, 100, 375
-0.995042, 135, 169, 150, 232
-0.995058, 1, 241, 128, 272
-0.995068, 99, 241, 114, 304
-0.995072, 393, 49, 456, 176
-0.995099, 193, 249, 208, 312
-0.995113, 225, 233, 240, 296
-0.995116, 1, 225, 128, 256
-0.995125, 99, 137, 114, 200
-0.995152, 133, 257, 148, 320
-0.995216, 111, 161, 126, 224
-0.995227, 169, 265, 184, 328
-0.995228, 219, 265, 234, 328
-0.99524, 1, 177, 500, 240
-0.995241, 105, 137, 120, 200
-0.995242, 209, 325, 336, 356
-0.995249, 81, 205, 208, 236
-0.995261, 125, 217, 140, 280
-0.995267, 75, 153, 90, 216
-0.995286, 17, 173, 144, 204
-0.995345, 167, 185, 182, 248
-0.995373, 257, 49, 500, 176
-0.995379, 93, 97, 124, 352
-0.995395, 209, 297, 336, 328
-0.995417, 97, 153, 224, 184
-0.995419, 75, 185, 90, 248
-0.995419, 49, 233, 64, 296
-0.995445, 237, 1, 268, 128
-0.995448, 69, 129, 84, 192
-0.995463, 63, 121, 78, 184
-0.995469, 257, 273, 500, 336
-0.99547, 111, 249, 126, 312
-0.99547, 69, 201, 84, 264
-0.9955, 63, 177, 78, 240
-0.995512, 63, 233, 78, 296
-0.995541, 1, 305, 256, 368
-0.995545, 193, 297, 448, 360
-0.995554, 417, 1, 448, 128
-0.995582, 109, 225, 124, 288
-0.995602, 237, 289, 252, 352
-0.995604, 57, 241, 72, 304
-0.995609, 241, 129, 304, 375
-0.995636, 207, 241, 222, 304
-0.995644, 53, 185, 68, 248
-0.995646, 451, 1, 466, 64
-0.995655, 57, 81, 88, 208
-0.99566, 265, 193, 296, 320
-0.995671, 95, 217, 110, 280
-0.995675, 225, 1, 480, 64
-0.995679, 467, 1, 482, 64
-0.995702, 115, 137, 130, 200
-0.995708, 65, 277, 192, 308
-0.995747, 141, 169, 156, 232
-0.99575, 129, 13, 256, 44
-0.995751, 73, 1, 88, 64
-0.995793, 17, 1, 32, 64
-0.995795, 113, 1, 240, 32
-0.995812, 117, 169, 132, 232
-0.995875, 49, 97, 80, 352
-0.99589, 181, 1, 196, 64
-0.995914, 239, 241, 254, 304
-0.99594, 155, 225, 170, 288
-0.995952, 113, 225, 240, 256
-0.995954, 109, 129, 140, 375
-0.995963, 103, 265, 118, 328
-0.995972, 283, 257, 298, 320
-0.995973, 93, 137, 108, 200
-0.995995, 121, 129, 136, 192
-0.996015, 125, 249, 140, 312
-0.996022, 233, 241, 248, 304
-0.996026, 113, 297, 240, 328
-0.996036, 277, 249, 292, 312
-0.996036, 81, 97, 112, 352
-0.996045, 51, 113, 66, 176
-0.996052, 479, 1, 494, 64
-0.996053, 65, 5, 192, 36
-0.99607, 97, 177, 352, 240
-0.996074, 153, 201, 168, 264
-0.996081, 43, 233, 58, 296
-0.996096, 61, 1, 92, 256
-0.996104, 49, 29, 176, 60
-0.996105, 199, 241, 214, 304
-0.996121, 113, 1, 144, 256
-0.996128, 161, 217, 176, 280
-0.996146, 37, 129, 52, 192
-0.996149, 139, 1, 154, 64
-0.996152, 67, 1, 82, 64
-0.996167, 125, 129, 156, 375
-0.996185, 303, 313, 318, 375
-0.996187, 159, 193, 174, 256
-0.996192, 105, 177, 120, 240
-0.9962, 177, 193, 304, 256
-0.996205, 253, 241, 268, 304
-0.996209, 321, 41, 448, 104
-0.996227, 49, 1, 80, 256
-0.996263, 1, 137, 128, 168
-0.996263, 23, 1, 38, 64
-0.996281, 193, 241, 448, 304
-0.996293, 35, 209, 50, 272
-0.996316, 1, 297, 500, 360
-0.996334, 73, 1, 104, 256
-0.996342, 267, 249, 282, 312
-0.996343, 1, 41, 128, 72
-0.996359, 241, 177, 272, 304
-0.996362, 273, 225, 336, 288
-0.99638, 473, 1, 488, 64
-0.996415, 273, 265, 400, 296
-0.996439, 69, 225, 84, 288
-0.996445, 75, 217, 90, 280
-0.996457, 161, 289, 288, 320
-0.996457, 29, 1, 44, 64
-0.99646, 33, 1, 64, 256
-0.996474, 245, 241, 260, 304
-0.996484, 81, 137, 96, 200
-0.99649, 17, 257, 144, 288
-0.996492, 63, 201, 78, 264
-0.996501, 125, 193, 140, 256
-0.996513, 115, 225, 130, 288
-0.996533, 209, 1, 336, 32
-0.996545, 31, 169, 46, 232
-0.996564, 259, 241, 274, 304
-0.996574, 85, 177, 100, 240
-0.996602, 231, 305, 246, 368
-0.996603, 93, 1, 124, 256
-0.996614, 167, 209, 182, 272
-0.996615, 75, 129, 90, 192
-0.996625, 225, 309, 352, 340
-0.996625, 145, 113, 272, 176
-0.996626, 97, 25, 224, 56
-0.996627, 247, 289, 262, 352
-0.996633, 81, 217, 96, 280
-0.996643, 17, 13, 144, 44
-0.996644, 91, 161, 106, 224
-0.996647, 173, 241, 188, 304
-0.996651, 241, 345, 368, 375
-0.996656, 447, 25, 462, 88
-0.996656, 385, 1, 448, 128
-0.996658, 37, 49, 68, 176
-0.996675, 129, 1, 160, 256
-0.996685, 69, 177, 84, 240
-0.996698, 297, 273, 312, 336
-0.996708, 297, 241, 328, 368
-0.99671, 1, 121, 256, 184
-0.996723, 481, 33, 496, 96
-0.996724, 145, 1, 160, 64
-0.996732, 119, 249, 134, 312
-0.996746, 103, 209, 118, 272
-0.996749, 153, 25, 216, 88
-0.996749, 161, 333, 288, 364
-0.996751, 485, 9, 500, 72
-0.996753, 203, 265, 218, 328
-0.996755, 175, 1, 190, 64
-0.996761, 93, 257, 108, 320
-0.996761, 129, 189, 256, 220
-0.996773, 1, 1, 128, 32
-0.996777, 161, 1, 288, 32
-0.996787, 113, 173, 240, 204
-0.996796, 175, 201, 190, 264
-0.9968, 163, 273, 178, 336
-0.996807, 177, 13, 304, 44
-0.996825, 55, 141, 70, 172
-0.996854, 17, 125, 144, 156
-0.996873, 137, 137, 152, 168
-0.996884, 79, 225, 94, 256
-0.996909, 141, 261, 156, 292
-0.996917, 97, 153, 352, 216
-0.996932, 137, 129, 168, 375
-0.996935, 105, 65, 136, 192
-0.996943, 65, 289, 192, 320
-0.997, 153, 1, 184, 256
-0.997035, 21, 1, 52, 256
-0.99704, 135, 157, 150, 188
-0.997045, 129, 201, 256, 232
-0.997072, 63, 133, 78, 164
-0.997097, 161, 321, 288, 352
-0.997104, 289, 193, 320, 320
-0.997114, 97, 329, 224, 360
-0.997123, 113, 65, 176, 192
-0.997142, 165, 129, 196, 375
-0.997171, 145, 273, 160, 304
-0.997177, 135, 241, 150, 272
-0.997182, 145, 149, 160, 180
-0.997184, 35, 157, 50, 188
-0.997186, 225, 281, 240, 312
-0.997189, 205, 245, 220, 276
-0.997194, 219, 269, 234, 300
-0.997214, 47, 145, 62, 176
-0.997221, 151, 253, 166, 284
-0.997235, 145, 249, 160, 280
-0.997247, 57, 233, 72, 264
-0.997281, 369, 257, 496, 320
-0.997301, 97, 141, 224, 172
-0.997312, 135, 261, 150, 292
-0.997317, 141, 81, 172, 208
-0.997324, 17, 313, 144, 344
-0.997348, 321, 1, 448, 375
-0.99739, 51, 217, 66, 248
-0.997401, 97, 253, 112, 284
-0.997416, 173, 193, 188, 224
-0.99742, 161, 169, 288, 200
-0.997436, 33, 329, 160, 360
-0.997446, 125, 141, 140, 172
-0.997459, 69, 233, 84, 264
-0.997463, 401, 1, 464, 375
-0.997491, 199, 245, 214, 276
-0.997496, 97, 133, 112, 164
-0.997496, 129, 257, 144, 288
-0.997498, 429, 49, 460, 176
-0.997501, 131, 145, 146, 176
-0.997524, 179, 189, 194, 220
-0.997551, 153, 161, 168, 192
-0.997554, 467, 1, 482, 32
-0.997564, 1, 145, 500, 208
-0.997564, 127, 169, 142, 200
-0.997566, 273, 309, 400, 340
-0.997571, 103, 129, 118, 160
-0.997573, 45, 205, 60, 236
-0.99758, 141, 1, 172, 256
-0.997583, 111, 249, 126, 280
-0.997588, 1, 201, 500, 264
-0.997593, 51, 229, 66, 260
-0.9976, 253, 177, 284, 304
-0.997602, 193, 345, 320, 375
-0.997602, 169, 177, 184, 208
-0.997602, 173, 165, 188, 196
-0.997608, 185, 129, 216, 256
-0.997613, 225, 253, 352, 284
-0.997614, 369, 37, 496, 68
-0.997616, 43, 177, 58, 208
-0.997621, 65, 301, 192, 332
-0.997668, 163, 257, 178, 288
-0.997676, 163, 241, 178, 272
-0.997679, 481, 1, 496, 32
-0.997689, 213, 269, 228, 300
-0.997689, 211, 245, 226, 276
-0.997694, 45, 233, 60, 264
-0.997696, 369, 9, 496, 40
-0.997706, 159, 153, 174, 184
-0.99771, 209, 257, 224, 288
-0.997711, 39, 213, 54, 244
-0.997713, 123, 253, 138, 284
-0.997714, 37, 129, 68, 375
-0.997715, 257, 1, 384, 32
-0.997716, 75, 193, 90, 224
-0.997724, 177, 309, 304, 340
-0.99774, 55, 129, 70, 160
-0.99774, 165, 1, 196, 256
-0.99774, 169, 245, 184, 276
-0.99774, 41, 165, 56, 196
-0.997742, 233, 285, 248, 316
-0.997742, 101, 157, 116, 188
-0.997746, 99, 145, 114, 176
-0.997756, 103, 265, 118, 296
-0.997758, 25, 49, 56, 176
-0.997779, 85, 233, 100, 264
-0.997782, 35, 177, 50, 208
-0.997798, 147, 165, 162, 196
-0.997812, 65, 313, 192, 344
-0.997819, 61, 221, 76, 252
-0.997822, 9, 1, 40, 256
-0.997824, 289, 277, 416, 308
-0.997828, 69, 181, 84, 212
-0.997836, 225, 1, 288, 375
-0.997843, 69, 137, 84, 168
-0.997849, 203, 257, 218, 288
-0.99786, 481, 13, 496, 44
-0.997862, 81, 341, 208, 372
-0.997864, 165, 153, 180, 184
-0.997866, 417, 49, 448, 176
-0.997873, 191, 249, 206, 280
-0.997875, 289, 293, 416, 324
-0.997885, 27, 157, 42, 188
-0.997888, 61, 145, 76, 176
-0.99789, 289, 345, 416, 375
-0.99789, 107, 141, 122, 172
-0.997892, 95, 241, 110, 272
-0.997896, 107, 169, 122, 200
-0.997907, 163, 185, 178, 216
-0.997909, 169, 257, 184, 288
-0.997911, 149, 97, 180, 352
-0.997919, 257, 321, 384, 352
-0.99792, 121, 169, 136, 200
-0.997922, 85, 245, 100, 276
-0.997924, 185, 185, 200, 216
-0.997928, 183, 1, 198, 32
-0.997929, 129, 345, 256, 375
-0.997942, 97, 265, 112, 296
-0.997946, 135, 273, 150, 304
-0.997955, 473, 1, 488, 32
-0.997976, 91, 145, 106, 176
-0.997985, 69, 149, 84, 180
-0.99799, 467, 13, 482, 44
-0.99799, 45, 249, 60, 280
-0.997997, 39, 145, 54, 176
-0.998001, 217, 281, 232, 312
-0.998006, 303, 313, 318, 344
-0.998008, 69, 169, 84, 200
-0.998012, 463, 25, 478, 56
-0.998014, 227, 269, 242, 300
-0.998029, 1, 29, 128, 60
-0.998031, 129, 241, 144, 272
-0.998033, 141, 161, 156, 192
-0.998036, 151, 269, 166, 300
-0.998038, 165, 281, 180, 312
-0.998039, 115, 181, 130, 212
-0.998045, 143, 285, 158, 316
-0.998046, 141, 173, 156, 204
-0.998049, 257, 333, 384, 364
-0.99805, 239, 289, 254, 320
-0.998054, 147, 9, 162, 40
-0.998057, 303, 289, 318, 320
-0.998058, 103, 249, 118, 280
-0.998059, 53, 245, 68, 276
-0.998062, 37, 233, 52, 264
-0.998069, 79, 181, 94, 212
-0.998073, 441, 49, 472, 176
-0.998074, 469, 25, 484, 56
-0.998081, 49, 185, 64, 216
-0.998083, 133, 169, 148, 200
-0.99809, 91, 225, 106, 256
-0.998101, 237, 1, 252, 32
-0.998104, 113, 169, 128, 200
-0.998106, 63, 181, 78, 212
-0.998108, 447, 13, 462, 44
-0.998116, 179, 177, 194, 208
-0.998121, 141, 229, 156, 260
-0.998135, 117, 249, 132, 280
-0.998138, 131, 133, 146, 164
-0.998138, 261, 249, 276, 280
-0.998141, 269, 253, 284, 284
-0.998169, 63, 233, 78, 264
-0.998178, 63, 169, 78, 200
-0.998179, 113, 133, 128, 164
-0.99819, 209, 289, 224, 320
-0.998196, 187, 197, 202, 228
-0.9982, 145, 209, 160, 240
-0.998201, 453, 49, 484, 176
-0.998203, 81, 213, 96, 244
-0.998205, 85, 145, 100, 176
-0.998205, 157, 193, 172, 224
-0.998206, 301, 277, 316, 308
-0.998207, 171, 273, 186, 304
-0.99821, 245, 285, 260, 316
-0.998245, 25, 129, 56, 375
-0.998254, 321, 257, 448, 320
-0.998259, 241, 209, 368, 272
-0.998277, 25, 97, 88, 160
-0.998301, 273, 253, 400, 284
-0.998311, 145, 25, 272, 88
-0.998324, 257, 1, 320, 128
-0.998331, 225, 217, 480, 280
-0.998381, 41, 143, 104, 158
-0.9984, 221, 273, 252, 288
-0.9984, 133, 1, 164, 16
-0.998402, 41, 175, 72, 190
-0.998403, 261, 253, 292, 268
-0.998403, 97, 265, 160, 280
-0.998404, 457, 1, 488, 16
-0.998404, 81, 255, 144, 270
-0.998405, 117, 267, 148, 282
-0.998406, 85, 165, 116, 180
-0.998407, 117, 151, 148, 166
-0.998407, 201, 269, 232, 284
-0.998408, 445, 7, 476, 22
-0.998408, 109, 163, 140, 178
-0.998408, 221, 243, 252, 258
-0.998409, 157, 195, 188, 210
-0.998409, 25, 171, 56, 186
-0.99841, 153, 155, 184, 170
-0.99841, 69, 1, 100, 16
-0.99841, 89, 197, 120, 212
-0.998411, 469, 23, 500, 38
-0.998411, 129, 271, 160, 286
-0.998412, 129, 213, 256, 244
-0.998413, 73, 139, 136, 154
-0.998413, 85, 235, 116, 250
-0.998414, 245, 247, 276, 262
-0.998415, 37, 183, 68, 198
-0.998415, 53, 209, 84, 224
-0.998416, 233, 1, 264, 16
-0.998417, 133, 227, 164, 242
-0.998417, 77, 153, 108, 168
-0.998417, 209, 243, 240, 258
-0.998418, 53, 199, 84, 214
-0.99842, 97, 147, 160, 162
-0.99842, 453, 25, 484, 40
-0.99842, 145, 241, 176, 256
-0.998421, 33, 289, 96, 352
-0.998422, 25, 171, 88, 186
-0.998423, 97, 177, 128, 192
-0.998425, 137, 235, 168, 250
-0.998426, 257, 25, 500, 88
-0.998426, 73, 199, 104, 214
-0.998428, 49, 5, 80, 20
-0.998428, 41, 241, 72, 256
-0.998428, 125, 219, 156, 234
-0.99843, 157, 287, 188, 302
-0.99843, 141, 157, 172, 172
-0.998431, 37, 235, 68, 250
-0.998431, 161, 185, 192, 200
-0.998432, 25, 163, 88, 178
-0.998432, 169, 203, 200, 218
-0.998433, 165, 179, 196, 194
-0.998433, 53, 243, 84, 258
-0.998434, 29, 147, 60, 162
-0.998434, 181, 293, 212, 308
-0.998435, 197, 245, 228, 260
-0.998435, 237, 291, 268, 306
-0.998436, 69, 167, 100, 182
-0.998436, 169, 275, 200, 290
-0.998436, 169, 197, 200, 212
-0.998436, 145, 1, 176, 16
-0.998436, 89, 155, 120, 170
-0.998437, 33, 149, 96, 164
-0.998437, 25, 177, 56, 192
-0.998438, 129, 149, 160, 164
-0.998441, 449, 13, 480, 28
-0.998444, 469, 17, 500, 32
-0.998446, 41, 143, 72, 158
-0.998447, 49, 253, 80, 268
-0.998447, 89, 257, 120, 272
-0.998449, 189, 251, 220, 266
-0.998449, 57, 223, 88, 238
-0.998451, 57, 153, 120, 168
-0.998451, 41, 245, 104, 260
-0.998454, 17, 277, 144, 308
-0.998455, 137, 167, 200, 182
-0.998456, 213, 301, 244, 316
-0.998456, 105, 251, 168, 266
-0.998457, 193, 263, 224, 278
-0.998457, 89, 147, 120, 162
-0.998458, 105, 157, 168, 172
-0.998458, 133, 175, 164, 190
-0.998459, 77, 139, 108, 154
-0.998459, 129, 257, 192, 272
-0.99846, 25, 221, 88, 236
-0.998461, 149, 167, 180, 182
-0.998461, 469, 1, 500, 16
-0.998464, 13, 7, 44, 22
-0.998464, 193, 295, 256, 310
-0.998465, 445, 19, 476, 34
-0.998465, 49, 137, 112, 152
-0.998465, 29, 251, 60, 266
-0.998466, 153, 191, 216, 206
-0.998468, 65, 155, 96, 170
-0.998468, 73, 133, 104, 148
-0.998469, 157, 201, 188, 216
-0.998469, 65, 145, 128, 160
-0.998471, 41, 189, 72, 204
-0.998471, 65, 165, 128, 180
-0.998473, 137, 275, 200, 290
-0.998474, 213, 289, 244, 304
-0.998474, 49, 237, 112, 252
-0.998474, 149, 259, 180, 274
-0.998475, 229, 285, 260, 300
-0.998476, 97, 163, 128, 178
-0.998476, 109, 249, 140, 264
-0.998478, 41, 207, 104, 222
-0.99848, 33, 153, 64, 168
-0.998481, 89, 245, 120, 260
-0.998482, 209, 277, 240, 292
-0.998483, 49, 233, 80, 248
-0.998483, 129, 159, 160, 174
-0.998485, 41, 199, 104, 214
-0.998485, 201, 245, 264, 260
-0.998486, 193, 287, 256, 302
-0.998486, 109, 261, 140, 276
-0.998487, 145, 289, 176, 304
-0.998487, 169, 259, 232, 274
-0.998488, 97, 141, 160, 156
-0.998491, 141, 271, 172, 286
-0.998491, 45, 159, 76, 174
-0.998492, 25, 159, 56, 174
-0.998492, 137, 169, 168, 184
-0.998497, 169, 267, 232, 282
-0.998497, 57, 135, 88, 150
-0.998498, 109, 145, 140, 160
-0.998499, 193, 293, 224, 308
-0.998501, 161, 167, 192, 182
-0.998503, 65, 141, 96, 156
-0.998505, 213, 283, 244, 298
-0.998507, 25, 155, 88, 170
-0.998507, 25, 253, 88, 268
-0.998508, 137, 253, 168, 268
-0.998508, 41, 231, 104, 246
-0.998509, 93, 133, 124, 148
-0.99851, 173, 191, 204, 206
-0.99851, 137, 199, 200, 214
-0.998511, 121, 235, 184, 250
-0.998514, 69, 243, 100, 258
-0.998515, 457, 7, 488, 22
-0.998516, 69, 147, 100, 162
-0.998518, 65, 159, 128, 174
-0.998519, 81, 249, 144, 264
-0.998519, 425, 9, 488, 24
-0.99852, 57, 263, 120, 278
-0.99852, 65, 201, 128, 216
-0.998523, 105, 167, 168, 182
-0.998523, 169, 293, 232, 308
-0.998524, 153, 287, 216, 302
-0.998525, 97, 135, 160, 150
-0.998527, 241, 237, 368, 268
-0.998527, 121, 173, 184, 188
-0.998528, 81, 227, 144, 242
-0.998529, 41, 247, 72, 262
-0.998531, 73, 237, 104, 252
-0.998533, 213, 265, 244, 280
-0.998534, 185, 275, 248, 290
-0.998536, 97, 275, 160, 290
-0.998537, 353, 21, 480, 52
-0.998537, 33, 223, 64, 238
-0.998539, 121, 259, 152, 274
-0.99854, 105, 257, 168, 272
-0.99854, 153, 251, 216, 266
-0.99854, 121, 223, 184, 238
-0.99854, 113, 137, 144, 152
-0.998541, 25, 165, 56, 180
-0.998544, 141, 279, 172, 294
-0.998544, 37, 217, 68, 232
-0.998545, 129, 269, 192, 284
-0.998545, 57, 147, 88, 162
-0.998547, 105, 169, 136, 184
-0.998548, 137, 209, 200, 224
-0.998549, 93, 251, 124, 266
-0.998551, 185, 1, 216, 256
-0.998551, 137, 159, 200, 174
-0.998551, 129, 281, 192, 296
-0.998551, 81, 235, 144, 250
-0.998552, 63, 129, 78, 256
-0.998553, 57, 251, 120, 266
-0.998553, 433, 23, 496, 38
-0.998555, 129, 287, 192, 302
-0.998555, 57, 131, 120, 146
-0.998557, 65, 243, 128, 258
-0.998558, 425, 15, 488, 30
-0.998559, 265, 291, 328, 306
-0.998559, 145, 263, 208, 278
-0.99856, 201, 301, 264, 316
-0.998561, 1, 163, 64, 178
-0.998561, 25, 177, 88, 192
-0.998561, 97, 243, 160, 258
-0.998562, 205, 295, 236, 310
-0.998563, 129, 265, 160, 280
-0.998563, 93, 141, 124, 156
-0.998563, 217, 289, 280, 304
-0.998565, 57, 257, 120, 272
-0.998567, 141, 151, 172, 166
-0.998567, 153, 161, 184, 176
-0.998567, 129, 247, 160, 262
-0.998568, 65, 195, 128, 210
-0.998571, 129, 309, 256, 340
-0.998572, 33, 193, 96, 208
-0.998573, 121, 263, 184, 278
-0.998575, 33, 187, 96, 202
-0.998576, 129, 183, 192, 198
-0.998577, 81, 171, 144, 186
-0.99858, 25, 237, 88, 252
-0.99858, 1, 171, 64, 186
-0.998583, 25, 3, 88, 18
-0.998583, 65, 177, 128, 192
-0.998583, 153, 281, 216, 296
-0.998587, 121, 143, 184, 158
-0.998587, 177, 129, 208, 375
-0.998588, 225, 291, 256, 306
-0.998589, 1, 301, 128, 332
-0.99859, 25, 215, 88, 230
-0.99859, 417, 29, 480, 44
-0.998591, 97, 281, 160, 296
-0.998593, 417, 3, 480, 18
-0.998593, 225, 1, 288, 16
-0.998594, 177, 13, 240, 28
-0.998594, 137, 241, 200, 256
-0.998595, 161, 199, 224, 214
-0.998595, 69, 229, 100, 244
-0.998595, 73, 31, 136, 46
-0.998595, 117, 173, 148, 188
-0.998596, 17, 247, 80, 262
-0.998596, 129, 229, 192, 244
-0.998598, 17, 143, 80, 158
-0.998599, 49, 1, 112, 16
-0.998605, 9, 9, 72, 24
-0.998606, 289, 267, 352, 282
-0.998607, 185, 281, 248, 296
-0.998607, 161, 275, 224, 290
-0.998608, 225, 295, 288, 310
-0.998609, 57, 269, 120, 284
-0.998609, 249, 267, 312, 282
-0.998609, 49, 213, 112, 228
-0.998612, 61, 237, 92, 252
-0.998612, 129, 153, 192, 168
-0.998613, 209, 307, 272, 322
-0.998613, 1, 3, 64, 18
-0.998613, 189, 257, 220, 272
-0.998614, 265, 285, 328, 300
-0.998614, 145, 1, 208, 16
-0.998616, 225, 7, 288, 22
-0.998617, 161, 237, 224, 252
-0.998617, 137, 215, 200, 230
-0.998617, 1, 43, 64, 58
-0.998618, 129, 251, 192, 266
-0.998618, 209, 267, 272, 282
-0.99862, 169, 299, 232, 314
-0.99862, 121, 23, 184, 38
-0.99862, 1, 157, 64, 172
-0.99862, 153, 185, 216, 200
-0.998621, 141, 161, 156, 288
-0.998624, 249, 327, 312, 342
-0.998625, 265, 297, 328, 312
-0.998625, 417, 35, 480, 50
-0.998627, 127, 129, 142, 256
-0.998628, 53, 141, 84, 156
-0.998629, 129, 189, 192, 204
-0.998629, 193, 339, 256, 354
-0.998631, 289, 273, 352, 288
-0.998631, 1, 149, 64, 164
-0.998631, 25, 39, 88, 54
-0.998632, 153, 17, 216, 32
-0.998632, 57, 183, 120, 198
-0.998632, 49, 225, 112, 240
-0.998632, 97, 27, 160, 42
-0.998633, 129, 143, 160, 158
-0.998633, 409, 21, 472, 36
-0.998637, 109, 255, 140, 270
-0.99866, 369, 257, 432, 320
-0.998671, 445, 1, 476, 256
-0.998673, 45, 149, 76, 164
-0.998686, 115, 161, 130, 288
-0.998697, 145, 149, 272, 180
-0.998698, 369, 345, 496, 375
-0.9987, 81, 145, 96, 272
-0.998724, 153, 209, 168, 336
-0.99873, 57, 161, 72, 288
-0.998752, 277, 193, 308, 320
-0.998753, 149, 145, 164, 272
-0.998758, 41, 129, 56, 256
-0.998766, 133, 177, 148, 304
-0.998776, 71, 161, 86, 288
-0.998777, 385, 57, 448, 120
-0.998785, 157, 145, 172, 272
-0.99879, 369, 57, 496, 88
-0.998822, 89, 145, 104, 272
-0.998829, 81, 125, 208, 156
-0.998838, 121, 161, 136, 288
-0.998845, 1, 225, 500, 288
-0.998846, 141, 209, 156, 336
-0.998859, 97, 129, 352, 192
-0.998878, 133, 113, 148, 240
-0.99888, 177, 233, 304, 264
-0.998899, 131, 241, 146, 368
-0.998901, 233, 225, 248, 352
-0.998918, 51, 161, 66, 288
-0.998926, 167, 177, 182, 304
-0.998957, 159, 193, 174, 320
-0.99897, 97, 193, 112, 320
-0.998973, 147, 193, 162, 320
-0.998973, 223, 241, 238, 368
-0.998977, 337, 269, 464, 300
-0.998984, 107, 193, 122, 320
-0.998986, 193, 225, 208, 352
-0.998993, 461, 1, 476, 128
-0.999, 321, 49, 448, 80
-0.999004, 95, 129, 110, 256
-0.999009, 179, 161, 194, 288
-0.999012, 177, 193, 304, 224
-0.999017, 35, 145, 50, 272
-0.999019, 45, 1, 60, 128
-0.999028, 139, 113, 154, 240
-0.999033, 205, 225, 220, 352
-0.999035, 57, 209, 72, 336
-0.999044, 71, 113, 86, 240
-0.999045, 43, 177, 58, 304
-0.999046, 479, 1, 494, 128
-0.999047, 123, 241, 138, 368
-0.999062, 55, 113, 70, 240
-0.999068, 217, 225, 232, 352
-0.99907, 21, 1, 36, 128
-0.999083, 245, 225, 260, 352
-0.999084, 147, 241, 162, 368
-0.999099, 65, 177, 80, 304
-0.9991, 111, 113, 126, 240
-0.999105, 255, 225, 270, 352
-0.999106, 117, 225, 132, 352
-0.999108, 127, 193, 142, 320
-0.999117, 103, 145, 118, 272
-0.999129, 163, 129, 178, 256
-0.999142, 101, 241, 116, 368
-0.999143, 199, 241, 214, 368
-0.999147, 159, 241, 174, 368
-0.999152, 83, 193, 98, 320
-0.999157, 109, 241, 124, 368
-0.999173, 239, 225, 254, 352
-0.999173, 187, 225, 202, 352
-0.999177, 33, 341, 160, 372
-0.999178, 169, 129, 184, 256
-0.999179, 119, 113, 134, 240
-0.999208, 169, 241, 184, 368
-0.999208, 485, 1, 500, 128
-0.999212, 91, 193, 106, 320
-0.999219, 455, 1, 470, 128
-0.99922, 201, 1, 216, 128
-0.999222, 49, 113, 64, 240
-0.999228, 261, 225, 276, 352
-0.999229, 173, 1, 188, 128
-0.999229, 193, 145, 448, 272
-0.999237, 467, 1, 482, 128
-0.999238, 157, 1, 172, 128
-0.999244, 473, 1, 488, 128
-0.999248, 27, 1, 42, 128
-0.999251, 287, 241, 302, 368
-0.999262, 51, 1, 66, 128
-0.999262, 279, 241, 294, 368
-0.999276, 447, 1, 462, 128
-0.99928, 77, 193, 92, 320
-0.999281, 51, 209, 66, 336
-0.999282, 321, 1, 448, 32
-0.999285, 185, 1, 200, 128
-0.999291, 91, 241, 106, 368
-0.999292, 211, 209, 226, 336
-0.999295, 15, 1, 30, 128
-0.999301, 29, 145, 44, 272
-0.999306, 221, 1, 236, 128
-0.999308, 215, 1, 230, 128
-0.999308, 207, 1, 222, 128
-0.999314, 71, 209, 86, 336
-0.99932, 267, 241, 282, 368
-0.999323, 227, 1, 242, 128
-0.999332, 209, 1, 272, 256
-0.999335, 35, 97, 50, 224
-0.999337, 179, 1, 194, 128
-0.999342, 173, 177, 188, 304
-0.999349, 39, 1, 54, 128
-0.99935, 63, 225, 78, 352
-0.999351, 145, 1, 160, 128
-0.999351, 151, 1, 166, 128
-0.999355, 233, 1, 248, 128
-0.999371, 167, 1, 182, 128
-0.999392, 179, 209, 194, 336
-0.999396, 239, 1, 254, 128
-0.999398, 63, 81, 78, 208
-0.9994, 321, 257, 448, 288
-0.999403, 249, 1, 312, 375
-0.999415, 57, 1, 72, 128
-0.999417, 299, 225, 314, 352
-0.99943, 115, 17, 130, 144
-0.999435, 427, 1, 442, 128
-0.999438, 185, 177, 200, 304
-0.999442, 63, 33, 78, 160
-0.999447, 3, 33, 18, 160
-0.999453, 145, 137, 272, 168
-0.999457, 321, 33, 448, 64
-0.99946, 293, 241, 308, 368
-0.999462, 109, 17, 124, 144
-0.999463, 131, 17, 146, 144
-0.999465, 77, 97, 92, 224
-0.999466, 273, 241, 288, 368
-0.999466, 401, 257, 464, 320
-0.999467, 85, 97, 100, 224
-0.999472, 1, 33, 500, 96
-0.999473, 95, 17, 110, 144
-0.999474, 223, 193, 238, 320
-0.99948, 101, 17, 116, 144
-0.999481, 195, 1, 210, 128
-0.999482, 149, 97, 164, 224
-0.999491, 29, 97, 44, 224
-0.999499, 69, 1, 84, 128
-0.9995, 9, 33, 24, 160
-0.999507, 139, 1, 154, 128
-0.999511, 175, 113, 190, 240
-0.999513, 75, 1, 90, 128
-0.999514, 123, 17, 138, 144
-0.999516, 101, 97, 116, 224
-0.999523, 33, 33, 48, 160
-0.999528, 197, 1, 228, 256
-0.999535, 125, 81, 140, 208
-0.999564, 441, 1, 456, 128
-0.999564, 197, 177, 212, 304
-0.999572, 1, 121, 500, 184
-0.999588, 469, 1, 500, 256
-0.999599, 453, 9, 468, 24
-0.999599, 71, 239, 86, 254
-0.999599, 287, 265, 302, 280
-0.9996, 275, 257, 290, 272
-0.999601, 221, 281, 236, 296
-0.999602, 165, 193, 180, 208
-0.999602, 37, 173, 52, 188
-0.999603, 171, 181, 186, 196
-0.999604, 103, 267, 118, 282
-0.999605, 71, 163, 86, 178
-0.999608, 157, 169, 172, 184
-0.999609, 221, 295, 236, 310
-0.999609, 111, 171, 126, 186
-0.999609, 119, 169, 134, 184
-0.999613, 103, 153, 118, 168
-0.999614, 35, 179, 50, 194
-0.999614, 95, 253, 110, 268
-0.999615, 207, 259, 222, 274
-0.999616, 297, 323, 312, 338
-0.999616, 103, 259, 118, 274
-0.999616, 59, 237, 74, 252
-0.999616, 267, 253, 282, 268
-0.999617, 163, 259, 178, 274
-0.999618, 237, 295, 252, 310
-0.999619, 99, 131, 114, 146
-0.999619, 101, 143, 116, 158
-0.999619, 45, 207, 60, 222
-0.999619, 245, 289, 260, 304
-0.99962, 481, 13, 496, 28
-0.99962, 121, 177, 136, 192
-0.999621, 215, 295, 230, 310
-0.999621, 185, 203, 200, 218
-0.999622, 45, 145, 60, 160
-0.999622, 137, 167, 152, 182
-0.999623, 51, 247, 66, 262
-0.999624, 471, 7, 486, 22
-0.999624, 73, 177, 88, 192
-0.999626, 223, 265, 238, 280
-0.999627, 191, 253, 206, 268
-0.999628, 229, 289, 244, 304
-0.99963, 227, 281, 242, 296
-0.99963, 29, 159, 44, 174
-0.99963, 227, 295, 242, 310
-0.99963, 125, 261, 140, 276
-0.999631, 85, 231, 100, 246
-0.999633, 85, 239, 100, 254
-0.999633, 109, 163, 124, 178
-0.999634, 53, 149, 68, 164
-0.999634, 69, 155, 84, 170
-0.999635, 51, 217, 66, 232
-0.999636, 167, 157, 182, 172
-0.999637, 173, 201, 188, 216
-0.99964, 173, 167, 188, 182
-0.99964, 165, 285, 180, 300
-0.999641, 91, 237, 106, 252
-0.999641, 73, 199, 88, 214
-0.999641, 151, 271, 166, 286
-0.999641, 459, 5, 474, 20
-0.999642, 97, 149, 112, 164
-0.999642, 213, 263, 228, 278
-0.999643, 39, 249, 54, 264
-0.999643, 135, 241, 150, 256
-0.999644, 197, 293, 212, 308
-0.999644, 467, 1, 482, 16
-0.999644, 41, 183, 56, 198
-0.999645, 113, 141, 128, 156
-0.999648, 137, 259, 152, 274
-0.999649, 75, 147, 90, 162
-0.999649, 193, 97, 224, 352
-0.999649, 177, 195, 192, 210
-0.99965, 95, 247, 110, 262
-0.999652, 205, 293, 220, 308
-0.999652, 97, 259, 112, 274
-0.999652, 93, 137, 108, 152
-0.999652, 137, 271, 152, 286
-0.999652, 139, 155, 154, 170
-0.999658, 223, 289, 238, 304
-0.99966, 133, 173, 148, 188
-0.999662, 203, 253, 218, 268
-0.999664, 45, 157, 60, 172
-0.999664, 125, 137, 140, 152
-0.999664, 35, 157, 50, 172
-0.999668, 143, 275, 158, 290
-0.999669, 147, 1, 162, 16
-0.99967, 223, 275, 238, 290
-0.99967, 145, 169, 160, 184
-0.99967, 57, 243, 72, 258
-0.999672, 101, 249, 116, 264
-0.999672, 85, 145, 100, 160
-0.999674, 199, 247, 214, 262
-0.999675, 35, 167, 50, 182
-0.999676, 217, 269, 232, 284
-0.999677, 207, 245, 222, 260
-0.999679, 45, 251, 60, 266
-0.999679, 69, 147, 84, 162
-0.999679, 79, 237, 94, 252
-0.999681, 125, 149, 140, 164
-0.999682, 117, 251, 132, 266
-0.999684, 235, 289, 250, 304
-0.999686, 97, 265, 112, 280
-0.999689, 135, 265, 150, 280
-0.99969, 69, 137, 84, 152
-0.999698, 73, 233, 88, 248
-0.999699, 95, 143, 110, 158
-0.9997, 111, 251, 126, 266
-0.999702, 53, 231, 68, 246
-0.999703, 185, 189, 200, 204
-0.999703, 145, 149, 160, 164
-0.999707, 241, 1, 368, 128
-0.999708, 123, 255, 138, 270
-0.99971, 47, 151, 62, 166
-0.999712, 99, 137, 114, 152
-0.999713, 51, 141, 66, 156
-0.999717, 105, 133, 120, 148
-0.999718, 79, 227, 94, 242
-0.999718, 151, 167, 166, 182
-0.999725, 145, 25, 272, 56
-0.999726, 63, 133, 78, 148
-0.999729, 65, 235, 80, 250
-0.99973, 161, 157, 176, 172
-0.999734, 59, 145, 74, 160
-0.999741, 155, 161, 170, 176
-0.999747, 39, 151, 54, 166
-0.999748, 125, 171, 140, 186
-0.999751, 101, 159, 116, 174
-0.999753, 249, 129, 280, 375
-0.999761, 125, 143, 140, 158
-0.999771, 17, 113, 144, 144
-0.999774, 131, 259, 146, 274
-0.999776, 133, 139, 148, 154
-0.999777, 57, 139, 72, 154
-0.999778, 177, 181, 304, 212
-0.999778, 63, 139, 78, 154
-0.999788, 1, 41, 256, 104
-0.99979, 139, 141, 154, 156
-0.999794, 141, 265, 156, 280
-0.999795, 49, 41, 176, 72
-0.999811, 135, 149, 150, 164
-0.99982, 161, 81, 288, 208
-0.999826, 177, 221, 304, 252
-0.999838, 129, 125, 256, 156
-0.99988, 13, 49, 44, 176
-0.99989, 421, 1, 452, 256
-0.99989, 233, 129, 264, 375
-0.999902, 225, 225, 352, 256
-0.999929, 257, 49, 500, 112
-0.999966, 265, 129, 296, 375
-0.99997, 209, 129, 240, 375
-0.999995, 393, 1, 456, 256
-1.00002, 217, 129, 280, 375
-1.00002, 369, 257, 496, 288
-1.00002, 17, 289, 144, 320
-1.00005, 65, 113, 192, 144
-1.00006, 29, 241, 60, 368
-1.00006, 457, 1, 488, 256
-1.0001, 221, 129, 252, 375
-1.00011, 177, 205, 304, 236
-1.00011, 433, 33, 464, 288
-1.00014, 305, 333, 432, 364
-1.00015, 353, 281, 480, 344
-1.00017, 285, 129, 316, 375
-1.0002, 1, 89, 128, 152
-1.00021, 369, 133, 496, 164
-1.00025, 305, 137, 432, 168
-1.00026, 137, 105, 200, 168
-1.00028, 13, 97, 44, 352
-1.00029, 225, 13, 352, 44
-1.0003, 209, 1, 240, 256
-1.00031, 321, 61, 448, 92
-1.00032, 433, 257, 496, 320
-1.00034, 409, 1, 440, 256
-1.00034, 337, 129, 464, 192
-1.00039, 233, 1, 264, 256
-1.0004, 225, 141, 352, 172
-1.00049, 353, 233, 480, 296
-1.00049, 221, 1, 252, 256
-1.00054, 369, 281, 496, 312
-1.00055, 369, 121, 496, 152
-1.00058, 97, 37, 224, 68
-1.00059, 289, 125, 416, 156
-1.00061, 321, 313, 448, 375
-1.00065, 1, 53, 128, 84
-1.00067, 297, 233, 360, 296
-1.00069, 209, 129, 336, 160
-1.00072, 193, 137, 448, 200
-1.00075, 1, 97, 256, 160
-1.00081, 305, 21, 432, 52
-1.00081, 353, 77, 480, 108
-1.00082, 49, 101, 176, 132
-1.00085, 161, 101, 288, 132
-1.00086, 465, 49, 496, 176
-1.00088, 209, 97, 336, 128
-1.00089, 257, 89, 384, 120
-1.00089, 353, 333, 480, 364
-1.00092, 193, 153, 320, 184
-1.00092, 1, 97, 128, 128
-1.00093, 161, 89, 288, 120
-1.00093, 97, 97, 224, 128
-1.00097, 241, 77, 368, 108
-1.00098, 129, 25, 384, 88
-1.00104, 97, 105, 352, 168
-1.00106, 17, 177, 48, 304
-1.00107, 65, 89, 192, 152
-1.00111, 265, 129, 328, 375
-1.00113, 405, 33, 436, 160
-1.00116, 297, 129, 328, 375
-1.00118, 369, 9, 432, 72
-1.00127, 245, 1, 276, 256
-1.00128, 365, 65, 396, 320
-1.00128, 377, 65, 408, 320
-1.00131, 5, 97, 36, 224
-1.00131, 309, 129, 340, 375
-1.00137, 289, 1, 352, 375
-1.00138, 225, 113, 480, 176
-1.0014, 353, 65, 384, 320
-1.00142, 389, 65, 420, 320
-1.00142, 261, 1, 292, 128
-1.00143, 145, 89, 272, 152
-1.00144, 209, 137, 336, 200
-1.00145, 1, 49, 32, 176
-1.00147, 289, 121, 416, 184
-1.00147, 345, 257, 408, 320
-1.00157, 341, 65, 372, 320
-1.00158, 249, 1, 280, 128
-1.00164, 369, 65, 496, 192
-1.00165, 1, 97, 32, 352
-1.00168, 193, 193, 448, 256
-1.00169, 369, 105, 496, 168
-1.00172, 329, 65, 360, 320
-1.00173, 457, 97, 488, 352
-1.00174, 401, 97, 432, 352
-1.00175, 297, 1, 328, 256
-1.00179, 445, 97, 476, 352
-1.0018, 413, 97, 444, 352
-1.00183, 117, 65, 148, 192
-1.00184, 317, 1, 348, 256
-1.00184, 433, 129, 464, 375
-1.00184, 469, 129, 500, 375
-1.00188, 241, 113, 368, 176
-1.0019, 289, 1, 320, 128
-1.0019, 209, 89, 336, 152
-1.00191, 193, 89, 448, 152
-1.00193, 281, 1, 312, 256
-1.00195, 257, 33, 288, 288
-1.002, 129, 57, 384, 120
-1.00202, 269, 1, 300, 256
-1.00204, 33, 73, 288, 136
-1.00207, 1, 97, 500, 160
-1.00209, 289, 97, 416, 160
-1.00209, 289, 177, 352, 304
-1.00212, 257, 169, 500, 232
-1.00213, 129, 65, 256, 128
-1.00219, 225, 65, 352, 128
-1.00232, 69, 49, 100, 176
-1.00233, 313, 1, 376, 64
-1.00239, 321, 73, 448, 136
-1.00242, 257, 145, 384, 208
-1.0025, 1, 289, 64, 352
-1.00258, 1, 57, 128, 120
-1.00259, 321, 225, 352, 352
-1.00266, 165, 81, 196, 208
-1.00271, 369, 81, 496, 144
-1.00276, 273, 57, 400, 120
-1.00283, 193, 41, 320, 104
-1.00283, 81, 65, 208, 128
-1.00286, 433, 65, 496, 128
-1.00288, 257, 33, 384, 96
-1.00291, 321, 153, 448, 216
-1.00291, 369, 153, 496, 216
-1.00291, 225, 169, 352, 232
-1.00291, 321, 177, 448, 240
-1.00291, 369, 177, 496, 240
-1.00291, 273, 185, 400, 248
-1.00291, 321, 201, 448, 264
-1.00291, 369, 201, 496, 264
-1.003, 377, 1, 440, 375
-1.00301, 177, 65, 304, 128
-1.00304, 345, 1, 408, 375
-1.00325, 301, 177, 332, 304
-1.00332, 241, 201, 304, 264
-1.00332, 277, 1, 308, 128
-1.00345, 313, 1, 376, 375
-1.00347, 1, 73, 500, 136
-1.00381, 369, 305, 496, 368
-1.00387, 193, 113, 320, 176
-1.00392, 161, 113, 224, 176
-1.00438, 369, 281, 432, 344
-1.00441, 369, 113, 496, 240
-1.00451, 321, 241, 384, 304
-1.00473, 1, 241, 32, 368
-1.00484, 409, 281, 472, 344
-1.00511, 193, 177, 256, 240
-1.00511, 333, 241, 364, 368
-1.00511, 377, 121, 440, 184
-1.00527, 361, 233, 424, 296
-1.00531, 1, 89, 64, 152
-1.0054, 321, 313, 384, 375
-1.00548, 193, 153, 256, 216
-1.00548, 241, 137, 304, 200
-1.00549, 345, 281, 408, 344
-1.00558, 345, 313, 408, 375
-1.00562, 177, 81, 208, 208
-1.00565, 225, 97, 480, 224
-1.00568, 401, 233, 464, 296
-1.00569, 433, 281, 496, 344
-1.00571, 217, 129, 280, 192
-1.00584, 321, 97, 448, 224
-1.00591, 433, 233, 496, 296
-1.00592, 81, 89, 144, 152
-1.00601, 321, 273, 384, 336
-1.00604, 301, 1, 332, 128
-1.00604, 405, 97, 436, 224
-1.00609, 333, 193, 364, 320
-1.00618, 5, 145, 36, 272
-1.00627, 353, 121, 416, 184
-1.00631, 345, 225, 376, 352
-1.0064, 281, 1, 344, 128
-1.00642, 393, 97, 424, 224
-1.00643, 401, 129, 464, 192
-1.00656, 17, 241, 48, 368
-1.00659, 225, 105, 288, 168
-1.00662, 297, 129, 360, 375
-1.00666, 169, 81, 232, 208
-1.00669, 337, 193, 464, 320
-1.00674, 417, 97, 448, 224
-1.00676, 65, 241, 96, 368
-1.0068, 233, 1, 296, 256
-1.00698, 265, 129, 328, 192
-1.00701, 377, 145, 440, 208
-1.00708, 353, 65, 416, 320
-1.0071, 201, 105, 264, 168
-1.00718, 41, 73, 104, 136
-1.00723, 321, 177, 352, 304
-1.00733, 409, 105, 472, 168
-1.00733, 381, 97, 412, 224
-1.00737, 377, 97, 440, 160
-1.00748, 429, 97, 460, 224
-1.00768, 265, 145, 296, 272
-1.00783, 385, 97, 448, 224
-1.00787, 345, 177, 376, 304
-1.0079, 329, 65, 392, 320
-1.00799, 397, 145, 428, 272
-1.00799, 413, 145, 444, 272
-1.00808, 357, 225, 388, 352
-1.00811, 321, 225, 384, 352
-1.00826, 273, 65, 400, 192
-1.00829, 321, 145, 448, 272
-1.00834, 385, 145, 416, 272
-1.00845, 337, 65, 368, 192
-1.00851, 429, 145, 460, 272
-1.00859, 325, 65, 356, 192
-1.00859, 369, 97, 400, 224
-1.00864, 393, 1, 424, 128
-1.00875, 385, 49, 416, 176
-1.00878, 357, 177, 388, 304
-1.00953, 209, 65, 336, 192
-1.00954, 377, 129, 440, 375
-1.0097, 305, 1, 368, 256
-1.01003, 265, 145, 328, 272
-1.01019, 273, 113, 400, 240
-1.01023, 361, 97, 424, 224
-1.01026, 225, 129, 352, 256
-1.01043, 425, 97, 488, 352
-1.01058, 161, 49, 416, 176
-1.01069, 409, 113, 472, 240
-1.01079, 337, 241, 464, 368
-1.01104, 345, 193, 408, 320
-1.01107, 321, 177, 384, 304
-1.01109, 257, 33, 320, 288
-1.01121, 385, 145, 448, 272
-1.01159, 361, 1, 424, 128
-1.01162, 401, 97, 464, 352
-1.01244, 281, 33, 344, 288
-1.01254, 137, 49, 200, 176
-1.01267, 433, 97, 496, 224
-1.01273, 369, 49, 432, 176
-1.0128, 337, 65, 400, 192
-1.01358, 361, 145, 424, 272
-1.01364, 305, 65, 368, 192
-1.014, 321, 1, 384, 128
-1.014, 201, 97, 264, 224
-1.01416, 337, 113, 400, 240
-1.01429, 281, 49, 344, 176
-1.01442, 369, 209, 432, 336
-1.01458, 201, 49, 264, 176
-1.01478, 233, 49, 296, 176
-1.01478, 257, 49, 320, 176
-1.01478, 241, 97, 304, 224
-1.01478, 265, 97, 328, 224
-1.01478, 289, 113, 352, 240
-1.01478, 313, 113, 376, 240
-1.01478, 409, 161, 472, 288
-1.01478, 433, 161, 496, 288
-1.01478, 409, 209, 472, 336
-1.01478, 433, 209, 496, 336
-1.01681, 345, 241, 408, 368
-1.0605, 257, 33, 500, 288
