1955
-0.435732, 1, 1, 500, 375
-0.449591, 1, 1, 500, 256
-0.569307, 1, 97, 500, 352
-0.660779, 97, 1, 352, 375
-0.721121, 257, 1, 500, 375
-0.723568, 1, 1, 256, 375
-0.796331, 257, 97, 500, 352
-0.84698, 257, 1, 500, 256
-0.871271, 33, 33, 288, 288
-0.872902, 321, 1, 448, 375
-0.877607, 81, 1, 208, 375
-0.879829, 321, 1, 448, 256
-0.883203, 1, 129, 256, 375
-0.900576, 161, 129, 416, 375
-0.905259, 1, 129, 128, 375
-0.907514, 1, 33, 500, 160
-0.909354, 129, 1, 256, 375
-0.909751, 161, 33, 416, 288
-0.91053, 321, 97, 448, 352
-0.912776, 369, 1, 496, 256
-0.914095, 97, 1, 224, 256
-0.920813, 273, 1, 400, 256
-0.922274, 369, 1, 496, 375
-0.923239, 81, 97, 208, 352
-0.925674, 369, 129, 496, 375
-0.932899, 273, 1, 400, 375
-0.9334, 257, 177, 500, 304
-0.935072, 1, 241, 500, 368
-0.935112, 1, 161, 500, 288
-0.937294, 1, 97, 500, 224
-0.939181, 33, 1, 160, 256
-0.9417, 273, 129, 400, 375
-0.942158, 129, 129, 256, 375
-0.946112, 1, 1, 128, 375
-0.949825, 161, 33, 288, 288
-0.95434, 209, 1, 336, 375
-0.956624, 97, 1, 352, 128
-0.959791, 305, 17, 432, 144
-0.960164, 97, 17, 224, 144
-0.961161, 337, 177, 464, 304
-0.961271, 137, 1, 200, 128
-0.962251, 177, 129, 304, 375
-0.962523, 257, 225, 500, 352
-0.962806, 1, 161, 128, 288
-0.963574, 1, 209, 256, 336
-0.96563, 145, 313, 208, 375
-0.965799, 329, 17, 392, 144
-0.965897, 321, 129, 448, 256
-0.966265, 113, 17, 176, 144
-0.966769, 385, 177, 448, 304
-0.967002, 225, 97, 352, 352
-0.967061, 1, 209, 128, 336
-0.967243, 257, 129, 500, 256
-0.967809, 209, 1, 336, 256
-0.968095, 161, 129, 416, 256
-0.968106, 393, 225, 456, 352
-0.969308, 1, 17, 256, 144
-0.969311, 97, 241, 352, 368
-0.969538, 1, 241, 64, 368
-0.970214, 81, 161, 208, 288
-0.970217, 417, 225, 480, 352
-0.971469, 33, 161, 288, 288
-0.973141, 1, 257, 64, 320
-0.974526, 1, 193, 64, 320
-0.975048, 97, 49, 352, 176
-0.975092, 337, 129, 400, 256
-0.975762, 121, 313, 184, 375
-0.975876, 305, 81, 432, 208
-0.976037, 401, 257, 464, 320
-0.976064, 329, 1, 392, 256
-0.976375, 145, 185, 208, 248
-0.976448, 177, 313, 240, 375
-0.976602, 369, 113, 432, 240
-0.976975, 425, 249, 488, 312
-0.977054, 361, 17, 424, 144
-0.977307, 193, 1, 448, 128
-0.977317, 81, 113, 208, 240
-0.977549, 369, 129, 496, 256
-0.977615, 369, 225, 496, 352
-0.977694, 353, 33, 480, 160
-0.977889, 337, 169, 400, 232
-0.977908, 33, 113, 160, 240
-0.977936, 369, 169, 432, 232
-0.978055, 1, 145, 64, 272
-0.978239, 33, 113, 288, 240
-0.978913, 17, 169, 80, 232
-0.979085, 113, 65, 240, 192
-0.97909, 49, 209, 176, 336
-0.97927, 353, 193, 416, 320
-0.979322, 161, 17, 288, 144
-0.979443, 409, 161, 472, 288
-0.979513, 145, 33, 208, 96
-0.980005, 129, 161, 256, 288
-0.980207, 273, 161, 400, 288
-0.980504, 241, 33, 368, 160
-0.980907, 157, 313, 188, 375
-0.98109, 329, 177, 392, 304
-0.981199, 97, 145, 160, 272
-0.981361, 129, 241, 256, 368
-0.981364, 321, 169, 448, 232
-0.981507, 129, 313, 256, 375
-0.981698, 97, 177, 160, 240
-0.981909, 113, 33, 176, 96
-0.981948, 289, 33, 352, 160
-0.982094, 9, 305, 72, 368
-0.982109, 1, 217, 64, 280
-0.982209, 393, 289, 456, 352
-0.982256, 121, 129, 184, 256
-0.982301, 329, 65, 392, 128
-0.982333, 225, 81, 480, 208
-0.982411, 305, 25, 432, 88
-0.982448, 81, 177, 208, 240
-0.982495, 121, 153, 184, 216
-0.982505, 161, 177, 416, 304
-0.982548, 1, 281, 64, 344
-0.982557, 49, 17, 176, 144
-0.982573, 329, 25, 392, 88
-0.982583, 361, 1, 424, 256
-0.982613, 321, 241, 448, 368
-0.98274, 353, 81, 480, 208
-0.982744, 329, 81, 392, 208
-0.982895, 361, 241, 424, 368
-0.983045, 177, 17, 240, 144
-0.983336, 297, 113, 360, 240
-0.983406, 89, 17, 152, 144
-0.983473, 81, 313, 208, 375
-0.983878, 1, 65, 256, 192
-0.984054, 417, 185, 480, 248
-0.984054, 369, 281, 432, 344
-0.984202, 169, 17, 200, 144
-0.984236, 1, 169, 128, 232
-0.984331, 401, 1, 464, 256
-0.984474, 97, 33, 224, 96
-0.984527, 97, 313, 160, 375
-0.98453, 361, 137, 424, 200
-0.984539, 1, 129, 64, 375
-0.984608, 89, 209, 152, 336
-0.984608, 409, 65, 472, 128
-0.9851, 113, 201, 176, 264
-0.985236, 401, 289, 432, 352
-0.98543, 145, 161, 208, 224
-0.985513, 145, 145, 208, 272
-0.985556, 305, 65, 432, 128
-0.985604, 433, 177, 496, 304
-0.985615, 361, 25, 424, 88
-0.98563, 1, 217, 128, 280
-0.985637, 361, 65, 424, 128
-0.985648, 1, 193, 64, 256
-0.985707, 129, 113, 256, 240
-0.985818, 241, 113, 368, 240
-0.985965, 397, 193, 428, 320
-0.985996, 305, 105, 432, 168
-0.986154, 329, 145, 392, 208
-0.986265, 329, 89, 392, 152
-0.986265, 361, 105, 424, 168
-0.986331, 25, 145, 88, 272
-0.986342, 145, 73, 208, 136
-0.986347, 113, 1, 176, 256
-0.986357, 145, 49, 208, 176
-0.986397, 117, 17, 148, 144
-0.986557, 137, 1, 200, 375
-0.986644, 113, 289, 176, 352
-0.986651, 333, 17, 364, 144
-0.986676, 49, 169, 112, 232
-0.986736, 401, 265, 432, 328
-0.986815, 1, 193, 128, 256
-0.986843, 1, 281, 128, 344
-0.986845, 177, 305, 208, 368
-0.986858, 417, 161, 480, 224
-0.986861, 201, 305, 264, 368
-0.98688, 73, 161, 136, 288
-0.986926, 121, 193, 184, 320
-0.987006, 401, 17, 464, 144
-0.987025, 369, 193, 496, 256
-0.987168, 297, 185, 360, 248
-0.987176, 417, 225, 480, 288
-0.987287, 9, 241, 40, 304
-0.98729, 121, 177, 184, 240
-0.98735, 289, 49, 352, 112
-0.987453, 417, 257, 448, 320
-0.987554, 369, 249, 496, 312
-0.987628, 73, 177, 136, 240
-0.98763, 153, 17, 184, 144
-0.987687, 417, 241, 448, 368
-0.987786, 289, 25, 352, 88
-0.98781, 65, 145, 192, 208
-0.987827, 145, 1, 208, 256
-0.987885, 297, 177, 360, 304
-0.987885, 97, 73, 224, 136
-0.987907, 353, 313, 416, 375
-0.987908, 1, 145, 64, 208
-0.987941, 177, 305, 304, 368
-0.988011, 369, 169, 496, 232
-0.988121, 305, 305, 432, 368
-0.988135, 389, 273, 420, 336
-0.98814, 1, 257, 128, 320
-0.988149, 97, 201, 224, 264
-0.988153, 145, 209, 208, 336
-0.988394, 185, 241, 248, 368
-0.988403, 241, 65, 368, 128
-0.988448, 329, 1, 392, 375
-0.988574, 1, 305, 128, 368
-0.988599, 177, 161, 240, 288
-0.988621, 145, 129, 208, 192
-0.988649, 393, 177, 456, 240
-0.988674, 89, 33, 152, 96
-0.988685, 385, 201, 448, 264
-0.98876, 177, 41, 240, 104
-0.988783, 117, 33, 148, 96
-0.988861, 393, 313, 456, 375
-0.988988, 113, 73, 176, 136
-0.989003, 385, 145, 448, 208
-0.989008, 145, 289, 208, 352
-0.989056, 305, 145, 432, 208
-0.989087, 417, 193, 448, 320
-0.989109, 241, 225, 368, 352
-0.989179, 141, 17, 172, 144
-0.989219, 353, 65, 480, 128
-0.989222, 465, 177, 496, 304
-0.989224, 113, 1, 176, 375
-0.989231, 65, 65, 192, 192
-0.98925, 145, 333, 208, 364
-0.989279, 113, 153, 240, 216
-0.989333, 129, 17, 160, 144
-0.989375, 153, 321, 216, 352
-0.989499, 385, 89, 448, 152
-0.989539, 113, 65, 176, 192
-0.989617, 13, 241, 44, 368
-0.989685, 341, 177, 372, 240
-0.989691, 145, 97, 208, 224
-0.989691, 329, 209, 392, 272
-0.9897, 49, 129, 112, 256
-0.989757, 133, 305, 164, 368
-0.989982, 433, 241, 464, 368
-0.990009, 353, 1, 416, 375
-0.990058, 425, 253, 488, 284
-0.99009, 161, 57, 288, 120
-0.990108, 385, 1, 448, 375
-0.990217, 393, 145, 424, 272
-0.990327, 353, 89, 480, 152
-0.990341, 389, 241, 420, 368
-0.990389, 121, 113, 184, 176
-0.990401, 189, 313, 220, 375
-0.990402, 145, 217, 208, 280
-0.990427, 9, 193, 40, 320
-0.990435, 353, 65, 416, 192
-0.990441, 449, 233, 480, 296
-0.99046, 369, 273, 496, 336
-0.99047, 73, 9, 136, 72
-0.990577, 145, 105, 208, 168
-0.9906, 113, 97, 240, 160
-0.990617, 177, 177, 240, 240
-0.990626, 49, 289, 176, 352
-0.990643, 353, 145, 480, 208
-0.990698, 329, 129, 392, 375
-0.990777, 241, 41, 368, 104
-0.990795, 273, 185, 400, 248
-0.990834, 289, 81, 352, 144
-0.990847, 161, 65, 288, 192
-0.990848, 177, 321, 240, 352
-0.990896, 321, 209, 448, 272
-0.990899, 177, 225, 304, 352
-0.990912, 137, 129, 200, 375
-0.990957, 417, 113, 480, 240
-0.99096, 145, 185, 272, 248
-0.991003, 461, 249, 492, 312
-0.991021, 389, 17, 420, 144
-0.99103, 401, 265, 464, 296
-0.991124, 89, 1, 152, 256
-0.991129, 161, 33, 288, 96
-0.991163, 129, 289, 256, 352
-0.991183, 129, 313, 192, 344
-0.991212, 397, 169, 428, 232
-0.99122, 401, 41, 464, 104
-0.991237, 377, 173, 440, 204
-0.991321, 137, 345, 200, 375
-0.991328, 177, 97, 240, 224
-0.991369, 341, 129, 372, 256
-0.991389, 369, 129, 432, 375
-0.991442, 33, 161, 64, 224
-0.991446, 97, 153, 160, 216
-0.991464, 49, 201, 176, 264
-0.991475, 89, 97, 152, 224
-0.99148, 393, 113, 456, 240
-0.991508, 1, 265, 64, 296
-0.99152, 361, 257, 424, 320
-0.991523, 57, 145, 120, 208
-0.991542, 329, 113, 392, 176
-0.991564, 361, 169, 392, 232
-0.991573, 249, 313, 312, 375
-0.991591, 289, 161, 352, 224
-0.991595, 137, 177, 168, 240
-0.991649, 433, 249, 464, 312
-0.991664, 101, 185, 132, 248
-0.991724, 353, 113, 480, 176
-0.991728, 169, 337, 232, 368
-0.991741, 145, 33, 208, 64
-0.99175, 1, 277, 64, 308
-0.991792, 337, 181, 400, 212
-0.9918, 169, 309, 232, 340
-0.991835, 361, 17, 392, 144
-0.991845, 17, 17, 144, 80
-0.991851, 113, 325, 176, 356
-0.99186, 149, 185, 180, 248
-0.99187, 177, 65, 240, 128
-0.991873, 329, 85, 392, 116
-0.991878, 361, 113, 392, 240
-0.991894, 113, 129, 240, 192
-0.991908, 389, 105, 420, 168
-0.991911, 145, 201, 208, 232
-0.991919, 1, 253, 64, 284
-0.991931, 1, 165, 64, 196
-0.991941, 89, 201, 152, 264
-0.992021, 401, 277, 464, 308
-0.992045, 133, 145, 164, 208
-0.992063, 377, 265, 440, 296
-0.992078, 165, 185, 196, 248
-0.992098, 225, 313, 288, 375
-0.99211, 9, 337, 72, 368
-0.99211, 401, 253, 464, 284
-0.992122, 381, 129, 412, 256
-0.992146, 353, 313, 480, 375
-0.992153, 1, 201, 64, 232
-0.992155, 385, 65, 448, 128
-0.992177, 97, 345, 160, 375
-0.992196, 393, 25, 424, 88
-0.992213, 177, 9, 240, 72
-0.992215, 101, 145, 132, 272
-0.992219, 169, 201, 232, 264
-0.992233, 425, 241, 488, 272
-0.992239, 1, 293, 64, 324
-0.992241, 25, 165, 88, 196
-0.992251, 401, 241, 432, 368
-0.992252, 97, 9, 224, 72
-0.992291, 145, 181, 208, 212
-0.992294, 13, 281, 44, 344
-0.992297, 337, 213, 400, 244
-0.992317, 393, 233, 456, 296
-0.99232, 1, 313, 256, 375
-0.992333, 193, 333, 256, 364
-0.992333, 161, 317, 192, 348
-0.992342, 425, 129, 488, 375
-0.992354, 1, 317, 64, 348
-0.992364, 409, 205, 472, 236
-0.992377, 89, 281, 152, 344
-0.992379, 17, 145, 144, 208
-0.992387, 329, 313, 392, 375
-0.992387, 385, 193, 448, 224
-0.99239, 361, 161, 424, 192
-0.992399, 33, 193, 96, 320
-0.992415, 369, 109, 432, 140
-0.992422, 329, 29, 392, 60
-0.992426, 417, 193, 480, 224
-0.992428, 105, 205, 168, 236
-0.992447, 5, 209, 36, 272
-0.992448, 177, 321, 208, 352
-0.99245, 1, 305, 64, 336
-0.992461, 369, 77, 432, 108
-0.992498, 1, 213, 64, 244
-0.992507, 121, 177, 152, 240
-0.99251, 401, 73, 464, 104
-0.992513, 177, 153, 240, 216
-0.992513, 441, 65, 472, 128
-0.992516, 113, 165, 176, 196
-0.992522, 369, 217, 496, 280
-0.992526, 105, 37, 168, 68
-0.992532, 1, 225, 64, 256
-0.992539, 209, 313, 272, 344
-0.992555, 145, 217, 208, 248
-0.992559, 113, 21, 176, 52
-0.99256, 393, 305, 456, 336
-0.992572, 1, 241, 64, 272
-0.992576, 393, 65, 456, 192
-0.992578, 345, 109, 408, 140
-0.992587, 157, 329, 188, 360
-0.99259, 329, 161, 392, 192
-0.992594, 17, 177, 80, 208
-0.992605, 369, 89, 432, 120
-0.992611, 89, 1, 152, 375
-0.992612, 49, 205, 112, 236
-0.992626, 417, 181, 480, 212
-0.992627, 137, 157, 200, 188
-0.99263, 361, 121, 424, 152
-0.99263, 297, 201, 360, 232
-0.992634, 433, 269, 496, 300
-0.99264, 361, 29, 424, 60
-0.992641, 369, 289, 432, 320
-0.992656, 145, 21, 208, 52
-0.992663, 321, 69, 384, 100
-0.992667, 361, 145, 392, 208
-0.992699, 105, 313, 168, 344
-0.992701, 393, 293, 456, 324
-0.992751, 153, 153, 184, 216
-0.99276, 361, 105, 392, 168
-0.992768, 289, 29, 352, 60
-0.992781, 297, 1, 360, 256
-0.992786, 337, 197, 400, 228
-0.992822, 113, 177, 176, 208
-0.992834, 73, 213, 136, 244
-0.992849, 149, 341, 180, 372
-0.992851, 321, 109, 384, 140
-0.992851, 289, 45, 352, 76
-0.992853, 241, 97, 368, 160
-0.992862, 173, 333, 204, 364
-0.992865, 117, 129, 148, 256
-0.992869, 345, 73, 408, 104
-0.992869, 89, 181, 152, 212
-0.992869, 425, 253, 456, 284
-0.992883, 369, 277, 432, 308
-0.992895, 329, 121, 392, 152
-0.992898, 289, 77, 352, 108
-0.992899, 361, 317, 424, 348
-0.992916, 289, 65, 352, 96
-0.992919, 401, 61, 464, 92
-0.992921, 329, 17, 392, 48
-0.99293, 97, 217, 160, 248
-0.992941, 137, 301, 200, 332
-0.992943, 249, 321, 312, 352
-0.992954, 321, 281, 448, 344
-0.992955, 289, 17, 352, 48
-0.99296, 169, 289, 232, 352
-0.992962, 397, 269, 428, 300
-0.992968, 33, 165, 64, 196
-0.992975, 145, 169, 208, 200
-0.992979, 49, 165, 112, 196
-0.992987, 289, 101, 352, 132
-0.99299, 153, 201, 184, 232
-0.992998, 145, 81, 208, 112
-0.993002, 409, 265, 440, 296
-0.99301, 297, 173, 360, 204
-0.993014, 393, 345, 456, 375
-0.993018, 449, 249, 480, 280
-0.993031, 145, 69, 208, 100
-0.993052, 169, 33, 200, 96
-0.993062, 289, 89, 352, 120
-0.993064, 177, 181, 240, 212
-0.993065, 405, 297, 436, 328
-0.993066, 273, 209, 400, 272
-0.993066, 189, 321, 220, 352
-0.993067, 321, 57, 384, 88
-0.993069, 469, 261, 500, 292
-0.993071, 409, 277, 440, 308
-0.993074, 241, 297, 368, 360
-0.993081, 121, 217, 184, 248
-0.993107, 361, 213, 424, 244
-0.993108, 369, 65, 432, 96
-0.993108, 297, 189, 360, 220
-0.993111, 161, 161, 288, 224
-0.993132, 177, 37, 240, 68
-0.993137, 105, 9, 168, 72
-0.99314, 9, 249, 40, 280
-0.993145, 329, 97, 392, 128
-0.993148, 177, 61, 240, 92
-0.993153, 177, 17, 240, 48
-0.993158, 177, 309, 208, 340
-0.993163, 445, 73, 476, 104
-0.993166, 25, 201, 88, 232
-0.993169, 169, 205, 232, 236
-0.993173, 393, 281, 424, 312
-0.993177, 113, 81, 176, 112
-0.993178, 113, 153, 176, 184
-0.993179, 321, 45, 384, 76
-0.993182, 321, 141, 384, 172
-0.993186, 393, 173, 424, 204
-0.99319, 289, 297, 352, 360
-0.993193, 141, 185, 172, 216
-0.993209, 73, 25, 136, 56
-0.993218, 145, 49, 208, 80
-0.993229, 177, 49, 240, 80
-0.99323, 385, 213, 448, 244
-0.993231, 81, 165, 144, 196
-0.993232, 421, 265, 452, 296
-0.993232, 177, 345, 208, 375
-0.993234, 165, 193, 196, 224
-0.993236, 401, 89, 464, 120
-0.993236, 393, 157, 456, 188
-0.993241, 1, 153, 64, 184
-0.99325, 105, 17, 136, 144
-0.993251, 457, 77, 488, 108
-0.993262, 197, 333, 228, 364
-0.993271, 81, 145, 144, 176
-0.993271, 1, 189, 64, 220
-0.993275, 145, 145, 208, 176
-0.993283, 353, 41, 480, 104
-0.993283, 105, 69, 168, 100
-0.993286, 177, 169, 240, 200
-0.99329, 149, 317, 180, 348
-0.993291, 361, 17, 424, 48
-0.993307, 121, 141, 184, 172
-0.993314, 169, 193, 232, 224
-0.993323, 209, 321, 240, 352
-0.993325, 49, 177, 112, 208
-0.993326, 97, 193, 160, 224
-0.993327, 137, 317, 168, 348
-0.993328, 381, 173, 412, 204
-0.993331, 393, 109, 424, 140
-0.993344, 145, 93, 208, 124
-0.993351, 401, 345, 432, 375
-0.993351, 113, 241, 176, 368
-0.993353, 185, 333, 216, 364
-0.993358, 49, 193, 112, 224
-0.99336, 457, 261, 488, 292
-0.993366, 341, 181, 372, 212
-0.993371, 333, 85, 364, 116
-0.99338, 145, 329, 176, 360
-0.993386, 9, 277, 40, 308
-0.993387, 189, 345, 220, 375
-0.99339, 13, 309, 44, 340
-0.993391, 357, 173, 388, 204
-0.993401, 437, 249, 468, 280
-0.993401, 189, 309, 220, 340
-0.993407, 13, 329, 44, 360
-0.993409, 9, 261, 40, 292
-0.99341, 165, 181, 196, 212
-0.99341, 461, 249, 492, 280
-0.993413, 417, 197, 448, 228
-0.993414, 133, 205, 164, 236
-0.993417, 361, 161, 392, 192
-0.993418, 389, 73, 420, 104
-0.993418, 5, 237, 36, 268
-0.993423, 117, 181, 148, 212
-0.993424, 389, 29, 420, 60
-0.993427, 209, 333, 240, 364
-0.993429, 381, 109, 412, 140
-0.993435, 97, 213, 128, 244
-0.993437, 397, 97, 428, 224
-0.993442, 169, 33, 200, 64
-0.993446, 153, 181, 184, 212
-0.993448, 369, 177, 400, 208
-0.993449, 5, 209, 36, 240
-0.993456, 117, 165, 148, 196
-0.993456, 9, 289, 40, 320
-0.993461, 457, 73, 488, 136
-0.993461, 461, 225, 492, 352
-0.993462, 117, 37, 148, 68
-0.993466, 97, 181, 128, 212
-0.993473, 341, 213, 372, 244
-0.993473, 333, 109, 364, 140
-0.993478, 445, 237, 476, 268
-0.99348, 397, 257, 428, 288
-0.993485, 333, 65, 364, 128
-0.993486, 361, 77, 392, 108
-0.993487, 393, 293, 424, 324
-0.993487, 433, 265, 464, 296
-0.99349, 101, 201, 132, 232
-0.993495, 165, 153, 196, 216
-0.993497, 149, 29, 180, 60
-0.993499, 129, 21, 160, 52
-0.993501, 413, 173, 444, 204
-0.993504, 449, 89, 480, 120
-0.99351, 385, 269, 416, 300
-0.99351, 333, 69, 364, 100
-0.993513, 333, 29, 364, 60
-0.993515, 357, 213, 388, 244
-0.99352, 121, 205, 152, 236
-0.993521, 349, 161, 380, 192
-0.993521, 137, 345, 168, 375
-0.993521, 165, 305, 196, 336
-0.993523, 373, 177, 404, 240
-0.993524, 137, 165, 168, 196
-0.993524, 133, 145, 164, 176
-0.993526, 385, 157, 416, 188
-0.993527, 337, 201, 368, 232
-0.993531, 465, 189, 496, 220
-0.993538, 161, 9, 288, 72
-0.99354, 1, 193, 32, 224
-0.993546, 417, 185, 448, 216
-0.993547, 305, 1, 432, 64
-0.99355, 17, 341, 48, 372
-0.99355, 361, 113, 392, 144
-0.993555, 361, 141, 392, 172
-0.993556, 129, 177, 160, 208
-0.993556, 129, 333, 160, 364
-0.993557, 373, 161, 404, 192
-0.99356, 165, 205, 196, 236
-0.993566, 33, 181, 64, 212
-0.993568, 369, 213, 400, 244
-0.993571, 5, 221, 36, 252
-0.993572, 25, 205, 56, 236
-0.993573, 45, 165, 76, 196
-0.993573, 65, 113, 192, 176
-0.993573, 141, 17, 172, 48
-0.993574, 145, 305, 176, 336
-0.993577, 441, 345, 472, 375
-0.993584, 377, 73, 408, 104
-0.993584, 165, 145, 196, 176
-0.993584, 105, 61, 136, 92
-0.993586, 165, 157, 196, 188
-0.993591, 445, 261, 476, 292
-0.993595, 117, 25, 148, 56
-0.993596, 109, 213, 140, 244
-0.993597, 373, 145, 404, 208
-0.993601, 409, 69, 440, 100
-0.993615, 353, 125, 384, 156
-0.993617, 165, 21, 196, 52
-0.993618, 149, 165, 180, 196
-0.99362, 165, 217, 196, 248
-0.99362, 121, 345, 152, 375
-0.99362, 121, 153, 152, 184
-0.993622, 133, 217, 164, 248
-0.993623, 229, 313, 260, 344
-0.993624, 397, 161, 428, 192
-0.993625, 121, 93, 152, 124
-0.993626, 337, 169, 368, 200
-0.99363, 417, 289, 448, 320
-0.993634, 393, 85, 424, 116
-0.993634, 133, 177, 164, 304
-0.993638, 97, 49, 128, 80
-0.993638, 121, 81, 152, 112
-0.993653, 333, 25, 364, 88
-0.993717, 413, 177, 444, 240
-0.993839, 13, 305, 44, 368
-0.993896, 241, 1, 368, 64
-0.993901, 129, 129, 160, 256
-0.993929, 49, 193, 112, 256
-0.99393, 177, 129, 240, 375
-0.993947, 397, 65, 428, 128
-0.993972, 297, 209, 360, 272
-0.993985, 105, 33, 136, 96
-0.994012, 413, 129, 444, 256
-0.994019, 89, 57, 152, 120
-0.994025, 177, 1, 240, 375
-0.994036, 321, 257, 448, 320
-0.994047, 341, 177, 372, 304
-0.994049, 449, 193, 480, 320
-0.994059, 381, 65, 412, 128
-0.994065, 1, 97, 64, 224
-0.994113, 401, 17, 432, 144
-0.994117, 401, 129, 464, 375
-0.99413, 33, 145, 64, 272
-0.994155, 289, 1, 352, 64
-0.994156, 205, 313, 236, 375
-0.994158, 25, 129, 88, 375
-0.994198, 149, 33, 180, 96
-0.994213, 209, 161, 336, 288
-0.994214, 297, 225, 360, 352
-0.994223, 297, 105, 360, 168
-0.994239, 381, 193, 412, 320
-0.994273, 1, 1, 64, 375
-0.994277, 241, 161, 368, 224
-0.99438, 417, 201, 448, 264
-0.994387, 133, 201, 164, 264
-0.994448, 161, 81, 288, 144
-0.994486, 385, 169, 416, 232
-0.99452, 1, 289, 256, 352
-0.994545, 153, 145, 184, 272
-0.994572, 177, 97, 240, 160
-0.994627, 333, 89, 364, 152
-0.994629, 393, 137, 424, 200
-0.994639, 177, 33, 240, 288
-0.994669, 297, 129, 360, 375
-0.994705, 353, 201, 416, 264
-0.994712, 257, 121, 384, 184
-0.994753, 49, 89, 176, 152
-0.994758, 425, 1, 488, 256
-0.994801, 25, 193, 88, 256
-0.994824, 257, 177, 500, 240
-0.994832, 121, 73, 152, 136
-0.994847, 161, 209, 288, 272
-0.994856, 333, 81, 364, 208
-0.994873, 413, 305, 444, 368
-0.994874, 129, 345, 256, 375
-0.99488, 105, 57, 136, 120
-0.994882, 129, 321, 256, 352
-0.994893, 41, 281, 104, 344
-0.994918, 433, 273, 496, 336
-0.994968, 425, 1, 488, 375
-0.995007, 81, 225, 208, 288
-0.995029, 297, 1, 360, 375
-0.995033, 149, 73, 180, 136
-0.995042, 321, 233, 448, 296
-0.995056, 33, 57, 160, 120
-0.995107, 257, 201, 500, 264
-0.995109, 129, 333, 256, 364
-0.995116, 297, 137, 360, 200
-0.995128, 145, 313, 176, 375
-0.995157, 465, 185, 496, 248
-0.995169, 81, 121, 144, 184
-0.995227, 97, 313, 352, 375
-0.995277, 45, 169, 76, 232
-0.995314, 1, 65, 500, 128
-0.995351, 329, 1, 392, 64
-0.995394, 385, 113, 448, 176
-0.995416, 129, 33, 160, 96
-0.995468, 165, 129, 196, 256
-0.995577, 113, 177, 144, 304
-0.995579, 81, 329, 208, 360
-0.995588, 385, 313, 416, 375
-0.995626, 181, 17, 212, 144
-0.995632, 341, 145, 372, 208
-0.995646, 341, 121, 372, 184
-0.995653, 1, 33, 500, 96
-0.995706, 145, 129, 176, 192
-0.995718, 225, 313, 480, 375
-0.995724, 365, 161, 396, 288
-0.995751, 409, 281, 424, 344
-0.995764, 349, 33, 380, 160
-0.995957, 373, 105, 404, 168
-0.995988, 133, 73, 164, 136
-0.995996, 397, 241, 428, 304
-0.996022, 459, 65, 474, 128
-0.996025, 113, 97, 176, 352
-0.996026, 81, 345, 208, 375
-0.996054, 65, 197, 192, 228
-0.996067, 121, 113, 152, 176
-0.996075, 1, 33, 64, 288
-0.996161, 65, 33, 128, 96
-0.996164, 161, 105, 288, 168
-0.996204, 305, 29, 432, 60
-0.996205, 317, 33, 348, 160
-0.996239, 1, 169, 500, 232
-0.996249, 177, 281, 304, 344
-0.996256, 163, 313, 178, 375
-0.996266, 1, 177, 32, 240
-0.996282, 1, 205, 128, 236
-0.996282, 353, 161, 384, 288
-0.996287, 353, 81, 384, 144
-0.996295, 121, 145, 152, 208
-0.996363, 403, 257, 418, 320
-0.996363, 177, 193, 208, 256
-0.996365, 73, 129, 136, 375
-0.996376, 161, 65, 192, 192
-0.996407, 401, 89, 432, 152
-0.996417, 93, 25, 124, 88
-0.996419, 225, 273, 480, 336
-0.996441, 1, 153, 256, 216
-0.996443, 97, 37, 224, 68
-0.996458, 33, 185, 288, 248
-0.996463, 1, 209, 256, 272
-0.996496, 415, 265, 430, 328
-0.99652, 65, 185, 192, 216
-0.996526, 209, 233, 336, 296
-0.996541, 321, 173, 448, 204
-0.996557, 305, 85, 432, 116
-0.9966, 145, 9, 208, 72
-0.996608, 187, 305, 202, 368
-0.996623, 161, 309, 288, 340
-0.996649, 161, 241, 192, 368
-0.996668, 445, 257, 476, 320
-0.996682, 305, 109, 432, 140
-0.996682, 161, 177, 416, 240
-0.99669, 129, 265, 256, 328
-0.996711, 1, 313, 500, 375
-0.996734, 445, 241, 476, 368
-0.99674, 273, 273, 400, 336
-0.996758, 433, 177, 464, 304
-0.996764, 353, 201, 480, 232
-0.996772, 161, 129, 288, 192
-0.996776, 17, 165, 144, 196
-0.996782, 177, 113, 304, 240
-0.99681, 329, 289, 392, 352
-0.996811, 121, 201, 152, 264
-0.996814, 169, 313, 184, 375
-0.996835, 225, 185, 352, 248
-0.996848, 305, 121, 432, 152
-0.996854, 341, 201, 372, 264
-0.996859, 325, 161, 356, 288
-0.996871, 1, 285, 128, 316
-0.996877, 1, 121, 64, 184
-0.996923, 369, 257, 496, 288
-0.996929, 353, 17, 480, 80
-0.996934, 149, 65, 180, 192
-0.996948, 369, 65, 400, 128
-0.996951, 97, 41, 352, 104
-0.996951, 321, 185, 448, 216
-0.996996, 1, 97, 32, 224
-0.997005, 1, 33, 256, 96
-0.997017, 81, 317, 208, 348
-0.997024, 409, 65, 440, 128
-0.997024, 197, 305, 212, 368
-0.997038, 5, 145, 36, 272
-0.997039, 181, 305, 196, 368
-0.997043, 337, 1, 368, 256
-0.997097, 1, 217, 128, 248
-0.997108, 381, 25, 412, 88
-0.997125, 353, 73, 480, 104
-0.997144, 147, 313, 162, 375
-0.997149, 179, 321, 194, 352
-0.99715, 49, 213, 176, 244
-0.997167, 49, 265, 176, 328
-0.997172, 467, 249, 482, 312
-0.997184, 353, 213, 480, 244
-0.997217, 161, 145, 416, 208
-0.997218, 165, 177, 196, 304
-0.997255, 97, 209, 224, 240
-0.997261, 173, 73, 204, 136
-0.997304, 405, 33, 436, 96
-0.997317, 13, 241, 28, 304
-0.997323, 113, 33, 128, 96
-0.997324, 97, 289, 352, 352
-0.997324, 409, 257, 424, 320
-0.997331, 145, 177, 160, 240
-0.997333, 129, 185, 256, 216
-0.99734, 217, 1, 280, 128
-0.997357, 413, 281, 444, 344
-0.997364, 161, 73, 192, 136
-0.997382, 33, 145, 96, 208
-0.997387, 121, 33, 136, 96
-0.997391, 161, 89, 416, 152
-0.997396, 305, 157, 432, 188
-0.997402, 49, 97, 112, 352
-0.997405, 249, 1, 312, 128
-0.997411, 157, 313, 172, 375
-0.997412, 439, 241, 454, 304
-0.997418, 257, 145, 500, 208
-0.997418, 145, 209, 176, 336
-0.997422, 465, 225, 496, 288
-0.997424, 403, 289, 418, 352
-0.997426, 369, 177, 496, 208
-0.997449, 209, 321, 336, 352
-0.99745, 305, 213, 432, 244
-0.997465, 135, 177, 150, 240
-0.99748, 97, 173, 224, 204
-0.997494, 49, 1, 112, 375
-0.997502, 305, 73, 432, 104
-0.997529, 151, 177, 166, 240
-0.997536, 373, 17, 404, 144
-0.997537, 143, 201, 158, 264
-0.997554, 459, 73, 474, 104
-0.997568, 185, 225, 248, 288
-0.997569, 17, 177, 144, 208
-0.997571, 249, 65, 312, 128
-0.997574, 1, 269, 128, 300
-0.997578, 257, 233, 500, 296
-0.997578, 161, 289, 192, 352
-0.997582, 417, 25, 448, 88
-0.997599, 1, 337, 128, 368
-0.997603, 413, 17, 444, 144
-0.997606, 177, 185, 192, 248
-0.997608, 161, 233, 288, 296
-0.99762, 97, 161, 224, 192
-0.997624, 33, 209, 64, 336
-0.997626, 305, 53, 432, 84
-0.997635, 393, 105, 408, 168
-0.997642, 1, 137, 32, 200
-0.997648, 97, 65, 352, 128
-0.997654, 1, 241, 32, 368
-0.997655, 305, 41, 432, 72
-0.997657, 257, 289, 320, 352
-0.99766, 217, 65, 280, 128
-0.997664, 177, 333, 304, 364
-0.997666, 1, 297, 128, 328
-0.997673, 385, 145, 400, 208
-0.997675, 129, 197, 256, 228
-0.997681, 47, 161, 62, 224
-0.997685, 229, 305, 260, 368
-0.997685, 413, 277, 428, 308
-0.997686, 305, 97, 432, 128
-0.997688, 5, 273, 20, 336
-0.997701, 113, 93, 240, 124
-0.997703, 173, 65, 204, 192
-0.997706, 361, 1, 392, 256
-0.997709, 415, 297, 430, 360
-0.997714, 369, 269, 496, 300
-0.997729, 169, 313, 184, 344
-0.997746, 427, 177, 442, 240
-0.997748, 399, 105, 414, 168
-0.997753, 249, 241, 312, 368
-0.99777, 3, 249, 18, 312
-0.997773, 7, 297, 22, 360
-0.997785, 369, 189, 496, 220
-0.997791, 1, 265, 256, 328
-0.997792, 397, 1, 428, 256
-0.997797, 161, 321, 176, 352
-0.997808, 137, 201, 152, 264
-0.99781, 379, 177, 394, 240
-0.997812, 165, 129, 196, 192
-0.997818, 163, 177, 178, 240
-0.997849, 181, 333, 196, 364
-0.997855, 343, 177, 358, 240
-0.997859, 1, 313, 32, 375
-0.997875, 81, 25, 208, 56
-0.997878, 97, 49, 224, 80
-0.997879, 305, 133, 432, 164
-0.997884, 209, 209, 336, 272
-0.997891, 137, 145, 152, 208
-0.997895, 417, 177, 432, 240
-0.997899, 353, 121, 480, 152
-0.997906, 101, 193, 132, 320
-0.997913, 421, 273, 436, 336
-0.997915, 175, 333, 190, 364
-0.997917, 143, 145, 158, 208
-0.997918, 15, 289, 30, 352
-0.997919, 417, 153, 448, 216
-0.997921, 163, 153, 178, 216
-0.997923, 209, 257, 336, 320
-0.997932, 385, 177, 400, 240
-0.997942, 305, 317, 432, 348
-0.997952, 369, 137, 384, 200
-0.997958, 181, 33, 196, 96
-0.997961, 365, 169, 380, 232
-0.997961, 203, 305, 218, 368
-0.997961, 1, 89, 500, 152
-0.997966, 117, 193, 132, 256
-0.997967, 411, 169, 426, 232
-0.997973, 175, 313, 190, 375
-0.997975, 157, 177, 172, 240
-0.997978, 41, 161, 56, 224
-0.997981, 1, 65, 256, 128
-0.997996, 241, 65, 368, 96
-0.998002, 305, 17, 432, 48
-0.998006, 161, 201, 416, 264
-0.99801, 403, 269, 418, 300
-0.998016, 113, 57, 128, 120
-0.998016, 377, 145, 392, 208
-0.998017, 33, 185, 64, 248
-0.998021, 97, 9, 352, 72
-0.998023, 469, 185, 484, 248
-0.998025, 407, 105, 422, 168
-0.998026, 469, 257, 484, 288
-0.998036, 397, 265, 412, 328
-0.998037, 53, 169, 68, 232
-0.998037, 395, 169, 410, 232
-0.998039, 217, 305, 248, 368
-0.998039, 155, 329, 170, 360
-0.998049, 149, 289, 180, 352
-0.998051, 123, 177, 138, 240
-0.998052, 1, 193, 128, 224
-0.998058, 185, 317, 200, 348
-0.99806, 341, 305, 372, 368
-0.998069, 437, 249, 452, 280
-0.99807, 1, 309, 128, 340
-0.998071, 363, 145, 378, 208
-0.998075, 209, 241, 272, 368
-0.998076, 1, 325, 128, 356
-0.998077, 409, 65, 440, 192
-0.99808, 393, 145, 408, 208
-0.998086, 337, 25, 352, 88
-0.998088, 401, 129, 416, 192
-0.998089, 407, 281, 422, 312
-0.998096, 117, 65, 148, 192
-0.998098, 135, 33, 150, 96
-0.9981, 35, 161, 50, 224
-0.998102, 461, 241, 476, 304
-0.998106, 153, 105, 184, 168
-0.998118, 257, 201, 384, 232
-0.998121, 13, 265, 28, 328
-0.998123, 77, 177, 108, 240
-0.998124, 141, 305, 156, 368
-0.998128, 381, 1, 412, 256
-0.998145, 373, 169, 388, 232
-0.998147, 409, 293, 424, 324
-0.998152, 393, 65, 408, 128
-0.998161, 151, 73, 166, 136
-0.998165, 257, 121, 500, 184
-0.998174, 111, 185, 126, 248
-0.998176, 137, 105, 168, 168
-0.998177, 97, 61, 224, 92
-0.998183, 157, 145, 172, 208
-0.998189, 361, 1, 424, 64
-0.998195, 305, 201, 432, 232
-0.998196, 257, 89, 500, 152
-0.998199, 187, 329, 202, 360
-0.9982, 359, 169, 374, 232
-0.998211, 177, 129, 240, 192
-0.998219, 273, 173, 400, 204
-0.99822, 241, 93, 368, 124
-0.998225, 407, 129, 422, 192
-0.998225, 403, 169, 418, 232
-0.998235, 241, 77, 368, 108
-0.998237, 33, 153, 160, 184
-0.998237, 321, 113, 352, 240
-0.998237, 141, 129, 172, 256
-0.998244, 369, 245, 496, 276
-0.998246, 1, 225, 16, 288
-0.998253, 417, 265, 432, 296
-0.998254, 353, 153, 480, 184
-0.998256, 49, 161, 80, 288
-0.998263, 85, 219, 116, 234
-0.998264, 361, 85, 392, 100
-0.998264, 161, 61, 288, 92
-0.998264, 417, 197, 448, 212
-0.998265, 145, 313, 176, 328
-0.998266, 337, 127, 368, 142
-0.998266, 433, 11, 464, 26
-0.998267, 459, 89, 474, 152
-0.998268, 133, 149, 164, 164
-0.998268, 373, 77, 404, 92
-0.99827, 361, 79, 392, 94
-0.998271, 437, 85, 468, 100
-0.998271, 401, 75, 432, 90
-0.998271, 357, 181, 388, 196
-0.998272, 209, 355, 240, 370
-0.998276, 21, 169, 52, 232
-0.998276, 253, 99, 284, 114
-0.998276, 153, 185, 184, 200
-0.998277, 333, 79, 364, 94
-0.998277, 389, 69, 420, 84
-0.998278, 113, 37, 144, 52
-0.998278, 1, 203, 32, 218
-0.998278, 141, 319, 172, 334
-0.998278, 369, 25, 400, 88
-0.998279, 461, 269, 492, 284
-0.998279, 13, 345, 44, 360
-0.998279, 5, 215, 36, 230
-0.998279, 45, 217, 76, 232
-0.99828, 57, 209, 120, 336
-0.99828, 9, 301, 40, 316
-0.99828, 9, 263, 40, 278
-0.998281, 175, 33, 190, 96
-0.998281, 389, 31, 420, 46
-0.998283, 13, 311, 44, 326
-0.998283, 389, 293, 420, 308
-0.998283, 189, 313, 220, 328
-0.998284, 369, 181, 400, 196
-0.998284, 209, 317, 240, 332
-0.998285, 413, 185, 444, 200
-0.998285, 109, 219, 140, 234
-0.998287, 189, 347, 220, 362
-0.998288, 113, 73, 240, 104
-0.998289, 383, 89, 398, 152
-0.998289, 389, 85, 420, 100
-0.998289, 405, 25, 420, 88
-0.998291, 397, 191, 428, 206
-0.998291, 349, 121, 380, 136
-0.998291, 437, 251, 468, 266
-0.998292, 5, 243, 36, 258
-0.998294, 141, 185, 172, 200
-0.998294, 389, 215, 420, 230
-0.998294, 169, 35, 200, 50
-0.998295, 381, 111, 412, 126
-0.998295, 337, 31, 368, 46
-0.998295, 209, 325, 240, 340
-0.998296, 9, 289, 40, 304
-0.998296, 9, 295, 40, 310
-0.998297, 389, 77, 420, 92
-0.998297, 13, 319, 44, 334
-0.998298, 393, 119, 424, 134
-0.998298, 407, 65, 422, 128
-0.998298, 421, 211, 452, 226
-0.998299, 117, 181, 148, 196
-0.9983, 401, 351, 432, 366
-0.998302, 449, 265, 480, 280
-0.998302, 13, 325, 44, 340
-0.998303, 169, 181, 200, 196
-0.998303, 453, 83, 484, 98
-0.998303, 9, 273, 40, 288
-0.998305, 13, 339, 44, 354
-0.998305, 351, 65, 366, 128
-0.998306, 393, 113, 424, 128
-0.998308, 141, 361, 172, 375
-0.998308, 9, 283, 40, 298
-0.998308, 141, 193, 172, 208
-0.998312, 177, 343, 208, 358
-0.998312, 169, 359, 200, 374
-0.998313, 333, 87, 364, 102
-0.998314, 401, 213, 432, 228
-0.998315, 473, 249, 488, 312
-0.998315, 437, 1, 468, 256
-0.998315, 153, 205, 184, 220
-0.998315, 1, 253, 128, 284
-0.998316, 421, 271, 452, 286
-0.998316, 409, 273, 440, 288
-0.998317, 13, 333, 44, 348
-0.998317, 441, 353, 472, 368
-0.998319, 169, 201, 200, 216
-0.998319, 337, 217, 368, 232
-0.998319, 341, 181, 372, 196
-0.998321, 151, 201, 166, 264
-0.998322, 209, 333, 240, 348
-0.998322, 389, 285, 420, 300
-0.998322, 149, 179, 180, 194
-0.998324, 381, 117, 412, 132
-0.998327, 37, 165, 68, 180
-0.998328, 193, 325, 224, 340
-0.998329, 165, 197, 180, 228
-0.998329, 121, 73, 136, 136
-0.998331, 9, 257, 40, 272
-0.998331, 449, 253, 480, 268
-0.998333, 165, 313, 196, 328
-0.998333, 129, 183, 160, 198
-0.998333, 341, 115, 372, 130
-0.998334, 405, 305, 436, 320
-0.998336, 433, 269, 464, 284
-0.998337, 415, 25, 430, 88
-0.998338, 97, 215, 128, 230
-0.998338, 401, 289, 432, 304
-0.998338, 361, 115, 392, 130
-0.998339, 417, 205, 448, 220
-0.99834, 425, 255, 456, 270
-0.99834, 361, 121, 392, 136
-0.998341, 449, 259, 480, 274
-0.998341, 131, 145, 146, 208
-0.998341, 169, 185, 184, 248
-0.998341, 273, 185, 400, 216
-0.998341, 105, 185, 120, 248
-0.998343, 101, 97, 132, 224
-0.998344, 193, 335, 224, 350
-0.998344, 33, 171, 64, 186
-0.998345, 397, 175, 428, 190
-0.998346, 189, 319, 220, 334
-0.998346, 401, 357, 432, 372
-0.998347, 141, 331, 172, 346
-0.998347, 453, 77, 484, 92
-0.998347, 145, 355, 176, 370
-0.998347, 333, 121, 364, 136
-0.998347, 377, 105, 392, 168
-0.998348, 173, 349, 204, 364
-0.998349, 349, 175, 380, 190
-0.99835, 169, 153, 184, 216
-0.99835, 117, 1, 148, 256
-0.99835, 397, 277, 428, 292
-0.998353, 57, 257, 120, 320
-0.998353, 141, 325, 172, 340
-0.998354, 165, 195, 196, 210
-0.998354, 433, 177, 448, 240
-0.998355, 381, 175, 412, 190
-0.998357, 401, 295, 432, 310
-0.998364, 5, 249, 36, 264
-0.998364, 179, 309, 194, 340
-0.998365, 415, 49, 430, 112
-0.998365, 129, 73, 144, 136
-0.998367, 401, 283, 432, 298
-0.998367, 193, 341, 224, 356
-0.998367, 385, 65, 400, 128
-0.998367, 223, 313, 238, 375
-0.998369, 425, 1, 456, 256
-0.998372, 357, 145, 372, 208
-0.998376, 17, 121, 144, 184
-0.99838, 147, 345, 162, 375
-0.998386, 429, 261, 460, 276
-0.99839, 361, 175, 392, 190
-0.99839, 353, 177, 368, 240
-0.998393, 345, 81, 376, 208
-0.998394, 353, 109, 480, 140
-0.998395, 433, 201, 448, 264
-0.998399, 433, 241, 448, 304
-0.998401, 149, 347, 180, 362
-0.998401, 149, 199, 180, 214
-0.998401, 257, 233, 384, 296
-0.998404, 469, 261, 500, 276
-0.998405, 317, 65, 348, 128
-0.998406, 409, 265, 440, 280
-0.998408, 127, 33, 142, 96
-0.99841, 369, 345, 496, 375
-0.99841, 177, 317, 208, 332
-0.998414, 445, 257, 460, 320
-0.998415, 325, 185, 356, 248
-0.998416, 135, 113, 150, 176
-0.998417, 153, 341, 184, 356
-0.998423, 1, 281, 500, 344
-0.998426, 475, 261, 490, 292
-0.998429, 159, 201, 174, 232
-0.99843, 349, 1, 380, 256
-0.998432, 463, 253, 478, 284
-0.998436, 369, 281, 496, 312
-0.998439, 163, 185, 178, 216
-0.998445, 145, 73, 160, 136
-0.998446, 33, 25, 160, 56
-0.998451, 209, 121, 336, 184
-0.998453, 161, 73, 176, 136
-0.998457, 143, 197, 158, 228
-0.998458, 151, 153, 166, 216
-0.998464, 191, 317, 206, 348
-0.998465, 153, 323, 216, 338
-0.998465, 129, 177, 144, 240
-0.998466, 157, 319, 188, 334
-0.998468, 199, 321, 214, 352
-0.99847, 453, 65, 468, 128
-0.998471, 241, 37, 368, 68
-0.998472, 173, 335, 204, 350
-0.998476, 479, 249, 494, 312
-0.998479, 397, 269, 428, 284
-0.998479, 97, 149, 224, 180
-0.998481, 177, 329, 208, 344
-0.998482, 145, 337, 208, 352
-0.998483, 481, 261, 496, 292
-0.998483, 399, 313, 414, 375
-0.998487, 389, 25, 404, 88
-0.998493, 145, 33, 160, 96
-0.998493, 165, 33, 180, 96
-0.998493, 135, 73, 150, 136
-0.998493, 133, 65, 164, 192
-0.998498, 177, 323, 208, 338
-0.998498, 153, 185, 168, 216
-0.998502, 411, 265, 426, 296
-0.998504, 17, 313, 32, 375
-0.998505, 145, 209, 272, 240
-0.998512, 11, 245, 26, 276
-0.998517, 169, 329, 184, 360
-0.99852, 399, 81, 414, 144
-0.998522, 209, 305, 224, 368
-0.998527, 157, 333, 188, 348
-0.998527, 145, 343, 208, 358
-0.998529, 395, 109, 410, 140
-0.998533, 445, 89, 476, 152
-0.998535, 151, 121, 166, 184
-0.998537, 143, 105, 158, 168
-0.998537, 161, 41, 288, 72
-0.998539, 145, 331, 208, 346
-0.998539, 357, 65, 372, 128
-0.998539, 157, 201, 172, 264
-0.998541, 129, 359, 192, 374
-0.998549, 125, 241, 156, 368
-0.998554, 169, 73, 184, 136
-0.998554, 425, 255, 488, 270
-0.998554, 409, 173, 424, 204
-0.998563, 173, 241, 204, 368
-0.998566, 359, 25, 374, 88
-0.998567, 353, 89, 480, 120
-0.998569, 241, 53, 368, 84
-0.998571, 1, 113, 500, 176
-0.998574, 369, 165, 496, 196
-0.998578, 169, 329, 232, 344
-0.998586, 161, 325, 192, 340
-0.998586, 1, 241, 128, 272
-0.998587, 425, 261, 488, 276
-0.998587, 145, 317, 208, 332
-0.998587, 363, 105, 378, 168
-0.998587, 305, 145, 432, 176
-0.998588, 177, 321, 240, 336
-0.99859, 137, 351, 200, 366
-0.998595, 175, 145, 190, 208
-0.998596, 467, 225, 482, 288
-0.998603, 113, 329, 176, 344
-0.998606, 419, 173, 434, 204
-0.998608, 385, 267, 448, 282
-0.998609, 35, 165, 50, 196
-0.998612, 375, 65, 390, 128
-0.998617, 9, 217, 24, 280
-0.998619, 337, 175, 400, 190
-0.998621, 1, 273, 64, 288
-0.998621, 361, 177, 424, 192
-0.998623, 143, 185, 158, 216
-0.998626, 169, 315, 232, 330
-0.998627, 129, 323, 192, 338
-0.998628, 1, 279, 64, 294
-0.998633, 427, 261, 442, 292
-0.998634, 177, 113, 208, 240
-0.998635, 17, 171, 80, 186
-0.998636, 169, 349, 232, 364
-0.998637, 413, 345, 428, 375
-0.998637, 329, 121, 392, 136
-0.99864, 145, 37, 208, 52
-0.998641, 105, 345, 168, 360
-0.998642, 409, 267, 472, 282
-0.998644, 409, 359, 472, 374
-0.998644, 329, 185, 392, 200
-0.998645, 443, 253, 458, 284
-0.998645, 1, 265, 64, 280
-0.998645, 329, 87, 392, 102
-0.998646, 205, 321, 220, 352
-0.998649, 401, 261, 464, 276
-0.998652, 113, 335, 176, 350
-0.998652, 385, 205, 448, 220
-0.998653, 415, 301, 430, 332
-0.998653, 401, 1, 464, 64
-0.998653, 171, 201, 186, 232
-0.998653, 145, 181, 208, 196
-0.998654, 185, 341, 248, 356
-0.998654, 145, 201, 208, 216
-0.998655, 9, 337, 72, 352
-0.998657, 121, 317, 184, 332
-0.998657, 185, 335, 248, 350
-0.998658, 387, 109, 402, 140
-0.998659, 97, 161, 128, 224
-0.99866, 1, 255, 64, 270
-0.998661, 417, 209, 480, 224
-0.998664, 97, 351, 160, 366
-0.998665, 417, 195, 480, 210
-0.998665, 401, 273, 464, 288
-0.998666, 1, 229, 128, 260
-0.998668, 385, 191, 448, 206
-0.998669, 431, 201, 446, 232
-0.998669, 93, 49, 124, 176
-0.99867, 1, 297, 64, 312
-0.998672, 1, 249, 64, 264
-0.998672, 1, 207, 64, 222
-0.998673, 361, 113, 424, 128
-0.998674, 369, 85, 432, 100
-0.998675, 361, 119, 424, 134
-0.998675, 1, 285, 64, 300
-0.998675, 161, 355, 224, 370
-0.998676, 385, 213, 448, 228
-0.998676, 97, 361, 160, 375
-0.998677, 15, 297, 30, 328
-0.998677, 89, 219, 152, 234
-0.998677, 129, 25, 256, 56
-0.998678, 329, 115, 392, 130
-0.998679, 1, 291, 64, 306
-0.998679, 337, 209, 400, 224
-0.998679, 199, 333, 214, 364
-0.998681, 1, 165, 64, 180
-0.998682, 1, 309, 64, 324
-0.998683, 169, 1, 200, 256
-0.998684, 385, 175, 448, 190
-0.998685, 13, 285, 28, 316
-0.998685, 145, 209, 208, 224
-0.998685, 97, 305, 224, 336
-0.998686, 329, 31, 392, 46
-0.998686, 21, 161, 52, 288
-0.998686, 1, 303, 64, 318
-0.998686, 1, 315, 64, 330
-0.998688, 145, 193, 208, 208
-0.998689, 137, 205, 152, 236
-0.99869, 105, 39, 168, 54
-0.99869, 361, 215, 424, 230
-0.998691, 401, 69, 464, 84
-0.998691, 433, 269, 496, 284
-0.998691, 9, 343, 72, 358
-0.998692, 1, 201, 64, 216
-0.998692, 321, 77, 384, 92
-0.998693, 209, 323, 272, 338
-0.998693, 225, 289, 288, 352
-0.998693, 1, 215, 64, 230
-0.998694, 297, 211, 360, 226
-0.998695, 401, 77, 464, 92
-0.998696, 1, 325, 64, 340
-0.998696, 417, 249, 480, 264
-0.998696, 145, 219, 208, 234
-0.998696, 1, 331, 64, 346
-0.998697, 465, 49, 496, 112
-0.998697, 17, 177, 80, 192
-0.998699, 417, 189, 480, 204
-0.998699, 49, 215, 112, 230
-0.998699, 161, 361, 224, 375
-0.998699, 353, 183, 416, 198
-0.998701, 337, 215, 400, 230
-0.998702, 361, 77, 424, 92
-0.998702, 401, 85, 464, 100
-0.998702, 329, 127, 392, 142
-0.998702, 321, 69, 384, 84
-0.998703, 9, 349, 72, 364
-0.998703, 209, 317, 272, 332
-0.998704, 49, 205, 112, 220
-0.998704, 97, 211, 160, 226
-0.998705, 105, 323, 168, 338
-0.998705, 409, 353, 472, 368
-0.998705, 385, 279, 448, 294
-0.998706, 193, 329, 208, 360
-0.998708, 313, 175, 376, 190
-0.998709, 113, 219, 176, 234
-0.998709, 289, 31, 352, 46
-0.99871, 49, 169, 112, 184
-0.99871, 9, 359, 72, 374
-0.998711, 393, 287, 456, 302
-0.998712, 105, 179, 168, 194
-0.998713, 425, 203, 488, 218
-0.998714, 297, 205, 360, 220
-0.998714, 47, 161, 62, 192
-0.998714, 145, 187, 208, 202
-0.998715, 361, 171, 424, 186
-0.998715, 121, 155, 184, 170
-0.998715, 1, 243, 64, 258
-0.998716, 297, 197, 360, 212
-0.998716, 385, 361, 448, 375
-0.998716, 289, 49, 352, 64
-0.998718, 249, 323, 312, 338
-0.998718, 393, 293, 456, 308
-0.998718, 369, 31, 432, 46
-0.998719, 137, 21, 200, 36
-0.99872, 385, 197, 448, 212
-0.99872, 289, 67, 352, 82
-0.99872, 193, 329, 256, 344
-0.99872, 417, 183, 480, 198
-0.99872, 73, 213, 136, 228
-0.998721, 289, 43, 352, 58
-0.998722, 1, 221, 64, 236
-0.998722, 369, 285, 432, 300
-0.998722, 289, 37, 352, 52
-0.998723, 393, 185, 456, 200
-0.998723, 369, 91, 432, 106
-0.998723, 297, 111, 360, 126
-0.998726, 189, 345, 204, 375
-0.998732, 225, 65, 480, 128
-0.998741, 113, 105, 240, 136
-0.998742, 99, 213, 114, 244
-0.998749, 257, 1, 320, 64
-0.998759, 117, 205, 132, 236
-0.998766, 257, 109, 384, 140
-0.998769, 353, 61, 480, 92
-0.998769, 211, 329, 226, 360
-0.998782, 321, 261, 448, 292
-0.998783, 153, 341, 168, 372
-0.99879, 1, 289, 32, 352
-0.998792, 25, 217, 88, 280
-0.998793, 147, 321, 162, 352
-0.998796, 321, 273, 448, 304
-0.998796, 13, 273, 28, 304
-0.998797, 403, 173, 418, 204
-0.998798, 149, 1, 180, 256
-0.998798, 161, 73, 288, 104
-0.9988, 407, 109, 422, 140
-0.998803, 3, 273, 18, 304
-0.998803, 161, 121, 416, 184
-0.998805, 33, 97, 288, 160
-0.998807, 81, 97, 144, 160
-0.998808, 343, 181, 358, 212
-0.998808, 337, 293, 464, 324
-0.998812, 173, 345, 188, 375
-0.998817, 161, 93, 288, 124
-0.998823, 11, 257, 26, 288
-0.998824, 49, 285, 176, 316
-0.998824, 353, 133, 480, 164
-0.998825, 5, 293, 20, 324
-0.998825, 403, 293, 418, 324
-0.998829, 365, 173, 380, 204
-0.998838, 7, 309, 22, 340
-0.998842, 3, 261, 18, 292
-0.998842, 413, 1, 444, 256
-0.99885, 241, 17, 368, 48
-0.998856, 107, 205, 122, 236
-0.998859, 305, 329, 432, 360
-0.998862, 113, 133, 240, 164
-0.998866, 33, 129, 64, 375
-0.998871, 1, 245, 16, 276
-0.998872, 153, 197, 168, 228
-0.998876, 397, 73, 412, 104
-0.998877, 41, 165, 56, 196
-0.998878, 397, 173, 412, 204
-0.99888, 175, 185, 190, 216
-0.99888, 143, 209, 158, 240
-0.998884, 97, 117, 224, 148
-0.998888, 9, 329, 24, 360
-0.998891, 415, 289, 430, 320
-0.998892, 143, 173, 158, 204
-0.998892, 17, 321, 32, 352
-0.998895, 383, 173, 398, 204
-0.998896, 401, 109, 416, 140
-0.998898, 193, 33, 448, 96
-0.998899, 183, 345, 198, 375
-0.998904, 387, 77, 402, 108
-0.998907, 433, 261, 448, 292
-0.998909, 139, 21, 154, 52
-0.998909, 113, 185, 128, 216
-0.998909, 1, 9, 500, 72
-0.998912, 145, 21, 160, 52
-0.998912, 397, 265, 412, 296
-0.998919, 479, 249, 494, 280
-0.998921, 297, 273, 360, 336
-0.998922, 369, 229, 496, 260
-0.998925, 153, 313, 168, 344
-0.998926, 9, 341, 24, 372
-0.99893, 393, 161, 408, 192
-0.998934, 469, 189, 484, 220
-0.998938, 431, 249, 446, 280
-0.998939, 387, 161, 402, 192
-0.99894, 131, 157, 146, 188
-0.998941, 113, 65, 128, 96
-0.998941, 217, 313, 232, 344
-0.998942, 77, 129, 108, 256
-0.998944, 457, 93, 472, 124
-0.998945, 353, 313, 480, 344
-0.998949, 55, 161, 70, 192
-0.99895, 33, 205, 48, 236
-0.998952, 345, 129, 376, 375
-0.998953, 15, 309, 30, 340
-0.998959, 429, 189, 444, 220
-0.99896, 211, 317, 226, 348
-0.998962, 369, 209, 384, 240
-0.99897, 209, 309, 336, 340
-0.998971, 381, 109, 396, 140
-0.998971, 125, 157, 140, 188
-0.998973, 389, 173, 404, 204
-0.998974, 181, 33, 196, 64
-0.998975, 9, 233, 24, 264
-0.998976, 273, 305, 400, 336
-0.998977, 381, 77, 396, 108
-0.998978, 365, 161, 380, 192
-0.998984, 413, 185, 428, 216
-0.998987, 181, 193, 196, 224
-0.998987, 205, 333, 220, 364
-0.998989, 359, 209, 374, 240
-0.998991, 153, 21, 168, 52
-0.998992, 101, 201, 116, 232
-0.998995, 321, 245, 448, 276
-0.998997, 393, 129, 424, 375
-0.998997, 407, 73, 422, 104
-0.998997, 123, 205, 138, 236
-0.998998, 121, 177, 136, 208
-0.999001, 17, 333, 32, 364
-0.999002, 137, 181, 152, 212
-0.999003, 143, 145, 158, 176
-0.99901, 373, 161, 388, 192
-0.999011, 121, 29, 136, 60
-0.999014, 375, 213, 390, 244
-0.999015, 97, 257, 352, 320
-0.999031, 1, 233, 16, 264
-0.999031, 223, 313, 238, 344
-0.999034, 101, 65, 132, 320
-0.999044, 145, 145, 272, 176
-0.999049, 369, 333, 496, 364
-0.999056, 161, 173, 288, 204
-0.999057, 129, 1, 160, 256
-0.999063, 357, 25, 388, 88
-0.999085, 289, 285, 416, 316
-0.99909, 1, 145, 500, 208
-0.999095, 177, 197, 304, 228
-0.999106, 469, 129, 500, 375
-0.999113, 65, 137, 192, 168
-0.999134, 49, 301, 176, 332
-0.999135, 421, 233, 452, 296
-0.99914, 353, 29, 480, 60
-0.99915, 329, 209, 360, 336
-0.999151, 181, 1, 196, 128
-0.999161, 361, 129, 392, 375
-0.999163, 165, 217, 196, 280
-0.999163, 249, 89, 312, 152
-0.999175, 97, 221, 224, 252
-0.999177, 37, 273, 68, 336
-0.999183, 401, 313, 432, 375
-0.999187, 353, 13, 480, 44
-0.999189, 145, 161, 272, 192
-0.999201, 177, 345, 304, 375
-0.999203, 405, 129, 436, 375
-0.999206, 257, 325, 384, 356
-0.999216, 405, 129, 436, 192
-0.999218, 449, 81, 480, 208
-0.999219, 33, 41, 160, 72
-0.999221, 101, 81, 132, 144
-0.999222, 449, 65, 480, 320
-0.999222, 257, 213, 384, 244
-0.999233, 225, 185, 352, 216
-0.999237, 257, 121, 384, 152
-0.999238, 33, 81, 160, 112
-0.999263, 165, 129, 196, 375
-0.999265, 175, 17, 190, 144
-0.999268, 425, 313, 488, 375
-0.999269, 9, 129, 40, 375
-0.999283, 33, 97, 160, 128
-0.999284, 381, 81, 412, 208
-0.999288, 413, 193, 428, 320
-0.999292, 305, 345, 432, 375
-0.999293, 437, 1, 468, 128
-0.999301, 1, 193, 500, 256
-0.999307, 117, 9, 148, 72
-0.999307, 113, 97, 144, 352
-0.999312, 403, 193, 418, 320
-0.999313, 177, 29, 304, 60
-0.999314, 105, 9, 136, 72
-0.999316, 321, 97, 352, 160
-0.999321, 121, 17, 136, 144
-0.999332, 145, 17, 160, 144
-0.999336, 165, 1, 180, 128
-0.999343, 33, 137, 64, 200
-0.999346, 113, 293, 240, 324
-0.999351, 193, 281, 256, 344
-0.999354, 145, 13, 272, 44
-0.999355, 5, 241, 20, 368
-0.99936, 121, 289, 152, 352
-0.999364, 405, 241, 420, 368
-0.999366, 469, 177, 484, 304
-0.999373, 153, 17, 168, 144
-0.999375, 241, 161, 368, 192
-0.999375, 137, 129, 168, 375
-0.999377, 417, 129, 448, 375
-0.999378, 135, 17, 150, 144
-0.99938, 325, 1, 356, 256
-0.999381, 1, 265, 32, 328
-0.99939, 339, 17, 354, 144
-0.999394, 15, 225, 30, 352
-0.9994, 161, 105, 288, 136
-0.999409, 419, 241, 434, 368
-0.999413, 159, 17, 174, 144
-0.99942, 253, 313, 284, 375
-0.999422, 437, 177, 468, 240
-0.999428, 373, 129, 404, 375
-0.99943, 419, 161, 434, 288
-0.999431, 397, 241, 412, 368
-0.999432, 411, 241, 426, 368
-0.999448, 347, 129, 362, 256
-0.999463, 145, 117, 272, 148
-0.999467, 443, 241, 458, 368
-0.99947, 127, 17, 142, 144
-0.999475, 437, 225, 452, 352
-0.999482, 181, 33, 212, 96
-0.999484, 277, 313, 308, 375
-0.999486, 427, 177, 442, 304
-0.999489, 435, 177, 450, 304
-0.999492, 173, 337, 188, 352
-0.999492, 145, 351, 160, 366
-0.999492, 151, 335, 166, 350
-0.999492, 437, 205, 452, 220
-0.999493, 1, 247, 16, 262
-0.999493, 151, 185, 166, 200
-0.999493, 17, 339, 32, 354
-0.999493, 343, 217, 358, 232
-0.999493, 413, 351, 428, 366
-0.999494, 195, 321, 210, 336
-0.999494, 377, 171, 392, 186
-0.999494, 17, 327, 32, 342
-0.999494, 11, 259, 26, 274
-0.999494, 3, 273, 18, 288
-0.999494, 193, 347, 208, 362
-0.999495, 415, 213, 430, 228
-0.999495, 465, 265, 480, 280
-0.999496, 397, 175, 412, 190
-0.999496, 11, 265, 26, 280
-0.999496, 407, 113, 422, 128
-0.999496, 415, 297, 430, 312
-0.999496, 221, 355, 236, 370
-0.999496, 171, 199, 186, 214
-0.999496, 181, 35, 196, 50
-0.999497, 153, 321, 168, 336
-0.999497, 17, 333, 32, 348
-0.999498, 341, 115, 356, 130
-0.999499, 427, 189, 442, 204
-0.999499, 265, 99, 280, 114
-0.999499, 363, 121, 378, 136
-0.9995, 215, 325, 230, 340
-0.9995, 1, 193, 16, 320
-0.9995, 407, 119, 422, 134
-0.999501, 15, 303, 30, 318
-0.999502, 397, 213, 412, 228
-0.999502, 89, 193, 120, 320
-0.999503, 389, 175, 404, 190
-0.999503, 439, 257, 454, 272
-0.999503, 77, 9, 108, 72
-0.999503, 207, 333, 222, 348
-0.999503, 413, 189, 428, 204
-0.999504, 181, 349, 196, 364
-0.999504, 163, 193, 178, 208
-0.999504, 357, 121, 372, 136
-0.999504, 13, 281, 28, 296
-0.999505, 47, 165, 62, 180
-0.999505, 15, 311, 30, 326
-0.999505, 463, 253, 478, 268
-0.999506, 433, 211, 448, 226
-0.999506, 103, 215, 118, 230
-0.999507, 403, 213, 418, 228
-0.999507, 179, 181, 194, 196
-0.999508, 395, 161, 410, 288
-0.999508, 433, 267, 448, 282
-0.999508, 13, 293, 28, 308
-0.999509, 165, 205, 180, 220
-0.999509, 347, 121, 362, 136
-0.99951, 377, 121, 392, 136
-0.99951, 409, 213, 424, 228
-0.999512, 417, 275, 432, 290
-0.999514, 143, 199, 158, 214
-0.999514, 153, 195, 168, 210
-0.999514, 387, 111, 402, 126
-0.999515, 257, 65, 288, 128
-0.999516, 403, 279, 418, 294
-0.999516, 399, 113, 414, 128
-0.999518, 375, 115, 390, 130
-0.999518, 355, 177, 370, 192
-0.999519, 177, 315, 192, 330
-0.999519, 353, 113, 368, 240
-0.99952, 189, 313, 204, 328
-0.99952, 13, 287, 28, 302
-0.99952, 143, 179, 158, 194
-0.999521, 367, 115, 382, 130
-0.999521, 171, 357, 186, 372
-0.999521, 201, 333, 216, 348
-0.999521, 467, 259, 482, 274
-0.999521, 387, 117, 402, 132
-0.999522, 207, 325, 222, 340
-0.999524, 343, 183, 358, 198
-0.999525, 403, 273, 418, 288
-0.999525, 393, 121, 408, 136
-0.999528, 425, 263, 440, 278
-0.999528, 347, 115, 362, 130
-0.999529, 357, 115, 372, 130
-0.999529, 195, 335, 210, 350
-0.99953, 143, 193, 158, 208
-0.99953, 341, 113, 356, 240
-0.99953, 113, 17, 128, 144
-0.999532, 9, 245, 24, 260
-0.999533, 175, 351, 190, 366
-0.999533, 181, 335, 196, 350
-0.999533, 393, 113, 408, 128
-0.999533, 189, 329, 204, 344
-0.999533, 403, 145, 418, 272
-0.999534, 145, 357, 160, 372
-0.999534, 405, 17, 420, 144
-0.999535, 151, 347, 166, 362
-0.999536, 371, 177, 386, 192
-0.999537, 413, 291, 428, 306
-0.999538, 97, 219, 112, 234
-0.99954, 1, 257, 500, 320
-0.999541, 187, 335, 202, 350
-0.999542, 411, 303, 426, 318
-0.999542, 389, 113, 404, 240
-0.999542, 457, 83, 472, 98
-0.999543, 159, 199, 174, 214
-0.999546, 351, 33, 366, 160
-0.999547, 431, 205, 446, 220
-0.999548, 419, 265, 434, 280
-0.999549, 173, 325, 188, 340
-0.999549, 409, 113, 424, 240
-0.99955, 155, 327, 170, 342
-0.99955, 443, 263, 458, 278
-0.99955, 187, 345, 202, 360
-0.99955, 189, 319, 204, 334
-0.999553, 123, 161, 138, 288
-0.999554, 143, 185, 158, 200
-0.999555, 383, 175, 398, 190
-0.999555, 403, 285, 418, 300
-0.999558, 383, 113, 398, 240
-0.999559, 187, 17, 202, 144
-0.999559, 155, 341, 170, 356
-0.999563, 197, 341, 212, 356
-0.999563, 397, 113, 412, 240
-0.999565, 377, 177, 392, 192
-0.999567, 167, 335, 182, 350
-0.999568, 345, 33, 360, 160
-0.99957, 183, 317, 198, 332
-0.999571, 411, 285, 426, 300
-0.999575, 399, 267, 414, 282
-0.999576, 415, 17, 430, 144
-0.999576, 365, 175, 380, 190
-0.999576, 161, 233, 416, 296
-0.999577, 485, 265, 500, 280
-0.99958, 163, 323, 178, 338
-0.999582, 473, 261, 488, 276
-0.999582, 173, 331, 188, 346
-0.999582, 143, 129, 158, 256
-0.999582, 139, 177, 154, 304
-0.999584, 411, 279, 426, 294
-0.999585, 405, 291, 420, 306
-0.999592, 411, 269, 426, 284
-0.999596, 65, 289, 128, 352
-0.999596, 169, 317, 184, 332
-0.999598, 377, 113, 392, 240
-0.999598, 437, 251, 452, 266
-0.999599, 361, 17, 376, 144
-0.999601, 479, 263, 494, 278
-0.999604, 179, 329, 194, 344
-0.999607, 409, 297, 424, 312
-0.999609, 161, 329, 176, 344
-0.999612, 33, 233, 288, 296
-0.999614, 133, 129, 148, 256
-0.999614, 429, 241, 444, 368
-0.99962, 389, 177, 404, 304
-0.999621, 481, 177, 496, 304
-0.999623, 371, 113, 386, 240
-0.999628, 165, 199, 180, 214
-0.999631, 115, 177, 130, 304
-0.999631, 381, 17, 396, 144
-0.999636, 391, 17, 406, 144
-0.999639, 459, 75, 474, 90
-0.999639, 49, 281, 80, 344
-0.999641, 353, 161, 368, 288
-0.999643, 381, 161, 396, 288
-0.999643, 341, 161, 356, 288
-0.999644, 157, 335, 172, 350
-0.999644, 359, 113, 374, 240
-0.999648, 325, 129, 356, 375
-0.999648, 11, 177, 26, 304
-0.99965, 365, 129, 380, 256
-0.999654, 317, 41, 348, 104
-0.999657, 417, 113, 432, 240
-0.999658, 1, 129, 256, 192
-0.999662, 375, 17, 390, 144
-0.999662, 475, 177, 490, 304
-0.999662, 131, 209, 146, 336
-0.999666, 331, 33, 346, 160
-0.999669, 347, 81, 362, 208
-0.999669, 153, 145, 168, 272
-0.999673, 47, 129, 62, 256
-0.999673, 347, 177, 362, 304
-0.999675, 375, 161, 390, 288
-0.999677, 425, 177, 456, 240
-0.999678, 121, 209, 136, 336
-0.999683, 429, 129, 460, 375
-0.999686, 481, 225, 496, 352
-0.999692, 149, 65, 164, 192
-0.999697, 459, 65, 474, 192
-0.999699, 47, 193, 62, 320
-0.9997, 97, 193, 112, 320
-0.999705, 467, 225, 482, 352
-0.999705, 179, 323, 194, 338
-0.999705, 179, 129, 194, 256
-0.999711, 367, 17, 382, 144
-0.999715, 145, 177, 160, 304
-0.999717, 105, 161, 120, 288
-0.999717, 189, 289, 220, 352
-0.999724, 429, 129, 444, 256
-0.999725, 181, 1, 212, 256
-0.999725, 45, 129, 76, 375
-0.999726, 115, 129, 130, 256
-0.999727, 341, 209, 356, 336
-0.999727, 461, 225, 476, 352
-0.999728, 1, 225, 500, 288
-0.99973, 121, 113, 136, 240
-0.99973, 403, 97, 418, 224
-0.999733, 177, 65, 192, 192
-0.999737, 1, 33, 32, 288
-0.999738, 121, 65, 136, 192
-0.99974, 357, 65, 372, 192
-0.99974, 423, 113, 438, 240
-0.999748, 435, 113, 450, 240
-0.999751, 41, 129, 56, 256
-0.999753, 171, 65, 186, 192
-0.999753, 41, 209, 56, 336
-0.999755, 53, 145, 68, 272
-0.999755, 359, 161, 374, 288
-0.999756, 335, 81, 350, 208
-0.999758, 417, 65, 432, 192
-0.999759, 399, 17, 414, 144
-0.999761, 335, 145, 350, 272
-0.999763, 159, 241, 174, 368
-0.999766, 173, 129, 188, 256
-0.999766, 369, 177, 384, 304
-0.999768, 449, 241, 464, 368
-0.99977, 35, 129, 50, 256
-0.99977, 387, 65, 402, 192
-0.999774, 475, 225, 490, 352
-0.999779, 161, 65, 176, 192
-0.99978, 183, 65, 198, 192
-0.999781, 463, 177, 478, 304
-0.999784, 121, 313, 152, 375
-0.999784, 55, 209, 70, 336
-0.999785, 163, 145, 178, 272
-0.999788, 41, 25, 104, 88
-0.999792, 143, 65, 158, 192
-0.999798, 381, 65, 396, 192
-0.999801, 179, 177, 194, 304
-0.999802, 1, 65, 16, 192
-0.999809, 445, 177, 460, 304
-0.99981, 99, 145, 114, 272
-0.999812, 155, 65, 170, 192
-0.999815, 127, 65, 142, 192
-0.999818, 93, 129, 108, 256
-0.999822, 165, 105, 196, 168
-0.999822, 1, 9, 256, 72
-0.999823, 169, 241, 184, 368
-0.999823, 149, 241, 164, 368
-0.999824, 391, 225, 406, 352
-0.999824, 1, 1, 128, 128
-0.999833, 217, 1, 280, 375
-0.999835, 135, 65, 150, 192
-0.999836, 363, 65, 378, 192
-0.999842, 189, 65, 204, 192
-0.999842, 127, 113, 142, 240
-0.999845, 7, 129, 22, 256
-0.999848, 141, 241, 156, 368
-0.999902, 53, 209, 84, 336
-0.999923, 153, 129, 184, 375
-1.00005, 93, 1, 124, 128
-1.00008, 185, 161, 216, 288
-1.0001, 1, 81, 128, 144
-1.00011, 21, 129, 52, 375
-1.00016, 125, 97, 156, 352
-1.00016, 77, 97, 108, 352
-1.00016, 193, 1, 448, 64
-1.00016, 137, 265, 200, 328
-1.00017, 289, 241, 352, 304
-1.0002, 89, 129, 120, 375
-1.0002, 433, 73, 496, 136
-1.00025, 465, 1, 496, 256
-1.00028, 361, 65, 392, 192
-1.00036, 89, 145, 120, 272
-1.00037, 57, 217, 120, 280
-1.00037, 89, 1, 120, 256
-1.00038, 177, 97, 208, 352
-1.00038, 313, 1, 344, 256
-1.00043, 33, 1, 64, 256
-1.00043, 201, 1, 232, 256
-1.00045, 433, 129, 464, 256
-1.00046, 273, 1, 336, 375
-1.00055, 57, 97, 88, 352
-1.00066, 73, 1, 104, 256
-1.00066, 25, 1, 88, 375
-1.00068, 189, 129, 220, 375
-1.00068, 265, 41, 328, 104
-1.00068, 409, 89, 472, 152
-1.00069, 297, 1, 328, 256
-1.00072, 297, 129, 328, 375
-1.00073, 21, 33, 52, 288
-1.00074, 113, 225, 144, 352
-1.00075, 57, 313, 120, 375
-1.00077, 229, 1, 260, 128
-1.00078, 213, 129, 244, 375
-1.00082, 369, 233, 432, 296
-1.00088, 281, 1, 312, 256
-1.0009, 45, 33, 76, 288
-1.00094, 277, 129, 308, 375
-1.00101, 41, 121, 104, 184
-1.00102, 213, 1, 244, 256
-1.00103, 329, 241, 392, 368
-1.00113, 445, 145, 476, 272
-1.00115, 201, 97, 232, 352
-1.00115, 185, 225, 216, 352
-1.00116, 57, 1, 88, 256
-1.00117, 233, 129, 264, 375
-1.00117, 121, 225, 184, 288
-1.00118, 217, 241, 248, 368
-1.00119, 265, 129, 296, 375
-1.00122, 229, 241, 260, 368
-1.00125, 225, 33, 256, 288
-1.00126, 253, 129, 284, 375
-1.00127, 185, 65, 216, 192
-1.00133, 313, 97, 344, 352
-1.00137, 253, 1, 284, 256
-1.00153, 269, 33, 300, 288
-1.00159, 465, 129, 496, 256
-1.0016, 241, 1, 272, 256
-1.00166, 281, 1, 312, 128
-1.00175, 425, 17, 456, 144
-1.0018, 17, 65, 144, 192
-1.00181, 249, 1, 312, 375
-1.00201, 217, 49, 280, 176
-1.00206, 49, 81, 112, 208
-1.00208, 273, 1, 336, 256
-1.00214, 465, 17, 496, 144
-1.00218, 341, 241, 372, 368
-1.00218, 425, 1, 488, 128
-1.00219, 77, 177, 108, 304
-1.0022, 65, 1, 128, 128
-1.00242, 281, 241, 312, 368
-1.00242, 297, 241, 328, 368
-1.00258, 437, 81, 468, 208
-1.00262, 273, 241, 336, 368
-1.00266, 49, 1, 112, 256
-1.00269, 29, 97, 60, 224
-1.00273, 249, 1, 280, 128
-1.00286, 421, 65, 452, 192
-1.00287, 49, 113, 80, 240
-1.00301, 265, 1, 296, 128
-1.00302, 353, 209, 384, 336
-1.00307, 417, 65, 480, 192
-1.00316, 25, 1, 88, 256
-1.0032, 253, 241, 284, 368
-1.0033, 1, 49, 32, 176
-1.00334, 377, 241, 408, 368
-1.00338, 213, 177, 244, 304
-1.00346, 201, 241, 232, 368
-1.00347, 33, 241, 96, 368
-1.00358, 193, 1, 224, 128
-1.00358, 297, 161, 328, 288
-1.00361, 241, 241, 272, 368
-1.0038, 249, 129, 312, 375
-1.00382, 65, 209, 96, 336
-1.00385, 317, 209, 348, 336
-1.0041, 217, 1, 248, 128
-1.00412, 101, 241, 132, 368
-1.00419, 453, 1, 484, 128
-1.00419, 297, 1, 328, 128
-1.00419, 273, 161, 336, 288
-1.00424, 265, 241, 296, 368
-1.00426, 89, 97, 120, 224
-1.00428, 61, 161, 92, 288
-1.00435, 257, 49, 320, 176
-1.00443, 209, 1, 272, 256
-1.00447, 465, 81, 496, 208
-1.00452, 197, 161, 228, 288
-1.00457, 13, 97, 44, 224
-1.0047, 205, 97, 236, 224
-1.00484, 365, 241, 396, 368
-1.00488, 77, 81, 108, 208
-1.00513, 261, 49, 292, 176
-1.00516, 249, 33, 312, 288
-1.00529, 209, 161, 272, 288
-1.00563, 217, 129, 280, 375
-1.00571, 273, 129, 336, 375
-1.00649, 209, 97, 272, 224
-1.00656, 25, 1, 88, 128
-1.00695, 249, 161, 312, 288
-1.00711, 257, 113, 320, 240
-1.0075, 1, 1, 64, 128
-1.00807, 25, 97, 88, 224
-1.01133, 17, 49, 80, 176
-1.01231, 233, 97, 296, 224
