1962
-0.0851408, 1, 1, 375, 500
-0.324711, 1, 129, 375, 384
-0.339665, 65, 1, 320, 500
-0.388318, 1, 225, 375, 480
-0.4295, 1, 33, 375, 288
-0.528993, 129, 1, 375, 256
-0.55881, 33, 1, 288, 256
-0.564558, 129, 161, 375, 416
-0.61295, 1, 97, 256, 352
-0.698203, 33, 225, 288, 480
-0.840442, 161, 1, 288, 256
-0.841659, 161, 1, 288, 500
-0.843212, 97, 1, 224, 500
-0.846963, 209, 1, 336, 500
-0.851767, 1, 225, 375, 352
-0.854663, 1, 177, 375, 304
-0.854672, 225, 129, 352, 384
-0.862926, 17, 1, 144, 500
-0.865069, 97, 1, 224, 256
-0.871086, 65, 97, 192, 352
-0.872723, 209, 1, 336, 256
-0.874897, 177, 97, 304, 352
-0.876588, 129, 257, 375, 500
-0.881038, 17, 129, 144, 384
-0.881549, 129, 161, 256, 416
-0.885996, 241, 225, 368, 480
-0.886525, 49, 1, 176, 256
-0.890373, 1, 129, 375, 256
-0.890855, 1, 65, 375, 192
-0.900452, 1, 273, 375, 400
-0.904264, 129, 33, 375, 160
-0.904275, 65, 193, 192, 448
-0.908713, 177, 193, 304, 448
-0.908919, 33, 225, 288, 352
-0.910684, 1, 17, 375, 144
-0.912687, 17, 257, 144, 500
-0.913166, 1, 321, 375, 448
-0.913671, 1, 33, 128, 288
-0.916884, 33, 161, 288, 288
-0.919869, 65, 81, 320, 208
-0.920972, 129, 241, 375, 368
-0.92598, 129, 177, 375, 304
-0.928321, 153, 17, 216, 144
-0.929535, 33, 289, 288, 416
-0.930186, 113, 257, 240, 500
-0.93051, 129, 129, 375, 256
-0.9315, 1, 17, 256, 144
-0.933083, 17, 257, 144, 384
-0.933766, 185, 17, 248, 144
-0.93444, 113, 33, 176, 160
-0.935754, 129, 17, 256, 144
-0.936683, 145, 97, 272, 224
-0.937339, 217, 1, 280, 128
-0.937375, 81, 49, 208, 176
-0.938536, 177, 97, 240, 224
-0.938592, 153, 81, 216, 208
-0.940186, 177, 1, 304, 128
-0.940343, 225, 97, 352, 224
-0.940361, 129, 241, 256, 368
-0.940671, 129, 161, 256, 288
-0.941464, 65, 97, 192, 224
-0.942086, 33, 209, 160, 336
-0.942172, 209, 145, 336, 272
-0.94263, 33, 241, 96, 368
-0.943339, 217, 161, 280, 288
-0.9443, 177, 49, 304, 176
-0.944494, 113, 81, 176, 208
-0.948164, 1, 369, 375, 496
-0.949117, 177, 145, 240, 272
-0.950585, 97, 129, 160, 256
-0.950861, 81, 145, 208, 272
-0.950902, 249, 1, 312, 128
-0.951116, 217, 113, 280, 240
-0.95277, 81, 81, 144, 208
-0.953218, 273, 97, 336, 224
-0.953404, 225, 193, 352, 320
-0.953829, 65, 273, 128, 400
-0.954345, 137, 145, 200, 272
-0.954408, 81, 225, 208, 352
-0.954598, 81, 1, 208, 128
-0.95488, 145, 137, 208, 200
-0.954907, 65, 225, 128, 352
-0.956862, 81, 1, 144, 128
-0.956897, 161, 33, 224, 96
-0.956953, 233, 49, 296, 176
-0.956958, 177, 193, 240, 320
-0.957284, 249, 113, 312, 240
-0.95753, 193, 1, 256, 64
-0.957783, 137, 41, 200, 104
-0.95783, 113, 65, 176, 128
-0.957902, 217, 177, 280, 240
-0.958038, 185, 145, 248, 208
-0.95839, 121, 145, 184, 208
-0.958759, 145, 289, 272, 416
-0.959083, 185, 241, 248, 368
-0.95916, 153, 161, 216, 224
-0.959261, 17, 129, 144, 256
-0.95929, 209, 49, 272, 176
-0.959636, 113, 273, 176, 400
-0.959782, 225, 17, 352, 144
-0.960303, 153, 65, 216, 128
-0.960597, 297, 113, 360, 240
-0.960788, 17, 81, 144, 208
-0.961073, 145, 241, 208, 368
-0.961091, 241, 257, 368, 384
-0.961114, 217, 33, 280, 96
-0.961341, 257, 49, 320, 176
-0.961413, 145, 9, 208, 72
-0.961968, 289, 161, 352, 288
-0.961982, 153, 105, 216, 168
-0.962035, 81, 73, 144, 136
-0.962369, 241, 17, 304, 80
-0.962439, 113, 41, 176, 104
-0.96305, 129, 289, 375, 416
-0.963083, 113, 273, 176, 336
-0.963158, 65, 273, 192, 400
-0.963327, 177, 105, 240, 168
-0.96342, 177, 169, 240, 232
-0.963501, 89, 161, 152, 224
-0.96393, 185, 249, 248, 312
-0.964462, 297, 169, 360, 232
-0.964723, 305, 241, 368, 368
-0.965105, 217, 9, 280, 72
-0.965191, 113, 1, 176, 64
-0.965351, 89, 273, 152, 400
-0.965684, 209, 321, 336, 448
-0.965874, 113, 121, 176, 184
-0.966033, 73, 281, 136, 344
-0.96605, 33, 1, 160, 128
-0.966188, 41, 193, 104, 320
-0.966195, 313, 289, 375, 416
-0.966356, 241, 161, 304, 288
-0.966518, 177, 65, 240, 128
-0.966783, 129, 89, 192, 152
-0.966883, 33, 281, 96, 344
-0.966895, 9, 209, 72, 336
-0.966972, 241, 1, 304, 256
-0.96704, 265, 153, 328, 216
-0.967254, 257, 97, 320, 160
-0.9674, 265, 185, 328, 248
-0.967579, 97, 209, 160, 336
-0.967665, 73, 161, 136, 288
-0.967898, 49, 337, 176, 464
-0.968171, 201, 289, 264, 416
-0.968187, 33, 353, 288, 480
-0.968222, 9, 257, 72, 384
-0.968287, 113, 1, 176, 256
-0.968354, 257, 65, 320, 128
-0.96871, 217, 1, 280, 256
-0.968785, 265, 161, 328, 288
-0.96901, 181, 17, 212, 144
-0.969015, 185, 33, 248, 96
-0.969078, 129, 169, 192, 232
-0.969332, 209, 105, 272, 168
-0.96936, 41, 385, 104, 448
-0.969499, 233, 105, 296, 168
-0.969618, 89, 137, 152, 200
-0.969752, 157, 1, 188, 128
-0.970125, 177, 193, 304, 320
-0.970135, 81, 105, 144, 168
-0.970268, 233, 129, 296, 192
-0.970326, 169, 1, 232, 64
-0.970372, 113, 161, 240, 224
-0.970488, 233, 73, 296, 136
-0.970695, 121, 209, 184, 336
-0.970731, 177, 1, 240, 256
-0.971207, 209, 137, 272, 200
-0.971345, 25, 249, 88, 312
-0.971365, 57, 81, 120, 208
-0.971395, 49, 321, 112, 448
-0.971402, 97, 97, 160, 352
-0.971438, 49, 241, 80, 368
-0.971449, 81, 49, 144, 112
-0.971573, 89, 185, 152, 248
-0.971873, 41, 313, 104, 376
-0.971959, 241, 169, 304, 232
-0.972034, 137, 1, 200, 256
-0.972185, 153, 249, 216, 312
-0.972581, 57, 257, 120, 320
-0.972717, 193, 241, 320, 368
-0.972731, 209, 57, 272, 120
-0.972751, 153, 273, 216, 336
-0.972773, 193, 17, 224, 144
-0.972988, 273, 1, 336, 128
-0.97303, 201, 273, 264, 336
-0.973079, 289, 193, 352, 256
-0.973184, 177, 105, 304, 168
-0.973295, 177, 225, 240, 288
-0.973315, 209, 177, 336, 240
-0.973369, 137, 273, 168, 336
-0.973442, 265, 33, 328, 288
-0.973676, 145, 193, 208, 320
-0.973747, 9, 273, 72, 336
-0.973752, 129, 249, 256, 312
-0.973759, 65, 161, 128, 224
-0.973785, 149, 41, 180, 104
-0.973802, 189, 41, 220, 104
-0.973816, 169, 33, 200, 160
-0.974024, 201, 81, 264, 144
-0.974104, 177, 9, 304, 72
-0.97416, 105, 89, 168, 152
-0.974398, 257, 41, 320, 104
-0.974451, 145, 1, 176, 128
-0.97446, 165, 41, 196, 104
-0.974463, 221, 177, 252, 240
-0.974485, 97, 137, 224, 200
-0.974572, 313, 289, 375, 352
-0.974607, 233, 97, 296, 352
-0.974801, 113, 297, 176, 360
-0.974813, 57, 33, 120, 160
-0.974977, 93, 145, 124, 208
-0.975154, 145, 97, 208, 352
-0.975287, 157, 17, 188, 80
-0.975288, 221, 145, 252, 272
-0.975424, 209, 1, 240, 64
-0.975532, 65, 161, 128, 416
-0.975536, 1, 369, 128, 496
-0.97558, 149, 153, 180, 216
-0.975632, 177, 145, 304, 208
-0.975676, 65, 281, 192, 344
-0.97577, 289, 137, 352, 200
-0.975777, 129, 249, 192, 312
-0.975799, 173, 81, 204, 208
-0.975996, 109, 81, 140, 208
-0.976035, 45, 281, 76, 344
-0.976056, 177, 33, 208, 96
-0.976079, 173, 161, 204, 224
-0.976295, 225, 153, 352, 216
-0.976413, 145, 41, 272, 104
-0.976454, 205, 49, 236, 176
-0.976481, 185, 81, 216, 208
-0.976532, 209, 225, 272, 352
-0.976535, 297, 257, 360, 320
-0.97665, 129, 273, 256, 336
-0.976697, 113, 185, 240, 248
-0.976767, 317, 169, 348, 232
-0.976814, 153, 273, 184, 336
-0.977122, 205, 1, 236, 128
-0.977153, 169, 97, 232, 352
-0.977239, 81, 89, 208, 152
-0.977364, 261, 129, 292, 256
-0.977464, 281, 113, 312, 240
-0.977479, 125, 1, 156, 128
-0.977482, 289, 217, 352, 280
-0.977556, 281, 209, 344, 336
-0.977607, 61, 273, 92, 336
-0.977659, 97, 321, 224, 448
-0.977663, 121, 273, 152, 400
-0.977667, 289, 105, 352, 168
-0.977683, 181, 105, 212, 168
-0.977736, 121, 97, 184, 352
-0.977752, 125, 281, 156, 344
-0.977795, 145, 49, 176, 176
-0.977806, 201, 297, 264, 360
-0.97798, 49, 145, 112, 272
-0.97801, 225, 129, 352, 192
-0.978026, 225, 105, 352, 168
-0.978054, 105, 169, 136, 232
-0.978139, 313, 161, 375, 288
-0.978146, 41, 89, 104, 152
-0.978155, 173, 137, 204, 200
-0.978189, 65, 185, 128, 248
-0.978195, 81, 337, 144, 464
-0.978289, 253, 1, 284, 128
-0.978328, 177, 193, 240, 256
-0.978356, 201, 33, 232, 96
-0.978377, 137, 41, 168, 104
-0.978392, 61, 241, 92, 368
-0.978511, 109, 145, 140, 208
-0.97856, 97, 97, 128, 224
-0.978575, 217, 209, 280, 272
-0.978594, 265, 1, 296, 128
-0.978718, 129, 105, 256, 168
-0.978765, 217, 1, 248, 128
-0.978799, 153, 297, 216, 360
-0.978816, 161, 97, 192, 224
-0.978885, 161, 177, 288, 240
-0.978984, 249, 9, 280, 72
-0.978988, 209, 225, 240, 352
-0.979008, 341, 289, 372, 416
-0.979133, 209, 81, 336, 144
-0.979155, 137, 137, 168, 200
-0.979158, 41, 369, 104, 496
-0.979163, 65, 177, 192, 240
-0.979204, 225, 17, 352, 80
-0.979204, 209, 97, 272, 352
-0.979217, 297, 193, 360, 448
-0.979252, 229, 289, 260, 352
-0.979317, 65, 129, 128, 192
-0.979333, 97, 33, 224, 96
-0.979364, 49, 217, 112, 280
-0.979391, 129, 1, 256, 64
-0.979466, 57, 409, 120, 472
-0.97949, 317, 161, 348, 288
-0.979541, 133, 257, 164, 384
-0.979559, 85, 273, 116, 400
-0.979566, 257, 97, 288, 160
-0.979636, 165, 97, 196, 160
-0.979701, 105, 81, 136, 144
-0.979701, 277, 161, 308, 224
-0.979718, 193, 1, 256, 500
-0.979748, 241, 201, 368, 264
-0.979796, 93, 177, 124, 240
-0.979798, 193, 145, 224, 208
-0.979811, 225, 337, 288, 464
-0.979843, 113, 1, 144, 128
-0.979849, 149, 129, 180, 192
-0.979916, 233, 1, 296, 500
-0.979946, 229, 17, 260, 80
-0.97998, 33, 65, 96, 192
-0.979999, 97, 1, 160, 500
-0.980053, 57, 49, 120, 112
-0.980075, 129, 297, 256, 360
-0.980147, 309, 97, 340, 224
-0.980287, 201, 97, 232, 224
-0.980328, 65, 113, 192, 176
-0.980375, 137, 161, 168, 224
-0.980494, 233, 329, 296, 392
-0.980499, 33, 281, 64, 344
-0.980501, 153, 241, 184, 368
-0.980736, 37, 257, 68, 384
-0.980759, 173, 161, 204, 288
-0.980797, 261, 129, 292, 192
-0.980806, 101, 145, 132, 272
-0.980837, 209, 249, 240, 312
-0.980851, 241, 265, 368, 328
-0.980957, 165, 249, 196, 312
-0.980967, 145, 9, 176, 72
-0.981027, 217, 233, 280, 296
-0.981028, 261, 153, 292, 216
-0.981083, 93, 105, 124, 168
-0.981103, 73, 273, 104, 400
-0.981116, 101, 225, 132, 352
-0.981123, 97, 65, 224, 128
-0.981133, 109, 273, 140, 400
-0.981141, 149, 161, 180, 288
-0.981226, 297, 177, 328, 240
-0.981228, 73, 1, 136, 64
-0.981334, 305, 321, 368, 384
-0.981345, 265, 17, 328, 80
-0.98135, 245, 113, 276, 240
-0.981358, 257, 1, 320, 500
-0.981377, 145, 65, 176, 128
-0.981403, 297, 65, 360, 192
-0.981433, 193, 201, 320, 264
-0.981561, 241, 289, 368, 352
-0.981662, 17, 281, 144, 344
-0.981711, 9, 257, 72, 500
-0.981724, 89, 1, 152, 256
-0.981733, 185, 193, 248, 448
-0.981794, 61, 321, 92, 384
-0.981804, 9, 113, 72, 240
-0.98188, 273, 161, 336, 416
-0.981962, 241, 137, 272, 200
-0.981977, 89, 209, 120, 336
-0.981984, 117, 105, 148, 168
-0.982056, 81, 257, 144, 320
-0.98207, 225, 289, 288, 416
-0.982093, 73, 281, 104, 344
-0.982103, 261, 9, 292, 72
-0.982154, 1, 305, 128, 432
-0.982155, 313, 97, 344, 160
-0.982173, 145, 249, 176, 312
-0.982224, 121, 1, 184, 500
-0.98224, 233, 17, 264, 144
-0.982311, 173, 9, 204, 72
-0.98232, 177, 273, 240, 336
-0.982331, 253, 177, 284, 240
-0.982405, 257, 337, 320, 464
-0.982424, 153, 1, 216, 500
-0.982473, 125, 145, 156, 208
-0.982479, 161, 81, 288, 144
-0.982507, 201, 81, 232, 144
-0.982515, 17, 249, 144, 312
-0.982525, 189, 65, 220, 128
-0.982526, 165, 273, 196, 336
-0.982533, 161, 153, 192, 216
-0.982585, 161, 121, 192, 184
-0.982653, 73, 305, 136, 368
-0.982664, 261, 81, 292, 208
-0.982778, 305, 153, 336, 216
-0.98278, 105, 113, 136, 176
-0.982819, 85, 129, 116, 256
-0.982819, 49, 33, 112, 288
-0.982825, 81, 1, 208, 64
-0.982894, 49, 145, 176, 208
-0.982996, 257, 129, 320, 192
-0.983024, 113, 273, 144, 336
-0.983026, 297, 17, 360, 144
-0.983074, 65, 257, 192, 320
-0.983076, 241, 105, 272, 168
-0.983131, 105, 193, 168, 448
-0.983162, 341, 297, 372, 360
-0.98317, 225, 265, 288, 328
-0.983197, 157, 177, 188, 240
-0.983201, 9, 65, 72, 192
-0.983222, 137, 297, 168, 360
-0.983226, 313, 97, 375, 160
-0.983299, 73, 353, 136, 416
-0.983306, 93, 49, 124, 176
-0.983315, 153, 185, 216, 248
-0.983351, 297, 145, 328, 272
-0.983371, 165, 241, 196, 368
-0.983395, 49, 345, 112, 408
-0.9835, 49, 305, 80, 368
-0.983575, 25, 161, 88, 416
-0.983669, 65, 257, 128, 500
-0.983696, 205, 225, 236, 288
-0.98378, 9, 161, 72, 288
-0.983819, 133, 49, 164, 176
-0.983872, 121, 41, 152, 104
-0.983909, 321, 225, 352, 352
-0.983957, 217, 33, 248, 96
-0.984011, 17, 313, 80, 376
-0.984013, 157, 49, 188, 176
-0.984013, 221, 97, 252, 224
-0.984015, 173, 65, 204, 128
-0.984017, 129, 65, 160, 128
-0.984059, 137, 289, 200, 416
-0.984099, 217, 49, 248, 176
-0.984102, 137, 129, 168, 256
-0.984113, 297, 97, 360, 352
-0.984136, 89, 25, 152, 88
-0.98416, 221, 265, 252, 328
-0.984173, 301, 129, 332, 192
-0.984207, 241, 193, 304, 448
-0.984255, 161, 177, 192, 304
-0.984264, 185, 9, 216, 72
-0.984273, 41, 185, 104, 248
-0.984299, 201, 185, 232, 248
-0.984305, 113, 209, 240, 272
-0.984374, 205, 57, 236, 120
-0.984381, 289, 305, 352, 432
-0.984384, 193, 121, 224, 184
-0.98439, 241, 281, 272, 344
-0.984396, 113, 129, 144, 256
-0.984454, 97, 273, 128, 400
-0.984527, 233, 97, 264, 224
-0.984529, 117, 169, 148, 232
-0.984633, 25, 321, 88, 448
-0.984634, 73, 233, 136, 296
-0.984678, 157, 73, 188, 136
-0.984721, 185, 129, 216, 256
-0.984742, 29, 209, 60, 336
-0.984787, 1, 97, 64, 160
-0.984806, 65, 193, 96, 320
-0.984825, 221, 145, 252, 208
-0.984882, 73, 1, 136, 500
-0.984902, 257, 33, 288, 96
-0.984982, 1, 129, 128, 192
-0.984986, 77, 209, 108, 336
-0.984993, 33, 65, 160, 128
-0.985007, 65, 337, 96, 464
-0.985188, 205, 177, 236, 304
-0.985191, 121, 49, 152, 176
-0.985256, 53, 377, 84, 440
-0.985289, 105, 249, 168, 312
-0.985297, 129, 337, 375, 464
-0.98531, 17, 105, 144, 168
-0.985373, 221, 289, 252, 416
-0.985395, 33, 257, 96, 500
-0.98542, 125, 129, 156, 256
-0.985446, 209, 41, 336, 104
-0.985528, 241, 241, 368, 304
-0.985563, 193, 225, 320, 288
-0.985586, 53, 193, 84, 320
-0.985594, 281, 129, 312, 192
-0.985594, 69, 353, 100, 416
-0.985656, 85, 353, 116, 480
-0.985659, 321, 81, 352, 208
-0.985694, 229, 41, 260, 104
-0.985701, 49, 1, 112, 500
-0.985909, 57, 289, 88, 416
-0.986011, 177, 257, 304, 320
-0.986029, 177, 249, 208, 312
-0.986052, 49, 33, 176, 96
-0.986082, 209, 193, 272, 448
-0.986151, 281, 97, 312, 160
-0.986179, 65, 233, 192, 296
-0.986238, 17, 177, 144, 240
-0.986315, 197, 9, 228, 72
-0.986321, 185, 169, 216, 232
-0.986355, 49, 305, 176, 368
-0.986388, 85, 281, 116, 344
-0.986388, 153, 297, 184, 360
-0.986401, 241, 321, 368, 384
-0.986436, 101, 281, 132, 344
-0.986471, 121, 225, 152, 352
-0.986491, 237, 73, 268, 136
-0.986535, 233, 225, 296, 352
-0.98655, 149, 113, 180, 240
-0.986565, 73, 209, 136, 272
-0.986565, 217, 353, 280, 416
-0.986579, 25, 361, 88, 424
-0.98659, 277, 49, 308, 176
-0.986606, 221, 225, 252, 352
-0.986623, 25, 257, 56, 384
-0.986666, 25, 257, 56, 320
-0.986759, 241, 169, 272, 232
-0.986765, 41, 193, 72, 320
-0.986796, 41, 113, 104, 176
-0.986872, 17, 209, 144, 272
-0.986906, 133, 209, 164, 336
-0.986966, 33, 321, 64, 384
-0.986967, 233, 161, 264, 288
-0.987083, 145, 105, 176, 168
-0.987109, 121, 1, 152, 64
-0.987125, 73, 257, 104, 320
-0.987146, 257, 345, 320, 408
-0.987206, 257, 57, 288, 120
-0.987221, 209, 153, 240, 216
-0.987441, 281, 1, 312, 64
-0.987446, 177, 289, 304, 352
-0.987463, 249, 289, 312, 416
-0.987474, 313, 217, 344, 280
-0.987476, 225, 305, 288, 368
-0.987493, 265, 177, 296, 240
-0.987493, 17, 369, 80, 496
-0.98754, 105, 49, 136, 112
-0.98754, 81, 145, 112, 208
-0.987634, 49, 353, 176, 416
-0.987798, 181, 225, 212, 352
-0.987799, 65, 393, 96, 456
-0.987843, 145, 193, 208, 448
-0.987866, 101, 1, 132, 128
-0.987903, 249, 49, 280, 176
-0.987925, 129, 193, 192, 256
-0.987936, 269, 33, 300, 96
-0.987953, 9, 73, 72, 136
-0.988012, 329, 161, 360, 288
-0.98802, 209, 105, 240, 168
-0.988048, 277, 1, 308, 128
-0.988064, 133, 113, 164, 176
-0.98808, 133, 1, 164, 64
-0.988087, 217, 297, 248, 360
-0.988104, 297, 65, 360, 128
-0.988153, 313, 193, 375, 256
-0.988187, 297, 97, 328, 224
-0.988213, 193, 393, 256, 456
-0.988217, 117, 81, 148, 144
-0.988268, 65, 385, 128, 448
-0.988277, 53, 353, 84, 480
-0.988348, 281, 185, 312, 248
-0.988386, 321, 257, 352, 320
-0.988393, 229, 105, 260, 168
-0.988399, 1, 409, 128, 472
-0.988405, 21, 297, 52, 360
-0.988435, 333, 241, 364, 368
-0.988532, 53, 249, 84, 312
-0.988592, 321, 129, 352, 192
-0.988602, 289, 153, 320, 216
-0.988608, 17, 1, 80, 500
-0.988613, 197, 265, 228, 328
-0.988639, 265, 177, 296, 304
-0.988703, 1, 377, 128, 440
-0.988712, 37, 249, 68, 312
-0.988727, 61, 297, 92, 360
-0.988758, 25, 65, 88, 320
-0.988779, 269, 97, 300, 160
-0.988785, 1, 249, 64, 312
-0.988834, 81, 121, 112, 184
-0.988837, 193, 225, 224, 352
-0.988854, 245, 161, 276, 288
-0.988855, 77, 169, 108, 232
-0.988859, 65, 201, 192, 264
-0.988912, 113, 173, 176, 204
-0.988932, 113, 85, 176, 116
-0.988947, 129, 89, 160, 152
-0.989004, 145, 149, 208, 180
-0.989021, 245, 33, 276, 96
-0.989057, 193, 369, 320, 496
-0.989059, 285, 161, 316, 288
-0.989066, 105, 73, 168, 104
-0.989081, 177, 297, 240, 360
-0.989151, 161, 37, 224, 68
-0.989171, 33, 409, 96, 472
-0.989245, 49, 353, 80, 416
-0.989257, 281, 1, 344, 500
-0.989334, 217, 181, 280, 212
-0.989352, 153, 289, 184, 416
-0.989385, 145, 369, 272, 496
-0.989386, 185, 177, 216, 304
-0.989479, 177, 169, 240, 200
-0.989519, 209, 37, 272, 68
-0.989565, 145, 177, 208, 208
-0.989576, 97, 149, 160, 180
-0.989625, 33, 265, 96, 296
-0.989665, 89, 177, 152, 208
-0.989674, 25, 217, 88, 280
-0.989686, 297, 1, 360, 256
-0.989861, 81, 81, 144, 112
-0.989867, 201, 329, 264, 392
-0.989879, 137, 81, 200, 112
-0.989936, 145, 165, 208, 196
-0.989943, 81, 81, 112, 208
-0.98998, 249, 109, 312, 140
-0.989996, 257, 313, 320, 376
-0.990006, 281, 329, 344, 392
-0.990017, 41, 145, 104, 208
-0.990029, 1, 233, 375, 296
-0.990029, 113, 161, 176, 192
-0.990051, 113, 1, 176, 32
-0.990056, 1, 153, 128, 216
-0.990067, 209, 113, 272, 144
-0.990074, 265, 209, 328, 272
-0.990094, 49, 285, 112, 316
-0.990099, 241, 193, 304, 256
-0.990116, 113, 281, 176, 312
-0.990123, 73, 277, 136, 308
-0.990164, 233, 13, 296, 44
-0.99021, 1, 97, 64, 352
-0.990248, 89, 289, 152, 320
-0.990258, 137, 69, 200, 100
-0.990258, 33, 1, 160, 64
-0.990281, 81, 329, 144, 392
-0.99033, 113, 129, 176, 160
-0.99034, 105, 321, 136, 448
-0.990341, 121, 145, 184, 176
-0.990379, 177, 189, 240, 220
-0.990388, 161, 93, 224, 124
-0.990397, 153, 113, 216, 144
-0.990416, 129, 137, 375, 200
-0.990418, 153, 1, 216, 32
-0.990481, 41, 317, 104, 348
-0.990487, 113, 269, 176, 300
-0.99049, 89, 189, 152, 220
-0.990508, 137, 93, 200, 124
-0.990511, 265, 97, 328, 128
-0.99052, 297, 169, 360, 200
-0.990526, 177, 113, 240, 144
-0.990548, 153, 129, 216, 160
-0.990553, 313, 1, 375, 500
-0.990554, 185, 17, 248, 48
-0.990556, 17, 277, 80, 308
-0.990594, 89, 165, 152, 196
-0.99063, 265, 177, 328, 208
-0.990638, 161, 81, 224, 112
-0.990649, 177, 129, 240, 160
-0.990654, 273, 121, 336, 152
-0.990674, 137, 269, 200, 300
-0.990692, 1, 137, 64, 200
-0.990715, 233, 33, 296, 64
-0.990715, 33, 233, 288, 296
-0.990722, 49, 409, 112, 440
-0.990728, 209, 21, 272, 52
-0.990768, 289, 105, 352, 136
-0.990776, 225, 133, 288, 164
-0.990778, 81, 117, 144, 148
-0.990786, 49, 329, 176, 392
-0.990804, 265, 189, 328, 220
-0.990805, 257, 65, 320, 96
-0.990817, 169, 49, 232, 80
-0.99084, 257, 165, 320, 196
-0.990852, 185, 261, 248, 292
-0.990858, 177, 157, 240, 188
-0.99087, 185, 5, 248, 36
-0.990886, 241, 81, 304, 112
-0.990924, 81, 101, 144, 132
-0.990947, 25, 297, 88, 328
-0.990957, 137, 41, 200, 72
-0.990967, 177, 145, 240, 176
-0.990968, 65, 97, 320, 160
-0.990985, 185, 29, 248, 60
-0.991002, 297, 181, 360, 212
-0.991006, 137, 53, 200, 84
-0.991009, 121, 297, 184, 328
-0.991026, 9, 409, 72, 472
-0.991029, 217, 289, 280, 320
-0.991031, 65, 177, 320, 240
-0.991033, 97, 321, 224, 384
-0.99107, 209, 361, 336, 424
-0.991079, 33, 289, 288, 352
-0.991087, 153, 17, 216, 48
-0.991093, 33, 65, 96, 128
-0.991103, 201, 305, 264, 336
-0.991113, 1, 217, 64, 280
-0.991132, 113, 13, 176, 44
-0.991134, 113, 45, 176, 76
-0.991135, 241, 45, 304, 76
-0.99116, 185, 281, 248, 312
-0.991161, 121, 225, 184, 288
-0.991161, 57, 265, 120, 296
-0.991166, 129, 273, 375, 336
-0.991171, 193, 101, 256, 132
-0.991173, 81, 137, 144, 168
-0.991202, 177, 201, 240, 232
-0.991211, 233, 289, 264, 416
-0.991216, 289, 193, 352, 224
-0.991233, 153, 301, 216, 332
-0.991238, 217, 49, 280, 80
-0.99124, 113, 309, 176, 340
-0.991253, 113, 57, 176, 88
-0.991283, 137, 285, 200, 316
-0.991292, 217, 169, 280, 200
-0.991311, 289, 157, 352, 188
-0.991321, 113, 189, 176, 220
-0.991365, 177, 241, 240, 272
-0.99137, 257, 33, 320, 64
-0.991379, 81, 65, 144, 96
-0.991424, 249, 121, 312, 152
-0.991428, 121, 109, 184, 140
-0.99143, 1, 257, 375, 320
-0.991434, 17, 385, 80, 448
-0.991454, 113, 97, 176, 128
-0.991459, 169, 61, 232, 92
-0.991487, 65, 169, 128, 200
-0.991499, 81, 417, 144, 480
-0.9915, 13, 81, 44, 208
-0.991509, 313, 225, 375, 288
-0.991524, 129, 73, 375, 136
-0.991525, 9, 265, 72, 296
-0.991555, 1, 177, 375, 240
-0.991564, 153, 257, 216, 288
-0.991582, 41, 329, 104, 360
-0.991604, 153, 189, 216, 220
-0.991608, 137, 29, 200, 60
-0.991609, 209, 1, 272, 32
-0.991638, 81, 1, 144, 32
-0.991646, 73, 153, 136, 184
-0.991672, 313, 325, 375, 356
-0.991685, 65, 33, 320, 96
-0.991691, 113, 321, 176, 384
-0.991702, 29, 49, 60, 176
-0.991717, 193, 313, 320, 376
-0.991727, 217, 241, 280, 272
-0.991727, 33, 253, 96, 284
-0.991731, 193, 293, 256, 324
-0.991765, 33, 257, 288, 320
-0.991779, 201, 125, 264, 156
-0.991781, 233, 337, 296, 368
-0.991791, 81, 265, 144, 296
-0.991818, 233, 61, 296, 92
-0.991821, 209, 65, 272, 96
-0.991828, 305, 289, 368, 320
-0.991831, 37, 321, 68, 448
-0.991841, 161, 289, 224, 416
-0.991845, 185, 81, 248, 112
-0.991851, 201, 369, 264, 496
-0.991859, 41, 97, 104, 128
-0.99187, 241, 177, 304, 208
-0.991879, 129, 201, 375, 264
-0.991895, 65, 345, 128, 376
-0.991898, 33, 153, 288, 216
-0.991902, 1, 209, 375, 272
-0.99191, 57, 429, 120, 460
-0.991921, 65, 1, 320, 64
-0.991922, 217, 89, 280, 120
-0.991939, 265, 201, 328, 232
-0.991955, 57, 81, 120, 112
-0.991957, 33, 397, 96, 428
-0.991958, 217, 225, 280, 256
-0.991961, 297, 277, 360, 308
-0.991961, 57, 225, 120, 256
-0.991971, 249, 133, 312, 164
-0.991976, 65, 185, 128, 216
-0.992013, 289, 221, 352, 252
-0.99204, 329, 289, 360, 416
-0.992042, 49, 401, 176, 464
-0.992125, 137, 289, 168, 320
-0.992226, 333, 81, 364, 208
-0.99225, 33, 17, 96, 144
-0.99228, 213, 369, 244, 496
-0.992284, 137, 301, 168, 332
-0.992341, 129, 249, 375, 312
-0.992348, 233, 337, 264, 464
-0.992367, 1, 41, 128, 104
-0.992377, 125, 301, 156, 332
-0.99239, 145, 173, 176, 204
-0.992436, 113, 289, 144, 320
-0.992439, 165, 37, 196, 68
-0.99245, 289, 49, 320, 176
-0.992464, 149, 297, 180, 328
-0.992474, 185, 37, 216, 68
-0.992478, 221, 297, 252, 328
-0.992485, 169, 169, 200, 200
-0.992495, 73, 409, 104, 440
-0.992507, 141, 161, 172, 192
-0.992515, 109, 173, 140, 204
-0.992516, 233, 113, 264, 144
-0.99253, 93, 177, 124, 208
-0.992538, 157, 281, 188, 312
-0.992549, 185, 153, 216, 184
-0.992549, 141, 81, 172, 112
-0.992589, 149, 45, 180, 76
-0.992593, 157, 177, 188, 208
-0.992599, 101, 277, 132, 308
-0.992613, 125, 281, 156, 312
-0.992616, 229, 25, 260, 56
-0.992622, 113, 277, 144, 308
-0.992626, 129, 141, 160, 172
-0.992634, 33, 209, 288, 272
-0.992646, 41, 301, 72, 332
-0.99266, 181, 129, 212, 160
-0.992664, 177, 113, 208, 144
-0.992669, 261, 129, 292, 160
-0.992681, 29, 281, 60, 312
-0.992684, 305, 157, 336, 188
-0.992695, 65, 285, 96, 316
-0.992705, 133, 173, 164, 204
-0.992707, 245, 113, 276, 144
-0.992711, 205, 1, 236, 32
-0.992711, 217, 113, 248, 144
-0.992711, 297, 193, 328, 224
-0.992725, 117, 141, 148, 172
-0.992727, 257, 105, 288, 136
-0.992729, 141, 273, 172, 304
-0.992729, 313, 101, 344, 132
-0.992729, 145, 133, 176, 164
-0.992733, 229, 281, 260, 312
-0.99274, 117, 177, 148, 304
-0.992752, 121, 173, 152, 204
-0.992752, 161, 153, 192, 184
-0.992752, 249, 13, 280, 44
-0.992753, 161, 129, 192, 160
-0.992755, 221, 181, 252, 212
-0.992756, 93, 149, 124, 180
-0.992765, 209, 37, 240, 68
-0.992766, 257, 117, 288, 148
-0.992768, 45, 285, 76, 316
-0.992772, 165, 93, 196, 124
-0.99278, 105, 89, 136, 120
-0.992784, 45, 313, 76, 344
-0.992787, 57, 265, 88, 296
-0.992787, 157, 1, 188, 32
-0.992791, 277, 185, 308, 216
-0.992791, 33, 265, 64, 296
-0.992792, 129, 153, 160, 184
-0.992792, 145, 261, 176, 292
-0.992794, 137, 1, 168, 32
-0.992798, 105, 157, 136, 188
-0.9928, 117, 157, 148, 188
-0.992817, 121, 1, 152, 32
-0.992823, 45, 269, 76, 300
-0.992827, 205, 25, 236, 56
-0.99283, 169, 141, 200, 172
-0.992834, 241, 293, 272, 324
-0.992841, 241, 129, 272, 160
-0.992844, 253, 181, 284, 212
-0.99285, 201, 189, 232, 220
-0.99285, 169, 181, 200, 212
-0.992859, 149, 57, 180, 88
-0.992859, 81, 421, 112, 452
-0.992861, 197, 113, 228, 144
-0.992862, 137, 41, 168, 72
-0.992867, 213, 261, 244, 292
-0.992871, 161, 269, 192, 300
-0.992873, 249, 33, 280, 64
-0.992875, 317, 181, 348, 212
-0.992877, 9, 17, 72, 144
-0.992883, 201, 205, 232, 236
-0.992884, 213, 393, 244, 424
-0.992889, 129, 81, 160, 112
-0.992891, 209, 245, 240, 276
-0.992892, 269, 109, 300, 140
-0.992896, 321, 161, 352, 192
-0.992897, 161, 49, 192, 80
-0.9929, 157, 253, 188, 284
-0.992904, 161, 73, 192, 104
-0.992906, 185, 73, 216, 104
-0.992906, 193, 129, 224, 160
-0.992909, 177, 89, 208, 120
-0.992917, 189, 185, 220, 216
-0.992921, 301, 193, 332, 320
-0.992922, 93, 289, 124, 320
-0.992922, 229, 309, 260, 340
-0.992926, 97, 189, 128, 220
-0.992927, 221, 37, 252, 68
-0.992934, 261, 33, 292, 64
-0.992935, 209, 77, 240, 108
-0.992936, 145, 145, 176, 176
-0.992937, 129, 269, 160, 300
-0.992939, 277, 121, 308, 152
-0.992943, 137, 69, 168, 100
-0.992943, 105, 141, 136, 172
-0.992951, 93, 133, 124, 164
-0.992954, 261, 169, 292, 200
-0.992954, 197, 141, 228, 172
-0.992956, 197, 37, 228, 68
-0.992964, 197, 93, 228, 124
-0.992965, 173, 261, 204, 292
-0.992974, 105, 77, 136, 108
-0.992974, 81, 285, 112, 316
-0.992979, 121, 93, 152, 124
-0.992982, 181, 169, 212, 200
-0.992984, 205, 49, 236, 80
-0.992989, 185, 25, 216, 56
-0.992992, 117, 77, 148, 108
-0.992996, 261, 157, 292, 188
-0.992997, 289, 113, 320, 144
-0.992998, 77, 273, 108, 304
-0.992998, 217, 21, 248, 52
-0.993, 161, 293, 192, 324
-0.993004, 37, 253, 68, 284
-0.993007, 193, 1, 224, 32
-0.99301, 229, 125, 260, 156
-0.993013, 105, 101, 136, 132
-0.993014, 109, 185, 140, 216
-0.993021, 265, 185, 296, 216
-0.993029, 113, 301, 144, 332
-0.993294, 345, 241, 375, 368
-0.993297, 129, 225, 375, 288
-0.993356, 69, 49, 100, 176
-0.993379, 105, 321, 168, 448
-0.993379, 1, 121, 256, 184
-0.993391, 177, 337, 304, 400
-0.993393, 13, 129, 44, 256
-0.993412, 1, 329, 128, 392
-0.993525, 209, 113, 336, 144
-0.993588, 49, 377, 176, 440
-0.993645, 97, 173, 224, 204
-0.993677, 129, 185, 256, 216
-0.993691, 1, 153, 375, 216
-0.993726, 17, 209, 48, 336
-0.993877, 129, 297, 375, 360
-0.99388, 1, 97, 375, 160
-0.993897, 251, 9, 266, 72
-0.993926, 73, 129, 104, 256
-0.993993, 161, 49, 176, 112
-0.993997, 149, 41, 164, 104
-0.994077, 195, 33, 210, 96
-0.99408, 161, 145, 176, 208
-0.994084, 129, 277, 256, 308
-0.994118, 49, 281, 64, 344
-0.994126, 1, 305, 128, 368
-0.994144, 159, 17, 174, 80
-0.994144, 145, 37, 272, 68
-0.994175, 177, 181, 304, 212
-0.994229, 151, 273, 166, 336
-0.994241, 49, 81, 80, 208
-0.994242, 81, 153, 208, 184
-0.994249, 1, 73, 256, 136
-0.994286, 109, 145, 124, 208
-0.994292, 81, 33, 112, 160
-0.994294, 253, 41, 268, 104
-0.994303, 33, 97, 64, 224
-0.994349, 177, 125, 304, 156
-0.994427, 1, 129, 375, 192
-0.994441, 17, 277, 144, 308
-0.994463, 193, 145, 208, 208
-0.994465, 49, 425, 176, 488
-0.994469, 101, 145, 116, 208
-0.994503, 151, 137, 166, 200
-0.994549, 49, 289, 176, 320
-0.994565, 173, 81, 188, 144
-0.994589, 205, 33, 220, 96
-0.994645, 97, 129, 224, 160
-0.994649, 209, 197, 336, 228
-0.99465, 161, 113, 288, 144
-0.994661, 221, 177, 236, 240
-0.994685, 109, 169, 124, 232
-0.994692, 163, 265, 178, 328
-0.994776, 301, 169, 316, 232
-0.994777, 17, 265, 144, 296
-0.994799, 185, 137, 200, 200
-0.994821, 1, 289, 375, 352
-0.994845, 49, 173, 176, 204
-0.994866, 151, 161, 166, 224
-0.994869, 233, 209, 264, 336
-0.994906, 245, 273, 276, 400
-0.994918, 33, 377, 288, 440
-0.994946, 113, 1, 240, 32
-0.994962, 115, 145, 130, 208
-0.994979, 177, 17, 304, 48
-0.994985, 129, 297, 256, 328
-0.994985, 205, 73, 220, 136
-0.995, 129, 261, 256, 292
-0.995, 267, 33, 282, 96
-0.995003, 263, 9, 278, 72
-0.995011, 269, 337, 300, 464
-0.995014, 261, 1, 292, 256
-0.995053, 245, 321, 276, 448
-0.995061, 241, 165, 368, 196
-0.995062, 145, 393, 272, 456
-0.995088, 267, 57, 282, 120
-0.995092, 101, 177, 116, 240
-0.995115, 209, 305, 240, 432
-0.995126, 169, 33, 184, 96
-0.995132, 161, 145, 288, 176
-0.995154, 221, 233, 236, 296
-0.995162, 169, 249, 184, 312
-0.995173, 169, 9, 184, 72
-0.995188, 347, 297, 362, 360
-0.995212, 145, 169, 272, 200
-0.995224, 241, 185, 368, 216
-0.995225, 241, 25, 256, 88
-0.995254, 103, 105, 118, 168
-0.99527, 41, 305, 56, 368
-0.995272, 1, 345, 375, 408
-0.995284, 185, 97, 200, 160
-0.99529, 163, 169, 178, 232
-0.995307, 191, 121, 206, 184
-0.995309, 213, 33, 228, 96
-0.995312, 65, 93, 192, 124
-0.995338, 243, 289, 258, 352
-0.995345, 129, 281, 144, 344
-0.995351, 141, 281, 156, 344
-0.995362, 249, 1, 280, 256
-0.995366, 225, 125, 352, 156
-0.99537, 97, 113, 224, 144
-0.995394, 187, 161, 202, 224
-0.995395, 197, 105, 212, 168
-0.995397, 275, 169, 290, 232
-0.995397, 181, 1, 212, 256
-0.995416, 81, 277, 208, 308
-0.995426, 333, 137, 348, 200
-0.995448, 87, 401, 102, 464
-0.995486, 265, 177, 280, 240
-0.995509, 167, 137, 182, 200
-0.99551, 327, 161, 342, 224
-0.995529, 259, 57, 274, 120
-0.995534, 185, 65, 200, 128
-0.99556, 161, 1, 192, 256
-0.995584, 301, 113, 316, 176
-0.995613, 1, 73, 375, 136
-0.995615, 257, 97, 272, 160
-0.995616, 183, 33, 198, 96
-0.995618, 209, 33, 336, 64
-0.995622, 215, 1, 230, 64
-0.995632, 273, 9, 288, 72
-0.995659, 161, 289, 176, 352
-0.995666, 33, 281, 48, 344
-0.995668, 221, 1, 236, 64
-0.995679, 261, 33, 276, 96
-0.995681, 265, 81, 280, 144
-0.995684, 109, 121, 124, 184
-0.995684, 167, 81, 182, 144
-0.995697, 141, 49, 156, 112
-0.9957, 361, 305, 375, 368
-0.995706, 179, 249, 194, 312
-0.995712, 209, 209, 336, 240
-0.995721, 213, 185, 228, 248
-0.995725, 157, 265, 172, 328
-0.995726, 119, 73, 134, 136
-0.995734, 333, 161, 348, 224
-0.995748, 155, 49, 170, 112
-0.995759, 179, 73, 194, 136
-0.995766, 77, 385, 92, 448
-0.995769, 65, 321, 320, 384
-0.995779, 177, 157, 304, 188
-0.995784, 73, 273, 88, 336
-0.995786, 157, 113, 172, 176
-0.995798, 225, 101, 352, 132
-0.995806, 61, 273, 76, 336
-0.995811, 139, 129, 154, 192
-0.995814, 81, 141, 208, 172
-0.995832, 145, 1, 176, 256
-0.995847, 39, 273, 54, 336
-0.99586, 97, 37, 224, 68
-0.99586, 197, 65, 212, 128
-0.995867, 41, 369, 72, 496
-0.99587, 65, 189, 192, 220
-0.995874, 273, 97, 288, 160
-0.995875, 217, 1, 248, 256
-0.995877, 143, 153, 158, 216
-0.99588, 1, 81, 32, 208
-0.995882, 193, 1, 224, 256
-0.995896, 107, 73, 122, 136
-0.995905, 307, 145, 322, 208
-0.995922, 235, 17, 250, 80
-0.995927, 171, 105, 186, 168
-0.995937, 353, 305, 368, 368
-0.99594, 221, 33, 236, 96
-0.995942, 117, 41, 132, 104
-0.995951, 127, 145, 142, 208
-0.995955, 191, 97, 206, 160
-0.995965, 65, 81, 192, 112
-0.995969, 153, 9, 168, 72
-0.995969, 61, 353, 76, 416
-0.99597, 193, 385, 320, 448
-0.995981, 129, 249, 256, 280
-0.995995, 189, 33, 204, 96
-0.996, 113, 81, 128, 144
-0.996009, 131, 1, 146, 64
-0.996015, 67, 273, 82, 336
-0.996016, 121, 1, 152, 256
-0.99602, 93, 409, 108, 472
-0.996022, 319, 153, 334, 216
-0.996029, 129, 309, 256, 340
-0.996039, 129, 21, 256, 52
-0.996044, 161, 1, 288, 32
-0.996046, 45, 329, 60, 392
-0.996047, 241, 281, 368, 312
-0.996049, 117, 169, 132, 232
-0.996054, 129, 49, 256, 80
-0.99606, 317, 305, 348, 432
-0.99607, 177, 33, 192, 96
-0.996084, 333, 185, 348, 248
-0.996087, 199, 137, 214, 200
-0.99609, 127, 73, 142, 136
-0.996102, 129, 201, 256, 232
-0.996103, 179, 129, 194, 192
-0.996106, 309, 185, 324, 248
-0.996107, 33, 129, 160, 160
-0.996117, 227, 33, 242, 96
-0.996128, 71, 377, 86, 440
-0.996131, 203, 105, 218, 168
-0.996131, 157, 169, 172, 232
-0.996147, 129, 157, 256, 188
-0.996158, 267, 105, 282, 168
-0.996168, 211, 161, 226, 224
-0.996173, 1, 41, 375, 104
-0.996177, 133, 1, 164, 256
-0.996178, 253, 73, 268, 136
-0.996185, 147, 113, 162, 176
-0.996215, 177, 9, 192, 72
-0.996228, 33, 345, 288, 408
-0.996236, 161, 73, 176, 136
-0.996248, 153, 297, 168, 360
-0.99626, 171, 57, 186, 120
-0.996264, 137, 129, 168, 384
-0.996265, 177, 105, 192, 168
-0.996266, 123, 105, 138, 168
-0.996274, 215, 225, 230, 288
-0.996289, 171, 161, 186, 224
-0.996297, 5, 209, 36, 336
-0.996302, 1, 9, 375, 72
-0.996313, 95, 145, 110, 208
-0.996319, 141, 305, 172, 432
-0.996322, 327, 129, 342, 192
-0.996327, 113, 97, 240, 128
-0.996331, 97, 121, 112, 184
-0.996332, 65, 301, 192, 332
-0.996333, 115, 121, 130, 184
-0.996342, 231, 145, 246, 208
-0.996346, 79, 265, 94, 328
-0.996351, 149, 129, 180, 384
-0.99637, 231, 273, 246, 336
-0.996385, 105, 97, 136, 352
-0.996405, 65, 69, 192, 100
-0.996431, 241, 325, 368, 356
-0.996433, 129, 69, 256, 100
-0.996443, 1, 141, 128, 172
-0.996455, 33, 109, 160, 140
-0.996465, 281, 353, 344, 480
-0.996472, 193, 273, 224, 400
-0.996487, 65, 265, 192, 296
-0.996569, 225, 137, 352, 168
-0.996569, 281, 33, 312, 288
-0.996575, 193, 169, 320, 200
-0.996598, 201, 369, 232, 496
-0.996616, 205, 1, 236, 256
-0.996663, 209, 89, 336, 120
-0.996742, 241, 293, 368, 324
-0.996764, 317, 33, 348, 160
-0.996776, 181, 273, 212, 400
-0.996777, 129, 213, 256, 244
-0.996786, 241, 269, 368, 300
-0.996795, 165, 289, 196, 416
-0.996799, 301, 49, 332, 176
-0.996809, 93, 97, 124, 352
-0.996814, 49, 241, 176, 272
-0.996835, 209, 45, 336, 76
-0.996835, 1, 129, 32, 256
-0.996853, 1, 433, 128, 496
-0.996857, 161, 89, 288, 120
-0.99687, 225, 221, 352, 252
-0.99688, 241, 153, 368, 184
-0.996905, 1, 353, 128, 416
-0.996919, 129, 233, 256, 264
-0.996934, 153, 297, 168, 328
-0.996954, 177, 101, 304, 132
-0.996962, 17, 69, 144, 100
-0.996966, 125, 161, 156, 416
-0.996995, 81, 25, 208, 56
-0.997025, 109, 1, 140, 256
-0.997028, 265, 97, 296, 352
-0.997029, 169, 97, 200, 352
-0.99704, 193, 241, 320, 272
-0.997042, 1, 225, 128, 256
-0.997082, 49, 57, 176, 88
-0.997089, 131, 297, 146, 328
-0.997107, 237, 1, 268, 256
-0.997144, 65, 313, 192, 344
-0.997156, 209, 161, 240, 416
-0.997162, 225, 161, 256, 416
-0.997176, 253, 37, 268, 68
-0.997178, 225, 17, 352, 48
-0.997183, 33, 153, 160, 184
-0.997221, 181, 97, 212, 352
-0.99725, 1, 169, 128, 200
-0.997254, 241, 337, 368, 368
-0.997269, 113, 81, 240, 112
-0.997276, 193, 289, 320, 320
-0.99728, 141, 301, 156, 332
-0.997281, 99, 177, 114, 208
-0.997283, 241, 233, 368, 264
-0.997286, 1, 409, 128, 440
-0.997289, 187, 149, 202, 180
-0.997291, 91, 413, 106, 444
-0.997293, 207, 37, 222, 68
-0.997303, 97, 369, 224, 496
-0.997326, 195, 37, 210, 68
-0.997349, 309, 97, 340, 352
-0.997351, 109, 173, 124, 204
-0.997353, 155, 161, 170, 192
-0.997353, 173, 93, 188, 124
-0.997379, 159, 289, 174, 320
-0.99739, 151, 173, 166, 204
-0.997399, 209, 5, 336, 36
-0.997414, 163, 177, 178, 208
-0.997418, 39, 313, 54, 344
-0.997432, 149, 45, 164, 76
-0.99745, 17, 253, 144, 284
-0.997458, 17, 305, 144, 336
-0.99749, 241, 257, 368, 288
-0.997495, 135, 285, 150, 316
-0.997508, 157, 173, 172, 204
-0.997516, 223, 249, 238, 280
-0.997517, 167, 1, 182, 32
-0.997528, 213, 1, 228, 32
-0.997534, 123, 289, 138, 320
-0.997537, 167, 277, 182, 308
-0.997537, 85, 409, 100, 440
-0.997542, 245, 97, 276, 352
-0.997572, 163, 45, 178, 76
-0.997576, 115, 277, 130, 308
-0.997581, 235, 113, 250, 144
-0.997586, 297, 97, 328, 352
-0.997592, 177, 57, 304, 88
-0.997593, 321, 129, 352, 384
-0.997596, 123, 141, 138, 172
-0.997597, 159, 277, 174, 308
-0.997597, 253, 49, 268, 80
-0.997604, 177, 77, 304, 108
-0.997609, 243, 113, 258, 144
-0.99761, 17, 185, 144, 216
-0.997613, 197, 97, 228, 352
-0.997614, 181, 37, 196, 68
-0.997615, 301, 189, 316, 220
-0.997624, 129, 153, 144, 184
-0.997642, 97, 1, 128, 256
-0.997646, 137, 173, 152, 204
-0.997647, 183, 93, 198, 124
-0.997648, 221, 113, 236, 144
-0.997653, 17, 213, 144, 244
-0.997659, 241, 245, 368, 276
-0.99766, 149, 153, 164, 184
-0.997664, 51, 285, 66, 316
-0.997688, 171, 37, 186, 68
-0.997696, 117, 153, 132, 184
-0.997699, 157, 57, 172, 88
-0.997707, 185, 137, 200, 168
-0.997713, 65, 205, 192, 236
-0.997724, 255, 113, 270, 144
-0.99773, 149, 285, 164, 316
-0.997731, 1, 321, 375, 384
-0.997733, 61, 369, 76, 400
-0.99774, 243, 293, 258, 324
-0.997746, 129, 141, 144, 172
-0.997751, 113, 369, 240, 432
-0.997753, 225, 77, 352, 108
-0.997756, 59, 285, 74, 316
-0.99776, 159, 149, 174, 180
-0.997768, 115, 173, 130, 204
-0.99777, 147, 297, 162, 328
-0.997783, 151, 141, 166, 172
-0.997789, 149, 73, 164, 104
-0.99779, 143, 173, 158, 204
-0.99779, 1, 421, 128, 452
-0.997792, 253, 65, 268, 96
-0.997797, 49, 257, 80, 500
-0.997797, 125, 277, 140, 308
-0.997803, 117, 141, 132, 172
-0.997803, 65, 273, 80, 304
-0.997807, 325, 225, 356, 480
-0.99781, 215, 37, 230, 68
-0.997811, 267, 81, 282, 112
-0.997813, 257, 129, 272, 160
-0.997816, 73, 389, 88, 420
-0.99782, 193, 153, 208, 184
-0.99782, 259, 37, 274, 68
-0.997829, 223, 297, 238, 328
-0.99783, 115, 73, 130, 104
-0.997835, 251, 17, 266, 48
-0.997835, 49, 37, 176, 68
-0.997839, 243, 25, 258, 56
-0.997841, 17, 345, 144, 376
-0.997846, 41, 325, 56, 356
-0.997846, 195, 125, 210, 156
-0.997847, 203, 49, 218, 80
-0.997854, 85, 193, 116, 448
-0.997856, 69, 285, 84, 316
-0.997857, 163, 93, 178, 124
-0.997864, 273, 93, 288, 124
-0.997865, 273, 177, 288, 208
-0.997866, 177, 277, 304, 308
-0.997873, 109, 277, 124, 308
-0.997873, 105, 145, 120, 176
-0.997874, 157, 41, 172, 72
-0.997877, 41, 301, 56, 332
-0.997878, 95, 133, 110, 164
-0.997883, 121, 1, 136, 32
-0.997884, 179, 81, 194, 112
-0.997888, 33, 9, 160, 40
-0.997889, 81, 97, 112, 352
-0.997894, 325, 97, 340, 128
-0.997894, 221, 181, 236, 212
-0.997896, 327, 161, 342, 192
-0.997901, 213, 49, 228, 80
-0.997903, 333, 173, 348, 204
-0.997903, 1, 97, 128, 128
-0.997904, 105, 65, 120, 96
-0.997905, 177, 345, 304, 376
-0.997907, 71, 265, 86, 296
-0.997908, 161, 193, 192, 448
-0.997914, 97, 145, 112, 176
-0.997914, 183, 165, 198, 196
-0.997916, 137, 141, 152, 172
-0.997916, 265, 181, 280, 212
-0.997918, 249, 113, 264, 144
-0.997924, 59, 265, 74, 296
-0.997926, 303, 177, 318, 208
-0.997926, 211, 193, 226, 224
-0.997927, 227, 181, 242, 212
-0.997929, 105, 133, 120, 164
-0.99794, 159, 73, 174, 104
-0.997944, 167, 261, 182, 292
-0.997945, 267, 65, 282, 96
-0.997947, 123, 157, 138, 188
-0.997951, 141, 285, 156, 316
-0.997952, 127, 77, 142, 108
-0.997952, 99, 165, 114, 196
-0.997954, 33, 401, 288, 464
-0.997956, 271, 109, 286, 140
-0.997956, 17, 85, 144, 116
-0.997958, 159, 137, 174, 168
-0.997959, 113, 193, 144, 448
-0.997961, 1, 289, 128, 320
-0.99797, 101, 433, 116, 464
-0.997975, 131, 177, 146, 208
-0.997975, 221, 25, 236, 56
-0.997981, 223, 393, 238, 424
-0.997982, 37, 257, 68, 500
-0.997986, 139, 161, 154, 192
-0.997986, 285, 161, 316, 416
-0.997989, 101, 225, 132, 480
-0.997992, 101, 277, 116, 308
-0.997995, 119, 85, 134, 116
-0.997997, 215, 393, 230, 424
-0.998, 205, 61, 220, 92
-0.998001, 105, 161, 120, 192
-0.998004, 245, 125, 260, 156
-0.998008, 241, 305, 256, 336
-0.998009, 267, 33, 282, 64
-0.998011, 223, 37, 238, 68
-0.998013, 159, 301, 174, 332
-0.998017, 109, 185, 124, 216
-0.998017, 81, 285, 96, 316
-0.998019, 81, 397, 96, 428
-0.99802, 289, 197, 304, 228
-0.998021, 79, 409, 94, 440
-0.998035, 49, 369, 176, 400
-0.998037, 225, 65, 352, 96
-0.998053, 1, 397, 128, 428
-0.998072, 49, 405, 176, 436
-0.998099, 81, 13, 208, 44
-0.998116, 49, 161, 80, 416
-0.998119, 65, 193, 96, 448
-0.998136, 97, 425, 224, 488
-0.998136, 65, 217, 192, 248
-0.998139, 17, 329, 144, 360
-0.998141, 193, 261, 320, 292
-0.998195, 209, 309, 336, 340
-0.998203, 137, 257, 168, 500
-0.998217, 177, 393, 304, 424
-0.998219, 301, 193, 332, 448
-0.998232, 129, 393, 256, 424
-0.998245, 33, 381, 160, 412
-0.998254, 49, 229, 176, 260
-0.99827, 17, 317, 144, 348
-0.99828, 209, 357, 336, 388
-0.998295, 81, 253, 208, 284
-0.998314, 341, 257, 372, 500
-0.998341, 195, 17, 210, 144
-0.998353, 161, 1, 176, 128
-0.998353, 1, 1, 64, 256
-0.99837, 73, 1, 104, 256
-0.998371, 129, 345, 256, 408
-0.998408, 281, 197, 312, 212
-0.998409, 261, 33, 292, 48
-0.998409, 137, 127, 168, 142
-0.99841, 121, 81, 152, 96
-0.998411, 93, 159, 124, 174
-0.998412, 121, 281, 152, 296
-0.998412, 113, 305, 144, 320
-0.998412, 189, 169, 220, 184
-0.998413, 121, 93, 152, 108
-0.998413, 157, 89, 188, 104
-0.998414, 237, 179, 268, 194
-0.998417, 161, 127, 192, 142
-0.998417, 189, 83, 220, 98
-0.998417, 85, 1, 116, 256
-0.998418, 33, 277, 64, 292
-0.998418, 257, 123, 288, 138
-0.998418, 153, 257, 184, 272
-0.998419, 145, 179, 176, 194
-0.998419, 153, 13, 184, 28
-0.99842, 93, 171, 124, 186
-0.99842, 281, 125, 312, 140
-0.99842, 157, 179, 188, 194
-0.99842, 245, 139, 276, 154
-0.99842, 113, 273, 144, 288
-0.99842, 221, 307, 252, 322
-0.998421, 165, 191, 196, 206
-0.998421, 137, 45, 168, 60
-0.998421, 85, 289, 116, 304
-0.998423, 197, 143, 228, 158
-0.998424, 57, 267, 88, 282
-0.998424, 273, 189, 304, 204
-0.998424, 189, 109, 220, 124
-0.998425, 157, 275, 188, 290
-0.998425, 185, 189, 216, 204
-0.998425, 205, 49, 236, 64
-0.998426, 229, 31, 260, 46
-0.998427, 137, 7, 168, 22
-0.998427, 93, 135, 124, 150
-0.998427, 113, 85, 176, 100
-0.998428, 29, 319, 60, 334
-0.998428, 141, 77, 172, 92
-0.998428, 181, 33, 212, 48
-0.998431, 165, 133, 196, 148
-0.998431, 73, 409, 104, 424
-0.998432, 253, 181, 284, 196
-0.998432, 197, 191, 228, 206
-0.998432, 117, 299, 148, 314
-0.998433, 161, 329, 288, 360
-0.998434, 317, 99, 348, 114
-0.998434, 257, 135, 288, 150
-0.998435, 321, 171, 352, 186
-0.998435, 165, 105, 196, 120
-0.998437, 265, 129, 296, 144
-0.998437, 45, 277, 76, 292
-0.998437, 105, 279, 136, 294
-0.998437, 17, 281, 48, 296
-0.998437, 137, 151, 168, 166
-0.998437, 197, 1, 228, 16
-0.998439, 305, 159, 336, 174
-0.998439, 205, 33, 236, 48
-0.998445, 161, 51, 192, 66
-0.998445, 197, 41, 228, 56
-0.998445, 245, 123, 276, 138
-0.998446, 113, 1, 144, 16
-0.998446, 41, 321, 72, 336
-0.998447, 177, 105, 208, 120
-0.998448, 137, 173, 168, 188
-0.998448, 149, 287, 180, 302
-0.998448, 237, 307, 268, 322
-0.998448, 109, 89, 140, 104
-0.998448, 33, 21, 160, 52
-0.99845, 81, 427, 112, 442
-0.99845, 149, 151, 180, 166
-0.998451, 121, 311, 152, 326
-0.998452, 149, 59, 180, 74
-0.998453, 129, 287, 160, 302
-0.998454, 221, 183, 252, 198
-0.998455, 153, 89, 216, 104
-0.998456, 149, 185, 180, 200
-0.998459, 129, 87, 160, 102
-0.99846, 193, 127, 224, 142
-0.99846, 293, 193, 324, 208
-0.99846, 29, 299, 60, 314
-0.998461, 161, 39, 224, 54
-0.998463, 145, 279, 176, 294
-0.998463, 93, 141, 124, 156
-0.998464, 149, 51, 180, 66
-0.998465, 109, 175, 140, 190
-0.998465, 177, 133, 208, 148
-0.998466, 229, 37, 260, 52
-0.998466, 229, 285, 260, 300
-0.998466, 145, 145, 176, 160
-0.998466, 209, 41, 240, 56
-0.998469, 117, 151, 148, 166
-0.998469, 185, 141, 216, 156
-0.99847, 241, 35, 272, 50
-0.99847, 145, 137, 176, 152
-0.998472, 109, 289, 140, 304
-0.998472, 185, 163, 216, 178
-0.998473, 89, 185, 120, 200
-0.998474, 181, 127, 212, 142
-0.998475, 105, 159, 136, 174
-0.998478, 125, 169, 156, 184
-0.998479, 141, 83, 172, 98
-0.99848, 153, 145, 216, 160
-0.99848, 217, 181, 280, 196
-0.99848, 141, 167, 172, 182
-0.998481, 161, 281, 192, 296
-0.998482, 153, 303, 184, 318
-0.998483, 165, 143, 196, 158
-0.998484, 33, 305, 64, 320
-0.998484, 97, 79, 160, 94
-0.998484, 133, 281, 164, 296
-0.998485, 167, 1, 182, 128
-0.998485, 129, 91, 192, 106
-0.998487, 237, 131, 268, 146
-0.99849, 129, 145, 160, 160
-0.998494, 153, 295, 184, 310
-0.998494, 113, 141, 144, 156
-0.998496, 37, 311, 68, 326
-0.998498, 125, 273, 156, 288
-0.9985, 169, 171, 200, 186
-0.998501, 89, 85, 152, 100
-0.998504, 145, 185, 208, 200
-0.998506, 105, 141, 168, 156
-0.998506, 177, 151, 208, 166
-0.998506, 137, 83, 200, 98
-0.998508, 225, 37, 288, 52
-0.998509, 37, 129, 68, 384
-0.99851, 133, 293, 164, 308
-0.99851, 145, 167, 208, 182
-0.998511, 113, 1, 176, 16
-0.998512, 253, 1, 268, 128
-0.998513, 177, 179, 240, 194
-0.998513, 129, 301, 192, 316
-0.998514, 121, 175, 184, 190
-0.998514, 33, 321, 96, 336
-0.998515, 101, 149, 132, 164
-0.998516, 153, 1, 184, 16
-0.998516, 169, 1, 232, 16
-0.998519, 309, 105, 340, 120
-0.998521, 169, 181, 200, 196
-0.998522, 185, 39, 248, 54
-0.998523, 177, 143, 240, 158
-0.998527, 145, 151, 208, 166
-0.998527, 253, 129, 284, 144
-0.998528, 65, 417, 192, 448
-0.998529, 81, 189, 144, 204
-0.998531, 121, 151, 184, 166
-0.998532, 149, 45, 180, 60
-0.998532, 81, 151, 144, 166
-0.998533, 265, 109, 328, 124
-0.998534, 213, 395, 244, 410
-0.998535, 121, 97, 184, 112
-0.998536, 217, 131, 280, 146
-0.998537, 273, 195, 336, 210
-0.998537, 17, 197, 144, 228
-0.998539, 105, 167, 168, 182
-0.99854, 229, 291, 260, 306
-0.99854, 177, 163, 240, 178
-0.99854, 177, 189, 240, 204
-0.99854, 97, 91, 160, 106
-0.998546, 145, 173, 208, 188
-0.998547, 125, 305, 156, 320
-0.998548, 149, 173, 180, 188
-0.99855, 121, 11, 184, 26
-0.99855, 149, 309, 180, 324
-0.99855, 121, 311, 184, 326
-0.998551, 161, 49, 224, 64
-0.998554, 153, 11, 216, 26
-0.998554, 221, 301, 252, 316
-0.998555, 33, 315, 96, 330
-0.998555, 297, 177, 360, 192
-0.998555, 137, 43, 200, 58
-0.998556, 113, 273, 176, 288
-0.998557, 105, 159, 168, 174
-0.998558, 129, 77, 192, 92
-0.998558, 81, 121, 144, 136
-0.998558, 33, 267, 96, 282
-0.998559, 265, 187, 328, 202
-0.998559, 173, 193, 204, 448
-0.998559, 165, 41, 196, 56
-0.99856, 9, 281, 72, 296
-0.99856, 185, 39, 216, 54
-0.99856, 145, 179, 208, 194
-0.998562, 257, 177, 320, 192
-0.998562, 257, 125, 320, 140
-0.998562, 153, 135, 216, 150
-0.998564, 289, 109, 352, 124
-0.998566, 113, 289, 176, 304
-0.998568, 49, 357, 176, 388
-0.998569, 257, 79, 320, 94
-0.99857, 209, 45, 272, 60
-0.998572, 145, 161, 208, 176
-0.998572, 169, 95, 232, 110
-0.998572, 241, 131, 304, 146
-0.998573, 145, 127, 208, 142
-0.998574, 233, 13, 296, 28
-0.998574, 265, 103, 328, 118
-0.998574, 185, 13, 248, 28
-0.998576, 113, 281, 176, 296
-0.998576, 129, 141, 192, 156
-0.998576, 185, 125, 248, 140
-0.998577, 105, 305, 168, 320
-0.998577, 33, 277, 96, 292
-0.998578, 41, 287, 104, 302
-0.998578, 289, 169, 352, 184
-0.998579, 297, 183, 360, 198
-0.99858, 89, 289, 152, 304
-0.998581, 113, 131, 176, 146
-0.998581, 209, 125, 272, 140
-0.998582, 145, 21, 208, 36
-0.998584, 133, 313, 164, 328
-0.998584, 149, 225, 180, 480
-0.998584, 289, 115, 352, 130
-0.998585, 129, 295, 192, 310
-0.998585, 73, 279, 136, 294
-0.998585, 33, 331, 96, 346
-0.998586, 81, 143, 144, 158
-0.998587, 241, 47, 304, 62
-0.998588, 137, 299, 168, 314
-0.998589, 177, 169, 240, 184
-0.99859, 73, 91, 136, 106
-0.99859, 185, 31, 248, 46
-0.998591, 185, 275, 248, 290
-0.998591, 217, 301, 280, 316
-0.998592, 137, 71, 200, 86
-0.998593, 153, 103, 216, 118
-0.998595, 241, 85, 304, 100
-0.998596, 97, 175, 160, 190
-0.998596, 193, 151, 256, 166
-0.998598, 153, 77, 216, 92
-0.9986, 153, 303, 216, 318
-0.998602, 233, 137, 296, 152
-0.998603, 49, 415, 112, 430
-0.998603, 145, 5, 208, 20
-0.998603, 121, 181, 184, 196
-0.998604, 177, 87, 240, 102
-0.998605, 241, 109, 304, 124
-0.998606, 177, 303, 240, 318
-0.998606, 257, 61, 320, 76
-0.998606, 65, 289, 128, 304
-0.998607, 57, 269, 120, 284
-0.998607, 169, 115, 232, 130
-0.998607, 169, 153, 232, 168
-0.998608, 249, 35, 312, 50
-0.998608, 201, 19, 264, 34
-0.998608, 97, 73, 160, 88
-0.998608, 209, 9, 272, 24
-0.998609, 209, 53, 272, 68
-0.99861, 81, 107, 144, 122
-0.99861, 137, 109, 200, 124
-0.998611, 177, 55, 240, 70
-0.998612, 81, 157, 144, 172
-0.998612, 129, 51, 192, 66
-0.998612, 257, 73, 320, 88
-0.998614, 81, 271, 144, 286
-0.998614, 145, 309, 208, 324
-0.998615, 185, 263, 248, 278
-0.998615, 241, 53, 304, 68
-0.998616, 169, 61, 232, 76
-0.998616, 113, 17, 176, 32
-0.998616, 273, 131, 336, 146
-0.998617, 289, 161, 352, 176
-0.998617, 225, 257, 256, 500
-0.998618, 233, 115, 296, 130
-0.998618, 65, 169, 128, 184
-0.998618, 177, 81, 240, 96
-0.998619, 177, 201, 240, 216
-0.998619, 73, 79, 136, 94
-0.99862, 137, 57, 200, 72
-0.998635, 51, 257, 66, 384
-0.99864, 137, 305, 168, 320
-0.998647, 21, 97, 52, 352
-0.998652, 183, 33, 198, 160
-0.998657, 1, 241, 128, 272
-0.998661, 65, 393, 192, 424
-0.998675, 329, 33, 360, 288
-0.998682, 177, 229, 304, 260
-0.998694, 205, 49, 220, 176
-0.998714, 265, 1, 280, 128
-0.998716, 65, 341, 192, 372
-0.998727, 97, 393, 224, 456
-0.998739, 155, 1, 170, 128
-0.998764, 259, 33, 274, 160
-0.99877, 313, 1, 344, 256
-0.998773, 149, 33, 164, 160
-0.998776, 33, 453, 160, 484
-0.998779, 205, 1, 220, 128
-0.998786, 211, 49, 226, 176
-0.998786, 161, 49, 176, 176
-0.99879, 129, 1, 144, 128
-0.998798, 253, 193, 284, 448
-0.998798, 173, 33, 188, 160
-0.998798, 265, 193, 296, 448
-0.998822, 49, 65, 80, 320
-0.998822, 187, 81, 202, 208
-0.998837, 333, 129, 348, 256
-0.998841, 119, 1, 134, 128
-0.998842, 213, 257, 244, 500
-0.998846, 185, 193, 216, 448
-0.99885, 25, 225, 56, 480
-0.998872, 97, 329, 224, 360
-0.998876, 167, 49, 182, 176
-0.998892, 113, 81, 128, 208
-0.998892, 59, 241, 74, 368
-0.998896, 275, 1, 290, 128
-0.998897, 45, 241, 60, 368
-0.998899, 105, 97, 120, 224
-0.998909, 217, 49, 232, 176
-0.998914, 195, 81, 210, 208
-0.998915, 219, 1, 234, 128
-0.998926, 121, 81, 136, 208
-0.998927, 125, 257, 156, 500
-0.998927, 225, 161, 240, 288
-0.998929, 271, 97, 286, 224
-0.998934, 39, 257, 54, 384
-0.998942, 129, 345, 375, 408
-0.998947, 73, 241, 88, 368
-0.998948, 17, 433, 144, 464
-0.998956, 241, 417, 368, 480
-0.998963, 101, 273, 116, 400
-0.998968, 33, 425, 288, 488
-0.99897, 227, 17, 242, 144
-0.998971, 113, 129, 128, 256
-0.998974, 175, 97, 190, 224
-0.998979, 113, 273, 128, 400
-0.998982, 139, 1, 154, 128
-0.998983, 155, 49, 170, 176
-0.998984, 223, 225, 238, 352
-0.998994, 167, 97, 182, 224
-0.999005, 67, 241, 82, 368
-0.999005, 49, 469, 176, 500
-0.999005, 149, 241, 164, 368
-0.999011, 181, 113, 196, 240
-0.999018, 353, 289, 368, 416
-0.999022, 159, 241, 174, 368
-0.999039, 305, 145, 320, 272
-0.999042, 121, 129, 136, 256
-0.999044, 217, 193, 232, 320
-0.999058, 337, 161, 368, 416
-0.99906, 99, 193, 114, 320
-0.999061, 247, 17, 262, 144
-0.999061, 253, 49, 268, 176
-0.999071, 107, 161, 122, 288
-0.999077, 51, 209, 66, 336
-0.999078, 121, 273, 136, 400
-0.999088, 59, 193, 74, 320
-0.999095, 227, 97, 242, 224
-0.999099, 301, 97, 316, 224
-0.999104, 337, 257, 352, 384
-0.999105, 333, 81, 348, 208
-0.999105, 127, 273, 142, 400
-0.999106, 69, 289, 84, 416
-0.999106, 69, 97, 100, 352
-0.999106, 279, 113, 294, 240
-0.999106, 247, 65, 262, 192
-0.999109, 173, 177, 188, 304
-0.999111, 161, 97, 176, 224
-0.999112, 219, 97, 234, 224
-0.999112, 273, 145, 288, 272
-0.999113, 69, 353, 84, 480
-0.999113, 359, 289, 374, 416
-0.999113, 259, 113, 274, 240
-0.999114, 189, 17, 204, 144
-0.999119, 267, 49, 282, 176
-0.999119, 151, 161, 166, 288
-0.99912, 311, 97, 326, 224
-0.99913, 99, 113, 114, 240
-0.999134, 79, 241, 94, 368
-0.999135, 129, 81, 144, 208
-0.999136, 345, 289, 360, 416
-0.999141, 253, 113, 268, 240
-0.999143, 327, 161, 342, 288
-0.999147, 291, 129, 306, 256
-0.99915, 169, 353, 232, 480
-0.999157, 165, 161, 180, 288
-0.999163, 143, 49, 158, 176
-0.999164, 209, 381, 336, 412
-0.999166, 85, 273, 100, 400
-0.999166, 1, 57, 128, 88
-0.999168, 183, 161, 198, 288
-0.999171, 273, 49, 288, 176
-0.999173, 63, 353, 78, 480
-0.999178, 321, 145, 336, 272
-0.999184, 113, 33, 128, 160
-0.999187, 167, 225, 182, 352
-0.99919, 213, 1, 228, 128
-0.999196, 79, 353, 94, 480
-0.999203, 201, 97, 216, 224
-0.999203, 213, 129, 228, 256
-0.999208, 63, 289, 78, 416
-0.999211, 107, 273, 122, 400
-0.999213, 33, 33, 64, 288
-0.999213, 327, 81, 342, 208
-0.999213, 93, 273, 108, 400
-0.999214, 107, 49, 122, 176
-0.999215, 237, 97, 252, 224
-0.999217, 93, 209, 108, 336
-0.999219, 139, 241, 154, 368
-0.999223, 153, 97, 168, 224
-0.999225, 157, 177, 172, 304
-0.999228, 281, 49, 296, 176
-0.999231, 77, 193, 92, 320
-0.999246, 1, 369, 375, 432
-0.999247, 231, 161, 246, 288
-0.99925, 313, 225, 344, 480
-0.99925, 317, 97, 332, 224
-0.999252, 299, 161, 314, 288
-0.999252, 263, 161, 278, 288
-0.999253, 281, 1, 296, 128
-0.999253, 89, 353, 104, 480
-0.999256, 265, 97, 280, 224
-0.999256, 331, 225, 346, 352
-0.999258, 115, 225, 130, 352
-0.99926, 45, 321, 60, 448
-0.999265, 45, 193, 60, 320
-0.999266, 85, 209, 100, 336
-0.999272, 121, 225, 136, 352
-0.999272, 133, 257, 148, 384
-0.999281, 131, 129, 146, 256
-0.999295, 293, 1, 324, 256
-0.999296, 333, 177, 348, 304
-0.999297, 91, 129, 106, 256
-0.9993, 105, 225, 120, 352
-0.999302, 241, 17, 256, 144
-0.999307, 189, 145, 204, 272
-0.999311, 99, 65, 114, 192
-0.99932, 145, 129, 160, 256
-0.999341, 237, 193, 268, 448
-0.999404, 197, 193, 228, 448
-0.999461, 61, 1, 92, 256
-0.999521, 1, 393, 375, 456
-0.999524, 341, 1, 372, 256
-0.999615, 157, 289, 172, 304
-0.999616, 159, 13, 174, 28
-0.999616, 171, 277, 186, 292
-0.999616, 271, 93, 286, 108
-0.999616, 305, 193, 320, 208
-0.999617, 211, 191, 226, 206
-0.999617, 227, 183, 242, 198
-0.999618, 103, 169, 118, 184
-0.999618, 145, 175, 160, 190
-0.999618, 235, 307, 250, 322
-0.999621, 97, 145, 112, 160
-0.999621, 221, 303, 236, 318
-0.999621, 195, 45, 210, 60
-0.999621, 139, 175, 154, 190
-0.999622, 197, 141, 212, 156
-0.999622, 221, 185, 236, 200
-0.999622, 187, 91, 202, 106
-0.999624, 63, 373, 78, 388
-0.999624, 89, 419, 104, 434
-0.999624, 245, 291, 260, 306
-0.999625, 253, 65, 268, 80
-0.999625, 231, 37, 246, 52
-0.999625, 139, 273, 154, 288
-0.999625, 121, 143, 136, 158
-0.999627, 289, 199, 304, 214
-0.999628, 215, 45, 230, 60
-0.999628, 173, 99, 188, 114
-0.999628, 129, 85, 144, 100
-0.999629, 103, 151, 118, 166
-0.999629, 145, 313, 160, 328
-0.999629, 267, 101, 282, 116
-0.999629, 141, 87, 156, 102
-0.999629, 253, 77, 268, 92
-0.99963, 77, 399, 92, 414
-0.99963, 133, 309, 148, 324
-0.99963, 255, 133, 270, 148
-0.999631, 267, 81, 282, 96
-0.999631, 203, 57, 218, 72
-0.999632, 135, 139, 150, 154
-0.999632, 247, 131, 262, 146
-0.999635, 119, 85, 134, 100
-0.999636, 191, 167, 206, 182
-0.999636, 103, 439, 118, 454
-0.999636, 197, 97, 212, 112
-0.999636, 253, 59, 268, 74
-0.999636, 143, 145, 158, 160
-0.999637, 121, 1, 136, 16
-0.999637, 43, 333, 58, 348
-0.999637, 163, 313, 178, 328
-0.999637, 149, 281, 164, 296
-0.999638, 157, 143, 172, 158
-0.999638, 127, 287, 142, 302
-0.999639, 71, 393, 86, 408
-0.999639, 117, 79, 132, 94
-0.999639, 259, 125, 274, 140
-0.99964, 165, 43, 180, 58
-0.999642, 151, 141, 166, 156
-0.999642, 155, 149, 170, 164
-0.999643, 25, 303, 40, 318
-0.999644, 223, 255, 238, 270
-0.999644, 113, 143, 128, 158
-0.999644, 121, 463, 136, 478
-0.999644, 161, 57, 176, 72
-0.999645, 15, 289, 30, 304
-0.999645, 141, 279, 156, 294
-0.999647, 239, 301, 254, 316
-0.999647, 157, 173, 172, 188
-0.999647, 301, 187, 316, 202
-0.999647, 179, 39, 194, 54
-0.999648, 149, 153, 164, 168
-0.999649, 29, 309, 44, 324
-0.99965, 163, 175, 178, 190
-0.99965, 259, 37, 274, 52
-0.99965, 203, 49, 218, 64
-0.99965, 97, 431, 112, 446
-0.999651, 21, 297, 36, 312
-0.999651, 151, 171, 166, 186
-0.999651, 167, 99, 182, 114
-0.999652, 197, 103, 212, 118
-0.999653, 39, 309, 54, 324
-0.999655, 225, 39, 240, 54
-0.999656, 129, 393, 375, 456
-0.999656, 171, 41, 186, 56
-0.999656, 83, 415, 98, 430
-0.999657, 159, 279, 174, 294
-0.999657, 245, 37, 260, 52
-0.999658, 41, 327, 56, 342
-0.999658, 157, 311, 172, 326
-0.999659, 107, 81, 122, 96
-0.99966, 237, 35, 252, 50
-0.999661, 91, 413, 106, 428
-0.999662, 81, 405, 96, 420
-0.999665, 139, 311, 154, 326
-0.999668, 179, 87, 194, 102
-0.999668, 109, 173, 124, 188
-0.999671, 45, 321, 60, 336
-0.999671, 183, 169, 198, 184
-0.999674, 187, 141, 202, 156
-0.999677, 131, 295, 146, 310
-0.999677, 253, 53, 268, 68
-0.99968, 187, 151, 202, 166
-0.999681, 105, 145, 120, 160
-0.999681, 253, 127, 268, 142
-0.999682, 173, 105, 188, 120
-0.999684, 113, 151, 128, 166
-0.999684, 151, 289, 166, 304
-0.999684, 161, 51, 176, 66
-0.999684, 99, 179, 114, 194
-0.999685, 123, 153, 138, 168
-0.999686, 325, 99, 340, 114
-0.999686, 175, 93, 190, 108
-0.99969, 169, 93, 184, 108
-0.999692, 265, 127, 280, 142
-0.999693, 253, 43, 268, 58
-0.999695, 161, 149, 176, 164
-0.9997, 189, 161, 204, 176
-0.9997, 163, 181, 178, 196
-0.999702, 157, 303, 172, 318
-0.999704, 207, 41, 222, 56
-0.999704, 145, 303, 160, 318
-0.999708, 145, 297, 160, 312
-0.999708, 253, 37, 268, 52
-0.999709, 155, 295, 170, 310
-0.999709, 129, 301, 144, 316
-0.999711, 39, 319, 54, 334
-0.999711, 157, 45, 172, 60
-0.999712, 195, 39, 210, 54
-0.999716, 91, 425, 106, 440
-0.999747, 9, 65, 40, 320
-0.999768, 151, 301, 166, 316
-0.999788, 151, 309, 166, 324
-0.999791, 139, 305, 154, 320
-0.999824, 1, 321, 64, 448
-0.999829, 113, 369, 176, 496
-0.99996, 193, 409, 320, 472
-1.00007, 1, 193, 32, 448
-1.00018, 13, 193, 44, 448
-1.00036, 281, 257, 312, 500
-1.00044, 129, 369, 375, 432
-1.00047, 1, 425, 375, 488
-1.00054, 21, 1, 52, 256
-1.00069, 161, 433, 288, 496
-1.00089, 129, 417, 375, 480
-1.00099, 273, 257, 336, 384
-1.00128, 241, 385, 368, 448
-1.00142, 273, 257, 336, 500
-1.00324, 305, 353, 368, 480
-1.00376, 257, 209, 320, 336
-1.00518, 241, 369, 368, 496
-1.00656, 145, 337, 208, 464
